<?xml version="1.0" encoding="utf-8"  standalone="no"?>
<svg 
 viewBox="0 0 1280 720"
 xmlns="http://www.w3.org/2000/svg"
 xmlns:xlink="http://www.w3.org/1999/xlink"
>

<title>Gnuplot</title>
<desc>Produced by GNUPLOT 5.2 patchlevel 6 </desc>

<g id="gnuplot_canvas">

<rect x="0" y="0" width="1280" height="720" fill="none"/>
<defs>

	<circle id='gpDot' r='0.5' stroke-width='0.5' stroke='currentColor'/>
	<path id='gpPt0' stroke-width='0.222' stroke='currentColor' d='M-1,0 h2 M0,-1 v2'/>
	<path id='gpPt1' stroke-width='0.222' stroke='currentColor' d='M-1,-1 L1,1 M1,-1 L-1,1'/>
	<path id='gpPt2' stroke-width='0.222' stroke='currentColor' d='M-1,0 L1,0 M0,-1 L0,1 M-1,-1 L1,1 M-1,1 L1,-1'/>
	<rect id='gpPt3' stroke-width='0.222' stroke='currentColor' x='-1' y='-1' width='2' height='2'/>
	<rect id='gpPt4' stroke-width='0.222' stroke='currentColor' fill='currentColor' x='-1' y='-1' width='2' height='2'/>
	<circle id='gpPt5' stroke-width='0.222' stroke='currentColor' cx='0' cy='0' r='1'/>
	<use xlink:href='#gpPt5' id='gpPt6' fill='currentColor' stroke='none'/>
	<path id='gpPt7' stroke-width='0.222' stroke='currentColor' d='M0,-1.33 L-1.33,0.67 L1.33,0.67 z'/>
	<use xlink:href='#gpPt7' id='gpPt8' fill='currentColor' stroke='none'/>
	<use xlink:href='#gpPt7' id='gpPt9' stroke='currentColor' transform='rotate(180)'/>
	<use xlink:href='#gpPt9' id='gpPt10' fill='currentColor' stroke='none'/>
	<use xlink:href='#gpPt3' id='gpPt11' stroke='currentColor' transform='rotate(45)'/>
	<use xlink:href='#gpPt11' id='gpPt12' fill='currentColor' stroke='none'/>
	<path id='gpPt13' stroke-width='0.222' stroke='currentColor' d='M0,1.330 L1.265,0.411 L0.782,-1.067 L-0.782,-1.076 L-1.265,0.411 z'/>
	<use xlink:href='#gpPt13' id='gpPt14' fill='currentColor' stroke='none'/>
	<filter id='textbox' filterUnits='objectBoundingBox' x='0' y='0' height='1' width='1'>
	  <feFlood flood-color='white' flood-opacity='1' result='bgnd'/>
	  <feComposite in='SourceGraphic' in2='bgnd' operator='atop'/>
	</filter>
	<filter id='greybox' filterUnits='objectBoundingBox' x='0' y='0' height='1' width='1'>
	  <feFlood flood-color='lightgrey' flood-opacity='1' result='grey'/>
	  <feComposite in='SourceGraphic' in2='grey' operator='atop'/>
	</filter>
</defs>
<g fill="none" color="white" stroke="currentColor" stroke-width="1.00" stroke-linecap="butt" stroke-linejoin="miter">
</g>
<g fill="none" color="black" stroke="currentColor" stroke-width="1.00" stroke-linecap="butt" stroke-linejoin="miter">
	<path stroke='black'  d='M80.2,662.4 L89.2,662.4  '/>	<g transform="translate(71.9,666.3)" stroke="none" fill="black" font-family="Helvetica" font-size="12.00"  text-anchor="end">
		<text><tspan font-family="Helvetica" > 0</tspan></text>
	</g>
</g>
<g fill="none" color="black" stroke="currentColor" stroke-width="1.00" stroke-linecap="butt" stroke-linejoin="miter">
	<path stroke='black'  d='M80.2,561.0 L89.2,561.0  '/>	<g transform="translate(71.9,564.9)" stroke="none" fill="black" font-family="Helvetica" font-size="12.00"  text-anchor="end">
		<text><tspan font-family="Helvetica" > 200</tspan></text>
	</g>
</g>
<g fill="none" color="black" stroke="currentColor" stroke-width="1.00" stroke-linecap="butt" stroke-linejoin="miter">
	<path stroke='black'  d='M80.2,459.6 L89.2,459.6  '/>	<g transform="translate(71.9,463.5)" stroke="none" fill="black" font-family="Helvetica" font-size="12.00"  text-anchor="end">
		<text><tspan font-family="Helvetica" > 400</tspan></text>
	</g>
</g>
<g fill="none" color="black" stroke="currentColor" stroke-width="1.00" stroke-linecap="butt" stroke-linejoin="miter">
	<path stroke='black'  d='M80.2,358.2 L89.2,358.2  '/>	<g transform="translate(71.9,362.1)" stroke="none" fill="black" font-family="Helvetica" font-size="12.00"  text-anchor="end">
		<text><tspan font-family="Helvetica" > 600</tspan></text>
	</g>
</g>
<g fill="none" color="black" stroke="currentColor" stroke-width="1.00" stroke-linecap="butt" stroke-linejoin="miter">
	<path stroke='black'  d='M80.2,256.9 L89.2,256.9  '/>	<g transform="translate(71.9,260.8)" stroke="none" fill="black" font-family="Helvetica" font-size="12.00"  text-anchor="end">
		<text><tspan font-family="Helvetica" > 800</tspan></text>
	</g>
</g>
<g fill="none" color="black" stroke="currentColor" stroke-width="1.00" stroke-linecap="butt" stroke-linejoin="miter">
	<path stroke='black'  d='M80.2,155.5 L89.2,155.5  '/>	<g transform="translate(71.9,159.4)" stroke="none" fill="black" font-family="Helvetica" font-size="12.00"  text-anchor="end">
		<text><tspan font-family="Helvetica" > 1000</tspan></text>
	</g>
</g>
<g fill="none" color="black" stroke="currentColor" stroke-width="1.00" stroke-linecap="butt" stroke-linejoin="miter">
	<path stroke='black'  d='M80.2,54.1 L89.2,54.1  '/>	<g transform="translate(71.9,58.0)" stroke="none" fill="black" font-family="Helvetica" font-size="12.00"  text-anchor="end">
		<text><tspan font-family="Helvetica" > 1200</tspan></text>
	</g>
</g>
<g fill="none" color="black" stroke="currentColor" stroke-width="1.00" stroke-linecap="butt" stroke-linejoin="miter">
	<path stroke='black'  d='M187.4,662.4 L187.4,653.4  '/>	<g transform="translate(187.4,684.3)" stroke="none" fill="black" font-family="Helvetica" font-size="12.00"  text-anchor="middle">
		<text><tspan font-family="Helvetica" > 1.1</tspan></text>
	</g>
</g>
<g fill="none" color="black" stroke="currentColor" stroke-width="1.00" stroke-linecap="butt" stroke-linejoin="miter">
	<path stroke='black'  d='M379.6,662.4 L379.6,653.4  '/>	<g transform="translate(379.6,684.3)" stroke="none" fill="black" font-family="Helvetica" font-size="12.00"  text-anchor="middle">
		<text><tspan font-family="Helvetica" > 1.15</tspan></text>
	</g>
</g>
<g fill="none" color="black" stroke="currentColor" stroke-width="1.00" stroke-linecap="butt" stroke-linejoin="miter">
	<path stroke='black'  d='M571.8,662.4 L571.8,653.4  '/>	<g transform="translate(571.8,684.3)" stroke="none" fill="black" font-family="Helvetica" font-size="12.00"  text-anchor="middle">
		<text><tspan font-family="Helvetica" > 1.2</tspan></text>
	</g>
</g>
<g fill="none" color="black" stroke="currentColor" stroke-width="1.00" stroke-linecap="butt" stroke-linejoin="miter">
	<path stroke='black'  d='M764.0,662.4 L764.0,653.4  '/>	<g transform="translate(764.0,684.3)" stroke="none" fill="black" font-family="Helvetica" font-size="12.00"  text-anchor="middle">
		<text><tspan font-family="Helvetica" > 1.25</tspan></text>
	</g>
</g>
<g fill="none" color="black" stroke="currentColor" stroke-width="1.00" stroke-linecap="butt" stroke-linejoin="miter">
	<path stroke='black'  d='M956.2,662.4 L956.2,653.4  '/>	<g transform="translate(956.2,684.3)" stroke="none" fill="black" font-family="Helvetica" font-size="12.00"  text-anchor="middle">
		<text><tspan font-family="Helvetica" > 1.3</tspan></text>
	</g>
</g>
<g fill="none" color="black" stroke="currentColor" stroke-width="1.00" stroke-linecap="butt" stroke-linejoin="miter">
</g>
<g fill="none" color="black" stroke="currentColor" stroke-width="1.00" stroke-linecap="butt" stroke-linejoin="miter">
	<path stroke='black'  d='M80.2,54.1 L80.2,662.4 L1013.6,662.4 L1013.6,54.1 L80.2,54.1 Z  '/></g>
<g fill="none" color="black" stroke="currentColor" stroke-width="1.00" stroke-linecap="butt" stroke-linejoin="miter">
	<g transform="translate(16.3,358.3) rotate(270)" stroke="none" fill="black" font-family="Helvetica" font-size="12.00"  text-anchor="middle">
		<text><tspan font-family="Helvetica" >Density (a.u.)</tspan></text>
	</g>
</g>
<g fill="none" color="black" stroke="currentColor" stroke-width="1.00" stroke-linecap="butt" stroke-linejoin="miter">
	<g transform="translate(546.9,711.3)" stroke="none" fill="black" font-family="Helvetica" font-size="12.00"  text-anchor="middle">
		<text><tspan font-family="Helvetica" >Relative change (%)</tspan></text>
	</g>
</g>
<g fill="none" color="black" stroke="currentColor" stroke-width="1.00" stroke-linecap="butt" stroke-linejoin="miter">
	<g transform="translate(546.9,31.0)" stroke="none" fill="black" font-family="Helvetica" font-size="12.00"  text-anchor="middle">
		<text><tspan font-family="Helvetica" >snapshot_restore_with_dense/Dense: Entire region + process_vm_writev w/ page size/1: median</tspan></text>
	</g>
</g>
	<g id="gnuplot_plot_1" ><title>Bootstrap distribution</title>
<g fill="none" color="white" stroke="black" stroke-width="2.00" stroke-linecap="butt" stroke-linejoin="miter">
</g>
<g fill="none" color="black" stroke="currentColor" stroke-width="2.00" stroke-linecap="butt" stroke-linejoin="miter">
	<g transform="translate(1089.0,67.0)" stroke="none" fill="black" font-family="Helvetica" font-size="12.00"  text-anchor="start">
		<text><tspan font-family="Helvetica" >Bootstrap distribution</tspan></text>
	</g>
</g>
<g fill="none" color="black" stroke="currentColor" stroke-width="2.00" stroke-linecap="butt" stroke-linejoin="miter">
	<path stroke='rgb( 31, 120, 180)'  d='M1038.5,63.1 L1080.7,63.1 M80.2,641.6 L82.1,641.5 L83.9,641.5 L85.8,641.4 L87.7,641.4 L89.6,641.3
		L91.4,641.3 L93.3,641.2 L95.2,641.2 L97.0,641.1 L98.9,641.1 L100.8,641.1 L102.6,641.1 L104.5,641.2
		L106.4,641.2 L108.3,641.3 L110.1,641.3 L112.0,641.5 L113.9,641.6 L115.7,641.7 L117.6,641.8 L119.5,642.0
		L121.4,642.1 L123.2,642.3 L125.1,642.4 L127.0,642.6 L128.8,642.7 L130.7,642.8 L132.6,642.9 L134.4,642.9
		L136.3,643.0 L138.2,643.0 L140.1,642.9 L141.9,642.9 L143.8,642.8 L145.7,642.7 L147.5,642.6 L149.4,642.4
		L151.3,642.2 L153.2,642.1 L155.0,641.9 L156.9,641.7 L158.8,641.6 L160.6,641.4 L162.5,641.3 L164.4,641.2
		L166.2,641.1 L168.1,641.0 L170.0,640.9 L171.9,640.9 L173.7,640.8 L175.6,640.8 L177.5,640.7 L179.3,640.6
		L181.2,640.5 L183.1,640.4 L185.0,640.2 L186.8,640.0 L188.7,639.7 L190.6,639.4 L192.4,639.0 L194.3,638.5
		L196.2,638.0 L198.0,637.4 L199.9,636.8 L201.8,636.1 L203.7,635.4 L205.5,634.7 L207.4,633.9 L209.3,633.2
		L211.1,632.5 L213.0,631.7 L214.9,631.0 L216.7,630.4 L218.6,629.7 L220.5,629.2 L222.4,628.6 L224.2,628.1
		L226.1,627.7 L228.0,627.3 L229.8,626.9 L231.7,626.6 L233.6,626.3 L235.5,626.0 L237.3,625.8 L239.2,625.5
		L241.1,625.3 L242.9,625.0 L244.8,624.7 L246.7,624.5 L248.5,624.2 L250.4,623.8 L252.3,623.5 L254.2,623.1
		L256.0,622.8 L257.9,622.4 L259.8,622.0 L261.6,621.6 L263.5,621.1 L265.4,620.7 L267.3,620.3 L269.1,619.9
		L271.0,619.5 L272.9,619.2 L274.7,618.8 L276.6,618.5 L278.5,618.1 L280.3,617.8 L282.2,617.5 L284.1,617.1
		L286.0,616.8 L287.8,616.4 L289.7,616.0 L291.6,615.5 L293.4,614.9 L295.3,614.2 L297.2,613.4 L299.1,612.4
		L300.9,611.2 L302.8,609.8 L304.7,608.2 L306.5,606.4 L308.4,604.4 L310.3,602.1 L312.1,599.5 L314.0,596.7
		L315.9,593.7 L317.8,590.4 L319.6,586.9 L321.5,583.3 L323.4,579.5 L325.2,575.6 L327.1,571.6 L329.0,567.6
		L330.9,563.6 L332.7,559.6 L334.6,555.7 L336.5,551.9 L338.3,548.2 L340.2,544.6 L342.1,541.3 L343.9,538.0
		L345.8,535.0 L347.7,532.1 L349.6,529.4 L351.4,526.8 L353.3,524.3 L355.2,521.9 L357.0,519.5 L358.9,517.2
		L360.8,515.0 L362.7,512.7 L364.5,510.4 L366.4,508.1 L368.3,505.7 L370.1,503.3 L372.0,500.8 L373.9,498.3
		L375.7,495.8 L377.6,493.2 L379.5,490.7 L381.4,488.1 L383.2,485.6 L385.1,483.2 L387.0,480.8 L388.8,478.5
		L390.7,476.3 L392.6,474.3 L394.5,472.4 L396.3,470.7 L398.2,469.1 L400.1,467.8 L401.9,466.6 L403.8,465.7
		L405.7,465.0 L407.5,464.4 L409.4,464.1 L411.3,464.0 L413.2,464.1 L415.0,464.3 L416.9,464.8 L418.8,465.4
		L420.6,466.1 L422.5,466.9 L424.4,467.8 L426.3,468.8 L428.1,469.7 L430.0,470.7 L431.9,471.7 L433.7,472.6
		L435.6,473.4 L437.5,474.1 L439.3,474.7 L441.2,475.2 L443.1,475.5 L445.0,475.7 L446.8,475.7 L448.7,475.5
		L450.6,475.2 L452.4,474.7 L454.3,474.0 L456.2,473.2 L458.0,472.3 L459.9,471.3 L461.8,470.1 L463.7,468.8
		L465.5,467.4 L467.4,465.9 L469.3,464.3 L471.1,462.6 L473.0,460.8 L474.9,458.9 L476.8,456.9 L478.6,454.8
		L480.5,452.6 L482.4,450.3 L484.2,448.0 L486.1,445.5 L488.0,443.0 L489.8,440.4 L491.7,437.8 L493.6,435.2
		L495.5,432.6 L497.3,429.9 L499.2,427.3 L501.1,424.8 L502.9,422.3 L504.8,419.9 L506.7,417.6 L508.6,415.3
		L510.4,413.2 L512.3,411.1 L514.2,409.2 L516.0,407.2 L517.9,405.4 L519.8,403.5 L521.6,401.7 L523.5,399.8
		L525.4,397.9 L527.3,395.8 L529.1,393.6 L531.0,391.2 L532.9,388.6 L534.7,385.9 L536.6,382.8 L538.5,379.6
		L540.4,376.0 L542.2,372.2 L544.1,368.1 L546.0,363.8 L547.8,359.3 L549.7,354.5 L551.6,349.6 L553.4,344.5
		L555.3,339.2 L557.2,333.9 L559.1,328.6 L560.9,323.2 L562.8,317.8 L564.7,312.6 L566.5,307.4 L568.4,302.3
		L570.3,297.4 L572.2,292.7 L574.0,288.2 L575.9,283.9 L577.8,279.8 L579.6,275.9 L581.5,272.3 L583.4,268.8
		L585.2,265.5 L587.1,262.3 L589.0,259.4 L590.9,256.5 L592.7,253.7 L594.6,251.0 L596.5,248.3 L598.3,245.6
		L600.2,243.0 L602.1,240.4 L604.0,237.7 L605.8,235.1 L607.7,232.4 L609.6,229.8 L611.4,227.2 L613.3,224.6
		L615.2,222.0 L617.0,219.5 L618.9,217.1 L620.8,214.7 L622.7,212.4 L624.5,210.2 L626.4,208.1 L628.3,206.0
		L630.1,204.0 L632.0,202.1 L633.9,200.2 L635.8,198.3 L637.6,196.3 L639.5,194.3 L641.4,192.1 L643.2,189.9
		L645.1,187.5 L647.0,185.0 L648.8,182.3 L650.7,179.4 L652.6,176.3 L654.5,173.1 L656.3,169.8 L658.2,166.3
		L660.1,162.8 L661.9,159.3 L663.8,155.8 L665.7,152.4 L667.5,149.2 L669.4,146.2 L671.3,143.4 L673.2,140.9
		L675.0,138.7 L676.9,136.9 L678.8,135.5 L680.6,134.4 L682.5,133.7 L684.4,133.3 L686.3,133.3 L688.1,133.5
		L690.0,134.0 L691.9,134.6 L693.7,135.4 L695.6,136.3 L697.5,137.2 L699.3,138.2 L701.2,139.1 L703.1,139.9
		L705.0,140.7 L706.8,141.3 L708.7,141.9 L710.6,142.4 L712.4,142.7 L714.3,143.0 L716.2,143.3 L718.1,143.5
		L719.9,143.8 L721.8,144.1 L723.7,144.6 L725.5,145.3 L727.4,146.1 L729.3,147.3 L731.1,148.8 L733.0,150.7
		L734.9,153.1 L736.8,156.0 L738.6,159.4 L740.5,163.3 L742.4,167.9 L744.2,173.1 L746.1,178.9 L748.0,185.3
		L749.9,192.3 L751.7,199.8 L753.6,207.9 L755.5,216.4 L757.3,225.4 L759.2,234.6 L761.1,244.2 L762.9,253.8
		L764.8,263.6 L766.7,273.4 L768.6,283.2 L770.4,292.7 L772.3,302.1 L774.2,311.2 L776.0,320.0 L777.9,328.4
		L779.8,336.4 L781.7,344.0 L783.5,351.2 L785.4,357.8 L787.3,364.1 L789.1,369.9 L791.0,375.3 L792.9,380.2
		L794.7,384.8 L796.6,389.0 L798.5,392.9 L800.4,396.4 L802.2,399.6 L804.1,402.4 L806.0,405.0 L807.8,407.3
		L809.7,409.3 L811.6,411.0 L813.5,412.5 L815.3,413.7 L817.2,414.7 L819.1,415.5 L820.9,416.0 L822.8,416.4
		L824.7,416.6 L826.5,416.7 L828.4,416.8 L830.3,416.7 L832.2,416.7 L834.0,416.7 L835.9,416.8 L837.8,417.1
		L839.6,417.4 L841.5,418.0 L843.4,418.8 L845.3,419.9 L847.1,421.3 L849.0,423.0 L850.9,425.1 L852.7,427.5
		L854.6,430.2 L856.5,433.3 L858.3,436.7 L860.2,440.4 L862.1,444.5 L864.0,448.9 L865.8,453.5 L867.7,458.4
		L869.6,463.4 L871.4,468.7 L873.3,474.1 L875.2,479.7 L877.1,485.3 L878.9,490.9 L880.8,496.6 L882.7,502.3
		L884.5,507.9 L886.4,513.4 L888.3,518.8 L890.1,524.1 L892.0,529.3 L893.9,534.3 L895.8,539.1 L897.6,543.7
		L899.5,548.1 L901.4,552.4 L903.2,556.4 L905.1,560.2 L907.0,563.8 L908.8,567.2 L910.7,570.3 L912.6,573.3
		L914.5,576.1 L916.3,578.6 L918.2,581.0 L920.1,583.2 L921.9,585.2 L923.8,587.0 L925.7,588.7 L927.6,590.2
		L929.4,591.5 L931.3,592.8 L933.2,593.9 L935.0,594.9 L936.9,595.8 L938.8,596.7 L940.6,597.5 L942.5,598.2
		L944.4,599.0 L946.3,599.7 L948.1,600.5 L950.0,601.2 L951.9,602.1 L953.7,602.9 L955.6,603.8 L957.5,604.8
		L959.4,605.8 L961.2,606.9 L963.1,608.0 L965.0,609.2 L966.8,610.5 L968.7,611.7 L970.6,613.0 L972.4,614.4
		L974.3,615.7 L976.2,617.1 L978.1,618.4 L979.9,619.8 L981.8,621.1 L983.7,622.4 L985.5,623.7 L987.4,625.0
		L989.3,626.3 L991.2,627.5 L993.0,628.7 L994.9,629.9 L996.8,631.0 L998.6,632.1 L1000.5,633.2 L1002.4,634.2
		L1004.2,635.2 L1006.1,636.2 L1008.0,637.2 L1009.9,638.1 L1011.7,639.0 L1013.6,639.9  '/></g>
	</g>
	<g id="gnuplot_plot_2" ><title>Confidence interval</title>
<g fill="none" color="white" stroke="rgb( 31, 120, 180)" stroke-width="1.00" stroke-linecap="butt" stroke-linejoin="miter">
</g>
<g fill="none" color="black" stroke="currentColor" stroke-width="1.00" stroke-linecap="butt" stroke-linejoin="miter">
	<g transform="translate(1089.0,85.0)" stroke="none" fill="black" font-family="Helvetica" font-size="12.00"  text-anchor="start">
		<text><tspan font-family="Helvetica" >Confidence interval</tspan></text>
	</g>
</g>
<g fill="none" color="black" stroke="currentColor" stroke-width="1.00" stroke-linecap="butt" stroke-linejoin="miter">
	<g stroke='none' shape-rendering='crispEdges'>
		<polygon fill = 'rgb( 31, 120, 180)' fill-opacity = '0.250000' points = '1038.5,85.6 1080.7,85.6 1080.7,76.6 1038.5,76.6 '/>
		<polygon fill = 'rgb( 31, 120, 180)' fill-opacity = '0.250000' points = '166.2,641.1 168.1,641.0 170.0,640.9 171.9,640.9 173.7,640.8 175.6,640.8 177.5,640.7 179.3,640.6 181.2,640.5 183.1,640.4 185.0,640.2 186.8,640.0 188.7,639.7 190.6,639.4 192.4,639.0 194.3,638.5
196.2,638.0 198.0,637.4 199.9,636.8 201.8,636.1 203.7,635.4 205.5,634.7 207.4,633.9 209.3,633.2 211.1,632.5 213.0,631.7 214.9,631.0 216.7,630.4 218.6,629.7 220.5,629.2 222.4,628.6 224.2,628.1
226.1,627.7 228.0,627.3 229.8,626.9 231.7,626.6 233.6,626.3 235.5,626.0 237.3,625.8 239.2,625.5 241.1,625.3 242.9,625.0 244.8,624.7 246.7,624.5 248.5,624.2 250.4,623.8 252.3,623.5 254.2,623.1
256.0,622.8 257.9,622.4 259.8,622.0 261.6,621.6 263.5,621.1 265.4,620.7 267.3,620.3 269.1,619.9 271.0,619.5 272.9,619.2 274.7,618.8 276.6,618.5 278.5,618.1 280.3,617.8 282.2,617.5 284.1,617.1
286.0,616.8 287.8,616.4 289.7,616.0 291.6,615.5 293.4,614.9 295.3,614.2 297.2,613.4 299.1,612.4 300.9,611.2 302.8,609.8 304.7,608.2 306.5,606.4 308.4,604.4 310.3,602.1 312.1,599.5 314.0,596.7
315.9,593.7 317.8,590.4 319.6,586.9 321.5,583.3 323.4,579.5 325.2,575.6 327.1,571.6 329.0,567.6 330.9,563.6 332.7,559.6 334.6,555.7 336.5,551.9 338.3,548.2 340.2,544.6 342.1,541.3 343.9,538.0
345.8,535.0 347.7,532.1 349.6,529.4 351.4,526.8 353.3,524.3 355.2,521.9 357.0,519.5 358.9,517.2 360.8,515.0 362.7,512.7 364.5,510.4 366.4,508.1 368.3,505.7 370.1,503.3 372.0,500.8 373.9,498.3
375.7,495.8 377.6,493.2 379.5,490.7 381.4,488.1 383.2,485.6 385.1,483.2 387.0,480.8 388.8,478.5 390.7,476.3 392.6,474.3 394.5,472.4 396.3,470.7 398.2,469.1 400.1,467.8 401.9,466.6 403.8,465.7
405.7,465.0 407.5,464.4 409.4,464.1 411.3,464.0 413.2,464.1 415.0,464.3 416.9,464.8 418.8,465.4 420.6,466.1 422.5,466.9 424.4,467.8 426.3,468.8 428.1,469.7 430.0,470.7 431.9,471.7 433.7,472.6
435.6,473.4 437.5,474.1 439.3,474.7 441.2,475.2 443.1,475.5 445.0,475.7 446.8,475.7 448.7,475.5 450.6,475.2 452.4,474.7 454.3,474.0 456.2,473.2 458.0,472.3 459.9,471.3 461.8,470.1 463.7,468.8
465.5,467.4 467.4,465.9 469.3,464.3 471.1,462.6 473.0,460.8 474.9,458.9 476.8,456.9 478.6,454.8 480.5,452.6 482.4,450.3 484.2,448.0 486.1,445.5 488.0,443.0 489.8,440.4 491.7,437.8 493.6,435.2
495.5,432.6 497.3,429.9 499.2,427.3 501.1,424.8 502.9,422.3 504.8,419.9 506.7,417.6 508.6,415.3 510.4,413.2 512.3,411.1 514.2,409.2 516.0,407.2 517.9,405.4 519.8,403.5 521.6,401.7 523.5,399.8
525.4,397.9 527.3,395.8 529.1,393.6 531.0,391.2 532.9,388.6 534.7,385.9 536.6,382.8 538.5,379.6 540.4,376.0 542.2,372.2 544.1,368.1 546.0,363.8 547.8,359.3 549.7,354.5 551.6,349.6 553.4,344.5
555.3,339.2 557.2,333.9 559.1,328.6 560.9,323.2 562.8,317.8 564.7,312.6 566.5,307.4 568.4,302.3 570.3,297.4 572.2,292.7 574.0,288.2 575.9,283.9 577.8,279.8 579.6,275.9 581.5,272.3 583.4,268.8
585.2,265.5 587.1,262.3 589.0,259.4 590.9,256.5 592.7,253.7 594.6,251.0 596.5,248.3 598.3,245.6 600.2,243.0 602.1,240.4 604.0,237.7 605.8,235.1 607.7,232.4 609.6,229.8 611.4,227.2 613.3,224.6
615.2,222.0 617.0,219.5 618.9,217.1 620.8,214.7 622.7,212.4 624.5,210.2 626.4,208.1 628.3,206.0 630.1,204.0 632.0,202.1 633.9,200.2 635.8,198.3 637.6,196.3 639.5,194.3 641.4,192.1 643.2,189.9
645.1,187.5 647.0,185.0 648.8,182.3 650.7,179.4 652.6,176.3 654.5,173.1 656.3,169.8 658.2,166.3 660.1,162.8 661.9,159.3 663.8,155.8 665.7,152.4 667.5,149.2 669.4,146.2 671.3,143.4 673.2,140.9
675.0,138.7 676.9,136.9 678.8,135.5 680.6,134.4 682.5,133.7 684.4,133.3 686.3,133.3 688.1,133.5 690.0,134.0 691.9,134.6 693.7,135.4 695.6,136.3 697.5,137.2 699.3,138.2 701.2,139.1 703.1,139.9
705.0,140.7 706.8,141.3 708.7,141.9 710.6,142.4 712.4,142.7 714.3,143.0 716.2,143.3 718.1,143.5 719.9,143.8 721.8,144.1 723.7,144.6 725.5,145.3 727.4,146.1 729.3,147.3 731.1,148.8 733.0,150.7
734.9,153.1 736.8,156.0 738.6,159.4 740.5,163.3 742.4,167.9 744.2,173.1 746.1,178.9 748.0,185.3 749.9,192.3 751.7,199.8 753.6,207.9 755.5,216.4 757.3,225.4 759.2,234.6 761.1,244.2 762.9,253.8
764.8,263.6 766.7,273.4 768.6,283.2 770.4,292.7 772.3,302.1 774.2,311.2 776.0,320.0 777.9,328.4 779.8,336.4 781.7,344.0 783.5,351.2 785.4,357.8 787.3,364.1 789.1,369.9 791.0,375.3 792.9,380.2
794.7,384.8 796.6,389.0 798.5,392.9 800.4,396.4 802.2,399.6 804.1,402.4 806.0,405.0 807.8,407.3 809.7,409.3 811.6,411.0 813.5,412.5 815.3,413.7 817.2,414.7 819.1,415.5 820.9,416.0 822.8,416.4
824.7,416.6 826.5,416.7 828.4,416.8 830.3,416.7 832.2,416.7 834.0,416.7 835.9,416.8 837.8,417.1 839.6,417.4 841.5,418.0 843.4,418.8 845.3,419.9 847.1,421.3 849.0,423.0 850.9,425.1 852.7,427.5
854.6,430.2 856.5,433.3 858.3,436.7 860.2,440.4 862.1,444.5 864.0,448.9 865.8,453.5 867.7,458.4 869.6,463.4 871.4,468.7 873.3,474.1 875.2,479.7 877.1,485.3 878.9,490.9 880.8,496.6 882.7,502.3
884.5,507.9 886.4,513.4 888.3,518.8 890.1,524.1 892.0,529.3 893.9,534.3 895.8,539.1 897.6,543.7 899.5,548.1 901.4,552.4 903.2,556.4 905.1,560.2 907.0,563.8 908.8,567.2 910.7,570.3 912.6,573.3
914.5,576.1 916.3,578.6 918.2,581.0 920.1,583.2 921.9,585.2 923.8,587.0 925.7,588.7 925.7,662.4 923.8,662.4 921.9,662.4 920.1,662.4 918.2,662.4 916.3,662.4 914.5,662.4 912.6,662.4 910.7,662.4
908.8,662.4 907.0,662.4 905.1,662.4 903.2,662.4 901.4,662.4 899.5,662.4 897.6,662.4 895.8,662.4 893.9,662.4 892.0,662.4 890.1,662.4 888.3,662.4 886.4,662.4 884.5,662.4 882.7,662.4 880.8,662.4
878.9,662.4 877.1,662.4 875.2,662.4 873.3,662.4 871.4,662.4 869.6,662.4 867.7,662.4 865.8,662.4 864.0,662.4 862.1,662.4 860.2,662.4 858.3,662.4 856.5,662.4 854.6,662.4 852.7,662.4 850.9,662.4
849.0,662.4 847.1,662.4 845.3,662.4 843.4,662.4 841.5,662.4 839.6,662.4 837.8,662.4 835.9,662.4 834.0,662.4 832.2,662.4 830.3,662.4 828.4,662.4 826.5,662.4 824.7,662.4 822.8,662.4 820.9,662.4
819.1,662.4 817.2,662.4 815.3,662.4 813.5,662.4 811.6,662.4 809.7,662.4 807.8,662.4 806.0,662.4 804.1,662.4 802.2,662.4 800.4,662.4 798.5,662.4 796.6,662.4 794.7,662.4 792.9,662.4 791.0,662.4
789.1,662.4 787.3,662.4 785.4,662.4 783.5,662.4 781.7,662.4 779.8,662.4 777.9,662.4 776.0,662.4 774.2,662.4 772.3,662.4 770.4,662.4 768.6,662.4 766.7,662.4 764.8,662.4 762.9,662.4 761.1,662.4
759.2,662.4 757.3,662.4 755.5,662.4 753.6,662.4 751.7,662.4 749.9,662.4 748.0,662.4 746.1,662.4 744.2,662.4 742.4,662.4 740.5,662.4 738.6,662.4 736.8,662.4 734.9,662.4 733.0,662.4 731.1,662.4
729.3,662.4 727.4,662.4 725.5,662.4 723.7,662.4 721.8,662.4 719.9,662.4 718.1,662.4 716.2,662.4 714.3,662.4 712.4,662.4 710.6,662.4 708.7,662.4 706.8,662.4 705.0,662.4 703.1,662.4 701.2,662.4
699.3,662.4 697.5,662.4 695.6,662.4 693.7,662.4 691.9,662.4 690.0,662.4 688.1,662.4 686.3,662.4 684.4,662.4 682.5,662.4 680.6,662.4 678.8,662.4 676.9,662.4 675.0,662.4 673.2,662.4 671.3,662.4
669.4,662.4 667.5,662.4 665.7,662.4 663.8,662.4 661.9,662.4 660.1,662.4 658.2,662.4 656.3,662.4 654.5,662.4 652.6,662.4 650.7,662.4 648.8,662.4 647.0,662.4 645.1,662.4 643.2,662.4 641.4,662.4
639.5,662.4 637.6,662.4 635.8,662.4 633.9,662.4 632.0,662.4 630.1,662.4 628.3,662.4 626.4,662.4 624.5,662.4 622.7,662.4 620.8,662.4 618.9,662.4 617.0,662.4 615.2,662.4 613.3,662.4 611.4,662.4
609.6,662.4 607.7,662.4 605.8,662.4 604.0,662.4 602.1,662.4 600.2,662.4 598.3,662.4 596.5,662.4 594.6,662.4 592.7,662.4 590.9,662.4 589.0,662.4 587.1,662.4 585.2,662.4 583.4,662.4 581.5,662.4
579.6,662.4 577.8,662.4 575.9,662.4 574.0,662.4 572.2,662.4 570.3,662.4 568.4,662.4 566.5,662.4 564.7,662.4 562.8,662.4 560.9,662.4 559.1,662.4 557.2,662.4 555.3,662.4 553.4,662.4 551.6,662.4
549.7,662.4 547.8,662.4 546.0,662.4 544.1,662.4 542.2,662.4 540.4,662.4 538.5,662.4 536.6,662.4 534.7,662.4 532.9,662.4 531.0,662.4 529.1,662.4 527.3,662.4 525.4,662.4 523.5,662.4 521.6,662.4
519.8,662.4 517.9,662.4 516.0,662.4 514.2,662.4 512.3,662.4 510.4,662.4 508.6,662.4 506.7,662.4 504.8,662.4 502.9,662.4 501.1,662.4 499.2,662.4 497.3,662.4 495.5,662.4 493.6,662.4 491.7,662.4
489.8,662.4 488.0,662.4 486.1,662.4 484.2,662.4 482.4,662.4 480.5,662.4 478.6,662.4 476.8,662.4 474.9,662.4 473.0,662.4 471.1,662.4 469.3,662.4 467.4,662.4 465.5,662.4 463.7,662.4 461.8,662.4
459.9,662.4 458.0,662.4 456.2,662.4 454.3,662.4 452.4,662.4 450.6,662.4 448.7,662.4 446.8,662.4 445.0,662.4 443.1,662.4 441.2,662.4 439.3,662.4 437.5,662.4 435.6,662.4 433.7,662.4 431.9,662.4
430.0,662.4 428.1,662.4 426.3,662.4 424.4,662.4 422.5,662.4 420.6,662.4 418.8,662.4 416.9,662.4 415.0,662.4 413.2,662.4 411.3,662.4 409.4,662.4 407.5,662.4 405.7,662.4 403.8,662.4 401.9,662.4
400.1,662.4 398.2,662.4 396.3,662.4 394.5,662.4 392.6,662.4 390.7,662.4 388.8,662.4 387.0,662.4 385.1,662.4 383.2,662.4 381.4,662.4 379.5,662.4 377.6,662.4 375.7,662.4 373.9,662.4 372.0,662.4
370.1,662.4 368.3,662.4 366.4,662.4 364.5,662.4 362.7,662.4 360.8,662.4 358.9,662.4 357.0,662.4 355.2,662.4 353.3,662.4 351.4,662.4 349.6,662.4 347.7,662.4 345.8,662.4 343.9,662.4 342.1,662.4
340.2,662.4 338.3,662.4 336.5,662.4 334.6,662.4 332.7,662.4 330.9,662.4 329.0,662.4 327.1,662.4 325.2,662.4 323.4,662.4 321.5,662.4 319.6,662.4 317.8,662.4 315.9,662.4 314.0,662.4 312.1,662.4
310.3,662.4 308.4,662.4 306.5,662.4 304.7,662.4 302.8,662.4 300.9,662.4 299.1,662.4 297.2,662.4 295.3,662.4 293.4,662.4 291.6,662.4 289.7,662.4 287.8,662.4 286.0,662.4 284.1,662.4 282.2,662.4
280.3,662.4 278.5,662.4 276.6,662.4 274.7,662.4 272.9,662.4 271.0,662.4 269.1,662.4 267.3,662.4 265.4,662.4 263.5,662.4 261.6,662.4 259.8,662.4 257.9,662.4 256.0,662.4 254.2,662.4 252.3,662.4
250.4,662.4 248.5,662.4 246.7,662.4 244.8,662.4 242.9,662.4 241.1,662.4 239.2,662.4 237.3,662.4 235.5,662.4 233.6,662.4 231.7,662.4 229.8,662.4 228.0,662.4 226.1,662.4 224.2,662.4 222.4,662.4
220.5,662.4 218.6,662.4 216.7,662.4 214.9,662.4 213.0,662.4 211.1,662.4 209.3,662.4 207.4,662.4 205.5,662.4 203.7,662.4 201.8,662.4 199.9,662.4 198.0,662.4 196.2,662.4 194.3,662.4 192.4,662.4
190.6,662.4 188.7,662.4 186.8,662.4 185.0,662.4 183.1,662.4 181.2,662.4 179.3,662.4 177.5,662.4 175.6,662.4 173.7,662.4 171.9,662.4 170.0,662.4 168.1,662.4 166.2,662.4 '/>
	</g>
</g>
	</g>
	<g id="gnuplot_plot_3" ><title>Point estimate</title>
<g fill="none" color="white" stroke="rgb( 31, 120, 180)" stroke-width="2.00" stroke-linecap="butt" stroke-linejoin="miter">
</g>
<g fill="none" color="black" stroke="currentColor" stroke-width="2.00" stroke-linecap="butt" stroke-linejoin="miter">
	<g transform="translate(1089.0,103.0)" stroke="none" fill="black" font-family="Helvetica" font-size="12.00"  text-anchor="start">
		<text><tspan font-family="Helvetica" >Point estimate</tspan></text>
	</g>
</g>
<g fill="none" color="black" stroke="currentColor" stroke-width="2.00" stroke-linecap="butt" stroke-linejoin="miter">
	<path stroke='rgb( 31, 120, 180)'  d='M1038.5,99.1 L1080.7,99.1 M641.1,662.4 L641.1,192.5  '/></g>
	</g>
	<g id="gnuplot_plot_4" ><title>Noise threshold</title>
<g fill="none" color="white" stroke="rgb( 31, 120, 180)" stroke-width="1.00" stroke-linecap="butt" stroke-linejoin="miter">
</g>
<g fill="none" color="black" stroke="currentColor" stroke-width="1.00" stroke-linecap="butt" stroke-linejoin="miter">
	<g transform="translate(1089.0,121.0)" stroke="none" fill="black" font-family="Helvetica" font-size="12.00"  text-anchor="start">
		<text><tspan font-family="Helvetica" >Noise threshold</tspan></text>
	</g>
</g>
<g fill="none" color="black" stroke="currentColor" stroke-width="1.00" stroke-linecap="butt" stroke-linejoin="miter">
	<g stroke='none' shape-rendering='crispEdges'>
		<polygon fill = 'rgb(227,  26,  28)' fill-opacity = '0.100000' points = '1038.5,121.6 1080.7,121.6 1080.7,112.6 1038.5,112.6 '/>
		<polygon fill = 'rgb(227,  26,  28)' fill-opacity = '0.100000' points = '546.9,54.1 546.9,54.1 546.9,662.4 546.9,662.4 '/>
	</g>
</g>
	</g>
<g fill="none" color="white" stroke="rgb(227,  26,  28)" stroke-width="2.00" stroke-linecap="butt" stroke-linejoin="miter">
</g>
<g fill="none" color="black" stroke="currentColor" stroke-width="2.00" stroke-linecap="butt" stroke-linejoin="miter">
</g>
<g fill="none" color="black" stroke="black" stroke-width="1.00" stroke-linecap="butt" stroke-linejoin="miter">
</g>
<g fill="none" color="black" stroke="currentColor" stroke-width="1.00" stroke-linecap="butt" stroke-linejoin="miter">
	<path stroke='black'  d='M80.2,54.1 L80.2,662.4 L1013.6,662.4 L1013.6,54.1 L80.2,54.1 Z  '/></g>
<g fill="none" color="black" stroke="currentColor" stroke-width="1.00" stroke-linecap="butt" stroke-linejoin="miter">
</g>
</g>
</svg>

