<?xml version="1.0" encoding="utf-8"  standalone="no"?>
<svg 
 viewBox="0 0 1280 720"
 xmlns="http://www.w3.org/2000/svg"
 xmlns:xlink="http://www.w3.org/1999/xlink"
>

<title>Gnuplot</title>
<desc>Produced by GNUPLOT 5.2 patchlevel 6 </desc>

<g id="gnuplot_canvas">

<rect x="0" y="0" width="1280" height="720" fill="none"/>
<defs>

	<circle id='gpDot' r='0.5' stroke-width='0.5' stroke='currentColor'/>
	<path id='gpPt0' stroke-width='0.222' stroke='currentColor' d='M-1,0 h2 M0,-1 v2'/>
	<path id='gpPt1' stroke-width='0.222' stroke='currentColor' d='M-1,-1 L1,1 M1,-1 L-1,1'/>
	<path id='gpPt2' stroke-width='0.222' stroke='currentColor' d='M-1,0 L1,0 M0,-1 L0,1 M-1,-1 L1,1 M-1,1 L1,-1'/>
	<rect id='gpPt3' stroke-width='0.222' stroke='currentColor' x='-1' y='-1' width='2' height='2'/>
	<rect id='gpPt4' stroke-width='0.222' stroke='currentColor' fill='currentColor' x='-1' y='-1' width='2' height='2'/>
	<circle id='gpPt5' stroke-width='0.222' stroke='currentColor' cx='0' cy='0' r='1'/>
	<use xlink:href='#gpPt5' id='gpPt6' fill='currentColor' stroke='none'/>
	<path id='gpPt7' stroke-width='0.222' stroke='currentColor' d='M0,-1.33 L-1.33,0.67 L1.33,0.67 z'/>
	<use xlink:href='#gpPt7' id='gpPt8' fill='currentColor' stroke='none'/>
	<use xlink:href='#gpPt7' id='gpPt9' stroke='currentColor' transform='rotate(180)'/>
	<use xlink:href='#gpPt9' id='gpPt10' fill='currentColor' stroke='none'/>
	<use xlink:href='#gpPt3' id='gpPt11' stroke='currentColor' transform='rotate(45)'/>
	<use xlink:href='#gpPt11' id='gpPt12' fill='currentColor' stroke='none'/>
	<path id='gpPt13' stroke-width='0.222' stroke='currentColor' d='M0,1.330 L1.265,0.411 L0.782,-1.067 L-0.782,-1.076 L-1.265,0.411 z'/>
	<use xlink:href='#gpPt13' id='gpPt14' fill='currentColor' stroke='none'/>
	<filter id='textbox' filterUnits='objectBoundingBox' x='0' y='0' height='1' width='1'>
	  <feFlood flood-color='white' flood-opacity='1' result='bgnd'/>
	  <feComposite in='SourceGraphic' in2='bgnd' operator='atop'/>
	</filter>
	<filter id='greybox' filterUnits='objectBoundingBox' x='0' y='0' height='1' width='1'>
	  <feFlood flood-color='lightgrey' flood-opacity='1' result='grey'/>
	  <feComposite in='SourceGraphic' in2='grey' operator='atop'/>
	</filter>
</defs>
<g fill="none" color="white" stroke="currentColor" stroke-width="1.00" stroke-linecap="butt" stroke-linejoin="miter">
</g>
<g fill="none" color="black" stroke="currentColor" stroke-width="1.00" stroke-linecap="butt" stroke-linejoin="miter">
	<path stroke='black'  d='M88.5,662.4 L97.5,662.4  '/>	<g transform="translate(80.2,666.3)" stroke="none" fill="black" font-family="Helvetica" font-size="12.00"  text-anchor="end">
		<text><tspan font-family="Helvetica" > 0</tspan></text>
	</g>
</g>
<g fill="none" color="black" stroke="currentColor" stroke-width="1.00" stroke-linecap="butt" stroke-linejoin="miter">
	<path stroke='black'  d='M88.5,575.5 L97.5,575.5  '/>	<g transform="translate(80.2,579.4)" stroke="none" fill="black" font-family="Helvetica" font-size="12.00"  text-anchor="end">
		<text><tspan font-family="Helvetica" > 0.005</tspan></text>
	</g>
</g>
<g fill="none" color="black" stroke="currentColor" stroke-width="1.00" stroke-linecap="butt" stroke-linejoin="miter">
	<path stroke='black'  d='M88.5,488.6 L97.5,488.6  '/>	<g transform="translate(80.2,492.5)" stroke="none" fill="black" font-family="Helvetica" font-size="12.00"  text-anchor="end">
		<text><tspan font-family="Helvetica" > 0.01</tspan></text>
	</g>
</g>
<g fill="none" color="black" stroke="currentColor" stroke-width="1.00" stroke-linecap="butt" stroke-linejoin="miter">
	<path stroke='black'  d='M88.5,401.7 L97.5,401.7  '/>	<g transform="translate(80.2,405.6)" stroke="none" fill="black" font-family="Helvetica" font-size="12.00"  text-anchor="end">
		<text><tspan font-family="Helvetica" > 0.015</tspan></text>
	</g>
</g>
<g fill="none" color="black" stroke="currentColor" stroke-width="1.00" stroke-linecap="butt" stroke-linejoin="miter">
	<path stroke='black'  d='M88.5,314.8 L97.5,314.8  '/>	<g transform="translate(80.2,318.7)" stroke="none" fill="black" font-family="Helvetica" font-size="12.00"  text-anchor="end">
		<text><tspan font-family="Helvetica" > 0.02</tspan></text>
	</g>
</g>
<g fill="none" color="black" stroke="currentColor" stroke-width="1.00" stroke-linecap="butt" stroke-linejoin="miter">
	<path stroke='black'  d='M88.5,227.9 L97.5,227.9  '/>	<g transform="translate(80.2,231.8)" stroke="none" fill="black" font-family="Helvetica" font-size="12.00"  text-anchor="end">
		<text><tspan font-family="Helvetica" > 0.025</tspan></text>
	</g>
</g>
<g fill="none" color="black" stroke="currentColor" stroke-width="1.00" stroke-linecap="butt" stroke-linejoin="miter">
	<path stroke='black'  d='M88.5,141.0 L97.5,141.0  '/>	<g transform="translate(80.2,144.9)" stroke="none" fill="black" font-family="Helvetica" font-size="12.00"  text-anchor="end">
		<text><tspan font-family="Helvetica" > 0.03</tspan></text>
	</g>
</g>
<g fill="none" color="black" stroke="currentColor" stroke-width="1.00" stroke-linecap="butt" stroke-linejoin="miter">
	<path stroke='black'  d='M88.5,54.1 L97.5,54.1  '/>	<g transform="translate(80.2,58.0)" stroke="none" fill="black" font-family="Helvetica" font-size="12.00"  text-anchor="end">
		<text><tspan font-family="Helvetica" > 0.035</tspan></text>
	</g>
</g>
<g fill="none" color="black" stroke="currentColor" stroke-width="1.00" stroke-linecap="butt" stroke-linejoin="miter">
	<path stroke='black'  d='M110.9,662.4 L110.9,653.4  '/>	<g transform="translate(110.9,684.3)" stroke="none" fill="black" font-family="Helvetica" font-size="12.00"  text-anchor="middle">
		<text><tspan font-family="Helvetica" > 40</tspan></text>
	</g>
</g>
<g fill="none" color="black" stroke="currentColor" stroke-width="1.00" stroke-linecap="butt" stroke-linejoin="miter">
	<path stroke='black'  d='M265.5,662.4 L265.5,653.4  '/>	<g transform="translate(265.5,684.3)" stroke="none" fill="black" font-family="Helvetica" font-size="12.00"  text-anchor="middle">
		<text><tspan font-family="Helvetica" > 50</tspan></text>
	</g>
</g>
<g fill="none" color="black" stroke="currentColor" stroke-width="1.00" stroke-linecap="butt" stroke-linejoin="miter">
	<path stroke='black'  d='M420.1,662.4 L420.1,653.4  '/>	<g transform="translate(420.1,684.3)" stroke="none" fill="black" font-family="Helvetica" font-size="12.00"  text-anchor="middle">
		<text><tspan font-family="Helvetica" > 60</tspan></text>
	</g>
</g>
<g fill="none" color="black" stroke="currentColor" stroke-width="1.00" stroke-linecap="butt" stroke-linejoin="miter">
	<path stroke='black'  d='M574.6,662.4 L574.6,653.4  '/>	<g transform="translate(574.6,684.3)" stroke="none" fill="black" font-family="Helvetica" font-size="12.00"  text-anchor="middle">
		<text><tspan font-family="Helvetica" > 70</tspan></text>
	</g>
</g>
<g fill="none" color="black" stroke="currentColor" stroke-width="1.00" stroke-linecap="butt" stroke-linejoin="miter">
	<path stroke='black'  d='M729.2,662.4 L729.2,653.4  '/>	<g transform="translate(729.2,684.3)" stroke="none" fill="black" font-family="Helvetica" font-size="12.00"  text-anchor="middle">
		<text><tspan font-family="Helvetica" > 80</tspan></text>
	</g>
</g>
<g fill="none" color="black" stroke="currentColor" stroke-width="1.00" stroke-linecap="butt" stroke-linejoin="miter">
	<path stroke='black'  d='M883.8,662.4 L883.8,653.4  '/>	<g transform="translate(883.8,684.3)" stroke="none" fill="black" font-family="Helvetica" font-size="12.00"  text-anchor="middle">
		<text><tspan font-family="Helvetica" > 90</tspan></text>
	</g>
</g>
<g fill="none" color="black" stroke="currentColor" stroke-width="1.00" stroke-linecap="butt" stroke-linejoin="miter">
</g>
<g fill="none" color="black" stroke="currentColor" stroke-width="1.00" stroke-linecap="butt" stroke-linejoin="miter">
	<path stroke='black'  d='M88.5,54.1 L88.5,662.4 L1013.6,662.4 L1013.6,54.1 L88.5,54.1 Z  '/></g>
<g fill="none" color="black" stroke="currentColor" stroke-width="1.00" stroke-linecap="butt" stroke-linejoin="miter">
	<g transform="translate(16.3,358.3) rotate(270)" stroke="none" fill="black" font-family="Helvetica" font-size="12.00"  text-anchor="middle">
		<text><tspan font-family="Helvetica" >Density (a.u.)</tspan></text>
	</g>
</g>
<g fill="none" color="black" stroke="currentColor" stroke-width="1.00" stroke-linecap="butt" stroke-linejoin="miter">
	<g transform="translate(551.0,711.3)" stroke="none" fill="black" font-family="Helvetica" font-size="12.00"  text-anchor="middle">
		<text><tspan font-family="Helvetica" >Average time (ns)</tspan></text>
	</g>
</g>
<g fill="none" color="black" stroke="currentColor" stroke-width="1.00" stroke-linecap="butt" stroke-linejoin="miter">
	<g transform="translate(551.0,31.0)" stroke="none" fill="black" font-family="Helvetica" font-size="12.00"  text-anchor="middle">
		<text><tspan font-family="Helvetica" >snapshot_restore_with_dense/Sparse: Entire region + process_vm_writev/2: MAD</tspan></text>
	</g>
</g>
	<g id="gnuplot_plot_1" ><title>Bootstrap distribution</title>
<g fill="none" color="white" stroke="black" stroke-width="2.00" stroke-linecap="butt" stroke-linejoin="miter">
</g>
<g fill="none" color="black" stroke="currentColor" stroke-width="2.00" stroke-linecap="butt" stroke-linejoin="miter">
	<g transform="translate(1089.0,67.0)" stroke="none" fill="black" font-family="Helvetica" font-size="12.00"  text-anchor="start">
		<text><tspan font-family="Helvetica" >Bootstrap distribution</tspan></text>
	</g>
</g>
<g fill="none" color="black" stroke="currentColor" stroke-width="2.00" stroke-linecap="butt" stroke-linejoin="miter">
	<path stroke='rgb( 31, 120, 180)'  d='M1038.5,63.1 L1080.7,63.1 M88.5,634.9 L90.4,633.7 L92.2,632.4 L94.1,631.2 L95.9,629.8 L97.8,628.5
		L99.6,627.1 L101.5,625.7 L103.3,624.3 L105.2,622.8 L107.0,621.2 L108.9,619.6 L110.7,618.0 L112.6,616.3
		L114.5,614.5 L116.3,612.6 L118.2,610.7 L120.0,608.7 L121.9,606.5 L123.7,604.3 L125.6,602.0 L127.4,599.5
		L129.3,596.8 L131.1,594.0 L133.0,591.1 L134.8,588.0 L136.7,584.7 L138.6,581.2 L140.4,577.5 L142.3,573.6
		L144.1,569.4 L146.0,565.1 L147.8,560.5 L149.7,555.7 L151.5,550.6 L153.4,545.4 L155.2,539.9 L157.1,534.2
		L158.9,528.3 L160.8,522.2 L162.7,515.9 L164.5,509.5 L166.4,502.9 L168.2,496.2 L170.1,489.5 L171.9,482.6
		L173.8,475.7 L175.6,468.8 L177.5,462.0 L179.3,455.1 L181.2,448.3 L183.0,441.7 L184.9,435.1 L186.8,428.6
		L188.6,422.3 L190.5,416.2 L192.3,410.2 L194.2,404.4 L196.0,398.8 L197.9,393.4 L199.7,388.2 L201.6,383.1
		L203.4,378.2 L205.3,373.5 L207.2,368.9 L209.0,364.4 L210.9,360.1 L212.7,355.9 L214.6,351.8 L216.4,347.8
		L218.3,343.8 L220.1,340.0 L222.0,336.2 L223.8,332.5 L225.7,328.9 L227.5,325.3 L229.4,321.8 L231.3,318.5
		L233.1,315.2 L235.0,312.0 L236.8,309.0 L238.7,306.1 L240.5,303.3 L242.4,300.7 L244.2,298.3 L246.1,296.0
		L247.9,294.0 L249.8,292.1 L251.6,290.4 L253.5,288.9 L255.4,287.5 L257.2,286.3 L259.1,285.3 L260.9,284.4
		L262.8,283.5 L264.6,282.8 L266.5,282.1 L268.3,281.4 L270.2,280.7 L272.0,279.9 L273.9,279.2 L275.7,278.3
		L277.6,277.3 L279.5,276.2 L281.3,274.9 L283.2,273.4 L285.0,271.8 L286.9,269.9 L288.7,267.8 L290.6,265.5
		L292.4,263.0 L294.3,260.2 L296.1,257.2 L298.0,254.0 L299.8,250.5 L301.7,246.8 L303.6,243.0 L305.4,239.0
		L307.3,234.8 L309.1,230.5 L311.0,226.1 L312.8,221.7 L314.7,217.3 L316.5,212.9 L318.4,208.6 L320.2,204.4
		L322.1,200.4 L323.9,196.6 L325.8,193.1 L327.7,189.8 L329.5,186.9 L331.4,184.3 L333.2,182.0 L335.1,180.2
		L336.9,178.7 L338.8,177.6 L340.6,177.0 L342.5,176.7 L344.3,176.8 L346.2,177.2 L348.0,178.0 L349.9,179.1
		L351.8,180.4 L353.6,181.9 L355.5,183.7 L357.3,185.5 L359.2,187.5 L361.0,189.5 L362.9,191.6 L364.7,193.6
		L366.6,195.6 L368.4,197.5 L370.3,199.2 L372.1,200.7 L374.0,202.1 L375.9,203.2 L377.7,204.0 L379.6,204.5
		L381.4,204.8 L383.3,204.7 L385.1,204.3 L387.0,203.5 L388.8,202.4 L390.7,201.1 L392.5,199.4 L394.4,197.5
		L396.2,195.3 L398.1,192.9 L400.0,190.3 L401.8,187.6 L403.7,184.8 L405.5,182.0 L407.4,179.1 L409.2,176.2
		L411.1,173.3 L412.9,170.5 L414.8,167.7 L416.6,165.1 L418.5,162.6 L420.3,160.1 L422.2,157.8 L424.1,155.6
		L425.9,153.4 L427.8,151.4 L429.6,149.5 L431.5,147.6 L433.3,145.8 L435.2,144.0 L437.0,142.3 L438.9,140.7
		L440.7,139.1 L442.6,137.6 L444.5,136.2 L446.3,134.8 L448.2,133.5 L450.0,132.2 L451.9,131.1 L453.7,130.0
		L455.6,129.1 L457.4,128.2 L459.3,127.4 L461.1,126.8 L463.0,126.2 L464.8,125.7 L466.7,125.3 L468.6,125.0
		L470.4,124.8 L472.3,124.7 L474.1,124.7 L476.0,124.7 L477.8,124.8 L479.7,125.0 L481.5,125.3 L483.4,125.6
		L485.2,126.0 L487.1,126.5 L488.9,126.9 L490.8,127.5 L492.7,128.0 L494.5,128.6 L496.4,129.1 L498.2,129.7
		L500.1,130.2 L501.9,130.7 L503.8,131.1 L505.6,131.5 L507.5,131.8 L509.3,132.1 L511.2,132.4 L513.0,132.6
		L514.9,132.8 L516.8,133.0 L518.6,133.2 L520.5,133.5 L522.3,133.8 L524.2,134.3 L526.0,134.9 L527.9,135.7
		L529.7,136.7 L531.6,137.9 L533.4,139.4 L535.3,141.1 L537.1,143.0 L539.0,145.3 L540.9,147.8 L542.7,150.6
		L544.6,153.6 L546.4,156.9 L548.3,160.3 L550.1,163.9 L552.0,167.7 L553.8,171.6 L555.7,175.5 L557.5,179.5
		L559.4,183.5 L561.2,187.5 L563.1,191.5 L565.0,195.4 L566.8,199.2 L568.7,203.0 L570.5,206.6 L572.4,210.1
		L574.2,213.6 L576.1,216.9 L577.9,220.2 L579.8,223.4 L581.6,226.6 L583.5,229.7 L585.3,232.8 L587.2,235.8
		L589.1,238.9 L590.9,242.1 L592.8,245.3 L594.6,248.5 L596.5,251.9 L598.3,255.3 L600.2,258.8 L602.0,262.5
		L603.9,266.3 L605.7,270.2 L607.6,274.2 L609.4,278.4 L611.3,282.6 L613.2,287.0 L615.0,291.4 L616.9,295.9
		L618.7,300.4 L620.6,305.0 L622.4,309.5 L624.3,314.0 L626.1,318.5 L628.0,322.9 L629.8,327.2 L631.7,331.4
		L633.5,335.4 L635.4,339.3 L637.3,342.9 L639.1,346.4 L641.0,349.7 L642.8,352.8 L644.7,355.7 L646.5,358.4
		L648.4,361.0 L650.2,363.3 L652.1,365.4 L653.9,367.4 L655.8,369.2 L657.6,370.9 L659.5,372.5 L661.4,374.0
		L663.2,375.4 L665.1,376.7 L666.9,378.0 L668.8,379.2 L670.6,380.4 L672.5,381.6 L674.3,382.8 L676.2,384.0
		L678.0,385.3 L679.9,386.6 L681.8,387.9 L683.6,389.3 L685.5,390.8 L687.3,392.4 L689.2,394.0 L691.0,395.8
		L692.9,397.6 L694.7,399.5 L696.6,401.4 L698.4,403.5 L700.3,405.6 L702.1,407.8 L704.0,410.0 L705.9,412.2
		L707.7,414.5 L709.6,416.7 L711.4,419.0 L713.3,421.3 L715.1,423.5 L717.0,425.7 L718.8,427.9 L720.7,430.0
		L722.5,432.2 L724.4,434.2 L726.2,436.3 L728.1,438.3 L730.0,440.2 L731.8,442.2 L733.7,444.1 L735.5,446.0
		L737.4,447.8 L739.2,449.7 L741.1,451.5 L742.9,453.3 L744.8,455.1 L746.6,456.9 L748.5,458.7 L750.3,460.4
		L752.2,462.2 L754.1,464.0 L755.9,465.7 L757.8,467.5 L759.6,469.2 L761.5,471.0 L763.3,472.7 L765.2,474.5
		L767.0,476.2 L768.9,477.9 L770.7,479.7 L772.6,481.4 L774.4,483.1 L776.3,484.9 L778.2,486.6 L780.0,488.4
		L781.9,490.1 L783.7,491.9 L785.6,493.6 L787.4,495.4 L789.3,497.2 L791.1,499.0 L793.0,500.8 L794.8,502.6
		L796.7,504.5 L798.5,506.3 L800.4,508.2 L802.3,510.0 L804.1,511.9 L806.0,513.8 L807.8,515.8 L809.7,517.7
		L811.5,519.6 L813.4,521.5 L815.2,523.5 L817.1,525.4 L818.9,527.4 L820.8,529.3 L822.6,531.3 L824.5,533.2
		L826.4,535.2 L828.2,537.1 L830.1,539.0 L831.9,540.8 L833.8,542.7 L835.6,544.5 L837.5,546.3 L839.3,548.0
		L841.2,549.7 L843.0,551.3 L844.9,553.0 L846.7,554.5 L848.6,556.1 L850.5,557.5 L852.3,559.0 L854.2,560.3
		L856.0,561.7 L857.9,562.9 L859.7,564.2 L861.6,565.4 L863.4,566.5 L865.3,567.7 L867.1,568.8 L869.0,569.8
		L870.8,570.8 L872.7,571.8 L874.6,572.8 L876.4,573.8 L878.3,574.7 L880.1,575.7 L882.0,576.6 L883.8,577.6
		L885.7,578.5 L887.5,579.5 L889.4,580.4 L891.2,581.4 L893.1,582.3 L894.9,583.3 L896.8,584.2 L898.7,585.2
		L900.5,586.1 L902.4,587.1 L904.2,588.0 L906.1,588.9 L907.9,589.9 L909.8,590.8 L911.6,591.7 L913.5,592.6
		L915.3,593.5 L917.2,594.4 L919.1,595.3 L920.9,596.2 L922.8,597.0 L924.6,597.9 L926.5,598.8 L928.3,599.7
		L930.2,600.5 L932.0,601.4 L933.9,602.3 L935.7,603.2 L937.6,604.0 L939.4,604.9 L941.3,605.8 L943.2,606.7
		L945.0,607.6 L946.9,608.5 L948.7,609.4 L950.6,610.3 L952.4,611.2 L954.3,612.2 L956.1,613.1 L958.0,614.1
		L959.8,615.1 L961.7,616.0 L963.5,617.0 L965.4,618.0 L967.3,619.0 L969.1,620.0 L971.0,621.0 L972.8,622.0
		L974.7,622.9 L976.5,623.9 L978.4,624.8 L980.2,625.7 L982.1,626.6 L983.9,627.4 L985.8,628.3 L987.6,629.0
		L989.5,629.8 L991.4,630.5 L993.2,631.2 L995.1,631.8 L996.9,632.4 L998.8,633.0 L1000.6,633.5 L1002.5,634.1
		L1004.3,634.6 L1006.2,635.1 L1008.0,635.5 L1009.9,636.0 L1011.7,636.4 L1013.6,636.9  '/></g>
	</g>
	<g id="gnuplot_plot_2" ><title>Confidence interval</title>
<g fill="none" color="white" stroke="rgb( 31, 120, 180)" stroke-width="1.00" stroke-linecap="butt" stroke-linejoin="miter">
</g>
<g fill="none" color="black" stroke="currentColor" stroke-width="1.00" stroke-linecap="butt" stroke-linejoin="miter">
	<g transform="translate(1089.0,85.0)" stroke="none" fill="black" font-family="Helvetica" font-size="12.00"  text-anchor="start">
		<text><tspan font-family="Helvetica" >Confidence interval</tspan></text>
	</g>
</g>
<g fill="none" color="black" stroke="currentColor" stroke-width="1.00" stroke-linecap="butt" stroke-linejoin="miter">
	<g stroke='none' shape-rendering='crispEdges'>
		<polygon fill = 'rgb( 31, 120, 180)' fill-opacity = '0.250000' points = '1038.5,85.6 1080.7,85.6 1080.7,76.6 1038.5,76.6 '/>
		<polygon fill = 'rgb( 31, 120, 180)' fill-opacity = '0.250000' points = '173.8,475.7 175.6,468.8 177.5,462.0 179.3,455.1 181.2,448.3 183.0,441.7 184.9,435.1 186.8,428.6 188.6,422.3 190.5,416.2 192.3,410.2 194.2,404.4 196.0,398.8 197.9,393.4 199.7,388.2 201.6,383.1
203.4,378.2 205.3,373.5 207.2,368.9 209.0,364.4 210.9,360.1 212.7,355.9 214.6,351.8 216.4,347.8 218.3,343.8 220.1,340.0 222.0,336.2 223.8,332.5 225.7,328.9 227.5,325.3 229.4,321.8 231.3,318.5
233.1,315.2 235.0,312.0 236.8,309.0 238.7,306.1 240.5,303.3 242.4,300.7 244.2,298.3 246.1,296.0 247.9,294.0 249.8,292.1 251.6,290.4 253.5,288.9 255.4,287.5 257.2,286.3 259.1,285.3 260.9,284.4
262.8,283.5 264.6,282.8 266.5,282.1 268.3,281.4 270.2,280.7 272.0,279.9 273.9,279.2 275.7,278.3 277.6,277.3 279.5,276.2 281.3,274.9 283.2,273.4 285.0,271.8 286.9,269.9 288.7,267.8 290.6,265.5
292.4,263.0 294.3,260.2 296.1,257.2 298.0,254.0 299.8,250.5 301.7,246.8 303.6,243.0 305.4,239.0 307.3,234.8 309.1,230.5 311.0,226.1 312.8,221.7 314.7,217.3 316.5,212.9 318.4,208.6 320.2,204.4
322.1,200.4 323.9,196.6 325.8,193.1 327.7,189.8 329.5,186.9 331.4,184.3 333.2,182.0 335.1,180.2 336.9,178.7 338.8,177.6 340.6,177.0 342.5,176.7 344.3,176.8 346.2,177.2 348.0,178.0 349.9,179.1
351.8,180.4 353.6,181.9 355.5,183.7 357.3,185.5 359.2,187.5 361.0,189.5 362.9,191.6 364.7,193.6 366.6,195.6 368.4,197.5 370.3,199.2 372.1,200.7 374.0,202.1 375.9,203.2 377.7,204.0 379.6,204.5
381.4,204.8 383.3,204.7 385.1,204.3 387.0,203.5 388.8,202.4 390.7,201.1 392.5,199.4 394.4,197.5 396.2,195.3 398.1,192.9 400.0,190.3 401.8,187.6 403.7,184.8 405.5,182.0 407.4,179.1 409.2,176.2
411.1,173.3 412.9,170.5 414.8,167.7 416.6,165.1 418.5,162.6 420.3,160.1 422.2,157.8 424.1,155.6 425.9,153.4 427.8,151.4 429.6,149.5 431.5,147.6 433.3,145.8 435.2,144.0 437.0,142.3 438.9,140.7
440.7,139.1 442.6,137.6 444.5,136.2 446.3,134.8 448.2,133.5 450.0,132.2 451.9,131.1 453.7,130.0 455.6,129.1 457.4,128.2 459.3,127.4 461.1,126.8 463.0,126.2 464.8,125.7 466.7,125.3 468.6,125.0
470.4,124.8 472.3,124.7 474.1,124.7 476.0,124.7 477.8,124.8 479.7,125.0 481.5,125.3 483.4,125.6 485.2,126.0 487.1,126.5 488.9,126.9 490.8,127.5 492.7,128.0 494.5,128.6 496.4,129.1 498.2,129.7
500.1,130.2 501.9,130.7 503.8,131.1 505.6,131.5 507.5,131.8 509.3,132.1 511.2,132.4 513.0,132.6 514.9,132.8 516.8,133.0 518.6,133.2 520.5,133.5 522.3,133.8 524.2,134.3 526.0,134.9 527.9,135.7
529.7,136.7 531.6,137.9 533.4,139.4 535.3,141.1 537.1,143.0 539.0,145.3 540.9,147.8 542.7,150.6 544.6,153.6 546.4,156.9 548.3,160.3 550.1,163.9 552.0,167.7 553.8,171.6 555.7,175.5 557.5,179.5
559.4,183.5 561.2,187.5 563.1,191.5 565.0,195.4 566.8,199.2 568.7,203.0 570.5,206.6 572.4,210.1 574.2,213.6 576.1,216.9 577.9,220.2 579.8,223.4 581.6,226.6 583.5,229.7 585.3,232.8 587.2,235.8
589.1,238.9 590.9,242.1 592.8,245.3 594.6,248.5 596.5,251.9 598.3,255.3 600.2,258.8 602.0,262.5 603.9,266.3 605.7,270.2 607.6,274.2 609.4,278.4 611.3,282.6 613.2,287.0 615.0,291.4 616.9,295.9
618.7,300.4 620.6,305.0 622.4,309.5 624.3,314.0 626.1,318.5 628.0,322.9 629.8,327.2 631.7,331.4 633.5,335.4 635.4,339.3 637.3,342.9 639.1,346.4 641.0,349.7 642.8,352.8 644.7,355.7 646.5,358.4
648.4,361.0 650.2,363.3 652.1,365.4 653.9,367.4 655.8,369.2 657.6,370.9 659.5,372.5 661.4,374.0 663.2,375.4 665.1,376.7 666.9,378.0 668.8,379.2 670.6,380.4 672.5,381.6 674.3,382.8 676.2,384.0
678.0,385.3 679.9,386.6 681.8,387.9 683.6,389.3 685.5,390.8 687.3,392.4 689.2,394.0 691.0,395.8 692.9,397.6 694.7,399.5 696.6,401.4 698.4,403.5 700.3,405.6 702.1,407.8 704.0,410.0 705.9,412.2
707.7,414.5 709.6,416.7 711.4,419.0 713.3,421.3 715.1,423.5 717.0,425.7 718.8,427.9 720.7,430.0 722.5,432.2 724.4,434.2 726.2,436.3 728.1,438.3 730.0,440.2 731.8,442.2 733.7,444.1 735.5,446.0
737.4,447.8 739.2,449.7 741.1,451.5 742.9,453.3 744.8,455.1 746.6,456.9 748.5,458.7 750.3,460.4 752.2,462.2 754.1,464.0 755.9,465.7 757.8,467.5 759.6,469.2 761.5,471.0 763.3,472.7 765.2,474.5
767.0,476.2 768.9,477.9 770.7,479.7 772.6,481.4 774.4,483.1 776.3,484.9 778.2,486.6 780.0,488.4 781.9,490.1 783.7,491.9 785.6,493.6 787.4,495.4 789.3,497.2 791.1,499.0 793.0,500.8 794.8,502.6
796.7,504.5 798.5,506.3 800.4,508.2 802.3,510.0 804.1,511.9 806.0,513.8 807.8,515.8 809.7,517.7 811.5,519.6 813.4,521.5 815.2,523.5 817.1,525.4 818.9,527.4 820.8,529.3 822.6,531.3 824.5,533.2
826.4,535.2 828.2,537.1 830.1,539.0 831.9,540.8 833.8,542.7 835.6,544.5 837.5,546.3 839.3,548.0 841.2,549.7 843.0,551.3 844.9,553.0 846.7,554.5 848.6,556.1 850.5,557.5 852.3,559.0 854.2,560.3
856.0,561.7 857.9,562.9 859.7,564.2 861.6,565.4 863.4,566.5 865.3,567.7 867.1,568.8 869.0,569.8 870.8,570.8 872.7,571.8 874.6,572.8 876.4,573.8 878.3,574.7 880.1,575.7 882.0,576.6 883.8,577.6
885.7,578.5 887.5,579.5 889.4,580.4 891.2,581.4 893.1,582.3 894.9,583.3 896.8,584.2 898.7,585.2 900.5,586.1 902.4,587.1 904.2,588.0 906.1,588.9 907.9,589.9 909.8,590.8 911.6,591.7 913.5,592.6
915.3,593.5 917.2,594.4 919.1,595.3 920.9,596.2 922.8,597.0 924.6,597.9 926.5,598.8 926.5,662.4 924.6,662.4 922.8,662.4 920.9,662.4 919.1,662.4 917.2,662.4 915.3,662.4 913.5,662.4 911.6,662.4
909.8,662.4 907.9,662.4 906.1,662.4 904.2,662.4 902.4,662.4 900.5,662.4 898.7,662.4 896.8,662.4 894.9,662.4 893.1,662.4 891.2,662.4 889.4,662.4 887.5,662.4 885.7,662.4 883.8,662.4 882.0,662.4
880.1,662.4 878.3,662.4 876.4,662.4 874.6,662.4 872.7,662.4 870.8,662.4 869.0,662.4 867.1,662.4 865.3,662.4 863.4,662.4 861.6,662.4 859.7,662.4 857.9,662.4 856.0,662.4 854.2,662.4 852.3,662.4
850.5,662.4 848.6,662.4 846.7,662.4 844.9,662.4 843.0,662.4 841.2,662.4 839.3,662.4 837.5,662.4 835.6,662.4 833.8,662.4 831.9,662.4 830.1,662.4 828.2,662.4 826.4,662.4 824.5,662.4 822.6,662.4
820.8,662.4 818.9,662.4 817.1,662.4 815.2,662.4 813.4,662.4 811.5,662.4 809.7,662.4 807.8,662.4 806.0,662.4 804.1,662.4 802.3,662.4 800.4,662.4 798.5,662.4 796.7,662.4 794.8,662.4 793.0,662.4
791.1,662.4 789.3,662.4 787.4,662.4 785.6,662.4 783.7,662.4 781.9,662.4 780.0,662.4 778.2,662.4 776.3,662.4 774.4,662.4 772.6,662.4 770.7,662.4 768.9,662.4 767.0,662.4 765.2,662.4 763.3,662.4
761.5,662.4 759.6,662.4 757.8,662.4 755.9,662.4 754.1,662.4 752.2,662.4 750.3,662.4 748.5,662.4 746.6,662.4 744.8,662.4 742.9,662.4 741.1,662.4 739.2,662.4 737.4,662.4 735.5,662.4 733.7,662.4
731.8,662.4 730.0,662.4 728.1,662.4 726.2,662.4 724.4,662.4 722.5,662.4 720.7,662.4 718.8,662.4 717.0,662.4 715.1,662.4 713.3,662.4 711.4,662.4 709.6,662.4 707.7,662.4 705.9,662.4 704.0,662.4
702.1,662.4 700.3,662.4 698.4,662.4 696.6,662.4 694.7,662.4 692.9,662.4 691.0,662.4 689.2,662.4 687.3,662.4 685.5,662.4 683.6,662.4 681.8,662.4 679.9,662.4 678.0,662.4 676.2,662.4 674.3,662.4
672.5,662.4 670.6,662.4 668.8,662.4 666.9,662.4 665.1,662.4 663.2,662.4 661.4,662.4 659.5,662.4 657.6,662.4 655.8,662.4 653.9,662.4 652.1,662.4 650.2,662.4 648.4,662.4 646.5,662.4 644.7,662.4
642.8,662.4 641.0,662.4 639.1,662.4 637.3,662.4 635.4,662.4 633.5,662.4 631.7,662.4 629.8,662.4 628.0,662.4 626.1,662.4 624.3,662.4 622.4,662.4 620.6,662.4 618.7,662.4 616.9,662.4 615.0,662.4
613.2,662.4 611.3,662.4 609.4,662.4 607.6,662.4 605.7,662.4 603.9,662.4 602.0,662.4 600.2,662.4 598.3,662.4 596.5,662.4 594.6,662.4 592.8,662.4 590.9,662.4 589.1,662.4 587.2,662.4 585.3,662.4
583.5,662.4 581.6,662.4 579.8,662.4 577.9,662.4 576.1,662.4 574.2,662.4 572.4,662.4 570.5,662.4 568.7,662.4 566.8,662.4 565.0,662.4 563.1,662.4 561.2,662.4 559.4,662.4 557.5,662.4 555.7,662.4
553.8,662.4 552.0,662.4 550.1,662.4 548.3,662.4 546.4,662.4 544.6,662.4 542.7,662.4 540.9,662.4 539.0,662.4 537.1,662.4 535.3,662.4 533.4,662.4 531.6,662.4 529.7,662.4 527.9,662.4 526.0,662.4
524.2,662.4 522.3,662.4 520.5,662.4 518.6,662.4 516.8,662.4 514.9,662.4 513.0,662.4 511.2,662.4 509.3,662.4 507.5,662.4 505.6,662.4 503.8,662.4 501.9,662.4 500.1,662.4 498.2,662.4 496.4,662.4
494.5,662.4 492.7,662.4 490.8,662.4 488.9,662.4 487.1,662.4 485.2,662.4 483.4,662.4 481.5,662.4 479.7,662.4 477.8,662.4 476.0,662.4 474.1,662.4 472.3,662.4 470.4,662.4 468.6,662.4 466.7,662.4
464.8,662.4 463.0,662.4 461.1,662.4 459.3,662.4 457.4,662.4 455.6,662.4 453.7,662.4 451.9,662.4 450.0,662.4 448.2,662.4 446.3,662.4 444.5,662.4 442.6,662.4 440.7,662.4 438.9,662.4 437.0,662.4
435.2,662.4 433.3,662.4 431.5,662.4 429.6,662.4 427.8,662.4 425.9,662.4 424.1,662.4 422.2,662.4 420.3,662.4 418.5,662.4 416.6,662.4 414.8,662.4 412.9,662.4 411.1,662.4 409.2,662.4 407.4,662.4
405.5,662.4 403.7,662.4 401.8,662.4 400.0,662.4 398.1,662.4 396.2,662.4 394.4,662.4 392.5,662.4 390.7,662.4 388.8,662.4 387.0,662.4 385.1,662.4 383.3,662.4 381.4,662.4 379.6,662.4 377.7,662.4
375.9,662.4 374.0,662.4 372.1,662.4 370.3,662.4 368.4,662.4 366.6,662.4 364.7,662.4 362.9,662.4 361.0,662.4 359.2,662.4 357.3,662.4 355.5,662.4 353.6,662.4 351.8,662.4 349.9,662.4 348.0,662.4
346.2,662.4 344.3,662.4 342.5,662.4 340.6,662.4 338.8,662.4 336.9,662.4 335.1,662.4 333.2,662.4 331.4,662.4 329.5,662.4 327.7,662.4 325.8,662.4 323.9,662.4 322.1,662.4 320.2,662.4 318.4,662.4
316.5,662.4 314.7,662.4 312.8,662.4 311.0,662.4 309.1,662.4 307.3,662.4 305.4,662.4 303.6,662.4 301.7,662.4 299.8,662.4 298.0,662.4 296.1,662.4 294.3,662.4 292.4,662.4 290.6,662.4 288.7,662.4
286.9,662.4 285.0,662.4 283.2,662.4 281.3,662.4 279.5,662.4 277.6,662.4 275.7,662.4 273.9,662.4 272.0,662.4 270.2,662.4 268.3,662.4 266.5,662.4 264.6,662.4 262.8,662.4 260.9,662.4 259.1,662.4
257.2,662.4 255.4,662.4 253.5,662.4 251.6,662.4 249.8,662.4 247.9,662.4 246.1,662.4 244.2,662.4 242.4,662.4 240.5,662.4 238.7,662.4 236.8,662.4 235.0,662.4 233.1,662.4 231.3,662.4 229.4,662.4
227.5,662.4 225.7,662.4 223.8,662.4 222.0,662.4 220.1,662.4 218.3,662.4 216.4,662.4 214.6,662.4 212.7,662.4 210.9,662.4 209.0,662.4 207.2,662.4 205.3,662.4 203.4,662.4 201.6,662.4 199.7,662.4
197.9,662.4 196.0,662.4 194.2,662.4 192.3,662.4 190.5,662.4 188.6,662.4 186.8,662.4 184.9,662.4 183.0,662.4 181.2,662.4 179.3,662.4 177.5,662.4 175.6,662.4 173.8,662.4 '/>
	</g>
</g>
	</g>
	<g id="gnuplot_plot_3" ><title>Point estimate</title>
<g fill="none" color="white" stroke="rgb( 31, 120, 180)" stroke-width="2.00" stroke-linecap="butt" stroke-linejoin="miter">
</g>
<g fill="none" color="black" stroke="currentColor" stroke-width="2.00" stroke-linecap="butt" stroke-linejoin="miter">
	<g transform="translate(1089.0,103.0)" stroke="none" fill="black" font-family="Helvetica" font-size="12.00"  text-anchor="start">
		<text><tspan font-family="Helvetica" >Point estimate</tspan></text>
	</g>
</g>
<g fill="none" color="black" stroke="currentColor" stroke-width="2.00" stroke-linecap="butt" stroke-linejoin="miter">
	<path stroke='rgb( 31, 120, 180)'  d='M1038.5,99.1 L1080.7,99.1 M484.1,662.4 L484.1,125.8  '/></g>
	</g>
<g fill="none" color="black" stroke="currentColor" stroke-width="2.00" stroke-linecap="butt" stroke-linejoin="miter">
</g>
<g fill="none" color="black" stroke="black" stroke-width="1.00" stroke-linecap="butt" stroke-linejoin="miter">
</g>
<g fill="none" color="black" stroke="currentColor" stroke-width="1.00" stroke-linecap="butt" stroke-linejoin="miter">
	<path stroke='black'  d='M88.5,54.1 L88.5,662.4 L1013.6,662.4 L1013.6,54.1 L88.5,54.1 Z  '/></g>
<g fill="none" color="black" stroke="currentColor" stroke-width="1.00" stroke-linecap="butt" stroke-linejoin="miter">
</g>
</g>
</svg>

