<?xml version="1.0" encoding="utf-8"  standalone="no"?>
<svg 
 viewBox="0 0 450 300"
 xmlns="http://www.w3.org/2000/svg"
 xmlns:xlink="http://www.w3.org/1999/xlink"
>

<title>Gnuplot</title>
<desc>Produced by GNUPLOT 5.2 patchlevel 6 </desc>

<g id="gnuplot_canvas">

<rect x="0" y="0" width="450" height="300" fill="none"/>
<defs>

	<circle id='gpDot' r='0.5' stroke-width='0.5' stroke='currentColor'/>
	<path id='gpPt0' stroke-width='0.222' stroke='currentColor' d='M-1,0 h2 M0,-1 v2'/>
	<path id='gpPt1' stroke-width='0.222' stroke='currentColor' d='M-1,-1 L1,1 M1,-1 L-1,1'/>
	<path id='gpPt2' stroke-width='0.222' stroke='currentColor' d='M-1,0 L1,0 M0,-1 L0,1 M-1,-1 L1,1 M-1,1 L1,-1'/>
	<rect id='gpPt3' stroke-width='0.222' stroke='currentColor' x='-1' y='-1' width='2' height='2'/>
	<rect id='gpPt4' stroke-width='0.222' stroke='currentColor' fill='currentColor' x='-1' y='-1' width='2' height='2'/>
	<circle id='gpPt5' stroke-width='0.222' stroke='currentColor' cx='0' cy='0' r='1'/>
	<use xlink:href='#gpPt5' id='gpPt6' fill='currentColor' stroke='none'/>
	<path id='gpPt7' stroke-width='0.222' stroke='currentColor' d='M0,-1.33 L-1.33,0.67 L1.33,0.67 z'/>
	<use xlink:href='#gpPt7' id='gpPt8' fill='currentColor' stroke='none'/>
	<use xlink:href='#gpPt7' id='gpPt9' stroke='currentColor' transform='rotate(180)'/>
	<use xlink:href='#gpPt9' id='gpPt10' fill='currentColor' stroke='none'/>
	<use xlink:href='#gpPt3' id='gpPt11' stroke='currentColor' transform='rotate(45)'/>
	<use xlink:href='#gpPt11' id='gpPt12' fill='currentColor' stroke='none'/>
	<path id='gpPt13' stroke-width='0.222' stroke='currentColor' d='M0,1.330 L1.265,0.411 L0.782,-1.067 L-0.782,-1.076 L-1.265,0.411 z'/>
	<use xlink:href='#gpPt13' id='gpPt14' fill='currentColor' stroke='none'/>
	<filter id='textbox' filterUnits='objectBoundingBox' x='0' y='0' height='1' width='1'>
	  <feFlood flood-color='white' flood-opacity='1' result='bgnd'/>
	  <feComposite in='SourceGraphic' in2='bgnd' operator='atop'/>
	</filter>
	<filter id='greybox' filterUnits='objectBoundingBox' x='0' y='0' height='1' width='1'>
	  <feFlood flood-color='lightgrey' flood-opacity='1' result='grey'/>
	  <feComposite in='SourceGraphic' in2='grey' operator='atop'/>
	</filter>
</defs>
<g fill="none" color="white" stroke="currentColor" stroke-width="1.00" stroke-linecap="butt" stroke-linejoin="miter">
</g>
<g fill="none" color="black" stroke="currentColor" stroke-width="1.00" stroke-linecap="butt" stroke-linejoin="miter">
	<path stroke='black'  d='M71.9,242.4 L80.9,242.4  '/>	<g transform="translate(63.6,246.3)" stroke="none" fill="black" font-family="Helvetica" font-size="12.00"  text-anchor="end">
		<text><tspan font-family="Helvetica" > 0</tspan></text>
	</g>
</g>
<g fill="none" color="black" stroke="currentColor" stroke-width="1.00" stroke-linecap="butt" stroke-linejoin="miter">
	<path stroke='black'  d='M71.9,205.5 L80.9,205.5  '/>	<g transform="translate(63.6,209.4)" stroke="none" fill="black" font-family="Helvetica" font-size="12.00"  text-anchor="end">
		<text><tspan font-family="Helvetica" > 0.2</tspan></text>
	</g>
</g>
<g fill="none" color="black" stroke="currentColor" stroke-width="1.00" stroke-linecap="butt" stroke-linejoin="miter">
	<path stroke='black'  d='M71.9,168.7 L80.9,168.7  '/>	<g transform="translate(63.6,172.6)" stroke="none" fill="black" font-family="Helvetica" font-size="12.00"  text-anchor="end">
		<text><tspan font-family="Helvetica" > 0.4</tspan></text>
	</g>
</g>
<g fill="none" color="black" stroke="currentColor" stroke-width="1.00" stroke-linecap="butt" stroke-linejoin="miter">
	<path stroke='black'  d='M71.9,131.8 L80.9,131.8  '/>	<g transform="translate(63.6,135.7)" stroke="none" fill="black" font-family="Helvetica" font-size="12.00"  text-anchor="end">
		<text><tspan font-family="Helvetica" > 0.6</tspan></text>
	</g>
</g>
<g fill="none" color="black" stroke="currentColor" stroke-width="1.00" stroke-linecap="butt" stroke-linejoin="miter">
	<path stroke='black'  d='M71.9,94.9 L80.9,94.9  '/>	<g transform="translate(63.6,98.8)" stroke="none" fill="black" font-family="Helvetica" font-size="12.00"  text-anchor="end">
		<text><tspan font-family="Helvetica" > 0.8</tspan></text>
	</g>
</g>
<g fill="none" color="black" stroke="currentColor" stroke-width="1.00" stroke-linecap="butt" stroke-linejoin="miter">
	<path stroke='black'  d='M71.9,58.0 L80.9,58.0  '/>	<g transform="translate(63.6,61.9)" stroke="none" fill="black" font-family="Helvetica" font-size="12.00"  text-anchor="end">
		<text><tspan font-family="Helvetica" > 1</tspan></text>
	</g>
</g>
<g fill="none" color="black" stroke="currentColor" stroke-width="1.00" stroke-linecap="butt" stroke-linejoin="miter">
	<path stroke='black'  d='M71.9,21.2 L80.9,21.2  '/>	<g transform="translate(63.6,25.1)" stroke="none" fill="black" font-family="Helvetica" font-size="12.00"  text-anchor="end">
		<text><tspan font-family="Helvetica" > 1.2</tspan></text>
	</g>
</g>
<g fill="none" color="black" stroke="currentColor" stroke-width="1.00" stroke-linecap="butt" stroke-linejoin="miter">
	<path stroke='black'  d='M90.4,242.4 L90.4,233.4  '/>	<g transform="translate(90.4,264.3)" stroke="none" fill="black" font-family="Helvetica" font-size="12.00"  text-anchor="middle">
		<text><tspan font-family="Helvetica" > 26</tspan></text>
	</g>
</g>
<g fill="none" color="black" stroke="currentColor" stroke-width="1.00" stroke-linecap="butt" stroke-linejoin="miter">
	<path stroke='black'  d='M150.8,242.4 L150.8,233.4  '/>	<g transform="translate(150.8,264.3)" stroke="none" fill="black" font-family="Helvetica" font-size="12.00"  text-anchor="middle">
		<text><tspan font-family="Helvetica" > 27</tspan></text>
	</g>
</g>
<g fill="none" color="black" stroke="currentColor" stroke-width="1.00" stroke-linecap="butt" stroke-linejoin="miter">
	<path stroke='black'  d='M211.2,242.4 L211.2,233.4  '/>	<g transform="translate(211.2,264.3)" stroke="none" fill="black" font-family="Helvetica" font-size="12.00"  text-anchor="middle">
		<text><tspan font-family="Helvetica" > 28</tspan></text>
	</g>
</g>
<g fill="none" color="black" stroke="currentColor" stroke-width="1.00" stroke-linecap="butt" stroke-linejoin="miter">
	<path stroke='black'  d='M271.6,242.4 L271.6,233.4  '/>	<g transform="translate(271.6,264.3)" stroke="none" fill="black" font-family="Helvetica" font-size="12.00"  text-anchor="middle">
		<text><tspan font-family="Helvetica" > 29</tspan></text>
	</g>
</g>
<g fill="none" color="black" stroke="currentColor" stroke-width="1.00" stroke-linecap="butt" stroke-linejoin="miter">
	<path stroke='black'  d='M331.9,242.4 L331.9,233.4  '/>	<g transform="translate(331.9,264.3)" stroke="none" fill="black" font-family="Helvetica" font-size="12.00"  text-anchor="middle">
		<text><tspan font-family="Helvetica" > 30</tspan></text>
	</g>
</g>
<g fill="none" color="black" stroke="currentColor" stroke-width="1.00" stroke-linecap="butt" stroke-linejoin="miter">
	<path stroke='black'  d='M392.3,242.4 L392.3,233.4  '/>	<g transform="translate(392.3,264.3)" stroke="none" fill="black" font-family="Helvetica" font-size="12.00"  text-anchor="middle">
		<text><tspan font-family="Helvetica" > 31</tspan></text>
	</g>
</g>
<g fill="none" color="black" stroke="currentColor" stroke-width="1.00" stroke-linecap="butt" stroke-linejoin="miter">
</g>
<g fill="none" color="black" stroke="currentColor" stroke-width="1.00" stroke-linecap="butt" stroke-linejoin="miter">
	<path stroke='black'  d='M71.9,18.1 L71.9,242.4 L425.0,242.4 L425.0,18.1 L71.9,18.1 Z  '/></g>
<g fill="none" color="black" stroke="currentColor" stroke-width="1.00" stroke-linecap="butt" stroke-linejoin="miter">
	<g transform="translate(16.3,130.3) rotate(270)" stroke="none" fill="black" font-family="Helvetica" font-size="12.00"  text-anchor="middle">
		<text><tspan font-family="Helvetica" >Density (a.u.)</tspan></text>
	</g>
</g>
<g fill="none" color="black" stroke="currentColor" stroke-width="1.00" stroke-linecap="butt" stroke-linejoin="miter">
	<g transform="translate(248.4,291.3)" stroke="none" fill="black" font-family="Helvetica" font-size="12.00"  text-anchor="middle">
		<text><tspan font-family="Helvetica" >Average time (us)</tspan></text>
	</g>
</g>
<g fill="none" color="black" stroke="currentColor" stroke-width="1.00" stroke-linecap="butt" stroke-linejoin="miter">
</g>
	<g id="gnuplot_plot_1" ><title>PDF</title>
<g fill="none" color="black" stroke="currentColor" stroke-width="1.00" stroke-linecap="butt" stroke-linejoin="miter">
	<g stroke='none' shape-rendering='crispEdges'>
		<polygon fill = 'rgb( 31, 120, 180)' fill-opacity = '0.250000' points = '71.9,241.1 72.6,240.9 73.3,240.7 74.0,240.5 74.7,240.3 75.4,240.0 76.1,239.8 76.9,239.4 77.6,239.1 78.3,238.7 79.0,238.3 79.7,237.9 80.4,237.4 81.1,236.9 81.8,236.3 82.5,235.7
83.2,235.0 83.9,234.3 84.6,233.5 85.3,232.6 86.1,231.7 86.8,230.7 87.5,229.6 88.2,228.4 88.9,227.2 89.6,225.8 90.3,224.4 91.0,222.9 91.7,221.2 92.4,219.5 93.1,217.7 93.8,215.7
94.5,213.6 95.3,211.4 96.0,209.1 96.7,206.7 97.4,204.1 98.1,201.4 98.8,198.6 99.5,195.6 100.2,192.5 100.9,189.3 101.6,186.0 102.3,182.5 103.0,178.9 103.7,175.1 104.5,171.2 105.2,167.2
105.9,163.1 106.6,158.9 107.3,154.6 108.0,150.1 108.7,145.6 109.4,141.0 110.1,136.3 110.8,131.5 111.5,126.7 112.2,121.9 112.9,116.9 113.6,112.0 114.4,107.1 115.1,102.1 115.8,97.2 116.5,92.3
117.2,87.4 117.9,82.6 118.6,77.9 119.3,73.2 120.0,68.7 120.7,64.2 121.4,59.9 122.1,55.7 122.8,51.7 123.6,47.8 124.3,44.2 125.0,40.7 125.7,37.5 126.4,34.4 127.1,31.6 127.8,29.0
128.5,26.7 129.2,24.7 129.9,22.9 130.6,21.4 131.3,20.2 132.0,19.2 132.8,18.5 133.5,18.2 134.2,18.1 134.9,18.3 135.6,18.8 136.3,19.6 137.0,20.7 137.7,22.0 138.4,23.6 139.1,25.5
139.8,27.7 140.5,30.1 141.2,32.7 142.0,35.6 142.7,38.6 143.4,41.9 144.1,45.4 144.8,49.1 145.5,52.9 146.2,56.9 146.9,61.0 147.6,65.3 148.3,69.7 149.0,74.2 149.7,78.7 150.4,83.3
151.2,88.0 151.9,92.8 152.6,97.5 153.3,102.3 154.0,107.1 154.7,111.9 155.4,116.6 156.1,121.3 156.8,126.0 157.5,130.7 158.2,135.2 158.9,139.7 159.6,144.1 160.4,148.5 161.1,152.7 161.8,156.9
162.5,160.9 163.2,164.9 163.9,168.7 164.6,172.4 165.3,176.0 166.0,179.5 166.7,182.8 167.4,186.1 168.1,189.2 168.8,192.1 169.6,195.0 170.3,197.7 171.0,200.4 171.7,202.9 172.4,205.2 173.1,207.5
173.8,209.7 174.5,211.7 175.2,213.6 175.9,215.5 176.6,217.2 177.3,218.8 178.0,220.3 178.7,221.8 179.5,223.1 180.2,224.4 180.9,225.5 181.6,226.6 182.3,227.7 183.0,228.6 183.7,229.5 184.4,230.3
185.1,231.1 185.8,231.7 186.5,232.4 187.2,233.0 187.9,233.5 188.7,234.0 189.4,234.4 190.1,234.8 190.8,235.1 191.5,235.4 192.2,235.7 192.9,235.9 193.6,236.1 194.3,236.3 195.0,236.4 195.7,236.5
196.4,236.6 197.1,236.6 197.9,236.7 198.6,236.7 199.3,236.7 200.0,236.6 200.7,236.6 201.4,236.5 202.1,236.4 202.8,236.3 203.5,236.2 204.2,236.1 204.9,236.0 205.6,235.9 206.3,235.7 207.1,235.6
207.8,235.4 208.5,235.2 209.2,235.1 209.9,234.9 210.6,234.7 211.3,234.6 212.0,234.4 212.7,234.2 213.4,234.0 214.1,233.9 214.8,233.7 215.5,233.5 216.3,233.4 217.0,233.2 217.7,233.1 218.4,233.0
219.1,232.8 219.8,232.7 220.5,232.6 221.2,232.5 221.9,232.4 222.6,232.3 223.3,232.2 224.0,232.2 224.7,232.1 225.5,232.1 226.2,232.0 226.9,232.0 227.6,232.0 228.3,232.0 229.0,232.0 229.7,232.0
230.4,232.0 231.1,232.1 231.8,232.1 232.5,232.2 233.2,232.3 233.9,232.3 234.7,232.4 235.4,232.5 236.1,232.6 236.8,232.7 237.5,232.9 238.2,233.0 238.9,233.1 239.6,233.2 240.3,233.4 241.0,233.5
241.7,233.7 242.4,233.8 243.1,234.0 243.9,234.1 244.6,234.3 245.3,234.5 246.0,234.6 246.7,234.8 247.4,234.9 248.1,235.1 248.8,235.2 249.5,235.4 250.2,235.6 250.9,235.7 251.6,235.9 252.3,236.0
253.0,236.2 253.8,236.3 254.5,236.5 255.2,236.6 255.9,236.8 256.6,236.9 257.3,237.0 258.0,237.2 258.7,237.3 259.4,237.4 260.1,237.6 260.8,237.7 261.5,237.8 262.2,237.9 263.0,238.0 263.7,238.1
264.4,238.3 265.1,238.4 265.8,238.5 266.5,238.6 267.2,238.7 267.9,238.8 268.6,238.9 269.3,239.0 270.0,239.0 270.7,239.1 271.4,239.2 272.2,239.3 272.9,239.4 273.6,239.5 274.3,239.5 275.0,239.6
275.7,239.7 276.4,239.7 277.1,239.8 277.8,239.8 278.5,239.9 279.2,239.9 279.9,240.0 280.6,240.0 281.4,240.0 282.1,240.1 282.8,240.1 283.5,240.1 284.2,240.1 284.9,240.1 285.6,240.1 286.3,240.1
287.0,240.1 287.7,240.1 288.4,240.1 289.1,240.0 289.8,240.0 290.6,240.0 291.3,239.9 292.0,239.8 292.7,239.8 293.4,239.7 294.1,239.6 294.8,239.6 295.5,239.5 296.2,239.4 296.9,239.3 297.6,239.2
298.3,239.1 299.0,239.0 299.8,238.9 300.5,238.7 301.2,238.6 301.9,238.5 302.6,238.4 303.3,238.2 304.0,238.1 304.7,237.9 305.4,237.8 306.1,237.7 306.8,237.5 307.5,237.4 308.2,237.2 309.0,237.1
309.7,236.9 310.4,236.8 311.1,236.6 311.8,236.5 312.5,236.4 313.2,236.2 313.9,236.1 314.6,236.0 315.3,235.9 316.0,235.7 316.7,235.6 317.4,235.5 318.2,235.4 318.9,235.3 319.6,235.3 320.3,235.2
321.0,235.1 321.7,235.0 322.4,235.0 323.1,234.9 323.8,234.9 324.5,234.9 325.2,234.8 325.9,234.8 326.6,234.8 327.3,234.8 328.1,234.8 328.8,234.8 329.5,234.9 330.2,234.9 330.9,234.9 331.6,235.0
332.3,235.0 333.0,235.1 333.7,235.1 334.4,235.2 335.1,235.3 335.8,235.3 336.5,235.4 337.3,235.5 338.0,235.6 338.7,235.7 339.4,235.8 340.1,235.9 340.8,236.0 341.5,236.1 342.2,236.2 342.9,236.3
343.6,236.4 344.3,236.5 345.0,236.6 345.7,236.7 346.5,236.8 347.2,236.9 347.9,237.0 348.6,237.1 349.3,237.2 350.0,237.3 350.7,237.3 351.4,237.4 352.1,237.5 352.8,237.6 353.5,237.7 354.2,237.8
354.9,237.8 355.7,237.9 356.4,238.0 357.1,238.1 357.8,238.1 358.5,238.2 359.2,238.3 359.9,238.3 360.6,238.4 361.3,238.5 362.0,238.5 362.7,238.6 363.4,238.7 364.1,238.7 364.9,238.8 365.6,238.8
366.3,238.9 367.0,239.0 367.7,239.0 368.4,239.1 369.1,239.1 369.8,239.2 370.5,239.3 371.2,239.3 371.9,239.4 372.6,239.4 373.3,239.5 374.1,239.6 374.8,239.6 375.5,239.7 376.2,239.7 376.9,239.8
377.6,239.9 378.3,239.9 379.0,240.0 379.7,240.1 380.4,240.1 381.1,240.2 381.8,240.3 382.5,240.4 383.3,240.4 384.0,240.5 384.7,240.6 385.4,240.6 386.1,240.7 386.8,240.8 387.5,240.8 388.2,240.9
388.9,240.9 389.6,241.0 390.3,241.1 391.0,241.1 391.7,241.2 392.4,241.2 393.2,241.3 393.9,241.4 394.6,241.4 395.3,241.5 396.0,241.5 396.7,241.6 397.4,241.6 398.1,241.7 398.8,241.7 399.5,241.7
400.2,241.8 400.9,241.8 401.6,241.9 402.4,241.9 403.1,241.9 403.8,242.0 404.5,242.0 405.2,242.0 405.9,242.0 406.6,242.1 407.3,242.1 408.0,242.1 408.7,242.1 409.4,242.2 410.1,242.2 410.8,242.2
411.6,242.2 412.3,242.2 413.0,242.2 413.7,242.3 414.4,242.3 415.1,242.3 415.8,242.3 416.5,242.3 417.2,242.3 417.9,242.3 418.6,242.3 419.3,242.3 420.0,242.3 420.8,242.3 421.5,242.4 422.2,242.4
422.9,242.4 423.6,242.4 424.3,242.4 425.0,242.4 425.0,242.4 424.3,242.4 423.6,242.4 422.9,242.4 422.2,242.4 421.5,242.4 420.8,242.4 420.0,242.4 419.3,242.4 418.6,242.4 417.9,242.4 417.2,242.4
416.5,242.4 415.8,242.4 415.1,242.4 414.4,242.4 413.7,242.4 413.0,242.4 412.3,242.4 411.6,242.4 410.8,242.4 410.1,242.4 409.4,242.4 408.7,242.4 408.0,242.4 407.3,242.4 406.6,242.4 405.9,242.4
405.2,242.4 404.5,242.4 403.8,242.4 403.1,242.4 402.4,242.4 401.6,242.4 400.9,242.4 400.2,242.4 399.5,242.4 398.8,242.4 398.1,242.4 397.4,242.4 396.7,242.4 396.0,242.4 395.3,242.4 394.6,242.4
393.9,242.4 393.2,242.4 392.4,242.4 391.7,242.4 391.0,242.4 390.3,242.4 389.6,242.4 388.9,242.4 388.2,242.4 387.5,242.4 386.8,242.4 386.1,242.4 385.4,242.4 384.7,242.4 384.0,242.4 383.3,242.4
382.5,242.4 381.8,242.4 381.1,242.4 380.4,242.4 379.7,242.4 379.0,242.4 378.3,242.4 377.6,242.4 376.9,242.4 376.2,242.4 375.5,242.4 374.8,242.4 374.1,242.4 373.3,242.4 372.6,242.4 371.9,242.4
371.2,242.4 370.5,242.4 369.8,242.4 369.1,242.4 368.4,242.4 367.7,242.4 367.0,242.4 366.3,242.4 365.6,242.4 364.9,242.4 364.1,242.4 363.4,242.4 362.7,242.4 362.0,242.4 361.3,242.4 360.6,242.4
359.9,242.4 359.2,242.4 358.5,242.4 357.8,242.4 357.1,242.4 356.4,242.4 355.7,242.4 354.9,242.4 354.2,242.4 353.5,242.4 352.8,242.4 352.1,242.4 351.4,242.4 350.7,242.4 350.0,242.4 349.3,242.4
348.6,242.4 347.9,242.4 347.2,242.4 346.5,242.4 345.7,242.4 345.0,242.4 344.3,242.4 343.6,242.4 342.9,242.4 342.2,242.4 341.5,242.4 340.8,242.4 340.1,242.4 339.4,242.4 338.7,242.4 338.0,242.4
337.3,242.4 336.5,242.4 335.8,242.4 335.1,242.4 334.4,242.4 333.7,242.4 333.0,242.4 332.3,242.4 331.6,242.4 330.9,242.4 330.2,242.4 329.5,242.4 328.8,242.4 328.1,242.4 327.3,242.4 326.6,242.4
325.9,242.4 325.2,242.4 324.5,242.4 323.8,242.4 323.1,242.4 322.4,242.4 321.7,242.4 321.0,242.4 320.3,242.4 319.6,242.4 318.9,242.4 318.2,242.4 317.4,242.4 316.7,242.4 316.0,242.4 315.3,242.4
314.6,242.4 313.9,242.4 313.2,242.4 312.5,242.4 311.8,242.4 311.1,242.4 310.4,242.4 309.7,242.4 309.0,242.4 308.2,242.4 307.5,242.4 306.8,242.4 306.1,242.4 305.4,242.4 304.7,242.4 304.0,242.4
303.3,242.4 302.6,242.4 301.9,242.4 301.2,242.4 300.5,242.4 299.8,242.4 299.0,242.4 298.3,242.4 297.6,242.4 296.9,242.4 296.2,242.4 295.5,242.4 294.8,242.4 294.1,242.4 293.4,242.4 292.7,242.4
292.0,242.4 291.3,242.4 290.6,242.4 289.8,242.4 289.1,242.4 288.4,242.4 287.7,242.4 287.0,242.4 286.3,242.4 285.6,242.4 284.9,242.4 284.2,242.4 283.5,242.4 282.8,242.4 282.1,242.4 281.4,242.4
280.6,242.4 279.9,242.4 279.2,242.4 278.5,242.4 277.8,242.4 277.1,242.4 276.4,242.4 275.7,242.4 275.0,242.4 274.3,242.4 273.6,242.4 272.9,242.4 272.2,242.4 271.4,242.4 270.7,242.4 270.0,242.4
269.3,242.4 268.6,242.4 267.9,242.4 267.2,242.4 266.5,242.4 265.8,242.4 265.1,242.4 264.4,242.4 263.7,242.4 263.0,242.4 262.2,242.4 261.5,242.4 260.8,242.4 260.1,242.4 259.4,242.4 258.7,242.4
258.0,242.4 257.3,242.4 256.6,242.4 255.9,242.4 255.2,242.4 254.5,242.4 253.8,242.4 253.0,242.4 252.3,242.4 251.6,242.4 250.9,242.4 250.2,242.4 249.5,242.4 248.8,242.4 248.1,242.4 247.4,242.4
246.7,242.4 246.0,242.4 245.3,242.4 244.6,242.4 243.9,242.4 243.1,242.4 242.4,242.4 241.7,242.4 241.0,242.4 240.3,242.4 239.6,242.4 238.9,242.4 238.2,242.4 237.5,242.4 236.8,242.4 236.1,242.4
235.4,242.4 234.7,242.4 233.9,242.4 233.2,242.4 232.5,242.4 231.8,242.4 231.1,242.4 230.4,242.4 229.7,242.4 229.0,242.4 228.3,242.4 227.6,242.4 226.9,242.4 226.2,242.4 225.5,242.4 224.7,242.4
224.0,242.4 223.3,242.4 222.6,242.4 221.9,242.4 221.2,242.4 220.5,242.4 219.8,242.4 219.1,242.4 218.4,242.4 217.7,242.4 217.0,242.4 216.3,242.4 215.5,242.4 214.8,242.4 214.1,242.4 213.4,242.4
212.7,242.4 212.0,242.4 211.3,242.4 210.6,242.4 209.9,242.4 209.2,242.4 208.5,242.4 207.8,242.4 207.1,242.4 206.3,242.4 205.6,242.4 204.9,242.4 204.2,242.4 203.5,242.4 202.8,242.4 202.1,242.4
201.4,242.4 200.7,242.4 200.0,242.4 199.3,242.4 198.6,242.4 197.9,242.4 197.1,242.4 196.4,242.4 195.7,242.4 195.0,242.4 194.3,242.4 193.6,242.4 192.9,242.4 192.2,242.4 191.5,242.4 190.8,242.4
190.1,242.4 189.4,242.4 188.7,242.4 187.9,242.4 187.2,242.4 186.5,242.4 185.8,242.4 185.1,242.4 184.4,242.4 183.7,242.4 183.0,242.4 182.3,242.4 181.6,242.4 180.9,242.4 180.2,242.4 179.5,242.4
178.7,242.4 178.0,242.4 177.3,242.4 176.6,242.4 175.9,242.4 175.2,242.4 174.5,242.4 173.8,242.4 173.1,242.4 172.4,242.4 171.7,242.4 171.0,242.4 170.3,242.4 169.6,242.4 168.8,242.4 168.1,242.4
167.4,242.4 166.7,242.4 166.0,242.4 165.3,242.4 164.6,242.4 163.9,242.4 163.2,242.4 162.5,242.4 161.8,242.4 161.1,242.4 160.4,242.4 159.6,242.4 158.9,242.4 158.2,242.4 157.5,242.4 156.8,242.4
156.1,242.4 155.4,242.4 154.7,242.4 154.0,242.4 153.3,242.4 152.6,242.4 151.9,242.4 151.2,242.4 150.4,242.4 149.7,242.4 149.0,242.4 148.3,242.4 147.6,242.4 146.9,242.4 146.2,242.4 145.5,242.4
144.8,242.4 144.1,242.4 143.4,242.4 142.7,242.4 142.0,242.4 141.2,242.4 140.5,242.4 139.8,242.4 139.1,242.4 138.4,242.4 137.7,242.4 137.0,242.4 136.3,242.4 135.6,242.4 134.9,242.4 134.2,242.4
133.5,242.4 132.8,242.4 132.0,242.4 131.3,242.4 130.6,242.4 129.9,242.4 129.2,242.4 128.5,242.4 127.8,242.4 127.1,242.4 126.4,242.4 125.7,242.4 125.0,242.4 124.3,242.4 123.6,242.4 122.8,242.4
122.1,242.4 121.4,242.4 120.7,242.4 120.0,242.4 119.3,242.4 118.6,242.4 117.9,242.4 117.2,242.4 116.5,242.4 115.8,242.4 115.1,242.4 114.4,242.4 113.6,242.4 112.9,242.4 112.2,242.4 111.5,242.4
110.8,242.4 110.1,242.4 109.4,242.4 108.7,242.4 108.0,242.4 107.3,242.4 106.6,242.4 105.9,242.4 105.2,242.4 104.5,242.4 103.7,242.4 103.0,242.4 102.3,242.4 101.6,242.4 100.9,242.4 100.2,242.4
99.5,242.4 98.8,242.4 98.1,242.4 97.4,242.4 96.7,242.4 96.0,242.4 95.3,242.4 94.5,242.4 93.8,242.4 93.1,242.4 92.4,242.4 91.7,242.4 91.0,242.4 90.3,242.4 89.6,242.4 88.9,242.4
88.2,242.4 87.5,242.4 86.8,242.4 86.1,242.4 85.3,242.4 84.6,242.4 83.9,242.4 83.2,242.4 82.5,242.4 81.8,242.4 81.1,242.4 80.4,242.4 79.7,242.4 79.0,242.4 78.3,242.4 77.6,242.4
76.9,242.4 76.1,242.4 75.4,242.4 74.7,242.4 74.0,242.4 73.3,242.4 72.6,242.4 71.9,242.4 '/>
	</g>
</g>
	</g>
	<g id="gnuplot_plot_2" ><title>Mean</title>
<g fill="none" color="white" stroke="rgb( 31, 120, 180)" stroke-width="2.00" stroke-linecap="butt" stroke-linejoin="miter">
</g>
<g fill="none" color="black" stroke="currentColor" stroke-width="2.00" stroke-linecap="butt" stroke-linejoin="miter">
	<path stroke='rgb( 31, 120, 180)'  d='M147.7,242.4 L147.7,81.6  '/></g>
	</g>
<g fill="none" color="black" stroke="currentColor" stroke-width="2.00" stroke-linecap="butt" stroke-linejoin="miter">
</g>
<g fill="none" color="black" stroke="black" stroke-width="1.00" stroke-linecap="butt" stroke-linejoin="miter">
</g>
<g fill="none" color="black" stroke="currentColor" stroke-width="1.00" stroke-linecap="butt" stroke-linejoin="miter">
	<path stroke='black'  d='M71.9,18.1 L71.9,242.4 L425.0,242.4 L425.0,18.1 L71.9,18.1 Z  '/></g>
<g fill="none" color="black" stroke="currentColor" stroke-width="1.00" stroke-linecap="butt" stroke-linejoin="miter">
</g>
</g>
</svg>

