<?xml version="1.0" encoding="utf-8"  standalone="no"?>
<svg 
 viewBox="0 0 1280 720"
 xmlns="http://www.w3.org/2000/svg"
 xmlns:xlink="http://www.w3.org/1999/xlink"
>

<title>Gnuplot</title>
<desc>Produced by GNUPLOT 5.2 patchlevel 6 </desc>

<g id="gnuplot_canvas">

<rect x="0" y="0" width="1280" height="720" fill="none"/>
<defs>

	<circle id='gpDot' r='0.5' stroke-width='0.5' stroke='currentColor'/>
	<path id='gpPt0' stroke-width='0.222' stroke='currentColor' d='M-1,0 h2 M0,-1 v2'/>
	<path id='gpPt1' stroke-width='0.222' stroke='currentColor' d='M-1,-1 L1,1 M1,-1 L-1,1'/>
	<path id='gpPt2' stroke-width='0.222' stroke='currentColor' d='M-1,0 L1,0 M0,-1 L0,1 M-1,-1 L1,1 M-1,1 L1,-1'/>
	<rect id='gpPt3' stroke-width='0.222' stroke='currentColor' x='-1' y='-1' width='2' height='2'/>
	<rect id='gpPt4' stroke-width='0.222' stroke='currentColor' fill='currentColor' x='-1' y='-1' width='2' height='2'/>
	<circle id='gpPt5' stroke-width='0.222' stroke='currentColor' cx='0' cy='0' r='1'/>
	<use xlink:href='#gpPt5' id='gpPt6' fill='currentColor' stroke='none'/>
	<path id='gpPt7' stroke-width='0.222' stroke='currentColor' d='M0,-1.33 L-1.33,0.67 L1.33,0.67 z'/>
	<use xlink:href='#gpPt7' id='gpPt8' fill='currentColor' stroke='none'/>
	<use xlink:href='#gpPt7' id='gpPt9' stroke='currentColor' transform='rotate(180)'/>
	<use xlink:href='#gpPt9' id='gpPt10' fill='currentColor' stroke='none'/>
	<use xlink:href='#gpPt3' id='gpPt11' stroke='currentColor' transform='rotate(45)'/>
	<use xlink:href='#gpPt11' id='gpPt12' fill='currentColor' stroke='none'/>
	<path id='gpPt13' stroke-width='0.222' stroke='currentColor' d='M0,1.330 L1.265,0.411 L0.782,-1.067 L-0.782,-1.076 L-1.265,0.411 z'/>
	<use xlink:href='#gpPt13' id='gpPt14' fill='currentColor' stroke='none'/>
	<filter id='textbox' filterUnits='objectBoundingBox' x='0' y='0' height='1' width='1'>
	  <feFlood flood-color='white' flood-opacity='1' result='bgnd'/>
	  <feComposite in='SourceGraphic' in2='bgnd' operator='atop'/>
	</filter>
	<filter id='greybox' filterUnits='objectBoundingBox' x='0' y='0' height='1' width='1'>
	  <feFlood flood-color='lightgrey' flood-opacity='1' result='grey'/>
	  <feComposite in='SourceGraphic' in2='grey' operator='atop'/>
	</filter>
</defs>
<g fill="none" color="white" stroke="currentColor" stroke-width="1.00" stroke-linecap="butt" stroke-linejoin="miter">
</g>
<g fill="none" color="black" stroke="currentColor" stroke-width="1.00" stroke-linecap="butt" stroke-linejoin="miter">
	<path stroke='black'  d='M96.8,662.4 L105.8,662.4  '/>	<g transform="translate(88.5,666.3)" stroke="none" fill="black" font-family="Helvetica" font-size="12.00"  text-anchor="end">
		<text><tspan font-family="Helvetica" > 0</tspan></text>
	</g>
</g>
<g fill="none" color="black" stroke="currentColor" stroke-width="1.00" stroke-linecap="butt" stroke-linejoin="miter">
	<path stroke='black'  d='M96.8,561.0 L105.8,561.0  '/>	<g transform="translate(88.5,564.9)" stroke="none" fill="black" font-family="Helvetica" font-size="12.00"  text-anchor="end">
		<text><tspan font-family="Helvetica" > 0.0005</tspan></text>
	</g>
</g>
<g fill="none" color="black" stroke="currentColor" stroke-width="1.00" stroke-linecap="butt" stroke-linejoin="miter">
	<path stroke='black'  d='M96.8,459.6 L105.8,459.6  '/>	<g transform="translate(88.5,463.5)" stroke="none" fill="black" font-family="Helvetica" font-size="12.00"  text-anchor="end">
		<text><tspan font-family="Helvetica" > 0.001</tspan></text>
	</g>
</g>
<g fill="none" color="black" stroke="currentColor" stroke-width="1.00" stroke-linecap="butt" stroke-linejoin="miter">
	<path stroke='black'  d='M96.8,358.2 L105.8,358.2  '/>	<g transform="translate(88.5,362.1)" stroke="none" fill="black" font-family="Helvetica" font-size="12.00"  text-anchor="end">
		<text><tspan font-family="Helvetica" > 0.0015</tspan></text>
	</g>
</g>
<g fill="none" color="black" stroke="currentColor" stroke-width="1.00" stroke-linecap="butt" stroke-linejoin="miter">
	<path stroke='black'  d='M96.8,256.9 L105.8,256.9  '/>	<g transform="translate(88.5,260.8)" stroke="none" fill="black" font-family="Helvetica" font-size="12.00"  text-anchor="end">
		<text><tspan font-family="Helvetica" > 0.002</tspan></text>
	</g>
</g>
<g fill="none" color="black" stroke="currentColor" stroke-width="1.00" stroke-linecap="butt" stroke-linejoin="miter">
	<path stroke='black'  d='M96.8,155.5 L105.8,155.5  '/>	<g transform="translate(88.5,159.4)" stroke="none" fill="black" font-family="Helvetica" font-size="12.00"  text-anchor="end">
		<text><tspan font-family="Helvetica" > 0.0025</tspan></text>
	</g>
</g>
<g fill="none" color="black" stroke="currentColor" stroke-width="1.00" stroke-linecap="butt" stroke-linejoin="miter">
	<path stroke='black'  d='M96.8,54.1 L105.8,54.1  '/>	<g transform="translate(88.5,58.0)" stroke="none" fill="black" font-family="Helvetica" font-size="12.00"  text-anchor="end">
		<text><tspan font-family="Helvetica" > 0.003</tspan></text>
	</g>
</g>
<g fill="none" color="black" stroke="currentColor" stroke-width="1.00" stroke-linecap="butt" stroke-linejoin="miter">
	<path stroke='black'  d='M123.8,662.4 L123.8,653.4  '/>	<g transform="translate(123.8,684.3)" stroke="none" fill="black" font-family="Helvetica" font-size="12.00"  text-anchor="middle">
		<text><tspan font-family="Helvetica" > 400</tspan></text>
	</g>
</g>
<g fill="none" color="black" stroke="currentColor" stroke-width="1.00" stroke-linecap="butt" stroke-linejoin="miter">
	<path stroke='black'  d='M261.4,662.4 L261.4,653.4  '/>	<g transform="translate(261.4,684.3)" stroke="none" fill="black" font-family="Helvetica" font-size="12.00"  text-anchor="middle">
		<text><tspan font-family="Helvetica" > 500</tspan></text>
	</g>
</g>
<g fill="none" color="black" stroke="currentColor" stroke-width="1.00" stroke-linecap="butt" stroke-linejoin="miter">
	<path stroke='black'  d='M398.9,662.4 L398.9,653.4  '/>	<g transform="translate(398.9,684.3)" stroke="none" fill="black" font-family="Helvetica" font-size="12.00"  text-anchor="middle">
		<text><tspan font-family="Helvetica" > 600</tspan></text>
	</g>
</g>
<g fill="none" color="black" stroke="currentColor" stroke-width="1.00" stroke-linecap="butt" stroke-linejoin="miter">
	<path stroke='black'  d='M536.5,662.4 L536.5,653.4  '/>	<g transform="translate(536.5,684.3)" stroke="none" fill="black" font-family="Helvetica" font-size="12.00"  text-anchor="middle">
		<text><tspan font-family="Helvetica" > 700</tspan></text>
	</g>
</g>
<g fill="none" color="black" stroke="currentColor" stroke-width="1.00" stroke-linecap="butt" stroke-linejoin="miter">
	<path stroke='black'  d='M674.1,662.4 L674.1,653.4  '/>	<g transform="translate(674.1,684.3)" stroke="none" fill="black" font-family="Helvetica" font-size="12.00"  text-anchor="middle">
		<text><tspan font-family="Helvetica" > 800</tspan></text>
	</g>
</g>
<g fill="none" color="black" stroke="currentColor" stroke-width="1.00" stroke-linecap="butt" stroke-linejoin="miter">
	<path stroke='black'  d='M811.7,662.4 L811.7,653.4  '/>	<g transform="translate(811.7,684.3)" stroke="none" fill="black" font-family="Helvetica" font-size="12.00"  text-anchor="middle">
		<text><tspan font-family="Helvetica" > 900</tspan></text>
	</g>
</g>
<g fill="none" color="black" stroke="currentColor" stroke-width="1.00" stroke-linecap="butt" stroke-linejoin="miter">
	<path stroke='black'  d='M949.2,662.4 L949.2,653.4  '/>	<g transform="translate(949.2,684.3)" stroke="none" fill="black" font-family="Helvetica" font-size="12.00"  text-anchor="middle">
		<text><tspan font-family="Helvetica" > 1000</tspan></text>
	</g>
</g>
<g fill="none" color="black" stroke="currentColor" stroke-width="1.00" stroke-linecap="butt" stroke-linejoin="miter">
</g>
<g fill="none" color="black" stroke="currentColor" stroke-width="1.00" stroke-linecap="butt" stroke-linejoin="miter">
	<path stroke='black'  d='M96.8,54.1 L96.8,662.4 L1013.6,662.4 L1013.6,54.1 L96.8,54.1 Z  '/></g>
<g fill="none" color="black" stroke="currentColor" stroke-width="1.00" stroke-linecap="butt" stroke-linejoin="miter">
	<g transform="translate(16.3,358.3) rotate(270)" stroke="none" fill="black" font-family="Helvetica" font-size="12.00"  text-anchor="middle">
		<text><tspan font-family="Helvetica" >Density (a.u.)</tspan></text>
	</g>
</g>
<g fill="none" color="black" stroke="currentColor" stroke-width="1.00" stroke-linecap="butt" stroke-linejoin="miter">
	<g transform="translate(555.2,711.3)" stroke="none" fill="black" font-family="Helvetica" font-size="12.00"  text-anchor="middle">
		<text><tspan font-family="Helvetica" >Average time (ns)</tspan></text>
	</g>
</g>
<g fill="none" color="black" stroke="currentColor" stroke-width="1.00" stroke-linecap="butt" stroke-linejoin="miter">
	<g transform="translate(555.2,31.0)" stroke="none" fill="black" font-family="Helvetica" font-size="12.00"  text-anchor="middle">
		<text><tspan font-family="Helvetica" >snapshot_restore_with_dense/Sparse: Entire region + process_vm_writev/2: SD</tspan></text>
	</g>
</g>
	<g id="gnuplot_plot_1" ><title>Bootstrap distribution</title>
<g fill="none" color="white" stroke="black" stroke-width="2.00" stroke-linecap="butt" stroke-linejoin="miter">
</g>
<g fill="none" color="black" stroke="currentColor" stroke-width="2.00" stroke-linecap="butt" stroke-linejoin="miter">
	<g transform="translate(1089.0,67.0)" stroke="none" fill="black" font-family="Helvetica" font-size="12.00"  text-anchor="start">
		<text><tspan font-family="Helvetica" >Bootstrap distribution</tspan></text>
	</g>
</g>
<g fill="none" color="black" stroke="currentColor" stroke-width="2.00" stroke-linecap="butt" stroke-linejoin="miter">
	<path stroke='rgb( 31, 120, 180)'  d='M1038.5,63.1 L1080.7,63.1 M96.8,630.1 L98.6,629.4 L100.5,628.7 L102.3,628.0 L104.1,627.3 L106.0,626.5
		L107.8,625.8 L109.7,625.0 L111.5,624.2 L113.3,623.4 L115.2,622.5 L117.0,621.7 L118.8,620.8 L120.7,619.9
		L122.5,619.0 L124.4,618.1 L126.2,617.1 L128.0,616.2 L129.9,615.2 L131.7,614.2 L133.5,613.3 L135.4,612.3
		L137.2,611.3 L139.1,610.4 L140.9,609.4 L142.7,608.4 L144.6,607.5 L146.4,606.5 L148.2,605.6 L150.1,604.7
		L151.9,603.7 L153.8,602.8 L155.6,601.8 L157.4,600.8 L159.3,599.8 L161.1,598.8 L162.9,597.8 L164.8,596.8
		L166.6,595.7 L168.5,594.6 L170.3,593.5 L172.1,592.3 L174.0,591.1 L175.8,589.9 L177.6,588.7 L179.5,587.4
		L181.3,586.1 L183.2,584.8 L185.0,583.5 L186.8,582.1 L188.7,580.7 L190.5,579.3 L192.3,577.9 L194.2,576.4
		L196.0,575.0 L197.9,573.5 L199.7,572.0 L201.5,570.5 L203.4,568.9 L205.2,567.4 L207.0,565.8 L208.9,564.2
		L210.7,562.6 L212.5,561.0 L214.4,559.4 L216.2,557.8 L218.1,556.1 L219.9,554.4 L221.7,552.7 L223.6,551.1
		L225.4,549.4 L227.2,547.7 L229.1,546.0 L230.9,544.3 L232.8,542.5 L234.6,540.8 L236.4,539.1 L238.3,537.4
		L240.1,535.7 L241.9,534.0 L243.8,532.3 L245.6,530.6 L247.5,528.9 L249.3,527.2 L251.1,525.5 L253.0,523.7
		L254.8,522.0 L256.6,520.2 L258.5,518.3 L260.3,516.5 L262.2,514.6 L264.0,512.7 L265.8,510.7 L267.7,508.7
		L269.5,506.7 L271.3,504.6 L273.2,502.5 L275.0,500.3 L276.9,498.1 L278.7,495.9 L280.5,493.6 L282.4,491.2
		L284.2,488.9 L286.0,486.5 L287.9,484.0 L289.7,481.6 L291.6,479.1 L293.4,476.6 L295.2,474.1 L297.1,471.6
		L298.9,469.1 L300.7,466.5 L302.6,464.0 L304.4,461.4 L306.2,458.9 L308.1,456.3 L309.9,453.8 L311.8,451.2
		L313.6,448.6 L315.4,446.0 L317.3,443.5 L319.1,440.9 L320.9,438.3 L322.8,435.6 L324.6,433.0 L326.5,430.3
		L328.3,427.7 L330.1,425.0 L332.0,422.2 L333.8,419.5 L335.6,416.7 L337.5,414.0 L339.3,411.2 L341.2,408.3
		L343.0,405.5 L344.8,402.6 L346.7,399.8 L348.5,396.9 L350.3,394.0 L352.2,391.1 L354.0,388.2 L355.9,385.3
		L357.7,382.5 L359.5,379.6 L361.4,376.7 L363.2,373.9 L365.0,371.0 L366.9,368.2 L368.7,365.3 L370.6,362.5
		L372.4,359.7 L374.2,356.8 L376.1,354.0 L377.9,351.1 L379.7,348.2 L381.6,345.3 L383.4,342.4 L385.3,339.4
		L387.1,336.4 L388.9,333.3 L390.8,330.2 L392.6,327.0 L394.4,323.8 L396.3,320.5 L398.1,317.2 L400.0,313.8
		L401.8,310.4 L403.6,307.0 L405.5,303.5 L407.3,300.1 L409.1,296.6 L411.0,293.1 L412.8,289.6 L414.6,286.2
		L416.5,282.8 L418.3,279.4 L420.2,276.1 L422.0,272.8 L423.8,269.6 L425.7,266.4 L427.5,263.3 L429.3,260.2
		L431.2,257.2 L433.0,254.2 L434.9,251.3 L436.7,248.4 L438.5,245.6 L440.4,242.8 L442.2,240.0 L444.0,237.3
		L445.9,234.5 L447.7,231.8 L449.6,229.1 L451.4,226.4 L453.2,223.7 L455.1,221.0 L456.9,218.2 L458.7,215.5
		L460.6,212.7 L462.4,209.9 L464.3,207.1 L466.1,204.2 L467.9,201.3 L469.8,198.4 L471.6,195.4 L473.4,192.4
		L475.3,189.4 L477.1,186.3 L479.0,183.2 L480.8,180.0 L482.6,176.9 L484.5,173.7 L486.3,170.6 L488.1,167.4
		L490.0,164.2 L491.8,161.1 L493.7,158.0 L495.5,154.9 L497.3,151.9 L499.2,148.9 L501.0,146.0 L502.8,143.2
		L504.7,140.4 L506.5,137.7 L508.3,135.2 L510.2,132.7 L512.0,130.3 L513.9,128.0 L515.7,125.8 L517.5,123.7
		L519.4,121.7 L521.2,119.7 L523.0,117.9 L524.9,116.1 L526.7,114.4 L528.6,112.8 L530.4,111.2 L532.2,109.6
		L534.1,108.2 L535.9,106.7 L537.7,105.3 L539.6,103.9 L541.4,102.6 L543.3,101.3 L545.1,100.0 L546.9,98.8
		L548.8,97.6 L550.6,96.4 L552.4,95.3 L554.3,94.3 L556.1,93.3 L558.0,92.3 L559.8,91.4 L561.6,90.6
		L563.5,89.8 L565.3,89.1 L567.1,88.4 L569.0,87.8 L570.8,87.2 L572.7,86.6 L574.5,86.1 L576.3,85.7
		L578.2,85.2 L580.0,84.8 L581.8,84.5 L583.7,84.1 L585.5,83.8 L587.4,83.5 L589.2,83.3 L591.0,83.1
		L592.9,82.9 L594.7,82.7 L596.5,82.6 L598.4,82.6 L600.2,82.5 L602.1,82.6 L603.9,82.7 L605.7,82.8
		L607.6,83.0 L609.4,83.3 L611.2,83.7 L613.1,84.1 L614.9,84.6 L616.7,85.2 L618.6,85.8 L620.4,86.5
		L622.3,87.3 L624.1,88.2 L625.9,89.1 L627.8,90.1 L629.6,91.1 L631.4,92.3 L633.3,93.4 L635.1,94.7
		L637.0,96.0 L638.8,97.3 L640.6,98.7 L642.5,100.1 L644.3,101.5 L646.1,102.9 L648.0,104.4 L649.8,105.9
		L651.7,107.3 L653.5,108.8 L655.3,110.3 L657.2,111.8 L659.0,113.3 L660.8,114.8 L662.7,116.3 L664.5,117.8
		L666.4,119.3 L668.2,120.9 L670.0,122.5 L671.9,124.1 L673.7,125.9 L675.5,127.6 L677.4,129.5 L679.2,131.4
		L681.1,133.4 L682.9,135.5 L684.7,137.7 L686.6,140.0 L688.4,142.4 L690.2,144.9 L692.1,147.5 L693.9,150.2
		L695.8,153.0 L697.6,155.9 L699.4,158.8 L701.3,161.9 L703.1,165.0 L704.9,168.2 L706.8,171.5 L708.6,174.8
		L710.4,178.1 L712.3,181.5 L714.1,184.9 L716.0,188.3 L717.8,191.7 L719.6,195.1 L721.5,198.5 L723.3,201.9
		L725.1,205.3 L727.0,208.7 L728.8,212.0 L730.7,215.3 L732.5,218.6 L734.3,221.9 L736.2,225.1 L738.0,228.3
		L739.8,231.5 L741.7,234.7 L743.5,237.9 L745.4,241.1 L747.2,244.2 L749.0,247.4 L750.9,250.6 L752.7,253.8
		L754.5,257.0 L756.4,260.2 L758.2,263.4 L760.1,266.7 L761.9,270.0 L763.7,273.3 L765.6,276.6 L767.4,280.0
		L769.2,283.4 L771.1,286.8 L772.9,290.2 L774.8,293.6 L776.6,297.1 L778.4,300.6 L780.3,304.1 L782.1,307.6
		L783.9,311.1 L785.8,314.6 L787.6,318.1 L789.5,321.7 L791.3,325.3 L793.1,328.8 L795.0,332.4 L796.8,336.0
		L798.6,339.6 L800.5,343.2 L802.3,346.8 L804.2,350.5 L806.0,354.1 L807.8,357.8 L809.7,361.4 L811.5,365.0
		L813.3,368.7 L815.2,372.3 L817.0,375.9 L818.8,379.5 L820.7,383.1 L822.5,386.6 L824.4,390.2 L826.2,393.7
		L828.0,397.1 L829.9,400.6 L831.7,404.0 L833.5,407.3 L835.4,410.6 L837.2,413.9 L839.1,417.2 L840.9,420.4
		L842.7,423.6 L844.6,426.8 L846.4,430.0 L848.2,433.1 L850.1,436.3 L851.9,439.4 L853.8,442.5 L855.6,445.7
		L857.4,448.8 L859.3,451.9 L861.1,455.1 L862.9,458.2 L864.8,461.3 L866.6,464.5 L868.5,467.6 L870.3,470.8
		L872.1,473.9 L874.0,477.1 L875.8,480.2 L877.6,483.4 L879.5,486.5 L881.3,489.6 L883.2,492.7 L885.0,495.7
		L886.8,498.7 L888.7,501.8 L890.5,504.7 L892.3,507.7 L894.2,510.6 L896.0,513.4 L897.9,516.3 L899.7,519.1
		L901.5,521.8 L903.4,524.5 L905.2,527.2 L907.0,529.8 L908.9,532.4 L910.7,535.0 L912.5,537.5 L914.4,539.9
		L916.2,542.4 L918.1,544.7 L919.9,547.1 L921.7,549.4 L923.6,551.7 L925.4,553.9 L927.2,556.2 L929.1,558.3
		L930.9,560.5 L932.8,562.6 L934.6,564.7 L936.4,566.8 L938.3,568.8 L940.1,570.9 L941.9,572.9 L943.8,574.9
		L945.6,576.8 L947.5,578.7 L949.3,580.6 L951.1,582.5 L953.0,584.3 L954.8,586.1 L956.6,587.9 L958.5,589.7
		L960.3,591.4 L962.2,593.1 L964.0,594.7 L965.8,596.3 L967.7,597.9 L969.5,599.5 L971.3,601.0 L973.2,602.5
		L975.0,603.9 L976.9,605.3 L978.7,606.7 L980.5,608.1 L982.4,609.4 L984.2,610.7 L986.0,612.0 L987.9,613.3
		L989.7,614.5 L991.6,615.7 L993.4,617.0 L995.2,618.1 L997.1,619.3 L998.9,620.5 L1000.7,621.6 L1002.6,622.7
		L1004.4,623.8 L1006.3,624.9 L1008.1,626.0 L1009.9,627.0 L1011.8,628.1 L1013.6,629.1  '/></g>
	</g>
	<g id="gnuplot_plot_2" ><title>Confidence interval</title>
<g fill="none" color="white" stroke="rgb( 31, 120, 180)" stroke-width="1.00" stroke-linecap="butt" stroke-linejoin="miter">
</g>
<g fill="none" color="black" stroke="currentColor" stroke-width="1.00" stroke-linecap="butt" stroke-linejoin="miter">
	<g transform="translate(1089.0,85.0)" stroke="none" fill="black" font-family="Helvetica" font-size="12.00"  text-anchor="start">
		<text><tspan font-family="Helvetica" >Confidence interval</tspan></text>
	</g>
</g>
<g fill="none" color="black" stroke="currentColor" stroke-width="1.00" stroke-linecap="butt" stroke-linejoin="miter">
	<g stroke='none' shape-rendering='crispEdges'>
		<polygon fill = 'rgb( 31, 120, 180)' fill-opacity = '0.250000' points = '1038.5,85.6 1080.7,85.6 1080.7,76.6 1038.5,76.6 '/>
		<polygon fill = 'rgb( 31, 120, 180)' fill-opacity = '0.250000' points = '181.3,586.1 183.2,584.8 185.0,583.5 186.8,582.1 188.7,580.7 190.5,579.3 192.3,577.9 194.2,576.4 196.0,575.0 197.9,573.5 199.7,572.0 201.5,570.5 203.4,568.9 205.2,567.4 207.0,565.8 208.9,564.2
210.7,562.6 212.5,561.0 214.4,559.4 216.2,557.8 218.1,556.1 219.9,554.4 221.7,552.7 223.6,551.1 225.4,549.4 227.2,547.7 229.1,546.0 230.9,544.3 232.8,542.5 234.6,540.8 236.4,539.1 238.3,537.4
240.1,535.7 241.9,534.0 243.8,532.3 245.6,530.6 247.5,528.9 249.3,527.2 251.1,525.5 253.0,523.7 254.8,522.0 256.6,520.2 258.5,518.3 260.3,516.5 262.2,514.6 264.0,512.7 265.8,510.7 267.7,508.7
269.5,506.7 271.3,504.6 273.2,502.5 275.0,500.3 276.9,498.1 278.7,495.9 280.5,493.6 282.4,491.2 284.2,488.9 286.0,486.5 287.9,484.0 289.7,481.6 291.6,479.1 293.4,476.6 295.2,474.1 297.1,471.6
298.9,469.1 300.7,466.5 302.6,464.0 304.4,461.4 306.2,458.9 308.1,456.3 309.9,453.8 311.8,451.2 313.6,448.6 315.4,446.0 317.3,443.5 319.1,440.9 320.9,438.3 322.8,435.6 324.6,433.0 326.5,430.3
328.3,427.7 330.1,425.0 332.0,422.2 333.8,419.5 335.6,416.7 337.5,414.0 339.3,411.2 341.2,408.3 343.0,405.5 344.8,402.6 346.7,399.8 348.5,396.9 350.3,394.0 352.2,391.1 354.0,388.2 355.9,385.3
357.7,382.5 359.5,379.6 361.4,376.7 363.2,373.9 365.0,371.0 366.9,368.2 368.7,365.3 370.6,362.5 372.4,359.7 374.2,356.8 376.1,354.0 377.9,351.1 379.7,348.2 381.6,345.3 383.4,342.4 385.3,339.4
387.1,336.4 388.9,333.3 390.8,330.2 392.6,327.0 394.4,323.8 396.3,320.5 398.1,317.2 400.0,313.8 401.8,310.4 403.6,307.0 405.5,303.5 407.3,300.1 409.1,296.6 411.0,293.1 412.8,289.6 414.6,286.2
416.5,282.8 418.3,279.4 420.2,276.1 422.0,272.8 423.8,269.6 425.7,266.4 427.5,263.3 429.3,260.2 431.2,257.2 433.0,254.2 434.9,251.3 436.7,248.4 438.5,245.6 440.4,242.8 442.2,240.0 444.0,237.3
445.9,234.5 447.7,231.8 449.6,229.1 451.4,226.4 453.2,223.7 455.1,221.0 456.9,218.2 458.7,215.5 460.6,212.7 462.4,209.9 464.3,207.1 466.1,204.2 467.9,201.3 469.8,198.4 471.6,195.4 473.4,192.4
475.3,189.4 477.1,186.3 479.0,183.2 480.8,180.0 482.6,176.9 484.5,173.7 486.3,170.6 488.1,167.4 490.0,164.2 491.8,161.1 493.7,158.0 495.5,154.9 497.3,151.9 499.2,148.9 501.0,146.0 502.8,143.2
504.7,140.4 506.5,137.7 508.3,135.2 510.2,132.7 512.0,130.3 513.9,128.0 515.7,125.8 517.5,123.7 519.4,121.7 521.2,119.7 523.0,117.9 524.9,116.1 526.7,114.4 528.6,112.8 530.4,111.2 532.2,109.6
534.1,108.2 535.9,106.7 537.7,105.3 539.6,103.9 541.4,102.6 543.3,101.3 545.1,100.0 546.9,98.8 548.8,97.6 550.6,96.4 552.4,95.3 554.3,94.3 556.1,93.3 558.0,92.3 559.8,91.4 561.6,90.6
563.5,89.8 565.3,89.1 567.1,88.4 569.0,87.8 570.8,87.2 572.7,86.6 574.5,86.1 576.3,85.7 578.2,85.2 580.0,84.8 581.8,84.5 583.7,84.1 585.5,83.8 587.4,83.5 589.2,83.3 591.0,83.1
592.9,82.9 594.7,82.7 596.5,82.6 598.4,82.6 600.2,82.5 602.1,82.6 603.9,82.7 605.7,82.8 607.6,83.0 609.4,83.3 611.2,83.7 613.1,84.1 614.9,84.6 616.7,85.2 618.6,85.8 620.4,86.5
622.3,87.3 624.1,88.2 625.9,89.1 627.8,90.1 629.6,91.1 631.4,92.3 633.3,93.4 635.1,94.7 637.0,96.0 638.8,97.3 640.6,98.7 642.5,100.1 644.3,101.5 646.1,102.9 648.0,104.4 649.8,105.9
651.7,107.3 653.5,108.8 655.3,110.3 657.2,111.8 659.0,113.3 660.8,114.8 662.7,116.3 664.5,117.8 666.4,119.3 668.2,120.9 670.0,122.5 671.9,124.1 673.7,125.9 675.5,127.6 677.4,129.5 679.2,131.4
681.1,133.4 682.9,135.5 684.7,137.7 686.6,140.0 688.4,142.4 690.2,144.9 692.1,147.5 693.9,150.2 695.8,153.0 697.6,155.9 699.4,158.8 701.3,161.9 703.1,165.0 704.9,168.2 706.8,171.5 708.6,174.8
710.4,178.1 712.3,181.5 714.1,184.9 716.0,188.3 717.8,191.7 719.6,195.1 721.5,198.5 723.3,201.9 725.1,205.3 727.0,208.7 728.8,212.0 730.7,215.3 732.5,218.6 734.3,221.9 736.2,225.1 738.0,228.3
739.8,231.5 741.7,234.7 743.5,237.9 745.4,241.1 747.2,244.2 749.0,247.4 750.9,250.6 752.7,253.8 754.5,257.0 756.4,260.2 758.2,263.4 760.1,266.7 761.9,270.0 763.7,273.3 765.6,276.6 767.4,280.0
769.2,283.4 771.1,286.8 772.9,290.2 774.8,293.6 776.6,297.1 778.4,300.6 780.3,304.1 782.1,307.6 783.9,311.1 785.8,314.6 787.6,318.1 789.5,321.7 791.3,325.3 793.1,328.8 795.0,332.4 796.8,336.0
798.6,339.6 800.5,343.2 802.3,346.8 804.2,350.5 806.0,354.1 807.8,357.8 809.7,361.4 811.5,365.0 813.3,368.7 815.2,372.3 817.0,375.9 818.8,379.5 820.7,383.1 822.5,386.6 824.4,390.2 826.2,393.7
828.0,397.1 829.9,400.6 831.7,404.0 833.5,407.3 835.4,410.6 837.2,413.9 839.1,417.2 840.9,420.4 842.7,423.6 844.6,426.8 846.4,430.0 848.2,433.1 850.1,436.3 851.9,439.4 853.8,442.5 855.6,445.7
857.4,448.8 859.3,451.9 861.1,455.1 862.9,458.2 864.8,461.3 866.6,464.5 868.5,467.6 870.3,470.8 872.1,473.9 874.0,477.1 875.8,480.2 877.6,483.4 879.5,486.5 881.3,489.6 883.2,492.7 885.0,495.7
886.8,498.7 888.7,501.8 890.5,504.7 892.3,507.7 894.2,510.6 896.0,513.4 897.9,516.3 899.7,519.1 901.5,521.8 903.4,524.5 905.2,527.2 907.0,529.8 908.9,532.4 910.7,535.0 912.5,537.5 914.4,539.9
916.2,542.4 918.1,544.7 919.9,547.1 921.7,549.4 923.6,551.7 925.4,553.9 927.2,556.2 927.2,662.4 925.4,662.4 923.6,662.4 921.7,662.4 919.9,662.4 918.1,662.4 916.2,662.4 914.4,662.4 912.5,662.4
910.7,662.4 908.9,662.4 907.0,662.4 905.2,662.4 903.4,662.4 901.5,662.4 899.7,662.4 897.9,662.4 896.0,662.4 894.2,662.4 892.3,662.4 890.5,662.4 888.7,662.4 886.8,662.4 885.0,662.4 883.2,662.4
881.3,662.4 879.5,662.4 877.6,662.4 875.8,662.4 874.0,662.4 872.1,662.4 870.3,662.4 868.5,662.4 866.6,662.4 864.8,662.4 862.9,662.4 861.1,662.4 859.3,662.4 857.4,662.4 855.6,662.4 853.8,662.4
851.9,662.4 850.1,662.4 848.2,662.4 846.4,662.4 844.6,662.4 842.7,662.4 840.9,662.4 839.1,662.4 837.2,662.4 835.4,662.4 833.5,662.4 831.7,662.4 829.9,662.4 828.0,662.4 826.2,662.4 824.4,662.4
822.5,662.4 820.7,662.4 818.8,662.4 817.0,662.4 815.2,662.4 813.3,662.4 811.5,662.4 809.7,662.4 807.8,662.4 806.0,662.4 804.2,662.4 802.3,662.4 800.5,662.4 798.6,662.4 796.8,662.4 795.0,662.4
793.1,662.4 791.3,662.4 789.5,662.4 787.6,662.4 785.8,662.4 783.9,662.4 782.1,662.4 780.3,662.4 778.4,662.4 776.6,662.4 774.8,662.4 772.9,662.4 771.1,662.4 769.2,662.4 767.4,662.4 765.6,662.4
763.7,662.4 761.9,662.4 760.1,662.4 758.2,662.4 756.4,662.4 754.5,662.4 752.7,662.4 750.9,662.4 749.0,662.4 747.2,662.4 745.4,662.4 743.5,662.4 741.7,662.4 739.8,662.4 738.0,662.4 736.2,662.4
734.3,662.4 732.5,662.4 730.7,662.4 728.8,662.4 727.0,662.4 725.1,662.4 723.3,662.4 721.5,662.4 719.6,662.4 717.8,662.4 716.0,662.4 714.1,662.4 712.3,662.4 710.4,662.4 708.6,662.4 706.8,662.4
704.9,662.4 703.1,662.4 701.3,662.4 699.4,662.4 697.6,662.4 695.8,662.4 693.9,662.4 692.1,662.4 690.2,662.4 688.4,662.4 686.6,662.4 684.7,662.4 682.9,662.4 681.1,662.4 679.2,662.4 677.4,662.4
675.5,662.4 673.7,662.4 671.9,662.4 670.0,662.4 668.2,662.4 666.4,662.4 664.5,662.4 662.7,662.4 660.8,662.4 659.0,662.4 657.2,662.4 655.3,662.4 653.5,662.4 651.7,662.4 649.8,662.4 648.0,662.4
646.1,662.4 644.3,662.4 642.5,662.4 640.6,662.4 638.8,662.4 637.0,662.4 635.1,662.4 633.3,662.4 631.4,662.4 629.6,662.4 627.8,662.4 625.9,662.4 624.1,662.4 622.3,662.4 620.4,662.4 618.6,662.4
616.7,662.4 614.9,662.4 613.1,662.4 611.2,662.4 609.4,662.4 607.6,662.4 605.7,662.4 603.9,662.4 602.1,662.4 600.2,662.4 598.4,662.4 596.5,662.4 594.7,662.4 592.9,662.4 591.0,662.4 589.2,662.4
587.4,662.4 585.5,662.4 583.7,662.4 581.8,662.4 580.0,662.4 578.2,662.4 576.3,662.4 574.5,662.4 572.7,662.4 570.8,662.4 569.0,662.4 567.1,662.4 565.3,662.4 563.5,662.4 561.6,662.4 559.8,662.4
558.0,662.4 556.1,662.4 554.3,662.4 552.4,662.4 550.6,662.4 548.8,662.4 546.9,662.4 545.1,662.4 543.3,662.4 541.4,662.4 539.6,662.4 537.7,662.4 535.9,662.4 534.1,662.4 532.2,662.4 530.4,662.4
528.6,662.4 526.7,662.4 524.9,662.4 523.0,662.4 521.2,662.4 519.4,662.4 517.5,662.4 515.7,662.4 513.9,662.4 512.0,662.4 510.2,662.4 508.3,662.4 506.5,662.4 504.7,662.4 502.8,662.4 501.0,662.4
499.2,662.4 497.3,662.4 495.5,662.4 493.7,662.4 491.8,662.4 490.0,662.4 488.1,662.4 486.3,662.4 484.5,662.4 482.6,662.4 480.8,662.4 479.0,662.4 477.1,662.4 475.3,662.4 473.4,662.4 471.6,662.4
469.8,662.4 467.9,662.4 466.1,662.4 464.3,662.4 462.4,662.4 460.6,662.4 458.7,662.4 456.9,662.4 455.1,662.4 453.2,662.4 451.4,662.4 449.6,662.4 447.7,662.4 445.9,662.4 444.0,662.4 442.2,662.4
440.4,662.4 438.5,662.4 436.7,662.4 434.9,662.4 433.0,662.4 431.2,662.4 429.3,662.4 427.5,662.4 425.7,662.4 423.8,662.4 422.0,662.4 420.2,662.4 418.3,662.4 416.5,662.4 414.6,662.4 412.8,662.4
411.0,662.4 409.1,662.4 407.3,662.4 405.5,662.4 403.6,662.4 401.8,662.4 400.0,662.4 398.1,662.4 396.3,662.4 394.4,662.4 392.6,662.4 390.8,662.4 388.9,662.4 387.1,662.4 385.3,662.4 383.4,662.4
381.6,662.4 379.7,662.4 377.9,662.4 376.1,662.4 374.2,662.4 372.4,662.4 370.6,662.4 368.7,662.4 366.9,662.4 365.0,662.4 363.2,662.4 361.4,662.4 359.5,662.4 357.7,662.4 355.9,662.4 354.0,662.4
352.2,662.4 350.3,662.4 348.5,662.4 346.7,662.4 344.8,662.4 343.0,662.4 341.2,662.4 339.3,662.4 337.5,662.4 335.6,662.4 333.8,662.4 332.0,662.4 330.1,662.4 328.3,662.4 326.5,662.4 324.6,662.4
322.8,662.4 320.9,662.4 319.1,662.4 317.3,662.4 315.4,662.4 313.6,662.4 311.8,662.4 309.9,662.4 308.1,662.4 306.2,662.4 304.4,662.4 302.6,662.4 300.7,662.4 298.9,662.4 297.1,662.4 295.2,662.4
293.4,662.4 291.6,662.4 289.7,662.4 287.9,662.4 286.0,662.4 284.2,662.4 282.4,662.4 280.5,662.4 278.7,662.4 276.9,662.4 275.0,662.4 273.2,662.4 271.3,662.4 269.5,662.4 267.7,662.4 265.8,662.4
264.0,662.4 262.2,662.4 260.3,662.4 258.5,662.4 256.6,662.4 254.8,662.4 253.0,662.4 251.1,662.4 249.3,662.4 247.5,662.4 245.6,662.4 243.8,662.4 241.9,662.4 240.1,662.4 238.3,662.4 236.4,662.4
234.6,662.4 232.8,662.4 230.9,662.4 229.1,662.4 227.2,662.4 225.4,662.4 223.6,662.4 221.7,662.4 219.9,662.4 218.1,662.4 216.2,662.4 214.4,662.4 212.5,662.4 210.7,662.4 208.9,662.4 207.0,662.4
205.2,662.4 203.4,662.4 201.5,662.4 199.7,662.4 197.9,662.4 196.0,662.4 194.2,662.4 192.3,662.4 190.5,662.4 188.7,662.4 186.8,662.4 185.0,662.4 183.2,662.4 181.3,662.4 '/>
	</g>
</g>
	</g>
	<g id="gnuplot_plot_3" ><title>Point estimate</title>
<g fill="none" color="white" stroke="rgb( 31, 120, 180)" stroke-width="2.00" stroke-linecap="butt" stroke-linejoin="miter">
</g>
<g fill="none" color="black" stroke="currentColor" stroke-width="2.00" stroke-linecap="butt" stroke-linejoin="miter">
	<g transform="translate(1089.0,103.0)" stroke="none" fill="black" font-family="Helvetica" font-size="12.00"  text-anchor="start">
		<text><tspan font-family="Helvetica" >Point estimate</tspan></text>
	</g>
</g>
<g fill="none" color="black" stroke="currentColor" stroke-width="2.00" stroke-linecap="butt" stroke-linejoin="miter">
	<path stroke='rgb( 31, 120, 180)'  d='M1038.5,99.1 L1080.7,99.1 M600.0,662.4 L600.0,82.5  '/></g>
	</g>
<g fill="none" color="black" stroke="currentColor" stroke-width="2.00" stroke-linecap="butt" stroke-linejoin="miter">
</g>
<g fill="none" color="black" stroke="black" stroke-width="1.00" stroke-linecap="butt" stroke-linejoin="miter">
</g>
<g fill="none" color="black" stroke="currentColor" stroke-width="1.00" stroke-linecap="butt" stroke-linejoin="miter">
	<path stroke='black'  d='M96.8,54.1 L96.8,662.4 L1013.6,662.4 L1013.6,54.1 L96.8,54.1 Z  '/></g>
<g fill="none" color="black" stroke="currentColor" stroke-width="1.00" stroke-linecap="butt" stroke-linejoin="miter">
</g>
</g>
</svg>

