<?xml version="1.0" encoding="utf-8"  standalone="no"?>
<svg 
 viewBox="0 0 1280 720"
 xmlns="http://www.w3.org/2000/svg"
 xmlns:xlink="http://www.w3.org/1999/xlink"
>

<title>Gnuplot</title>
<desc>Produced by GNUPLOT 5.2 patchlevel 6 </desc>

<g id="gnuplot_canvas">

<rect x="0" y="0" width="1280" height="720" fill="none"/>
<defs>

	<circle id='gpDot' r='0.5' stroke-width='0.5' stroke='currentColor'/>
	<path id='gpPt0' stroke-width='0.222' stroke='currentColor' d='M-1,0 h2 M0,-1 v2'/>
	<path id='gpPt1' stroke-width='0.222' stroke='currentColor' d='M-1,-1 L1,1 M1,-1 L-1,1'/>
	<path id='gpPt2' stroke-width='0.222' stroke='currentColor' d='M-1,0 L1,0 M0,-1 L0,1 M-1,-1 L1,1 M-1,1 L1,-1'/>
	<rect id='gpPt3' stroke-width='0.222' stroke='currentColor' x='-1' y='-1' width='2' height='2'/>
	<rect id='gpPt4' stroke-width='0.222' stroke='currentColor' fill='currentColor' x='-1' y='-1' width='2' height='2'/>
	<circle id='gpPt5' stroke-width='0.222' stroke='currentColor' cx='0' cy='0' r='1'/>
	<use xlink:href='#gpPt5' id='gpPt6' fill='currentColor' stroke='none'/>
	<path id='gpPt7' stroke-width='0.222' stroke='currentColor' d='M0,-1.33 L-1.33,0.67 L1.33,0.67 z'/>
	<use xlink:href='#gpPt7' id='gpPt8' fill='currentColor' stroke='none'/>
	<use xlink:href='#gpPt7' id='gpPt9' stroke='currentColor' transform='rotate(180)'/>
	<use xlink:href='#gpPt9' id='gpPt10' fill='currentColor' stroke='none'/>
	<use xlink:href='#gpPt3' id='gpPt11' stroke='currentColor' transform='rotate(45)'/>
	<use xlink:href='#gpPt11' id='gpPt12' fill='currentColor' stroke='none'/>
	<path id='gpPt13' stroke-width='0.222' stroke='currentColor' d='M0,1.330 L1.265,0.411 L0.782,-1.067 L-0.782,-1.076 L-1.265,0.411 z'/>
	<use xlink:href='#gpPt13' id='gpPt14' fill='currentColor' stroke='none'/>
	<filter id='textbox' filterUnits='objectBoundingBox' x='0' y='0' height='1' width='1'>
	  <feFlood flood-color='white' flood-opacity='1' result='bgnd'/>
	  <feComposite in='SourceGraphic' in2='bgnd' operator='atop'/>
	</filter>
	<filter id='greybox' filterUnits='objectBoundingBox' x='0' y='0' height='1' width='1'>
	  <feFlood flood-color='lightgrey' flood-opacity='1' result='grey'/>
	  <feComposite in='SourceGraphic' in2='grey' operator='atop'/>
	</filter>
</defs>
<g fill="none" color="white" stroke="currentColor" stroke-width="1.00" stroke-linecap="butt" stroke-linejoin="miter">
</g>
<g fill="none" color="black" stroke="currentColor" stroke-width="1.00" stroke-linecap="butt" stroke-linejoin="miter">
	<path stroke='black'  d='M55.3,662.4 L64.3,662.4  '/>	<g transform="translate(47.0,666.3)" stroke="none" fill="black" font-family="Helvetica" font-size="12.00"  text-anchor="end">
		<text><tspan font-family="Helvetica" > 0</tspan></text>
	</g>
</g>
<g fill="none" color="black" stroke="currentColor" stroke-width="1.00" stroke-linecap="butt" stroke-linejoin="miter">
	<path stroke='black'  d='M55.3,561.0 L64.3,561.0  '/>	<g transform="translate(47.0,564.9)" stroke="none" fill="black" font-family="Helvetica" font-size="12.00"  text-anchor="end">
		<text><tspan font-family="Helvetica" > 1</tspan></text>
	</g>
</g>
<g fill="none" color="black" stroke="currentColor" stroke-width="1.00" stroke-linecap="butt" stroke-linejoin="miter">
	<path stroke='black'  d='M55.3,459.6 L64.3,459.6  '/>	<g transform="translate(47.0,463.5)" stroke="none" fill="black" font-family="Helvetica" font-size="12.00"  text-anchor="end">
		<text><tspan font-family="Helvetica" > 2</tspan></text>
	</g>
</g>
<g fill="none" color="black" stroke="currentColor" stroke-width="1.00" stroke-linecap="butt" stroke-linejoin="miter">
	<path stroke='black'  d='M55.3,358.2 L64.3,358.2  '/>	<g transform="translate(47.0,362.1)" stroke="none" fill="black" font-family="Helvetica" font-size="12.00"  text-anchor="end">
		<text><tspan font-family="Helvetica" > 3</tspan></text>
	</g>
</g>
<g fill="none" color="black" stroke="currentColor" stroke-width="1.00" stroke-linecap="butt" stroke-linejoin="miter">
	<path stroke='black'  d='M55.3,256.9 L64.3,256.9  '/>	<g transform="translate(47.0,260.8)" stroke="none" fill="black" font-family="Helvetica" font-size="12.00"  text-anchor="end">
		<text><tspan font-family="Helvetica" > 4</tspan></text>
	</g>
</g>
<g fill="none" color="black" stroke="currentColor" stroke-width="1.00" stroke-linecap="butt" stroke-linejoin="miter">
	<path stroke='black'  d='M55.3,155.5 L64.3,155.5  '/>	<g transform="translate(47.0,159.4)" stroke="none" fill="black" font-family="Helvetica" font-size="12.00"  text-anchor="end">
		<text><tspan font-family="Helvetica" > 5</tspan></text>
	</g>
</g>
<g fill="none" color="black" stroke="currentColor" stroke-width="1.00" stroke-linecap="butt" stroke-linejoin="miter">
	<path stroke='black'  d='M55.3,54.1 L64.3,54.1  '/>	<g transform="translate(47.0,58.0)" stroke="none" fill="black" font-family="Helvetica" font-size="12.00"  text-anchor="end">
		<text><tspan font-family="Helvetica" > 6</tspan></text>
	</g>
</g>
<g fill="none" color="black" stroke="currentColor" stroke-width="1.00" stroke-linecap="butt" stroke-linejoin="miter">
	<path stroke='black'  d='M77.2,662.4 L77.2,653.4  '/>	<g transform="translate(77.2,684.3)" stroke="none" fill="black" font-family="Helvetica" font-size="12.00"  text-anchor="middle">
		<text><tspan font-family="Helvetica" > 26.7</tspan></text>
	</g>
</g>
<g fill="none" color="black" stroke="currentColor" stroke-width="1.00" stroke-linecap="butt" stroke-linejoin="miter">
	<path stroke='black'  d='M222.6,662.4 L222.6,653.4  '/>	<g transform="translate(222.6,684.3)" stroke="none" fill="black" font-family="Helvetica" font-size="12.00"  text-anchor="middle">
		<text><tspan font-family="Helvetica" > 26.75</tspan></text>
	</g>
</g>
<g fill="none" color="black" stroke="currentColor" stroke-width="1.00" stroke-linecap="butt" stroke-linejoin="miter">
	<path stroke='black'  d='M368.0,662.4 L368.0,653.4  '/>	<g transform="translate(368.0,684.3)" stroke="none" fill="black" font-family="Helvetica" font-size="12.00"  text-anchor="middle">
		<text><tspan font-family="Helvetica" > 26.8</tspan></text>
	</g>
</g>
<g fill="none" color="black" stroke="currentColor" stroke-width="1.00" stroke-linecap="butt" stroke-linejoin="miter">
	<path stroke='black'  d='M513.4,662.4 L513.4,653.4  '/>	<g transform="translate(513.4,684.3)" stroke="none" fill="black" font-family="Helvetica" font-size="12.00"  text-anchor="middle">
		<text><tspan font-family="Helvetica" > 26.85</tspan></text>
	</g>
</g>
<g fill="none" color="black" stroke="currentColor" stroke-width="1.00" stroke-linecap="butt" stroke-linejoin="miter">
	<path stroke='black'  d='M658.8,662.4 L658.8,653.4  '/>	<g transform="translate(658.8,684.3)" stroke="none" fill="black" font-family="Helvetica" font-size="12.00"  text-anchor="middle">
		<text><tspan font-family="Helvetica" > 26.9</tspan></text>
	</g>
</g>
<g fill="none" color="black" stroke="currentColor" stroke-width="1.00" stroke-linecap="butt" stroke-linejoin="miter">
	<path stroke='black'  d='M804.2,662.4 L804.2,653.4  '/>	<g transform="translate(804.2,684.3)" stroke="none" fill="black" font-family="Helvetica" font-size="12.00"  text-anchor="middle">
		<text><tspan font-family="Helvetica" > 26.95</tspan></text>
	</g>
</g>
<g fill="none" color="black" stroke="currentColor" stroke-width="1.00" stroke-linecap="butt" stroke-linejoin="miter">
	<path stroke='black'  d='M949.6,662.4 L949.6,653.4  '/>	<g transform="translate(949.6,684.3)" stroke="none" fill="black" font-family="Helvetica" font-size="12.00"  text-anchor="middle">
		<text><tspan font-family="Helvetica" > 27</tspan></text>
	</g>
</g>
<g fill="none" color="black" stroke="currentColor" stroke-width="1.00" stroke-linecap="butt" stroke-linejoin="miter">
</g>
<g fill="none" color="black" stroke="currentColor" stroke-width="1.00" stroke-linecap="butt" stroke-linejoin="miter">
	<path stroke='black'  d='M55.3,54.1 L55.3,662.4 L1013.6,662.4 L1013.6,54.1 L55.3,54.1 Z  '/></g>
<g fill="none" color="black" stroke="currentColor" stroke-width="1.00" stroke-linecap="butt" stroke-linejoin="miter">
	<g transform="translate(16.3,358.3) rotate(270)" stroke="none" fill="black" font-family="Helvetica" font-size="12.00"  text-anchor="middle">
		<text><tspan font-family="Helvetica" >Density (a.u.)</tspan></text>
	</g>
</g>
<g fill="none" color="black" stroke="currentColor" stroke-width="1.00" stroke-linecap="butt" stroke-linejoin="miter">
	<g transform="translate(534.4,711.3)" stroke="none" fill="black" font-family="Helvetica" font-size="12.00"  text-anchor="middle">
		<text><tspan font-family="Helvetica" >Average time (us)</tspan></text>
	</g>
</g>
<g fill="none" color="black" stroke="currentColor" stroke-width="1.00" stroke-linecap="butt" stroke-linejoin="miter">
	<g transform="translate(534.4,31.0)" stroke="none" fill="black" font-family="Helvetica" font-size="12.00"  text-anchor="middle">
		<text><tspan font-family="Helvetica" >snapshot_restore_with_dense/Sparse: Entire region + process_vm_writev/2: slope</tspan></text>
	</g>
</g>
	<g id="gnuplot_plot_1" ><title>Bootstrap distribution</title>
<g fill="none" color="white" stroke="black" stroke-width="2.00" stroke-linecap="butt" stroke-linejoin="miter">
</g>
<g fill="none" color="black" stroke="currentColor" stroke-width="2.00" stroke-linecap="butt" stroke-linejoin="miter">
	<g transform="translate(1089.0,67.0)" stroke="none" fill="black" font-family="Helvetica" font-size="12.00"  text-anchor="start">
		<text><tspan font-family="Helvetica" >Bootstrap distribution</tspan></text>
	</g>
</g>
<g fill="none" color="black" stroke="currentColor" stroke-width="2.00" stroke-linecap="butt" stroke-linejoin="miter">
	<path stroke='rgb( 31, 120, 180)'  d='M1038.5,63.1 L1080.7,63.1 M55.3,632.4 L57.2,630.5 L59.1,628.5 L61.1,626.5 L63.0,624.4 L64.9,622.4
		L66.8,620.3 L68.7,618.1 L70.7,616.0 L72.6,613.8 L74.5,611.7 L76.4,609.5 L78.3,607.3 L80.3,605.2
		L82.2,603.0 L84.1,600.8 L86.0,598.6 L87.9,596.4 L89.9,594.1 L91.8,591.9 L93.7,589.7 L95.6,587.4
		L97.5,585.1 L99.5,582.7 L101.4,580.4 L103.3,577.9 L105.2,575.5 L107.2,573.0 L109.1,570.4 L111.0,567.8
		L112.9,565.1 L114.8,562.4 L116.8,559.7 L118.7,556.8 L120.6,553.9 L122.5,551.0 L124.4,548.0 L126.4,544.9
		L128.3,541.8 L130.2,538.7 L132.1,535.4 L134.0,532.2 L136.0,528.9 L137.9,525.6 L139.8,522.2 L141.7,518.8
		L143.6,515.3 L145.6,511.8 L147.5,508.3 L149.4,504.8 L151.3,501.2 L153.2,497.5 L155.2,493.9 L157.1,490.2
		L159.0,486.5 L160.9,482.8 L162.8,479.0 L164.8,475.2 L166.7,471.3 L168.6,467.4 L170.5,463.5 L172.4,459.6
		L174.4,455.6 L176.3,451.5 L178.2,447.5 L180.1,443.4 L182.0,439.2 L184.0,435.0 L185.9,430.8 L187.8,426.6
		L189.7,422.3 L191.7,418.0 L193.6,413.6 L195.5,409.2 L197.4,404.9 L199.3,400.5 L201.3,396.0 L203.2,391.6
		L205.1,387.2 L207.0,382.8 L208.9,378.4 L210.9,374.0 L212.8,369.7 L214.7,365.3 L216.6,361.0 L218.5,356.7
		L220.5,352.5 L222.4,348.2 L224.3,344.0 L226.2,339.9 L228.1,335.7 L230.1,331.6 L232.0,327.5 L233.9,323.4
		L235.8,319.4 L237.7,315.3 L239.7,311.2 L241.6,307.2 L243.5,303.1 L245.4,299.0 L247.3,294.9 L249.3,290.8
		L251.2,286.7 L253.1,282.5 L255.0,278.3 L256.9,274.0 L258.9,269.8 L260.8,265.5 L262.7,261.2 L264.6,256.8
		L266.5,252.5 L268.5,248.1 L270.4,243.7 L272.3,239.3 L274.2,235.0 L276.2,230.6 L278.1,226.3 L280.0,222.0
		L281.9,217.7 L283.8,213.5 L285.8,209.3 L287.7,205.2 L289.6,201.1 L291.5,197.1 L293.4,193.1 L295.4,189.2
		L297.3,185.4 L299.2,181.6 L301.1,177.9 L303.0,174.2 L305.0,170.6 L306.9,167.1 L308.8,163.6 L310.7,160.2
		L312.6,156.9 L314.6,153.7 L316.5,150.5 L318.4,147.3 L320.3,144.3 L322.2,141.3 L324.2,138.4 L326.1,135.6
		L328.0,132.8 L329.9,130.1 L331.8,127.5 L333.8,125.0 L335.7,122.5 L337.6,120.2 L339.5,117.9 L341.4,115.7
		L343.4,113.6 L345.3,111.5 L347.2,109.6 L349.1,107.7 L351.0,106.0 L353.0,104.3 L354.9,102.7 L356.8,101.2
		L358.7,99.7 L360.7,98.3 L362.6,97.0 L364.5,95.8 L366.4,94.6 L368.3,93.4 L370.3,92.3 L372.2,91.3
		L374.1,90.3 L376.0,89.3 L377.9,88.4 L379.9,87.5 L381.8,86.6 L383.7,85.8 L385.6,85.0 L387.5,84.2
		L389.5,83.5 L391.4,82.7 L393.3,82.1 L395.2,81.4 L397.1,80.9 L399.1,80.3 L401.0,79.8 L402.9,79.4
		L404.8,79.0 L406.7,78.6 L408.7,78.3 L410.6,78.1 L412.5,77.9 L414.4,77.8 L416.3,77.7 L418.3,77.6
		L420.2,77.6 L422.1,77.7 L424.0,77.7 L425.9,77.8 L427.9,78.0 L429.8,78.1 L431.7,78.3 L433.6,78.5
		L435.5,78.7 L437.5,78.9 L439.4,79.1 L441.3,79.3 L443.2,79.6 L445.1,79.9 L447.1,80.1 L449.0,80.5
		L450.9,80.8 L452.8,81.2 L454.8,81.6 L456.7,82.1 L458.6,82.6 L460.5,83.2 L462.4,83.8 L464.4,84.5
		L466.3,85.3 L468.2,86.2 L470.1,87.1 L472.0,88.1 L474.0,89.2 L475.9,90.3 L477.8,91.6 L479.7,92.9
		L481.6,94.3 L483.6,95.8 L485.5,97.3 L487.4,99.0 L489.3,100.7 L491.2,102.5 L493.2,104.3 L495.1,106.2
		L497.0,108.2 L498.9,110.2 L500.8,112.2 L502.8,114.3 L504.7,116.4 L506.6,118.6 L508.5,120.7 L510.4,122.8
		L512.4,125.0 L514.3,127.1 L516.2,129.1 L518.1,131.2 L520.0,133.2 L522.0,135.2 L523.9,137.1 L525.8,139.0
		L527.7,140.8 L529.6,142.6 L531.6,144.4 L533.5,146.1 L535.4,147.9 L537.3,149.6 L539.3,151.4 L541.2,153.2
		L543.1,155.0 L545.0,156.9 L546.9,158.8 L548.9,160.9 L550.8,163.0 L552.7,165.2 L554.6,167.5 L556.5,169.9
		L558.5,172.5 L560.4,175.1 L562.3,177.9 L564.2,180.7 L566.1,183.7 L568.1,186.7 L570.0,189.8 L571.9,192.9
		L573.8,196.1 L575.7,199.4 L577.7,202.6 L579.6,205.9 L581.5,209.2 L583.4,212.5 L585.3,215.7 L587.3,219.0
		L589.2,222.2 L591.1,225.4 L593.0,228.6 L594.9,231.7 L596.9,234.8 L598.8,237.9 L600.7,241.0 L602.6,244.1
		L604.5,247.1 L606.5,250.1 L608.4,253.2 L610.3,256.2 L612.2,259.2 L614.1,262.2 L616.1,265.1 L618.0,268.1
		L619.9,271.1 L621.8,274.0 L623.8,277.0 L625.7,279.9 L627.6,282.8 L629.5,285.7 L631.4,288.6 L633.4,291.4
		L635.3,294.3 L637.2,297.1 L639.1,299.9 L641.0,302.7 L643.0,305.5 L644.9,308.2 L646.8,311.0 L648.7,313.7
		L650.6,316.4 L652.6,319.1 L654.5,321.9 L656.4,324.6 L658.3,327.3 L660.2,330.0 L662.2,332.7 L664.1,335.4
		L666.0,338.1 L667.9,340.8 L669.8,343.5 L671.8,346.2 L673.7,348.9 L675.6,351.7 L677.5,354.4 L679.4,357.1
		L681.4,359.9 L683.3,362.7 L685.2,365.5 L687.1,368.3 L689.0,371.2 L691.0,374.0 L692.9,376.9 L694.8,379.8
		L696.7,382.7 L698.6,385.7 L700.6,388.6 L702.5,391.6 L704.4,394.6 L706.3,397.6 L708.2,400.6 L710.2,403.6
		L712.1,406.6 L714.0,409.5 L715.9,412.4 L717.9,415.3 L719.8,418.2 L721.7,421.0 L723.6,423.8 L725.5,426.5
		L727.5,429.2 L729.4,431.7 L731.3,434.3 L733.2,436.7 L735.1,439.2 L737.1,441.5 L739.0,443.8 L740.9,446.0
		L742.8,448.2 L744.7,450.3 L746.7,452.4 L748.6,454.4 L750.5,456.4 L752.4,458.4 L754.3,460.3 L756.3,462.2
		L758.2,464.2 L760.1,466.1 L762.0,468.0 L763.9,469.9 L765.9,471.8 L767.8,473.7 L769.7,475.6 L771.6,477.5
		L773.5,479.5 L775.5,481.4 L777.4,483.3 L779.3,485.3 L781.2,487.2 L783.1,489.2 L785.1,491.2 L787.0,493.1
		L788.9,495.1 L790.8,497.0 L792.7,499.0 L794.7,500.9 L796.6,502.8 L798.5,504.8 L800.4,506.7 L802.4,508.5
		L804.3,510.4 L806.2,512.2 L808.1,514.1 L810.0,515.9 L812.0,517.7 L813.9,519.5 L815.8,521.3 L817.7,523.0
		L819.6,524.8 L821.6,526.5 L823.5,528.3 L825.4,530.0 L827.3,531.7 L829.2,533.4 L831.2,535.2 L833.1,536.9
		L835.0,538.6 L836.9,540.3 L838.8,542.0 L840.8,543.7 L842.7,545.4 L844.6,547.1 L846.5,548.8 L848.4,550.5
		L850.4,552.1 L852.3,553.8 L854.2,555.4 L856.1,557.0 L858.0,558.6 L860.0,560.2 L861.9,561.7 L863.8,563.3
		L865.7,564.8 L867.6,566.2 L869.6,567.7 L871.5,569.1 L873.4,570.5 L875.3,571.8 L877.2,573.2 L879.2,574.5
		L881.1,575.8 L883.0,577.0 L884.9,578.2 L886.9,579.5 L888.8,580.6 L890.7,581.8 L892.6,583.0 L894.5,584.1
		L896.5,585.2 L898.4,586.3 L900.3,587.4 L902.2,588.4 L904.1,589.5 L906.1,590.5 L908.0,591.5 L909.9,592.5
		L911.8,593.4 L913.7,594.4 L915.7,595.3 L917.6,596.2 L919.5,597.1 L921.4,598.0 L923.3,598.8 L925.3,599.7
		L927.2,600.5 L929.1,601.4 L931.0,602.2 L932.9,603.0 L934.9,603.8 L936.8,604.6 L938.7,605.3 L940.6,606.1
		L942.5,606.9 L944.5,607.6 L946.4,608.4 L948.3,609.2 L950.2,609.9 L952.1,610.7 L954.1,611.4 L956.0,612.1
		L957.9,612.8 L959.8,613.6 L961.7,614.3 L963.7,615.0 L965.6,615.6 L967.5,616.3 L969.4,617.0 L971.4,617.6
		L973.3,618.2 L975.2,618.9 L977.1,619.5 L979.0,620.1 L981.0,620.6 L982.9,621.2 L984.8,621.8 L986.7,622.3
		L988.6,622.9 L990.6,623.4 L992.5,623.9 L994.4,624.5 L996.3,625.0 L998.2,625.5 L1000.2,626.0 L1002.1,626.5
		L1004.0,627.0 L1005.9,627.5 L1007.8,628.0 L1009.8,628.5 L1011.7,628.9 L1013.6,629.4  '/></g>
	</g>
	<g id="gnuplot_plot_2" ><title>Confidence interval</title>
<g fill="none" color="white" stroke="rgb( 31, 120, 180)" stroke-width="1.00" stroke-linecap="butt" stroke-linejoin="miter">
</g>
<g fill="none" color="black" stroke="currentColor" stroke-width="1.00" stroke-linecap="butt" stroke-linejoin="miter">
	<g transform="translate(1089.0,85.0)" stroke="none" fill="black" font-family="Helvetica" font-size="12.00"  text-anchor="start">
		<text><tspan font-family="Helvetica" >Confidence interval</tspan></text>
	</g>
</g>
<g fill="none" color="black" stroke="currentColor" stroke-width="1.00" stroke-linecap="butt" stroke-linejoin="miter">
	<g stroke='none' shape-rendering='crispEdges'>
		<polygon fill = 'rgb( 31, 120, 180)' fill-opacity = '0.250000' points = '1038.5,85.6 1080.7,85.6 1080.7,76.6 1038.5,76.6 '/>
		<polygon fill = 'rgb( 31, 120, 180)' fill-opacity = '0.250000' points = '143.6,515.3 145.6,511.8 147.5,508.3 149.4,504.8 151.3,501.2 153.2,497.5 155.2,493.9 157.1,490.2 159.0,486.5 160.9,482.8 162.8,479.0 164.8,475.2 166.7,471.3 168.6,467.4 170.5,463.5 172.4,459.6
174.4,455.6 176.3,451.5 178.2,447.5 180.1,443.4 182.0,439.2 184.0,435.0 185.9,430.8 187.8,426.6 189.7,422.3 191.7,418.0 193.6,413.6 195.5,409.2 197.4,404.9 199.3,400.5 201.3,396.0 203.2,391.6
205.1,387.2 207.0,382.8 208.9,378.4 210.9,374.0 212.8,369.7 214.7,365.3 216.6,361.0 218.5,356.7 220.5,352.5 222.4,348.2 224.3,344.0 226.2,339.9 228.1,335.7 230.1,331.6 232.0,327.5 233.9,323.4
235.8,319.4 237.7,315.3 239.7,311.2 241.6,307.2 243.5,303.1 245.4,299.0 247.3,294.9 249.3,290.8 251.2,286.7 253.1,282.5 255.0,278.3 256.9,274.0 258.9,269.8 260.8,265.5 262.7,261.2 264.6,256.8
266.5,252.5 268.5,248.1 270.4,243.7 272.3,239.3 274.2,235.0 276.2,230.6 278.1,226.3 280.0,222.0 281.9,217.7 283.8,213.5 285.8,209.3 287.7,205.2 289.6,201.1 291.5,197.1 293.4,193.1 295.4,189.2
297.3,185.4 299.2,181.6 301.1,177.9 303.0,174.2 305.0,170.6 306.9,167.1 308.8,163.6 310.7,160.2 312.6,156.9 314.6,153.7 316.5,150.5 318.4,147.3 320.3,144.3 322.2,141.3 324.2,138.4 326.1,135.6
328.0,132.8 329.9,130.1 331.8,127.5 333.8,125.0 335.7,122.5 337.6,120.2 339.5,117.9 341.4,115.7 343.4,113.6 345.3,111.5 347.2,109.6 349.1,107.7 351.0,106.0 353.0,104.3 354.9,102.7 356.8,101.2
358.7,99.7 360.7,98.3 362.6,97.0 364.5,95.8 366.4,94.6 368.3,93.4 370.3,92.3 372.2,91.3 374.1,90.3 376.0,89.3 377.9,88.4 379.9,87.5 381.8,86.6 383.7,85.8 385.6,85.0 387.5,84.2
389.5,83.5 391.4,82.7 393.3,82.1 395.2,81.4 397.1,80.9 399.1,80.3 401.0,79.8 402.9,79.4 404.8,79.0 406.7,78.6 408.7,78.3 410.6,78.1 412.5,77.9 414.4,77.8 416.3,77.7 418.3,77.6
420.2,77.6 422.1,77.7 424.0,77.7 425.9,77.8 427.9,78.0 429.8,78.1 431.7,78.3 433.6,78.5 435.5,78.7 437.5,78.9 439.4,79.1 441.3,79.3 443.2,79.6 445.1,79.9 447.1,80.1 449.0,80.5
450.9,80.8 452.8,81.2 454.8,81.6 456.7,82.1 458.6,82.6 460.5,83.2 462.4,83.8 464.4,84.5 466.3,85.3 468.2,86.2 470.1,87.1 472.0,88.1 474.0,89.2 475.9,90.3 477.8,91.6 479.7,92.9
481.6,94.3 483.6,95.8 485.5,97.3 487.4,99.0 489.3,100.7 491.2,102.5 493.2,104.3 495.1,106.2 497.0,108.2 498.9,110.2 500.8,112.2 502.8,114.3 504.7,116.4 506.6,118.6 508.5,120.7 510.4,122.8
512.4,125.0 514.3,127.1 516.2,129.1 518.1,131.2 520.0,133.2 522.0,135.2 523.9,137.1 525.8,139.0 527.7,140.8 529.6,142.6 531.6,144.4 533.5,146.1 535.4,147.9 537.3,149.6 539.3,151.4 541.2,153.2
543.1,155.0 545.0,156.9 546.9,158.8 548.9,160.9 550.8,163.0 552.7,165.2 554.6,167.5 556.5,169.9 558.5,172.5 560.4,175.1 562.3,177.9 564.2,180.7 566.1,183.7 568.1,186.7 570.0,189.8 571.9,192.9
573.8,196.1 575.7,199.4 577.7,202.6 579.6,205.9 581.5,209.2 583.4,212.5 585.3,215.7 587.3,219.0 589.2,222.2 591.1,225.4 593.0,228.6 594.9,231.7 596.9,234.8 598.8,237.9 600.7,241.0 602.6,244.1
604.5,247.1 606.5,250.1 608.4,253.2 610.3,256.2 612.2,259.2 614.1,262.2 616.1,265.1 618.0,268.1 619.9,271.1 621.8,274.0 623.8,277.0 625.7,279.9 627.6,282.8 629.5,285.7 631.4,288.6 633.4,291.4
635.3,294.3 637.2,297.1 639.1,299.9 641.0,302.7 643.0,305.5 644.9,308.2 646.8,311.0 648.7,313.7 650.6,316.4 652.6,319.1 654.5,321.9 656.4,324.6 658.3,327.3 660.2,330.0 662.2,332.7 664.1,335.4
666.0,338.1 667.9,340.8 669.8,343.5 671.8,346.2 673.7,348.9 675.6,351.7 677.5,354.4 679.4,357.1 681.4,359.9 683.3,362.7 685.2,365.5 687.1,368.3 689.0,371.2 691.0,374.0 692.9,376.9 694.8,379.8
696.7,382.7 698.6,385.7 700.6,388.6 702.5,391.6 704.4,394.6 706.3,397.6 708.2,400.6 710.2,403.6 712.1,406.6 714.0,409.5 715.9,412.4 717.9,415.3 719.8,418.2 721.7,421.0 723.6,423.8 725.5,426.5
727.5,429.2 729.4,431.7 731.3,434.3 733.2,436.7 735.1,439.2 737.1,441.5 739.0,443.8 740.9,446.0 742.8,448.2 744.7,450.3 746.7,452.4 748.6,454.4 750.5,456.4 752.4,458.4 754.3,460.3 756.3,462.2
758.2,464.2 760.1,466.1 762.0,468.0 763.9,469.9 765.9,471.8 767.8,473.7 769.7,475.6 771.6,477.5 773.5,479.5 775.5,481.4 777.4,483.3 779.3,485.3 781.2,487.2 783.1,489.2 785.1,491.2 787.0,493.1
788.9,495.1 790.8,497.0 792.7,499.0 794.7,500.9 796.6,502.8 798.5,504.8 800.4,506.7 802.4,508.5 804.3,510.4 806.2,512.2 808.1,514.1 810.0,515.9 812.0,517.7 813.9,519.5 815.8,521.3 817.7,523.0
819.6,524.8 821.6,526.5 823.5,528.3 825.4,530.0 827.3,531.7 829.2,533.4 831.2,535.2 833.1,536.9 835.0,538.6 836.9,540.3 838.8,542.0 840.8,543.7 842.7,545.4 844.6,547.1 846.5,548.8 848.4,550.5
850.4,552.1 852.3,553.8 854.2,555.4 856.1,557.0 858.0,558.6 860.0,560.2 861.9,561.7 863.8,563.3 865.7,564.8 867.6,566.2 869.6,567.7 871.5,569.1 873.4,570.5 875.3,571.8 877.2,573.2 879.2,574.5
881.1,575.8 883.0,577.0 884.9,578.2 886.9,579.5 888.8,580.6 890.7,581.8 892.6,583.0 894.5,584.1 896.5,585.2 898.4,586.3 900.3,587.4 902.2,588.4 904.1,589.5 906.1,590.5 908.0,591.5 909.9,592.5
911.8,593.4 913.7,594.4 915.7,595.3 917.6,596.2 919.5,597.1 921.4,598.0 923.3,598.8 923.3,662.4 921.4,662.4 919.5,662.4 917.6,662.4 915.7,662.4 913.7,662.4 911.8,662.4 909.9,662.4 908.0,662.4
906.1,662.4 904.1,662.4 902.2,662.4 900.3,662.4 898.4,662.4 896.5,662.4 894.5,662.4 892.6,662.4 890.7,662.4 888.8,662.4 886.9,662.4 884.9,662.4 883.0,662.4 881.1,662.4 879.2,662.4 877.2,662.4
875.3,662.4 873.4,662.4 871.5,662.4 869.6,662.4 867.6,662.4 865.7,662.4 863.8,662.4 861.9,662.4 860.0,662.4 858.0,662.4 856.1,662.4 854.2,662.4 852.3,662.4 850.4,662.4 848.4,662.4 846.5,662.4
844.6,662.4 842.7,662.4 840.8,662.4 838.8,662.4 836.9,662.4 835.0,662.4 833.1,662.4 831.2,662.4 829.2,662.4 827.3,662.4 825.4,662.4 823.5,662.4 821.6,662.4 819.6,662.4 817.7,662.4 815.8,662.4
813.9,662.4 812.0,662.4 810.0,662.4 808.1,662.4 806.2,662.4 804.3,662.4 802.4,662.4 800.4,662.4 798.5,662.4 796.6,662.4 794.7,662.4 792.7,662.4 790.8,662.4 788.9,662.4 787.0,662.4 785.1,662.4
783.1,662.4 781.2,662.4 779.3,662.4 777.4,662.4 775.5,662.4 773.5,662.4 771.6,662.4 769.7,662.4 767.8,662.4 765.9,662.4 763.9,662.4 762.0,662.4 760.1,662.4 758.2,662.4 756.3,662.4 754.3,662.4
752.4,662.4 750.5,662.4 748.6,662.4 746.7,662.4 744.7,662.4 742.8,662.4 740.9,662.4 739.0,662.4 737.1,662.4 735.1,662.4 733.2,662.4 731.3,662.4 729.4,662.4 727.5,662.4 725.5,662.4 723.6,662.4
721.7,662.4 719.8,662.4 717.9,662.4 715.9,662.4 714.0,662.4 712.1,662.4 710.2,662.4 708.2,662.4 706.3,662.4 704.4,662.4 702.5,662.4 700.6,662.4 698.6,662.4 696.7,662.4 694.8,662.4 692.9,662.4
691.0,662.4 689.0,662.4 687.1,662.4 685.2,662.4 683.3,662.4 681.4,662.4 679.4,662.4 677.5,662.4 675.6,662.4 673.7,662.4 671.8,662.4 669.8,662.4 667.9,662.4 666.0,662.4 664.1,662.4 662.2,662.4
660.2,662.4 658.3,662.4 656.4,662.4 654.5,662.4 652.6,662.4 650.6,662.4 648.7,662.4 646.8,662.4 644.9,662.4 643.0,662.4 641.0,662.4 639.1,662.4 637.2,662.4 635.3,662.4 633.4,662.4 631.4,662.4
629.5,662.4 627.6,662.4 625.7,662.4 623.8,662.4 621.8,662.4 619.9,662.4 618.0,662.4 616.1,662.4 614.1,662.4 612.2,662.4 610.3,662.4 608.4,662.4 606.5,662.4 604.5,662.4 602.6,662.4 600.7,662.4
598.8,662.4 596.9,662.4 594.9,662.4 593.0,662.4 591.1,662.4 589.2,662.4 587.3,662.4 585.3,662.4 583.4,662.4 581.5,662.4 579.6,662.4 577.7,662.4 575.7,662.4 573.8,662.4 571.9,662.4 570.0,662.4
568.1,662.4 566.1,662.4 564.2,662.4 562.3,662.4 560.4,662.4 558.5,662.4 556.5,662.4 554.6,662.4 552.7,662.4 550.8,662.4 548.9,662.4 546.9,662.4 545.0,662.4 543.1,662.4 541.2,662.4 539.3,662.4
537.3,662.4 535.4,662.4 533.5,662.4 531.6,662.4 529.6,662.4 527.7,662.4 525.8,662.4 523.9,662.4 522.0,662.4 520.0,662.4 518.1,662.4 516.2,662.4 514.3,662.4 512.4,662.4 510.4,662.4 508.5,662.4
506.6,662.4 504.7,662.4 502.8,662.4 500.8,662.4 498.9,662.4 497.0,662.4 495.1,662.4 493.2,662.4 491.2,662.4 489.3,662.4 487.4,662.4 485.5,662.4 483.6,662.4 481.6,662.4 479.7,662.4 477.8,662.4
475.9,662.4 474.0,662.4 472.0,662.4 470.1,662.4 468.2,662.4 466.3,662.4 464.4,662.4 462.4,662.4 460.5,662.4 458.6,662.4 456.7,662.4 454.8,662.4 452.8,662.4 450.9,662.4 449.0,662.4 447.1,662.4
445.1,662.4 443.2,662.4 441.3,662.4 439.4,662.4 437.5,662.4 435.5,662.4 433.6,662.4 431.7,662.4 429.8,662.4 427.9,662.4 425.9,662.4 424.0,662.4 422.1,662.4 420.2,662.4 418.3,662.4 416.3,662.4
414.4,662.4 412.5,662.4 410.6,662.4 408.7,662.4 406.7,662.4 404.8,662.4 402.9,662.4 401.0,662.4 399.1,662.4 397.1,662.4 395.2,662.4 393.3,662.4 391.4,662.4 389.5,662.4 387.5,662.4 385.6,662.4
383.7,662.4 381.8,662.4 379.9,662.4 377.9,662.4 376.0,662.4 374.1,662.4 372.2,662.4 370.3,662.4 368.3,662.4 366.4,662.4 364.5,662.4 362.6,662.4 360.7,662.4 358.7,662.4 356.8,662.4 354.9,662.4
353.0,662.4 351.0,662.4 349.1,662.4 347.2,662.4 345.3,662.4 343.4,662.4 341.4,662.4 339.5,662.4 337.6,662.4 335.7,662.4 333.8,662.4 331.8,662.4 329.9,662.4 328.0,662.4 326.1,662.4 324.2,662.4
322.2,662.4 320.3,662.4 318.4,662.4 316.5,662.4 314.6,662.4 312.6,662.4 310.7,662.4 308.8,662.4 306.9,662.4 305.0,662.4 303.0,662.4 301.1,662.4 299.2,662.4 297.3,662.4 295.4,662.4 293.4,662.4
291.5,662.4 289.6,662.4 287.7,662.4 285.8,662.4 283.8,662.4 281.9,662.4 280.0,662.4 278.1,662.4 276.2,662.4 274.2,662.4 272.3,662.4 270.4,662.4 268.5,662.4 266.5,662.4 264.6,662.4 262.7,662.4
260.8,662.4 258.9,662.4 256.9,662.4 255.0,662.4 253.1,662.4 251.2,662.4 249.3,662.4 247.3,662.4 245.4,662.4 243.5,662.4 241.6,662.4 239.7,662.4 237.7,662.4 235.8,662.4 233.9,662.4 232.0,662.4
230.1,662.4 228.1,662.4 226.2,662.4 224.3,662.4 222.4,662.4 220.5,662.4 218.5,662.4 216.6,662.4 214.7,662.4 212.8,662.4 210.9,662.4 208.9,662.4 207.0,662.4 205.1,662.4 203.2,662.4 201.3,662.4
199.3,662.4 197.4,662.4 195.5,662.4 193.6,662.4 191.7,662.4 189.7,662.4 187.8,662.4 185.9,662.4 184.0,662.4 182.0,662.4 180.1,662.4 178.2,662.4 176.3,662.4 174.4,662.4 172.4,662.4 170.5,662.4
168.6,662.4 166.7,662.4 164.8,662.4 162.8,662.4 160.9,662.4 159.0,662.4 157.1,662.4 155.2,662.4 153.2,662.4 151.3,662.4 149.4,662.4 147.5,662.4 145.6,662.4 143.6,662.4 '/>
	</g>
</g>
	</g>
	<g id="gnuplot_plot_3" ><title>Point estimate</title>
<g fill="none" color="white" stroke="rgb( 31, 120, 180)" stroke-width="2.00" stroke-linecap="butt" stroke-linejoin="miter">
</g>
<g fill="none" color="black" stroke="currentColor" stroke-width="2.00" stroke-linecap="butt" stroke-linejoin="miter">
	<g transform="translate(1089.0,103.0)" stroke="none" fill="black" font-family="Helvetica" font-size="12.00"  text-anchor="start">
		<text><tspan font-family="Helvetica" >Point estimate</tspan></text>
	</g>
</g>
<g fill="none" color="black" stroke="currentColor" stroke-width="2.00" stroke-linecap="butt" stroke-linejoin="miter">
	<path stroke='rgb( 31, 120, 180)'  d='M1038.5,99.1 L1080.7,99.1 M479.1,662.4 L479.1,92.5  '/></g>
	</g>
<g fill="none" color="black" stroke="currentColor" stroke-width="2.00" stroke-linecap="butt" stroke-linejoin="miter">
</g>
<g fill="none" color="black" stroke="black" stroke-width="1.00" stroke-linecap="butt" stroke-linejoin="miter">
</g>
<g fill="none" color="black" stroke="currentColor" stroke-width="1.00" stroke-linecap="butt" stroke-linejoin="miter">
	<path stroke='black'  d='M55.3,54.1 L55.3,662.4 L1013.6,662.4 L1013.6,54.1 L55.3,54.1 Z  '/></g>
<g fill="none" color="black" stroke="currentColor" stroke-width="1.00" stroke-linecap="butt" stroke-linejoin="miter">
</g>
</g>
</svg>

