group,function,value,throughput_num,throughput_type,sample_measured_value,unit,iteration_count
snapshot_restore_with_dense,Sparse: Entire region + /proc/pid/mem,5,,,1091272.0,ns,24
snapshot_restore_with_dense,Sparse: Entire region + /proc/pid/mem,5,,,2040513.0,ns,48
snapshot_restore_with_dense,Sparse: Entire region + /proc/pid/mem,5,,,3117912.0,ns,72
snapshot_restore_with_dense,Sparse: Entire region + /proc/pid/mem,5,,,4118588.0,ns,96
snapshot_restore_with_dense,Sparse: Entire region + /proc/pid/mem,5,,,5212720.0,ns,120
snapshot_restore_with_dense,Sparse: Entire region + /proc/pid/mem,5,,,6145155.0,ns,144
snapshot_restore_with_dense,Sparse: Entire region + /proc/pid/mem,5,,,8987055.0,ns,168
snapshot_restore_with_dense,Sparse: Entire region + /proc/pid/mem,5,,,12596057.0,ns,192
snapshot_restore_with_dense,Sparse: Entire region + /proc/pid/mem,5,,,9322670.0,ns,216
snapshot_restore_with_dense,Sparse: Entire region + /proc/pid/mem,5,,,10262677.0,ns,240
snapshot_restore_with_dense,Sparse: Entire region + /proc/pid/mem,5,,,11273869.0,ns,264
snapshot_restore_with_dense,Sparse: Entire region + /proc/pid/mem,5,,,12269337.0,ns,288
snapshot_restore_with_dense,Sparse: Entire region + /proc/pid/mem,5,,,13349816.0,ns,312
snapshot_restore_with_dense,Sparse: Entire region + /proc/pid/mem,5,,,14314534.0,ns,336
snapshot_restore_with_dense,Sparse: Entire region + /proc/pid/mem,5,,,15369545.0,ns,360
snapshot_restore_with_dense,Sparse: Entire region + /proc/pid/mem,5,,,16412853.0,ns,384
snapshot_restore_with_dense,Sparse: Entire region + /proc/pid/mem,5,,,17385680.0,ns,408
snapshot_restore_with_dense,Sparse: Entire region + /proc/pid/mem,5,,,18434860.0,ns,432
snapshot_restore_with_dense,Sparse: Entire region + /proc/pid/mem,5,,,19462118.0,ns,456
snapshot_restore_with_dense,Sparse: Entire region + /proc/pid/mem,5,,,20438570.0,ns,480
snapshot_restore_with_dense,Sparse: Entire region + /proc/pid/mem,5,,,21552939.0,ns,504
snapshot_restore_with_dense,Sparse: Entire region + /proc/pid/mem,5,,,22783678.0,ns,528
snapshot_restore_with_dense,Sparse: Entire region + /proc/pid/mem,5,,,23492144.0,ns,552
snapshot_restore_with_dense,Sparse: Entire region + /proc/pid/mem,5,,,24586210.0,ns,576
snapshot_restore_with_dense,Sparse: Entire region + /proc/pid/mem,5,,,25534370.0,ns,600
snapshot_restore_with_dense,Sparse: Entire region + /proc/pid/mem,5,,,26585703.0,ns,624
snapshot_restore_with_dense,Sparse: Entire region + /proc/pid/mem,5,,,27574351.0,ns,648
snapshot_restore_with_dense,Sparse: Entire region + /proc/pid/mem,5,,,28669219.0,ns,672
snapshot_restore_with_dense,Sparse: Entire region + /proc/pid/mem,5,,,29641117.0,ns,696
snapshot_restore_with_dense,Sparse: Entire region + /proc/pid/mem,5,,,30651602.0,ns,720
snapshot_restore_with_dense,Sparse: Entire region + /proc/pid/mem,5,,,31693269.0,ns,744
snapshot_restore_with_dense,Sparse: Entire region + /proc/pid/mem,5,,,32696128.0,ns,768
snapshot_restore_with_dense,Sparse: Entire region + /proc/pid/mem,5,,,33713248.0,ns,792
snapshot_restore_with_dense,Sparse: Entire region + /proc/pid/mem,5,,,34762080.0,ns,816
snapshot_restore_with_dense,Sparse: Entire region + /proc/pid/mem,5,,,35779369.0,ns,840
snapshot_restore_with_dense,Sparse: Entire region + /proc/pid/mem,5,,,36811302.0,ns,864
snapshot_restore_with_dense,Sparse: Entire region + /proc/pid/mem,5,,,38004394.0,ns,888
snapshot_restore_with_dense,Sparse: Entire region + /proc/pid/mem,5,,,38888961.0,ns,912
snapshot_restore_with_dense,Sparse: Entire region + /proc/pid/mem,5,,,39908222.0,ns,936
snapshot_restore_with_dense,Sparse: Entire region + /proc/pid/mem,5,,,40913556.0,ns,960
snapshot_restore_with_dense,Sparse: Entire region + /proc/pid/mem,5,,,41895460.0,ns,984
snapshot_restore_with_dense,Sparse: Entire region + /proc/pid/mem,5,,,42976783.0,ns,1008
snapshot_restore_with_dense,Sparse: Entire region + /proc/pid/mem,5,,,43960785.0,ns,1032
snapshot_restore_with_dense,Sparse: Entire region + /proc/pid/mem,5,,,44973929.0,ns,1056
snapshot_restore_with_dense,Sparse: Entire region + /proc/pid/mem,5,,,46007147.0,ns,1080
snapshot_restore_with_dense,Sparse: Entire region + /proc/pid/mem,5,,,46994240.0,ns,1104
snapshot_restore_with_dense,Sparse: Entire region + /proc/pid/mem,5,,,48069606.0,ns,1128
snapshot_restore_with_dense,Sparse: Entire region + /proc/pid/mem,5,,,49462434.0,ns,1152
snapshot_restore_with_dense,Sparse: Entire region + /proc/pid/mem,5,,,50184166.0,ns,1176
snapshot_restore_with_dense,Sparse: Entire region + /proc/pid/mem,5,,,51116553.0,ns,1200
snapshot_restore_with_dense,Sparse: Entire region + /proc/pid/mem,5,,,52143082.0,ns,1224
snapshot_restore_with_dense,Sparse: Entire region + /proc/pid/mem,5,,,53151729.0,ns,1248
snapshot_restore_with_dense,Sparse: Entire region + /proc/pid/mem,5,,,54165462.0,ns,1272
snapshot_restore_with_dense,Sparse: Entire region + /proc/pid/mem,5,,,55150398.0,ns,1296
snapshot_restore_with_dense,Sparse: Entire region + /proc/pid/mem,5,,,56275740.0,ns,1320
snapshot_restore_with_dense,Sparse: Entire region + /proc/pid/mem,5,,,57240535.0,ns,1344
snapshot_restore_with_dense,Sparse: Entire region + /proc/pid/mem,5,,,58217823.0,ns,1368
snapshot_restore_with_dense,Sparse: Entire region + /proc/pid/mem,5,,,59273808.0,ns,1392
snapshot_restore_with_dense,Sparse: Entire region + /proc/pid/mem,5,,,60312821.0,ns,1416
snapshot_restore_with_dense,Sparse: Entire region + /proc/pid/mem,5,,,61393618.0,ns,1440
snapshot_restore_with_dense,Sparse: Entire region + /proc/pid/mem,5,,,62378731.0,ns,1464
snapshot_restore_with_dense,Sparse: Entire region + /proc/pid/mem,5,,,63407435.0,ns,1488
snapshot_restore_with_dense,Sparse: Entire region + /proc/pid/mem,5,,,64971448.0,ns,1512
snapshot_restore_with_dense,Sparse: Entire region + /proc/pid/mem,5,,,66260670.0,ns,1536
snapshot_restore_with_dense,Sparse: Entire region + /proc/pid/mem,5,,,66670037.0,ns,1560
snapshot_restore_with_dense,Sparse: Entire region + /proc/pid/mem,5,,,67542230.0,ns,1584
snapshot_restore_with_dense,Sparse: Entire region + /proc/pid/mem,5,,,68419018.0,ns,1608
snapshot_restore_with_dense,Sparse: Entire region + /proc/pid/mem,5,,,69528668.0,ns,1632
snapshot_restore_with_dense,Sparse: Entire region + /proc/pid/mem,5,,,70594314.0,ns,1656
snapshot_restore_with_dense,Sparse: Entire region + /proc/pid/mem,5,,,71530322.0,ns,1680
snapshot_restore_with_dense,Sparse: Entire region + /proc/pid/mem,5,,,72588700.0,ns,1704
snapshot_restore_with_dense,Sparse: Entire region + /proc/pid/mem,5,,,73729739.0,ns,1728
snapshot_restore_with_dense,Sparse: Entire region + /proc/pid/mem,5,,,74600808.0,ns,1752
snapshot_restore_with_dense,Sparse: Entire region + /proc/pid/mem,5,,,75618693.0,ns,1776
snapshot_restore_with_dense,Sparse: Entire region + /proc/pid/mem,5,,,76600487.0,ns,1800
snapshot_restore_with_dense,Sparse: Entire region + /proc/pid/mem,5,,,77737687.0,ns,1824
snapshot_restore_with_dense,Sparse: Entire region + /proc/pid/mem,5,,,78736268.0,ns,1848
snapshot_restore_with_dense,Sparse: Entire region + /proc/pid/mem,5,,,79694125.0,ns,1872
snapshot_restore_with_dense,Sparse: Entire region + /proc/pid/mem,5,,,81303768.0,ns,1896
snapshot_restore_with_dense,Sparse: Entire region + /proc/pid/mem,5,,,82084912.0,ns,1920
snapshot_restore_with_dense,Sparse: Entire region + /proc/pid/mem,5,,,83114155.0,ns,1944
snapshot_restore_with_dense,Sparse: Entire region + /proc/pid/mem,5,,,84071762.0,ns,1968
snapshot_restore_with_dense,Sparse: Entire region + /proc/pid/mem,5,,,85025398.0,ns,1992
snapshot_restore_with_dense,Sparse: Entire region + /proc/pid/mem,5,,,85987105.0,ns,2016
snapshot_restore_with_dense,Sparse: Entire region + /proc/pid/mem,5,,,86872355.0,ns,2040
snapshot_restore_with_dense,Sparse: Entire region + /proc/pid/mem,5,,,87860289.0,ns,2064
snapshot_restore_with_dense,Sparse: Entire region + /proc/pid/mem,5,,,88946901.0,ns,2088
snapshot_restore_with_dense,Sparse: Entire region + /proc/pid/mem,5,,,89993827.0,ns,2112
snapshot_restore_with_dense,Sparse: Entire region + /proc/pid/mem,5,,,91100922.0,ns,2136
snapshot_restore_with_dense,Sparse: Entire region + /proc/pid/mem,5,,,92100220.0,ns,2160
snapshot_restore_with_dense,Sparse: Entire region + /proc/pid/mem,5,,,93262395.0,ns,2184
snapshot_restore_with_dense,Sparse: Entire region + /proc/pid/mem,5,,,94229009.0,ns,2208
snapshot_restore_with_dense,Sparse: Entire region + /proc/pid/mem,5,,,95092358.0,ns,2232
snapshot_restore_with_dense,Sparse: Entire region + /proc/pid/mem,5,,,96060714.0,ns,2256
snapshot_restore_with_dense,Sparse: Entire region + /proc/pid/mem,5,,,97062885.0,ns,2280
snapshot_restore_with_dense,Sparse: Entire region + /proc/pid/mem,5,,,98104309.0,ns,2304
snapshot_restore_with_dense,Sparse: Entire region + /proc/pid/mem,5,,,99201397.0,ns,2328
snapshot_restore_with_dense,Sparse: Entire region + /proc/pid/mem,5,,,100211797.0,ns,2352
snapshot_restore_with_dense,Sparse: Entire region + /proc/pid/mem,5,,,101227915.0,ns,2376
snapshot_restore_with_dense,Sparse: Entire region + /proc/pid/mem,5,,,102452039.0,ns,2400
