group,function,value,throughput_num,throughput_type,sample_measured_value,unit,iteration_count
snapshot_restore_with_dense,Dense: Dirty pages + process_vm_writev,22,,,1026457.0,ns,146
snapshot_restore_with_dense,Dense: Dirty pages + process_vm_writev,22,,,1988495.0,ns,292
snapshot_restore_with_dense,Dense: Dirty pages + process_vm_writev,22,,,2928788.0,ns,438
snapshot_restore_with_dense,Dense: Dirty pages + process_vm_writev,22,,,3962891.0,ns,584
snapshot_restore_with_dense,Dense: Dirty pages + process_vm_writev,22,,,5029036.0,ns,730
snapshot_restore_with_dense,Dense: Dirty pages + process_vm_writev,22,,,5973765.0,ns,876
snapshot_restore_with_dense,Dense: Dirty pages + process_vm_writev,22,,,7073995.0,ns,1022
snapshot_restore_with_dense,Dense: Dirty pages + process_vm_writev,22,,,8355008.0,ns,1168
snapshot_restore_with_dense,Dense: Dirty pages + process_vm_writev,22,,,9257901.0,ns,1314
snapshot_restore_with_dense,Dense: Dirty pages + process_vm_writev,22,,,10095119.0,ns,1460
snapshot_restore_with_dense,Dense: Dirty pages + process_vm_writev,22,,,10953746.0,ns,1606
snapshot_restore_with_dense,Dense: Dirty pages + process_vm_writev,22,,,11799176.0,ns,1752
snapshot_restore_with_dense,Dense: Dirty pages + process_vm_writev,22,,,12987824.0,ns,1898
snapshot_restore_with_dense,Dense: Dirty pages + process_vm_writev,22,,,13859091.0,ns,2044
snapshot_restore_with_dense,Dense: Dirty pages + process_vm_writev,22,,,14853035.0,ns,2190
snapshot_restore_with_dense,Dense: Dirty pages + process_vm_writev,22,,,15970209.0,ns,2336
snapshot_restore_with_dense,Dense: Dirty pages + process_vm_writev,22,,,16863109.0,ns,2482
snapshot_restore_with_dense,Dense: Dirty pages + process_vm_writev,22,,,17840886.0,ns,2628
snapshot_restore_with_dense,Dense: Dirty pages + process_vm_writev,22,,,18832947.0,ns,2774
snapshot_restore_with_dense,Dense: Dirty pages + process_vm_writev,22,,,19813404.0,ns,2920
snapshot_restore_with_dense,Dense: Dirty pages + process_vm_writev,22,,,20832040.0,ns,3066
snapshot_restore_with_dense,Dense: Dirty pages + process_vm_writev,22,,,21835186.0,ns,3212
snapshot_restore_with_dense,Dense: Dirty pages + process_vm_writev,22,,,22908604.0,ns,3358
snapshot_restore_with_dense,Dense: Dirty pages + process_vm_writev,22,,,23706203.0,ns,3504
snapshot_restore_with_dense,Dense: Dirty pages + process_vm_writev,22,,,24730858.0,ns,3650
snapshot_restore_with_dense,Dense: Dirty pages + process_vm_writev,22,,,25889014.0,ns,3796
snapshot_restore_with_dense,Dense: Dirty pages + process_vm_writev,22,,,26767145.0,ns,3942
snapshot_restore_with_dense,Dense: Dirty pages + process_vm_writev,22,,,27794459.0,ns,4088
snapshot_restore_with_dense,Dense: Dirty pages + process_vm_writev,22,,,28702039.0,ns,4234
snapshot_restore_with_dense,Dense: Dirty pages + process_vm_writev,22,,,29763210.0,ns,4380
snapshot_restore_with_dense,Dense: Dirty pages + process_vm_writev,22,,,30797912.0,ns,4526
snapshot_restore_with_dense,Dense: Dirty pages + process_vm_writev,22,,,31745447.0,ns,4672
snapshot_restore_with_dense,Dense: Dirty pages + process_vm_writev,22,,,32859569.0,ns,4818
snapshot_restore_with_dense,Dense: Dirty pages + process_vm_writev,22,,,33918753.0,ns,4964
snapshot_restore_with_dense,Dense: Dirty pages + process_vm_writev,22,,,34692043.0,ns,5110
snapshot_restore_with_dense,Dense: Dirty pages + process_vm_writev,22,,,35498295.0,ns,5256
snapshot_restore_with_dense,Dense: Dirty pages + process_vm_writev,22,,,36586153.0,ns,5402
snapshot_restore_with_dense,Dense: Dirty pages + process_vm_writev,22,,,37578777.0,ns,5548
snapshot_restore_with_dense,Dense: Dirty pages + process_vm_writev,22,,,38635908.0,ns,5694
snapshot_restore_with_dense,Dense: Dirty pages + process_vm_writev,22,,,39822305.0,ns,5840
snapshot_restore_with_dense,Dense: Dirty pages + process_vm_writev,22,,,40699352.0,ns,5986
snapshot_restore_with_dense,Dense: Dirty pages + process_vm_writev,22,,,41632821.0,ns,6132
snapshot_restore_with_dense,Dense: Dirty pages + process_vm_writev,22,,,42690255.0,ns,6278
snapshot_restore_with_dense,Dense: Dirty pages + process_vm_writev,22,,,43631719.0,ns,6424
snapshot_restore_with_dense,Dense: Dirty pages + process_vm_writev,22,,,44650021.0,ns,6570
snapshot_restore_with_dense,Dense: Dirty pages + process_vm_writev,22,,,45528868.0,ns,6716
snapshot_restore_with_dense,Dense: Dirty pages + process_vm_writev,22,,,46608498.0,ns,6862
snapshot_restore_with_dense,Dense: Dirty pages + process_vm_writev,22,,,47662980.0,ns,7008
snapshot_restore_with_dense,Dense: Dirty pages + process_vm_writev,22,,,48591480.0,ns,7154
snapshot_restore_with_dense,Dense: Dirty pages + process_vm_writev,22,,,49689059.0,ns,7300
snapshot_restore_with_dense,Dense: Dirty pages + process_vm_writev,22,,,50452381.0,ns,7446
snapshot_restore_with_dense,Dense: Dirty pages + process_vm_writev,22,,,51886612.0,ns,7592
snapshot_restore_with_dense,Dense: Dirty pages + process_vm_writev,22,,,52666447.0,ns,7738
snapshot_restore_with_dense,Dense: Dirty pages + process_vm_writev,22,,,53536460.0,ns,7884
snapshot_restore_with_dense,Dense: Dirty pages + process_vm_writev,22,,,54475143.0,ns,8030
snapshot_restore_with_dense,Dense: Dirty pages + process_vm_writev,22,,,55753614.0,ns,8176
snapshot_restore_with_dense,Dense: Dirty pages + process_vm_writev,22,,,56578941.0,ns,8322
snapshot_restore_with_dense,Dense: Dirty pages + process_vm_writev,22,,,57546347.0,ns,8468
snapshot_restore_with_dense,Dense: Dirty pages + process_vm_writev,22,,,58537856.0,ns,8614
snapshot_restore_with_dense,Dense: Dirty pages + process_vm_writev,22,,,59448812.0,ns,8760
snapshot_restore_with_dense,Dense: Dirty pages + process_vm_writev,22,,,60239199.0,ns,8906
snapshot_restore_with_dense,Dense: Dirty pages + process_vm_writev,22,,,61320416.0,ns,9052
snapshot_restore_with_dense,Dense: Dirty pages + process_vm_writev,22,,,62262036.0,ns,9198
snapshot_restore_with_dense,Dense: Dirty pages + process_vm_writev,22,,,63445933.0,ns,9344
snapshot_restore_with_dense,Dense: Dirty pages + process_vm_writev,22,,,64190504.0,ns,9490
snapshot_restore_with_dense,Dense: Dirty pages + process_vm_writev,22,,,65061193.0,ns,9636
snapshot_restore_with_dense,Dense: Dirty pages + process_vm_writev,22,,,66406879.0,ns,9782
snapshot_restore_with_dense,Dense: Dirty pages + process_vm_writev,22,,,67478024.0,ns,9928
snapshot_restore_with_dense,Dense: Dirty pages + process_vm_writev,22,,,68602401.0,ns,10074
snapshot_restore_with_dense,Dense: Dirty pages + process_vm_writev,22,,,69262879.0,ns,10220
snapshot_restore_with_dense,Dense: Dirty pages + process_vm_writev,22,,,70466063.0,ns,10366
snapshot_restore_with_dense,Dense: Dirty pages + process_vm_writev,22,,,71559773.0,ns,10512
snapshot_restore_with_dense,Dense: Dirty pages + process_vm_writev,22,,,72274332.0,ns,10658
snapshot_restore_with_dense,Dense: Dirty pages + process_vm_writev,22,,,73251704.0,ns,10804
snapshot_restore_with_dense,Dense: Dirty pages + process_vm_writev,22,,,74033583.0,ns,10950
snapshot_restore_with_dense,Dense: Dirty pages + process_vm_writev,22,,,75182432.0,ns,11096
snapshot_restore_with_dense,Dense: Dirty pages + process_vm_writev,22,,,76146224.0,ns,11242
snapshot_restore_with_dense,Dense: Dirty pages + process_vm_writev,22,,,77177147.0,ns,11388
snapshot_restore_with_dense,Dense: Dirty pages + process_vm_writev,22,,,78259607.0,ns,11534
snapshot_restore_with_dense,Dense: Dirty pages + process_vm_writev,22,,,79450610.0,ns,11680
snapshot_restore_with_dense,Dense: Dirty pages + process_vm_writev,22,,,80612835.0,ns,11826
snapshot_restore_with_dense,Dense: Dirty pages + process_vm_writev,22,,,81971701.0,ns,11972
snapshot_restore_with_dense,Dense: Dirty pages + process_vm_writev,22,,,82337238.0,ns,12118
snapshot_restore_with_dense,Dense: Dirty pages + process_vm_writev,22,,,83102316.0,ns,12264
snapshot_restore_with_dense,Dense: Dirty pages + process_vm_writev,22,,,84099250.0,ns,12410
snapshot_restore_with_dense,Dense: Dirty pages + process_vm_writev,22,,,85236877.0,ns,12556
snapshot_restore_with_dense,Dense: Dirty pages + process_vm_writev,22,,,86182870.0,ns,12702
snapshot_restore_with_dense,Dense: Dirty pages + process_vm_writev,22,,,87378758.0,ns,12848
snapshot_restore_with_dense,Dense: Dirty pages + process_vm_writev,22,,,88340651.0,ns,12994
snapshot_restore_with_dense,Dense: Dirty pages + process_vm_writev,22,,,89275986.0,ns,13140
snapshot_restore_with_dense,Dense: Dirty pages + process_vm_writev,22,,,90318637.0,ns,13286
snapshot_restore_with_dense,Dense: Dirty pages + process_vm_writev,22,,,91315513.0,ns,13432
snapshot_restore_with_dense,Dense: Dirty pages + process_vm_writev,22,,,98365143.0,ns,13578
snapshot_restore_with_dense,Dense: Dirty pages + process_vm_writev,22,,,93568279.0,ns,13724
snapshot_restore_with_dense,Dense: Dirty pages + process_vm_writev,22,,,94384804.0,ns,13870
snapshot_restore_with_dense,Dense: Dirty pages + process_vm_writev,22,,,95408061.0,ns,14016
snapshot_restore_with_dense,Dense: Dirty pages + process_vm_writev,22,,,95979466.0,ns,14162
snapshot_restore_with_dense,Dense: Dirty pages + process_vm_writev,22,,,96811713.0,ns,14308
snapshot_restore_with_dense,Dense: Dirty pages + process_vm_writev,22,,,98338916.0,ns,14454
snapshot_restore_with_dense,Dense: Dirty pages + process_vm_writev,22,,,99280201.0,ns,14600
