group,function,value,throughput_num,throughput_type,sample_measured_value,unit,iteration_count
snapshot_restore_with_dense,Dense: Dirty pages + /proc/pid/mem,46,,,1110833.0,ns,11
snapshot_restore_with_dense,Dense: Dirty pages + /proc/pid/mem,46,,,2147117.0,ns,22
snapshot_restore_with_dense,Dense: Dirty pages + /proc/pid/mem,46,,,3210372.0,ns,33
snapshot_restore_with_dense,Dense: Dirty pages + /proc/pid/mem,46,,,4308349.0,ns,44
snapshot_restore_with_dense,Dense: Dirty pages + /proc/pid/mem,46,,,5375442.0,ns,55
snapshot_restore_with_dense,Dense: Dirty pages + /proc/pid/mem,46,,,6429610.0,ns,66
snapshot_restore_with_dense,Dense: Dirty pages + /proc/pid/mem,46,,,8107383.0,ns,77
snapshot_restore_with_dense,Dense: Dirty pages + /proc/pid/mem,46,,,9052712.0,ns,88
snapshot_restore_with_dense,Dense: Dirty pages + /proc/pid/mem,46,,,9931423.0,ns,99
snapshot_restore_with_dense,Dense: Dirty pages + /proc/pid/mem,46,,,10752916.0,ns,110
snapshot_restore_with_dense,Dense: Dirty pages + /proc/pid/mem,46,,,11752732.0,ns,121
snapshot_restore_with_dense,Dense: Dirty pages + /proc/pid/mem,46,,,12793967.0,ns,132
snapshot_restore_with_dense,Dense: Dirty pages + /proc/pid/mem,46,,,13898244.0,ns,143
snapshot_restore_with_dense,Dense: Dirty pages + /proc/pid/mem,46,,,14912911.0,ns,154
snapshot_restore_with_dense,Dense: Dirty pages + /proc/pid/mem,46,,,16173609.0,ns,165
snapshot_restore_with_dense,Dense: Dirty pages + /proc/pid/mem,46,,,17080788.0,ns,176
snapshot_restore_with_dense,Dense: Dirty pages + /proc/pid/mem,46,,,18135543.0,ns,187
snapshot_restore_with_dense,Dense: Dirty pages + /proc/pid/mem,46,,,19171113.0,ns,198
snapshot_restore_with_dense,Dense: Dirty pages + /proc/pid/mem,46,,,20231444.0,ns,209
snapshot_restore_with_dense,Dense: Dirty pages + /proc/pid/mem,46,,,21332697.0,ns,220
snapshot_restore_with_dense,Dense: Dirty pages + /proc/pid/mem,46,,,22422790.0,ns,231
snapshot_restore_with_dense,Dense: Dirty pages + /proc/pid/mem,46,,,23469825.0,ns,242
snapshot_restore_with_dense,Dense: Dirty pages + /proc/pid/mem,46,,,24566646.0,ns,253
snapshot_restore_with_dense,Dense: Dirty pages + /proc/pid/mem,46,,,25604422.0,ns,264
snapshot_restore_with_dense,Dense: Dirty pages + /proc/pid/mem,46,,,26619069.0,ns,275
snapshot_restore_with_dense,Dense: Dirty pages + /proc/pid/mem,46,,,27861693.0,ns,286
snapshot_restore_with_dense,Dense: Dirty pages + /proc/pid/mem,46,,,28983013.0,ns,297
snapshot_restore_with_dense,Dense: Dirty pages + /proc/pid/mem,46,,,29943663.0,ns,308
snapshot_restore_with_dense,Dense: Dirty pages + /proc/pid/mem,46,,,30991065.0,ns,319
snapshot_restore_with_dense,Dense: Dirty pages + /proc/pid/mem,46,,,31992461.0,ns,330
snapshot_restore_with_dense,Dense: Dirty pages + /proc/pid/mem,46,,,33055658.0,ns,341
snapshot_restore_with_dense,Dense: Dirty pages + /proc/pid/mem,46,,,34287586.0,ns,352
snapshot_restore_with_dense,Dense: Dirty pages + /proc/pid/mem,46,,,35249564.0,ns,363
snapshot_restore_with_dense,Dense: Dirty pages + /proc/pid/mem,46,,,36249381.0,ns,374
snapshot_restore_with_dense,Dense: Dirty pages + /proc/pid/mem,46,,,37450684.0,ns,385
snapshot_restore_with_dense,Dense: Dirty pages + /proc/pid/mem,46,,,38452563.0,ns,396
snapshot_restore_with_dense,Dense: Dirty pages + /proc/pid/mem,46,,,39494047.0,ns,407
snapshot_restore_with_dense,Dense: Dirty pages + /proc/pid/mem,46,,,40600405.0,ns,418
snapshot_restore_with_dense,Dense: Dirty pages + /proc/pid/mem,46,,,41570231.0,ns,429
snapshot_restore_with_dense,Dense: Dirty pages + /proc/pid/mem,46,,,42724057.0,ns,440
snapshot_restore_with_dense,Dense: Dirty pages + /proc/pid/mem,46,,,43677066.0,ns,451
snapshot_restore_with_dense,Dense: Dirty pages + /proc/pid/mem,46,,,44787956.0,ns,462
snapshot_restore_with_dense,Dense: Dirty pages + /proc/pid/mem,46,,,45823918.0,ns,473
snapshot_restore_with_dense,Dense: Dirty pages + /proc/pid/mem,46,,,46931818.0,ns,484
snapshot_restore_with_dense,Dense: Dirty pages + /proc/pid/mem,46,,,48072200.0,ns,495
snapshot_restore_with_dense,Dense: Dirty pages + /proc/pid/mem,46,,,48985300.0,ns,506
snapshot_restore_with_dense,Dense: Dirty pages + /proc/pid/mem,46,,,50128939.0,ns,517
snapshot_restore_with_dense,Dense: Dirty pages + /proc/pid/mem,46,,,51221281.0,ns,528
snapshot_restore_with_dense,Dense: Dirty pages + /proc/pid/mem,46,,,52392887.0,ns,539
snapshot_restore_with_dense,Dense: Dirty pages + /proc/pid/mem,46,,,53430327.0,ns,550
snapshot_restore_with_dense,Dense: Dirty pages + /proc/pid/mem,46,,,54620323.0,ns,561
snapshot_restore_with_dense,Dense: Dirty pages + /proc/pid/mem,46,,,55471228.0,ns,572
snapshot_restore_with_dense,Dense: Dirty pages + /proc/pid/mem,46,,,56741275.0,ns,583
snapshot_restore_with_dense,Dense: Dirty pages + /proc/pid/mem,46,,,57649325.0,ns,594
snapshot_restore_with_dense,Dense: Dirty pages + /proc/pid/mem,46,,,58578752.0,ns,605
snapshot_restore_with_dense,Dense: Dirty pages + /proc/pid/mem,46,,,59627801.0,ns,616
snapshot_restore_with_dense,Dense: Dirty pages + /proc/pid/mem,46,,,60718395.0,ns,627
snapshot_restore_with_dense,Dense: Dirty pages + /proc/pid/mem,46,,,61842566.0,ns,638
snapshot_restore_with_dense,Dense: Dirty pages + /proc/pid/mem,46,,,62957573.0,ns,649
snapshot_restore_with_dense,Dense: Dirty pages + /proc/pid/mem,46,,,63955488.0,ns,660
snapshot_restore_with_dense,Dense: Dirty pages + /proc/pid/mem,46,,,65015910.0,ns,671
snapshot_restore_with_dense,Dense: Dirty pages + /proc/pid/mem,46,,,66100223.0,ns,682
snapshot_restore_with_dense,Dense: Dirty pages + /proc/pid/mem,46,,,67161746.0,ns,693
snapshot_restore_with_dense,Dense: Dirty pages + /proc/pid/mem,46,,,68222538.0,ns,704
snapshot_restore_with_dense,Dense: Dirty pages + /proc/pid/mem,46,,,69173762.0,ns,715
snapshot_restore_with_dense,Dense: Dirty pages + /proc/pid/mem,46,,,70614295.0,ns,726
snapshot_restore_with_dense,Dense: Dirty pages + /proc/pid/mem,46,,,71559895.0,ns,737
snapshot_restore_with_dense,Dense: Dirty pages + /proc/pid/mem,46,,,72456578.0,ns,748
snapshot_restore_with_dense,Dense: Dirty pages + /proc/pid/mem,46,,,73748623.0,ns,759
snapshot_restore_with_dense,Dense: Dirty pages + /proc/pid/mem,46,,,74728470.0,ns,770
snapshot_restore_with_dense,Dense: Dirty pages + /proc/pid/mem,46,,,75843540.0,ns,781
snapshot_restore_with_dense,Dense: Dirty pages + /proc/pid/mem,46,,,76796313.0,ns,792
snapshot_restore_with_dense,Dense: Dirty pages + /proc/pid/mem,46,,,77902804.0,ns,803
snapshot_restore_with_dense,Dense: Dirty pages + /proc/pid/mem,46,,,78934147.0,ns,814
snapshot_restore_with_dense,Dense: Dirty pages + /proc/pid/mem,46,,,80127442.0,ns,825
snapshot_restore_with_dense,Dense: Dirty pages + /proc/pid/mem,46,,,81228134.0,ns,836
snapshot_restore_with_dense,Dense: Dirty pages + /proc/pid/mem,46,,,82502233.0,ns,847
snapshot_restore_with_dense,Dense: Dirty pages + /proc/pid/mem,46,,,83496598.0,ns,858
snapshot_restore_with_dense,Dense: Dirty pages + /proc/pid/mem,46,,,84559257.0,ns,869
snapshot_restore_with_dense,Dense: Dirty pages + /proc/pid/mem,46,,,85363393.0,ns,880
snapshot_restore_with_dense,Dense: Dirty pages + /proc/pid/mem,46,,,86307388.0,ns,891
snapshot_restore_with_dense,Dense: Dirty pages + /proc/pid/mem,46,,,87415409.0,ns,902
snapshot_restore_with_dense,Dense: Dirty pages + /proc/pid/mem,46,,,88572649.0,ns,913
snapshot_restore_with_dense,Dense: Dirty pages + /proc/pid/mem,46,,,89407687.0,ns,924
snapshot_restore_with_dense,Dense: Dirty pages + /proc/pid/mem,46,,,90531130.0,ns,935
snapshot_restore_with_dense,Dense: Dirty pages + /proc/pid/mem,46,,,91797970.0,ns,946
snapshot_restore_with_dense,Dense: Dirty pages + /proc/pid/mem,46,,,92937298.0,ns,957
snapshot_restore_with_dense,Dense: Dirty pages + /proc/pid/mem,46,,,93907726.0,ns,968
snapshot_restore_with_dense,Dense: Dirty pages + /proc/pid/mem,46,,,94846682.0,ns,979
snapshot_restore_with_dense,Dense: Dirty pages + /proc/pid/mem,46,,,96021578.0,ns,990
snapshot_restore_with_dense,Dense: Dirty pages + /proc/pid/mem,46,,,97203060.0,ns,1001
snapshot_restore_with_dense,Dense: Dirty pages + /proc/pid/mem,46,,,98249338.0,ns,1012
snapshot_restore_with_dense,Dense: Dirty pages + /proc/pid/mem,46,,,99211117.0,ns,1023
snapshot_restore_with_dense,Dense: Dirty pages + /proc/pid/mem,46,,,100302763.0,ns,1034
snapshot_restore_with_dense,Dense: Dirty pages + /proc/pid/mem,46,,,101319136.0,ns,1045
snapshot_restore_with_dense,Dense: Dirty pages + /proc/pid/mem,46,,,102471927.0,ns,1056
snapshot_restore_with_dense,Dense: Dirty pages + /proc/pid/mem,46,,,103714231.0,ns,1067
snapshot_restore_with_dense,Dense: Dirty pages + /proc/pid/mem,46,,,104520565.0,ns,1078
snapshot_restore_with_dense,Dense: Dirty pages + /proc/pid/mem,46,,,105421661.0,ns,1089
snapshot_restore_with_dense,Dense: Dirty pages + /proc/pid/mem,46,,,106837366.0,ns,1100
