<?xml version="1.0" encoding="utf-8"  standalone="no"?>
<svg 
 viewBox="0 0 450 300"
 xmlns="http://www.w3.org/2000/svg"
 xmlns:xlink="http://www.w3.org/1999/xlink"
>

<title>Gnuplot</title>
<desc>Produced by GNUPLOT 5.2 patchlevel 6 </desc>

<g id="gnuplot_canvas">

<rect x="0" y="0" width="450" height="300" fill="none"/>
<defs>

	<circle id='gpDot' r='0.5' stroke-width='0.5' stroke='currentColor'/>
	<path id='gpPt0' stroke-width='0.222' stroke='currentColor' d='M-1,0 h2 M0,-1 v2'/>
	<path id='gpPt1' stroke-width='0.222' stroke='currentColor' d='M-1,-1 L1,1 M1,-1 L-1,1'/>
	<path id='gpPt2' stroke-width='0.222' stroke='currentColor' d='M-1,0 L1,0 M0,-1 L0,1 M-1,-1 L1,1 M-1,1 L1,-1'/>
	<rect id='gpPt3' stroke-width='0.222' stroke='currentColor' x='-1' y='-1' width='2' height='2'/>
	<rect id='gpPt4' stroke-width='0.222' stroke='currentColor' fill='currentColor' x='-1' y='-1' width='2' height='2'/>
	<circle id='gpPt5' stroke-width='0.222' stroke='currentColor' cx='0' cy='0' r='1'/>
	<use xlink:href='#gpPt5' id='gpPt6' fill='currentColor' stroke='none'/>
	<path id='gpPt7' stroke-width='0.222' stroke='currentColor' d='M0,-1.33 L-1.33,0.67 L1.33,0.67 z'/>
	<use xlink:href='#gpPt7' id='gpPt8' fill='currentColor' stroke='none'/>
	<use xlink:href='#gpPt7' id='gpPt9' stroke='currentColor' transform='rotate(180)'/>
	<use xlink:href='#gpPt9' id='gpPt10' fill='currentColor' stroke='none'/>
	<use xlink:href='#gpPt3' id='gpPt11' stroke='currentColor' transform='rotate(45)'/>
	<use xlink:href='#gpPt11' id='gpPt12' fill='currentColor' stroke='none'/>
	<path id='gpPt13' stroke-width='0.222' stroke='currentColor' d='M0,1.330 L1.265,0.411 L0.782,-1.067 L-0.782,-1.076 L-1.265,0.411 z'/>
	<use xlink:href='#gpPt13' id='gpPt14' fill='currentColor' stroke='none'/>
	<filter id='textbox' filterUnits='objectBoundingBox' x='0' y='0' height='1' width='1'>
	  <feFlood flood-color='white' flood-opacity='1' result='bgnd'/>
	  <feComposite in='SourceGraphic' in2='bgnd' operator='atop'/>
	</filter>
	<filter id='greybox' filterUnits='objectBoundingBox' x='0' y='0' height='1' width='1'>
	  <feFlood flood-color='lightgrey' flood-opacity='1' result='grey'/>
	  <feComposite in='SourceGraphic' in2='grey' operator='atop'/>
	</filter>
</defs>
<g fill="none" color="white" stroke="currentColor" stroke-width="1.00" stroke-linecap="butt" stroke-linejoin="miter">
</g>
<g fill="none" color="black" stroke="currentColor" stroke-width="1.00" stroke-linecap="butt" stroke-linejoin="miter">
	<path stroke='black'  d='M71.9,242.4 L80.9,242.4  '/>	<g transform="translate(63.6,246.3)" stroke="none" fill="black" font-family="Helvetica" font-size="12.00"  text-anchor="end">
		<text><tspan font-family="Helvetica" > 0</tspan></text>
	</g>
</g>
<g fill="none" color="black" stroke="currentColor" stroke-width="1.00" stroke-linecap="butt" stroke-linejoin="miter">
	<path stroke='black'  d='M71.9,210.4 L80.9,210.4  '/>	<g transform="translate(63.6,214.3)" stroke="none" fill="black" font-family="Helvetica" font-size="12.00"  text-anchor="end">
		<text><tspan font-family="Helvetica" > 0.2</tspan></text>
	</g>
</g>
<g fill="none" color="black" stroke="currentColor" stroke-width="1.00" stroke-linecap="butt" stroke-linejoin="miter">
	<path stroke='black'  d='M71.9,178.3 L80.9,178.3  '/>	<g transform="translate(63.6,182.2)" stroke="none" fill="black" font-family="Helvetica" font-size="12.00"  text-anchor="end">
		<text><tspan font-family="Helvetica" > 0.4</tspan></text>
	</g>
</g>
<g fill="none" color="black" stroke="currentColor" stroke-width="1.00" stroke-linecap="butt" stroke-linejoin="miter">
	<path stroke='black'  d='M71.9,146.3 L80.9,146.3  '/>	<g transform="translate(63.6,150.2)" stroke="none" fill="black" font-family="Helvetica" font-size="12.00"  text-anchor="end">
		<text><tspan font-family="Helvetica" > 0.6</tspan></text>
	</g>
</g>
<g fill="none" color="black" stroke="currentColor" stroke-width="1.00" stroke-linecap="butt" stroke-linejoin="miter">
	<path stroke='black'  d='M71.9,114.2 L80.9,114.2  '/>	<g transform="translate(63.6,118.1)" stroke="none" fill="black" font-family="Helvetica" font-size="12.00"  text-anchor="end">
		<text><tspan font-family="Helvetica" > 0.8</tspan></text>
	</g>
</g>
<g fill="none" color="black" stroke="currentColor" stroke-width="1.00" stroke-linecap="butt" stroke-linejoin="miter">
	<path stroke='black'  d='M71.9,82.2 L80.9,82.2  '/>	<g transform="translate(63.6,86.1)" stroke="none" fill="black" font-family="Helvetica" font-size="12.00"  text-anchor="end">
		<text><tspan font-family="Helvetica" > 1</tspan></text>
	</g>
</g>
<g fill="none" color="black" stroke="currentColor" stroke-width="1.00" stroke-linecap="butt" stroke-linejoin="miter">
	<path stroke='black'  d='M71.9,50.1 L80.9,50.1  '/>	<g transform="translate(63.6,54.0)" stroke="none" fill="black" font-family="Helvetica" font-size="12.00"  text-anchor="end">
		<text><tspan font-family="Helvetica" > 1.2</tspan></text>
	</g>
</g>
<g fill="none" color="black" stroke="currentColor" stroke-width="1.00" stroke-linecap="butt" stroke-linejoin="miter">
	<path stroke='black'  d='M71.9,18.1 L80.9,18.1  '/>	<g transform="translate(63.6,22.0)" stroke="none" fill="black" font-family="Helvetica" font-size="12.00"  text-anchor="end">
		<text><tspan font-family="Helvetica" > 1.4</tspan></text>
	</g>
</g>
<g fill="none" color="black" stroke="currentColor" stroke-width="1.00" stroke-linecap="butt" stroke-linejoin="miter">
	<path stroke='black'  d='M71.9,242.4 L71.9,233.4  '/>	<g transform="translate(71.9,264.3)" stroke="none" fill="black" font-family="Helvetica" font-size="12.00"  text-anchor="middle">
		<text><tspan font-family="Helvetica" > 12</tspan></text>
	</g>
</g>
<g fill="none" color="black" stroke="currentColor" stroke-width="1.00" stroke-linecap="butt" stroke-linejoin="miter">
	<path stroke='black'  d='M107.2,242.4 L107.2,233.4  '/>	<g transform="translate(107.2,264.3)" stroke="none" fill="black" font-family="Helvetica" font-size="12.00"  text-anchor="middle">
		<text><tspan font-family="Helvetica" > 13</tspan></text>
	</g>
</g>
<g fill="none" color="black" stroke="currentColor" stroke-width="1.00" stroke-linecap="butt" stroke-linejoin="miter">
	<path stroke='black'  d='M142.5,242.4 L142.5,233.4  '/>	<g transform="translate(142.5,264.3)" stroke="none" fill="black" font-family="Helvetica" font-size="12.00"  text-anchor="middle">
		<text><tspan font-family="Helvetica" > 14</tspan></text>
	</g>
</g>
<g fill="none" color="black" stroke="currentColor" stroke-width="1.00" stroke-linecap="butt" stroke-linejoin="miter">
	<path stroke='black'  d='M177.8,242.4 L177.8,233.4  '/>	<g transform="translate(177.8,264.3)" stroke="none" fill="black" font-family="Helvetica" font-size="12.00"  text-anchor="middle">
		<text><tspan font-family="Helvetica" > 15</tspan></text>
	</g>
</g>
<g fill="none" color="black" stroke="currentColor" stroke-width="1.00" stroke-linecap="butt" stroke-linejoin="miter">
	<path stroke='black'  d='M213.1,242.4 L213.1,233.4  '/>	<g transform="translate(213.1,264.3)" stroke="none" fill="black" font-family="Helvetica" font-size="12.00"  text-anchor="middle">
		<text><tspan font-family="Helvetica" > 16</tspan></text>
	</g>
</g>
<g fill="none" color="black" stroke="currentColor" stroke-width="1.00" stroke-linecap="butt" stroke-linejoin="miter">
	<path stroke='black'  d='M248.5,242.4 L248.5,233.4  '/>	<g transform="translate(248.5,264.3)" stroke="none" fill="black" font-family="Helvetica" font-size="12.00"  text-anchor="middle">
		<text><tspan font-family="Helvetica" > 17</tspan></text>
	</g>
</g>
<g fill="none" color="black" stroke="currentColor" stroke-width="1.00" stroke-linecap="butt" stroke-linejoin="miter">
	<path stroke='black'  d='M283.8,242.4 L283.8,233.4  '/>	<g transform="translate(283.8,264.3)" stroke="none" fill="black" font-family="Helvetica" font-size="12.00"  text-anchor="middle">
		<text><tspan font-family="Helvetica" > 18</tspan></text>
	</g>
</g>
<g fill="none" color="black" stroke="currentColor" stroke-width="1.00" stroke-linecap="butt" stroke-linejoin="miter">
	<path stroke='black'  d='M319.1,242.4 L319.1,233.4  '/>	<g transform="translate(319.1,264.3)" stroke="none" fill="black" font-family="Helvetica" font-size="12.00"  text-anchor="middle">
		<text><tspan font-family="Helvetica" > 19</tspan></text>
	</g>
</g>
<g fill="none" color="black" stroke="currentColor" stroke-width="1.00" stroke-linecap="butt" stroke-linejoin="miter">
	<path stroke='black'  d='M354.4,242.4 L354.4,233.4  '/>	<g transform="translate(354.4,264.3)" stroke="none" fill="black" font-family="Helvetica" font-size="12.00"  text-anchor="middle">
		<text><tspan font-family="Helvetica" > 20</tspan></text>
	</g>
</g>
<g fill="none" color="black" stroke="currentColor" stroke-width="1.00" stroke-linecap="butt" stroke-linejoin="miter">
	<path stroke='black'  d='M389.7,242.4 L389.7,233.4  '/>	<g transform="translate(389.7,264.3)" stroke="none" fill="black" font-family="Helvetica" font-size="12.00"  text-anchor="middle">
		<text><tspan font-family="Helvetica" > 21</tspan></text>
	</g>
</g>
<g fill="none" color="black" stroke="currentColor" stroke-width="1.00" stroke-linecap="butt" stroke-linejoin="miter">
	<path stroke='black'  d='M425.0,242.4 L425.0,233.4  '/>	<g transform="translate(425.0,264.3)" stroke="none" fill="black" font-family="Helvetica" font-size="12.00"  text-anchor="middle">
		<text><tspan font-family="Helvetica" > 22</tspan></text>
	</g>
</g>
<g fill="none" color="black" stroke="currentColor" stroke-width="1.00" stroke-linecap="butt" stroke-linejoin="miter">
</g>
<g fill="none" color="black" stroke="currentColor" stroke-width="1.00" stroke-linecap="butt" stroke-linejoin="miter">
	<path stroke='black'  d='M71.9,18.1 L71.9,242.4 L425.0,242.4 L425.0,18.1 L71.9,18.1 Z  '/></g>
<g fill="none" color="black" stroke="currentColor" stroke-width="1.00" stroke-linecap="butt" stroke-linejoin="miter">
	<g transform="translate(16.3,130.3) rotate(270)" stroke="none" fill="black" font-family="Helvetica" font-size="12.00"  text-anchor="middle">
		<text><tspan font-family="Helvetica" >Density (a.u.)</tspan></text>
	</g>
</g>
<g fill="none" color="black" stroke="currentColor" stroke-width="1.00" stroke-linecap="butt" stroke-linejoin="miter">
	<g transform="translate(248.4,291.3)" stroke="none" fill="black" font-family="Helvetica" font-size="12.00"  text-anchor="middle">
		<text><tspan font-family="Helvetica" >Average time (us)</tspan></text>
	</g>
</g>
<g fill="none" color="black" stroke="currentColor" stroke-width="1.00" stroke-linecap="butt" stroke-linejoin="miter">
</g>
	<g id="gnuplot_plot_1" ><title>Base PDF</title>
<g fill="none" color="black" stroke="currentColor" stroke-width="1.00" stroke-linecap="butt" stroke-linejoin="miter">
	<g stroke='none' shape-rendering='crispEdges'>
		<polygon fill = 'rgb(227,  26,  28)' fill-opacity = '0.500000' points = '133.4,242.3 134.0,242.3 134.5,242.3 135.1,242.3 135.7,242.2 136.2,242.2 136.8,242.2 137.4,242.2 137.9,242.2 138.5,242.1 139.1,242.1 139.6,242.1 140.2,242.0 140.8,242.0 141.3,242.0 141.9,241.9
142.4,241.9 143.0,241.8 143.6,241.8 144.1,241.7 144.7,241.6 145.3,241.6 145.8,241.5 146.4,241.4 147.0,241.3 147.5,241.3 148.1,241.2 148.7,241.1 149.2,241.0 149.8,240.8 150.3,240.7 150.9,240.6
151.5,240.5 152.0,240.3 152.6,240.2 153.2,240.0 153.7,239.8 154.3,239.7 154.9,239.5 155.4,239.3 156.0,239.1 156.6,238.9 157.1,238.7 157.7,238.5 158.2,238.2 158.8,238.0 159.4,237.7 159.9,237.5
160.5,237.2 161.1,237.0 161.6,236.7 162.2,236.4 162.8,236.2 163.3,235.9 163.9,235.6 164.4,235.3 165.0,235.0 165.6,234.7 166.1,234.4 166.7,234.1 167.3,233.8 167.8,233.5 168.4,233.2 169.0,232.9
169.5,232.6 170.1,232.3 170.7,232.1 171.2,231.8 171.8,231.5 172.3,231.2 172.9,231.0 173.5,230.7 174.0,230.5 174.6,230.3 175.2,230.1 175.7,229.9 176.3,229.7 176.9,229.5 177.4,229.3 178.0,229.2
178.6,229.0 179.1,228.9 179.7,228.8 180.2,228.7 180.8,228.7 181.4,228.6 181.9,228.6 182.5,228.5 183.1,228.5 183.6,228.5 184.2,228.6 184.8,228.6 185.3,228.7 185.9,228.7 186.5,228.8 187.0,228.9
187.6,229.0 188.1,229.2 188.7,229.3 189.3,229.5 189.8,229.6 190.4,229.8 191.0,230.0 191.5,230.2 192.1,230.4 192.7,230.6 193.2,230.9 193.8,231.1 194.4,231.3 194.9,231.6 195.5,231.8 196.0,232.1
196.6,232.3 197.2,232.6 197.7,232.9 198.3,233.1 198.9,233.4 199.4,233.6 200.0,233.9 200.6,234.1 201.1,234.4 201.7,234.6 202.2,234.9 202.8,235.1 203.4,235.3 203.9,235.6 204.5,235.8 205.1,236.0
205.6,236.2 206.2,236.4 206.8,236.6 207.3,236.8 207.9,236.9 208.5,237.1 209.0,237.3 209.6,237.4 210.1,237.5 210.7,237.7 211.3,237.8 211.8,237.9 212.4,238.0 213.0,238.1 213.5,238.2 214.1,238.3
214.7,238.3 215.2,238.4 215.8,238.5 216.4,238.5 216.9,238.6 217.5,238.6 218.0,238.6 218.6,238.6 219.2,238.7 219.7,238.7 220.3,238.7 220.9,238.7 221.4,238.7 222.0,238.6 222.6,238.6 223.1,238.6
223.7,238.6 224.3,238.5 224.8,238.5 225.4,238.5 225.9,238.4 226.5,238.4 227.1,238.4 227.6,238.3 228.2,238.3 228.8,238.2 229.3,238.2 229.9,238.1 230.5,238.1 231.0,238.0 231.6,238.0 232.2,237.9
232.7,237.9 233.3,237.8 233.8,237.8 234.4,237.7 235.0,237.7 235.5,237.6 236.1,237.6 236.7,237.5 237.2,237.5 237.8,237.4 238.4,237.4 238.9,237.3 239.5,237.2 240.0,237.2 240.6,237.1 241.2,237.1
241.7,237.0 242.3,236.9 242.9,236.9 243.4,236.8 244.0,236.7 244.6,236.6 245.1,236.6 245.7,236.5 246.3,236.4 246.8,236.2 247.4,236.1 247.9,236.0 248.5,235.8 249.1,235.7 249.6,235.5 250.2,235.3
250.8,235.1 251.3,234.9 251.9,234.6 252.5,234.4 253.0,234.1 253.6,233.7 254.2,233.4 254.7,233.0 255.3,232.6 255.8,232.1 256.4,231.7 257.0,231.1 257.5,230.6 258.1,229.9 258.7,229.3 259.2,228.6
259.8,227.8 260.4,227.0 260.9,226.1 261.5,225.2 262.1,224.2 262.6,223.2 263.2,222.0 263.7,220.9 264.3,219.6 264.9,218.3 265.4,216.9 266.0,215.5 266.6,214.0 267.1,212.4 267.7,210.7 268.3,208.9
268.8,207.1 269.4,205.3 270.0,203.3 270.5,201.3 271.1,199.2 271.6,197.0 272.2,194.8 272.8,192.6 273.3,190.2 273.9,187.9 274.5,185.4 275.0,183.0 275.6,180.5 276.2,177.9 276.7,175.3 277.3,172.8
277.8,170.2 278.4,167.6 279.0,164.9 279.5,162.3 280.1,159.8 280.7,157.2 281.2,154.7 281.8,152.2 282.4,149.7 282.9,147.3 283.5,145.0 284.1,142.7 284.6,140.5 285.2,138.4 285.7,136.4 286.3,134.5
286.9,132.7 287.4,131.0 288.0,129.5 288.6,128.0 289.1,126.7 289.7,125.6 290.3,124.6 290.8,123.7 291.4,123.0 292.0,122.4 292.5,122.0 293.1,121.7 293.6,121.6 294.2,121.7 294.8,121.9 295.3,122.3
295.9,122.8 296.5,123.5 297.0,124.3 297.6,125.3 298.2,126.4 298.7,127.7 299.3,129.1 299.9,130.6 300.4,132.3 301.0,134.0 301.5,135.9 302.1,137.9 302.7,139.9 303.2,142.1 303.8,144.3 304.4,146.6
304.9,149.0 305.5,151.4 306.1,153.9 306.6,156.4 307.2,159.0 307.8,161.5 308.3,164.1 308.9,166.7 309.4,169.3 310.0,171.9 310.6,174.5 311.1,177.1 311.7,179.6 312.3,182.1 312.8,184.6 313.4,187.1
314.0,189.4 314.5,191.8 315.1,194.1 315.6,196.3 316.2,198.5 316.8,200.6 317.3,202.7 317.9,204.7 318.5,206.6 319.0,208.5 319.6,210.3 320.2,212.0 320.7,213.7 321.3,215.2 321.9,216.8 322.4,218.2
323.0,219.6 323.5,220.9 324.1,222.2 324.7,223.3 325.2,224.5 325.8,225.5 326.4,226.5 326.9,227.5 327.5,228.4 328.1,229.2 328.6,230.0 329.2,230.8 329.8,231.5 330.3,232.1 330.9,232.8 331.4,233.3
332.0,233.9 332.6,234.4 333.1,234.8 333.7,235.3 334.3,235.7 334.8,236.1 335.4,236.4 336.0,236.7 336.5,237.0 337.1,237.3 337.7,237.6 338.2,237.8 338.8,238.0 339.3,238.2 339.9,238.4 340.5,238.6
341.0,238.8 341.6,238.9 342.2,239.1 342.7,239.2 343.3,239.3 343.9,239.4 344.4,239.5 345.0,239.6 345.6,239.7 346.1,239.8 346.7,239.9 347.2,239.9 347.8,240.0 348.4,240.0 348.9,240.1 349.5,240.1
350.1,240.2 350.6,240.2 351.2,240.3 351.8,240.3 352.3,240.3 352.9,240.4 353.5,240.4 354.0,240.4 354.6,240.4 355.1,240.5 355.7,240.5 356.3,240.5 356.8,240.5 357.4,240.5 358.0,240.5 358.5,240.5
359.1,240.5 359.7,240.6 360.2,240.6 360.8,240.6 361.3,240.6 361.9,240.6 362.5,240.6 363.0,240.6 363.6,240.6 364.2,240.6 364.7,240.6 365.3,240.6 365.9,240.6 366.4,240.7 367.0,240.7 367.6,240.7
368.1,240.7 368.7,240.7 369.2,240.7 369.8,240.7 370.4,240.8 370.9,240.8 371.5,240.8 372.1,240.8 372.6,240.8 373.2,240.9 373.8,240.9 374.3,240.9 374.9,240.9 375.5,241.0 376.0,241.0 376.6,241.0
377.1,241.0 377.7,241.1 378.3,241.1 378.8,241.1 379.4,241.2 380.0,241.2 380.5,241.2 381.1,241.3 381.7,241.3 382.2,241.3 382.8,241.4 383.4,241.4 383.9,241.4 384.5,241.5 385.0,241.5 385.6,241.6
386.2,241.6 386.7,241.6 387.3,241.7 387.9,241.7 388.4,241.7 389.0,241.8 389.6,241.8 390.1,241.8 390.7,241.8 391.3,241.9 391.8,241.9 392.4,241.9 392.9,242.0 393.5,242.0 394.1,242.0 394.6,242.0
395.2,242.1 395.8,242.1 396.3,242.1 396.9,242.1 397.5,242.1 398.0,242.1 398.6,242.2 399.1,242.2 399.7,242.2 400.3,242.2 400.8,242.2 401.4,242.2 402.0,242.3 402.5,242.3 403.1,242.3 403.7,242.3
404.2,242.3 404.8,242.3 405.4,242.3 405.9,242.3 406.5,242.3 407.0,242.3 407.6,242.3 408.2,242.3 408.7,242.3 409.3,242.4 409.9,242.4 410.4,242.4 411.0,242.4 411.6,242.4 412.1,242.4 412.7,242.4
413.3,242.4 413.8,242.4 414.4,242.4 414.9,242.4 414.9,242.4 414.4,242.4 413.8,242.4 413.3,242.4 412.7,242.4 412.1,242.4 411.6,242.4 411.0,242.4 410.4,242.4 409.9,242.4 409.3,242.4 408.7,242.4
408.2,242.4 407.6,242.4 407.0,242.4 406.5,242.4 405.9,242.4 405.4,242.4 404.8,242.4 404.2,242.4 403.7,242.4 403.1,242.4 402.5,242.4 402.0,242.4 401.4,242.4 400.8,242.4 400.3,242.4 399.7,242.4
399.1,242.4 398.6,242.4 398.0,242.4 397.5,242.4 396.9,242.4 396.3,242.4 395.8,242.4 395.2,242.4 394.6,242.4 394.1,242.4 393.5,242.4 392.9,242.4 392.4,242.4 391.8,242.4 391.3,242.4 390.7,242.4
390.1,242.4 389.6,242.4 389.0,242.4 388.4,242.4 387.9,242.4 387.3,242.4 386.7,242.4 386.2,242.4 385.6,242.4 385.0,242.4 384.5,242.4 383.9,242.4 383.4,242.4 382.8,242.4 382.2,242.4 381.7,242.4
381.1,242.4 380.5,242.4 380.0,242.4 379.4,242.4 378.8,242.4 378.3,242.4 377.7,242.4 377.1,242.4 376.6,242.4 376.0,242.4 375.5,242.4 374.9,242.4 374.3,242.4 373.8,242.4 373.2,242.4 372.6,242.4
372.1,242.4 371.5,242.4 370.9,242.4 370.4,242.4 369.8,242.4 369.2,242.4 368.7,242.4 368.1,242.4 367.6,242.4 367.0,242.4 366.4,242.4 365.9,242.4 365.3,242.4 364.7,242.4 364.2,242.4 363.6,242.4
363.0,242.4 362.5,242.4 361.9,242.4 361.3,242.4 360.8,242.4 360.2,242.4 359.7,242.4 359.1,242.4 358.5,242.4 358.0,242.4 357.4,242.4 356.8,242.4 356.3,242.4 355.7,242.4 355.1,242.4 354.6,242.4
354.0,242.4 353.5,242.4 352.9,242.4 352.3,242.4 351.8,242.4 351.2,242.4 350.6,242.4 350.1,242.4 349.5,242.4 348.9,242.4 348.4,242.4 347.8,242.4 347.2,242.4 346.7,242.4 346.1,242.4 345.6,242.4
345.0,242.4 344.4,242.4 343.9,242.4 343.3,242.4 342.7,242.4 342.2,242.4 341.6,242.4 341.0,242.4 340.5,242.4 339.9,242.4 339.3,242.4 338.8,242.4 338.2,242.4 337.7,242.4 337.1,242.4 336.5,242.4
336.0,242.4 335.4,242.4 334.8,242.4 334.3,242.4 333.7,242.4 333.1,242.4 332.6,242.4 332.0,242.4 331.4,242.4 330.9,242.4 330.3,242.4 329.8,242.4 329.2,242.4 328.6,242.4 328.1,242.4 327.5,242.4
326.9,242.4 326.4,242.4 325.8,242.4 325.2,242.4 324.7,242.4 324.1,242.4 323.5,242.4 323.0,242.4 322.4,242.4 321.9,242.4 321.3,242.4 320.7,242.4 320.2,242.4 319.6,242.4 319.0,242.4 318.5,242.4
317.9,242.4 317.3,242.4 316.8,242.4 316.2,242.4 315.6,242.4 315.1,242.4 314.5,242.4 314.0,242.4 313.4,242.4 312.8,242.4 312.3,242.4 311.7,242.4 311.1,242.4 310.6,242.4 310.0,242.4 309.4,242.4
308.9,242.4 308.3,242.4 307.8,242.4 307.2,242.4 306.6,242.4 306.1,242.4 305.5,242.4 304.9,242.4 304.4,242.4 303.8,242.4 303.2,242.4 302.7,242.4 302.1,242.4 301.5,242.4 301.0,242.4 300.4,242.4
299.9,242.4 299.3,242.4 298.7,242.4 298.2,242.4 297.6,242.4 297.0,242.4 296.5,242.4 295.9,242.4 295.3,242.4 294.8,242.4 294.2,242.4 293.6,242.4 293.1,242.4 292.5,242.4 292.0,242.4 291.4,242.4
290.8,242.4 290.3,242.4 289.7,242.4 289.1,242.4 288.6,242.4 288.0,242.4 287.4,242.4 286.9,242.4 286.3,242.4 285.7,242.4 285.2,242.4 284.6,242.4 284.1,242.4 283.5,242.4 282.9,242.4 282.4,242.4
281.8,242.4 281.2,242.4 280.7,242.4 280.1,242.4 279.5,242.4 279.0,242.4 278.4,242.4 277.8,242.4 277.3,242.4 276.7,242.4 276.2,242.4 275.6,242.4 275.0,242.4 274.5,242.4 273.9,242.4 273.3,242.4
272.8,242.4 272.2,242.4 271.6,242.4 271.1,242.4 270.5,242.4 270.0,242.4 269.4,242.4 268.8,242.4 268.3,242.4 267.7,242.4 267.1,242.4 266.6,242.4 266.0,242.4 265.4,242.4 264.9,242.4 264.3,242.4
263.7,242.4 263.2,242.4 262.6,242.4 262.1,242.4 261.5,242.4 260.9,242.4 260.4,242.4 259.8,242.4 259.2,242.4 258.7,242.4 258.1,242.4 257.5,242.4 257.0,242.4 256.4,242.4 255.8,242.4 255.3,242.4
254.7,242.4 254.2,242.4 253.6,242.4 253.0,242.4 252.5,242.4 251.9,242.4 251.3,242.4 250.8,242.4 250.2,242.4 249.6,242.4 249.1,242.4 248.5,242.4 247.9,242.4 247.4,242.4 246.8,242.4 246.3,242.4
245.7,242.4 245.1,242.4 244.6,242.4 244.0,242.4 243.4,242.4 242.9,242.4 242.3,242.4 241.7,242.4 241.2,242.4 240.6,242.4 240.0,242.4 239.5,242.4 238.9,242.4 238.4,242.4 237.8,242.4 237.2,242.4
236.7,242.4 236.1,242.4 235.5,242.4 235.0,242.4 234.4,242.4 233.8,242.4 233.3,242.4 232.7,242.4 232.2,242.4 231.6,242.4 231.0,242.4 230.5,242.4 229.9,242.4 229.3,242.4 228.8,242.4 228.2,242.4
227.6,242.4 227.1,242.4 226.5,242.4 225.9,242.4 225.4,242.4 224.8,242.4 224.3,242.4 223.7,242.4 223.1,242.4 222.6,242.4 222.0,242.4 221.4,242.4 220.9,242.4 220.3,242.4 219.7,242.4 219.2,242.4
218.6,242.4 218.0,242.4 217.5,242.4 216.9,242.4 216.4,242.4 215.8,242.4 215.2,242.4 214.7,242.4 214.1,242.4 213.5,242.4 213.0,242.4 212.4,242.4 211.8,242.4 211.3,242.4 210.7,242.4 210.1,242.4
209.6,242.4 209.0,242.4 208.5,242.4 207.9,242.4 207.3,242.4 206.8,242.4 206.2,242.4 205.6,242.4 205.1,242.4 204.5,242.4 203.9,242.4 203.4,242.4 202.8,242.4 202.2,242.4 201.7,242.4 201.1,242.4
200.6,242.4 200.0,242.4 199.4,242.4 198.9,242.4 198.3,242.4 197.7,242.4 197.2,242.4 196.6,242.4 196.0,242.4 195.5,242.4 194.9,242.4 194.4,242.4 193.8,242.4 193.2,242.4 192.7,242.4 192.1,242.4
191.5,242.4 191.0,242.4 190.4,242.4 189.8,242.4 189.3,242.4 188.7,242.4 188.1,242.4 187.6,242.4 187.0,242.4 186.5,242.4 185.9,242.4 185.3,242.4 184.8,242.4 184.2,242.4 183.6,242.4 183.1,242.4
182.5,242.4 181.9,242.4 181.4,242.4 180.8,242.4 180.2,242.4 179.7,242.4 179.1,242.4 178.6,242.4 178.0,242.4 177.4,242.4 176.9,242.4 176.3,242.4 175.7,242.4 175.2,242.4 174.6,242.4 174.0,242.4
173.5,242.4 172.9,242.4 172.3,242.4 171.8,242.4 171.2,242.4 170.7,242.4 170.1,242.4 169.5,242.4 169.0,242.4 168.4,242.4 167.8,242.4 167.3,242.4 166.7,242.4 166.1,242.4 165.6,242.4 165.0,242.4
164.4,242.4 163.9,242.4 163.3,242.4 162.8,242.4 162.2,242.4 161.6,242.4 161.1,242.4 160.5,242.4 159.9,242.4 159.4,242.4 158.8,242.4 158.2,242.4 157.7,242.4 157.1,242.4 156.6,242.4 156.0,242.4
155.4,242.4 154.9,242.4 154.3,242.4 153.7,242.4 153.2,242.4 152.6,242.4 152.0,242.4 151.5,242.4 150.9,242.4 150.3,242.4 149.8,242.4 149.2,242.4 148.7,242.4 148.1,242.4 147.5,242.4 147.0,242.4
146.4,242.4 145.8,242.4 145.3,242.4 144.7,242.4 144.1,242.4 143.6,242.4 143.0,242.4 142.4,242.4 141.9,242.4 141.3,242.4 140.8,242.4 140.2,242.4 139.6,242.4 139.1,242.4 138.5,242.4 137.9,242.4
137.4,242.4 136.8,242.4 136.2,242.4 135.7,242.4 135.1,242.4 134.5,242.4 134.0,242.4 133.4,242.4 '/>
	</g>
</g>
	</g>
	<g id="gnuplot_plot_2" ><title>Base Mean</title>
<g fill="none" color="white" stroke="rgb(227,  26,  28)" stroke-width="2.00" stroke-linecap="butt" stroke-linejoin="miter">
</g>
<g fill="none" color="black" stroke="currentColor" stroke-width="2.00" stroke-linecap="butt" stroke-linejoin="miter">
	<path stroke='rgb(227,  26,  28)'  d='M282.0,242.4 L282.0,151.1  '/></g>
	</g>
	<g id="gnuplot_plot_3" ><title>New PDF</title>
<g fill="none" color="white" stroke="rgb(227,  26,  28)" stroke-width="1.00" stroke-linecap="butt" stroke-linejoin="miter">
</g>
<g fill="none" color="black" stroke="currentColor" stroke-width="1.00" stroke-linecap="butt" stroke-linejoin="miter">
	<g stroke='none' shape-rendering='crispEdges'>
		<polygon fill = 'rgb( 31, 120, 180)' fill-opacity = '0.500000' points = '90.9,241.1 91.4,240.9 91.9,240.6 92.5,240.3 93.0,240.0 93.5,239.6 94.1,239.1 94.6,238.6 95.1,238.0 95.7,237.4 96.2,236.6 96.7,235.8 97.3,234.8 97.8,233.8 98.3,232.6 98.9,231.3
99.4,229.9 99.9,228.3 100.4,226.6 101.0,224.7 101.5,222.6 102.0,220.3 102.6,217.9 103.1,215.2 103.6,212.3 104.2,209.2 104.7,205.9 105.2,202.3 105.8,198.5 106.3,194.5 106.8,190.2 107.4,185.7
107.9,181.0 108.4,176.1 109.0,171.0 109.5,165.6 110.0,160.1 110.5,154.4 111.1,148.6 111.6,142.6 112.1,136.5 112.7,130.4 113.2,124.2 113.7,118.0 114.3,111.8 114.8,105.6 115.3,99.5 115.9,93.5
116.4,87.7 116.9,82.1 117.5,76.7 118.0,71.5 118.5,66.7 119.1,62.2 119.6,58.0 120.1,54.2 120.7,50.8 121.2,47.9 121.7,45.4 122.2,43.4 122.8,41.9 123.3,40.9 123.8,40.4 124.4,40.4
124.9,41.0 125.4,42.0 126.0,43.5 126.5,45.5 127.0,48.0 127.6,50.9 128.1,54.3 128.6,58.0 129.2,62.1 129.7,66.6 130.2,71.3 130.8,76.4 131.3,81.6 131.8,87.1 132.4,92.8 132.9,98.6
133.4,104.5 133.9,110.4 134.5,116.4 135.0,122.4 135.5,128.4 136.1,134.3 136.6,140.2 137.1,145.9 137.7,151.5 138.2,157.0 138.7,162.3 139.3,167.4 139.8,172.4 140.3,177.1 140.9,181.6 141.4,186.0
141.9,190.1 142.5,194.0 143.0,197.7 143.5,201.1 144.0,204.4 144.6,207.4 145.1,210.3 145.6,212.9 146.2,215.4 146.7,217.7 147.2,219.8 147.8,221.7 148.3,223.5 148.8,225.2 149.4,226.7 149.9,228.1
150.4,229.3 151.0,230.4 151.5,231.5 152.0,232.4 152.6,233.3 153.1,234.1 153.6,234.8 154.2,235.4 154.7,236.0 155.2,236.5 155.7,236.9 156.3,237.3 156.8,237.7 157.3,238.0 157.9,238.3 158.4,238.6
158.9,238.8 159.5,239.0 160.0,239.2 160.5,239.4 161.1,239.5 161.6,239.6 162.1,239.7 162.7,239.8 163.2,239.9 163.7,240.0 164.3,240.0 164.8,240.1 165.3,240.1 165.8,240.1 166.4,240.1 166.9,240.1
167.4,240.1 168.0,240.1 168.5,240.1 169.0,240.1 169.6,240.1 170.1,240.1 170.6,240.0 171.2,240.0 171.7,240.0 172.2,240.0 172.8,239.9 173.3,239.9 173.8,239.9 174.4,239.9 174.9,239.9 175.4,239.8
176.0,239.8 176.5,239.8 177.0,239.8 177.5,239.8 178.1,239.8 178.6,239.8 179.1,239.8 179.7,239.8 180.2,239.7 180.7,239.7 181.3,239.7 181.8,239.7 182.3,239.7 182.9,239.8 183.4,239.8 183.9,239.8
184.5,239.8 185.0,239.8 185.5,239.8 186.1,239.8 186.6,239.8 187.1,239.8 187.6,239.8 188.2,239.8 188.7,239.8 189.2,239.8 189.8,239.8 190.3,239.8 190.8,239.8 191.4,239.8 191.9,239.8 192.4,239.8
193.0,239.8 193.5,239.8 194.0,239.8 194.6,239.8 195.1,239.8 195.6,239.9 196.2,239.9 196.7,239.9 197.2,239.9 197.8,240.0 198.3,240.0 198.8,240.1 199.3,240.1 199.9,240.1 200.4,240.2 200.9,240.2
201.5,240.3 202.0,240.4 202.5,240.4 203.1,240.5 203.6,240.5 204.1,240.6 204.7,240.7 205.2,240.7 205.7,240.8 206.3,240.8 206.8,240.9 207.3,241.0 207.9,241.0 208.4,241.1 208.9,241.1 209.4,241.2
210.0,241.2 210.5,241.3 211.0,241.3 211.6,241.3 212.1,241.3 212.6,241.4 213.2,241.4 213.7,241.4 214.2,241.4 214.8,241.4 215.3,241.4 215.8,241.4 216.4,241.4 216.9,241.4 217.4,241.3 218.0,241.3
218.5,241.3 219.0,241.2 219.6,241.2 220.1,241.1 220.6,241.1 221.1,241.0 221.7,241.0 222.2,240.9 222.7,240.9 223.3,240.8 223.8,240.8 224.3,240.7 224.9,240.7 225.4,240.6 225.9,240.6 226.5,240.5
227.0,240.5 227.5,240.4 228.1,240.4 228.6,240.3 229.1,240.3 229.7,240.3 230.2,240.2 230.7,240.2 231.2,240.2 231.8,240.2 232.3,240.2 232.8,240.2 233.4,240.2 233.9,240.2 234.4,240.3 235.0,240.3
235.5,240.3 236.0,240.4 236.6,240.4 237.1,240.4 237.6,240.5 238.2,240.5 238.7,240.6 239.2,240.7 239.8,240.7 240.3,240.8 240.8,240.8 241.4,240.9 241.9,241.0 242.4,241.0 242.9,241.1 243.5,241.2
244.0,241.3 244.5,241.3 245.1,241.4 245.6,241.4 246.1,241.5 246.7,241.6 247.2,241.6 247.7,241.7 248.3,241.7 248.8,241.8 249.3,241.8 249.9,241.9 250.4,241.9 250.9,242.0 251.5,242.0 252.0,242.0
252.5,242.1 253.1,242.1 253.6,242.1 254.1,242.2 254.6,242.2 255.2,242.2 255.7,242.2 256.2,242.3 256.8,242.3 257.3,242.3 257.8,242.3 258.4,242.3 258.9,242.3 259.4,242.3 260.0,242.3 260.5,242.3
261.0,242.4 261.6,242.4 262.1,242.4 262.6,242.4 263.2,242.4 263.7,242.4 264.2,242.4 264.7,242.4 265.3,242.4 265.8,242.4 266.3,242.4 266.9,242.4 267.4,242.4 267.9,242.4 268.5,242.4 269.0,242.4
269.5,242.4 270.1,242.4 270.6,242.4 271.1,242.4 271.7,242.4 272.2,242.4 272.7,242.4 273.3,242.4 273.8,242.4 274.3,242.4 274.9,242.4 275.4,242.4 275.9,242.4 276.4,242.4 277.0,242.4 277.5,242.4
278.0,242.4 278.6,242.4 279.1,242.4 279.6,242.4 280.2,242.4 280.7,242.4 281.2,242.4 281.8,242.4 282.3,242.4 282.8,242.4 283.4,242.4 283.9,242.4 284.4,242.4 285.0,242.4 285.5,242.4 286.0,242.4
286.5,242.4 287.1,242.4 287.6,242.4 288.1,242.4 288.7,242.4 289.2,242.4 289.7,242.4 290.3,242.4 290.8,242.4 291.3,242.4 291.9,242.4 292.4,242.4 292.9,242.4 293.5,242.4 294.0,242.4 294.5,242.4
295.1,242.4 295.6,242.4 296.1,242.4 296.7,242.4 297.2,242.3 297.7,242.3 298.2,242.3 298.8,242.3 299.3,242.3 299.8,242.3 300.4,242.3 300.9,242.3 301.4,242.2 302.0,242.2 302.5,242.2 303.0,242.2
303.6,242.2 304.1,242.1 304.6,242.1 305.2,242.1 305.7,242.0 306.2,242.0 306.8,242.0 307.3,241.9 307.8,241.9 308.3,241.8 308.9,241.8 309.4,241.7 309.9,241.7 310.5,241.6 311.0,241.6 311.5,241.5
312.1,241.4 312.6,241.4 313.1,241.3 313.7,241.2 314.2,241.2 314.7,241.1 315.3,241.0 315.8,241.0 316.3,240.9 316.9,240.8 317.4,240.8 317.9,240.7 318.5,240.6 319.0,240.6 319.5,240.5 320.0,240.5
320.6,240.4 321.1,240.4 321.6,240.3 322.2,240.3 322.7,240.3 323.2,240.3 323.8,240.2 324.3,240.2 324.8,240.2 325.4,240.2 325.9,240.2 326.4,240.2 327.0,240.2 327.5,240.3 328.0,240.3 328.6,240.3
329.1,240.4 329.6,240.4 330.1,240.4 330.7,240.5 331.2,240.5 331.7,240.6 332.3,240.7 332.8,240.7 333.3,240.8 333.9,240.9 334.4,240.9 334.9,241.0 335.5,241.1 336.0,241.1 336.5,241.2 337.1,241.3
337.6,241.3 338.1,241.4 338.7,241.5 339.2,241.5 339.7,241.6 340.3,241.6 340.8,241.7 341.3,241.7 341.8,241.8 342.4,241.8 342.9,241.9 343.4,241.9 344.0,242.0 344.5,242.0 345.0,242.1 345.6,242.1
346.1,242.1 346.6,242.1 347.2,242.2 347.7,242.2 348.2,242.2 348.8,242.2 349.3,242.3 349.8,242.3 350.4,242.3 350.9,242.3 351.4,242.3 351.9,242.3 352.5,242.3 353.0,242.3 353.5,242.3 354.1,242.4
354.6,242.4 355.1,242.4 355.7,242.4 356.2,242.4 356.2,242.4 355.7,242.4 355.1,242.4 354.6,242.4 354.1,242.4 353.5,242.4 353.0,242.4 352.5,242.4 351.9,242.4 351.4,242.4 350.9,242.4 350.4,242.4
349.8,242.4 349.3,242.4 348.8,242.4 348.2,242.4 347.7,242.4 347.2,242.4 346.6,242.4 346.1,242.4 345.6,242.4 345.0,242.4 344.5,242.4 344.0,242.4 343.4,242.4 342.9,242.4 342.4,242.4 341.8,242.4
341.3,242.4 340.8,242.4 340.3,242.4 339.7,242.4 339.2,242.4 338.7,242.4 338.1,242.4 337.6,242.4 337.1,242.4 336.5,242.4 336.0,242.4 335.5,242.4 334.9,242.4 334.4,242.4 333.9,242.4 333.3,242.4
332.8,242.4 332.3,242.4 331.7,242.4 331.2,242.4 330.7,242.4 330.1,242.4 329.6,242.4 329.1,242.4 328.6,242.4 328.0,242.4 327.5,242.4 327.0,242.4 326.4,242.4 325.9,242.4 325.4,242.4 324.8,242.4
324.3,242.4 323.8,242.4 323.2,242.4 322.7,242.4 322.2,242.4 321.6,242.4 321.1,242.4 320.6,242.4 320.0,242.4 319.5,242.4 319.0,242.4 318.5,242.4 317.9,242.4 317.4,242.4 316.9,242.4 316.3,242.4
315.8,242.4 315.3,242.4 314.7,242.4 314.2,242.4 313.7,242.4 313.1,242.4 312.6,242.4 312.1,242.4 311.5,242.4 311.0,242.4 310.5,242.4 309.9,242.4 309.4,242.4 308.9,242.4 308.3,242.4 307.8,242.4
307.3,242.4 306.8,242.4 306.2,242.4 305.7,242.4 305.2,242.4 304.6,242.4 304.1,242.4 303.6,242.4 303.0,242.4 302.5,242.4 302.0,242.4 301.4,242.4 300.9,242.4 300.4,242.4 299.8,242.4 299.3,242.4
298.8,242.4 298.2,242.4 297.7,242.4 297.2,242.4 296.7,242.4 296.1,242.4 295.6,242.4 295.1,242.4 294.5,242.4 294.0,242.4 293.5,242.4 292.9,242.4 292.4,242.4 291.9,242.4 291.3,242.4 290.8,242.4
290.3,242.4 289.7,242.4 289.2,242.4 288.7,242.4 288.1,242.4 287.6,242.4 287.1,242.4 286.5,242.4 286.0,242.4 285.5,242.4 285.0,242.4 284.4,242.4 283.9,242.4 283.4,242.4 282.8,242.4 282.3,242.4
281.8,242.4 281.2,242.4 280.7,242.4 280.2,242.4 279.6,242.4 279.1,242.4 278.6,242.4 278.0,242.4 277.5,242.4 277.0,242.4 276.4,242.4 275.9,242.4 275.4,242.4 274.9,242.4 274.3,242.4 273.8,242.4
273.3,242.4 272.7,242.4 272.2,242.4 271.7,242.4 271.1,242.4 270.6,242.4 270.1,242.4 269.5,242.4 269.0,242.4 268.5,242.4 267.9,242.4 267.4,242.4 266.9,242.4 266.3,242.4 265.8,242.4 265.3,242.4
264.7,242.4 264.2,242.4 263.7,242.4 263.2,242.4 262.6,242.4 262.1,242.4 261.6,242.4 261.0,242.4 260.5,242.4 260.0,242.4 259.4,242.4 258.9,242.4 258.4,242.4 257.8,242.4 257.3,242.4 256.8,242.4
256.2,242.4 255.7,242.4 255.2,242.4 254.6,242.4 254.1,242.4 253.6,242.4 253.1,242.4 252.5,242.4 252.0,242.4 251.5,242.4 250.9,242.4 250.4,242.4 249.9,242.4 249.3,242.4 248.8,242.4 248.3,242.4
247.7,242.4 247.2,242.4 246.7,242.4 246.1,242.4 245.6,242.4 245.1,242.4 244.5,242.4 244.0,242.4 243.5,242.4 242.9,242.4 242.4,242.4 241.9,242.4 241.4,242.4 240.8,242.4 240.3,242.4 239.8,242.4
239.2,242.4 238.7,242.4 238.2,242.4 237.6,242.4 237.1,242.4 236.6,242.4 236.0,242.4 235.5,242.4 235.0,242.4 234.4,242.4 233.9,242.4 233.4,242.4 232.8,242.4 232.3,242.4 231.8,242.4 231.2,242.4
230.7,242.4 230.2,242.4 229.7,242.4 229.1,242.4 228.6,242.4 228.1,242.4 227.5,242.4 227.0,242.4 226.5,242.4 225.9,242.4 225.4,242.4 224.9,242.4 224.3,242.4 223.8,242.4 223.3,242.4 222.7,242.4
222.2,242.4 221.7,242.4 221.1,242.4 220.6,242.4 220.1,242.4 219.6,242.4 219.0,242.4 218.5,242.4 218.0,242.4 217.4,242.4 216.9,242.4 216.4,242.4 215.8,242.4 215.3,242.4 214.8,242.4 214.2,242.4
213.7,242.4 213.2,242.4 212.6,242.4 212.1,242.4 211.6,242.4 211.0,242.4 210.5,242.4 210.0,242.4 209.4,242.4 208.9,242.4 208.4,242.4 207.9,242.4 207.3,242.4 206.8,242.4 206.3,242.4 205.7,242.4
205.2,242.4 204.7,242.4 204.1,242.4 203.6,242.4 203.1,242.4 202.5,242.4 202.0,242.4 201.5,242.4 200.9,242.4 200.4,242.4 199.9,242.4 199.3,242.4 198.8,242.4 198.3,242.4 197.8,242.4 197.2,242.4
196.7,242.4 196.2,242.4 195.6,242.4 195.1,242.4 194.6,242.4 194.0,242.4 193.5,242.4 193.0,242.4 192.4,242.4 191.9,242.4 191.4,242.4 190.8,242.4 190.3,242.4 189.8,242.4 189.2,242.4 188.7,242.4
188.2,242.4 187.6,242.4 187.1,242.4 186.6,242.4 186.1,242.4 185.5,242.4 185.0,242.4 184.5,242.4 183.9,242.4 183.4,242.4 182.9,242.4 182.3,242.4 181.8,242.4 181.3,242.4 180.7,242.4 180.2,242.4
179.7,242.4 179.1,242.4 178.6,242.4 178.1,242.4 177.5,242.4 177.0,242.4 176.5,242.4 176.0,242.4 175.4,242.4 174.9,242.4 174.4,242.4 173.8,242.4 173.3,242.4 172.8,242.4 172.2,242.4 171.7,242.4
171.2,242.4 170.6,242.4 170.1,242.4 169.6,242.4 169.0,242.4 168.5,242.4 168.0,242.4 167.4,242.4 166.9,242.4 166.4,242.4 165.8,242.4 165.3,242.4 164.8,242.4 164.3,242.4 163.7,242.4 163.2,242.4
162.7,242.4 162.1,242.4 161.6,242.4 161.1,242.4 160.5,242.4 160.0,242.4 159.5,242.4 158.9,242.4 158.4,242.4 157.9,242.4 157.3,242.4 156.8,242.4 156.3,242.4 155.7,242.4 155.2,242.4 154.7,242.4
154.2,242.4 153.6,242.4 153.1,242.4 152.6,242.4 152.0,242.4 151.5,242.4 151.0,242.4 150.4,242.4 149.9,242.4 149.4,242.4 148.8,242.4 148.3,242.4 147.8,242.4 147.2,242.4 146.7,242.4 146.2,242.4
145.6,242.4 145.1,242.4 144.6,242.4 144.0,242.4 143.5,242.4 143.0,242.4 142.5,242.4 141.9,242.4 141.4,242.4 140.9,242.4 140.3,242.4 139.8,242.4 139.3,242.4 138.7,242.4 138.2,242.4 137.7,242.4
137.1,242.4 136.6,242.4 136.1,242.4 135.5,242.4 135.0,242.4 134.5,242.4 133.9,242.4 133.4,242.4 132.9,242.4 132.4,242.4 131.8,242.4 131.3,242.4 130.8,242.4 130.2,242.4 129.7,242.4 129.2,242.4
128.6,242.4 128.1,242.4 127.6,242.4 127.0,242.4 126.5,242.4 126.0,242.4 125.4,242.4 124.9,242.4 124.4,242.4 123.8,242.4 123.3,242.4 122.8,242.4 122.2,242.4 121.7,242.4 121.2,242.4 120.7,242.4
120.1,242.4 119.6,242.4 119.1,242.4 118.5,242.4 118.0,242.4 117.5,242.4 116.9,242.4 116.4,242.4 115.9,242.4 115.3,242.4 114.8,242.4 114.3,242.4 113.7,242.4 113.2,242.4 112.7,242.4 112.1,242.4
111.6,242.4 111.1,242.4 110.5,242.4 110.0,242.4 109.5,242.4 109.0,242.4 108.4,242.4 107.9,242.4 107.4,242.4 106.8,242.4 106.3,242.4 105.8,242.4 105.2,242.4 104.7,242.4 104.2,242.4 103.6,242.4
103.1,242.4 102.6,242.4 102.0,242.4 101.5,242.4 101.0,242.4 100.4,242.4 99.9,242.4 99.4,242.4 98.9,242.4 98.3,242.4 97.8,242.4 97.3,242.4 96.7,242.4 96.2,242.4 95.7,242.4 95.1,242.4
94.6,242.4 94.1,242.4 93.5,242.4 93.0,242.4 92.5,242.4 91.9,242.4 91.4,242.4 90.9,242.4 '/>
	</g>
</g>
	</g>
	<g id="gnuplot_plot_4" ><title>New Mean</title>
<g fill="none" color="white" stroke="rgb( 31, 120, 180)" stroke-width="2.00" stroke-linecap="butt" stroke-linejoin="miter">
</g>
<g fill="none" color="black" stroke="currentColor" stroke-width="2.00" stroke-linecap="butt" stroke-linejoin="miter">
	<path stroke='rgb( 31, 120, 180)'  d='M128.9,242.4 L128.9,60.2  '/></g>
	</g>
<g fill="none" color="black" stroke="currentColor" stroke-width="2.00" stroke-linecap="butt" stroke-linejoin="miter">
</g>
<g fill="none" color="black" stroke="black" stroke-width="1.00" stroke-linecap="butt" stroke-linejoin="miter">
</g>
<g fill="none" color="black" stroke="currentColor" stroke-width="1.00" stroke-linecap="butt" stroke-linejoin="miter">
	<path stroke='black'  d='M71.9,18.1 L71.9,242.4 L425.0,242.4 L425.0,18.1 L71.9,18.1 Z  '/></g>
<g fill="none" color="black" stroke="currentColor" stroke-width="1.00" stroke-linecap="butt" stroke-linejoin="miter">
</g>
</g>
</svg>

