<?xml version="1.0" encoding="utf-8"  standalone="no"?>
<svg 
 viewBox="0 0 450 300"
 xmlns="http://www.w3.org/2000/svg"
 xmlns:xlink="http://www.w3.org/1999/xlink"
>

<title>Gnuplot</title>
<desc>Produced by GNUPLOT 5.2 patchlevel 6 </desc>

<g id="gnuplot_canvas">

<rect x="0" y="0" width="450" height="300" fill="none"/>
<defs>

	<circle id='gpDot' r='0.5' stroke-width='0.5' stroke='currentColor'/>
	<path id='gpPt0' stroke-width='0.222' stroke='currentColor' d='M-1,0 h2 M0,-1 v2'/>
	<path id='gpPt1' stroke-width='0.222' stroke='currentColor' d='M-1,-1 L1,1 M1,-1 L-1,1'/>
	<path id='gpPt2' stroke-width='0.222' stroke='currentColor' d='M-1,0 L1,0 M0,-1 L0,1 M-1,-1 L1,1 M-1,1 L1,-1'/>
	<rect id='gpPt3' stroke-width='0.222' stroke='currentColor' x='-1' y='-1' width='2' height='2'/>
	<rect id='gpPt4' stroke-width='0.222' stroke='currentColor' fill='currentColor' x='-1' y='-1' width='2' height='2'/>
	<circle id='gpPt5' stroke-width='0.222' stroke='currentColor' cx='0' cy='0' r='1'/>
	<use xlink:href='#gpPt5' id='gpPt6' fill='currentColor' stroke='none'/>
	<path id='gpPt7' stroke-width='0.222' stroke='currentColor' d='M0,-1.33 L-1.33,0.67 L1.33,0.67 z'/>
	<use xlink:href='#gpPt7' id='gpPt8' fill='currentColor' stroke='none'/>
	<use xlink:href='#gpPt7' id='gpPt9' stroke='currentColor' transform='rotate(180)'/>
	<use xlink:href='#gpPt9' id='gpPt10' fill='currentColor' stroke='none'/>
	<use xlink:href='#gpPt3' id='gpPt11' stroke='currentColor' transform='rotate(45)'/>
	<use xlink:href='#gpPt11' id='gpPt12' fill='currentColor' stroke='none'/>
	<path id='gpPt13' stroke-width='0.222' stroke='currentColor' d='M0,1.330 L1.265,0.411 L0.782,-1.067 L-0.782,-1.076 L-1.265,0.411 z'/>
	<use xlink:href='#gpPt13' id='gpPt14' fill='currentColor' stroke='none'/>
	<filter id='textbox' filterUnits='objectBoundingBox' x='0' y='0' height='1' width='1'>
	  <feFlood flood-color='white' flood-opacity='1' result='bgnd'/>
	  <feComposite in='SourceGraphic' in2='bgnd' operator='atop'/>
	</filter>
	<filter id='greybox' filterUnits='objectBoundingBox' x='0' y='0' height='1' width='1'>
	  <feFlood flood-color='lightgrey' flood-opacity='1' result='grey'/>
	  <feComposite in='SourceGraphic' in2='grey' operator='atop'/>
	</filter>
</defs>
<g fill="none" color="white" stroke="currentColor" stroke-width="1.00" stroke-linecap="butt" stroke-linejoin="miter">
</g>
<g fill="none" color="black" stroke="currentColor" stroke-width="1.00" stroke-linecap="butt" stroke-linejoin="miter">
	<path stroke='black'  d='M71.9,242.4 L80.9,242.4  '/>	<g transform="translate(63.6,246.3)" stroke="none" fill="black" font-family="Helvetica" font-size="12.00"  text-anchor="end">
		<text><tspan font-family="Helvetica" > 0</tspan></text>
	</g>
</g>
<g fill="none" color="black" stroke="currentColor" stroke-width="1.00" stroke-linecap="butt" stroke-linejoin="miter">
	<path stroke='black'  d='M71.9,218.0 L80.9,218.0  '/>	<g transform="translate(63.6,221.9)" stroke="none" fill="black" font-family="Helvetica" font-size="12.00"  text-anchor="end">
		<text><tspan font-family="Helvetica" > 0.2</tspan></text>
	</g>
</g>
<g fill="none" color="black" stroke="currentColor" stroke-width="1.00" stroke-linecap="butt" stroke-linejoin="miter">
	<path stroke='black'  d='M71.9,193.5 L80.9,193.5  '/>	<g transform="translate(63.6,197.4)" stroke="none" fill="black" font-family="Helvetica" font-size="12.00"  text-anchor="end">
		<text><tspan font-family="Helvetica" > 0.4</tspan></text>
	</g>
</g>
<g fill="none" color="black" stroke="currentColor" stroke-width="1.00" stroke-linecap="butt" stroke-linejoin="miter">
	<path stroke='black'  d='M71.9,169.1 L80.9,169.1  '/>	<g transform="translate(63.6,173.0)" stroke="none" fill="black" font-family="Helvetica" font-size="12.00"  text-anchor="end">
		<text><tspan font-family="Helvetica" > 0.6</tspan></text>
	</g>
</g>
<g fill="none" color="black" stroke="currentColor" stroke-width="1.00" stroke-linecap="butt" stroke-linejoin="miter">
	<path stroke='black'  d='M71.9,144.7 L80.9,144.7  '/>	<g transform="translate(63.6,148.6)" stroke="none" fill="black" font-family="Helvetica" font-size="12.00"  text-anchor="end">
		<text><tspan font-family="Helvetica" > 0.8</tspan></text>
	</g>
</g>
<g fill="none" color="black" stroke="currentColor" stroke-width="1.00" stroke-linecap="butt" stroke-linejoin="miter">
	<path stroke='black'  d='M71.9,120.2 L80.9,120.2  '/>	<g transform="translate(63.6,124.1)" stroke="none" fill="black" font-family="Helvetica" font-size="12.00"  text-anchor="end">
		<text><tspan font-family="Helvetica" > 1</tspan></text>
	</g>
</g>
<g fill="none" color="black" stroke="currentColor" stroke-width="1.00" stroke-linecap="butt" stroke-linejoin="miter">
	<path stroke='black'  d='M71.9,95.8 L80.9,95.8  '/>	<g transform="translate(63.6,99.7)" stroke="none" fill="black" font-family="Helvetica" font-size="12.00"  text-anchor="end">
		<text><tspan font-family="Helvetica" > 1.2</tspan></text>
	</g>
</g>
<g fill="none" color="black" stroke="currentColor" stroke-width="1.00" stroke-linecap="butt" stroke-linejoin="miter">
	<path stroke='black'  d='M71.9,71.4 L80.9,71.4  '/>	<g transform="translate(63.6,75.3)" stroke="none" fill="black" font-family="Helvetica" font-size="12.00"  text-anchor="end">
		<text><tspan font-family="Helvetica" > 1.4</tspan></text>
	</g>
</g>
<g fill="none" color="black" stroke="currentColor" stroke-width="1.00" stroke-linecap="butt" stroke-linejoin="miter">
	<path stroke='black'  d='M71.9,46.9 L80.9,46.9  '/>	<g transform="translate(63.6,50.8)" stroke="none" fill="black" font-family="Helvetica" font-size="12.00"  text-anchor="end">
		<text><tspan font-family="Helvetica" > 1.6</tspan></text>
	</g>
</g>
<g fill="none" color="black" stroke="currentColor" stroke-width="1.00" stroke-linecap="butt" stroke-linejoin="miter">
	<path stroke='black'  d='M71.9,22.5 L80.9,22.5  '/>	<g transform="translate(63.6,26.4)" stroke="none" fill="black" font-family="Helvetica" font-size="12.00"  text-anchor="end">
		<text><tspan font-family="Helvetica" > 1.8</tspan></text>
	</g>
</g>
<g fill="none" color="black" stroke="currentColor" stroke-width="1.00" stroke-linecap="butt" stroke-linejoin="miter">
	<path stroke='black'  d='M105.0,242.4 L105.0,233.4  '/>	<g transform="translate(105.0,264.3)" stroke="none" fill="black" font-family="Helvetica" font-size="12.00"  text-anchor="middle">
		<text><tspan font-family="Helvetica" > 26.5</tspan></text>
	</g>
</g>
<g fill="none" color="black" stroke="currentColor" stroke-width="1.00" stroke-linecap="butt" stroke-linejoin="miter">
	<path stroke='black'  d='M140.7,242.4 L140.7,233.4  '/>	<g transform="translate(140.7,264.3)" stroke="none" fill="black" font-family="Helvetica" font-size="12.00"  text-anchor="middle">
		<text><tspan font-family="Helvetica" > 27</tspan></text>
	</g>
</g>
<g fill="none" color="black" stroke="currentColor" stroke-width="1.00" stroke-linecap="butt" stroke-linejoin="miter">
	<path stroke='black'  d='M176.5,242.4 L176.5,233.4  '/>	<g transform="translate(176.5,264.3)" stroke="none" fill="black" font-family="Helvetica" font-size="12.00"  text-anchor="middle">
		<text><tspan font-family="Helvetica" > 27.5</tspan></text>
	</g>
</g>
<g fill="none" color="black" stroke="currentColor" stroke-width="1.00" stroke-linecap="butt" stroke-linejoin="miter">
	<path stroke='black'  d='M212.3,242.4 L212.3,233.4  '/>	<g transform="translate(212.3,264.3)" stroke="none" fill="black" font-family="Helvetica" font-size="12.00"  text-anchor="middle">
		<text><tspan font-family="Helvetica" > 28</tspan></text>
	</g>
</g>
<g fill="none" color="black" stroke="currentColor" stroke-width="1.00" stroke-linecap="butt" stroke-linejoin="miter">
	<path stroke='black'  d='M248.0,242.4 L248.0,233.4  '/>	<g transform="translate(248.0,264.3)" stroke="none" fill="black" font-family="Helvetica" font-size="12.00"  text-anchor="middle">
		<text><tspan font-family="Helvetica" > 28.5</tspan></text>
	</g>
</g>
<g fill="none" color="black" stroke="currentColor" stroke-width="1.00" stroke-linecap="butt" stroke-linejoin="miter">
	<path stroke='black'  d='M283.8,242.4 L283.8,233.4  '/>	<g transform="translate(283.8,264.3)" stroke="none" fill="black" font-family="Helvetica" font-size="12.00"  text-anchor="middle">
		<text><tspan font-family="Helvetica" > 29</tspan></text>
	</g>
</g>
<g fill="none" color="black" stroke="currentColor" stroke-width="1.00" stroke-linecap="butt" stroke-linejoin="miter">
	<path stroke='black'  d='M319.5,242.4 L319.5,233.4  '/>	<g transform="translate(319.5,264.3)" stroke="none" fill="black" font-family="Helvetica" font-size="12.00"  text-anchor="middle">
		<text><tspan font-family="Helvetica" > 29.5</tspan></text>
	</g>
</g>
<g fill="none" color="black" stroke="currentColor" stroke-width="1.00" stroke-linecap="butt" stroke-linejoin="miter">
	<path stroke='black'  d='M355.3,242.4 L355.3,233.4  '/>	<g transform="translate(355.3,264.3)" stroke="none" fill="black" font-family="Helvetica" font-size="12.00"  text-anchor="middle">
		<text><tspan font-family="Helvetica" > 30</tspan></text>
	</g>
</g>
<g fill="none" color="black" stroke="currentColor" stroke-width="1.00" stroke-linecap="butt" stroke-linejoin="miter">
	<path stroke='black'  d='M391.1,242.4 L391.1,233.4  '/>	<g transform="translate(391.1,264.3)" stroke="none" fill="black" font-family="Helvetica" font-size="12.00"  text-anchor="middle">
		<text><tspan font-family="Helvetica" > 30.5</tspan></text>
	</g>
</g>
<g fill="none" color="black" stroke="currentColor" stroke-width="1.00" stroke-linecap="butt" stroke-linejoin="miter">
</g>
<g fill="none" color="black" stroke="currentColor" stroke-width="1.00" stroke-linecap="butt" stroke-linejoin="miter">
	<path stroke='black'  d='M71.9,18.1 L71.9,242.4 L425.0,242.4 L425.0,18.1 L71.9,18.1 Z  '/></g>
<g fill="none" color="black" stroke="currentColor" stroke-width="1.00" stroke-linecap="butt" stroke-linejoin="miter">
	<g transform="translate(16.3,130.3) rotate(270)" stroke="none" fill="black" font-family="Helvetica" font-size="12.00"  text-anchor="middle">
		<text><tspan font-family="Helvetica" >Density (a.u.)</tspan></text>
	</g>
</g>
<g fill="none" color="black" stroke="currentColor" stroke-width="1.00" stroke-linecap="butt" stroke-linejoin="miter">
	<g transform="translate(248.4,291.3)" stroke="none" fill="black" font-family="Helvetica" font-size="12.00"  text-anchor="middle">
		<text><tspan font-family="Helvetica" >Average time (us)</tspan></text>
	</g>
</g>
<g fill="none" color="black" stroke="currentColor" stroke-width="1.00" stroke-linecap="butt" stroke-linejoin="miter">
</g>
	<g id="gnuplot_plot_1" ><title>PDF</title>
<g fill="none" color="black" stroke="currentColor" stroke-width="1.00" stroke-linecap="butt" stroke-linejoin="miter">
	<g stroke='none' shape-rendering='crispEdges'>
		<polygon fill = 'rgb( 31, 120, 180)' fill-opacity = '0.250000' points = '71.9,241.4 72.6,241.3 73.3,241.1 74.0,240.9 74.7,240.7 75.4,240.4 76.1,240.1 76.9,239.8 77.6,239.4 78.3,239.0 79.0,238.5 79.7,238.0 80.4,237.4 81.1,236.7 81.8,236.0 82.5,235.2
83.2,234.2 83.9,233.2 84.6,232.1 85.3,230.9 86.1,229.6 86.8,228.1 87.5,226.5 88.2,224.8 88.9,222.9 89.6,220.9 90.3,218.7 91.0,216.3 91.7,213.8 92.4,211.0 93.1,208.1 93.8,205.0
94.5,201.7 95.3,198.2 96.0,194.4 96.7,190.5 97.4,186.4 98.1,182.1 98.8,177.5 99.5,172.8 100.2,167.9 100.9,162.8 101.6,157.5 102.3,152.1 103.0,146.5 103.7,140.8 104.5,134.9 105.2,129.0
105.9,123.0 106.6,116.9 107.3,110.8 108.0,104.6 108.7,98.5 109.4,92.4 110.1,86.4 110.8,80.4 111.5,74.6 112.2,68.9 112.9,63.4 113.6,58.1 114.4,53.0 115.1,48.2 115.8,43.7 116.5,39.4
117.2,35.5 117.9,32.0 118.6,28.8 119.3,26.0 120.0,23.6 120.7,21.6 121.4,20.1 122.1,19.0 122.8,18.3 123.6,18.1 124.3,18.3 125.0,19.0 125.7,20.1 126.4,21.6 127.1,23.6 127.8,25.9
128.5,28.7 129.2,31.8 129.9,35.3 130.6,39.1 131.3,43.2 132.0,47.6 132.8,52.3 133.5,57.2 134.2,62.3 134.9,67.6 135.6,73.1 136.3,78.7 137.0,84.3 137.7,90.1 138.4,95.9 139.1,101.8
139.8,107.6 140.5,113.4 141.2,119.2 142.0,124.9 142.7,130.5 143.4,136.0 144.1,141.4 144.8,146.7 145.5,151.8 146.2,156.8 146.9,161.6 147.6,166.3 148.3,170.7 149.0,175.0 149.7,179.1 150.4,183.0
151.2,186.8 151.9,190.3 152.6,193.7 153.3,196.9 154.0,199.9 154.7,202.7 155.4,205.4 156.1,207.9 156.8,210.2 157.5,212.4 158.2,214.4 158.9,216.3 159.6,218.1 160.4,219.7 161.1,221.2 161.8,222.6
162.5,223.9 163.2,225.1 163.9,226.2 164.6,227.3 165.3,228.2 166.0,229.1 166.7,229.9 167.4,230.6 168.1,231.3 168.8,231.9 169.6,232.4 170.3,233.0 171.0,233.4 171.7,233.9 172.4,234.3 173.1,234.7
173.8,235.0 174.5,235.3 175.2,235.6 175.9,235.9 176.6,236.1 177.3,236.4 178.0,236.6 178.7,236.8 179.5,236.9 180.2,237.1 180.9,237.3 181.6,237.4 182.3,237.5 183.0,237.7 183.7,237.8 184.4,237.9
185.1,238.0 185.8,238.1 186.5,238.2 187.2,238.3 187.9,238.4 188.7,238.5 189.4,238.6 190.1,238.6 190.8,238.7 191.5,238.8 192.2,238.9 192.9,238.9 193.6,239.0 194.3,239.0 195.0,239.1 195.7,239.2
196.4,239.2 197.1,239.3 197.9,239.3 198.6,239.3 199.3,239.4 200.0,239.4 200.7,239.4 201.4,239.5 202.1,239.5 202.8,239.5 203.5,239.5 204.2,239.5 204.9,239.5 205.6,239.5 206.3,239.5 207.1,239.5
207.8,239.5 208.5,239.4 209.2,239.4 209.9,239.4 210.6,239.3 211.3,239.3 212.0,239.2 212.7,239.2 213.4,239.1 214.1,239.1 214.8,239.0 215.5,238.9 216.3,238.9 217.0,238.8 217.7,238.7 218.4,238.6
219.1,238.6 219.8,238.5 220.5,238.4 221.2,238.3 221.9,238.3 222.6,238.2 223.3,238.2 224.0,238.1 224.7,238.0 225.5,238.0 226.2,237.9 226.9,237.9 227.6,237.9 228.3,237.8 229.0,237.8 229.7,237.8
230.4,237.8 231.1,237.8 231.8,237.8 232.5,237.8 233.2,237.8 233.9,237.8 234.7,237.9 235.4,237.9 236.1,238.0 236.8,238.0 237.5,238.1 238.2,238.1 238.9,238.2 239.6,238.3 240.3,238.4 241.0,238.5
241.7,238.6 242.4,238.7 243.1,238.8 243.9,238.9 244.6,239.0 245.3,239.1 246.0,239.2 246.7,239.3 247.4,239.4 248.1,239.5 248.8,239.7 249.5,239.8 250.2,239.9 250.9,240.0 251.6,240.1 252.3,240.2
253.0,240.3 253.8,240.5 254.5,240.6 255.2,240.7 255.9,240.8 256.6,240.9 257.3,241.0 258.0,241.1 258.7,241.1 259.4,241.2 260.1,241.3 260.8,241.4 261.5,241.5 262.2,241.5 263.0,241.6 263.7,241.7
264.4,241.7 265.1,241.8 265.8,241.8 266.5,241.9 267.2,241.9 267.9,242.0 268.6,242.0 269.3,242.0 270.0,242.1 270.7,242.1 271.4,242.1 272.2,242.1 272.9,242.2 273.6,242.2 274.3,242.2 275.0,242.2
275.7,242.2 276.4,242.2 277.1,242.2 277.8,242.2 278.5,242.3 279.2,242.3 279.9,242.3 280.6,242.3 281.4,242.2 282.1,242.2 282.8,242.2 283.5,242.2 284.2,242.2 284.9,242.2 285.6,242.2 286.3,242.2
287.0,242.1 287.7,242.1 288.4,242.1 289.1,242.1 289.8,242.0 290.6,242.0 291.3,242.0 292.0,241.9 292.7,241.9 293.4,241.9 294.1,241.8 294.8,241.8 295.5,241.7 296.2,241.7 296.9,241.6 297.6,241.6
298.3,241.5 299.0,241.4 299.8,241.4 300.5,241.3 301.2,241.2 301.9,241.2 302.6,241.1 303.3,241.0 304.0,241.0 304.7,240.9 305.4,240.8 306.1,240.8 306.8,240.7 307.5,240.6 308.2,240.5 309.0,240.5
309.7,240.4 310.4,240.4 311.1,240.3 311.8,240.2 312.5,240.2 313.2,240.1 313.9,240.1 314.6,240.0 315.3,240.0 316.0,240.0 316.7,239.9 317.4,239.9 318.2,239.9 318.9,239.9 319.6,239.9 320.3,239.9
321.0,239.9 321.7,239.9 322.4,239.9 323.1,239.9 323.8,240.0 324.5,240.0 325.2,240.0 325.9,240.1 326.6,240.1 327.3,240.1 328.1,240.2 328.8,240.2 329.5,240.3 330.2,240.4 330.9,240.4 331.6,240.5
332.3,240.6 333.0,240.6 333.7,240.7 334.4,240.7 335.1,240.8 335.8,240.9 336.5,240.9 337.3,241.0 338.0,241.1 338.7,241.1 339.4,241.2 340.1,241.2 340.8,241.3 341.5,241.3 342.2,241.4 342.9,241.4
343.6,241.5 344.3,241.5 345.0,241.5 345.7,241.6 346.5,241.6 347.2,241.6 347.9,241.6 348.6,241.6 349.3,241.6 350.0,241.6 350.7,241.6 351.4,241.6 352.1,241.6 352.8,241.6 353.5,241.6 354.2,241.5
354.9,241.5 355.7,241.5 356.4,241.4 357.1,241.4 357.8,241.3 358.5,241.3 359.2,241.2 359.9,241.2 360.6,241.1 361.3,241.1 362.0,241.0 362.7,240.9 363.4,240.9 364.1,240.8 364.9,240.8 365.6,240.7
366.3,240.6 367.0,240.6 367.7,240.5 368.4,240.4 369.1,240.4 369.8,240.3 370.5,240.3 371.2,240.2 371.9,240.1 372.6,240.1 373.3,240.1 374.1,240.0 374.8,240.0 375.5,240.0 376.2,239.9 376.9,239.9
377.6,239.9 378.3,239.9 379.0,239.9 379.7,239.9 380.4,239.9 381.1,239.9 381.8,239.9 382.5,239.9 383.3,240.0 384.0,240.0 384.7,240.0 385.4,240.1 386.1,240.1 386.8,240.2 387.5,240.2 388.2,240.3
388.9,240.3 389.6,240.4 390.3,240.5 391.0,240.5 391.7,240.6 392.4,240.7 393.2,240.7 393.9,240.8 394.6,240.9 395.3,241.0 396.0,241.0 396.7,241.1 397.4,241.2 398.1,241.2 398.8,241.3 399.5,241.4
400.2,241.4 400.9,241.5 401.6,241.5 402.4,241.6 403.1,241.7 403.8,241.7 404.5,241.8 405.2,241.8 405.9,241.9 406.6,241.9 407.3,241.9 408.0,242.0 408.7,242.0 409.4,242.0 410.1,242.1 410.8,242.1
411.6,242.1 412.3,242.2 413.0,242.2 413.7,242.2 414.4,242.2 415.1,242.2 415.8,242.3 416.5,242.3 417.2,242.3 417.9,242.3 418.6,242.3 419.3,242.3 420.0,242.3 420.8,242.3 421.5,242.3 422.2,242.4
422.9,242.4 423.6,242.4 424.3,242.4 425.0,242.4 425.0,242.4 424.3,242.4 423.6,242.4 422.9,242.4 422.2,242.4 421.5,242.4 420.8,242.4 420.0,242.4 419.3,242.4 418.6,242.4 417.9,242.4 417.2,242.4
416.5,242.4 415.8,242.4 415.1,242.4 414.4,242.4 413.7,242.4 413.0,242.4 412.3,242.4 411.6,242.4 410.8,242.4 410.1,242.4 409.4,242.4 408.7,242.4 408.0,242.4 407.3,242.4 406.6,242.4 405.9,242.4
405.2,242.4 404.5,242.4 403.8,242.4 403.1,242.4 402.4,242.4 401.6,242.4 400.9,242.4 400.2,242.4 399.5,242.4 398.8,242.4 398.1,242.4 397.4,242.4 396.7,242.4 396.0,242.4 395.3,242.4 394.6,242.4
393.9,242.4 393.2,242.4 392.4,242.4 391.7,242.4 391.0,242.4 390.3,242.4 389.6,242.4 388.9,242.4 388.2,242.4 387.5,242.4 386.8,242.4 386.1,242.4 385.4,242.4 384.7,242.4 384.0,242.4 383.3,242.4
382.5,242.4 381.8,242.4 381.1,242.4 380.4,242.4 379.7,242.4 379.0,242.4 378.3,242.4 377.6,242.4 376.9,242.4 376.2,242.4 375.5,242.4 374.8,242.4 374.1,242.4 373.3,242.4 372.6,242.4 371.9,242.4
371.2,242.4 370.5,242.4 369.8,242.4 369.1,242.4 368.4,242.4 367.7,242.4 367.0,242.4 366.3,242.4 365.6,242.4 364.9,242.4 364.1,242.4 363.4,242.4 362.7,242.4 362.0,242.4 361.3,242.4 360.6,242.4
359.9,242.4 359.2,242.4 358.5,242.4 357.8,242.4 357.1,242.4 356.4,242.4 355.7,242.4 354.9,242.4 354.2,242.4 353.5,242.4 352.8,242.4 352.1,242.4 351.4,242.4 350.7,242.4 350.0,242.4 349.3,242.4
348.6,242.4 347.9,242.4 347.2,242.4 346.5,242.4 345.7,242.4 345.0,242.4 344.3,242.4 343.6,242.4 342.9,242.4 342.2,242.4 341.5,242.4 340.8,242.4 340.1,242.4 339.4,242.4 338.7,242.4 338.0,242.4
337.3,242.4 336.5,242.4 335.8,242.4 335.1,242.4 334.4,242.4 333.7,242.4 333.0,242.4 332.3,242.4 331.6,242.4 330.9,242.4 330.2,242.4 329.5,242.4 328.8,242.4 328.1,242.4 327.3,242.4 326.6,242.4
325.9,242.4 325.2,242.4 324.5,242.4 323.8,242.4 323.1,242.4 322.4,242.4 321.7,242.4 321.0,242.4 320.3,242.4 319.6,242.4 318.9,242.4 318.2,242.4 317.4,242.4 316.7,242.4 316.0,242.4 315.3,242.4
314.6,242.4 313.9,242.4 313.2,242.4 312.5,242.4 311.8,242.4 311.1,242.4 310.4,242.4 309.7,242.4 309.0,242.4 308.2,242.4 307.5,242.4 306.8,242.4 306.1,242.4 305.4,242.4 304.7,242.4 304.0,242.4
303.3,242.4 302.6,242.4 301.9,242.4 301.2,242.4 300.5,242.4 299.8,242.4 299.0,242.4 298.3,242.4 297.6,242.4 296.9,242.4 296.2,242.4 295.5,242.4 294.8,242.4 294.1,242.4 293.4,242.4 292.7,242.4
292.0,242.4 291.3,242.4 290.6,242.4 289.8,242.4 289.1,242.4 288.4,242.4 287.7,242.4 287.0,242.4 286.3,242.4 285.6,242.4 284.9,242.4 284.2,242.4 283.5,242.4 282.8,242.4 282.1,242.4 281.4,242.4
280.6,242.4 279.9,242.4 279.2,242.4 278.5,242.4 277.8,242.4 277.1,242.4 276.4,242.4 275.7,242.4 275.0,242.4 274.3,242.4 273.6,242.4 272.9,242.4 272.2,242.4 271.4,242.4 270.7,242.4 270.0,242.4
269.3,242.4 268.6,242.4 267.9,242.4 267.2,242.4 266.5,242.4 265.8,242.4 265.1,242.4 264.4,242.4 263.7,242.4 263.0,242.4 262.2,242.4 261.5,242.4 260.8,242.4 260.1,242.4 259.4,242.4 258.7,242.4
258.0,242.4 257.3,242.4 256.6,242.4 255.9,242.4 255.2,242.4 254.5,242.4 253.8,242.4 253.0,242.4 252.3,242.4 251.6,242.4 250.9,242.4 250.2,242.4 249.5,242.4 248.8,242.4 248.1,242.4 247.4,242.4
246.7,242.4 246.0,242.4 245.3,242.4 244.6,242.4 243.9,242.4 243.1,242.4 242.4,242.4 241.7,242.4 241.0,242.4 240.3,242.4 239.6,242.4 238.9,242.4 238.2,242.4 237.5,242.4 236.8,242.4 236.1,242.4
235.4,242.4 234.7,242.4 233.9,242.4 233.2,242.4 232.5,242.4 231.8,242.4 231.1,242.4 230.4,242.4 229.7,242.4 229.0,242.4 228.3,242.4 227.6,242.4 226.9,242.4 226.2,242.4 225.5,242.4 224.7,242.4
224.0,242.4 223.3,242.4 222.6,242.4 221.9,242.4 221.2,242.4 220.5,242.4 219.8,242.4 219.1,242.4 218.4,242.4 217.7,242.4 217.0,242.4 216.3,242.4 215.5,242.4 214.8,242.4 214.1,242.4 213.4,242.4
212.7,242.4 212.0,242.4 211.3,242.4 210.6,242.4 209.9,242.4 209.2,242.4 208.5,242.4 207.8,242.4 207.1,242.4 206.3,242.4 205.6,242.4 204.9,242.4 204.2,242.4 203.5,242.4 202.8,242.4 202.1,242.4
201.4,242.4 200.7,242.4 200.0,242.4 199.3,242.4 198.6,242.4 197.9,242.4 197.1,242.4 196.4,242.4 195.7,242.4 195.0,242.4 194.3,242.4 193.6,242.4 192.9,242.4 192.2,242.4 191.5,242.4 190.8,242.4
190.1,242.4 189.4,242.4 188.7,242.4 187.9,242.4 187.2,242.4 186.5,242.4 185.8,242.4 185.1,242.4 184.4,242.4 183.7,242.4 183.0,242.4 182.3,242.4 181.6,242.4 180.9,242.4 180.2,242.4 179.5,242.4
178.7,242.4 178.0,242.4 177.3,242.4 176.6,242.4 175.9,242.4 175.2,242.4 174.5,242.4 173.8,242.4 173.1,242.4 172.4,242.4 171.7,242.4 171.0,242.4 170.3,242.4 169.6,242.4 168.8,242.4 168.1,242.4
167.4,242.4 166.7,242.4 166.0,242.4 165.3,242.4 164.6,242.4 163.9,242.4 163.2,242.4 162.5,242.4 161.8,242.4 161.1,242.4 160.4,242.4 159.6,242.4 158.9,242.4 158.2,242.4 157.5,242.4 156.8,242.4
156.1,242.4 155.4,242.4 154.7,242.4 154.0,242.4 153.3,242.4 152.6,242.4 151.9,242.4 151.2,242.4 150.4,242.4 149.7,242.4 149.0,242.4 148.3,242.4 147.6,242.4 146.9,242.4 146.2,242.4 145.5,242.4
144.8,242.4 144.1,242.4 143.4,242.4 142.7,242.4 142.0,242.4 141.2,242.4 140.5,242.4 139.8,242.4 139.1,242.4 138.4,242.4 137.7,242.4 137.0,242.4 136.3,242.4 135.6,242.4 134.9,242.4 134.2,242.4
133.5,242.4 132.8,242.4 132.0,242.4 131.3,242.4 130.6,242.4 129.9,242.4 129.2,242.4 128.5,242.4 127.8,242.4 127.1,242.4 126.4,242.4 125.7,242.4 125.0,242.4 124.3,242.4 123.6,242.4 122.8,242.4
122.1,242.4 121.4,242.4 120.7,242.4 120.0,242.4 119.3,242.4 118.6,242.4 117.9,242.4 117.2,242.4 116.5,242.4 115.8,242.4 115.1,242.4 114.4,242.4 113.6,242.4 112.9,242.4 112.2,242.4 111.5,242.4
110.8,242.4 110.1,242.4 109.4,242.4 108.7,242.4 108.0,242.4 107.3,242.4 106.6,242.4 105.9,242.4 105.2,242.4 104.5,242.4 103.7,242.4 103.0,242.4 102.3,242.4 101.6,242.4 100.9,242.4 100.2,242.4
99.5,242.4 98.8,242.4 98.1,242.4 97.4,242.4 96.7,242.4 96.0,242.4 95.3,242.4 94.5,242.4 93.8,242.4 93.1,242.4 92.4,242.4 91.7,242.4 91.0,242.4 90.3,242.4 89.6,242.4 88.9,242.4
88.2,242.4 87.5,242.4 86.8,242.4 86.1,242.4 85.3,242.4 84.6,242.4 83.9,242.4 83.2,242.4 82.5,242.4 81.8,242.4 81.1,242.4 80.4,242.4 79.7,242.4 79.0,242.4 78.3,242.4 77.6,242.4
76.9,242.4 76.1,242.4 75.4,242.4 74.7,242.4 74.0,242.4 73.3,242.4 72.6,242.4 71.9,242.4 '/>
	</g>
</g>
	</g>
	<g id="gnuplot_plot_2" ><title>Mean</title>
<g fill="none" color="white" stroke="rgb( 31, 120, 180)" stroke-width="2.00" stroke-linecap="butt" stroke-linejoin="miter">
</g>
<g fill="none" color="black" stroke="currentColor" stroke-width="2.00" stroke-linecap="butt" stroke-linejoin="miter">
	<path stroke='rgb( 31, 120, 180)'  d='M132.0,242.4 L132.0,65.1  '/></g>
	</g>
<g fill="none" color="black" stroke="currentColor" stroke-width="2.00" stroke-linecap="butt" stroke-linejoin="miter">
</g>
<g fill="none" color="black" stroke="black" stroke-width="1.00" stroke-linecap="butt" stroke-linejoin="miter">
</g>
<g fill="none" color="black" stroke="currentColor" stroke-width="1.00" stroke-linecap="butt" stroke-linejoin="miter">
	<path stroke='black'  d='M71.9,18.1 L71.9,242.4 L425.0,242.4 L425.0,18.1 L71.9,18.1 Z  '/></g>
<g fill="none" color="black" stroke="currentColor" stroke-width="1.00" stroke-linecap="butt" stroke-linejoin="miter">
</g>
</g>
</svg>

