group,function,value,throughput_num,throughput_type,sample_measured_value,unit,iteration_count
snapshot_restore_with_dense,Dense: Entire region + process_vm_writev w/ page size,463,,,1255312.0,ns,5
snapshot_restore_with_dense,Dense: Entire region + process_vm_writev w/ page size,463,,,2395059.0,ns,10
snapshot_restore_with_dense,Dense: Entire region + process_vm_writev w/ page size,463,,,3620539.0,ns,15
snapshot_restore_with_dense,Dense: Entire region + process_vm_writev w/ page size,463,,,5482952.0,ns,20
snapshot_restore_with_dense,Dense: Entire region + process_vm_writev w/ page size,463,,,6032960.0,ns,25
snapshot_restore_with_dense,Dense: Entire region + process_vm_writev w/ page size,463,,,7254987.0,ns,30
snapshot_restore_with_dense,Dense: Entire region + process_vm_writev w/ page size,463,,,9435065.0,ns,35
snapshot_restore_with_dense,Dense: Entire region + process_vm_writev w/ page size,463,,,10149649.0,ns,40
snapshot_restore_with_dense,Dense: Entire region + process_vm_writev w/ page size,463,,,11048169.0,ns,45
snapshot_restore_with_dense,Dense: Entire region + process_vm_writev w/ page size,463,,,12086025.0,ns,50
snapshot_restore_with_dense,Dense: Entire region + process_vm_writev w/ page size,463,,,13262715.0,ns,55
snapshot_restore_with_dense,Dense: Entire region + process_vm_writev w/ page size,463,,,14467692.0,ns,60
snapshot_restore_with_dense,Dense: Entire region + process_vm_writev w/ page size,463,,,15819970.0,ns,65
snapshot_restore_with_dense,Dense: Entire region + process_vm_writev w/ page size,463,,,16923603.0,ns,70
snapshot_restore_with_dense,Dense: Entire region + process_vm_writev w/ page size,463,,,18058336.0,ns,75
snapshot_restore_with_dense,Dense: Entire region + process_vm_writev w/ page size,463,,,19305215.0,ns,80
snapshot_restore_with_dense,Dense: Entire region + process_vm_writev w/ page size,463,,,20439633.0,ns,85
snapshot_restore_with_dense,Dense: Entire region + process_vm_writev w/ page size,463,,,21602311.0,ns,90
snapshot_restore_with_dense,Dense: Entire region + process_vm_writev w/ page size,463,,,22842431.0,ns,95
snapshot_restore_with_dense,Dense: Entire region + process_vm_writev w/ page size,463,,,24045442.0,ns,100
snapshot_restore_with_dense,Dense: Entire region + process_vm_writev w/ page size,463,,,25230273.0,ns,105
snapshot_restore_with_dense,Dense: Entire region + process_vm_writev w/ page size,463,,,26450596.0,ns,110
snapshot_restore_with_dense,Dense: Entire region + process_vm_writev w/ page size,463,,,27607727.0,ns,115
snapshot_restore_with_dense,Dense: Entire region + process_vm_writev w/ page size,463,,,28943409.0,ns,120
snapshot_restore_with_dense,Dense: Entire region + process_vm_writev w/ page size,463,,,30002149.0,ns,125
snapshot_restore_with_dense,Dense: Entire region + process_vm_writev w/ page size,463,,,31217709.0,ns,130
snapshot_restore_with_dense,Dense: Entire region + process_vm_writev w/ page size,463,,,32456483.0,ns,135
snapshot_restore_with_dense,Dense: Entire region + process_vm_writev w/ page size,463,,,33638994.0,ns,140
snapshot_restore_with_dense,Dense: Entire region + process_vm_writev w/ page size,463,,,34845374.0,ns,145
snapshot_restore_with_dense,Dense: Entire region + process_vm_writev w/ page size,463,,,36094109.0,ns,150
snapshot_restore_with_dense,Dense: Entire region + process_vm_writev w/ page size,463,,,37235600.0,ns,155
snapshot_restore_with_dense,Dense: Entire region + process_vm_writev w/ page size,463,,,38401618.0,ns,160
snapshot_restore_with_dense,Dense: Entire region + process_vm_writev w/ page size,463,,,39721120.0,ns,165
snapshot_restore_with_dense,Dense: Entire region + process_vm_writev w/ page size,463,,,40799992.0,ns,170
snapshot_restore_with_dense,Dense: Entire region + process_vm_writev w/ page size,463,,,42047701.0,ns,175
snapshot_restore_with_dense,Dense: Entire region + process_vm_writev w/ page size,463,,,43264457.0,ns,180
snapshot_restore_with_dense,Dense: Entire region + process_vm_writev w/ page size,463,,,44579203.0,ns,185
snapshot_restore_with_dense,Dense: Entire region + process_vm_writev w/ page size,463,,,45867849.0,ns,190
snapshot_restore_with_dense,Dense: Entire region + process_vm_writev w/ page size,463,,,46846834.0,ns,195
snapshot_restore_with_dense,Dense: Entire region + process_vm_writev w/ page size,463,,,48111392.0,ns,200
snapshot_restore_with_dense,Dense: Entire region + process_vm_writev w/ page size,463,,,49243681.0,ns,205
snapshot_restore_with_dense,Dense: Entire region + process_vm_writev w/ page size,463,,,50512799.0,ns,210
snapshot_restore_with_dense,Dense: Entire region + process_vm_writev w/ page size,463,,,51646937.0,ns,215
snapshot_restore_with_dense,Dense: Entire region + process_vm_writev w/ page size,463,,,52917102.0,ns,220
snapshot_restore_with_dense,Dense: Entire region + process_vm_writev w/ page size,463,,,54084514.0,ns,225
snapshot_restore_with_dense,Dense: Entire region + process_vm_writev w/ page size,463,,,55308959.0,ns,230
snapshot_restore_with_dense,Dense: Entire region + process_vm_writev w/ page size,463,,,56413306.0,ns,235
snapshot_restore_with_dense,Dense: Entire region + process_vm_writev w/ page size,463,,,57737144.0,ns,240
snapshot_restore_with_dense,Dense: Entire region + process_vm_writev w/ page size,463,,,58804841.0,ns,245
snapshot_restore_with_dense,Dense: Entire region + process_vm_writev w/ page size,463,,,60119247.0,ns,250
snapshot_restore_with_dense,Dense: Entire region + process_vm_writev w/ page size,463,,,61401208.0,ns,255
snapshot_restore_with_dense,Dense: Entire region + process_vm_writev w/ page size,463,,,62473116.0,ns,260
snapshot_restore_with_dense,Dense: Entire region + process_vm_writev w/ page size,463,,,63756230.0,ns,265
snapshot_restore_with_dense,Dense: Entire region + process_vm_writev w/ page size,463,,,64890241.0,ns,270
snapshot_restore_with_dense,Dense: Entire region + process_vm_writev w/ page size,463,,,66071918.0,ns,275
snapshot_restore_with_dense,Dense: Entire region + process_vm_writev w/ page size,463,,,67405881.0,ns,280
snapshot_restore_with_dense,Dense: Entire region + process_vm_writev w/ page size,463,,,68438460.0,ns,285
snapshot_restore_with_dense,Dense: Entire region + process_vm_writev w/ page size,463,,,69745364.0,ns,290
snapshot_restore_with_dense,Dense: Entire region + process_vm_writev w/ page size,463,,,71012680.0,ns,295
snapshot_restore_with_dense,Dense: Entire region + process_vm_writev w/ page size,463,,,72082690.0,ns,300
snapshot_restore_with_dense,Dense: Entire region + process_vm_writev w/ page size,463,,,73347713.0,ns,305
snapshot_restore_with_dense,Dense: Entire region + process_vm_writev w/ page size,463,,,74526920.0,ns,310
snapshot_restore_with_dense,Dense: Entire region + process_vm_writev w/ page size,463,,,75719872.0,ns,315
snapshot_restore_with_dense,Dense: Entire region + process_vm_writev w/ page size,463,,,76805110.0,ns,320
snapshot_restore_with_dense,Dense: Entire region + process_vm_writev w/ page size,463,,,78195813.0,ns,325
snapshot_restore_with_dense,Dense: Entire region + process_vm_writev w/ page size,463,,,79367366.0,ns,330
snapshot_restore_with_dense,Dense: Entire region + process_vm_writev w/ page size,463,,,80515716.0,ns,335
snapshot_restore_with_dense,Dense: Entire region + process_vm_writev w/ page size,463,,,81753152.0,ns,340
snapshot_restore_with_dense,Dense: Entire region + process_vm_writev w/ page size,463,,,82882398.0,ns,345
snapshot_restore_with_dense,Dense: Entire region + process_vm_writev w/ page size,463,,,84051443.0,ns,350
snapshot_restore_with_dense,Dense: Entire region + process_vm_writev w/ page size,463,,,85266693.0,ns,355
snapshot_restore_with_dense,Dense: Entire region + process_vm_writev w/ page size,463,,,86572117.0,ns,360
snapshot_restore_with_dense,Dense: Entire region + process_vm_writev w/ page size,463,,,88048299.0,ns,365
snapshot_restore_with_dense,Dense: Entire region + process_vm_writev w/ page size,463,,,89585590.0,ns,370
snapshot_restore_with_dense,Dense: Entire region + process_vm_writev w/ page size,463,,,90183739.0,ns,375
snapshot_restore_with_dense,Dense: Entire region + process_vm_writev w/ page size,463,,,91219523.0,ns,380
snapshot_restore_with_dense,Dense: Entire region + process_vm_writev w/ page size,463,,,92500832.0,ns,385
snapshot_restore_with_dense,Dense: Entire region + process_vm_writev w/ page size,463,,,93669536.0,ns,390
snapshot_restore_with_dense,Dense: Entire region + process_vm_writev w/ page size,463,,,94864417.0,ns,395
snapshot_restore_with_dense,Dense: Entire region + process_vm_writev w/ page size,463,,,96249055.0,ns,400
snapshot_restore_with_dense,Dense: Entire region + process_vm_writev w/ page size,463,,,97255710.0,ns,405
snapshot_restore_with_dense,Dense: Entire region + process_vm_writev w/ page size,463,,,98497423.0,ns,410
snapshot_restore_with_dense,Dense: Entire region + process_vm_writev w/ page size,463,,,100703728.0,ns,415
snapshot_restore_with_dense,Dense: Entire region + process_vm_writev w/ page size,463,,,100913051.0,ns,420
snapshot_restore_with_dense,Dense: Entire region + process_vm_writev w/ page size,463,,,102080573.0,ns,425
snapshot_restore_with_dense,Dense: Entire region + process_vm_writev w/ page size,463,,,103295169.0,ns,430
snapshot_restore_with_dense,Dense: Entire region + process_vm_writev w/ page size,463,,,104518783.0,ns,435
snapshot_restore_with_dense,Dense: Entire region + process_vm_writev w/ page size,463,,,105682278.0,ns,440
snapshot_restore_with_dense,Dense: Entire region + process_vm_writev w/ page size,463,,,106861704.0,ns,445
snapshot_restore_with_dense,Dense: Entire region + process_vm_writev w/ page size,463,,,108302845.0,ns,450
snapshot_restore_with_dense,Dense: Entire region + process_vm_writev w/ page size,463,,,109285789.0,ns,455
snapshot_restore_with_dense,Dense: Entire region + process_vm_writev w/ page size,463,,,110569374.0,ns,460
snapshot_restore_with_dense,Dense: Entire region + process_vm_writev w/ page size,463,,,117963124.0,ns,465
snapshot_restore_with_dense,Dense: Entire region + process_vm_writev w/ page size,463,,,113536552.0,ns,470
snapshot_restore_with_dense,Dense: Entire region + process_vm_writev w/ page size,463,,,114691892.0,ns,475
snapshot_restore_with_dense,Dense: Entire region + process_vm_writev w/ page size,463,,,115835491.0,ns,480
snapshot_restore_with_dense,Dense: Entire region + process_vm_writev w/ page size,463,,,116646342.0,ns,485
snapshot_restore_with_dense,Dense: Entire region + process_vm_writev w/ page size,463,,,117758722.0,ns,490
snapshot_restore_with_dense,Dense: Entire region + process_vm_writev w/ page size,463,,,119006613.0,ns,495
snapshot_restore_with_dense,Dense: Entire region + process_vm_writev w/ page size,463,,,120173688.0,ns,500
