group,function,value,throughput_num,throughput_type,sample_measured_value,unit,iteration_count
snapshot_restore_with_dense,Dense: Dirty pages + process_vm_writev,2,,,1064240.0,ns,231
snapshot_restore_with_dense,Dense: Dirty pages + process_vm_writev,2,,,1968491.0,ns,462
snapshot_restore_with_dense,Dense: Dirty pages + process_vm_writev,2,,,2982777.0,ns,693
snapshot_restore_with_dense,Dense: Dirty pages + process_vm_writev,2,,,3969462.0,ns,924
snapshot_restore_with_dense,Dense: Dirty pages + process_vm_writev,2,,,5568211.0,ns,1155
snapshot_restore_with_dense,Dense: Dirty pages + process_vm_writev,2,,,5966157.0,ns,1386
snapshot_restore_with_dense,Dense: Dirty pages + process_vm_writev,2,,,8223754.0,ns,1617
snapshot_restore_with_dense,Dense: Dirty pages + process_vm_writev,2,,,8397900.0,ns,1848
snapshot_restore_with_dense,Dense: Dirty pages + process_vm_writev,2,,,9199559.0,ns,2079
snapshot_restore_with_dense,Dense: Dirty pages + process_vm_writev,2,,,10127621.0,ns,2310
snapshot_restore_with_dense,Dense: Dirty pages + process_vm_writev,2,,,10865077.0,ns,2541
snapshot_restore_with_dense,Dense: Dirty pages + process_vm_writev,2,,,11898897.0,ns,2772
snapshot_restore_with_dense,Dense: Dirty pages + process_vm_writev,2,,,12840522.0,ns,3003
snapshot_restore_with_dense,Dense: Dirty pages + process_vm_writev,2,,,13818780.0,ns,3234
snapshot_restore_with_dense,Dense: Dirty pages + process_vm_writev,2,,,14757007.0,ns,3465
snapshot_restore_with_dense,Dense: Dirty pages + process_vm_writev,2,,,16175964.0,ns,3696
snapshot_restore_with_dense,Dense: Dirty pages + process_vm_writev,2,,,16979931.0,ns,3927
snapshot_restore_with_dense,Dense: Dirty pages + process_vm_writev,2,,,17782597.0,ns,4158
snapshot_restore_with_dense,Dense: Dirty pages + process_vm_writev,2,,,18760130.0,ns,4389
snapshot_restore_with_dense,Dense: Dirty pages + process_vm_writev,2,,,19687932.0,ns,4620
snapshot_restore_with_dense,Dense: Dirty pages + process_vm_writev,2,,,20757961.0,ns,4851
snapshot_restore_with_dense,Dense: Dirty pages + process_vm_writev,2,,,22049476.0,ns,5082
snapshot_restore_with_dense,Dense: Dirty pages + process_vm_writev,2,,,22771371.0,ns,5313
snapshot_restore_with_dense,Dense: Dirty pages + process_vm_writev,2,,,23796059.0,ns,5544
snapshot_restore_with_dense,Dense: Dirty pages + process_vm_writev,2,,,24740387.0,ns,5775
snapshot_restore_with_dense,Dense: Dirty pages + process_vm_writev,2,,,25843826.0,ns,6006
snapshot_restore_with_dense,Dense: Dirty pages + process_vm_writev,2,,,26778010.0,ns,6237
snapshot_restore_with_dense,Dense: Dirty pages + process_vm_writev,2,,,27747199.0,ns,6468
snapshot_restore_with_dense,Dense: Dirty pages + process_vm_writev,2,,,28774613.0,ns,6699
snapshot_restore_with_dense,Dense: Dirty pages + process_vm_writev,2,,,29744483.0,ns,6930
snapshot_restore_with_dense,Dense: Dirty pages + process_vm_writev,2,,,30677330.0,ns,7161
snapshot_restore_with_dense,Dense: Dirty pages + process_vm_writev,2,,,31837951.0,ns,7392
snapshot_restore_with_dense,Dense: Dirty pages + process_vm_writev,2,,,32841509.0,ns,7623
snapshot_restore_with_dense,Dense: Dirty pages + process_vm_writev,2,,,33784087.0,ns,7854
snapshot_restore_with_dense,Dense: Dirty pages + process_vm_writev,2,,,34601556.0,ns,8085
snapshot_restore_with_dense,Dense: Dirty pages + process_vm_writev,2,,,35673956.0,ns,8316
snapshot_restore_with_dense,Dense: Dirty pages + process_vm_writev,2,,,36420057.0,ns,8547
snapshot_restore_with_dense,Dense: Dirty pages + process_vm_writev,2,,,37474020.0,ns,8778
snapshot_restore_with_dense,Dense: Dirty pages + process_vm_writev,2,,,38626235.0,ns,9009
snapshot_restore_with_dense,Dense: Dirty pages + process_vm_writev,2,,,44660294.0,ns,9240
snapshot_restore_with_dense,Dense: Dirty pages + process_vm_writev,2,,,40600140.0,ns,9471
snapshot_restore_with_dense,Dense: Dirty pages + process_vm_writev,2,,,41327426.0,ns,9702
snapshot_restore_with_dense,Dense: Dirty pages + process_vm_writev,2,,,42512856.0,ns,9933
snapshot_restore_with_dense,Dense: Dirty pages + process_vm_writev,2,,,43623528.0,ns,10164
snapshot_restore_with_dense,Dense: Dirty pages + process_vm_writev,2,,,44673383.0,ns,10395
snapshot_restore_with_dense,Dense: Dirty pages + process_vm_writev,2,,,45678636.0,ns,10626
snapshot_restore_with_dense,Dense: Dirty pages + process_vm_writev,2,,,46548232.0,ns,10857
snapshot_restore_with_dense,Dense: Dirty pages + process_vm_writev,2,,,47716728.0,ns,11088
snapshot_restore_with_dense,Dense: Dirty pages + process_vm_writev,2,,,48576370.0,ns,11319
snapshot_restore_with_dense,Dense: Dirty pages + process_vm_writev,2,,,49653742.0,ns,11550
snapshot_restore_with_dense,Dense: Dirty pages + process_vm_writev,2,,,50445572.0,ns,11781
snapshot_restore_with_dense,Dense: Dirty pages + process_vm_writev,2,,,51521399.0,ns,12012
snapshot_restore_with_dense,Dense: Dirty pages + process_vm_writev,2,,,52415115.0,ns,12243
snapshot_restore_with_dense,Dense: Dirty pages + process_vm_writev,2,,,53341108.0,ns,12474
snapshot_restore_with_dense,Dense: Dirty pages + process_vm_writev,2,,,54312084.0,ns,12705
snapshot_restore_with_dense,Dense: Dirty pages + process_vm_writev,2,,,56274002.0,ns,12936
snapshot_restore_with_dense,Dense: Dirty pages + process_vm_writev,2,,,56324509.0,ns,13167
snapshot_restore_with_dense,Dense: Dirty pages + process_vm_writev,2,,,57439905.0,ns,13398
snapshot_restore_with_dense,Dense: Dirty pages + process_vm_writev,2,,,58491684.0,ns,13629
snapshot_restore_with_dense,Dense: Dirty pages + process_vm_writev,2,,,59317294.0,ns,13860
snapshot_restore_with_dense,Dense: Dirty pages + process_vm_writev,2,,,60549586.0,ns,14091
snapshot_restore_with_dense,Dense: Dirty pages + process_vm_writev,2,,,61650861.0,ns,14322
snapshot_restore_with_dense,Dense: Dirty pages + process_vm_writev,2,,,62241472.0,ns,14553
snapshot_restore_with_dense,Dense: Dirty pages + process_vm_writev,2,,,63111167.0,ns,14784
snapshot_restore_with_dense,Dense: Dirty pages + process_vm_writev,2,,,64256275.0,ns,15015
snapshot_restore_with_dense,Dense: Dirty pages + process_vm_writev,2,,,65298872.0,ns,15246
snapshot_restore_with_dense,Dense: Dirty pages + process_vm_writev,2,,,66186945.0,ns,15477
snapshot_restore_with_dense,Dense: Dirty pages + process_vm_writev,2,,,67362309.0,ns,15708
snapshot_restore_with_dense,Dense: Dirty pages + process_vm_writev,2,,,68706480.0,ns,15939
snapshot_restore_with_dense,Dense: Dirty pages + process_vm_writev,2,,,69319313.0,ns,16170
snapshot_restore_with_dense,Dense: Dirty pages + process_vm_writev,2,,,70137189.0,ns,16401
snapshot_restore_with_dense,Dense: Dirty pages + process_vm_writev,2,,,71479877.0,ns,16632
snapshot_restore_with_dense,Dense: Dirty pages + process_vm_writev,2,,,71983796.0,ns,16863
snapshot_restore_with_dense,Dense: Dirty pages + process_vm_writev,2,,,73124319.0,ns,17094
snapshot_restore_with_dense,Dense: Dirty pages + process_vm_writev,2,,,74151028.0,ns,17325
snapshot_restore_with_dense,Dense: Dirty pages + process_vm_writev,2,,,75397297.0,ns,17556
snapshot_restore_with_dense,Dense: Dirty pages + process_vm_writev,2,,,76205766.0,ns,17787
snapshot_restore_with_dense,Dense: Dirty pages + process_vm_writev,2,,,77230883.0,ns,18018
snapshot_restore_with_dense,Dense: Dirty pages + process_vm_writev,2,,,77958991.0,ns,18249
snapshot_restore_with_dense,Dense: Dirty pages + process_vm_writev,2,,,78838767.0,ns,18480
snapshot_restore_with_dense,Dense: Dirty pages + process_vm_writev,2,,,80347419.0,ns,18711
snapshot_restore_with_dense,Dense: Dirty pages + process_vm_writev,2,,,81033367.0,ns,18942
snapshot_restore_with_dense,Dense: Dirty pages + process_vm_writev,2,,,82181687.0,ns,19173
snapshot_restore_with_dense,Dense: Dirty pages + process_vm_writev,2,,,83203967.0,ns,19404
snapshot_restore_with_dense,Dense: Dirty pages + process_vm_writev,2,,,84350521.0,ns,19635
snapshot_restore_with_dense,Dense: Dirty pages + process_vm_writev,2,,,84857327.0,ns,19866
snapshot_restore_with_dense,Dense: Dirty pages + process_vm_writev,2,,,86002106.0,ns,20097
snapshot_restore_with_dense,Dense: Dirty pages + process_vm_writev,2,,,87044253.0,ns,20328
snapshot_restore_with_dense,Dense: Dirty pages + process_vm_writev,2,,,88076380.0,ns,20559
snapshot_restore_with_dense,Dense: Dirty pages + process_vm_writev,2,,,89142712.0,ns,20790
snapshot_restore_with_dense,Dense: Dirty pages + process_vm_writev,2,,,101438690.0,ns,21021
snapshot_restore_with_dense,Dense: Dirty pages + process_vm_writev,2,,,91668394.0,ns,21252
snapshot_restore_with_dense,Dense: Dirty pages + process_vm_writev,2,,,92457565.0,ns,21483
snapshot_restore_with_dense,Dense: Dirty pages + process_vm_writev,2,,,93071920.0,ns,21714
snapshot_restore_with_dense,Dense: Dirty pages + process_vm_writev,2,,,94111889.0,ns,21945
snapshot_restore_with_dense,Dense: Dirty pages + process_vm_writev,2,,,95315442.0,ns,22176
snapshot_restore_with_dense,Dense: Dirty pages + process_vm_writev,2,,,96176630.0,ns,22407
snapshot_restore_with_dense,Dense: Dirty pages + process_vm_writev,2,,,97130611.0,ns,22638
snapshot_restore_with_dense,Dense: Dirty pages + process_vm_writev,2,,,98244252.0,ns,22869
snapshot_restore_with_dense,Dense: Dirty pages + process_vm_writev,2,,,99418157.0,ns,23100
