<?xml version="1.0" encoding="utf-8"  standalone="no"?>
<svg 
 viewBox="0 0 1280 720"
 xmlns="http://www.w3.org/2000/svg"
 xmlns:xlink="http://www.w3.org/1999/xlink"
>

<title>Gnuplot</title>
<desc>Produced by GNUPLOT 5.2 patchlevel 6 </desc>

<g id="gnuplot_canvas">

<rect x="0" y="0" width="1280" height="720" fill="none"/>
<defs>

	<circle id='gpDot' r='0.5' stroke-width='0.5' stroke='currentColor'/>
	<path id='gpPt0' stroke-width='0.222' stroke='currentColor' d='M-1,0 h2 M0,-1 v2'/>
	<path id='gpPt1' stroke-width='0.222' stroke='currentColor' d='M-1,-1 L1,1 M1,-1 L-1,1'/>
	<path id='gpPt2' stroke-width='0.222' stroke='currentColor' d='M-1,0 L1,0 M0,-1 L0,1 M-1,-1 L1,1 M-1,1 L1,-1'/>
	<rect id='gpPt3' stroke-width='0.222' stroke='currentColor' x='-1' y='-1' width='2' height='2'/>
	<rect id='gpPt4' stroke-width='0.222' stroke='currentColor' fill='currentColor' x='-1' y='-1' width='2' height='2'/>
	<circle id='gpPt5' stroke-width='0.222' stroke='currentColor' cx='0' cy='0' r='1'/>
	<use xlink:href='#gpPt5' id='gpPt6' fill='currentColor' stroke='none'/>
	<path id='gpPt7' stroke-width='0.222' stroke='currentColor' d='M0,-1.33 L-1.33,0.67 L1.33,0.67 z'/>
	<use xlink:href='#gpPt7' id='gpPt8' fill='currentColor' stroke='none'/>
	<use xlink:href='#gpPt7' id='gpPt9' stroke='currentColor' transform='rotate(180)'/>
	<use xlink:href='#gpPt9' id='gpPt10' fill='currentColor' stroke='none'/>
	<use xlink:href='#gpPt3' id='gpPt11' stroke='currentColor' transform='rotate(45)'/>
	<use xlink:href='#gpPt11' id='gpPt12' fill='currentColor' stroke='none'/>
	<path id='gpPt13' stroke-width='0.222' stroke='currentColor' d='M0,1.330 L1.265,0.411 L0.782,-1.067 L-0.782,-1.076 L-1.265,0.411 z'/>
	<use xlink:href='#gpPt13' id='gpPt14' fill='currentColor' stroke='none'/>
	<filter id='textbox' filterUnits='objectBoundingBox' x='0' y='0' height='1' width='1'>
	  <feFlood flood-color='white' flood-opacity='1' result='bgnd'/>
	  <feComposite in='SourceGraphic' in2='bgnd' operator='atop'/>
	</filter>
	<filter id='greybox' filterUnits='objectBoundingBox' x='0' y='0' height='1' width='1'>
	  <feFlood flood-color='lightgrey' flood-opacity='1' result='grey'/>
	  <feComposite in='SourceGraphic' in2='grey' operator='atop'/>
	</filter>
</defs>
<g fill="none" color="white" stroke="currentColor" stroke-width="1.00" stroke-linecap="butt" stroke-linejoin="miter">
</g>
<g fill="none" color="black" stroke="currentColor" stroke-width="1.00" stroke-linecap="butt" stroke-linejoin="miter">
	<path stroke='black'  d='M80.2,662.4 L89.2,662.4  '/>	<g transform="translate(71.9,666.3)" stroke="none" fill="black" font-family="Helvetica" font-size="12.00"  text-anchor="end">
		<text><tspan font-family="Helvetica" > 0</tspan></text>
	</g>
</g>
<g fill="none" color="black" stroke="currentColor" stroke-width="1.00" stroke-linecap="butt" stroke-linejoin="miter">
	<path stroke='black'  d='M80.2,575.5 L89.2,575.5  '/>	<g transform="translate(71.9,579.4)" stroke="none" fill="black" font-family="Helvetica" font-size="12.00"  text-anchor="end">
		<text><tspan font-family="Helvetica" > 0.05</tspan></text>
	</g>
</g>
<g fill="none" color="black" stroke="currentColor" stroke-width="1.00" stroke-linecap="butt" stroke-linejoin="miter">
	<path stroke='black'  d='M80.2,488.6 L89.2,488.6  '/>	<g transform="translate(71.9,492.5)" stroke="none" fill="black" font-family="Helvetica" font-size="12.00"  text-anchor="end">
		<text><tspan font-family="Helvetica" > 0.1</tspan></text>
	</g>
</g>
<g fill="none" color="black" stroke="currentColor" stroke-width="1.00" stroke-linecap="butt" stroke-linejoin="miter">
	<path stroke='black'  d='M80.2,401.7 L89.2,401.7  '/>	<g transform="translate(71.9,405.6)" stroke="none" fill="black" font-family="Helvetica" font-size="12.00"  text-anchor="end">
		<text><tspan font-family="Helvetica" > 0.15</tspan></text>
	</g>
</g>
<g fill="none" color="black" stroke="currentColor" stroke-width="1.00" stroke-linecap="butt" stroke-linejoin="miter">
	<path stroke='black'  d='M80.2,314.8 L89.2,314.8  '/>	<g transform="translate(71.9,318.7)" stroke="none" fill="black" font-family="Helvetica" font-size="12.00"  text-anchor="end">
		<text><tspan font-family="Helvetica" > 0.2</tspan></text>
	</g>
</g>
<g fill="none" color="black" stroke="currentColor" stroke-width="1.00" stroke-linecap="butt" stroke-linejoin="miter">
	<path stroke='black'  d='M80.2,227.9 L89.2,227.9  '/>	<g transform="translate(71.9,231.8)" stroke="none" fill="black" font-family="Helvetica" font-size="12.00"  text-anchor="end">
		<text><tspan font-family="Helvetica" > 0.25</tspan></text>
	</g>
</g>
<g fill="none" color="black" stroke="currentColor" stroke-width="1.00" stroke-linecap="butt" stroke-linejoin="miter">
	<path stroke='black'  d='M80.2,141.0 L89.2,141.0  '/>	<g transform="translate(71.9,144.9)" stroke="none" fill="black" font-family="Helvetica" font-size="12.00"  text-anchor="end">
		<text><tspan font-family="Helvetica" > 0.3</tspan></text>
	</g>
</g>
<g fill="none" color="black" stroke="currentColor" stroke-width="1.00" stroke-linecap="butt" stroke-linejoin="miter">
	<path stroke='black'  d='M80.2,54.1 L89.2,54.1  '/>	<g transform="translate(71.9,58.0)" stroke="none" fill="black" font-family="Helvetica" font-size="12.00"  text-anchor="end">
		<text><tspan font-family="Helvetica" > 0.35</tspan></text>
	</g>
</g>
<g fill="none" color="black" stroke="currentColor" stroke-width="1.00" stroke-linecap="butt" stroke-linejoin="miter">
	<path stroke='black'  d='M161.4,662.4 L161.4,653.4  '/>	<g transform="translate(161.4,684.3)" stroke="none" fill="black" font-family="Helvetica" font-size="12.00"  text-anchor="middle">
		<text><tspan font-family="Helvetica" > 214</tspan></text>
	</g>
</g>
<g fill="none" color="black" stroke="currentColor" stroke-width="1.00" stroke-linecap="butt" stroke-linejoin="miter">
	<path stroke='black'  d='M318.1,662.4 L318.1,653.4  '/>	<g transform="translate(318.1,684.3)" stroke="none" fill="black" font-family="Helvetica" font-size="12.00"  text-anchor="middle">
		<text><tspan font-family="Helvetica" > 215</tspan></text>
	</g>
</g>
<g fill="none" color="black" stroke="currentColor" stroke-width="1.00" stroke-linecap="butt" stroke-linejoin="miter">
	<path stroke='black'  d='M474.9,662.4 L474.9,653.4  '/>	<g transform="translate(474.9,684.3)" stroke="none" fill="black" font-family="Helvetica" font-size="12.00"  text-anchor="middle">
		<text><tspan font-family="Helvetica" > 216</tspan></text>
	</g>
</g>
<g fill="none" color="black" stroke="currentColor" stroke-width="1.00" stroke-linecap="butt" stroke-linejoin="miter">
	<path stroke='black'  d='M631.6,662.4 L631.6,653.4  '/>	<g transform="translate(631.6,684.3)" stroke="none" fill="black" font-family="Helvetica" font-size="12.00"  text-anchor="middle">
		<text><tspan font-family="Helvetica" > 217</tspan></text>
	</g>
</g>
<g fill="none" color="black" stroke="currentColor" stroke-width="1.00" stroke-linecap="butt" stroke-linejoin="miter">
	<path stroke='black'  d='M788.4,662.4 L788.4,653.4  '/>	<g transform="translate(788.4,684.3)" stroke="none" fill="black" font-family="Helvetica" font-size="12.00"  text-anchor="middle">
		<text><tspan font-family="Helvetica" > 218</tspan></text>
	</g>
</g>
<g fill="none" color="black" stroke="currentColor" stroke-width="1.00" stroke-linecap="butt" stroke-linejoin="miter">
	<path stroke='black'  d='M945.1,662.4 L945.1,653.4  '/>	<g transform="translate(945.1,684.3)" stroke="none" fill="black" font-family="Helvetica" font-size="12.00"  text-anchor="middle">
		<text><tspan font-family="Helvetica" > 219</tspan></text>
	</g>
</g>
<g fill="none" color="black" stroke="currentColor" stroke-width="1.00" stroke-linecap="butt" stroke-linejoin="miter">
</g>
<g fill="none" color="black" stroke="currentColor" stroke-width="1.00" stroke-linecap="butt" stroke-linejoin="miter">
	<path stroke='black'  d='M80.2,54.1 L80.2,662.4 L1013.6,662.4 L1013.6,54.1 L80.2,54.1 Z  '/></g>
<g fill="none" color="black" stroke="currentColor" stroke-width="1.00" stroke-linecap="butt" stroke-linejoin="miter">
	<g transform="translate(16.3,358.3) rotate(270)" stroke="none" fill="black" font-family="Helvetica" font-size="12.00"  text-anchor="middle">
		<text><tspan font-family="Helvetica" >Density (a.u.)</tspan></text>
	</g>
</g>
<g fill="none" color="black" stroke="currentColor" stroke-width="1.00" stroke-linecap="butt" stroke-linejoin="miter">
	<g transform="translate(546.9,711.3)" stroke="none" fill="black" font-family="Helvetica" font-size="12.00"  text-anchor="middle">
		<text><tspan font-family="Helvetica" >Average time (us)</tspan></text>
	</g>
</g>
<g fill="none" color="black" stroke="currentColor" stroke-width="1.00" stroke-linecap="butt" stroke-linejoin="miter">
	<g transform="translate(546.9,31.0)" stroke="none" fill="black" font-family="Helvetica" font-size="12.00"  text-anchor="middle">
		<text><tspan font-family="Helvetica" >snapshot_restore_with_dense/Sparse: Entire region + /proc/pid/mem/22: mean</tspan></text>
	</g>
</g>
	<g id="gnuplot_plot_1" ><title>Bootstrap distribution</title>
<g fill="none" color="white" stroke="black" stroke-width="2.00" stroke-linecap="butt" stroke-linejoin="miter">
</g>
<g fill="none" color="black" stroke="currentColor" stroke-width="2.00" stroke-linecap="butt" stroke-linejoin="miter">
	<g transform="translate(1089.0,67.0)" stroke="none" fill="black" font-family="Helvetica" font-size="12.00"  text-anchor="start">
		<text><tspan font-family="Helvetica" >Bootstrap distribution</tspan></text>
	</g>
</g>
<g fill="none" color="black" stroke="currentColor" stroke-width="2.00" stroke-linecap="butt" stroke-linejoin="miter">
	<path stroke='rgb( 31, 120, 180)'  d='M1038.5,63.1 L1080.7,63.1 M80.2,645.9 L82.1,644.2 L83.9,642.4 L85.8,640.5 L87.7,638.5 L89.6,636.3
		L91.4,634.1 L93.3,631.8 L95.2,629.4 L97.0,626.8 L98.9,624.2 L100.8,621.5 L102.6,618.7 L104.5,615.8
		L106.4,612.8 L108.3,609.8 L110.1,606.7 L112.0,603.5 L113.9,600.2 L115.7,596.9 L117.6,593.5 L119.5,590.1
		L121.4,586.6 L123.2,583.0 L125.1,579.4 L127.0,575.8 L128.8,572.1 L130.7,568.4 L132.6,564.7 L134.4,561.0
		L136.3,557.2 L138.2,553.4 L140.1,549.7 L141.9,545.9 L143.8,542.2 L145.7,538.4 L147.5,534.7 L149.4,531.0
		L151.3,527.4 L153.2,523.8 L155.0,520.3 L156.9,516.8 L158.8,513.3 L160.6,509.9 L162.5,506.6 L164.4,503.3
		L166.2,500.1 L168.1,496.9 L170.0,493.8 L171.9,490.7 L173.7,487.6 L175.6,484.6 L177.5,481.6 L179.3,478.6
		L181.2,475.6 L183.1,472.6 L185.0,469.6 L186.8,466.6 L188.7,463.6 L190.6,460.6 L192.4,457.5 L194.3,454.4
		L196.2,451.2 L198.0,448.0 L199.9,444.8 L201.8,441.6 L203.7,438.3 L205.5,434.9 L207.4,431.5 L209.3,428.1
		L211.1,424.6 L213.0,421.1 L214.9,417.6 L216.7,414.0 L218.6,410.3 L220.5,406.6 L222.4,402.8 L224.2,399.0
		L226.1,395.1 L228.0,391.1 L229.8,387.1 L231.7,383.0 L233.6,378.9 L235.5,374.7 L237.3,370.4 L239.2,366.1
		L241.1,361.7 L242.9,357.2 L244.8,352.7 L246.7,348.2 L248.5,343.6 L250.4,338.9 L252.3,334.3 L254.2,329.6
		L256.0,324.8 L257.9,320.1 L259.8,315.4 L261.6,310.6 L263.5,305.9 L265.4,301.2 L267.3,296.5 L269.1,291.8
		L271.0,287.2 L272.9,282.6 L274.7,278.0 L276.6,273.5 L278.5,269.0 L280.3,264.6 L282.2,260.3 L284.1,256.1
		L286.0,251.9 L287.8,247.7 L289.7,243.7 L291.6,239.7 L293.4,235.8 L295.3,231.9 L297.2,228.1 L299.1,224.4
		L300.9,220.8 L302.8,217.3 L304.7,213.8 L306.5,210.4 L308.4,207.1 L310.3,203.9 L312.1,200.7 L314.0,197.7
		L315.9,194.7 L317.8,191.8 L319.6,189.0 L321.5,186.3 L323.4,183.7 L325.2,181.2 L327.1,178.7 L329.0,176.3
		L330.9,174.0 L332.7,171.8 L334.6,169.6 L336.5,167.4 L338.3,165.4 L340.2,163.3 L342.1,161.3 L343.9,159.3
		L345.8,157.4 L347.7,155.4 L349.6,153.5 L351.4,151.6 L353.3,149.8 L355.2,147.9 L357.0,146.1 L358.9,144.3
		L360.8,142.6 L362.7,140.9 L364.5,139.2 L366.4,137.6 L368.3,136.0 L370.1,134.5 L372.0,133.0 L373.9,131.6
		L375.7,130.3 L377.6,129.0 L379.5,127.8 L381.4,126.6 L383.2,125.5 L385.1,124.4 L387.0,123.4 L388.8,122.4
		L390.7,121.5 L392.6,120.5 L394.5,119.6 L396.3,118.8 L398.2,117.9 L400.1,117.0 L401.9,116.2 L403.8,115.3
		L405.7,114.4 L407.5,113.6 L409.4,112.7 L411.3,111.9 L413.2,111.0 L415.0,110.2 L416.9,109.4 L418.8,108.6
		L420.6,107.8 L422.5,107.1 L424.4,106.4 L426.3,105.8 L428.1,105.2 L430.0,104.7 L431.9,104.2 L433.7,103.8
		L435.6,103.4 L437.5,103.2 L439.3,103.0 L441.2,102.8 L443.1,102.7 L445.0,102.8 L446.8,102.8 L448.7,103.0
		L450.6,103.2 L452.4,103.5 L454.3,103.9 L456.2,104.3 L458.0,104.9 L459.9,105.5 L461.8,106.1 L463.7,106.9
		L465.5,107.7 L467.4,108.5 L469.3,109.5 L471.1,110.5 L473.0,111.6 L474.9,112.7 L476.8,114.0 L478.6,115.2
		L480.5,116.6 L482.4,118.0 L484.2,119.4 L486.1,120.9 L488.0,122.5 L489.8,124.1 L491.7,125.7 L493.6,127.4
		L495.5,129.1 L497.3,130.9 L499.2,132.7 L501.1,134.5 L502.9,136.4 L504.8,138.3 L506.7,140.3 L508.6,142.3
		L510.4,144.4 L512.3,146.5 L514.2,148.7 L516.0,150.9 L517.9,153.2 L519.8,155.5 L521.6,158.0 L523.5,160.4
		L525.4,162.9 L527.3,165.5 L529.1,168.1 L531.0,170.8 L532.9,173.5 L534.7,176.2 L536.6,178.9 L538.5,181.7
		L540.4,184.4 L542.2,187.1 L544.1,189.8 L546.0,192.5 L547.8,195.1 L549.7,197.7 L551.6,200.3 L553.4,202.8
		L555.3,205.3 L557.2,207.7 L559.1,210.1 L560.9,212.5 L562.8,214.8 L564.7,217.2 L566.5,219.4 L568.4,221.7
		L570.3,224.0 L572.2,226.2 L574.0,228.5 L575.9,230.7 L577.8,232.9 L579.6,235.2 L581.5,237.5 L583.4,239.8
		L585.2,242.1 L587.1,244.4 L589.0,246.8 L590.9,249.2 L592.7,251.6 L594.6,254.0 L596.5,256.5 L598.3,258.9
		L600.2,261.4 L602.1,264.0 L604.0,266.5 L605.8,269.0 L607.7,271.5 L609.6,274.1 L611.4,276.6 L613.3,279.1
		L615.2,281.7 L617.0,284.2 L618.9,286.7 L620.8,289.2 L622.7,291.7 L624.5,294.3 L626.4,296.8 L628.3,299.3
		L630.1,301.8 L632.0,304.4 L633.9,307.0 L635.8,309.6 L637.6,312.2 L639.5,314.9 L641.4,317.6 L643.2,320.3
		L645.1,323.1 L647.0,325.8 L648.8,328.6 L650.7,331.4 L652.6,334.2 L654.5,337.0 L656.3,339.7 L658.2,342.5
		L660.1,345.2 L661.9,347.9 L663.8,350.5 L665.7,353.1 L667.5,355.6 L669.4,358.1 L671.3,360.5 L673.2,362.9
		L675.0,365.2 L676.9,367.5 L678.8,369.7 L680.6,371.8 L682.5,374.0 L684.4,376.1 L686.3,378.2 L688.1,380.2
		L690.0,382.3 L691.9,384.4 L693.7,386.4 L695.6,388.5 L697.5,390.6 L699.3,392.7 L701.2,394.8 L703.1,396.9
		L705.0,399.0 L706.8,401.2 L708.7,403.4 L710.6,405.5 L712.4,407.7 L714.3,410.0 L716.2,412.2 L718.1,414.4
		L719.9,416.7 L721.8,418.9 L723.7,421.2 L725.5,423.4 L727.4,425.7 L729.3,428.0 L731.1,430.3 L733.0,432.5
		L734.9,434.8 L736.8,437.1 L738.6,439.4 L740.5,441.8 L742.4,444.1 L744.2,446.4 L746.1,448.8 L748.0,451.1
		L749.9,453.5 L751.7,455.8 L753.6,458.2 L755.5,460.5 L757.3,462.9 L759.2,465.2 L761.1,467.6 L762.9,469.9
		L764.8,472.3 L766.7,474.6 L768.6,476.9 L770.4,479.2 L772.3,481.5 L774.2,483.7 L776.0,486.0 L777.9,488.2
		L779.8,490.4 L781.7,492.6 L783.5,494.8 L785.4,497.0 L787.3,499.2 L789.1,501.3 L791.0,503.4 L792.9,505.5
		L794.7,507.6 L796.6,509.6 L798.5,511.7 L800.4,513.6 L802.2,515.6 L804.1,517.5 L806.0,519.4 L807.8,521.2
		L809.7,523.0 L811.6,524.8 L813.5,526.5 L815.3,528.1 L817.2,529.8 L819.1,531.4 L820.9,533.0 L822.8,534.5
		L824.7,536.0 L826.5,537.5 L828.4,539.0 L830.3,540.4 L832.2,541.9 L834.0,543.3 L835.9,544.7 L837.8,546.1
		L839.6,547.5 L841.5,548.9 L843.4,550.3 L845.3,551.7 L847.1,553.1 L849.0,554.5 L850.9,555.9 L852.7,557.2
		L854.6,558.6 L856.5,559.9 L858.3,561.2 L860.2,562.6 L862.1,563.8 L864.0,565.1 L865.8,566.4 L867.7,567.6
		L869.6,568.8 L871.4,570.0 L873.3,571.1 L875.2,572.3 L877.1,573.4 L878.9,574.5 L880.8,575.6 L882.7,576.6
		L884.5,577.7 L886.4,578.7 L888.3,579.7 L890.1,580.7 L892.0,581.7 L893.9,582.6 L895.8,583.6 L897.6,584.6
		L899.5,585.5 L901.4,586.5 L903.2,587.5 L905.1,588.4 L907.0,589.4 L908.8,590.3 L910.7,591.3 L912.6,592.3
		L914.5,593.2 L916.3,594.2 L918.2,595.2 L920.1,596.1 L921.9,597.1 L923.8,598.0 L925.7,599.0 L927.6,599.9
		L929.4,600.9 L931.3,601.8 L933.2,602.8 L935.0,603.7 L936.9,604.6 L938.8,605.5 L940.6,606.4 L942.5,607.3
		L944.4,608.2 L946.3,609.1 L948.1,609.9 L950.0,610.8 L951.9,611.6 L953.7,612.4 L955.6,613.1 L957.5,613.9
		L959.4,614.6 L961.2,615.3 L963.1,616.0 L965.0,616.7 L966.8,617.3 L968.7,617.9 L970.6,618.5 L972.4,619.0
		L974.3,619.6 L976.2,620.1 L978.1,620.7 L979.9,621.2 L981.8,621.7 L983.7,622.2 L985.5,622.8 L987.4,623.3
		L989.3,623.8 L991.2,624.4 L993.0,625.0 L994.9,625.6 L996.8,626.2 L998.6,626.8 L1000.5,627.4 L1002.4,628.0
		L1004.2,628.7 L1006.1,629.3 L1008.0,630.0 L1009.9,630.6 L1011.7,631.3 L1013.6,631.9  '/></g>
	</g>
	<g id="gnuplot_plot_2" ><title>Confidence interval</title>
<g fill="none" color="white" stroke="rgb( 31, 120, 180)" stroke-width="1.00" stroke-linecap="butt" stroke-linejoin="miter">
</g>
<g fill="none" color="black" stroke="currentColor" stroke-width="1.00" stroke-linecap="butt" stroke-linejoin="miter">
	<g transform="translate(1089.0,85.0)" stroke="none" fill="black" font-family="Helvetica" font-size="12.00"  text-anchor="start">
		<text><tspan font-family="Helvetica" >Confidence interval</tspan></text>
	</g>
</g>
<g fill="none" color="black" stroke="currentColor" stroke-width="1.00" stroke-linecap="butt" stroke-linejoin="miter">
	<g stroke='none' shape-rendering='crispEdges'>
		<polygon fill = 'rgb( 31, 120, 180)' fill-opacity = '0.250000' points = '1038.5,85.6 1080.7,85.6 1080.7,76.6 1038.5,76.6 '/>
		<polygon fill = 'rgb( 31, 120, 180)' fill-opacity = '0.250000' points = '166.2,500.1 168.1,496.9 170.0,493.8 171.9,490.7 173.7,487.6 175.6,484.6 177.5,481.6 179.3,478.6 181.2,475.6 183.1,472.6 185.0,469.6 186.8,466.6 188.7,463.6 190.6,460.6 192.4,457.5 194.3,454.4
196.2,451.2 198.0,448.0 199.9,444.8 201.8,441.6 203.7,438.3 205.5,434.9 207.4,431.5 209.3,428.1 211.1,424.6 213.0,421.1 214.9,417.6 216.7,414.0 218.6,410.3 220.5,406.6 222.4,402.8 224.2,399.0
226.1,395.1 228.0,391.1 229.8,387.1 231.7,383.0 233.6,378.9 235.5,374.7 237.3,370.4 239.2,366.1 241.1,361.7 242.9,357.2 244.8,352.7 246.7,348.2 248.5,343.6 250.4,338.9 252.3,334.3 254.2,329.6
256.0,324.8 257.9,320.1 259.8,315.4 261.6,310.6 263.5,305.9 265.4,301.2 267.3,296.5 269.1,291.8 271.0,287.2 272.9,282.6 274.7,278.0 276.6,273.5 278.5,269.0 280.3,264.6 282.2,260.3 284.1,256.1
286.0,251.9 287.8,247.7 289.7,243.7 291.6,239.7 293.4,235.8 295.3,231.9 297.2,228.1 299.1,224.4 300.9,220.8 302.8,217.3 304.7,213.8 306.5,210.4 308.4,207.1 310.3,203.9 312.1,200.7 314.0,197.7
315.9,194.7 317.8,191.8 319.6,189.0 321.5,186.3 323.4,183.7 325.2,181.2 327.1,178.7 329.0,176.3 330.9,174.0 332.7,171.8 334.6,169.6 336.5,167.4 338.3,165.4 340.2,163.3 342.1,161.3 343.9,159.3
345.8,157.4 347.7,155.4 349.6,153.5 351.4,151.6 353.3,149.8 355.2,147.9 357.0,146.1 358.9,144.3 360.8,142.6 362.7,140.9 364.5,139.2 366.4,137.6 368.3,136.0 370.1,134.5 372.0,133.0 373.9,131.6
375.7,130.3 377.6,129.0 379.5,127.8 381.4,126.6 383.2,125.5 385.1,124.4 387.0,123.4 388.8,122.4 390.7,121.5 392.6,120.5 394.5,119.6 396.3,118.8 398.2,117.9 400.1,117.0 401.9,116.2 403.8,115.3
405.7,114.4 407.5,113.6 409.4,112.7 411.3,111.9 413.2,111.0 415.0,110.2 416.9,109.4 418.8,108.6 420.6,107.8 422.5,107.1 424.4,106.4 426.3,105.8 428.1,105.2 430.0,104.7 431.9,104.2 433.7,103.8
435.6,103.4 437.5,103.2 439.3,103.0 441.2,102.8 443.1,102.7 445.0,102.8 446.8,102.8 448.7,103.0 450.6,103.2 452.4,103.5 454.3,103.9 456.2,104.3 458.0,104.9 459.9,105.5 461.8,106.1 463.7,106.9
465.5,107.7 467.4,108.5 469.3,109.5 471.1,110.5 473.0,111.6 474.9,112.7 476.8,114.0 478.6,115.2 480.5,116.6 482.4,118.0 484.2,119.4 486.1,120.9 488.0,122.5 489.8,124.1 491.7,125.7 493.6,127.4
495.5,129.1 497.3,130.9 499.2,132.7 501.1,134.5 502.9,136.4 504.8,138.3 506.7,140.3 508.6,142.3 510.4,144.4 512.3,146.5 514.2,148.7 516.0,150.9 517.9,153.2 519.8,155.5 521.6,158.0 523.5,160.4
525.4,162.9 527.3,165.5 529.1,168.1 531.0,170.8 532.9,173.5 534.7,176.2 536.6,178.9 538.5,181.7 540.4,184.4 542.2,187.1 544.1,189.8 546.0,192.5 547.8,195.1 549.7,197.7 551.6,200.3 553.4,202.8
555.3,205.3 557.2,207.7 559.1,210.1 560.9,212.5 562.8,214.8 564.7,217.2 566.5,219.4 568.4,221.7 570.3,224.0 572.2,226.2 574.0,228.5 575.9,230.7 577.8,232.9 579.6,235.2 581.5,237.5 583.4,239.8
585.2,242.1 587.1,244.4 589.0,246.8 590.9,249.2 592.7,251.6 594.6,254.0 596.5,256.5 598.3,258.9 600.2,261.4 602.1,264.0 604.0,266.5 605.8,269.0 607.7,271.5 609.6,274.1 611.4,276.6 613.3,279.1
615.2,281.7 617.0,284.2 618.9,286.7 620.8,289.2 622.7,291.7 624.5,294.3 626.4,296.8 628.3,299.3 630.1,301.8 632.0,304.4 633.9,307.0 635.8,309.6 637.6,312.2 639.5,314.9 641.4,317.6 643.2,320.3
645.1,323.1 647.0,325.8 648.8,328.6 650.7,331.4 652.6,334.2 654.5,337.0 656.3,339.7 658.2,342.5 660.1,345.2 661.9,347.9 663.8,350.5 665.7,353.1 667.5,355.6 669.4,358.1 671.3,360.5 673.2,362.9
675.0,365.2 676.9,367.5 678.8,369.7 680.6,371.8 682.5,374.0 684.4,376.1 686.3,378.2 688.1,380.2 690.0,382.3 691.9,384.4 693.7,386.4 695.6,388.5 697.5,390.6 699.3,392.7 701.2,394.8 703.1,396.9
705.0,399.0 706.8,401.2 708.7,403.4 710.6,405.5 712.4,407.7 714.3,410.0 716.2,412.2 718.1,414.4 719.9,416.7 721.8,418.9 723.7,421.2 725.5,423.4 727.4,425.7 729.3,428.0 731.1,430.3 733.0,432.5
734.9,434.8 736.8,437.1 738.6,439.4 740.5,441.8 742.4,444.1 744.2,446.4 746.1,448.8 748.0,451.1 749.9,453.5 751.7,455.8 753.6,458.2 755.5,460.5 757.3,462.9 759.2,465.2 761.1,467.6 762.9,469.9
764.8,472.3 766.7,474.6 768.6,476.9 770.4,479.2 772.3,481.5 774.2,483.7 776.0,486.0 777.9,488.2 779.8,490.4 781.7,492.6 783.5,494.8 785.4,497.0 787.3,499.2 789.1,501.3 791.0,503.4 792.9,505.5
794.7,507.6 796.6,509.6 798.5,511.7 800.4,513.6 802.2,515.6 804.1,517.5 806.0,519.4 807.8,521.2 809.7,523.0 811.6,524.8 813.5,526.5 815.3,528.1 817.2,529.8 819.1,531.4 820.9,533.0 822.8,534.5
824.7,536.0 826.5,537.5 828.4,539.0 830.3,540.4 832.2,541.9 834.0,543.3 835.9,544.7 837.8,546.1 839.6,547.5 841.5,548.9 843.4,550.3 845.3,551.7 847.1,553.1 849.0,554.5 850.9,555.9 852.7,557.2
854.6,558.6 856.5,559.9 858.3,561.2 860.2,562.6 862.1,563.8 864.0,565.1 865.8,566.4 867.7,567.6 869.6,568.8 871.4,570.0 873.3,571.1 875.2,572.3 877.1,573.4 878.9,574.5 880.8,575.6 882.7,576.6
884.5,577.7 886.4,578.7 888.3,579.7 890.1,580.7 892.0,581.7 893.9,582.6 895.8,583.6 897.6,584.6 899.5,585.5 901.4,586.5 903.2,587.5 905.1,588.4 907.0,589.4 908.8,590.3 910.7,591.3 912.6,592.3
914.5,593.2 916.3,594.2 918.2,595.2 920.1,596.1 921.9,597.1 923.8,598.0 925.7,599.0 925.7,662.4 923.8,662.4 921.9,662.4 920.1,662.4 918.2,662.4 916.3,662.4 914.5,662.4 912.6,662.4 910.7,662.4
908.8,662.4 907.0,662.4 905.1,662.4 903.2,662.4 901.4,662.4 899.5,662.4 897.6,662.4 895.8,662.4 893.9,662.4 892.0,662.4 890.1,662.4 888.3,662.4 886.4,662.4 884.5,662.4 882.7,662.4 880.8,662.4
878.9,662.4 877.1,662.4 875.2,662.4 873.3,662.4 871.4,662.4 869.6,662.4 867.7,662.4 865.8,662.4 864.0,662.4 862.1,662.4 860.2,662.4 858.3,662.4 856.5,662.4 854.6,662.4 852.7,662.4 850.9,662.4
849.0,662.4 847.1,662.4 845.3,662.4 843.4,662.4 841.5,662.4 839.6,662.4 837.8,662.4 835.9,662.4 834.0,662.4 832.2,662.4 830.3,662.4 828.4,662.4 826.5,662.4 824.7,662.4 822.8,662.4 820.9,662.4
819.1,662.4 817.2,662.4 815.3,662.4 813.5,662.4 811.6,662.4 809.7,662.4 807.8,662.4 806.0,662.4 804.1,662.4 802.2,662.4 800.4,662.4 798.5,662.4 796.6,662.4 794.7,662.4 792.9,662.4 791.0,662.4
789.1,662.4 787.3,662.4 785.4,662.4 783.5,662.4 781.7,662.4 779.8,662.4 777.9,662.4 776.0,662.4 774.2,662.4 772.3,662.4 770.4,662.4 768.6,662.4 766.7,662.4 764.8,662.4 762.9,662.4 761.1,662.4
759.2,662.4 757.3,662.4 755.5,662.4 753.6,662.4 751.7,662.4 749.9,662.4 748.0,662.4 746.1,662.4 744.2,662.4 742.4,662.4 740.5,662.4 738.6,662.4 736.8,662.4 734.9,662.4 733.0,662.4 731.1,662.4
729.3,662.4 727.4,662.4 725.5,662.4 723.7,662.4 721.8,662.4 719.9,662.4 718.1,662.4 716.2,662.4 714.3,662.4 712.4,662.4 710.6,662.4 708.7,662.4 706.8,662.4 705.0,662.4 703.1,662.4 701.2,662.4
699.3,662.4 697.5,662.4 695.6,662.4 693.7,662.4 691.9,662.4 690.0,662.4 688.1,662.4 686.3,662.4 684.4,662.4 682.5,662.4 680.6,662.4 678.8,662.4 676.9,662.4 675.0,662.4 673.2,662.4 671.3,662.4
669.4,662.4 667.5,662.4 665.7,662.4 663.8,662.4 661.9,662.4 660.1,662.4 658.2,662.4 656.3,662.4 654.5,662.4 652.6,662.4 650.7,662.4 648.8,662.4 647.0,662.4 645.1,662.4 643.2,662.4 641.4,662.4
639.5,662.4 637.6,662.4 635.8,662.4 633.9,662.4 632.0,662.4 630.1,662.4 628.3,662.4 626.4,662.4 624.5,662.4 622.7,662.4 620.8,662.4 618.9,662.4 617.0,662.4 615.2,662.4 613.3,662.4 611.4,662.4
609.6,662.4 607.7,662.4 605.8,662.4 604.0,662.4 602.1,662.4 600.2,662.4 598.3,662.4 596.5,662.4 594.6,662.4 592.7,662.4 590.9,662.4 589.0,662.4 587.1,662.4 585.2,662.4 583.4,662.4 581.5,662.4
579.6,662.4 577.8,662.4 575.9,662.4 574.0,662.4 572.2,662.4 570.3,662.4 568.4,662.4 566.5,662.4 564.7,662.4 562.8,662.4 560.9,662.4 559.1,662.4 557.2,662.4 555.3,662.4 553.4,662.4 551.6,662.4
549.7,662.4 547.8,662.4 546.0,662.4 544.1,662.4 542.2,662.4 540.4,662.4 538.5,662.4 536.6,662.4 534.7,662.4 532.9,662.4 531.0,662.4 529.1,662.4 527.3,662.4 525.4,662.4 523.5,662.4 521.6,662.4
519.8,662.4 517.9,662.4 516.0,662.4 514.2,662.4 512.3,662.4 510.4,662.4 508.6,662.4 506.7,662.4 504.8,662.4 502.9,662.4 501.1,662.4 499.2,662.4 497.3,662.4 495.5,662.4 493.6,662.4 491.7,662.4
489.8,662.4 488.0,662.4 486.1,662.4 484.2,662.4 482.4,662.4 480.5,662.4 478.6,662.4 476.8,662.4 474.9,662.4 473.0,662.4 471.1,662.4 469.3,662.4 467.4,662.4 465.5,662.4 463.7,662.4 461.8,662.4
459.9,662.4 458.0,662.4 456.2,662.4 454.3,662.4 452.4,662.4 450.6,662.4 448.7,662.4 446.8,662.4 445.0,662.4 443.1,662.4 441.2,662.4 439.3,662.4 437.5,662.4 435.6,662.4 433.7,662.4 431.9,662.4
430.0,662.4 428.1,662.4 426.3,662.4 424.4,662.4 422.5,662.4 420.6,662.4 418.8,662.4 416.9,662.4 415.0,662.4 413.2,662.4 411.3,662.4 409.4,662.4 407.5,662.4 405.7,662.4 403.8,662.4 401.9,662.4
400.1,662.4 398.2,662.4 396.3,662.4 394.5,662.4 392.6,662.4 390.7,662.4 388.8,662.4 387.0,662.4 385.1,662.4 383.2,662.4 381.4,662.4 379.5,662.4 377.6,662.4 375.7,662.4 373.9,662.4 372.0,662.4
370.1,662.4 368.3,662.4 366.4,662.4 364.5,662.4 362.7,662.4 360.8,662.4 358.9,662.4 357.0,662.4 355.2,662.4 353.3,662.4 351.4,662.4 349.6,662.4 347.7,662.4 345.8,662.4 343.9,662.4 342.1,662.4
340.2,662.4 338.3,662.4 336.5,662.4 334.6,662.4 332.7,662.4 330.9,662.4 329.0,662.4 327.1,662.4 325.2,662.4 323.4,662.4 321.5,662.4 319.6,662.4 317.8,662.4 315.9,662.4 314.0,662.4 312.1,662.4
310.3,662.4 308.4,662.4 306.5,662.4 304.7,662.4 302.8,662.4 300.9,662.4 299.1,662.4 297.2,662.4 295.3,662.4 293.4,662.4 291.6,662.4 289.7,662.4 287.8,662.4 286.0,662.4 284.1,662.4 282.2,662.4
280.3,662.4 278.5,662.4 276.6,662.4 274.7,662.4 272.9,662.4 271.0,662.4 269.1,662.4 267.3,662.4 265.4,662.4 263.5,662.4 261.6,662.4 259.8,662.4 257.9,662.4 256.0,662.4 254.2,662.4 252.3,662.4
250.4,662.4 248.5,662.4 246.7,662.4 244.8,662.4 242.9,662.4 241.1,662.4 239.2,662.4 237.3,662.4 235.5,662.4 233.6,662.4 231.7,662.4 229.8,662.4 228.0,662.4 226.1,662.4 224.2,662.4 222.4,662.4
220.5,662.4 218.6,662.4 216.7,662.4 214.9,662.4 213.0,662.4 211.1,662.4 209.3,662.4 207.4,662.4 205.5,662.4 203.7,662.4 201.8,662.4 199.9,662.4 198.0,662.4 196.2,662.4 194.3,662.4 192.4,662.4
190.6,662.4 188.7,662.4 186.8,662.4 185.0,662.4 183.1,662.4 181.2,662.4 179.3,662.4 177.5,662.4 175.6,662.4 173.7,662.4 171.9,662.4 170.0,662.4 168.1,662.4 166.2,662.4 '/>
	</g>
</g>
	</g>
	<g id="gnuplot_plot_3" ><title>Point estimate</title>
<g fill="none" color="white" stroke="rgb( 31, 120, 180)" stroke-width="2.00" stroke-linecap="butt" stroke-linejoin="miter">
</g>
<g fill="none" color="black" stroke="currentColor" stroke-width="2.00" stroke-linecap="butt" stroke-linejoin="miter">
	<g transform="translate(1089.0,103.0)" stroke="none" fill="black" font-family="Helvetica" font-size="12.00"  text-anchor="start">
		<text><tspan font-family="Helvetica" >Point estimate</tspan></text>
	</g>
</g>
<g fill="none" color="black" stroke="currentColor" stroke-width="2.00" stroke-linecap="butt" stroke-linejoin="miter">
	<path stroke='rgb( 31, 120, 180)'  d='M1038.5,99.1 L1080.7,99.1 M490.9,662.4 L490.9,125.0  '/></g>
	</g>
<g fill="none" color="black" stroke="currentColor" stroke-width="2.00" stroke-linecap="butt" stroke-linejoin="miter">
</g>
<g fill="none" color="black" stroke="black" stroke-width="1.00" stroke-linecap="butt" stroke-linejoin="miter">
</g>
<g fill="none" color="black" stroke="currentColor" stroke-width="1.00" stroke-linecap="butt" stroke-linejoin="miter">
	<path stroke='black'  d='M80.2,54.1 L80.2,662.4 L1013.6,662.4 L1013.6,54.1 L80.2,54.1 Z  '/></g>
<g fill="none" color="black" stroke="currentColor" stroke-width="1.00" stroke-linecap="butt" stroke-linejoin="miter">
</g>
</g>
</svg>

