<?xml version="1.0" encoding="utf-8"  standalone="no"?>
<svg 
 viewBox="0 0 1280 720"
 xmlns="http://www.w3.org/2000/svg"
 xmlns:xlink="http://www.w3.org/1999/xlink"
>

<title>Gnuplot</title>
<desc>Produced by GNUPLOT 5.2 patchlevel 6 </desc>

<g id="gnuplot_canvas">

<rect x="0" y="0" width="1280" height="720" fill="none"/>
<defs>

	<circle id='gpDot' r='0.5' stroke-width='0.5' stroke='currentColor'/>
	<path id='gpPt0' stroke-width='0.222' stroke='currentColor' d='M-1,0 h2 M0,-1 v2'/>
	<path id='gpPt1' stroke-width='0.222' stroke='currentColor' d='M-1,-1 L1,1 M1,-1 L-1,1'/>
	<path id='gpPt2' stroke-width='0.222' stroke='currentColor' d='M-1,0 L1,0 M0,-1 L0,1 M-1,-1 L1,1 M-1,1 L1,-1'/>
	<rect id='gpPt3' stroke-width='0.222' stroke='currentColor' x='-1' y='-1' width='2' height='2'/>
	<rect id='gpPt4' stroke-width='0.222' stroke='currentColor' fill='currentColor' x='-1' y='-1' width='2' height='2'/>
	<circle id='gpPt5' stroke-width='0.222' stroke='currentColor' cx='0' cy='0' r='1'/>
	<use xlink:href='#gpPt5' id='gpPt6' fill='currentColor' stroke='none'/>
	<path id='gpPt7' stroke-width='0.222' stroke='currentColor' d='M0,-1.33 L-1.33,0.67 L1.33,0.67 z'/>
	<use xlink:href='#gpPt7' id='gpPt8' fill='currentColor' stroke='none'/>
	<use xlink:href='#gpPt7' id='gpPt9' stroke='currentColor' transform='rotate(180)'/>
	<use xlink:href='#gpPt9' id='gpPt10' fill='currentColor' stroke='none'/>
	<use xlink:href='#gpPt3' id='gpPt11' stroke='currentColor' transform='rotate(45)'/>
	<use xlink:href='#gpPt11' id='gpPt12' fill='currentColor' stroke='none'/>
	<path id='gpPt13' stroke-width='0.222' stroke='currentColor' d='M0,1.330 L1.265,0.411 L0.782,-1.067 L-0.782,-1.076 L-1.265,0.411 z'/>
	<use xlink:href='#gpPt13' id='gpPt14' fill='currentColor' stroke='none'/>
	<filter id='textbox' filterUnits='objectBoundingBox' x='0' y='0' height='1' width='1'>
	  <feFlood flood-color='white' flood-opacity='1' result='bgnd'/>
	  <feComposite in='SourceGraphic' in2='bgnd' operator='atop'/>
	</filter>
	<filter id='greybox' filterUnits='objectBoundingBox' x='0' y='0' height='1' width='1'>
	  <feFlood flood-color='lightgrey' flood-opacity='1' result='grey'/>
	  <feComposite in='SourceGraphic' in2='grey' operator='atop'/>
	</filter>
</defs>
<g fill="none" color="white" stroke="currentColor" stroke-width="1.00" stroke-linecap="butt" stroke-linejoin="miter">
</g>
<g fill="none" color="black" stroke="currentColor" stroke-width="1.00" stroke-linecap="butt" stroke-linejoin="miter">
	<path stroke='black'  d='M71.9,662.4 L80.9,662.4  '/>	<g transform="translate(63.6,666.3)" stroke="none" fill="black" font-family="Helvetica" font-size="12.00"  text-anchor="end">
		<text><tspan font-family="Helvetica" > 0</tspan></text>
	</g>
</g>
<g fill="none" color="black" stroke="currentColor" stroke-width="1.00" stroke-linecap="butt" stroke-linejoin="miter">
	<path stroke='black'  d='M71.9,575.5 L80.9,575.5  '/>	<g transform="translate(63.6,579.4)" stroke="none" fill="black" font-family="Helvetica" font-size="12.00"  text-anchor="end">
		<text><tspan font-family="Helvetica" > 0.2</tspan></text>
	</g>
</g>
<g fill="none" color="black" stroke="currentColor" stroke-width="1.00" stroke-linecap="butt" stroke-linejoin="miter">
	<path stroke='black'  d='M71.9,488.6 L80.9,488.6  '/>	<g transform="translate(63.6,492.5)" stroke="none" fill="black" font-family="Helvetica" font-size="12.00"  text-anchor="end">
		<text><tspan font-family="Helvetica" > 0.4</tspan></text>
	</g>
</g>
<g fill="none" color="black" stroke="currentColor" stroke-width="1.00" stroke-linecap="butt" stroke-linejoin="miter">
	<path stroke='black'  d='M71.9,401.7 L80.9,401.7  '/>	<g transform="translate(63.6,405.6)" stroke="none" fill="black" font-family="Helvetica" font-size="12.00"  text-anchor="end">
		<text><tspan font-family="Helvetica" > 0.6</tspan></text>
	</g>
</g>
<g fill="none" color="black" stroke="currentColor" stroke-width="1.00" stroke-linecap="butt" stroke-linejoin="miter">
	<path stroke='black'  d='M71.9,314.8 L80.9,314.8  '/>	<g transform="translate(63.6,318.7)" stroke="none" fill="black" font-family="Helvetica" font-size="12.00"  text-anchor="end">
		<text><tspan font-family="Helvetica" > 0.8</tspan></text>
	</g>
</g>
<g fill="none" color="black" stroke="currentColor" stroke-width="1.00" stroke-linecap="butt" stroke-linejoin="miter">
	<path stroke='black'  d='M71.9,227.9 L80.9,227.9  '/>	<g transform="translate(63.6,231.8)" stroke="none" fill="black" font-family="Helvetica" font-size="12.00"  text-anchor="end">
		<text><tspan font-family="Helvetica" > 1</tspan></text>
	</g>
</g>
<g fill="none" color="black" stroke="currentColor" stroke-width="1.00" stroke-linecap="butt" stroke-linejoin="miter">
	<path stroke='black'  d='M71.9,141.0 L80.9,141.0  '/>	<g transform="translate(63.6,144.9)" stroke="none" fill="black" font-family="Helvetica" font-size="12.00"  text-anchor="end">
		<text><tspan font-family="Helvetica" > 1.2</tspan></text>
	</g>
</g>
<g fill="none" color="black" stroke="currentColor" stroke-width="1.00" stroke-linecap="butt" stroke-linejoin="miter">
	<path stroke='black'  d='M71.9,54.1 L80.9,54.1  '/>	<g transform="translate(63.6,58.0)" stroke="none" fill="black" font-family="Helvetica" font-size="12.00"  text-anchor="end">
		<text><tspan font-family="Helvetica" > 1.4</tspan></text>
	</g>
</g>
<g fill="none" color="black" stroke="currentColor" stroke-width="1.00" stroke-linecap="butt" stroke-linejoin="miter">
	<path stroke='black'  d='M98.4,662.4 L98.4,653.4  '/>	<g transform="translate(98.4,684.3)" stroke="none" fill="black" font-family="Helvetica" font-size="12.00"  text-anchor="middle">
		<text><tspan font-family="Helvetica" > 213.8</tspan></text>
	</g>
</g>
<g fill="none" color="black" stroke="currentColor" stroke-width="1.00" stroke-linecap="butt" stroke-linejoin="miter">
	<path stroke='black'  d='M216.1,662.4 L216.1,653.4  '/>	<g transform="translate(216.1,684.3)" stroke="none" fill="black" font-family="Helvetica" font-size="12.00"  text-anchor="middle">
		<text><tspan font-family="Helvetica" > 214</tspan></text>
	</g>
</g>
<g fill="none" color="black" stroke="currentColor" stroke-width="1.00" stroke-linecap="butt" stroke-linejoin="miter">
	<path stroke='black'  d='M333.8,662.4 L333.8,653.4  '/>	<g transform="translate(333.8,684.3)" stroke="none" fill="black" font-family="Helvetica" font-size="12.00"  text-anchor="middle">
		<text><tspan font-family="Helvetica" > 214.2</tspan></text>
	</g>
</g>
<g fill="none" color="black" stroke="currentColor" stroke-width="1.00" stroke-linecap="butt" stroke-linejoin="miter">
	<path stroke='black'  d='M451.5,662.4 L451.5,653.4  '/>	<g transform="translate(451.5,684.3)" stroke="none" fill="black" font-family="Helvetica" font-size="12.00"  text-anchor="middle">
		<text><tspan font-family="Helvetica" > 214.4</tspan></text>
	</g>
</g>
<g fill="none" color="black" stroke="currentColor" stroke-width="1.00" stroke-linecap="butt" stroke-linejoin="miter">
	<path stroke='black'  d='M569.3,662.4 L569.3,653.4  '/>	<g transform="translate(569.3,684.3)" stroke="none" fill="black" font-family="Helvetica" font-size="12.00"  text-anchor="middle">
		<text><tspan font-family="Helvetica" > 214.6</tspan></text>
	</g>
</g>
<g fill="none" color="black" stroke="currentColor" stroke-width="1.00" stroke-linecap="butt" stroke-linejoin="miter">
	<path stroke='black'  d='M687.0,662.4 L687.0,653.4  '/>	<g transform="translate(687.0,684.3)" stroke="none" fill="black" font-family="Helvetica" font-size="12.00"  text-anchor="middle">
		<text><tspan font-family="Helvetica" > 214.8</tspan></text>
	</g>
</g>
<g fill="none" color="black" stroke="currentColor" stroke-width="1.00" stroke-linecap="butt" stroke-linejoin="miter">
	<path stroke='black'  d='M804.7,662.4 L804.7,653.4  '/>	<g transform="translate(804.7,684.3)" stroke="none" fill="black" font-family="Helvetica" font-size="12.00"  text-anchor="middle">
		<text><tspan font-family="Helvetica" > 215</tspan></text>
	</g>
</g>
<g fill="none" color="black" stroke="currentColor" stroke-width="1.00" stroke-linecap="butt" stroke-linejoin="miter">
	<path stroke='black'  d='M922.4,662.4 L922.4,653.4  '/>	<g transform="translate(922.4,684.3)" stroke="none" fill="black" font-family="Helvetica" font-size="12.00"  text-anchor="middle">
		<text><tspan font-family="Helvetica" > 215.2</tspan></text>
	</g>
</g>
<g fill="none" color="black" stroke="currentColor" stroke-width="1.00" stroke-linecap="butt" stroke-linejoin="miter">
</g>
<g fill="none" color="black" stroke="currentColor" stroke-width="1.00" stroke-linecap="butt" stroke-linejoin="miter">
	<path stroke='black'  d='M71.9,54.1 L71.9,662.4 L1013.6,662.4 L1013.6,54.1 L71.9,54.1 Z  '/></g>
<g fill="none" color="black" stroke="currentColor" stroke-width="1.00" stroke-linecap="butt" stroke-linejoin="miter">
	<g transform="translate(16.3,358.3) rotate(270)" stroke="none" fill="black" font-family="Helvetica" font-size="12.00"  text-anchor="middle">
		<text><tspan font-family="Helvetica" >Density (a.u.)</tspan></text>
	</g>
</g>
<g fill="none" color="black" stroke="currentColor" stroke-width="1.00" stroke-linecap="butt" stroke-linejoin="miter">
	<g transform="translate(542.7,711.3)" stroke="none" fill="black" font-family="Helvetica" font-size="12.00"  text-anchor="middle">
		<text><tspan font-family="Helvetica" >Average time (us)</tspan></text>
	</g>
</g>
<g fill="none" color="black" stroke="currentColor" stroke-width="1.00" stroke-linecap="butt" stroke-linejoin="miter">
	<g transform="translate(542.7,31.0)" stroke="none" fill="black" font-family="Helvetica" font-size="12.00"  text-anchor="middle">
		<text><tspan font-family="Helvetica" >snapshot_restore_with_dense/Sparse: Entire region + /proc/pid/mem/22: slope</tspan></text>
	</g>
</g>
	<g id="gnuplot_plot_1" ><title>Bootstrap distribution</title>
<g fill="none" color="white" stroke="black" stroke-width="2.00" stroke-linecap="butt" stroke-linejoin="miter">
</g>
<g fill="none" color="black" stroke="currentColor" stroke-width="2.00" stroke-linecap="butt" stroke-linejoin="miter">
	<g transform="translate(1089.0,67.0)" stroke="none" fill="black" font-family="Helvetica" font-size="12.00"  text-anchor="start">
		<text><tspan font-family="Helvetica" >Bootstrap distribution</tspan></text>
	</g>
</g>
<g fill="none" color="black" stroke="currentColor" stroke-width="2.00" stroke-linecap="butt" stroke-linejoin="miter">
	<path stroke='rgb( 31, 120, 180)'  d='M1038.5,63.1 L1080.7,63.1 M71.9,634.0 L73.8,633.0 L75.7,632.1 L77.6,631.1 L79.4,630.0 L81.3,629.0
		L83.2,627.9 L85.1,626.8 L87.0,625.7 L88.9,624.6 L90.8,623.4 L92.7,622.2 L94.5,621.0 L96.4,619.8
		L98.3,618.5 L100.2,617.2 L102.1,615.8 L104.0,614.4 L105.9,613.0 L107.8,611.5 L109.6,609.9 L111.5,608.4
		L113.4,606.7 L115.3,605.0 L117.2,603.3 L119.1,601.5 L121.0,599.7 L122.9,597.8 L124.7,595.8 L126.6,593.9
		L128.5,591.8 L130.4,589.8 L132.3,587.7 L134.2,585.5 L136.1,583.4 L138.0,581.2 L139.8,578.9 L141.7,576.7
		L143.6,574.4 L145.5,572.1 L147.4,569.8 L149.3,567.5 L151.2,565.2 L153.0,562.8 L154.9,560.5 L156.8,558.1
		L158.7,555.7 L160.6,553.4 L162.5,551.0 L164.4,548.6 L166.3,546.2 L168.1,543.8 L170.0,541.4 L171.9,539.0
		L173.8,536.5 L175.7,534.1 L177.6,531.7 L179.5,529.3 L181.4,526.9 L183.2,524.4 L185.1,522.0 L187.0,519.6
		L188.9,517.1 L190.8,514.7 L192.7,512.2 L194.6,509.7 L196.5,507.3 L198.3,504.7 L200.2,502.2 L202.1,499.6
		L204.0,497.0 L205.9,494.3 L207.8,491.6 L209.7,488.8 L211.6,486.0 L213.4,483.2 L215.3,480.2 L217.2,477.2
		L219.1,474.2 L221.0,471.0 L222.9,467.9 L224.8,464.7 L226.6,461.4 L228.5,458.1 L230.4,454.7 L232.3,451.3
		L234.2,447.9 L236.1,444.5 L238.0,441.0 L239.9,437.6 L241.7,434.1 L243.6,430.7 L245.5,427.3 L247.4,423.9
		L249.3,420.5 L251.2,417.1 L253.1,413.8 L255.0,410.5 L256.8,407.2 L258.7,403.9 L260.6,400.7 L262.5,397.5
		L264.4,394.3 L266.3,391.1 L268.2,388.0 L270.1,384.8 L271.9,381.7 L273.8,378.5 L275.7,375.4 L277.6,372.3
		L279.5,369.1 L281.4,366.0 L283.3,362.8 L285.2,359.6 L287.0,356.4 L288.9,353.2 L290.8,350.0 L292.7,346.7
		L294.6,343.4 L296.5,340.1 L298.4,336.8 L300.2,333.4 L302.1,330.0 L304.0,326.5 L305.9,323.0 L307.8,319.5
		L309.7,316.0 L311.6,312.4 L313.5,308.7 L315.3,305.1 L317.2,301.4 L319.1,297.6 L321.0,293.9 L322.9,290.1
		L324.8,286.3 L326.7,282.5 L328.6,278.6 L330.4,274.8 L332.3,271.0 L334.2,267.2 L336.1,263.4 L338.0,259.7
		L339.9,256.0 L341.8,252.4 L343.7,248.8 L345.5,245.4 L347.4,241.9 L349.3,238.6 L351.2,235.4 L353.1,232.3
		L355.0,229.2 L356.9,226.3 L358.8,223.5 L360.6,220.7 L362.5,218.1 L364.4,215.5 L366.3,213.1 L368.2,210.6
		L370.1,208.3 L372.0,206.0 L373.8,203.7 L375.7,201.5 L377.6,199.3 L379.5,197.2 L381.4,195.0 L383.3,192.9
		L385.2,190.7 L387.1,188.6 L388.9,186.5 L390.8,184.4 L392.7,182.3 L394.6,180.2 L396.5,178.1 L398.4,176.1
		L400.3,174.1 L402.2,172.1 L404.0,170.1 L405.9,168.2 L407.8,166.4 L409.7,164.6 L411.6,162.9 L413.5,161.3
		L415.4,159.7 L417.3,158.2 L419.1,156.7 L421.0,155.3 L422.9,154.0 L424.8,152.7 L426.7,151.5 L428.6,150.3
		L430.5,149.2 L432.4,148.1 L434.2,147.0 L436.1,146.0 L438.0,145.0 L439.9,144.1 L441.8,143.1 L443.7,142.3
		L445.6,141.4 L447.4,140.6 L449.3,139.8 L451.2,139.1 L453.1,138.4 L455.0,137.8 L456.9,137.3 L458.8,136.8
		L460.7,136.4 L462.5,136.1 L464.4,135.8 L466.3,135.7 L468.2,135.6 L470.1,135.6 L472.0,135.8 L473.9,136.0
		L475.8,136.3 L477.6,136.7 L479.5,137.2 L481.4,137.7 L483.3,138.4 L485.2,139.1 L487.1,139.8 L489.0,140.7
		L490.9,141.5 L492.7,142.5 L494.6,143.4 L496.5,144.4 L498.4,145.4 L500.3,146.4 L502.2,147.5 L504.1,148.5
		L506.0,149.6 L507.8,150.7 L509.7,151.8 L511.6,152.9 L513.5,154.1 L515.4,155.2 L517.3,156.4 L519.2,157.7
		L521.0,158.9 L522.9,160.3 L524.8,161.6 L526.7,163.1 L528.6,164.6 L530.5,166.1 L532.4,167.7 L534.3,169.4
		L536.1,171.1 L538.0,172.9 L539.9,174.7 L541.8,176.6 L543.7,178.5 L545.6,180.4 L547.5,182.4 L549.4,184.4
		L551.2,186.4 L553.1,188.4 L555.0,190.4 L556.9,192.4 L558.8,194.4 L560.7,196.4 L562.6,198.4 L564.5,200.3
		L566.3,202.3 L568.2,204.2 L570.1,206.1 L572.0,208.0 L573.9,209.9 L575.8,211.7 L577.7,213.5 L579.5,215.3
		L581.4,217.1 L583.3,218.9 L585.2,220.7 L587.1,222.5 L589.0,224.3 L590.9,226.0 L592.8,227.8 L594.6,229.7
		L596.5,231.5 L598.4,233.4 L600.3,235.3 L602.2,237.2 L604.1,239.2 L606.0,241.3 L607.9,243.4 L609.7,245.6
		L611.6,247.9 L613.5,250.2 L615.4,252.6 L617.3,255.1 L619.2,257.7 L621.1,260.3 L623.0,263.0 L624.8,265.8
		L626.7,268.6 L628.6,271.5 L630.5,274.4 L632.4,277.3 L634.3,280.3 L636.2,283.2 L638.1,286.2 L639.9,289.1
		L641.8,292.1 L643.7,295.0 L645.6,297.8 L647.5,300.7 L649.4,303.5 L651.3,306.3 L653.1,309.0 L655.0,311.7
		L656.9,314.4 L658.8,317.1 L660.7,319.8 L662.6,322.4 L664.5,325.0 L666.4,327.7 L668.2,330.3 L670.1,332.9
		L672.0,335.6 L673.9,338.2 L675.8,340.8 L677.7,343.5 L679.6,346.1 L681.5,348.7 L683.3,351.3 L685.2,353.9
		L687.1,356.5 L689.0,359.0 L690.9,361.6 L692.8,364.1 L694.7,366.6 L696.6,369.0 L698.4,371.4 L700.3,373.8
		L702.2,376.2 L704.1,378.6 L706.0,380.9 L707.9,383.3 L709.8,385.6 L711.7,387.9 L713.5,390.3 L715.4,392.6
		L717.3,395.0 L719.2,397.3 L721.1,399.7 L723.0,402.2 L724.9,404.6 L726.7,407.1 L728.6,409.6 L730.5,412.1
		L732.4,414.6 L734.3,417.2 L736.2,419.8 L738.1,422.4 L740.0,425.0 L741.8,427.6 L743.7,430.2 L745.6,432.9
		L747.5,435.5 L749.4,438.1 L751.3,440.8 L753.2,443.4 L755.1,446.0 L756.9,448.6 L758.8,451.1 L760.7,453.7
		L762.6,456.2 L764.5,458.7 L766.4,461.2 L768.3,463.7 L770.2,466.1 L772.0,468.5 L773.9,470.9 L775.8,473.3
		L777.7,475.6 L779.6,477.9 L781.5,480.2 L783.4,482.5 L785.3,484.7 L787.1,486.9 L789.0,489.1 L790.9,491.2
		L792.8,493.4 L794.7,495.4 L796.6,497.5 L798.5,499.5 L800.3,501.6 L802.2,503.6 L804.1,505.5 L806.0,507.5
		L807.9,509.5 L809.8,511.4 L811.7,513.4 L813.6,515.3 L815.4,517.3 L817.3,519.3 L819.2,521.2 L821.1,523.2
		L823.0,525.1 L824.9,527.1 L826.8,529.1 L828.7,531.0 L830.5,532.9 L832.4,534.9 L834.3,536.8 L836.2,538.6
		L838.1,540.5 L840.0,542.3 L841.9,544.0 L843.8,545.7 L845.6,547.4 L847.5,549.0 L849.4,550.6 L851.3,552.1
		L853.2,553.6 L855.1,555.1 L857.0,556.5 L858.9,557.8 L860.7,559.2 L862.6,560.5 L864.5,561.8 L866.4,563.0
		L868.3,564.3 L870.2,565.5 L872.1,566.8 L873.9,568.0 L875.8,569.2 L877.7,570.4 L879.6,571.6 L881.5,572.8
		L883.4,574.0 L885.3,575.1 L887.2,576.3 L889.0,577.5 L890.9,578.6 L892.8,579.8 L894.7,580.9 L896.6,582.0
		L898.5,583.1 L900.4,584.2 L902.3,585.2 L904.1,586.3 L906.0,587.3 L907.9,588.4 L909.8,589.4 L911.7,590.4
		L913.6,591.4 L915.5,592.4 L917.4,593.4 L919.2,594.4 L921.1,595.4 L923.0,596.4 L924.9,597.4 L926.8,598.5
		L928.7,599.5 L930.6,600.5 L932.5,601.5 L934.3,602.6 L936.2,603.6 L938.1,604.7 L940.0,605.7 L941.9,606.7
		L943.8,607.8 L945.7,608.8 L947.5,609.8 L949.4,610.8 L951.3,611.7 L953.2,612.7 L955.1,613.6 L957.0,614.5
		L958.9,615.3 L960.8,616.2 L962.6,616.9 L964.5,617.7 L966.4,618.5 L968.3,619.2 L970.2,619.9 L972.1,620.5
		L974.0,621.2 L975.9,621.8 L977.7,622.4 L979.6,623.0 L981.5,623.6 L983.4,624.2 L985.3,624.8 L987.2,625.4
		L989.1,625.9 L991.0,626.5 L992.8,627.1 L994.7,627.7 L996.6,628.3 L998.5,628.9 L1000.4,629.6 L1002.3,630.2
		L1004.2,630.8 L1006.1,631.4 L1007.9,632.0 L1009.8,632.7 L1011.7,633.3 L1013.6,633.9  '/></g>
	</g>
	<g id="gnuplot_plot_2" ><title>Confidence interval</title>
<g fill="none" color="white" stroke="rgb( 31, 120, 180)" stroke-width="1.00" stroke-linecap="butt" stroke-linejoin="miter">
</g>
<g fill="none" color="black" stroke="currentColor" stroke-width="1.00" stroke-linecap="butt" stroke-linejoin="miter">
	<g transform="translate(1089.0,85.0)" stroke="none" fill="black" font-family="Helvetica" font-size="12.00"  text-anchor="start">
		<text><tspan font-family="Helvetica" >Confidence interval</tspan></text>
	</g>
</g>
<g fill="none" color="black" stroke="currentColor" stroke-width="1.00" stroke-linecap="butt" stroke-linejoin="miter">
	<g stroke='none' shape-rendering='crispEdges'>
		<polygon fill = 'rgb( 31, 120, 180)' fill-opacity = '0.250000' points = '1038.5,85.6 1080.7,85.6 1080.7,76.6 1038.5,76.6 '/>
		<polygon fill = 'rgb( 31, 120, 180)' fill-opacity = '0.250000' points = '158.7,555.7 160.6,553.4 162.5,551.0 164.4,548.6 166.3,546.2 168.1,543.8 170.0,541.4 171.9,539.0 173.8,536.5 175.7,534.1 177.6,531.7 179.5,529.3 181.4,526.9 183.2,524.4 185.1,522.0 187.0,519.6
188.9,517.1 190.8,514.7 192.7,512.2 194.6,509.7 196.5,507.3 198.3,504.7 200.2,502.2 202.1,499.6 204.0,497.0 205.9,494.3 207.8,491.6 209.7,488.8 211.6,486.0 213.4,483.2 215.3,480.2 217.2,477.2
219.1,474.2 221.0,471.0 222.9,467.9 224.8,464.7 226.6,461.4 228.5,458.1 230.4,454.7 232.3,451.3 234.2,447.9 236.1,444.5 238.0,441.0 239.9,437.6 241.7,434.1 243.6,430.7 245.5,427.3 247.4,423.9
249.3,420.5 251.2,417.1 253.1,413.8 255.0,410.5 256.8,407.2 258.7,403.9 260.6,400.7 262.5,397.5 264.4,394.3 266.3,391.1 268.2,388.0 270.1,384.8 271.9,381.7 273.8,378.5 275.7,375.4 277.6,372.3
279.5,369.1 281.4,366.0 283.3,362.8 285.2,359.6 287.0,356.4 288.9,353.2 290.8,350.0 292.7,346.7 294.6,343.4 296.5,340.1 298.4,336.8 300.2,333.4 302.1,330.0 304.0,326.5 305.9,323.0 307.8,319.5
309.7,316.0 311.6,312.4 313.5,308.7 315.3,305.1 317.2,301.4 319.1,297.6 321.0,293.9 322.9,290.1 324.8,286.3 326.7,282.5 328.6,278.6 330.4,274.8 332.3,271.0 334.2,267.2 336.1,263.4 338.0,259.7
339.9,256.0 341.8,252.4 343.7,248.8 345.5,245.4 347.4,241.9 349.3,238.6 351.2,235.4 353.1,232.3 355.0,229.2 356.9,226.3 358.8,223.5 360.6,220.7 362.5,218.1 364.4,215.5 366.3,213.1 368.2,210.6
370.1,208.3 372.0,206.0 373.8,203.7 375.7,201.5 377.6,199.3 379.5,197.2 381.4,195.0 383.3,192.9 385.2,190.7 387.1,188.6 388.9,186.5 390.8,184.4 392.7,182.3 394.6,180.2 396.5,178.1 398.4,176.1
400.3,174.1 402.2,172.1 404.0,170.1 405.9,168.2 407.8,166.4 409.7,164.6 411.6,162.9 413.5,161.3 415.4,159.7 417.3,158.2 419.1,156.7 421.0,155.3 422.9,154.0 424.8,152.7 426.7,151.5 428.6,150.3
430.5,149.2 432.4,148.1 434.2,147.0 436.1,146.0 438.0,145.0 439.9,144.1 441.8,143.1 443.7,142.3 445.6,141.4 447.4,140.6 449.3,139.8 451.2,139.1 453.1,138.4 455.0,137.8 456.9,137.3 458.8,136.8
460.7,136.4 462.5,136.1 464.4,135.8 466.3,135.7 468.2,135.6 470.1,135.6 472.0,135.8 473.9,136.0 475.8,136.3 477.6,136.7 479.5,137.2 481.4,137.7 483.3,138.4 485.2,139.1 487.1,139.8 489.0,140.7
490.9,141.5 492.7,142.5 494.6,143.4 496.5,144.4 498.4,145.4 500.3,146.4 502.2,147.5 504.1,148.5 506.0,149.6 507.8,150.7 509.7,151.8 511.6,152.9 513.5,154.1 515.4,155.2 517.3,156.4 519.2,157.7
521.0,158.9 522.9,160.3 524.8,161.6 526.7,163.1 528.6,164.6 530.5,166.1 532.4,167.7 534.3,169.4 536.1,171.1 538.0,172.9 539.9,174.7 541.8,176.6 543.7,178.5 545.6,180.4 547.5,182.4 549.4,184.4
551.2,186.4 553.1,188.4 555.0,190.4 556.9,192.4 558.8,194.4 560.7,196.4 562.6,198.4 564.5,200.3 566.3,202.3 568.2,204.2 570.1,206.1 572.0,208.0 573.9,209.9 575.8,211.7 577.7,213.5 579.5,215.3
581.4,217.1 583.3,218.9 585.2,220.7 587.1,222.5 589.0,224.3 590.9,226.0 592.8,227.8 594.6,229.7 596.5,231.5 598.4,233.4 600.3,235.3 602.2,237.2 604.1,239.2 606.0,241.3 607.9,243.4 609.7,245.6
611.6,247.9 613.5,250.2 615.4,252.6 617.3,255.1 619.2,257.7 621.1,260.3 623.0,263.0 624.8,265.8 626.7,268.6 628.6,271.5 630.5,274.4 632.4,277.3 634.3,280.3 636.2,283.2 638.1,286.2 639.9,289.1
641.8,292.1 643.7,295.0 645.6,297.8 647.5,300.7 649.4,303.5 651.3,306.3 653.1,309.0 655.0,311.7 656.9,314.4 658.8,317.1 660.7,319.8 662.6,322.4 664.5,325.0 666.4,327.7 668.2,330.3 670.1,332.9
672.0,335.6 673.9,338.2 675.8,340.8 677.7,343.5 679.6,346.1 681.5,348.7 683.3,351.3 685.2,353.9 687.1,356.5 689.0,359.0 690.9,361.6 692.8,364.1 694.7,366.6 696.6,369.0 698.4,371.4 700.3,373.8
702.2,376.2 704.1,378.6 706.0,380.9 707.9,383.3 709.8,385.6 711.7,387.9 713.5,390.3 715.4,392.6 717.3,395.0 719.2,397.3 721.1,399.7 723.0,402.2 724.9,404.6 726.7,407.1 728.6,409.6 730.5,412.1
732.4,414.6 734.3,417.2 736.2,419.8 738.1,422.4 740.0,425.0 741.8,427.6 743.7,430.2 745.6,432.9 747.5,435.5 749.4,438.1 751.3,440.8 753.2,443.4 755.1,446.0 756.9,448.6 758.8,451.1 760.7,453.7
762.6,456.2 764.5,458.7 766.4,461.2 768.3,463.7 770.2,466.1 772.0,468.5 773.9,470.9 775.8,473.3 777.7,475.6 779.6,477.9 781.5,480.2 783.4,482.5 785.3,484.7 787.1,486.9 789.0,489.1 790.9,491.2
792.8,493.4 794.7,495.4 796.6,497.5 798.5,499.5 800.3,501.6 802.2,503.6 804.1,505.5 806.0,507.5 807.9,509.5 809.8,511.4 811.7,513.4 813.6,515.3 815.4,517.3 817.3,519.3 819.2,521.2 821.1,523.2
823.0,525.1 824.9,527.1 826.8,529.1 828.7,531.0 830.5,532.9 832.4,534.9 834.3,536.8 836.2,538.6 838.1,540.5 840.0,542.3 841.9,544.0 843.8,545.7 845.6,547.4 847.5,549.0 849.4,550.6 851.3,552.1
853.2,553.6 855.1,555.1 857.0,556.5 858.9,557.8 860.7,559.2 862.6,560.5 864.5,561.8 866.4,563.0 868.3,564.3 870.2,565.5 872.1,566.8 873.9,568.0 875.8,569.2 877.7,570.4 879.6,571.6 881.5,572.8
883.4,574.0 885.3,575.1 887.2,576.3 889.0,577.5 890.9,578.6 892.8,579.8 894.7,580.9 896.6,582.0 898.5,583.1 900.4,584.2 902.3,585.2 904.1,586.3 906.0,587.3 907.9,588.4 909.8,589.4 911.7,590.4
913.6,591.4 915.5,592.4 917.4,593.4 919.2,594.4 921.1,595.4 923.0,596.4 924.9,597.4 924.9,662.4 923.0,662.4 921.1,662.4 919.2,662.4 917.4,662.4 915.5,662.4 913.6,662.4 911.7,662.4 909.8,662.4
907.9,662.4 906.0,662.4 904.1,662.4 902.3,662.4 900.4,662.4 898.5,662.4 896.6,662.4 894.7,662.4 892.8,662.4 890.9,662.4 889.0,662.4 887.2,662.4 885.3,662.4 883.4,662.4 881.5,662.4 879.6,662.4
877.7,662.4 875.8,662.4 873.9,662.4 872.1,662.4 870.2,662.4 868.3,662.4 866.4,662.4 864.5,662.4 862.6,662.4 860.7,662.4 858.9,662.4 857.0,662.4 855.1,662.4 853.2,662.4 851.3,662.4 849.4,662.4
847.5,662.4 845.6,662.4 843.8,662.4 841.9,662.4 840.0,662.4 838.1,662.4 836.2,662.4 834.3,662.4 832.4,662.4 830.5,662.4 828.7,662.4 826.8,662.4 824.9,662.4 823.0,662.4 821.1,662.4 819.2,662.4
817.3,662.4 815.4,662.4 813.6,662.4 811.7,662.4 809.8,662.4 807.9,662.4 806.0,662.4 804.1,662.4 802.2,662.4 800.3,662.4 798.5,662.4 796.6,662.4 794.7,662.4 792.8,662.4 790.9,662.4 789.0,662.4
787.1,662.4 785.3,662.4 783.4,662.4 781.5,662.4 779.6,662.4 777.7,662.4 775.8,662.4 773.9,662.4 772.0,662.4 770.2,662.4 768.3,662.4 766.4,662.4 764.5,662.4 762.6,662.4 760.7,662.4 758.8,662.4
756.9,662.4 755.1,662.4 753.2,662.4 751.3,662.4 749.4,662.4 747.5,662.4 745.6,662.4 743.7,662.4 741.8,662.4 740.0,662.4 738.1,662.4 736.2,662.4 734.3,662.4 732.4,662.4 730.5,662.4 728.6,662.4
726.7,662.4 724.9,662.4 723.0,662.4 721.1,662.4 719.2,662.4 717.3,662.4 715.4,662.4 713.5,662.4 711.7,662.4 709.8,662.4 707.9,662.4 706.0,662.4 704.1,662.4 702.2,662.4 700.3,662.4 698.4,662.4
696.6,662.4 694.7,662.4 692.8,662.4 690.9,662.4 689.0,662.4 687.1,662.4 685.2,662.4 683.3,662.4 681.5,662.4 679.6,662.4 677.7,662.4 675.8,662.4 673.9,662.4 672.0,662.4 670.1,662.4 668.2,662.4
666.4,662.4 664.5,662.4 662.6,662.4 660.7,662.4 658.8,662.4 656.9,662.4 655.0,662.4 653.1,662.4 651.3,662.4 649.4,662.4 647.5,662.4 645.6,662.4 643.7,662.4 641.8,662.4 639.9,662.4 638.1,662.4
636.2,662.4 634.3,662.4 632.4,662.4 630.5,662.4 628.6,662.4 626.7,662.4 624.8,662.4 623.0,662.4 621.1,662.4 619.2,662.4 617.3,662.4 615.4,662.4 613.5,662.4 611.6,662.4 609.7,662.4 607.9,662.4
606.0,662.4 604.1,662.4 602.2,662.4 600.3,662.4 598.4,662.4 596.5,662.4 594.6,662.4 592.8,662.4 590.9,662.4 589.0,662.4 587.1,662.4 585.2,662.4 583.3,662.4 581.4,662.4 579.5,662.4 577.7,662.4
575.8,662.4 573.9,662.4 572.0,662.4 570.1,662.4 568.2,662.4 566.3,662.4 564.5,662.4 562.6,662.4 560.7,662.4 558.8,662.4 556.9,662.4 555.0,662.4 553.1,662.4 551.2,662.4 549.4,662.4 547.5,662.4
545.6,662.4 543.7,662.4 541.8,662.4 539.9,662.4 538.0,662.4 536.1,662.4 534.3,662.4 532.4,662.4 530.5,662.4 528.6,662.4 526.7,662.4 524.8,662.4 522.9,662.4 521.0,662.4 519.2,662.4 517.3,662.4
515.4,662.4 513.5,662.4 511.6,662.4 509.7,662.4 507.8,662.4 506.0,662.4 504.1,662.4 502.2,662.4 500.3,662.4 498.4,662.4 496.5,662.4 494.6,662.4 492.7,662.4 490.9,662.4 489.0,662.4 487.1,662.4
485.2,662.4 483.3,662.4 481.4,662.4 479.5,662.4 477.6,662.4 475.8,662.4 473.9,662.4 472.0,662.4 470.1,662.4 468.2,662.4 466.3,662.4 464.4,662.4 462.5,662.4 460.7,662.4 458.8,662.4 456.9,662.4
455.0,662.4 453.1,662.4 451.2,662.4 449.3,662.4 447.4,662.4 445.6,662.4 443.7,662.4 441.8,662.4 439.9,662.4 438.0,662.4 436.1,662.4 434.2,662.4 432.4,662.4 430.5,662.4 428.6,662.4 426.7,662.4
424.8,662.4 422.9,662.4 421.0,662.4 419.1,662.4 417.3,662.4 415.4,662.4 413.5,662.4 411.6,662.4 409.7,662.4 407.8,662.4 405.9,662.4 404.0,662.4 402.2,662.4 400.3,662.4 398.4,662.4 396.5,662.4
394.6,662.4 392.7,662.4 390.8,662.4 388.9,662.4 387.1,662.4 385.2,662.4 383.3,662.4 381.4,662.4 379.5,662.4 377.6,662.4 375.7,662.4 373.8,662.4 372.0,662.4 370.1,662.4 368.2,662.4 366.3,662.4
364.4,662.4 362.5,662.4 360.6,662.4 358.8,662.4 356.9,662.4 355.0,662.4 353.1,662.4 351.2,662.4 349.3,662.4 347.4,662.4 345.5,662.4 343.7,662.4 341.8,662.4 339.9,662.4 338.0,662.4 336.1,662.4
334.2,662.4 332.3,662.4 330.4,662.4 328.6,662.4 326.7,662.4 324.8,662.4 322.9,662.4 321.0,662.4 319.1,662.4 317.2,662.4 315.3,662.4 313.5,662.4 311.6,662.4 309.7,662.4 307.8,662.4 305.9,662.4
304.0,662.4 302.1,662.4 300.2,662.4 298.4,662.4 296.5,662.4 294.6,662.4 292.7,662.4 290.8,662.4 288.9,662.4 287.0,662.4 285.2,662.4 283.3,662.4 281.4,662.4 279.5,662.4 277.6,662.4 275.7,662.4
273.8,662.4 271.9,662.4 270.1,662.4 268.2,662.4 266.3,662.4 264.4,662.4 262.5,662.4 260.6,662.4 258.7,662.4 256.8,662.4 255.0,662.4 253.1,662.4 251.2,662.4 249.3,662.4 247.4,662.4 245.5,662.4
243.6,662.4 241.7,662.4 239.9,662.4 238.0,662.4 236.1,662.4 234.2,662.4 232.3,662.4 230.4,662.4 228.5,662.4 226.6,662.4 224.8,662.4 222.9,662.4 221.0,662.4 219.1,662.4 217.2,662.4 215.3,662.4
213.4,662.4 211.6,662.4 209.7,662.4 207.8,662.4 205.9,662.4 204.0,662.4 202.1,662.4 200.2,662.4 198.3,662.4 196.5,662.4 194.6,662.4 192.7,662.4 190.8,662.4 188.9,662.4 187.0,662.4 185.1,662.4
183.2,662.4 181.4,662.4 179.5,662.4 177.6,662.4 175.7,662.4 173.8,662.4 171.9,662.4 170.0,662.4 168.1,662.4 166.3,662.4 164.4,662.4 162.5,662.4 160.6,662.4 158.7,662.4 '/>
	</g>
</g>
	</g>
	<g id="gnuplot_plot_3" ><title>Point estimate</title>
<g fill="none" color="white" stroke="rgb( 31, 120, 180)" stroke-width="2.00" stroke-linecap="butt" stroke-linejoin="miter">
</g>
<g fill="none" color="black" stroke="currentColor" stroke-width="2.00" stroke-linecap="butt" stroke-linejoin="miter">
	<g transform="translate(1089.0,103.0)" stroke="none" fill="black" font-family="Helvetica" font-size="12.00"  text-anchor="start">
		<text><tspan font-family="Helvetica" >Point estimate</tspan></text>
	</g>
</g>
<g fill="none" color="black" stroke="currentColor" stroke-width="2.00" stroke-linecap="butt" stroke-linejoin="miter">
	<path stroke='rgb( 31, 120, 180)'  d='M1038.5,99.1 L1080.7,99.1 M510.3,662.4 L510.3,152.1  '/></g>
	</g>
<g fill="none" color="black" stroke="currentColor" stroke-width="2.00" stroke-linecap="butt" stroke-linejoin="miter">
</g>
<g fill="none" color="black" stroke="black" stroke-width="1.00" stroke-linecap="butt" stroke-linejoin="miter">
</g>
<g fill="none" color="black" stroke="currentColor" stroke-width="1.00" stroke-linecap="butt" stroke-linejoin="miter">
	<path stroke='black'  d='M71.9,54.1 L71.9,662.4 L1013.6,662.4 L1013.6,54.1 L71.9,54.1 Z  '/></g>
<g fill="none" color="black" stroke="currentColor" stroke-width="1.00" stroke-linecap="butt" stroke-linejoin="miter">
</g>
</g>
</svg>

