<?xml version="1.0" encoding="utf-8"  standalone="no"?>
<svg 
 viewBox="0 0 1280 720"
 xmlns="http://www.w3.org/2000/svg"
 xmlns:xlink="http://www.w3.org/1999/xlink"
>

<title>Gnuplot</title>
<desc>Produced by GNUPLOT 5.2 patchlevel 6 </desc>

<g id="gnuplot_canvas">

<rect x="0" y="0" width="1280" height="720" fill="none"/>
<defs>

	<circle id='gpDot' r='0.5' stroke-width='0.5' stroke='currentColor'/>
	<path id='gpPt0' stroke-width='0.222' stroke='currentColor' d='M-1,0 h2 M0,-1 v2'/>
	<path id='gpPt1' stroke-width='0.222' stroke='currentColor' d='M-1,-1 L1,1 M1,-1 L-1,1'/>
	<path id='gpPt2' stroke-width='0.222' stroke='currentColor' d='M-1,0 L1,0 M0,-1 L0,1 M-1,-1 L1,1 M-1,1 L1,-1'/>
	<rect id='gpPt3' stroke-width='0.222' stroke='currentColor' x='-1' y='-1' width='2' height='2'/>
	<rect id='gpPt4' stroke-width='0.222' stroke='currentColor' fill='currentColor' x='-1' y='-1' width='2' height='2'/>
	<circle id='gpPt5' stroke-width='0.222' stroke='currentColor' cx='0' cy='0' r='1'/>
	<use xlink:href='#gpPt5' id='gpPt6' fill='currentColor' stroke='none'/>
	<path id='gpPt7' stroke-width='0.222' stroke='currentColor' d='M0,-1.33 L-1.33,0.67 L1.33,0.67 z'/>
	<use xlink:href='#gpPt7' id='gpPt8' fill='currentColor' stroke='none'/>
	<use xlink:href='#gpPt7' id='gpPt9' stroke='currentColor' transform='rotate(180)'/>
	<use xlink:href='#gpPt9' id='gpPt10' fill='currentColor' stroke='none'/>
	<use xlink:href='#gpPt3' id='gpPt11' stroke='currentColor' transform='rotate(45)'/>
	<use xlink:href='#gpPt11' id='gpPt12' fill='currentColor' stroke='none'/>
	<path id='gpPt13' stroke-width='0.222' stroke='currentColor' d='M0,1.330 L1.265,0.411 L0.782,-1.067 L-0.782,-1.076 L-1.265,0.411 z'/>
	<use xlink:href='#gpPt13' id='gpPt14' fill='currentColor' stroke='none'/>
	<filter id='textbox' filterUnits='objectBoundingBox' x='0' y='0' height='1' width='1'>
	  <feFlood flood-color='white' flood-opacity='1' result='bgnd'/>
	  <feComposite in='SourceGraphic' in2='bgnd' operator='atop'/>
	</filter>
	<filter id='greybox' filterUnits='objectBoundingBox' x='0' y='0' height='1' width='1'>
	  <feFlood flood-color='lightgrey' flood-opacity='1' result='grey'/>
	  <feComposite in='SourceGraphic' in2='grey' operator='atop'/>
	</filter>
</defs>
<g fill="none" color="white" stroke="currentColor" stroke-width="1.00" stroke-linecap="butt" stroke-linejoin="miter">
</g>
<g fill="none" color="black" stroke="currentColor" stroke-width="1.00" stroke-linecap="butt" stroke-linejoin="miter">
	<path stroke='black'  d='M71.9,662.4 L80.9,662.4  '/>	<g transform="translate(63.6,666.3)" stroke="none" fill="black" font-family="Helvetica" font-size="12.00"  text-anchor="end">
		<text><tspan font-family="Helvetica" > 0</tspan></text>
	</g>
</g>
<g fill="none" color="black" stroke="currentColor" stroke-width="1.00" stroke-linecap="butt" stroke-linejoin="miter">
	<path stroke='black'  d='M71.9,594.8 L80.9,594.8  '/>	<g transform="translate(63.6,598.7)" stroke="none" fill="black" font-family="Helvetica" font-size="12.00"  text-anchor="end">
		<text><tspan font-family="Helvetica" > 0.2</tspan></text>
	</g>
</g>
<g fill="none" color="black" stroke="currentColor" stroke-width="1.00" stroke-linecap="butt" stroke-linejoin="miter">
	<path stroke='black'  d='M71.9,527.2 L80.9,527.2  '/>	<g transform="translate(63.6,531.1)" stroke="none" fill="black" font-family="Helvetica" font-size="12.00"  text-anchor="end">
		<text><tspan font-family="Helvetica" > 0.4</tspan></text>
	</g>
</g>
<g fill="none" color="black" stroke="currentColor" stroke-width="1.00" stroke-linecap="butt" stroke-linejoin="miter">
	<path stroke='black'  d='M71.9,459.6 L80.9,459.6  '/>	<g transform="translate(63.6,463.5)" stroke="none" fill="black" font-family="Helvetica" font-size="12.00"  text-anchor="end">
		<text><tspan font-family="Helvetica" > 0.6</tspan></text>
	</g>
</g>
<g fill="none" color="black" stroke="currentColor" stroke-width="1.00" stroke-linecap="butt" stroke-linejoin="miter">
	<path stroke='black'  d='M71.9,392.0 L80.9,392.0  '/>	<g transform="translate(63.6,395.9)" stroke="none" fill="black" font-family="Helvetica" font-size="12.00"  text-anchor="end">
		<text><tspan font-family="Helvetica" > 0.8</tspan></text>
	</g>
</g>
<g fill="none" color="black" stroke="currentColor" stroke-width="1.00" stroke-linecap="butt" stroke-linejoin="miter">
	<path stroke='black'  d='M71.9,324.5 L80.9,324.5  '/>	<g transform="translate(63.6,328.4)" stroke="none" fill="black" font-family="Helvetica" font-size="12.00"  text-anchor="end">
		<text><tspan font-family="Helvetica" > 1</tspan></text>
	</g>
</g>
<g fill="none" color="black" stroke="currentColor" stroke-width="1.00" stroke-linecap="butt" stroke-linejoin="miter">
	<path stroke='black'  d='M71.9,256.9 L80.9,256.9  '/>	<g transform="translate(63.6,260.8)" stroke="none" fill="black" font-family="Helvetica" font-size="12.00"  text-anchor="end">
		<text><tspan font-family="Helvetica" > 1.2</tspan></text>
	</g>
</g>
<g fill="none" color="black" stroke="currentColor" stroke-width="1.00" stroke-linecap="butt" stroke-linejoin="miter">
	<path stroke='black'  d='M71.9,189.3 L80.9,189.3  '/>	<g transform="translate(63.6,193.2)" stroke="none" fill="black" font-family="Helvetica" font-size="12.00"  text-anchor="end">
		<text><tspan font-family="Helvetica" > 1.4</tspan></text>
	</g>
</g>
<g fill="none" color="black" stroke="currentColor" stroke-width="1.00" stroke-linecap="butt" stroke-linejoin="miter">
	<path stroke='black'  d='M71.9,121.7 L80.9,121.7  '/>	<g transform="translate(63.6,125.6)" stroke="none" fill="black" font-family="Helvetica" font-size="12.00"  text-anchor="end">
		<text><tspan font-family="Helvetica" > 1.6</tspan></text>
	</g>
</g>
<g fill="none" color="black" stroke="currentColor" stroke-width="1.00" stroke-linecap="butt" stroke-linejoin="miter">
	<path stroke='black'  d='M71.9,54.1 L80.9,54.1  '/>	<g transform="translate(63.6,58.0)" stroke="none" fill="black" font-family="Helvetica" font-size="12.00"  text-anchor="end">
		<text><tspan font-family="Helvetica" > 1.8</tspan></text>
	</g>
</g>
<g fill="none" color="black" stroke="currentColor" stroke-width="1.00" stroke-linecap="butt" stroke-linejoin="miter">
	<path stroke='black'  d='M171.1,662.4 L171.1,653.4  '/>	<g transform="translate(171.1,684.3)" stroke="none" fill="black" font-family="Helvetica" font-size="12.00"  text-anchor="middle">
		<text><tspan font-family="Helvetica" > 0.4</tspan></text>
	</g>
</g>
<g fill="none" color="black" stroke="currentColor" stroke-width="1.00" stroke-linecap="butt" stroke-linejoin="miter">
	<path stroke='black'  d='M280.2,662.4 L280.2,653.4  '/>	<g transform="translate(280.2,684.3)" stroke="none" fill="black" font-family="Helvetica" font-size="12.00"  text-anchor="middle">
		<text><tspan font-family="Helvetica" > 0.6</tspan></text>
	</g>
</g>
<g fill="none" color="black" stroke="currentColor" stroke-width="1.00" stroke-linecap="butt" stroke-linejoin="miter">
	<path stroke='black'  d='M389.3,662.4 L389.3,653.4  '/>	<g transform="translate(389.3,684.3)" stroke="none" fill="black" font-family="Helvetica" font-size="12.00"  text-anchor="middle">
		<text><tspan font-family="Helvetica" > 0.8</tspan></text>
	</g>
</g>
<g fill="none" color="black" stroke="currentColor" stroke-width="1.00" stroke-linecap="butt" stroke-linejoin="miter">
	<path stroke='black'  d='M498.4,662.4 L498.4,653.4  '/>	<g transform="translate(498.4,684.3)" stroke="none" fill="black" font-family="Helvetica" font-size="12.00"  text-anchor="middle">
		<text><tspan font-family="Helvetica" > 1</tspan></text>
	</g>
</g>
<g fill="none" color="black" stroke="currentColor" stroke-width="1.00" stroke-linecap="butt" stroke-linejoin="miter">
	<path stroke='black'  d='M607.5,662.4 L607.5,653.4  '/>	<g transform="translate(607.5,684.3)" stroke="none" fill="black" font-family="Helvetica" font-size="12.00"  text-anchor="middle">
		<text><tspan font-family="Helvetica" > 1.2</tspan></text>
	</g>
</g>
<g fill="none" color="black" stroke="currentColor" stroke-width="1.00" stroke-linecap="butt" stroke-linejoin="miter">
	<path stroke='black'  d='M716.6,662.4 L716.6,653.4  '/>	<g transform="translate(716.6,684.3)" stroke="none" fill="black" font-family="Helvetica" font-size="12.00"  text-anchor="middle">
		<text><tspan font-family="Helvetica" > 1.4</tspan></text>
	</g>
</g>
<g fill="none" color="black" stroke="currentColor" stroke-width="1.00" stroke-linecap="butt" stroke-linejoin="miter">
	<path stroke='black'  d='M825.7,662.4 L825.7,653.4  '/>	<g transform="translate(825.7,684.3)" stroke="none" fill="black" font-family="Helvetica" font-size="12.00"  text-anchor="middle">
		<text><tspan font-family="Helvetica" > 1.6</tspan></text>
	</g>
</g>
<g fill="none" color="black" stroke="currentColor" stroke-width="1.00" stroke-linecap="butt" stroke-linejoin="miter">
	<path stroke='black'  d='M934.8,662.4 L934.8,653.4  '/>	<g transform="translate(934.8,684.3)" stroke="none" fill="black" font-family="Helvetica" font-size="12.00"  text-anchor="middle">
		<text><tspan font-family="Helvetica" > 1.8</tspan></text>
	</g>
</g>
<g fill="none" color="black" stroke="currentColor" stroke-width="1.00" stroke-linecap="butt" stroke-linejoin="miter">
</g>
<g fill="none" color="black" stroke="currentColor" stroke-width="1.00" stroke-linecap="butt" stroke-linejoin="miter">
	<path stroke='black'  d='M71.9,54.1 L71.9,662.4 L1013.6,662.4 L1013.6,54.1 L71.9,54.1 Z  '/></g>
<g fill="none" color="black" stroke="currentColor" stroke-width="1.00" stroke-linecap="butt" stroke-linejoin="miter">
	<g transform="translate(16.3,358.3) rotate(270)" stroke="none" fill="black" font-family="Helvetica" font-size="12.00"  text-anchor="middle">
		<text><tspan font-family="Helvetica" >Density (a.u.)</tspan></text>
	</g>
</g>
<g fill="none" color="black" stroke="currentColor" stroke-width="1.00" stroke-linecap="butt" stroke-linejoin="miter">
	<g transform="translate(542.7,711.3)" stroke="none" fill="black" font-family="Helvetica" font-size="12.00"  text-anchor="middle">
		<text><tspan font-family="Helvetica" >Average time (us)</tspan></text>
	</g>
</g>
<g fill="none" color="black" stroke="currentColor" stroke-width="1.00" stroke-linecap="butt" stroke-linejoin="miter">
	<g transform="translate(542.7,31.0)" stroke="none" fill="black" font-family="Helvetica" font-size="12.00"  text-anchor="middle">
		<text><tspan font-family="Helvetica" >snapshot_restore_with_dense/Sparse: Entire region + process_vm_writev/5: SD</tspan></text>
	</g>
</g>
	<g id="gnuplot_plot_1" ><title>Bootstrap distribution</title>
<g fill="none" color="white" stroke="black" stroke-width="2.00" stroke-linecap="butt" stroke-linejoin="miter">
</g>
<g fill="none" color="black" stroke="currentColor" stroke-width="2.00" stroke-linecap="butt" stroke-linejoin="miter">
	<g transform="translate(1089.0,67.0)" stroke="none" fill="black" font-family="Helvetica" font-size="12.00"  text-anchor="start">
		<text><tspan font-family="Helvetica" >Bootstrap distribution</tspan></text>
	</g>
</g>
<g fill="none" color="black" stroke="currentColor" stroke-width="2.00" stroke-linecap="butt" stroke-linejoin="miter">
	<path stroke='rgb( 31, 120, 180)'  d='M1038.5,63.1 L1080.7,63.1 M71.9,642.3 L73.8,641.5 L75.7,640.6 L77.6,639.7 L79.4,638.8 L81.3,638.0
		L83.2,637.0 L85.1,636.1 L87.0,635.2 L88.9,634.2 L90.8,633.2 L92.7,632.2 L94.5,631.2 L96.4,630.1
		L98.3,629.0 L100.2,627.9 L102.1,626.7 L104.0,625.4 L105.9,624.1 L107.8,622.7 L109.6,621.3 L111.5,619.8
		L113.4,618.2 L115.3,616.6 L117.2,614.8 L119.1,613.0 L121.0,611.1 L122.9,609.1 L124.7,607.1 L126.6,605.0
		L128.5,602.8 L130.4,600.5 L132.3,598.2 L134.2,595.8 L136.1,593.3 L138.0,590.8 L139.8,588.2 L141.7,585.6
		L143.6,583.0 L145.5,580.3 L147.4,577.6 L149.3,574.8 L151.2,572.0 L153.0,569.1 L154.9,566.2 L156.8,563.3
		L158.7,560.3 L160.6,557.2 L162.5,554.1 L164.4,550.9 L166.3,547.7 L168.1,544.4 L170.0,541.0 L171.9,537.5
		L173.8,533.9 L175.7,530.2 L177.6,526.5 L179.5,522.6 L181.4,518.7 L183.2,514.7 L185.1,510.6 L187.0,506.4
		L188.9,502.2 L190.8,498.0 L192.7,493.7 L194.6,489.4 L196.5,485.0 L198.3,480.7 L200.2,476.3 L202.1,472.0
		L204.0,467.7 L205.9,463.4 L207.8,459.2 L209.7,455.0 L211.6,450.9 L213.4,446.8 L215.3,442.8 L217.2,438.8
		L219.1,434.9 L221.0,431.1 L222.9,427.3 L224.8,423.6 L226.6,419.9 L228.5,416.3 L230.4,412.8 L232.3,409.3
		L234.2,405.9 L236.1,402.6 L238.0,399.3 L239.9,396.1 L241.7,393.0 L243.6,389.9 L245.5,386.9 L247.4,384.0
		L249.3,381.2 L251.2,378.4 L253.1,375.7 L255.0,373.2 L256.8,370.7 L258.7,368.3 L260.6,366.0 L262.5,363.8
		L264.4,361.7 L266.3,359.7 L268.2,357.8 L270.1,356.0 L271.9,354.4 L273.8,352.8 L275.7,351.4 L277.6,350.2
		L279.5,349.0 L281.4,348.0 L283.3,347.2 L285.2,346.5 L287.0,346.0 L288.9,345.6 L290.8,345.4 L292.7,345.3
		L294.6,345.4 L296.5,345.7 L298.4,346.2 L300.2,346.8 L302.1,347.6 L304.0,348.5 L305.9,349.6 L307.8,350.9
		L309.7,352.3 L311.6,353.9 L313.5,355.7 L315.3,357.6 L317.2,359.6 L319.1,361.8 L321.0,364.1 L322.9,366.6
		L324.8,369.2 L326.7,372.0 L328.6,374.8 L330.4,377.8 L332.3,381.0 L334.2,384.2 L336.1,387.6 L338.0,391.1
		L339.9,394.8 L341.8,398.5 L343.7,402.3 L345.5,406.3 L347.4,410.3 L349.3,414.4 L351.2,418.6 L353.1,422.9
		L355.0,427.3 L356.9,431.7 L358.8,436.1 L360.6,440.7 L362.5,445.2 L364.4,449.8 L366.3,454.4 L368.2,459.1
		L370.1,463.8 L372.0,468.4 L373.8,473.1 L375.7,477.7 L377.6,482.4 L379.5,487.0 L381.4,491.6 L383.3,496.2
		L385.2,500.8 L387.1,505.3 L388.9,509.8 L390.8,514.3 L392.7,518.7 L394.6,523.0 L396.5,527.3 L398.4,531.6
		L400.3,535.8 L402.2,539.9 L404.0,544.0 L405.9,548.0 L407.8,551.9 L409.7,555.8 L411.6,559.5 L413.5,563.2
		L415.4,566.8 L417.3,570.4 L419.1,573.8 L421.0,577.1 L422.9,580.3 L424.8,583.3 L426.7,586.3 L428.6,589.1
		L430.5,591.7 L432.4,594.2 L434.2,596.5 L436.1,598.6 L438.0,600.6 L439.9,602.3 L441.8,603.7 L443.7,604.9
		L445.6,605.8 L447.4,606.4 L449.3,606.7 L451.2,606.6 L453.1,606.2 L455.0,605.4 L456.9,604.1 L458.8,602.4
		L460.7,600.3 L462.5,597.6 L464.4,594.4 L466.3,590.8 L468.2,586.5 L470.1,581.7 L472.0,576.3 L473.9,570.4
		L475.8,563.8 L477.6,556.7 L479.5,548.9 L481.4,540.6 L483.3,531.6 L485.2,522.1 L487.1,512.0 L489.0,501.4
		L490.9,490.3 L492.7,478.6 L494.6,466.5 L496.5,453.9 L498.4,441.0 L500.3,427.6 L502.2,414.0 L504.1,400.0
		L506.0,385.9 L507.8,371.5 L509.7,357.0 L511.6,342.4 L513.5,327.7 L515.4,313.1 L517.3,298.6 L519.2,284.1
		L521.0,269.9 L522.9,255.9 L524.8,242.1 L526.7,228.7 L528.6,215.7 L530.5,203.1 L532.4,191.0 L534.3,179.5
		L536.1,168.4 L538.0,158.0 L539.9,148.2 L541.8,139.1 L543.7,130.7 L545.6,123.0 L547.5,116.1 L549.4,109.9
		L551.2,104.5 L553.1,100.0 L555.0,96.2 L556.9,93.3 L558.8,91.3 L560.7,90.0 L562.6,89.7 L564.5,90.1
		L566.3,91.4 L568.2,93.5 L570.1,96.5 L572.0,100.2 L573.9,104.7 L575.8,110.0 L577.7,116.0 L579.5,122.7
		L581.4,130.1 L583.3,138.1 L585.2,146.7 L587.1,155.9 L589.0,165.7 L590.9,175.9 L592.8,186.6 L594.6,197.7
		L596.5,209.2 L598.4,221.0 L600.3,233.0 L602.2,245.4 L604.1,257.9 L606.0,270.5 L607.9,283.3 L609.7,296.2
		L611.6,309.0 L613.5,321.9 L615.4,334.7 L617.3,347.5 L619.2,360.2 L621.1,372.7 L623.0,385.0 L624.8,397.2
		L626.7,409.1 L628.6,420.8 L630.5,432.2 L632.4,443.3 L634.3,454.1 L636.2,464.5 L638.1,474.6 L639.9,484.3
		L641.8,493.6 L643.7,502.5 L645.6,511.0 L647.5,519.0 L649.4,526.6 L651.3,533.7 L653.1,540.2 L655.0,546.3
		L656.9,551.7 L658.8,556.7 L660.7,561.0 L662.6,564.7 L664.5,567.9 L666.4,570.3 L668.2,572.1 L670.1,573.2
		L672.0,573.7 L673.9,573.4 L675.8,572.4 L677.7,570.6 L679.6,568.1 L681.5,564.9 L683.3,560.9 L685.2,556.3
		L687.1,550.8 L689.0,544.7 L690.9,537.9 L692.8,530.5 L694.7,522.4 L696.6,513.8 L698.4,504.7 L700.3,495.0
		L702.2,485.0 L704.1,474.6 L706.0,463.9 L707.9,453.0 L709.8,442.0 L711.7,430.9 L713.5,419.8 L715.4,408.8
		L717.3,397.9 L719.2,387.4 L721.1,377.1 L723.0,367.2 L724.9,357.8 L726.7,348.9 L728.6,340.7 L730.5,333.1
		L732.4,326.1 L734.3,320.0 L736.2,314.6 L738.1,310.1 L740.0,306.4 L741.8,303.6 L743.7,301.7 L745.6,300.7
		L747.5,300.6 L749.4,301.3 L751.3,303.0 L753.2,305.4 L755.1,308.7 L756.9,312.8 L758.8,317.6 L760.7,323.2
		L762.6,329.4 L764.5,336.3 L766.4,343.7 L768.3,351.6 L770.2,360.0 L772.0,368.8 L773.9,378.0 L775.8,387.5
		L777.7,397.2 L779.6,407.2 L781.5,417.2 L783.4,427.4 L785.3,437.6 L787.1,447.8 L789.0,457.9 L790.9,468.0
		L792.8,477.9 L794.7,487.6 L796.6,497.1 L798.5,506.3 L800.3,515.3 L802.2,524.0 L804.1,532.3 L806.0,540.3
		L807.9,547.9 L809.8,555.1 L811.7,561.9 L813.6,568.2 L815.4,574.1 L817.3,579.6 L819.2,584.5 L821.1,589.0
		L823.0,593.0 L824.9,596.5 L826.8,599.4 L828.7,601.9 L830.5,603.8 L832.4,605.3 L834.3,606.2 L836.2,606.7
		L838.1,606.6 L840.0,606.1 L841.9,605.1 L843.8,603.7 L845.6,601.8 L847.5,599.5 L849.4,596.9 L851.3,593.9
		L853.2,590.6 L855.1,587.0 L857.0,583.2 L858.9,579.2 L860.7,575.1 L862.6,570.9 L864.5,566.6 L866.4,562.3
		L868.3,558.0 L870.2,553.8 L872.1,549.8 L873.9,545.9 L875.8,542.2 L877.7,538.8 L879.6,535.7 L881.5,532.8
		L883.4,530.4 L885.3,528.3 L887.2,526.5 L889.0,525.2 L890.9,524.3 L892.8,523.9 L894.7,523.8 L896.6,524.2
		L898.5,525.0 L900.4,526.2 L902.3,527.8 L904.1,529.8 L906.0,532.2 L907.9,534.9 L909.8,537.9 L911.7,541.2
		L913.6,544.7 L915.5,548.5 L917.4,552.5 L919.2,556.6 L921.1,560.9 L923.0,565.3 L924.9,569.7 L926.8,574.2
		L928.7,578.7 L930.6,583.2 L932.5,587.7 L934.3,592.1 L936.2,596.3 L938.1,600.5 L940.0,604.5 L941.9,608.4
		L943.8,612.1 L945.7,615.6 L947.5,618.9 L949.4,622.0 L951.3,624.9 L953.2,627.5 L955.1,629.9 L957.0,632.1
		L958.9,634.0 L960.8,635.6 L962.6,637.1 L964.5,638.3 L966.4,639.2 L968.3,639.9 L970.2,640.4 L972.1,640.7
		L974.0,640.8 L975.9,640.7 L977.7,640.4 L979.6,639.9 L981.5,639.3 L983.4,638.6 L985.3,637.8 L987.2,636.8
		L989.1,635.8 L991.0,634.7 L992.8,633.6 L994.7,632.5 L996.6,631.4 L998.5,630.3 L1000.4,629.2 L1002.3,628.2
		L1004.2,627.2 L1006.1,626.4 L1007.9,625.6 L1009.8,625.0 L1011.7,624.5 L1013.6,624.1  '/></g>
	</g>
	<g id="gnuplot_plot_2" ><title>Confidence interval</title>
<g fill="none" color="white" stroke="rgb( 31, 120, 180)" stroke-width="1.00" stroke-linecap="butt" stroke-linejoin="miter">
</g>
<g fill="none" color="black" stroke="currentColor" stroke-width="1.00" stroke-linecap="butt" stroke-linejoin="miter">
	<g transform="translate(1089.0,85.0)" stroke="none" fill="black" font-family="Helvetica" font-size="12.00"  text-anchor="start">
		<text><tspan font-family="Helvetica" >Confidence interval</tspan></text>
	</g>
</g>
<g fill="none" color="black" stroke="currentColor" stroke-width="1.00" stroke-linecap="butt" stroke-linejoin="miter">
	<g stroke='none' shape-rendering='crispEdges'>
		<polygon fill = 'rgb( 31, 120, 180)' fill-opacity = '0.250000' points = '1038.5,85.6 1080.7,85.6 1080.7,76.6 1038.5,76.6 '/>
		<polygon fill = 'rgb( 31, 120, 180)' fill-opacity = '0.250000' points = '158.7,560.3 160.6,557.2 162.5,554.1 164.4,550.9 166.3,547.7 168.1,544.4 170.0,541.0 171.9,537.5 173.8,533.9 175.7,530.2 177.6,526.5 179.5,522.6 181.4,518.7 183.2,514.7 185.1,510.6 187.0,506.4
188.9,502.2 190.8,498.0 192.7,493.7 194.6,489.4 196.5,485.0 198.3,480.7 200.2,476.3 202.1,472.0 204.0,467.7 205.9,463.4 207.8,459.2 209.7,455.0 211.6,450.9 213.4,446.8 215.3,442.8 217.2,438.8
219.1,434.9 221.0,431.1 222.9,427.3 224.8,423.6 226.6,419.9 228.5,416.3 230.4,412.8 232.3,409.3 234.2,405.9 236.1,402.6 238.0,399.3 239.9,396.1 241.7,393.0 243.6,389.9 245.5,386.9 247.4,384.0
249.3,381.2 251.2,378.4 253.1,375.7 255.0,373.2 256.8,370.7 258.7,368.3 260.6,366.0 262.5,363.8 264.4,361.7 266.3,359.7 268.2,357.8 270.1,356.0 271.9,354.4 273.8,352.8 275.7,351.4 277.6,350.2
279.5,349.0 281.4,348.0 283.3,347.2 285.2,346.5 287.0,346.0 288.9,345.6 290.8,345.4 292.7,345.3 294.6,345.4 296.5,345.7 298.4,346.2 300.2,346.8 302.1,347.6 304.0,348.5 305.9,349.6 307.8,350.9
309.7,352.3 311.6,353.9 313.5,355.7 315.3,357.6 317.2,359.6 319.1,361.8 321.0,364.1 322.9,366.6 324.8,369.2 326.7,372.0 328.6,374.8 330.4,377.8 332.3,381.0 334.2,384.2 336.1,387.6 338.0,391.1
339.9,394.8 341.8,398.5 343.7,402.3 345.5,406.3 347.4,410.3 349.3,414.4 351.2,418.6 353.1,422.9 355.0,427.3 356.9,431.7 358.8,436.1 360.6,440.7 362.5,445.2 364.4,449.8 366.3,454.4 368.2,459.1
370.1,463.8 372.0,468.4 373.8,473.1 375.7,477.7 377.6,482.4 379.5,487.0 381.4,491.6 383.3,496.2 385.2,500.8 387.1,505.3 388.9,509.8 390.8,514.3 392.7,518.7 394.6,523.0 396.5,527.3 398.4,531.6
400.3,535.8 402.2,539.9 404.0,544.0 405.9,548.0 407.8,551.9 409.7,555.8 411.6,559.5 413.5,563.2 415.4,566.8 417.3,570.4 419.1,573.8 421.0,577.1 422.9,580.3 424.8,583.3 426.7,586.3 428.6,589.1
430.5,591.7 432.4,594.2 434.2,596.5 436.1,598.6 438.0,600.6 439.9,602.3 441.8,603.7 443.7,604.9 445.6,605.8 447.4,606.4 449.3,606.7 451.2,606.6 453.1,606.2 455.0,605.4 456.9,604.1 458.8,602.4
460.7,600.3 462.5,597.6 464.4,594.4 466.3,590.8 468.2,586.5 470.1,581.7 472.0,576.3 473.9,570.4 475.8,563.8 477.6,556.7 479.5,548.9 481.4,540.6 483.3,531.6 485.2,522.1 487.1,512.0 489.0,501.4
490.9,490.3 492.7,478.6 494.6,466.5 496.5,453.9 498.4,441.0 500.3,427.6 502.2,414.0 504.1,400.0 506.0,385.9 507.8,371.5 509.7,357.0 511.6,342.4 513.5,327.7 515.4,313.1 517.3,298.6 519.2,284.1
521.0,269.9 522.9,255.9 524.8,242.1 526.7,228.7 528.6,215.7 530.5,203.1 532.4,191.0 534.3,179.5 536.1,168.4 538.0,158.0 539.9,148.2 541.8,139.1 543.7,130.7 545.6,123.0 547.5,116.1 549.4,109.9
551.2,104.5 553.1,100.0 555.0,96.2 556.9,93.3 558.8,91.3 560.7,90.0 562.6,89.7 564.5,90.1 566.3,91.4 568.2,93.5 570.1,96.5 572.0,100.2 573.9,104.7 575.8,110.0 577.7,116.0 579.5,122.7
581.4,130.1 583.3,138.1 585.2,146.7 587.1,155.9 589.0,165.7 590.9,175.9 592.8,186.6 594.6,197.7 596.5,209.2 598.4,221.0 600.3,233.0 602.2,245.4 604.1,257.9 606.0,270.5 607.9,283.3 609.7,296.2
611.6,309.0 613.5,321.9 615.4,334.7 617.3,347.5 619.2,360.2 621.1,372.7 623.0,385.0 624.8,397.2 626.7,409.1 628.6,420.8 630.5,432.2 632.4,443.3 634.3,454.1 636.2,464.5 638.1,474.6 639.9,484.3
641.8,493.6 643.7,502.5 645.6,511.0 647.5,519.0 649.4,526.6 651.3,533.7 653.1,540.2 655.0,546.3 656.9,551.7 658.8,556.7 660.7,561.0 662.6,564.7 664.5,567.9 666.4,570.3 668.2,572.1 670.1,573.2
672.0,573.7 673.9,573.4 675.8,572.4 677.7,570.6 679.6,568.1 681.5,564.9 683.3,560.9 685.2,556.3 687.1,550.8 689.0,544.7 690.9,537.9 692.8,530.5 694.7,522.4 696.6,513.8 698.4,504.7 700.3,495.0
702.2,485.0 704.1,474.6 706.0,463.9 707.9,453.0 709.8,442.0 711.7,430.9 713.5,419.8 715.4,408.8 717.3,397.9 719.2,387.4 721.1,377.1 723.0,367.2 724.9,357.8 726.7,348.9 728.6,340.7 730.5,333.1
732.4,326.1 734.3,320.0 736.2,314.6 738.1,310.1 740.0,306.4 741.8,303.6 743.7,301.7 745.6,300.7 747.5,300.6 749.4,301.3 751.3,303.0 753.2,305.4 755.1,308.7 756.9,312.8 758.8,317.6 760.7,323.2
762.6,329.4 764.5,336.3 766.4,343.7 768.3,351.6 770.2,360.0 772.0,368.8 773.9,378.0 775.8,387.5 777.7,397.2 779.6,407.2 781.5,417.2 783.4,427.4 785.3,437.6 787.1,447.8 789.0,457.9 790.9,468.0
792.8,477.9 794.7,487.6 796.6,497.1 798.5,506.3 800.3,515.3 802.2,524.0 804.1,532.3 806.0,540.3 807.9,547.9 809.8,555.1 811.7,561.9 813.6,568.2 815.4,574.1 817.3,579.6 819.2,584.5 821.1,589.0
823.0,593.0 824.9,596.5 826.8,599.4 828.7,601.9 830.5,603.8 832.4,605.3 834.3,606.2 836.2,606.7 838.1,606.6 840.0,606.1 841.9,605.1 843.8,603.7 845.6,601.8 847.5,599.5 849.4,596.9 851.3,593.9
853.2,590.6 855.1,587.0 857.0,583.2 858.9,579.2 860.7,575.1 862.6,570.9 864.5,566.6 866.4,562.3 868.3,558.0 870.2,553.8 872.1,549.8 873.9,545.9 875.8,542.2 877.7,538.8 879.6,535.7 881.5,532.8
883.4,530.4 885.3,528.3 887.2,526.5 889.0,525.2 890.9,524.3 892.8,523.9 894.7,523.8 896.6,524.2 898.5,525.0 900.4,526.2 902.3,527.8 904.1,529.8 906.0,532.2 907.9,534.9 909.8,537.9 911.7,541.2
913.6,544.7 915.5,548.5 917.4,552.5 919.2,556.6 921.1,560.9 923.0,565.3 924.9,569.7 924.9,662.4 923.0,662.4 921.1,662.4 919.2,662.4 917.4,662.4 915.5,662.4 913.6,662.4 911.7,662.4 909.8,662.4
907.9,662.4 906.0,662.4 904.1,662.4 902.3,662.4 900.4,662.4 898.5,662.4 896.6,662.4 894.7,662.4 892.8,662.4 890.9,662.4 889.0,662.4 887.2,662.4 885.3,662.4 883.4,662.4 881.5,662.4 879.6,662.4
877.7,662.4 875.8,662.4 873.9,662.4 872.1,662.4 870.2,662.4 868.3,662.4 866.4,662.4 864.5,662.4 862.6,662.4 860.7,662.4 858.9,662.4 857.0,662.4 855.1,662.4 853.2,662.4 851.3,662.4 849.4,662.4
847.5,662.4 845.6,662.4 843.8,662.4 841.9,662.4 840.0,662.4 838.1,662.4 836.2,662.4 834.3,662.4 832.4,662.4 830.5,662.4 828.7,662.4 826.8,662.4 824.9,662.4 823.0,662.4 821.1,662.4 819.2,662.4
817.3,662.4 815.4,662.4 813.6,662.4 811.7,662.4 809.8,662.4 807.9,662.4 806.0,662.4 804.1,662.4 802.2,662.4 800.3,662.4 798.5,662.4 796.6,662.4 794.7,662.4 792.8,662.4 790.9,662.4 789.0,662.4
787.1,662.4 785.3,662.4 783.4,662.4 781.5,662.4 779.6,662.4 777.7,662.4 775.8,662.4 773.9,662.4 772.0,662.4 770.2,662.4 768.3,662.4 766.4,662.4 764.5,662.4 762.6,662.4 760.7,662.4 758.8,662.4
756.9,662.4 755.1,662.4 753.2,662.4 751.3,662.4 749.4,662.4 747.5,662.4 745.6,662.4 743.7,662.4 741.8,662.4 740.0,662.4 738.1,662.4 736.2,662.4 734.3,662.4 732.4,662.4 730.5,662.4 728.6,662.4
726.7,662.4 724.9,662.4 723.0,662.4 721.1,662.4 719.2,662.4 717.3,662.4 715.4,662.4 713.5,662.4 711.7,662.4 709.8,662.4 707.9,662.4 706.0,662.4 704.1,662.4 702.2,662.4 700.3,662.4 698.4,662.4
696.6,662.4 694.7,662.4 692.8,662.4 690.9,662.4 689.0,662.4 687.1,662.4 685.2,662.4 683.3,662.4 681.5,662.4 679.6,662.4 677.7,662.4 675.8,662.4 673.9,662.4 672.0,662.4 670.1,662.4 668.2,662.4
666.4,662.4 664.5,662.4 662.6,662.4 660.7,662.4 658.8,662.4 656.9,662.4 655.0,662.4 653.1,662.4 651.3,662.4 649.4,662.4 647.5,662.4 645.6,662.4 643.7,662.4 641.8,662.4 639.9,662.4 638.1,662.4
636.2,662.4 634.3,662.4 632.4,662.4 630.5,662.4 628.6,662.4 626.7,662.4 624.8,662.4 623.0,662.4 621.1,662.4 619.2,662.4 617.3,662.4 615.4,662.4 613.5,662.4 611.6,662.4 609.7,662.4 607.9,662.4
606.0,662.4 604.1,662.4 602.2,662.4 600.3,662.4 598.4,662.4 596.5,662.4 594.6,662.4 592.8,662.4 590.9,662.4 589.0,662.4 587.1,662.4 585.2,662.4 583.3,662.4 581.4,662.4 579.5,662.4 577.7,662.4
575.8,662.4 573.9,662.4 572.0,662.4 570.1,662.4 568.2,662.4 566.3,662.4 564.5,662.4 562.6,662.4 560.7,662.4 558.8,662.4 556.9,662.4 555.0,662.4 553.1,662.4 551.2,662.4 549.4,662.4 547.5,662.4
545.6,662.4 543.7,662.4 541.8,662.4 539.9,662.4 538.0,662.4 536.1,662.4 534.3,662.4 532.4,662.4 530.5,662.4 528.6,662.4 526.7,662.4 524.8,662.4 522.9,662.4 521.0,662.4 519.2,662.4 517.3,662.4
515.4,662.4 513.5,662.4 511.6,662.4 509.7,662.4 507.8,662.4 506.0,662.4 504.1,662.4 502.2,662.4 500.3,662.4 498.4,662.4 496.5,662.4 494.6,662.4 492.7,662.4 490.9,662.4 489.0,662.4 487.1,662.4
485.2,662.4 483.3,662.4 481.4,662.4 479.5,662.4 477.6,662.4 475.8,662.4 473.9,662.4 472.0,662.4 470.1,662.4 468.2,662.4 466.3,662.4 464.4,662.4 462.5,662.4 460.7,662.4 458.8,662.4 456.9,662.4
455.0,662.4 453.1,662.4 451.2,662.4 449.3,662.4 447.4,662.4 445.6,662.4 443.7,662.4 441.8,662.4 439.9,662.4 438.0,662.4 436.1,662.4 434.2,662.4 432.4,662.4 430.5,662.4 428.6,662.4 426.7,662.4
424.8,662.4 422.9,662.4 421.0,662.4 419.1,662.4 417.3,662.4 415.4,662.4 413.5,662.4 411.6,662.4 409.7,662.4 407.8,662.4 405.9,662.4 404.0,662.4 402.2,662.4 400.3,662.4 398.4,662.4 396.5,662.4
394.6,662.4 392.7,662.4 390.8,662.4 388.9,662.4 387.1,662.4 385.2,662.4 383.3,662.4 381.4,662.4 379.5,662.4 377.6,662.4 375.7,662.4 373.8,662.4 372.0,662.4 370.1,662.4 368.2,662.4 366.3,662.4
364.4,662.4 362.5,662.4 360.6,662.4 358.8,662.4 356.9,662.4 355.0,662.4 353.1,662.4 351.2,662.4 349.3,662.4 347.4,662.4 345.5,662.4 343.7,662.4 341.8,662.4 339.9,662.4 338.0,662.4 336.1,662.4
334.2,662.4 332.3,662.4 330.4,662.4 328.6,662.4 326.7,662.4 324.8,662.4 322.9,662.4 321.0,662.4 319.1,662.4 317.2,662.4 315.3,662.4 313.5,662.4 311.6,662.4 309.7,662.4 307.8,662.4 305.9,662.4
304.0,662.4 302.1,662.4 300.2,662.4 298.4,662.4 296.5,662.4 294.6,662.4 292.7,662.4 290.8,662.4 288.9,662.4 287.0,662.4 285.2,662.4 283.3,662.4 281.4,662.4 279.5,662.4 277.6,662.4 275.7,662.4
273.8,662.4 271.9,662.4 270.1,662.4 268.2,662.4 266.3,662.4 264.4,662.4 262.5,662.4 260.6,662.4 258.7,662.4 256.8,662.4 255.0,662.4 253.1,662.4 251.2,662.4 249.3,662.4 247.4,662.4 245.5,662.4
243.6,662.4 241.7,662.4 239.9,662.4 238.0,662.4 236.1,662.4 234.2,662.4 232.3,662.4 230.4,662.4 228.5,662.4 226.6,662.4 224.8,662.4 222.9,662.4 221.0,662.4 219.1,662.4 217.2,662.4 215.3,662.4
213.4,662.4 211.6,662.4 209.7,662.4 207.8,662.4 205.9,662.4 204.0,662.4 202.1,662.4 200.2,662.4 198.3,662.4 196.5,662.4 194.6,662.4 192.7,662.4 190.8,662.4 188.9,662.4 187.0,662.4 185.1,662.4
183.2,662.4 181.4,662.4 179.5,662.4 177.6,662.4 175.7,662.4 173.8,662.4 171.9,662.4 170.0,662.4 168.1,662.4 166.3,662.4 164.4,662.4 162.5,662.4 160.6,662.4 158.7,662.4 '/>
	</g>
</g>
	</g>
	<g id="gnuplot_plot_3" ><title>Point estimate</title>
<g fill="none" color="white" stroke="rgb( 31, 120, 180)" stroke-width="2.00" stroke-linecap="butt" stroke-linejoin="miter">
</g>
<g fill="none" color="black" stroke="currentColor" stroke-width="2.00" stroke-linecap="butt" stroke-linejoin="miter">
	<g transform="translate(1089.0,103.0)" stroke="none" fill="black" font-family="Helvetica" font-size="12.00"  text-anchor="start">
		<text><tspan font-family="Helvetica" >Point estimate</tspan></text>
	</g>
</g>
<g fill="none" color="black" stroke="currentColor" stroke-width="2.00" stroke-linecap="butt" stroke-linejoin="miter">
	<path stroke='rgb( 31, 120, 180)'  d='M1038.5,99.1 L1080.7,99.1 M570.0,662.4 L570.0,96.4  '/></g>
	</g>
<g fill="none" color="black" stroke="currentColor" stroke-width="2.00" stroke-linecap="butt" stroke-linejoin="miter">
</g>
<g fill="none" color="black" stroke="black" stroke-width="1.00" stroke-linecap="butt" stroke-linejoin="miter">
</g>
<g fill="none" color="black" stroke="currentColor" stroke-width="1.00" stroke-linecap="butt" stroke-linejoin="miter">
	<path stroke='black'  d='M71.9,54.1 L71.9,662.4 L1013.6,662.4 L1013.6,54.1 L71.9,54.1 Z  '/></g>
<g fill="none" color="black" stroke="currentColor" stroke-width="1.00" stroke-linecap="butt" stroke-linejoin="miter">
</g>
</g>
</svg>

