<?xml version="1.0" encoding="utf-8"  standalone="no"?>
<svg 
 viewBox="0 0 1280 720"
 xmlns="http://www.w3.org/2000/svg"
 xmlns:xlink="http://www.w3.org/1999/xlink"
>

<title>Gnuplot</title>
<desc>Produced by GNUPLOT 5.2 patchlevel 6 </desc>

<g id="gnuplot_canvas">

<rect x="0" y="0" width="1280" height="720" fill="none"/>
<defs>

	<circle id='gpDot' r='0.5' stroke-width='0.5' stroke='currentColor'/>
	<path id='gpPt0' stroke-width='0.222' stroke='currentColor' d='M-1,0 h2 M0,-1 v2'/>
	<path id='gpPt1' stroke-width='0.222' stroke='currentColor' d='M-1,-1 L1,1 M1,-1 L-1,1'/>
	<path id='gpPt2' stroke-width='0.222' stroke='currentColor' d='M-1,0 L1,0 M0,-1 L0,1 M-1,-1 L1,1 M-1,1 L1,-1'/>
	<rect id='gpPt3' stroke-width='0.222' stroke='currentColor' x='-1' y='-1' width='2' height='2'/>
	<rect id='gpPt4' stroke-width='0.222' stroke='currentColor' fill='currentColor' x='-1' y='-1' width='2' height='2'/>
	<circle id='gpPt5' stroke-width='0.222' stroke='currentColor' cx='0' cy='0' r='1'/>
	<use xlink:href='#gpPt5' id='gpPt6' fill='currentColor' stroke='none'/>
	<path id='gpPt7' stroke-width='0.222' stroke='currentColor' d='M0,-1.33 L-1.33,0.67 L1.33,0.67 z'/>
	<use xlink:href='#gpPt7' id='gpPt8' fill='currentColor' stroke='none'/>
	<use xlink:href='#gpPt7' id='gpPt9' stroke='currentColor' transform='rotate(180)'/>
	<use xlink:href='#gpPt9' id='gpPt10' fill='currentColor' stroke='none'/>
	<use xlink:href='#gpPt3' id='gpPt11' stroke='currentColor' transform='rotate(45)'/>
	<use xlink:href='#gpPt11' id='gpPt12' fill='currentColor' stroke='none'/>
	<path id='gpPt13' stroke-width='0.222' stroke='currentColor' d='M0,1.330 L1.265,0.411 L0.782,-1.067 L-0.782,-1.076 L-1.265,0.411 z'/>
	<use xlink:href='#gpPt13' id='gpPt14' fill='currentColor' stroke='none'/>
	<filter id='textbox' filterUnits='objectBoundingBox' x='0' y='0' height='1' width='1'>
	  <feFlood flood-color='white' flood-opacity='1' result='bgnd'/>
	  <feComposite in='SourceGraphic' in2='bgnd' operator='atop'/>
	</filter>
	<filter id='greybox' filterUnits='objectBoundingBox' x='0' y='0' height='1' width='1'>
	  <feFlood flood-color='lightgrey' flood-opacity='1' result='grey'/>
	  <feComposite in='SourceGraphic' in2='grey' operator='atop'/>
	</filter>
</defs>
<g fill="none" color="white" stroke="currentColor" stroke-width="1.00" stroke-linecap="butt" stroke-linejoin="miter">
</g>
<g fill="none" color="black" stroke="currentColor" stroke-width="1.00" stroke-linecap="butt" stroke-linejoin="miter">
	<path stroke='black'  d='M55.3,662.4 L64.3,662.4  '/>	<g transform="translate(47.0,666.3)" stroke="none" fill="black" font-family="Helvetica" font-size="12.00"  text-anchor="end">
		<text><tspan font-family="Helvetica" > 0</tspan></text>
	</g>
</g>
<g fill="none" color="black" stroke="currentColor" stroke-width="1.00" stroke-linecap="butt" stroke-linejoin="miter">
	<path stroke='black'  d='M55.3,561.0 L64.3,561.0  '/>	<g transform="translate(47.0,564.9)" stroke="none" fill="black" font-family="Helvetica" font-size="12.00"  text-anchor="end">
		<text><tspan font-family="Helvetica" > 1</tspan></text>
	</g>
</g>
<g fill="none" color="black" stroke="currentColor" stroke-width="1.00" stroke-linecap="butt" stroke-linejoin="miter">
	<path stroke='black'  d='M55.3,459.6 L64.3,459.6  '/>	<g transform="translate(47.0,463.5)" stroke="none" fill="black" font-family="Helvetica" font-size="12.00"  text-anchor="end">
		<text><tspan font-family="Helvetica" > 2</tspan></text>
	</g>
</g>
<g fill="none" color="black" stroke="currentColor" stroke-width="1.00" stroke-linecap="butt" stroke-linejoin="miter">
	<path stroke='black'  d='M55.3,358.2 L64.3,358.2  '/>	<g transform="translate(47.0,362.1)" stroke="none" fill="black" font-family="Helvetica" font-size="12.00"  text-anchor="end">
		<text><tspan font-family="Helvetica" > 3</tspan></text>
	</g>
</g>
<g fill="none" color="black" stroke="currentColor" stroke-width="1.00" stroke-linecap="butt" stroke-linejoin="miter">
	<path stroke='black'  d='M55.3,256.9 L64.3,256.9  '/>	<g transform="translate(47.0,260.8)" stroke="none" fill="black" font-family="Helvetica" font-size="12.00"  text-anchor="end">
		<text><tspan font-family="Helvetica" > 4</tspan></text>
	</g>
</g>
<g fill="none" color="black" stroke="currentColor" stroke-width="1.00" stroke-linecap="butt" stroke-linejoin="miter">
	<path stroke='black'  d='M55.3,155.5 L64.3,155.5  '/>	<g transform="translate(47.0,159.4)" stroke="none" fill="black" font-family="Helvetica" font-size="12.00"  text-anchor="end">
		<text><tspan font-family="Helvetica" > 5</tspan></text>
	</g>
</g>
<g fill="none" color="black" stroke="currentColor" stroke-width="1.00" stroke-linecap="butt" stroke-linejoin="miter">
	<path stroke='black'  d='M55.3,54.1 L64.3,54.1  '/>	<g transform="translate(47.0,58.0)" stroke="none" fill="black" font-family="Helvetica" font-size="12.00"  text-anchor="end">
		<text><tspan font-family="Helvetica" > 6</tspan></text>
	</g>
</g>
<g fill="none" color="black" stroke="currentColor" stroke-width="1.00" stroke-linecap="butt" stroke-linejoin="miter">
	<path stroke='black'  d='M107.8,662.4 L107.8,653.4  '/>	<g transform="translate(107.8,684.3)" stroke="none" fill="black" font-family="Helvetica" font-size="12.00"  text-anchor="middle">
		<text><tspan font-family="Helvetica" > 26.75</tspan></text>
	</g>
</g>
<g fill="none" color="black" stroke="currentColor" stroke-width="1.00" stroke-linecap="butt" stroke-linejoin="miter">
	<path stroke='black'  d='M245.9,662.4 L245.9,653.4  '/>	<g transform="translate(245.9,684.3)" stroke="none" fill="black" font-family="Helvetica" font-size="12.00"  text-anchor="middle">
		<text><tspan font-family="Helvetica" > 26.8</tspan></text>
	</g>
</g>
<g fill="none" color="black" stroke="currentColor" stroke-width="1.00" stroke-linecap="butt" stroke-linejoin="miter">
	<path stroke='black'  d='M383.9,662.4 L383.9,653.4  '/>	<g transform="translate(383.9,684.3)" stroke="none" fill="black" font-family="Helvetica" font-size="12.00"  text-anchor="middle">
		<text><tspan font-family="Helvetica" > 26.85</tspan></text>
	</g>
</g>
<g fill="none" color="black" stroke="currentColor" stroke-width="1.00" stroke-linecap="butt" stroke-linejoin="miter">
	<path stroke='black'  d='M522.0,662.4 L522.0,653.4  '/>	<g transform="translate(522.0,684.3)" stroke="none" fill="black" font-family="Helvetica" font-size="12.00"  text-anchor="middle">
		<text><tspan font-family="Helvetica" > 26.9</tspan></text>
	</g>
</g>
<g fill="none" color="black" stroke="currentColor" stroke-width="1.00" stroke-linecap="butt" stroke-linejoin="miter">
	<path stroke='black'  d='M660.1,662.4 L660.1,653.4  '/>	<g transform="translate(660.1,684.3)" stroke="none" fill="black" font-family="Helvetica" font-size="12.00"  text-anchor="middle">
		<text><tspan font-family="Helvetica" > 26.95</tspan></text>
	</g>
</g>
<g fill="none" color="black" stroke="currentColor" stroke-width="1.00" stroke-linecap="butt" stroke-linejoin="miter">
	<path stroke='black'  d='M798.2,662.4 L798.2,653.4  '/>	<g transform="translate(798.2,684.3)" stroke="none" fill="black" font-family="Helvetica" font-size="12.00"  text-anchor="middle">
		<text><tspan font-family="Helvetica" > 27</tspan></text>
	</g>
</g>
<g fill="none" color="black" stroke="currentColor" stroke-width="1.00" stroke-linecap="butt" stroke-linejoin="miter">
	<path stroke='black'  d='M936.3,662.4 L936.3,653.4  '/>	<g transform="translate(936.3,684.3)" stroke="none" fill="black" font-family="Helvetica" font-size="12.00"  text-anchor="middle">
		<text><tspan font-family="Helvetica" > 27.05</tspan></text>
	</g>
</g>
<g fill="none" color="black" stroke="currentColor" stroke-width="1.00" stroke-linecap="butt" stroke-linejoin="miter">
</g>
<g fill="none" color="black" stroke="currentColor" stroke-width="1.00" stroke-linecap="butt" stroke-linejoin="miter">
	<path stroke='black'  d='M55.3,54.1 L55.3,662.4 L1013.6,662.4 L1013.6,54.1 L55.3,54.1 Z  '/></g>
<g fill="none" color="black" stroke="currentColor" stroke-width="1.00" stroke-linecap="butt" stroke-linejoin="miter">
	<g transform="translate(16.3,358.3) rotate(270)" stroke="none" fill="black" font-family="Helvetica" font-size="12.00"  text-anchor="middle">
		<text><tspan font-family="Helvetica" >Density (a.u.)</tspan></text>
	</g>
</g>
<g fill="none" color="black" stroke="currentColor" stroke-width="1.00" stroke-linecap="butt" stroke-linejoin="miter">
	<g transform="translate(534.4,711.3)" stroke="none" fill="black" font-family="Helvetica" font-size="12.00"  text-anchor="middle">
		<text><tspan font-family="Helvetica" >Average time (us)</tspan></text>
	</g>
</g>
<g fill="none" color="black" stroke="currentColor" stroke-width="1.00" stroke-linecap="butt" stroke-linejoin="miter">
	<g transform="translate(534.4,31.0)" stroke="none" fill="black" font-family="Helvetica" font-size="12.00"  text-anchor="middle">
		<text><tspan font-family="Helvetica" >snapshot_restore_with_dense/Sparse: Entire region + process_vm_writev/5: slope</tspan></text>
	</g>
</g>
	<g id="gnuplot_plot_1" ><title>Bootstrap distribution</title>
<g fill="none" color="white" stroke="black" stroke-width="2.00" stroke-linecap="butt" stroke-linejoin="miter">
</g>
<g fill="none" color="black" stroke="currentColor" stroke-width="2.00" stroke-linecap="butt" stroke-linejoin="miter">
	<g transform="translate(1089.0,67.0)" stroke="none" fill="black" font-family="Helvetica" font-size="12.00"  text-anchor="start">
		<text><tspan font-family="Helvetica" >Bootstrap distribution</tspan></text>
	</g>
</g>
<g fill="none" color="black" stroke="currentColor" stroke-width="2.00" stroke-linecap="butt" stroke-linejoin="miter">
	<path stroke='rgb( 31, 120, 180)'  d='M1038.5,63.1 L1080.7,63.1 M55.3,658.6 L57.2,657.9 L59.1,657.1 L61.1,656.1 L63.0,655.1 L64.9,653.9
		L66.8,652.5 L68.7,651.0 L70.7,649.2 L72.6,647.3 L74.5,645.2 L76.4,642.8 L78.3,640.1 L80.3,637.3
		L82.2,634.1 L84.1,630.6 L86.0,626.9 L87.9,622.8 L89.9,618.4 L91.8,613.6 L93.7,608.5 L95.6,603.1
		L97.5,597.3 L99.5,591.2 L101.4,584.7 L103.3,577.8 L105.2,570.6 L107.2,563.1 L109.1,555.3 L111.0,547.2
		L112.9,538.8 L114.8,530.1 L116.8,521.2 L118.7,512.1 L120.6,502.8 L122.5,493.4 L124.4,483.9 L126.4,474.3
		L128.3,464.8 L130.2,455.2 L132.1,445.7 L134.0,436.4 L136.0,427.2 L137.9,418.3 L139.8,409.6 L141.7,401.2
		L143.6,393.1 L145.6,385.4 L147.5,378.1 L149.4,371.2 L151.3,364.7 L153.2,358.8 L155.2,353.3 L157.1,348.4
		L159.0,343.9 L160.9,339.9 L162.8,336.5 L164.8,333.5 L166.7,331.0 L168.6,329.0 L170.5,327.5 L172.4,326.3
		L174.4,325.6 L176.3,325.2 L178.2,325.1 L180.1,325.3 L182.0,325.8 L184.0,326.5 L185.9,327.4 L187.8,328.4
		L189.7,329.6 L191.7,330.8 L193.6,332.0 L195.5,333.2 L197.4,334.3 L199.3,335.3 L201.3,336.2 L203.2,337.0
		L205.1,337.6 L207.0,337.9 L208.9,338.1 L210.9,338.0 L212.8,337.6 L214.7,336.9 L216.6,336.0 L218.5,334.7
		L220.5,333.2 L222.4,331.4 L224.3,329.3 L226.2,326.9 L228.1,324.2 L230.1,321.3 L232.0,318.1 L233.9,314.7
		L235.8,311.1 L237.7,307.2 L239.7,303.3 L241.6,299.1 L243.5,294.8 L245.4,290.4 L247.3,286.0 L249.3,281.4
		L251.2,276.8 L253.1,272.2 L255.0,267.5 L256.9,262.8 L258.9,258.2 L260.8,253.5 L262.7,248.9 L264.6,244.3
		L266.5,239.8 L268.5,235.2 L270.4,230.8 L272.3,226.3 L274.2,221.9 L276.2,217.5 L278.1,213.2 L280.0,208.9
		L281.9,204.5 L283.8,200.2 L285.8,195.9 L287.7,191.6 L289.6,187.2 L291.5,182.8 L293.4,178.4 L295.4,174.0
		L297.3,169.6 L299.2,165.1 L301.1,160.7 L303.0,156.2 L305.0,151.8 L306.9,147.3 L308.8,142.9 L310.7,138.6
		L312.6,134.3 L314.6,130.0 L316.5,125.9 L318.4,121.9 L320.3,118.1 L322.2,114.3 L324.2,110.8 L326.1,107.4
		L328.0,104.3 L329.9,101.3 L331.8,98.6 L333.8,96.2 L335.7,93.9 L337.6,92.0 L339.5,90.3 L341.4,88.8
		L343.4,87.7 L345.3,86.8 L347.2,86.1 L349.1,85.7 L351.0,85.6 L353.0,85.7 L354.9,86.0 L356.8,86.5
		L358.7,87.2 L360.7,88.2 L362.6,89.3 L364.5,90.5 L366.4,92.0 L368.3,93.5 L370.3,95.2 L372.2,97.0
		L374.1,98.9 L376.0,100.9 L377.9,103.0 L379.9,105.1 L381.8,107.3 L383.7,109.5 L385.6,111.7 L387.5,114.0
		L389.5,116.2 L391.4,118.5 L393.3,120.7 L395.2,122.9 L397.1,125.0 L399.1,127.1 L401.0,129.1 L402.9,131.0
		L404.8,132.8 L406.7,134.6 L408.7,136.2 L410.6,137.7 L412.5,139.1 L414.4,140.4 L416.3,141.5 L418.3,142.6
		L420.2,143.5 L422.1,144.3 L424.0,145.0 L425.9,145.6 L427.9,146.2 L429.8,146.6 L431.7,146.9 L433.6,147.2
		L435.5,147.4 L437.5,147.6 L439.4,147.7 L441.3,147.7 L443.2,147.8 L445.1,147.8 L447.1,147.8 L449.0,147.9
		L450.9,147.9 L452.8,148.0 L454.8,148.1 L456.7,148.2 L458.6,148.4 L460.5,148.6 L462.4,148.9 L464.4,149.3
		L466.3,149.7 L468.2,150.3 L470.1,150.9 L472.0,151.6 L474.0,152.3 L475.9,153.2 L477.8,154.2 L479.7,155.2
		L481.6,156.4 L483.6,157.6 L485.5,159.0 L487.4,160.4 L489.3,161.9 L491.2,163.5 L493.2,165.2 L495.1,166.9
		L497.0,168.8 L498.9,170.7 L500.8,172.6 L502.8,174.7 L504.7,176.7 L506.6,178.9 L508.5,181.1 L510.4,183.3
		L512.4,185.6 L514.3,188.0 L516.2,190.3 L518.1,192.8 L520.0,195.2 L522.0,197.7 L523.9,200.3 L525.8,202.9
		L527.7,205.5 L529.6,208.2 L531.6,210.9 L533.5,213.7 L535.4,216.5 L537.3,219.4 L539.3,222.3 L541.2,225.3
		L543.1,228.3 L545.0,231.4 L546.9,234.5 L548.9,237.7 L550.8,240.9 L552.7,244.1 L554.6,247.4 L556.5,250.6
		L558.5,253.9 L560.4,257.2 L562.3,260.5 L564.2,263.8 L566.1,267.1 L568.1,270.3 L570.0,273.5 L571.9,276.7
		L573.8,279.8 L575.7,282.9 L577.7,285.9 L579.6,288.8 L581.5,291.6 L583.4,294.4 L585.3,297.1 L587.3,299.7
		L589.2,302.2 L591.1,304.7 L593.0,307.1 L594.9,309.4 L596.9,311.7 L598.8,313.9 L600.7,316.0 L602.6,318.1
		L604.5,320.2 L606.5,322.3 L608.4,324.3 L610.3,326.3 L612.2,328.3 L614.1,330.3 L616.1,332.3 L618.0,334.3
		L619.9,336.4 L621.8,338.4 L623.8,340.4 L625.7,342.5 L627.6,344.6 L629.5,346.7 L631.4,348.8 L633.4,350.9
		L635.3,353.1 L637.2,355.2 L639.1,357.4 L641.0,359.5 L643.0,361.7 L644.9,363.9 L646.8,366.0 L648.7,368.2
		L650.6,370.4 L652.6,372.6 L654.5,374.8 L656.4,377.0 L658.3,379.2 L660.2,381.4 L662.2,383.6 L664.1,385.8
		L666.0,388.0 L667.9,390.2 L669.8,392.4 L671.8,394.6 L673.7,396.8 L675.6,399.1 L677.5,401.3 L679.4,403.6
		L681.4,405.8 L683.3,408.1 L685.2,410.3 L687.1,412.6 L689.0,414.9 L691.0,417.1 L692.9,419.4 L694.8,421.7
		L696.7,424.0 L698.6,426.3 L700.6,428.6 L702.5,431.0 L704.4,433.3 L706.3,435.6 L708.2,438.0 L710.2,440.3
		L712.1,442.7 L714.0,445.0 L715.9,447.4 L717.9,449.8 L719.8,452.1 L721.7,454.5 L723.6,456.9 L725.5,459.2
		L727.5,461.6 L729.4,463.9 L731.3,466.3 L733.2,468.6 L735.1,470.8 L737.1,473.1 L739.0,475.3 L740.9,477.5
		L742.8,479.7 L744.7,481.8 L746.7,483.9 L748.6,485.9 L750.5,487.9 L752.4,489.8 L754.3,491.8 L756.3,493.6
		L758.2,495.5 L760.1,497.3 L762.0,499.0 L763.9,500.7 L765.9,502.4 L767.8,504.1 L769.7,505.7 L771.6,507.4
		L773.5,509.0 L775.5,510.5 L777.4,512.1 L779.3,513.7 L781.2,515.2 L783.1,516.7 L785.1,518.3 L787.0,519.8
		L788.9,521.3 L790.8,522.8 L792.7,524.3 L794.7,525.8 L796.6,527.4 L798.5,528.9 L800.4,530.4 L802.4,531.9
		L804.3,533.4 L806.2,534.9 L808.1,536.4 L810.0,538.0 L812.0,539.5 L813.9,541.0 L815.8,542.6 L817.7,544.1
		L819.6,545.6 L821.6,547.2 L823.5,548.7 L825.4,550.2 L827.3,551.8 L829.2,553.3 L831.2,554.8 L833.1,556.4
		L835.0,557.9 L836.9,559.4 L838.8,560.8 L840.8,562.3 L842.7,563.8 L844.6,565.2 L846.5,566.6 L848.4,568.0
		L850.4,569.3 L852.3,570.6 L854.2,571.9 L856.1,573.2 L858.0,574.4 L860.0,575.7 L861.9,576.8 L863.8,578.0
		L865.7,579.1 L867.6,580.2 L869.6,581.3 L871.5,582.4 L873.4,583.5 L875.3,584.5 L877.2,585.5 L879.2,586.5
		L881.1,587.5 L883.0,588.5 L884.9,589.4 L886.9,590.3 L888.8,591.3 L890.7,592.2 L892.6,593.1 L894.5,594.0
		L896.5,594.8 L898.4,595.7 L900.3,596.5 L902.2,597.3 L904.1,598.1 L906.1,598.9 L908.0,599.6 L909.9,600.4
		L911.8,601.1 L913.7,601.8 L915.7,602.5 L917.6,603.1 L919.5,603.8 L921.4,604.4 L923.3,605.0 L925.3,605.7
		L927.2,606.3 L929.1,606.9 L931.0,607.5 L932.9,608.1 L934.9,608.7 L936.8,609.3 L938.7,609.9 L940.6,610.6
		L942.5,611.2 L944.5,611.8 L946.4,612.4 L948.3,613.1 L950.2,613.7 L952.1,614.4 L954.1,615.0 L956.0,615.6
		L957.9,616.3 L959.8,616.9 L961.7,617.5 L963.7,618.2 L965.6,618.8 L967.5,619.4 L969.4,620.0 L971.4,620.7
		L973.3,621.3 L975.2,621.9 L977.1,622.5 L979.0,623.1 L981.0,623.7 L982.9,624.2 L984.8,624.8 L986.7,625.4
		L988.6,626.0 L990.6,626.5 L992.5,627.1 L994.4,627.6 L996.3,628.2 L998.2,628.7 L1000.2,629.2 L1002.1,629.7
		L1004.0,630.2 L1005.9,630.7 L1007.8,631.2 L1009.8,631.7 L1011.7,632.1 L1013.6,632.6  '/></g>
	</g>
	<g id="gnuplot_plot_2" ><title>Confidence interval</title>
<g fill="none" color="white" stroke="rgb( 31, 120, 180)" stroke-width="1.00" stroke-linecap="butt" stroke-linejoin="miter">
</g>
<g fill="none" color="black" stroke="currentColor" stroke-width="1.00" stroke-linecap="butt" stroke-linejoin="miter">
	<g transform="translate(1089.0,85.0)" stroke="none" fill="black" font-family="Helvetica" font-size="12.00"  text-anchor="start">
		<text><tspan font-family="Helvetica" >Confidence interval</tspan></text>
	</g>
</g>
<g fill="none" color="black" stroke="currentColor" stroke-width="1.00" stroke-linecap="butt" stroke-linejoin="miter">
	<g stroke='none' shape-rendering='crispEdges'>
		<polygon fill = 'rgb( 31, 120, 180)' fill-opacity = '0.250000' points = '1038.5,85.6 1080.7,85.6 1080.7,76.6 1038.5,76.6 '/>
		<polygon fill = 'rgb( 31, 120, 180)' fill-opacity = '0.250000' points = '143.6,393.1 145.6,385.4 147.5,378.1 149.4,371.2 151.3,364.7 153.2,358.8 155.2,353.3 157.1,348.4 159.0,343.9 160.9,339.9 162.8,336.5 164.8,333.5 166.7,331.0 168.6,329.0 170.5,327.5 172.4,326.3
174.4,325.6 176.3,325.2 178.2,325.1 180.1,325.3 182.0,325.8 184.0,326.5 185.9,327.4 187.8,328.4 189.7,329.6 191.7,330.8 193.6,332.0 195.5,333.2 197.4,334.3 199.3,335.3 201.3,336.2 203.2,337.0
205.1,337.6 207.0,337.9 208.9,338.1 210.9,338.0 212.8,337.6 214.7,336.9 216.6,336.0 218.5,334.7 220.5,333.2 222.4,331.4 224.3,329.3 226.2,326.9 228.1,324.2 230.1,321.3 232.0,318.1 233.9,314.7
235.8,311.1 237.7,307.2 239.7,303.3 241.6,299.1 243.5,294.8 245.4,290.4 247.3,286.0 249.3,281.4 251.2,276.8 253.1,272.2 255.0,267.5 256.9,262.8 258.9,258.2 260.8,253.5 262.7,248.9 264.6,244.3
266.5,239.8 268.5,235.2 270.4,230.8 272.3,226.3 274.2,221.9 276.2,217.5 278.1,213.2 280.0,208.9 281.9,204.5 283.8,200.2 285.8,195.9 287.7,191.6 289.6,187.2 291.5,182.8 293.4,178.4 295.4,174.0
297.3,169.6 299.2,165.1 301.1,160.7 303.0,156.2 305.0,151.8 306.9,147.3 308.8,142.9 310.7,138.6 312.6,134.3 314.6,130.0 316.5,125.9 318.4,121.9 320.3,118.1 322.2,114.3 324.2,110.8 326.1,107.4
328.0,104.3 329.9,101.3 331.8,98.6 333.8,96.2 335.7,93.9 337.6,92.0 339.5,90.3 341.4,88.8 343.4,87.7 345.3,86.8 347.2,86.1 349.1,85.7 351.0,85.6 353.0,85.7 354.9,86.0 356.8,86.5
358.7,87.2 360.7,88.2 362.6,89.3 364.5,90.5 366.4,92.0 368.3,93.5 370.3,95.2 372.2,97.0 374.1,98.9 376.0,100.9 377.9,103.0 379.9,105.1 381.8,107.3 383.7,109.5 385.6,111.7 387.5,114.0
389.5,116.2 391.4,118.5 393.3,120.7 395.2,122.9 397.1,125.0 399.1,127.1 401.0,129.1 402.9,131.0 404.8,132.8 406.7,134.6 408.7,136.2 410.6,137.7 412.5,139.1 414.4,140.4 416.3,141.5 418.3,142.6
420.2,143.5 422.1,144.3 424.0,145.0 425.9,145.6 427.9,146.2 429.8,146.6 431.7,146.9 433.6,147.2 435.5,147.4 437.5,147.6 439.4,147.7 441.3,147.7 443.2,147.8 445.1,147.8 447.1,147.8 449.0,147.9
450.9,147.9 452.8,148.0 454.8,148.1 456.7,148.2 458.6,148.4 460.5,148.6 462.4,148.9 464.4,149.3 466.3,149.7 468.2,150.3 470.1,150.9 472.0,151.6 474.0,152.3 475.9,153.2 477.8,154.2 479.7,155.2
481.6,156.4 483.6,157.6 485.5,159.0 487.4,160.4 489.3,161.9 491.2,163.5 493.2,165.2 495.1,166.9 497.0,168.8 498.9,170.7 500.8,172.6 502.8,174.7 504.7,176.7 506.6,178.9 508.5,181.1 510.4,183.3
512.4,185.6 514.3,188.0 516.2,190.3 518.1,192.8 520.0,195.2 522.0,197.7 523.9,200.3 525.8,202.9 527.7,205.5 529.6,208.2 531.6,210.9 533.5,213.7 535.4,216.5 537.3,219.4 539.3,222.3 541.2,225.3
543.1,228.3 545.0,231.4 546.9,234.5 548.9,237.7 550.8,240.9 552.7,244.1 554.6,247.4 556.5,250.6 558.5,253.9 560.4,257.2 562.3,260.5 564.2,263.8 566.1,267.1 568.1,270.3 570.0,273.5 571.9,276.7
573.8,279.8 575.7,282.9 577.7,285.9 579.6,288.8 581.5,291.6 583.4,294.4 585.3,297.1 587.3,299.7 589.2,302.2 591.1,304.7 593.0,307.1 594.9,309.4 596.9,311.7 598.8,313.9 600.7,316.0 602.6,318.1
604.5,320.2 606.5,322.3 608.4,324.3 610.3,326.3 612.2,328.3 614.1,330.3 616.1,332.3 618.0,334.3 619.9,336.4 621.8,338.4 623.8,340.4 625.7,342.5 627.6,344.6 629.5,346.7 631.4,348.8 633.4,350.9
635.3,353.1 637.2,355.2 639.1,357.4 641.0,359.5 643.0,361.7 644.9,363.9 646.8,366.0 648.7,368.2 650.6,370.4 652.6,372.6 654.5,374.8 656.4,377.0 658.3,379.2 660.2,381.4 662.2,383.6 664.1,385.8
666.0,388.0 667.9,390.2 669.8,392.4 671.8,394.6 673.7,396.8 675.6,399.1 677.5,401.3 679.4,403.6 681.4,405.8 683.3,408.1 685.2,410.3 687.1,412.6 689.0,414.9 691.0,417.1 692.9,419.4 694.8,421.7
696.7,424.0 698.6,426.3 700.6,428.6 702.5,431.0 704.4,433.3 706.3,435.6 708.2,438.0 710.2,440.3 712.1,442.7 714.0,445.0 715.9,447.4 717.9,449.8 719.8,452.1 721.7,454.5 723.6,456.9 725.5,459.2
727.5,461.6 729.4,463.9 731.3,466.3 733.2,468.6 735.1,470.8 737.1,473.1 739.0,475.3 740.9,477.5 742.8,479.7 744.7,481.8 746.7,483.9 748.6,485.9 750.5,487.9 752.4,489.8 754.3,491.8 756.3,493.6
758.2,495.5 760.1,497.3 762.0,499.0 763.9,500.7 765.9,502.4 767.8,504.1 769.7,505.7 771.6,507.4 773.5,509.0 775.5,510.5 777.4,512.1 779.3,513.7 781.2,515.2 783.1,516.7 785.1,518.3 787.0,519.8
788.9,521.3 790.8,522.8 792.7,524.3 794.7,525.8 796.6,527.4 798.5,528.9 800.4,530.4 802.4,531.9 804.3,533.4 806.2,534.9 808.1,536.4 810.0,538.0 812.0,539.5 813.9,541.0 815.8,542.6 817.7,544.1
819.6,545.6 821.6,547.2 823.5,548.7 825.4,550.2 827.3,551.8 829.2,553.3 831.2,554.8 833.1,556.4 835.0,557.9 836.9,559.4 838.8,560.8 840.8,562.3 842.7,563.8 844.6,565.2 846.5,566.6 848.4,568.0
850.4,569.3 852.3,570.6 854.2,571.9 856.1,573.2 858.0,574.4 860.0,575.7 861.9,576.8 863.8,578.0 865.7,579.1 867.6,580.2 869.6,581.3 871.5,582.4 873.4,583.5 875.3,584.5 877.2,585.5 879.2,586.5
881.1,587.5 883.0,588.5 884.9,589.4 886.9,590.3 888.8,591.3 890.7,592.2 892.6,593.1 894.5,594.0 896.5,594.8 898.4,595.7 900.3,596.5 902.2,597.3 904.1,598.1 906.1,598.9 908.0,599.6 909.9,600.4
911.8,601.1 913.7,601.8 915.7,602.5 917.6,603.1 919.5,603.8 921.4,604.4 923.3,605.0 923.3,662.4 921.4,662.4 919.5,662.4 917.6,662.4 915.7,662.4 913.7,662.4 911.8,662.4 909.9,662.4 908.0,662.4
906.1,662.4 904.1,662.4 902.2,662.4 900.3,662.4 898.4,662.4 896.5,662.4 894.5,662.4 892.6,662.4 890.7,662.4 888.8,662.4 886.9,662.4 884.9,662.4 883.0,662.4 881.1,662.4 879.2,662.4 877.2,662.4
875.3,662.4 873.4,662.4 871.5,662.4 869.6,662.4 867.6,662.4 865.7,662.4 863.8,662.4 861.9,662.4 860.0,662.4 858.0,662.4 856.1,662.4 854.2,662.4 852.3,662.4 850.4,662.4 848.4,662.4 846.5,662.4
844.6,662.4 842.7,662.4 840.8,662.4 838.8,662.4 836.9,662.4 835.0,662.4 833.1,662.4 831.2,662.4 829.2,662.4 827.3,662.4 825.4,662.4 823.5,662.4 821.6,662.4 819.6,662.4 817.7,662.4 815.8,662.4
813.9,662.4 812.0,662.4 810.0,662.4 808.1,662.4 806.2,662.4 804.3,662.4 802.4,662.4 800.4,662.4 798.5,662.4 796.6,662.4 794.7,662.4 792.7,662.4 790.8,662.4 788.9,662.4 787.0,662.4 785.1,662.4
783.1,662.4 781.2,662.4 779.3,662.4 777.4,662.4 775.5,662.4 773.5,662.4 771.6,662.4 769.7,662.4 767.8,662.4 765.9,662.4 763.9,662.4 762.0,662.4 760.1,662.4 758.2,662.4 756.3,662.4 754.3,662.4
752.4,662.4 750.5,662.4 748.6,662.4 746.7,662.4 744.7,662.4 742.8,662.4 740.9,662.4 739.0,662.4 737.1,662.4 735.1,662.4 733.2,662.4 731.3,662.4 729.4,662.4 727.5,662.4 725.5,662.4 723.6,662.4
721.7,662.4 719.8,662.4 717.9,662.4 715.9,662.4 714.0,662.4 712.1,662.4 710.2,662.4 708.2,662.4 706.3,662.4 704.4,662.4 702.5,662.4 700.6,662.4 698.6,662.4 696.7,662.4 694.8,662.4 692.9,662.4
691.0,662.4 689.0,662.4 687.1,662.4 685.2,662.4 683.3,662.4 681.4,662.4 679.4,662.4 677.5,662.4 675.6,662.4 673.7,662.4 671.8,662.4 669.8,662.4 667.9,662.4 666.0,662.4 664.1,662.4 662.2,662.4
660.2,662.4 658.3,662.4 656.4,662.4 654.5,662.4 652.6,662.4 650.6,662.4 648.7,662.4 646.8,662.4 644.9,662.4 643.0,662.4 641.0,662.4 639.1,662.4 637.2,662.4 635.3,662.4 633.4,662.4 631.4,662.4
629.5,662.4 627.6,662.4 625.7,662.4 623.8,662.4 621.8,662.4 619.9,662.4 618.0,662.4 616.1,662.4 614.1,662.4 612.2,662.4 610.3,662.4 608.4,662.4 606.5,662.4 604.5,662.4 602.6,662.4 600.7,662.4
598.8,662.4 596.9,662.4 594.9,662.4 593.0,662.4 591.1,662.4 589.2,662.4 587.3,662.4 585.3,662.4 583.4,662.4 581.5,662.4 579.6,662.4 577.7,662.4 575.7,662.4 573.8,662.4 571.9,662.4 570.0,662.4
568.1,662.4 566.1,662.4 564.2,662.4 562.3,662.4 560.4,662.4 558.5,662.4 556.5,662.4 554.6,662.4 552.7,662.4 550.8,662.4 548.9,662.4 546.9,662.4 545.0,662.4 543.1,662.4 541.2,662.4 539.3,662.4
537.3,662.4 535.4,662.4 533.5,662.4 531.6,662.4 529.6,662.4 527.7,662.4 525.8,662.4 523.9,662.4 522.0,662.4 520.0,662.4 518.1,662.4 516.2,662.4 514.3,662.4 512.4,662.4 510.4,662.4 508.5,662.4
506.6,662.4 504.7,662.4 502.8,662.4 500.8,662.4 498.9,662.4 497.0,662.4 495.1,662.4 493.2,662.4 491.2,662.4 489.3,662.4 487.4,662.4 485.5,662.4 483.6,662.4 481.6,662.4 479.7,662.4 477.8,662.4
475.9,662.4 474.0,662.4 472.0,662.4 470.1,662.4 468.2,662.4 466.3,662.4 464.4,662.4 462.4,662.4 460.5,662.4 458.6,662.4 456.7,662.4 454.8,662.4 452.8,662.4 450.9,662.4 449.0,662.4 447.1,662.4
445.1,662.4 443.2,662.4 441.3,662.4 439.4,662.4 437.5,662.4 435.5,662.4 433.6,662.4 431.7,662.4 429.8,662.4 427.9,662.4 425.9,662.4 424.0,662.4 422.1,662.4 420.2,662.4 418.3,662.4 416.3,662.4
414.4,662.4 412.5,662.4 410.6,662.4 408.7,662.4 406.7,662.4 404.8,662.4 402.9,662.4 401.0,662.4 399.1,662.4 397.1,662.4 395.2,662.4 393.3,662.4 391.4,662.4 389.5,662.4 387.5,662.4 385.6,662.4
383.7,662.4 381.8,662.4 379.9,662.4 377.9,662.4 376.0,662.4 374.1,662.4 372.2,662.4 370.3,662.4 368.3,662.4 366.4,662.4 364.5,662.4 362.6,662.4 360.7,662.4 358.7,662.4 356.8,662.4 354.9,662.4
353.0,662.4 351.0,662.4 349.1,662.4 347.2,662.4 345.3,662.4 343.4,662.4 341.4,662.4 339.5,662.4 337.6,662.4 335.7,662.4 333.8,662.4 331.8,662.4 329.9,662.4 328.0,662.4 326.1,662.4 324.2,662.4
322.2,662.4 320.3,662.4 318.4,662.4 316.5,662.4 314.6,662.4 312.6,662.4 310.7,662.4 308.8,662.4 306.9,662.4 305.0,662.4 303.0,662.4 301.1,662.4 299.2,662.4 297.3,662.4 295.4,662.4 293.4,662.4
291.5,662.4 289.6,662.4 287.7,662.4 285.8,662.4 283.8,662.4 281.9,662.4 280.0,662.4 278.1,662.4 276.2,662.4 274.2,662.4 272.3,662.4 270.4,662.4 268.5,662.4 266.5,662.4 264.6,662.4 262.7,662.4
260.8,662.4 258.9,662.4 256.9,662.4 255.0,662.4 253.1,662.4 251.2,662.4 249.3,662.4 247.3,662.4 245.4,662.4 243.5,662.4 241.6,662.4 239.7,662.4 237.7,662.4 235.8,662.4 233.9,662.4 232.0,662.4
230.1,662.4 228.1,662.4 226.2,662.4 224.3,662.4 222.4,662.4 220.5,662.4 218.5,662.4 216.6,662.4 214.7,662.4 212.8,662.4 210.9,662.4 208.9,662.4 207.0,662.4 205.1,662.4 203.2,662.4 201.3,662.4
199.3,662.4 197.4,662.4 195.5,662.4 193.6,662.4 191.7,662.4 189.7,662.4 187.8,662.4 185.9,662.4 184.0,662.4 182.0,662.4 180.1,662.4 178.2,662.4 176.3,662.4 174.4,662.4 172.4,662.4 170.5,662.4
168.6,662.4 166.7,662.4 164.8,662.4 162.8,662.4 160.9,662.4 159.0,662.4 157.1,662.4 155.2,662.4 153.2,662.4 151.3,662.4 149.4,662.4 147.5,662.4 145.6,662.4 143.6,662.4 '/>
	</g>
</g>
	</g>
	<g id="gnuplot_plot_3" ><title>Point estimate</title>
<g fill="none" color="white" stroke="rgb( 31, 120, 180)" stroke-width="2.00" stroke-linecap="butt" stroke-linejoin="miter">
</g>
<g fill="none" color="black" stroke="currentColor" stroke-width="2.00" stroke-linecap="butt" stroke-linejoin="miter">
	<g transform="translate(1089.0,103.0)" stroke="none" fill="black" font-family="Helvetica" font-size="12.00"  text-anchor="start">
		<text><tspan font-family="Helvetica" >Point estimate</tspan></text>
	</g>
</g>
<g fill="none" color="black" stroke="currentColor" stroke-width="2.00" stroke-linecap="butt" stroke-linejoin="miter">
	<path stroke='rgb( 31, 120, 180)'  d='M1038.5,99.1 L1080.7,99.1 M460.4,662.4 L460.4,148.6  '/></g>
	</g>
<g fill="none" color="black" stroke="currentColor" stroke-width="2.00" stroke-linecap="butt" stroke-linejoin="miter">
</g>
<g fill="none" color="black" stroke="black" stroke-width="1.00" stroke-linecap="butt" stroke-linejoin="miter">
</g>
<g fill="none" color="black" stroke="currentColor" stroke-width="1.00" stroke-linecap="butt" stroke-linejoin="miter">
	<path stroke='black'  d='M55.3,54.1 L55.3,662.4 L1013.6,662.4 L1013.6,54.1 L55.3,54.1 Z  '/></g>
<g fill="none" color="black" stroke="currentColor" stroke-width="1.00" stroke-linecap="butt" stroke-linejoin="miter">
</g>
</g>
</svg>

