<?xml version="1.0" encoding="utf-8"  standalone="no"?>
<svg 
 viewBox="0 0 1280 720"
 xmlns="http://www.w3.org/2000/svg"
 xmlns:xlink="http://www.w3.org/1999/xlink"
>

<title>Gnuplot</title>
<desc>Produced by GNUPLOT 5.2 patchlevel 6 </desc>

<g id="gnuplot_canvas">

<rect x="0" y="0" width="1280" height="720" fill="none"/>
<defs>

	<circle id='gpDot' r='0.5' stroke-width='0.5' stroke='currentColor'/>
	<path id='gpPt0' stroke-width='0.222' stroke='currentColor' d='M-1,0 h2 M0,-1 v2'/>
	<path id='gpPt1' stroke-width='0.222' stroke='currentColor' d='M-1,-1 L1,1 M1,-1 L-1,1'/>
	<path id='gpPt2' stroke-width='0.222' stroke='currentColor' d='M-1,0 L1,0 M0,-1 L0,1 M-1,-1 L1,1 M-1,1 L1,-1'/>
	<rect id='gpPt3' stroke-width='0.222' stroke='currentColor' x='-1' y='-1' width='2' height='2'/>
	<rect id='gpPt4' stroke-width='0.222' stroke='currentColor' fill='currentColor' x='-1' y='-1' width='2' height='2'/>
	<circle id='gpPt5' stroke-width='0.222' stroke='currentColor' cx='0' cy='0' r='1'/>
	<use xlink:href='#gpPt5' id='gpPt6' fill='currentColor' stroke='none'/>
	<path id='gpPt7' stroke-width='0.222' stroke='currentColor' d='M0,-1.33 L-1.33,0.67 L1.33,0.67 z'/>
	<use xlink:href='#gpPt7' id='gpPt8' fill='currentColor' stroke='none'/>
	<use xlink:href='#gpPt7' id='gpPt9' stroke='currentColor' transform='rotate(180)'/>
	<use xlink:href='#gpPt9' id='gpPt10' fill='currentColor' stroke='none'/>
	<use xlink:href='#gpPt3' id='gpPt11' stroke='currentColor' transform='rotate(45)'/>
	<use xlink:href='#gpPt11' id='gpPt12' fill='currentColor' stroke='none'/>
	<path id='gpPt13' stroke-width='0.222' stroke='currentColor' d='M0,1.330 L1.265,0.411 L0.782,-1.067 L-0.782,-1.076 L-1.265,0.411 z'/>
	<use xlink:href='#gpPt13' id='gpPt14' fill='currentColor' stroke='none'/>
	<filter id='textbox' filterUnits='objectBoundingBox' x='0' y='0' height='1' width='1'>
	  <feFlood flood-color='white' flood-opacity='1' result='bgnd'/>
	  <feComposite in='SourceGraphic' in2='bgnd' operator='atop'/>
	</filter>
	<filter id='greybox' filterUnits='objectBoundingBox' x='0' y='0' height='1' width='1'>
	  <feFlood flood-color='lightgrey' flood-opacity='1' result='grey'/>
	  <feComposite in='SourceGraphic' in2='grey' operator='atop'/>
	</filter>
</defs>
<g fill="none" color="white" stroke="currentColor" stroke-width="1.00" stroke-linecap="butt" stroke-linejoin="miter">
</g>
<g fill="none" color="black" stroke="currentColor" stroke-width="1.00" stroke-linecap="butt" stroke-linejoin="miter">
	<path stroke='black'  d='M88.5,662.4 L97.5,662.4  '/>	<g transform="translate(80.2,666.3)" stroke="none" fill="black" font-family="Helvetica" font-size="12.00"  text-anchor="end">
		<text><tspan font-family="Helvetica" > 0</tspan></text>
	</g>
</g>
<g fill="none" color="black" stroke="currentColor" stroke-width="1.00" stroke-linecap="butt" stroke-linejoin="miter">
	<path stroke='black'  d='M88.5,594.8 L97.5,594.8  '/>	<g transform="translate(80.2,598.7)" stroke="none" fill="black" font-family="Helvetica" font-size="12.00"  text-anchor="end">
		<text><tspan font-family="Helvetica" > 0.002</tspan></text>
	</g>
</g>
<g fill="none" color="black" stroke="currentColor" stroke-width="1.00" stroke-linecap="butt" stroke-linejoin="miter">
	<path stroke='black'  d='M88.5,527.2 L97.5,527.2  '/>	<g transform="translate(80.2,531.1)" stroke="none" fill="black" font-family="Helvetica" font-size="12.00"  text-anchor="end">
		<text><tspan font-family="Helvetica" > 0.004</tspan></text>
	</g>
</g>
<g fill="none" color="black" stroke="currentColor" stroke-width="1.00" stroke-linecap="butt" stroke-linejoin="miter">
	<path stroke='black'  d='M88.5,459.6 L97.5,459.6  '/>	<g transform="translate(80.2,463.5)" stroke="none" fill="black" font-family="Helvetica" font-size="12.00"  text-anchor="end">
		<text><tspan font-family="Helvetica" > 0.006</tspan></text>
	</g>
</g>
<g fill="none" color="black" stroke="currentColor" stroke-width="1.00" stroke-linecap="butt" stroke-linejoin="miter">
	<path stroke='black'  d='M88.5,392.0 L97.5,392.0  '/>	<g transform="translate(80.2,395.9)" stroke="none" fill="black" font-family="Helvetica" font-size="12.00"  text-anchor="end">
		<text><tspan font-family="Helvetica" > 0.008</tspan></text>
	</g>
</g>
<g fill="none" color="black" stroke="currentColor" stroke-width="1.00" stroke-linecap="butt" stroke-linejoin="miter">
	<path stroke='black'  d='M88.5,324.5 L97.5,324.5  '/>	<g transform="translate(80.2,328.4)" stroke="none" fill="black" font-family="Helvetica" font-size="12.00"  text-anchor="end">
		<text><tspan font-family="Helvetica" > 0.01</tspan></text>
	</g>
</g>
<g fill="none" color="black" stroke="currentColor" stroke-width="1.00" stroke-linecap="butt" stroke-linejoin="miter">
	<path stroke='black'  d='M88.5,256.9 L97.5,256.9  '/>	<g transform="translate(80.2,260.8)" stroke="none" fill="black" font-family="Helvetica" font-size="12.00"  text-anchor="end">
		<text><tspan font-family="Helvetica" > 0.012</tspan></text>
	</g>
</g>
<g fill="none" color="black" stroke="currentColor" stroke-width="1.00" stroke-linecap="butt" stroke-linejoin="miter">
	<path stroke='black'  d='M88.5,189.3 L97.5,189.3  '/>	<g transform="translate(80.2,193.2)" stroke="none" fill="black" font-family="Helvetica" font-size="12.00"  text-anchor="end">
		<text><tspan font-family="Helvetica" > 0.014</tspan></text>
	</g>
</g>
<g fill="none" color="black" stroke="currentColor" stroke-width="1.00" stroke-linecap="butt" stroke-linejoin="miter">
	<path stroke='black'  d='M88.5,121.7 L97.5,121.7  '/>	<g transform="translate(80.2,125.6)" stroke="none" fill="black" font-family="Helvetica" font-size="12.00"  text-anchor="end">
		<text><tspan font-family="Helvetica" > 0.016</tspan></text>
	</g>
</g>
<g fill="none" color="black" stroke="currentColor" stroke-width="1.00" stroke-linecap="butt" stroke-linejoin="miter">
	<path stroke='black'  d='M88.5,54.1 L97.5,54.1  '/>	<g transform="translate(80.2,58.0)" stroke="none" fill="black" font-family="Helvetica" font-size="12.00"  text-anchor="end">
		<text><tspan font-family="Helvetica" > 0.018</tspan></text>
	</g>
</g>
<g fill="none" color="black" stroke="currentColor" stroke-width="1.00" stroke-linecap="butt" stroke-linejoin="miter">
	<path stroke='black'  d='M185.3,662.4 L185.3,653.4  '/>	<g transform="translate(185.3,684.3)" stroke="none" fill="black" font-family="Helvetica" font-size="12.00"  text-anchor="middle">
		<text><tspan font-family="Helvetica" > 20</tspan></text>
	</g>
</g>
<g fill="none" color="black" stroke="currentColor" stroke-width="1.00" stroke-linecap="butt" stroke-linejoin="miter">
	<path stroke='black'  d='M339.1,662.4 L339.1,653.4  '/>	<g transform="translate(339.1,684.3)" stroke="none" fill="black" font-family="Helvetica" font-size="12.00"  text-anchor="middle">
		<text><tspan font-family="Helvetica" > 40</tspan></text>
	</g>
</g>
<g fill="none" color="black" stroke="currentColor" stroke-width="1.00" stroke-linecap="butt" stroke-linejoin="miter">
	<path stroke='black'  d='M492.9,662.4 L492.9,653.4  '/>	<g transform="translate(492.9,684.3)" stroke="none" fill="black" font-family="Helvetica" font-size="12.00"  text-anchor="middle">
		<text><tspan font-family="Helvetica" > 60</tspan></text>
	</g>
</g>
<g fill="none" color="black" stroke="currentColor" stroke-width="1.00" stroke-linecap="butt" stroke-linejoin="miter">
	<path stroke='black'  d='M646.8,662.4 L646.8,653.4  '/>	<g transform="translate(646.8,684.3)" stroke="none" fill="black" font-family="Helvetica" font-size="12.00"  text-anchor="middle">
		<text><tspan font-family="Helvetica" > 80</tspan></text>
	</g>
</g>
<g fill="none" color="black" stroke="currentColor" stroke-width="1.00" stroke-linecap="butt" stroke-linejoin="miter">
	<path stroke='black'  d='M800.6,662.4 L800.6,653.4  '/>	<g transform="translate(800.6,684.3)" stroke="none" fill="black" font-family="Helvetica" font-size="12.00"  text-anchor="middle">
		<text><tspan font-family="Helvetica" > 100</tspan></text>
	</g>
</g>
<g fill="none" color="black" stroke="currentColor" stroke-width="1.00" stroke-linecap="butt" stroke-linejoin="miter">
	<path stroke='black'  d='M954.4,662.4 L954.4,653.4  '/>	<g transform="translate(954.4,684.3)" stroke="none" fill="black" font-family="Helvetica" font-size="12.00"  text-anchor="middle">
		<text><tspan font-family="Helvetica" > 120</tspan></text>
	</g>
</g>
<g fill="none" color="black" stroke="currentColor" stroke-width="1.00" stroke-linecap="butt" stroke-linejoin="miter">
</g>
<g fill="none" color="black" stroke="currentColor" stroke-width="1.00" stroke-linecap="butt" stroke-linejoin="miter">
	<path stroke='black'  d='M88.5,54.1 L88.5,662.4 L1013.6,662.4 L1013.6,54.1 L88.5,54.1 Z  '/></g>
<g fill="none" color="black" stroke="currentColor" stroke-width="1.00" stroke-linecap="butt" stroke-linejoin="miter">
	<g transform="translate(16.3,358.3) rotate(270)" stroke="none" fill="black" font-family="Helvetica" font-size="12.00"  text-anchor="middle">
		<text><tspan font-family="Helvetica" >Density (a.u.)</tspan></text>
	</g>
</g>
<g fill="none" color="black" stroke="currentColor" stroke-width="1.00" stroke-linecap="butt" stroke-linejoin="miter">
	<g transform="translate(551.0,711.3)" stroke="none" fill="black" font-family="Helvetica" font-size="12.00"  text-anchor="middle">
		<text><tspan font-family="Helvetica" >Average time (us)</tspan></text>
	</g>
</g>
<g fill="none" color="black" stroke="currentColor" stroke-width="1.00" stroke-linecap="butt" stroke-linejoin="miter">
	<g transform="translate(551.0,31.0)" stroke="none" fill="black" font-family="Helvetica" font-size="12.00"  text-anchor="middle">
		<text><tspan font-family="Helvetica" >snapshot_restore_with_dense/Sparse: Entire region + /proc/pid/mem/463: SD</tspan></text>
	</g>
</g>
	<g id="gnuplot_plot_1" ><title>Bootstrap distribution</title>
<g fill="none" color="white" stroke="black" stroke-width="2.00" stroke-linecap="butt" stroke-linejoin="miter">
</g>
<g fill="none" color="black" stroke="currentColor" stroke-width="2.00" stroke-linecap="butt" stroke-linejoin="miter">
	<g transform="translate(1089.0,67.0)" stroke="none" fill="black" font-family="Helvetica" font-size="12.00"  text-anchor="start">
		<text><tspan font-family="Helvetica" >Bootstrap distribution</tspan></text>
	</g>
</g>
<g fill="none" color="black" stroke="currentColor" stroke-width="2.00" stroke-linecap="butt" stroke-linejoin="miter">
	<path stroke='rgb( 31, 120, 180)'  d='M1038.5,63.1 L1080.7,63.1 M88.5,657.2 L90.4,656.3 L92.2,655.3 L94.1,654.2 L95.9,653.0 L97.8,651.6
		L99.6,650.1 L101.5,648.4 L103.3,646.5 L105.2,644.4 L107.0,642.1 L108.9,639.7 L110.7,637.0 L112.6,634.1
		L114.5,630.9 L116.3,627.5 L118.2,623.9 L120.0,620.0 L121.9,615.9 L123.7,611.6 L125.6,607.0 L127.4,602.3
		L129.3,597.3 L131.1,592.1 L133.0,586.8 L134.8,581.4 L136.7,575.8 L138.6,570.1 L140.4,564.5 L142.3,558.8
		L144.1,553.1 L146.0,547.5 L147.8,542.0 L149.7,536.7 L151.5,531.5 L153.4,526.7 L155.2,522.1 L157.1,517.8
		L158.9,513.9 L160.8,510.5 L162.7,507.5 L164.5,504.9 L166.4,502.9 L168.2,501.5 L170.1,500.5 L171.9,500.2
		L173.8,500.4 L175.6,501.3 L177.5,502.6 L179.3,504.6 L181.2,507.1 L183.0,510.1 L184.9,513.6 L186.8,517.5
		L188.6,521.9 L190.5,526.7 L192.3,531.7 L194.2,537.1 L196.0,542.7 L197.9,548.5 L199.7,554.4 L201.6,560.3
		L203.4,566.3 L205.3,572.3 L207.2,578.3 L209.0,584.1 L210.9,589.8 L212.7,595.4 L214.6,600.8 L216.4,605.9
		L218.3,610.8 L220.1,615.5 L222.0,619.9 L223.8,624.1 L225.7,627.9 L227.5,631.5 L229.4,634.9 L231.3,637.9
		L233.1,640.8 L235.0,643.3 L236.8,645.7 L238.7,647.8 L240.5,649.6 L242.4,651.3 L244.2,652.8 L246.1,654.2
		L247.9,655.3 L249.8,656.4 L251.6,657.2 L253.5,658.0 L255.4,658.6 L257.2,659.1 L259.1,659.6 L260.9,659.9
		L262.8,660.1 L264.6,660.2 L266.5,660.1 L268.3,660.0 L270.2,659.7 L272.0,659.3 L273.9,658.7 L275.7,657.8
		L277.6,656.7 L279.5,655.3 L281.3,653.6 L283.2,651.5 L285.0,649.0 L286.9,645.9 L288.7,642.3 L290.6,638.1
		L292.4,633.3 L294.3,627.7 L296.1,621.4 L298.0,614.3 L299.8,606.3 L301.7,597.6 L303.6,588.2 L305.4,578.0
		L307.3,567.1 L309.1,555.7 L311.0,543.8 L312.8,531.6 L314.7,519.3 L316.5,507.0 L318.4,494.9 L320.2,483.2
		L322.1,472.1 L323.9,461.9 L325.8,452.7 L327.7,444.6 L329.5,438.0 L331.4,432.8 L333.2,429.2 L335.1,427.3
		L336.9,427.0 L338.8,428.4 L340.6,431.3 L342.5,435.8 L344.3,441.5 L346.2,448.5 L348.0,456.4 L349.9,465.0
		L351.8,474.2 L353.6,483.6 L355.5,492.9 L357.3,502.0 L359.2,510.6 L361.0,518.3 L362.9,525.1 L364.7,530.7
		L366.6,535.0 L368.4,537.7 L370.3,538.9 L372.1,538.4 L374.0,536.2 L375.9,532.4 L377.7,527.0 L379.6,520.0
		L381.4,511.7 L383.3,502.1 L385.1,491.5 L387.0,480.1 L388.8,468.2 L390.7,455.9 L392.5,443.5 L394.4,431.2
		L396.2,419.3 L398.1,408.0 L400.0,397.4 L401.8,387.8 L403.7,379.1 L405.5,371.4 L407.4,364.9 L409.2,359.4
		L411.1,354.9 L412.9,351.2 L414.8,348.4 L416.6,346.1 L418.5,344.4 L420.3,342.9 L422.2,341.5 L424.1,340.0
		L425.9,338.4 L427.8,336.5 L429.6,334.1 L431.5,331.2 L433.3,327.9 L435.2,323.9 L437.0,319.5 L438.9,314.6
		L440.7,309.4 L442.6,303.8 L444.5,298.1 L446.3,292.3 L448.2,286.5 L450.0,280.9 L451.9,275.6 L453.7,270.6
		L455.6,266.0 L457.4,262.0 L459.3,258.4 L461.1,255.4 L463.0,253.0 L464.8,251.2 L466.7,249.8 L468.6,249.0
		L470.4,248.7 L472.3,248.9 L474.1,249.5 L476.0,250.6 L477.8,252.1 L479.7,254.0 L481.5,256.4 L483.4,259.1
		L485.2,262.2 L487.1,265.6 L488.9,269.3 L490.8,273.2 L492.7,277.2 L494.5,281.1 L496.4,284.8 L498.2,288.1
		L500.1,290.8 L501.9,292.8 L503.8,293.8 L505.6,293.6 L507.5,292.2 L509.3,289.4 L511.2,285.1 L513.0,279.3
		L514.9,272.1 L516.8,263.4 L518.6,253.6 L520.5,242.8 L522.3,231.2 L524.2,219.1 L526.0,206.8 L527.9,194.6
		L529.7,182.9 L531.6,171.9 L533.4,161.9 L535.3,153.0 L537.1,145.4 L539.0,139.1 L540.9,134.3 L542.7,130.8
		L544.6,128.6 L546.4,127.4 L548.3,127.2 L550.1,127.6 L552.0,128.4 L553.8,129.5 L555.7,130.5 L557.5,131.3
		L559.4,131.7 L561.2,131.5 L563.1,130.6 L565.0,129.1 L566.8,126.8 L568.7,123.8 L570.5,120.2 L572.4,116.0
		L574.2,111.4 L576.1,106.5 L577.9,101.4 L579.8,96.2 L581.6,91.1 L583.5,86.3 L585.3,81.8 L587.2,77.6
		L589.1,74.0 L590.9,70.8 L592.8,68.2 L594.6,66.2 L596.5,64.7 L598.3,63.7 L600.2,63.2 L602.0,63.1
		L603.9,63.4 L605.7,63.9 L607.6,64.6 L609.4,65.5 L611.3,66.3 L613.2,67.2 L615.0,67.9 L616.9,68.5
		L618.7,69.0 L620.6,69.2 L622.4,69.3 L624.3,69.3 L626.1,69.1 L628.0,68.9 L629.8,68.7 L631.7,68.5
		L633.5,68.5 L635.4,68.6 L637.3,68.9 L639.1,69.4 L641.0,70.2 L642.8,71.2 L644.7,72.4 L646.5,73.7
		L648.4,75.1 L650.2,76.4 L652.1,77.7 L653.9,78.9 L655.8,79.8 L657.6,80.6 L659.5,81.0 L661.4,81.1
		L663.2,81.0 L665.1,80.6 L666.9,80.1 L668.8,79.4 L670.6,78.7 L672.5,78.1 L674.3,77.6 L676.2,77.2
		L678.0,77.2 L679.9,77.5 L681.8,78.1 L683.6,79.1 L685.5,80.4 L687.3,82.2 L689.2,84.2 L691.0,86.5
		L692.9,89.0 L694.7,91.7 L696.6,94.4 L698.4,97.3 L700.3,100.1 L702.1,102.9 L704.0,105.6 L705.9,108.3
		L707.7,110.8 L709.6,113.4 L711.4,115.8 L713.3,118.3 L715.1,120.8 L717.0,123.3 L718.8,125.9 L720.7,128.6
		L722.5,131.5 L724.4,134.5 L726.2,137.7 L728.1,141.0 L730.0,144.5 L731.8,148.1 L733.7,151.9 L735.5,155.7
		L737.4,159.6 L739.2,163.6 L741.1,167.6 L742.9,171.6 L744.8,175.5 L746.6,179.5 L748.5,183.4 L750.3,187.3
		L752.2,191.2 L754.1,195.0 L755.9,198.9 L757.8,202.7 L759.6,206.5 L761.5,210.4 L763.3,214.2 L765.2,218.0
		L767.0,221.8 L768.9,225.6 L770.7,229.4 L772.6,233.1 L774.4,236.8 L776.3,240.5 L778.2,244.1 L780.0,247.7
		L781.9,251.3 L783.7,254.9 L785.6,258.5 L787.4,262.2 L789.3,265.9 L791.1,269.7 L793.0,273.6 L794.8,277.6
		L796.7,281.7 L798.5,286.0 L800.4,290.3 L802.3,294.7 L804.1,299.2 L806.0,303.7 L807.8,308.3 L809.7,312.9
		L811.5,317.5 L813.4,322.1 L815.2,326.7 L817.1,331.2 L818.9,335.7 L820.8,340.1 L822.6,344.5 L824.5,348.9
		L826.4,353.2 L828.2,357.4 L830.1,361.7 L831.9,365.9 L833.8,370.1 L835.6,374.3 L837.5,378.5 L839.3,382.7
		L841.2,386.9 L843.0,391.1 L844.9,395.2 L846.7,399.4 L848.6,403.5 L850.5,407.6 L852.3,411.7 L854.2,415.8
		L856.0,419.8 L857.9,423.8 L859.7,427.8 L861.6,431.8 L863.4,435.8 L865.3,439.7 L867.1,443.6 L869.0,447.5
		L870.8,451.4 L872.7,455.3 L874.6,459.1 L876.4,462.9 L878.3,466.6 L880.1,470.3 L882.0,473.9 L883.8,477.5
		L885.7,481.0 L887.5,484.5 L889.4,488.0 L891.2,491.4 L893.1,494.7 L894.9,498.0 L896.8,501.2 L898.7,504.4
		L900.5,507.6 L902.4,510.7 L904.2,513.7 L906.1,516.8 L907.9,519.8 L909.8,522.7 L911.6,525.7 L913.5,528.6
		L915.3,531.5 L917.2,534.3 L919.1,537.1 L920.9,539.9 L922.8,542.6 L924.6,545.3 L926.5,548.0 L928.3,550.6
		L930.2,553.2 L932.0,555.8 L933.9,558.3 L935.7,560.8 L937.6,563.2 L939.4,565.6 L941.3,568.0 L943.2,570.3
		L945.0,572.6 L946.9,574.8 L948.7,576.9 L950.6,579.1 L952.4,581.2 L954.3,583.2 L956.1,585.2 L958.0,587.2
		L959.8,589.2 L961.7,591.1 L963.5,593.0 L965.4,594.9 L967.3,596.7 L969.1,598.6 L971.0,600.4 L972.8,602.1
		L974.7,603.9 L976.5,605.6 L978.4,607.3 L980.2,609.0 L982.1,610.7 L983.9,612.3 L985.8,613.9 L987.6,615.4
		L989.5,616.9 L991.4,618.4 L993.2,619.8 L995.1,621.2 L996.9,622.5 L998.8,623.8 L1000.6,625.0 L1002.5,626.2
		L1004.3,627.3 L1006.2,628.4 L1008.0,629.4 L1009.9,630.4 L1011.7,631.4 L1013.6,632.3  '/></g>
	</g>
	<g id="gnuplot_plot_2" ><title>Confidence interval</title>
<g fill="none" color="white" stroke="rgb( 31, 120, 180)" stroke-width="1.00" stroke-linecap="butt" stroke-linejoin="miter">
</g>
<g fill="none" color="black" stroke="currentColor" stroke-width="1.00" stroke-linecap="butt" stroke-linejoin="miter">
	<g transform="translate(1089.0,85.0)" stroke="none" fill="black" font-family="Helvetica" font-size="12.00"  text-anchor="start">
		<text><tspan font-family="Helvetica" >Confidence interval</tspan></text>
	</g>
</g>
<g fill="none" color="black" stroke="currentColor" stroke-width="1.00" stroke-linecap="butt" stroke-linejoin="miter">
	<g stroke='none' shape-rendering='crispEdges'>
		<polygon fill = 'rgb( 31, 120, 180)' fill-opacity = '0.250000' points = '1038.5,85.6 1080.7,85.6 1080.7,76.6 1038.5,76.6 '/>
		<polygon fill = 'rgb( 31, 120, 180)' fill-opacity = '0.250000' points = '173.8,500.4 175.6,501.3 177.5,502.6 179.3,504.6 181.2,507.1 183.0,510.1 184.9,513.6 186.8,517.5 188.6,521.9 190.5,526.7 192.3,531.7 194.2,537.1 196.0,542.7 197.9,548.5 199.7,554.4 201.6,560.3
203.4,566.3 205.3,572.3 207.2,578.3 209.0,584.1 210.9,589.8 212.7,595.4 214.6,600.8 216.4,605.9 218.3,610.8 220.1,615.5 222.0,619.9 223.8,624.1 225.7,627.9 227.5,631.5 229.4,634.9 231.3,637.9
233.1,640.8 235.0,643.3 236.8,645.7 238.7,647.8 240.5,649.6 242.4,651.3 244.2,652.8 246.1,654.2 247.9,655.3 249.8,656.4 251.6,657.2 253.5,658.0 255.4,658.6 257.2,659.1 259.1,659.6 260.9,659.9
262.8,660.1 264.6,660.2 266.5,660.1 268.3,660.0 270.2,659.7 272.0,659.3 273.9,658.7 275.7,657.8 277.6,656.7 279.5,655.3 281.3,653.6 283.2,651.5 285.0,649.0 286.9,645.9 288.7,642.3 290.6,638.1
292.4,633.3 294.3,627.7 296.1,621.4 298.0,614.3 299.8,606.3 301.7,597.6 303.6,588.2 305.4,578.0 307.3,567.1 309.1,555.7 311.0,543.8 312.8,531.6 314.7,519.3 316.5,507.0 318.4,494.9 320.2,483.2
322.1,472.1 323.9,461.9 325.8,452.7 327.7,444.6 329.5,438.0 331.4,432.8 333.2,429.2 335.1,427.3 336.9,427.0 338.8,428.4 340.6,431.3 342.5,435.8 344.3,441.5 346.2,448.5 348.0,456.4 349.9,465.0
351.8,474.2 353.6,483.6 355.5,492.9 357.3,502.0 359.2,510.6 361.0,518.3 362.9,525.1 364.7,530.7 366.6,535.0 368.4,537.7 370.3,538.9 372.1,538.4 374.0,536.2 375.9,532.4 377.7,527.0 379.6,520.0
381.4,511.7 383.3,502.1 385.1,491.5 387.0,480.1 388.8,468.2 390.7,455.9 392.5,443.5 394.4,431.2 396.2,419.3 398.1,408.0 400.0,397.4 401.8,387.8 403.7,379.1 405.5,371.4 407.4,364.9 409.2,359.4
411.1,354.9 412.9,351.2 414.8,348.4 416.6,346.1 418.5,344.4 420.3,342.9 422.2,341.5 424.1,340.0 425.9,338.4 427.8,336.5 429.6,334.1 431.5,331.2 433.3,327.9 435.2,323.9 437.0,319.5 438.9,314.6
440.7,309.4 442.6,303.8 444.5,298.1 446.3,292.3 448.2,286.5 450.0,280.9 451.9,275.6 453.7,270.6 455.6,266.0 457.4,262.0 459.3,258.4 461.1,255.4 463.0,253.0 464.8,251.2 466.7,249.8 468.6,249.0
470.4,248.7 472.3,248.9 474.1,249.5 476.0,250.6 477.8,252.1 479.7,254.0 481.5,256.4 483.4,259.1 485.2,262.2 487.1,265.6 488.9,269.3 490.8,273.2 492.7,277.2 494.5,281.1 496.4,284.8 498.2,288.1
500.1,290.8 501.9,292.8 503.8,293.8 505.6,293.6 507.5,292.2 509.3,289.4 511.2,285.1 513.0,279.3 514.9,272.1 516.8,263.4 518.6,253.6 520.5,242.8 522.3,231.2 524.2,219.1 526.0,206.8 527.9,194.6
529.7,182.9 531.6,171.9 533.4,161.9 535.3,153.0 537.1,145.4 539.0,139.1 540.9,134.3 542.7,130.8 544.6,128.6 546.4,127.4 548.3,127.2 550.1,127.6 552.0,128.4 553.8,129.5 555.7,130.5 557.5,131.3
559.4,131.7 561.2,131.5 563.1,130.6 565.0,129.1 566.8,126.8 568.7,123.8 570.5,120.2 572.4,116.0 574.2,111.4 576.1,106.5 577.9,101.4 579.8,96.2 581.6,91.1 583.5,86.3 585.3,81.8 587.2,77.6
589.1,74.0 590.9,70.8 592.8,68.2 594.6,66.2 596.5,64.7 598.3,63.7 600.2,63.2 602.0,63.1 603.9,63.4 605.7,63.9 607.6,64.6 609.4,65.5 611.3,66.3 613.2,67.2 615.0,67.9 616.9,68.5
618.7,69.0 620.6,69.2 622.4,69.3 624.3,69.3 626.1,69.1 628.0,68.9 629.8,68.7 631.7,68.5 633.5,68.5 635.4,68.6 637.3,68.9 639.1,69.4 641.0,70.2 642.8,71.2 644.7,72.4 646.5,73.7
648.4,75.1 650.2,76.4 652.1,77.7 653.9,78.9 655.8,79.8 657.6,80.6 659.5,81.0 661.4,81.1 663.2,81.0 665.1,80.6 666.9,80.1 668.8,79.4 670.6,78.7 672.5,78.1 674.3,77.6 676.2,77.2
678.0,77.2 679.9,77.5 681.8,78.1 683.6,79.1 685.5,80.4 687.3,82.2 689.2,84.2 691.0,86.5 692.9,89.0 694.7,91.7 696.6,94.4 698.4,97.3 700.3,100.1 702.1,102.9 704.0,105.6 705.9,108.3
707.7,110.8 709.6,113.4 711.4,115.8 713.3,118.3 715.1,120.8 717.0,123.3 718.8,125.9 720.7,128.6 722.5,131.5 724.4,134.5 726.2,137.7 728.1,141.0 730.0,144.5 731.8,148.1 733.7,151.9 735.5,155.7
737.4,159.6 739.2,163.6 741.1,167.6 742.9,171.6 744.8,175.5 746.6,179.5 748.5,183.4 750.3,187.3 752.2,191.2 754.1,195.0 755.9,198.9 757.8,202.7 759.6,206.5 761.5,210.4 763.3,214.2 765.2,218.0
767.0,221.8 768.9,225.6 770.7,229.4 772.6,233.1 774.4,236.8 776.3,240.5 778.2,244.1 780.0,247.7 781.9,251.3 783.7,254.9 785.6,258.5 787.4,262.2 789.3,265.9 791.1,269.7 793.0,273.6 794.8,277.6
796.7,281.7 798.5,286.0 800.4,290.3 802.3,294.7 804.1,299.2 806.0,303.7 807.8,308.3 809.7,312.9 811.5,317.5 813.4,322.1 815.2,326.7 817.1,331.2 818.9,335.7 820.8,340.1 822.6,344.5 824.5,348.9
826.4,353.2 828.2,357.4 830.1,361.7 831.9,365.9 833.8,370.1 835.6,374.3 837.5,378.5 839.3,382.7 841.2,386.9 843.0,391.1 844.9,395.2 846.7,399.4 848.6,403.5 850.5,407.6 852.3,411.7 854.2,415.8
856.0,419.8 857.9,423.8 859.7,427.8 861.6,431.8 863.4,435.8 865.3,439.7 867.1,443.6 869.0,447.5 870.8,451.4 872.7,455.3 874.6,459.1 876.4,462.9 878.3,466.6 880.1,470.3 882.0,473.9 883.8,477.5
885.7,481.0 887.5,484.5 889.4,488.0 891.2,491.4 893.1,494.7 894.9,498.0 896.8,501.2 898.7,504.4 900.5,507.6 902.4,510.7 904.2,513.7 906.1,516.8 907.9,519.8 909.8,522.7 911.6,525.7 913.5,528.6
915.3,531.5 917.2,534.3 919.1,537.1 920.9,539.9 922.8,542.6 924.6,545.3 926.5,548.0 926.5,662.4 924.6,662.4 922.8,662.4 920.9,662.4 919.1,662.4 917.2,662.4 915.3,662.4 913.5,662.4 911.6,662.4
909.8,662.4 907.9,662.4 906.1,662.4 904.2,662.4 902.4,662.4 900.5,662.4 898.7,662.4 896.8,662.4 894.9,662.4 893.1,662.4 891.2,662.4 889.4,662.4 887.5,662.4 885.7,662.4 883.8,662.4 882.0,662.4
880.1,662.4 878.3,662.4 876.4,662.4 874.6,662.4 872.7,662.4 870.8,662.4 869.0,662.4 867.1,662.4 865.3,662.4 863.4,662.4 861.6,662.4 859.7,662.4 857.9,662.4 856.0,662.4 854.2,662.4 852.3,662.4
850.5,662.4 848.6,662.4 846.7,662.4 844.9,662.4 843.0,662.4 841.2,662.4 839.3,662.4 837.5,662.4 835.6,662.4 833.8,662.4 831.9,662.4 830.1,662.4 828.2,662.4 826.4,662.4 824.5,662.4 822.6,662.4
820.8,662.4 818.9,662.4 817.1,662.4 815.2,662.4 813.4,662.4 811.5,662.4 809.7,662.4 807.8,662.4 806.0,662.4 804.1,662.4 802.3,662.4 800.4,662.4 798.5,662.4 796.7,662.4 794.8,662.4 793.0,662.4
791.1,662.4 789.3,662.4 787.4,662.4 785.6,662.4 783.7,662.4 781.9,662.4 780.0,662.4 778.2,662.4 776.3,662.4 774.4,662.4 772.6,662.4 770.7,662.4 768.9,662.4 767.0,662.4 765.2,662.4 763.3,662.4
761.5,662.4 759.6,662.4 757.8,662.4 755.9,662.4 754.1,662.4 752.2,662.4 750.3,662.4 748.5,662.4 746.6,662.4 744.8,662.4 742.9,662.4 741.1,662.4 739.2,662.4 737.4,662.4 735.5,662.4 733.7,662.4
731.8,662.4 730.0,662.4 728.1,662.4 726.2,662.4 724.4,662.4 722.5,662.4 720.7,662.4 718.8,662.4 717.0,662.4 715.1,662.4 713.3,662.4 711.4,662.4 709.6,662.4 707.7,662.4 705.9,662.4 704.0,662.4
702.1,662.4 700.3,662.4 698.4,662.4 696.6,662.4 694.7,662.4 692.9,662.4 691.0,662.4 689.2,662.4 687.3,662.4 685.5,662.4 683.6,662.4 681.8,662.4 679.9,662.4 678.0,662.4 676.2,662.4 674.3,662.4
672.5,662.4 670.6,662.4 668.8,662.4 666.9,662.4 665.1,662.4 663.2,662.4 661.4,662.4 659.5,662.4 657.6,662.4 655.8,662.4 653.9,662.4 652.1,662.4 650.2,662.4 648.4,662.4 646.5,662.4 644.7,662.4
642.8,662.4 641.0,662.4 639.1,662.4 637.3,662.4 635.4,662.4 633.5,662.4 631.7,662.4 629.8,662.4 628.0,662.4 626.1,662.4 624.3,662.4 622.4,662.4 620.6,662.4 618.7,662.4 616.9,662.4 615.0,662.4
613.2,662.4 611.3,662.4 609.4,662.4 607.6,662.4 605.7,662.4 603.9,662.4 602.0,662.4 600.2,662.4 598.3,662.4 596.5,662.4 594.6,662.4 592.8,662.4 590.9,662.4 589.1,662.4 587.2,662.4 585.3,662.4
583.5,662.4 581.6,662.4 579.8,662.4 577.9,662.4 576.1,662.4 574.2,662.4 572.4,662.4 570.5,662.4 568.7,662.4 566.8,662.4 565.0,662.4 563.1,662.4 561.2,662.4 559.4,662.4 557.5,662.4 555.7,662.4
553.8,662.4 552.0,662.4 550.1,662.4 548.3,662.4 546.4,662.4 544.6,662.4 542.7,662.4 540.9,662.4 539.0,662.4 537.1,662.4 535.3,662.4 533.4,662.4 531.6,662.4 529.7,662.4 527.9,662.4 526.0,662.4
524.2,662.4 522.3,662.4 520.5,662.4 518.6,662.4 516.8,662.4 514.9,662.4 513.0,662.4 511.2,662.4 509.3,662.4 507.5,662.4 505.6,662.4 503.8,662.4 501.9,662.4 500.1,662.4 498.2,662.4 496.4,662.4
494.5,662.4 492.7,662.4 490.8,662.4 488.9,662.4 487.1,662.4 485.2,662.4 483.4,662.4 481.5,662.4 479.7,662.4 477.8,662.4 476.0,662.4 474.1,662.4 472.3,662.4 470.4,662.4 468.6,662.4 466.7,662.4
464.8,662.4 463.0,662.4 461.1,662.4 459.3,662.4 457.4,662.4 455.6,662.4 453.7,662.4 451.9,662.4 450.0,662.4 448.2,662.4 446.3,662.4 444.5,662.4 442.6,662.4 440.7,662.4 438.9,662.4 437.0,662.4
435.2,662.4 433.3,662.4 431.5,662.4 429.6,662.4 427.8,662.4 425.9,662.4 424.1,662.4 422.2,662.4 420.3,662.4 418.5,662.4 416.6,662.4 414.8,662.4 412.9,662.4 411.1,662.4 409.2,662.4 407.4,662.4
405.5,662.4 403.7,662.4 401.8,662.4 400.0,662.4 398.1,662.4 396.2,662.4 394.4,662.4 392.5,662.4 390.7,662.4 388.8,662.4 387.0,662.4 385.1,662.4 383.3,662.4 381.4,662.4 379.6,662.4 377.7,662.4
375.9,662.4 374.0,662.4 372.1,662.4 370.3,662.4 368.4,662.4 366.6,662.4 364.7,662.4 362.9,662.4 361.0,662.4 359.2,662.4 357.3,662.4 355.5,662.4 353.6,662.4 351.8,662.4 349.9,662.4 348.0,662.4
346.2,662.4 344.3,662.4 342.5,662.4 340.6,662.4 338.8,662.4 336.9,662.4 335.1,662.4 333.2,662.4 331.4,662.4 329.5,662.4 327.7,662.4 325.8,662.4 323.9,662.4 322.1,662.4 320.2,662.4 318.4,662.4
316.5,662.4 314.7,662.4 312.8,662.4 311.0,662.4 309.1,662.4 307.3,662.4 305.4,662.4 303.6,662.4 301.7,662.4 299.8,662.4 298.0,662.4 296.1,662.4 294.3,662.4 292.4,662.4 290.6,662.4 288.7,662.4
286.9,662.4 285.0,662.4 283.2,662.4 281.3,662.4 279.5,662.4 277.6,662.4 275.7,662.4 273.9,662.4 272.0,662.4 270.2,662.4 268.3,662.4 266.5,662.4 264.6,662.4 262.8,662.4 260.9,662.4 259.1,662.4
257.2,662.4 255.4,662.4 253.5,662.4 251.6,662.4 249.8,662.4 247.9,662.4 246.1,662.4 244.2,662.4 242.4,662.4 240.5,662.4 238.7,662.4 236.8,662.4 235.0,662.4 233.1,662.4 231.3,662.4 229.4,662.4
227.5,662.4 225.7,662.4 223.8,662.4 222.0,662.4 220.1,662.4 218.3,662.4 216.4,662.4 214.6,662.4 212.7,662.4 210.9,662.4 209.0,662.4 207.2,662.4 205.3,662.4 203.4,662.4 201.6,662.4 199.7,662.4
197.9,662.4 196.0,662.4 194.2,662.4 192.3,662.4 190.5,662.4 188.6,662.4 186.8,662.4 184.9,662.4 183.0,662.4 181.2,662.4 179.3,662.4 177.5,662.4 175.6,662.4 173.8,662.4 '/>
	</g>
</g>
	</g>
	<g id="gnuplot_plot_3" ><title>Point estimate</title>
<g fill="none" color="white" stroke="rgb( 31, 120, 180)" stroke-width="2.00" stroke-linecap="butt" stroke-linejoin="miter">
</g>
<g fill="none" color="black" stroke="currentColor" stroke-width="2.00" stroke-linecap="butt" stroke-linejoin="miter">
	<g transform="translate(1089.0,103.0)" stroke="none" fill="black" font-family="Helvetica" font-size="12.00"  text-anchor="start">
		<text><tspan font-family="Helvetica" >Point estimate</tspan></text>
	</g>
</g>
<g fill="none" color="black" stroke="currentColor" stroke-width="2.00" stroke-linecap="butt" stroke-linejoin="miter">
	<path stroke='rgb( 31, 120, 180)'  d='M1038.5,99.1 L1080.7,99.1 M640.5,662.4 L640.5,70.0  '/></g>
	</g>
<g fill="none" color="black" stroke="currentColor" stroke-width="2.00" stroke-linecap="butt" stroke-linejoin="miter">
</g>
<g fill="none" color="black" stroke="black" stroke-width="1.00" stroke-linecap="butt" stroke-linejoin="miter">
</g>
<g fill="none" color="black" stroke="currentColor" stroke-width="1.00" stroke-linecap="butt" stroke-linejoin="miter">
	<path stroke='black'  d='M88.5,54.1 L88.5,662.4 L1013.6,662.4 L1013.6,54.1 L88.5,54.1 Z  '/></g>
<g fill="none" color="black" stroke="currentColor" stroke-width="1.00" stroke-linecap="butt" stroke-linejoin="miter">
</g>
</g>
</svg>

