<?xml version="1.0" encoding="utf-8"  standalone="no"?>
<svg 
 viewBox="0 0 1280 720"
 xmlns="http://www.w3.org/2000/svg"
 xmlns:xlink="http://www.w3.org/1999/xlink"
>

<title>Gnuplot</title>
<desc>Produced by GNUPLOT 5.2 patchlevel 6 </desc>

<g id="gnuplot_canvas">

<rect x="0" y="0" width="1280" height="720" fill="none"/>
<defs>

	<circle id='gpDot' r='0.5' stroke-width='0.5' stroke='currentColor'/>
	<path id='gpPt0' stroke-width='0.222' stroke='currentColor' d='M-1,0 h2 M0,-1 v2'/>
	<path id='gpPt1' stroke-width='0.222' stroke='currentColor' d='M-1,-1 L1,1 M1,-1 L-1,1'/>
	<path id='gpPt2' stroke-width='0.222' stroke='currentColor' d='M-1,0 L1,0 M0,-1 L0,1 M-1,-1 L1,1 M-1,1 L1,-1'/>
	<rect id='gpPt3' stroke-width='0.222' stroke='currentColor' x='-1' y='-1' width='2' height='2'/>
	<rect id='gpPt4' stroke-width='0.222' stroke='currentColor' fill='currentColor' x='-1' y='-1' width='2' height='2'/>
	<circle id='gpPt5' stroke-width='0.222' stroke='currentColor' cx='0' cy='0' r='1'/>
	<use xlink:href='#gpPt5' id='gpPt6' fill='currentColor' stroke='none'/>
	<path id='gpPt7' stroke-width='0.222' stroke='currentColor' d='M0,-1.33 L-1.33,0.67 L1.33,0.67 z'/>
	<use xlink:href='#gpPt7' id='gpPt8' fill='currentColor' stroke='none'/>
	<use xlink:href='#gpPt7' id='gpPt9' stroke='currentColor' transform='rotate(180)'/>
	<use xlink:href='#gpPt9' id='gpPt10' fill='currentColor' stroke='none'/>
	<use xlink:href='#gpPt3' id='gpPt11' stroke='currentColor' transform='rotate(45)'/>
	<use xlink:href='#gpPt11' id='gpPt12' fill='currentColor' stroke='none'/>
	<path id='gpPt13' stroke-width='0.222' stroke='currentColor' d='M0,1.330 L1.265,0.411 L0.782,-1.067 L-0.782,-1.076 L-1.265,0.411 z'/>
	<use xlink:href='#gpPt13' id='gpPt14' fill='currentColor' stroke='none'/>
	<filter id='textbox' filterUnits='objectBoundingBox' x='0' y='0' height='1' width='1'>
	  <feFlood flood-color='white' flood-opacity='1' result='bgnd'/>
	  <feComposite in='SourceGraphic' in2='bgnd' operator='atop'/>
	</filter>
	<filter id='greybox' filterUnits='objectBoundingBox' x='0' y='0' height='1' width='1'>
	  <feFlood flood-color='lightgrey' flood-opacity='1' result='grey'/>
	  <feComposite in='SourceGraphic' in2='grey' operator='atop'/>
	</filter>
</defs>
<g fill="none" color="white" stroke="currentColor" stroke-width="1.00" stroke-linecap="butt" stroke-linejoin="miter">
</g>
<g fill="none" color="black" stroke="currentColor" stroke-width="1.00" stroke-linecap="butt" stroke-linejoin="miter">
	<path stroke='black'  d='M71.9,662.4 L80.9,662.4  '/>	<g transform="translate(63.6,666.3)" stroke="none" fill="black" font-family="Helvetica" font-size="12.00"  text-anchor="end">
		<text><tspan font-family="Helvetica" > 0</tspan></text>
	</g>
</g>
<g fill="none" color="black" stroke="currentColor" stroke-width="1.00" stroke-linecap="butt" stroke-linejoin="miter">
	<path stroke='black'  d='M71.9,594.8 L80.9,594.8  '/>	<g transform="translate(63.6,598.7)" stroke="none" fill="black" font-family="Helvetica" font-size="12.00"  text-anchor="end">
		<text><tspan font-family="Helvetica" > 20</tspan></text>
	</g>
</g>
<g fill="none" color="black" stroke="currentColor" stroke-width="1.00" stroke-linecap="butt" stroke-linejoin="miter">
	<path stroke='black'  d='M71.9,527.2 L80.9,527.2  '/>	<g transform="translate(63.6,531.1)" stroke="none" fill="black" font-family="Helvetica" font-size="12.00"  text-anchor="end">
		<text><tspan font-family="Helvetica" > 40</tspan></text>
	</g>
</g>
<g fill="none" color="black" stroke="currentColor" stroke-width="1.00" stroke-linecap="butt" stroke-linejoin="miter">
	<path stroke='black'  d='M71.9,459.6 L80.9,459.6  '/>	<g transform="translate(63.6,463.5)" stroke="none" fill="black" font-family="Helvetica" font-size="12.00"  text-anchor="end">
		<text><tspan font-family="Helvetica" > 60</tspan></text>
	</g>
</g>
<g fill="none" color="black" stroke="currentColor" stroke-width="1.00" stroke-linecap="butt" stroke-linejoin="miter">
	<path stroke='black'  d='M71.9,392.0 L80.9,392.0  '/>	<g transform="translate(63.6,395.9)" stroke="none" fill="black" font-family="Helvetica" font-size="12.00"  text-anchor="end">
		<text><tspan font-family="Helvetica" > 80</tspan></text>
	</g>
</g>
<g fill="none" color="black" stroke="currentColor" stroke-width="1.00" stroke-linecap="butt" stroke-linejoin="miter">
	<path stroke='black'  d='M71.9,324.5 L80.9,324.5  '/>	<g transform="translate(63.6,328.4)" stroke="none" fill="black" font-family="Helvetica" font-size="12.00"  text-anchor="end">
		<text><tspan font-family="Helvetica" > 100</tspan></text>
	</g>
</g>
<g fill="none" color="black" stroke="currentColor" stroke-width="1.00" stroke-linecap="butt" stroke-linejoin="miter">
	<path stroke='black'  d='M71.9,256.9 L80.9,256.9  '/>	<g transform="translate(63.6,260.8)" stroke="none" fill="black" font-family="Helvetica" font-size="12.00"  text-anchor="end">
		<text><tspan font-family="Helvetica" > 120</tspan></text>
	</g>
</g>
<g fill="none" color="black" stroke="currentColor" stroke-width="1.00" stroke-linecap="butt" stroke-linejoin="miter">
	<path stroke='black'  d='M71.9,189.3 L80.9,189.3  '/>	<g transform="translate(63.6,193.2)" stroke="none" fill="black" font-family="Helvetica" font-size="12.00"  text-anchor="end">
		<text><tspan font-family="Helvetica" > 140</tspan></text>
	</g>
</g>
<g fill="none" color="black" stroke="currentColor" stroke-width="1.00" stroke-linecap="butt" stroke-linejoin="miter">
	<path stroke='black'  d='M71.9,121.7 L80.9,121.7  '/>	<g transform="translate(63.6,125.6)" stroke="none" fill="black" font-family="Helvetica" font-size="12.00"  text-anchor="end">
		<text><tspan font-family="Helvetica" > 160</tspan></text>
	</g>
</g>
<g fill="none" color="black" stroke="currentColor" stroke-width="1.00" stroke-linecap="butt" stroke-linejoin="miter">
	<path stroke='black'  d='M71.9,54.1 L80.9,54.1  '/>	<g transform="translate(63.6,58.0)" stroke="none" fill="black" font-family="Helvetica" font-size="12.00"  text-anchor="end">
		<text><tspan font-family="Helvetica" > 180</tspan></text>
	</g>
</g>
<g fill="none" color="black" stroke="currentColor" stroke-width="1.00" stroke-linecap="butt" stroke-linejoin="miter">
	<path stroke='black'  d='M135.9,662.4 L135.9,653.4  '/>	<g transform="translate(135.9,684.3)" stroke="none" fill="black" font-family="Helvetica" font-size="12.00"  text-anchor="middle">
		<text><tspan font-family="Helvetica" > 3.96</tspan></text>
	</g>
</g>
<g fill="none" color="black" stroke="currentColor" stroke-width="1.00" stroke-linecap="butt" stroke-linejoin="miter">
	<path stroke='black'  d='M297.3,662.4 L297.3,653.4  '/>	<g transform="translate(297.3,684.3)" stroke="none" fill="black" font-family="Helvetica" font-size="12.00"  text-anchor="middle">
		<text><tspan font-family="Helvetica" > 3.962</tspan></text>
	</g>
</g>
<g fill="none" color="black" stroke="currentColor" stroke-width="1.00" stroke-linecap="butt" stroke-linejoin="miter">
	<path stroke='black'  d='M458.7,662.4 L458.7,653.4  '/>	<g transform="translate(458.7,684.3)" stroke="none" fill="black" font-family="Helvetica" font-size="12.00"  text-anchor="middle">
		<text><tspan font-family="Helvetica" > 3.964</tspan></text>
	</g>
</g>
<g fill="none" color="black" stroke="currentColor" stroke-width="1.00" stroke-linecap="butt" stroke-linejoin="miter">
	<path stroke='black'  d='M620.0,662.4 L620.0,653.4  '/>	<g transform="translate(620.0,684.3)" stroke="none" fill="black" font-family="Helvetica" font-size="12.00"  text-anchor="middle">
		<text><tspan font-family="Helvetica" > 3.966</tspan></text>
	</g>
</g>
<g fill="none" color="black" stroke="currentColor" stroke-width="1.00" stroke-linecap="butt" stroke-linejoin="miter">
	<path stroke='black'  d='M781.4,662.4 L781.4,653.4  '/>	<g transform="translate(781.4,684.3)" stroke="none" fill="black" font-family="Helvetica" font-size="12.00"  text-anchor="middle">
		<text><tspan font-family="Helvetica" > 3.968</tspan></text>
	</g>
</g>
<g fill="none" color="black" stroke="currentColor" stroke-width="1.00" stroke-linecap="butt" stroke-linejoin="miter">
	<path stroke='black'  d='M942.8,662.4 L942.8,653.4  '/>	<g transform="translate(942.8,684.3)" stroke="none" fill="black" font-family="Helvetica" font-size="12.00"  text-anchor="middle">
		<text><tspan font-family="Helvetica" > 3.97</tspan></text>
	</g>
</g>
<g fill="none" color="black" stroke="currentColor" stroke-width="1.00" stroke-linecap="butt" stroke-linejoin="miter">
</g>
<g fill="none" color="black" stroke="currentColor" stroke-width="1.00" stroke-linecap="butt" stroke-linejoin="miter">
	<path stroke='black'  d='M71.9,54.1 L71.9,662.4 L1013.6,662.4 L1013.6,54.1 L71.9,54.1 Z  '/></g>
<g fill="none" color="black" stroke="currentColor" stroke-width="1.00" stroke-linecap="butt" stroke-linejoin="miter">
	<g transform="translate(16.3,358.3) rotate(270)" stroke="none" fill="black" font-family="Helvetica" font-size="12.00"  text-anchor="middle">
		<text><tspan font-family="Helvetica" >Density (a.u.)</tspan></text>
	</g>
</g>
<g fill="none" color="black" stroke="currentColor" stroke-width="1.00" stroke-linecap="butt" stroke-linejoin="miter">
	<g transform="translate(542.7,711.3)" stroke="none" fill="black" font-family="Helvetica" font-size="12.00"  text-anchor="middle">
		<text><tspan font-family="Helvetica" >Average time (ms)</tspan></text>
	</g>
</g>
<g fill="none" color="black" stroke="currentColor" stroke-width="1.00" stroke-linecap="butt" stroke-linejoin="miter">
	<g transform="translate(542.7,31.0)" stroke="none" fill="black" font-family="Helvetica" font-size="12.00"  text-anchor="middle">
		<text><tspan font-family="Helvetica" >snapshot_restore_with_dense/Sparse: Entire region + /proc/pid/mem/463: slope</tspan></text>
	</g>
</g>
	<g id="gnuplot_plot_1" ><title>Bootstrap distribution</title>
<g fill="none" color="white" stroke="black" stroke-width="2.00" stroke-linecap="butt" stroke-linejoin="miter">
</g>
<g fill="none" color="black" stroke="currentColor" stroke-width="2.00" stroke-linecap="butt" stroke-linejoin="miter">
	<g transform="translate(1089.0,67.0)" stroke="none" fill="black" font-family="Helvetica" font-size="12.00"  text-anchor="start">
		<text><tspan font-family="Helvetica" >Bootstrap distribution</tspan></text>
	</g>
</g>
<g fill="none" color="black" stroke="currentColor" stroke-width="2.00" stroke-linecap="butt" stroke-linejoin="miter">
	<path stroke='rgb( 31, 120, 180)'  d='M1038.5,63.1 L1080.7,63.1 M71.9,631.5 L73.8,630.2 L75.7,628.8 L77.6,627.4 L79.4,626.0 L81.3,624.5
		L83.2,623.0 L85.1,621.5 L87.0,619.9 L88.9,618.4 L90.8,616.8 L92.7,615.2 L94.5,613.5 L96.4,611.9
		L98.3,610.2 L100.2,608.5 L102.1,606.8 L104.0,605.1 L105.9,603.4 L107.8,601.6 L109.6,599.9 L111.5,598.1
		L113.4,596.2 L115.3,594.3 L117.2,592.4 L119.1,590.5 L121.0,588.5 L122.9,586.4 L124.7,584.3 L126.6,582.1
		L128.5,579.8 L130.4,577.4 L132.3,575.0 L134.2,572.5 L136.1,569.9 L138.0,567.3 L139.8,564.5 L141.7,561.7
		L143.6,558.9 L145.5,555.9 L147.4,552.9 L149.3,549.9 L151.2,546.8 L153.0,543.7 L154.9,540.5 L156.8,537.3
		L158.7,534.1 L160.6,530.9 L162.5,527.7 L164.4,524.4 L166.3,521.2 L168.1,518.0 L170.0,514.8 L171.9,511.5
		L173.8,508.3 L175.7,505.1 L177.6,501.9 L179.5,498.7 L181.4,495.4 L183.2,492.2 L185.1,488.9 L187.0,485.6
		L188.9,482.3 L190.8,479.0 L192.7,475.6 L194.6,472.2 L196.5,468.8 L198.3,465.3 L200.2,461.7 L202.1,458.1
		L204.0,454.5 L205.9,450.8 L207.8,447.0 L209.7,443.2 L211.6,439.3 L213.4,435.4 L215.3,431.5 L217.2,427.5
		L219.1,423.5 L221.0,419.5 L222.9,415.5 L224.8,411.4 L226.6,407.4 L228.5,403.3 L230.4,399.3 L232.3,395.3
		L234.2,391.3 L236.1,387.3 L238.0,383.3 L239.9,379.4 L241.7,375.5 L243.6,371.7 L245.5,367.9 L247.4,364.1
		L249.3,360.3 L251.2,356.6 L253.1,352.9 L255.0,349.2 L256.8,345.6 L258.7,342.0 L260.6,338.4 L262.5,334.8
		L264.4,331.2 L266.3,327.6 L268.2,324.0 L270.1,320.4 L271.9,316.9 L273.8,313.3 L275.7,309.7 L277.6,306.1
		L279.5,302.5 L281.4,298.9 L283.3,295.3 L285.2,291.6 L287.0,288.0 L288.9,284.3 L290.8,280.6 L292.7,276.9
		L294.6,273.2 L296.5,269.5 L298.4,265.8 L300.2,262.0 L302.1,258.3 L304.0,254.6 L305.9,250.9 L307.8,247.2
		L309.7,243.5 L311.6,239.9 L313.5,236.3 L315.3,232.8 L317.2,229.3 L319.1,225.9 L321.0,222.5 L322.9,219.1
		L324.8,215.9 L326.7,212.7 L328.6,209.5 L330.4,206.4 L332.3,203.4 L334.2,200.4 L336.1,197.4 L338.0,194.5
		L339.9,191.6 L341.8,188.8 L343.7,185.9 L345.5,183.1 L347.4,180.3 L349.3,177.5 L351.2,174.7 L353.1,171.9
		L355.0,169.1 L356.9,166.4 L358.8,163.6 L360.6,160.8 L362.5,158.1 L364.4,155.3 L366.3,152.7 L368.2,150.0
		L370.1,147.5 L372.0,145.0 L373.8,142.6 L375.7,140.3 L377.6,138.1 L379.5,136.0 L381.4,134.1 L383.3,132.3
		L385.2,130.6 L387.1,129.0 L388.9,127.6 L390.8,126.4 L392.7,125.2 L394.6,124.2 L396.5,123.3 L398.4,122.5
		L400.3,121.8 L402.2,121.2 L404.0,120.6 L405.9,120.1 L407.8,119.6 L409.7,119.2 L411.6,118.8 L413.5,118.4
		L415.4,118.0 L417.3,117.7 L419.1,117.3 L421.0,116.9 L422.9,116.5 L424.8,116.1 L426.7,115.7 L428.6,115.2
		L430.5,114.8 L432.4,114.4 L434.2,113.9 L436.1,113.5 L438.0,113.0 L439.9,112.6 L441.8,112.2 L443.7,111.9
		L445.6,111.5 L447.4,111.2 L449.3,111.0 L451.2,110.8 L453.1,110.6 L455.0,110.6 L456.9,110.6 L458.8,110.6
		L460.7,110.8 L462.5,111.0 L464.4,111.3 L466.3,111.6 L468.2,112.1 L470.1,112.6 L472.0,113.2 L473.9,113.9
		L475.8,114.6 L477.6,115.4 L479.5,116.2 L481.4,117.1 L483.3,118.0 L485.2,119.0 L487.1,120.0 L489.0,121.0
		L490.9,122.1 L492.7,123.2 L494.6,124.3 L496.5,125.4 L498.4,126.5 L500.3,127.6 L502.2,128.8 L504.1,129.9
		L506.0,131.1 L507.8,132.3 L509.7,133.4 L511.6,134.6 L513.5,135.8 L515.4,137.0 L517.3,138.3 L519.2,139.5
		L521.0,140.8 L522.9,142.2 L524.8,143.6 L526.7,145.0 L528.6,146.5 L530.5,148.0 L532.4,149.7 L534.3,151.4
		L536.1,153.1 L538.0,155.0 L539.9,156.9 L541.8,158.9 L543.7,160.9 L545.6,163.1 L547.5,165.3 L549.4,167.6
		L551.2,169.9 L553.1,172.3 L555.0,174.7 L556.9,177.2 L558.8,179.7 L560.7,182.2 L562.6,184.7 L564.5,187.3
		L566.3,189.8 L568.2,192.4 L570.1,194.9 L572.0,197.5 L573.9,200.0 L575.8,202.5 L577.7,205.0 L579.5,207.4
		L581.4,209.9 L583.3,212.3 L585.2,214.7 L587.1,217.1 L589.0,219.5 L590.9,221.8 L592.8,224.1 L594.6,226.5
		L596.5,228.8 L598.4,231.1 L600.3,233.4 L602.2,235.7 L604.1,238.0 L606.0,240.3 L607.9,242.6 L609.7,245.0
		L611.6,247.3 L613.5,249.7 L615.4,252.1 L617.3,254.5 L619.2,256.9 L621.1,259.4 L623.0,261.9 L624.8,264.5
		L626.7,267.1 L628.6,269.8 L630.5,272.5 L632.4,275.2 L634.3,278.0 L636.2,280.9 L638.1,283.8 L639.9,286.8
		L641.8,289.8 L643.7,292.9 L645.6,296.0 L647.5,299.2 L649.4,302.4 L651.3,305.6 L653.1,308.9 L655.0,312.2
		L656.9,315.6 L658.8,318.9 L660.7,322.3 L662.6,325.7 L664.5,329.0 L666.4,332.4 L668.2,335.8 L670.1,339.1
		L672.0,342.4 L673.9,345.7 L675.8,348.9 L677.7,352.2 L679.6,355.3 L681.5,358.5 L683.3,361.6 L685.2,364.6
		L687.1,367.6 L689.0,370.6 L690.9,373.5 L692.8,376.4 L694.7,379.3 L696.6,382.1 L698.4,384.8 L700.3,387.6
		L702.2,390.2 L704.1,392.9 L706.0,395.5 L707.9,398.1 L709.8,400.7 L711.7,403.3 L713.5,405.8 L715.4,408.3
		L717.3,410.8 L719.2,413.2 L721.1,415.7 L723.0,418.2 L724.9,420.6 L726.7,423.0 L728.6,425.5 L730.5,427.9
		L732.4,430.3 L734.3,432.8 L736.2,435.2 L738.1,437.7 L740.0,440.1 L741.8,442.6 L743.7,445.0 L745.6,447.5
		L747.5,450.0 L749.4,452.4 L751.3,454.9 L753.2,457.3 L755.1,459.8 L756.9,462.2 L758.8,464.6 L760.7,467.0
		L762.6,469.4 L764.5,471.7 L766.4,474.0 L768.3,476.3 L770.2,478.5 L772.0,480.7 L773.9,482.8 L775.8,484.9
		L777.7,487.0 L779.6,489.0 L781.5,490.9 L783.4,492.8 L785.3,494.7 L787.1,496.6 L789.0,498.4 L790.9,500.2
		L792.8,502.0 L794.7,503.7 L796.6,505.4 L798.5,507.2 L800.3,508.9 L802.2,510.6 L804.1,512.3 L806.0,514.0
		L807.9,515.7 L809.8,517.4 L811.7,519.1 L813.6,520.8 L815.4,522.6 L817.3,524.3 L819.2,526.0 L821.1,527.7
		L823.0,529.5 L824.9,531.2 L826.8,532.9 L828.7,534.6 L830.5,536.3 L832.4,538.0 L834.3,539.7 L836.2,541.3
		L838.1,543.0 L840.0,544.6 L841.9,546.2 L843.8,547.8 L845.6,549.3 L847.5,550.9 L849.4,552.4 L851.3,553.9
		L853.2,555.4 L855.1,556.8 L857.0,558.2 L858.9,559.6 L860.7,561.0 L862.6,562.4 L864.5,563.7 L866.4,565.1
		L868.3,566.4 L870.2,567.7 L872.1,569.0 L873.9,570.3 L875.8,571.6 L877.7,572.9 L879.6,574.2 L881.5,575.4
		L883.4,576.7 L885.3,578.0 L887.2,579.3 L889.0,580.6 L890.9,581.9 L892.8,583.2 L894.7,584.4 L896.6,585.7
		L898.5,587.0 L900.4,588.2 L902.3,589.4 L904.1,590.6 L906.0,591.8 L907.9,592.9 L909.8,594.0 L911.7,595.1
		L913.6,596.2 L915.5,597.2 L917.4,598.2 L919.2,599.2 L921.1,600.2 L923.0,601.2 L924.9,602.1 L926.8,603.0
		L928.7,603.9 L930.6,604.8 L932.5,605.7 L934.3,606.6 L936.2,607.4 L938.1,608.3 L940.0,609.1 L941.9,609.9
		L943.8,610.7 L945.7,611.4 L947.5,612.2 L949.4,612.9 L951.3,613.7 L953.2,614.3 L955.1,615.0 L957.0,615.7
		L958.9,616.3 L960.8,616.9 L962.6,617.5 L964.5,618.1 L966.4,618.6 L968.3,619.1 L970.2,619.7 L972.1,620.2
		L974.0,620.6 L975.9,621.1 L977.7,621.6 L979.6,622.1 L981.5,622.5 L983.4,623.0 L985.3,623.5 L987.2,623.9
		L989.1,624.4 L991.0,624.8 L992.8,625.3 L994.7,625.8 L996.6,626.2 L998.5,626.7 L1000.4,627.2 L1002.3,627.7
		L1004.2,628.1 L1006.1,628.6 L1007.9,629.1 L1009.8,629.6 L1011.7,630.1 L1013.6,630.5  '/></g>
	</g>
	<g id="gnuplot_plot_2" ><title>Confidence interval</title>
<g fill="none" color="white" stroke="rgb( 31, 120, 180)" stroke-width="1.00" stroke-linecap="butt" stroke-linejoin="miter">
</g>
<g fill="none" color="black" stroke="currentColor" stroke-width="1.00" stroke-linecap="butt" stroke-linejoin="miter">
	<g transform="translate(1089.0,85.0)" stroke="none" fill="black" font-family="Helvetica" font-size="12.00"  text-anchor="start">
		<text><tspan font-family="Helvetica" >Confidence interval</tspan></text>
	</g>
</g>
<g fill="none" color="black" stroke="currentColor" stroke-width="1.00" stroke-linecap="butt" stroke-linejoin="miter">
	<g stroke='none' shape-rendering='crispEdges'>
		<polygon fill = 'rgb( 31, 120, 180)' fill-opacity = '0.250000' points = '1038.5,85.6 1080.7,85.6 1080.7,76.6 1038.5,76.6 '/>
		<polygon fill = 'rgb( 31, 120, 180)' fill-opacity = '0.250000' points = '158.7,534.1 160.6,530.9 162.5,527.7 164.4,524.4 166.3,521.2 168.1,518.0 170.0,514.8 171.9,511.5 173.8,508.3 175.7,505.1 177.6,501.9 179.5,498.7 181.4,495.4 183.2,492.2 185.1,488.9 187.0,485.6
188.9,482.3 190.8,479.0 192.7,475.6 194.6,472.2 196.5,468.8 198.3,465.3 200.2,461.7 202.1,458.1 204.0,454.5 205.9,450.8 207.8,447.0 209.7,443.2 211.6,439.3 213.4,435.4 215.3,431.5 217.2,427.5
219.1,423.5 221.0,419.5 222.9,415.5 224.8,411.4 226.6,407.4 228.5,403.3 230.4,399.3 232.3,395.3 234.2,391.3 236.1,387.3 238.0,383.3 239.9,379.4 241.7,375.5 243.6,371.7 245.5,367.9 247.4,364.1
249.3,360.3 251.2,356.6 253.1,352.9 255.0,349.2 256.8,345.6 258.7,342.0 260.6,338.4 262.5,334.8 264.4,331.2 266.3,327.6 268.2,324.0 270.1,320.4 271.9,316.9 273.8,313.3 275.7,309.7 277.6,306.1
279.5,302.5 281.4,298.9 283.3,295.3 285.2,291.6 287.0,288.0 288.9,284.3 290.8,280.6 292.7,276.9 294.6,273.2 296.5,269.5 298.4,265.8 300.2,262.0 302.1,258.3 304.0,254.6 305.9,250.9 307.8,247.2
309.7,243.5 311.6,239.9 313.5,236.3 315.3,232.8 317.2,229.3 319.1,225.9 321.0,222.5 322.9,219.1 324.8,215.9 326.7,212.7 328.6,209.5 330.4,206.4 332.3,203.4 334.2,200.4 336.1,197.4 338.0,194.5
339.9,191.6 341.8,188.8 343.7,185.9 345.5,183.1 347.4,180.3 349.3,177.5 351.2,174.7 353.1,171.9 355.0,169.1 356.9,166.4 358.8,163.6 360.6,160.8 362.5,158.1 364.4,155.3 366.3,152.7 368.2,150.0
370.1,147.5 372.0,145.0 373.8,142.6 375.7,140.3 377.6,138.1 379.5,136.0 381.4,134.1 383.3,132.3 385.2,130.6 387.1,129.0 388.9,127.6 390.8,126.4 392.7,125.2 394.6,124.2 396.5,123.3 398.4,122.5
400.3,121.8 402.2,121.2 404.0,120.6 405.9,120.1 407.8,119.6 409.7,119.2 411.6,118.8 413.5,118.4 415.4,118.0 417.3,117.7 419.1,117.3 421.0,116.9 422.9,116.5 424.8,116.1 426.7,115.7 428.6,115.2
430.5,114.8 432.4,114.4 434.2,113.9 436.1,113.5 438.0,113.0 439.9,112.6 441.8,112.2 443.7,111.9 445.6,111.5 447.4,111.2 449.3,111.0 451.2,110.8 453.1,110.6 455.0,110.6 456.9,110.6 458.8,110.6
460.7,110.8 462.5,111.0 464.4,111.3 466.3,111.6 468.2,112.1 470.1,112.6 472.0,113.2 473.9,113.9 475.8,114.6 477.6,115.4 479.5,116.2 481.4,117.1 483.3,118.0 485.2,119.0 487.1,120.0 489.0,121.0
490.9,122.1 492.7,123.2 494.6,124.3 496.5,125.4 498.4,126.5 500.3,127.6 502.2,128.8 504.1,129.9 506.0,131.1 507.8,132.3 509.7,133.4 511.6,134.6 513.5,135.8 515.4,137.0 517.3,138.3 519.2,139.5
521.0,140.8 522.9,142.2 524.8,143.6 526.7,145.0 528.6,146.5 530.5,148.0 532.4,149.7 534.3,151.4 536.1,153.1 538.0,155.0 539.9,156.9 541.8,158.9 543.7,160.9 545.6,163.1 547.5,165.3 549.4,167.6
551.2,169.9 553.1,172.3 555.0,174.7 556.9,177.2 558.8,179.7 560.7,182.2 562.6,184.7 564.5,187.3 566.3,189.8 568.2,192.4 570.1,194.9 572.0,197.5 573.9,200.0 575.8,202.5 577.7,205.0 579.5,207.4
581.4,209.9 583.3,212.3 585.2,214.7 587.1,217.1 589.0,219.5 590.9,221.8 592.8,224.1 594.6,226.5 596.5,228.8 598.4,231.1 600.3,233.4 602.2,235.7 604.1,238.0 606.0,240.3 607.9,242.6 609.7,245.0
611.6,247.3 613.5,249.7 615.4,252.1 617.3,254.5 619.2,256.9 621.1,259.4 623.0,261.9 624.8,264.5 626.7,267.1 628.6,269.8 630.5,272.5 632.4,275.2 634.3,278.0 636.2,280.9 638.1,283.8 639.9,286.8
641.8,289.8 643.7,292.9 645.6,296.0 647.5,299.2 649.4,302.4 651.3,305.6 653.1,308.9 655.0,312.2 656.9,315.6 658.8,318.9 660.7,322.3 662.6,325.7 664.5,329.0 666.4,332.4 668.2,335.8 670.1,339.1
672.0,342.4 673.9,345.7 675.8,348.9 677.7,352.2 679.6,355.3 681.5,358.5 683.3,361.6 685.2,364.6 687.1,367.6 689.0,370.6 690.9,373.5 692.8,376.4 694.7,379.3 696.6,382.1 698.4,384.8 700.3,387.6
702.2,390.2 704.1,392.9 706.0,395.5 707.9,398.1 709.8,400.7 711.7,403.3 713.5,405.8 715.4,408.3 717.3,410.8 719.2,413.2 721.1,415.7 723.0,418.2 724.9,420.6 726.7,423.0 728.6,425.5 730.5,427.9
732.4,430.3 734.3,432.8 736.2,435.2 738.1,437.7 740.0,440.1 741.8,442.6 743.7,445.0 745.6,447.5 747.5,450.0 749.4,452.4 751.3,454.9 753.2,457.3 755.1,459.8 756.9,462.2 758.8,464.6 760.7,467.0
762.6,469.4 764.5,471.7 766.4,474.0 768.3,476.3 770.2,478.5 772.0,480.7 773.9,482.8 775.8,484.9 777.7,487.0 779.6,489.0 781.5,490.9 783.4,492.8 785.3,494.7 787.1,496.6 789.0,498.4 790.9,500.2
792.8,502.0 794.7,503.7 796.6,505.4 798.5,507.2 800.3,508.9 802.2,510.6 804.1,512.3 806.0,514.0 807.9,515.7 809.8,517.4 811.7,519.1 813.6,520.8 815.4,522.6 817.3,524.3 819.2,526.0 821.1,527.7
823.0,529.5 824.9,531.2 826.8,532.9 828.7,534.6 830.5,536.3 832.4,538.0 834.3,539.7 836.2,541.3 838.1,543.0 840.0,544.6 841.9,546.2 843.8,547.8 845.6,549.3 847.5,550.9 849.4,552.4 851.3,553.9
853.2,555.4 855.1,556.8 857.0,558.2 858.9,559.6 860.7,561.0 862.6,562.4 864.5,563.7 866.4,565.1 868.3,566.4 870.2,567.7 872.1,569.0 873.9,570.3 875.8,571.6 877.7,572.9 879.6,574.2 881.5,575.4
883.4,576.7 885.3,578.0 887.2,579.3 889.0,580.6 890.9,581.9 892.8,583.2 894.7,584.4 896.6,585.7 898.5,587.0 900.4,588.2 902.3,589.4 904.1,590.6 906.0,591.8 907.9,592.9 909.8,594.0 911.7,595.1
913.6,596.2 915.5,597.2 917.4,598.2 919.2,599.2 921.1,600.2 923.0,601.2 924.9,602.1 924.9,662.4 923.0,662.4 921.1,662.4 919.2,662.4 917.4,662.4 915.5,662.4 913.6,662.4 911.7,662.4 909.8,662.4
907.9,662.4 906.0,662.4 904.1,662.4 902.3,662.4 900.4,662.4 898.5,662.4 896.6,662.4 894.7,662.4 892.8,662.4 890.9,662.4 889.0,662.4 887.2,662.4 885.3,662.4 883.4,662.4 881.5,662.4 879.6,662.4
877.7,662.4 875.8,662.4 873.9,662.4 872.1,662.4 870.2,662.4 868.3,662.4 866.4,662.4 864.5,662.4 862.6,662.4 860.7,662.4 858.9,662.4 857.0,662.4 855.1,662.4 853.2,662.4 851.3,662.4 849.4,662.4
847.5,662.4 845.6,662.4 843.8,662.4 841.9,662.4 840.0,662.4 838.1,662.4 836.2,662.4 834.3,662.4 832.4,662.4 830.5,662.4 828.7,662.4 826.8,662.4 824.9,662.4 823.0,662.4 821.1,662.4 819.2,662.4
817.3,662.4 815.4,662.4 813.6,662.4 811.7,662.4 809.8,662.4 807.9,662.4 806.0,662.4 804.1,662.4 802.2,662.4 800.3,662.4 798.5,662.4 796.6,662.4 794.7,662.4 792.8,662.4 790.9,662.4 789.0,662.4
787.1,662.4 785.3,662.4 783.4,662.4 781.5,662.4 779.6,662.4 777.7,662.4 775.8,662.4 773.9,662.4 772.0,662.4 770.2,662.4 768.3,662.4 766.4,662.4 764.5,662.4 762.6,662.4 760.7,662.4 758.8,662.4
756.9,662.4 755.1,662.4 753.2,662.4 751.3,662.4 749.4,662.4 747.5,662.4 745.6,662.4 743.7,662.4 741.8,662.4 740.0,662.4 738.1,662.4 736.2,662.4 734.3,662.4 732.4,662.4 730.5,662.4 728.6,662.4
726.7,662.4 724.9,662.4 723.0,662.4 721.1,662.4 719.2,662.4 717.3,662.4 715.4,662.4 713.5,662.4 711.7,662.4 709.8,662.4 707.9,662.4 706.0,662.4 704.1,662.4 702.2,662.4 700.3,662.4 698.4,662.4
696.6,662.4 694.7,662.4 692.8,662.4 690.9,662.4 689.0,662.4 687.1,662.4 685.2,662.4 683.3,662.4 681.5,662.4 679.6,662.4 677.7,662.4 675.8,662.4 673.9,662.4 672.0,662.4 670.1,662.4 668.2,662.4
666.4,662.4 664.5,662.4 662.6,662.4 660.7,662.4 658.8,662.4 656.9,662.4 655.0,662.4 653.1,662.4 651.3,662.4 649.4,662.4 647.5,662.4 645.6,662.4 643.7,662.4 641.8,662.4 639.9,662.4 638.1,662.4
636.2,662.4 634.3,662.4 632.4,662.4 630.5,662.4 628.6,662.4 626.7,662.4 624.8,662.4 623.0,662.4 621.1,662.4 619.2,662.4 617.3,662.4 615.4,662.4 613.5,662.4 611.6,662.4 609.7,662.4 607.9,662.4
606.0,662.4 604.1,662.4 602.2,662.4 600.3,662.4 598.4,662.4 596.5,662.4 594.6,662.4 592.8,662.4 590.9,662.4 589.0,662.4 587.1,662.4 585.2,662.4 583.3,662.4 581.4,662.4 579.5,662.4 577.7,662.4
575.8,662.4 573.9,662.4 572.0,662.4 570.1,662.4 568.2,662.4 566.3,662.4 564.5,662.4 562.6,662.4 560.7,662.4 558.8,662.4 556.9,662.4 555.0,662.4 553.1,662.4 551.2,662.4 549.4,662.4 547.5,662.4
545.6,662.4 543.7,662.4 541.8,662.4 539.9,662.4 538.0,662.4 536.1,662.4 534.3,662.4 532.4,662.4 530.5,662.4 528.6,662.4 526.7,662.4 524.8,662.4 522.9,662.4 521.0,662.4 519.2,662.4 517.3,662.4
515.4,662.4 513.5,662.4 511.6,662.4 509.7,662.4 507.8,662.4 506.0,662.4 504.1,662.4 502.2,662.4 500.3,662.4 498.4,662.4 496.5,662.4 494.6,662.4 492.7,662.4 490.9,662.4 489.0,662.4 487.1,662.4
485.2,662.4 483.3,662.4 481.4,662.4 479.5,662.4 477.6,662.4 475.8,662.4 473.9,662.4 472.0,662.4 470.1,662.4 468.2,662.4 466.3,662.4 464.4,662.4 462.5,662.4 460.7,662.4 458.8,662.4 456.9,662.4
455.0,662.4 453.1,662.4 451.2,662.4 449.3,662.4 447.4,662.4 445.6,662.4 443.7,662.4 441.8,662.4 439.9,662.4 438.0,662.4 436.1,662.4 434.2,662.4 432.4,662.4 430.5,662.4 428.6,662.4 426.7,662.4
424.8,662.4 422.9,662.4 421.0,662.4 419.1,662.4 417.3,662.4 415.4,662.4 413.5,662.4 411.6,662.4 409.7,662.4 407.8,662.4 405.9,662.4 404.0,662.4 402.2,662.4 400.3,662.4 398.4,662.4 396.5,662.4
394.6,662.4 392.7,662.4 390.8,662.4 388.9,662.4 387.1,662.4 385.2,662.4 383.3,662.4 381.4,662.4 379.5,662.4 377.6,662.4 375.7,662.4 373.8,662.4 372.0,662.4 370.1,662.4 368.2,662.4 366.3,662.4
364.4,662.4 362.5,662.4 360.6,662.4 358.8,662.4 356.9,662.4 355.0,662.4 353.1,662.4 351.2,662.4 349.3,662.4 347.4,662.4 345.5,662.4 343.7,662.4 341.8,662.4 339.9,662.4 338.0,662.4 336.1,662.4
334.2,662.4 332.3,662.4 330.4,662.4 328.6,662.4 326.7,662.4 324.8,662.4 322.9,662.4 321.0,662.4 319.1,662.4 317.2,662.4 315.3,662.4 313.5,662.4 311.6,662.4 309.7,662.4 307.8,662.4 305.9,662.4
304.0,662.4 302.1,662.4 300.2,662.4 298.4,662.4 296.5,662.4 294.6,662.4 292.7,662.4 290.8,662.4 288.9,662.4 287.0,662.4 285.2,662.4 283.3,662.4 281.4,662.4 279.5,662.4 277.6,662.4 275.7,662.4
273.8,662.4 271.9,662.4 270.1,662.4 268.2,662.4 266.3,662.4 264.4,662.4 262.5,662.4 260.6,662.4 258.7,662.4 256.8,662.4 255.0,662.4 253.1,662.4 251.2,662.4 249.3,662.4 247.4,662.4 245.5,662.4
243.6,662.4 241.7,662.4 239.9,662.4 238.0,662.4 236.1,662.4 234.2,662.4 232.3,662.4 230.4,662.4 228.5,662.4 226.6,662.4 224.8,662.4 222.9,662.4 221.0,662.4 219.1,662.4 217.2,662.4 215.3,662.4
213.4,662.4 211.6,662.4 209.7,662.4 207.8,662.4 205.9,662.4 204.0,662.4 202.1,662.4 200.2,662.4 198.3,662.4 196.5,662.4 194.6,662.4 192.7,662.4 190.8,662.4 188.9,662.4 187.0,662.4 185.1,662.4
183.2,662.4 181.4,662.4 179.5,662.4 177.6,662.4 175.7,662.4 173.8,662.4 171.9,662.4 170.0,662.4 168.1,662.4 166.3,662.4 164.4,662.4 162.5,662.4 160.6,662.4 158.7,662.4 '/>
	</g>
</g>
	</g>
	<g id="gnuplot_plot_3" ><title>Point estimate</title>
<g fill="none" color="white" stroke="rgb( 31, 120, 180)" stroke-width="2.00" stroke-linecap="butt" stroke-linejoin="miter">
</g>
<g fill="none" color="black" stroke="currentColor" stroke-width="2.00" stroke-linecap="butt" stroke-linejoin="miter">
	<g transform="translate(1089.0,103.0)" stroke="none" fill="black" font-family="Helvetica" font-size="12.00"  text-anchor="start">
		<text><tspan font-family="Helvetica" >Point estimate</tspan></text>
	</g>
</g>
<g fill="none" color="black" stroke="currentColor" stroke-width="2.00" stroke-linecap="butt" stroke-linejoin="miter">
	<path stroke='rgb( 31, 120, 180)'  d='M1038.5,99.1 L1080.7,99.1 M493.4,662.4 L493.4,123.6  '/></g>
	</g>
<g fill="none" color="black" stroke="currentColor" stroke-width="2.00" stroke-linecap="butt" stroke-linejoin="miter">
</g>
<g fill="none" color="black" stroke="black" stroke-width="1.00" stroke-linecap="butt" stroke-linejoin="miter">
</g>
<g fill="none" color="black" stroke="currentColor" stroke-width="1.00" stroke-linecap="butt" stroke-linejoin="miter">
	<path stroke='black'  d='M71.9,54.1 L71.9,662.4 L1013.6,662.4 L1013.6,54.1 L71.9,54.1 Z  '/></g>
<g fill="none" color="black" stroke="currentColor" stroke-width="1.00" stroke-linecap="butt" stroke-linejoin="miter">
</g>
</g>
</svg>

