<?xml version="1.0" encoding="utf-8"  standalone="no"?>
<svg 
 viewBox="0 0 1280 720"
 xmlns="http://www.w3.org/2000/svg"
 xmlns:xlink="http://www.w3.org/1999/xlink"
>

<title>Gnuplot</title>
<desc>Produced by GNUPLOT 5.2 patchlevel 6 </desc>

<g id="gnuplot_canvas">

<rect x="0" y="0" width="1280" height="720" fill="none"/>
<defs>

	<circle id='gpDot' r='0.5' stroke-width='0.5' stroke='currentColor'/>
	<path id='gpPt0' stroke-width='0.222' stroke='currentColor' d='M-1,0 h2 M0,-1 v2'/>
	<path id='gpPt1' stroke-width='0.222' stroke='currentColor' d='M-1,-1 L1,1 M1,-1 L-1,1'/>
	<path id='gpPt2' stroke-width='0.222' stroke='currentColor' d='M-1,0 L1,0 M0,-1 L0,1 M-1,-1 L1,1 M-1,1 L1,-1'/>
	<rect id='gpPt3' stroke-width='0.222' stroke='currentColor' x='-1' y='-1' width='2' height='2'/>
	<rect id='gpPt4' stroke-width='0.222' stroke='currentColor' fill='currentColor' x='-1' y='-1' width='2' height='2'/>
	<circle id='gpPt5' stroke-width='0.222' stroke='currentColor' cx='0' cy='0' r='1'/>
	<use xlink:href='#gpPt5' id='gpPt6' fill='currentColor' stroke='none'/>
	<path id='gpPt7' stroke-width='0.222' stroke='currentColor' d='M0,-1.33 L-1.33,0.67 L1.33,0.67 z'/>
	<use xlink:href='#gpPt7' id='gpPt8' fill='currentColor' stroke='none'/>
	<use xlink:href='#gpPt7' id='gpPt9' stroke='currentColor' transform='rotate(180)'/>
	<use xlink:href='#gpPt9' id='gpPt10' fill='currentColor' stroke='none'/>
	<use xlink:href='#gpPt3' id='gpPt11' stroke='currentColor' transform='rotate(45)'/>
	<use xlink:href='#gpPt11' id='gpPt12' fill='currentColor' stroke='none'/>
	<path id='gpPt13' stroke-width='0.222' stroke='currentColor' d='M0,1.330 L1.265,0.411 L0.782,-1.067 L-0.782,-1.076 L-1.265,0.411 z'/>
	<use xlink:href='#gpPt13' id='gpPt14' fill='currentColor' stroke='none'/>
	<filter id='textbox' filterUnits='objectBoundingBox' x='0' y='0' height='1' width='1'>
	  <feFlood flood-color='white' flood-opacity='1' result='bgnd'/>
	  <feComposite in='SourceGraphic' in2='bgnd' operator='atop'/>
	</filter>
	<filter id='greybox' filterUnits='objectBoundingBox' x='0' y='0' height='1' width='1'>
	  <feFlood flood-color='lightgrey' flood-opacity='1' result='grey'/>
	  <feComposite in='SourceGraphic' in2='grey' operator='atop'/>
	</filter>
</defs>
<g fill="none" color="white" stroke="currentColor" stroke-width="1.00" stroke-linecap="butt" stroke-linejoin="miter">
</g>
<g fill="none" color="black" stroke="currentColor" stroke-width="1.00" stroke-linecap="butt" stroke-linejoin="miter">
	<path stroke='black'  d='M71.9,662.4 L80.9,662.4  '/>	<g transform="translate(63.6,666.3)" stroke="none" fill="black" font-family="Helvetica" font-size="12.00"  text-anchor="end">
		<text><tspan font-family="Helvetica" > 0</tspan></text>
	</g>
</g>
<g fill="none" color="black" stroke="currentColor" stroke-width="1.00" stroke-linecap="butt" stroke-linejoin="miter">
	<path stroke='black'  d='M71.9,594.8 L80.9,594.8  '/>	<g transform="translate(63.6,598.7)" stroke="none" fill="black" font-family="Helvetica" font-size="12.00"  text-anchor="end">
		<text><tspan font-family="Helvetica" > 0.1</tspan></text>
	</g>
</g>
<g fill="none" color="black" stroke="currentColor" stroke-width="1.00" stroke-linecap="butt" stroke-linejoin="miter">
	<path stroke='black'  d='M71.9,527.2 L80.9,527.2  '/>	<g transform="translate(63.6,531.1)" stroke="none" fill="black" font-family="Helvetica" font-size="12.00"  text-anchor="end">
		<text><tspan font-family="Helvetica" > 0.2</tspan></text>
	</g>
</g>
<g fill="none" color="black" stroke="currentColor" stroke-width="1.00" stroke-linecap="butt" stroke-linejoin="miter">
	<path stroke='black'  d='M71.9,459.6 L80.9,459.6  '/>	<g transform="translate(63.6,463.5)" stroke="none" fill="black" font-family="Helvetica" font-size="12.00"  text-anchor="end">
		<text><tspan font-family="Helvetica" > 0.3</tspan></text>
	</g>
</g>
<g fill="none" color="black" stroke="currentColor" stroke-width="1.00" stroke-linecap="butt" stroke-linejoin="miter">
	<path stroke='black'  d='M71.9,392.0 L80.9,392.0  '/>	<g transform="translate(63.6,395.9)" stroke="none" fill="black" font-family="Helvetica" font-size="12.00"  text-anchor="end">
		<text><tspan font-family="Helvetica" > 0.4</tspan></text>
	</g>
</g>
<g fill="none" color="black" stroke="currentColor" stroke-width="1.00" stroke-linecap="butt" stroke-linejoin="miter">
	<path stroke='black'  d='M71.9,324.5 L80.9,324.5  '/>	<g transform="translate(63.6,328.4)" stroke="none" fill="black" font-family="Helvetica" font-size="12.00"  text-anchor="end">
		<text><tspan font-family="Helvetica" > 0.5</tspan></text>
	</g>
</g>
<g fill="none" color="black" stroke="currentColor" stroke-width="1.00" stroke-linecap="butt" stroke-linejoin="miter">
	<path stroke='black'  d='M71.9,256.9 L80.9,256.9  '/>	<g transform="translate(63.6,260.8)" stroke="none" fill="black" font-family="Helvetica" font-size="12.00"  text-anchor="end">
		<text><tspan font-family="Helvetica" > 0.6</tspan></text>
	</g>
</g>
<g fill="none" color="black" stroke="currentColor" stroke-width="1.00" stroke-linecap="butt" stroke-linejoin="miter">
	<path stroke='black'  d='M71.9,189.3 L80.9,189.3  '/>	<g transform="translate(63.6,193.2)" stroke="none" fill="black" font-family="Helvetica" font-size="12.00"  text-anchor="end">
		<text><tspan font-family="Helvetica" > 0.7</tspan></text>
	</g>
</g>
<g fill="none" color="black" stroke="currentColor" stroke-width="1.00" stroke-linecap="butt" stroke-linejoin="miter">
	<path stroke='black'  d='M71.9,121.7 L80.9,121.7  '/>	<g transform="translate(63.6,125.6)" stroke="none" fill="black" font-family="Helvetica" font-size="12.00"  text-anchor="end">
		<text><tspan font-family="Helvetica" > 0.8</tspan></text>
	</g>
</g>
<g fill="none" color="black" stroke="currentColor" stroke-width="1.00" stroke-linecap="butt" stroke-linejoin="miter">
	<path stroke='black'  d='M71.9,54.1 L80.9,54.1  '/>	<g transform="translate(63.6,58.0)" stroke="none" fill="black" font-family="Helvetica" font-size="12.00"  text-anchor="end">
		<text><tspan font-family="Helvetica" > 0.9</tspan></text>
	</g>
</g>
<g fill="none" color="black" stroke="currentColor" stroke-width="1.00" stroke-linecap="butt" stroke-linejoin="miter">
	<path stroke='black'  d='M206.4,662.4 L206.4,653.4  '/>	<g transform="translate(206.4,684.3)" stroke="none" fill="black" font-family="Helvetica" font-size="12.00"  text-anchor="middle">
		<text><tspan font-family="Helvetica" > 2</tspan></text>
	</g>
</g>
<g fill="none" color="black" stroke="currentColor" stroke-width="1.00" stroke-linecap="butt" stroke-linejoin="miter">
	<path stroke='black'  d='M363.2,662.4 L363.2,653.4  '/>	<g transform="translate(363.2,684.3)" stroke="none" fill="black" font-family="Helvetica" font-size="12.00"  text-anchor="middle">
		<text><tspan font-family="Helvetica" > 2.5</tspan></text>
	</g>
</g>
<g fill="none" color="black" stroke="currentColor" stroke-width="1.00" stroke-linecap="butt" stroke-linejoin="miter">
	<path stroke='black'  d='M520.0,662.4 L520.0,653.4  '/>	<g transform="translate(520.0,684.3)" stroke="none" fill="black" font-family="Helvetica" font-size="12.00"  text-anchor="middle">
		<text><tspan font-family="Helvetica" > 3</tspan></text>
	</g>
</g>
<g fill="none" color="black" stroke="currentColor" stroke-width="1.00" stroke-linecap="butt" stroke-linejoin="miter">
	<path stroke='black'  d='M676.8,662.4 L676.8,653.4  '/>	<g transform="translate(676.8,684.3)" stroke="none" fill="black" font-family="Helvetica" font-size="12.00"  text-anchor="middle">
		<text><tspan font-family="Helvetica" > 3.5</tspan></text>
	</g>
</g>
<g fill="none" color="black" stroke="currentColor" stroke-width="1.00" stroke-linecap="butt" stroke-linejoin="miter">
	<path stroke='black'  d='M833.6,662.4 L833.6,653.4  '/>	<g transform="translate(833.6,684.3)" stroke="none" fill="black" font-family="Helvetica" font-size="12.00"  text-anchor="middle">
		<text><tspan font-family="Helvetica" > 4</tspan></text>
	</g>
</g>
<g fill="none" color="black" stroke="currentColor" stroke-width="1.00" stroke-linecap="butt" stroke-linejoin="miter">
	<path stroke='black'  d='M990.4,662.4 L990.4,653.4  '/>	<g transform="translate(990.4,684.3)" stroke="none" fill="black" font-family="Helvetica" font-size="12.00"  text-anchor="middle">
		<text><tspan font-family="Helvetica" > 4.5</tspan></text>
	</g>
</g>
<g fill="none" color="black" stroke="currentColor" stroke-width="1.00" stroke-linecap="butt" stroke-linejoin="miter">
</g>
<g fill="none" color="black" stroke="currentColor" stroke-width="1.00" stroke-linecap="butt" stroke-linejoin="miter">
	<path stroke='black'  d='M71.9,54.1 L71.9,662.4 L1013.6,662.4 L1013.6,54.1 L71.9,54.1 Z  '/></g>
<g fill="none" color="black" stroke="currentColor" stroke-width="1.00" stroke-linecap="butt" stroke-linejoin="miter">
	<g transform="translate(16.3,358.3) rotate(270)" stroke="none" fill="black" font-family="Helvetica" font-size="12.00"  text-anchor="middle">
		<text><tspan font-family="Helvetica" >Density (a.u.)</tspan></text>
	</g>
</g>
<g fill="none" color="black" stroke="currentColor" stroke-width="1.00" stroke-linecap="butt" stroke-linejoin="miter">
	<g transform="translate(542.7,711.3)" stroke="none" fill="black" font-family="Helvetica" font-size="12.00"  text-anchor="middle">
		<text><tspan font-family="Helvetica" >Average time (us)</tspan></text>
	</g>
</g>
<g fill="none" color="black" stroke="currentColor" stroke-width="1.00" stroke-linecap="butt" stroke-linejoin="miter">
	<g transform="translate(542.7,31.0)" stroke="none" fill="black" font-family="Helvetica" font-size="12.00"  text-anchor="middle">
		<text><tspan font-family="Helvetica" >snapshot_restore_with_dense/Sparse: Entire region + process_vm_writev w/ page size/463: MAD</tspan></text>
	</g>
</g>
	<g id="gnuplot_plot_1" ><title>Bootstrap distribution</title>
<g fill="none" color="white" stroke="black" stroke-width="2.00" stroke-linecap="butt" stroke-linejoin="miter">
</g>
<g fill="none" color="black" stroke="currentColor" stroke-width="2.00" stroke-linecap="butt" stroke-linejoin="miter">
	<g transform="translate(1089.0,67.0)" stroke="none" fill="black" font-family="Helvetica" font-size="12.00"  text-anchor="start">
		<text><tspan font-family="Helvetica" >Bootstrap distribution</tspan></text>
	</g>
</g>
<g fill="none" color="black" stroke="currentColor" stroke-width="2.00" stroke-linecap="butt" stroke-linejoin="miter">
	<path stroke='rgb( 31, 120, 180)'  d='M1038.5,63.1 L1080.7,63.1 M71.9,641.1 L73.8,640.4 L75.7,639.6 L77.6,638.8 L79.4,637.9 L81.3,636.9
		L83.2,636.0 L85.1,634.9 L87.0,633.8 L88.9,632.7 L90.8,631.5 L92.7,630.2 L94.5,628.9 L96.4,627.5
		L98.3,626.1 L100.2,624.5 L102.1,623.0 L104.0,621.3 L105.9,619.6 L107.8,617.8 L109.6,616.0 L111.5,614.1
		L113.4,612.1 L115.3,610.1 L117.2,608.0 L119.1,605.9 L121.0,603.7 L122.9,601.4 L124.7,599.1 L126.6,596.7
		L128.5,594.2 L130.4,591.7 L132.3,589.1 L134.2,586.4 L136.1,583.6 L138.0,580.8 L139.8,577.9 L141.7,574.9
		L143.6,571.8 L145.5,568.6 L147.4,565.3 L149.3,561.9 L151.2,558.4 L153.0,554.8 L154.9,551.1 L156.8,547.3
		L158.7,543.4 L160.6,539.3 L162.5,535.2 L164.4,530.9 L166.3,526.6 L168.1,522.2 L170.0,517.7 L171.9,513.2
		L173.8,508.5 L175.7,503.9 L177.6,499.1 L179.5,494.4 L181.4,489.5 L183.2,484.7 L185.1,479.7 L187.0,474.7
		L188.9,469.7 L190.8,464.5 L192.7,459.2 L194.6,453.8 L196.5,448.3 L198.3,442.5 L200.2,436.6 L202.1,430.4
		L204.0,424.0 L205.9,417.3 L207.8,410.3 L209.7,403.0 L211.6,395.4 L213.4,387.6 L215.3,379.4 L217.2,371.0
		L219.1,362.4 L221.0,353.6 L222.9,344.7 L224.8,335.6 L226.6,326.6 L228.5,317.5 L230.4,308.6 L232.3,299.8
		L234.2,291.2 L236.1,282.9 L238.0,274.9 L239.9,267.2 L241.7,260.0 L243.6,253.2 L245.5,246.8 L247.4,240.8
		L249.3,235.4 L251.2,230.3 L253.1,225.6 L255.0,221.4 L256.8,217.4 L258.7,213.8 L260.6,210.5 L262.5,207.3
		L264.4,204.4 L266.3,201.5 L268.2,198.7 L270.1,195.9 L271.9,193.1 L273.8,190.2 L275.7,187.2 L277.6,184.0
		L279.5,180.6 L281.4,177.1 L283.3,173.3 L285.2,169.3 L287.0,165.0 L288.9,160.6 L290.8,155.9 L292.7,151.1
		L294.6,146.1 L296.5,141.1 L298.4,136.1 L300.2,131.0 L302.1,126.1 L304.0,121.3 L305.9,116.7 L307.8,112.4
		L309.7,108.4 L311.6,104.7 L313.5,101.4 L315.3,98.6 L317.2,96.2 L319.1,94.3 L321.0,92.8 L322.9,91.8
		L324.8,91.2 L326.7,91.0 L328.6,91.2 L330.4,91.7 L332.3,92.6 L334.2,93.7 L336.1,95.0 L338.0,96.5
		L339.9,98.2 L341.8,99.9 L343.7,101.7 L345.5,103.6 L347.4,105.4 L349.3,107.3 L351.2,109.1 L353.1,110.9
		L355.0,112.6 L356.9,114.3 L358.8,116.0 L360.6,117.7 L362.5,119.3 L364.4,120.9 L366.3,122.6 L368.2,124.3
		L370.1,126.0 L372.0,127.7 L373.8,129.6 L375.7,131.4 L377.6,133.4 L379.5,135.4 L381.4,137.4 L383.3,139.5
		L385.2,141.5 L387.1,143.6 L388.9,145.7 L390.8,147.8 L392.7,149.8 L394.6,151.9 L396.5,153.8 L398.4,155.8
		L400.3,157.7 L402.2,159.6 L404.0,161.5 L405.9,163.4 L407.8,165.3 L409.7,167.3 L411.6,169.4 L413.5,171.5
		L415.4,173.8 L417.3,176.1 L419.1,178.6 L421.0,181.3 L422.9,184.1 L424.8,187.1 L426.7,190.2 L428.6,193.5
		L430.5,197.0 L432.4,200.6 L434.2,204.4 L436.1,208.4 L438.0,212.5 L439.9,216.8 L441.8,221.2 L443.7,225.9
		L445.6,230.7 L447.4,235.7 L449.3,240.9 L451.2,246.2 L453.1,251.8 L455.0,257.5 L456.9,263.4 L458.8,269.4
		L460.7,275.5 L462.5,281.8 L464.4,288.1 L466.3,294.5 L468.2,300.9 L470.1,307.3 L472.0,313.6 L473.9,319.8
		L475.8,325.9 L477.6,331.8 L479.5,337.5 L481.4,343.0 L483.3,348.2 L485.2,353.2 L487.1,357.9 L489.0,362.2
		L490.9,366.3 L492.7,370.1 L494.6,373.6 L496.5,376.7 L498.4,379.6 L500.3,382.3 L502.2,384.6 L504.1,386.8
		L506.0,388.8 L507.8,390.6 L509.7,392.2 L511.6,393.8 L513.5,395.3 L515.4,396.7 L517.3,398.2 L519.2,399.7
		L521.0,401.3 L522.9,402.9 L524.8,404.6 L526.7,406.5 L528.6,408.5 L530.5,410.5 L532.4,412.8 L534.3,415.1
		L536.1,417.5 L538.0,420.0 L539.9,422.6 L541.8,425.2 L543.7,427.8 L545.6,430.4 L547.5,433.0 L549.4,435.5
		L551.2,437.9 L553.1,440.2 L555.0,442.4 L556.9,444.5 L558.8,446.5 L560.7,448.3 L562.6,450.0 L564.5,451.5
		L566.3,453.0 L568.2,454.3 L570.1,455.5 L572.0,456.7 L573.9,457.8 L575.8,458.8 L577.7,459.9 L579.5,460.9
		L581.4,461.9 L583.3,462.9 L585.2,463.9 L587.1,464.9 L589.0,466.0 L590.9,467.1 L592.8,468.2 L594.6,469.3
		L596.5,470.5 L598.4,471.6 L600.3,472.8 L602.2,473.9 L604.1,475.0 L606.0,476.1 L607.9,477.2 L609.7,478.3
		L611.6,479.3 L613.5,480.3 L615.4,481.2 L617.3,482.2 L619.2,483.1 L621.1,484.1 L623.0,485.0 L624.8,486.0
		L626.7,487.0 L628.6,488.1 L630.5,489.2 L632.4,490.4 L634.3,491.6 L636.2,492.9 L638.1,494.2 L639.9,495.5
		L641.8,496.8 L643.7,498.1 L645.6,499.3 L647.5,500.5 L649.4,501.6 L651.3,502.6 L653.1,503.5 L655.0,504.3
		L656.9,504.9 L658.8,505.4 L660.7,505.8 L662.6,506.1 L664.5,506.3 L666.4,506.4 L668.2,506.5 L670.1,506.6
		L672.0,506.7 L673.9,506.8 L675.8,507.0 L677.7,507.4 L679.6,507.8 L681.5,508.4 L683.3,509.2 L685.2,510.2
		L687.1,511.3 L689.0,512.6 L690.9,514.1 L692.8,515.7 L694.7,517.5 L696.6,519.4 L698.4,521.4 L700.3,523.5
		L702.2,525.6 L704.1,527.8 L706.0,529.9 L707.9,532.1 L709.8,534.2 L711.7,536.3 L713.5,538.3 L715.4,540.2
		L717.3,542.0 L719.2,543.8 L721.1,545.4 L723.0,547.0 L724.9,548.5 L726.7,549.9 L728.6,551.2 L730.5,552.5
		L732.4,553.7 L734.3,554.8 L736.2,555.9 L738.1,556.9 L740.0,557.9 L741.8,558.8 L743.7,559.7 L745.6,560.5
		L747.5,561.3 L749.4,562.1 L751.3,562.8 L753.2,563.5 L755.1,564.2 L756.9,564.9 L758.8,565.5 L760.7,566.1
		L762.6,566.6 L764.5,567.2 L766.4,567.8 L768.3,568.3 L770.2,568.9 L772.0,569.4 L773.9,570.0 L775.8,570.6
		L777.7,571.2 L779.6,571.8 L781.5,572.5 L783.4,573.2 L785.3,573.9 L787.1,574.7 L789.0,575.5 L790.9,576.3
		L792.8,577.1 L794.7,578.0 L796.6,578.8 L798.5,579.7 L800.3,580.6 L802.2,581.5 L804.1,582.3 L806.0,583.2
		L807.9,584.0 L809.8,584.8 L811.7,585.5 L813.6,586.2 L815.4,586.8 L817.3,587.4 L819.2,588.0 L821.1,588.5
		L823.0,589.0 L824.9,589.4 L826.8,589.8 L828.7,590.1 L830.5,590.4 L832.4,590.7 L834.3,591.0 L836.2,591.3
		L838.1,591.6 L840.0,591.9 L841.9,592.1 L843.8,592.4 L845.6,592.7 L847.5,593.0 L849.4,593.4 L851.3,593.7
		L853.2,594.1 L855.1,594.4 L857.0,594.8 L858.9,595.2 L860.7,595.5 L862.6,595.9 L864.5,596.3 L866.4,596.7
		L868.3,597.1 L870.2,597.5 L872.1,597.9 L873.9,598.3 L875.8,598.7 L877.7,599.1 L879.6,599.5 L881.5,599.9
		L883.4,600.4 L885.3,600.8 L887.2,601.3 L889.0,601.8 L890.9,602.3 L892.8,602.8 L894.7,603.4 L896.6,604.0
		L898.5,604.6 L900.4,605.2 L902.3,605.8 L904.1,606.5 L906.0,607.2 L907.9,607.8 L909.8,608.5 L911.7,609.2
		L913.6,609.9 L915.5,610.6 L917.4,611.4 L919.2,612.1 L921.1,612.8 L923.0,613.5 L924.9,614.2 L926.8,614.9
		L928.7,615.6 L930.6,616.3 L932.5,617.0 L934.3,617.7 L936.2,618.4 L938.1,619.1 L940.0,619.8 L941.9,620.4
		L943.8,621.1 L945.7,621.7 L947.5,622.4 L949.4,623.0 L951.3,623.6 L953.2,624.2 L955.1,624.8 L957.0,625.3
		L958.9,625.9 L960.8,626.4 L962.6,626.9 L964.5,627.4 L966.4,627.9 L968.3,628.4 L970.2,628.8 L972.1,629.3
		L974.0,629.7 L975.9,630.1 L977.7,630.6 L979.6,631.0 L981.5,631.4 L983.4,631.9 L985.3,632.3 L987.2,632.8
		L989.1,633.2 L991.0,633.7 L992.8,634.1 L994.7,634.6 L996.6,635.1 L998.5,635.5 L1000.4,636.0 L1002.3,636.5
		L1004.2,637.0 L1006.1,637.4 L1007.9,637.9 L1009.8,638.4 L1011.7,638.9 L1013.6,639.3  '/></g>
	</g>
	<g id="gnuplot_plot_2" ><title>Confidence interval</title>
<g fill="none" color="white" stroke="rgb( 31, 120, 180)" stroke-width="1.00" stroke-linecap="butt" stroke-linejoin="miter">
</g>
<g fill="none" color="black" stroke="currentColor" stroke-width="1.00" stroke-linecap="butt" stroke-linejoin="miter">
	<g transform="translate(1089.0,85.0)" stroke="none" fill="black" font-family="Helvetica" font-size="12.00"  text-anchor="start">
		<text><tspan font-family="Helvetica" >Confidence interval</tspan></text>
	</g>
</g>
<g fill="none" color="black" stroke="currentColor" stroke-width="1.00" stroke-linecap="butt" stroke-linejoin="miter">
	<g stroke='none' shape-rendering='crispEdges'>
		<polygon fill = 'rgb( 31, 120, 180)' fill-opacity = '0.250000' points = '1038.5,85.6 1080.7,85.6 1080.7,76.6 1038.5,76.6 '/>
		<polygon fill = 'rgb( 31, 120, 180)' fill-opacity = '0.250000' points = '158.7,543.4 160.6,539.3 162.5,535.2 164.4,530.9 166.3,526.6 168.1,522.2 170.0,517.7 171.9,513.2 173.8,508.5 175.7,503.9 177.6,499.1 179.5,494.4 181.4,489.5 183.2,484.7 185.1,479.7 187.0,474.7
188.9,469.7 190.8,464.5 192.7,459.2 194.6,453.8 196.5,448.3 198.3,442.5 200.2,436.6 202.1,430.4 204.0,424.0 205.9,417.3 207.8,410.3 209.7,403.0 211.6,395.4 213.4,387.6 215.3,379.4 217.2,371.0
219.1,362.4 221.0,353.6 222.9,344.7 224.8,335.6 226.6,326.6 228.5,317.5 230.4,308.6 232.3,299.8 234.2,291.2 236.1,282.9 238.0,274.9 239.9,267.2 241.7,260.0 243.6,253.2 245.5,246.8 247.4,240.8
249.3,235.4 251.2,230.3 253.1,225.6 255.0,221.4 256.8,217.4 258.7,213.8 260.6,210.5 262.5,207.3 264.4,204.4 266.3,201.5 268.2,198.7 270.1,195.9 271.9,193.1 273.8,190.2 275.7,187.2 277.6,184.0
279.5,180.6 281.4,177.1 283.3,173.3 285.2,169.3 287.0,165.0 288.9,160.6 290.8,155.9 292.7,151.1 294.6,146.1 296.5,141.1 298.4,136.1 300.2,131.0 302.1,126.1 304.0,121.3 305.9,116.7 307.8,112.4
309.7,108.4 311.6,104.7 313.5,101.4 315.3,98.6 317.2,96.2 319.1,94.3 321.0,92.8 322.9,91.8 324.8,91.2 326.7,91.0 328.6,91.2 330.4,91.7 332.3,92.6 334.2,93.7 336.1,95.0 338.0,96.5
339.9,98.2 341.8,99.9 343.7,101.7 345.5,103.6 347.4,105.4 349.3,107.3 351.2,109.1 353.1,110.9 355.0,112.6 356.9,114.3 358.8,116.0 360.6,117.7 362.5,119.3 364.4,120.9 366.3,122.6 368.2,124.3
370.1,126.0 372.0,127.7 373.8,129.6 375.7,131.4 377.6,133.4 379.5,135.4 381.4,137.4 383.3,139.5 385.2,141.5 387.1,143.6 388.9,145.7 390.8,147.8 392.7,149.8 394.6,151.9 396.5,153.8 398.4,155.8
400.3,157.7 402.2,159.6 404.0,161.5 405.9,163.4 407.8,165.3 409.7,167.3 411.6,169.4 413.5,171.5 415.4,173.8 417.3,176.1 419.1,178.6 421.0,181.3 422.9,184.1 424.8,187.1 426.7,190.2 428.6,193.5
430.5,197.0 432.4,200.6 434.2,204.4 436.1,208.4 438.0,212.5 439.9,216.8 441.8,221.2 443.7,225.9 445.6,230.7 447.4,235.7 449.3,240.9 451.2,246.2 453.1,251.8 455.0,257.5 456.9,263.4 458.8,269.4
460.7,275.5 462.5,281.8 464.4,288.1 466.3,294.5 468.2,300.9 470.1,307.3 472.0,313.6 473.9,319.8 475.8,325.9 477.6,331.8 479.5,337.5 481.4,343.0 483.3,348.2 485.2,353.2 487.1,357.9 489.0,362.2
490.9,366.3 492.7,370.1 494.6,373.6 496.5,376.7 498.4,379.6 500.3,382.3 502.2,384.6 504.1,386.8 506.0,388.8 507.8,390.6 509.7,392.2 511.6,393.8 513.5,395.3 515.4,396.7 517.3,398.2 519.2,399.7
521.0,401.3 522.9,402.9 524.8,404.6 526.7,406.5 528.6,408.5 530.5,410.5 532.4,412.8 534.3,415.1 536.1,417.5 538.0,420.0 539.9,422.6 541.8,425.2 543.7,427.8 545.6,430.4 547.5,433.0 549.4,435.5
551.2,437.9 553.1,440.2 555.0,442.4 556.9,444.5 558.8,446.5 560.7,448.3 562.6,450.0 564.5,451.5 566.3,453.0 568.2,454.3 570.1,455.5 572.0,456.7 573.9,457.8 575.8,458.8 577.7,459.9 579.5,460.9
581.4,461.9 583.3,462.9 585.2,463.9 587.1,464.9 589.0,466.0 590.9,467.1 592.8,468.2 594.6,469.3 596.5,470.5 598.4,471.6 600.3,472.8 602.2,473.9 604.1,475.0 606.0,476.1 607.9,477.2 609.7,478.3
611.6,479.3 613.5,480.3 615.4,481.2 617.3,482.2 619.2,483.1 621.1,484.1 623.0,485.0 624.8,486.0 626.7,487.0 628.6,488.1 630.5,489.2 632.4,490.4 634.3,491.6 636.2,492.9 638.1,494.2 639.9,495.5
641.8,496.8 643.7,498.1 645.6,499.3 647.5,500.5 649.4,501.6 651.3,502.6 653.1,503.5 655.0,504.3 656.9,504.9 658.8,505.4 660.7,505.8 662.6,506.1 664.5,506.3 666.4,506.4 668.2,506.5 670.1,506.6
672.0,506.7 673.9,506.8 675.8,507.0 677.7,507.4 679.6,507.8 681.5,508.4 683.3,509.2 685.2,510.2 687.1,511.3 689.0,512.6 690.9,514.1 692.8,515.7 694.7,517.5 696.6,519.4 698.4,521.4 700.3,523.5
702.2,525.6 704.1,527.8 706.0,529.9 707.9,532.1 709.8,534.2 711.7,536.3 713.5,538.3 715.4,540.2 717.3,542.0 719.2,543.8 721.1,545.4 723.0,547.0 724.9,548.5 726.7,549.9 728.6,551.2 730.5,552.5
732.4,553.7 734.3,554.8 736.2,555.9 738.1,556.9 740.0,557.9 741.8,558.8 743.7,559.7 745.6,560.5 747.5,561.3 749.4,562.1 751.3,562.8 753.2,563.5 755.1,564.2 756.9,564.9 758.8,565.5 760.7,566.1
762.6,566.6 764.5,567.2 766.4,567.8 768.3,568.3 770.2,568.9 772.0,569.4 773.9,570.0 775.8,570.6 777.7,571.2 779.6,571.8 781.5,572.5 783.4,573.2 785.3,573.9 787.1,574.7 789.0,575.5 790.9,576.3
792.8,577.1 794.7,578.0 796.6,578.8 798.5,579.7 800.3,580.6 802.2,581.5 804.1,582.3 806.0,583.2 807.9,584.0 809.8,584.8 811.7,585.5 813.6,586.2 815.4,586.8 817.3,587.4 819.2,588.0 821.1,588.5
823.0,589.0 824.9,589.4 826.8,589.8 828.7,590.1 830.5,590.4 832.4,590.7 834.3,591.0 836.2,591.3 838.1,591.6 840.0,591.9 841.9,592.1 843.8,592.4 845.6,592.7 847.5,593.0 849.4,593.4 851.3,593.7
853.2,594.1 855.1,594.4 857.0,594.8 858.9,595.2 860.7,595.5 862.6,595.9 864.5,596.3 866.4,596.7 868.3,597.1 870.2,597.5 872.1,597.9 873.9,598.3 875.8,598.7 877.7,599.1 879.6,599.5 881.5,599.9
883.4,600.4 885.3,600.8 887.2,601.3 889.0,601.8 890.9,602.3 892.8,602.8 894.7,603.4 896.6,604.0 898.5,604.6 900.4,605.2 902.3,605.8 904.1,606.5 906.0,607.2 907.9,607.8 909.8,608.5 911.7,609.2
913.6,609.9 915.5,610.6 917.4,611.4 919.2,612.1 921.1,612.8 923.0,613.5 924.9,614.2 924.9,662.4 923.0,662.4 921.1,662.4 919.2,662.4 917.4,662.4 915.5,662.4 913.6,662.4 911.7,662.4 909.8,662.4
907.9,662.4 906.0,662.4 904.1,662.4 902.3,662.4 900.4,662.4 898.5,662.4 896.6,662.4 894.7,662.4 892.8,662.4 890.9,662.4 889.0,662.4 887.2,662.4 885.3,662.4 883.4,662.4 881.5,662.4 879.6,662.4
877.7,662.4 875.8,662.4 873.9,662.4 872.1,662.4 870.2,662.4 868.3,662.4 866.4,662.4 864.5,662.4 862.6,662.4 860.7,662.4 858.9,662.4 857.0,662.4 855.1,662.4 853.2,662.4 851.3,662.4 849.4,662.4
847.5,662.4 845.6,662.4 843.8,662.4 841.9,662.4 840.0,662.4 838.1,662.4 836.2,662.4 834.3,662.4 832.4,662.4 830.5,662.4 828.7,662.4 826.8,662.4 824.9,662.4 823.0,662.4 821.1,662.4 819.2,662.4
817.3,662.4 815.4,662.4 813.6,662.4 811.7,662.4 809.8,662.4 807.9,662.4 806.0,662.4 804.1,662.4 802.2,662.4 800.3,662.4 798.5,662.4 796.6,662.4 794.7,662.4 792.8,662.4 790.9,662.4 789.0,662.4
787.1,662.4 785.3,662.4 783.4,662.4 781.5,662.4 779.6,662.4 777.7,662.4 775.8,662.4 773.9,662.4 772.0,662.4 770.2,662.4 768.3,662.4 766.4,662.4 764.5,662.4 762.6,662.4 760.7,662.4 758.8,662.4
756.9,662.4 755.1,662.4 753.2,662.4 751.3,662.4 749.4,662.4 747.5,662.4 745.6,662.4 743.7,662.4 741.8,662.4 740.0,662.4 738.1,662.4 736.2,662.4 734.3,662.4 732.4,662.4 730.5,662.4 728.6,662.4
726.7,662.4 724.9,662.4 723.0,662.4 721.1,662.4 719.2,662.4 717.3,662.4 715.4,662.4 713.5,662.4 711.7,662.4 709.8,662.4 707.9,662.4 706.0,662.4 704.1,662.4 702.2,662.4 700.3,662.4 698.4,662.4
696.6,662.4 694.7,662.4 692.8,662.4 690.9,662.4 689.0,662.4 687.1,662.4 685.2,662.4 683.3,662.4 681.5,662.4 679.6,662.4 677.7,662.4 675.8,662.4 673.9,662.4 672.0,662.4 670.1,662.4 668.2,662.4
666.4,662.4 664.5,662.4 662.6,662.4 660.7,662.4 658.8,662.4 656.9,662.4 655.0,662.4 653.1,662.4 651.3,662.4 649.4,662.4 647.5,662.4 645.6,662.4 643.7,662.4 641.8,662.4 639.9,662.4 638.1,662.4
636.2,662.4 634.3,662.4 632.4,662.4 630.5,662.4 628.6,662.4 626.7,662.4 624.8,662.4 623.0,662.4 621.1,662.4 619.2,662.4 617.3,662.4 615.4,662.4 613.5,662.4 611.6,662.4 609.7,662.4 607.9,662.4
606.0,662.4 604.1,662.4 602.2,662.4 600.3,662.4 598.4,662.4 596.5,662.4 594.6,662.4 592.8,662.4 590.9,662.4 589.0,662.4 587.1,662.4 585.2,662.4 583.3,662.4 581.4,662.4 579.5,662.4 577.7,662.4
575.8,662.4 573.9,662.4 572.0,662.4 570.1,662.4 568.2,662.4 566.3,662.4 564.5,662.4 562.6,662.4 560.7,662.4 558.8,662.4 556.9,662.4 555.0,662.4 553.1,662.4 551.2,662.4 549.4,662.4 547.5,662.4
545.6,662.4 543.7,662.4 541.8,662.4 539.9,662.4 538.0,662.4 536.1,662.4 534.3,662.4 532.4,662.4 530.5,662.4 528.6,662.4 526.7,662.4 524.8,662.4 522.9,662.4 521.0,662.4 519.2,662.4 517.3,662.4
515.4,662.4 513.5,662.4 511.6,662.4 509.7,662.4 507.8,662.4 506.0,662.4 504.1,662.4 502.2,662.4 500.3,662.4 498.4,662.4 496.5,662.4 494.6,662.4 492.7,662.4 490.9,662.4 489.0,662.4 487.1,662.4
485.2,662.4 483.3,662.4 481.4,662.4 479.5,662.4 477.6,662.4 475.8,662.4 473.9,662.4 472.0,662.4 470.1,662.4 468.2,662.4 466.3,662.4 464.4,662.4 462.5,662.4 460.7,662.4 458.8,662.4 456.9,662.4
455.0,662.4 453.1,662.4 451.2,662.4 449.3,662.4 447.4,662.4 445.6,662.4 443.7,662.4 441.8,662.4 439.9,662.4 438.0,662.4 436.1,662.4 434.2,662.4 432.4,662.4 430.5,662.4 428.6,662.4 426.7,662.4
424.8,662.4 422.9,662.4 421.0,662.4 419.1,662.4 417.3,662.4 415.4,662.4 413.5,662.4 411.6,662.4 409.7,662.4 407.8,662.4 405.9,662.4 404.0,662.4 402.2,662.4 400.3,662.4 398.4,662.4 396.5,662.4
394.6,662.4 392.7,662.4 390.8,662.4 388.9,662.4 387.1,662.4 385.2,662.4 383.3,662.4 381.4,662.4 379.5,662.4 377.6,662.4 375.7,662.4 373.8,662.4 372.0,662.4 370.1,662.4 368.2,662.4 366.3,662.4
364.4,662.4 362.5,662.4 360.6,662.4 358.8,662.4 356.9,662.4 355.0,662.4 353.1,662.4 351.2,662.4 349.3,662.4 347.4,662.4 345.5,662.4 343.7,662.4 341.8,662.4 339.9,662.4 338.0,662.4 336.1,662.4
334.2,662.4 332.3,662.4 330.4,662.4 328.6,662.4 326.7,662.4 324.8,662.4 322.9,662.4 321.0,662.4 319.1,662.4 317.2,662.4 315.3,662.4 313.5,662.4 311.6,662.4 309.7,662.4 307.8,662.4 305.9,662.4
304.0,662.4 302.1,662.4 300.2,662.4 298.4,662.4 296.5,662.4 294.6,662.4 292.7,662.4 290.8,662.4 288.9,662.4 287.0,662.4 285.2,662.4 283.3,662.4 281.4,662.4 279.5,662.4 277.6,662.4 275.7,662.4
273.8,662.4 271.9,662.4 270.1,662.4 268.2,662.4 266.3,662.4 264.4,662.4 262.5,662.4 260.6,662.4 258.7,662.4 256.8,662.4 255.0,662.4 253.1,662.4 251.2,662.4 249.3,662.4 247.4,662.4 245.5,662.4
243.6,662.4 241.7,662.4 239.9,662.4 238.0,662.4 236.1,662.4 234.2,662.4 232.3,662.4 230.4,662.4 228.5,662.4 226.6,662.4 224.8,662.4 222.9,662.4 221.0,662.4 219.1,662.4 217.2,662.4 215.3,662.4
213.4,662.4 211.6,662.4 209.7,662.4 207.8,662.4 205.9,662.4 204.0,662.4 202.1,662.4 200.2,662.4 198.3,662.4 196.5,662.4 194.6,662.4 192.7,662.4 190.8,662.4 188.9,662.4 187.0,662.4 185.1,662.4
183.2,662.4 181.4,662.4 179.5,662.4 177.6,662.4 175.7,662.4 173.8,662.4 171.9,662.4 170.0,662.4 168.1,662.4 166.3,662.4 164.4,662.4 162.5,662.4 160.6,662.4 158.7,662.4 '/>
	</g>
</g>
	</g>
	<g id="gnuplot_plot_3" ><title>Point estimate</title>
<g fill="none" color="white" stroke="rgb( 31, 120, 180)" stroke-width="2.00" stroke-linecap="butt" stroke-linejoin="miter">
</g>
<g fill="none" color="black" stroke="currentColor" stroke-width="2.00" stroke-linecap="butt" stroke-linejoin="miter">
	<g transform="translate(1089.0,103.0)" stroke="none" fill="black" font-family="Helvetica" font-size="12.00"  text-anchor="start">
		<text><tspan font-family="Helvetica" >Point estimate</tspan></text>
	</g>
</g>
<g fill="none" color="black" stroke="currentColor" stroke-width="2.00" stroke-linecap="butt" stroke-linejoin="miter">
	<path stroke='rgb( 31, 120, 180)'  d='M1038.5,99.1 L1080.7,99.1 M394.7,662.4 L394.7,151.9  '/></g>
	</g>
<g fill="none" color="black" stroke="currentColor" stroke-width="2.00" stroke-linecap="butt" stroke-linejoin="miter">
</g>
<g fill="none" color="black" stroke="black" stroke-width="1.00" stroke-linecap="butt" stroke-linejoin="miter">
</g>
<g fill="none" color="black" stroke="currentColor" stroke-width="1.00" stroke-linecap="butt" stroke-linejoin="miter">
	<path stroke='black'  d='M71.9,54.1 L71.9,662.4 L1013.6,662.4 L1013.6,54.1 L71.9,54.1 Z  '/></g>
<g fill="none" color="black" stroke="currentColor" stroke-width="1.00" stroke-linecap="butt" stroke-linejoin="miter">
</g>
</g>
</svg>

