<?xml version="1.0" encoding="utf-8"  standalone="no"?>
<svg 
 viewBox="0 0 1280 720"
 xmlns="http://www.w3.org/2000/svg"
 xmlns:xlink="http://www.w3.org/1999/xlink"
>

<title>Gnuplot</title>
<desc>Produced by GNUPLOT 5.2 patchlevel 6 </desc>

<g id="gnuplot_canvas">

<rect x="0" y="0" width="1280" height="720" fill="none"/>
<defs>

	<circle id='gpDot' r='0.5' stroke-width='0.5' stroke='currentColor'/>
	<path id='gpPt0' stroke-width='0.222' stroke='currentColor' d='M-1,0 h2 M0,-1 v2'/>
	<path id='gpPt1' stroke-width='0.222' stroke='currentColor' d='M-1,-1 L1,1 M1,-1 L-1,1'/>
	<path id='gpPt2' stroke-width='0.222' stroke='currentColor' d='M-1,0 L1,0 M0,-1 L0,1 M-1,-1 L1,1 M-1,1 L1,-1'/>
	<rect id='gpPt3' stroke-width='0.222' stroke='currentColor' x='-1' y='-1' width='2' height='2'/>
	<rect id='gpPt4' stroke-width='0.222' stroke='currentColor' fill='currentColor' x='-1' y='-1' width='2' height='2'/>
	<circle id='gpPt5' stroke-width='0.222' stroke='currentColor' cx='0' cy='0' r='1'/>
	<use xlink:href='#gpPt5' id='gpPt6' fill='currentColor' stroke='none'/>
	<path id='gpPt7' stroke-width='0.222' stroke='currentColor' d='M0,-1.33 L-1.33,0.67 L1.33,0.67 z'/>
	<use xlink:href='#gpPt7' id='gpPt8' fill='currentColor' stroke='none'/>
	<use xlink:href='#gpPt7' id='gpPt9' stroke='currentColor' transform='rotate(180)'/>
	<use xlink:href='#gpPt9' id='gpPt10' fill='currentColor' stroke='none'/>
	<use xlink:href='#gpPt3' id='gpPt11' stroke='currentColor' transform='rotate(45)'/>
	<use xlink:href='#gpPt11' id='gpPt12' fill='currentColor' stroke='none'/>
	<path id='gpPt13' stroke-width='0.222' stroke='currentColor' d='M0,1.330 L1.265,0.411 L0.782,-1.067 L-0.782,-1.076 L-1.265,0.411 z'/>
	<use xlink:href='#gpPt13' id='gpPt14' fill='currentColor' stroke='none'/>
	<filter id='textbox' filterUnits='objectBoundingBox' x='0' y='0' height='1' width='1'>
	  <feFlood flood-color='white' flood-opacity='1' result='bgnd'/>
	  <feComposite in='SourceGraphic' in2='bgnd' operator='atop'/>
	</filter>
	<filter id='greybox' filterUnits='objectBoundingBox' x='0' y='0' height='1' width='1'>
	  <feFlood flood-color='lightgrey' flood-opacity='1' result='grey'/>
	  <feComposite in='SourceGraphic' in2='grey' operator='atop'/>
	</filter>
</defs>
<g fill="none" color="white" stroke="currentColor" stroke-width="1.00" stroke-linecap="butt" stroke-linejoin="miter">
</g>
<g fill="none" color="black" stroke="currentColor" stroke-width="1.00" stroke-linecap="butt" stroke-linejoin="miter">
	<path stroke='black'  d='M80.2,662.4 L89.2,662.4  '/>	<g transform="translate(71.9,666.3)" stroke="none" fill="black" font-family="Helvetica" font-size="12.00"  text-anchor="end">
		<text><tspan font-family="Helvetica" > 0</tspan></text>
	</g>
</g>
<g fill="none" color="black" stroke="currentColor" stroke-width="1.00" stroke-linecap="butt" stroke-linejoin="miter">
	<path stroke='black'  d='M80.2,594.8 L89.2,594.8  '/>	<g transform="translate(71.9,598.7)" stroke="none" fill="black" font-family="Helvetica" font-size="12.00"  text-anchor="end">
		<text><tspan font-family="Helvetica" > 200</tspan></text>
	</g>
</g>
<g fill="none" color="black" stroke="currentColor" stroke-width="1.00" stroke-linecap="butt" stroke-linejoin="miter">
	<path stroke='black'  d='M80.2,527.2 L89.2,527.2  '/>	<g transform="translate(71.9,531.1)" stroke="none" fill="black" font-family="Helvetica" font-size="12.00"  text-anchor="end">
		<text><tspan font-family="Helvetica" > 400</tspan></text>
	</g>
</g>
<g fill="none" color="black" stroke="currentColor" stroke-width="1.00" stroke-linecap="butt" stroke-linejoin="miter">
	<path stroke='black'  d='M80.2,459.6 L89.2,459.6  '/>	<g transform="translate(71.9,463.5)" stroke="none" fill="black" font-family="Helvetica" font-size="12.00"  text-anchor="end">
		<text><tspan font-family="Helvetica" > 600</tspan></text>
	</g>
</g>
<g fill="none" color="black" stroke="currentColor" stroke-width="1.00" stroke-linecap="butt" stroke-linejoin="miter">
	<path stroke='black'  d='M80.2,392.0 L89.2,392.0  '/>	<g transform="translate(71.9,395.9)" stroke="none" fill="black" font-family="Helvetica" font-size="12.00"  text-anchor="end">
		<text><tspan font-family="Helvetica" > 800</tspan></text>
	</g>
</g>
<g fill="none" color="black" stroke="currentColor" stroke-width="1.00" stroke-linecap="butt" stroke-linejoin="miter">
	<path stroke='black'  d='M80.2,324.5 L89.2,324.5  '/>	<g transform="translate(71.9,328.4)" stroke="none" fill="black" font-family="Helvetica" font-size="12.00"  text-anchor="end">
		<text><tspan font-family="Helvetica" > 1000</tspan></text>
	</g>
</g>
<g fill="none" color="black" stroke="currentColor" stroke-width="1.00" stroke-linecap="butt" stroke-linejoin="miter">
	<path stroke='black'  d='M80.2,256.9 L89.2,256.9  '/>	<g transform="translate(71.9,260.8)" stroke="none" fill="black" font-family="Helvetica" font-size="12.00"  text-anchor="end">
		<text><tspan font-family="Helvetica" > 1200</tspan></text>
	</g>
</g>
<g fill="none" color="black" stroke="currentColor" stroke-width="1.00" stroke-linecap="butt" stroke-linejoin="miter">
	<path stroke='black'  d='M80.2,189.3 L89.2,189.3  '/>	<g transform="translate(71.9,193.2)" stroke="none" fill="black" font-family="Helvetica" font-size="12.00"  text-anchor="end">
		<text><tspan font-family="Helvetica" > 1400</tspan></text>
	</g>
</g>
<g fill="none" color="black" stroke="currentColor" stroke-width="1.00" stroke-linecap="butt" stroke-linejoin="miter">
	<path stroke='black'  d='M80.2,121.7 L89.2,121.7  '/>	<g transform="translate(71.9,125.6)" stroke="none" fill="black" font-family="Helvetica" font-size="12.00"  text-anchor="end">
		<text><tspan font-family="Helvetica" > 1600</tspan></text>
	</g>
</g>
<g fill="none" color="black" stroke="currentColor" stroke-width="1.00" stroke-linecap="butt" stroke-linejoin="miter">
	<path stroke='black'  d='M80.2,54.1 L89.2,54.1  '/>	<g transform="translate(71.9,58.0)" stroke="none" fill="black" font-family="Helvetica" font-size="12.00"  text-anchor="end">
		<text><tspan font-family="Helvetica" > 1800</tspan></text>
	</g>
</g>
<g fill="none" color="black" stroke="currentColor" stroke-width="1.00" stroke-linecap="butt" stroke-linejoin="miter">
	<path stroke='black'  d='M200.4,662.4 L200.4,653.4  '/>	<g transform="translate(200.4,684.3)" stroke="none" fill="black" font-family="Helvetica" font-size="12.00"  text-anchor="middle">
		<text><tspan font-family="Helvetica" > 2.7665</tspan></text>
	</g>
</g>
<g fill="none" color="black" stroke="currentColor" stroke-width="1.00" stroke-linecap="butt" stroke-linejoin="miter">
	<path stroke='black'  d='M426.8,662.4 L426.8,653.4  '/>	<g transform="translate(426.8,684.3)" stroke="none" fill="black" font-family="Helvetica" font-size="12.00"  text-anchor="middle">
		<text><tspan font-family="Helvetica" > 2.767</tspan></text>
	</g>
</g>
<g fill="none" color="black" stroke="currentColor" stroke-width="1.00" stroke-linecap="butt" stroke-linejoin="miter">
	<path stroke='black'  d='M653.2,662.4 L653.2,653.4  '/>	<g transform="translate(653.2,684.3)" stroke="none" fill="black" font-family="Helvetica" font-size="12.00"  text-anchor="middle">
		<text><tspan font-family="Helvetica" > 2.7675</tspan></text>
	</g>
</g>
<g fill="none" color="black" stroke="currentColor" stroke-width="1.00" stroke-linecap="butt" stroke-linejoin="miter">
	<path stroke='black'  d='M879.6,662.4 L879.6,653.4  '/>	<g transform="translate(879.6,684.3)" stroke="none" fill="black" font-family="Helvetica" font-size="12.00"  text-anchor="middle">
		<text><tspan font-family="Helvetica" > 2.768</tspan></text>
	</g>
</g>
<g fill="none" color="black" stroke="currentColor" stroke-width="1.00" stroke-linecap="butt" stroke-linejoin="miter">
</g>
<g fill="none" color="black" stroke="currentColor" stroke-width="1.00" stroke-linecap="butt" stroke-linejoin="miter">
	<path stroke='black'  d='M80.2,54.1 L80.2,662.4 L1013.6,662.4 L1013.6,54.1 L80.2,54.1 Z  '/></g>
<g fill="none" color="black" stroke="currentColor" stroke-width="1.00" stroke-linecap="butt" stroke-linejoin="miter">
	<g transform="translate(16.3,358.3) rotate(270)" stroke="none" fill="black" font-family="Helvetica" font-size="12.00"  text-anchor="middle">
		<text><tspan font-family="Helvetica" >Density (a.u.)</tspan></text>
	</g>
</g>
<g fill="none" color="black" stroke="currentColor" stroke-width="1.00" stroke-linecap="butt" stroke-linejoin="miter">
	<g transform="translate(546.9,711.3)" stroke="none" fill="black" font-family="Helvetica" font-size="12.00"  text-anchor="middle">
		<text><tspan font-family="Helvetica" >Average time (ms)</tspan></text>
	</g>
</g>
<g fill="none" color="black" stroke="currentColor" stroke-width="1.00" stroke-linecap="butt" stroke-linejoin="miter">
	<g transform="translate(546.9,31.0)" stroke="none" fill="black" font-family="Helvetica" font-size="12.00"  text-anchor="middle">
		<text><tspan font-family="Helvetica" >snapshot_restore_with_dense/Sparse: Entire region + process_vm_writev w/ page size/463: median</tspan></text>
	</g>
</g>
	<g id="gnuplot_plot_1" ><title>Bootstrap distribution</title>
<g fill="none" color="white" stroke="black" stroke-width="2.00" stroke-linecap="butt" stroke-linejoin="miter">
</g>
<g fill="none" color="black" stroke="currentColor" stroke-width="2.00" stroke-linecap="butt" stroke-linejoin="miter">
	<g transform="translate(1089.0,67.0)" stroke="none" fill="black" font-family="Helvetica" font-size="12.00"  text-anchor="start">
		<text><tspan font-family="Helvetica" >Bootstrap distribution</tspan></text>
	</g>
</g>
<g fill="none" color="black" stroke="currentColor" stroke-width="2.00" stroke-linecap="butt" stroke-linejoin="miter">
	<path stroke='rgb( 31, 120, 180)'  d='M1038.5,63.1 L1080.7,63.1 M80.2,655.8 L82.1,655.6 L83.9,655.3 L85.8,655.0 L87.7,654.7 L89.6,654.3
		L91.4,653.8 L93.3,653.3 L95.2,652.8 L97.0,652.1 L98.9,651.3 L100.8,650.4 L102.6,649.4 L104.5,648.3
		L106.4,647.0 L108.3,645.5 L110.1,643.9 L112.0,642.1 L113.9,640.2 L115.7,638.1 L117.6,635.8 L119.5,633.4
		L121.4,630.8 L123.2,628.1 L125.1,625.2 L127.0,622.2 L128.8,619.2 L130.7,616.0 L132.6,612.8 L134.4,609.6
		L136.3,606.3 L138.2,603.1 L140.1,599.8 L141.9,596.6 L143.8,593.5 L145.7,590.5 L147.5,587.6 L149.4,584.8
		L151.3,582.2 L153.2,579.7 L155.0,577.4 L156.9,575.3 L158.8,573.4 L160.6,571.7 L162.5,570.3 L164.4,569.0
		L166.2,568.0 L168.1,567.1 L170.0,566.5 L171.9,566.1 L173.7,565.8 L175.6,565.8 L177.5,565.8 L179.3,566.0
		L181.2,566.4 L183.1,566.8 L185.0,567.2 L186.8,567.7 L188.7,568.3 L190.6,568.8 L192.4,569.3 L194.3,569.8
		L196.2,570.2 L198.0,570.5 L199.9,570.8 L201.8,571.0 L203.7,571.2 L205.5,571.2 L207.4,571.2 L209.3,571.1
		L211.1,570.9 L213.0,570.6 L214.9,570.2 L216.7,569.8 L218.6,569.4 L220.5,568.9 L222.4,568.4 L224.2,567.8
		L226.1,567.2 L228.0,566.6 L229.8,565.9 L231.7,565.3 L233.6,564.6 L235.5,563.9 L237.3,563.3 L239.2,562.6
		L241.1,561.9 L242.9,561.3 L244.8,560.7 L246.7,560.1 L248.5,559.6 L250.4,559.1 L252.3,558.6 L254.2,558.3
		L256.0,557.9 L257.9,557.7 L259.8,557.5 L261.6,557.4 L263.5,557.3 L265.4,557.3 L267.3,557.3 L269.1,557.3
		L271.0,557.3 L272.9,557.4 L274.7,557.3 L276.6,557.3 L278.5,557.1 L280.3,556.9 L282.2,556.6 L284.1,556.1
		L286.0,555.5 L287.8,554.8 L289.7,553.9 L291.6,552.9 L293.4,551.7 L295.3,550.4 L297.2,548.9 L299.1,547.2
		L300.9,545.3 L302.8,543.2 L304.7,540.8 L306.5,538.0 L308.4,534.9 L310.3,531.4 L312.1,527.3 L314.0,522.6
		L315.9,517.2 L317.8,511.1 L319.6,504.2 L321.5,496.4 L323.4,487.6 L325.2,478.0 L327.1,467.5 L329.0,456.2
		L330.9,444.1 L332.7,431.5 L334.6,418.3 L336.5,404.9 L338.3,391.5 L340.2,378.2 L342.1,365.3 L343.9,352.9
		L345.8,341.5 L347.7,331.0 L349.6,321.7 L351.4,313.8 L353.3,307.3 L355.2,302.3 L357.0,298.7 L358.9,296.6
		L360.8,295.9 L362.7,296.3 L364.5,297.9 L366.4,300.4 L368.3,303.5 L370.1,307.1 L372.0,311.0 L373.9,314.9
		L375.7,318.6 L377.6,322.0 L379.5,324.9 L381.4,327.1 L383.2,328.5 L385.1,328.9 L387.0,328.3 L388.8,326.7
		L390.7,323.9 L392.6,319.9 L394.5,314.7 L396.3,308.4 L398.2,300.9 L400.1,292.3 L401.9,282.7 L403.8,272.1
		L405.7,260.7 L407.5,248.7 L409.4,236.1 L411.3,223.2 L413.2,210.2 L415.0,197.3 L416.9,184.8 L418.8,172.7
		L420.6,161.5 L422.5,151.1 L424.4,141.9 L426.3,134.0 L428.1,127.4 L430.0,122.2 L431.9,118.6 L433.7,116.3
		L435.6,115.5 L437.5,115.9 L439.3,117.5 L441.2,120.2 L443.1,123.6 L445.0,127.8 L446.8,132.3 L448.7,137.2
		L450.6,142.2 L452.4,147.2 L454.3,151.9 L456.2,156.4 L458.0,160.4 L459.9,164.1 L461.8,167.3 L463.7,170.1
		L465.5,172.5 L467.4,174.6 L469.3,176.5 L471.1,178.3 L473.0,180.1 L474.9,182.1 L476.8,184.3 L478.6,186.9
		L480.5,189.9 L482.4,193.6 L484.2,197.9 L486.1,202.9 L488.0,208.6 L489.8,215.0 L491.7,222.0 L493.6,229.7
		L495.5,237.9 L497.3,246.5 L499.2,255.5 L501.1,264.7 L502.9,274.0 L504.8,283.3 L506.7,292.5 L508.6,301.5
		L510.4,310.2 L512.3,318.5 L514.2,326.5 L516.0,334.0 L517.9,341.0 L519.8,347.6 L521.6,353.7 L523.5,359.3
		L525.4,364.6 L527.3,369.4 L529.1,374.0 L531.0,378.2 L532.9,382.2 L534.7,386.1 L536.6,389.9 L538.5,393.6
		L540.4,397.3 L542.2,401.1 L544.1,405.0 L546.0,409.1 L547.8,413.4 L549.7,418.0 L551.6,422.9 L553.4,428.1
		L555.3,433.6 L557.2,439.5 L559.1,445.7 L560.9,452.3 L562.8,459.2 L564.7,466.4 L566.5,473.9 L568.4,481.6
		L570.3,489.4 L572.2,497.3 L574.0,505.2 L575.9,513.1 L577.8,520.8 L579.6,528.2 L581.5,535.3 L583.4,542.1
		L585.2,548.3 L587.1,554.0 L589.0,559.1 L590.9,563.6 L592.7,567.3 L594.6,570.4 L596.5,572.7 L598.3,574.3
		L600.2,575.2 L602.1,575.5 L604.0,575.1 L605.8,574.2 L607.7,572.9 L609.6,571.1 L611.4,569.1 L613.3,566.9
		L615.2,564.6 L617.0,562.2 L618.9,560.0 L620.8,558.0 L622.7,556.2 L624.5,554.7 L626.4,553.6 L628.3,553.0
		L630.1,552.7 L632.0,552.9 L633.9,553.5 L635.8,554.6 L637.6,555.9 L639.5,557.6 L641.4,559.5 L643.2,561.6
		L645.1,563.7 L647.0,565.8 L648.8,567.9 L650.7,569.9 L652.6,571.7 L654.5,573.2 L656.3,574.4 L658.2,575.4
		L660.1,576.0 L661.9,576.2 L663.8,576.2 L665.7,575.9 L667.5,575.3 L669.4,574.5 L671.3,573.5 L673.2,572.4
		L675.0,571.3 L676.9,570.1 L678.8,569.0 L680.6,568.0 L682.5,567.2 L684.4,566.5 L686.3,566.0 L688.1,565.8
		L690.0,565.8 L691.9,566.0 L693.7,566.5 L695.6,567.1 L697.5,567.8 L699.3,568.7 L701.2,569.6 L703.1,570.4
		L705.0,571.2 L706.8,571.9 L708.7,572.4 L710.6,572.7 L712.4,572.8 L714.3,572.6 L716.2,572.2 L718.1,571.5
		L719.9,570.6 L721.8,569.5 L723.7,568.2 L725.5,566.7 L727.4,565.2 L729.3,563.6 L731.1,561.9 L733.0,560.3
		L734.9,558.6 L736.8,557.0 L738.6,555.3 L740.5,553.6 L742.4,551.8 L744.2,549.8 L746.1,547.8 L748.0,545.4
		L749.9,542.9 L751.7,539.9 L753.6,536.7 L755.5,533.0 L757.3,529.0 L759.2,524.6 L761.1,519.8 L762.9,514.7
		L764.8,509.5 L766.7,504.0 L768.6,498.6 L770.4,493.2 L772.3,488.0 L774.2,483.1 L776.0,478.7 L777.9,474.8
		L779.8,471.6 L781.7,469.0 L783.5,467.3 L785.4,466.5 L787.3,466.5 L789.1,467.4 L791.0,469.1 L792.9,471.7
		L794.7,475.1 L796.6,479.1 L798.5,483.8 L800.4,489.0 L802.2,494.6 L804.1,500.6 L806.0,506.8 L807.8,513.1
		L809.7,519.4 L811.6,525.7 L813.5,531.9 L815.3,537.9 L817.2,543.6 L819.1,549.1 L820.9,554.2 L822.8,559.0
		L824.7,563.5 L826.5,567.6 L828.4,571.4 L830.3,574.9 L832.2,578.0 L834.0,580.8 L835.9,583.4 L837.8,585.6
		L839.6,587.7 L841.5,589.5 L843.4,591.2 L845.3,592.6 L847.1,593.9 L849.0,595.1 L850.9,596.2 L852.7,597.1
		L854.6,598.0 L856.5,598.8 L858.3,599.5 L860.2,600.2 L862.1,600.8 L864.0,601.4 L865.8,601.9 L867.7,602.5
		L869.6,603.0 L871.4,603.6 L873.3,604.1 L875.2,604.7 L877.1,605.2 L878.9,605.8 L880.8,606.4 L882.7,607.1
		L884.5,607.7 L886.4,608.4 L888.3,609.1 L890.1,609.9 L892.0,610.7 L893.9,611.5 L895.8,612.3 L897.6,613.1
		L899.5,614.0 L901.4,614.9 L903.2,615.8 L905.1,616.7 L907.0,617.7 L908.8,618.6 L910.7,619.6 L912.6,620.5
		L914.5,621.5 L916.3,622.5 L918.2,623.4 L920.1,624.3 L921.9,625.2 L923.8,626.1 L925.7,626.9 L927.6,627.7
		L929.4,628.5 L931.3,629.2 L933.2,629.9 L935.0,630.6 L936.9,631.2 L938.8,631.8 L940.6,632.3 L942.5,632.8
		L944.4,633.2 L946.3,633.7 L948.1,634.1 L950.0,634.4 L951.9,634.8 L953.7,635.1 L955.6,635.4 L957.5,635.7
		L959.4,636.0 L961.2,636.2 L963.1,636.4 L965.0,636.5 L966.8,636.7 L968.7,636.7 L970.6,636.7 L972.4,636.7
		L974.3,636.6 L976.2,636.4 L978.1,636.2 L979.9,636.0 L981.8,635.7 L983.7,635.4 L985.5,635.1 L987.4,634.7
		L989.3,634.4 L991.2,634.0 L993.0,633.7 L994.9,633.3 L996.8,633.1 L998.6,632.8 L1000.5,632.6 L1002.4,632.5
		L1004.2,632.5 L1006.1,632.5 L1008.0,632.7 L1009.9,632.9 L1011.7,633.2 L1013.6,633.6  '/></g>
	</g>
	<g id="gnuplot_plot_2" ><title>Confidence interval</title>
<g fill="none" color="white" stroke="rgb( 31, 120, 180)" stroke-width="1.00" stroke-linecap="butt" stroke-linejoin="miter">
</g>
<g fill="none" color="black" stroke="currentColor" stroke-width="1.00" stroke-linecap="butt" stroke-linejoin="miter">
	<g transform="translate(1089.0,85.0)" stroke="none" fill="black" font-family="Helvetica" font-size="12.00"  text-anchor="start">
		<text><tspan font-family="Helvetica" >Confidence interval</tspan></text>
	</g>
</g>
<g fill="none" color="black" stroke="currentColor" stroke-width="1.00" stroke-linecap="butt" stroke-linejoin="miter">
	<g stroke='none' shape-rendering='crispEdges'>
		<polygon fill = 'rgb( 31, 120, 180)' fill-opacity = '0.250000' points = '1038.5,85.6 1080.7,85.6 1080.7,76.6 1038.5,76.6 '/>
		<polygon fill = 'rgb( 31, 120, 180)' fill-opacity = '0.250000' points = '166.2,568.0 168.1,567.1 170.0,566.5 171.9,566.1 173.7,565.8 175.6,565.8 177.5,565.8 179.3,566.0 181.2,566.4 183.1,566.8 185.0,567.2 186.8,567.7 188.7,568.3 190.6,568.8 192.4,569.3 194.3,569.8
196.2,570.2 198.0,570.5 199.9,570.8 201.8,571.0 203.7,571.2 205.5,571.2 207.4,571.2 209.3,571.1 211.1,570.9 213.0,570.6 214.9,570.2 216.7,569.8 218.6,569.4 220.5,568.9 222.4,568.4 224.2,567.8
226.1,567.2 228.0,566.6 229.8,565.9 231.7,565.3 233.6,564.6 235.5,563.9 237.3,563.3 239.2,562.6 241.1,561.9 242.9,561.3 244.8,560.7 246.7,560.1 248.5,559.6 250.4,559.1 252.3,558.6 254.2,558.3
256.0,557.9 257.9,557.7 259.8,557.5 261.6,557.4 263.5,557.3 265.4,557.3 267.3,557.3 269.1,557.3 271.0,557.3 272.9,557.4 274.7,557.3 276.6,557.3 278.5,557.1 280.3,556.9 282.2,556.6 284.1,556.1
286.0,555.5 287.8,554.8 289.7,553.9 291.6,552.9 293.4,551.7 295.3,550.4 297.2,548.9 299.1,547.2 300.9,545.3 302.8,543.2 304.7,540.8 306.5,538.0 308.4,534.9 310.3,531.4 312.1,527.3 314.0,522.6
315.9,517.2 317.8,511.1 319.6,504.2 321.5,496.4 323.4,487.6 325.2,478.0 327.1,467.5 329.0,456.2 330.9,444.1 332.7,431.5 334.6,418.3 336.5,404.9 338.3,391.5 340.2,378.2 342.1,365.3 343.9,352.9
345.8,341.5 347.7,331.0 349.6,321.7 351.4,313.8 353.3,307.3 355.2,302.3 357.0,298.7 358.9,296.6 360.8,295.9 362.7,296.3 364.5,297.9 366.4,300.4 368.3,303.5 370.1,307.1 372.0,311.0 373.9,314.9
375.7,318.6 377.6,322.0 379.5,324.9 381.4,327.1 383.2,328.5 385.1,328.9 387.0,328.3 388.8,326.7 390.7,323.9 392.6,319.9 394.5,314.7 396.3,308.4 398.2,300.9 400.1,292.3 401.9,282.7 403.8,272.1
405.7,260.7 407.5,248.7 409.4,236.1 411.3,223.2 413.2,210.2 415.0,197.3 416.9,184.8 418.8,172.7 420.6,161.5 422.5,151.1 424.4,141.9 426.3,134.0 428.1,127.4 430.0,122.2 431.9,118.6 433.7,116.3
435.6,115.5 437.5,115.9 439.3,117.5 441.2,120.2 443.1,123.6 445.0,127.8 446.8,132.3 448.7,137.2 450.6,142.2 452.4,147.2 454.3,151.9 456.2,156.4 458.0,160.4 459.9,164.1 461.8,167.3 463.7,170.1
465.5,172.5 467.4,174.6 469.3,176.5 471.1,178.3 473.0,180.1 474.9,182.1 476.8,184.3 478.6,186.9 480.5,189.9 482.4,193.6 484.2,197.9 486.1,202.9 488.0,208.6 489.8,215.0 491.7,222.0 493.6,229.7
495.5,237.9 497.3,246.5 499.2,255.5 501.1,264.7 502.9,274.0 504.8,283.3 506.7,292.5 508.6,301.5 510.4,310.2 512.3,318.5 514.2,326.5 516.0,334.0 517.9,341.0 519.8,347.6 521.6,353.7 523.5,359.3
525.4,364.6 527.3,369.4 529.1,374.0 531.0,378.2 532.9,382.2 534.7,386.1 536.6,389.9 538.5,393.6 540.4,397.3 542.2,401.1 544.1,405.0 546.0,409.1 547.8,413.4 549.7,418.0 551.6,422.9 553.4,428.1
555.3,433.6 557.2,439.5 559.1,445.7 560.9,452.3 562.8,459.2 564.7,466.4 566.5,473.9 568.4,481.6 570.3,489.4 572.2,497.3 574.0,505.2 575.9,513.1 577.8,520.8 579.6,528.2 581.5,535.3 583.4,542.1
585.2,548.3 587.1,554.0 589.0,559.1 590.9,563.6 592.7,567.3 594.6,570.4 596.5,572.7 598.3,574.3 600.2,575.2 602.1,575.5 604.0,575.1 605.8,574.2 607.7,572.9 609.6,571.1 611.4,569.1 613.3,566.9
615.2,564.6 617.0,562.2 618.9,560.0 620.8,558.0 622.7,556.2 624.5,554.7 626.4,553.6 628.3,553.0 630.1,552.7 632.0,552.9 633.9,553.5 635.8,554.6 637.6,555.9 639.5,557.6 641.4,559.5 643.2,561.6
645.1,563.7 647.0,565.8 648.8,567.9 650.7,569.9 652.6,571.7 654.5,573.2 656.3,574.4 658.2,575.4 660.1,576.0 661.9,576.2 663.8,576.2 665.7,575.9 667.5,575.3 669.4,574.5 671.3,573.5 673.2,572.4
675.0,571.3 676.9,570.1 678.8,569.0 680.6,568.0 682.5,567.2 684.4,566.5 686.3,566.0 688.1,565.8 690.0,565.8 691.9,566.0 693.7,566.5 695.6,567.1 697.5,567.8 699.3,568.7 701.2,569.6 703.1,570.4
705.0,571.2 706.8,571.9 708.7,572.4 710.6,572.7 712.4,572.8 714.3,572.6 716.2,572.2 718.1,571.5 719.9,570.6 721.8,569.5 723.7,568.2 725.5,566.7 727.4,565.2 729.3,563.6 731.1,561.9 733.0,560.3
734.9,558.6 736.8,557.0 738.6,555.3 740.5,553.6 742.4,551.8 744.2,549.8 746.1,547.8 748.0,545.4 749.9,542.9 751.7,539.9 753.6,536.7 755.5,533.0 757.3,529.0 759.2,524.6 761.1,519.8 762.9,514.7
764.8,509.5 766.7,504.0 768.6,498.6 770.4,493.2 772.3,488.0 774.2,483.1 776.0,478.7 777.9,474.8 779.8,471.6 781.7,469.0 783.5,467.3 785.4,466.5 787.3,466.5 789.1,467.4 791.0,469.1 792.9,471.7
794.7,475.1 796.6,479.1 798.5,483.8 800.4,489.0 802.2,494.6 804.1,500.6 806.0,506.8 807.8,513.1 809.7,519.4 811.6,525.7 813.5,531.9 815.3,537.9 817.2,543.6 819.1,549.1 820.9,554.2 822.8,559.0
824.7,563.5 826.5,567.6 828.4,571.4 830.3,574.9 832.2,578.0 834.0,580.8 835.9,583.4 837.8,585.6 839.6,587.7 841.5,589.5 843.4,591.2 845.3,592.6 847.1,593.9 849.0,595.1 850.9,596.2 852.7,597.1
854.6,598.0 856.5,598.8 858.3,599.5 860.2,600.2 862.1,600.8 864.0,601.4 865.8,601.9 867.7,602.5 869.6,603.0 871.4,603.6 873.3,604.1 875.2,604.7 877.1,605.2 878.9,605.8 880.8,606.4 882.7,607.1
884.5,607.7 886.4,608.4 888.3,609.1 890.1,609.9 892.0,610.7 893.9,611.5 895.8,612.3 897.6,613.1 899.5,614.0 901.4,614.9 903.2,615.8 905.1,616.7 907.0,617.7 908.8,618.6 910.7,619.6 912.6,620.5
914.5,621.5 916.3,622.5 918.2,623.4 920.1,624.3 921.9,625.2 923.8,626.1 925.7,626.9 925.7,662.4 923.8,662.4 921.9,662.4 920.1,662.4 918.2,662.4 916.3,662.4 914.5,662.4 912.6,662.4 910.7,662.4
908.8,662.4 907.0,662.4 905.1,662.4 903.2,662.4 901.4,662.4 899.5,662.4 897.6,662.4 895.8,662.4 893.9,662.4 892.0,662.4 890.1,662.4 888.3,662.4 886.4,662.4 884.5,662.4 882.7,662.4 880.8,662.4
878.9,662.4 877.1,662.4 875.2,662.4 873.3,662.4 871.4,662.4 869.6,662.4 867.7,662.4 865.8,662.4 864.0,662.4 862.1,662.4 860.2,662.4 858.3,662.4 856.5,662.4 854.6,662.4 852.7,662.4 850.9,662.4
849.0,662.4 847.1,662.4 845.3,662.4 843.4,662.4 841.5,662.4 839.6,662.4 837.8,662.4 835.9,662.4 834.0,662.4 832.2,662.4 830.3,662.4 828.4,662.4 826.5,662.4 824.7,662.4 822.8,662.4 820.9,662.4
819.1,662.4 817.2,662.4 815.3,662.4 813.5,662.4 811.6,662.4 809.7,662.4 807.8,662.4 806.0,662.4 804.1,662.4 802.2,662.4 800.4,662.4 798.5,662.4 796.6,662.4 794.7,662.4 792.9,662.4 791.0,662.4
789.1,662.4 787.3,662.4 785.4,662.4 783.5,662.4 781.7,662.4 779.8,662.4 777.9,662.4 776.0,662.4 774.2,662.4 772.3,662.4 770.4,662.4 768.6,662.4 766.7,662.4 764.8,662.4 762.9,662.4 761.1,662.4
759.2,662.4 757.3,662.4 755.5,662.4 753.6,662.4 751.7,662.4 749.9,662.4 748.0,662.4 746.1,662.4 744.2,662.4 742.4,662.4 740.5,662.4 738.6,662.4 736.8,662.4 734.9,662.4 733.0,662.4 731.1,662.4
729.3,662.4 727.4,662.4 725.5,662.4 723.7,662.4 721.8,662.4 719.9,662.4 718.1,662.4 716.2,662.4 714.3,662.4 712.4,662.4 710.6,662.4 708.7,662.4 706.8,662.4 705.0,662.4 703.1,662.4 701.2,662.4
699.3,662.4 697.5,662.4 695.6,662.4 693.7,662.4 691.9,662.4 690.0,662.4 688.1,662.4 686.3,662.4 684.4,662.4 682.5,662.4 680.6,662.4 678.8,662.4 676.9,662.4 675.0,662.4 673.2,662.4 671.3,662.4
669.4,662.4 667.5,662.4 665.7,662.4 663.8,662.4 661.9,662.4 660.1,662.4 658.2,662.4 656.3,662.4 654.5,662.4 652.6,662.4 650.7,662.4 648.8,662.4 647.0,662.4 645.1,662.4 643.2,662.4 641.4,662.4
639.5,662.4 637.6,662.4 635.8,662.4 633.9,662.4 632.0,662.4 630.1,662.4 628.3,662.4 626.4,662.4 624.5,662.4 622.7,662.4 620.8,662.4 618.9,662.4 617.0,662.4 615.2,662.4 613.3,662.4 611.4,662.4
609.6,662.4 607.7,662.4 605.8,662.4 604.0,662.4 602.1,662.4 600.2,662.4 598.3,662.4 596.5,662.4 594.6,662.4 592.7,662.4 590.9,662.4 589.0,662.4 587.1,662.4 585.2,662.4 583.4,662.4 581.5,662.4
579.6,662.4 577.8,662.4 575.9,662.4 574.0,662.4 572.2,662.4 570.3,662.4 568.4,662.4 566.5,662.4 564.7,662.4 562.8,662.4 560.9,662.4 559.1,662.4 557.2,662.4 555.3,662.4 553.4,662.4 551.6,662.4
549.7,662.4 547.8,662.4 546.0,662.4 544.1,662.4 542.2,662.4 540.4,662.4 538.5,662.4 536.6,662.4 534.7,662.4 532.9,662.4 531.0,662.4 529.1,662.4 527.3,662.4 525.4,662.4 523.5,662.4 521.6,662.4
519.8,662.4 517.9,662.4 516.0,662.4 514.2,662.4 512.3,662.4 510.4,662.4 508.6,662.4 506.7,662.4 504.8,662.4 502.9,662.4 501.1,662.4 499.2,662.4 497.3,662.4 495.5,662.4 493.6,662.4 491.7,662.4
489.8,662.4 488.0,662.4 486.1,662.4 484.2,662.4 482.4,662.4 480.5,662.4 478.6,662.4 476.8,662.4 474.9,662.4 473.0,662.4 471.1,662.4 469.3,662.4 467.4,662.4 465.5,662.4 463.7,662.4 461.8,662.4
459.9,662.4 458.0,662.4 456.2,662.4 454.3,662.4 452.4,662.4 450.6,662.4 448.7,662.4 446.8,662.4 445.0,662.4 443.1,662.4 441.2,662.4 439.3,662.4 437.5,662.4 435.6,662.4 433.7,662.4 431.9,662.4
430.0,662.4 428.1,662.4 426.3,662.4 424.4,662.4 422.5,662.4 420.6,662.4 418.8,662.4 416.9,662.4 415.0,662.4 413.2,662.4 411.3,662.4 409.4,662.4 407.5,662.4 405.7,662.4 403.8,662.4 401.9,662.4
400.1,662.4 398.2,662.4 396.3,662.4 394.5,662.4 392.6,662.4 390.7,662.4 388.8,662.4 387.0,662.4 385.1,662.4 383.2,662.4 381.4,662.4 379.5,662.4 377.6,662.4 375.7,662.4 373.9,662.4 372.0,662.4
370.1,662.4 368.3,662.4 366.4,662.4 364.5,662.4 362.7,662.4 360.8,662.4 358.9,662.4 357.0,662.4 355.2,662.4 353.3,662.4 351.4,662.4 349.6,662.4 347.7,662.4 345.8,662.4 343.9,662.4 342.1,662.4
340.2,662.4 338.3,662.4 336.5,662.4 334.6,662.4 332.7,662.4 330.9,662.4 329.0,662.4 327.1,662.4 325.2,662.4 323.4,662.4 321.5,662.4 319.6,662.4 317.8,662.4 315.9,662.4 314.0,662.4 312.1,662.4
310.3,662.4 308.4,662.4 306.5,662.4 304.7,662.4 302.8,662.4 300.9,662.4 299.1,662.4 297.2,662.4 295.3,662.4 293.4,662.4 291.6,662.4 289.7,662.4 287.8,662.4 286.0,662.4 284.1,662.4 282.2,662.4
280.3,662.4 278.5,662.4 276.6,662.4 274.7,662.4 272.9,662.4 271.0,662.4 269.1,662.4 267.3,662.4 265.4,662.4 263.5,662.4 261.6,662.4 259.8,662.4 257.9,662.4 256.0,662.4 254.2,662.4 252.3,662.4
250.4,662.4 248.5,662.4 246.7,662.4 244.8,662.4 242.9,662.4 241.1,662.4 239.2,662.4 237.3,662.4 235.5,662.4 233.6,662.4 231.7,662.4 229.8,662.4 228.0,662.4 226.1,662.4 224.2,662.4 222.4,662.4
220.5,662.4 218.6,662.4 216.7,662.4 214.9,662.4 213.0,662.4 211.1,662.4 209.3,662.4 207.4,662.4 205.5,662.4 203.7,662.4 201.8,662.4 199.9,662.4 198.0,662.4 196.2,662.4 194.3,662.4 192.4,662.4
190.6,662.4 188.7,662.4 186.8,662.4 185.0,662.4 183.1,662.4 181.2,662.4 179.3,662.4 177.5,662.4 175.6,662.4 173.7,662.4 171.9,662.4 170.0,662.4 168.1,662.4 166.2,662.4 '/>
	</g>
</g>
	</g>
	<g id="gnuplot_plot_3" ><title>Point estimate</title>
<g fill="none" color="white" stroke="rgb( 31, 120, 180)" stroke-width="2.00" stroke-linecap="butt" stroke-linejoin="miter">
</g>
<g fill="none" color="black" stroke="currentColor" stroke-width="2.00" stroke-linecap="butt" stroke-linejoin="miter">
	<g transform="translate(1089.0,103.0)" stroke="none" fill="black" font-family="Helvetica" font-size="12.00"  text-anchor="start">
		<text><tspan font-family="Helvetica" >Point estimate</tspan></text>
	</g>
</g>
<g fill="none" color="black" stroke="currentColor" stroke-width="2.00" stroke-linecap="butt" stroke-linejoin="miter">
	<path stroke='rgb( 31, 120, 180)'  d='M1038.5,99.1 L1080.7,99.1 M463.9,662.4 L463.9,170.3  '/></g>
	</g>
<g fill="none" color="black" stroke="currentColor" stroke-width="2.00" stroke-linecap="butt" stroke-linejoin="miter">
</g>
<g fill="none" color="black" stroke="black" stroke-width="1.00" stroke-linecap="butt" stroke-linejoin="miter">
</g>
<g fill="none" color="black" stroke="currentColor" stroke-width="1.00" stroke-linecap="butt" stroke-linejoin="miter">
	<path stroke='black'  d='M80.2,54.1 L80.2,662.4 L1013.6,662.4 L1013.6,54.1 L80.2,54.1 Z  '/></g>
<g fill="none" color="black" stroke="currentColor" stroke-width="1.00" stroke-linecap="butt" stroke-linejoin="miter">
</g>
</g>
</svg>

