<?xml version="1.0" encoding="utf-8"  standalone="no"?>
<svg 
 viewBox="0 0 1280 720"
 xmlns="http://www.w3.org/2000/svg"
 xmlns:xlink="http://www.w3.org/1999/xlink"
>

<title>Gnuplot</title>
<desc>Produced by GNUPLOT 5.2 patchlevel 6 </desc>

<g id="gnuplot_canvas">

<rect x="0" y="0" width="1280" height="720" fill="none"/>
<defs>

	<circle id='gpDot' r='0.5' stroke-width='0.5' stroke='currentColor'/>
	<path id='gpPt0' stroke-width='0.222' stroke='currentColor' d='M-1,0 h2 M0,-1 v2'/>
	<path id='gpPt1' stroke-width='0.222' stroke='currentColor' d='M-1,-1 L1,1 M1,-1 L-1,1'/>
	<path id='gpPt2' stroke-width='0.222' stroke='currentColor' d='M-1,0 L1,0 M0,-1 L0,1 M-1,-1 L1,1 M-1,1 L1,-1'/>
	<rect id='gpPt3' stroke-width='0.222' stroke='currentColor' x='-1' y='-1' width='2' height='2'/>
	<rect id='gpPt4' stroke-width='0.222' stroke='currentColor' fill='currentColor' x='-1' y='-1' width='2' height='2'/>
	<circle id='gpPt5' stroke-width='0.222' stroke='currentColor' cx='0' cy='0' r='1'/>
	<use xlink:href='#gpPt5' id='gpPt6' fill='currentColor' stroke='none'/>
	<path id='gpPt7' stroke-width='0.222' stroke='currentColor' d='M0,-1.33 L-1.33,0.67 L1.33,0.67 z'/>
	<use xlink:href='#gpPt7' id='gpPt8' fill='currentColor' stroke='none'/>
	<use xlink:href='#gpPt7' id='gpPt9' stroke='currentColor' transform='rotate(180)'/>
	<use xlink:href='#gpPt9' id='gpPt10' fill='currentColor' stroke='none'/>
	<use xlink:href='#gpPt3' id='gpPt11' stroke='currentColor' transform='rotate(45)'/>
	<use xlink:href='#gpPt11' id='gpPt12' fill='currentColor' stroke='none'/>
	<path id='gpPt13' stroke-width='0.222' stroke='currentColor' d='M0,1.330 L1.265,0.411 L0.782,-1.067 L-0.782,-1.076 L-1.265,0.411 z'/>
	<use xlink:href='#gpPt13' id='gpPt14' fill='currentColor' stroke='none'/>
	<filter id='textbox' filterUnits='objectBoundingBox' x='0' y='0' height='1' width='1'>
	  <feFlood flood-color='white' flood-opacity='1' result='bgnd'/>
	  <feComposite in='SourceGraphic' in2='bgnd' operator='atop'/>
	</filter>
	<filter id='greybox' filterUnits='objectBoundingBox' x='0' y='0' height='1' width='1'>
	  <feFlood flood-color='lightgrey' flood-opacity='1' result='grey'/>
	  <feComposite in='SourceGraphic' in2='grey' operator='atop'/>
	</filter>
</defs>
<g fill="none" color="white" stroke="currentColor" stroke-width="1.00" stroke-linecap="butt" stroke-linejoin="miter">
</g>
<g fill="none" color="black" stroke="currentColor" stroke-width="1.00" stroke-linecap="butt" stroke-linejoin="miter">
	<path stroke='black'  d='M71.9,662.4 L80.9,662.4  '/>	<g transform="translate(63.6,666.3)" stroke="none" fill="black" font-family="Helvetica" font-size="12.00"  text-anchor="end">
		<text><tspan font-family="Helvetica" > 0</tspan></text>
	</g>
</g>
<g fill="none" color="black" stroke="currentColor" stroke-width="1.00" stroke-linecap="butt" stroke-linejoin="miter">
	<path stroke='black'  d='M71.9,586.4 L80.9,586.4  '/>	<g transform="translate(63.6,590.3)" stroke="none" fill="black" font-family="Helvetica" font-size="12.00"  text-anchor="end">
		<text><tspan font-family="Helvetica" > 20</tspan></text>
	</g>
</g>
<g fill="none" color="black" stroke="currentColor" stroke-width="1.00" stroke-linecap="butt" stroke-linejoin="miter">
	<path stroke='black'  d='M71.9,510.3 L80.9,510.3  '/>	<g transform="translate(63.6,514.2)" stroke="none" fill="black" font-family="Helvetica" font-size="12.00"  text-anchor="end">
		<text><tspan font-family="Helvetica" > 40</tspan></text>
	</g>
</g>
<g fill="none" color="black" stroke="currentColor" stroke-width="1.00" stroke-linecap="butt" stroke-linejoin="miter">
	<path stroke='black'  d='M71.9,434.3 L80.9,434.3  '/>	<g transform="translate(63.6,438.2)" stroke="none" fill="black" font-family="Helvetica" font-size="12.00"  text-anchor="end">
		<text><tspan font-family="Helvetica" > 60</tspan></text>
	</g>
</g>
<g fill="none" color="black" stroke="currentColor" stroke-width="1.00" stroke-linecap="butt" stroke-linejoin="miter">
	<path stroke='black'  d='M71.9,358.2 L80.9,358.2  '/>	<g transform="translate(63.6,362.1)" stroke="none" fill="black" font-family="Helvetica" font-size="12.00"  text-anchor="end">
		<text><tspan font-family="Helvetica" > 80</tspan></text>
	</g>
</g>
<g fill="none" color="black" stroke="currentColor" stroke-width="1.00" stroke-linecap="butt" stroke-linejoin="miter">
	<path stroke='black'  d='M71.9,282.2 L80.9,282.2  '/>	<g transform="translate(63.6,286.1)" stroke="none" fill="black" font-family="Helvetica" font-size="12.00"  text-anchor="end">
		<text><tspan font-family="Helvetica" > 100</tspan></text>
	</g>
</g>
<g fill="none" color="black" stroke="currentColor" stroke-width="1.00" stroke-linecap="butt" stroke-linejoin="miter">
	<path stroke='black'  d='M71.9,206.2 L80.9,206.2  '/>	<g transform="translate(63.6,210.1)" stroke="none" fill="black" font-family="Helvetica" font-size="12.00"  text-anchor="end">
		<text><tspan font-family="Helvetica" > 120</tspan></text>
	</g>
</g>
<g fill="none" color="black" stroke="currentColor" stroke-width="1.00" stroke-linecap="butt" stroke-linejoin="miter">
	<path stroke='black'  d='M71.9,130.1 L80.9,130.1  '/>	<g transform="translate(63.6,134.0)" stroke="none" fill="black" font-family="Helvetica" font-size="12.00"  text-anchor="end">
		<text><tspan font-family="Helvetica" > 140</tspan></text>
	</g>
</g>
<g fill="none" color="black" stroke="currentColor" stroke-width="1.00" stroke-linecap="butt" stroke-linejoin="miter">
	<path stroke='black'  d='M71.9,54.1 L80.9,54.1  '/>	<g transform="translate(63.6,58.0)" stroke="none" fill="black" font-family="Helvetica" font-size="12.00"  text-anchor="end">
		<text><tspan font-family="Helvetica" > 160</tspan></text>
	</g>
</g>
<g fill="none" color="black" stroke="currentColor" stroke-width="1.00" stroke-linecap="butt" stroke-linejoin="miter">
	<path stroke='black'  d='M179.9,662.4 L179.9,653.4  '/>	<g transform="translate(179.9,684.3)" stroke="none" fill="black" font-family="Helvetica" font-size="12.00"  text-anchor="middle">
		<text><tspan font-family="Helvetica" > 2.772</tspan></text>
	</g>
</g>
<g fill="none" color="black" stroke="currentColor" stroke-width="1.00" stroke-linecap="butt" stroke-linejoin="miter">
	<path stroke='black'  d='M319.8,662.4 L319.8,653.4  '/>	<g transform="translate(319.8,684.3)" stroke="none" fill="black" font-family="Helvetica" font-size="12.00"  text-anchor="middle">
		<text><tspan font-family="Helvetica" > 2.774</tspan></text>
	</g>
</g>
<g fill="none" color="black" stroke="currentColor" stroke-width="1.00" stroke-linecap="butt" stroke-linejoin="miter">
	<path stroke='black'  d='M459.7,662.4 L459.7,653.4  '/>	<g transform="translate(459.7,684.3)" stroke="none" fill="black" font-family="Helvetica" font-size="12.00"  text-anchor="middle">
		<text><tspan font-family="Helvetica" > 2.776</tspan></text>
	</g>
</g>
<g fill="none" color="black" stroke="currentColor" stroke-width="1.00" stroke-linecap="butt" stroke-linejoin="miter">
	<path stroke='black'  d='M599.6,662.4 L599.6,653.4  '/>	<g transform="translate(599.6,684.3)" stroke="none" fill="black" font-family="Helvetica" font-size="12.00"  text-anchor="middle">
		<text><tspan font-family="Helvetica" > 2.778</tspan></text>
	</g>
</g>
<g fill="none" color="black" stroke="currentColor" stroke-width="1.00" stroke-linecap="butt" stroke-linejoin="miter">
	<path stroke='black'  d='M739.5,662.4 L739.5,653.4  '/>	<g transform="translate(739.5,684.3)" stroke="none" fill="black" font-family="Helvetica" font-size="12.00"  text-anchor="middle">
		<text><tspan font-family="Helvetica" > 2.78</tspan></text>
	</g>
</g>
<g fill="none" color="black" stroke="currentColor" stroke-width="1.00" stroke-linecap="butt" stroke-linejoin="miter">
	<path stroke='black'  d='M879.4,662.4 L879.4,653.4  '/>	<g transform="translate(879.4,684.3)" stroke="none" fill="black" font-family="Helvetica" font-size="12.00"  text-anchor="middle">
		<text><tspan font-family="Helvetica" > 2.782</tspan></text>
	</g>
</g>
<g fill="none" color="black" stroke="currentColor" stroke-width="1.00" stroke-linecap="butt" stroke-linejoin="miter">
</g>
<g fill="none" color="black" stroke="currentColor" stroke-width="1.00" stroke-linecap="butt" stroke-linejoin="miter">
	<path stroke='black'  d='M71.9,54.1 L71.9,662.4 L1013.6,662.4 L1013.6,54.1 L71.9,54.1 Z  '/></g>
<g fill="none" color="black" stroke="currentColor" stroke-width="1.00" stroke-linecap="butt" stroke-linejoin="miter">
	<g transform="translate(16.3,358.3) rotate(270)" stroke="none" fill="black" font-family="Helvetica" font-size="12.00"  text-anchor="middle">
		<text><tspan font-family="Helvetica" >Density (a.u.)</tspan></text>
	</g>
</g>
<g fill="none" color="black" stroke="currentColor" stroke-width="1.00" stroke-linecap="butt" stroke-linejoin="miter">
	<g transform="translate(542.7,711.3)" stroke="none" fill="black" font-family="Helvetica" font-size="12.00"  text-anchor="middle">
		<text><tspan font-family="Helvetica" >Average time (ms)</tspan></text>
	</g>
</g>
<g fill="none" color="black" stroke="currentColor" stroke-width="1.00" stroke-linecap="butt" stroke-linejoin="miter">
	<g transform="translate(542.7,31.0)" stroke="none" fill="black" font-family="Helvetica" font-size="12.00"  text-anchor="middle">
		<text><tspan font-family="Helvetica" >snapshot_restore_with_dense/Sparse: Entire region + process_vm_writev w/ page size/463: slope</tspan></text>
	</g>
</g>
	<g id="gnuplot_plot_1" ><title>Bootstrap distribution</title>
<g fill="none" color="white" stroke="black" stroke-width="2.00" stroke-linecap="butt" stroke-linejoin="miter">
</g>
<g fill="none" color="black" stroke="currentColor" stroke-width="2.00" stroke-linecap="butt" stroke-linejoin="miter">
	<g transform="translate(1089.0,67.0)" stroke="none" fill="black" font-family="Helvetica" font-size="12.00"  text-anchor="start">
		<text><tspan font-family="Helvetica" >Bootstrap distribution</tspan></text>
	</g>
</g>
<g fill="none" color="black" stroke="currentColor" stroke-width="2.00" stroke-linecap="butt" stroke-linejoin="miter">
	<path stroke='rgb( 31, 120, 180)'  d='M1038.5,63.1 L1080.7,63.1 M71.9,631.9 L73.8,630.8 L75.7,629.6 L77.6,628.5 L79.4,627.3 L81.3,626.1
		L83.2,624.9 L85.1,623.6 L87.0,622.4 L88.9,621.1 L90.8,619.7 L92.7,618.4 L94.5,617.0 L96.4,615.6
		L98.3,614.2 L100.2,612.7 L102.1,611.2 L104.0,609.7 L105.9,608.1 L107.8,606.5 L109.6,604.9 L111.5,603.2
		L113.4,601.5 L115.3,599.7 L117.2,597.9 L119.1,596.0 L121.0,594.0 L122.9,592.1 L124.7,590.0 L126.6,587.9
		L128.5,585.8 L130.4,583.6 L132.3,581.3 L134.2,579.0 L136.1,576.6 L138.0,574.3 L139.8,571.8 L141.7,569.4
		L143.6,566.9 L145.5,564.3 L147.4,561.8 L149.3,559.2 L151.2,556.7 L153.0,554.1 L154.9,551.5 L156.8,548.8
		L158.7,546.2 L160.6,543.6 L162.5,541.0 L164.4,538.3 L166.3,535.6 L168.1,533.0 L170.0,530.3 L171.9,527.6
		L173.8,524.8 L175.7,522.1 L177.6,519.3 L179.5,516.5 L181.4,513.6 L183.2,510.7 L185.1,507.7 L187.0,504.7
		L188.9,501.7 L190.8,498.6 L192.7,495.4 L194.6,492.2 L196.5,489.0 L198.3,485.7 L200.2,482.3 L202.1,478.9
		L204.0,475.4 L205.9,471.9 L207.8,468.4 L209.7,464.8 L211.6,461.3 L213.4,457.7 L215.3,454.1 L217.2,450.4
		L219.1,446.8 L221.0,443.2 L222.9,439.6 L224.8,436.0 L226.6,432.4 L228.5,428.8 L230.4,425.3 L232.3,421.8
		L234.2,418.3 L236.1,414.8 L238.0,411.3 L239.9,407.8 L241.7,404.3 L243.6,400.9 L245.5,397.4 L247.4,394.0
		L249.3,390.5 L251.2,387.0 L253.1,383.5 L255.0,379.9 L256.8,376.4 L258.7,372.8 L260.6,369.1 L262.5,365.5
		L264.4,361.8 L266.3,358.0 L268.2,354.2 L270.1,350.4 L271.9,346.6 L273.8,342.7 L275.7,338.7 L277.6,334.8
		L279.5,330.8 L281.4,326.8 L283.3,322.8 L285.2,318.7 L287.0,314.7 L288.9,310.6 L290.8,306.6 L292.7,302.6
		L294.6,298.6 L296.5,294.6 L298.4,290.7 L300.2,286.8 L302.1,282.9 L304.0,279.1 L305.9,275.3 L307.8,271.6
		L309.7,268.0 L311.6,264.4 L313.5,260.9 L315.3,257.4 L317.2,254.1 L319.1,250.7 L321.0,247.5 L322.9,244.3
		L324.8,241.2 L326.7,238.2 L328.6,235.2 L330.4,232.2 L332.3,229.3 L334.2,226.5 L336.1,223.6 L338.0,220.9
		L339.9,218.1 L341.8,215.4 L343.7,212.7 L345.5,210.0 L347.4,207.3 L349.3,204.6 L351.2,201.9 L353.1,199.3
		L355.0,196.6 L356.9,194.0 L358.8,191.4 L360.6,188.7 L362.5,186.2 L364.4,183.6 L366.3,181.1 L368.2,178.6
		L370.1,176.2 L372.0,173.8 L373.8,171.5 L375.7,169.3 L377.6,167.1 L379.5,165.0 L381.4,163.0 L383.3,161.1
		L385.2,159.3 L387.1,157.5 L388.9,155.8 L390.8,154.1 L392.7,152.6 L394.6,151.0 L396.5,149.6 L398.4,148.1
		L400.3,146.7 L402.2,145.3 L404.0,144.0 L405.9,142.6 L407.8,141.3 L409.7,140.0 L411.6,138.6 L413.5,137.3
		L415.4,136.0 L417.3,134.7 L419.1,133.4 L421.0,132.1 L422.9,130.9 L424.8,129.7 L426.7,128.5 L428.6,127.4
		L430.5,126.3 L432.4,125.2 L434.2,124.3 L436.1,123.4 L438.0,122.6 L439.9,121.8 L441.8,121.2 L443.7,120.6
		L445.6,120.2 L447.4,119.8 L449.3,119.5 L451.2,119.3 L453.1,119.3 L455.0,119.3 L456.9,119.3 L458.8,119.5
		L460.7,119.8 L462.5,120.1 L464.4,120.5 L466.3,120.9 L468.2,121.5 L470.1,122.0 L472.0,122.7 L473.9,123.3
		L475.8,124.0 L477.6,124.8 L479.5,125.6 L481.4,126.4 L483.3,127.2 L485.2,128.1 L487.1,129.0 L489.0,129.9
		L490.9,130.9 L492.7,131.9 L494.6,132.9 L496.5,133.9 L498.4,135.0 L500.3,136.1 L502.2,137.2 L504.1,138.3
		L506.0,139.5 L507.8,140.7 L509.7,141.9 L511.6,143.2 L513.5,144.5 L515.4,145.8 L517.3,147.2 L519.2,148.6
		L521.0,150.0 L522.9,151.5 L524.8,153.0 L526.7,154.5 L528.6,156.0 L530.5,157.6 L532.4,159.2 L534.3,160.8
		L536.1,162.5 L538.0,164.2 L539.9,165.9 L541.8,167.7 L543.7,169.4 L545.6,171.2 L547.5,173.1 L549.4,174.9
		L551.2,176.8 L553.1,178.8 L555.0,180.7 L556.9,182.7 L558.8,184.7 L560.7,186.7 L562.6,188.8 L564.5,190.8
		L566.3,192.9 L568.2,195.0 L570.1,197.1 L572.0,199.2 L573.9,201.3 L575.8,203.4 L577.7,205.5 L579.5,207.7
		L581.4,209.8 L583.3,211.9 L585.2,213.9 L587.1,216.0 L589.0,218.1 L590.9,220.3 L592.8,222.4 L594.6,224.5
		L596.5,226.7 L598.4,228.9 L600.3,231.1 L602.2,233.3 L604.1,235.6 L606.0,237.9 L607.9,240.3 L609.7,242.8
		L611.6,245.2 L613.5,247.8 L615.4,250.3 L617.3,253.0 L619.2,255.6 L621.1,258.4 L623.0,261.1 L624.8,264.0
		L626.7,266.8 L628.6,269.7 L630.5,272.6 L632.4,275.6 L634.3,278.6 L636.2,281.6 L638.1,284.6 L639.9,287.6
		L641.8,290.6 L643.7,293.7 L645.6,296.7 L647.5,299.7 L649.4,302.7 L651.3,305.7 L653.1,308.7 L655.0,311.7
		L656.9,314.6 L658.8,317.5 L660.7,320.4 L662.6,323.2 L664.5,326.1 L666.4,328.9 L668.2,331.7 L670.1,334.4
		L672.0,337.2 L673.9,339.9 L675.8,342.6 L677.7,345.3 L679.6,348.1 L681.5,350.8 L683.3,353.5 L685.2,356.2
		L687.1,358.9 L689.0,361.7 L690.9,364.4 L692.8,367.2 L694.7,370.0 L696.6,372.8 L698.4,375.7 L700.3,378.5
		L702.2,381.4 L704.1,384.3 L706.0,387.2 L707.9,390.1 L709.8,393.0 L711.7,395.9 L713.5,398.8 L715.4,401.6
		L717.3,404.5 L719.2,407.3 L721.1,410.1 L723.0,412.9 L724.9,415.6 L726.7,418.3 L728.6,420.9 L730.5,423.5
		L732.4,426.1 L734.3,428.5 L736.2,431.0 L738.1,433.4 L740.0,435.7 L741.8,438.0 L743.7,440.3 L745.6,442.5
		L747.5,444.7 L749.4,446.9 L751.3,449.0 L753.2,451.1 L755.1,453.2 L756.9,455.3 L758.8,457.4 L760.7,459.4
		L762.6,461.5 L764.5,463.6 L766.4,465.6 L768.3,467.7 L770.2,469.7 L772.0,471.8 L773.9,473.8 L775.8,475.9
		L777.7,478.0 L779.6,480.0 L781.5,482.1 L783.4,484.1 L785.3,486.2 L787.1,488.2 L789.0,490.3 L790.9,492.3
		L792.8,494.3 L794.7,496.4 L796.6,498.4 L798.5,500.4 L800.3,502.4 L802.2,504.4 L804.1,506.4 L806.0,508.4
		L807.9,510.3 L809.8,512.3 L811.7,514.2 L813.6,516.1 L815.4,518.0 L817.3,519.8 L819.2,521.7 L821.1,523.5
		L823.0,525.2 L824.9,527.0 L826.8,528.7 L828.7,530.4 L830.5,532.1 L832.4,533.8 L834.3,535.4 L836.2,537.0
		L838.1,538.6 L840.0,540.2 L841.9,541.8 L843.8,543.4 L845.6,544.9 L847.5,546.5 L849.4,548.0 L851.3,549.6
		L853.2,551.1 L855.1,552.6 L857.0,554.2 L858.9,555.7 L860.7,557.2 L862.6,558.7 L864.5,560.2 L866.4,561.7
		L868.3,563.1 L870.2,564.6 L872.1,566.0 L873.9,567.4 L875.8,568.8 L877.7,570.2 L879.6,571.6 L881.5,572.9
		L883.4,574.3 L885.3,575.6 L887.2,576.9 L889.0,578.1 L890.9,579.3 L892.8,580.5 L894.7,581.7 L896.6,582.8
		L898.5,583.9 L900.4,585.0 L902.3,586.0 L904.1,587.0 L906.0,588.0 L907.9,588.9 L909.8,589.8 L911.7,590.7
		L913.6,591.6 L915.5,592.5 L917.4,593.3 L919.2,594.1 L921.1,595.0 L923.0,595.8 L924.9,596.7 L926.8,597.5
		L928.7,598.4 L930.6,599.3 L932.5,600.2 L934.3,601.1 L936.2,602.0 L938.1,603.0 L940.0,604.0 L941.9,605.0
		L943.8,606.0 L945.7,607.0 L947.5,608.0 L949.4,609.0 L951.3,610.0 L953.2,611.1 L955.1,612.1 L957.0,613.1
		L958.9,614.1 L960.8,615.0 L962.6,616.0 L964.5,616.9 L966.4,617.9 L968.3,618.8 L970.2,619.6 L972.1,620.5
		L974.0,621.3 L975.9,622.2 L977.7,622.9 L979.6,623.7 L981.5,624.5 L983.4,625.2 L985.3,625.9 L987.2,626.6
		L989.1,627.2 L991.0,627.9 L992.8,628.5 L994.7,629.1 L996.6,629.8 L998.5,630.3 L1000.4,630.9 L1002.3,631.5
		L1004.2,632.0 L1006.1,632.6 L1007.9,633.1 L1009.8,633.7 L1011.7,634.2 L1013.6,634.7  '/></g>
	</g>
	<g id="gnuplot_plot_2" ><title>Confidence interval</title>
<g fill="none" color="white" stroke="rgb( 31, 120, 180)" stroke-width="1.00" stroke-linecap="butt" stroke-linejoin="miter">
</g>
<g fill="none" color="black" stroke="currentColor" stroke-width="1.00" stroke-linecap="butt" stroke-linejoin="miter">
	<g transform="translate(1089.0,85.0)" stroke="none" fill="black" font-family="Helvetica" font-size="12.00"  text-anchor="start">
		<text><tspan font-family="Helvetica" >Confidence interval</tspan></text>
	</g>
</g>
<g fill="none" color="black" stroke="currentColor" stroke-width="1.00" stroke-linecap="butt" stroke-linejoin="miter">
	<g stroke='none' shape-rendering='crispEdges'>
		<polygon fill = 'rgb( 31, 120, 180)' fill-opacity = '0.250000' points = '1038.5,85.6 1080.7,85.6 1080.7,76.6 1038.5,76.6 '/>
		<polygon fill = 'rgb( 31, 120, 180)' fill-opacity = '0.250000' points = '158.7,546.2 160.6,543.6 162.5,541.0 164.4,538.3 166.3,535.6 168.1,533.0 170.0,530.3 171.9,527.6 173.8,524.8 175.7,522.1 177.6,519.3 179.5,516.5 181.4,513.6 183.2,510.7 185.1,507.7 187.0,504.7
188.9,501.7 190.8,498.6 192.7,495.4 194.6,492.2 196.5,489.0 198.3,485.7 200.2,482.3 202.1,478.9 204.0,475.4 205.9,471.9 207.8,468.4 209.7,464.8 211.6,461.3 213.4,457.7 215.3,454.1 217.2,450.4
219.1,446.8 221.0,443.2 222.9,439.6 224.8,436.0 226.6,432.4 228.5,428.8 230.4,425.3 232.3,421.8 234.2,418.3 236.1,414.8 238.0,411.3 239.9,407.8 241.7,404.3 243.6,400.9 245.5,397.4 247.4,394.0
249.3,390.5 251.2,387.0 253.1,383.5 255.0,379.9 256.8,376.4 258.7,372.8 260.6,369.1 262.5,365.5 264.4,361.8 266.3,358.0 268.2,354.2 270.1,350.4 271.9,346.6 273.8,342.7 275.7,338.7 277.6,334.8
279.5,330.8 281.4,326.8 283.3,322.8 285.2,318.7 287.0,314.7 288.9,310.6 290.8,306.6 292.7,302.6 294.6,298.6 296.5,294.6 298.4,290.7 300.2,286.8 302.1,282.9 304.0,279.1 305.9,275.3 307.8,271.6
309.7,268.0 311.6,264.4 313.5,260.9 315.3,257.4 317.2,254.1 319.1,250.7 321.0,247.5 322.9,244.3 324.8,241.2 326.7,238.2 328.6,235.2 330.4,232.2 332.3,229.3 334.2,226.5 336.1,223.6 338.0,220.9
339.9,218.1 341.8,215.4 343.7,212.7 345.5,210.0 347.4,207.3 349.3,204.6 351.2,201.9 353.1,199.3 355.0,196.6 356.9,194.0 358.8,191.4 360.6,188.7 362.5,186.2 364.4,183.6 366.3,181.1 368.2,178.6
370.1,176.2 372.0,173.8 373.8,171.5 375.7,169.3 377.6,167.1 379.5,165.0 381.4,163.0 383.3,161.1 385.2,159.3 387.1,157.5 388.9,155.8 390.8,154.1 392.7,152.6 394.6,151.0 396.5,149.6 398.4,148.1
400.3,146.7 402.2,145.3 404.0,144.0 405.9,142.6 407.8,141.3 409.7,140.0 411.6,138.6 413.5,137.3 415.4,136.0 417.3,134.7 419.1,133.4 421.0,132.1 422.9,130.9 424.8,129.7 426.7,128.5 428.6,127.4
430.5,126.3 432.4,125.2 434.2,124.3 436.1,123.4 438.0,122.6 439.9,121.8 441.8,121.2 443.7,120.6 445.6,120.2 447.4,119.8 449.3,119.5 451.2,119.3 453.1,119.3 455.0,119.3 456.9,119.3 458.8,119.5
460.7,119.8 462.5,120.1 464.4,120.5 466.3,120.9 468.2,121.5 470.1,122.0 472.0,122.7 473.9,123.3 475.8,124.0 477.6,124.8 479.5,125.6 481.4,126.4 483.3,127.2 485.2,128.1 487.1,129.0 489.0,129.9
490.9,130.9 492.7,131.9 494.6,132.9 496.5,133.9 498.4,135.0 500.3,136.1 502.2,137.2 504.1,138.3 506.0,139.5 507.8,140.7 509.7,141.9 511.6,143.2 513.5,144.5 515.4,145.8 517.3,147.2 519.2,148.6
521.0,150.0 522.9,151.5 524.8,153.0 526.7,154.5 528.6,156.0 530.5,157.6 532.4,159.2 534.3,160.8 536.1,162.5 538.0,164.2 539.9,165.9 541.8,167.7 543.7,169.4 545.6,171.2 547.5,173.1 549.4,174.9
551.2,176.8 553.1,178.8 555.0,180.7 556.9,182.7 558.8,184.7 560.7,186.7 562.6,188.8 564.5,190.8 566.3,192.9 568.2,195.0 570.1,197.1 572.0,199.2 573.9,201.3 575.8,203.4 577.7,205.5 579.5,207.7
581.4,209.8 583.3,211.9 585.2,213.9 587.1,216.0 589.0,218.1 590.9,220.3 592.8,222.4 594.6,224.5 596.5,226.7 598.4,228.9 600.3,231.1 602.2,233.3 604.1,235.6 606.0,237.9 607.9,240.3 609.7,242.8
611.6,245.2 613.5,247.8 615.4,250.3 617.3,253.0 619.2,255.6 621.1,258.4 623.0,261.1 624.8,264.0 626.7,266.8 628.6,269.7 630.5,272.6 632.4,275.6 634.3,278.6 636.2,281.6 638.1,284.6 639.9,287.6
641.8,290.6 643.7,293.7 645.6,296.7 647.5,299.7 649.4,302.7 651.3,305.7 653.1,308.7 655.0,311.7 656.9,314.6 658.8,317.5 660.7,320.4 662.6,323.2 664.5,326.1 666.4,328.9 668.2,331.7 670.1,334.4
672.0,337.2 673.9,339.9 675.8,342.6 677.7,345.3 679.6,348.1 681.5,350.8 683.3,353.5 685.2,356.2 687.1,358.9 689.0,361.7 690.9,364.4 692.8,367.2 694.7,370.0 696.6,372.8 698.4,375.7 700.3,378.5
702.2,381.4 704.1,384.3 706.0,387.2 707.9,390.1 709.8,393.0 711.7,395.9 713.5,398.8 715.4,401.6 717.3,404.5 719.2,407.3 721.1,410.1 723.0,412.9 724.9,415.6 726.7,418.3 728.6,420.9 730.5,423.5
732.4,426.1 734.3,428.5 736.2,431.0 738.1,433.4 740.0,435.7 741.8,438.0 743.7,440.3 745.6,442.5 747.5,444.7 749.4,446.9 751.3,449.0 753.2,451.1 755.1,453.2 756.9,455.3 758.8,457.4 760.7,459.4
762.6,461.5 764.5,463.6 766.4,465.6 768.3,467.7 770.2,469.7 772.0,471.8 773.9,473.8 775.8,475.9 777.7,478.0 779.6,480.0 781.5,482.1 783.4,484.1 785.3,486.2 787.1,488.2 789.0,490.3 790.9,492.3
792.8,494.3 794.7,496.4 796.6,498.4 798.5,500.4 800.3,502.4 802.2,504.4 804.1,506.4 806.0,508.4 807.9,510.3 809.8,512.3 811.7,514.2 813.6,516.1 815.4,518.0 817.3,519.8 819.2,521.7 821.1,523.5
823.0,525.2 824.9,527.0 826.8,528.7 828.7,530.4 830.5,532.1 832.4,533.8 834.3,535.4 836.2,537.0 838.1,538.6 840.0,540.2 841.9,541.8 843.8,543.4 845.6,544.9 847.5,546.5 849.4,548.0 851.3,549.6
853.2,551.1 855.1,552.6 857.0,554.2 858.9,555.7 860.7,557.2 862.6,558.7 864.5,560.2 866.4,561.7 868.3,563.1 870.2,564.6 872.1,566.0 873.9,567.4 875.8,568.8 877.7,570.2 879.6,571.6 881.5,572.9
883.4,574.3 885.3,575.6 887.2,576.9 889.0,578.1 890.9,579.3 892.8,580.5 894.7,581.7 896.6,582.8 898.5,583.9 900.4,585.0 902.3,586.0 904.1,587.0 906.0,588.0 907.9,588.9 909.8,589.8 911.7,590.7
913.6,591.6 915.5,592.5 917.4,593.3 919.2,594.1 921.1,595.0 923.0,595.8 924.9,596.7 924.9,662.4 923.0,662.4 921.1,662.4 919.2,662.4 917.4,662.4 915.5,662.4 913.6,662.4 911.7,662.4 909.8,662.4
907.9,662.4 906.0,662.4 904.1,662.4 902.3,662.4 900.4,662.4 898.5,662.4 896.6,662.4 894.7,662.4 892.8,662.4 890.9,662.4 889.0,662.4 887.2,662.4 885.3,662.4 883.4,662.4 881.5,662.4 879.6,662.4
877.7,662.4 875.8,662.4 873.9,662.4 872.1,662.4 870.2,662.4 868.3,662.4 866.4,662.4 864.5,662.4 862.6,662.4 860.7,662.4 858.9,662.4 857.0,662.4 855.1,662.4 853.2,662.4 851.3,662.4 849.4,662.4
847.5,662.4 845.6,662.4 843.8,662.4 841.9,662.4 840.0,662.4 838.1,662.4 836.2,662.4 834.3,662.4 832.4,662.4 830.5,662.4 828.7,662.4 826.8,662.4 824.9,662.4 823.0,662.4 821.1,662.4 819.2,662.4
817.3,662.4 815.4,662.4 813.6,662.4 811.7,662.4 809.8,662.4 807.9,662.4 806.0,662.4 804.1,662.4 802.2,662.4 800.3,662.4 798.5,662.4 796.6,662.4 794.7,662.4 792.8,662.4 790.9,662.4 789.0,662.4
787.1,662.4 785.3,662.4 783.4,662.4 781.5,662.4 779.6,662.4 777.7,662.4 775.8,662.4 773.9,662.4 772.0,662.4 770.2,662.4 768.3,662.4 766.4,662.4 764.5,662.4 762.6,662.4 760.7,662.4 758.8,662.4
756.9,662.4 755.1,662.4 753.2,662.4 751.3,662.4 749.4,662.4 747.5,662.4 745.6,662.4 743.7,662.4 741.8,662.4 740.0,662.4 738.1,662.4 736.2,662.4 734.3,662.4 732.4,662.4 730.5,662.4 728.6,662.4
726.7,662.4 724.9,662.4 723.0,662.4 721.1,662.4 719.2,662.4 717.3,662.4 715.4,662.4 713.5,662.4 711.7,662.4 709.8,662.4 707.9,662.4 706.0,662.4 704.1,662.4 702.2,662.4 700.3,662.4 698.4,662.4
696.6,662.4 694.7,662.4 692.8,662.4 690.9,662.4 689.0,662.4 687.1,662.4 685.2,662.4 683.3,662.4 681.5,662.4 679.6,662.4 677.7,662.4 675.8,662.4 673.9,662.4 672.0,662.4 670.1,662.4 668.2,662.4
666.4,662.4 664.5,662.4 662.6,662.4 660.7,662.4 658.8,662.4 656.9,662.4 655.0,662.4 653.1,662.4 651.3,662.4 649.4,662.4 647.5,662.4 645.6,662.4 643.7,662.4 641.8,662.4 639.9,662.4 638.1,662.4
636.2,662.4 634.3,662.4 632.4,662.4 630.5,662.4 628.6,662.4 626.7,662.4 624.8,662.4 623.0,662.4 621.1,662.4 619.2,662.4 617.3,662.4 615.4,662.4 613.5,662.4 611.6,662.4 609.7,662.4 607.9,662.4
606.0,662.4 604.1,662.4 602.2,662.4 600.3,662.4 598.4,662.4 596.5,662.4 594.6,662.4 592.8,662.4 590.9,662.4 589.0,662.4 587.1,662.4 585.2,662.4 583.3,662.4 581.4,662.4 579.5,662.4 577.7,662.4
575.8,662.4 573.9,662.4 572.0,662.4 570.1,662.4 568.2,662.4 566.3,662.4 564.5,662.4 562.6,662.4 560.7,662.4 558.8,662.4 556.9,662.4 555.0,662.4 553.1,662.4 551.2,662.4 549.4,662.4 547.5,662.4
545.6,662.4 543.7,662.4 541.8,662.4 539.9,662.4 538.0,662.4 536.1,662.4 534.3,662.4 532.4,662.4 530.5,662.4 528.6,662.4 526.7,662.4 524.8,662.4 522.9,662.4 521.0,662.4 519.2,662.4 517.3,662.4
515.4,662.4 513.5,662.4 511.6,662.4 509.7,662.4 507.8,662.4 506.0,662.4 504.1,662.4 502.2,662.4 500.3,662.4 498.4,662.4 496.5,662.4 494.6,662.4 492.7,662.4 490.9,662.4 489.0,662.4 487.1,662.4
485.2,662.4 483.3,662.4 481.4,662.4 479.5,662.4 477.6,662.4 475.8,662.4 473.9,662.4 472.0,662.4 470.1,662.4 468.2,662.4 466.3,662.4 464.4,662.4 462.5,662.4 460.7,662.4 458.8,662.4 456.9,662.4
455.0,662.4 453.1,662.4 451.2,662.4 449.3,662.4 447.4,662.4 445.6,662.4 443.7,662.4 441.8,662.4 439.9,662.4 438.0,662.4 436.1,662.4 434.2,662.4 432.4,662.4 430.5,662.4 428.6,662.4 426.7,662.4
424.8,662.4 422.9,662.4 421.0,662.4 419.1,662.4 417.3,662.4 415.4,662.4 413.5,662.4 411.6,662.4 409.7,662.4 407.8,662.4 405.9,662.4 404.0,662.4 402.2,662.4 400.3,662.4 398.4,662.4 396.5,662.4
394.6,662.4 392.7,662.4 390.8,662.4 388.9,662.4 387.1,662.4 385.2,662.4 383.3,662.4 381.4,662.4 379.5,662.4 377.6,662.4 375.7,662.4 373.8,662.4 372.0,662.4 370.1,662.4 368.2,662.4 366.3,662.4
364.4,662.4 362.5,662.4 360.6,662.4 358.8,662.4 356.9,662.4 355.0,662.4 353.1,662.4 351.2,662.4 349.3,662.4 347.4,662.4 345.5,662.4 343.7,662.4 341.8,662.4 339.9,662.4 338.0,662.4 336.1,662.4
334.2,662.4 332.3,662.4 330.4,662.4 328.6,662.4 326.7,662.4 324.8,662.4 322.9,662.4 321.0,662.4 319.1,662.4 317.2,662.4 315.3,662.4 313.5,662.4 311.6,662.4 309.7,662.4 307.8,662.4 305.9,662.4
304.0,662.4 302.1,662.4 300.2,662.4 298.4,662.4 296.5,662.4 294.6,662.4 292.7,662.4 290.8,662.4 288.9,662.4 287.0,662.4 285.2,662.4 283.3,662.4 281.4,662.4 279.5,662.4 277.6,662.4 275.7,662.4
273.8,662.4 271.9,662.4 270.1,662.4 268.2,662.4 266.3,662.4 264.4,662.4 262.5,662.4 260.6,662.4 258.7,662.4 256.8,662.4 255.0,662.4 253.1,662.4 251.2,662.4 249.3,662.4 247.4,662.4 245.5,662.4
243.6,662.4 241.7,662.4 239.9,662.4 238.0,662.4 236.1,662.4 234.2,662.4 232.3,662.4 230.4,662.4 228.5,662.4 226.6,662.4 224.8,662.4 222.9,662.4 221.0,662.4 219.1,662.4 217.2,662.4 215.3,662.4
213.4,662.4 211.6,662.4 209.7,662.4 207.8,662.4 205.9,662.4 204.0,662.4 202.1,662.4 200.2,662.4 198.3,662.4 196.5,662.4 194.6,662.4 192.7,662.4 190.8,662.4 188.9,662.4 187.0,662.4 185.1,662.4
183.2,662.4 181.4,662.4 179.5,662.4 177.6,662.4 175.7,662.4 173.8,662.4 171.9,662.4 170.0,662.4 168.1,662.4 166.3,662.4 164.4,662.4 162.5,662.4 160.6,662.4 158.7,662.4 '/>
	</g>
</g>
	</g>
	<g id="gnuplot_plot_3" ><title>Point estimate</title>
<g fill="none" color="white" stroke="rgb( 31, 120, 180)" stroke-width="2.00" stroke-linecap="butt" stroke-linejoin="miter">
</g>
<g fill="none" color="black" stroke="currentColor" stroke-width="2.00" stroke-linecap="butt" stroke-linejoin="miter">
	<g transform="translate(1089.0,103.0)" stroke="none" fill="black" font-family="Helvetica" font-size="12.00"  text-anchor="start">
		<text><tspan font-family="Helvetica" >Point estimate</tspan></text>
	</g>
</g>
<g fill="none" color="black" stroke="currentColor" stroke-width="2.00" stroke-linecap="butt" stroke-linejoin="miter">
	<path stroke='rgb( 31, 120, 180)'  d='M1038.5,99.1 L1080.7,99.1 M498.8,662.4 L498.8,135.2  '/></g>
	</g>
<g fill="none" color="black" stroke="currentColor" stroke-width="2.00" stroke-linecap="butt" stroke-linejoin="miter">
</g>
<g fill="none" color="black" stroke="black" stroke-width="1.00" stroke-linecap="butt" stroke-linejoin="miter">
</g>
<g fill="none" color="black" stroke="currentColor" stroke-width="1.00" stroke-linecap="butt" stroke-linejoin="miter">
	<path stroke='black'  d='M71.9,54.1 L71.9,662.4 L1013.6,662.4 L1013.6,54.1 L71.9,54.1 Z  '/></g>
<g fill="none" color="black" stroke="currentColor" stroke-width="1.00" stroke-linecap="butt" stroke-linejoin="miter">
</g>
</g>
</svg>

