group,function,value,throughput_num,throughput_type,sample_measured_value,unit,iteration_count
snapshot_restore_with_dense,Sparse: Entire region + /proc/pid/mem,100,,,1756635.0,ns,2
snapshot_restore_with_dense,Sparse: Entire region + /proc/pid/mem,100,,,3417878.0,ns,4
snapshot_restore_with_dense,Sparse: Entire region + /proc/pid/mem,100,,,5119200.0,ns,6
snapshot_restore_with_dense,Sparse: Entire region + /proc/pid/mem,100,,,7528872.0,ns,8
snapshot_restore_with_dense,Sparse: Entire region + /proc/pid/mem,100,,,8710454.0,ns,10
snapshot_restore_with_dense,Sparse: Entire region + /proc/pid/mem,100,,,11613927.0,ns,12
snapshot_restore_with_dense,Sparse: Entire region + /proc/pid/mem,100,,,12306026.0,ns,14
snapshot_restore_with_dense,Sparse: Entire region + /proc/pid/mem,100,,,13983643.0,ns,16
snapshot_restore_with_dense,Sparse: Entire region + /proc/pid/mem,100,,,15349282.0,ns,18
snapshot_restore_with_dense,Sparse: Entire region + /proc/pid/mem,100,,,17006376.0,ns,20
snapshot_restore_with_dense,Sparse: Entire region + /proc/pid/mem,100,,,18798493.0,ns,22
snapshot_restore_with_dense,Sparse: Entire region + /proc/pid/mem,100,,,20639962.0,ns,24
snapshot_restore_with_dense,Sparse: Entire region + /proc/pid/mem,100,,,22308834.0,ns,26
snapshot_restore_with_dense,Sparse: Entire region + /proc/pid/mem,100,,,23892587.0,ns,28
snapshot_restore_with_dense,Sparse: Entire region + /proc/pid/mem,100,,,25517481.0,ns,30
snapshot_restore_with_dense,Sparse: Entire region + /proc/pid/mem,100,,,27207188.0,ns,32
snapshot_restore_with_dense,Sparse: Entire region + /proc/pid/mem,100,,,28936755.0,ns,34
snapshot_restore_with_dense,Sparse: Entire region + /proc/pid/mem,100,,,30613378.0,ns,36
snapshot_restore_with_dense,Sparse: Entire region + /proc/pid/mem,100,,,32316397.0,ns,38
snapshot_restore_with_dense,Sparse: Entire region + /proc/pid/mem,100,,,34026242.0,ns,40
snapshot_restore_with_dense,Sparse: Entire region + /proc/pid/mem,100,,,35840458.0,ns,42
snapshot_restore_with_dense,Sparse: Entire region + /proc/pid/mem,100,,,37403079.0,ns,44
snapshot_restore_with_dense,Sparse: Entire region + /proc/pid/mem,100,,,39171909.0,ns,46
snapshot_restore_with_dense,Sparse: Entire region + /proc/pid/mem,100,,,40826794.0,ns,48
snapshot_restore_with_dense,Sparse: Entire region + /proc/pid/mem,100,,,42506684.0,ns,50
snapshot_restore_with_dense,Sparse: Entire region + /proc/pid/mem,100,,,44255461.0,ns,52
snapshot_restore_with_dense,Sparse: Entire region + /proc/pid/mem,100,,,45898542.0,ns,54
snapshot_restore_with_dense,Sparse: Entire region + /proc/pid/mem,100,,,47657900.0,ns,56
snapshot_restore_with_dense,Sparse: Entire region + /proc/pid/mem,100,,,49340150.0,ns,58
snapshot_restore_with_dense,Sparse: Entire region + /proc/pid/mem,100,,,51058505.0,ns,60
snapshot_restore_with_dense,Sparse: Entire region + /proc/pid/mem,100,,,52748141.0,ns,62
snapshot_restore_with_dense,Sparse: Entire region + /proc/pid/mem,100,,,54451682.0,ns,64
snapshot_restore_with_dense,Sparse: Entire region + /proc/pid/mem,100,,,56104291.0,ns,66
snapshot_restore_with_dense,Sparse: Entire region + /proc/pid/mem,100,,,57895966.0,ns,68
snapshot_restore_with_dense,Sparse: Entire region + /proc/pid/mem,100,,,59609910.0,ns,70
snapshot_restore_with_dense,Sparse: Entire region + /proc/pid/mem,100,,,61314365.0,ns,72
snapshot_restore_with_dense,Sparse: Entire region + /proc/pid/mem,100,,,63063938.0,ns,74
snapshot_restore_with_dense,Sparse: Entire region + /proc/pid/mem,100,,,64657176.0,ns,76
snapshot_restore_with_dense,Sparse: Entire region + /proc/pid/mem,100,,,66355519.0,ns,78
snapshot_restore_with_dense,Sparse: Entire region + /proc/pid/mem,100,,,68056178.0,ns,80
snapshot_restore_with_dense,Sparse: Entire region + /proc/pid/mem,100,,,69779969.0,ns,82
snapshot_restore_with_dense,Sparse: Entire region + /proc/pid/mem,100,,,71536890.0,ns,84
snapshot_restore_with_dense,Sparse: Entire region + /proc/pid/mem,100,,,73137453.0,ns,86
snapshot_restore_with_dense,Sparse: Entire region + /proc/pid/mem,100,,,74842523.0,ns,88
snapshot_restore_with_dense,Sparse: Entire region + /proc/pid/mem,100,,,76642044.0,ns,90
snapshot_restore_with_dense,Sparse: Entire region + /proc/pid/mem,100,,,79001149.0,ns,92
snapshot_restore_with_dense,Sparse: Entire region + /proc/pid/mem,100,,,80194149.0,ns,94
snapshot_restore_with_dense,Sparse: Entire region + /proc/pid/mem,100,,,83552176.0,ns,96
snapshot_restore_with_dense,Sparse: Entire region + /proc/pid/mem,100,,,83578083.0,ns,98
snapshot_restore_with_dense,Sparse: Entire region + /proc/pid/mem,100,,,85117464.0,ns,100
snapshot_restore_with_dense,Sparse: Entire region + /proc/pid/mem,100,,,86822371.0,ns,102
snapshot_restore_with_dense,Sparse: Entire region + /proc/pid/mem,100,,,88507259.0,ns,104
snapshot_restore_with_dense,Sparse: Entire region + /proc/pid/mem,100,,,90141448.0,ns,106
snapshot_restore_with_dense,Sparse: Entire region + /proc/pid/mem,100,,,91860637.0,ns,108
snapshot_restore_with_dense,Sparse: Entire region + /proc/pid/mem,100,,,93496905.0,ns,110
snapshot_restore_with_dense,Sparse: Entire region + /proc/pid/mem,100,,,95237876.0,ns,112
snapshot_restore_with_dense,Sparse: Entire region + /proc/pid/mem,100,,,96944716.0,ns,114
snapshot_restore_with_dense,Sparse: Entire region + /proc/pid/mem,100,,,98678465.0,ns,116
snapshot_restore_with_dense,Sparse: Entire region + /proc/pid/mem,100,,,100360351.0,ns,118
snapshot_restore_with_dense,Sparse: Entire region + /proc/pid/mem,100,,,102175959.0,ns,120
snapshot_restore_with_dense,Sparse: Entire region + /proc/pid/mem,100,,,103852365.0,ns,122
snapshot_restore_with_dense,Sparse: Entire region + /proc/pid/mem,100,,,107890775.0,ns,124
snapshot_restore_with_dense,Sparse: Entire region + /proc/pid/mem,100,,,107333779.0,ns,126
snapshot_restore_with_dense,Sparse: Entire region + /proc/pid/mem,100,,,108804329.0,ns,128
snapshot_restore_with_dense,Sparse: Entire region + /proc/pid/mem,100,,,110446792.0,ns,130
snapshot_restore_with_dense,Sparse: Entire region + /proc/pid/mem,100,,,112194246.0,ns,132
snapshot_restore_with_dense,Sparse: Entire region + /proc/pid/mem,100,,,114011992.0,ns,134
snapshot_restore_with_dense,Sparse: Entire region + /proc/pid/mem,100,,,115731366.0,ns,136
snapshot_restore_with_dense,Sparse: Entire region + /proc/pid/mem,100,,,117454315.0,ns,138
snapshot_restore_with_dense,Sparse: Entire region + /proc/pid/mem,100,,,119262319.0,ns,140
snapshot_restore_with_dense,Sparse: Entire region + /proc/pid/mem,100,,,120731746.0,ns,142
snapshot_restore_with_dense,Sparse: Entire region + /proc/pid/mem,100,,,122415122.0,ns,144
snapshot_restore_with_dense,Sparse: Entire region + /proc/pid/mem,100,,,124091048.0,ns,146
snapshot_restore_with_dense,Sparse: Entire region + /proc/pid/mem,100,,,125745382.0,ns,148
snapshot_restore_with_dense,Sparse: Entire region + /proc/pid/mem,100,,,127469995.0,ns,150
snapshot_restore_with_dense,Sparse: Entire region + /proc/pid/mem,100,,,129250507.0,ns,152
snapshot_restore_with_dense,Sparse: Entire region + /proc/pid/mem,100,,,131964364.0,ns,154
snapshot_restore_with_dense,Sparse: Entire region + /proc/pid/mem,100,,,137539693.0,ns,156
snapshot_restore_with_dense,Sparse: Entire region + /proc/pid/mem,100,,,134451405.0,ns,158
snapshot_restore_with_dense,Sparse: Entire region + /proc/pid/mem,100,,,136435661.0,ns,160
snapshot_restore_with_dense,Sparse: Entire region + /proc/pid/mem,100,,,138386952.0,ns,162
snapshot_restore_with_dense,Sparse: Entire region + /proc/pid/mem,100,,,139827941.0,ns,164
snapshot_restore_with_dense,Sparse: Entire region + /proc/pid/mem,100,,,141288955.0,ns,166
snapshot_restore_with_dense,Sparse: Entire region + /proc/pid/mem,100,,,142863258.0,ns,168
snapshot_restore_with_dense,Sparse: Entire region + /proc/pid/mem,100,,,147019632.0,ns,170
snapshot_restore_with_dense,Sparse: Entire region + /proc/pid/mem,100,,,146353837.0,ns,172
snapshot_restore_with_dense,Sparse: Entire region + /proc/pid/mem,100,,,147929747.0,ns,174
snapshot_restore_with_dense,Sparse: Entire region + /proc/pid/mem,100,,,149661474.0,ns,176
snapshot_restore_with_dense,Sparse: Entire region + /proc/pid/mem,100,,,151419614.0,ns,178
snapshot_restore_with_dense,Sparse: Entire region + /proc/pid/mem,100,,,153029035.0,ns,180
snapshot_restore_with_dense,Sparse: Entire region + /proc/pid/mem,100,,,154925103.0,ns,182
snapshot_restore_with_dense,Sparse: Entire region + /proc/pid/mem,100,,,156668413.0,ns,184
snapshot_restore_with_dense,Sparse: Entire region + /proc/pid/mem,100,,,158329599.0,ns,186
snapshot_restore_with_dense,Sparse: Entire region + /proc/pid/mem,100,,,160245739.0,ns,188
snapshot_restore_with_dense,Sparse: Entire region + /proc/pid/mem,100,,,161840642.0,ns,190
snapshot_restore_with_dense,Sparse: Entire region + /proc/pid/mem,100,,,163669142.0,ns,192
snapshot_restore_with_dense,Sparse: Entire region + /proc/pid/mem,100,,,171430897.0,ns,194
snapshot_restore_with_dense,Sparse: Entire region + /proc/pid/mem,100,,,167700085.0,ns,196
snapshot_restore_with_dense,Sparse: Entire region + /proc/pid/mem,100,,,168440685.0,ns,198
snapshot_restore_with_dense,Sparse: Entire region + /proc/pid/mem,100,,,170189913.0,ns,200
