<?xml version="1.0" encoding="utf-8"  standalone="no"?>
<svg 
 viewBox="0 0 1280 720"
 xmlns="http://www.w3.org/2000/svg"
 xmlns:xlink="http://www.w3.org/1999/xlink"
>

<title>Gnuplot</title>
<desc>Produced by GNUPLOT 5.2 patchlevel 6 </desc>

<g id="gnuplot_canvas">

<rect x="0" y="0" width="1280" height="720" fill="none"/>
<defs>

	<circle id='gpDot' r='0.5' stroke-width='0.5' stroke='currentColor'/>
	<path id='gpPt0' stroke-width='0.222' stroke='currentColor' d='M-1,0 h2 M0,-1 v2'/>
	<path id='gpPt1' stroke-width='0.222' stroke='currentColor' d='M-1,-1 L1,1 M1,-1 L-1,1'/>
	<path id='gpPt2' stroke-width='0.222' stroke='currentColor' d='M-1,0 L1,0 M0,-1 L0,1 M-1,-1 L1,1 M-1,1 L1,-1'/>
	<rect id='gpPt3' stroke-width='0.222' stroke='currentColor' x='-1' y='-1' width='2' height='2'/>
	<rect id='gpPt4' stroke-width='0.222' stroke='currentColor' fill='currentColor' x='-1' y='-1' width='2' height='2'/>
	<circle id='gpPt5' stroke-width='0.222' stroke='currentColor' cx='0' cy='0' r='1'/>
	<use xlink:href='#gpPt5' id='gpPt6' fill='currentColor' stroke='none'/>
	<path id='gpPt7' stroke-width='0.222' stroke='currentColor' d='M0,-1.33 L-1.33,0.67 L1.33,0.67 z'/>
	<use xlink:href='#gpPt7' id='gpPt8' fill='currentColor' stroke='none'/>
	<use xlink:href='#gpPt7' id='gpPt9' stroke='currentColor' transform='rotate(180)'/>
	<use xlink:href='#gpPt9' id='gpPt10' fill='currentColor' stroke='none'/>
	<use xlink:href='#gpPt3' id='gpPt11' stroke='currentColor' transform='rotate(45)'/>
	<use xlink:href='#gpPt11' id='gpPt12' fill='currentColor' stroke='none'/>
	<path id='gpPt13' stroke-width='0.222' stroke='currentColor' d='M0,1.330 L1.265,0.411 L0.782,-1.067 L-0.782,-1.076 L-1.265,0.411 z'/>
	<use xlink:href='#gpPt13' id='gpPt14' fill='currentColor' stroke='none'/>
	<filter id='textbox' filterUnits='objectBoundingBox' x='0' y='0' height='1' width='1'>
	  <feFlood flood-color='white' flood-opacity='1' result='bgnd'/>
	  <feComposite in='SourceGraphic' in2='bgnd' operator='atop'/>
	</filter>
	<filter id='greybox' filterUnits='objectBoundingBox' x='0' y='0' height='1' width='1'>
	  <feFlood flood-color='lightgrey' flood-opacity='1' result='grey'/>
	  <feComposite in='SourceGraphic' in2='grey' operator='atop'/>
	</filter>
</defs>
<g fill="none" color="white" stroke="currentColor" stroke-width="1.00" stroke-linecap="butt" stroke-linejoin="miter">
</g>
<g fill="none" color="black" stroke="currentColor" stroke-width="1.00" stroke-linecap="butt" stroke-linejoin="miter">
	<path stroke='black'  d='M63.6,662.4 L72.6,662.4  '/>	<g transform="translate(55.3,666.3)" stroke="none" fill="black" font-family="Helvetica" font-size="12.00"  text-anchor="end">
		<text><tspan font-family="Helvetica" > 0</tspan></text>
	</g>
</g>
<g fill="none" color="black" stroke="currentColor" stroke-width="1.00" stroke-linecap="butt" stroke-linejoin="miter">
	<path stroke='black'  d='M63.6,561.0 L72.6,561.0  '/>	<g transform="translate(55.3,564.9)" stroke="none" fill="black" font-family="Helvetica" font-size="12.00"  text-anchor="end">
		<text><tspan font-family="Helvetica" > 10</tspan></text>
	</g>
</g>
<g fill="none" color="black" stroke="currentColor" stroke-width="1.00" stroke-linecap="butt" stroke-linejoin="miter">
	<path stroke='black'  d='M63.6,459.6 L72.6,459.6  '/>	<g transform="translate(55.3,463.5)" stroke="none" fill="black" font-family="Helvetica" font-size="12.00"  text-anchor="end">
		<text><tspan font-family="Helvetica" > 20</tspan></text>
	</g>
</g>
<g fill="none" color="black" stroke="currentColor" stroke-width="1.00" stroke-linecap="butt" stroke-linejoin="miter">
	<path stroke='black'  d='M63.6,358.2 L72.6,358.2  '/>	<g transform="translate(55.3,362.1)" stroke="none" fill="black" font-family="Helvetica" font-size="12.00"  text-anchor="end">
		<text><tspan font-family="Helvetica" > 30</tspan></text>
	</g>
</g>
<g fill="none" color="black" stroke="currentColor" stroke-width="1.00" stroke-linecap="butt" stroke-linejoin="miter">
	<path stroke='black'  d='M63.6,256.9 L72.6,256.9  '/>	<g transform="translate(55.3,260.8)" stroke="none" fill="black" font-family="Helvetica" font-size="12.00"  text-anchor="end">
		<text><tspan font-family="Helvetica" > 40</tspan></text>
	</g>
</g>
<g fill="none" color="black" stroke="currentColor" stroke-width="1.00" stroke-linecap="butt" stroke-linejoin="miter">
	<path stroke='black'  d='M63.6,155.5 L72.6,155.5  '/>	<g transform="translate(55.3,159.4)" stroke="none" fill="black" font-family="Helvetica" font-size="12.00"  text-anchor="end">
		<text><tspan font-family="Helvetica" > 50</tspan></text>
	</g>
</g>
<g fill="none" color="black" stroke="currentColor" stroke-width="1.00" stroke-linecap="butt" stroke-linejoin="miter">
	<path stroke='black'  d='M63.6,54.1 L72.6,54.1  '/>	<g transform="translate(55.3,58.0)" stroke="none" fill="black" font-family="Helvetica" font-size="12.00"  text-anchor="end">
		<text><tspan font-family="Helvetica" > 60</tspan></text>
	</g>
</g>
<g fill="none" color="black" stroke="currentColor" stroke-width="1.00" stroke-linecap="butt" stroke-linejoin="miter">
	<path stroke='black'  d='M179.3,662.4 L179.3,653.4  '/>	<g transform="translate(179.3,684.3)" stroke="none" fill="black" font-family="Helvetica" font-size="12.00"  text-anchor="middle">
		<text><tspan font-family="Helvetica" >-1.5</tspan></text>
	</g>
</g>
<g fill="none" color="black" stroke="currentColor" stroke-width="1.00" stroke-linecap="butt" stroke-linejoin="miter">
	<path stroke='black'  d='M313.0,662.4 L313.0,653.4  '/>	<g transform="translate(313.0,684.3)" stroke="none" fill="black" font-family="Helvetica" font-size="12.00"  text-anchor="middle">
		<text><tspan font-family="Helvetica" >-1</tspan></text>
	</g>
</g>
<g fill="none" color="black" stroke="currentColor" stroke-width="1.00" stroke-linecap="butt" stroke-linejoin="miter">
	<path stroke='black'  d='M446.7,662.4 L446.7,653.4  '/>	<g transform="translate(446.7,684.3)" stroke="none" fill="black" font-family="Helvetica" font-size="12.00"  text-anchor="middle">
		<text><tspan font-family="Helvetica" >-0.5</tspan></text>
	</g>
</g>
<g fill="none" color="black" stroke="currentColor" stroke-width="1.00" stroke-linecap="butt" stroke-linejoin="miter">
	<path stroke='black'  d='M580.4,662.4 L580.4,653.4  '/>	<g transform="translate(580.4,684.3)" stroke="none" fill="black" font-family="Helvetica" font-size="12.00"  text-anchor="middle">
		<text><tspan font-family="Helvetica" > 0</tspan></text>
	</g>
</g>
<g fill="none" color="black" stroke="currentColor" stroke-width="1.00" stroke-linecap="butt" stroke-linejoin="miter">
	<path stroke='black'  d='M714.1,662.4 L714.1,653.4  '/>	<g transform="translate(714.1,684.3)" stroke="none" fill="black" font-family="Helvetica" font-size="12.00"  text-anchor="middle">
		<text><tspan font-family="Helvetica" > 0.5</tspan></text>
	</g>
</g>
<g fill="none" color="black" stroke="currentColor" stroke-width="1.00" stroke-linecap="butt" stroke-linejoin="miter">
	<path stroke='black'  d='M847.9,662.4 L847.9,653.4  '/>	<g transform="translate(847.9,684.3)" stroke="none" fill="black" font-family="Helvetica" font-size="12.00"  text-anchor="middle">
		<text><tspan font-family="Helvetica" > 1</tspan></text>
	</g>
</g>
<g fill="none" color="black" stroke="currentColor" stroke-width="1.00" stroke-linecap="butt" stroke-linejoin="miter">
	<path stroke='black'  d='M981.6,662.4 L981.6,653.4  '/>	<g transform="translate(981.6,684.3)" stroke="none" fill="black" font-family="Helvetica" font-size="12.00"  text-anchor="middle">
		<text><tspan font-family="Helvetica" > 1.5</tspan></text>
	</g>
</g>
<g fill="none" color="black" stroke="currentColor" stroke-width="1.00" stroke-linecap="butt" stroke-linejoin="miter">
</g>
<g fill="none" color="black" stroke="currentColor" stroke-width="1.00" stroke-linecap="butt" stroke-linejoin="miter">
	<path stroke='black'  d='M63.6,54.1 L63.6,662.4 L1013.6,662.4 L1013.6,54.1 L63.6,54.1 Z  '/></g>
<g fill="none" color="black" stroke="currentColor" stroke-width="1.00" stroke-linecap="butt" stroke-linejoin="miter">
	<g transform="translate(16.3,358.3) rotate(270)" stroke="none" fill="black" font-family="Helvetica" font-size="12.00"  text-anchor="middle">
		<text><tspan font-family="Helvetica" >Density (a.u.)</tspan></text>
	</g>
</g>
<g fill="none" color="black" stroke="currentColor" stroke-width="1.00" stroke-linecap="butt" stroke-linejoin="miter">
	<g transform="translate(538.6,711.3)" stroke="none" fill="black" font-family="Helvetica" font-size="12.00"  text-anchor="middle">
		<text><tspan font-family="Helvetica" >Relative change (%)</tspan></text>
	</g>
</g>
<g fill="none" color="black" stroke="currentColor" stroke-width="1.00" stroke-linecap="butt" stroke-linejoin="miter">
	<g transform="translate(538.6,31.0)" stroke="none" fill="black" font-family="Helvetica" font-size="12.00"  text-anchor="middle">
		<text><tspan font-family="Helvetica" >snapshot_restore_with_dense/Dense: Entire region + process_vm_writev w/ page size/10: mean</tspan></text>
	</g>
</g>
	<g id="gnuplot_plot_1" ><title>Bootstrap distribution</title>
<g fill="none" color="white" stroke="black" stroke-width="2.00" stroke-linecap="butt" stroke-linejoin="miter">
</g>
<g fill="none" color="black" stroke="currentColor" stroke-width="2.00" stroke-linecap="butt" stroke-linejoin="miter">
	<g transform="translate(1089.0,67.0)" stroke="none" fill="black" font-family="Helvetica" font-size="12.00"  text-anchor="start">
		<text><tspan font-family="Helvetica" >Bootstrap distribution</tspan></text>
	</g>
</g>
<g fill="none" color="black" stroke="currentColor" stroke-width="2.00" stroke-linecap="butt" stroke-linejoin="miter">
	<path stroke='rgb( 31, 120, 180)'  d='M1038.5,63.1 L1080.7,63.1 M63.6,635.1 L65.5,633.8 L67.4,632.4 L69.3,631.0 L71.2,629.6 L73.1,628.1
		L75.0,626.6 L76.9,625.0 L78.8,623.5 L80.7,621.8 L82.6,620.2 L84.5,618.5 L86.4,616.8 L88.3,615.0
		L90.3,613.2 L92.2,611.3 L94.1,609.4 L96.0,607.4 L97.9,605.4 L99.8,603.3 L101.7,601.2 L103.6,599.0
		L105.5,596.7 L107.4,594.4 L109.3,592.0 L111.2,589.5 L113.1,586.9 L115.0,584.3 L116.9,581.6 L118.8,578.8
		L120.7,576.0 L122.6,573.1 L124.5,570.1 L126.4,567.0 L128.3,563.8 L130.2,560.6 L132.1,557.3 L134.0,553.9
		L135.9,550.4 L137.8,546.8 L139.8,543.1 L141.7,539.4 L143.6,535.5 L145.5,531.6 L147.4,527.5 L149.3,523.4
		L151.2,519.2 L153.1,514.8 L155.0,510.4 L156.9,505.9 L158.8,501.3 L160.7,496.7 L162.6,491.9 L164.5,487.1
		L166.4,482.2 L168.3,477.3 L170.2,472.3 L172.1,467.2 L174.0,462.2 L175.9,457.0 L177.8,451.9 L179.7,446.7
		L181.6,441.5 L183.5,436.3 L185.4,431.1 L187.3,425.8 L189.3,420.6 L191.2,415.3 L193.1,410.0 L195.0,404.7
		L196.9,399.3 L198.8,394.0 L200.7,388.6 L202.6,383.3 L204.5,377.9 L206.4,372.5 L208.3,367.1 L210.2,361.7
		L212.1,356.3 L214.0,350.8 L215.9,345.4 L217.8,340.0 L219.7,334.7 L221.6,329.3 L223.5,324.0 L225.4,318.7
		L227.3,313.4 L229.2,308.1 L231.1,302.9 L233.0,297.8 L234.9,292.6 L236.8,287.6 L238.8,282.5 L240.7,277.5
		L242.6,272.5 L244.5,267.6 L246.4,262.7 L248.3,257.8 L250.2,252.9 L252.1,248.1 L254.0,243.3 L255.9,238.5
		L257.8,233.7 L259.7,229.0 L261.6,224.3 L263.5,219.6 L265.4,215.0 L267.3,210.4 L269.2,205.8 L271.1,201.3
		L273.0,196.8 L274.9,192.4 L276.8,188.1 L278.7,183.9 L280.6,179.7 L282.5,175.7 L284.4,171.7 L286.3,167.9
		L288.2,164.2 L290.2,160.6 L292.1,157.1 L294.0,153.8 L295.9,150.6 L297.8,147.5 L299.7,144.6 L301.6,141.8
		L303.5,139.2 L305.4,136.7 L307.3,134.3 L309.2,132.1 L311.1,130.0 L313.0,128.0 L314.9,126.2 L316.8,124.5
		L318.7,122.8 L320.6,121.3 L322.5,119.9 L324.4,118.6 L326.3,117.4 L328.2,116.3 L330.1,115.3 L332.0,114.3
		L333.9,113.4 L335.8,112.5 L337.7,111.7 L339.7,110.9 L341.6,110.1 L343.5,109.4 L345.4,108.6 L347.3,107.9
		L349.2,107.1 L351.1,106.3 L353.0,105.5 L354.9,104.6 L356.8,103.7 L358.7,102.8 L360.6,101.8 L362.5,100.7
		L364.4,99.6 L366.3,98.5 L368.2,97.3 L370.1,96.0 L372.0,94.8 L373.9,93.4 L375.8,92.1 L377.7,90.7
		L379.6,89.4 L381.5,88.0 L383.4,86.7 L385.3,85.4 L387.2,84.2 L389.2,83.0 L391.1,81.9 L393.0,80.8
		L394.9,79.9 L396.8,79.0 L398.7,78.2 L400.6,77.6 L402.5,77.0 L404.4,76.5 L406.3,76.1 L408.2,75.8
		L410.1,75.6 L412.0,75.5 L413.9,75.5 L415.8,75.5 L417.7,75.6 L419.6,75.8 L421.5,76.0 L423.4,76.3
		L425.3,76.6 L427.2,77.1 L429.1,77.5 L431.0,78.1 L432.9,78.7 L434.8,79.4 L436.7,80.2 L438.7,81.1
		L440.6,82.0 L442.5,83.1 L444.4,84.2 L446.3,85.4 L448.2,86.8 L450.1,88.2 L452.0,89.7 L453.9,91.3
		L455.8,92.9 L457.7,94.7 L459.6,96.5 L461.5,98.4 L463.4,100.4 L465.3,102.4 L467.2,104.5 L469.1,106.7
		L471.0,108.9 L472.9,111.2 L474.8,113.6 L476.7,116.0 L478.6,118.5 L480.5,121.1 L482.4,123.7 L484.3,126.4
		L486.2,129.2 L488.1,132.0 L490.1,134.9 L492.0,137.9 L493.9,140.9 L495.8,144.0 L497.7,147.2 L499.6,150.4
		L501.5,153.7 L503.4,157.0 L505.3,160.4 L507.2,163.8 L509.1,167.2 L511.0,170.7 L512.9,174.1 L514.8,177.6
		L516.7,181.1 L518.6,184.5 L520.5,187.9 L522.4,191.4 L524.3,194.7 L526.2,198.1 L528.1,201.4 L530.0,204.6
		L531.9,207.8 L533.8,211.0 L535.7,214.1 L537.6,217.1 L539.6,220.1 L541.5,223.0 L543.4,225.9 L545.3,228.7
		L547.2,231.5 L549.1,234.2 L551.0,236.9 L552.9,239.5 L554.8,242.1 L556.7,244.6 L558.6,247.2 L560.5,249.7
		L562.4,252.2 L564.3,254.7 L566.2,257.2 L568.1,259.8 L570.0,262.4 L571.9,265.0 L573.8,267.7 L575.7,270.4
		L577.6,273.2 L579.5,276.1 L581.4,279.1 L583.3,282.1 L585.2,285.2 L587.1,288.4 L589.1,291.7 L591.0,295.0
		L592.9,298.4 L594.8,301.8 L596.7,305.2 L598.6,308.7 L600.5,312.2 L602.4,315.7 L604.3,319.2 L606.2,322.7
		L608.1,326.1 L610.0,329.6 L611.9,333.0 L613.8,336.4 L615.7,339.7 L617.6,343.0 L619.5,346.2 L621.4,349.4
		L623.3,352.5 L625.2,355.6 L627.1,358.6 L629.0,361.6 L630.9,364.5 L632.8,367.3 L634.7,370.2 L636.6,372.9
		L638.5,375.6 L640.5,378.3 L642.4,381.0 L644.3,383.6 L646.2,386.2 L648.1,388.7 L650.0,391.3 L651.9,393.9
		L653.8,396.4 L655.7,399.0 L657.6,401.6 L659.5,404.2 L661.4,406.8 L663.3,409.4 L665.2,412.1 L667.1,414.8
		L669.0,417.5 L670.9,420.2 L672.8,422.9 L674.7,425.6 L676.6,428.4 L678.5,431.2 L680.4,433.9 L682.3,436.7
		L684.2,439.5 L686.1,442.3 L688.0,445.1 L690.0,447.9 L691.9,450.6 L693.8,453.4 L695.7,456.1 L697.6,458.9
		L699.5,461.6 L701.4,464.3 L703.3,467.1 L705.2,469.7 L707.1,472.4 L709.0,475.0 L710.9,477.7 L712.8,480.2
		L714.7,482.8 L716.6,485.3 L718.5,487.8 L720.4,490.2 L722.3,492.6 L724.2,494.9 L726.1,497.1 L728.0,499.4
		L729.9,501.5 L731.8,503.6 L733.7,505.6 L735.6,507.6 L737.5,509.5 L739.5,511.4 L741.4,513.2 L743.3,515.0
		L745.2,516.8 L747.1,518.5 L749.0,520.1 L750.9,521.8 L752.8,523.4 L754.7,525.0 L756.6,526.5 L758.5,528.1
		L760.4,529.7 L762.3,531.2 L764.2,532.8 L766.1,534.3 L768.0,535.8 L769.9,537.4 L771.8,538.9 L773.7,540.5
		L775.6,542.0 L777.5,543.6 L779.4,545.1 L781.3,546.6 L783.2,548.2 L785.1,549.7 L787.0,551.2 L789.0,552.6
		L790.9,554.1 L792.8,555.5 L794.7,556.9 L796.6,558.3 L798.5,559.7 L800.4,561.0 L802.3,562.2 L804.2,563.5
		L806.1,564.7 L808.0,565.8 L809.9,567.0 L811.8,568.0 L813.7,569.1 L815.6,570.1 L817.5,571.0 L819.4,571.9
		L821.3,572.8 L823.2,573.6 L825.1,574.4 L827.0,575.2 L828.9,575.9 L830.8,576.6 L832.7,577.3 L834.6,578.0
		L836.5,578.7 L838.4,579.3 L840.4,579.9 L842.3,580.5 L844.2,581.1 L846.1,581.7 L848.0,582.4 L849.9,583.0
		L851.8,583.6 L853.7,584.2 L855.6,584.9 L857.5,585.5 L859.4,586.2 L861.3,586.8 L863.2,587.5 L865.1,588.2
		L867.0,588.9 L868.9,589.6 L870.8,590.3 L872.7,591.0 L874.6,591.7 L876.5,592.4 L878.4,593.0 L880.3,593.7
		L882.2,594.4 L884.1,595.0 L886.0,595.6 L887.9,596.3 L889.9,596.8 L891.8,597.4 L893.7,598.0 L895.6,598.5
		L897.5,599.0 L899.4,599.5 L901.3,600.0 L903.2,600.5 L905.1,601.0 L907.0,601.5 L908.9,602.0 L910.8,602.5
		L912.7,602.9 L914.6,603.4 L916.5,603.9 L918.4,604.5 L920.3,605.0 L922.2,605.5 L924.1,606.1 L926.0,606.6
		L927.9,607.2 L929.8,607.7 L931.7,608.3 L933.6,608.9 L935.5,609.5 L937.4,610.1 L939.4,610.7 L941.3,611.3
		L943.2,611.9 L945.1,612.5 L947.0,613.1 L948.9,613.7 L950.8,614.2 L952.7,614.8 L954.6,615.4 L956.5,615.9
		L958.4,616.5 L960.3,617.0 L962.2,617.6 L964.1,618.1 L966.0,618.7 L967.9,619.2 L969.8,619.7 L971.7,620.2
		L973.6,620.7 L975.5,621.2 L977.4,621.7 L979.3,622.1 L981.2,622.6 L983.1,623.0 L985.0,623.4 L986.9,623.9
		L988.9,624.3 L990.8,624.7 L992.7,625.0 L994.6,625.4 L996.5,625.8 L998.4,626.2 L1000.3,626.5 L1002.2,626.9
		L1004.1,627.3 L1006.0,627.7 L1007.9,628.1 L1009.8,628.5 L1011.7,628.9 L1013.6,629.4  '/></g>
	</g>
	<g id="gnuplot_plot_2" ><title>Confidence interval</title>
<g fill="none" color="white" stroke="rgb( 31, 120, 180)" stroke-width="1.00" stroke-linecap="butt" stroke-linejoin="miter">
</g>
<g fill="none" color="black" stroke="currentColor" stroke-width="1.00" stroke-linecap="butt" stroke-linejoin="miter">
	<g transform="translate(1089.0,85.0)" stroke="none" fill="black" font-family="Helvetica" font-size="12.00"  text-anchor="start">
		<text><tspan font-family="Helvetica" >Confidence interval</tspan></text>
	</g>
</g>
<g fill="none" color="black" stroke="currentColor" stroke-width="1.00" stroke-linecap="butt" stroke-linejoin="miter">
	<g stroke='none' shape-rendering='crispEdges'>
		<polygon fill = 'rgb( 31, 120, 180)' fill-opacity = '0.250000' points = '1038.5,85.6 1080.7,85.6 1080.7,76.6 1038.5,76.6 '/>
		<polygon fill = 'rgb( 31, 120, 180)' fill-opacity = '0.250000' points = '151.2,519.2 153.1,514.8 155.0,510.4 156.9,505.9 158.8,501.3 160.7,496.7 162.6,491.9 164.5,487.1 166.4,482.2 168.3,477.3 170.2,472.3 172.1,467.2 174.0,462.2 175.9,457.0 177.8,451.9 179.7,446.7
181.6,441.5 183.5,436.3 185.4,431.1 187.3,425.8 189.3,420.6 191.2,415.3 193.1,410.0 195.0,404.7 196.9,399.3 198.8,394.0 200.7,388.6 202.6,383.3 204.5,377.9 206.4,372.5 208.3,367.1 210.2,361.7
212.1,356.3 214.0,350.8 215.9,345.4 217.8,340.0 219.7,334.7 221.6,329.3 223.5,324.0 225.4,318.7 227.3,313.4 229.2,308.1 231.1,302.9 233.0,297.8 234.9,292.6 236.8,287.6 238.8,282.5 240.7,277.5
242.6,272.5 244.5,267.6 246.4,262.7 248.3,257.8 250.2,252.9 252.1,248.1 254.0,243.3 255.9,238.5 257.8,233.7 259.7,229.0 261.6,224.3 263.5,219.6 265.4,215.0 267.3,210.4 269.2,205.8 271.1,201.3
273.0,196.8 274.9,192.4 276.8,188.1 278.7,183.9 280.6,179.7 282.5,175.7 284.4,171.7 286.3,167.9 288.2,164.2 290.2,160.6 292.1,157.1 294.0,153.8 295.9,150.6 297.8,147.5 299.7,144.6 301.6,141.8
303.5,139.2 305.4,136.7 307.3,134.3 309.2,132.1 311.1,130.0 313.0,128.0 314.9,126.2 316.8,124.5 318.7,122.8 320.6,121.3 322.5,119.9 324.4,118.6 326.3,117.4 328.2,116.3 330.1,115.3 332.0,114.3
333.9,113.4 335.8,112.5 337.7,111.7 339.7,110.9 341.6,110.1 343.5,109.4 345.4,108.6 347.3,107.9 349.2,107.1 351.1,106.3 353.0,105.5 354.9,104.6 356.8,103.7 358.7,102.8 360.6,101.8 362.5,100.7
364.4,99.6 366.3,98.5 368.2,97.3 370.1,96.0 372.0,94.8 373.9,93.4 375.8,92.1 377.7,90.7 379.6,89.4 381.5,88.0 383.4,86.7 385.3,85.4 387.2,84.2 389.2,83.0 391.1,81.9 393.0,80.8
394.9,79.9 396.8,79.0 398.7,78.2 400.6,77.6 402.5,77.0 404.4,76.5 406.3,76.1 408.2,75.8 410.1,75.6 412.0,75.5 413.9,75.5 415.8,75.5 417.7,75.6 419.6,75.8 421.5,76.0 423.4,76.3
425.3,76.6 427.2,77.1 429.1,77.5 431.0,78.1 432.9,78.7 434.8,79.4 436.7,80.2 438.7,81.1 440.6,82.0 442.5,83.1 444.4,84.2 446.3,85.4 448.2,86.8 450.1,88.2 452.0,89.7 453.9,91.3
455.8,92.9 457.7,94.7 459.6,96.5 461.5,98.4 463.4,100.4 465.3,102.4 467.2,104.5 469.1,106.7 471.0,108.9 472.9,111.2 474.8,113.6 476.7,116.0 478.6,118.5 480.5,121.1 482.4,123.7 484.3,126.4
486.2,129.2 488.1,132.0 490.1,134.9 492.0,137.9 493.9,140.9 495.8,144.0 497.7,147.2 499.6,150.4 501.5,153.7 503.4,157.0 505.3,160.4 507.2,163.8 509.1,167.2 511.0,170.7 512.9,174.1 514.8,177.6
516.7,181.1 518.6,184.5 520.5,187.9 522.4,191.4 524.3,194.7 526.2,198.1 528.1,201.4 530.0,204.6 531.9,207.8 533.8,211.0 535.7,214.1 537.6,217.1 539.6,220.1 541.5,223.0 543.4,225.9 545.3,228.7
547.2,231.5 549.1,234.2 551.0,236.9 552.9,239.5 554.8,242.1 556.7,244.6 558.6,247.2 560.5,249.7 562.4,252.2 564.3,254.7 566.2,257.2 568.1,259.8 570.0,262.4 571.9,265.0 573.8,267.7 575.7,270.4
577.6,273.2 579.5,276.1 581.4,279.1 583.3,282.1 585.2,285.2 587.1,288.4 589.1,291.7 591.0,295.0 592.9,298.4 594.8,301.8 596.7,305.2 598.6,308.7 600.5,312.2 602.4,315.7 604.3,319.2 606.2,322.7
608.1,326.1 610.0,329.6 611.9,333.0 613.8,336.4 615.7,339.7 617.6,343.0 619.5,346.2 621.4,349.4 623.3,352.5 625.2,355.6 627.1,358.6 629.0,361.6 630.9,364.5 632.8,367.3 634.7,370.2 636.6,372.9
638.5,375.6 640.5,378.3 642.4,381.0 644.3,383.6 646.2,386.2 648.1,388.7 650.0,391.3 651.9,393.9 653.8,396.4 655.7,399.0 657.6,401.6 659.5,404.2 661.4,406.8 663.3,409.4 665.2,412.1 667.1,414.8
669.0,417.5 670.9,420.2 672.8,422.9 674.7,425.6 676.6,428.4 678.5,431.2 680.4,433.9 682.3,436.7 684.2,439.5 686.1,442.3 688.0,445.1 690.0,447.9 691.9,450.6 693.8,453.4 695.7,456.1 697.6,458.9
699.5,461.6 701.4,464.3 703.3,467.1 705.2,469.7 707.1,472.4 709.0,475.0 710.9,477.7 712.8,480.2 714.7,482.8 716.6,485.3 718.5,487.8 720.4,490.2 722.3,492.6 724.2,494.9 726.1,497.1 728.0,499.4
729.9,501.5 731.8,503.6 733.7,505.6 735.6,507.6 737.5,509.5 739.5,511.4 741.4,513.2 743.3,515.0 745.2,516.8 747.1,518.5 749.0,520.1 750.9,521.8 752.8,523.4 754.7,525.0 756.6,526.5 758.5,528.1
760.4,529.7 762.3,531.2 764.2,532.8 766.1,534.3 768.0,535.8 769.9,537.4 771.8,538.9 773.7,540.5 775.6,542.0 777.5,543.6 779.4,545.1 781.3,546.6 783.2,548.2 785.1,549.7 787.0,551.2 789.0,552.6
790.9,554.1 792.8,555.5 794.7,556.9 796.6,558.3 798.5,559.7 800.4,561.0 802.3,562.2 804.2,563.5 806.1,564.7 808.0,565.8 809.9,567.0 811.8,568.0 813.7,569.1 815.6,570.1 817.5,571.0 819.4,571.9
821.3,572.8 823.2,573.6 825.1,574.4 827.0,575.2 828.9,575.9 830.8,576.6 832.7,577.3 834.6,578.0 836.5,578.7 838.4,579.3 840.4,579.9 842.3,580.5 844.2,581.1 846.1,581.7 848.0,582.4 849.9,583.0
851.8,583.6 853.7,584.2 855.6,584.9 857.5,585.5 859.4,586.2 861.3,586.8 863.2,587.5 865.1,588.2 867.0,588.9 868.9,589.6 870.8,590.3 872.7,591.0 874.6,591.7 876.5,592.4 878.4,593.0 880.3,593.7
882.2,594.4 884.1,595.0 886.0,595.6 887.9,596.3 889.9,596.8 891.8,597.4 893.7,598.0 895.6,598.5 897.5,599.0 899.4,599.5 901.3,600.0 903.2,600.5 905.1,601.0 907.0,601.5 908.9,602.0 910.8,602.5
912.7,602.9 914.6,603.4 916.5,603.9 918.4,604.5 920.3,605.0 922.2,605.5 924.1,606.1 924.1,662.4 922.2,662.4 920.3,662.4 918.4,662.4 916.5,662.4 914.6,662.4 912.7,662.4 910.8,662.4 908.9,662.4
907.0,662.4 905.1,662.4 903.2,662.4 901.3,662.4 899.4,662.4 897.5,662.4 895.6,662.4 893.7,662.4 891.8,662.4 889.9,662.4 887.9,662.4 886.0,662.4 884.1,662.4 882.2,662.4 880.3,662.4 878.4,662.4
876.5,662.4 874.6,662.4 872.7,662.4 870.8,662.4 868.9,662.4 867.0,662.4 865.1,662.4 863.2,662.4 861.3,662.4 859.4,662.4 857.5,662.4 855.6,662.4 853.7,662.4 851.8,662.4 849.9,662.4 848.0,662.4
846.1,662.4 844.2,662.4 842.3,662.4 840.4,662.4 838.4,662.4 836.5,662.4 834.6,662.4 832.7,662.4 830.8,662.4 828.9,662.4 827.0,662.4 825.1,662.4 823.2,662.4 821.3,662.4 819.4,662.4 817.5,662.4
815.6,662.4 813.7,662.4 811.8,662.4 809.9,662.4 808.0,662.4 806.1,662.4 804.2,662.4 802.3,662.4 800.4,662.4 798.5,662.4 796.6,662.4 794.7,662.4 792.8,662.4 790.9,662.4 789.0,662.4 787.0,662.4
785.1,662.4 783.2,662.4 781.3,662.4 779.4,662.4 777.5,662.4 775.6,662.4 773.7,662.4 771.8,662.4 769.9,662.4 768.0,662.4 766.1,662.4 764.2,662.4 762.3,662.4 760.4,662.4 758.5,662.4 756.6,662.4
754.7,662.4 752.8,662.4 750.9,662.4 749.0,662.4 747.1,662.4 745.2,662.4 743.3,662.4 741.4,662.4 739.5,662.4 737.5,662.4 735.6,662.4 733.7,662.4 731.8,662.4 729.9,662.4 728.0,662.4 726.1,662.4
724.2,662.4 722.3,662.4 720.4,662.4 718.5,662.4 716.6,662.4 714.7,662.4 712.8,662.4 710.9,662.4 709.0,662.4 707.1,662.4 705.2,662.4 703.3,662.4 701.4,662.4 699.5,662.4 697.6,662.4 695.7,662.4
693.8,662.4 691.9,662.4 690.0,662.4 688.0,662.4 686.1,662.4 684.2,662.4 682.3,662.4 680.4,662.4 678.5,662.4 676.6,662.4 674.7,662.4 672.8,662.4 670.9,662.4 669.0,662.4 667.1,662.4 665.2,662.4
663.3,662.4 661.4,662.4 659.5,662.4 657.6,662.4 655.7,662.4 653.8,662.4 651.9,662.4 650.0,662.4 648.1,662.4 646.2,662.4 644.3,662.4 642.4,662.4 640.5,662.4 638.5,662.4 636.6,662.4 634.7,662.4
632.8,662.4 630.9,662.4 629.0,662.4 627.1,662.4 625.2,662.4 623.3,662.4 621.4,662.4 619.5,662.4 617.6,662.4 615.7,662.4 613.8,662.4 611.9,662.4 610.0,662.4 608.1,662.4 606.2,662.4 604.3,662.4
602.4,662.4 600.5,662.4 598.6,662.4 596.7,662.4 594.8,662.4 592.9,662.4 591.0,662.4 589.1,662.4 587.1,662.4 585.2,662.4 583.3,662.4 581.4,662.4 579.5,662.4 577.6,662.4 575.7,662.4 573.8,662.4
571.9,662.4 570.0,662.4 568.1,662.4 566.2,662.4 564.3,662.4 562.4,662.4 560.5,662.4 558.6,662.4 556.7,662.4 554.8,662.4 552.9,662.4 551.0,662.4 549.1,662.4 547.2,662.4 545.3,662.4 543.4,662.4
541.5,662.4 539.6,662.4 537.6,662.4 535.7,662.4 533.8,662.4 531.9,662.4 530.0,662.4 528.1,662.4 526.2,662.4 524.3,662.4 522.4,662.4 520.5,662.4 518.6,662.4 516.7,662.4 514.8,662.4 512.9,662.4
511.0,662.4 509.1,662.4 507.2,662.4 505.3,662.4 503.4,662.4 501.5,662.4 499.6,662.4 497.7,662.4 495.8,662.4 493.9,662.4 492.0,662.4 490.1,662.4 488.1,662.4 486.2,662.4 484.3,662.4 482.4,662.4
480.5,662.4 478.6,662.4 476.7,662.4 474.8,662.4 472.9,662.4 471.0,662.4 469.1,662.4 467.2,662.4 465.3,662.4 463.4,662.4 461.5,662.4 459.6,662.4 457.7,662.4 455.8,662.4 453.9,662.4 452.0,662.4
450.1,662.4 448.2,662.4 446.3,662.4 444.4,662.4 442.5,662.4 440.6,662.4 438.7,662.4 436.7,662.4 434.8,662.4 432.9,662.4 431.0,662.4 429.1,662.4 427.2,662.4 425.3,662.4 423.4,662.4 421.5,662.4
419.6,662.4 417.7,662.4 415.8,662.4 413.9,662.4 412.0,662.4 410.1,662.4 408.2,662.4 406.3,662.4 404.4,662.4 402.5,662.4 400.6,662.4 398.7,662.4 396.8,662.4 394.9,662.4 393.0,662.4 391.1,662.4
389.2,662.4 387.2,662.4 385.3,662.4 383.4,662.4 381.5,662.4 379.6,662.4 377.7,662.4 375.8,662.4 373.9,662.4 372.0,662.4 370.1,662.4 368.2,662.4 366.3,662.4 364.4,662.4 362.5,662.4 360.6,662.4
358.7,662.4 356.8,662.4 354.9,662.4 353.0,662.4 351.1,662.4 349.2,662.4 347.3,662.4 345.4,662.4 343.5,662.4 341.6,662.4 339.7,662.4 337.7,662.4 335.8,662.4 333.9,662.4 332.0,662.4 330.1,662.4
328.2,662.4 326.3,662.4 324.4,662.4 322.5,662.4 320.6,662.4 318.7,662.4 316.8,662.4 314.9,662.4 313.0,662.4 311.1,662.4 309.2,662.4 307.3,662.4 305.4,662.4 303.5,662.4 301.6,662.4 299.7,662.4
297.8,662.4 295.9,662.4 294.0,662.4 292.1,662.4 290.2,662.4 288.2,662.4 286.3,662.4 284.4,662.4 282.5,662.4 280.6,662.4 278.7,662.4 276.8,662.4 274.9,662.4 273.0,662.4 271.1,662.4 269.2,662.4
267.3,662.4 265.4,662.4 263.5,662.4 261.6,662.4 259.7,662.4 257.8,662.4 255.9,662.4 254.0,662.4 252.1,662.4 250.2,662.4 248.3,662.4 246.4,662.4 244.5,662.4 242.6,662.4 240.7,662.4 238.8,662.4
236.8,662.4 234.9,662.4 233.0,662.4 231.1,662.4 229.2,662.4 227.3,662.4 225.4,662.4 223.5,662.4 221.6,662.4 219.7,662.4 217.8,662.4 215.9,662.4 214.0,662.4 212.1,662.4 210.2,662.4 208.3,662.4
206.4,662.4 204.5,662.4 202.6,662.4 200.7,662.4 198.8,662.4 196.9,662.4 195.0,662.4 193.1,662.4 191.2,662.4 189.3,662.4 187.3,662.4 185.4,662.4 183.5,662.4 181.6,662.4 179.7,662.4 177.8,662.4
175.9,662.4 174.0,662.4 172.1,662.4 170.2,662.4 168.3,662.4 166.4,662.4 164.5,662.4 162.6,662.4 160.7,662.4 158.8,662.4 156.9,662.4 155.0,662.4 153.1,662.4 151.2,662.4 '/>
	</g>
</g>
	</g>
	<g id="gnuplot_plot_3" ><title>Point estimate</title>
<g fill="none" color="white" stroke="rgb( 31, 120, 180)" stroke-width="2.00" stroke-linecap="butt" stroke-linejoin="miter">
</g>
<g fill="none" color="black" stroke="currentColor" stroke-width="2.00" stroke-linecap="butt" stroke-linejoin="miter">
	<g transform="translate(1089.0,103.0)" stroke="none" fill="black" font-family="Helvetica" font-size="12.00"  text-anchor="start">
		<text><tspan font-family="Helvetica" >Point estimate</tspan></text>
	</g>
</g>
<g fill="none" color="black" stroke="currentColor" stroke-width="2.00" stroke-linecap="butt" stroke-linejoin="miter">
	<path stroke='rgb( 31, 120, 180)'  d='M1038.5,99.1 L1080.7,99.1 M446.2,662.4 L446.2,85.4  '/></g>
	</g>
	<g id="gnuplot_plot_4" ><title>Noise threshold</title>
<g fill="none" color="white" stroke="rgb( 31, 120, 180)" stroke-width="1.00" stroke-linecap="butt" stroke-linejoin="miter">
</g>
<g fill="none" color="black" stroke="currentColor" stroke-width="1.00" stroke-linecap="butt" stroke-linejoin="miter">
	<g transform="translate(1089.0,121.0)" stroke="none" fill="black" font-family="Helvetica" font-size="12.00"  text-anchor="start">
		<text><tspan font-family="Helvetica" >Noise threshold</tspan></text>
	</g>
</g>
<g fill="none" color="black" stroke="currentColor" stroke-width="1.00" stroke-linecap="butt" stroke-linejoin="miter">
	<g stroke='none' shape-rendering='crispEdges'>
		<polygon fill = 'rgb(227,  26,  28)' fill-opacity = '0.100000' points = '1038.5,121.6 1080.7,121.6 1080.7,112.6 1038.5,112.6 '/>
		<polygon fill = 'rgb(227,  26,  28)' fill-opacity = '0.100000' points = '313.0,54.1 847.9,54.1 847.9,662.4 313.0,662.4 '/>
	</g>
</g>
	</g>
<g fill="none" color="white" stroke="rgb(227,  26,  28)" stroke-width="2.00" stroke-linecap="butt" stroke-linejoin="miter">
</g>
<g fill="none" color="black" stroke="currentColor" stroke-width="2.00" stroke-linecap="butt" stroke-linejoin="miter">
</g>
<g fill="none" color="black" stroke="black" stroke-width="1.00" stroke-linecap="butt" stroke-linejoin="miter">
</g>
<g fill="none" color="black" stroke="currentColor" stroke-width="1.00" stroke-linecap="butt" stroke-linejoin="miter">
	<path stroke='black'  d='M63.6,54.1 L63.6,662.4 L1013.6,662.4 L1013.6,54.1 L63.6,54.1 Z  '/></g>
<g fill="none" color="black" stroke="currentColor" stroke-width="1.00" stroke-linecap="butt" stroke-linejoin="miter">
</g>
</g>
</svg>

