<?xml version="1.0" encoding="utf-8"  standalone="no"?>
<svg 
 viewBox="0 0 1280 720"
 xmlns="http://www.w3.org/2000/svg"
 xmlns:xlink="http://www.w3.org/1999/xlink"
>

<title>Gnuplot</title>
<desc>Produced by GNUPLOT 5.2 patchlevel 6 </desc>

<g id="gnuplot_canvas">

<rect x="0" y="0" width="1280" height="720" fill="none"/>
<defs>

	<circle id='gpDot' r='0.5' stroke-width='0.5' stroke='currentColor'/>
	<path id='gpPt0' stroke-width='0.222' stroke='currentColor' d='M-1,0 h2 M0,-1 v2'/>
	<path id='gpPt1' stroke-width='0.222' stroke='currentColor' d='M-1,-1 L1,1 M1,-1 L-1,1'/>
	<path id='gpPt2' stroke-width='0.222' stroke='currentColor' d='M-1,0 L1,0 M0,-1 L0,1 M-1,-1 L1,1 M-1,1 L1,-1'/>
	<rect id='gpPt3' stroke-width='0.222' stroke='currentColor' x='-1' y='-1' width='2' height='2'/>
	<rect id='gpPt4' stroke-width='0.222' stroke='currentColor' fill='currentColor' x='-1' y='-1' width='2' height='2'/>
	<circle id='gpPt5' stroke-width='0.222' stroke='currentColor' cx='0' cy='0' r='1'/>
	<use xlink:href='#gpPt5' id='gpPt6' fill='currentColor' stroke='none'/>
	<path id='gpPt7' stroke-width='0.222' stroke='currentColor' d='M0,-1.33 L-1.33,0.67 L1.33,0.67 z'/>
	<use xlink:href='#gpPt7' id='gpPt8' fill='currentColor' stroke='none'/>
	<use xlink:href='#gpPt7' id='gpPt9' stroke='currentColor' transform='rotate(180)'/>
	<use xlink:href='#gpPt9' id='gpPt10' fill='currentColor' stroke='none'/>
	<use xlink:href='#gpPt3' id='gpPt11' stroke='currentColor' transform='rotate(45)'/>
	<use xlink:href='#gpPt11' id='gpPt12' fill='currentColor' stroke='none'/>
	<path id='gpPt13' stroke-width='0.222' stroke='currentColor' d='M0,1.330 L1.265,0.411 L0.782,-1.067 L-0.782,-1.076 L-1.265,0.411 z'/>
	<use xlink:href='#gpPt13' id='gpPt14' fill='currentColor' stroke='none'/>
	<filter id='textbox' filterUnits='objectBoundingBox' x='0' y='0' height='1' width='1'>
	  <feFlood flood-color='white' flood-opacity='1' result='bgnd'/>
	  <feComposite in='SourceGraphic' in2='bgnd' operator='atop'/>
	</filter>
	<filter id='greybox' filterUnits='objectBoundingBox' x='0' y='0' height='1' width='1'>
	  <feFlood flood-color='lightgrey' flood-opacity='1' result='grey'/>
	  <feComposite in='SourceGraphic' in2='grey' operator='atop'/>
	</filter>
</defs>
<g fill="none" color="white" stroke="currentColor" stroke-width="1.00" stroke-linecap="butt" stroke-linejoin="miter">
</g>
<g fill="none" color="black" stroke="currentColor" stroke-width="1.00" stroke-linecap="butt" stroke-linejoin="miter">
	<path stroke='black'  d='M71.9,662.4 L80.9,662.4  '/>	<g transform="translate(63.6,666.3)" stroke="none" fill="black" font-family="Helvetica" font-size="12.00"  text-anchor="end">
		<text><tspan font-family="Helvetica" > 0</tspan></text>
	</g>
</g>
<g fill="none" color="black" stroke="currentColor" stroke-width="1.00" stroke-linecap="butt" stroke-linejoin="miter">
	<path stroke='black'  d='M71.9,561.0 L80.9,561.0  '/>	<g transform="translate(63.6,564.9)" stroke="none" fill="black" font-family="Helvetica" font-size="12.00"  text-anchor="end">
		<text><tspan font-family="Helvetica" > 0.5</tspan></text>
	</g>
</g>
<g fill="none" color="black" stroke="currentColor" stroke-width="1.00" stroke-linecap="butt" stroke-linejoin="miter">
	<path stroke='black'  d='M71.9,459.6 L80.9,459.6  '/>	<g transform="translate(63.6,463.5)" stroke="none" fill="black" font-family="Helvetica" font-size="12.00"  text-anchor="end">
		<text><tspan font-family="Helvetica" > 1</tspan></text>
	</g>
</g>
<g fill="none" color="black" stroke="currentColor" stroke-width="1.00" stroke-linecap="butt" stroke-linejoin="miter">
	<path stroke='black'  d='M71.9,358.2 L80.9,358.2  '/>	<g transform="translate(63.6,362.1)" stroke="none" fill="black" font-family="Helvetica" font-size="12.00"  text-anchor="end">
		<text><tspan font-family="Helvetica" > 1.5</tspan></text>
	</g>
</g>
<g fill="none" color="black" stroke="currentColor" stroke-width="1.00" stroke-linecap="butt" stroke-linejoin="miter">
	<path stroke='black'  d='M71.9,256.9 L80.9,256.9  '/>	<g transform="translate(63.6,260.8)" stroke="none" fill="black" font-family="Helvetica" font-size="12.00"  text-anchor="end">
		<text><tspan font-family="Helvetica" > 2</tspan></text>
	</g>
</g>
<g fill="none" color="black" stroke="currentColor" stroke-width="1.00" stroke-linecap="butt" stroke-linejoin="miter">
	<path stroke='black'  d='M71.9,155.5 L80.9,155.5  '/>	<g transform="translate(63.6,159.4)" stroke="none" fill="black" font-family="Helvetica" font-size="12.00"  text-anchor="end">
		<text><tspan font-family="Helvetica" > 2.5</tspan></text>
	</g>
</g>
<g fill="none" color="black" stroke="currentColor" stroke-width="1.00" stroke-linecap="butt" stroke-linejoin="miter">
	<path stroke='black'  d='M71.9,54.1 L80.9,54.1  '/>	<g transform="translate(63.6,58.0)" stroke="none" fill="black" font-family="Helvetica" font-size="12.00"  text-anchor="end">
		<text><tspan font-family="Helvetica" > 3</tspan></text>
	</g>
</g>
<g fill="none" color="black" stroke="currentColor" stroke-width="1.00" stroke-linecap="butt" stroke-linejoin="miter">
	<path stroke='black'  d='M126.6,662.4 L126.6,653.4  '/>	<g transform="translate(126.6,684.3)" stroke="none" fill="black" font-family="Helvetica" font-size="12.00"  text-anchor="middle">
		<text><tspan font-family="Helvetica" > 61.8</tspan></text>
	</g>
</g>
<g fill="none" color="black" stroke="currentColor" stroke-width="1.00" stroke-linecap="butt" stroke-linejoin="miter">
	<path stroke='black'  d='M255.4,662.4 L255.4,653.4  '/>	<g transform="translate(255.4,684.3)" stroke="none" fill="black" font-family="Helvetica" font-size="12.00"  text-anchor="middle">
		<text><tspan font-family="Helvetica" > 61.9</tspan></text>
	</g>
</g>
<g fill="none" color="black" stroke="currentColor" stroke-width="1.00" stroke-linecap="butt" stroke-linejoin="miter">
	<path stroke='black'  d='M384.3,662.4 L384.3,653.4  '/>	<g transform="translate(384.3,684.3)" stroke="none" fill="black" font-family="Helvetica" font-size="12.00"  text-anchor="middle">
		<text><tspan font-family="Helvetica" > 62</tspan></text>
	</g>
</g>
<g fill="none" color="black" stroke="currentColor" stroke-width="1.00" stroke-linecap="butt" stroke-linejoin="miter">
	<path stroke='black'  d='M513.1,662.4 L513.1,653.4  '/>	<g transform="translate(513.1,684.3)" stroke="none" fill="black" font-family="Helvetica" font-size="12.00"  text-anchor="middle">
		<text><tspan font-family="Helvetica" > 62.1</tspan></text>
	</g>
</g>
<g fill="none" color="black" stroke="currentColor" stroke-width="1.00" stroke-linecap="butt" stroke-linejoin="miter">
	<path stroke='black'  d='M641.9,662.4 L641.9,653.4  '/>	<g transform="translate(641.9,684.3)" stroke="none" fill="black" font-family="Helvetica" font-size="12.00"  text-anchor="middle">
		<text><tspan font-family="Helvetica" > 62.2</tspan></text>
	</g>
</g>
<g fill="none" color="black" stroke="currentColor" stroke-width="1.00" stroke-linecap="butt" stroke-linejoin="miter">
	<path stroke='black'  d='M770.7,662.4 L770.7,653.4  '/>	<g transform="translate(770.7,684.3)" stroke="none" fill="black" font-family="Helvetica" font-size="12.00"  text-anchor="middle">
		<text><tspan font-family="Helvetica" > 62.3</tspan></text>
	</g>
</g>
<g fill="none" color="black" stroke="currentColor" stroke-width="1.00" stroke-linecap="butt" stroke-linejoin="miter">
	<path stroke='black'  d='M899.6,662.4 L899.6,653.4  '/>	<g transform="translate(899.6,684.3)" stroke="none" fill="black" font-family="Helvetica" font-size="12.00"  text-anchor="middle">
		<text><tspan font-family="Helvetica" > 62.4</tspan></text>
	</g>
</g>
<g fill="none" color="black" stroke="currentColor" stroke-width="1.00" stroke-linecap="butt" stroke-linejoin="miter">
</g>
<g fill="none" color="black" stroke="currentColor" stroke-width="1.00" stroke-linecap="butt" stroke-linejoin="miter">
	<path stroke='black'  d='M71.9,54.1 L71.9,662.4 L1013.6,662.4 L1013.6,54.1 L71.9,54.1 Z  '/></g>
<g fill="none" color="black" stroke="currentColor" stroke-width="1.00" stroke-linecap="butt" stroke-linejoin="miter">
	<g transform="translate(16.3,358.3) rotate(270)" stroke="none" fill="black" font-family="Helvetica" font-size="12.00"  text-anchor="middle">
		<text><tspan font-family="Helvetica" >Density (a.u.)</tspan></text>
	</g>
</g>
<g fill="none" color="black" stroke="currentColor" stroke-width="1.00" stroke-linecap="butt" stroke-linejoin="miter">
	<g transform="translate(542.7,711.3)" stroke="none" fill="black" font-family="Helvetica" font-size="12.00"  text-anchor="middle">
		<text><tspan font-family="Helvetica" >Average time (us)</tspan></text>
	</g>
</g>
<g fill="none" color="black" stroke="currentColor" stroke-width="1.00" stroke-linecap="butt" stroke-linejoin="miter">
	<g transform="translate(542.7,31.0)" stroke="none" fill="black" font-family="Helvetica" font-size="12.00"  text-anchor="middle">
		<text><tspan font-family="Helvetica" >snapshot_restore_with_dense/Dense: Entire region + process_vm_writev w/ page size/100: mean</tspan></text>
	</g>
</g>
	<g id="gnuplot_plot_1" ><title>Bootstrap distribution</title>
<g fill="none" color="white" stroke="black" stroke-width="2.00" stroke-linecap="butt" stroke-linejoin="miter">
</g>
<g fill="none" color="black" stroke="currentColor" stroke-width="2.00" stroke-linecap="butt" stroke-linejoin="miter">
	<g transform="translate(1089.0,67.0)" stroke="none" fill="black" font-family="Helvetica" font-size="12.00"  text-anchor="start">
		<text><tspan font-family="Helvetica" >Bootstrap distribution</tspan></text>
	</g>
</g>
<g fill="none" color="black" stroke="currentColor" stroke-width="2.00" stroke-linecap="butt" stroke-linejoin="miter">
	<path stroke='rgb( 31, 120, 180)'  d='M1038.5,63.1 L1080.7,63.1 M71.9,639.5 L73.8,637.9 L75.7,636.4 L77.6,634.7 L79.4,633.0 L81.3,631.3
		L83.2,629.5 L85.1,627.6 L87.0,625.7 L88.9,623.7 L90.8,621.6 L92.7,619.6 L94.5,617.4 L96.4,615.2
		L98.3,612.9 L100.2,610.6 L102.1,608.2 L104.0,605.8 L105.9,603.3 L107.8,600.8 L109.6,598.2 L111.5,595.6
		L113.4,592.9 L115.3,590.2 L117.2,587.4 L119.1,584.5 L121.0,581.7 L122.9,578.8 L124.7,575.8 L126.6,572.8
		L128.5,569.8 L130.4,566.7 L132.3,563.6 L134.2,560.4 L136.1,557.3 L138.0,554.1 L139.8,550.9 L141.7,547.6
		L143.6,544.3 L145.5,541.1 L147.4,537.8 L149.3,534.5 L151.2,531.1 L153.0,527.8 L154.9,524.5 L156.8,521.2
		L158.7,517.9 L160.6,514.6 L162.5,511.3 L164.4,508.0 L166.3,504.8 L168.1,501.5 L170.0,498.3 L171.9,495.1
		L173.8,491.9 L175.7,488.7 L177.6,485.5 L179.5,482.3 L181.4,479.1 L183.2,476.0 L185.1,472.8 L187.0,469.6
		L188.9,466.4 L190.8,463.1 L192.7,459.9 L194.6,456.6 L196.5,453.2 L198.3,449.9 L200.2,446.4 L202.1,443.0
		L204.0,439.4 L205.9,435.9 L207.8,432.2 L209.7,428.5 L211.6,424.7 L213.4,420.9 L215.3,417.0 L217.2,413.1
		L219.1,409.1 L221.0,405.0 L222.9,400.9 L224.8,396.8 L226.6,392.6 L228.5,388.4 L230.4,384.1 L232.3,379.9
		L234.2,375.6 L236.1,371.3 L238.0,367.0 L239.9,362.7 L241.7,358.4 L243.6,354.2 L245.5,350.0 L247.4,345.8
		L249.3,341.7 L251.2,337.7 L253.1,333.7 L255.0,329.7 L256.8,325.9 L258.7,322.1 L260.6,318.4 L262.5,314.8
		L264.4,311.2 L266.3,307.7 L268.2,304.3 L270.1,301.0 L271.9,297.7 L273.8,294.5 L275.7,291.4 L277.6,288.3
		L279.5,285.2 L281.4,282.2 L283.3,279.2 L285.2,276.2 L287.0,273.3 L288.9,270.3 L290.8,267.3 L292.7,264.4
		L294.6,261.4 L296.5,258.4 L298.4,255.4 L300.2,252.4 L302.1,249.4 L304.0,246.4 L305.9,243.4 L307.8,240.4
		L309.7,237.4 L311.6,234.4 L313.5,231.5 L315.3,228.6 L317.2,225.7 L319.1,222.9 L321.0,220.2 L322.9,217.5
		L324.8,214.9 L326.7,212.3 L328.6,209.9 L330.4,207.5 L332.3,205.1 L334.2,202.9 L336.1,200.7 L338.0,198.5
		L339.9,196.5 L341.8,194.4 L343.7,192.4 L345.5,190.4 L347.4,188.5 L349.3,186.5 L351.2,184.5 L353.1,182.6
		L355.0,180.6 L356.9,178.6 L358.8,176.6 L360.6,174.6 L362.5,172.6 L364.4,170.5 L366.3,168.5 L368.2,166.4
		L370.1,164.3 L372.0,162.3 L373.8,160.2 L375.7,158.2 L377.6,156.2 L379.5,154.2 L381.4,152.3 L383.3,150.4
		L385.2,148.6 L387.1,146.9 L388.9,145.3 L390.8,143.8 L392.7,142.4 L394.6,141.1 L396.5,139.9 L398.4,138.8
		L400.3,137.8 L402.2,137.0 L404.0,136.2 L405.9,135.6 L407.8,135.1 L409.7,134.7 L411.6,134.4 L413.5,134.2
		L415.4,134.1 L417.3,134.1 L419.1,134.2 L421.0,134.3 L422.9,134.5 L424.8,134.8 L426.7,135.2 L428.6,135.5
		L430.5,136.0 L432.4,136.4 L434.2,136.9 L436.1,137.4 L438.0,138.0 L439.9,138.5 L441.8,139.1 L443.7,139.6
		L445.6,140.2 L447.4,140.7 L449.3,141.3 L451.2,141.8 L453.1,142.4 L455.0,142.9 L456.9,143.5 L458.8,144.0
		L460.7,144.6 L462.5,145.2 L464.4,145.7 L466.3,146.4 L468.2,147.0 L470.1,147.7 L472.0,148.4 L473.9,149.2
		L475.8,150.0 L477.6,150.8 L479.5,151.7 L481.4,152.7 L483.3,153.7 L485.2,154.8 L487.1,156.0 L489.0,157.2
		L490.9,158.4 L492.7,159.8 L494.6,161.1 L496.5,162.6 L498.4,164.1 L500.3,165.6 L502.2,167.2 L504.1,168.9
		L506.0,170.5 L507.8,172.3 L509.7,174.0 L511.6,175.8 L513.5,177.7 L515.4,179.5 L517.3,181.4 L519.2,183.2
		L521.0,185.1 L522.9,187.0 L524.8,188.9 L526.7,190.8 L528.6,192.7 L530.5,194.5 L532.4,196.4 L534.3,198.2
		L536.1,200.1 L538.0,201.9 L539.9,203.7 L541.8,205.5 L543.7,207.3 L545.6,209.1 L547.5,210.9 L549.4,212.7
		L551.2,214.5 L553.1,216.4 L555.0,218.2 L556.9,220.1 L558.8,222.0 L560.7,224.0 L562.6,225.9 L564.5,228.0
		L566.3,230.0 L568.2,232.1 L570.1,234.3 L572.0,236.5 L573.9,238.7 L575.8,241.0 L577.7,243.4 L579.5,245.7
		L581.4,248.1 L583.3,250.6 L585.2,253.1 L587.1,255.6 L589.0,258.1 L590.9,260.6 L592.8,263.2 L594.6,265.8
		L596.5,268.4 L598.4,271.0 L600.3,273.6 L602.2,276.3 L604.1,278.9 L606.0,281.6 L607.9,284.2 L609.7,286.8
		L611.6,289.5 L613.5,292.1 L615.4,294.8 L617.3,297.4 L619.2,300.0 L621.1,302.6 L623.0,305.2 L624.8,307.8
		L626.7,310.4 L628.6,312.9 L630.5,315.5 L632.4,318.0 L634.3,320.4 L636.2,322.9 L638.1,325.3 L639.9,327.8
		L641.8,330.2 L643.7,332.5 L645.6,334.9 L647.5,337.2 L649.4,339.6 L651.3,341.9 L653.1,344.2 L655.0,346.5
		L656.9,348.9 L658.8,351.2 L660.7,353.5 L662.6,355.9 L664.5,358.3 L666.4,360.6 L668.2,363.0 L670.1,365.5
		L672.0,367.9 L673.9,370.4 L675.8,372.8 L677.7,375.3 L679.6,377.9 L681.5,380.4 L683.3,383.0 L685.2,385.5
		L687.1,388.1 L689.0,390.8 L690.9,393.4 L692.8,396.0 L694.7,398.7 L696.6,401.3 L698.4,404.0 L700.3,406.7
		L702.2,409.3 L704.1,411.9 L706.0,414.6 L707.9,417.2 L709.8,419.8 L711.7,422.3 L713.5,424.8 L715.4,427.3
		L717.3,429.7 L719.2,432.1 L721.1,434.4 L723.0,436.7 L724.9,438.9 L726.7,441.0 L728.6,443.1 L730.5,445.2
		L732.4,447.2 L734.3,449.1 L736.2,451.1 L738.1,453.0 L740.0,454.9 L741.8,456.8 L743.7,458.7 L745.6,460.6
		L747.5,462.5 L749.4,464.5 L751.3,466.5 L753.2,468.5 L755.1,470.6 L756.9,472.7 L758.8,474.8 L760.7,477.0
		L762.6,479.3 L764.5,481.6 L766.4,483.9 L768.3,486.2 L770.2,488.6 L772.0,490.9 L773.9,493.2 L775.8,495.6
		L777.7,497.9 L779.6,500.2 L781.5,502.5 L783.4,504.7 L785.3,506.9 L787.1,509.0 L789.0,511.1 L790.9,513.1
		L792.8,515.1 L794.7,517.0 L796.6,518.9 L798.5,520.7 L800.3,522.4 L802.2,524.1 L804.1,525.8 L806.0,527.5
		L807.9,529.0 L809.8,530.6 L811.7,532.1 L813.6,533.6 L815.4,535.1 L817.3,536.5 L819.2,537.9 L821.1,539.3
		L823.0,540.7 L824.9,542.0 L826.8,543.4 L828.7,544.7 L830.5,546.0 L832.4,547.2 L834.3,548.5 L836.2,549.7
		L838.1,550.9 L840.0,552.1 L841.9,553.3 L843.8,554.5 L845.6,555.6 L847.5,556.8 L849.4,557.9 L851.3,559.1
		L853.2,560.2 L855.1,561.3 L857.0,562.4 L858.9,563.5 L860.7,564.7 L862.6,565.8 L864.5,566.9 L866.4,568.1
		L868.3,569.2 L870.2,570.3 L872.1,571.5 L873.9,572.7 L875.8,573.8 L877.7,575.0 L879.6,576.2 L881.5,577.4
		L883.4,578.5 L885.3,579.7 L887.2,580.9 L889.0,582.1 L890.9,583.3 L892.8,584.4 L894.7,585.6 L896.6,586.8
		L898.5,588.0 L900.4,589.1 L902.3,590.3 L904.1,591.4 L906.0,592.5 L907.9,593.7 L909.8,594.8 L911.7,595.9
		L913.6,597.0 L915.5,598.1 L917.4,599.2 L919.2,600.2 L921.1,601.3 L923.0,602.4 L924.9,603.4 L926.8,604.4
		L928.7,605.4 L930.6,606.4 L932.5,607.3 L934.3,608.3 L936.2,609.2 L938.1,610.1 L940.0,610.9 L941.9,611.7
		L943.8,612.5 L945.7,613.3 L947.5,614.1 L949.4,614.8 L951.3,615.5 L953.2,616.2 L955.1,616.8 L957.0,617.5
		L958.9,618.1 L960.8,618.7 L962.6,619.3 L964.5,619.9 L966.4,620.5 L968.3,621.1 L970.2,621.7 L972.1,622.3
		L974.0,622.9 L975.9,623.5 L977.7,624.1 L979.6,624.7 L981.5,625.3 L983.4,625.9 L985.3,626.5 L987.2,627.1
		L989.1,627.7 L991.0,628.2 L992.8,628.8 L994.7,629.4 L996.6,630.0 L998.5,630.5 L1000.4,631.0 L1002.3,631.6
		L1004.2,632.1 L1006.1,632.6 L1007.9,633.1 L1009.8,633.5 L1011.7,634.0 L1013.6,634.4  '/></g>
	</g>
	<g id="gnuplot_plot_2" ><title>Confidence interval</title>
<g fill="none" color="white" stroke="rgb( 31, 120, 180)" stroke-width="1.00" stroke-linecap="butt" stroke-linejoin="miter">
</g>
<g fill="none" color="black" stroke="currentColor" stroke-width="1.00" stroke-linecap="butt" stroke-linejoin="miter">
	<g transform="translate(1089.0,85.0)" stroke="none" fill="black" font-family="Helvetica" font-size="12.00"  text-anchor="start">
		<text><tspan font-family="Helvetica" >Confidence interval</tspan></text>
	</g>
</g>
<g fill="none" color="black" stroke="currentColor" stroke-width="1.00" stroke-linecap="butt" stroke-linejoin="miter">
	<g stroke='none' shape-rendering='crispEdges'>
		<polygon fill = 'rgb( 31, 120, 180)' fill-opacity = '0.250000' points = '1038.5,85.6 1080.7,85.6 1080.7,76.6 1038.5,76.6 '/>
		<polygon fill = 'rgb( 31, 120, 180)' fill-opacity = '0.250000' points = '158.7,517.9 160.6,514.6 162.5,511.3 164.4,508.0 166.3,504.8 168.1,501.5 170.0,498.3 171.9,495.1 173.8,491.9 175.7,488.7 177.6,485.5 179.5,482.3 181.4,479.1 183.2,476.0 185.1,472.8 187.0,469.6
188.9,466.4 190.8,463.1 192.7,459.9 194.6,456.6 196.5,453.2 198.3,449.9 200.2,446.4 202.1,443.0 204.0,439.4 205.9,435.9 207.8,432.2 209.7,428.5 211.6,424.7 213.4,420.9 215.3,417.0 217.2,413.1
219.1,409.1 221.0,405.0 222.9,400.9 224.8,396.8 226.6,392.6 228.5,388.4 230.4,384.1 232.3,379.9 234.2,375.6 236.1,371.3 238.0,367.0 239.9,362.7 241.7,358.4 243.6,354.2 245.5,350.0 247.4,345.8
249.3,341.7 251.2,337.7 253.1,333.7 255.0,329.7 256.8,325.9 258.7,322.1 260.6,318.4 262.5,314.8 264.4,311.2 266.3,307.7 268.2,304.3 270.1,301.0 271.9,297.7 273.8,294.5 275.7,291.4 277.6,288.3
279.5,285.2 281.4,282.2 283.3,279.2 285.2,276.2 287.0,273.3 288.9,270.3 290.8,267.3 292.7,264.4 294.6,261.4 296.5,258.4 298.4,255.4 300.2,252.4 302.1,249.4 304.0,246.4 305.9,243.4 307.8,240.4
309.7,237.4 311.6,234.4 313.5,231.5 315.3,228.6 317.2,225.7 319.1,222.9 321.0,220.2 322.9,217.5 324.8,214.9 326.7,212.3 328.6,209.9 330.4,207.5 332.3,205.1 334.2,202.9 336.1,200.7 338.0,198.5
339.9,196.5 341.8,194.4 343.7,192.4 345.5,190.4 347.4,188.5 349.3,186.5 351.2,184.5 353.1,182.6 355.0,180.6 356.9,178.6 358.8,176.6 360.6,174.6 362.5,172.6 364.4,170.5 366.3,168.5 368.2,166.4
370.1,164.3 372.0,162.3 373.8,160.2 375.7,158.2 377.6,156.2 379.5,154.2 381.4,152.3 383.3,150.4 385.2,148.6 387.1,146.9 388.9,145.3 390.8,143.8 392.7,142.4 394.6,141.1 396.5,139.9 398.4,138.8
400.3,137.8 402.2,137.0 404.0,136.2 405.9,135.6 407.8,135.1 409.7,134.7 411.6,134.4 413.5,134.2 415.4,134.1 417.3,134.1 419.1,134.2 421.0,134.3 422.9,134.5 424.8,134.8 426.7,135.2 428.6,135.5
430.5,136.0 432.4,136.4 434.2,136.9 436.1,137.4 438.0,138.0 439.9,138.5 441.8,139.1 443.7,139.6 445.6,140.2 447.4,140.7 449.3,141.3 451.2,141.8 453.1,142.4 455.0,142.9 456.9,143.5 458.8,144.0
460.7,144.6 462.5,145.2 464.4,145.7 466.3,146.4 468.2,147.0 470.1,147.7 472.0,148.4 473.9,149.2 475.8,150.0 477.6,150.8 479.5,151.7 481.4,152.7 483.3,153.7 485.2,154.8 487.1,156.0 489.0,157.2
490.9,158.4 492.7,159.8 494.6,161.1 496.5,162.6 498.4,164.1 500.3,165.6 502.2,167.2 504.1,168.9 506.0,170.5 507.8,172.3 509.7,174.0 511.6,175.8 513.5,177.7 515.4,179.5 517.3,181.4 519.2,183.2
521.0,185.1 522.9,187.0 524.8,188.9 526.7,190.8 528.6,192.7 530.5,194.5 532.4,196.4 534.3,198.2 536.1,200.1 538.0,201.9 539.9,203.7 541.8,205.5 543.7,207.3 545.6,209.1 547.5,210.9 549.4,212.7
551.2,214.5 553.1,216.4 555.0,218.2 556.9,220.1 558.8,222.0 560.7,224.0 562.6,225.9 564.5,228.0 566.3,230.0 568.2,232.1 570.1,234.3 572.0,236.5 573.9,238.7 575.8,241.0 577.7,243.4 579.5,245.7
581.4,248.1 583.3,250.6 585.2,253.1 587.1,255.6 589.0,258.1 590.9,260.6 592.8,263.2 594.6,265.8 596.5,268.4 598.4,271.0 600.3,273.6 602.2,276.3 604.1,278.9 606.0,281.6 607.9,284.2 609.7,286.8
611.6,289.5 613.5,292.1 615.4,294.8 617.3,297.4 619.2,300.0 621.1,302.6 623.0,305.2 624.8,307.8 626.7,310.4 628.6,312.9 630.5,315.5 632.4,318.0 634.3,320.4 636.2,322.9 638.1,325.3 639.9,327.8
641.8,330.2 643.7,332.5 645.6,334.9 647.5,337.2 649.4,339.6 651.3,341.9 653.1,344.2 655.0,346.5 656.9,348.9 658.8,351.2 660.7,353.5 662.6,355.9 664.5,358.3 666.4,360.6 668.2,363.0 670.1,365.5
672.0,367.9 673.9,370.4 675.8,372.8 677.7,375.3 679.6,377.9 681.5,380.4 683.3,383.0 685.2,385.5 687.1,388.1 689.0,390.8 690.9,393.4 692.8,396.0 694.7,398.7 696.6,401.3 698.4,404.0 700.3,406.7
702.2,409.3 704.1,411.9 706.0,414.6 707.9,417.2 709.8,419.8 711.7,422.3 713.5,424.8 715.4,427.3 717.3,429.7 719.2,432.1 721.1,434.4 723.0,436.7 724.9,438.9 726.7,441.0 728.6,443.1 730.5,445.2
732.4,447.2 734.3,449.1 736.2,451.1 738.1,453.0 740.0,454.9 741.8,456.8 743.7,458.7 745.6,460.6 747.5,462.5 749.4,464.5 751.3,466.5 753.2,468.5 755.1,470.6 756.9,472.7 758.8,474.8 760.7,477.0
762.6,479.3 764.5,481.6 766.4,483.9 768.3,486.2 770.2,488.6 772.0,490.9 773.9,493.2 775.8,495.6 777.7,497.9 779.6,500.2 781.5,502.5 783.4,504.7 785.3,506.9 787.1,509.0 789.0,511.1 790.9,513.1
792.8,515.1 794.7,517.0 796.6,518.9 798.5,520.7 800.3,522.4 802.2,524.1 804.1,525.8 806.0,527.5 807.9,529.0 809.8,530.6 811.7,532.1 813.6,533.6 815.4,535.1 817.3,536.5 819.2,537.9 821.1,539.3
823.0,540.7 824.9,542.0 826.8,543.4 828.7,544.7 830.5,546.0 832.4,547.2 834.3,548.5 836.2,549.7 838.1,550.9 840.0,552.1 841.9,553.3 843.8,554.5 845.6,555.6 847.5,556.8 849.4,557.9 851.3,559.1
853.2,560.2 855.1,561.3 857.0,562.4 858.9,563.5 860.7,564.7 862.6,565.8 864.5,566.9 866.4,568.1 868.3,569.2 870.2,570.3 872.1,571.5 873.9,572.7 875.8,573.8 877.7,575.0 879.6,576.2 881.5,577.4
883.4,578.5 885.3,579.7 887.2,580.9 889.0,582.1 890.9,583.3 892.8,584.4 894.7,585.6 896.6,586.8 898.5,588.0 900.4,589.1 902.3,590.3 904.1,591.4 906.0,592.5 907.9,593.7 909.8,594.8 911.7,595.9
913.6,597.0 915.5,598.1 917.4,599.2 919.2,600.2 921.1,601.3 923.0,602.4 924.9,603.4 924.9,662.4 923.0,662.4 921.1,662.4 919.2,662.4 917.4,662.4 915.5,662.4 913.6,662.4 911.7,662.4 909.8,662.4
907.9,662.4 906.0,662.4 904.1,662.4 902.3,662.4 900.4,662.4 898.5,662.4 896.6,662.4 894.7,662.4 892.8,662.4 890.9,662.4 889.0,662.4 887.2,662.4 885.3,662.4 883.4,662.4 881.5,662.4 879.6,662.4
877.7,662.4 875.8,662.4 873.9,662.4 872.1,662.4 870.2,662.4 868.3,662.4 866.4,662.4 864.5,662.4 862.6,662.4 860.7,662.4 858.9,662.4 857.0,662.4 855.1,662.4 853.2,662.4 851.3,662.4 849.4,662.4
847.5,662.4 845.6,662.4 843.8,662.4 841.9,662.4 840.0,662.4 838.1,662.4 836.2,662.4 834.3,662.4 832.4,662.4 830.5,662.4 828.7,662.4 826.8,662.4 824.9,662.4 823.0,662.4 821.1,662.4 819.2,662.4
817.3,662.4 815.4,662.4 813.6,662.4 811.7,662.4 809.8,662.4 807.9,662.4 806.0,662.4 804.1,662.4 802.2,662.4 800.3,662.4 798.5,662.4 796.6,662.4 794.7,662.4 792.8,662.4 790.9,662.4 789.0,662.4
787.1,662.4 785.3,662.4 783.4,662.4 781.5,662.4 779.6,662.4 777.7,662.4 775.8,662.4 773.9,662.4 772.0,662.4 770.2,662.4 768.3,662.4 766.4,662.4 764.5,662.4 762.6,662.4 760.7,662.4 758.8,662.4
756.9,662.4 755.1,662.4 753.2,662.4 751.3,662.4 749.4,662.4 747.5,662.4 745.6,662.4 743.7,662.4 741.8,662.4 740.0,662.4 738.1,662.4 736.2,662.4 734.3,662.4 732.4,662.4 730.5,662.4 728.6,662.4
726.7,662.4 724.9,662.4 723.0,662.4 721.1,662.4 719.2,662.4 717.3,662.4 715.4,662.4 713.5,662.4 711.7,662.4 709.8,662.4 707.9,662.4 706.0,662.4 704.1,662.4 702.2,662.4 700.3,662.4 698.4,662.4
696.6,662.4 694.7,662.4 692.8,662.4 690.9,662.4 689.0,662.4 687.1,662.4 685.2,662.4 683.3,662.4 681.5,662.4 679.6,662.4 677.7,662.4 675.8,662.4 673.9,662.4 672.0,662.4 670.1,662.4 668.2,662.4
666.4,662.4 664.5,662.4 662.6,662.4 660.7,662.4 658.8,662.4 656.9,662.4 655.0,662.4 653.1,662.4 651.3,662.4 649.4,662.4 647.5,662.4 645.6,662.4 643.7,662.4 641.8,662.4 639.9,662.4 638.1,662.4
636.2,662.4 634.3,662.4 632.4,662.4 630.5,662.4 628.6,662.4 626.7,662.4 624.8,662.4 623.0,662.4 621.1,662.4 619.2,662.4 617.3,662.4 615.4,662.4 613.5,662.4 611.6,662.4 609.7,662.4 607.9,662.4
606.0,662.4 604.1,662.4 602.2,662.4 600.3,662.4 598.4,662.4 596.5,662.4 594.6,662.4 592.8,662.4 590.9,662.4 589.0,662.4 587.1,662.4 585.2,662.4 583.3,662.4 581.4,662.4 579.5,662.4 577.7,662.4
575.8,662.4 573.9,662.4 572.0,662.4 570.1,662.4 568.2,662.4 566.3,662.4 564.5,662.4 562.6,662.4 560.7,662.4 558.8,662.4 556.9,662.4 555.0,662.4 553.1,662.4 551.2,662.4 549.4,662.4 547.5,662.4
545.6,662.4 543.7,662.4 541.8,662.4 539.9,662.4 538.0,662.4 536.1,662.4 534.3,662.4 532.4,662.4 530.5,662.4 528.6,662.4 526.7,662.4 524.8,662.4 522.9,662.4 521.0,662.4 519.2,662.4 517.3,662.4
515.4,662.4 513.5,662.4 511.6,662.4 509.7,662.4 507.8,662.4 506.0,662.4 504.1,662.4 502.2,662.4 500.3,662.4 498.4,662.4 496.5,662.4 494.6,662.4 492.7,662.4 490.9,662.4 489.0,662.4 487.1,662.4
485.2,662.4 483.3,662.4 481.4,662.4 479.5,662.4 477.6,662.4 475.8,662.4 473.9,662.4 472.0,662.4 470.1,662.4 468.2,662.4 466.3,662.4 464.4,662.4 462.5,662.4 460.7,662.4 458.8,662.4 456.9,662.4
455.0,662.4 453.1,662.4 451.2,662.4 449.3,662.4 447.4,662.4 445.6,662.4 443.7,662.4 441.8,662.4 439.9,662.4 438.0,662.4 436.1,662.4 434.2,662.4 432.4,662.4 430.5,662.4 428.6,662.4 426.7,662.4
424.8,662.4 422.9,662.4 421.0,662.4 419.1,662.4 417.3,662.4 415.4,662.4 413.5,662.4 411.6,662.4 409.7,662.4 407.8,662.4 405.9,662.4 404.0,662.4 402.2,662.4 400.3,662.4 398.4,662.4 396.5,662.4
394.6,662.4 392.7,662.4 390.8,662.4 388.9,662.4 387.1,662.4 385.2,662.4 383.3,662.4 381.4,662.4 379.5,662.4 377.6,662.4 375.7,662.4 373.8,662.4 372.0,662.4 370.1,662.4 368.2,662.4 366.3,662.4
364.4,662.4 362.5,662.4 360.6,662.4 358.8,662.4 356.9,662.4 355.0,662.4 353.1,662.4 351.2,662.4 349.3,662.4 347.4,662.4 345.5,662.4 343.7,662.4 341.8,662.4 339.9,662.4 338.0,662.4 336.1,662.4
334.2,662.4 332.3,662.4 330.4,662.4 328.6,662.4 326.7,662.4 324.8,662.4 322.9,662.4 321.0,662.4 319.1,662.4 317.2,662.4 315.3,662.4 313.5,662.4 311.6,662.4 309.7,662.4 307.8,662.4 305.9,662.4
304.0,662.4 302.1,662.4 300.2,662.4 298.4,662.4 296.5,662.4 294.6,662.4 292.7,662.4 290.8,662.4 288.9,662.4 287.0,662.4 285.2,662.4 283.3,662.4 281.4,662.4 279.5,662.4 277.6,662.4 275.7,662.4
273.8,662.4 271.9,662.4 270.1,662.4 268.2,662.4 266.3,662.4 264.4,662.4 262.5,662.4 260.6,662.4 258.7,662.4 256.8,662.4 255.0,662.4 253.1,662.4 251.2,662.4 249.3,662.4 247.4,662.4 245.5,662.4
243.6,662.4 241.7,662.4 239.9,662.4 238.0,662.4 236.1,662.4 234.2,662.4 232.3,662.4 230.4,662.4 228.5,662.4 226.6,662.4 224.8,662.4 222.9,662.4 221.0,662.4 219.1,662.4 217.2,662.4 215.3,662.4
213.4,662.4 211.6,662.4 209.7,662.4 207.8,662.4 205.9,662.4 204.0,662.4 202.1,662.4 200.2,662.4 198.3,662.4 196.5,662.4 194.6,662.4 192.7,662.4 190.8,662.4 188.9,662.4 187.0,662.4 185.1,662.4
183.2,662.4 181.4,662.4 179.5,662.4 177.6,662.4 175.7,662.4 173.8,662.4 171.9,662.4 170.0,662.4 168.1,662.4 166.3,662.4 164.4,662.4 162.5,662.4 160.6,662.4 158.7,662.4 '/>
	</g>
</g>
	</g>
	<g id="gnuplot_plot_3" ><title>Point estimate</title>
<g fill="none" color="white" stroke="rgb( 31, 120, 180)" stroke-width="2.00" stroke-linecap="butt" stroke-linejoin="miter">
</g>
<g fill="none" color="black" stroke="currentColor" stroke-width="2.00" stroke-linecap="butt" stroke-linejoin="miter">
	<g transform="translate(1089.0,103.0)" stroke="none" fill="black" font-family="Helvetica" font-size="12.00"  text-anchor="start">
		<text><tspan font-family="Helvetica" >Point estimate</tspan></text>
	</g>
</g>
<g fill="none" color="black" stroke="currentColor" stroke-width="2.00" stroke-linecap="butt" stroke-linejoin="miter">
	<path stroke='rgb( 31, 120, 180)'  d='M1038.5,99.1 L1080.7,99.1 M488.7,662.4 L488.7,157.0  '/></g>
	</g>
<g fill="none" color="black" stroke="currentColor" stroke-width="2.00" stroke-linecap="butt" stroke-linejoin="miter">
</g>
<g fill="none" color="black" stroke="black" stroke-width="1.00" stroke-linecap="butt" stroke-linejoin="miter">
</g>
<g fill="none" color="black" stroke="currentColor" stroke-width="1.00" stroke-linecap="butt" stroke-linejoin="miter">
	<path stroke='black'  d='M71.9,54.1 L71.9,662.4 L1013.6,662.4 L1013.6,54.1 L71.9,54.1 Z  '/></g>
<g fill="none" color="black" stroke="currentColor" stroke-width="1.00" stroke-linecap="butt" stroke-linejoin="miter">
</g>
</g>
</svg>

