group,function,value,throughput_num,throughput_type,sample_measured_value,unit,iteration_count
snapshot_restore_with_dense,Dense: Dirty pages + /proc/pid/mem,1000,,,2014512.0,ns,1
snapshot_restore_with_dense,Dense: Dirty pages + /proc/pid/mem,1000,,,3937793.0,ns,2
snapshot_restore_with_dense,Dense: Dirty pages + /proc/pid/mem,1000,,,6590685.0,ns,3
snapshot_restore_with_dense,Dense: Dirty pages + /proc/pid/mem,1000,,,7892185.0,ns,4
snapshot_restore_with_dense,Dense: Dirty pages + /proc/pid/mem,1000,,,10656579.0,ns,5
snapshot_restore_with_dense,Dense: Dirty pages + /proc/pid/mem,1000,,,12529233.0,ns,6
snapshot_restore_with_dense,Dense: Dirty pages + /proc/pid/mem,1000,,,13844512.0,ns,7
snapshot_restore_with_dense,Dense: Dirty pages + /proc/pid/mem,1000,,,15740594.0,ns,8
snapshot_restore_with_dense,Dense: Dirty pages + /proc/pid/mem,1000,,,17753822.0,ns,9
snapshot_restore_with_dense,Dense: Dirty pages + /proc/pid/mem,1000,,,19696496.0,ns,10
snapshot_restore_with_dense,Dense: Dirty pages + /proc/pid/mem,1000,,,21705368.0,ns,11
snapshot_restore_with_dense,Dense: Dirty pages + /proc/pid/mem,1000,,,23584635.0,ns,12
snapshot_restore_with_dense,Dense: Dirty pages + /proc/pid/mem,1000,,,25551614.0,ns,13
snapshot_restore_with_dense,Dense: Dirty pages + /proc/pid/mem,1000,,,27545967.0,ns,14
snapshot_restore_with_dense,Dense: Dirty pages + /proc/pid/mem,1000,,,29491941.0,ns,15
snapshot_restore_with_dense,Dense: Dirty pages + /proc/pid/mem,1000,,,31456123.0,ns,16
snapshot_restore_with_dense,Dense: Dirty pages + /proc/pid/mem,1000,,,33486731.0,ns,17
snapshot_restore_with_dense,Dense: Dirty pages + /proc/pid/mem,1000,,,35401051.0,ns,18
snapshot_restore_with_dense,Dense: Dirty pages + /proc/pid/mem,1000,,,37398144.0,ns,19
snapshot_restore_with_dense,Dense: Dirty pages + /proc/pid/mem,1000,,,39480872.0,ns,20
snapshot_restore_with_dense,Dense: Dirty pages + /proc/pid/mem,1000,,,41330094.0,ns,21
snapshot_restore_with_dense,Dense: Dirty pages + /proc/pid/mem,1000,,,43383062.0,ns,22
snapshot_restore_with_dense,Dense: Dirty pages + /proc/pid/mem,1000,,,45170348.0,ns,23
snapshot_restore_with_dense,Dense: Dirty pages + /proc/pid/mem,1000,,,47207441.0,ns,24
snapshot_restore_with_dense,Dense: Dirty pages + /proc/pid/mem,1000,,,49210024.0,ns,25
snapshot_restore_with_dense,Dense: Dirty pages + /proc/pid/mem,1000,,,51317907.0,ns,26
snapshot_restore_with_dense,Dense: Dirty pages + /proc/pid/mem,1000,,,53072787.0,ns,27
snapshot_restore_with_dense,Dense: Dirty pages + /proc/pid/mem,1000,,,55082847.0,ns,28
snapshot_restore_with_dense,Dense: Dirty pages + /proc/pid/mem,1000,,,57010796.0,ns,29
snapshot_restore_with_dense,Dense: Dirty pages + /proc/pid/mem,1000,,,59154716.0,ns,30
snapshot_restore_with_dense,Dense: Dirty pages + /proc/pid/mem,1000,,,60863046.0,ns,31
snapshot_restore_with_dense,Dense: Dirty pages + /proc/pid/mem,1000,,,62899600.0,ns,32
snapshot_restore_with_dense,Dense: Dirty pages + /proc/pid/mem,1000,,,64957179.0,ns,33
snapshot_restore_with_dense,Dense: Dirty pages + /proc/pid/mem,1000,,,66965808.0,ns,34
snapshot_restore_with_dense,Dense: Dirty pages + /proc/pid/mem,1000,,,68914827.0,ns,35
snapshot_restore_with_dense,Dense: Dirty pages + /proc/pid/mem,1000,,,70822752.0,ns,36
snapshot_restore_with_dense,Dense: Dirty pages + /proc/pid/mem,1000,,,72900142.0,ns,37
snapshot_restore_with_dense,Dense: Dirty pages + /proc/pid/mem,1000,,,74776616.0,ns,38
snapshot_restore_with_dense,Dense: Dirty pages + /proc/pid/mem,1000,,,76833477.0,ns,39
snapshot_restore_with_dense,Dense: Dirty pages + /proc/pid/mem,1000,,,78826528.0,ns,40
snapshot_restore_with_dense,Dense: Dirty pages + /proc/pid/mem,1000,,,80652208.0,ns,41
snapshot_restore_with_dense,Dense: Dirty pages + /proc/pid/mem,1000,,,82703564.0,ns,42
snapshot_restore_with_dense,Dense: Dirty pages + /proc/pid/mem,1000,,,84557420.0,ns,43
snapshot_restore_with_dense,Dense: Dirty pages + /proc/pid/mem,1000,,,86509917.0,ns,44
snapshot_restore_with_dense,Dense: Dirty pages + /proc/pid/mem,1000,,,88666520.0,ns,45
snapshot_restore_with_dense,Dense: Dirty pages + /proc/pid/mem,1000,,,90569870.0,ns,46
snapshot_restore_with_dense,Dense: Dirty pages + /proc/pid/mem,1000,,,92427694.0,ns,47
snapshot_restore_with_dense,Dense: Dirty pages + /proc/pid/mem,1000,,,94357074.0,ns,48
snapshot_restore_with_dense,Dense: Dirty pages + /proc/pid/mem,1000,,,96319126.0,ns,49
snapshot_restore_with_dense,Dense: Dirty pages + /proc/pid/mem,1000,,,100712496.0,ns,50
snapshot_restore_with_dense,Dense: Dirty pages + /proc/pid/mem,1000,,,100354109.0,ns,51
snapshot_restore_with_dense,Dense: Dirty pages + /proc/pid/mem,1000,,,110014113.0,ns,52
snapshot_restore_with_dense,Dense: Dirty pages + /proc/pid/mem,1000,,,106969658.0,ns,53
snapshot_restore_with_dense,Dense: Dirty pages + /proc/pid/mem,1000,,,109468636.0,ns,54
snapshot_restore_with_dense,Dense: Dirty pages + /proc/pid/mem,1000,,,108281017.0,ns,55
snapshot_restore_with_dense,Dense: Dirty pages + /proc/pid/mem,1000,,,110556527.0,ns,56
snapshot_restore_with_dense,Dense: Dirty pages + /proc/pid/mem,1000,,,116317029.0,ns,57
snapshot_restore_with_dense,Dense: Dirty pages + /proc/pid/mem,1000,,,115001791.0,ns,58
snapshot_restore_with_dense,Dense: Dirty pages + /proc/pid/mem,1000,,,115931181.0,ns,59
snapshot_restore_with_dense,Dense: Dirty pages + /proc/pid/mem,1000,,,127290222.0,ns,60
snapshot_restore_with_dense,Dense: Dirty pages + /proc/pid/mem,1000,,,121378022.0,ns,61
snapshot_restore_with_dense,Dense: Dirty pages + /proc/pid/mem,1000,,,121904123.0,ns,62
snapshot_restore_with_dense,Dense: Dirty pages + /proc/pid/mem,1000,,,123739712.0,ns,63
snapshot_restore_with_dense,Dense: Dirty pages + /proc/pid/mem,1000,,,125649216.0,ns,64
snapshot_restore_with_dense,Dense: Dirty pages + /proc/pid/mem,1000,,,127663800.0,ns,65
snapshot_restore_with_dense,Dense: Dirty pages + /proc/pid/mem,1000,,,129786575.0,ns,66
snapshot_restore_with_dense,Dense: Dirty pages + /proc/pid/mem,1000,,,131532742.0,ns,67
snapshot_restore_with_dense,Dense: Dirty pages + /proc/pid/mem,1000,,,134591995.0,ns,68
snapshot_restore_with_dense,Dense: Dirty pages + /proc/pid/mem,1000,,,135683879.0,ns,69
snapshot_restore_with_dense,Dense: Dirty pages + /proc/pid/mem,1000,,,137831075.0,ns,70
snapshot_restore_with_dense,Dense: Dirty pages + /proc/pid/mem,1000,,,146961719.0,ns,71
snapshot_restore_with_dense,Dense: Dirty pages + /proc/pid/mem,1000,,,142217515.0,ns,72
snapshot_restore_with_dense,Dense: Dirty pages + /proc/pid/mem,1000,,,143355792.0,ns,73
snapshot_restore_with_dense,Dense: Dirty pages + /proc/pid/mem,1000,,,145182561.0,ns,74
snapshot_restore_with_dense,Dense: Dirty pages + /proc/pid/mem,1000,,,147677863.0,ns,75
snapshot_restore_with_dense,Dense: Dirty pages + /proc/pid/mem,1000,,,149225366.0,ns,76
snapshot_restore_with_dense,Dense: Dirty pages + /proc/pid/mem,1000,,,151237826.0,ns,77
snapshot_restore_with_dense,Dense: Dirty pages + /proc/pid/mem,1000,,,153261052.0,ns,78
snapshot_restore_with_dense,Dense: Dirty pages + /proc/pid/mem,1000,,,155122776.0,ns,79
snapshot_restore_with_dense,Dense: Dirty pages + /proc/pid/mem,1000,,,157035078.0,ns,80
snapshot_restore_with_dense,Dense: Dirty pages + /proc/pid/mem,1000,,,160312054.0,ns,81
snapshot_restore_with_dense,Dense: Dirty pages + /proc/pid/mem,1000,,,161201581.0,ns,82
snapshot_restore_with_dense,Dense: Dirty pages + /proc/pid/mem,1000,,,163062837.0,ns,83
snapshot_restore_with_dense,Dense: Dirty pages + /proc/pid/mem,1000,,,165000305.0,ns,84
snapshot_restore_with_dense,Dense: Dirty pages + /proc/pid/mem,1000,,,167074906.0,ns,85
snapshot_restore_with_dense,Dense: Dirty pages + /proc/pid/mem,1000,,,168965363.0,ns,86
snapshot_restore_with_dense,Dense: Dirty pages + /proc/pid/mem,1000,,,170857885.0,ns,87
snapshot_restore_with_dense,Dense: Dirty pages + /proc/pid/mem,1000,,,172880917.0,ns,88
snapshot_restore_with_dense,Dense: Dirty pages + /proc/pid/mem,1000,,,175013880.0,ns,89
snapshot_restore_with_dense,Dense: Dirty pages + /proc/pid/mem,1000,,,176776362.0,ns,90
snapshot_restore_with_dense,Dense: Dirty pages + /proc/pid/mem,1000,,,178731994.0,ns,91
snapshot_restore_with_dense,Dense: Dirty pages + /proc/pid/mem,1000,,,180617110.0,ns,92
snapshot_restore_with_dense,Dense: Dirty pages + /proc/pid/mem,1000,,,182810738.0,ns,93
snapshot_restore_with_dense,Dense: Dirty pages + /proc/pid/mem,1000,,,184798411.0,ns,94
snapshot_restore_with_dense,Dense: Dirty pages + /proc/pid/mem,1000,,,186513299.0,ns,95
snapshot_restore_with_dense,Dense: Dirty pages + /proc/pid/mem,1000,,,188395967.0,ns,96
snapshot_restore_with_dense,Dense: Dirty pages + /proc/pid/mem,1000,,,190502484.0,ns,97
snapshot_restore_with_dense,Dense: Dirty pages + /proc/pid/mem,1000,,,192403326.0,ns,98
snapshot_restore_with_dense,Dense: Dirty pages + /proc/pid/mem,1000,,,194829404.0,ns,99
snapshot_restore_with_dense,Dense: Dirty pages + /proc/pid/mem,1000,,,196549919.0,ns,100
