<?xml version="1.0" encoding="utf-8"  standalone="no"?>
<svg 
 viewBox="0 0 1280 720"
 xmlns="http://www.w3.org/2000/svg"
 xmlns:xlink="http://www.w3.org/1999/xlink"
>

<title>Gnuplot</title>
<desc>Produced by GNUPLOT 5.2 patchlevel 6 </desc>

<g id="gnuplot_canvas">

<rect x="0" y="0" width="1280" height="720" fill="none"/>
<defs>

	<circle id='gpDot' r='0.5' stroke-width='0.5' stroke='currentColor'/>
	<path id='gpPt0' stroke-width='0.222' stroke='currentColor' d='M-1,0 h2 M0,-1 v2'/>
	<path id='gpPt1' stroke-width='0.222' stroke='currentColor' d='M-1,-1 L1,1 M1,-1 L-1,1'/>
	<path id='gpPt2' stroke-width='0.222' stroke='currentColor' d='M-1,0 L1,0 M0,-1 L0,1 M-1,-1 L1,1 M-1,1 L1,-1'/>
	<rect id='gpPt3' stroke-width='0.222' stroke='currentColor' x='-1' y='-1' width='2' height='2'/>
	<rect id='gpPt4' stroke-width='0.222' stroke='currentColor' fill='currentColor' x='-1' y='-1' width='2' height='2'/>
	<circle id='gpPt5' stroke-width='0.222' stroke='currentColor' cx='0' cy='0' r='1'/>
	<use xlink:href='#gpPt5' id='gpPt6' fill='currentColor' stroke='none'/>
	<path id='gpPt7' stroke-width='0.222' stroke='currentColor' d='M0,-1.33 L-1.33,0.67 L1.33,0.67 z'/>
	<use xlink:href='#gpPt7' id='gpPt8' fill='currentColor' stroke='none'/>
	<use xlink:href='#gpPt7' id='gpPt9' stroke='currentColor' transform='rotate(180)'/>
	<use xlink:href='#gpPt9' id='gpPt10' fill='currentColor' stroke='none'/>
	<use xlink:href='#gpPt3' id='gpPt11' stroke='currentColor' transform='rotate(45)'/>
	<use xlink:href='#gpPt11' id='gpPt12' fill='currentColor' stroke='none'/>
	<path id='gpPt13' stroke-width='0.222' stroke='currentColor' d='M0,1.330 L1.265,0.411 L0.782,-1.067 L-0.782,-1.076 L-1.265,0.411 z'/>
	<use xlink:href='#gpPt13' id='gpPt14' fill='currentColor' stroke='none'/>
	<filter id='textbox' filterUnits='objectBoundingBox' x='0' y='0' height='1' width='1'>
	  <feFlood flood-color='white' flood-opacity='1' result='bgnd'/>
	  <feComposite in='SourceGraphic' in2='bgnd' operator='atop'/>
	</filter>
	<filter id='greybox' filterUnits='objectBoundingBox' x='0' y='0' height='1' width='1'>
	  <feFlood flood-color='lightgrey' flood-opacity='1' result='grey'/>
	  <feComposite in='SourceGraphic' in2='grey' operator='atop'/>
	</filter>
</defs>
<g fill="none" color="white" stroke="currentColor" stroke-width="1.00" stroke-linecap="butt" stroke-linejoin="miter">
</g>
<g fill="none" color="black" stroke="currentColor" stroke-width="1.00" stroke-linecap="butt" stroke-linejoin="miter">
	<path stroke='black'  d='M71.9,662.4 L80.9,662.4  '/>	<g transform="translate(63.6,666.3)" stroke="none" fill="black" font-family="Helvetica" font-size="12.00"  text-anchor="end">
		<text><tspan font-family="Helvetica" > 0</tspan></text>
	</g>
</g>
<g fill="none" color="black" stroke="currentColor" stroke-width="1.00" stroke-linecap="butt" stroke-linejoin="miter">
	<path stroke='black'  d='M71.9,586.4 L80.9,586.4  '/>	<g transform="translate(63.6,590.3)" stroke="none" fill="black" font-family="Helvetica" font-size="12.00"  text-anchor="end">
		<text><tspan font-family="Helvetica" > 50</tspan></text>
	</g>
</g>
<g fill="none" color="black" stroke="currentColor" stroke-width="1.00" stroke-linecap="butt" stroke-linejoin="miter">
	<path stroke='black'  d='M71.9,510.3 L80.9,510.3  '/>	<g transform="translate(63.6,514.2)" stroke="none" fill="black" font-family="Helvetica" font-size="12.00"  text-anchor="end">
		<text><tspan font-family="Helvetica" > 100</tspan></text>
	</g>
</g>
<g fill="none" color="black" stroke="currentColor" stroke-width="1.00" stroke-linecap="butt" stroke-linejoin="miter">
	<path stroke='black'  d='M71.9,434.3 L80.9,434.3  '/>	<g transform="translate(63.6,438.2)" stroke="none" fill="black" font-family="Helvetica" font-size="12.00"  text-anchor="end">
		<text><tspan font-family="Helvetica" > 150</tspan></text>
	</g>
</g>
<g fill="none" color="black" stroke="currentColor" stroke-width="1.00" stroke-linecap="butt" stroke-linejoin="miter">
	<path stroke='black'  d='M71.9,358.2 L80.9,358.2  '/>	<g transform="translate(63.6,362.1)" stroke="none" fill="black" font-family="Helvetica" font-size="12.00"  text-anchor="end">
		<text><tspan font-family="Helvetica" > 200</tspan></text>
	</g>
</g>
<g fill="none" color="black" stroke="currentColor" stroke-width="1.00" stroke-linecap="butt" stroke-linejoin="miter">
	<path stroke='black'  d='M71.9,282.2 L80.9,282.2  '/>	<g transform="translate(63.6,286.1)" stroke="none" fill="black" font-family="Helvetica" font-size="12.00"  text-anchor="end">
		<text><tspan font-family="Helvetica" > 250</tspan></text>
	</g>
</g>
<g fill="none" color="black" stroke="currentColor" stroke-width="1.00" stroke-linecap="butt" stroke-linejoin="miter">
	<path stroke='black'  d='M71.9,206.2 L80.9,206.2  '/>	<g transform="translate(63.6,210.1)" stroke="none" fill="black" font-family="Helvetica" font-size="12.00"  text-anchor="end">
		<text><tspan font-family="Helvetica" > 300</tspan></text>
	</g>
</g>
<g fill="none" color="black" stroke="currentColor" stroke-width="1.00" stroke-linecap="butt" stroke-linejoin="miter">
	<path stroke='black'  d='M71.9,130.1 L80.9,130.1  '/>	<g transform="translate(63.6,134.0)" stroke="none" fill="black" font-family="Helvetica" font-size="12.00"  text-anchor="end">
		<text><tspan font-family="Helvetica" > 350</tspan></text>
	</g>
</g>
<g fill="none" color="black" stroke="currentColor" stroke-width="1.00" stroke-linecap="butt" stroke-linejoin="miter">
	<path stroke='black'  d='M71.9,54.1 L80.9,54.1  '/>	<g transform="translate(63.6,58.0)" stroke="none" fill="black" font-family="Helvetica" font-size="12.00"  text-anchor="end">
		<text><tspan font-family="Helvetica" > 400</tspan></text>
	</g>
</g>
<g fill="none" color="black" stroke="currentColor" stroke-width="1.00" stroke-linecap="butt" stroke-linejoin="miter">
	<path stroke='black'  d='M207.2,662.4 L207.2,653.4  '/>	<g transform="translate(207.2,684.3)" stroke="none" fill="black" font-family="Helvetica" font-size="12.00"  text-anchor="middle">
		<text><tspan font-family="Helvetica" > 6.79</tspan></text>
	</g>
</g>
<g fill="none" color="black" stroke="currentColor" stroke-width="1.00" stroke-linecap="butt" stroke-linejoin="miter">
	<path stroke='black'  d='M383.5,662.4 L383.5,653.4  '/>	<g transform="translate(383.5,684.3)" stroke="none" fill="black" font-family="Helvetica" font-size="12.00"  text-anchor="middle">
		<text><tspan font-family="Helvetica" > 6.792</tspan></text>
	</g>
</g>
<g fill="none" color="black" stroke="currentColor" stroke-width="1.00" stroke-linecap="butt" stroke-linejoin="miter">
	<path stroke='black'  d='M559.7,662.4 L559.7,653.4  '/>	<g transform="translate(559.7,684.3)" stroke="none" fill="black" font-family="Helvetica" font-size="12.00"  text-anchor="middle">
		<text><tspan font-family="Helvetica" > 6.794</tspan></text>
	</g>
</g>
<g fill="none" color="black" stroke="currentColor" stroke-width="1.00" stroke-linecap="butt" stroke-linejoin="miter">
	<path stroke='black'  d='M735.9,662.4 L735.9,653.4  '/>	<g transform="translate(735.9,684.3)" stroke="none" fill="black" font-family="Helvetica" font-size="12.00"  text-anchor="middle">
		<text><tspan font-family="Helvetica" > 6.796</tspan></text>
	</g>
</g>
<g fill="none" color="black" stroke="currentColor" stroke-width="1.00" stroke-linecap="butt" stroke-linejoin="miter">
	<path stroke='black'  d='M912.2,662.4 L912.2,653.4  '/>	<g transform="translate(912.2,684.3)" stroke="none" fill="black" font-family="Helvetica" font-size="12.00"  text-anchor="middle">
		<text><tspan font-family="Helvetica" > 6.798</tspan></text>
	</g>
</g>
<g fill="none" color="black" stroke="currentColor" stroke-width="1.00" stroke-linecap="butt" stroke-linejoin="miter">
</g>
<g fill="none" color="black" stroke="currentColor" stroke-width="1.00" stroke-linecap="butt" stroke-linejoin="miter">
	<path stroke='black'  d='M71.9,54.1 L71.9,662.4 L1013.6,662.4 L1013.6,54.1 L71.9,54.1 Z  '/></g>
<g fill="none" color="black" stroke="currentColor" stroke-width="1.00" stroke-linecap="butt" stroke-linejoin="miter">
	<g transform="translate(16.3,358.3) rotate(270)" stroke="none" fill="black" font-family="Helvetica" font-size="12.00"  text-anchor="middle">
		<text><tspan font-family="Helvetica" >Density (a.u.)</tspan></text>
	</g>
</g>
<g fill="none" color="black" stroke="currentColor" stroke-width="1.00" stroke-linecap="butt" stroke-linejoin="miter">
	<g transform="translate(542.7,711.3)" stroke="none" fill="black" font-family="Helvetica" font-size="12.00"  text-anchor="middle">
		<text><tspan font-family="Helvetica" >Average time (us)</tspan></text>
	</g>
</g>
<g fill="none" color="black" stroke="currentColor" stroke-width="1.00" stroke-linecap="butt" stroke-linejoin="miter">
	<g transform="translate(542.7,31.0)" stroke="none" fill="black" font-family="Helvetica" font-size="12.00"  text-anchor="middle">
		<text><tspan font-family="Helvetica" >snapshot_restore_with_dense/Dense: Dirty pages + process_vm_writev/22: median</tspan></text>
	</g>
</g>
	<g id="gnuplot_plot_1" ><title>Bootstrap distribution</title>
<g fill="none" color="white" stroke="black" stroke-width="2.00" stroke-linecap="butt" stroke-linejoin="miter">
</g>
<g fill="none" color="black" stroke="currentColor" stroke-width="2.00" stroke-linecap="butt" stroke-linejoin="miter">
	<g transform="translate(1089.0,67.0)" stroke="none" fill="black" font-family="Helvetica" font-size="12.00"  text-anchor="start">
		<text><tspan font-family="Helvetica" >Bootstrap distribution</tspan></text>
	</g>
</g>
<g fill="none" color="black" stroke="currentColor" stroke-width="2.00" stroke-linecap="butt" stroke-linejoin="miter">
	<path stroke='rgb( 31, 120, 180)'  d='M1038.5,63.1 L1080.7,63.1 M71.9,654.2 L73.8,653.3 L75.7,652.2 L77.6,651.1 L79.4,649.9 L81.3,648.7
		L83.2,647.4 L85.1,646.1 L87.0,644.7 L88.9,643.3 L90.8,641.8 L92.7,640.3 L94.5,638.7 L96.4,637.1
		L98.3,635.5 L100.2,633.9 L102.1,632.3 L104.0,630.7 L105.9,629.1 L107.8,627.5 L109.6,626.0 L111.5,624.5
		L113.4,623.0 L115.3,621.7 L117.2,620.4 L119.1,619.2 L121.0,618.1 L122.9,617.1 L124.7,616.3 L126.6,615.5
		L128.5,614.9 L130.4,614.4 L132.3,614.0 L134.2,613.7 L136.1,613.5 L138.0,613.3 L139.8,613.3 L141.7,613.3
		L143.6,613.4 L145.5,613.5 L147.4,613.6 L149.3,613.7 L151.2,613.8 L153.0,613.9 L154.9,614.0 L156.8,614.0
		L158.7,614.0 L160.6,613.9 L162.5,613.7 L164.4,613.5 L166.3,613.2 L168.1,612.8 L170.0,612.3 L171.9,611.7
		L173.8,611.0 L175.7,610.2 L177.6,609.3 L179.5,608.2 L181.4,607.1 L183.2,605.7 L185.1,604.2 L187.0,602.6
		L188.9,600.8 L190.8,598.8 L192.7,596.7 L194.6,594.3 L196.5,591.8 L198.3,589.2 L200.2,586.4 L202.1,583.4
		L204.0,580.3 L205.9,577.2 L207.8,574.0 L209.7,570.7 L211.6,567.5 L213.4,564.3 L215.3,561.3 L217.2,558.3
		L219.1,555.6 L221.0,553.1 L222.9,550.8 L224.8,548.9 L226.6,547.4 L228.5,546.2 L230.4,545.5 L232.3,545.2
		L234.2,545.4 L236.1,546.1 L238.0,547.2 L239.9,548.9 L241.7,551.0 L243.6,553.5 L245.5,556.5 L247.4,559.9
		L249.3,563.6 L251.2,567.6 L253.1,571.9 L255.0,576.3 L256.8,580.8 L258.7,585.3 L260.6,589.8 L262.5,594.3
		L264.4,598.5 L266.3,602.4 L268.2,606.1 L270.1,609.4 L271.9,612.2 L273.8,614.6 L275.7,616.4 L277.6,617.7
		L279.5,618.5 L281.4,618.6 L283.3,618.2 L285.2,617.3 L287.0,615.9 L288.9,613.9 L290.8,611.5 L292.7,608.8
		L294.6,605.7 L296.5,602.5 L298.4,599.0 L300.2,595.6 L302.1,592.1 L304.0,588.8 L305.9,585.7 L307.8,582.9
		L309.7,580.5 L311.6,578.5 L313.5,577.0 L315.3,576.0 L317.2,575.7 L319.1,575.9 L321.0,576.6 L322.9,578.0
		L324.8,579.8 L326.7,582.1 L328.6,584.7 L330.4,587.7 L332.3,590.9 L334.2,594.1 L336.1,597.3 L338.0,600.4
		L339.9,603.3 L341.8,605.7 L343.7,607.7 L345.5,609.0 L347.4,609.6 L349.3,609.4 L351.2,608.3 L353.1,606.3
		L355.0,603.1 L356.9,598.9 L358.8,593.6 L360.6,587.1 L362.5,579.5 L364.4,570.8 L366.3,561.1 L368.2,550.4
		L370.1,538.8 L372.0,526.5 L373.8,513.6 L375.7,500.3 L377.6,486.8 L379.5,473.3 L381.4,460.0 L383.3,447.2
		L385.2,435.1 L387.1,423.9 L388.9,413.9 L390.8,405.3 L392.7,398.2 L394.6,392.9 L396.5,389.4 L398.4,388.0
		L400.3,388.5 L402.2,391.0 L404.0,395.4 L405.9,401.8 L407.8,409.8 L409.7,419.5 L411.6,430.5 L413.5,442.7
		L415.4,455.9 L417.3,469.7 L419.1,483.9 L421.0,498.3 L422.9,512.6 L424.8,526.6 L426.7,540.1 L428.6,553.0
		L430.5,565.0 L432.4,576.0 L434.2,586.1 L436.1,594.9 L438.0,602.6 L439.9,609.1 L441.8,614.3 L443.7,618.3
		L445.6,621.0 L447.4,622.6 L449.3,622.9 L451.2,622.1 L453.1,620.2 L455.0,617.2 L456.9,613.3 L458.8,608.4
		L460.7,602.6 L462.5,596.1 L464.4,589.0 L466.3,581.3 L468.2,573.3 L470.1,565.0 L472.0,556.6 L473.9,548.2
		L475.8,540.2 L477.6,532.5 L479.5,525.4 L481.4,519.1 L483.3,513.6 L485.2,509.2 L487.1,505.8 L489.0,503.7
		L490.9,502.8 L492.7,503.2 L494.6,504.7 L496.5,507.5 L498.4,511.4 L500.3,516.4 L502.2,522.2 L504.1,528.8
		L506.0,535.9 L507.8,543.5 L509.7,551.4 L511.6,559.4 L513.5,567.3 L515.4,575.0 L517.3,582.4 L519.2,589.2
		L521.0,595.3 L522.9,600.7 L524.8,605.3 L526.7,608.8 L528.6,611.3 L530.5,612.6 L532.4,612.7 L534.3,611.4
		L536.1,608.8 L538.0,604.7 L539.9,599.1 L541.8,592.0 L543.7,583.2 L545.6,573.0 L547.5,561.1 L549.4,547.7
		L551.2,532.7 L553.1,516.4 L555.0,498.7 L556.9,479.7 L558.8,459.7 L560.7,438.8 L562.6,417.2 L564.5,395.0
		L566.3,372.5 L568.2,349.8 L570.1,327.3 L572.0,305.0 L573.9,283.1 L575.8,261.9 L577.7,241.5 L579.5,222.0
		L581.4,203.5 L583.3,186.1 L585.2,169.8 L587.1,154.8 L589.0,141.0 L590.9,128.6 L592.8,117.4 L594.6,107.6
		L596.5,99.2 L598.4,92.1 L600.3,86.5 L602.2,82.3 L604.1,79.5 L606.0,78.2 L607.9,78.4 L609.7,80.1
		L611.6,83.2 L613.5,87.8 L615.4,93.7 L617.3,101.0 L619.2,109.4 L621.1,119.0 L623.0,129.6 L624.8,141.1
		L626.7,153.2 L628.6,165.9 L630.5,179.0 L632.4,192.2 L634.3,205.5 L636.2,218.6 L638.1,231.5 L639.9,244.0
		L641.8,255.9 L643.7,267.3 L645.6,277.9 L647.5,287.8 L649.4,297.0 L651.3,305.4 L653.1,312.9 L655.0,319.7
		L656.9,325.7 L658.8,330.9 L660.7,335.5 L662.6,339.3 L664.5,342.5 L666.4,345.1 L668.2,347.2 L670.1,348.6
		L672.0,349.6 L673.9,350.0 L675.8,350.0 L677.7,349.5 L679.6,348.7 L681.5,347.4 L683.3,345.9 L685.2,344.0
		L687.1,342.0 L689.0,339.8 L690.9,337.5 L692.8,335.3 L694.7,333.2 L696.6,331.3 L698.4,329.7 L700.3,328.6
		L702.2,328.1 L704.1,328.2 L706.0,329.0 L707.9,330.7 L709.8,333.2 L711.7,336.6 L713.5,340.9 L715.4,346.2
		L717.3,352.3 L719.2,359.3 L721.1,367.0 L723.0,375.5 L724.9,384.5 L726.7,394.1 L728.6,404.0 L730.5,414.2
		L732.4,424.5 L734.3,434.8 L736.2,445.1 L738.1,455.2 L740.0,465.1 L741.8,474.6 L743.7,483.7 L745.6,492.4
		L747.5,500.6 L749.4,508.3 L751.3,515.5 L753.2,522.2 L755.1,528.4 L756.9,534.2 L758.8,539.5 L760.7,544.3
		L762.6,548.8 L764.5,552.9 L766.4,556.7 L768.3,560.1 L770.2,563.3 L772.0,566.2 L773.9,568.8 L775.8,571.2
		L777.7,573.4 L779.6,575.3 L781.5,577.0 L783.4,578.6 L785.3,580.0 L787.1,581.2 L789.0,582.3 L790.9,583.2
		L792.8,584.1 L794.7,585.0 L796.6,585.7 L798.5,586.5 L800.3,587.3 L802.2,588.1 L804.1,589.0 L806.0,589.9
		L807.9,590.8 L809.8,591.8 L811.7,592.8 L813.6,593.9 L815.4,595.0 L817.3,596.1 L819.2,597.1 L821.1,598.1
		L823.0,599.0 L824.9,599.9 L826.8,600.6 L828.7,601.3 L830.5,601.9 L832.4,602.4 L834.3,602.8 L836.2,603.1
		L838.1,603.4 L840.0,603.7 L841.9,604.0 L843.8,604.4 L845.6,604.7 L847.5,605.1 L849.4,605.6 L851.3,606.1
		L853.2,606.6 L855.1,607.2 L857.0,607.7 L858.9,608.2 L860.7,608.6 L862.6,608.8 L864.5,608.9 L866.4,608.7
		L868.3,608.2 L870.2,607.4 L872.1,606.2 L873.9,604.6 L875.8,602.6 L877.7,600.2 L879.6,597.4 L881.5,594.2
		L883.4,590.7 L885.3,587.0 L887.2,583.0 L889.0,578.8 L890.9,574.6 L892.8,570.5 L894.7,566.5 L896.6,562.6
		L898.5,559.1 L900.4,556.0 L902.3,553.3 L904.1,551.0 L906.0,549.4 L907.9,548.3 L909.8,547.7 L911.7,547.8
		L913.6,548.5 L915.5,549.7 L917.4,551.4 L919.2,553.6 L921.1,556.3 L923.0,559.2 L924.9,562.5 L926.8,566.0
		L928.7,569.7 L930.6,573.4 L932.5,577.2 L934.3,581.0 L936.2,584.8 L938.1,588.4 L940.0,592.0 L941.9,595.4
		L943.8,598.7 L945.7,601.8 L947.5,604.7 L949.4,607.5 L951.3,610.1 L953.2,612.5 L955.1,614.9 L957.0,617.0
		L958.9,619.1 L960.8,621.1 L962.6,622.9 L964.5,624.7 L966.4,626.4 L968.3,628.1 L970.2,629.7 L972.1,631.2
		L974.0,632.7 L975.9,634.1 L977.7,635.5 L979.6,636.8 L981.5,638.1 L983.4,639.4 L985.3,640.6 L987.2,641.8
		L989.1,642.9 L991.0,644.0 L992.8,645.0 L994.7,646.0 L996.6,647.0 L998.5,647.9 L1000.4,648.8 L1002.3,649.7
		L1004.2,650.5 L1006.1,651.3 L1007.9,652.1 L1009.8,652.8 L1011.7,653.5 L1013.6,654.1  '/></g>
	</g>
	<g id="gnuplot_plot_2" ><title>Confidence interval</title>
<g fill="none" color="white" stroke="rgb( 31, 120, 180)" stroke-width="1.00" stroke-linecap="butt" stroke-linejoin="miter">
</g>
<g fill="none" color="black" stroke="currentColor" stroke-width="1.00" stroke-linecap="butt" stroke-linejoin="miter">
	<g transform="translate(1089.0,85.0)" stroke="none" fill="black" font-family="Helvetica" font-size="12.00"  text-anchor="start">
		<text><tspan font-family="Helvetica" >Confidence interval</tspan></text>
	</g>
</g>
<g fill="none" color="black" stroke="currentColor" stroke-width="1.00" stroke-linecap="butt" stroke-linejoin="miter">
	<g stroke='none' shape-rendering='crispEdges'>
		<polygon fill = 'rgb( 31, 120, 180)' fill-opacity = '0.250000' points = '1038.5,85.6 1080.7,85.6 1080.7,76.6 1038.5,76.6 '/>
		<polygon fill = 'rgb( 31, 120, 180)' fill-opacity = '0.250000' points = '158.7,614.0 160.6,613.9 162.5,613.7 164.4,613.5 166.3,613.2 168.1,612.8 170.0,612.3 171.9,611.7 173.8,611.0 175.7,610.2 177.6,609.3 179.5,608.2 181.4,607.1 183.2,605.7 185.1,604.2 187.0,602.6
188.9,600.8 190.8,598.8 192.7,596.7 194.6,594.3 196.5,591.8 198.3,589.2 200.2,586.4 202.1,583.4 204.0,580.3 205.9,577.2 207.8,574.0 209.7,570.7 211.6,567.5 213.4,564.3 215.3,561.3 217.2,558.3
219.1,555.6 221.0,553.1 222.9,550.8 224.8,548.9 226.6,547.4 228.5,546.2 230.4,545.5 232.3,545.2 234.2,545.4 236.1,546.1 238.0,547.2 239.9,548.9 241.7,551.0 243.6,553.5 245.5,556.5 247.4,559.9
249.3,563.6 251.2,567.6 253.1,571.9 255.0,576.3 256.8,580.8 258.7,585.3 260.6,589.8 262.5,594.3 264.4,598.5 266.3,602.4 268.2,606.1 270.1,609.4 271.9,612.2 273.8,614.6 275.7,616.4 277.6,617.7
279.5,618.5 281.4,618.6 283.3,618.2 285.2,617.3 287.0,615.9 288.9,613.9 290.8,611.5 292.7,608.8 294.6,605.7 296.5,602.5 298.4,599.0 300.2,595.6 302.1,592.1 304.0,588.8 305.9,585.7 307.8,582.9
309.7,580.5 311.6,578.5 313.5,577.0 315.3,576.0 317.2,575.7 319.1,575.9 321.0,576.6 322.9,578.0 324.8,579.8 326.7,582.1 328.6,584.7 330.4,587.7 332.3,590.9 334.2,594.1 336.1,597.3 338.0,600.4
339.9,603.3 341.8,605.7 343.7,607.7 345.5,609.0 347.4,609.6 349.3,609.4 351.2,608.3 353.1,606.3 355.0,603.1 356.9,598.9 358.8,593.6 360.6,587.1 362.5,579.5 364.4,570.8 366.3,561.1 368.2,550.4
370.1,538.8 372.0,526.5 373.8,513.6 375.7,500.3 377.6,486.8 379.5,473.3 381.4,460.0 383.3,447.2 385.2,435.1 387.1,423.9 388.9,413.9 390.8,405.3 392.7,398.2 394.6,392.9 396.5,389.4 398.4,388.0
400.3,388.5 402.2,391.0 404.0,395.4 405.9,401.8 407.8,409.8 409.7,419.5 411.6,430.5 413.5,442.7 415.4,455.9 417.3,469.7 419.1,483.9 421.0,498.3 422.9,512.6 424.8,526.6 426.7,540.1 428.6,553.0
430.5,565.0 432.4,576.0 434.2,586.1 436.1,594.9 438.0,602.6 439.9,609.1 441.8,614.3 443.7,618.3 445.6,621.0 447.4,622.6 449.3,622.9 451.2,622.1 453.1,620.2 455.0,617.2 456.9,613.3 458.8,608.4
460.7,602.6 462.5,596.1 464.4,589.0 466.3,581.3 468.2,573.3 470.1,565.0 472.0,556.6 473.9,548.2 475.8,540.2 477.6,532.5 479.5,525.4 481.4,519.1 483.3,513.6 485.2,509.2 487.1,505.8 489.0,503.7
490.9,502.8 492.7,503.2 494.6,504.7 496.5,507.5 498.4,511.4 500.3,516.4 502.2,522.2 504.1,528.8 506.0,535.9 507.8,543.5 509.7,551.4 511.6,559.4 513.5,567.3 515.4,575.0 517.3,582.4 519.2,589.2
521.0,595.3 522.9,600.7 524.8,605.3 526.7,608.8 528.6,611.3 530.5,612.6 532.4,612.7 534.3,611.4 536.1,608.8 538.0,604.7 539.9,599.1 541.8,592.0 543.7,583.2 545.6,573.0 547.5,561.1 549.4,547.7
551.2,532.7 553.1,516.4 555.0,498.7 556.9,479.7 558.8,459.7 560.7,438.8 562.6,417.2 564.5,395.0 566.3,372.5 568.2,349.8 570.1,327.3 572.0,305.0 573.9,283.1 575.8,261.9 577.7,241.5 579.5,222.0
581.4,203.5 583.3,186.1 585.2,169.8 587.1,154.8 589.0,141.0 590.9,128.6 592.8,117.4 594.6,107.6 596.5,99.2 598.4,92.1 600.3,86.5 602.2,82.3 604.1,79.5 606.0,78.2 607.9,78.4 609.7,80.1
611.6,83.2 613.5,87.8 615.4,93.7 617.3,101.0 619.2,109.4 621.1,119.0 623.0,129.6 624.8,141.1 626.7,153.2 628.6,165.9 630.5,179.0 632.4,192.2 634.3,205.5 636.2,218.6 638.1,231.5 639.9,244.0
641.8,255.9 643.7,267.3 645.6,277.9 647.5,287.8 649.4,297.0 651.3,305.4 653.1,312.9 655.0,319.7 656.9,325.7 658.8,330.9 660.7,335.5 662.6,339.3 664.5,342.5 666.4,345.1 668.2,347.2 670.1,348.6
672.0,349.6 673.9,350.0 675.8,350.0 677.7,349.5 679.6,348.7 681.5,347.4 683.3,345.9 685.2,344.0 687.1,342.0 689.0,339.8 690.9,337.5 692.8,335.3 694.7,333.2 696.6,331.3 698.4,329.7 700.3,328.6
702.2,328.1 704.1,328.2 706.0,329.0 707.9,330.7 709.8,333.2 711.7,336.6 713.5,340.9 715.4,346.2 717.3,352.3 719.2,359.3 721.1,367.0 723.0,375.5 724.9,384.5 726.7,394.1 728.6,404.0 730.5,414.2
732.4,424.5 734.3,434.8 736.2,445.1 738.1,455.2 740.0,465.1 741.8,474.6 743.7,483.7 745.6,492.4 747.5,500.6 749.4,508.3 751.3,515.5 753.2,522.2 755.1,528.4 756.9,534.2 758.8,539.5 760.7,544.3
762.6,548.8 764.5,552.9 766.4,556.7 768.3,560.1 770.2,563.3 772.0,566.2 773.9,568.8 775.8,571.2 777.7,573.4 779.6,575.3 781.5,577.0 783.4,578.6 785.3,580.0 787.1,581.2 789.0,582.3 790.9,583.2
792.8,584.1 794.7,585.0 796.6,585.7 798.5,586.5 800.3,587.3 802.2,588.1 804.1,589.0 806.0,589.9 807.9,590.8 809.8,591.8 811.7,592.8 813.6,593.9 815.4,595.0 817.3,596.1 819.2,597.1 821.1,598.1
823.0,599.0 824.9,599.9 826.8,600.6 828.7,601.3 830.5,601.9 832.4,602.4 834.3,602.8 836.2,603.1 838.1,603.4 840.0,603.7 841.9,604.0 843.8,604.4 845.6,604.7 847.5,605.1 849.4,605.6 851.3,606.1
853.2,606.6 855.1,607.2 857.0,607.7 858.9,608.2 860.7,608.6 862.6,608.8 864.5,608.9 866.4,608.7 868.3,608.2 870.2,607.4 872.1,606.2 873.9,604.6 875.8,602.6 877.7,600.2 879.6,597.4 881.5,594.2
883.4,590.7 885.3,587.0 887.2,583.0 889.0,578.8 890.9,574.6 892.8,570.5 894.7,566.5 896.6,562.6 898.5,559.1 900.4,556.0 902.3,553.3 904.1,551.0 906.0,549.4 907.9,548.3 909.8,547.7 911.7,547.8
913.6,548.5 915.5,549.7 917.4,551.4 919.2,553.6 921.1,556.3 923.0,559.2 924.9,562.5 924.9,662.4 923.0,662.4 921.1,662.4 919.2,662.4 917.4,662.4 915.5,662.4 913.6,662.4 911.7,662.4 909.8,662.4
907.9,662.4 906.0,662.4 904.1,662.4 902.3,662.4 900.4,662.4 898.5,662.4 896.6,662.4 894.7,662.4 892.8,662.4 890.9,662.4 889.0,662.4 887.2,662.4 885.3,662.4 883.4,662.4 881.5,662.4 879.6,662.4
877.7,662.4 875.8,662.4 873.9,662.4 872.1,662.4 870.2,662.4 868.3,662.4 866.4,662.4 864.5,662.4 862.6,662.4 860.7,662.4 858.9,662.4 857.0,662.4 855.1,662.4 853.2,662.4 851.3,662.4 849.4,662.4
847.5,662.4 845.6,662.4 843.8,662.4 841.9,662.4 840.0,662.4 838.1,662.4 836.2,662.4 834.3,662.4 832.4,662.4 830.5,662.4 828.7,662.4 826.8,662.4 824.9,662.4 823.0,662.4 821.1,662.4 819.2,662.4
817.3,662.4 815.4,662.4 813.6,662.4 811.7,662.4 809.8,662.4 807.9,662.4 806.0,662.4 804.1,662.4 802.2,662.4 800.3,662.4 798.5,662.4 796.6,662.4 794.7,662.4 792.8,662.4 790.9,662.4 789.0,662.4
787.1,662.4 785.3,662.4 783.4,662.4 781.5,662.4 779.6,662.4 777.7,662.4 775.8,662.4 773.9,662.4 772.0,662.4 770.2,662.4 768.3,662.4 766.4,662.4 764.5,662.4 762.6,662.4 760.7,662.4 758.8,662.4
756.9,662.4 755.1,662.4 753.2,662.4 751.3,662.4 749.4,662.4 747.5,662.4 745.6,662.4 743.7,662.4 741.8,662.4 740.0,662.4 738.1,662.4 736.2,662.4 734.3,662.4 732.4,662.4 730.5,662.4 728.6,662.4
726.7,662.4 724.9,662.4 723.0,662.4 721.1,662.4 719.2,662.4 717.3,662.4 715.4,662.4 713.5,662.4 711.7,662.4 709.8,662.4 707.9,662.4 706.0,662.4 704.1,662.4 702.2,662.4 700.3,662.4 698.4,662.4
696.6,662.4 694.7,662.4 692.8,662.4 690.9,662.4 689.0,662.4 687.1,662.4 685.2,662.4 683.3,662.4 681.5,662.4 679.6,662.4 677.7,662.4 675.8,662.4 673.9,662.4 672.0,662.4 670.1,662.4 668.2,662.4
666.4,662.4 664.5,662.4 662.6,662.4 660.7,662.4 658.8,662.4 656.9,662.4 655.0,662.4 653.1,662.4 651.3,662.4 649.4,662.4 647.5,662.4 645.6,662.4 643.7,662.4 641.8,662.4 639.9,662.4 638.1,662.4
636.2,662.4 634.3,662.4 632.4,662.4 630.5,662.4 628.6,662.4 626.7,662.4 624.8,662.4 623.0,662.4 621.1,662.4 619.2,662.4 617.3,662.4 615.4,662.4 613.5,662.4 611.6,662.4 609.7,662.4 607.9,662.4
606.0,662.4 604.1,662.4 602.2,662.4 600.3,662.4 598.4,662.4 596.5,662.4 594.6,662.4 592.8,662.4 590.9,662.4 589.0,662.4 587.1,662.4 585.2,662.4 583.3,662.4 581.4,662.4 579.5,662.4 577.7,662.4
575.8,662.4 573.9,662.4 572.0,662.4 570.1,662.4 568.2,662.4 566.3,662.4 564.5,662.4 562.6,662.4 560.7,662.4 558.8,662.4 556.9,662.4 555.0,662.4 553.1,662.4 551.2,662.4 549.4,662.4 547.5,662.4
545.6,662.4 543.7,662.4 541.8,662.4 539.9,662.4 538.0,662.4 536.1,662.4 534.3,662.4 532.4,662.4 530.5,662.4 528.6,662.4 526.7,662.4 524.8,662.4 522.9,662.4 521.0,662.4 519.2,662.4 517.3,662.4
515.4,662.4 513.5,662.4 511.6,662.4 509.7,662.4 507.8,662.4 506.0,662.4 504.1,662.4 502.2,662.4 500.3,662.4 498.4,662.4 496.5,662.4 494.6,662.4 492.7,662.4 490.9,662.4 489.0,662.4 487.1,662.4
485.2,662.4 483.3,662.4 481.4,662.4 479.5,662.4 477.6,662.4 475.8,662.4 473.9,662.4 472.0,662.4 470.1,662.4 468.2,662.4 466.3,662.4 464.4,662.4 462.5,662.4 460.7,662.4 458.8,662.4 456.9,662.4
455.0,662.4 453.1,662.4 451.2,662.4 449.3,662.4 447.4,662.4 445.6,662.4 443.7,662.4 441.8,662.4 439.9,662.4 438.0,662.4 436.1,662.4 434.2,662.4 432.4,662.4 430.5,662.4 428.6,662.4 426.7,662.4
424.8,662.4 422.9,662.4 421.0,662.4 419.1,662.4 417.3,662.4 415.4,662.4 413.5,662.4 411.6,662.4 409.7,662.4 407.8,662.4 405.9,662.4 404.0,662.4 402.2,662.4 400.3,662.4 398.4,662.4 396.5,662.4
394.6,662.4 392.7,662.4 390.8,662.4 388.9,662.4 387.1,662.4 385.2,662.4 383.3,662.4 381.4,662.4 379.5,662.4 377.6,662.4 375.7,662.4 373.8,662.4 372.0,662.4 370.1,662.4 368.2,662.4 366.3,662.4
364.4,662.4 362.5,662.4 360.6,662.4 358.8,662.4 356.9,662.4 355.0,662.4 353.1,662.4 351.2,662.4 349.3,662.4 347.4,662.4 345.5,662.4 343.7,662.4 341.8,662.4 339.9,662.4 338.0,662.4 336.1,662.4
334.2,662.4 332.3,662.4 330.4,662.4 328.6,662.4 326.7,662.4 324.8,662.4 322.9,662.4 321.0,662.4 319.1,662.4 317.2,662.4 315.3,662.4 313.5,662.4 311.6,662.4 309.7,662.4 307.8,662.4 305.9,662.4
304.0,662.4 302.1,662.4 300.2,662.4 298.4,662.4 296.5,662.4 294.6,662.4 292.7,662.4 290.8,662.4 288.9,662.4 287.0,662.4 285.2,662.4 283.3,662.4 281.4,662.4 279.5,662.4 277.6,662.4 275.7,662.4
273.8,662.4 271.9,662.4 270.1,662.4 268.2,662.4 266.3,662.4 264.4,662.4 262.5,662.4 260.6,662.4 258.7,662.4 256.8,662.4 255.0,662.4 253.1,662.4 251.2,662.4 249.3,662.4 247.4,662.4 245.5,662.4
243.6,662.4 241.7,662.4 239.9,662.4 238.0,662.4 236.1,662.4 234.2,662.4 232.3,662.4 230.4,662.4 228.5,662.4 226.6,662.4 224.8,662.4 222.9,662.4 221.0,662.4 219.1,662.4 217.2,662.4 215.3,662.4
213.4,662.4 211.6,662.4 209.7,662.4 207.8,662.4 205.9,662.4 204.0,662.4 202.1,662.4 200.2,662.4 198.3,662.4 196.5,662.4 194.6,662.4 192.7,662.4 190.8,662.4 188.9,662.4 187.0,662.4 185.1,662.4
183.2,662.4 181.4,662.4 179.5,662.4 177.6,662.4 175.7,662.4 173.8,662.4 171.9,662.4 170.0,662.4 168.1,662.4 166.3,662.4 164.4,662.4 162.5,662.4 160.6,662.4 158.7,662.4 '/>
	</g>
</g>
	</g>
	<g id="gnuplot_plot_3" ><title>Point estimate</title>
<g fill="none" color="white" stroke="rgb( 31, 120, 180)" stroke-width="2.00" stroke-linecap="butt" stroke-linejoin="miter">
</g>
<g fill="none" color="black" stroke="currentColor" stroke-width="2.00" stroke-linecap="butt" stroke-linejoin="miter">
	<g transform="translate(1089.0,103.0)" stroke="none" fill="black" font-family="Helvetica" font-size="12.00"  text-anchor="start">
		<text><tspan font-family="Helvetica" >Point estimate</tspan></text>
	</g>
</g>
<g fill="none" color="black" stroke="currentColor" stroke-width="2.00" stroke-linecap="butt" stroke-linejoin="miter">
	<path stroke='rgb( 31, 120, 180)'  d='M1038.5,99.1 L1080.7,99.1 M610.6,662.4 L610.6,81.6  '/></g>
	</g>
<g fill="none" color="black" stroke="currentColor" stroke-width="2.00" stroke-linecap="butt" stroke-linejoin="miter">
</g>
<g fill="none" color="black" stroke="black" stroke-width="1.00" stroke-linecap="butt" stroke-linejoin="miter">
</g>
<g fill="none" color="black" stroke="currentColor" stroke-width="1.00" stroke-linecap="butt" stroke-linejoin="miter">
	<path stroke='black'  d='M71.9,54.1 L71.9,662.4 L1013.6,662.4 L1013.6,54.1 L71.9,54.1 Z  '/></g>
<g fill="none" color="black" stroke="currentColor" stroke-width="1.00" stroke-linecap="butt" stroke-linejoin="miter">
</g>
</g>
</svg>

