<?xml version="1.0" encoding="utf-8"  standalone="no"?>
<svg 
 viewBox="0 0 1280 720"
 xmlns="http://www.w3.org/2000/svg"
 xmlns:xlink="http://www.w3.org/1999/xlink"
>

<title>Gnuplot</title>
<desc>Produced by GNUPLOT 5.2 patchlevel 6 </desc>

<g id="gnuplot_canvas">

<rect x="0" y="0" width="1280" height="720" fill="none"/>
<defs>

	<circle id='gpDot' r='0.5' stroke-width='0.5' stroke='currentColor'/>
	<path id='gpPt0' stroke-width='0.222' stroke='currentColor' d='M-1,0 h2 M0,-1 v2'/>
	<path id='gpPt1' stroke-width='0.222' stroke='currentColor' d='M-1,-1 L1,1 M1,-1 L-1,1'/>
	<path id='gpPt2' stroke-width='0.222' stroke='currentColor' d='M-1,0 L1,0 M0,-1 L0,1 M-1,-1 L1,1 M-1,1 L1,-1'/>
	<rect id='gpPt3' stroke-width='0.222' stroke='currentColor' x='-1' y='-1' width='2' height='2'/>
	<rect id='gpPt4' stroke-width='0.222' stroke='currentColor' fill='currentColor' x='-1' y='-1' width='2' height='2'/>
	<circle id='gpPt5' stroke-width='0.222' stroke='currentColor' cx='0' cy='0' r='1'/>
	<use xlink:href='#gpPt5' id='gpPt6' fill='currentColor' stroke='none'/>
	<path id='gpPt7' stroke-width='0.222' stroke='currentColor' d='M0,-1.33 L-1.33,0.67 L1.33,0.67 z'/>
	<use xlink:href='#gpPt7' id='gpPt8' fill='currentColor' stroke='none'/>
	<use xlink:href='#gpPt7' id='gpPt9' stroke='currentColor' transform='rotate(180)'/>
	<use xlink:href='#gpPt9' id='gpPt10' fill='currentColor' stroke='none'/>
	<use xlink:href='#gpPt3' id='gpPt11' stroke='currentColor' transform='rotate(45)'/>
	<use xlink:href='#gpPt11' id='gpPt12' fill='currentColor' stroke='none'/>
	<path id='gpPt13' stroke-width='0.222' stroke='currentColor' d='M0,1.330 L1.265,0.411 L0.782,-1.067 L-0.782,-1.076 L-1.265,0.411 z'/>
	<use xlink:href='#gpPt13' id='gpPt14' fill='currentColor' stroke='none'/>
	<filter id='textbox' filterUnits='objectBoundingBox' x='0' y='0' height='1' width='1'>
	  <feFlood flood-color='white' flood-opacity='1' result='bgnd'/>
	  <feComposite in='SourceGraphic' in2='bgnd' operator='atop'/>
	</filter>
	<filter id='greybox' filterUnits='objectBoundingBox' x='0' y='0' height='1' width='1'>
	  <feFlood flood-color='lightgrey' flood-opacity='1' result='grey'/>
	  <feComposite in='SourceGraphic' in2='grey' operator='atop'/>
	</filter>
</defs>
<g fill="none" color="white" stroke="currentColor" stroke-width="1.00" stroke-linecap="butt" stroke-linejoin="miter">
</g>
<g fill="none" color="black" stroke="currentColor" stroke-width="1.00" stroke-linecap="butt" stroke-linejoin="miter">
	<path stroke='black'  d='M55.3,662.4 L64.3,662.4  '/>	<g transform="translate(47.0,666.3)" stroke="none" fill="black" font-family="Helvetica" font-size="12.00"  text-anchor="end">
		<text><tspan font-family="Helvetica" > 0</tspan></text>
	</g>
</g>
<g fill="none" color="black" stroke="currentColor" stroke-width="1.00" stroke-linecap="butt" stroke-linejoin="miter">
	<path stroke='black'  d='M55.3,586.4 L64.3,586.4  '/>	<g transform="translate(47.0,590.3)" stroke="none" fill="black" font-family="Helvetica" font-size="12.00"  text-anchor="end">
		<text><tspan font-family="Helvetica" > 1</tspan></text>
	</g>
</g>
<g fill="none" color="black" stroke="currentColor" stroke-width="1.00" stroke-linecap="butt" stroke-linejoin="miter">
	<path stroke='black'  d='M55.3,510.3 L64.3,510.3  '/>	<g transform="translate(47.0,514.2)" stroke="none" fill="black" font-family="Helvetica" font-size="12.00"  text-anchor="end">
		<text><tspan font-family="Helvetica" > 2</tspan></text>
	</g>
</g>
<g fill="none" color="black" stroke="currentColor" stroke-width="1.00" stroke-linecap="butt" stroke-linejoin="miter">
	<path stroke='black'  d='M55.3,434.3 L64.3,434.3  '/>	<g transform="translate(47.0,438.2)" stroke="none" fill="black" font-family="Helvetica" font-size="12.00"  text-anchor="end">
		<text><tspan font-family="Helvetica" > 3</tspan></text>
	</g>
</g>
<g fill="none" color="black" stroke="currentColor" stroke-width="1.00" stroke-linecap="butt" stroke-linejoin="miter">
	<path stroke='black'  d='M55.3,358.2 L64.3,358.2  '/>	<g transform="translate(47.0,362.1)" stroke="none" fill="black" font-family="Helvetica" font-size="12.00"  text-anchor="end">
		<text><tspan font-family="Helvetica" > 4</tspan></text>
	</g>
</g>
<g fill="none" color="black" stroke="currentColor" stroke-width="1.00" stroke-linecap="butt" stroke-linejoin="miter">
	<path stroke='black'  d='M55.3,282.2 L64.3,282.2  '/>	<g transform="translate(47.0,286.1)" stroke="none" fill="black" font-family="Helvetica" font-size="12.00"  text-anchor="end">
		<text><tspan font-family="Helvetica" > 5</tspan></text>
	</g>
</g>
<g fill="none" color="black" stroke="currentColor" stroke-width="1.00" stroke-linecap="butt" stroke-linejoin="miter">
	<path stroke='black'  d='M55.3,206.2 L64.3,206.2  '/>	<g transform="translate(47.0,210.1)" stroke="none" fill="black" font-family="Helvetica" font-size="12.00"  text-anchor="end">
		<text><tspan font-family="Helvetica" > 6</tspan></text>
	</g>
</g>
<g fill="none" color="black" stroke="currentColor" stroke-width="1.00" stroke-linecap="butt" stroke-linejoin="miter">
	<path stroke='black'  d='M55.3,130.1 L64.3,130.1  '/>	<g transform="translate(47.0,134.0)" stroke="none" fill="black" font-family="Helvetica" font-size="12.00"  text-anchor="end">
		<text><tspan font-family="Helvetica" > 7</tspan></text>
	</g>
</g>
<g fill="none" color="black" stroke="currentColor" stroke-width="1.00" stroke-linecap="butt" stroke-linejoin="miter">
	<path stroke='black'  d='M55.3,54.1 L64.3,54.1  '/>	<g transform="translate(47.0,58.0)" stroke="none" fill="black" font-family="Helvetica" font-size="12.00"  text-anchor="end">
		<text><tspan font-family="Helvetica" > 8</tspan></text>
	</g>
</g>
<g fill="none" color="black" stroke="currentColor" stroke-width="1.00" stroke-linecap="butt" stroke-linejoin="miter">
	<path stroke='black'  d='M55.3,662.4 L55.3,653.4  '/>	<g transform="translate(55.3,684.3)" stroke="none" fill="black" font-family="Helvetica" font-size="12.00"  text-anchor="middle">
		<text><tspan font-family="Helvetica" > 6</tspan></text>
	</g>
</g>
<g fill="none" color="black" stroke="currentColor" stroke-width="1.00" stroke-linecap="butt" stroke-linejoin="miter">
	<path stroke='black'  d='M233.0,662.4 L233.0,653.4  '/>	<g transform="translate(233.0,684.3)" stroke="none" fill="black" font-family="Helvetica" font-size="12.00"  text-anchor="middle">
		<text><tspan font-family="Helvetica" > 6.5</tspan></text>
	</g>
</g>
<g fill="none" color="black" stroke="currentColor" stroke-width="1.00" stroke-linecap="butt" stroke-linejoin="miter">
	<path stroke='black'  d='M410.7,662.4 L410.7,653.4  '/>	<g transform="translate(410.7,684.3)" stroke="none" fill="black" font-family="Helvetica" font-size="12.00"  text-anchor="middle">
		<text><tspan font-family="Helvetica" > 7</tspan></text>
	</g>
</g>
<g fill="none" color="black" stroke="currentColor" stroke-width="1.00" stroke-linecap="butt" stroke-linejoin="miter">
	<path stroke='black'  d='M588.4,662.4 L588.4,653.4  '/>	<g transform="translate(588.4,684.3)" stroke="none" fill="black" font-family="Helvetica" font-size="12.00"  text-anchor="middle">
		<text><tspan font-family="Helvetica" > 7.5</tspan></text>
	</g>
</g>
<g fill="none" color="black" stroke="currentColor" stroke-width="1.00" stroke-linecap="butt" stroke-linejoin="miter">
	<path stroke='black'  d='M766.1,662.4 L766.1,653.4  '/>	<g transform="translate(766.1,684.3)" stroke="none" fill="black" font-family="Helvetica" font-size="12.00"  text-anchor="middle">
		<text><tspan font-family="Helvetica" > 8</tspan></text>
	</g>
</g>
<g fill="none" color="black" stroke="currentColor" stroke-width="1.00" stroke-linecap="butt" stroke-linejoin="miter">
	<path stroke='black'  d='M943.8,662.4 L943.8,653.4  '/>	<g transform="translate(943.8,684.3)" stroke="none" fill="black" font-family="Helvetica" font-size="12.00"  text-anchor="middle">
		<text><tspan font-family="Helvetica" > 8.5</tspan></text>
	</g>
</g>
<g fill="none" color="black" stroke="currentColor" stroke-width="1.00" stroke-linecap="butt" stroke-linejoin="miter">
	<path stroke='black'  d='M1121.5,662.4 L1121.5,653.4  '/>	<g transform="translate(1121.5,684.3)" stroke="none" fill="black" font-family="Helvetica" font-size="12.00"  text-anchor="middle">
		<text><tspan font-family="Helvetica" > 9</tspan></text>
	</g>
</g>
<g fill="none" color="black" stroke="currentColor" stroke-width="1.00" stroke-linecap="butt" stroke-linejoin="miter">
</g>
<g fill="none" color="black" stroke="currentColor" stroke-width="1.00" stroke-linecap="butt" stroke-linejoin="miter">
	<path stroke='black'  d='M55.3,54.1 L55.3,662.4 L1121.5,662.4 L1121.5,54.1 L55.3,54.1 Z  '/></g>
<g fill="none" color="black" stroke="currentColor" stroke-width="1.00" stroke-linecap="butt" stroke-linejoin="miter">
	<g transform="translate(16.3,358.3) rotate(270)" stroke="none" fill="black" font-family="Helvetica" font-size="12.00"  text-anchor="middle">
		<text><tspan font-family="Helvetica" >Density (a.u.)</tspan></text>
	</g>
</g>
<g fill="none" color="black" stroke="currentColor" stroke-width="1.00" stroke-linecap="butt" stroke-linejoin="miter">
	<g transform="translate(588.4,711.3)" stroke="none" fill="black" font-family="Helvetica" font-size="12.00"  text-anchor="middle">
		<text><tspan font-family="Helvetica" >Average time (us)</tspan></text>
	</g>
</g>
<g fill="none" color="black" stroke="currentColor" stroke-width="1.00" stroke-linecap="butt" stroke-linejoin="miter">
	<g transform="translate(588.4,31.0)" stroke="none" fill="black" font-family="Helvetica" font-size="12.00"  text-anchor="middle">
		<text><tspan font-family="Helvetica" >snapshot_restore_with_dense/Dense: Dirty pages + /proc/pid/mem/1</tspan></text>
	</g>
</g>
	<g id="gnuplot_plot_1" ><title>Base PDF</title>
<g fill="none" color="black" stroke="currentColor" stroke-width="1.00" stroke-linecap="butt" stroke-linejoin="miter">
	<g transform="translate(1196.9,67.0)" stroke="none" fill="black" font-family="Helvetica" font-size="12.00"  text-anchor="start">
		<text><tspan font-family="Helvetica" >Base PDF</tspan></text>
	</g>
</g>
<g fill="none" color="black" stroke="currentColor" stroke-width="1.00" stroke-linecap="butt" stroke-linejoin="miter">
	<g stroke='none' shape-rendering='crispEdges'>
		<polygon fill = 'rgb(227,  26,  28)' fill-opacity = '0.500000' points = '1146.4,67.6 1188.6,67.6 1188.6,58.6 1146.4,58.6 '/>
		<polygon fill = 'rgb(227,  26,  28)' fill-opacity = '0.500000' points = '587.7,662.3 588.6,662.3 589.5,662.3 590.4,662.3 591.3,662.3 592.2,662.2 593.1,662.2 594.0,662.2 594.9,662.1 595.8,662.1 596.7,662.0 597.6,662.0 598.5,661.9 599.4,661.8 600.3,661.8 601.2,661.7
602.1,661.6 603.0,661.4 603.9,661.3 604.8,661.1 605.7,661.0 606.6,660.8 607.5,660.5 608.4,660.3 609.3,660.0 610.2,659.7 611.2,659.3 612.1,658.9 613.0,658.4 613.9,657.9 614.8,657.3 615.7,656.7
616.6,655.9 617.5,655.1 618.4,654.2 619.3,653.2 620.2,652.1 621.1,650.8 622.0,649.4 622.9,647.9 623.8,646.2 624.7,644.3 625.6,642.3 626.5,640.0 627.4,637.5 628.3,634.8 629.2,631.8 630.1,628.5
631.0,625.0 631.9,621.2 632.8,617.0 633.7,612.5 634.6,607.6 635.5,602.3 636.4,596.7 637.3,590.6 638.2,584.1 639.1,577.2 640.0,569.9 640.9,562.1 641.8,553.8 642.7,545.0 643.6,535.8 644.5,526.1
645.4,516.0 646.3,505.4 647.2,494.3 648.1,482.9 649.0,471.0 649.9,458.7 650.8,446.1 651.7,433.1 652.6,419.9 653.5,406.4 654.4,392.7 655.3,378.8 656.2,364.8 657.1,350.8 658.0,336.8 658.9,322.8
659.8,309.0 660.7,295.3 661.6,282.0 662.5,268.9 663.4,256.2 664.3,244.0 665.2,232.4 666.1,221.3 667.0,210.8 667.9,201.1 668.8,192.1 669.7,184.0 670.6,176.8 671.5,170.4 672.4,165.0 673.3,160.6
674.2,157.2 675.1,154.9 676.1,153.6 677.0,153.3 677.9,154.1 678.8,156.0 679.7,158.9 680.6,162.8 681.5,167.7 682.4,173.5 683.3,180.3 684.2,188.0 685.1,196.5 686.0,205.7 686.9,215.8 687.8,226.4
688.7,237.7 689.6,249.5 690.5,261.8 691.4,274.5 692.3,287.5 693.2,300.9 694.1,314.4 695.0,328.0 695.9,341.8 696.8,355.6 697.7,369.3 698.6,382.9 699.5,396.4 700.4,409.7 701.3,422.8 702.2,435.6
703.1,448.1 704.0,460.2 704.9,471.9 705.8,483.3 706.7,494.2 707.6,504.7 708.5,514.7 709.4,524.3 710.3,533.5 711.2,542.1 712.1,550.3 713.0,558.1 713.9,565.4 714.8,572.2 715.7,578.6 716.6,584.6
717.5,590.2 718.4,595.4 719.3,600.2 720.2,604.7 721.1,608.8 722.0,612.7 722.9,616.2 723.8,619.4 724.7,622.4 725.6,625.1 726.5,627.6 727.4,629.9 728.3,632.0 729.2,633.9 730.1,635.7 731.0,637.3
731.9,638.8 732.8,640.2 733.7,641.5 734.6,642.6 735.5,643.7 736.4,644.7 737.3,645.6 738.2,646.5 739.1,647.3 740.1,648.1 741.0,648.8 741.9,649.5 742.8,650.2 743.7,650.8 744.6,651.4 745.5,652.0
746.4,652.5 747.3,653.0 748.2,653.5 749.1,654.0 750.0,654.5 750.9,655.0 751.8,655.4 752.7,655.8 753.6,656.2 754.5,656.6 755.4,657.0 756.3,657.4 757.2,657.7 758.1,658.0 759.0,658.4 759.9,658.7
760.8,658.9 761.7,659.2 762.6,659.5 763.5,659.7 764.4,659.9 765.3,660.1 766.2,660.3 767.1,660.5 768.0,660.7 768.9,660.8 769.8,661.0 770.7,661.1 771.6,661.2 772.5,661.3 773.4,661.4 774.3,661.5
775.2,661.6 776.1,661.7 777.0,661.7 777.9,661.8 778.8,661.8 779.7,661.9 780.6,661.9 781.5,661.9 782.4,661.9 783.3,662.0 784.2,661.9 785.1,661.9 786.0,661.9 786.9,661.9 787.8,661.9 788.7,661.8
789.6,661.8 790.5,661.7 791.4,661.7 792.3,661.6 793.2,661.5 794.1,661.4 795.0,661.3 795.9,661.2 796.8,661.1 797.7,660.9 798.6,660.8 799.5,660.6 800.4,660.4 801.3,660.3 802.2,660.1 803.1,659.9
804.0,659.6 805.0,659.4 805.9,659.1 806.8,658.9 807.7,658.6 808.6,658.3 809.5,658.0 810.4,657.7 811.3,657.4 812.2,657.1 813.1,656.7 814.0,656.4 814.9,656.0 815.8,655.7 816.7,655.3 817.6,655.0
818.5,654.6 819.4,654.3 820.3,653.9 821.2,653.6 822.1,653.2 823.0,652.9 823.9,652.6 824.8,652.3 825.7,652.0 826.6,651.7 827.5,651.4 828.4,651.2 829.3,651.0 830.2,650.7 831.1,650.6 832.0,650.4
832.9,650.3 833.8,650.1 834.7,650.1 835.6,650.0 836.5,649.9 837.4,649.9 838.3,649.9 839.2,649.9 840.1,650.0 841.0,650.0 841.9,650.1 842.8,650.2 843.7,650.3 844.6,650.4 845.5,650.6 846.4,650.7
847.3,650.8 848.2,651.0 849.1,651.2 850.0,651.3 850.9,651.5 851.8,651.7 852.7,651.9 853.6,652.1 854.5,652.2 855.4,652.4 856.3,652.6 857.2,652.7 858.1,652.9 859.0,653.1 859.9,653.2 860.8,653.3
861.7,653.5 862.6,653.6 863.5,653.8 864.4,653.9 865.3,654.0 866.2,654.2 867.1,654.3 868.0,654.4 868.9,654.5 869.9,654.6 870.8,654.8 871.7,654.9 872.6,655.0 873.5,655.2 874.4,655.3 875.3,655.4
876.2,655.6 877.1,655.7 878.0,655.9 878.9,656.0 879.8,656.2 880.7,656.4 881.6,656.5 882.5,656.7 883.4,656.9 884.3,657.1 885.2,657.3 886.1,657.5 887.0,657.6 887.9,657.8 888.8,658.0 889.7,658.2
890.6,658.4 891.5,658.6 892.4,658.8 893.3,659.0 894.2,659.2 895.1,659.4 896.0,659.5 896.9,659.7 897.8,659.9 898.7,660.0 899.6,660.2 900.5,660.4 901.4,660.5 902.3,660.6 903.2,660.8 904.1,660.9
905.0,661.0 905.9,661.1 906.8,661.2 907.7,661.3 908.6,661.4 909.5,661.5 910.4,661.6 911.3,661.7 912.2,661.7 913.1,661.8 914.0,661.9 914.9,661.9 915.8,662.0 916.7,662.0 917.6,662.1 918.5,662.1
919.4,662.1 920.3,662.2 921.2,662.2 922.1,662.2 923.0,662.2 923.9,662.2 924.8,662.2 925.7,662.2 926.6,662.3 927.5,662.3 928.4,662.3 929.3,662.3 930.2,662.3 931.1,662.2 932.0,662.2 932.9,662.2
933.9,662.2 934.8,662.2 935.7,662.2 936.6,662.1 937.5,662.1 938.4,662.1 939.3,662.0 940.2,662.0 941.1,661.9 942.0,661.9 942.9,661.8 943.8,661.8 944.7,661.7 945.6,661.6 946.5,661.6 947.4,661.5
948.3,661.4 949.2,661.3 950.1,661.2 951.0,661.1 951.9,661.0 952.8,660.8 953.7,660.7 954.6,660.6 955.5,660.4 956.4,660.3 957.3,660.1 958.2,660.0 959.1,659.8 960.0,659.7 960.9,659.5 961.8,659.3
962.7,659.1 963.6,659.0 964.5,658.8 965.4,658.6 966.3,658.4 967.2,658.3 968.1,658.1 969.0,657.9 969.9,657.8 970.8,657.6 971.7,657.5 972.6,657.3 973.5,657.2 974.4,657.1 975.3,657.0 976.2,656.9
977.1,656.8 978.0,656.7 978.9,656.6 979.8,656.6 980.7,656.5 981.6,656.5 982.5,656.5 983.4,656.5 984.3,656.5 985.2,656.6 986.1,656.6 987.0,656.7 987.9,656.8 988.8,656.8 989.7,656.9 990.6,657.1
991.5,657.2 992.4,657.3 993.3,657.4 994.2,657.6 995.1,657.7 996.0,657.9 996.9,658.1 997.8,658.2 998.8,658.4 999.7,658.6 1000.6,658.8 1001.5,658.9 1002.4,659.1 1003.3,659.3 1004.2,659.5 1005.1,659.6
1006.0,659.8 1006.9,660.0 1007.8,660.1 1008.7,660.3 1009.6,660.4 1010.5,660.6 1011.4,660.7 1012.3,660.8 1013.2,660.9 1014.1,661.1 1015.0,661.2 1015.9,661.3 1016.8,661.4 1017.7,661.5 1018.6,661.5 1019.5,661.6
1020.4,661.7 1021.3,661.8 1022.2,661.8 1023.1,661.9 1024.0,661.9 1024.9,662.0 1025.8,662.0 1026.7,662.1 1027.6,662.1 1028.5,662.1 1029.4,662.2 1030.3,662.2 1031.2,662.2 1032.1,662.2 1033.0,662.3 1033.9,662.3
1034.8,662.3 1035.7,662.3 1036.6,662.3 1037.5,662.3 1037.5,662.4 1036.6,662.4 1035.7,662.4 1034.8,662.4 1033.9,662.4 1033.0,662.4 1032.1,662.4 1031.2,662.4 1030.3,662.4 1029.4,662.4 1028.5,662.4 1027.6,662.4
1026.7,662.4 1025.8,662.4 1024.9,662.4 1024.0,662.4 1023.1,662.4 1022.2,662.4 1021.3,662.4 1020.4,662.4 1019.5,662.4 1018.6,662.4 1017.7,662.4 1016.8,662.4 1015.9,662.4 1015.0,662.4 1014.1,662.4 1013.2,662.4
1012.3,662.4 1011.4,662.4 1010.5,662.4 1009.6,662.4 1008.7,662.4 1007.8,662.4 1006.9,662.4 1006.0,662.4 1005.1,662.4 1004.2,662.4 1003.3,662.4 1002.4,662.4 1001.5,662.4 1000.6,662.4 999.7,662.4 998.8,662.4
997.8,662.4 996.9,662.4 996.0,662.4 995.1,662.4 994.2,662.4 993.3,662.4 992.4,662.4 991.5,662.4 990.6,662.4 989.7,662.4 988.8,662.4 987.9,662.4 987.0,662.4 986.1,662.4 985.2,662.4 984.3,662.4
983.4,662.4 982.5,662.4 981.6,662.4 980.7,662.4 979.8,662.4 978.9,662.4 978.0,662.4 977.1,662.4 976.2,662.4 975.3,662.4 974.4,662.4 973.5,662.4 972.6,662.4 971.7,662.4 970.8,662.4 969.9,662.4
969.0,662.4 968.1,662.4 967.2,662.4 966.3,662.4 965.4,662.4 964.5,662.4 963.6,662.4 962.7,662.4 961.8,662.4 960.9,662.4 960.0,662.4 959.1,662.4 958.2,662.4 957.3,662.4 956.4,662.4 955.5,662.4
954.6,662.4 953.7,662.4 952.8,662.4 951.9,662.4 951.0,662.4 950.1,662.4 949.2,662.4 948.3,662.4 947.4,662.4 946.5,662.4 945.6,662.4 944.7,662.4 943.8,662.4 942.9,662.4 942.0,662.4 941.1,662.4
940.2,662.4 939.3,662.4 938.4,662.4 937.5,662.4 936.6,662.4 935.7,662.4 934.8,662.4 933.9,662.4 932.9,662.4 932.0,662.4 931.1,662.4 930.2,662.4 929.3,662.4 928.4,662.4 927.5,662.4 926.6,662.4
925.7,662.4 924.8,662.4 923.9,662.4 923.0,662.4 922.1,662.4 921.2,662.4 920.3,662.4 919.4,662.4 918.5,662.4 917.6,662.4 916.7,662.4 915.8,662.4 914.9,662.4 914.0,662.4 913.1,662.4 912.2,662.4
911.3,662.4 910.4,662.4 909.5,662.4 908.6,662.4 907.7,662.4 906.8,662.4 905.9,662.4 905.0,662.4 904.1,662.4 903.2,662.4 902.3,662.4 901.4,662.4 900.5,662.4 899.6,662.4 898.7,662.4 897.8,662.4
896.9,662.4 896.0,662.4 895.1,662.4 894.2,662.4 893.3,662.4 892.4,662.4 891.5,662.4 890.6,662.4 889.7,662.4 888.8,662.4 887.9,662.4 887.0,662.4 886.1,662.4 885.2,662.4 884.3,662.4 883.4,662.4
882.5,662.4 881.6,662.4 880.7,662.4 879.8,662.4 878.9,662.4 878.0,662.4 877.1,662.4 876.2,662.4 875.3,662.4 874.4,662.4 873.5,662.4 872.6,662.4 871.7,662.4 870.8,662.4 869.9,662.4 868.9,662.4
868.0,662.4 867.1,662.4 866.2,662.4 865.3,662.4 864.4,662.4 863.5,662.4 862.6,662.4 861.7,662.4 860.8,662.4 859.9,662.4 859.0,662.4 858.1,662.4 857.2,662.4 856.3,662.4 855.4,662.4 854.5,662.4
853.6,662.4 852.7,662.4 851.8,662.4 850.9,662.4 850.0,662.4 849.1,662.4 848.2,662.4 847.3,662.4 846.4,662.4 845.5,662.4 844.6,662.4 843.7,662.4 842.8,662.4 841.9,662.4 841.0,662.4 840.1,662.4
839.2,662.4 838.3,662.4 837.4,662.4 836.5,662.4 835.6,662.4 834.7,662.4 833.8,662.4 832.9,662.4 832.0,662.4 831.1,662.4 830.2,662.4 829.3,662.4 828.4,662.4 827.5,662.4 826.6,662.4 825.7,662.4
824.8,662.4 823.9,662.4 823.0,662.4 822.1,662.4 821.2,662.4 820.3,662.4 819.4,662.4 818.5,662.4 817.6,662.4 816.7,662.4 815.8,662.4 814.9,662.4 814.0,662.4 813.1,662.4 812.2,662.4 811.3,662.4
810.4,662.4 809.5,662.4 808.6,662.4 807.7,662.4 806.8,662.4 805.9,662.4 805.0,662.4 804.0,662.4 803.1,662.4 802.2,662.4 801.3,662.4 800.4,662.4 799.5,662.4 798.6,662.4 797.7,662.4 796.8,662.4
795.9,662.4 795.0,662.4 794.1,662.4 793.2,662.4 792.3,662.4 791.4,662.4 790.5,662.4 789.6,662.4 788.7,662.4 787.8,662.4 786.9,662.4 786.0,662.4 785.1,662.4 784.2,662.4 783.3,662.4 782.4,662.4
781.5,662.4 780.6,662.4 779.7,662.4 778.8,662.4 777.9,662.4 777.0,662.4 776.1,662.4 775.2,662.4 774.3,662.4 773.4,662.4 772.5,662.4 771.6,662.4 770.7,662.4 769.8,662.4 768.9,662.4 768.0,662.4
767.1,662.4 766.2,662.4 765.3,662.4 764.4,662.4 763.5,662.4 762.6,662.4 761.7,662.4 760.8,662.4 759.9,662.4 759.0,662.4 758.1,662.4 757.2,662.4 756.3,662.4 755.4,662.4 754.5,662.4 753.6,662.4
752.7,662.4 751.8,662.4 750.9,662.4 750.0,662.4 749.1,662.4 748.2,662.4 747.3,662.4 746.4,662.4 745.5,662.4 744.6,662.4 743.7,662.4 742.8,662.4 741.9,662.4 741.0,662.4 740.1,662.4 739.1,662.4
738.2,662.4 737.3,662.4 736.4,662.4 735.5,662.4 734.6,662.4 733.7,662.4 732.8,662.4 731.9,662.4 731.0,662.4 730.1,662.4 729.2,662.4 728.3,662.4 727.4,662.4 726.5,662.4 725.6,662.4 724.7,662.4
723.8,662.4 722.9,662.4 722.0,662.4 721.1,662.4 720.2,662.4 719.3,662.4 718.4,662.4 717.5,662.4 716.6,662.4 715.7,662.4 714.8,662.4 713.9,662.4 713.0,662.4 712.1,662.4 711.2,662.4 710.3,662.4
709.4,662.4 708.5,662.4 707.6,662.4 706.7,662.4 705.8,662.4 704.9,662.4 704.0,662.4 703.1,662.4 702.2,662.4 701.3,662.4 700.4,662.4 699.5,662.4 698.6,662.4 697.7,662.4 696.8,662.4 695.9,662.4
695.0,662.4 694.1,662.4 693.2,662.4 692.3,662.4 691.4,662.4 690.5,662.4 689.6,662.4 688.7,662.4 687.8,662.4 686.9,662.4 686.0,662.4 685.1,662.4 684.2,662.4 683.3,662.4 682.4,662.4 681.5,662.4
680.6,662.4 679.7,662.4 678.8,662.4 677.9,662.4 677.0,662.4 676.1,662.4 675.1,662.4 674.2,662.4 673.3,662.4 672.4,662.4 671.5,662.4 670.6,662.4 669.7,662.4 668.8,662.4 667.9,662.4 667.0,662.4
666.1,662.4 665.2,662.4 664.3,662.4 663.4,662.4 662.5,662.4 661.6,662.4 660.7,662.4 659.8,662.4 658.9,662.4 658.0,662.4 657.1,662.4 656.2,662.4 655.3,662.4 654.4,662.4 653.5,662.4 652.6,662.4
651.7,662.4 650.8,662.4 649.9,662.4 649.0,662.4 648.1,662.4 647.2,662.4 646.3,662.4 645.4,662.4 644.5,662.4 643.6,662.4 642.7,662.4 641.8,662.4 640.9,662.4 640.0,662.4 639.1,662.4 638.2,662.4
637.3,662.4 636.4,662.4 635.5,662.4 634.6,662.4 633.7,662.4 632.8,662.4 631.9,662.4 631.0,662.4 630.1,662.4 629.2,662.4 628.3,662.4 627.4,662.4 626.5,662.4 625.6,662.4 624.7,662.4 623.8,662.4
622.9,662.4 622.0,662.4 621.1,662.4 620.2,662.4 619.3,662.4 618.4,662.4 617.5,662.4 616.6,662.4 615.7,662.4 614.8,662.4 613.9,662.4 613.0,662.4 612.1,662.4 611.2,662.4 610.2,662.4 609.3,662.4
608.4,662.4 607.5,662.4 606.6,662.4 605.7,662.4 604.8,662.4 603.9,662.4 603.0,662.4 602.1,662.4 601.2,662.4 600.3,662.4 599.4,662.4 598.5,662.4 597.6,662.4 596.7,662.4 595.8,662.4 594.9,662.4
594.0,662.4 593.1,662.4 592.2,662.4 591.3,662.4 590.4,662.4 589.5,662.4 588.6,662.4 587.7,662.4 '/>
	</g>
</g>
	</g>
	<g id="gnuplot_plot_2" ><title>Base Mean</title>
<g fill="none" color="white" stroke="rgb(227,  26,  28)" stroke-width="2.00" stroke-linecap="butt" stroke-linejoin="miter">
</g>
<g fill="none" color="black" stroke="currentColor" stroke-width="2.00" stroke-linecap="butt" stroke-linejoin="miter">
	<g transform="translate(1196.9,85.0)" stroke="none" fill="black" font-family="Helvetica" font-size="12.00"  text-anchor="start">
		<text><tspan font-family="Helvetica" >Base Mean</tspan></text>
	</g>
</g>
<g fill="none" color="black" stroke="currentColor" stroke-width="2.00" stroke-linecap="butt" stroke-linejoin="miter">
	<path stroke='rgb(227,  26,  28)'  d='M1146.4,81.1 L1188.6,81.1 M686.0,662.4 L686.0,206.3  '/></g>
	</g>
	<g id="gnuplot_plot_3" ><title>New PDF</title>
<g fill="none" color="white" stroke="rgb(227,  26,  28)" stroke-width="1.00" stroke-linecap="butt" stroke-linejoin="miter">
</g>
<g fill="none" color="black" stroke="currentColor" stroke-width="1.00" stroke-linecap="butt" stroke-linejoin="miter">
	<g transform="translate(1196.9,103.0)" stroke="none" fill="black" font-family="Helvetica" font-size="12.00"  text-anchor="start">
		<text><tspan font-family="Helvetica" >New PDF</tspan></text>
	</g>
</g>
<g fill="none" color="black" stroke="currentColor" stroke-width="1.00" stroke-linecap="butt" stroke-linejoin="miter">
	<g stroke='none' shape-rendering='crispEdges'>
		<polygon fill = 'rgb( 31, 120, 180)' fill-opacity = '0.500000' points = '1146.4,103.6 1188.6,103.6 1188.6,94.6 1146.4,94.6 '/>
		<polygon fill = 'rgb( 31, 120, 180)' fill-opacity = '0.500000' points = '187.8,661.6 188.6,661.5 189.4,661.4 190.1,661.2 190.9,661.1 191.6,660.9 192.4,660.6 193.2,660.4 193.9,660.1 194.7,659.7 195.5,659.3 196.2,658.9 197.0,658.4 197.7,657.9 198.5,657.3 199.3,656.6
200.0,655.9 200.8,655.0 201.5,654.1 202.3,653.1 203.1,651.9 203.8,650.7 204.6,649.3 205.4,647.7 206.1,646.1 206.9,644.2 207.6,642.2 208.4,640.0 209.2,637.6 209.9,634.9 210.7,632.1 211.4,629.0
212.2,625.6 213.0,622.0 213.7,618.1 214.5,613.9 215.3,609.4 216.0,604.6 216.8,599.4 217.5,593.9 218.3,588.1 219.1,581.9 219.8,575.3 220.6,568.3 221.3,560.9 222.1,553.2 222.9,545.0 223.6,536.4
224.4,527.5 225.2,518.1 225.9,508.4 226.7,498.3 227.4,487.8 228.2,476.9 229.0,465.7 229.7,454.2 230.5,442.4 231.3,430.3 232.0,417.9 232.8,405.3 233.5,392.5 234.3,379.5 235.1,366.4 235.8,353.3
236.6,340.0 237.3,326.8 238.1,313.6 238.9,300.5 239.6,287.5 240.4,274.7 241.2,262.1 241.9,249.8 242.7,237.8 243.4,226.3 244.2,215.1 245.0,204.4 245.7,194.3 246.5,184.7 247.2,175.7 248.0,167.4
248.8,159.7 249.5,152.8 250.3,146.7 251.1,141.3 251.8,136.8 252.6,133.0 253.3,130.2 254.1,128.2 254.9,127.1 255.6,126.8 256.4,127.5 257.1,129.0 257.9,131.4 258.7,134.7 259.4,138.7 260.2,143.6
261.0,149.3 261.7,155.8 262.5,163.0 263.2,170.9 264.0,179.4 264.8,188.6 265.5,198.4 266.3,208.6 267.0,219.4 267.8,230.6 268.6,242.2 269.3,254.1 270.1,266.4 270.9,278.8 271.6,291.5 272.4,304.3
273.1,317.2 273.9,330.1 274.7,343.1 275.4,356.0 276.2,368.8 276.9,381.6 277.7,394.1 278.5,406.5 279.2,418.7 280.0,430.6 280.8,442.2 281.5,453.6 282.3,464.6 283.0,475.3 283.8,485.6 284.6,495.6
285.3,505.2 286.1,514.5 286.8,523.3 287.6,531.8 288.4,539.8 289.1,547.5 289.9,554.8 290.7,561.7 291.4,568.2 292.2,574.4 292.9,580.2 293.7,585.7 294.5,590.8 295.2,595.6 296.0,600.1 296.7,604.3
297.5,608.2 298.3,611.9 299.0,615.3 299.8,618.4 300.6,621.3 301.3,624.0 302.1,626.5 302.8,628.8 303.6,630.9 304.4,632.9 305.1,634.7 305.9,636.4 306.6,637.9 307.4,639.3 308.2,640.6 308.9,641.8
309.7,643.0 310.5,644.0 311.2,645.0 312.0,645.9 312.7,646.7 313.5,647.5 314.3,648.2 315.0,648.9 315.8,649.5 316.5,650.1 317.3,650.7 318.1,651.2 318.8,651.8 319.6,652.2 320.4,652.7 321.1,653.2
321.9,653.6 322.6,654.0 323.4,654.4 324.2,654.8 324.9,655.1 325.7,655.5 326.5,655.8 327.2,656.2 328.0,656.5 328.7,656.8 329.5,657.1 330.3,657.3 331.0,657.6 331.8,657.8 332.5,658.1 333.3,658.3
334.1,658.5 334.8,658.7 335.6,658.9 336.4,659.0 337.1,659.2 337.9,659.3 338.6,659.4 339.4,659.5 340.2,659.6 340.9,659.7 341.7,659.8 342.4,659.8 343.2,659.8 344.0,659.9 344.7,659.8 345.5,659.8
346.3,659.8 347.0,659.7 347.8,659.7 348.5,659.6 349.3,659.5 350.1,659.3 350.8,659.2 351.6,659.0 352.3,658.9 353.1,658.7 353.9,658.5 354.6,658.2 355.4,658.0 356.2,657.7 356.9,657.4 357.7,657.1
358.4,656.8 359.2,656.5 360.0,656.2 360.7,655.8 361.5,655.4 362.2,655.1 363.0,654.7 363.8,654.3 364.5,653.9 365.3,653.5 366.1,653.0 366.8,652.6 367.6,652.2 368.3,651.8 369.1,651.3 369.9,650.9
370.6,650.5 371.4,650.0 372.1,649.6 372.9,649.2 373.7,648.8 374.4,648.4 375.2,648.0 376.0,647.7 376.7,647.3 377.5,647.0 378.2,646.7 379.0,646.4 379.8,646.1 380.5,645.9 381.3,645.7 382.0,645.5
382.8,645.3 383.6,645.2 384.3,645.1 385.1,645.0 385.9,644.9 386.6,644.9 387.4,644.9 388.1,645.0 388.9,645.0 389.7,645.1 390.4,645.2 391.2,645.4 391.9,645.6 392.7,645.8 393.5,646.0 394.2,646.3
395.0,646.5 395.8,646.8 396.5,647.2 397.3,647.5 398.0,647.9 398.8,648.2 399.6,648.6 400.3,649.0 401.1,649.4 401.8,649.8 402.6,650.2 403.4,650.7 404.1,651.1 404.9,651.5 405.7,652.0 406.4,652.4
407.2,652.8 407.9,653.3 408.7,653.7 409.5,654.1 410.2,654.5 411.0,654.9 411.7,655.3 412.5,655.7 413.3,656.1 414.0,656.5 414.8,656.8 415.6,657.1 416.3,657.5 417.1,657.8 417.8,658.1 418.6,658.4
419.4,658.7 420.1,658.9 420.9,659.2 421.7,659.4 422.4,659.6 423.2,659.8 423.9,660.0 424.7,660.2 425.5,660.4 426.2,660.6 427.0,660.7 427.7,660.9 428.5,661.0 429.3,661.1 430.0,661.2 430.8,661.3
431.6,661.4 432.3,661.5 433.1,661.6 433.8,661.7 434.6,661.8 435.4,661.8 436.1,661.9 436.9,661.9 437.6,662.0 438.4,662.0 439.2,662.1 439.9,662.1 440.7,662.1 441.5,662.2 442.2,662.2 443.0,662.2
443.7,662.2 444.5,662.2 445.3,662.3 446.0,662.3 446.8,662.3 447.5,662.3 448.3,662.3 449.1,662.3 449.8,662.3 450.6,662.3 451.4,662.3 452.1,662.3 452.9,662.3 453.6,662.3 454.4,662.3 455.2,662.2
455.9,662.2 456.7,662.2 457.4,662.2 458.2,662.2 459.0,662.1 459.7,662.1 460.5,662.1 461.3,662.0 462.0,662.0 462.8,661.9 463.5,661.9 464.3,661.8 465.1,661.8 465.8,661.7 466.6,661.7 467.3,661.6
468.1,661.5 468.9,661.4 469.6,661.3 470.4,661.2 471.2,661.1 471.9,661.0 472.7,660.9 473.4,660.7 474.2,660.6 475.0,660.4 475.7,660.3 476.5,660.1 477.2,659.9 478.0,659.8 478.8,659.6 479.5,659.4
480.3,659.2 481.1,658.9 481.8,658.7 482.6,658.5 483.3,658.2 484.1,658.0 484.9,657.7 485.6,657.5 486.4,657.2 487.1,656.9 487.9,656.6 488.7,656.3 489.4,656.0 490.2,655.8 491.0,655.5 491.7,655.2
492.5,654.9 493.2,654.6 494.0,654.3 494.8,654.0 495.5,653.7 496.3,653.5 497.0,653.2 497.8,652.9 498.6,652.7 499.3,652.5 500.1,652.2 500.9,652.0 501.6,651.8 502.4,651.6 503.1,651.5 503.9,651.3
504.7,651.2 505.4,651.0 506.2,650.9 506.9,650.9 507.7,650.8 508.5,650.7 509.2,650.7 510.0,650.7 510.8,650.7 511.5,650.8 512.3,650.8 513.0,650.9 513.8,651.0 514.6,651.1 515.3,651.2 516.1,651.4
516.9,651.5 517.6,651.7 518.4,651.9 519.1,652.1 519.9,652.3 520.7,652.6 521.4,652.8 522.2,653.1 522.9,653.3 523.7,653.6 524.5,653.9 525.2,654.2 526.0,654.4 526.8,654.7 527.5,655.0 528.3,655.3
529.0,655.6 529.8,655.9 530.6,656.2 531.3,656.5 532.1,656.8 532.8,657.0 533.6,657.3 534.4,657.6 535.1,657.8 535.9,658.1 536.7,658.3 537.4,658.6 538.2,658.8 538.9,659.0 539.7,659.3 540.5,659.5
541.2,659.7 542.0,659.8 542.7,660.0 543.5,660.2 544.3,660.4 545.0,660.5 545.8,660.7 546.6,660.8 547.3,660.9 548.1,661.0 548.8,661.2 549.6,661.3 550.4,661.4 551.1,661.5 551.9,661.5 552.6,661.6
553.4,661.7 554.2,661.8 554.9,661.8 555.7,661.9 556.5,661.9 557.2,662.0 558.0,662.0 558.7,662.1 559.5,662.1 560.3,662.1 561.0,662.2 561.8,662.2 562.5,662.2 563.3,662.2 564.1,662.2 564.8,662.3
565.6,662.3 566.4,662.3 567.1,662.3 567.9,662.3 567.9,662.4 567.1,662.4 566.4,662.4 565.6,662.4 564.8,662.4 564.1,662.4 563.3,662.4 562.5,662.4 561.8,662.4 561.0,662.4 560.3,662.4 559.5,662.4
558.7,662.4 558.0,662.4 557.2,662.4 556.5,662.4 555.7,662.4 554.9,662.4 554.2,662.4 553.4,662.4 552.6,662.4 551.9,662.4 551.1,662.4 550.4,662.4 549.6,662.4 548.8,662.4 548.1,662.4 547.3,662.4
546.6,662.4 545.8,662.4 545.0,662.4 544.3,662.4 543.5,662.4 542.7,662.4 542.0,662.4 541.2,662.4 540.5,662.4 539.7,662.4 538.9,662.4 538.2,662.4 537.4,662.4 536.7,662.4 535.9,662.4 535.1,662.4
534.4,662.4 533.6,662.4 532.8,662.4 532.1,662.4 531.3,662.4 530.6,662.4 529.8,662.4 529.0,662.4 528.3,662.4 527.5,662.4 526.8,662.4 526.0,662.4 525.2,662.4 524.5,662.4 523.7,662.4 522.9,662.4
522.2,662.4 521.4,662.4 520.7,662.4 519.9,662.4 519.1,662.4 518.4,662.4 517.6,662.4 516.9,662.4 516.1,662.4 515.3,662.4 514.6,662.4 513.8,662.4 513.0,662.4 512.3,662.4 511.5,662.4 510.8,662.4
510.0,662.4 509.2,662.4 508.5,662.4 507.7,662.4 506.9,662.4 506.2,662.4 505.4,662.4 504.7,662.4 503.9,662.4 503.1,662.4 502.4,662.4 501.6,662.4 500.9,662.4 500.1,662.4 499.3,662.4 498.6,662.4
497.8,662.4 497.0,662.4 496.3,662.4 495.5,662.4 494.8,662.4 494.0,662.4 493.2,662.4 492.5,662.4 491.7,662.4 491.0,662.4 490.2,662.4 489.4,662.4 488.7,662.4 487.9,662.4 487.1,662.4 486.4,662.4
485.6,662.4 484.9,662.4 484.1,662.4 483.3,662.4 482.6,662.4 481.8,662.4 481.1,662.4 480.3,662.4 479.5,662.4 478.8,662.4 478.0,662.4 477.2,662.4 476.5,662.4 475.7,662.4 475.0,662.4 474.2,662.4
473.4,662.4 472.7,662.4 471.9,662.4 471.2,662.4 470.4,662.4 469.6,662.4 468.9,662.4 468.1,662.4 467.3,662.4 466.6,662.4 465.8,662.4 465.1,662.4 464.3,662.4 463.5,662.4 462.8,662.4 462.0,662.4
461.3,662.4 460.5,662.4 459.7,662.4 459.0,662.4 458.2,662.4 457.4,662.4 456.7,662.4 455.9,662.4 455.2,662.4 454.4,662.4 453.6,662.4 452.9,662.4 452.1,662.4 451.4,662.4 450.6,662.4 449.8,662.4
449.1,662.4 448.3,662.4 447.5,662.4 446.8,662.4 446.0,662.4 445.3,662.4 444.5,662.4 443.7,662.4 443.0,662.4 442.2,662.4 441.5,662.4 440.7,662.4 439.9,662.4 439.2,662.4 438.4,662.4 437.6,662.4
436.9,662.4 436.1,662.4 435.4,662.4 434.6,662.4 433.8,662.4 433.1,662.4 432.3,662.4 431.6,662.4 430.8,662.4 430.0,662.4 429.3,662.4 428.5,662.4 427.7,662.4 427.0,662.4 426.2,662.4 425.5,662.4
424.7,662.4 423.9,662.4 423.2,662.4 422.4,662.4 421.7,662.4 420.9,662.4 420.1,662.4 419.4,662.4 418.6,662.4 417.8,662.4 417.1,662.4 416.3,662.4 415.6,662.4 414.8,662.4 414.0,662.4 413.3,662.4
412.5,662.4 411.7,662.4 411.0,662.4 410.2,662.4 409.5,662.4 408.7,662.4 407.9,662.4 407.2,662.4 406.4,662.4 405.7,662.4 404.9,662.4 404.1,662.4 403.4,662.4 402.6,662.4 401.8,662.4 401.1,662.4
400.3,662.4 399.6,662.4 398.8,662.4 398.0,662.4 397.3,662.4 396.5,662.4 395.8,662.4 395.0,662.4 394.2,662.4 393.5,662.4 392.7,662.4 391.9,662.4 391.2,662.4 390.4,662.4 389.7,662.4 388.9,662.4
388.1,662.4 387.4,662.4 386.6,662.4 385.9,662.4 385.1,662.4 384.3,662.4 383.6,662.4 382.8,662.4 382.0,662.4 381.3,662.4 380.5,662.4 379.8,662.4 379.0,662.4 378.2,662.4 377.5,662.4 376.7,662.4
376.0,662.4 375.2,662.4 374.4,662.4 373.7,662.4 372.9,662.4 372.1,662.4 371.4,662.4 370.6,662.4 369.9,662.4 369.1,662.4 368.3,662.4 367.6,662.4 366.8,662.4 366.1,662.4 365.3,662.4 364.5,662.4
363.8,662.4 363.0,662.4 362.2,662.4 361.5,662.4 360.7,662.4 360.0,662.4 359.2,662.4 358.4,662.4 357.7,662.4 356.9,662.4 356.2,662.4 355.4,662.4 354.6,662.4 353.9,662.4 353.1,662.4 352.3,662.4
351.6,662.4 350.8,662.4 350.1,662.4 349.3,662.4 348.5,662.4 347.8,662.4 347.0,662.4 346.3,662.4 345.5,662.4 344.7,662.4 344.0,662.4 343.2,662.4 342.4,662.4 341.7,662.4 340.9,662.4 340.2,662.4
339.4,662.4 338.6,662.4 337.9,662.4 337.1,662.4 336.4,662.4 335.6,662.4 334.8,662.4 334.1,662.4 333.3,662.4 332.5,662.4 331.8,662.4 331.0,662.4 330.3,662.4 329.5,662.4 328.7,662.4 328.0,662.4
327.2,662.4 326.5,662.4 325.7,662.4 324.9,662.4 324.2,662.4 323.4,662.4 322.6,662.4 321.9,662.4 321.1,662.4 320.4,662.4 319.6,662.4 318.8,662.4 318.1,662.4 317.3,662.4 316.5,662.4 315.8,662.4
315.0,662.4 314.3,662.4 313.5,662.4 312.7,662.4 312.0,662.4 311.2,662.4 310.5,662.4 309.7,662.4 308.9,662.4 308.2,662.4 307.4,662.4 306.6,662.4 305.9,662.4 305.1,662.4 304.4,662.4 303.6,662.4
302.8,662.4 302.1,662.4 301.3,662.4 300.6,662.4 299.8,662.4 299.0,662.4 298.3,662.4 297.5,662.4 296.7,662.4 296.0,662.4 295.2,662.4 294.5,662.4 293.7,662.4 292.9,662.4 292.2,662.4 291.4,662.4
290.7,662.4 289.9,662.4 289.1,662.4 288.4,662.4 287.6,662.4 286.8,662.4 286.1,662.4 285.3,662.4 284.6,662.4 283.8,662.4 283.0,662.4 282.3,662.4 281.5,662.4 280.8,662.4 280.0,662.4 279.2,662.4
278.5,662.4 277.7,662.4 276.9,662.4 276.2,662.4 275.4,662.4 274.7,662.4 273.9,662.4 273.1,662.4 272.4,662.4 271.6,662.4 270.9,662.4 270.1,662.4 269.3,662.4 268.6,662.4 267.8,662.4 267.0,662.4
266.3,662.4 265.5,662.4 264.8,662.4 264.0,662.4 263.2,662.4 262.5,662.4 261.7,662.4 261.0,662.4 260.2,662.4 259.4,662.4 258.7,662.4 257.9,662.4 257.1,662.4 256.4,662.4 255.6,662.4 254.9,662.4
254.1,662.4 253.3,662.4 252.6,662.4 251.8,662.4 251.1,662.4 250.3,662.4 249.5,662.4 248.8,662.4 248.0,662.4 247.2,662.4 246.5,662.4 245.7,662.4 245.0,662.4 244.2,662.4 243.4,662.4 242.7,662.4
241.9,662.4 241.2,662.4 240.4,662.4 239.6,662.4 238.9,662.4 238.1,662.4 237.3,662.4 236.6,662.4 235.8,662.4 235.1,662.4 234.3,662.4 233.5,662.4 232.8,662.4 232.0,662.4 231.3,662.4 230.5,662.4
229.7,662.4 229.0,662.4 228.2,662.4 227.4,662.4 226.7,662.4 225.9,662.4 225.2,662.4 224.4,662.4 223.6,662.4 222.9,662.4 222.1,662.4 221.3,662.4 220.6,662.4 219.8,662.4 219.1,662.4 218.3,662.4
217.5,662.4 216.8,662.4 216.0,662.4 215.3,662.4 214.5,662.4 213.7,662.4 213.0,662.4 212.2,662.4 211.4,662.4 210.7,662.4 209.9,662.4 209.2,662.4 208.4,662.4 207.6,662.4 206.9,662.4 206.1,662.4
205.4,662.4 204.6,662.4 203.8,662.4 203.1,662.4 202.3,662.4 201.5,662.4 200.8,662.4 200.0,662.4 199.3,662.4 198.5,662.4 197.7,662.4 197.0,662.4 196.2,662.4 195.5,662.4 194.7,662.4 193.9,662.4
193.2,662.4 192.4,662.4 191.6,662.4 190.9,662.4 190.1,662.4 189.4,662.4 188.6,662.4 187.8,662.4 '/>
	</g>
</g>
	</g>
	<g id="gnuplot_plot_4" ><title>New Mean</title>
<g fill="none" color="white" stroke="rgb( 31, 120, 180)" stroke-width="2.00" stroke-linecap="butt" stroke-linejoin="miter">
</g>
<g fill="none" color="black" stroke="currentColor" stroke-width="2.00" stroke-linecap="butt" stroke-linejoin="miter">
	<g transform="translate(1196.9,121.0)" stroke="none" fill="black" font-family="Helvetica" font-size="12.00"  text-anchor="start">
		<text><tspan font-family="Helvetica" >New Mean</tspan></text>
	</g>
</g>
<g fill="none" color="black" stroke="currentColor" stroke-width="2.00" stroke-linecap="butt" stroke-linejoin="miter">
	<path stroke='rgb( 31, 120, 180)'  d='M1146.4,117.1 L1188.6,117.1 M265.5,662.4 L265.5,198.3  '/></g>
	</g>
<g fill="none" color="black" stroke="currentColor" stroke-width="2.00" stroke-linecap="butt" stroke-linejoin="miter">
</g>
<g fill="none" color="black" stroke="black" stroke-width="1.00" stroke-linecap="butt" stroke-linejoin="miter">
</g>
<g fill="none" color="black" stroke="currentColor" stroke-width="1.00" stroke-linecap="butt" stroke-linejoin="miter">
	<path stroke='black'  d='M55.3,54.1 L55.3,662.4 L1121.5,662.4 L1121.5,54.1 L55.3,54.1 Z  '/></g>
<g fill="none" color="black" stroke="currentColor" stroke-width="1.00" stroke-linecap="butt" stroke-linejoin="miter">
</g>
</g>
</svg>

