group,function,value,throughput_num,throughput_type,sample_measured_value,unit,iteration_count
perf,instruction_and_branch_counters,,,,1356262.0,ns,3
perf,instruction_and_branch_counters,,,,2633446.0,ns,6
perf,instruction_and_branch_counters,,,,3941317.0,ns,9
perf,instruction_and_branch_counters,,,,5253255.0,ns,12
perf,instruction_and_branch_counters,,,,6573658.0,ns,15
perf,instruction_and_branch_counters,,,,7883920.0,ns,18
perf,instruction_and_branch_counters,,,,9197607.0,ns,21
perf,instruction_and_branch_counters,,,,10528644.0,ns,24
perf,instruction_and_branch_counters,,,,11950997.0,ns,27
perf,instruction_and_branch_counters,,,,13182791.0,ns,30
perf,instruction_and_branch_counters,,,,14467099.0,ns,33
perf,instruction_and_branch_counters,,,,15786083.0,ns,36
perf,instruction_and_branch_counters,,,,17090928.0,ns,39
perf,instruction_and_branch_counters,,,,18465802.0,ns,42
perf,instruction_and_branch_counters,,,,19756813.0,ns,45
perf,instruction_and_branch_counters,,,,21060032.0,ns,48
perf,instruction_and_branch_counters,,,,22282242.0,ns,51
perf,instruction_and_branch_counters,,,,23632792.0,ns,54
perf,instruction_and_branch_counters,,,,24992466.0,ns,57
perf,instruction_and_branch_counters,,,,25987443.0,ns,60
perf,instruction_and_branch_counters,,,,27185062.0,ns,63
perf,instruction_and_branch_counters,,,,28574598.0,ns,66
perf,instruction_and_branch_counters,,,,29764800.0,ns,69
perf,instruction_and_branch_counters,,,,55092258.0,ns,72
perf,instruction_and_branch_counters,,,,38745472.0,ns,75
perf,instruction_and_branch_counters,,,,34216520.0,ns,78
perf,instruction_and_branch_counters,,,,35497983.0,ns,81
perf,instruction_and_branch_counters,,,,36849586.0,ns,84
perf,instruction_and_branch_counters,,,,38173800.0,ns,87
perf,instruction_and_branch_counters,,,,39093431.0,ns,90
perf,instruction_and_branch_counters,,,,40075915.0,ns,93
perf,instruction_and_branch_counters,,,,41623233.0,ns,96
perf,instruction_and_branch_counters,,,,42949309.0,ns,99
perf,instruction_and_branch_counters,,,,44117977.0,ns,102
perf,instruction_and_branch_counters,,,,45516558.0,ns,105
perf,instruction_and_branch_counters,,,,46749928.0,ns,108
perf,instruction_and_branch_counters,,,,47866700.0,ns,111
perf,instruction_and_branch_counters,,,,49255593.0,ns,114
perf,instruction_and_branch_counters,,,,50583155.0,ns,117
perf,instruction_and_branch_counters,,,,56129588.0,ns,120
perf,instruction_and_branch_counters,,,,53631078.0,ns,123
perf,instruction_and_branch_counters,,,,54987694.0,ns,126
perf,instruction_and_branch_counters,,,,56308412.0,ns,129
perf,instruction_and_branch_counters,,,,57568037.0,ns,132
perf,instruction_and_branch_counters,,,,58906368.0,ns,135
perf,instruction_and_branch_counters,,,,96314517.0,ns,138
perf,instruction_and_branch_counters,,,,61556869.0,ns,141
perf,instruction_and_branch_counters,,,,62845951.0,ns,144
perf,instruction_and_branch_counters,,,,64208290.0,ns,147
perf,instruction_and_branch_counters,,,,65488652.0,ns,150
perf,instruction_and_branch_counters,,,,66756251.0,ns,153
perf,instruction_and_branch_counters,,,,68054684.0,ns,156
perf,instruction_and_branch_counters,,,,69415364.0,ns,159
perf,instruction_and_branch_counters,,,,70667893.0,ns,162
perf,instruction_and_branch_counters,,,,72002034.0,ns,165
perf,instruction_and_branch_counters,,,,73329289.0,ns,168
perf,instruction_and_branch_counters,,,,74380365.0,ns,171
perf,instruction_and_branch_counters,,,,74623419.0,ns,174
perf,instruction_and_branch_counters,,,,75849528.0,ns,177
perf,instruction_and_branch_counters,,,,77070013.0,ns,180
perf,instruction_and_branch_counters,,,,108658956.0,ns,183
perf,instruction_and_branch_counters,,,,80300091.0,ns,186
perf,instruction_and_branch_counters,,,,81717190.0,ns,189
perf,instruction_and_branch_counters,,,,83021015.0,ns,192
perf,instruction_and_branch_counters,,,,84345151.0,ns,195
perf,instruction_and_branch_counters,,,,88833940.0,ns,198
perf,instruction_and_branch_counters,,,,86220903.0,ns,201
perf,instruction_and_branch_counters,,,,92038206.0,ns,204
perf,instruction_and_branch_counters,,,,89576845.0,ns,207
perf,instruction_and_branch_counters,,,,94068595.0,ns,210
perf,instruction_and_branch_counters,,,,92944238.0,ns,213
perf,instruction_and_branch_counters,,,,94237991.0,ns,216
perf,instruction_and_branch_counters,,,,95567426.0,ns,219
perf,instruction_and_branch_counters,,,,96827535.0,ns,222
perf,instruction_and_branch_counters,,,,98177013.0,ns,225
perf,instruction_and_branch_counters,,,,99346058.0,ns,228
perf,instruction_and_branch_counters,,,,100766328.0,ns,231
perf,instruction_and_branch_counters,,,,102075047.0,ns,234
perf,instruction_and_branch_counters,,,,102918108.0,ns,237
perf,instruction_and_branch_counters,,,,108390630.0,ns,240
perf,instruction_and_branch_counters,,,,106604277.0,ns,243
perf,instruction_and_branch_counters,,,,107838967.0,ns,246
perf,instruction_and_branch_counters,,,,109173447.0,ns,249
perf,instruction_and_branch_counters,,,,110564787.0,ns,252
perf,instruction_and_branch_counters,,,,111814959.0,ns,255
perf,instruction_and_branch_counters,,,,113235702.0,ns,258
perf,instruction_and_branch_counters,,,,114504055.0,ns,261
perf,instruction_and_branch_counters,,,,115790133.0,ns,264
perf,instruction_and_branch_counters,,,,117171710.0,ns,267
perf,instruction_and_branch_counters,,,,118414900.0,ns,270
perf,instruction_and_branch_counters,,,,152483969.0,ns,273
perf,instruction_and_branch_counters,,,,120755299.0,ns,276
perf,instruction_and_branch_counters,,,,122492955.0,ns,279
perf,instruction_and_branch_counters,,,,123844671.0,ns,282
perf,instruction_and_branch_counters,,,,124987602.0,ns,285
perf,instruction_and_branch_counters,,,,126374591.0,ns,288
perf,instruction_and_branch_counters,,,,127389842.0,ns,291
perf,instruction_and_branch_counters,,,,128939171.0,ns,294
perf,instruction_and_branch_counters,,,,133666406.0,ns,297
perf,instruction_and_branch_counters,,,,130753711.0,ns,300
