group,function,value,throughput_num,throughput_type,sample_measured_value,unit,iteration_count
snapshot_restore_with_dense,Dense: Entire region + process_vm_writev,1000,,,1361705.0,ns,3
snapshot_restore_with_dense,Dense: Entire region + process_vm_writev,1000,,,2590540.0,ns,6
snapshot_restore_with_dense,Dense: Entire region + process_vm_writev,1000,,,3911654.0,ns,9
snapshot_restore_with_dense,Dense: Entire region + process_vm_writev,1000,,,5861917.0,ns,12
snapshot_restore_with_dense,Dense: Entire region + process_vm_writev,1000,,,6526205.0,ns,15
snapshot_restore_with_dense,Dense: Entire region + process_vm_writev,1000,,,8692638.0,ns,18
snapshot_restore_with_dense,Dense: Entire region + process_vm_writev,1000,,,9654542.0,ns,21
snapshot_restore_with_dense,Dense: Entire region + process_vm_writev,1000,,,10715854.0,ns,24
snapshot_restore_with_dense,Dense: Entire region + process_vm_writev,1000,,,11881604.0,ns,27
snapshot_restore_with_dense,Dense: Entire region + process_vm_writev,1000,,,13134306.0,ns,30
snapshot_restore_with_dense,Dense: Entire region + process_vm_writev,1000,,,14362780.0,ns,33
snapshot_restore_with_dense,Dense: Entire region + process_vm_writev,1000,,,15652726.0,ns,36
snapshot_restore_with_dense,Dense: Entire region + process_vm_writev,1000,,,16961056.0,ns,39
snapshot_restore_with_dense,Dense: Entire region + process_vm_writev,1000,,,18392702.0,ns,42
snapshot_restore_with_dense,Dense: Entire region + process_vm_writev,1000,,,19572682.0,ns,45
snapshot_restore_with_dense,Dense: Entire region + process_vm_writev,1000,,,20916143.0,ns,48
snapshot_restore_with_dense,Dense: Entire region + process_vm_writev,1000,,,22053276.0,ns,51
snapshot_restore_with_dense,Dense: Entire region + process_vm_writev,1000,,,23378768.0,ns,54
snapshot_restore_with_dense,Dense: Entire region + process_vm_writev,1000,,,24654094.0,ns,57
snapshot_restore_with_dense,Dense: Entire region + process_vm_writev,1000,,,26079749.0,ns,60
snapshot_restore_with_dense,Dense: Entire region + process_vm_writev,1000,,,27296283.0,ns,63
snapshot_restore_with_dense,Dense: Entire region + process_vm_writev,1000,,,28565921.0,ns,66
snapshot_restore_with_dense,Dense: Entire region + process_vm_writev,1000,,,29827435.0,ns,69
snapshot_restore_with_dense,Dense: Entire region + process_vm_writev,1000,,,31183891.0,ns,72
snapshot_restore_with_dense,Dense: Entire region + process_vm_writev,1000,,,32452536.0,ns,75
snapshot_restore_with_dense,Dense: Entire region + process_vm_writev,1000,,,33759492.0,ns,78
snapshot_restore_with_dense,Dense: Entire region + process_vm_writev,1000,,,35144055.0,ns,81
snapshot_restore_with_dense,Dense: Entire region + process_vm_writev,1000,,,36325739.0,ns,84
snapshot_restore_with_dense,Dense: Entire region + process_vm_writev,1000,,,37672712.0,ns,87
snapshot_restore_with_dense,Dense: Entire region + process_vm_writev,1000,,,38990175.0,ns,90
snapshot_restore_with_dense,Dense: Entire region + process_vm_writev,1000,,,40225946.0,ns,93
snapshot_restore_with_dense,Dense: Entire region + process_vm_writev,1000,,,41604514.0,ns,96
snapshot_restore_with_dense,Dense: Entire region + process_vm_writev,1000,,,42816442.0,ns,99
snapshot_restore_with_dense,Dense: Entire region + process_vm_writev,1000,,,44133393.0,ns,102
snapshot_restore_with_dense,Dense: Entire region + process_vm_writev,1000,,,45521502.0,ns,105
snapshot_restore_with_dense,Dense: Entire region + process_vm_writev,1000,,,52144825.0,ns,108
snapshot_restore_with_dense,Dense: Entire region + process_vm_writev,1000,,,48089892.0,ns,111
snapshot_restore_with_dense,Dense: Entire region + process_vm_writev,1000,,,49364122.0,ns,114
snapshot_restore_with_dense,Dense: Entire region + process_vm_writev,1000,,,50664234.0,ns,117
snapshot_restore_with_dense,Dense: Entire region + process_vm_writev,1000,,,51919118.0,ns,120
snapshot_restore_with_dense,Dense: Entire region + process_vm_writev,1000,,,53265275.0,ns,123
snapshot_restore_with_dense,Dense: Entire region + process_vm_writev,1000,,,54485214.0,ns,126
snapshot_restore_with_dense,Dense: Entire region + process_vm_writev,1000,,,55822165.0,ns,129
snapshot_restore_with_dense,Dense: Entire region + process_vm_writev,1000,,,57174640.0,ns,132
snapshot_restore_with_dense,Dense: Entire region + process_vm_writev,1000,,,58452961.0,ns,135
snapshot_restore_with_dense,Dense: Entire region + process_vm_writev,1000,,,59751040.0,ns,138
snapshot_restore_with_dense,Dense: Entire region + process_vm_writev,1000,,,61017336.0,ns,141
snapshot_restore_with_dense,Dense: Entire region + process_vm_writev,1000,,,62343825.0,ns,144
snapshot_restore_with_dense,Dense: Entire region + process_vm_writev,1000,,,63684957.0,ns,147
snapshot_restore_with_dense,Dense: Entire region + process_vm_writev,1000,,,64916333.0,ns,150
snapshot_restore_with_dense,Dense: Entire region + process_vm_writev,1000,,,66222973.0,ns,153
snapshot_restore_with_dense,Dense: Entire region + process_vm_writev,1000,,,67486376.0,ns,156
snapshot_restore_with_dense,Dense: Entire region + process_vm_writev,1000,,,69019980.0,ns,159
snapshot_restore_with_dense,Dense: Entire region + process_vm_writev,1000,,,70196498.0,ns,162
snapshot_restore_with_dense,Dense: Entire region + process_vm_writev,1000,,,71482970.0,ns,165
snapshot_restore_with_dense,Dense: Entire region + process_vm_writev,1000,,,72761955.0,ns,168
snapshot_restore_with_dense,Dense: Entire region + process_vm_writev,1000,,,74051540.0,ns,171
snapshot_restore_with_dense,Dense: Entire region + process_vm_writev,1000,,,75324387.0,ns,174
snapshot_restore_with_dense,Dense: Entire region + process_vm_writev,1000,,,76595800.0,ns,177
snapshot_restore_with_dense,Dense: Entire region + process_vm_writev,1000,,,77925871.0,ns,180
snapshot_restore_with_dense,Dense: Entire region + process_vm_writev,1000,,,79176883.0,ns,183
snapshot_restore_with_dense,Dense: Entire region + process_vm_writev,1000,,,80527440.0,ns,186
snapshot_restore_with_dense,Dense: Entire region + process_vm_writev,1000,,,81844407.0,ns,189
snapshot_restore_with_dense,Dense: Entire region + process_vm_writev,1000,,,83112145.0,ns,192
snapshot_restore_with_dense,Dense: Entire region + process_vm_writev,1000,,,86106299.0,ns,195
snapshot_restore_with_dense,Dense: Entire region + process_vm_writev,1000,,,85985252.0,ns,198
snapshot_restore_with_dense,Dense: Entire region + process_vm_writev,1000,,,87320438.0,ns,201
snapshot_restore_with_dense,Dense: Entire region + process_vm_writev,1000,,,88408971.0,ns,204
snapshot_restore_with_dense,Dense: Entire region + process_vm_writev,1000,,,89614305.0,ns,207
snapshot_restore_with_dense,Dense: Entire region + process_vm_writev,1000,,,91969687.0,ns,210
snapshot_restore_with_dense,Dense: Entire region + process_vm_writev,1000,,,92137623.0,ns,213
snapshot_restore_with_dense,Dense: Entire region + process_vm_writev,1000,,,93493233.0,ns,216
snapshot_restore_with_dense,Dense: Entire region + process_vm_writev,1000,,,94768805.0,ns,219
snapshot_restore_with_dense,Dense: Entire region + process_vm_writev,1000,,,96156019.0,ns,222
snapshot_restore_with_dense,Dense: Entire region + process_vm_writev,1000,,,97444541.0,ns,225
snapshot_restore_with_dense,Dense: Entire region + process_vm_writev,1000,,,98905124.0,ns,228
snapshot_restore_with_dense,Dense: Entire region + process_vm_writev,1000,,,100072101.0,ns,231
snapshot_restore_with_dense,Dense: Entire region + process_vm_writev,1000,,,101353218.0,ns,234
snapshot_restore_with_dense,Dense: Entire region + process_vm_writev,1000,,,102933674.0,ns,237
snapshot_restore_with_dense,Dense: Entire region + process_vm_writev,1000,,,104004763.0,ns,240
snapshot_restore_with_dense,Dense: Entire region + process_vm_writev,1000,,,105223445.0,ns,243
snapshot_restore_with_dense,Dense: Entire region + process_vm_writev,1000,,,106553369.0,ns,246
snapshot_restore_with_dense,Dense: Entire region + process_vm_writev,1000,,,107833664.0,ns,249
snapshot_restore_with_dense,Dense: Entire region + process_vm_writev,1000,,,109096089.0,ns,252
snapshot_restore_with_dense,Dense: Entire region + process_vm_writev,1000,,,110364780.0,ns,255
snapshot_restore_with_dense,Dense: Entire region + process_vm_writev,1000,,,111713718.0,ns,258
snapshot_restore_with_dense,Dense: Entire region + process_vm_writev,1000,,,113129533.0,ns,261
snapshot_restore_with_dense,Dense: Entire region + process_vm_writev,1000,,,114322029.0,ns,264
snapshot_restore_with_dense,Dense: Entire region + process_vm_writev,1000,,,115557336.0,ns,267
snapshot_restore_with_dense,Dense: Entire region + process_vm_writev,1000,,,116892818.0,ns,270
snapshot_restore_with_dense,Dense: Entire region + process_vm_writev,1000,,,118142844.0,ns,273
snapshot_restore_with_dense,Dense: Entire region + process_vm_writev,1000,,,119544959.0,ns,276
snapshot_restore_with_dense,Dense: Entire region + process_vm_writev,1000,,,120774785.0,ns,279
snapshot_restore_with_dense,Dense: Entire region + process_vm_writev,1000,,,122258947.0,ns,282
snapshot_restore_with_dense,Dense: Entire region + process_vm_writev,1000,,,123371100.0,ns,285
snapshot_restore_with_dense,Dense: Entire region + process_vm_writev,1000,,,124758883.0,ns,288
snapshot_restore_with_dense,Dense: Entire region + process_vm_writev,1000,,,125912844.0,ns,291
snapshot_restore_with_dense,Dense: Entire region + process_vm_writev,1000,,,127293188.0,ns,294
snapshot_restore_with_dense,Dense: Entire region + process_vm_writev,1000,,,128533459.0,ns,297
snapshot_restore_with_dense,Dense: Entire region + process_vm_writev,1000,,,129894752.0,ns,300
