<?xml version="1.0" encoding="utf-8"  standalone="no"?>
<svg 
 viewBox="0 0 1280 720"
 xmlns="http://www.w3.org/2000/svg"
 xmlns:xlink="http://www.w3.org/1999/xlink"
>

<title>Gnuplot</title>
<desc>Produced by GNUPLOT 5.2 patchlevel 6 </desc>

<g id="gnuplot_canvas">

<rect x="0" y="0" width="1280" height="720" fill="none"/>
<defs>

	<circle id='gpDot' r='0.5' stroke-width='0.5' stroke='currentColor'/>
	<path id='gpPt0' stroke-width='0.222' stroke='currentColor' d='M-1,0 h2 M0,-1 v2'/>
	<path id='gpPt1' stroke-width='0.222' stroke='currentColor' d='M-1,-1 L1,1 M1,-1 L-1,1'/>
	<path id='gpPt2' stroke-width='0.222' stroke='currentColor' d='M-1,0 L1,0 M0,-1 L0,1 M-1,-1 L1,1 M-1,1 L1,-1'/>
	<rect id='gpPt3' stroke-width='0.222' stroke='currentColor' x='-1' y='-1' width='2' height='2'/>
	<rect id='gpPt4' stroke-width='0.222' stroke='currentColor' fill='currentColor' x='-1' y='-1' width='2' height='2'/>
	<circle id='gpPt5' stroke-width='0.222' stroke='currentColor' cx='0' cy='0' r='1'/>
	<use xlink:href='#gpPt5' id='gpPt6' fill='currentColor' stroke='none'/>
	<path id='gpPt7' stroke-width='0.222' stroke='currentColor' d='M0,-1.33 L-1.33,0.67 L1.33,0.67 z'/>
	<use xlink:href='#gpPt7' id='gpPt8' fill='currentColor' stroke='none'/>
	<use xlink:href='#gpPt7' id='gpPt9' stroke='currentColor' transform='rotate(180)'/>
	<use xlink:href='#gpPt9' id='gpPt10' fill='currentColor' stroke='none'/>
	<use xlink:href='#gpPt3' id='gpPt11' stroke='currentColor' transform='rotate(45)'/>
	<use xlink:href='#gpPt11' id='gpPt12' fill='currentColor' stroke='none'/>
	<path id='gpPt13' stroke-width='0.222' stroke='currentColor' d='M0,1.330 L1.265,0.411 L0.782,-1.067 L-0.782,-1.076 L-1.265,0.411 z'/>
	<use xlink:href='#gpPt13' id='gpPt14' fill='currentColor' stroke='none'/>
	<filter id='textbox' filterUnits='objectBoundingBox' x='0' y='0' height='1' width='1'>
	  <feFlood flood-color='white' flood-opacity='1' result='bgnd'/>
	  <feComposite in='SourceGraphic' in2='bgnd' operator='atop'/>
	</filter>
	<filter id='greybox' filterUnits='objectBoundingBox' x='0' y='0' height='1' width='1'>
	  <feFlood flood-color='lightgrey' flood-opacity='1' result='grey'/>
	  <feComposite in='SourceGraphic' in2='grey' operator='atop'/>
	</filter>
</defs>
<g fill="none" color="white" stroke="currentColor" stroke-width="1.00" stroke-linecap="butt" stroke-linejoin="miter">
</g>
<g fill="none" color="black" stroke="currentColor" stroke-width="1.00" stroke-linecap="butt" stroke-linejoin="miter">
	<path stroke='black'  d='M63.6,662.4 L72.6,662.4  '/>	<g transform="translate(55.3,666.3)" stroke="none" fill="black" font-family="Helvetica" font-size="12.00"  text-anchor="end">
		<text><tspan font-family="Helvetica" > 0</tspan></text>
	</g>
</g>
<g fill="none" color="black" stroke="currentColor" stroke-width="1.00" stroke-linecap="butt" stroke-linejoin="miter">
	<path stroke='black'  d='M63.6,575.5 L72.6,575.5  '/>	<g transform="translate(55.3,579.4)" stroke="none" fill="black" font-family="Helvetica" font-size="12.00"  text-anchor="end">
		<text><tspan font-family="Helvetica" > 10</tspan></text>
	</g>
</g>
<g fill="none" color="black" stroke="currentColor" stroke-width="1.00" stroke-linecap="butt" stroke-linejoin="miter">
	<path stroke='black'  d='M63.6,488.6 L72.6,488.6  '/>	<g transform="translate(55.3,492.5)" stroke="none" fill="black" font-family="Helvetica" font-size="12.00"  text-anchor="end">
		<text><tspan font-family="Helvetica" > 20</tspan></text>
	</g>
</g>
<g fill="none" color="black" stroke="currentColor" stroke-width="1.00" stroke-linecap="butt" stroke-linejoin="miter">
	<path stroke='black'  d='M63.6,401.7 L72.6,401.7  '/>	<g transform="translate(55.3,405.6)" stroke="none" fill="black" font-family="Helvetica" font-size="12.00"  text-anchor="end">
		<text><tspan font-family="Helvetica" > 30</tspan></text>
	</g>
</g>
<g fill="none" color="black" stroke="currentColor" stroke-width="1.00" stroke-linecap="butt" stroke-linejoin="miter">
	<path stroke='black'  d='M63.6,314.8 L72.6,314.8  '/>	<g transform="translate(55.3,318.7)" stroke="none" fill="black" font-family="Helvetica" font-size="12.00"  text-anchor="end">
		<text><tspan font-family="Helvetica" > 40</tspan></text>
	</g>
</g>
<g fill="none" color="black" stroke="currentColor" stroke-width="1.00" stroke-linecap="butt" stroke-linejoin="miter">
	<path stroke='black'  d='M63.6,227.9 L72.6,227.9  '/>	<g transform="translate(55.3,231.8)" stroke="none" fill="black" font-family="Helvetica" font-size="12.00"  text-anchor="end">
		<text><tspan font-family="Helvetica" > 50</tspan></text>
	</g>
</g>
<g fill="none" color="black" stroke="currentColor" stroke-width="1.00" stroke-linecap="butt" stroke-linejoin="miter">
	<path stroke='black'  d='M63.6,141.0 L72.6,141.0  '/>	<g transform="translate(55.3,144.9)" stroke="none" fill="black" font-family="Helvetica" font-size="12.00"  text-anchor="end">
		<text><tspan font-family="Helvetica" > 60</tspan></text>
	</g>
</g>
<g fill="none" color="black" stroke="currentColor" stroke-width="1.00" stroke-linecap="butt" stroke-linejoin="miter">
	<path stroke='black'  d='M63.6,54.1 L72.6,54.1  '/>	<g transform="translate(55.3,58.0)" stroke="none" fill="black" font-family="Helvetica" font-size="12.00"  text-anchor="end">
		<text><tspan font-family="Helvetica" > 70</tspan></text>
	</g>
</g>
<g fill="none" color="black" stroke="currentColor" stroke-width="1.00" stroke-linecap="butt" stroke-linejoin="miter">
	<path stroke='black'  d='M115.7,662.4 L115.7,653.4  '/>	<g transform="translate(115.7,684.3)" stroke="none" fill="black" font-family="Helvetica" font-size="12.00"  text-anchor="middle">
		<text><tspan font-family="Helvetica" >-7.5</tspan></text>
	</g>
</g>
<g fill="none" color="black" stroke="currentColor" stroke-width="1.00" stroke-linecap="butt" stroke-linejoin="miter">
	<path stroke='black'  d='M285.1,662.4 L285.1,653.4  '/>	<g transform="translate(285.1,684.3)" stroke="none" fill="black" font-family="Helvetica" font-size="12.00"  text-anchor="middle">
		<text><tspan font-family="Helvetica" >-7</tspan></text>
	</g>
</g>
<g fill="none" color="black" stroke="currentColor" stroke-width="1.00" stroke-linecap="butt" stroke-linejoin="miter">
	<path stroke='black'  d='M454.4,662.4 L454.4,653.4  '/>	<g transform="translate(454.4,684.3)" stroke="none" fill="black" font-family="Helvetica" font-size="12.00"  text-anchor="middle">
		<text><tspan font-family="Helvetica" >-6.5</tspan></text>
	</g>
</g>
<g fill="none" color="black" stroke="currentColor" stroke-width="1.00" stroke-linecap="butt" stroke-linejoin="miter">
	<path stroke='black'  d='M623.8,662.4 L623.8,653.4  '/>	<g transform="translate(623.8,684.3)" stroke="none" fill="black" font-family="Helvetica" font-size="12.00"  text-anchor="middle">
		<text><tspan font-family="Helvetica" >-6</tspan></text>
	</g>
</g>
<g fill="none" color="black" stroke="currentColor" stroke-width="1.00" stroke-linecap="butt" stroke-linejoin="miter">
	<path stroke='black'  d='M793.2,662.4 L793.2,653.4  '/>	<g transform="translate(793.2,684.3)" stroke="none" fill="black" font-family="Helvetica" font-size="12.00"  text-anchor="middle">
		<text><tspan font-family="Helvetica" >-5.5</tspan></text>
	</g>
</g>
<g fill="none" color="black" stroke="currentColor" stroke-width="1.00" stroke-linecap="butt" stroke-linejoin="miter">
	<path stroke='black'  d='M962.6,662.4 L962.6,653.4  '/>	<g transform="translate(962.6,684.3)" stroke="none" fill="black" font-family="Helvetica" font-size="12.00"  text-anchor="middle">
		<text><tspan font-family="Helvetica" >-5</tspan></text>
	</g>
</g>
<g fill="none" color="black" stroke="currentColor" stroke-width="1.00" stroke-linecap="butt" stroke-linejoin="miter">
</g>
<g fill="none" color="black" stroke="currentColor" stroke-width="1.00" stroke-linecap="butt" stroke-linejoin="miter">
	<path stroke='black'  d='M63.6,54.1 L63.6,662.4 L1013.6,662.4 L1013.6,54.1 L63.6,54.1 Z  '/></g>
<g fill="none" color="black" stroke="currentColor" stroke-width="1.00" stroke-linecap="butt" stroke-linejoin="miter">
	<g transform="translate(16.3,358.3) rotate(270)" stroke="none" fill="black" font-family="Helvetica" font-size="12.00"  text-anchor="middle">
		<text><tspan font-family="Helvetica" >Density (a.u.)</tspan></text>
	</g>
</g>
<g fill="none" color="black" stroke="currentColor" stroke-width="1.00" stroke-linecap="butt" stroke-linejoin="miter">
	<g transform="translate(538.6,711.3)" stroke="none" fill="black" font-family="Helvetica" font-size="12.00"  text-anchor="middle">
		<text><tspan font-family="Helvetica" >Relative change (%)</tspan></text>
	</g>
</g>
<g fill="none" color="black" stroke="currentColor" stroke-width="1.00" stroke-linecap="butt" stroke-linejoin="miter">
	<g transform="translate(538.6,31.0)" stroke="none" fill="black" font-family="Helvetica" font-size="12.00"  text-anchor="middle">
		<text><tspan font-family="Helvetica" >snapshot_restore_with_dense/Dense: Dirty pages + process_vm_writev/10: mean</tspan></text>
	</g>
</g>
	<g id="gnuplot_plot_1" ><title>Bootstrap distribution</title>
<g fill="none" color="white" stroke="black" stroke-width="2.00" stroke-linecap="butt" stroke-linejoin="miter">
</g>
<g fill="none" color="black" stroke="currentColor" stroke-width="2.00" stroke-linecap="butt" stroke-linejoin="miter">
	<g transform="translate(1089.0,67.0)" stroke="none" fill="black" font-family="Helvetica" font-size="12.00"  text-anchor="start">
		<text><tspan font-family="Helvetica" >Bootstrap distribution</tspan></text>
	</g>
</g>
<g fill="none" color="black" stroke="currentColor" stroke-width="2.00" stroke-linecap="butt" stroke-linejoin="miter">
	<path stroke='rgb( 31, 120, 180)'  d='M1038.5,63.1 L1080.7,63.1 M63.6,631.6 L65.5,630.3 L67.4,629.0 L69.3,627.7 L71.2,626.3 L73.1,624.8
		L75.0,623.3 L76.9,621.8 L78.8,620.2 L80.7,618.6 L82.6,616.9 L84.5,615.2 L86.4,613.4 L88.3,611.7
		L90.3,609.8 L92.2,608.0 L94.1,606.0 L96.0,604.1 L97.9,602.1 L99.8,600.1 L101.7,598.0 L103.6,595.9
		L105.5,593.8 L107.4,591.6 L109.3,589.3 L111.2,587.0 L113.1,584.7 L115.0,582.3 L116.9,579.9 L118.8,577.4
		L120.7,574.8 L122.6,572.2 L124.5,569.6 L126.4,566.9 L128.3,564.1 L130.2,561.3 L132.1,558.4 L134.0,555.5
		L135.9,552.5 L137.8,549.5 L139.8,546.5 L141.7,543.4 L143.6,540.3 L145.5,537.1 L147.4,533.9 L149.3,530.7
		L151.2,527.4 L153.1,524.2 L155.0,520.9 L156.9,517.6 L158.8,514.3 L160.7,510.9 L162.6,507.6 L164.5,504.2
		L166.4,500.9 L168.3,497.5 L170.2,494.1 L172.1,490.7 L174.0,487.3 L175.9,483.9 L177.8,480.5 L179.7,477.1
		L181.6,473.6 L183.5,470.2 L185.4,466.7 L187.3,463.2 L189.3,459.7 L191.2,456.1 L193.1,452.6 L195.0,449.0
		L196.9,445.3 L198.8,441.6 L200.7,437.9 L202.6,434.1 L204.5,430.3 L206.4,426.5 L208.3,422.6 L210.2,418.6
		L212.1,414.6 L214.0,410.6 L215.9,406.5 L217.8,402.4 L219.7,398.3 L221.6,394.1 L223.5,389.9 L225.4,385.6
		L227.3,381.4 L229.2,377.1 L231.1,372.8 L233.0,368.4 L234.9,364.1 L236.8,359.7 L238.8,355.3 L240.7,351.0
		L242.6,346.6 L244.5,342.2 L246.4,337.9 L248.3,333.6 L250.2,329.3 L252.1,325.1 L254.0,320.9 L255.9,316.8
		L257.8,312.7 L259.7,308.7 L261.6,304.7 L263.5,300.8 L265.4,297.0 L267.3,293.3 L269.2,289.6 L271.1,285.9
		L273.0,282.3 L274.9,278.8 L276.8,275.3 L278.7,271.8 L280.6,268.4 L282.5,265.0 L284.4,261.6 L286.3,258.2
		L288.2,254.9 L290.2,251.5 L292.1,248.1 L294.0,244.7 L295.9,241.3 L297.8,237.9 L299.7,234.4 L301.6,231.0
		L303.5,227.5 L305.4,224.1 L307.3,220.6 L309.2,217.1 L311.1,213.6 L313.0,210.1 L314.9,206.6 L316.8,203.1
		L318.7,199.7 L320.6,196.2 L322.5,192.8 L324.4,189.4 L326.3,186.0 L328.2,182.7 L330.1,179.4 L332.0,176.2
		L333.9,173.0 L335.8,169.8 L337.7,166.7 L339.7,163.7 L341.6,160.7 L343.5,157.8 L345.4,154.9 L347.3,152.1
		L349.2,149.3 L351.1,146.6 L353.0,144.0 L354.9,141.4 L356.8,138.9 L358.7,136.4 L360.6,134.0 L362.5,131.6
		L364.4,129.3 L366.3,127.0 L368.2,124.7 L370.1,122.5 L372.0,120.3 L373.9,118.2 L375.8,116.1 L377.7,114.0
		L379.6,112.0 L381.5,110.0 L383.4,108.0 L385.3,106.0 L387.2,104.1 L389.2,102.3 L391.1,100.5 L393.0,98.7
		L394.9,97.0 L396.8,95.3 L398.7,93.8 L400.6,92.2 L402.5,90.8 L404.4,89.4 L406.3,88.1 L408.2,86.9
		L410.1,85.7 L412.0,84.6 L413.9,83.6 L415.8,82.7 L417.7,81.8 L419.6,81.0 L421.5,80.2 L423.4,79.5
		L425.3,78.8 L427.2,78.2 L429.1,77.7 L431.0,77.2 L432.9,76.7 L434.8,76.3 L436.7,75.9 L438.7,75.6
		L440.6,75.3 L442.5,75.0 L444.4,74.8 L446.3,74.6 L448.2,74.4 L450.1,74.3 L452.0,74.3 L453.9,74.3
		L455.8,74.4 L457.7,74.5 L459.6,74.6 L461.5,74.9 L463.4,75.2 L465.3,75.5 L467.2,76.0 L469.1,76.5
		L471.0,77.1 L472.9,77.7 L474.8,78.5 L476.7,79.3 L478.6,80.3 L480.5,81.3 L482.4,82.4 L484.3,83.5
		L486.2,84.8 L488.1,86.1 L490.1,87.5 L492.0,89.0 L493.9,90.6 L495.8,92.2 L497.7,93.9 L499.6,95.7
		L501.5,97.5 L503.4,99.4 L505.3,101.4 L507.2,103.3 L509.1,105.4 L511.0,107.4 L512.9,109.5 L514.8,111.6
		L516.7,113.7 L518.6,115.9 L520.5,118.1 L522.4,120.2 L524.3,122.4 L526.2,124.6 L528.1,126.8 L530.0,129.0
		L531.9,131.2 L533.8,133.4 L535.7,135.6 L537.6,137.9 L539.6,140.1 L541.5,142.3 L543.4,144.6 L545.3,146.9
		L547.2,149.2 L549.1,151.5 L551.0,153.9 L552.9,156.2 L554.8,158.6 L556.7,161.1 L558.6,163.5 L560.5,166.0
		L562.4,168.5 L564.3,171.0 L566.2,173.6 L568.1,176.2 L570.0,178.7 L571.9,181.3 L573.8,184.0 L575.7,186.6
		L577.6,189.2 L579.5,191.9 L581.4,194.5 L583.3,197.2 L585.2,199.9 L587.1,202.6 L589.1,205.3 L591.0,208.0
		L592.9,210.8 L594.8,213.5 L596.7,216.2 L598.6,219.0 L600.5,221.7 L602.4,224.5 L604.3,227.2 L606.2,230.0
		L608.1,232.7 L610.0,235.5 L611.9,238.2 L613.8,240.9 L615.7,243.6 L617.6,246.3 L619.5,248.9 L621.4,251.6
		L623.3,254.2 L625.2,256.9 L627.1,259.5 L629.0,262.1 L630.9,264.7 L632.8,267.3 L634.7,269.9 L636.6,272.5
		L638.5,275.0 L640.5,277.6 L642.4,280.1 L644.3,282.6 L646.2,285.1 L648.1,287.6 L650.0,290.1 L651.9,292.5
		L653.8,294.9 L655.7,297.3 L657.6,299.6 L659.5,301.9 L661.4,304.2 L663.3,306.5 L665.2,308.7 L667.1,311.0
		L669.0,313.2 L670.9,315.4 L672.8,317.6 L674.7,319.8 L676.6,322.0 L678.5,324.2 L680.4,326.4 L682.3,328.6
		L684.2,330.8 L686.1,333.0 L688.0,335.3 L690.0,337.5 L691.9,339.8 L693.8,342.1 L695.7,344.4 L697.6,346.7
		L699.5,349.0 L701.4,351.4 L703.3,353.7 L705.2,356.1 L707.1,358.5 L709.0,360.9 L710.9,363.3 L712.8,365.7
		L714.7,368.1 L716.6,370.5 L718.5,372.9 L720.4,375.4 L722.3,377.8 L724.2,380.2 L726.1,382.6 L728.0,385.0
		L729.9,387.3 L731.8,389.7 L733.7,392.0 L735.6,394.4 L737.5,396.7 L739.5,399.0 L741.4,401.3 L743.3,403.6
		L745.2,405.9 L747.1,408.2 L749.0,410.5 L750.9,412.8 L752.8,415.2 L754.7,417.5 L756.6,419.9 L758.5,422.4
		L760.4,424.8 L762.3,427.3 L764.2,429.8 L766.1,432.4 L768.0,435.0 L769.9,437.6 L771.8,440.3 L773.7,443.0
		L775.6,445.7 L777.5,448.4 L779.4,451.2 L781.3,454.0 L783.2,456.7 L785.1,459.5 L787.0,462.3 L789.0,465.1
		L790.9,467.8 L792.8,470.6 L794.7,473.3 L796.6,475.9 L798.5,478.6 L800.4,481.2 L802.3,483.8 L804.2,486.3
		L806.1,488.7 L808.0,491.2 L809.9,493.5 L811.8,495.8 L813.7,498.1 L815.6,500.3 L817.5,502.4 L819.4,504.5
		L821.3,506.5 L823.2,508.5 L825.1,510.4 L827.0,512.3 L828.9,514.2 L830.8,516.0 L832.7,517.7 L834.6,519.5
		L836.5,521.2 L838.4,522.8 L840.4,524.5 L842.3,526.1 L844.2,527.7 L846.1,529.3 L848.0,530.9 L849.9,532.5
		L851.8,534.1 L853.7,535.7 L855.6,537.3 L857.5,538.8 L859.4,540.4 L861.3,542.0 L863.2,543.6 L865.1,545.3
		L867.0,546.9 L868.9,548.6 L870.8,550.2 L872.7,551.9 L874.6,553.6 L876.5,555.3 L878.4,557.0 L880.3,558.8
		L882.2,560.5 L884.1,562.2 L886.0,563.9 L887.9,565.6 L889.9,567.3 L891.8,569.0 L893.7,570.6 L895.6,572.2
		L897.5,573.8 L899.4,575.3 L901.3,576.8 L903.2,578.3 L905.1,579.8 L907.0,581.2 L908.9,582.6 L910.8,583.9
		L912.7,585.2 L914.6,586.5 L916.5,587.8 L918.4,589.0 L920.3,590.3 L922.2,591.5 L924.1,592.7 L926.0,593.9
		L927.9,595.0 L929.8,596.2 L931.7,597.3 L933.6,598.4 L935.5,599.6 L937.4,600.7 L939.4,601.7 L941.3,602.8
		L943.2,603.8 L945.1,604.9 L947.0,605.9 L948.9,606.9 L950.8,607.8 L952.7,608.8 L954.6,609.7 L956.5,610.6
		L958.4,611.4 L960.3,612.3 L962.2,613.1 L964.1,613.9 L966.0,614.7 L967.9,615.4 L969.8,616.1 L971.7,616.9
		L973.6,617.6 L975.5,618.2 L977.4,618.9 L979.3,619.6 L981.2,620.2 L983.1,620.9 L985.0,621.5 L986.9,622.1
		L988.9,622.8 L990.8,623.4 L992.7,624.0 L994.6,624.6 L996.5,625.2 L998.4,625.8 L1000.3,626.4 L1002.2,626.9
		L1004.1,627.5 L1006.0,628.1 L1007.9,628.6 L1009.8,629.1 L1011.7,629.7 L1013.6,630.2  '/></g>
	</g>
	<g id="gnuplot_plot_2" ><title>Confidence interval</title>
<g fill="none" color="white" stroke="rgb( 31, 120, 180)" stroke-width="1.00" stroke-linecap="butt" stroke-linejoin="miter">
</g>
<g fill="none" color="black" stroke="currentColor" stroke-width="1.00" stroke-linecap="butt" stroke-linejoin="miter">
	<g transform="translate(1089.0,85.0)" stroke="none" fill="black" font-family="Helvetica" font-size="12.00"  text-anchor="start">
		<text><tspan font-family="Helvetica" >Confidence interval</tspan></text>
	</g>
</g>
<g fill="none" color="black" stroke="currentColor" stroke-width="1.00" stroke-linecap="butt" stroke-linejoin="miter">
	<g stroke='none' shape-rendering='crispEdges'>
		<polygon fill = 'rgb( 31, 120, 180)' fill-opacity = '0.250000' points = '1038.5,85.6 1080.7,85.6 1080.7,76.6 1038.5,76.6 '/>
		<polygon fill = 'rgb( 31, 120, 180)' fill-opacity = '0.250000' points = '151.2,527.4 153.1,524.2 155.0,520.9 156.9,517.6 158.8,514.3 160.7,510.9 162.6,507.6 164.5,504.2 166.4,500.9 168.3,497.5 170.2,494.1 172.1,490.7 174.0,487.3 175.9,483.9 177.8,480.5 179.7,477.1
181.6,473.6 183.5,470.2 185.4,466.7 187.3,463.2 189.3,459.7 191.2,456.1 193.1,452.6 195.0,449.0 196.9,445.3 198.8,441.6 200.7,437.9 202.6,434.1 204.5,430.3 206.4,426.5 208.3,422.6 210.2,418.6
212.1,414.6 214.0,410.6 215.9,406.5 217.8,402.4 219.7,398.3 221.6,394.1 223.5,389.9 225.4,385.6 227.3,381.4 229.2,377.1 231.1,372.8 233.0,368.4 234.9,364.1 236.8,359.7 238.8,355.3 240.7,351.0
242.6,346.6 244.5,342.2 246.4,337.9 248.3,333.6 250.2,329.3 252.1,325.1 254.0,320.9 255.9,316.8 257.8,312.7 259.7,308.7 261.6,304.7 263.5,300.8 265.4,297.0 267.3,293.3 269.2,289.6 271.1,285.9
273.0,282.3 274.9,278.8 276.8,275.3 278.7,271.8 280.6,268.4 282.5,265.0 284.4,261.6 286.3,258.2 288.2,254.9 290.2,251.5 292.1,248.1 294.0,244.7 295.9,241.3 297.8,237.9 299.7,234.4 301.6,231.0
303.5,227.5 305.4,224.1 307.3,220.6 309.2,217.1 311.1,213.6 313.0,210.1 314.9,206.6 316.8,203.1 318.7,199.7 320.6,196.2 322.5,192.8 324.4,189.4 326.3,186.0 328.2,182.7 330.1,179.4 332.0,176.2
333.9,173.0 335.8,169.8 337.7,166.7 339.7,163.7 341.6,160.7 343.5,157.8 345.4,154.9 347.3,152.1 349.2,149.3 351.1,146.6 353.0,144.0 354.9,141.4 356.8,138.9 358.7,136.4 360.6,134.0 362.5,131.6
364.4,129.3 366.3,127.0 368.2,124.7 370.1,122.5 372.0,120.3 373.9,118.2 375.8,116.1 377.7,114.0 379.6,112.0 381.5,110.0 383.4,108.0 385.3,106.0 387.2,104.1 389.2,102.3 391.1,100.5 393.0,98.7
394.9,97.0 396.8,95.3 398.7,93.8 400.6,92.2 402.5,90.8 404.4,89.4 406.3,88.1 408.2,86.9 410.1,85.7 412.0,84.6 413.9,83.6 415.8,82.7 417.7,81.8 419.6,81.0 421.5,80.2 423.4,79.5
425.3,78.8 427.2,78.2 429.1,77.7 431.0,77.2 432.9,76.7 434.8,76.3 436.7,75.9 438.7,75.6 440.6,75.3 442.5,75.0 444.4,74.8 446.3,74.6 448.2,74.4 450.1,74.3 452.0,74.3 453.9,74.3
455.8,74.4 457.7,74.5 459.6,74.6 461.5,74.9 463.4,75.2 465.3,75.5 467.2,76.0 469.1,76.5 471.0,77.1 472.9,77.7 474.8,78.5 476.7,79.3 478.6,80.3 480.5,81.3 482.4,82.4 484.3,83.5
486.2,84.8 488.1,86.1 490.1,87.5 492.0,89.0 493.9,90.6 495.8,92.2 497.7,93.9 499.6,95.7 501.5,97.5 503.4,99.4 505.3,101.4 507.2,103.3 509.1,105.4 511.0,107.4 512.9,109.5 514.8,111.6
516.7,113.7 518.6,115.9 520.5,118.1 522.4,120.2 524.3,122.4 526.2,124.6 528.1,126.8 530.0,129.0 531.9,131.2 533.8,133.4 535.7,135.6 537.6,137.9 539.6,140.1 541.5,142.3 543.4,144.6 545.3,146.9
547.2,149.2 549.1,151.5 551.0,153.9 552.9,156.2 554.8,158.6 556.7,161.1 558.6,163.5 560.5,166.0 562.4,168.5 564.3,171.0 566.2,173.6 568.1,176.2 570.0,178.7 571.9,181.3 573.8,184.0 575.7,186.6
577.6,189.2 579.5,191.9 581.4,194.5 583.3,197.2 585.2,199.9 587.1,202.6 589.1,205.3 591.0,208.0 592.9,210.8 594.8,213.5 596.7,216.2 598.6,219.0 600.5,221.7 602.4,224.5 604.3,227.2 606.2,230.0
608.1,232.7 610.0,235.5 611.9,238.2 613.8,240.9 615.7,243.6 617.6,246.3 619.5,248.9 621.4,251.6 623.3,254.2 625.2,256.9 627.1,259.5 629.0,262.1 630.9,264.7 632.8,267.3 634.7,269.9 636.6,272.5
638.5,275.0 640.5,277.6 642.4,280.1 644.3,282.6 646.2,285.1 648.1,287.6 650.0,290.1 651.9,292.5 653.8,294.9 655.7,297.3 657.6,299.6 659.5,301.9 661.4,304.2 663.3,306.5 665.2,308.7 667.1,311.0
669.0,313.2 670.9,315.4 672.8,317.6 674.7,319.8 676.6,322.0 678.5,324.2 680.4,326.4 682.3,328.6 684.2,330.8 686.1,333.0 688.0,335.3 690.0,337.5 691.9,339.8 693.8,342.1 695.7,344.4 697.6,346.7
699.5,349.0 701.4,351.4 703.3,353.7 705.2,356.1 707.1,358.5 709.0,360.9 710.9,363.3 712.8,365.7 714.7,368.1 716.6,370.5 718.5,372.9 720.4,375.4 722.3,377.8 724.2,380.2 726.1,382.6 728.0,385.0
729.9,387.3 731.8,389.7 733.7,392.0 735.6,394.4 737.5,396.7 739.5,399.0 741.4,401.3 743.3,403.6 745.2,405.9 747.1,408.2 749.0,410.5 750.9,412.8 752.8,415.2 754.7,417.5 756.6,419.9 758.5,422.4
760.4,424.8 762.3,427.3 764.2,429.8 766.1,432.4 768.0,435.0 769.9,437.6 771.8,440.3 773.7,443.0 775.6,445.7 777.5,448.4 779.4,451.2 781.3,454.0 783.2,456.7 785.1,459.5 787.0,462.3 789.0,465.1
790.9,467.8 792.8,470.6 794.7,473.3 796.6,475.9 798.5,478.6 800.4,481.2 802.3,483.8 804.2,486.3 806.1,488.7 808.0,491.2 809.9,493.5 811.8,495.8 813.7,498.1 815.6,500.3 817.5,502.4 819.4,504.5
821.3,506.5 823.2,508.5 825.1,510.4 827.0,512.3 828.9,514.2 830.8,516.0 832.7,517.7 834.6,519.5 836.5,521.2 838.4,522.8 840.4,524.5 842.3,526.1 844.2,527.7 846.1,529.3 848.0,530.9 849.9,532.5
851.8,534.1 853.7,535.7 855.6,537.3 857.5,538.8 859.4,540.4 861.3,542.0 863.2,543.6 865.1,545.3 867.0,546.9 868.9,548.6 870.8,550.2 872.7,551.9 874.6,553.6 876.5,555.3 878.4,557.0 880.3,558.8
882.2,560.5 884.1,562.2 886.0,563.9 887.9,565.6 889.9,567.3 891.8,569.0 893.7,570.6 895.6,572.2 897.5,573.8 899.4,575.3 901.3,576.8 903.2,578.3 905.1,579.8 907.0,581.2 908.9,582.6 910.8,583.9
912.7,585.2 914.6,586.5 916.5,587.8 918.4,589.0 920.3,590.3 922.2,591.5 924.1,592.7 924.1,662.4 922.2,662.4 920.3,662.4 918.4,662.4 916.5,662.4 914.6,662.4 912.7,662.4 910.8,662.4 908.9,662.4
907.0,662.4 905.1,662.4 903.2,662.4 901.3,662.4 899.4,662.4 897.5,662.4 895.6,662.4 893.7,662.4 891.8,662.4 889.9,662.4 887.9,662.4 886.0,662.4 884.1,662.4 882.2,662.4 880.3,662.4 878.4,662.4
876.5,662.4 874.6,662.4 872.7,662.4 870.8,662.4 868.9,662.4 867.0,662.4 865.1,662.4 863.2,662.4 861.3,662.4 859.4,662.4 857.5,662.4 855.6,662.4 853.7,662.4 851.8,662.4 849.9,662.4 848.0,662.4
846.1,662.4 844.2,662.4 842.3,662.4 840.4,662.4 838.4,662.4 836.5,662.4 834.6,662.4 832.7,662.4 830.8,662.4 828.9,662.4 827.0,662.4 825.1,662.4 823.2,662.4 821.3,662.4 819.4,662.4 817.5,662.4
815.6,662.4 813.7,662.4 811.8,662.4 809.9,662.4 808.0,662.4 806.1,662.4 804.2,662.4 802.3,662.4 800.4,662.4 798.5,662.4 796.6,662.4 794.7,662.4 792.8,662.4 790.9,662.4 789.0,662.4 787.0,662.4
785.1,662.4 783.2,662.4 781.3,662.4 779.4,662.4 777.5,662.4 775.6,662.4 773.7,662.4 771.8,662.4 769.9,662.4 768.0,662.4 766.1,662.4 764.2,662.4 762.3,662.4 760.4,662.4 758.5,662.4 756.6,662.4
754.7,662.4 752.8,662.4 750.9,662.4 749.0,662.4 747.1,662.4 745.2,662.4 743.3,662.4 741.4,662.4 739.5,662.4 737.5,662.4 735.6,662.4 733.7,662.4 731.8,662.4 729.9,662.4 728.0,662.4 726.1,662.4
724.2,662.4 722.3,662.4 720.4,662.4 718.5,662.4 716.6,662.4 714.7,662.4 712.8,662.4 710.9,662.4 709.0,662.4 707.1,662.4 705.2,662.4 703.3,662.4 701.4,662.4 699.5,662.4 697.6,662.4 695.7,662.4
693.8,662.4 691.9,662.4 690.0,662.4 688.0,662.4 686.1,662.4 684.2,662.4 682.3,662.4 680.4,662.4 678.5,662.4 676.6,662.4 674.7,662.4 672.8,662.4 670.9,662.4 669.0,662.4 667.1,662.4 665.2,662.4
663.3,662.4 661.4,662.4 659.5,662.4 657.6,662.4 655.7,662.4 653.8,662.4 651.9,662.4 650.0,662.4 648.1,662.4 646.2,662.4 644.3,662.4 642.4,662.4 640.5,662.4 638.5,662.4 636.6,662.4 634.7,662.4
632.8,662.4 630.9,662.4 629.0,662.4 627.1,662.4 625.2,662.4 623.3,662.4 621.4,662.4 619.5,662.4 617.6,662.4 615.7,662.4 613.8,662.4 611.9,662.4 610.0,662.4 608.1,662.4 606.2,662.4 604.3,662.4
602.4,662.4 600.5,662.4 598.6,662.4 596.7,662.4 594.8,662.4 592.9,662.4 591.0,662.4 589.1,662.4 587.1,662.4 585.2,662.4 583.3,662.4 581.4,662.4 579.5,662.4 577.6,662.4 575.7,662.4 573.8,662.4
571.9,662.4 570.0,662.4 568.1,662.4 566.2,662.4 564.3,662.4 562.4,662.4 560.5,662.4 558.6,662.4 556.7,662.4 554.8,662.4 552.9,662.4 551.0,662.4 549.1,662.4 547.2,662.4 545.3,662.4 543.4,662.4
541.5,662.4 539.6,662.4 537.6,662.4 535.7,662.4 533.8,662.4 531.9,662.4 530.0,662.4 528.1,662.4 526.2,662.4 524.3,662.4 522.4,662.4 520.5,662.4 518.6,662.4 516.7,662.4 514.8,662.4 512.9,662.4
511.0,662.4 509.1,662.4 507.2,662.4 505.3,662.4 503.4,662.4 501.5,662.4 499.6,662.4 497.7,662.4 495.8,662.4 493.9,662.4 492.0,662.4 490.1,662.4 488.1,662.4 486.2,662.4 484.3,662.4 482.4,662.4
480.5,662.4 478.6,662.4 476.7,662.4 474.8,662.4 472.9,662.4 471.0,662.4 469.1,662.4 467.2,662.4 465.3,662.4 463.4,662.4 461.5,662.4 459.6,662.4 457.7,662.4 455.8,662.4 453.9,662.4 452.0,662.4
450.1,662.4 448.2,662.4 446.3,662.4 444.4,662.4 442.5,662.4 440.6,662.4 438.7,662.4 436.7,662.4 434.8,662.4 432.9,662.4 431.0,662.4 429.1,662.4 427.2,662.4 425.3,662.4 423.4,662.4 421.5,662.4
419.6,662.4 417.7,662.4 415.8,662.4 413.9,662.4 412.0,662.4 410.1,662.4 408.2,662.4 406.3,662.4 404.4,662.4 402.5,662.4 400.6,662.4 398.7,662.4 396.8,662.4 394.9,662.4 393.0,662.4 391.1,662.4
389.2,662.4 387.2,662.4 385.3,662.4 383.4,662.4 381.5,662.4 379.6,662.4 377.7,662.4 375.8,662.4 373.9,662.4 372.0,662.4 370.1,662.4 368.2,662.4 366.3,662.4 364.4,662.4 362.5,662.4 360.6,662.4
358.7,662.4 356.8,662.4 354.9,662.4 353.0,662.4 351.1,662.4 349.2,662.4 347.3,662.4 345.4,662.4 343.5,662.4 341.6,662.4 339.7,662.4 337.7,662.4 335.8,662.4 333.9,662.4 332.0,662.4 330.1,662.4
328.2,662.4 326.3,662.4 324.4,662.4 322.5,662.4 320.6,662.4 318.7,662.4 316.8,662.4 314.9,662.4 313.0,662.4 311.1,662.4 309.2,662.4 307.3,662.4 305.4,662.4 303.5,662.4 301.6,662.4 299.7,662.4
297.8,662.4 295.9,662.4 294.0,662.4 292.1,662.4 290.2,662.4 288.2,662.4 286.3,662.4 284.4,662.4 282.5,662.4 280.6,662.4 278.7,662.4 276.8,662.4 274.9,662.4 273.0,662.4 271.1,662.4 269.2,662.4
267.3,662.4 265.4,662.4 263.5,662.4 261.6,662.4 259.7,662.4 257.8,662.4 255.9,662.4 254.0,662.4 252.1,662.4 250.2,662.4 248.3,662.4 246.4,662.4 244.5,662.4 242.6,662.4 240.7,662.4 238.8,662.4
236.8,662.4 234.9,662.4 233.0,662.4 231.1,662.4 229.2,662.4 227.3,662.4 225.4,662.4 223.5,662.4 221.6,662.4 219.7,662.4 217.8,662.4 215.9,662.4 214.0,662.4 212.1,662.4 210.2,662.4 208.3,662.4
206.4,662.4 204.5,662.4 202.6,662.4 200.7,662.4 198.8,662.4 196.9,662.4 195.0,662.4 193.1,662.4 191.2,662.4 189.3,662.4 187.3,662.4 185.4,662.4 183.5,662.4 181.6,662.4 179.7,662.4 177.8,662.4
175.9,662.4 174.0,662.4 172.1,662.4 170.2,662.4 168.3,662.4 166.4,662.4 164.5,662.4 162.6,662.4 160.7,662.4 158.8,662.4 156.9,662.4 155.0,662.4 153.1,662.4 151.2,662.4 '/>
	</g>
</g>
	</g>
	<g id="gnuplot_plot_3" ><title>Point estimate</title>
<g fill="none" color="white" stroke="rgb( 31, 120, 180)" stroke-width="2.00" stroke-linecap="butt" stroke-linejoin="miter">
</g>
<g fill="none" color="black" stroke="currentColor" stroke-width="2.00" stroke-linecap="butt" stroke-linejoin="miter">
	<g transform="translate(1089.0,103.0)" stroke="none" fill="black" font-family="Helvetica" font-size="12.00"  text-anchor="start">
		<text><tspan font-family="Helvetica" >Point estimate</tspan></text>
	</g>
</g>
<g fill="none" color="black" stroke="currentColor" stroke-width="2.00" stroke-linecap="butt" stroke-linejoin="miter">
	<path stroke='rgb( 31, 120, 180)'  d='M1038.5,99.1 L1080.7,99.1 M509.9,662.4 L509.9,106.2  '/></g>
	</g>
	<g id="gnuplot_plot_4" ><title>Noise threshold</title>
<g fill="none" color="white" stroke="rgb( 31, 120, 180)" stroke-width="1.00" stroke-linecap="butt" stroke-linejoin="miter">
</g>
<g fill="none" color="black" stroke="currentColor" stroke-width="1.00" stroke-linecap="butt" stroke-linejoin="miter">
	<g transform="translate(1089.0,121.0)" stroke="none" fill="black" font-family="Helvetica" font-size="12.00"  text-anchor="start">
		<text><tspan font-family="Helvetica" >Noise threshold</tspan></text>
	</g>
</g>
<g fill="none" color="black" stroke="currentColor" stroke-width="1.00" stroke-linecap="butt" stroke-linejoin="miter">
	<g stroke='none' shape-rendering='crispEdges'>
		<polygon fill = 'rgb(227,  26,  28)' fill-opacity = '0.100000' points = '1038.5,121.6 1080.7,121.6 1080.7,112.6 1038.5,112.6 '/>
		<polygon fill = 'rgb(227,  26,  28)' fill-opacity = '0.100000' points = '538.6,54.1 538.6,54.1 538.6,662.4 538.6,662.4 '/>
	</g>
</g>
	</g>
<g fill="none" color="white" stroke="rgb(227,  26,  28)" stroke-width="2.00" stroke-linecap="butt" stroke-linejoin="miter">
</g>
<g fill="none" color="black" stroke="currentColor" stroke-width="2.00" stroke-linecap="butt" stroke-linejoin="miter">
</g>
<g fill="none" color="black" stroke="black" stroke-width="1.00" stroke-linecap="butt" stroke-linejoin="miter">
</g>
<g fill="none" color="black" stroke="currentColor" stroke-width="1.00" stroke-linecap="butt" stroke-linejoin="miter">
	<path stroke='black'  d='M63.6,54.1 L63.6,662.4 L1013.6,662.4 L1013.6,54.1 L63.6,54.1 Z  '/></g>
<g fill="none" color="black" stroke="currentColor" stroke-width="1.00" stroke-linecap="butt" stroke-linejoin="miter">
</g>
</g>
</svg>

