group,function,value,throughput_num,throughput_type,sample_measured_value,unit,iteration_count
snapshot_restore_with_dense,Dense: Dirty pages + process_vm_writev,1000,,,1146280.0,ns,6
snapshot_restore_with_dense,Dense: Dirty pages + process_vm_writev,1000,,,2089496.0,ns,12
snapshot_restore_with_dense,Dense: Dirty pages + process_vm_writev,1000,,,3098928.0,ns,18
snapshot_restore_with_dense,Dense: Dirty pages + process_vm_writev,1000,,,4167635.0,ns,24
snapshot_restore_with_dense,Dense: Dirty pages + process_vm_writev,1000,,,5225274.0,ns,30
snapshot_restore_with_dense,Dense: Dirty pages + process_vm_writev,1000,,,6189105.0,ns,36
snapshot_restore_with_dense,Dense: Dirty pages + process_vm_writev,1000,,,8090706.0,ns,42
snapshot_restore_with_dense,Dense: Dirty pages + process_vm_writev,1000,,,8790906.0,ns,48
snapshot_restore_with_dense,Dense: Dirty pages + process_vm_writev,1000,,,9722135.0,ns,54
snapshot_restore_with_dense,Dense: Dirty pages + process_vm_writev,1000,,,10373828.0,ns,60
snapshot_restore_with_dense,Dense: Dirty pages + process_vm_writev,1000,,,11467128.0,ns,66
snapshot_restore_with_dense,Dense: Dirty pages + process_vm_writev,1000,,,12476810.0,ns,72
snapshot_restore_with_dense,Dense: Dirty pages + process_vm_writev,1000,,,13444383.0,ns,78
snapshot_restore_with_dense,Dense: Dirty pages + process_vm_writev,1000,,,14506374.0,ns,84
snapshot_restore_with_dense,Dense: Dirty pages + process_vm_writev,1000,,,15521548.0,ns,90
snapshot_restore_with_dense,Dense: Dirty pages + process_vm_writev,1000,,,16883475.0,ns,96
snapshot_restore_with_dense,Dense: Dirty pages + process_vm_writev,1000,,,17582797.0,ns,102
snapshot_restore_with_dense,Dense: Dirty pages + process_vm_writev,1000,,,18628232.0,ns,108
snapshot_restore_with_dense,Dense: Dirty pages + process_vm_writev,1000,,,19661611.0,ns,114
snapshot_restore_with_dense,Dense: Dirty pages + process_vm_writev,1000,,,20749275.0,ns,120
snapshot_restore_with_dense,Dense: Dirty pages + process_vm_writev,1000,,,21762779.0,ns,126
snapshot_restore_with_dense,Dense: Dirty pages + process_vm_writev,1000,,,22785574.0,ns,132
snapshot_restore_with_dense,Dense: Dirty pages + process_vm_writev,1000,,,23903465.0,ns,138
snapshot_restore_with_dense,Dense: Dirty pages + process_vm_writev,1000,,,24788823.0,ns,144
snapshot_restore_with_dense,Dense: Dirty pages + process_vm_writev,1000,,,25841551.0,ns,150
snapshot_restore_with_dense,Dense: Dirty pages + process_vm_writev,1000,,,26901865.0,ns,156
snapshot_restore_with_dense,Dense: Dirty pages + process_vm_writev,1000,,,27976256.0,ns,162
snapshot_restore_with_dense,Dense: Dirty pages + process_vm_writev,1000,,,29004856.0,ns,168
snapshot_restore_with_dense,Dense: Dirty pages + process_vm_writev,1000,,,30171943.0,ns,174
snapshot_restore_with_dense,Dense: Dirty pages + process_vm_writev,1000,,,31187191.0,ns,180
snapshot_restore_with_dense,Dense: Dirty pages + process_vm_writev,1000,,,32109191.0,ns,186
snapshot_restore_with_dense,Dense: Dirty pages + process_vm_writev,1000,,,33127478.0,ns,192
snapshot_restore_with_dense,Dense: Dirty pages + process_vm_writev,1000,,,34151051.0,ns,198
snapshot_restore_with_dense,Dense: Dirty pages + process_vm_writev,1000,,,35239803.0,ns,204
snapshot_restore_with_dense,Dense: Dirty pages + process_vm_writev,1000,,,36272582.0,ns,210
snapshot_restore_with_dense,Dense: Dirty pages + process_vm_writev,1000,,,37365109.0,ns,216
snapshot_restore_with_dense,Dense: Dirty pages + process_vm_writev,1000,,,38312869.0,ns,222
snapshot_restore_with_dense,Dense: Dirty pages + process_vm_writev,1000,,,39296839.0,ns,228
snapshot_restore_with_dense,Dense: Dirty pages + process_vm_writev,1000,,,40725800.0,ns,234
snapshot_restore_with_dense,Dense: Dirty pages + process_vm_writev,1000,,,41357224.0,ns,240
snapshot_restore_with_dense,Dense: Dirty pages + process_vm_writev,1000,,,42485311.0,ns,246
snapshot_restore_with_dense,Dense: Dirty pages + process_vm_writev,1000,,,43543426.0,ns,252
snapshot_restore_with_dense,Dense: Dirty pages + process_vm_writev,1000,,,44554799.0,ns,258
snapshot_restore_with_dense,Dense: Dirty pages + process_vm_writev,1000,,,45697033.0,ns,264
snapshot_restore_with_dense,Dense: Dirty pages + process_vm_writev,1000,,,46643148.0,ns,270
snapshot_restore_with_dense,Dense: Dirty pages + process_vm_writev,1000,,,47688334.0,ns,276
snapshot_restore_with_dense,Dense: Dirty pages + process_vm_writev,1000,,,48666807.0,ns,282
snapshot_restore_with_dense,Dense: Dirty pages + process_vm_writev,1000,,,49651281.0,ns,288
snapshot_restore_with_dense,Dense: Dirty pages + process_vm_writev,1000,,,50635241.0,ns,294
snapshot_restore_with_dense,Dense: Dirty pages + process_vm_writev,1000,,,51738323.0,ns,300
snapshot_restore_with_dense,Dense: Dirty pages + process_vm_writev,1000,,,52784699.0,ns,306
snapshot_restore_with_dense,Dense: Dirty pages + process_vm_writev,1000,,,53945673.0,ns,312
snapshot_restore_with_dense,Dense: Dirty pages + process_vm_writev,1000,,,54838453.0,ns,318
snapshot_restore_with_dense,Dense: Dirty pages + process_vm_writev,1000,,,55892326.0,ns,324
snapshot_restore_with_dense,Dense: Dirty pages + process_vm_writev,1000,,,56875196.0,ns,330
snapshot_restore_with_dense,Dense: Dirty pages + process_vm_writev,1000,,,58069604.0,ns,336
snapshot_restore_with_dense,Dense: Dirty pages + process_vm_writev,1000,,,59140170.0,ns,342
snapshot_restore_with_dense,Dense: Dirty pages + process_vm_writev,1000,,,60176132.0,ns,348
snapshot_restore_with_dense,Dense: Dirty pages + process_vm_writev,1000,,,61344819.0,ns,354
snapshot_restore_with_dense,Dense: Dirty pages + process_vm_writev,1000,,,62187956.0,ns,360
snapshot_restore_with_dense,Dense: Dirty pages + process_vm_writev,1000,,,63174711.0,ns,366
snapshot_restore_with_dense,Dense: Dirty pages + process_vm_writev,1000,,,64199396.0,ns,372
snapshot_restore_with_dense,Dense: Dirty pages + process_vm_writev,1000,,,65208180.0,ns,378
snapshot_restore_with_dense,Dense: Dirty pages + process_vm_writev,1000,,,66263967.0,ns,384
snapshot_restore_with_dense,Dense: Dirty pages + process_vm_writev,1000,,,67462277.0,ns,390
snapshot_restore_with_dense,Dense: Dirty pages + process_vm_writev,1000,,,68280117.0,ns,396
snapshot_restore_with_dense,Dense: Dirty pages + process_vm_writev,1000,,,69501714.0,ns,402
snapshot_restore_with_dense,Dense: Dirty pages + process_vm_writev,1000,,,70460846.0,ns,408
snapshot_restore_with_dense,Dense: Dirty pages + process_vm_writev,1000,,,71449974.0,ns,414
snapshot_restore_with_dense,Dense: Dirty pages + process_vm_writev,1000,,,72450674.0,ns,420
snapshot_restore_with_dense,Dense: Dirty pages + process_vm_writev,1000,,,73558284.0,ns,426
snapshot_restore_with_dense,Dense: Dirty pages + process_vm_writev,1000,,,74784776.0,ns,432
snapshot_restore_with_dense,Dense: Dirty pages + process_vm_writev,1000,,,75791528.0,ns,438
snapshot_restore_with_dense,Dense: Dirty pages + process_vm_writev,1000,,,76561586.0,ns,444
snapshot_restore_with_dense,Dense: Dirty pages + process_vm_writev,1000,,,77582325.0,ns,450
snapshot_restore_with_dense,Dense: Dirty pages + process_vm_writev,1000,,,78715729.0,ns,456
snapshot_restore_with_dense,Dense: Dirty pages + process_vm_writev,1000,,,79615522.0,ns,462
snapshot_restore_with_dense,Dense: Dirty pages + process_vm_writev,1000,,,80679918.0,ns,468
snapshot_restore_with_dense,Dense: Dirty pages + process_vm_writev,1000,,,81699101.0,ns,474
snapshot_restore_with_dense,Dense: Dirty pages + process_vm_writev,1000,,,82892646.0,ns,480
snapshot_restore_with_dense,Dense: Dirty pages + process_vm_writev,1000,,,83811202.0,ns,486
snapshot_restore_with_dense,Dense: Dirty pages + process_vm_writev,1000,,,84895747.0,ns,492
snapshot_restore_with_dense,Dense: Dirty pages + process_vm_writev,1000,,,85939067.0,ns,498
snapshot_restore_with_dense,Dense: Dirty pages + process_vm_writev,1000,,,86968088.0,ns,504
snapshot_restore_with_dense,Dense: Dirty pages + process_vm_writev,1000,,,88099996.0,ns,510
snapshot_restore_with_dense,Dense: Dirty pages + process_vm_writev,1000,,,101467465.0,ns,516
snapshot_restore_with_dense,Dense: Dirty pages + process_vm_writev,1000,,,90316880.0,ns,522
snapshot_restore_with_dense,Dense: Dirty pages + process_vm_writev,1000,,,91039417.0,ns,528
snapshot_restore_with_dense,Dense: Dirty pages + process_vm_writev,1000,,,91915130.0,ns,534
snapshot_restore_with_dense,Dense: Dirty pages + process_vm_writev,1000,,,93137668.0,ns,540
snapshot_restore_with_dense,Dense: Dirty pages + process_vm_writev,1000,,,94076534.0,ns,546
snapshot_restore_with_dense,Dense: Dirty pages + process_vm_writev,1000,,,95143913.0,ns,552
snapshot_restore_with_dense,Dense: Dirty pages + process_vm_writev,1000,,,96133733.0,ns,558
snapshot_restore_with_dense,Dense: Dirty pages + process_vm_writev,1000,,,97212979.0,ns,564
snapshot_restore_with_dense,Dense: Dirty pages + process_vm_writev,1000,,,98336395.0,ns,570
snapshot_restore_with_dense,Dense: Dirty pages + process_vm_writev,1000,,,99463681.0,ns,576
snapshot_restore_with_dense,Dense: Dirty pages + process_vm_writev,1000,,,100428280.0,ns,582
snapshot_restore_with_dense,Dense: Dirty pages + process_vm_writev,1000,,,101365213.0,ns,588
snapshot_restore_with_dense,Dense: Dirty pages + process_vm_writev,1000,,,102277785.0,ns,594
snapshot_restore_with_dense,Dense: Dirty pages + process_vm_writev,1000,,,103426123.0,ns,600
