<?xml version="1.0" encoding="utf-8"  standalone="no"?>
<svg 
 viewBox="0 0 1280 720"
 xmlns="http://www.w3.org/2000/svg"
 xmlns:xlink="http://www.w3.org/1999/xlink"
>

<title>Gnuplot</title>
<desc>Produced by GNUPLOT 5.2 patchlevel 6 </desc>

<g id="gnuplot_canvas">

<rect x="0" y="0" width="1280" height="720" fill="none"/>
<defs>

	<circle id='gpDot' r='0.5' stroke-width='0.5' stroke='currentColor'/>
	<path id='gpPt0' stroke-width='0.222' stroke='currentColor' d='M-1,0 h2 M0,-1 v2'/>
	<path id='gpPt1' stroke-width='0.222' stroke='currentColor' d='M-1,-1 L1,1 M1,-1 L-1,1'/>
	<path id='gpPt2' stroke-width='0.222' stroke='currentColor' d='M-1,0 L1,0 M0,-1 L0,1 M-1,-1 L1,1 M-1,1 L1,-1'/>
	<rect id='gpPt3' stroke-width='0.222' stroke='currentColor' x='-1' y='-1' width='2' height='2'/>
	<rect id='gpPt4' stroke-width='0.222' stroke='currentColor' fill='currentColor' x='-1' y='-1' width='2' height='2'/>
	<circle id='gpPt5' stroke-width='0.222' stroke='currentColor' cx='0' cy='0' r='1'/>
	<use xlink:href='#gpPt5' id='gpPt6' fill='currentColor' stroke='none'/>
	<path id='gpPt7' stroke-width='0.222' stroke='currentColor' d='M0,-1.33 L-1.33,0.67 L1.33,0.67 z'/>
	<use xlink:href='#gpPt7' id='gpPt8' fill='currentColor' stroke='none'/>
	<use xlink:href='#gpPt7' id='gpPt9' stroke='currentColor' transform='rotate(180)'/>
	<use xlink:href='#gpPt9' id='gpPt10' fill='currentColor' stroke='none'/>
	<use xlink:href='#gpPt3' id='gpPt11' stroke='currentColor' transform='rotate(45)'/>
	<use xlink:href='#gpPt11' id='gpPt12' fill='currentColor' stroke='none'/>
	<path id='gpPt13' stroke-width='0.222' stroke='currentColor' d='M0,1.330 L1.265,0.411 L0.782,-1.067 L-0.782,-1.076 L-1.265,0.411 z'/>
	<use xlink:href='#gpPt13' id='gpPt14' fill='currentColor' stroke='none'/>
	<filter id='textbox' filterUnits='objectBoundingBox' x='0' y='0' height='1' width='1'>
	  <feFlood flood-color='white' flood-opacity='1' result='bgnd'/>
	  <feComposite in='SourceGraphic' in2='bgnd' operator='atop'/>
	</filter>
	<filter id='greybox' filterUnits='objectBoundingBox' x='0' y='0' height='1' width='1'>
	  <feFlood flood-color='lightgrey' flood-opacity='1' result='grey'/>
	  <feComposite in='SourceGraphic' in2='grey' operator='atop'/>
	</filter>
</defs>
<g fill="none" color="white" stroke="currentColor" stroke-width="1.00" stroke-linecap="butt" stroke-linejoin="miter">
</g>
<g fill="none" color="black" stroke="currentColor" stroke-width="1.00" stroke-linecap="butt" stroke-linejoin="miter">
	<path stroke='black'  d='M80.2,662.4 L89.2,662.4  '/>	<g transform="translate(71.9,666.3)" stroke="none" fill="black" font-family="Helvetica" font-size="12.00"  text-anchor="end">
		<text><tspan font-family="Helvetica" > 0</tspan></text>
	</g>
</g>
<g fill="none" color="black" stroke="currentColor" stroke-width="1.00" stroke-linecap="butt" stroke-linejoin="miter">
	<path stroke='black'  d='M80.2,575.5 L89.2,575.5  '/>	<g transform="translate(71.9,579.4)" stroke="none" fill="black" font-family="Helvetica" font-size="12.00"  text-anchor="end">
		<text><tspan font-family="Helvetica" > 200</tspan></text>
	</g>
</g>
<g fill="none" color="black" stroke="currentColor" stroke-width="1.00" stroke-linecap="butt" stroke-linejoin="miter">
	<path stroke='black'  d='M80.2,488.6 L89.2,488.6  '/>	<g transform="translate(71.9,492.5)" stroke="none" fill="black" font-family="Helvetica" font-size="12.00"  text-anchor="end">
		<text><tspan font-family="Helvetica" > 400</tspan></text>
	</g>
</g>
<g fill="none" color="black" stroke="currentColor" stroke-width="1.00" stroke-linecap="butt" stroke-linejoin="miter">
	<path stroke='black'  d='M80.2,401.7 L89.2,401.7  '/>	<g transform="translate(71.9,405.6)" stroke="none" fill="black" font-family="Helvetica" font-size="12.00"  text-anchor="end">
		<text><tspan font-family="Helvetica" > 600</tspan></text>
	</g>
</g>
<g fill="none" color="black" stroke="currentColor" stroke-width="1.00" stroke-linecap="butt" stroke-linejoin="miter">
	<path stroke='black'  d='M80.2,314.8 L89.2,314.8  '/>	<g transform="translate(71.9,318.7)" stroke="none" fill="black" font-family="Helvetica" font-size="12.00"  text-anchor="end">
		<text><tspan font-family="Helvetica" > 800</tspan></text>
	</g>
</g>
<g fill="none" color="black" stroke="currentColor" stroke-width="1.00" stroke-linecap="butt" stroke-linejoin="miter">
	<path stroke='black'  d='M80.2,227.9 L89.2,227.9  '/>	<g transform="translate(71.9,231.8)" stroke="none" fill="black" font-family="Helvetica" font-size="12.00"  text-anchor="end">
		<text><tspan font-family="Helvetica" > 1000</tspan></text>
	</g>
</g>
<g fill="none" color="black" stroke="currentColor" stroke-width="1.00" stroke-linecap="butt" stroke-linejoin="miter">
	<path stroke='black'  d='M80.2,141.0 L89.2,141.0  '/>	<g transform="translate(71.9,144.9)" stroke="none" fill="black" font-family="Helvetica" font-size="12.00"  text-anchor="end">
		<text><tspan font-family="Helvetica" > 1200</tspan></text>
	</g>
</g>
<g fill="none" color="black" stroke="currentColor" stroke-width="1.00" stroke-linecap="butt" stroke-linejoin="miter">
	<path stroke='black'  d='M80.2,54.1 L89.2,54.1  '/>	<g transform="translate(71.9,58.0)" stroke="none" fill="black" font-family="Helvetica" font-size="12.00"  text-anchor="end">
		<text><tspan font-family="Helvetica" > 1400</tspan></text>
	</g>
</g>
<g fill="none" color="black" stroke="currentColor" stroke-width="1.00" stroke-linecap="butt" stroke-linejoin="miter">
	<path stroke='black'  d='M166.6,662.4 L166.6,653.4  '/>	<g transform="translate(166.6,684.3)" stroke="none" fill="black" font-family="Helvetica" font-size="12.00"  text-anchor="middle">
		<text><tspan font-family="Helvetica" > 1.22</tspan></text>
	</g>
</g>
<g fill="none" color="black" stroke="currentColor" stroke-width="1.00" stroke-linecap="butt" stroke-linejoin="miter">
	<path stroke='black'  d='M290.5,662.4 L290.5,653.4  '/>	<g transform="translate(290.5,684.3)" stroke="none" fill="black" font-family="Helvetica" font-size="12.00"  text-anchor="middle">
		<text><tspan font-family="Helvetica" > 1.24</tspan></text>
	</g>
</g>
<g fill="none" color="black" stroke="currentColor" stroke-width="1.00" stroke-linecap="butt" stroke-linejoin="miter">
	<path stroke='black'  d='M414.3,662.4 L414.3,653.4  '/>	<g transform="translate(414.3,684.3)" stroke="none" fill="black" font-family="Helvetica" font-size="12.00"  text-anchor="middle">
		<text><tspan font-family="Helvetica" > 1.26</tspan></text>
	</g>
</g>
<g fill="none" color="black" stroke="currentColor" stroke-width="1.00" stroke-linecap="butt" stroke-linejoin="miter">
	<path stroke='black'  d='M538.1,662.4 L538.1,653.4  '/>	<g transform="translate(538.1,684.3)" stroke="none" fill="black" font-family="Helvetica" font-size="12.00"  text-anchor="middle">
		<text><tspan font-family="Helvetica" > 1.28</tspan></text>
	</g>
</g>
<g fill="none" color="black" stroke="currentColor" stroke-width="1.00" stroke-linecap="butt" stroke-linejoin="miter">
	<path stroke='black'  d='M662.0,662.4 L662.0,653.4  '/>	<g transform="translate(662.0,684.3)" stroke="none" fill="black" font-family="Helvetica" font-size="12.00"  text-anchor="middle">
		<text><tspan font-family="Helvetica" > 1.3</tspan></text>
	</g>
</g>
<g fill="none" color="black" stroke="currentColor" stroke-width="1.00" stroke-linecap="butt" stroke-linejoin="miter">
	<path stroke='black'  d='M785.8,662.4 L785.8,653.4  '/>	<g transform="translate(785.8,684.3)" stroke="none" fill="black" font-family="Helvetica" font-size="12.00"  text-anchor="middle">
		<text><tspan font-family="Helvetica" > 1.32</tspan></text>
	</g>
</g>
<g fill="none" color="black" stroke="currentColor" stroke-width="1.00" stroke-linecap="butt" stroke-linejoin="miter">
	<path stroke='black'  d='M909.6,662.4 L909.6,653.4  '/>	<g transform="translate(909.6,684.3)" stroke="none" fill="black" font-family="Helvetica" font-size="12.00"  text-anchor="middle">
		<text><tspan font-family="Helvetica" > 1.34</tspan></text>
	</g>
</g>
<g fill="none" color="black" stroke="currentColor" stroke-width="1.00" stroke-linecap="butt" stroke-linejoin="miter">
</g>
<g fill="none" color="black" stroke="currentColor" stroke-width="1.00" stroke-linecap="butt" stroke-linejoin="miter">
	<path stroke='black'  d='M80.2,54.1 L80.2,662.4 L1013.6,662.4 L1013.6,54.1 L80.2,54.1 Z  '/></g>
<g fill="none" color="black" stroke="currentColor" stroke-width="1.00" stroke-linecap="butt" stroke-linejoin="miter">
	<g transform="translate(16.3,358.3) rotate(270)" stroke="none" fill="black" font-family="Helvetica" font-size="12.00"  text-anchor="middle">
		<text><tspan font-family="Helvetica" >Density (a.u.)</tspan></text>
	</g>
</g>
<g fill="none" color="black" stroke="currentColor" stroke-width="1.00" stroke-linecap="butt" stroke-linejoin="miter">
	<g transform="translate(546.9,711.3)" stroke="none" fill="black" font-family="Helvetica" font-size="12.00"  text-anchor="middle">
		<text><tspan font-family="Helvetica" >Relative change (%)</tspan></text>
	</g>
</g>
<g fill="none" color="black" stroke="currentColor" stroke-width="1.00" stroke-linecap="butt" stroke-linejoin="miter">
	<g transform="translate(546.9,31.0)" stroke="none" fill="black" font-family="Helvetica" font-size="12.00"  text-anchor="middle">
		<text><tspan font-family="Helvetica" >snapshot_restore_with_dense/Sparse: Entire region + process_vm_writev w/ page size/1: median</tspan></text>
	</g>
</g>
	<g id="gnuplot_plot_1" ><title>Bootstrap distribution</title>
<g fill="none" color="white" stroke="black" stroke-width="2.00" stroke-linecap="butt" stroke-linejoin="miter">
</g>
<g fill="none" color="black" stroke="currentColor" stroke-width="2.00" stroke-linecap="butt" stroke-linejoin="miter">
	<g transform="translate(1089.0,67.0)" stroke="none" fill="black" font-family="Helvetica" font-size="12.00"  text-anchor="start">
		<text><tspan font-family="Helvetica" >Bootstrap distribution</tspan></text>
	</g>
</g>
<g fill="none" color="black" stroke="currentColor" stroke-width="2.00" stroke-linecap="butt" stroke-linejoin="miter">
	<path stroke='rgb( 31, 120, 180)'  d='M1038.5,63.1 L1080.7,63.1 M80.2,629.0 L82.1,628.7 L83.9,628.5 L85.8,628.3 L87.7,628.1 L89.6,628.0
		L91.4,627.9 L93.3,627.8 L95.2,627.7 L97.0,627.7 L98.9,627.6 L100.8,627.5 L102.6,627.4 L104.5,627.3
		L106.4,627.2 L108.3,627.0 L110.1,626.8 L112.0,626.5 L113.9,626.2 L115.7,625.8 L117.6,625.3 L119.5,624.8
		L121.4,624.3 L123.2,623.7 L125.1,623.0 L127.0,622.3 L128.8,621.5 L130.7,620.7 L132.6,619.9 L134.4,619.0
		L136.3,618.1 L138.2,617.2 L140.1,616.2 L141.9,615.3 L143.8,614.4 L145.7,613.4 L147.5,612.4 L149.4,611.5
		L151.3,610.5 L153.2,609.6 L155.0,608.6 L156.9,607.6 L158.8,606.7 L160.6,605.7 L162.5,604.7 L164.4,603.6
		L166.2,602.6 L168.1,601.5 L170.0,600.4 L171.9,599.3 L173.7,598.1 L175.6,596.9 L177.5,595.7 L179.3,594.5
		L181.2,593.2 L183.1,592.0 L185.0,590.7 L186.8,589.4 L188.7,588.1 L190.6,586.8 L192.4,585.6 L194.3,584.3
		L196.2,583.0 L198.0,581.8 L199.9,580.5 L201.8,579.3 L203.7,578.1 L205.5,576.9 L207.4,575.7 L209.3,574.6
		L211.1,573.4 L213.0,572.3 L214.9,571.1 L216.7,570.0 L218.6,568.8 L220.5,567.7 L222.4,566.5 L224.2,565.4
		L226.1,564.3 L228.0,563.1 L229.8,562.0 L231.7,560.8 L233.6,559.7 L235.5,558.5 L237.3,557.3 L239.2,556.0
		L241.1,554.8 L242.9,553.4 L244.8,552.1 L246.7,550.7 L248.5,549.2 L250.4,547.7 L252.3,546.1 L254.2,544.5
		L256.0,542.7 L257.9,540.9 L259.8,539.0 L261.6,537.1 L263.5,535.0 L265.4,532.9 L267.3,530.7 L269.1,528.4
		L271.0,526.0 L272.9,523.6 L274.7,521.2 L276.6,518.6 L278.5,516.1 L280.3,513.5 L282.2,510.9 L284.1,508.3
		L286.0,505.7 L287.8,503.1 L289.7,500.5 L291.6,497.9 L293.4,495.4 L295.3,492.8 L297.2,490.4 L299.1,487.9
		L300.9,485.4 L302.8,483.0 L304.7,480.6 L306.5,478.2 L308.4,475.8 L310.3,473.4 L312.1,470.9 L314.0,468.5
		L315.9,466.0 L317.8,463.4 L319.6,460.9 L321.5,458.3 L323.4,455.6 L325.2,453.0 L327.1,450.3 L329.0,447.5
		L330.9,444.8 L332.7,442.0 L334.6,439.3 L336.5,436.5 L338.3,433.8 L340.2,431.1 L342.1,428.4 L343.9,425.7
		L345.8,423.0 L347.7,420.3 L349.6,417.6 L351.4,414.9 L353.3,412.2 L355.2,409.5 L357.0,406.7 L358.9,403.8
		L360.8,400.9 L362.7,397.8 L364.5,394.7 L366.4,391.4 L368.3,388.0 L370.1,384.5 L372.0,380.8 L373.9,377.0
		L375.7,373.0 L377.6,368.8 L379.5,364.5 L381.4,360.1 L383.2,355.5 L385.1,350.7 L387.0,345.9 L388.8,341.0
		L390.7,336.0 L392.6,330.9 L394.5,325.9 L396.3,320.8 L398.2,315.7 L400.1,310.8 L401.9,305.9 L403.8,301.1
		L405.7,296.5 L407.5,292.1 L409.4,287.8 L411.3,283.8 L413.2,280.1 L415.0,276.6 L416.9,273.3 L418.8,270.3
		L420.6,267.6 L422.5,265.1 L424.4,262.8 L426.3,260.7 L428.1,258.8 L430.0,257.0 L431.9,255.3 L433.7,253.7
		L435.6,252.2 L437.5,250.6 L439.3,249.1 L441.2,247.4 L443.1,245.8 L445.0,244.0 L446.8,242.1 L448.7,240.1
		L450.6,238.1 L452.4,235.8 L454.3,233.5 L456.2,231.1 L458.0,228.6 L459.9,226.0 L461.8,223.3 L463.7,220.6
		L465.5,217.8 L467.4,215.0 L469.3,212.1 L471.1,209.3 L473.0,206.4 L474.9,203.5 L476.8,200.6 L478.6,197.7
		L480.5,194.8 L482.4,191.8 L484.2,188.9 L486.1,185.9 L488.0,182.9 L489.8,179.8 L491.7,176.7 L493.6,173.6
		L495.5,170.5 L497.3,167.2 L499.2,164.0 L501.1,160.7 L502.9,157.3 L504.8,153.9 L506.7,150.5 L508.6,147.1
		L510.4,143.6 L512.3,140.2 L514.2,136.8 L516.0,133.4 L517.9,130.1 L519.8,126.9 L521.6,123.8 L523.5,120.9
		L525.4,118.1 L527.3,115.5 L529.1,113.2 L531.0,111.0 L532.9,109.1 L534.7,107.5 L536.6,106.1 L538.5,104.9
		L540.4,104.0 L542.2,103.4 L544.1,103.0 L546.0,102.7 L547.8,102.7 L549.7,102.8 L551.6,103.0 L553.4,103.3
		L555.3,103.7 L557.2,104.1 L559.1,104.5 L560.9,105.0 L562.8,105.4 L564.7,105.7 L566.5,106.0 L568.4,106.3
		L570.3,106.4 L572.2,106.6 L574.0,106.6 L575.9,106.6 L577.8,106.6 L579.6,106.5 L581.5,106.4 L583.4,106.3
		L585.2,106.1 L587.1,106.0 L589.0,105.8 L590.9,105.6 L592.7,105.4 L594.6,105.2 L596.5,105.0 L598.3,104.7
		L600.2,104.4 L602.1,104.1 L604.0,103.7 L605.8,103.2 L607.7,102.7 L609.6,102.1 L611.4,101.4 L613.3,100.6
		L615.2,99.8 L617.0,98.8 L618.9,97.8 L620.8,96.7 L622.7,95.5 L624.5,94.2 L626.4,92.9 L628.3,91.6
		L630.1,90.2 L632.0,88.9 L633.9,87.6 L635.8,86.4 L637.6,85.3 L639.5,84.3 L641.4,83.4 L643.2,82.8
		L645.1,82.3 L647.0,82.1 L648.8,82.0 L650.7,82.3 L652.6,82.8 L654.5,83.7 L656.3,84.8 L658.2,86.2
		L660.1,87.8 L661.9,89.8 L663.8,92.0 L665.7,94.4 L667.5,97.1 L669.4,100.0 L671.3,103.0 L673.2,106.3
		L675.0,109.6 L676.9,113.1 L678.8,116.7 L680.6,120.3 L682.5,124.0 L684.4,127.8 L686.3,131.6 L688.1,135.4
		L690.0,139.2 L691.9,143.1 L693.7,146.9 L695.6,150.8 L697.5,154.7 L699.3,158.5 L701.2,162.4 L703.1,166.3
		L705.0,170.1 L706.8,174.0 L708.7,177.9 L710.6,181.7 L712.4,185.6 L714.3,189.4 L716.2,193.2 L718.1,197.1
		L719.9,200.9 L721.8,204.7 L723.7,208.5 L725.5,212.3 L727.4,216.1 L729.3,219.9 L731.1,223.7 L733.0,227.5
		L734.9,231.4 L736.8,235.2 L738.6,239.0 L740.5,242.9 L742.4,246.8 L744.2,250.7 L746.1,254.7 L748.0,258.7
		L749.9,262.8 L751.7,266.8 L753.6,271.0 L755.5,275.1 L757.3,279.4 L759.2,283.6 L761.1,288.0 L762.9,292.3
		L764.8,296.7 L766.7,301.1 L768.6,305.6 L770.4,310.1 L772.3,314.7 L774.2,319.2 L776.0,323.8 L777.9,328.3
		L779.8,332.9 L781.7,337.4 L783.5,342.0 L785.4,346.5 L787.3,350.9 L789.1,355.4 L791.0,359.8 L792.9,364.1
		L794.7,368.4 L796.6,372.6 L798.5,376.8 L800.4,380.9 L802.2,385.0 L804.1,389.0 L806.0,393.0 L807.8,396.9
		L809.7,400.8 L811.6,404.6 L813.5,408.5 L815.3,412.3 L817.2,416.0 L819.1,419.8 L820.9,423.5 L822.8,427.1
		L824.7,430.8 L826.5,434.4 L828.4,437.9 L830.3,441.4 L832.2,444.8 L834.0,448.2 L835.9,451.6 L837.8,454.8
		L839.6,458.0 L841.5,461.1 L843.4,464.2 L845.3,467.1 L847.1,470.0 L849.0,472.9 L850.9,475.6 L852.7,478.3
		L854.6,480.9 L856.5,483.4 L858.3,485.9 L860.2,488.3 L862.1,490.7 L864.0,493.0 L865.8,495.3 L867.7,497.6
		L869.6,499.8 L871.4,502.0 L873.3,504.2 L875.2,506.4 L877.1,508.7 L878.9,510.9 L880.8,513.1 L882.7,515.3
		L884.5,517.5 L886.4,519.8 L888.3,522.0 L890.1,524.3 L892.0,526.6 L893.9,528.8 L895.8,531.1 L897.6,533.3
		L899.5,535.6 L901.4,537.8 L903.2,540.0 L905.1,542.2 L907.0,544.4 L908.8,546.6 L910.7,548.7 L912.6,550.9
		L914.5,553.0 L916.3,555.1 L918.2,557.2 L920.1,559.3 L921.9,561.5 L923.8,563.6 L925.7,565.7 L927.6,567.8
		L929.4,569.9 L931.3,572.0 L933.2,574.0 L935.0,576.1 L936.9,578.2 L938.8,580.2 L940.6,582.2 L942.5,584.2
		L944.4,586.1 L946.3,588.0 L948.1,589.8 L950.0,591.6 L951.9,593.3 L953.7,594.9 L955.6,596.5 L957.5,598.1
		L959.4,599.5 L961.2,600.9 L963.1,602.3 L965.0,603.6 L966.8,604.8 L968.7,606.0 L970.6,607.2 L972.4,608.3
		L974.3,609.3 L976.2,610.4 L978.1,611.4 L979.9,612.4 L981.8,613.3 L983.7,614.3 L985.5,615.2 L987.4,616.1
		L989.3,617.0 L991.2,617.9 L993.0,618.8 L994.9,619.7 L996.8,620.6 L998.6,621.5 L1000.5,622.5 L1002.4,623.4
		L1004.2,624.3 L1006.1,625.2 L1008.0,626.1 L1009.9,627.1 L1011.7,628.0 L1013.6,628.9  '/></g>
	</g>
	<g id="gnuplot_plot_2" ><title>Confidence interval</title>
<g fill="none" color="white" stroke="rgb( 31, 120, 180)" stroke-width="1.00" stroke-linecap="butt" stroke-linejoin="miter">
</g>
<g fill="none" color="black" stroke="currentColor" stroke-width="1.00" stroke-linecap="butt" stroke-linejoin="miter">
	<g transform="translate(1089.0,85.0)" stroke="none" fill="black" font-family="Helvetica" font-size="12.00"  text-anchor="start">
		<text><tspan font-family="Helvetica" >Confidence interval</tspan></text>
	</g>
</g>
<g fill="none" color="black" stroke="currentColor" stroke-width="1.00" stroke-linecap="butt" stroke-linejoin="miter">
	<g stroke='none' shape-rendering='crispEdges'>
		<polygon fill = 'rgb( 31, 120, 180)' fill-opacity = '0.250000' points = '1038.5,85.6 1080.7,85.6 1080.7,76.6 1038.5,76.6 '/>
		<polygon fill = 'rgb( 31, 120, 180)' fill-opacity = '0.250000' points = '166.2,602.6 168.1,601.5 170.0,600.4 171.9,599.3 173.7,598.1 175.6,596.9 177.5,595.7 179.3,594.5 181.2,593.2 183.1,592.0 185.0,590.7 186.8,589.4 188.7,588.1 190.6,586.8 192.4,585.6 194.3,584.3
196.2,583.0 198.0,581.8 199.9,580.5 201.8,579.3 203.7,578.1 205.5,576.9 207.4,575.7 209.3,574.6 211.1,573.4 213.0,572.3 214.9,571.1 216.7,570.0 218.6,568.8 220.5,567.7 222.4,566.5 224.2,565.4
226.1,564.3 228.0,563.1 229.8,562.0 231.7,560.8 233.6,559.7 235.5,558.5 237.3,557.3 239.2,556.0 241.1,554.8 242.9,553.4 244.8,552.1 246.7,550.7 248.5,549.2 250.4,547.7 252.3,546.1 254.2,544.5
256.0,542.7 257.9,540.9 259.8,539.0 261.6,537.1 263.5,535.0 265.4,532.9 267.3,530.7 269.1,528.4 271.0,526.0 272.9,523.6 274.7,521.2 276.6,518.6 278.5,516.1 280.3,513.5 282.2,510.9 284.1,508.3
286.0,505.7 287.8,503.1 289.7,500.5 291.6,497.9 293.4,495.4 295.3,492.8 297.2,490.4 299.1,487.9 300.9,485.4 302.8,483.0 304.7,480.6 306.5,478.2 308.4,475.8 310.3,473.4 312.1,470.9 314.0,468.5
315.9,466.0 317.8,463.4 319.6,460.9 321.5,458.3 323.4,455.6 325.2,453.0 327.1,450.3 329.0,447.5 330.9,444.8 332.7,442.0 334.6,439.3 336.5,436.5 338.3,433.8 340.2,431.1 342.1,428.4 343.9,425.7
345.8,423.0 347.7,420.3 349.6,417.6 351.4,414.9 353.3,412.2 355.2,409.5 357.0,406.7 358.9,403.8 360.8,400.9 362.7,397.8 364.5,394.7 366.4,391.4 368.3,388.0 370.1,384.5 372.0,380.8 373.9,377.0
375.7,373.0 377.6,368.8 379.5,364.5 381.4,360.1 383.2,355.5 385.1,350.7 387.0,345.9 388.8,341.0 390.7,336.0 392.6,330.9 394.5,325.9 396.3,320.8 398.2,315.7 400.1,310.8 401.9,305.9 403.8,301.1
405.7,296.5 407.5,292.1 409.4,287.8 411.3,283.8 413.2,280.1 415.0,276.6 416.9,273.3 418.8,270.3 420.6,267.6 422.5,265.1 424.4,262.8 426.3,260.7 428.1,258.8 430.0,257.0 431.9,255.3 433.7,253.7
435.6,252.2 437.5,250.6 439.3,249.1 441.2,247.4 443.1,245.8 445.0,244.0 446.8,242.1 448.7,240.1 450.6,238.1 452.4,235.8 454.3,233.5 456.2,231.1 458.0,228.6 459.9,226.0 461.8,223.3 463.7,220.6
465.5,217.8 467.4,215.0 469.3,212.1 471.1,209.3 473.0,206.4 474.9,203.5 476.8,200.6 478.6,197.7 480.5,194.8 482.4,191.8 484.2,188.9 486.1,185.9 488.0,182.9 489.8,179.8 491.7,176.7 493.6,173.6
495.5,170.5 497.3,167.2 499.2,164.0 501.1,160.7 502.9,157.3 504.8,153.9 506.7,150.5 508.6,147.1 510.4,143.6 512.3,140.2 514.2,136.8 516.0,133.4 517.9,130.1 519.8,126.9 521.6,123.8 523.5,120.9
525.4,118.1 527.3,115.5 529.1,113.2 531.0,111.0 532.9,109.1 534.7,107.5 536.6,106.1 538.5,104.9 540.4,104.0 542.2,103.4 544.1,103.0 546.0,102.7 547.8,102.7 549.7,102.8 551.6,103.0 553.4,103.3
555.3,103.7 557.2,104.1 559.1,104.5 560.9,105.0 562.8,105.4 564.7,105.7 566.5,106.0 568.4,106.3 570.3,106.4 572.2,106.6 574.0,106.6 575.9,106.6 577.8,106.6 579.6,106.5 581.5,106.4 583.4,106.3
585.2,106.1 587.1,106.0 589.0,105.8 590.9,105.6 592.7,105.4 594.6,105.2 596.5,105.0 598.3,104.7 600.2,104.4 602.1,104.1 604.0,103.7 605.8,103.2 607.7,102.7 609.6,102.1 611.4,101.4 613.3,100.6
615.2,99.8 617.0,98.8 618.9,97.8 620.8,96.7 622.7,95.5 624.5,94.2 626.4,92.9 628.3,91.6 630.1,90.2 632.0,88.9 633.9,87.6 635.8,86.4 637.6,85.3 639.5,84.3 641.4,83.4 643.2,82.8
645.1,82.3 647.0,82.1 648.8,82.0 650.7,82.3 652.6,82.8 654.5,83.7 656.3,84.8 658.2,86.2 660.1,87.8 661.9,89.8 663.8,92.0 665.7,94.4 667.5,97.1 669.4,100.0 671.3,103.0 673.2,106.3
675.0,109.6 676.9,113.1 678.8,116.7 680.6,120.3 682.5,124.0 684.4,127.8 686.3,131.6 688.1,135.4 690.0,139.2 691.9,143.1 693.7,146.9 695.6,150.8 697.5,154.7 699.3,158.5 701.2,162.4 703.1,166.3
705.0,170.1 706.8,174.0 708.7,177.9 710.6,181.7 712.4,185.6 714.3,189.4 716.2,193.2 718.1,197.1 719.9,200.9 721.8,204.7 723.7,208.5 725.5,212.3 727.4,216.1 729.3,219.9 731.1,223.7 733.0,227.5
734.9,231.4 736.8,235.2 738.6,239.0 740.5,242.9 742.4,246.8 744.2,250.7 746.1,254.7 748.0,258.7 749.9,262.8 751.7,266.8 753.6,271.0 755.5,275.1 757.3,279.4 759.2,283.6 761.1,288.0 762.9,292.3
764.8,296.7 766.7,301.1 768.6,305.6 770.4,310.1 772.3,314.7 774.2,319.2 776.0,323.8 777.9,328.3 779.8,332.9 781.7,337.4 783.5,342.0 785.4,346.5 787.3,350.9 789.1,355.4 791.0,359.8 792.9,364.1
794.7,368.4 796.6,372.6 798.5,376.8 800.4,380.9 802.2,385.0 804.1,389.0 806.0,393.0 807.8,396.9 809.7,400.8 811.6,404.6 813.5,408.5 815.3,412.3 817.2,416.0 819.1,419.8 820.9,423.5 822.8,427.1
824.7,430.8 826.5,434.4 828.4,437.9 830.3,441.4 832.2,444.8 834.0,448.2 835.9,451.6 837.8,454.8 839.6,458.0 841.5,461.1 843.4,464.2 845.3,467.1 847.1,470.0 849.0,472.9 850.9,475.6 852.7,478.3
854.6,480.9 856.5,483.4 858.3,485.9 860.2,488.3 862.1,490.7 864.0,493.0 865.8,495.3 867.7,497.6 869.6,499.8 871.4,502.0 873.3,504.2 875.2,506.4 877.1,508.7 878.9,510.9 880.8,513.1 882.7,515.3
884.5,517.5 886.4,519.8 888.3,522.0 890.1,524.3 892.0,526.6 893.9,528.8 895.8,531.1 897.6,533.3 899.5,535.6 901.4,537.8 903.2,540.0 905.1,542.2 907.0,544.4 908.8,546.6 910.7,548.7 912.6,550.9
914.5,553.0 916.3,555.1 918.2,557.2 920.1,559.3 921.9,561.5 923.8,563.6 925.7,565.7 925.7,662.4 923.8,662.4 921.9,662.4 920.1,662.4 918.2,662.4 916.3,662.4 914.5,662.4 912.6,662.4 910.7,662.4
908.8,662.4 907.0,662.4 905.1,662.4 903.2,662.4 901.4,662.4 899.5,662.4 897.6,662.4 895.8,662.4 893.9,662.4 892.0,662.4 890.1,662.4 888.3,662.4 886.4,662.4 884.5,662.4 882.7,662.4 880.8,662.4
878.9,662.4 877.1,662.4 875.2,662.4 873.3,662.4 871.4,662.4 869.6,662.4 867.7,662.4 865.8,662.4 864.0,662.4 862.1,662.4 860.2,662.4 858.3,662.4 856.5,662.4 854.6,662.4 852.7,662.4 850.9,662.4
849.0,662.4 847.1,662.4 845.3,662.4 843.4,662.4 841.5,662.4 839.6,662.4 837.8,662.4 835.9,662.4 834.0,662.4 832.2,662.4 830.3,662.4 828.4,662.4 826.5,662.4 824.7,662.4 822.8,662.4 820.9,662.4
819.1,662.4 817.2,662.4 815.3,662.4 813.5,662.4 811.6,662.4 809.7,662.4 807.8,662.4 806.0,662.4 804.1,662.4 802.2,662.4 800.4,662.4 798.5,662.4 796.6,662.4 794.7,662.4 792.9,662.4 791.0,662.4
789.1,662.4 787.3,662.4 785.4,662.4 783.5,662.4 781.7,662.4 779.8,662.4 777.9,662.4 776.0,662.4 774.2,662.4 772.3,662.4 770.4,662.4 768.6,662.4 766.7,662.4 764.8,662.4 762.9,662.4 761.1,662.4
759.2,662.4 757.3,662.4 755.5,662.4 753.6,662.4 751.7,662.4 749.9,662.4 748.0,662.4 746.1,662.4 744.2,662.4 742.4,662.4 740.5,662.4 738.6,662.4 736.8,662.4 734.9,662.4 733.0,662.4 731.1,662.4
729.3,662.4 727.4,662.4 725.5,662.4 723.7,662.4 721.8,662.4 719.9,662.4 718.1,662.4 716.2,662.4 714.3,662.4 712.4,662.4 710.6,662.4 708.7,662.4 706.8,662.4 705.0,662.4 703.1,662.4 701.2,662.4
699.3,662.4 697.5,662.4 695.6,662.4 693.7,662.4 691.9,662.4 690.0,662.4 688.1,662.4 686.3,662.4 684.4,662.4 682.5,662.4 680.6,662.4 678.8,662.4 676.9,662.4 675.0,662.4 673.2,662.4 671.3,662.4
669.4,662.4 667.5,662.4 665.7,662.4 663.8,662.4 661.9,662.4 660.1,662.4 658.2,662.4 656.3,662.4 654.5,662.4 652.6,662.4 650.7,662.4 648.8,662.4 647.0,662.4 645.1,662.4 643.2,662.4 641.4,662.4
639.5,662.4 637.6,662.4 635.8,662.4 633.9,662.4 632.0,662.4 630.1,662.4 628.3,662.4 626.4,662.4 624.5,662.4 622.7,662.4 620.8,662.4 618.9,662.4 617.0,662.4 615.2,662.4 613.3,662.4 611.4,662.4
609.6,662.4 607.7,662.4 605.8,662.4 604.0,662.4 602.1,662.4 600.2,662.4 598.3,662.4 596.5,662.4 594.6,662.4 592.7,662.4 590.9,662.4 589.0,662.4 587.1,662.4 585.2,662.4 583.4,662.4 581.5,662.4
579.6,662.4 577.8,662.4 575.9,662.4 574.0,662.4 572.2,662.4 570.3,662.4 568.4,662.4 566.5,662.4 564.7,662.4 562.8,662.4 560.9,662.4 559.1,662.4 557.2,662.4 555.3,662.4 553.4,662.4 551.6,662.4
549.7,662.4 547.8,662.4 546.0,662.4 544.1,662.4 542.2,662.4 540.4,662.4 538.5,662.4 536.6,662.4 534.7,662.4 532.9,662.4 531.0,662.4 529.1,662.4 527.3,662.4 525.4,662.4 523.5,662.4 521.6,662.4
519.8,662.4 517.9,662.4 516.0,662.4 514.2,662.4 512.3,662.4 510.4,662.4 508.6,662.4 506.7,662.4 504.8,662.4 502.9,662.4 501.1,662.4 499.2,662.4 497.3,662.4 495.5,662.4 493.6,662.4 491.7,662.4
489.8,662.4 488.0,662.4 486.1,662.4 484.2,662.4 482.4,662.4 480.5,662.4 478.6,662.4 476.8,662.4 474.9,662.4 473.0,662.4 471.1,662.4 469.3,662.4 467.4,662.4 465.5,662.4 463.7,662.4 461.8,662.4
459.9,662.4 458.0,662.4 456.2,662.4 454.3,662.4 452.4,662.4 450.6,662.4 448.7,662.4 446.8,662.4 445.0,662.4 443.1,662.4 441.2,662.4 439.3,662.4 437.5,662.4 435.6,662.4 433.7,662.4 431.9,662.4
430.0,662.4 428.1,662.4 426.3,662.4 424.4,662.4 422.5,662.4 420.6,662.4 418.8,662.4 416.9,662.4 415.0,662.4 413.2,662.4 411.3,662.4 409.4,662.4 407.5,662.4 405.7,662.4 403.8,662.4 401.9,662.4
400.1,662.4 398.2,662.4 396.3,662.4 394.5,662.4 392.6,662.4 390.7,662.4 388.8,662.4 387.0,662.4 385.1,662.4 383.2,662.4 381.4,662.4 379.5,662.4 377.6,662.4 375.7,662.4 373.9,662.4 372.0,662.4
370.1,662.4 368.3,662.4 366.4,662.4 364.5,662.4 362.7,662.4 360.8,662.4 358.9,662.4 357.0,662.4 355.2,662.4 353.3,662.4 351.4,662.4 349.6,662.4 347.7,662.4 345.8,662.4 343.9,662.4 342.1,662.4
340.2,662.4 338.3,662.4 336.5,662.4 334.6,662.4 332.7,662.4 330.9,662.4 329.0,662.4 327.1,662.4 325.2,662.4 323.4,662.4 321.5,662.4 319.6,662.4 317.8,662.4 315.9,662.4 314.0,662.4 312.1,662.4
310.3,662.4 308.4,662.4 306.5,662.4 304.7,662.4 302.8,662.4 300.9,662.4 299.1,662.4 297.2,662.4 295.3,662.4 293.4,662.4 291.6,662.4 289.7,662.4 287.8,662.4 286.0,662.4 284.1,662.4 282.2,662.4
280.3,662.4 278.5,662.4 276.6,662.4 274.7,662.4 272.9,662.4 271.0,662.4 269.1,662.4 267.3,662.4 265.4,662.4 263.5,662.4 261.6,662.4 259.8,662.4 257.9,662.4 256.0,662.4 254.2,662.4 252.3,662.4
250.4,662.4 248.5,662.4 246.7,662.4 244.8,662.4 242.9,662.4 241.1,662.4 239.2,662.4 237.3,662.4 235.5,662.4 233.6,662.4 231.7,662.4 229.8,662.4 228.0,662.4 226.1,662.4 224.2,662.4 222.4,662.4
220.5,662.4 218.6,662.4 216.7,662.4 214.9,662.4 213.0,662.4 211.1,662.4 209.3,662.4 207.4,662.4 205.5,662.4 203.7,662.4 201.8,662.4 199.9,662.4 198.0,662.4 196.2,662.4 194.3,662.4 192.4,662.4
190.6,662.4 188.7,662.4 186.8,662.4 185.0,662.4 183.1,662.4 181.2,662.4 179.3,662.4 177.5,662.4 175.6,662.4 173.7,662.4 171.9,662.4 170.0,662.4 168.1,662.4 166.2,662.4 '/>
	</g>
</g>
	</g>
	<g id="gnuplot_plot_3" ><title>Point estimate</title>
<g fill="none" color="white" stroke="rgb( 31, 120, 180)" stroke-width="2.00" stroke-linecap="butt" stroke-linejoin="miter">
</g>
<g fill="none" color="black" stroke="currentColor" stroke-width="2.00" stroke-linecap="butt" stroke-linejoin="miter">
	<g transform="translate(1089.0,103.0)" stroke="none" fill="black" font-family="Helvetica" font-size="12.00"  text-anchor="start">
		<text><tspan font-family="Helvetica" >Point estimate</tspan></text>
	</g>
</g>
<g fill="none" color="black" stroke="currentColor" stroke-width="2.00" stroke-linecap="butt" stroke-linejoin="miter">
	<path stroke='rgb( 31, 120, 180)'  d='M1038.5,99.1 L1080.7,99.1 M582.0,662.4 L582.0,106.4  '/></g>
	</g>
	<g id="gnuplot_plot_4" ><title>Noise threshold</title>
<g fill="none" color="white" stroke="rgb( 31, 120, 180)" stroke-width="1.00" stroke-linecap="butt" stroke-linejoin="miter">
</g>
<g fill="none" color="black" stroke="currentColor" stroke-width="1.00" stroke-linecap="butt" stroke-linejoin="miter">
	<g transform="translate(1089.0,121.0)" stroke="none" fill="black" font-family="Helvetica" font-size="12.00"  text-anchor="start">
		<text><tspan font-family="Helvetica" >Noise threshold</tspan></text>
	</g>
</g>
<g fill="none" color="black" stroke="currentColor" stroke-width="1.00" stroke-linecap="butt" stroke-linejoin="miter">
	<g stroke='none' shape-rendering='crispEdges'>
		<polygon fill = 'rgb(227,  26,  28)' fill-opacity = '0.100000' points = '1038.5,121.6 1080.7,121.6 1080.7,112.6 1038.5,112.6 '/>
		<polygon fill = 'rgb(227,  26,  28)' fill-opacity = '0.100000' points = '546.9,54.1 546.9,54.1 546.9,662.4 546.9,662.4 '/>
	</g>
</g>
	</g>
<g fill="none" color="white" stroke="rgb(227,  26,  28)" stroke-width="2.00" stroke-linecap="butt" stroke-linejoin="miter">
</g>
<g fill="none" color="black" stroke="currentColor" stroke-width="2.00" stroke-linecap="butt" stroke-linejoin="miter">
</g>
<g fill="none" color="black" stroke="black" stroke-width="1.00" stroke-linecap="butt" stroke-linejoin="miter">
</g>
<g fill="none" color="black" stroke="currentColor" stroke-width="1.00" stroke-linecap="butt" stroke-linejoin="miter">
	<path stroke='black'  d='M80.2,54.1 L80.2,662.4 L1013.6,662.4 L1013.6,54.1 L80.2,54.1 Z  '/></g>
<g fill="none" color="black" stroke="currentColor" stroke-width="1.00" stroke-linecap="butt" stroke-linejoin="miter">
</g>
</g>
</svg>

