group,function,value,throughput_num,throughput_type,sample_measured_value,unit,iteration_count
snapshot_restore_with_dense,Dense: Entire region + /proc/pid/mem,2,,,1077937.0,ns,24
snapshot_restore_with_dense,Dense: Entire region + /proc/pid/mem,2,,,2066623.0,ns,48
snapshot_restore_with_dense,Dense: Entire region + /proc/pid/mem,2,,,3082398.0,ns,72
snapshot_restore_with_dense,Dense: Entire region + /proc/pid/mem,2,,,4116862.0,ns,96
snapshot_restore_with_dense,Dense: Entire region + /proc/pid/mem,2,,,5805260.0,ns,120
snapshot_restore_with_dense,Dense: Entire region + /proc/pid/mem,2,,,6164254.0,ns,144
snapshot_restore_with_dense,Dense: Entire region + /proc/pid/mem,2,,,7986639.0,ns,168
snapshot_restore_with_dense,Dense: Entire region + /proc/pid/mem,2,,,8701691.0,ns,192
snapshot_restore_with_dense,Dense: Entire region + /proc/pid/mem,2,,,9463944.0,ns,216
snapshot_restore_with_dense,Dense: Entire region + /proc/pid/mem,2,,,10544753.0,ns,240
snapshot_restore_with_dense,Dense: Entire region + /proc/pid/mem,2,,,11253852.0,ns,264
snapshot_restore_with_dense,Dense: Entire region + /proc/pid/mem,2,,,12288331.0,ns,288
snapshot_restore_with_dense,Dense: Entire region + /proc/pid/mem,2,,,13297891.0,ns,312
snapshot_restore_with_dense,Dense: Entire region + /proc/pid/mem,2,,,14334034.0,ns,336
snapshot_restore_with_dense,Dense: Entire region + /proc/pid/mem,2,,,15415042.0,ns,360
snapshot_restore_with_dense,Dense: Entire region + /proc/pid/mem,2,,,16385340.0,ns,384
snapshot_restore_with_dense,Dense: Entire region + /proc/pid/mem,2,,,17439014.0,ns,408
snapshot_restore_with_dense,Dense: Entire region + /proc/pid/mem,2,,,18442486.0,ns,432
snapshot_restore_with_dense,Dense: Entire region + /proc/pid/mem,2,,,19446109.0,ns,456
snapshot_restore_with_dense,Dense: Entire region + /proc/pid/mem,2,,,20440604.0,ns,480
snapshot_restore_with_dense,Dense: Entire region + /proc/pid/mem,2,,,21482019.0,ns,504
snapshot_restore_with_dense,Dense: Entire region + /proc/pid/mem,2,,,22527999.0,ns,528
snapshot_restore_with_dense,Dense: Entire region + /proc/pid/mem,2,,,23590137.0,ns,552
snapshot_restore_with_dense,Dense: Entire region + /proc/pid/mem,2,,,24586026.0,ns,576
snapshot_restore_with_dense,Dense: Entire region + /proc/pid/mem,2,,,25584903.0,ns,600
snapshot_restore_with_dense,Dense: Entire region + /proc/pid/mem,2,,,26609181.0,ns,624
snapshot_restore_with_dense,Dense: Entire region + /proc/pid/mem,2,,,27679580.0,ns,648
snapshot_restore_with_dense,Dense: Entire region + /proc/pid/mem,2,,,29451316.0,ns,672
snapshot_restore_with_dense,Dense: Entire region + /proc/pid/mem,2,,,30162237.0,ns,696
snapshot_restore_with_dense,Dense: Entire region + /proc/pid/mem,2,,,30869538.0,ns,720
snapshot_restore_with_dense,Dense: Entire region + /proc/pid/mem,2,,,31801022.0,ns,744
snapshot_restore_with_dense,Dense: Entire region + /proc/pid/mem,2,,,32715175.0,ns,768
snapshot_restore_with_dense,Dense: Entire region + /proc/pid/mem,2,,,33874649.0,ns,792
snapshot_restore_with_dense,Dense: Entire region + /proc/pid/mem,2,,,34781074.0,ns,816
snapshot_restore_with_dense,Dense: Entire region + /proc/pid/mem,2,,,35782070.0,ns,840
snapshot_restore_with_dense,Dense: Entire region + /proc/pid/mem,2,,,36872002.0,ns,864
snapshot_restore_with_dense,Dense: Entire region + /proc/pid/mem,2,,,37836956.0,ns,888
snapshot_restore_with_dense,Dense: Entire region + /proc/pid/mem,2,,,38850758.0,ns,912
snapshot_restore_with_dense,Dense: Entire region + /proc/pid/mem,2,,,40001309.0,ns,936
snapshot_restore_with_dense,Dense: Entire region + /proc/pid/mem,2,,,40911086.0,ns,960
snapshot_restore_with_dense,Dense: Entire region + /proc/pid/mem,2,,,41971171.0,ns,984
snapshot_restore_with_dense,Dense: Entire region + /proc/pid/mem,2,,,42960840.0,ns,1008
snapshot_restore_with_dense,Dense: Entire region + /proc/pid/mem,2,,,43947722.0,ns,1032
snapshot_restore_with_dense,Dense: Entire region + /proc/pid/mem,2,,,45043973.0,ns,1056
snapshot_restore_with_dense,Dense: Entire region + /proc/pid/mem,2,,,46016427.0,ns,1080
snapshot_restore_with_dense,Dense: Entire region + /proc/pid/mem,2,,,47090868.0,ns,1104
snapshot_restore_with_dense,Dense: Entire region + /proc/pid/mem,2,,,48082297.0,ns,1128
snapshot_restore_with_dense,Dense: Entire region + /proc/pid/mem,2,,,49122474.0,ns,1152
snapshot_restore_with_dense,Dense: Entire region + /proc/pid/mem,2,,,50083847.0,ns,1176
snapshot_restore_with_dense,Dense: Entire region + /proc/pid/mem,2,,,51286686.0,ns,1200
snapshot_restore_with_dense,Dense: Entire region + /proc/pid/mem,2,,,52170961.0,ns,1224
snapshot_restore_with_dense,Dense: Entire region + /proc/pid/mem,2,,,53214396.0,ns,1248
snapshot_restore_with_dense,Dense: Entire region + /proc/pid/mem,2,,,54195053.0,ns,1272
snapshot_restore_with_dense,Dense: Entire region + /proc/pid/mem,2,,,55251177.0,ns,1296
snapshot_restore_with_dense,Dense: Entire region + /proc/pid/mem,2,,,56377984.0,ns,1320
snapshot_restore_with_dense,Dense: Entire region + /proc/pid/mem,2,,,57316891.0,ns,1344
snapshot_restore_with_dense,Dense: Entire region + /proc/pid/mem,2,,,58276139.0,ns,1368
snapshot_restore_with_dense,Dense: Entire region + /proc/pid/mem,2,,,59328871.0,ns,1392
snapshot_restore_with_dense,Dense: Entire region + /proc/pid/mem,2,,,60345787.0,ns,1416
snapshot_restore_with_dense,Dense: Entire region + /proc/pid/mem,2,,,61430241.0,ns,1440
snapshot_restore_with_dense,Dense: Entire region + /proc/pid/mem,2,,,62433594.0,ns,1464
snapshot_restore_with_dense,Dense: Entire region + /proc/pid/mem,2,,,63377504.0,ns,1488
snapshot_restore_with_dense,Dense: Entire region + /proc/pid/mem,2,,,64425908.0,ns,1512
snapshot_restore_with_dense,Dense: Entire region + /proc/pid/mem,2,,,65461647.0,ns,1536
snapshot_restore_with_dense,Dense: Entire region + /proc/pid/mem,2,,,66388767.0,ns,1560
snapshot_restore_with_dense,Dense: Entire region + /proc/pid/mem,2,,,67503424.0,ns,1584
snapshot_restore_with_dense,Dense: Entire region + /proc/pid/mem,2,,,68576274.0,ns,1608
snapshot_restore_with_dense,Dense: Entire region + /proc/pid/mem,2,,,69536868.0,ns,1632
snapshot_restore_with_dense,Dense: Entire region + /proc/pid/mem,2,,,75685269.0,ns,1656
snapshot_restore_with_dense,Dense: Entire region + /proc/pid/mem,2,,,71971695.0,ns,1680
snapshot_restore_with_dense,Dense: Entire region + /proc/pid/mem,2,,,72949378.0,ns,1704
snapshot_restore_with_dense,Dense: Entire region + /proc/pid/mem,2,,,73844017.0,ns,1728
snapshot_restore_with_dense,Dense: Entire region + /proc/pid/mem,2,,,74716069.0,ns,1752
snapshot_restore_with_dense,Dense: Entire region + /proc/pid/mem,2,,,75769984.0,ns,1776
snapshot_restore_with_dense,Dense: Entire region + /proc/pid/mem,2,,,76790155.0,ns,1800
snapshot_restore_with_dense,Dense: Entire region + /proc/pid/mem,2,,,77701624.0,ns,1824
snapshot_restore_with_dense,Dense: Entire region + /proc/pid/mem,2,,,78825798.0,ns,1848
snapshot_restore_with_dense,Dense: Entire region + /proc/pid/mem,2,,,79801182.0,ns,1872
snapshot_restore_with_dense,Dense: Entire region + /proc/pid/mem,2,,,80781242.0,ns,1896
snapshot_restore_with_dense,Dense: Entire region + /proc/pid/mem,2,,,81839112.0,ns,1920
snapshot_restore_with_dense,Dense: Entire region + /proc/pid/mem,2,,,82891955.0,ns,1944
snapshot_restore_with_dense,Dense: Entire region + /proc/pid/mem,2,,,83909618.0,ns,1968
snapshot_restore_with_dense,Dense: Entire region + /proc/pid/mem,2,,,85447826.0,ns,1992
snapshot_restore_with_dense,Dense: Entire region + /proc/pid/mem,2,,,86015168.0,ns,2016
snapshot_restore_with_dense,Dense: Entire region + /proc/pid/mem,2,,,86910961.0,ns,2040
snapshot_restore_with_dense,Dense: Entire region + /proc/pid/mem,2,,,88004287.0,ns,2064
snapshot_restore_with_dense,Dense: Entire region + /proc/pid/mem,2,,,89075655.0,ns,2088
snapshot_restore_with_dense,Dense: Entire region + /proc/pid/mem,2,,,90049080.0,ns,2112
snapshot_restore_with_dense,Dense: Entire region + /proc/pid/mem,2,,,91131212.0,ns,2136
snapshot_restore_with_dense,Dense: Entire region + /proc/pid/mem,2,,,92183480.0,ns,2160
snapshot_restore_with_dense,Dense: Entire region + /proc/pid/mem,2,,,93135511.0,ns,2184
snapshot_restore_with_dense,Dense: Entire region + /proc/pid/mem,2,,,94226305.0,ns,2208
snapshot_restore_with_dense,Dense: Entire region + /proc/pid/mem,2,,,95150295.0,ns,2232
snapshot_restore_with_dense,Dense: Entire region + /proc/pid/mem,2,,,97218903.0,ns,2256
snapshot_restore_with_dense,Dense: Entire region + /proc/pid/mem,2,,,97982107.0,ns,2280
snapshot_restore_with_dense,Dense: Entire region + /proc/pid/mem,2,,,98498464.0,ns,2304
snapshot_restore_with_dense,Dense: Entire region + /proc/pid/mem,2,,,99232682.0,ns,2328
snapshot_restore_with_dense,Dense: Entire region + /proc/pid/mem,2,,,100294674.0,ns,2352
snapshot_restore_with_dense,Dense: Entire region + /proc/pid/mem,2,,,101190218.0,ns,2376
snapshot_restore_with_dense,Dense: Entire region + /proc/pid/mem,2,,,102230348.0,ns,2400
