group,function,value,throughput_num,throughput_type,sample_measured_value,unit,iteration_count
snapshot_restore_with_dense,Sparse: Entire region + process_vm_writev w/ page size,100,,,1278772.0,ns,2
snapshot_restore_with_dense,Sparse: Entire region + process_vm_writev w/ page size,100,,,2386664.0,ns,4
snapshot_restore_with_dense,Sparse: Entire region + process_vm_writev w/ page size,100,,,3602155.0,ns,6
snapshot_restore_with_dense,Sparse: Entire region + process_vm_writev w/ page size,100,,,4886423.0,ns,8
snapshot_restore_with_dense,Sparse: Entire region + process_vm_writev w/ page size,100,,,6027395.0,ns,10
snapshot_restore_with_dense,Sparse: Entire region + process_vm_writev w/ page size,100,,,7200768.0,ns,12
snapshot_restore_with_dense,Sparse: Entire region + process_vm_writev w/ page size,100,,,9141212.0,ns,14
snapshot_restore_with_dense,Sparse: Entire region + process_vm_writev w/ page size,100,,,10017825.0,ns,16
snapshot_restore_with_dense,Sparse: Entire region + process_vm_writev w/ page size,100,,,11015660.0,ns,18
snapshot_restore_with_dense,Sparse: Entire region + process_vm_writev w/ page size,100,,,12039122.0,ns,20
snapshot_restore_with_dense,Sparse: Entire region + process_vm_writev w/ page size,100,,,13221499.0,ns,22
snapshot_restore_with_dense,Sparse: Entire region + process_vm_writev w/ page size,100,,,14487546.0,ns,24
snapshot_restore_with_dense,Sparse: Entire region + process_vm_writev w/ page size,100,,,15604988.0,ns,26
snapshot_restore_with_dense,Sparse: Entire region + process_vm_writev w/ page size,100,,,16915075.0,ns,28
snapshot_restore_with_dense,Sparse: Entire region + process_vm_writev w/ page size,100,,,18007977.0,ns,30
snapshot_restore_with_dense,Sparse: Entire region + process_vm_writev w/ page size,100,,,19130022.0,ns,32
snapshot_restore_with_dense,Sparse: Entire region + process_vm_writev w/ page size,100,,,20331465.0,ns,34
snapshot_restore_with_dense,Sparse: Entire region + process_vm_writev w/ page size,100,,,21610234.0,ns,36
snapshot_restore_with_dense,Sparse: Entire region + process_vm_writev w/ page size,100,,,22731627.0,ns,38
snapshot_restore_with_dense,Sparse: Entire region + process_vm_writev w/ page size,100,,,23965621.0,ns,40
snapshot_restore_with_dense,Sparse: Entire region + process_vm_writev w/ page size,100,,,25187761.0,ns,42
snapshot_restore_with_dense,Sparse: Entire region + process_vm_writev w/ page size,100,,,26524211.0,ns,44
snapshot_restore_with_dense,Sparse: Entire region + process_vm_writev w/ page size,100,,,27521822.0,ns,46
snapshot_restore_with_dense,Sparse: Entire region + process_vm_writev w/ page size,100,,,28904168.0,ns,48
snapshot_restore_with_dense,Sparse: Entire region + process_vm_writev w/ page size,100,,,29899681.0,ns,50
snapshot_restore_with_dense,Sparse: Entire region + process_vm_writev w/ page size,100,,,31148055.0,ns,52
snapshot_restore_with_dense,Sparse: Entire region + process_vm_writev w/ page size,100,,,32296775.0,ns,54
snapshot_restore_with_dense,Sparse: Entire region + process_vm_writev w/ page size,100,,,33495815.0,ns,56
snapshot_restore_with_dense,Sparse: Entire region + process_vm_writev w/ page size,100,,,34762754.0,ns,58
snapshot_restore_with_dense,Sparse: Entire region + process_vm_writev w/ page size,100,,,35873036.0,ns,60
snapshot_restore_with_dense,Sparse: Entire region + process_vm_writev w/ page size,100,,,37068741.0,ns,62
snapshot_restore_with_dense,Sparse: Entire region + process_vm_writev w/ page size,100,,,38408392.0,ns,64
snapshot_restore_with_dense,Sparse: Entire region + process_vm_writev w/ page size,100,,,39495833.0,ns,66
snapshot_restore_with_dense,Sparse: Entire region + process_vm_writev w/ page size,100,,,40733551.0,ns,68
snapshot_restore_with_dense,Sparse: Entire region + process_vm_writev w/ page size,100,,,41890645.0,ns,70
snapshot_restore_with_dense,Sparse: Entire region + process_vm_writev w/ page size,100,,,43037402.0,ns,72
snapshot_restore_with_dense,Sparse: Entire region + process_vm_writev w/ page size,100,,,44328542.0,ns,74
snapshot_restore_with_dense,Sparse: Entire region + process_vm_writev w/ page size,100,,,45476536.0,ns,76
snapshot_restore_with_dense,Sparse: Entire region + process_vm_writev w/ page size,100,,,46701825.0,ns,78
snapshot_restore_with_dense,Sparse: Entire region + process_vm_writev w/ page size,100,,,47872037.0,ns,80
snapshot_restore_with_dense,Sparse: Entire region + process_vm_writev w/ page size,100,,,49074155.0,ns,82
snapshot_restore_with_dense,Sparse: Entire region + process_vm_writev w/ page size,100,,,50212033.0,ns,84
snapshot_restore_with_dense,Sparse: Entire region + process_vm_writev w/ page size,100,,,51459632.0,ns,86
snapshot_restore_with_dense,Sparse: Entire region + process_vm_writev w/ page size,100,,,52620111.0,ns,88
snapshot_restore_with_dense,Sparse: Entire region + process_vm_writev w/ page size,100,,,53931090.0,ns,90
snapshot_restore_with_dense,Sparse: Entire region + process_vm_writev w/ page size,100,,,56016785.0,ns,92
snapshot_restore_with_dense,Sparse: Entire region + process_vm_writev w/ page size,100,,,56292802.0,ns,94
snapshot_restore_with_dense,Sparse: Entire region + process_vm_writev w/ page size,100,,,57419371.0,ns,96
snapshot_restore_with_dense,Sparse: Entire region + process_vm_writev w/ page size,100,,,58665921.0,ns,98
snapshot_restore_with_dense,Sparse: Entire region + process_vm_writev w/ page size,100,,,59833198.0,ns,100
snapshot_restore_with_dense,Sparse: Entire region + process_vm_writev w/ page size,100,,,60997874.0,ns,102
snapshot_restore_with_dense,Sparse: Entire region + process_vm_writev w/ page size,100,,,62236880.0,ns,104
snapshot_restore_with_dense,Sparse: Entire region + process_vm_writev w/ page size,100,,,63365996.0,ns,106
snapshot_restore_with_dense,Sparse: Entire region + process_vm_writev w/ page size,100,,,69454461.0,ns,108
snapshot_restore_with_dense,Sparse: Entire region + process_vm_writev w/ page size,100,,,65871002.0,ns,110
snapshot_restore_with_dense,Sparse: Entire region + process_vm_writev w/ page size,100,,,67034523.0,ns,112
snapshot_restore_with_dense,Sparse: Entire region + process_vm_writev w/ page size,100,,,68277864.0,ns,114
snapshot_restore_with_dense,Sparse: Entire region + process_vm_writev w/ page size,100,,,69460538.0,ns,116
snapshot_restore_with_dense,Sparse: Entire region + process_vm_writev w/ page size,100,,,70553036.0,ns,118
snapshot_restore_with_dense,Sparse: Entire region + process_vm_writev w/ page size,100,,,71871095.0,ns,120
snapshot_restore_with_dense,Sparse: Entire region + process_vm_writev w/ page size,100,,,73096181.0,ns,122
snapshot_restore_with_dense,Sparse: Entire region + process_vm_writev w/ page size,100,,,74368098.0,ns,124
snapshot_restore_with_dense,Sparse: Entire region + process_vm_writev w/ page size,100,,,75408131.0,ns,126
snapshot_restore_with_dense,Sparse: Entire region + process_vm_writev w/ page size,100,,,76663196.0,ns,128
snapshot_restore_with_dense,Sparse: Entire region + process_vm_writev w/ page size,100,,,77831849.0,ns,130
snapshot_restore_with_dense,Sparse: Entire region + process_vm_writev w/ page size,100,,,78983109.0,ns,132
snapshot_restore_with_dense,Sparse: Entire region + process_vm_writev w/ page size,100,,,80162277.0,ns,134
snapshot_restore_with_dense,Sparse: Entire region + process_vm_writev w/ page size,100,,,81375996.0,ns,136
snapshot_restore_with_dense,Sparse: Entire region + process_vm_writev w/ page size,100,,,82761590.0,ns,138
snapshot_restore_with_dense,Sparse: Entire region + process_vm_writev w/ page size,100,,,83814969.0,ns,140
snapshot_restore_with_dense,Sparse: Entire region + process_vm_writev w/ page size,100,,,85028676.0,ns,142
snapshot_restore_with_dense,Sparse: Entire region + process_vm_writev w/ page size,100,,,86112287.0,ns,144
snapshot_restore_with_dense,Sparse: Entire region + process_vm_writev w/ page size,100,,,87418827.0,ns,146
snapshot_restore_with_dense,Sparse: Entire region + process_vm_writev w/ page size,100,,,88767297.0,ns,148
snapshot_restore_with_dense,Sparse: Entire region + process_vm_writev w/ page size,100,,,89858919.0,ns,150
snapshot_restore_with_dense,Sparse: Entire region + process_vm_writev w/ page size,100,,,90955666.0,ns,152
snapshot_restore_with_dense,Sparse: Entire region + process_vm_writev w/ page size,100,,,92227357.0,ns,154
snapshot_restore_with_dense,Sparse: Entire region + process_vm_writev w/ page size,100,,,93515529.0,ns,156
snapshot_restore_with_dense,Sparse: Entire region + process_vm_writev w/ page size,100,,,94882790.0,ns,158
snapshot_restore_with_dense,Sparse: Entire region + process_vm_writev w/ page size,100,,,95829735.0,ns,160
snapshot_restore_with_dense,Sparse: Entire region + process_vm_writev w/ page size,100,,,96986852.0,ns,162
snapshot_restore_with_dense,Sparse: Entire region + process_vm_writev w/ page size,100,,,98430694.0,ns,164
snapshot_restore_with_dense,Sparse: Entire region + process_vm_writev w/ page size,100,,,99640957.0,ns,166
snapshot_restore_with_dense,Sparse: Entire region + process_vm_writev w/ page size,100,,,114894497.0,ns,168
snapshot_restore_with_dense,Sparse: Entire region + process_vm_writev w/ page size,100,,,102329414.0,ns,170
snapshot_restore_with_dense,Sparse: Entire region + process_vm_writev w/ page size,100,,,103512829.0,ns,172
snapshot_restore_with_dense,Sparse: Entire region + process_vm_writev w/ page size,100,,,104425362.0,ns,174
snapshot_restore_with_dense,Sparse: Entire region + process_vm_writev w/ page size,100,,,105365971.0,ns,176
snapshot_restore_with_dense,Sparse: Entire region + process_vm_writev w/ page size,100,,,106648085.0,ns,178
snapshot_restore_with_dense,Sparse: Entire region + process_vm_writev w/ page size,100,,,107764156.0,ns,180
snapshot_restore_with_dense,Sparse: Entire region + process_vm_writev w/ page size,100,,,108971588.0,ns,182
snapshot_restore_with_dense,Sparse: Entire region + process_vm_writev w/ page size,100,,,110163916.0,ns,184
snapshot_restore_with_dense,Sparse: Entire region + process_vm_writev w/ page size,100,,,111832810.0,ns,186
snapshot_restore_with_dense,Sparse: Entire region + process_vm_writev w/ page size,100,,,112679778.0,ns,188
snapshot_restore_with_dense,Sparse: Entire region + process_vm_writev w/ page size,100,,,113804186.0,ns,190
snapshot_restore_with_dense,Sparse: Entire region + process_vm_writev w/ page size,100,,,115980364.0,ns,192
snapshot_restore_with_dense,Sparse: Entire region + process_vm_writev w/ page size,100,,,116186036.0,ns,194
snapshot_restore_with_dense,Sparse: Entire region + process_vm_writev w/ page size,100,,,117356882.0,ns,196
snapshot_restore_with_dense,Sparse: Entire region + process_vm_writev w/ page size,100,,,118599614.0,ns,198
snapshot_restore_with_dense,Sparse: Entire region + process_vm_writev w/ page size,100,,,119832844.0,ns,200
