<?xml version="1.0" encoding="utf-8"  standalone="no"?>
<svg 
 viewBox="0 0 1280 720"
 xmlns="http://www.w3.org/2000/svg"
 xmlns:xlink="http://www.w3.org/1999/xlink"
>

<title>Gnuplot</title>
<desc>Produced by GNUPLOT 5.2 patchlevel 6 </desc>

<g id="gnuplot_canvas">

<rect x="0" y="0" width="1280" height="720" fill="none"/>
<defs>

	<circle id='gpDot' r='0.5' stroke-width='0.5' stroke='currentColor'/>
	<path id='gpPt0' stroke-width='0.222' stroke='currentColor' d='M-1,0 h2 M0,-1 v2'/>
	<path id='gpPt1' stroke-width='0.222' stroke='currentColor' d='M-1,-1 L1,1 M1,-1 L-1,1'/>
	<path id='gpPt2' stroke-width='0.222' stroke='currentColor' d='M-1,0 L1,0 M0,-1 L0,1 M-1,-1 L1,1 M-1,1 L1,-1'/>
	<rect id='gpPt3' stroke-width='0.222' stroke='currentColor' x='-1' y='-1' width='2' height='2'/>
	<rect id='gpPt4' stroke-width='0.222' stroke='currentColor' fill='currentColor' x='-1' y='-1' width='2' height='2'/>
	<circle id='gpPt5' stroke-width='0.222' stroke='currentColor' cx='0' cy='0' r='1'/>
	<use xlink:href='#gpPt5' id='gpPt6' fill='currentColor' stroke='none'/>
	<path id='gpPt7' stroke-width='0.222' stroke='currentColor' d='M0,-1.33 L-1.33,0.67 L1.33,0.67 z'/>
	<use xlink:href='#gpPt7' id='gpPt8' fill='currentColor' stroke='none'/>
	<use xlink:href='#gpPt7' id='gpPt9' stroke='currentColor' transform='rotate(180)'/>
	<use xlink:href='#gpPt9' id='gpPt10' fill='currentColor' stroke='none'/>
	<use xlink:href='#gpPt3' id='gpPt11' stroke='currentColor' transform='rotate(45)'/>
	<use xlink:href='#gpPt11' id='gpPt12' fill='currentColor' stroke='none'/>
	<path id='gpPt13' stroke-width='0.222' stroke='currentColor' d='M0,1.330 L1.265,0.411 L0.782,-1.067 L-0.782,-1.076 L-1.265,0.411 z'/>
	<use xlink:href='#gpPt13' id='gpPt14' fill='currentColor' stroke='none'/>
	<filter id='textbox' filterUnits='objectBoundingBox' x='0' y='0' height='1' width='1'>
	  <feFlood flood-color='white' flood-opacity='1' result='bgnd'/>
	  <feComposite in='SourceGraphic' in2='bgnd' operator='atop'/>
	</filter>
	<filter id='greybox' filterUnits='objectBoundingBox' x='0' y='0' height='1' width='1'>
	  <feFlood flood-color='lightgrey' flood-opacity='1' result='grey'/>
	  <feComposite in='SourceGraphic' in2='grey' operator='atop'/>
	</filter>
</defs>
<g fill="none" color="white" stroke="currentColor" stroke-width="1.00" stroke-linecap="butt" stroke-linejoin="miter">
</g>
<g fill="none" color="black" stroke="currentColor" stroke-width="1.00" stroke-linecap="butt" stroke-linejoin="miter">
	<path stroke='black'  d='M80.2,662.4 L89.2,662.4  '/>	<g transform="translate(71.9,666.3)" stroke="none" fill="black" font-family="Helvetica" font-size="12.00"  text-anchor="end">
		<text><tspan font-family="Helvetica" > 0</tspan></text>
	</g>
</g>
<g fill="none" color="black" stroke="currentColor" stroke-width="1.00" stroke-linecap="butt" stroke-linejoin="miter">
	<path stroke='black'  d='M80.2,575.5 L89.2,575.5  '/>	<g transform="translate(71.9,579.4)" stroke="none" fill="black" font-family="Helvetica" font-size="12.00"  text-anchor="end">
		<text><tspan font-family="Helvetica" > 0.05</tspan></text>
	</g>
</g>
<g fill="none" color="black" stroke="currentColor" stroke-width="1.00" stroke-linecap="butt" stroke-linejoin="miter">
	<path stroke='black'  d='M80.2,488.6 L89.2,488.6  '/>	<g transform="translate(71.9,492.5)" stroke="none" fill="black" font-family="Helvetica" font-size="12.00"  text-anchor="end">
		<text><tspan font-family="Helvetica" > 0.1</tspan></text>
	</g>
</g>
<g fill="none" color="black" stroke="currentColor" stroke-width="1.00" stroke-linecap="butt" stroke-linejoin="miter">
	<path stroke='black'  d='M80.2,401.7 L89.2,401.7  '/>	<g transform="translate(71.9,405.6)" stroke="none" fill="black" font-family="Helvetica" font-size="12.00"  text-anchor="end">
		<text><tspan font-family="Helvetica" > 0.15</tspan></text>
	</g>
</g>
<g fill="none" color="black" stroke="currentColor" stroke-width="1.00" stroke-linecap="butt" stroke-linejoin="miter">
	<path stroke='black'  d='M80.2,314.8 L89.2,314.8  '/>	<g transform="translate(71.9,318.7)" stroke="none" fill="black" font-family="Helvetica" font-size="12.00"  text-anchor="end">
		<text><tspan font-family="Helvetica" > 0.2</tspan></text>
	</g>
</g>
<g fill="none" color="black" stroke="currentColor" stroke-width="1.00" stroke-linecap="butt" stroke-linejoin="miter">
	<path stroke='black'  d='M80.2,227.9 L89.2,227.9  '/>	<g transform="translate(71.9,231.8)" stroke="none" fill="black" font-family="Helvetica" font-size="12.00"  text-anchor="end">
		<text><tspan font-family="Helvetica" > 0.25</tspan></text>
	</g>
</g>
<g fill="none" color="black" stroke="currentColor" stroke-width="1.00" stroke-linecap="butt" stroke-linejoin="miter">
	<path stroke='black'  d='M80.2,141.0 L89.2,141.0  '/>	<g transform="translate(71.9,144.9)" stroke="none" fill="black" font-family="Helvetica" font-size="12.00"  text-anchor="end">
		<text><tspan font-family="Helvetica" > 0.3</tspan></text>
	</g>
</g>
<g fill="none" color="black" stroke="currentColor" stroke-width="1.00" stroke-linecap="butt" stroke-linejoin="miter">
	<path stroke='black'  d='M80.2,54.1 L89.2,54.1  '/>	<g transform="translate(71.9,58.0)" stroke="none" fill="black" font-family="Helvetica" font-size="12.00"  text-anchor="end">
		<text><tspan font-family="Helvetica" > 0.35</tspan></text>
	</g>
</g>
<g fill="none" color="black" stroke="currentColor" stroke-width="1.00" stroke-linecap="butt" stroke-linejoin="miter">
	<path stroke='black'  d='M195.9,662.4 L195.9,653.4  '/>	<g transform="translate(195.9,684.3)" stroke="none" fill="black" font-family="Helvetica" font-size="12.00"  text-anchor="middle">
		<text><tspan font-family="Helvetica" > 6</tspan></text>
	</g>
</g>
<g fill="none" color="black" stroke="currentColor" stroke-width="1.00" stroke-linecap="butt" stroke-linejoin="miter">
	<path stroke='black'  d='M348.3,662.4 L348.3,653.4  '/>	<g transform="translate(348.3,684.3)" stroke="none" fill="black" font-family="Helvetica" font-size="12.00"  text-anchor="middle">
		<text><tspan font-family="Helvetica" > 7</tspan></text>
	</g>
</g>
<g fill="none" color="black" stroke="currentColor" stroke-width="1.00" stroke-linecap="butt" stroke-linejoin="miter">
	<path stroke='black'  d='M500.7,662.4 L500.7,653.4  '/>	<g transform="translate(500.7,684.3)" stroke="none" fill="black" font-family="Helvetica" font-size="12.00"  text-anchor="middle">
		<text><tspan font-family="Helvetica" > 8</tspan></text>
	</g>
</g>
<g fill="none" color="black" stroke="currentColor" stroke-width="1.00" stroke-linecap="butt" stroke-linejoin="miter">
	<path stroke='black'  d='M653.2,662.4 L653.2,653.4  '/>	<g transform="translate(653.2,684.3)" stroke="none" fill="black" font-family="Helvetica" font-size="12.00"  text-anchor="middle">
		<text><tspan font-family="Helvetica" > 9</tspan></text>
	</g>
</g>
<g fill="none" color="black" stroke="currentColor" stroke-width="1.00" stroke-linecap="butt" stroke-linejoin="miter">
	<path stroke='black'  d='M805.6,662.4 L805.6,653.4  '/>	<g transform="translate(805.6,684.3)" stroke="none" fill="black" font-family="Helvetica" font-size="12.00"  text-anchor="middle">
		<text><tspan font-family="Helvetica" > 10</tspan></text>
	</g>
</g>
<g fill="none" color="black" stroke="currentColor" stroke-width="1.00" stroke-linecap="butt" stroke-linejoin="miter">
	<path stroke='black'  d='M958.1,662.4 L958.1,653.4  '/>	<g transform="translate(958.1,684.3)" stroke="none" fill="black" font-family="Helvetica" font-size="12.00"  text-anchor="middle">
		<text><tspan font-family="Helvetica" > 11</tspan></text>
	</g>
</g>
<g fill="none" color="black" stroke="currentColor" stroke-width="1.00" stroke-linecap="butt" stroke-linejoin="miter">
</g>
<g fill="none" color="black" stroke="currentColor" stroke-width="1.00" stroke-linecap="butt" stroke-linejoin="miter">
	<path stroke='black'  d='M80.2,54.1 L80.2,662.4 L1013.6,662.4 L1013.6,54.1 L80.2,54.1 Z  '/></g>
<g fill="none" color="black" stroke="currentColor" stroke-width="1.00" stroke-linecap="butt" stroke-linejoin="miter">
	<g transform="translate(16.3,358.3) rotate(270)" stroke="none" fill="black" font-family="Helvetica" font-size="12.00"  text-anchor="middle">
		<text><tspan font-family="Helvetica" >Density (a.u.)</tspan></text>
	</g>
</g>
<g fill="none" color="black" stroke="currentColor" stroke-width="1.00" stroke-linecap="butt" stroke-linejoin="miter">
	<g transform="translate(546.9,711.3)" stroke="none" fill="black" font-family="Helvetica" font-size="12.00"  text-anchor="middle">
		<text><tspan font-family="Helvetica" >Average time (us)</tspan></text>
	</g>
</g>
<g fill="none" color="black" stroke="currentColor" stroke-width="1.00" stroke-linecap="butt" stroke-linejoin="miter">
	<g transform="translate(546.9,31.0)" stroke="none" fill="black" font-family="Helvetica" font-size="12.00"  text-anchor="middle">
		<text><tspan font-family="Helvetica" >snapshot_restore_with_dense/Sparse: Dirty pages + /proc/pid/mem/1000: MAD</tspan></text>
	</g>
</g>
	<g id="gnuplot_plot_1" ><title>Bootstrap distribution</title>
<g fill="none" color="white" stroke="black" stroke-width="2.00" stroke-linecap="butt" stroke-linejoin="miter">
</g>
<g fill="none" color="black" stroke="currentColor" stroke-width="2.00" stroke-linecap="butt" stroke-linejoin="miter">
	<g transform="translate(1089.0,67.0)" stroke="none" fill="black" font-family="Helvetica" font-size="12.00"  text-anchor="start">
		<text><tspan font-family="Helvetica" >Bootstrap distribution</tspan></text>
	</g>
</g>
<g fill="none" color="black" stroke="currentColor" stroke-width="2.00" stroke-linecap="butt" stroke-linejoin="miter">
	<path stroke='rgb( 31, 120, 180)'  d='M1038.5,63.1 L1080.7,63.1 M80.2,631.6 L82.1,630.4 L83.9,629.1 L85.8,627.7 L87.7,626.2 L89.6,624.6
		L91.4,622.9 L93.3,621.2 L95.2,619.4 L97.0,617.5 L98.9,615.6 L100.8,613.7 L102.6,611.8 L104.5,609.9
		L106.4,608.1 L108.3,606.3 L110.1,604.5 L112.0,602.9 L113.9,601.4 L115.7,600.0 L117.6,598.7 L119.5,597.6
		L121.4,596.6 L123.2,595.7 L125.1,595.0 L127.0,594.4 L128.8,593.9 L130.7,593.5 L132.6,593.1 L134.4,592.8
		L136.3,592.6 L138.2,592.3 L140.1,592.1 L141.9,591.7 L143.8,591.4 L145.7,590.9 L147.5,590.3 L149.4,589.5
		L151.3,588.6 L153.2,587.5 L155.0,586.2 L156.9,584.6 L158.8,582.9 L160.6,580.9 L162.5,578.7 L164.4,576.2
		L166.2,573.5 L168.1,570.5 L170.0,567.4 L171.9,564.0 L173.7,560.5 L175.6,556.8 L177.5,553.0 L179.3,549.2
		L181.2,545.2 L183.1,541.2 L185.0,537.3 L186.8,533.4 L188.7,529.6 L190.6,525.9 L192.4,522.4 L194.3,519.1
		L196.2,516.0 L198.0,513.1 L199.9,510.5 L201.8,508.2 L203.7,506.1 L205.5,504.2 L207.4,502.6 L209.3,501.3
		L211.1,500.1 L213.0,499.1 L214.9,498.2 L216.7,497.4 L218.6,496.6 L220.5,495.7 L222.4,494.7 L224.2,493.6
		L226.1,492.2 L228.0,490.5 L229.8,488.4 L231.7,485.8 L233.6,482.8 L235.5,479.2 L237.3,475.0 L239.2,470.2
		L241.1,464.8 L242.9,458.7 L244.8,452.0 L246.7,444.7 L248.5,436.8 L250.4,428.3 L252.3,419.4 L254.2,410.2
		L256.0,400.6 L257.9,390.9 L259.8,381.1 L261.6,371.4 L263.5,361.8 L265.4,352.4 L267.3,343.4 L269.1,334.9
		L271.0,327.0 L272.9,319.6 L274.7,313.0 L276.6,307.1 L278.5,301.9 L280.3,297.5 L282.2,293.9 L284.1,291.0
		L286.0,288.7 L287.8,287.1 L289.7,286.1 L291.6,285.6 L293.4,285.4 L295.3,285.6 L297.2,286.1 L299.1,286.6
		L300.9,287.3 L302.8,287.9 L304.7,288.5 L306.5,288.9 L308.4,289.1 L310.3,289.1 L312.1,288.8 L314.0,288.3
		L315.9,287.5 L317.8,286.5 L319.6,285.1 L321.5,283.6 L323.4,281.8 L325.2,279.9 L327.1,277.9 L329.0,275.8
		L330.9,273.6 L332.7,271.4 L334.6,269.3 L336.5,267.2 L338.3,265.2 L340.2,263.4 L342.1,261.7 L343.9,260.1
		L345.8,258.6 L347.7,257.3 L349.6,256.1 L351.4,255.0 L353.3,253.9 L355.2,252.9 L357.0,251.8 L358.9,250.7
		L360.8,249.5 L362.7,248.2 L364.5,246.8 L366.4,245.2 L368.3,243.5 L370.1,241.5 L372.0,239.3 L373.9,237.0
		L375.7,234.5 L377.6,231.8 L379.5,228.9 L381.4,226.0 L383.2,223.0 L385.1,220.0 L387.0,217.0 L388.8,214.1
		L390.7,211.3 L392.6,208.6 L394.5,206.1 L396.3,203.8 L398.2,201.7 L400.1,199.9 L401.9,198.3 L403.8,196.8
		L405.7,195.6 L407.5,194.5 L409.4,193.5 L411.3,192.6 L413.2,191.7 L415.0,190.8 L416.9,189.7 L418.8,188.5
		L420.6,187.1 L422.5,185.4 L424.4,183.5 L426.3,181.3 L428.1,178.8 L430.0,176.0 L431.9,173.0 L433.7,169.8
		L435.6,166.4 L437.5,162.9 L439.3,159.4 L441.2,156.0 L443.1,152.7 L445.0,149.6 L446.8,146.7 L448.7,144.2
		L450.6,142.1 L452.4,140.3 L454.3,139.0 L456.2,138.0 L458.0,137.5 L459.9,137.2 L461.8,137.1 L463.7,137.3
		L465.5,137.5 L467.4,137.6 L469.3,137.7 L471.1,137.4 L473.0,136.9 L474.9,135.9 L476.8,134.4 L478.6,132.3
		L480.5,129.7 L482.4,126.4 L484.2,122.6 L486.1,118.2 L488.0,113.4 L489.8,108.1 L491.7,102.6 L493.6,96.9
		L495.5,91.2 L497.3,85.7 L499.2,80.4 L501.1,75.5 L502.9,71.2 L504.8,67.6 L506.7,64.8 L508.6,62.8
		L510.4,61.7 L512.3,61.5 L514.2,62.2 L516.0,63.8 L517.9,66.2 L519.8,69.4 L521.6,73.2 L523.5,77.5
		L525.4,82.2 L527.3,87.1 L529.1,92.2 L531.0,97.2 L532.9,102.1 L534.7,106.8 L536.6,111.2 L538.5,115.3
		L540.4,118.9 L542.2,122.1 L544.1,124.9 L546.0,127.2 L547.8,129.1 L549.7,130.7 L551.6,132.0 L553.4,133.0
		L555.3,133.9 L557.2,134.5 L559.1,135.1 L560.9,135.6 L562.8,136.1 L564.7,136.6 L566.5,137.2 L568.4,137.7
		L570.3,138.3 L572.2,139.0 L574.0,139.7 L575.9,140.4 L577.8,141.1 L579.6,142.0 L581.5,142.8 L583.4,143.7
		L585.2,144.6 L587.1,145.5 L589.0,146.5 L590.9,147.6 L592.7,148.8 L594.6,150.1 L596.5,151.5 L598.3,153.0
		L600.2,154.8 L602.1,156.7 L604.0,158.8 L605.8,161.1 L607.7,163.6 L609.6,166.4 L611.4,169.3 L613.3,172.6
		L615.2,176.0 L617.0,179.7 L618.9,183.6 L620.8,187.7 L622.7,192.0 L624.5,196.5 L626.4,201.2 L628.3,206.0
		L630.1,211.0 L632.0,216.2 L633.9,221.5 L635.8,226.9 L637.6,232.4 L639.5,237.9 L641.4,243.6 L643.2,249.3
		L645.1,254.9 L647.0,260.6 L648.8,266.3 L650.7,271.9 L652.6,277.4 L654.5,282.8 L656.3,288.1 L658.2,293.2
		L660.1,298.2 L661.9,303.1 L663.8,307.7 L665.7,312.2 L667.5,316.5 L669.4,320.6 L671.3,324.6 L673.2,328.4
		L675.0,332.0 L676.9,335.5 L678.8,338.9 L680.6,342.1 L682.5,345.2 L684.4,348.3 L686.3,351.2 L688.1,354.1
		L690.0,356.9 L691.9,359.7 L693.7,362.4 L695.6,365.0 L697.5,367.6 L699.3,370.2 L701.2,372.7 L703.1,375.1
		L705.0,377.5 L706.8,379.9 L708.7,382.3 L710.6,384.6 L712.4,386.9 L714.3,389.2 L716.2,391.5 L718.1,393.8
		L719.9,396.1 L721.8,398.4 L723.7,400.8 L725.5,403.2 L727.4,405.7 L729.3,408.2 L731.1,410.8 L733.0,413.5
		L734.9,416.3 L736.8,419.1 L738.6,422.0 L740.5,425.1 L742.4,428.2 L744.2,431.4 L746.1,434.6 L748.0,438.0
		L749.9,441.5 L751.7,445.0 L753.6,448.6 L755.5,452.2 L757.3,456.0 L759.2,459.7 L761.1,463.5 L762.9,467.4
		L764.8,471.2 L766.7,475.0 L768.6,478.9 L770.4,482.6 L772.3,486.4 L774.2,490.1 L776.0,493.6 L777.9,497.1
		L779.8,500.5 L781.7,503.8 L783.5,506.9 L785.4,509.9 L787.3,512.7 L789.1,515.4 L791.0,517.9 L792.9,520.2
		L794.7,522.3 L796.6,524.3 L798.5,526.1 L800.4,527.7 L802.2,529.2 L804.1,530.5 L806.0,531.6 L807.8,532.6
		L809.7,533.5 L811.6,534.2 L813.5,534.8 L815.3,535.3 L817.2,535.8 L819.1,536.2 L820.9,536.5 L822.8,536.8
		L824.7,537.1 L826.5,537.4 L828.4,537.8 L830.3,538.2 L832.2,538.6 L834.0,539.1 L835.9,539.7 L837.8,540.5
		L839.6,541.3 L841.5,542.2 L843.4,543.3 L845.3,544.4 L847.1,545.7 L849.0,547.0 L850.9,548.4 L852.7,549.9
		L854.6,551.4 L856.5,553.0 L858.3,554.5 L860.2,556.1 L862.1,557.6 L864.0,559.2 L865.8,560.6 L867.7,562.0
		L869.6,563.3 L871.4,564.5 L873.3,565.7 L875.2,566.8 L877.1,567.7 L878.9,568.6 L880.8,569.4 L882.7,570.2
		L884.5,570.9 L886.4,571.5 L888.3,572.1 L890.1,572.6 L892.0,573.2 L893.9,573.7 L895.8,574.2 L897.6,574.8
		L899.5,575.4 L901.4,576.0 L903.2,576.7 L905.1,577.4 L907.0,578.2 L908.8,579.1 L910.7,580.1 L912.6,581.1
		L914.5,582.2 L916.3,583.3 L918.2,584.6 L920.1,585.9 L921.9,587.3 L923.8,588.7 L925.7,590.2 L927.6,591.7
		L929.4,593.3 L931.3,594.9 L933.2,596.5 L935.0,598.1 L936.9,599.8 L938.8,601.4 L940.6,603.0 L942.5,604.5
		L944.4,606.1 L946.3,607.6 L948.1,609.1 L950.0,610.5 L951.9,611.9 L953.7,613.2 L955.6,614.5 L957.5,615.7
		L959.4,616.9 L961.2,618.0 L963.1,619.0 L965.0,620.0 L966.8,621.0 L968.7,621.9 L970.6,622.7 L972.4,623.5
		L974.3,624.2 L976.2,624.8 L978.1,625.4 L979.9,625.9 L981.8,626.4 L983.7,626.8 L985.5,627.2 L987.4,627.5
		L989.3,627.8 L991.2,628.1 L993.0,628.3 L994.9,628.5 L996.8,628.7 L998.6,628.8 L1000.5,629.0 L1002.4,629.2
		L1004.2,629.4 L1006.1,629.6 L1008.0,629.8 L1009.9,630.0 L1011.7,630.3 L1013.6,630.6  '/></g>
	</g>
	<g id="gnuplot_plot_2" ><title>Confidence interval</title>
<g fill="none" color="white" stroke="rgb( 31, 120, 180)" stroke-width="1.00" stroke-linecap="butt" stroke-linejoin="miter">
</g>
<g fill="none" color="black" stroke="currentColor" stroke-width="1.00" stroke-linecap="butt" stroke-linejoin="miter">
	<g transform="translate(1089.0,85.0)" stroke="none" fill="black" font-family="Helvetica" font-size="12.00"  text-anchor="start">
		<text><tspan font-family="Helvetica" >Confidence interval</tspan></text>
	</g>
</g>
<g fill="none" color="black" stroke="currentColor" stroke-width="1.00" stroke-linecap="butt" stroke-linejoin="miter">
	<g stroke='none' shape-rendering='crispEdges'>
		<polygon fill = 'rgb( 31, 120, 180)' fill-opacity = '0.250000' points = '1038.5,85.6 1080.7,85.6 1080.7,76.6 1038.5,76.6 '/>
		<polygon fill = 'rgb( 31, 120, 180)' fill-opacity = '0.250000' points = '166.2,573.5 168.1,570.5 170.0,567.4 171.9,564.0 173.7,560.5 175.6,556.8 177.5,553.0 179.3,549.2 181.2,545.2 183.1,541.2 185.0,537.3 186.8,533.4 188.7,529.6 190.6,525.9 192.4,522.4 194.3,519.1
196.2,516.0 198.0,513.1 199.9,510.5 201.8,508.2 203.7,506.1 205.5,504.2 207.4,502.6 209.3,501.3 211.1,500.1 213.0,499.1 214.9,498.2 216.7,497.4 218.6,496.6 220.5,495.7 222.4,494.7 224.2,493.6
226.1,492.2 228.0,490.5 229.8,488.4 231.7,485.8 233.6,482.8 235.5,479.2 237.3,475.0 239.2,470.2 241.1,464.8 242.9,458.7 244.8,452.0 246.7,444.7 248.5,436.8 250.4,428.3 252.3,419.4 254.2,410.2
256.0,400.6 257.9,390.9 259.8,381.1 261.6,371.4 263.5,361.8 265.4,352.4 267.3,343.4 269.1,334.9 271.0,327.0 272.9,319.6 274.7,313.0 276.6,307.1 278.5,301.9 280.3,297.5 282.2,293.9 284.1,291.0
286.0,288.7 287.8,287.1 289.7,286.1 291.6,285.6 293.4,285.4 295.3,285.6 297.2,286.1 299.1,286.6 300.9,287.3 302.8,287.9 304.7,288.5 306.5,288.9 308.4,289.1 310.3,289.1 312.1,288.8 314.0,288.3
315.9,287.5 317.8,286.5 319.6,285.1 321.5,283.6 323.4,281.8 325.2,279.9 327.1,277.9 329.0,275.8 330.9,273.6 332.7,271.4 334.6,269.3 336.5,267.2 338.3,265.2 340.2,263.4 342.1,261.7 343.9,260.1
345.8,258.6 347.7,257.3 349.6,256.1 351.4,255.0 353.3,253.9 355.2,252.9 357.0,251.8 358.9,250.7 360.8,249.5 362.7,248.2 364.5,246.8 366.4,245.2 368.3,243.5 370.1,241.5 372.0,239.3 373.9,237.0
375.7,234.5 377.6,231.8 379.5,228.9 381.4,226.0 383.2,223.0 385.1,220.0 387.0,217.0 388.8,214.1 390.7,211.3 392.6,208.6 394.5,206.1 396.3,203.8 398.2,201.7 400.1,199.9 401.9,198.3 403.8,196.8
405.7,195.6 407.5,194.5 409.4,193.5 411.3,192.6 413.2,191.7 415.0,190.8 416.9,189.7 418.8,188.5 420.6,187.1 422.5,185.4 424.4,183.5 426.3,181.3 428.1,178.8 430.0,176.0 431.9,173.0 433.7,169.8
435.6,166.4 437.5,162.9 439.3,159.4 441.2,156.0 443.1,152.7 445.0,149.6 446.8,146.7 448.7,144.2 450.6,142.1 452.4,140.3 454.3,139.0 456.2,138.0 458.0,137.5 459.9,137.2 461.8,137.1 463.7,137.3
465.5,137.5 467.4,137.6 469.3,137.7 471.1,137.4 473.0,136.9 474.9,135.9 476.8,134.4 478.6,132.3 480.5,129.7 482.4,126.4 484.2,122.6 486.1,118.2 488.0,113.4 489.8,108.1 491.7,102.6 493.6,96.9
495.5,91.2 497.3,85.7 499.2,80.4 501.1,75.5 502.9,71.2 504.8,67.6 506.7,64.8 508.6,62.8 510.4,61.7 512.3,61.5 514.2,62.2 516.0,63.8 517.9,66.2 519.8,69.4 521.6,73.2 523.5,77.5
525.4,82.2 527.3,87.1 529.1,92.2 531.0,97.2 532.9,102.1 534.7,106.8 536.6,111.2 538.5,115.3 540.4,118.9 542.2,122.1 544.1,124.9 546.0,127.2 547.8,129.1 549.7,130.7 551.6,132.0 553.4,133.0
555.3,133.9 557.2,134.5 559.1,135.1 560.9,135.6 562.8,136.1 564.7,136.6 566.5,137.2 568.4,137.7 570.3,138.3 572.2,139.0 574.0,139.7 575.9,140.4 577.8,141.1 579.6,142.0 581.5,142.8 583.4,143.7
585.2,144.6 587.1,145.5 589.0,146.5 590.9,147.6 592.7,148.8 594.6,150.1 596.5,151.5 598.3,153.0 600.2,154.8 602.1,156.7 604.0,158.8 605.8,161.1 607.7,163.6 609.6,166.4 611.4,169.3 613.3,172.6
615.2,176.0 617.0,179.7 618.9,183.6 620.8,187.7 622.7,192.0 624.5,196.5 626.4,201.2 628.3,206.0 630.1,211.0 632.0,216.2 633.9,221.5 635.8,226.9 637.6,232.4 639.5,237.9 641.4,243.6 643.2,249.3
645.1,254.9 647.0,260.6 648.8,266.3 650.7,271.9 652.6,277.4 654.5,282.8 656.3,288.1 658.2,293.2 660.1,298.2 661.9,303.1 663.8,307.7 665.7,312.2 667.5,316.5 669.4,320.6 671.3,324.6 673.2,328.4
675.0,332.0 676.9,335.5 678.8,338.9 680.6,342.1 682.5,345.2 684.4,348.3 686.3,351.2 688.1,354.1 690.0,356.9 691.9,359.7 693.7,362.4 695.6,365.0 697.5,367.6 699.3,370.2 701.2,372.7 703.1,375.1
705.0,377.5 706.8,379.9 708.7,382.3 710.6,384.6 712.4,386.9 714.3,389.2 716.2,391.5 718.1,393.8 719.9,396.1 721.8,398.4 723.7,400.8 725.5,403.2 727.4,405.7 729.3,408.2 731.1,410.8 733.0,413.5
734.9,416.3 736.8,419.1 738.6,422.0 740.5,425.1 742.4,428.2 744.2,431.4 746.1,434.6 748.0,438.0 749.9,441.5 751.7,445.0 753.6,448.6 755.5,452.2 757.3,456.0 759.2,459.7 761.1,463.5 762.9,467.4
764.8,471.2 766.7,475.0 768.6,478.9 770.4,482.6 772.3,486.4 774.2,490.1 776.0,493.6 777.9,497.1 779.8,500.5 781.7,503.8 783.5,506.9 785.4,509.9 787.3,512.7 789.1,515.4 791.0,517.9 792.9,520.2
794.7,522.3 796.6,524.3 798.5,526.1 800.4,527.7 802.2,529.2 804.1,530.5 806.0,531.6 807.8,532.6 809.7,533.5 811.6,534.2 813.5,534.8 815.3,535.3 817.2,535.8 819.1,536.2 820.9,536.5 822.8,536.8
824.7,537.1 826.5,537.4 828.4,537.8 830.3,538.2 832.2,538.6 834.0,539.1 835.9,539.7 837.8,540.5 839.6,541.3 841.5,542.2 843.4,543.3 845.3,544.4 847.1,545.7 849.0,547.0 850.9,548.4 852.7,549.9
854.6,551.4 856.5,553.0 858.3,554.5 860.2,556.1 862.1,557.6 864.0,559.2 865.8,560.6 867.7,562.0 869.6,563.3 871.4,564.5 873.3,565.7 875.2,566.8 877.1,567.7 878.9,568.6 880.8,569.4 882.7,570.2
884.5,570.9 886.4,571.5 888.3,572.1 890.1,572.6 892.0,573.2 893.9,573.7 895.8,574.2 897.6,574.8 899.5,575.4 901.4,576.0 903.2,576.7 905.1,577.4 907.0,578.2 908.8,579.1 910.7,580.1 912.6,581.1
914.5,582.2 916.3,583.3 918.2,584.6 920.1,585.9 921.9,587.3 923.8,588.7 925.7,590.2 925.7,662.4 923.8,662.4 921.9,662.4 920.1,662.4 918.2,662.4 916.3,662.4 914.5,662.4 912.6,662.4 910.7,662.4
908.8,662.4 907.0,662.4 905.1,662.4 903.2,662.4 901.4,662.4 899.5,662.4 897.6,662.4 895.8,662.4 893.9,662.4 892.0,662.4 890.1,662.4 888.3,662.4 886.4,662.4 884.5,662.4 882.7,662.4 880.8,662.4
878.9,662.4 877.1,662.4 875.2,662.4 873.3,662.4 871.4,662.4 869.6,662.4 867.7,662.4 865.8,662.4 864.0,662.4 862.1,662.4 860.2,662.4 858.3,662.4 856.5,662.4 854.6,662.4 852.7,662.4 850.9,662.4
849.0,662.4 847.1,662.4 845.3,662.4 843.4,662.4 841.5,662.4 839.6,662.4 837.8,662.4 835.9,662.4 834.0,662.4 832.2,662.4 830.3,662.4 828.4,662.4 826.5,662.4 824.7,662.4 822.8,662.4 820.9,662.4
819.1,662.4 817.2,662.4 815.3,662.4 813.5,662.4 811.6,662.4 809.7,662.4 807.8,662.4 806.0,662.4 804.1,662.4 802.2,662.4 800.4,662.4 798.5,662.4 796.6,662.4 794.7,662.4 792.9,662.4 791.0,662.4
789.1,662.4 787.3,662.4 785.4,662.4 783.5,662.4 781.7,662.4 779.8,662.4 777.9,662.4 776.0,662.4 774.2,662.4 772.3,662.4 770.4,662.4 768.6,662.4 766.7,662.4 764.8,662.4 762.9,662.4 761.1,662.4
759.2,662.4 757.3,662.4 755.5,662.4 753.6,662.4 751.7,662.4 749.9,662.4 748.0,662.4 746.1,662.4 744.2,662.4 742.4,662.4 740.5,662.4 738.6,662.4 736.8,662.4 734.9,662.4 733.0,662.4 731.1,662.4
729.3,662.4 727.4,662.4 725.5,662.4 723.7,662.4 721.8,662.4 719.9,662.4 718.1,662.4 716.2,662.4 714.3,662.4 712.4,662.4 710.6,662.4 708.7,662.4 706.8,662.4 705.0,662.4 703.1,662.4 701.2,662.4
699.3,662.4 697.5,662.4 695.6,662.4 693.7,662.4 691.9,662.4 690.0,662.4 688.1,662.4 686.3,662.4 684.4,662.4 682.5,662.4 680.6,662.4 678.8,662.4 676.9,662.4 675.0,662.4 673.2,662.4 671.3,662.4
669.4,662.4 667.5,662.4 665.7,662.4 663.8,662.4 661.9,662.4 660.1,662.4 658.2,662.4 656.3,662.4 654.5,662.4 652.6,662.4 650.7,662.4 648.8,662.4 647.0,662.4 645.1,662.4 643.2,662.4 641.4,662.4
639.5,662.4 637.6,662.4 635.8,662.4 633.9,662.4 632.0,662.4 630.1,662.4 628.3,662.4 626.4,662.4 624.5,662.4 622.7,662.4 620.8,662.4 618.9,662.4 617.0,662.4 615.2,662.4 613.3,662.4 611.4,662.4
609.6,662.4 607.7,662.4 605.8,662.4 604.0,662.4 602.1,662.4 600.2,662.4 598.3,662.4 596.5,662.4 594.6,662.4 592.7,662.4 590.9,662.4 589.0,662.4 587.1,662.4 585.2,662.4 583.4,662.4 581.5,662.4
579.6,662.4 577.8,662.4 575.9,662.4 574.0,662.4 572.2,662.4 570.3,662.4 568.4,662.4 566.5,662.4 564.7,662.4 562.8,662.4 560.9,662.4 559.1,662.4 557.2,662.4 555.3,662.4 553.4,662.4 551.6,662.4
549.7,662.4 547.8,662.4 546.0,662.4 544.1,662.4 542.2,662.4 540.4,662.4 538.5,662.4 536.6,662.4 534.7,662.4 532.9,662.4 531.0,662.4 529.1,662.4 527.3,662.4 525.4,662.4 523.5,662.4 521.6,662.4
519.8,662.4 517.9,662.4 516.0,662.4 514.2,662.4 512.3,662.4 510.4,662.4 508.6,662.4 506.7,662.4 504.8,662.4 502.9,662.4 501.1,662.4 499.2,662.4 497.3,662.4 495.5,662.4 493.6,662.4 491.7,662.4
489.8,662.4 488.0,662.4 486.1,662.4 484.2,662.4 482.4,662.4 480.5,662.4 478.6,662.4 476.8,662.4 474.9,662.4 473.0,662.4 471.1,662.4 469.3,662.4 467.4,662.4 465.5,662.4 463.7,662.4 461.8,662.4
459.9,662.4 458.0,662.4 456.2,662.4 454.3,662.4 452.4,662.4 450.6,662.4 448.7,662.4 446.8,662.4 445.0,662.4 443.1,662.4 441.2,662.4 439.3,662.4 437.5,662.4 435.6,662.4 433.7,662.4 431.9,662.4
430.0,662.4 428.1,662.4 426.3,662.4 424.4,662.4 422.5,662.4 420.6,662.4 418.8,662.4 416.9,662.4 415.0,662.4 413.2,662.4 411.3,662.4 409.4,662.4 407.5,662.4 405.7,662.4 403.8,662.4 401.9,662.4
400.1,662.4 398.2,662.4 396.3,662.4 394.5,662.4 392.6,662.4 390.7,662.4 388.8,662.4 387.0,662.4 385.1,662.4 383.2,662.4 381.4,662.4 379.5,662.4 377.6,662.4 375.7,662.4 373.9,662.4 372.0,662.4
370.1,662.4 368.3,662.4 366.4,662.4 364.5,662.4 362.7,662.4 360.8,662.4 358.9,662.4 357.0,662.4 355.2,662.4 353.3,662.4 351.4,662.4 349.6,662.4 347.7,662.4 345.8,662.4 343.9,662.4 342.1,662.4
340.2,662.4 338.3,662.4 336.5,662.4 334.6,662.4 332.7,662.4 330.9,662.4 329.0,662.4 327.1,662.4 325.2,662.4 323.4,662.4 321.5,662.4 319.6,662.4 317.8,662.4 315.9,662.4 314.0,662.4 312.1,662.4
310.3,662.4 308.4,662.4 306.5,662.4 304.7,662.4 302.8,662.4 300.9,662.4 299.1,662.4 297.2,662.4 295.3,662.4 293.4,662.4 291.6,662.4 289.7,662.4 287.8,662.4 286.0,662.4 284.1,662.4 282.2,662.4
280.3,662.4 278.5,662.4 276.6,662.4 274.7,662.4 272.9,662.4 271.0,662.4 269.1,662.4 267.3,662.4 265.4,662.4 263.5,662.4 261.6,662.4 259.8,662.4 257.9,662.4 256.0,662.4 254.2,662.4 252.3,662.4
250.4,662.4 248.5,662.4 246.7,662.4 244.8,662.4 242.9,662.4 241.1,662.4 239.2,662.4 237.3,662.4 235.5,662.4 233.6,662.4 231.7,662.4 229.8,662.4 228.0,662.4 226.1,662.4 224.2,662.4 222.4,662.4
220.5,662.4 218.6,662.4 216.7,662.4 214.9,662.4 213.0,662.4 211.1,662.4 209.3,662.4 207.4,662.4 205.5,662.4 203.7,662.4 201.8,662.4 199.9,662.4 198.0,662.4 196.2,662.4 194.3,662.4 192.4,662.4
190.6,662.4 188.7,662.4 186.8,662.4 185.0,662.4 183.1,662.4 181.2,662.4 179.3,662.4 177.5,662.4 175.6,662.4 173.7,662.4 171.9,662.4 170.0,662.4 168.1,662.4 166.2,662.4 '/>
	</g>
</g>
	</g>
	<g id="gnuplot_plot_3" ><title>Point estimate</title>
<g fill="none" color="white" stroke="rgb( 31, 120, 180)" stroke-width="2.00" stroke-linecap="butt" stroke-linejoin="miter">
</g>
<g fill="none" color="black" stroke="currentColor" stroke-width="2.00" stroke-linecap="butt" stroke-linejoin="miter">
	<g transform="translate(1089.0,103.0)" stroke="none" fill="black" font-family="Helvetica" font-size="12.00"  text-anchor="start">
		<text><tspan font-family="Helvetica" >Point estimate</tspan></text>
	</g>
</g>
<g fill="none" color="black" stroke="currentColor" stroke-width="2.00" stroke-linecap="butt" stroke-linejoin="miter">
	<path stroke='rgb( 31, 120, 180)'  d='M1038.5,99.1 L1080.7,99.1 M472.5,662.4 L472.5,137.0  '/></g>
	</g>
<g fill="none" color="black" stroke="currentColor" stroke-width="2.00" stroke-linecap="butt" stroke-linejoin="miter">
</g>
<g fill="none" color="black" stroke="black" stroke-width="1.00" stroke-linecap="butt" stroke-linejoin="miter">
</g>
<g fill="none" color="black" stroke="currentColor" stroke-width="1.00" stroke-linecap="butt" stroke-linejoin="miter">
	<path stroke='black'  d='M80.2,54.1 L80.2,662.4 L1013.6,662.4 L1013.6,54.1 L80.2,54.1 Z  '/></g>
<g fill="none" color="black" stroke="currentColor" stroke-width="1.00" stroke-linecap="butt" stroke-linejoin="miter">
</g>
</g>
</svg>

