<?xml version="1.0" encoding="utf-8"  standalone="no"?>
<svg 
 viewBox="0 0 1280 720"
 xmlns="http://www.w3.org/2000/svg"
 xmlns:xlink="http://www.w3.org/1999/xlink"
>

<title>Gnuplot</title>
<desc>Produced by GNUPLOT 5.2 patchlevel 6 </desc>

<g id="gnuplot_canvas">

<rect x="0" y="0" width="1280" height="720" fill="none"/>
<defs>

	<circle id='gpDot' r='0.5' stroke-width='0.5' stroke='currentColor'/>
	<path id='gpPt0' stroke-width='0.222' stroke='currentColor' d='M-1,0 h2 M0,-1 v2'/>
	<path id='gpPt1' stroke-width='0.222' stroke='currentColor' d='M-1,-1 L1,1 M1,-1 L-1,1'/>
	<path id='gpPt2' stroke-width='0.222' stroke='currentColor' d='M-1,0 L1,0 M0,-1 L0,1 M-1,-1 L1,1 M-1,1 L1,-1'/>
	<rect id='gpPt3' stroke-width='0.222' stroke='currentColor' x='-1' y='-1' width='2' height='2'/>
	<rect id='gpPt4' stroke-width='0.222' stroke='currentColor' fill='currentColor' x='-1' y='-1' width='2' height='2'/>
	<circle id='gpPt5' stroke-width='0.222' stroke='currentColor' cx='0' cy='0' r='1'/>
	<use xlink:href='#gpPt5' id='gpPt6' fill='currentColor' stroke='none'/>
	<path id='gpPt7' stroke-width='0.222' stroke='currentColor' d='M0,-1.33 L-1.33,0.67 L1.33,0.67 z'/>
	<use xlink:href='#gpPt7' id='gpPt8' fill='currentColor' stroke='none'/>
	<use xlink:href='#gpPt7' id='gpPt9' stroke='currentColor' transform='rotate(180)'/>
	<use xlink:href='#gpPt9' id='gpPt10' fill='currentColor' stroke='none'/>
	<use xlink:href='#gpPt3' id='gpPt11' stroke='currentColor' transform='rotate(45)'/>
	<use xlink:href='#gpPt11' id='gpPt12' fill='currentColor' stroke='none'/>
	<path id='gpPt13' stroke-width='0.222' stroke='currentColor' d='M0,1.330 L1.265,0.411 L0.782,-1.067 L-0.782,-1.076 L-1.265,0.411 z'/>
	<use xlink:href='#gpPt13' id='gpPt14' fill='currentColor' stroke='none'/>
	<filter id='textbox' filterUnits='objectBoundingBox' x='0' y='0' height='1' width='1'>
	  <feFlood flood-color='white' flood-opacity='1' result='bgnd'/>
	  <feComposite in='SourceGraphic' in2='bgnd' operator='atop'/>
	</filter>
	<filter id='greybox' filterUnits='objectBoundingBox' x='0' y='0' height='1' width='1'>
	  <feFlood flood-color='lightgrey' flood-opacity='1' result='grey'/>
	  <feComposite in='SourceGraphic' in2='grey' operator='atop'/>
	</filter>
</defs>
<g fill="none" color="white" stroke="currentColor" stroke-width="1.00" stroke-linecap="butt" stroke-linejoin="miter">
</g>
<g fill="none" color="black" stroke="currentColor" stroke-width="1.00" stroke-linecap="butt" stroke-linejoin="miter">
	<path stroke='black'  d='M71.9,662.4 L80.9,662.4  '/>	<g transform="translate(63.6,666.3)" stroke="none" fill="black" font-family="Helvetica" font-size="12.00"  text-anchor="end">
		<text><tspan font-family="Helvetica" > 0</tspan></text>
	</g>
</g>
<g fill="none" color="black" stroke="currentColor" stroke-width="1.00" stroke-linecap="butt" stroke-linejoin="miter">
	<path stroke='black'  d='M71.9,561.0 L80.9,561.0  '/>	<g transform="translate(63.6,564.9)" stroke="none" fill="black" font-family="Helvetica" font-size="12.00"  text-anchor="end">
		<text><tspan font-family="Helvetica" > 100</tspan></text>
	</g>
</g>
<g fill="none" color="black" stroke="currentColor" stroke-width="1.00" stroke-linecap="butt" stroke-linejoin="miter">
	<path stroke='black'  d='M71.9,459.6 L80.9,459.6  '/>	<g transform="translate(63.6,463.5)" stroke="none" fill="black" font-family="Helvetica" font-size="12.00"  text-anchor="end">
		<text><tspan font-family="Helvetica" > 200</tspan></text>
	</g>
</g>
<g fill="none" color="black" stroke="currentColor" stroke-width="1.00" stroke-linecap="butt" stroke-linejoin="miter">
	<path stroke='black'  d='M71.9,358.2 L80.9,358.2  '/>	<g transform="translate(63.6,362.1)" stroke="none" fill="black" font-family="Helvetica" font-size="12.00"  text-anchor="end">
		<text><tspan font-family="Helvetica" > 300</tspan></text>
	</g>
</g>
<g fill="none" color="black" stroke="currentColor" stroke-width="1.00" stroke-linecap="butt" stroke-linejoin="miter">
	<path stroke='black'  d='M71.9,256.9 L80.9,256.9  '/>	<g transform="translate(63.6,260.8)" stroke="none" fill="black" font-family="Helvetica" font-size="12.00"  text-anchor="end">
		<text><tspan font-family="Helvetica" > 400</tspan></text>
	</g>
</g>
<g fill="none" color="black" stroke="currentColor" stroke-width="1.00" stroke-linecap="butt" stroke-linejoin="miter">
	<path stroke='black'  d='M71.9,155.5 L80.9,155.5  '/>	<g transform="translate(63.6,159.4)" stroke="none" fill="black" font-family="Helvetica" font-size="12.00"  text-anchor="end">
		<text><tspan font-family="Helvetica" > 500</tspan></text>
	</g>
</g>
<g fill="none" color="black" stroke="currentColor" stroke-width="1.00" stroke-linecap="butt" stroke-linejoin="miter">
	<path stroke='black'  d='M71.9,54.1 L80.9,54.1  '/>	<g transform="translate(63.6,58.0)" stroke="none" fill="black" font-family="Helvetica" font-size="12.00"  text-anchor="end">
		<text><tspan font-family="Helvetica" > 600</tspan></text>
	</g>
</g>
<g fill="none" color="black" stroke="currentColor" stroke-width="1.00" stroke-linecap="butt" stroke-linejoin="miter">
	<path stroke='black'  d='M166.8,662.4 L166.8,653.4  '/>	<g transform="translate(166.8,684.3)" stroke="none" fill="black" font-family="Helvetica" font-size="12.00"  text-anchor="middle">
		<text><tspan font-family="Helvetica" > 3.823</tspan></text>
	</g>
</g>
<g fill="none" color="black" stroke="currentColor" stroke-width="1.00" stroke-linecap="butt" stroke-linejoin="miter">
	<path stroke='black'  d='M349.9,662.4 L349.9,653.4  '/>	<g transform="translate(349.9,684.3)" stroke="none" fill="black" font-family="Helvetica" font-size="12.00"  text-anchor="middle">
		<text><tspan font-family="Helvetica" > 3.824</tspan></text>
	</g>
</g>
<g fill="none" color="black" stroke="currentColor" stroke-width="1.00" stroke-linecap="butt" stroke-linejoin="miter">
	<path stroke='black'  d='M533.0,662.4 L533.0,653.4  '/>	<g transform="translate(533.0,684.3)" stroke="none" fill="black" font-family="Helvetica" font-size="12.00"  text-anchor="middle">
		<text><tspan font-family="Helvetica" > 3.825</tspan></text>
	</g>
</g>
<g fill="none" color="black" stroke="currentColor" stroke-width="1.00" stroke-linecap="butt" stroke-linejoin="miter">
	<path stroke='black'  d='M716.2,662.4 L716.2,653.4  '/>	<g transform="translate(716.2,684.3)" stroke="none" fill="black" font-family="Helvetica" font-size="12.00"  text-anchor="middle">
		<text><tspan font-family="Helvetica" > 3.826</tspan></text>
	</g>
</g>
<g fill="none" color="black" stroke="currentColor" stroke-width="1.00" stroke-linecap="butt" stroke-linejoin="miter">
	<path stroke='black'  d='M899.3,662.4 L899.3,653.4  '/>	<g transform="translate(899.3,684.3)" stroke="none" fill="black" font-family="Helvetica" font-size="12.00"  text-anchor="middle">
		<text><tspan font-family="Helvetica" > 3.827</tspan></text>
	</g>
</g>
<g fill="none" color="black" stroke="currentColor" stroke-width="1.00" stroke-linecap="butt" stroke-linejoin="miter">
</g>
<g fill="none" color="black" stroke="currentColor" stroke-width="1.00" stroke-linecap="butt" stroke-linejoin="miter">
	<path stroke='black'  d='M71.9,54.1 L71.9,662.4 L1013.6,662.4 L1013.6,54.1 L71.9,54.1 Z  '/></g>
<g fill="none" color="black" stroke="currentColor" stroke-width="1.00" stroke-linecap="butt" stroke-linejoin="miter">
	<g transform="translate(16.3,358.3) rotate(270)" stroke="none" fill="black" font-family="Helvetica" font-size="12.00"  text-anchor="middle">
		<text><tspan font-family="Helvetica" >Density (a.u.)</tspan></text>
	</g>
</g>
<g fill="none" color="black" stroke="currentColor" stroke-width="1.00" stroke-linecap="butt" stroke-linejoin="miter">
	<g transform="translate(542.7,711.3)" stroke="none" fill="black" font-family="Helvetica" font-size="12.00"  text-anchor="middle">
		<text><tspan font-family="Helvetica" >Average time (ms)</tspan></text>
	</g>
</g>
<g fill="none" color="black" stroke="currentColor" stroke-width="1.00" stroke-linecap="butt" stroke-linejoin="miter">
	<g transform="translate(542.7,31.0)" stroke="none" fill="black" font-family="Helvetica" font-size="12.00"  text-anchor="middle">
		<text><tspan font-family="Helvetica" >snapshot_restore_with_dense/Sparse: Dirty pages + /proc/pid/mem/1000: median</tspan></text>
	</g>
</g>
	<g id="gnuplot_plot_1" ><title>Bootstrap distribution</title>
<g fill="none" color="white" stroke="black" stroke-width="2.00" stroke-linecap="butt" stroke-linejoin="miter">
</g>
<g fill="none" color="black" stroke="currentColor" stroke-width="2.00" stroke-linecap="butt" stroke-linejoin="miter">
	<g transform="translate(1089.0,67.0)" stroke="none" fill="black" font-family="Helvetica" font-size="12.00"  text-anchor="start">
		<text><tspan font-family="Helvetica" >Bootstrap distribution</tspan></text>
	</g>
</g>
<g fill="none" color="black" stroke="currentColor" stroke-width="2.00" stroke-linecap="butt" stroke-linejoin="miter">
	<path stroke='rgb( 31, 120, 180)'  d='M1038.5,63.1 L1080.7,63.1 M71.9,653.4 L73.8,653.2 L75.7,653.0 L77.6,652.7 L79.4,652.4 L81.3,652.1
		L83.2,651.7 L85.1,651.2 L87.0,650.7 L88.9,650.1 L90.8,649.4 L92.7,648.5 L94.5,647.6 L96.4,646.5
		L98.3,645.3 L100.2,643.9 L102.1,642.3 L104.0,640.5 L105.9,638.4 L107.8,636.2 L109.6,633.7 L111.5,630.9
		L113.4,628.0 L115.3,624.7 L117.2,621.3 L119.1,617.6 L121.0,613.8 L122.9,609.8 L124.7,605.6 L126.6,601.3
		L128.5,597.0 L130.4,592.6 L132.3,588.2 L134.2,583.9 L136.1,579.6 L138.0,575.4 L139.8,571.3 L141.7,567.3
		L143.6,563.4 L145.5,559.6 L147.4,556.0 L149.3,552.4 L151.2,548.9 L153.0,545.4 L154.9,542.0 L156.8,538.4
		L158.7,534.8 L160.6,531.0 L162.5,527.0 L164.4,522.8 L166.3,518.3 L168.1,513.4 L170.0,508.1 L171.9,502.5
		L173.8,496.3 L175.7,489.7 L177.6,482.7 L179.5,475.1 L181.4,467.1 L183.2,458.5 L185.1,449.6 L187.0,440.1
		L188.9,430.3 L190.8,420.1 L192.7,409.6 L194.6,398.7 L196.5,387.5 L198.3,376.1 L200.2,364.5 L202.1,352.6
		L204.0,340.6 L205.9,328.4 L207.8,316.1 L209.7,303.6 L211.6,291.0 L213.4,278.2 L215.3,265.3 L217.2,252.4
		L219.1,239.3 L221.0,226.3 L222.9,213.3 L224.8,200.4 L226.6,187.7 L228.5,175.2 L230.4,163.1 L232.3,151.5
		L234.2,140.5 L236.1,130.1 L238.0,120.7 L239.9,112.1 L241.7,104.7 L243.6,98.3 L245.5,93.1 L247.4,89.2
		L249.3,86.5 L251.2,85.0 L253.1,84.7 L255.0,85.5 L256.8,87.4 L258.7,90.2 L260.6,93.8 L262.5,98.1
		L264.4,103.0 L266.3,108.3 L268.2,113.8 L270.1,119.5 L271.9,125.3 L273.8,131.1 L275.7,136.9 L277.6,142.6
		L279.5,148.2 L281.4,153.7 L283.3,159.2 L285.2,164.8 L287.0,170.5 L288.9,176.4 L290.8,182.5 L292.7,189.0
		L294.6,195.8 L296.5,203.1 L298.4,210.9 L300.2,219.2 L302.1,228.0 L304.0,237.2 L305.9,246.7 L307.8,256.6
		L309.7,266.6 L311.6,276.7 L313.5,286.8 L315.3,296.7 L317.2,306.3 L319.1,315.5 L321.0,324.1 L322.9,332.2
		L324.8,339.7 L326.7,346.4 L328.6,352.4 L330.4,357.7 L332.3,362.2 L334.2,366.1 L336.1,369.3 L338.0,371.9
		L339.9,374.0 L341.8,375.7 L343.7,376.9 L345.5,377.8 L347.4,378.4 L349.3,378.7 L351.2,378.7 L353.1,378.6
		L355.0,378.3 L356.9,377.7 L358.8,377.0 L360.6,376.0 L362.5,374.8 L364.4,373.3 L366.3,371.6 L368.2,369.6
		L370.1,367.2 L372.0,364.4 L373.8,361.3 L375.7,357.7 L377.6,353.7 L379.5,349.2 L381.4,344.2 L383.3,338.7
		L385.2,332.7 L387.1,326.1 L388.9,319.0 L390.8,311.3 L392.7,303.1 L394.6,294.4 L396.5,285.2 L398.4,275.7
		L400.3,265.7 L402.2,255.5 L404.0,245.1 L405.9,234.6 L407.8,224.2 L409.7,213.9 L411.6,203.9 L413.5,194.4
		L415.4,185.5 L417.3,177.3 L419.1,170.0 L421.0,163.7 L422.9,158.5 L424.8,154.5 L426.7,151.8 L428.6,150.4
		L430.5,150.5 L432.4,151.9 L434.2,154.7 L436.1,158.8 L438.0,164.1 L439.9,170.6 L441.8,178.3 L443.7,186.8
		L445.6,196.2 L447.4,206.3 L449.3,217.0 L451.2,228.1 L453.1,239.6 L455.0,251.2 L456.9,262.9 L458.8,274.6
		L460.7,286.2 L462.5,297.6 L464.4,308.8 L466.3,319.6 L468.2,330.2 L470.1,340.3 L472.0,350.1 L473.9,359.4
		L475.8,368.4 L477.6,376.9 L479.5,385.1 L481.4,392.8 L483.3,400.2 L485.2,407.2 L487.1,413.8 L489.0,420.1
		L490.9,426.0 L492.7,431.6 L494.6,436.9 L496.5,441.9 L498.4,446.6 L500.3,451.1 L502.2,455.2 L504.1,459.1
		L506.0,462.7 L507.8,466.1 L509.7,469.2 L511.6,472.1 L513.5,474.9 L515.4,477.5 L517.3,479.9 L519.2,482.2
		L521.0,484.5 L522.9,486.7 L524.8,488.9 L526.7,491.1 L528.6,493.4 L530.5,495.7 L532.4,498.1 L534.3,500.5
		L536.1,503.0 L538.0,505.6 L539.9,508.2 L541.8,510.7 L543.7,513.3 L545.6,515.8 L547.5,518.1 L549.4,520.4
		L551.2,522.4 L553.1,524.3 L555.0,525.9 L556.9,527.3 L558.8,528.5 L560.7,529.5 L562.6,530.2 L564.5,530.8
		L566.3,531.3 L568.2,531.6 L570.1,531.9 L572.0,532.1 L573.9,532.4 L575.8,532.8 L577.7,533.2 L579.5,533.8
		L581.4,534.5 L583.3,535.3 L585.2,536.2 L587.1,537.2 L589.0,538.3 L590.9,539.3 L592.8,540.4 L594.6,541.4
		L596.5,542.2 L598.4,543.0 L600.3,543.5 L602.2,543.9 L604.1,544.0 L606.0,543.9 L607.9,543.6 L609.7,543.1
		L611.6,542.5 L613.5,541.8 L615.4,541.0 L617.3,540.2 L619.2,539.4 L621.1,538.8 L623.0,538.3 L624.8,537.9
		L626.7,537.8 L628.6,537.9 L630.5,538.3 L632.4,538.9 L634.3,539.7 L636.2,540.7 L638.1,541.8 L639.9,543.0
		L641.8,544.3 L643.7,545.6 L645.6,546.8 L647.5,548.0 L649.4,549.0 L651.3,549.9 L653.1,550.6 L655.0,551.2
		L656.9,551.5 L658.8,551.7 L660.7,551.7 L662.6,551.5 L664.5,551.2 L666.4,550.9 L668.2,550.4 L670.1,549.9
		L672.0,549.3 L673.9,548.7 L675.8,548.1 L677.7,547.4 L679.6,546.7 L681.5,546.0 L683.3,545.2 L685.2,544.4
		L687.1,543.5 L689.0,542.4 L690.9,541.2 L692.8,539.9 L694.7,538.4 L696.6,536.7 L698.4,534.9 L700.3,532.9
		L702.2,530.8 L704.1,528.5 L706.0,526.1 L707.9,523.7 L709.8,521.1 L711.7,518.5 L713.5,516.0 L715.4,513.4
		L717.3,510.9 L719.2,508.5 L721.1,506.1 L723.0,503.9 L724.9,501.9 L726.7,500.0 L728.6,498.2 L730.5,496.7
		L732.4,495.3 L734.3,494.1 L736.2,493.0 L738.1,492.2 L740.0,491.5 L741.8,491.0 L743.7,490.7 L745.6,490.6
		L747.5,490.6 L749.4,490.8 L751.3,491.1 L753.2,491.6 L755.1,492.2 L756.9,493.0 L758.8,493.9 L760.7,495.0
		L762.6,496.2 L764.5,497.6 L766.4,499.1 L768.3,500.9 L770.2,502.8 L772.0,504.8 L773.9,507.1 L775.8,509.6
		L777.7,512.4 L779.6,515.3 L781.5,518.5 L783.4,521.9 L785.3,525.6 L787.1,529.5 L789.0,533.6 L790.9,538.0
		L792.8,542.5 L794.7,547.2 L796.6,552.1 L798.5,557.1 L800.3,562.1 L802.2,567.2 L804.1,572.3 L806.0,577.4
		L807.9,582.4 L809.8,587.3 L811.7,592.0 L813.6,596.4 L815.4,600.7 L817.3,604.6 L819.2,608.3 L821.1,611.6
		L823.0,614.6 L824.9,617.2 L826.8,619.4 L828.7,621.3 L830.5,622.8 L832.4,623.9 L834.3,624.8 L836.2,625.3
		L838.1,625.5 L840.0,625.6 L841.9,625.4 L843.8,625.0 L845.6,624.6 L847.5,624.0 L849.4,623.5 L851.3,622.9
		L853.2,622.4 L855.1,622.0 L857.0,621.7 L858.9,621.6 L860.7,621.6 L862.6,621.8 L864.5,622.1 L866.4,622.7
		L868.3,623.4 L870.2,624.3 L872.1,625.3 L873.9,626.5 L875.8,627.8 L877.7,629.1 L879.6,630.4 L881.5,631.8
		L883.4,633.0 L885.3,634.2 L887.2,635.3 L889.0,636.2 L890.9,636.9 L892.8,637.4 L894.7,637.6 L896.6,637.7
		L898.5,637.4 L900.4,637.0 L902.3,636.3 L904.1,635.3 L906.0,634.2 L907.9,632.9 L909.8,631.5 L911.7,630.0
		L913.6,628.4 L915.5,626.8 L917.4,625.2 L919.2,623.8 L921.1,622.4 L923.0,621.3 L924.9,620.3 L926.8,619.5
		L928.7,619.0 L930.6,618.8 L932.5,618.9 L934.3,619.2 L936.2,619.8 L938.1,620.6 L940.0,621.7 L941.9,623.0
		L943.8,624.5 L945.7,626.1 L947.5,627.7 L949.4,629.5 L951.3,631.2 L953.2,633.0 L955.1,634.6 L957.0,636.2
		L958.9,637.6 L960.8,638.9 L962.6,640.1 L964.5,641.0 L966.4,641.9 L968.3,642.5 L970.2,643.0 L972.1,643.3
		L974.0,643.5 L975.9,643.6 L977.7,643.6 L979.6,643.6 L981.5,643.5 L983.4,643.4 L985.3,643.3 L987.2,643.2
		L989.1,643.2 L991.0,643.2 L992.8,643.3 L994.7,643.4 L996.6,643.7 L998.5,644.0 L1000.4,644.3 L1002.3,644.7
		L1004.2,645.1 L1006.1,645.5 L1007.9,645.9 L1009.8,646.3 L1011.7,646.7 L1013.6,647.0  '/></g>
	</g>
	<g id="gnuplot_plot_2" ><title>Confidence interval</title>
<g fill="none" color="white" stroke="rgb( 31, 120, 180)" stroke-width="1.00" stroke-linecap="butt" stroke-linejoin="miter">
</g>
<g fill="none" color="black" stroke="currentColor" stroke-width="1.00" stroke-linecap="butt" stroke-linejoin="miter">
	<g transform="translate(1089.0,85.0)" stroke="none" fill="black" font-family="Helvetica" font-size="12.00"  text-anchor="start">
		<text><tspan font-family="Helvetica" >Confidence interval</tspan></text>
	</g>
</g>
<g fill="none" color="black" stroke="currentColor" stroke-width="1.00" stroke-linecap="butt" stroke-linejoin="miter">
	<g stroke='none' shape-rendering='crispEdges'>
		<polygon fill = 'rgb( 31, 120, 180)' fill-opacity = '0.250000' points = '1038.5,85.6 1080.7,85.6 1080.7,76.6 1038.5,76.6 '/>
		<polygon fill = 'rgb( 31, 120, 180)' fill-opacity = '0.250000' points = '158.7,534.8 160.6,531.0 162.5,527.0 164.4,522.8 166.3,518.3 168.1,513.4 170.0,508.1 171.9,502.5 173.8,496.3 175.7,489.7 177.6,482.7 179.5,475.1 181.4,467.1 183.2,458.5 185.1,449.6 187.0,440.1
188.9,430.3 190.8,420.1 192.7,409.6 194.6,398.7 196.5,387.5 198.3,376.1 200.2,364.5 202.1,352.6 204.0,340.6 205.9,328.4 207.8,316.1 209.7,303.6 211.6,291.0 213.4,278.2 215.3,265.3 217.2,252.4
219.1,239.3 221.0,226.3 222.9,213.3 224.8,200.4 226.6,187.7 228.5,175.2 230.4,163.1 232.3,151.5 234.2,140.5 236.1,130.1 238.0,120.7 239.9,112.1 241.7,104.7 243.6,98.3 245.5,93.1 247.4,89.2
249.3,86.5 251.2,85.0 253.1,84.7 255.0,85.5 256.8,87.4 258.7,90.2 260.6,93.8 262.5,98.1 264.4,103.0 266.3,108.3 268.2,113.8 270.1,119.5 271.9,125.3 273.8,131.1 275.7,136.9 277.6,142.6
279.5,148.2 281.4,153.7 283.3,159.2 285.2,164.8 287.0,170.5 288.9,176.4 290.8,182.5 292.7,189.0 294.6,195.8 296.5,203.1 298.4,210.9 300.2,219.2 302.1,228.0 304.0,237.2 305.9,246.7 307.8,256.6
309.7,266.6 311.6,276.7 313.5,286.8 315.3,296.7 317.2,306.3 319.1,315.5 321.0,324.1 322.9,332.2 324.8,339.7 326.7,346.4 328.6,352.4 330.4,357.7 332.3,362.2 334.2,366.1 336.1,369.3 338.0,371.9
339.9,374.0 341.8,375.7 343.7,376.9 345.5,377.8 347.4,378.4 349.3,378.7 351.2,378.7 353.1,378.6 355.0,378.3 356.9,377.7 358.8,377.0 360.6,376.0 362.5,374.8 364.4,373.3 366.3,371.6 368.2,369.6
370.1,367.2 372.0,364.4 373.8,361.3 375.7,357.7 377.6,353.7 379.5,349.2 381.4,344.2 383.3,338.7 385.2,332.7 387.1,326.1 388.9,319.0 390.8,311.3 392.7,303.1 394.6,294.4 396.5,285.2 398.4,275.7
400.3,265.7 402.2,255.5 404.0,245.1 405.9,234.6 407.8,224.2 409.7,213.9 411.6,203.9 413.5,194.4 415.4,185.5 417.3,177.3 419.1,170.0 421.0,163.7 422.9,158.5 424.8,154.5 426.7,151.8 428.6,150.4
430.5,150.5 432.4,151.9 434.2,154.7 436.1,158.8 438.0,164.1 439.9,170.6 441.8,178.3 443.7,186.8 445.6,196.2 447.4,206.3 449.3,217.0 451.2,228.1 453.1,239.6 455.0,251.2 456.9,262.9 458.8,274.6
460.7,286.2 462.5,297.6 464.4,308.8 466.3,319.6 468.2,330.2 470.1,340.3 472.0,350.1 473.9,359.4 475.8,368.4 477.6,376.9 479.5,385.1 481.4,392.8 483.3,400.2 485.2,407.2 487.1,413.8 489.0,420.1
490.9,426.0 492.7,431.6 494.6,436.9 496.5,441.9 498.4,446.6 500.3,451.1 502.2,455.2 504.1,459.1 506.0,462.7 507.8,466.1 509.7,469.2 511.6,472.1 513.5,474.9 515.4,477.5 517.3,479.9 519.2,482.2
521.0,484.5 522.9,486.7 524.8,488.9 526.7,491.1 528.6,493.4 530.5,495.7 532.4,498.1 534.3,500.5 536.1,503.0 538.0,505.6 539.9,508.2 541.8,510.7 543.7,513.3 545.6,515.8 547.5,518.1 549.4,520.4
551.2,522.4 553.1,524.3 555.0,525.9 556.9,527.3 558.8,528.5 560.7,529.5 562.6,530.2 564.5,530.8 566.3,531.3 568.2,531.6 570.1,531.9 572.0,532.1 573.9,532.4 575.8,532.8 577.7,533.2 579.5,533.8
581.4,534.5 583.3,535.3 585.2,536.2 587.1,537.2 589.0,538.3 590.9,539.3 592.8,540.4 594.6,541.4 596.5,542.2 598.4,543.0 600.3,543.5 602.2,543.9 604.1,544.0 606.0,543.9 607.9,543.6 609.7,543.1
611.6,542.5 613.5,541.8 615.4,541.0 617.3,540.2 619.2,539.4 621.1,538.8 623.0,538.3 624.8,537.9 626.7,537.8 628.6,537.9 630.5,538.3 632.4,538.9 634.3,539.7 636.2,540.7 638.1,541.8 639.9,543.0
641.8,544.3 643.7,545.6 645.6,546.8 647.5,548.0 649.4,549.0 651.3,549.9 653.1,550.6 655.0,551.2 656.9,551.5 658.8,551.7 660.7,551.7 662.6,551.5 664.5,551.2 666.4,550.9 668.2,550.4 670.1,549.9
672.0,549.3 673.9,548.7 675.8,548.1 677.7,547.4 679.6,546.7 681.5,546.0 683.3,545.2 685.2,544.4 687.1,543.5 689.0,542.4 690.9,541.2 692.8,539.9 694.7,538.4 696.6,536.7 698.4,534.9 700.3,532.9
702.2,530.8 704.1,528.5 706.0,526.1 707.9,523.7 709.8,521.1 711.7,518.5 713.5,516.0 715.4,513.4 717.3,510.9 719.2,508.5 721.1,506.1 723.0,503.9 724.9,501.9 726.7,500.0 728.6,498.2 730.5,496.7
732.4,495.3 734.3,494.1 736.2,493.0 738.1,492.2 740.0,491.5 741.8,491.0 743.7,490.7 745.6,490.6 747.5,490.6 749.4,490.8 751.3,491.1 753.2,491.6 755.1,492.2 756.9,493.0 758.8,493.9 760.7,495.0
762.6,496.2 764.5,497.6 766.4,499.1 768.3,500.9 770.2,502.8 772.0,504.8 773.9,507.1 775.8,509.6 777.7,512.4 779.6,515.3 781.5,518.5 783.4,521.9 785.3,525.6 787.1,529.5 789.0,533.6 790.9,538.0
792.8,542.5 794.7,547.2 796.6,552.1 798.5,557.1 800.3,562.1 802.2,567.2 804.1,572.3 806.0,577.4 807.9,582.4 809.8,587.3 811.7,592.0 813.6,596.4 815.4,600.7 817.3,604.6 819.2,608.3 821.1,611.6
823.0,614.6 824.9,617.2 826.8,619.4 828.7,621.3 830.5,622.8 832.4,623.9 834.3,624.8 836.2,625.3 838.1,625.5 840.0,625.6 841.9,625.4 843.8,625.0 845.6,624.6 847.5,624.0 849.4,623.5 851.3,622.9
853.2,622.4 855.1,622.0 857.0,621.7 858.9,621.6 860.7,621.6 862.6,621.8 864.5,622.1 866.4,622.7 868.3,623.4 870.2,624.3 872.1,625.3 873.9,626.5 875.8,627.8 877.7,629.1 879.6,630.4 881.5,631.8
883.4,633.0 885.3,634.2 887.2,635.3 889.0,636.2 890.9,636.9 892.8,637.4 894.7,637.6 896.6,637.7 898.5,637.4 900.4,637.0 902.3,636.3 904.1,635.3 906.0,634.2 907.9,632.9 909.8,631.5 911.7,630.0
913.6,628.4 915.5,626.8 917.4,625.2 919.2,623.8 921.1,622.4 923.0,621.3 924.9,620.3 924.9,662.4 923.0,662.4 921.1,662.4 919.2,662.4 917.4,662.4 915.5,662.4 913.6,662.4 911.7,662.4 909.8,662.4
907.9,662.4 906.0,662.4 904.1,662.4 902.3,662.4 900.4,662.4 898.5,662.4 896.6,662.4 894.7,662.4 892.8,662.4 890.9,662.4 889.0,662.4 887.2,662.4 885.3,662.4 883.4,662.4 881.5,662.4 879.6,662.4
877.7,662.4 875.8,662.4 873.9,662.4 872.1,662.4 870.2,662.4 868.3,662.4 866.4,662.4 864.5,662.4 862.6,662.4 860.7,662.4 858.9,662.4 857.0,662.4 855.1,662.4 853.2,662.4 851.3,662.4 849.4,662.4
847.5,662.4 845.6,662.4 843.8,662.4 841.9,662.4 840.0,662.4 838.1,662.4 836.2,662.4 834.3,662.4 832.4,662.4 830.5,662.4 828.7,662.4 826.8,662.4 824.9,662.4 823.0,662.4 821.1,662.4 819.2,662.4
817.3,662.4 815.4,662.4 813.6,662.4 811.7,662.4 809.8,662.4 807.9,662.4 806.0,662.4 804.1,662.4 802.2,662.4 800.3,662.4 798.5,662.4 796.6,662.4 794.7,662.4 792.8,662.4 790.9,662.4 789.0,662.4
787.1,662.4 785.3,662.4 783.4,662.4 781.5,662.4 779.6,662.4 777.7,662.4 775.8,662.4 773.9,662.4 772.0,662.4 770.2,662.4 768.3,662.4 766.4,662.4 764.5,662.4 762.6,662.4 760.7,662.4 758.8,662.4
756.9,662.4 755.1,662.4 753.2,662.4 751.3,662.4 749.4,662.4 747.5,662.4 745.6,662.4 743.7,662.4 741.8,662.4 740.0,662.4 738.1,662.4 736.2,662.4 734.3,662.4 732.4,662.4 730.5,662.4 728.6,662.4
726.7,662.4 724.9,662.4 723.0,662.4 721.1,662.4 719.2,662.4 717.3,662.4 715.4,662.4 713.5,662.4 711.7,662.4 709.8,662.4 707.9,662.4 706.0,662.4 704.1,662.4 702.2,662.4 700.3,662.4 698.4,662.4
696.6,662.4 694.7,662.4 692.8,662.4 690.9,662.4 689.0,662.4 687.1,662.4 685.2,662.4 683.3,662.4 681.5,662.4 679.6,662.4 677.7,662.4 675.8,662.4 673.9,662.4 672.0,662.4 670.1,662.4 668.2,662.4
666.4,662.4 664.5,662.4 662.6,662.4 660.7,662.4 658.8,662.4 656.9,662.4 655.0,662.4 653.1,662.4 651.3,662.4 649.4,662.4 647.5,662.4 645.6,662.4 643.7,662.4 641.8,662.4 639.9,662.4 638.1,662.4
636.2,662.4 634.3,662.4 632.4,662.4 630.5,662.4 628.6,662.4 626.7,662.4 624.8,662.4 623.0,662.4 621.1,662.4 619.2,662.4 617.3,662.4 615.4,662.4 613.5,662.4 611.6,662.4 609.7,662.4 607.9,662.4
606.0,662.4 604.1,662.4 602.2,662.4 600.3,662.4 598.4,662.4 596.5,662.4 594.6,662.4 592.8,662.4 590.9,662.4 589.0,662.4 587.1,662.4 585.2,662.4 583.3,662.4 581.4,662.4 579.5,662.4 577.7,662.4
575.8,662.4 573.9,662.4 572.0,662.4 570.1,662.4 568.2,662.4 566.3,662.4 564.5,662.4 562.6,662.4 560.7,662.4 558.8,662.4 556.9,662.4 555.0,662.4 553.1,662.4 551.2,662.4 549.4,662.4 547.5,662.4
545.6,662.4 543.7,662.4 541.8,662.4 539.9,662.4 538.0,662.4 536.1,662.4 534.3,662.4 532.4,662.4 530.5,662.4 528.6,662.4 526.7,662.4 524.8,662.4 522.9,662.4 521.0,662.4 519.2,662.4 517.3,662.4
515.4,662.4 513.5,662.4 511.6,662.4 509.7,662.4 507.8,662.4 506.0,662.4 504.1,662.4 502.2,662.4 500.3,662.4 498.4,662.4 496.5,662.4 494.6,662.4 492.7,662.4 490.9,662.4 489.0,662.4 487.1,662.4
485.2,662.4 483.3,662.4 481.4,662.4 479.5,662.4 477.6,662.4 475.8,662.4 473.9,662.4 472.0,662.4 470.1,662.4 468.2,662.4 466.3,662.4 464.4,662.4 462.5,662.4 460.7,662.4 458.8,662.4 456.9,662.4
455.0,662.4 453.1,662.4 451.2,662.4 449.3,662.4 447.4,662.4 445.6,662.4 443.7,662.4 441.8,662.4 439.9,662.4 438.0,662.4 436.1,662.4 434.2,662.4 432.4,662.4 430.5,662.4 428.6,662.4 426.7,662.4
424.8,662.4 422.9,662.4 421.0,662.4 419.1,662.4 417.3,662.4 415.4,662.4 413.5,662.4 411.6,662.4 409.7,662.4 407.8,662.4 405.9,662.4 404.0,662.4 402.2,662.4 400.3,662.4 398.4,662.4 396.5,662.4
394.6,662.4 392.7,662.4 390.8,662.4 388.9,662.4 387.1,662.4 385.2,662.4 383.3,662.4 381.4,662.4 379.5,662.4 377.6,662.4 375.7,662.4 373.8,662.4 372.0,662.4 370.1,662.4 368.2,662.4 366.3,662.4
364.4,662.4 362.5,662.4 360.6,662.4 358.8,662.4 356.9,662.4 355.0,662.4 353.1,662.4 351.2,662.4 349.3,662.4 347.4,662.4 345.5,662.4 343.7,662.4 341.8,662.4 339.9,662.4 338.0,662.4 336.1,662.4
334.2,662.4 332.3,662.4 330.4,662.4 328.6,662.4 326.7,662.4 324.8,662.4 322.9,662.4 321.0,662.4 319.1,662.4 317.2,662.4 315.3,662.4 313.5,662.4 311.6,662.4 309.7,662.4 307.8,662.4 305.9,662.4
304.0,662.4 302.1,662.4 300.2,662.4 298.4,662.4 296.5,662.4 294.6,662.4 292.7,662.4 290.8,662.4 288.9,662.4 287.0,662.4 285.2,662.4 283.3,662.4 281.4,662.4 279.5,662.4 277.6,662.4 275.7,662.4
273.8,662.4 271.9,662.4 270.1,662.4 268.2,662.4 266.3,662.4 264.4,662.4 262.5,662.4 260.6,662.4 258.7,662.4 256.8,662.4 255.0,662.4 253.1,662.4 251.2,662.4 249.3,662.4 247.4,662.4 245.5,662.4
243.6,662.4 241.7,662.4 239.9,662.4 238.0,662.4 236.1,662.4 234.2,662.4 232.3,662.4 230.4,662.4 228.5,662.4 226.6,662.4 224.8,662.4 222.9,662.4 221.0,662.4 219.1,662.4 217.2,662.4 215.3,662.4
213.4,662.4 211.6,662.4 209.7,662.4 207.8,662.4 205.9,662.4 204.0,662.4 202.1,662.4 200.2,662.4 198.3,662.4 196.5,662.4 194.6,662.4 192.7,662.4 190.8,662.4 188.9,662.4 187.0,662.4 185.1,662.4
183.2,662.4 181.4,662.4 179.5,662.4 177.6,662.4 175.7,662.4 173.8,662.4 171.9,662.4 170.0,662.4 168.1,662.4 166.3,662.4 164.4,662.4 162.5,662.4 160.6,662.4 158.7,662.4 '/>
	</g>
</g>
	</g>
	<g id="gnuplot_plot_3" ><title>Point estimate</title>
<g fill="none" color="white" stroke="rgb( 31, 120, 180)" stroke-width="2.00" stroke-linecap="butt" stroke-linejoin="miter">
</g>
<g fill="none" color="black" stroke="currentColor" stroke-width="2.00" stroke-linecap="butt" stroke-linejoin="miter">
	<g transform="translate(1089.0,103.0)" stroke="none" fill="black" font-family="Helvetica" font-size="12.00"  text-anchor="start">
		<text><tspan font-family="Helvetica" >Point estimate</tspan></text>
	</g>
</g>
<g fill="none" color="black" stroke="currentColor" stroke-width="2.00" stroke-linecap="butt" stroke-linejoin="miter">
	<path stroke='rgb( 31, 120, 180)'  d='M1038.5,99.1 L1080.7,99.1 M401.7,662.4 L401.7,258.2  '/></g>
	</g>
<g fill="none" color="black" stroke="currentColor" stroke-width="2.00" stroke-linecap="butt" stroke-linejoin="miter">
</g>
<g fill="none" color="black" stroke="black" stroke-width="1.00" stroke-linecap="butt" stroke-linejoin="miter">
</g>
<g fill="none" color="black" stroke="currentColor" stroke-width="1.00" stroke-linecap="butt" stroke-linejoin="miter">
	<path stroke='black'  d='M71.9,54.1 L71.9,662.4 L1013.6,662.4 L1013.6,54.1 L71.9,54.1 Z  '/></g>
<g fill="none" color="black" stroke="currentColor" stroke-width="1.00" stroke-linecap="butt" stroke-linejoin="miter">
</g>
</g>
</svg>

