<?xml version="1.0" encoding="utf-8"  standalone="no"?>
<svg 
 viewBox="0 0 1280 720"
 xmlns="http://www.w3.org/2000/svg"
 xmlns:xlink="http://www.w3.org/1999/xlink"
>

<title>Gnuplot</title>
<desc>Produced by GNUPLOT 5.2 patchlevel 6 </desc>

<g id="gnuplot_canvas">

<rect x="0" y="0" width="1280" height="720" fill="none"/>
<defs>

	<circle id='gpDot' r='0.5' stroke-width='0.5' stroke='currentColor'/>
	<path id='gpPt0' stroke-width='0.222' stroke='currentColor' d='M-1,0 h2 M0,-1 v2'/>
	<path id='gpPt1' stroke-width='0.222' stroke='currentColor' d='M-1,-1 L1,1 M1,-1 L-1,1'/>
	<path id='gpPt2' stroke-width='0.222' stroke='currentColor' d='M-1,0 L1,0 M0,-1 L0,1 M-1,-1 L1,1 M-1,1 L1,-1'/>
	<rect id='gpPt3' stroke-width='0.222' stroke='currentColor' x='-1' y='-1' width='2' height='2'/>
	<rect id='gpPt4' stroke-width='0.222' stroke='currentColor' fill='currentColor' x='-1' y='-1' width='2' height='2'/>
	<circle id='gpPt5' stroke-width='0.222' stroke='currentColor' cx='0' cy='0' r='1'/>
	<use xlink:href='#gpPt5' id='gpPt6' fill='currentColor' stroke='none'/>
	<path id='gpPt7' stroke-width='0.222' stroke='currentColor' d='M0,-1.33 L-1.33,0.67 L1.33,0.67 z'/>
	<use xlink:href='#gpPt7' id='gpPt8' fill='currentColor' stroke='none'/>
	<use xlink:href='#gpPt7' id='gpPt9' stroke='currentColor' transform='rotate(180)'/>
	<use xlink:href='#gpPt9' id='gpPt10' fill='currentColor' stroke='none'/>
	<use xlink:href='#gpPt3' id='gpPt11' stroke='currentColor' transform='rotate(45)'/>
	<use xlink:href='#gpPt11' id='gpPt12' fill='currentColor' stroke='none'/>
	<path id='gpPt13' stroke-width='0.222' stroke='currentColor' d='M0,1.330 L1.265,0.411 L0.782,-1.067 L-0.782,-1.076 L-1.265,0.411 z'/>
	<use xlink:href='#gpPt13' id='gpPt14' fill='currentColor' stroke='none'/>
	<filter id='textbox' filterUnits='objectBoundingBox' x='0' y='0' height='1' width='1'>
	  <feFlood flood-color='white' flood-opacity='1' result='bgnd'/>
	  <feComposite in='SourceGraphic' in2='bgnd' operator='atop'/>
	</filter>
	<filter id='greybox' filterUnits='objectBoundingBox' x='0' y='0' height='1' width='1'>
	  <feFlood flood-color='lightgrey' flood-opacity='1' result='grey'/>
	  <feComposite in='SourceGraphic' in2='grey' operator='atop'/>
	</filter>
</defs>
<g fill="none" color="white" stroke="currentColor" stroke-width="1.00" stroke-linecap="butt" stroke-linejoin="miter">
</g>
<g fill="none" color="black" stroke="currentColor" stroke-width="1.00" stroke-linecap="butt" stroke-linejoin="miter">
	<path stroke='black'  d='M71.9,662.4 L80.9,662.4  '/>	<g transform="translate(63.6,666.3)" stroke="none" fill="black" font-family="Helvetica" font-size="12.00"  text-anchor="end">
		<text><tspan font-family="Helvetica" > 0</tspan></text>
	</g>
</g>
<g fill="none" color="black" stroke="currentColor" stroke-width="1.00" stroke-linecap="butt" stroke-linejoin="miter">
	<path stroke='black'  d='M71.9,561.0 L80.9,561.0  '/>	<g transform="translate(63.6,564.9)" stroke="none" fill="black" font-family="Helvetica" font-size="12.00"  text-anchor="end">
		<text><tspan font-family="Helvetica" > 0.1</tspan></text>
	</g>
</g>
<g fill="none" color="black" stroke="currentColor" stroke-width="1.00" stroke-linecap="butt" stroke-linejoin="miter">
	<path stroke='black'  d='M71.9,459.6 L80.9,459.6  '/>	<g transform="translate(63.6,463.5)" stroke="none" fill="black" font-family="Helvetica" font-size="12.00"  text-anchor="end">
		<text><tspan font-family="Helvetica" > 0.2</tspan></text>
	</g>
</g>
<g fill="none" color="black" stroke="currentColor" stroke-width="1.00" stroke-linecap="butt" stroke-linejoin="miter">
	<path stroke='black'  d='M71.9,358.2 L80.9,358.2  '/>	<g transform="translate(63.6,362.1)" stroke="none" fill="black" font-family="Helvetica" font-size="12.00"  text-anchor="end">
		<text><tspan font-family="Helvetica" > 0.3</tspan></text>
	</g>
</g>
<g fill="none" color="black" stroke="currentColor" stroke-width="1.00" stroke-linecap="butt" stroke-linejoin="miter">
	<path stroke='black'  d='M71.9,256.9 L80.9,256.9  '/>	<g transform="translate(63.6,260.8)" stroke="none" fill="black" font-family="Helvetica" font-size="12.00"  text-anchor="end">
		<text><tspan font-family="Helvetica" > 0.4</tspan></text>
	</g>
</g>
<g fill="none" color="black" stroke="currentColor" stroke-width="1.00" stroke-linecap="butt" stroke-linejoin="miter">
	<path stroke='black'  d='M71.9,155.5 L80.9,155.5  '/>	<g transform="translate(63.6,159.4)" stroke="none" fill="black" font-family="Helvetica" font-size="12.00"  text-anchor="end">
		<text><tspan font-family="Helvetica" > 0.5</tspan></text>
	</g>
</g>
<g fill="none" color="black" stroke="currentColor" stroke-width="1.00" stroke-linecap="butt" stroke-linejoin="miter">
	<path stroke='black'  d='M71.9,54.1 L80.9,54.1  '/>	<g transform="translate(63.6,58.0)" stroke="none" fill="black" font-family="Helvetica" font-size="12.00"  text-anchor="end">
		<text><tspan font-family="Helvetica" > 0.6</tspan></text>
	</g>
</g>
<g fill="none" color="black" stroke="currentColor" stroke-width="1.00" stroke-linecap="butt" stroke-linejoin="miter">
	<path stroke='black'  d='M71.9,662.4 L71.9,653.4  '/>	<g transform="translate(71.9,684.3)" stroke="none" fill="black" font-family="Helvetica" font-size="12.00"  text-anchor="middle">
		<text><tspan font-family="Helvetica" > 25</tspan></text>
	</g>
</g>
<g fill="none" color="black" stroke="currentColor" stroke-width="1.00" stroke-linecap="butt" stroke-linejoin="miter">
	<path stroke='black'  d='M281.8,662.4 L281.8,653.4  '/>	<g transform="translate(281.8,684.3)" stroke="none" fill="black" font-family="Helvetica" font-size="12.00"  text-anchor="middle">
		<text><tspan font-family="Helvetica" > 30</tspan></text>
	</g>
</g>
<g fill="none" color="black" stroke="currentColor" stroke-width="1.00" stroke-linecap="butt" stroke-linejoin="miter">
	<path stroke='black'  d='M491.7,662.4 L491.7,653.4  '/>	<g transform="translate(491.7,684.3)" stroke="none" fill="black" font-family="Helvetica" font-size="12.00"  text-anchor="middle">
		<text><tspan font-family="Helvetica" > 35</tspan></text>
	</g>
</g>
<g fill="none" color="black" stroke="currentColor" stroke-width="1.00" stroke-linecap="butt" stroke-linejoin="miter">
	<path stroke='black'  d='M701.7,662.4 L701.7,653.4  '/>	<g transform="translate(701.7,684.3)" stroke="none" fill="black" font-family="Helvetica" font-size="12.00"  text-anchor="middle">
		<text><tspan font-family="Helvetica" > 40</tspan></text>
	</g>
</g>
<g fill="none" color="black" stroke="currentColor" stroke-width="1.00" stroke-linecap="butt" stroke-linejoin="miter">
	<path stroke='black'  d='M911.6,662.4 L911.6,653.4  '/>	<g transform="translate(911.6,684.3)" stroke="none" fill="black" font-family="Helvetica" font-size="12.00"  text-anchor="middle">
		<text><tspan font-family="Helvetica" > 45</tspan></text>
	</g>
</g>
<g fill="none" color="black" stroke="currentColor" stroke-width="1.00" stroke-linecap="butt" stroke-linejoin="miter">
	<path stroke='black'  d='M1121.5,662.4 L1121.5,653.4  '/>	<g transform="translate(1121.5,684.3)" stroke="none" fill="black" font-family="Helvetica" font-size="12.00"  text-anchor="middle">
		<text><tspan font-family="Helvetica" > 50</tspan></text>
	</g>
</g>
<g fill="none" color="black" stroke="currentColor" stroke-width="1.00" stroke-linecap="butt" stroke-linejoin="miter">
</g>
<g fill="none" color="black" stroke="currentColor" stroke-width="1.00" stroke-linecap="butt" stroke-linejoin="miter">
	<path stroke='black'  d='M71.9,54.1 L71.9,662.4 L1121.5,662.4 L1121.5,54.1 L71.9,54.1 Z  '/></g>
<g fill="none" color="black" stroke="currentColor" stroke-width="1.00" stroke-linecap="butt" stroke-linejoin="miter">
	<g transform="translate(16.3,358.3) rotate(270)" stroke="none" fill="black" font-family="Helvetica" font-size="12.00"  text-anchor="middle">
		<text><tspan font-family="Helvetica" >Density (a.u.)</tspan></text>
	</g>
</g>
<g fill="none" color="black" stroke="currentColor" stroke-width="1.00" stroke-linecap="butt" stroke-linejoin="miter">
	<g transform="translate(596.7,711.3)" stroke="none" fill="black" font-family="Helvetica" font-size="12.00"  text-anchor="middle">
		<text><tspan font-family="Helvetica" >Average time (us)</tspan></text>
	</g>
</g>
<g fill="none" color="black" stroke="currentColor" stroke-width="1.00" stroke-linecap="butt" stroke-linejoin="miter">
	<g transform="translate(596.7,31.0)" stroke="none" fill="black" font-family="Helvetica" font-size="12.00"  text-anchor="middle">
		<text><tspan font-family="Helvetica" >snapshot_restore_with_dense/Dense: Entire region + process_vm_writev w/ page size/22</tspan></text>
	</g>
</g>
	<g id="gnuplot_plot_1" ><title>Base PDF</title>
<g fill="none" color="black" stroke="currentColor" stroke-width="1.00" stroke-linecap="butt" stroke-linejoin="miter">
	<g transform="translate(1196.9,67.0)" stroke="none" fill="black" font-family="Helvetica" font-size="12.00"  text-anchor="start">
		<text><tspan font-family="Helvetica" >Base PDF</tspan></text>
	</g>
</g>
<g fill="none" color="black" stroke="currentColor" stroke-width="1.00" stroke-linecap="butt" stroke-linejoin="miter">
	<g stroke='none' shape-rendering='crispEdges'>
		<polygon fill = 'rgb(227,  26,  28)' fill-opacity = '0.500000' points = '1146.4,67.6 1188.6,67.6 1188.6,58.6 1146.4,58.6 '/>
		<polygon fill = 'rgb(227,  26,  28)' fill-opacity = '0.500000' points = '141.0,661.4 142.9,661.3 144.9,661.2 146.9,661.1 148.8,661.0 150.8,660.9 152.7,660.7 154.7,660.6 156.6,660.4 158.6,660.3 160.5,660.1 162.5,659.9 164.4,659.7 166.4,659.5 168.3,659.3 170.3,659.0
172.2,658.8 174.2,658.5 176.2,658.2 178.1,657.9 180.1,657.5 182.0,657.2 184.0,656.8 185.9,656.4 187.9,656.0 189.8,655.5 191.8,655.1 193.7,654.6 195.7,654.0 197.6,653.5 199.6,652.9 201.6,652.3
203.5,651.6 205.5,651.0 207.4,650.2 209.4,649.5 211.3,648.7 213.3,647.9 215.2,647.0 217.2,646.2 219.1,645.2 221.1,644.3 223.0,643.3 225.0,642.2 227.0,641.1 228.9,640.0 230.9,638.8 232.8,637.6
234.8,636.4 236.7,635.1 238.7,633.7 240.6,632.4 242.6,630.9 244.5,629.5 246.5,628.0 248.4,626.4 250.4,624.9 252.4,623.2 254.3,621.6 256.3,619.9 258.2,618.2 260.2,616.4 262.1,614.6 264.1,612.8
266.0,610.9 268.0,609.0 269.9,607.1 271.9,605.2 273.8,603.2 275.8,601.3 277.8,599.3 279.7,597.3 281.7,595.3 283.6,593.2 285.6,591.2 287.5,589.2 289.5,587.1 291.4,585.1 293.4,583.1 295.3,581.1
297.3,579.1 299.2,577.1 301.2,575.2 303.2,573.2 305.1,571.3 307.1,569.5 309.0,567.6 311.0,565.8 312.9,564.1 314.9,562.3 316.8,560.7 318.8,559.1 320.7,557.5 322.7,556.0 324.6,554.6 326.6,553.2
328.6,551.9 330.5,550.7 332.5,549.5 334.4,548.4 336.4,547.4 338.3,546.5 340.3,545.7 342.2,544.9 344.2,544.2 346.1,543.6 348.1,543.1 350.0,542.7 352.0,542.4 354.0,542.2 355.9,542.0 357.9,542.0
359.8,542.0 361.8,542.1 363.7,542.4 365.7,542.7 367.6,543.1 369.6,543.5 371.5,544.1 373.5,544.8 375.4,545.5 377.4,546.3 379.4,547.2 381.3,548.2 383.3,549.2 385.2,550.3 387.2,551.5 389.1,552.8
391.1,554.1 393.0,555.5 395.0,556.9 396.9,558.4 398.9,559.9 400.8,561.5 402.8,563.1 404.8,564.8 406.7,566.5 408.7,568.2 410.6,570.0 412.6,571.8 414.5,573.6 416.5,575.4 418.4,577.3 420.4,579.1
422.3,581.0 424.3,582.9 426.2,584.7 428.2,586.6 430.2,588.4 432.1,590.3 434.1,592.1 436.0,593.9 438.0,595.7 439.9,597.5 441.9,599.3 443.8,601.0 445.8,602.7 447.7,604.4 449.7,606.0 451.6,607.6
453.6,609.1 455.6,610.7 457.5,612.1 459.5,613.6 461.4,614.9 463.4,616.3 465.3,617.5 467.3,618.8 469.2,620.0 471.2,621.1 473.1,622.1 475.1,623.2 477.0,624.1 479.0,625.0 481.0,625.9 482.9,626.6
484.9,627.4 486.8,628.0 488.8,628.6 490.7,629.2 492.7,629.7 494.6,630.1 496.6,630.4 498.5,630.8 500.5,631.0 502.4,631.2 504.4,631.3 506.4,631.3 508.3,631.3 510.3,631.3 512.2,631.2 514.2,631.0
516.1,630.8 518.1,630.5 520.0,630.1 522.0,629.7 523.9,629.2 525.9,628.7 527.8,628.2 529.8,627.5 531.8,626.9 533.7,626.2 535.7,625.4 537.6,624.6 539.6,623.7 541.5,622.8 543.5,621.8 545.4,620.9
547.4,619.8 549.3,618.8 551.3,617.6 553.2,616.5 555.2,615.3 557.2,614.1 559.1,612.9 561.1,611.6 563.0,610.3 565.0,609.0 566.9,607.7 568.9,606.4 570.8,605.0 572.8,603.6 574.7,602.2 576.7,600.8
578.6,599.4 580.6,598.0 582.6,596.6 584.5,595.2 586.5,593.8 588.4,592.4 590.4,591.1 592.3,589.7 594.3,588.3 596.2,587.0 598.2,585.7 600.1,584.4 602.1,583.1 604.0,581.9 606.0,580.7 608.0,579.5
609.9,578.3 611.9,577.2 613.8,576.2 615.8,575.1 617.7,574.1 619.7,573.2 621.6,572.3 623.6,571.5 625.5,570.7 627.5,569.9 629.4,569.2 631.4,568.6 633.4,568.0 635.3,567.5 637.3,567.0 639.2,566.6
641.2,566.2 643.1,565.9 645.1,565.7 647.0,565.5 649.0,565.4 650.9,565.3 652.9,565.3 654.8,565.4 656.8,565.5 658.8,565.6 660.7,565.9 662.7,566.1 664.6,566.5 666.6,566.9 668.5,567.3 670.5,567.8
672.4,568.3 674.4,568.9 676.3,569.6 678.3,570.3 680.2,571.0 682.2,571.8 684.2,572.6 686.1,573.4 688.1,574.3 690.0,575.2 692.0,576.2 693.9,577.1 695.9,578.2 697.8,579.2 699.8,580.3 701.7,581.3
703.7,582.5 705.6,583.6 707.6,584.7 709.6,585.9 711.5,587.0 713.5,588.2 715.4,589.4 717.4,590.6 719.3,591.8 721.3,593.0 723.2,594.2 725.2,595.5 727.1,596.7 729.1,597.9 731.0,599.1 733.0,600.3
735.0,601.5 736.9,602.7 738.9,603.9 740.8,605.0 742.8,606.2 744.7,607.4 746.7,608.5 748.6,609.6 750.6,610.7 752.5,611.8 754.5,612.9 756.4,614.0 758.4,615.1 760.3,616.1 762.3,617.1 764.3,618.2
766.2,619.2 768.2,620.1 770.1,621.1 772.1,622.0 774.0,623.0 776.0,623.9 777.9,624.8 779.9,625.7 781.8,626.5 783.8,627.4 785.7,628.2 787.7,629.0 789.7,629.8 791.6,630.6 793.6,631.4 795.5,632.1
797.5,632.8 799.4,633.6 801.4,634.3 803.3,635.0 805.3,635.6 807.2,636.3 809.2,637.0 811.1,637.6 813.1,638.2 815.1,638.8 817.0,639.4 819.0,640.0 820.9,640.6 822.9,641.1 824.8,641.7 826.8,642.2
828.7,642.7 830.7,643.3 832.6,643.8 834.6,644.2 836.5,644.7 838.5,645.2 840.5,645.7 842.4,646.1 844.4,646.5 846.3,647.0 848.3,647.4 850.2,647.8 852.2,648.2 854.1,648.6 856.1,649.0 858.0,649.3
860.0,649.7 861.9,650.1 863.9,650.4 865.9,650.7 867.8,651.1 869.8,651.4 871.7,651.7 873.7,652.0 875.6,652.3 877.6,652.6 879.5,652.9 881.5,653.2 883.4,653.4 885.4,653.7 887.3,653.9 889.3,654.2
891.3,654.4 893.2,654.7 895.2,654.9 897.1,655.1 899.1,655.3 901.0,655.5 903.0,655.7 904.9,655.9 906.9,656.1 908.8,656.3 910.8,656.5 912.7,656.7 914.7,656.9 916.7,657.0 918.6,657.2 920.6,657.3
922.5,657.5 924.5,657.7 926.4,657.8 928.4,657.9 930.3,658.1 932.3,658.2 934.2,658.3 936.2,658.5 938.1,658.6 940.1,658.7 942.1,658.8 944.0,658.9 946.0,659.1 947.9,659.2 949.9,659.3 951.8,659.4
953.8,659.5 955.7,659.6 957.7,659.7 959.6,659.8 961.6,659.9 963.5,659.9 965.5,660.0 967.5,660.1 969.4,660.2 971.4,660.3 973.3,660.3 975.3,660.4 977.2,660.5 979.2,660.6 981.1,660.6 983.1,660.7
985.0,660.8 987.0,660.8 988.9,660.9 990.9,661.0 992.9,661.0 994.8,661.1 996.8,661.1 998.7,661.2 1000.7,661.2 1002.6,661.3 1004.6,661.3 1006.5,661.4 1008.5,661.4 1010.4,661.5 1012.4,661.5 1014.3,661.6
1016.3,661.6 1018.3,661.6 1020.2,661.7 1022.2,661.7 1024.1,661.7 1026.1,661.8 1028.0,661.8 1030.0,661.8 1031.9,661.9 1033.9,661.9 1035.8,661.9 1037.8,661.9 1039.7,662.0 1041.7,662.0 1043.7,662.0 1045.6,662.0
1047.6,662.1 1049.5,662.1 1051.5,662.1 1053.4,662.1 1055.4,662.1 1057.3,662.1 1059.3,662.2 1061.2,662.2 1063.2,662.2 1065.1,662.2 1067.1,662.2 1069.1,662.2 1071.0,662.2 1073.0,662.3 1074.9,662.3 1076.9,662.3
1078.8,662.3 1080.8,662.3 1082.7,662.3 1084.7,662.3 1086.6,662.3 1088.6,662.3 1090.5,662.3 1092.5,662.3 1094.5,662.3 1096.4,662.3 1098.4,662.3 1100.3,662.3 1102.3,662.4 1104.2,662.4 1106.2,662.4 1108.1,662.4
1110.1,662.4 1112.0,662.4 1114.0,662.4 1115.9,662.4 1115.9,662.4 1114.0,662.4 1112.0,662.4 1110.1,662.4 1108.1,662.4 1106.2,662.4 1104.2,662.4 1102.3,662.4 1100.3,662.4 1098.4,662.4 1096.4,662.4 1094.5,662.4
1092.5,662.4 1090.5,662.4 1088.6,662.4 1086.6,662.4 1084.7,662.4 1082.7,662.4 1080.8,662.4 1078.8,662.4 1076.9,662.4 1074.9,662.4 1073.0,662.4 1071.0,662.4 1069.1,662.4 1067.1,662.4 1065.1,662.4 1063.2,662.4
1061.2,662.4 1059.3,662.4 1057.3,662.4 1055.4,662.4 1053.4,662.4 1051.5,662.4 1049.5,662.4 1047.6,662.4 1045.6,662.4 1043.7,662.4 1041.7,662.4 1039.7,662.4 1037.8,662.4 1035.8,662.4 1033.9,662.4 1031.9,662.4
1030.0,662.4 1028.0,662.4 1026.1,662.4 1024.1,662.4 1022.2,662.4 1020.2,662.4 1018.3,662.4 1016.3,662.4 1014.3,662.4 1012.4,662.4 1010.4,662.4 1008.5,662.4 1006.5,662.4 1004.6,662.4 1002.6,662.4 1000.7,662.4
998.7,662.4 996.8,662.4 994.8,662.4 992.9,662.4 990.9,662.4 988.9,662.4 987.0,662.4 985.0,662.4 983.1,662.4 981.1,662.4 979.2,662.4 977.2,662.4 975.3,662.4 973.3,662.4 971.4,662.4 969.4,662.4
967.5,662.4 965.5,662.4 963.5,662.4 961.6,662.4 959.6,662.4 957.7,662.4 955.7,662.4 953.8,662.4 951.8,662.4 949.9,662.4 947.9,662.4 946.0,662.4 944.0,662.4 942.1,662.4 940.1,662.4 938.1,662.4
936.2,662.4 934.2,662.4 932.3,662.4 930.3,662.4 928.4,662.4 926.4,662.4 924.5,662.4 922.5,662.4 920.6,662.4 918.6,662.4 916.7,662.4 914.7,662.4 912.7,662.4 910.8,662.4 908.8,662.4 906.9,662.4
904.9,662.4 903.0,662.4 901.0,662.4 899.1,662.4 897.1,662.4 895.2,662.4 893.2,662.4 891.3,662.4 889.3,662.4 887.3,662.4 885.4,662.4 883.4,662.4 881.5,662.4 879.5,662.4 877.6,662.4 875.6,662.4
873.7,662.4 871.7,662.4 869.8,662.4 867.8,662.4 865.9,662.4 863.9,662.4 861.9,662.4 860.0,662.4 858.0,662.4 856.1,662.4 854.1,662.4 852.2,662.4 850.2,662.4 848.3,662.4 846.3,662.4 844.4,662.4
842.4,662.4 840.5,662.4 838.5,662.4 836.5,662.4 834.6,662.4 832.6,662.4 830.7,662.4 828.7,662.4 826.8,662.4 824.8,662.4 822.9,662.4 820.9,662.4 819.0,662.4 817.0,662.4 815.1,662.4 813.1,662.4
811.1,662.4 809.2,662.4 807.2,662.4 805.3,662.4 803.3,662.4 801.4,662.4 799.4,662.4 797.5,662.4 795.5,662.4 793.6,662.4 791.6,662.4 789.7,662.4 787.7,662.4 785.7,662.4 783.8,662.4 781.8,662.4
779.9,662.4 777.9,662.4 776.0,662.4 774.0,662.4 772.1,662.4 770.1,662.4 768.2,662.4 766.2,662.4 764.3,662.4 762.3,662.4 760.3,662.4 758.4,662.4 756.4,662.4 754.5,662.4 752.5,662.4 750.6,662.4
748.6,662.4 746.7,662.4 744.7,662.4 742.8,662.4 740.8,662.4 738.9,662.4 736.9,662.4 735.0,662.4 733.0,662.4 731.0,662.4 729.1,662.4 727.1,662.4 725.2,662.4 723.2,662.4 721.3,662.4 719.3,662.4
717.4,662.4 715.4,662.4 713.5,662.4 711.5,662.4 709.6,662.4 707.6,662.4 705.6,662.4 703.7,662.4 701.7,662.4 699.8,662.4 697.8,662.4 695.9,662.4 693.9,662.4 692.0,662.4 690.0,662.4 688.1,662.4
686.1,662.4 684.2,662.4 682.2,662.4 680.2,662.4 678.3,662.4 676.3,662.4 674.4,662.4 672.4,662.4 670.5,662.4 668.5,662.4 666.6,662.4 664.6,662.4 662.7,662.4 660.7,662.4 658.8,662.4 656.8,662.4
654.8,662.4 652.9,662.4 650.9,662.4 649.0,662.4 647.0,662.4 645.1,662.4 643.1,662.4 641.2,662.4 639.2,662.4 637.3,662.4 635.3,662.4 633.4,662.4 631.4,662.4 629.4,662.4 627.5,662.4 625.5,662.4
623.6,662.4 621.6,662.4 619.7,662.4 617.7,662.4 615.8,662.4 613.8,662.4 611.9,662.4 609.9,662.4 608.0,662.4 606.0,662.4 604.0,662.4 602.1,662.4 600.1,662.4 598.2,662.4 596.2,662.4 594.3,662.4
592.3,662.4 590.4,662.4 588.4,662.4 586.5,662.4 584.5,662.4 582.6,662.4 580.6,662.4 578.6,662.4 576.7,662.4 574.7,662.4 572.8,662.4 570.8,662.4 568.9,662.4 566.9,662.4 565.0,662.4 563.0,662.4
561.1,662.4 559.1,662.4 557.2,662.4 555.2,662.4 553.2,662.4 551.3,662.4 549.3,662.4 547.4,662.4 545.4,662.4 543.5,662.4 541.5,662.4 539.6,662.4 537.6,662.4 535.7,662.4 533.7,662.4 531.8,662.4
529.8,662.4 527.8,662.4 525.9,662.4 523.9,662.4 522.0,662.4 520.0,662.4 518.1,662.4 516.1,662.4 514.2,662.4 512.2,662.4 510.3,662.4 508.3,662.4 506.4,662.4 504.4,662.4 502.4,662.4 500.5,662.4
498.5,662.4 496.6,662.4 494.6,662.4 492.7,662.4 490.7,662.4 488.8,662.4 486.8,662.4 484.9,662.4 482.9,662.4 481.0,662.4 479.0,662.4 477.0,662.4 475.1,662.4 473.1,662.4 471.2,662.4 469.2,662.4
467.3,662.4 465.3,662.4 463.4,662.4 461.4,662.4 459.5,662.4 457.5,662.4 455.6,662.4 453.6,662.4 451.6,662.4 449.7,662.4 447.7,662.4 445.8,662.4 443.8,662.4 441.9,662.4 439.9,662.4 438.0,662.4
436.0,662.4 434.1,662.4 432.1,662.4 430.2,662.4 428.2,662.4 426.2,662.4 424.3,662.4 422.3,662.4 420.4,662.4 418.4,662.4 416.5,662.4 414.5,662.4 412.6,662.4 410.6,662.4 408.7,662.4 406.7,662.4
404.8,662.4 402.8,662.4 400.8,662.4 398.9,662.4 396.9,662.4 395.0,662.4 393.0,662.4 391.1,662.4 389.1,662.4 387.2,662.4 385.2,662.4 383.3,662.4 381.3,662.4 379.4,662.4 377.4,662.4 375.4,662.4
373.5,662.4 371.5,662.4 369.6,662.4 367.6,662.4 365.7,662.4 363.7,662.4 361.8,662.4 359.8,662.4 357.9,662.4 355.9,662.4 354.0,662.4 352.0,662.4 350.0,662.4 348.1,662.4 346.1,662.4 344.2,662.4
342.2,662.4 340.3,662.4 338.3,662.4 336.4,662.4 334.4,662.4 332.5,662.4 330.5,662.4 328.6,662.4 326.6,662.4 324.6,662.4 322.7,662.4 320.7,662.4 318.8,662.4 316.8,662.4 314.9,662.4 312.9,662.4
311.0,662.4 309.0,662.4 307.1,662.4 305.1,662.4 303.2,662.4 301.2,662.4 299.2,662.4 297.3,662.4 295.3,662.4 293.4,662.4 291.4,662.4 289.5,662.4 287.5,662.4 285.6,662.4 283.6,662.4 281.7,662.4
279.7,662.4 277.8,662.4 275.8,662.4 273.8,662.4 271.9,662.4 269.9,662.4 268.0,662.4 266.0,662.4 264.1,662.4 262.1,662.4 260.2,662.4 258.2,662.4 256.3,662.4 254.3,662.4 252.4,662.4 250.4,662.4
248.4,662.4 246.5,662.4 244.5,662.4 242.6,662.4 240.6,662.4 238.7,662.4 236.7,662.4 234.8,662.4 232.8,662.4 230.9,662.4 228.9,662.4 227.0,662.4 225.0,662.4 223.0,662.4 221.1,662.4 219.1,662.4
217.2,662.4 215.2,662.4 213.3,662.4 211.3,662.4 209.4,662.4 207.4,662.4 205.5,662.4 203.5,662.4 201.6,662.4 199.6,662.4 197.6,662.4 195.7,662.4 193.7,662.4 191.8,662.4 189.8,662.4 187.9,662.4
185.9,662.4 184.0,662.4 182.0,662.4 180.1,662.4 178.1,662.4 176.2,662.4 174.2,662.4 172.2,662.4 170.3,662.4 168.3,662.4 166.4,662.4 164.4,662.4 162.5,662.4 160.5,662.4 158.6,662.4 156.6,662.4
154.7,662.4 152.7,662.4 150.8,662.4 148.8,662.4 146.9,662.4 144.9,662.4 142.9,662.4 141.0,662.4 '/>
	</g>
</g>
	</g>
	<g id="gnuplot_plot_2" ><title>Base Mean</title>
<g fill="none" color="white" stroke="rgb(227,  26,  28)" stroke-width="2.00" stroke-linecap="butt" stroke-linejoin="miter">
</g>
<g fill="none" color="black" stroke="currentColor" stroke-width="2.00" stroke-linecap="butt" stroke-linejoin="miter">
	<g transform="translate(1196.9,85.0)" stroke="none" fill="black" font-family="Helvetica" font-size="12.00"  text-anchor="start">
		<text><tspan font-family="Helvetica" >Base Mean</tspan></text>
	</g>
</g>
<g fill="none" color="black" stroke="currentColor" stroke-width="2.00" stroke-linecap="butt" stroke-linejoin="miter">
	<path stroke='rgb(227,  26,  28)'  d='M1146.4,81.1 L1188.6,81.1 M513.8,662.4 L513.8,631.0  '/></g>
	</g>
	<g id="gnuplot_plot_3" ><title>New PDF</title>
<g fill="none" color="white" stroke="rgb(227,  26,  28)" stroke-width="1.00" stroke-linecap="butt" stroke-linejoin="miter">
</g>
<g fill="none" color="black" stroke="currentColor" stroke-width="1.00" stroke-linecap="butt" stroke-linejoin="miter">
	<g transform="translate(1196.9,103.0)" stroke="none" fill="black" font-family="Helvetica" font-size="12.00"  text-anchor="start">
		<text><tspan font-family="Helvetica" >New PDF</tspan></text>
	</g>
</g>
<g fill="none" color="black" stroke="currentColor" stroke-width="1.00" stroke-linecap="butt" stroke-linejoin="miter">
	<g stroke='none' shape-rendering='crispEdges'>
		<polygon fill = 'rgb( 31, 120, 180)' fill-opacity = '0.500000' points = '1146.4,103.6 1188.6,103.6 1188.6,94.6 1146.4,94.6 '/>
		<polygon fill = 'rgb( 31, 120, 180)' fill-opacity = '0.500000' points = '259.6,658.2 261.3,657.4 263.0,656.4 264.7,655.4 266.4,654.1 268.0,652.6 269.7,651.0 271.4,649.1 273.1,646.9 274.8,644.4 276.5,641.6 278.1,638.4 279.8,634.9 281.5,630.9 283.2,626.4 284.9,621.5
286.6,616.0 288.2,609.9 289.9,603.3 291.6,596.0 293.3,588.0 295.0,579.3 296.7,570.0 298.3,559.9 300.0,549.0 301.7,537.4 303.4,525.1 305.1,512.0 306.7,498.2 308.4,483.7 310.1,468.6 311.8,452.8
313.5,436.5 315.2,419.6 316.8,402.3 318.5,384.7 320.2,366.9 321.9,348.8 323.6,330.8 325.3,312.8 326.9,294.9 328.6,277.4 330.3,260.4 332.0,243.9 333.7,228.1 335.4,213.1 337.0,199.1 338.7,186.2
340.4,174.4 342.1,163.9 343.8,154.8 345.5,147.2 347.1,141.0 348.8,136.5 350.5,133.6 352.2,132.3 353.9,132.7 355.5,134.7 357.2,138.4 358.9,143.6 360.6,150.4 362.3,158.7 364.0,168.3 365.6,179.3
367.3,191.4 369.0,204.6 370.7,218.8 372.4,233.8 374.1,249.6 375.7,266.0 377.4,282.8 379.1,299.9 380.8,317.3 382.5,334.7 384.2,352.2 385.8,369.5 387.5,386.5 389.2,403.3 390.9,419.6 392.6,435.5
394.3,450.8 395.9,465.5 397.6,479.6 399.3,493.0 401.0,505.7 402.7,517.7 404.3,528.9 406.0,539.5 407.7,549.3 409.4,558.4 411.1,566.9 412.8,574.7 414.4,581.8 416.1,588.4 417.8,594.3 419.5,599.8
421.2,604.7 422.9,609.2 424.5,613.2 426.2,616.9 427.9,620.1 429.6,623.1 431.3,625.7 433.0,628.1 434.6,630.3 436.3,632.2 438.0,633.9 439.7,635.5 441.4,636.9 443.1,638.2 444.7,639.4 446.4,640.5
448.1,641.4 449.8,642.3 451.5,643.2 453.1,643.9 454.8,644.6 456.5,645.3 458.2,645.9 459.9,646.4 461.6,647.0 463.2,647.4 464.9,647.9 466.6,648.3 468.3,648.6 470.0,649.0 471.7,649.2 473.3,649.5
475.0,649.7 476.7,650.0 478.4,650.1 480.1,650.3 481.8,650.4 483.4,650.5 485.1,650.6 486.8,650.7 488.5,650.7 490.2,650.8 491.9,650.8 493.5,650.8 495.2,650.8 496.9,650.8 498.6,650.9 500.3,650.9
501.9,650.9 503.6,650.9 505.3,650.9 507.0,651.0 508.7,651.0 510.4,651.1 512.0,651.2 513.7,651.3 515.4,651.4 517.1,651.5 518.8,651.7 520.5,651.8 522.1,652.0 523.8,652.2 525.5,652.5 527.2,652.7
528.9,653.0 530.6,653.2 532.2,653.5 533.9,653.8 535.6,654.1 537.3,654.4 539.0,654.8 540.7,655.1 542.3,655.4 544.0,655.8 545.7,656.1 547.4,656.4 549.1,656.8 550.7,657.1 552.4,657.4 554.1,657.7
555.8,658.0 557.5,658.3 559.2,658.6 560.8,658.9 562.5,659.2 564.2,659.4 565.9,659.7 567.6,659.9 569.3,660.1 570.9,660.3 572.6,660.5 574.3,660.7 576.0,660.9 577.7,661.0 579.4,661.1 581.0,661.3
582.7,661.4 584.4,661.5 586.1,661.6 587.8,661.7 589.5,661.8 591.1,661.9 592.8,661.9 594.5,662.0 596.2,662.0 597.9,662.1 599.5,662.1 601.2,662.2 602.9,662.2 604.6,662.2 606.3,662.3 608.0,662.3
609.6,662.3 611.3,662.3 613.0,662.3 614.7,662.3 616.4,662.3 618.1,662.4 619.7,662.4 621.4,662.4 623.1,662.4 624.8,662.4 626.5,662.4 628.2,662.4 629.8,662.4 631.5,662.4 633.2,662.4 634.9,662.4
636.6,662.4 638.3,662.4 639.9,662.4 641.6,662.4 643.3,662.4 645.0,662.4 646.7,662.4 648.3,662.4 650.0,662.4 651.7,662.4 653.4,662.4 655.1,662.4 656.8,662.4 658.4,662.4 660.1,662.4 661.8,662.4
663.5,662.4 665.2,662.4 666.9,662.4 668.5,662.4 670.2,662.4 671.9,662.4 673.6,662.4 675.3,662.4 677.0,662.4 678.6,662.4 680.3,662.4 682.0,662.4 683.7,662.4 685.4,662.4 687.0,662.4 688.7,662.4
690.4,662.4 692.1,662.4 693.8,662.4 695.5,662.4 697.1,662.4 698.8,662.4 700.5,662.4 702.2,662.4 703.9,662.4 705.6,662.4 707.2,662.4 708.9,662.4 710.6,662.4 712.3,662.4 714.0,662.4 715.7,662.4
717.3,662.4 719.0,662.4 720.7,662.4 722.4,662.4 724.1,662.4 725.8,662.4 727.4,662.4 729.1,662.4 730.8,662.4 732.5,662.4 734.2,662.4 735.8,662.4 737.5,662.4 739.2,662.4 740.9,662.4 742.6,662.4
744.3,662.4 745.9,662.4 747.6,662.4 749.3,662.4 751.0,662.4 752.7,662.4 754.4,662.4 756.0,662.4 757.7,662.4 759.4,662.4 761.1,662.4 762.8,662.4 764.5,662.4 766.1,662.4 767.8,662.4 769.5,662.4
771.2,662.4 772.9,662.4 774.6,662.4 776.2,662.4 777.9,662.4 779.6,662.4 781.3,662.4 783.0,662.4 784.6,662.4 786.3,662.4 788.0,662.4 789.7,662.4 791.4,662.4 793.1,662.4 794.7,662.4 796.4,662.4
798.1,662.4 799.8,662.4 801.5,662.4 803.2,662.4 804.8,662.4 806.5,662.4 808.2,662.4 809.9,662.4 811.6,662.4 813.3,662.4 814.9,662.4 816.6,662.4 818.3,662.4 820.0,662.4 821.7,662.4 823.4,662.4
825.0,662.4 826.7,662.4 828.4,662.4 830.1,662.4 831.8,662.4 833.4,662.4 835.1,662.4 836.8,662.4 838.5,662.4 840.2,662.4 841.9,662.4 843.5,662.4 845.2,662.4 846.9,662.4 848.6,662.4 850.3,662.4
852.0,662.4 853.6,662.4 855.3,662.4 857.0,662.4 858.7,662.4 860.4,662.4 862.1,662.4 863.7,662.4 865.4,662.4 867.1,662.4 868.8,662.4 870.5,662.4 872.2,662.4 873.8,662.4 875.5,662.4 877.2,662.4
878.9,662.4 880.6,662.4 882.2,662.4 883.9,662.4 885.6,662.4 887.3,662.4 889.0,662.4 890.7,662.4 892.3,662.4 894.0,662.4 895.7,662.4 897.4,662.4 899.1,662.4 900.8,662.4 902.4,662.4 904.1,662.4
905.8,662.4 907.5,662.4 909.2,662.4 910.9,662.4 912.5,662.4 914.2,662.4 915.9,662.4 917.6,662.4 919.3,662.3 921.0,662.3 922.6,662.3 924.3,662.3 926.0,662.3 927.7,662.3 929.4,662.3 931.0,662.2
932.7,662.2 934.4,662.2 936.1,662.1 937.8,662.1 939.5,662.1 941.1,662.0 942.8,662.0 944.5,661.9 946.2,661.8 947.9,661.8 949.6,661.7 951.2,661.6 952.9,661.5 954.6,661.4 956.3,661.3 958.0,661.2
959.7,661.1 961.3,660.9 963.0,660.8 964.7,660.6 966.4,660.5 968.1,660.3 969.8,660.1 971.4,660.0 973.1,659.8 974.8,659.6 976.5,659.4 978.2,659.2 979.8,659.0 981.5,658.8 983.2,658.6 984.9,658.4
986.6,658.2 988.3,658.0 989.9,657.9 991.6,657.7 993.3,657.5 995.0,657.4 996.7,657.2 998.4,657.1 1000.0,657.0 1001.7,656.9 1003.4,656.8 1005.1,656.8 1006.8,656.7 1008.5,656.7 1010.1,656.7 1011.8,656.7
1013.5,656.7 1015.2,656.8 1016.9,656.8 1018.6,656.9 1020.2,657.0 1021.9,657.1 1023.6,657.2 1025.3,657.4 1027.0,657.5 1028.6,657.7 1030.3,657.9 1032.0,658.0 1033.7,658.2 1035.4,658.4 1037.1,658.6 1038.7,658.8
1040.4,659.0 1042.1,659.2 1043.8,659.4 1045.5,659.6 1047.2,659.8 1048.8,660.0 1050.5,660.1 1052.2,660.3 1053.9,660.5 1055.6,660.6 1057.3,660.8 1058.9,660.9 1060.6,661.0 1062.3,661.2 1064.0,661.3 1065.7,661.4
1067.3,661.5 1069.0,661.6 1070.7,661.7 1072.4,661.8 1074.1,661.8 1075.8,661.9 1077.4,662.0 1079.1,662.0 1080.8,662.1 1082.5,662.1 1084.2,662.1 1085.9,662.2 1087.5,662.2 1089.2,662.2 1090.9,662.3 1092.6,662.3
1094.3,662.3 1096.0,662.3 1097.6,662.3 1099.3,662.3 1099.3,662.4 1097.6,662.4 1096.0,662.4 1094.3,662.4 1092.6,662.4 1090.9,662.4 1089.2,662.4 1087.5,662.4 1085.9,662.4 1084.2,662.4 1082.5,662.4 1080.8,662.4
1079.1,662.4 1077.4,662.4 1075.8,662.4 1074.1,662.4 1072.4,662.4 1070.7,662.4 1069.0,662.4 1067.3,662.4 1065.7,662.4 1064.0,662.4 1062.3,662.4 1060.6,662.4 1058.9,662.4 1057.3,662.4 1055.6,662.4 1053.9,662.4
1052.2,662.4 1050.5,662.4 1048.8,662.4 1047.2,662.4 1045.5,662.4 1043.8,662.4 1042.1,662.4 1040.4,662.4 1038.7,662.4 1037.1,662.4 1035.4,662.4 1033.7,662.4 1032.0,662.4 1030.3,662.4 1028.6,662.4 1027.0,662.4
1025.3,662.4 1023.6,662.4 1021.9,662.4 1020.2,662.4 1018.6,662.4 1016.9,662.4 1015.2,662.4 1013.5,662.4 1011.8,662.4 1010.1,662.4 1008.5,662.4 1006.8,662.4 1005.1,662.4 1003.4,662.4 1001.7,662.4 1000.0,662.4
998.4,662.4 996.7,662.4 995.0,662.4 993.3,662.4 991.6,662.4 989.9,662.4 988.3,662.4 986.6,662.4 984.9,662.4 983.2,662.4 981.5,662.4 979.8,662.4 978.2,662.4 976.5,662.4 974.8,662.4 973.1,662.4
971.4,662.4 969.8,662.4 968.1,662.4 966.4,662.4 964.7,662.4 963.0,662.4 961.3,662.4 959.7,662.4 958.0,662.4 956.3,662.4 954.6,662.4 952.9,662.4 951.2,662.4 949.6,662.4 947.9,662.4 946.2,662.4
944.5,662.4 942.8,662.4 941.1,662.4 939.5,662.4 937.8,662.4 936.1,662.4 934.4,662.4 932.7,662.4 931.0,662.4 929.4,662.4 927.7,662.4 926.0,662.4 924.3,662.4 922.6,662.4 921.0,662.4 919.3,662.4
917.6,662.4 915.9,662.4 914.2,662.4 912.5,662.4 910.9,662.4 909.2,662.4 907.5,662.4 905.8,662.4 904.1,662.4 902.4,662.4 900.8,662.4 899.1,662.4 897.4,662.4 895.7,662.4 894.0,662.4 892.3,662.4
890.7,662.4 889.0,662.4 887.3,662.4 885.6,662.4 883.9,662.4 882.2,662.4 880.6,662.4 878.9,662.4 877.2,662.4 875.5,662.4 873.8,662.4 872.2,662.4 870.5,662.4 868.8,662.4 867.1,662.4 865.4,662.4
863.7,662.4 862.1,662.4 860.4,662.4 858.7,662.4 857.0,662.4 855.3,662.4 853.6,662.4 852.0,662.4 850.3,662.4 848.6,662.4 846.9,662.4 845.2,662.4 843.5,662.4 841.9,662.4 840.2,662.4 838.5,662.4
836.8,662.4 835.1,662.4 833.4,662.4 831.8,662.4 830.1,662.4 828.4,662.4 826.7,662.4 825.0,662.4 823.4,662.4 821.7,662.4 820.0,662.4 818.3,662.4 816.6,662.4 814.9,662.4 813.3,662.4 811.6,662.4
809.9,662.4 808.2,662.4 806.5,662.4 804.8,662.4 803.2,662.4 801.5,662.4 799.8,662.4 798.1,662.4 796.4,662.4 794.7,662.4 793.1,662.4 791.4,662.4 789.7,662.4 788.0,662.4 786.3,662.4 784.6,662.4
783.0,662.4 781.3,662.4 779.6,662.4 777.9,662.4 776.2,662.4 774.6,662.4 772.9,662.4 771.2,662.4 769.5,662.4 767.8,662.4 766.1,662.4 764.5,662.4 762.8,662.4 761.1,662.4 759.4,662.4 757.7,662.4
756.0,662.4 754.4,662.4 752.7,662.4 751.0,662.4 749.3,662.4 747.6,662.4 745.9,662.4 744.3,662.4 742.6,662.4 740.9,662.4 739.2,662.4 737.5,662.4 735.8,662.4 734.2,662.4 732.5,662.4 730.8,662.4
729.1,662.4 727.4,662.4 725.8,662.4 724.1,662.4 722.4,662.4 720.7,662.4 719.0,662.4 717.3,662.4 715.7,662.4 714.0,662.4 712.3,662.4 710.6,662.4 708.9,662.4 707.2,662.4 705.6,662.4 703.9,662.4
702.2,662.4 700.5,662.4 698.8,662.4 697.1,662.4 695.5,662.4 693.8,662.4 692.1,662.4 690.4,662.4 688.7,662.4 687.0,662.4 685.4,662.4 683.7,662.4 682.0,662.4 680.3,662.4 678.6,662.4 677.0,662.4
675.3,662.4 673.6,662.4 671.9,662.4 670.2,662.4 668.5,662.4 666.9,662.4 665.2,662.4 663.5,662.4 661.8,662.4 660.1,662.4 658.4,662.4 656.8,662.4 655.1,662.4 653.4,662.4 651.7,662.4 650.0,662.4
648.3,662.4 646.7,662.4 645.0,662.4 643.3,662.4 641.6,662.4 639.9,662.4 638.3,662.4 636.6,662.4 634.9,662.4 633.2,662.4 631.5,662.4 629.8,662.4 628.2,662.4 626.5,662.4 624.8,662.4 623.1,662.4
621.4,662.4 619.7,662.4 618.1,662.4 616.4,662.4 614.7,662.4 613.0,662.4 611.3,662.4 609.6,662.4 608.0,662.4 606.3,662.4 604.6,662.4 602.9,662.4 601.2,662.4 599.5,662.4 597.9,662.4 596.2,662.4
594.5,662.4 592.8,662.4 591.1,662.4 589.5,662.4 587.8,662.4 586.1,662.4 584.4,662.4 582.7,662.4 581.0,662.4 579.4,662.4 577.7,662.4 576.0,662.4 574.3,662.4 572.6,662.4 570.9,662.4 569.3,662.4
567.6,662.4 565.9,662.4 564.2,662.4 562.5,662.4 560.8,662.4 559.2,662.4 557.5,662.4 555.8,662.4 554.1,662.4 552.4,662.4 550.7,662.4 549.1,662.4 547.4,662.4 545.7,662.4 544.0,662.4 542.3,662.4
540.7,662.4 539.0,662.4 537.3,662.4 535.6,662.4 533.9,662.4 532.2,662.4 530.6,662.4 528.9,662.4 527.2,662.4 525.5,662.4 523.8,662.4 522.1,662.4 520.5,662.4 518.8,662.4 517.1,662.4 515.4,662.4
513.7,662.4 512.0,662.4 510.4,662.4 508.7,662.4 507.0,662.4 505.3,662.4 503.6,662.4 501.9,662.4 500.3,662.4 498.6,662.4 496.9,662.4 495.2,662.4 493.5,662.4 491.9,662.4 490.2,662.4 488.5,662.4
486.8,662.4 485.1,662.4 483.4,662.4 481.8,662.4 480.1,662.4 478.4,662.4 476.7,662.4 475.0,662.4 473.3,662.4 471.7,662.4 470.0,662.4 468.3,662.4 466.6,662.4 464.9,662.4 463.2,662.4 461.6,662.4
459.9,662.4 458.2,662.4 456.5,662.4 454.8,662.4 453.1,662.4 451.5,662.4 449.8,662.4 448.1,662.4 446.4,662.4 444.7,662.4 443.1,662.4 441.4,662.4 439.7,662.4 438.0,662.4 436.3,662.4 434.6,662.4
433.0,662.4 431.3,662.4 429.6,662.4 427.9,662.4 426.2,662.4 424.5,662.4 422.9,662.4 421.2,662.4 419.5,662.4 417.8,662.4 416.1,662.4 414.4,662.4 412.8,662.4 411.1,662.4 409.4,662.4 407.7,662.4
406.0,662.4 404.3,662.4 402.7,662.4 401.0,662.4 399.3,662.4 397.6,662.4 395.9,662.4 394.3,662.4 392.6,662.4 390.9,662.4 389.2,662.4 387.5,662.4 385.8,662.4 384.2,662.4 382.5,662.4 380.8,662.4
379.1,662.4 377.4,662.4 375.7,662.4 374.1,662.4 372.4,662.4 370.7,662.4 369.0,662.4 367.3,662.4 365.6,662.4 364.0,662.4 362.3,662.4 360.6,662.4 358.9,662.4 357.2,662.4 355.5,662.4 353.9,662.4
352.2,662.4 350.5,662.4 348.8,662.4 347.1,662.4 345.5,662.4 343.8,662.4 342.1,662.4 340.4,662.4 338.7,662.4 337.0,662.4 335.4,662.4 333.7,662.4 332.0,662.4 330.3,662.4 328.6,662.4 326.9,662.4
325.3,662.4 323.6,662.4 321.9,662.4 320.2,662.4 318.5,662.4 316.8,662.4 315.2,662.4 313.5,662.4 311.8,662.4 310.1,662.4 308.4,662.4 306.7,662.4 305.1,662.4 303.4,662.4 301.7,662.4 300.0,662.4
298.3,662.4 296.7,662.4 295.0,662.4 293.3,662.4 291.6,662.4 289.9,662.4 288.2,662.4 286.6,662.4 284.9,662.4 283.2,662.4 281.5,662.4 279.8,662.4 278.1,662.4 276.5,662.4 274.8,662.4 273.1,662.4
271.4,662.4 269.7,662.4 268.0,662.4 266.4,662.4 264.7,662.4 263.0,662.4 261.3,662.4 259.6,662.4 '/>
	</g>
</g>
	</g>
	<g id="gnuplot_plot_4" ><title>New Mean</title>
<g fill="none" color="white" stroke="rgb( 31, 120, 180)" stroke-width="2.00" stroke-linecap="butt" stroke-linejoin="miter">
</g>
<g fill="none" color="black" stroke="currentColor" stroke-width="2.00" stroke-linecap="butt" stroke-linejoin="miter">
	<g transform="translate(1196.9,121.0)" stroke="none" fill="black" font-family="Helvetica" font-size="12.00"  text-anchor="start">
		<text><tspan font-family="Helvetica" >New Mean</tspan></text>
	</g>
</g>
<g fill="none" color="black" stroke="currentColor" stroke-width="2.00" stroke-linecap="butt" stroke-linejoin="miter">
	<path stroke='rgb( 31, 120, 180)'  d='M1146.4,117.1 L1188.6,117.1 M365.2,662.4 L365.2,176.2  '/></g>
	</g>
<g fill="none" color="black" stroke="currentColor" stroke-width="2.00" stroke-linecap="butt" stroke-linejoin="miter">
</g>
<g fill="none" color="black" stroke="black" stroke-width="1.00" stroke-linecap="butt" stroke-linejoin="miter">
</g>
<g fill="none" color="black" stroke="currentColor" stroke-width="1.00" stroke-linecap="butt" stroke-linejoin="miter">
	<path stroke='black'  d='M71.9,54.1 L71.9,662.4 L1121.5,662.4 L1121.5,54.1 L71.9,54.1 Z  '/></g>
<g fill="none" color="black" stroke="currentColor" stroke-width="1.00" stroke-linecap="butt" stroke-linejoin="miter">
</g>
</g>
</svg>

