<?xml version="1.0" encoding="utf-8"  standalone="no"?>
<svg 
 viewBox="0 0 450 300"
 xmlns="http://www.w3.org/2000/svg"
 xmlns:xlink="http://www.w3.org/1999/xlink"
>

<title>Gnuplot</title>
<desc>Produced by GNUPLOT 5.2 patchlevel 6 </desc>

<g id="gnuplot_canvas">

<rect x="0" y="0" width="450" height="300" fill="none"/>
<defs>

	<circle id='gpDot' r='0.5' stroke-width='0.5' stroke='currentColor'/>
	<path id='gpPt0' stroke-width='0.222' stroke='currentColor' d='M-1,0 h2 M0,-1 v2'/>
	<path id='gpPt1' stroke-width='0.222' stroke='currentColor' d='M-1,-1 L1,1 M1,-1 L-1,1'/>
	<path id='gpPt2' stroke-width='0.222' stroke='currentColor' d='M-1,0 L1,0 M0,-1 L0,1 M-1,-1 L1,1 M-1,1 L1,-1'/>
	<rect id='gpPt3' stroke-width='0.222' stroke='currentColor' x='-1' y='-1' width='2' height='2'/>
	<rect id='gpPt4' stroke-width='0.222' stroke='currentColor' fill='currentColor' x='-1' y='-1' width='2' height='2'/>
	<circle id='gpPt5' stroke-width='0.222' stroke='currentColor' cx='0' cy='0' r='1'/>
	<use xlink:href='#gpPt5' id='gpPt6' fill='currentColor' stroke='none'/>
	<path id='gpPt7' stroke-width='0.222' stroke='currentColor' d='M0,-1.33 L-1.33,0.67 L1.33,0.67 z'/>
	<use xlink:href='#gpPt7' id='gpPt8' fill='currentColor' stroke='none'/>
	<use xlink:href='#gpPt7' id='gpPt9' stroke='currentColor' transform='rotate(180)'/>
	<use xlink:href='#gpPt9' id='gpPt10' fill='currentColor' stroke='none'/>
	<use xlink:href='#gpPt3' id='gpPt11' stroke='currentColor' transform='rotate(45)'/>
	<use xlink:href='#gpPt11' id='gpPt12' fill='currentColor' stroke='none'/>
	<path id='gpPt13' stroke-width='0.222' stroke='currentColor' d='M0,1.330 L1.265,0.411 L0.782,-1.067 L-0.782,-1.076 L-1.265,0.411 z'/>
	<use xlink:href='#gpPt13' id='gpPt14' fill='currentColor' stroke='none'/>
	<filter id='textbox' filterUnits='objectBoundingBox' x='0' y='0' height='1' width='1'>
	  <feFlood flood-color='white' flood-opacity='1' result='bgnd'/>
	  <feComposite in='SourceGraphic' in2='bgnd' operator='atop'/>
	</filter>
	<filter id='greybox' filterUnits='objectBoundingBox' x='0' y='0' height='1' width='1'>
	  <feFlood flood-color='lightgrey' flood-opacity='1' result='grey'/>
	  <feComposite in='SourceGraphic' in2='grey' operator='atop'/>
	</filter>
</defs>
<g fill="none" color="white" stroke="currentColor" stroke-width="1.00" stroke-linecap="butt" stroke-linejoin="miter">
</g>
<g fill="none" color="black" stroke="currentColor" stroke-width="1.00" stroke-linecap="butt" stroke-linejoin="miter">
	<path stroke='black'  d='M71.9,242.4 L80.9,242.4  '/>	<g transform="translate(63.6,246.3)" stroke="none" fill="black" font-family="Helvetica" font-size="12.00"  text-anchor="end">
		<text><tspan font-family="Helvetica" > 0</tspan></text>
	</g>
</g>
<g fill="none" color="black" stroke="currentColor" stroke-width="1.00" stroke-linecap="butt" stroke-linejoin="miter">
	<path stroke='black'  d='M71.9,207.5 L80.9,207.5  '/>	<g transform="translate(63.6,211.4)" stroke="none" fill="black" font-family="Helvetica" font-size="12.00"  text-anchor="end">
		<text><tspan font-family="Helvetica" > 0.2</tspan></text>
	</g>
</g>
<g fill="none" color="black" stroke="currentColor" stroke-width="1.00" stroke-linecap="butt" stroke-linejoin="miter">
	<path stroke='black'  d='M71.9,172.5 L80.9,172.5  '/>	<g transform="translate(63.6,176.4)" stroke="none" fill="black" font-family="Helvetica" font-size="12.00"  text-anchor="end">
		<text><tspan font-family="Helvetica" > 0.4</tspan></text>
	</g>
</g>
<g fill="none" color="black" stroke="currentColor" stroke-width="1.00" stroke-linecap="butt" stroke-linejoin="miter">
	<path stroke='black'  d='M71.9,137.6 L80.9,137.6  '/>	<g transform="translate(63.6,141.5)" stroke="none" fill="black" font-family="Helvetica" font-size="12.00"  text-anchor="end">
		<text><tspan font-family="Helvetica" > 0.6</tspan></text>
	</g>
</g>
<g fill="none" color="black" stroke="currentColor" stroke-width="1.00" stroke-linecap="butt" stroke-linejoin="miter">
	<path stroke='black'  d='M71.9,102.6 L80.9,102.6  '/>	<g transform="translate(63.6,106.5)" stroke="none" fill="black" font-family="Helvetica" font-size="12.00"  text-anchor="end">
		<text><tspan font-family="Helvetica" > 0.8</tspan></text>
	</g>
</g>
<g fill="none" color="black" stroke="currentColor" stroke-width="1.00" stroke-linecap="butt" stroke-linejoin="miter">
	<path stroke='black'  d='M71.9,67.7 L80.9,67.7  '/>	<g transform="translate(63.6,71.6)" stroke="none" fill="black" font-family="Helvetica" font-size="12.00"  text-anchor="end">
		<text><tspan font-family="Helvetica" > 1</tspan></text>
	</g>
</g>
<g fill="none" color="black" stroke="currentColor" stroke-width="1.00" stroke-linecap="butt" stroke-linejoin="miter">
	<path stroke='black'  d='M71.9,32.8 L80.9,32.8  '/>	<g transform="translate(63.6,36.7)" stroke="none" fill="black" font-family="Helvetica" font-size="12.00"  text-anchor="end">
		<text><tspan font-family="Helvetica" > 1.2</tspan></text>
	</g>
</g>
<g fill="none" color="black" stroke="currentColor" stroke-width="1.00" stroke-linecap="butt" stroke-linejoin="miter">
	<path stroke='black'  d='M91.5,242.4 L91.5,233.4  '/>	<g transform="translate(91.5,264.3)" stroke="none" fill="black" font-family="Helvetica" font-size="12.00"  text-anchor="middle">
		<text><tspan font-family="Helvetica" > 42</tspan></text>
	</g>
</g>
<g fill="none" color="black" stroke="currentColor" stroke-width="1.00" stroke-linecap="butt" stroke-linejoin="miter">
	<path stroke='black'  d='M146.7,242.4 L146.7,233.4  '/>	<g transform="translate(146.7,264.3)" stroke="none" fill="black" font-family="Helvetica" font-size="12.00"  text-anchor="middle">
		<text><tspan font-family="Helvetica" > 43</tspan></text>
	</g>
</g>
<g fill="none" color="black" stroke="currentColor" stroke-width="1.00" stroke-linecap="butt" stroke-linejoin="miter">
	<path stroke='black'  d='M201.9,242.4 L201.9,233.4  '/>	<g transform="translate(201.9,264.3)" stroke="none" fill="black" font-family="Helvetica" font-size="12.00"  text-anchor="middle">
		<text><tspan font-family="Helvetica" > 44</tspan></text>
	</g>
</g>
<g fill="none" color="black" stroke="currentColor" stroke-width="1.00" stroke-linecap="butt" stroke-linejoin="miter">
	<path stroke='black'  d='M257.1,242.4 L257.1,233.4  '/>	<g transform="translate(257.1,264.3)" stroke="none" fill="black" font-family="Helvetica" font-size="12.00"  text-anchor="middle">
		<text><tspan font-family="Helvetica" > 45</tspan></text>
	</g>
</g>
<g fill="none" color="black" stroke="currentColor" stroke-width="1.00" stroke-linecap="butt" stroke-linejoin="miter">
	<path stroke='black'  d='M312.3,242.4 L312.3,233.4  '/>	<g transform="translate(312.3,264.3)" stroke="none" fill="black" font-family="Helvetica" font-size="12.00"  text-anchor="middle">
		<text><tspan font-family="Helvetica" > 46</tspan></text>
	</g>
</g>
<g fill="none" color="black" stroke="currentColor" stroke-width="1.00" stroke-linecap="butt" stroke-linejoin="miter">
	<path stroke='black'  d='M367.5,242.4 L367.5,233.4  '/>	<g transform="translate(367.5,264.3)" stroke="none" fill="black" font-family="Helvetica" font-size="12.00"  text-anchor="middle">
		<text><tspan font-family="Helvetica" > 47</tspan></text>
	</g>
</g>
<g fill="none" color="black" stroke="currentColor" stroke-width="1.00" stroke-linecap="butt" stroke-linejoin="miter">
	<path stroke='black'  d='M422.7,242.4 L422.7,233.4  '/>	<g transform="translate(422.7,264.3)" stroke="none" fill="black" font-family="Helvetica" font-size="12.00"  text-anchor="middle">
		<text><tspan font-family="Helvetica" > 48</tspan></text>
	</g>
</g>
<g fill="none" color="black" stroke="currentColor" stroke-width="1.00" stroke-linecap="butt" stroke-linejoin="miter">
</g>
<g fill="none" color="black" stroke="currentColor" stroke-width="1.00" stroke-linecap="butt" stroke-linejoin="miter">
	<path stroke='black'  d='M71.9,18.1 L71.9,242.4 L425.0,242.4 L425.0,18.1 L71.9,18.1 Z  '/></g>
<g fill="none" color="black" stroke="currentColor" stroke-width="1.00" stroke-linecap="butt" stroke-linejoin="miter">
	<g transform="translate(16.3,130.3) rotate(270)" stroke="none" fill="black" font-family="Helvetica" font-size="12.00"  text-anchor="middle">
		<text><tspan font-family="Helvetica" >Density (a.u.)</tspan></text>
	</g>
</g>
<g fill="none" color="black" stroke="currentColor" stroke-width="1.00" stroke-linecap="butt" stroke-linejoin="miter">
	<g transform="translate(248.4,291.3)" stroke="none" fill="black" font-family="Helvetica" font-size="12.00"  text-anchor="middle">
		<text><tspan font-family="Helvetica" >Average time (us)</tspan></text>
	</g>
</g>
<g fill="none" color="black" stroke="currentColor" stroke-width="1.00" stroke-linecap="butt" stroke-linejoin="miter">
</g>
	<g id="gnuplot_plot_1" ><title>PDF</title>
<g fill="none" color="black" stroke="currentColor" stroke-width="1.00" stroke-linecap="butt" stroke-linejoin="miter">
	<g stroke='none' shape-rendering='crispEdges'>
		<polygon fill = 'rgb( 31, 120, 180)' fill-opacity = '0.250000' points = '71.9,241.8 72.6,241.7 73.3,241.6 74.0,241.5 74.7,241.4 75.4,241.2 76.1,241.0 76.9,240.8 77.6,240.6 78.3,240.3 79.0,240.0 79.7,239.7 80.4,239.3 81.1,238.9 81.8,238.4 82.5,237.8
83.2,237.3 83.9,236.6 84.6,235.9 85.3,235.1 86.1,234.2 86.8,233.2 87.5,232.1 88.2,231.0 88.9,229.7 89.6,228.3 90.3,226.8 91.0,225.1 91.7,223.3 92.4,221.4 93.1,219.3 93.8,217.1
94.5,214.7 95.3,212.1 96.0,209.4 96.7,206.5 97.4,203.4 98.1,200.1 98.8,196.6 99.5,193.0 100.2,189.1 100.9,185.1 101.6,180.9 102.3,176.5 103.0,171.9 103.7,167.2 104.5,162.2 105.2,157.2
105.9,151.9 106.6,146.6 107.3,141.1 108.0,135.5 108.7,129.8 109.4,124.0 110.1,118.2 110.8,112.4 111.5,106.5 112.2,100.6 112.9,94.8 113.6,89.0 114.4,83.2 115.1,77.6 115.8,72.1 116.5,66.7
117.2,61.6 117.9,56.6 118.6,51.8 119.3,47.2 120.0,43.0 120.7,39.0 121.4,35.3 122.1,31.9 122.8,28.9 123.6,26.2 124.3,23.9 125.0,22.0 125.7,20.4 126.4,19.2 127.1,18.5 127.8,18.1
128.5,18.1 129.2,18.6 129.9,19.4 130.6,20.6 131.3,22.2 132.0,24.1 132.8,26.4 133.5,29.1 134.2,32.1 134.9,35.4 135.6,38.9 136.3,42.8 137.0,46.9 137.7,51.2 138.4,55.7 139.1,60.5
139.8,65.3 140.5,70.4 141.2,75.5 142.0,80.7 142.7,86.0 143.4,91.4 144.1,96.7 144.8,102.1 145.5,107.5 146.2,112.8 146.9,118.1 147.6,123.4 148.3,128.5 149.0,133.6 149.7,138.5 150.4,143.4
151.2,148.1 151.9,152.7 152.6,157.1 153.3,161.4 154.0,165.5 154.7,169.5 155.4,173.3 156.1,176.9 156.8,180.4 157.5,183.7 158.2,186.8 158.9,189.8 159.6,192.6 160.4,195.3 161.1,197.8 161.8,200.1
162.5,202.3 163.2,204.4 163.9,206.3 164.6,208.1 165.3,209.8 166.0,211.4 166.7,212.8 167.4,214.1 168.1,215.4 168.8,216.5 169.6,217.6 170.3,218.5 171.0,219.4 171.7,220.2 172.4,221.0 173.1,221.7
173.8,222.3 174.5,222.9 175.2,223.4 175.9,223.9 176.6,224.4 177.3,224.8 178.0,225.2 178.7,225.6 179.5,225.9 180.2,226.3 180.9,226.6 181.6,226.9 182.3,227.1 183.0,227.4 183.7,227.7 184.4,227.9
185.1,228.2 185.8,228.4 186.5,228.7 187.2,228.9 187.9,229.2 188.7,229.4 189.4,229.7 190.1,229.9 190.8,230.2 191.5,230.4 192.2,230.7 192.9,230.9 193.6,231.2 194.3,231.4 195.0,231.6 195.7,231.9
196.4,232.1 197.1,232.4 197.9,232.6 198.6,232.8 199.3,233.1 200.0,233.3 200.7,233.5 201.4,233.7 202.1,233.9 202.8,234.1 203.5,234.3 204.2,234.5 204.9,234.7 205.6,234.8 206.3,235.0 207.1,235.1
207.8,235.3 208.5,235.4 209.2,235.5 209.9,235.6 210.6,235.7 211.3,235.8 212.0,235.9 212.7,236.0 213.4,236.1 214.1,236.1 214.8,236.2 215.5,236.2 216.3,236.3 217.0,236.3 217.7,236.4 218.4,236.4
219.1,236.4 219.8,236.5 220.5,236.5 221.2,236.5 221.9,236.6 222.6,236.6 223.3,236.6 224.0,236.7 224.7,236.7 225.5,236.7 226.2,236.8 226.9,236.8 227.6,236.9 228.3,236.9 229.0,237.0 229.7,237.1
230.4,237.1 231.1,237.2 231.8,237.3 232.5,237.4 233.2,237.4 233.9,237.5 234.7,237.6 235.4,237.7 236.1,237.8 236.8,237.9 237.5,238.0 238.2,238.1 238.9,238.2 239.6,238.3 240.3,238.4 241.0,238.5
241.7,238.6 242.4,238.7 243.1,238.8 243.9,238.9 244.6,239.0 245.3,239.1 246.0,239.1 246.7,239.2 247.4,239.3 248.1,239.3 248.8,239.4 249.5,239.4 250.2,239.5 250.9,239.5 251.6,239.5 252.3,239.5
253.0,239.5 253.8,239.5 254.5,239.5 255.2,239.5 255.9,239.4 256.6,239.4 257.3,239.3 258.0,239.3 258.7,239.2 259.4,239.1 260.1,239.1 260.8,239.0 261.5,238.9 262.2,238.8 263.0,238.7 263.7,238.6
264.4,238.5 265.1,238.4 265.8,238.3 266.5,238.2 267.2,238.1 267.9,237.9 268.6,237.8 269.3,237.7 270.0,237.6 270.7,237.5 271.4,237.5 272.2,237.4 272.9,237.3 273.6,237.2 274.3,237.2 275.0,237.1
275.7,237.1 276.4,237.0 277.1,237.0 277.8,237.0 278.5,237.0 279.2,237.0 279.9,237.0 280.6,237.0 281.4,237.1 282.1,237.1 282.8,237.2 283.5,237.2 284.2,237.3 284.9,237.4 285.6,237.5 286.3,237.6
287.0,237.7 287.7,237.8 288.4,237.9 289.1,238.0 289.8,238.2 290.6,238.3 291.3,238.4 292.0,238.6 292.7,238.7 293.4,238.9 294.1,239.0 294.8,239.2 295.5,239.3 296.2,239.5 296.9,239.6 297.6,239.8
298.3,239.9 299.0,240.0 299.8,240.2 300.5,240.3 301.2,240.4 301.9,240.5 302.6,240.7 303.3,240.8 304.0,240.9 304.7,241.0 305.4,241.1 306.1,241.2 306.8,241.3 307.5,241.4 308.2,241.5 309.0,241.5
309.7,241.6 310.4,241.7 311.1,241.7 311.8,241.8 312.5,241.8 313.2,241.9 313.9,241.9 314.6,242.0 315.3,242.0 316.0,242.1 316.7,242.1 317.4,242.1 318.2,242.2 318.9,242.2 319.6,242.2 320.3,242.2
321.0,242.2 321.7,242.3 322.4,242.3 323.1,242.3 323.8,242.3 324.5,242.3 325.2,242.3 325.9,242.3 326.6,242.3 327.3,242.3 328.1,242.3 328.8,242.3 329.5,242.3 330.2,242.3 330.9,242.3 331.6,242.3
332.3,242.3 333.0,242.3 333.7,242.3 334.4,242.3 335.1,242.3 335.8,242.3 336.5,242.3 337.3,242.3 338.0,242.3 338.7,242.3 339.4,242.3 340.1,242.3 340.8,242.2 341.5,242.2 342.2,242.2 342.9,242.2
343.6,242.2 344.3,242.1 345.0,242.1 345.7,242.1 346.5,242.1 347.2,242.0 347.9,242.0 348.6,242.0 349.3,241.9 350.0,241.9 350.7,241.8 351.4,241.8 352.1,241.7 352.8,241.7 353.5,241.6 354.2,241.6
354.9,241.5 355.7,241.4 356.4,241.4 357.1,241.3 357.8,241.2 358.5,241.2 359.2,241.1 359.9,241.0 360.6,241.0 361.3,240.9 362.0,240.8 362.7,240.7 363.4,240.7 364.1,240.6 364.9,240.5 365.6,240.4
366.3,240.4 367.0,240.3 367.7,240.2 368.4,240.2 369.1,240.1 369.8,240.1 370.5,240.0 371.2,239.9 371.9,239.9 372.6,239.9 373.3,239.8 374.1,239.8 374.8,239.8 375.5,239.7 376.2,239.7 376.9,239.7
377.6,239.7 378.3,239.7 379.0,239.7 379.7,239.7 380.4,239.7 381.1,239.7 381.8,239.8 382.5,239.8 383.3,239.8 384.0,239.9 384.7,239.9 385.4,240.0 386.1,240.0 386.8,240.1 387.5,240.1 388.2,240.2
388.9,240.3 389.6,240.3 390.3,240.4 391.0,240.5 391.7,240.5 392.4,240.6 393.2,240.7 393.9,240.8 394.6,240.8 395.3,240.9 396.0,241.0 396.7,241.1 397.4,241.1 398.1,241.2 398.8,241.3 399.5,241.3
400.2,241.4 400.9,241.5 401.6,241.5 402.4,241.6 403.1,241.6 403.8,241.7 404.5,241.7 405.2,241.8 405.9,241.8 406.6,241.9 407.3,241.9 408.0,242.0 408.7,242.0 409.4,242.0 410.1,242.1 410.8,242.1
411.6,242.1 412.3,242.1 413.0,242.2 413.7,242.2 414.4,242.2 415.1,242.2 415.8,242.3 416.5,242.3 417.2,242.3 417.9,242.3 418.6,242.3 419.3,242.3 420.0,242.3 420.8,242.3 421.5,242.3 422.2,242.3
422.9,242.4 423.6,242.4 424.3,242.4 425.0,242.4 425.0,242.4 424.3,242.4 423.6,242.4 422.9,242.4 422.2,242.4 421.5,242.4 420.8,242.4 420.0,242.4 419.3,242.4 418.6,242.4 417.9,242.4 417.2,242.4
416.5,242.4 415.8,242.4 415.1,242.4 414.4,242.4 413.7,242.4 413.0,242.4 412.3,242.4 411.6,242.4 410.8,242.4 410.1,242.4 409.4,242.4 408.7,242.4 408.0,242.4 407.3,242.4 406.6,242.4 405.9,242.4
405.2,242.4 404.5,242.4 403.8,242.4 403.1,242.4 402.4,242.4 401.6,242.4 400.9,242.4 400.2,242.4 399.5,242.4 398.8,242.4 398.1,242.4 397.4,242.4 396.7,242.4 396.0,242.4 395.3,242.4 394.6,242.4
393.9,242.4 393.2,242.4 392.4,242.4 391.7,242.4 391.0,242.4 390.3,242.4 389.6,242.4 388.9,242.4 388.2,242.4 387.5,242.4 386.8,242.4 386.1,242.4 385.4,242.4 384.7,242.4 384.0,242.4 383.3,242.4
382.5,242.4 381.8,242.4 381.1,242.4 380.4,242.4 379.7,242.4 379.0,242.4 378.3,242.4 377.6,242.4 376.9,242.4 376.2,242.4 375.5,242.4 374.8,242.4 374.1,242.4 373.3,242.4 372.6,242.4 371.9,242.4
371.2,242.4 370.5,242.4 369.8,242.4 369.1,242.4 368.4,242.4 367.7,242.4 367.0,242.4 366.3,242.4 365.6,242.4 364.9,242.4 364.1,242.4 363.4,242.4 362.7,242.4 362.0,242.4 361.3,242.4 360.6,242.4
359.9,242.4 359.2,242.4 358.5,242.4 357.8,242.4 357.1,242.4 356.4,242.4 355.7,242.4 354.9,242.4 354.2,242.4 353.5,242.4 352.8,242.4 352.1,242.4 351.4,242.4 350.7,242.4 350.0,242.4 349.3,242.4
348.6,242.4 347.9,242.4 347.2,242.4 346.5,242.4 345.7,242.4 345.0,242.4 344.3,242.4 343.6,242.4 342.9,242.4 342.2,242.4 341.5,242.4 340.8,242.4 340.1,242.4 339.4,242.4 338.7,242.4 338.0,242.4
337.3,242.4 336.5,242.4 335.8,242.4 335.1,242.4 334.4,242.4 333.7,242.4 333.0,242.4 332.3,242.4 331.6,242.4 330.9,242.4 330.2,242.4 329.5,242.4 328.8,242.4 328.1,242.4 327.3,242.4 326.6,242.4
325.9,242.4 325.2,242.4 324.5,242.4 323.8,242.4 323.1,242.4 322.4,242.4 321.7,242.4 321.0,242.4 320.3,242.4 319.6,242.4 318.9,242.4 318.2,242.4 317.4,242.4 316.7,242.4 316.0,242.4 315.3,242.4
314.6,242.4 313.9,242.4 313.2,242.4 312.5,242.4 311.8,242.4 311.1,242.4 310.4,242.4 309.7,242.4 309.0,242.4 308.2,242.4 307.5,242.4 306.8,242.4 306.1,242.4 305.4,242.4 304.7,242.4 304.0,242.4
303.3,242.4 302.6,242.4 301.9,242.4 301.2,242.4 300.5,242.4 299.8,242.4 299.0,242.4 298.3,242.4 297.6,242.4 296.9,242.4 296.2,242.4 295.5,242.4 294.8,242.4 294.1,242.4 293.4,242.4 292.7,242.4
292.0,242.4 291.3,242.4 290.6,242.4 289.8,242.4 289.1,242.4 288.4,242.4 287.7,242.4 287.0,242.4 286.3,242.4 285.6,242.4 284.9,242.4 284.2,242.4 283.5,242.4 282.8,242.4 282.1,242.4 281.4,242.4
280.6,242.4 279.9,242.4 279.2,242.4 278.5,242.4 277.8,242.4 277.1,242.4 276.4,242.4 275.7,242.4 275.0,242.4 274.3,242.4 273.6,242.4 272.9,242.4 272.2,242.4 271.4,242.4 270.7,242.4 270.0,242.4
269.3,242.4 268.6,242.4 267.9,242.4 267.2,242.4 266.5,242.4 265.8,242.4 265.1,242.4 264.4,242.4 263.7,242.4 263.0,242.4 262.2,242.4 261.5,242.4 260.8,242.4 260.1,242.4 259.4,242.4 258.7,242.4
258.0,242.4 257.3,242.4 256.6,242.4 255.9,242.4 255.2,242.4 254.5,242.4 253.8,242.4 253.0,242.4 252.3,242.4 251.6,242.4 250.9,242.4 250.2,242.4 249.5,242.4 248.8,242.4 248.1,242.4 247.4,242.4
246.7,242.4 246.0,242.4 245.3,242.4 244.6,242.4 243.9,242.4 243.1,242.4 242.4,242.4 241.7,242.4 241.0,242.4 240.3,242.4 239.6,242.4 238.9,242.4 238.2,242.4 237.5,242.4 236.8,242.4 236.1,242.4
235.4,242.4 234.7,242.4 233.9,242.4 233.2,242.4 232.5,242.4 231.8,242.4 231.1,242.4 230.4,242.4 229.7,242.4 229.0,242.4 228.3,242.4 227.6,242.4 226.9,242.4 226.2,242.4 225.5,242.4 224.7,242.4
224.0,242.4 223.3,242.4 222.6,242.4 221.9,242.4 221.2,242.4 220.5,242.4 219.8,242.4 219.1,242.4 218.4,242.4 217.7,242.4 217.0,242.4 216.3,242.4 215.5,242.4 214.8,242.4 214.1,242.4 213.4,242.4
212.7,242.4 212.0,242.4 211.3,242.4 210.6,242.4 209.9,242.4 209.2,242.4 208.5,242.4 207.8,242.4 207.1,242.4 206.3,242.4 205.6,242.4 204.9,242.4 204.2,242.4 203.5,242.4 202.8,242.4 202.1,242.4
201.4,242.4 200.7,242.4 200.0,242.4 199.3,242.4 198.6,242.4 197.9,242.4 197.1,242.4 196.4,242.4 195.7,242.4 195.0,242.4 194.3,242.4 193.6,242.4 192.9,242.4 192.2,242.4 191.5,242.4 190.8,242.4
190.1,242.4 189.4,242.4 188.7,242.4 187.9,242.4 187.2,242.4 186.5,242.4 185.8,242.4 185.1,242.4 184.4,242.4 183.7,242.4 183.0,242.4 182.3,242.4 181.6,242.4 180.9,242.4 180.2,242.4 179.5,242.4
178.7,242.4 178.0,242.4 177.3,242.4 176.6,242.4 175.9,242.4 175.2,242.4 174.5,242.4 173.8,242.4 173.1,242.4 172.4,242.4 171.7,242.4 171.0,242.4 170.3,242.4 169.6,242.4 168.8,242.4 168.1,242.4
167.4,242.4 166.7,242.4 166.0,242.4 165.3,242.4 164.6,242.4 163.9,242.4 163.2,242.4 162.5,242.4 161.8,242.4 161.1,242.4 160.4,242.4 159.6,242.4 158.9,242.4 158.2,242.4 157.5,242.4 156.8,242.4
156.1,242.4 155.4,242.4 154.7,242.4 154.0,242.4 153.3,242.4 152.6,242.4 151.9,242.4 151.2,242.4 150.4,242.4 149.7,242.4 149.0,242.4 148.3,242.4 147.6,242.4 146.9,242.4 146.2,242.4 145.5,242.4
144.8,242.4 144.1,242.4 143.4,242.4 142.7,242.4 142.0,242.4 141.2,242.4 140.5,242.4 139.8,242.4 139.1,242.4 138.4,242.4 137.7,242.4 137.0,242.4 136.3,242.4 135.6,242.4 134.9,242.4 134.2,242.4
133.5,242.4 132.8,242.4 132.0,242.4 131.3,242.4 130.6,242.4 129.9,242.4 129.2,242.4 128.5,242.4 127.8,242.4 127.1,242.4 126.4,242.4 125.7,242.4 125.0,242.4 124.3,242.4 123.6,242.4 122.8,242.4
122.1,242.4 121.4,242.4 120.7,242.4 120.0,242.4 119.3,242.4 118.6,242.4 117.9,242.4 117.2,242.4 116.5,242.4 115.8,242.4 115.1,242.4 114.4,242.4 113.6,242.4 112.9,242.4 112.2,242.4 111.5,242.4
110.8,242.4 110.1,242.4 109.4,242.4 108.7,242.4 108.0,242.4 107.3,242.4 106.6,242.4 105.9,242.4 105.2,242.4 104.5,242.4 103.7,242.4 103.0,242.4 102.3,242.4 101.6,242.4 100.9,242.4 100.2,242.4
99.5,242.4 98.8,242.4 98.1,242.4 97.4,242.4 96.7,242.4 96.0,242.4 95.3,242.4 94.5,242.4 93.8,242.4 93.1,242.4 92.4,242.4 91.7,242.4 91.0,242.4 90.3,242.4 89.6,242.4 88.9,242.4
88.2,242.4 87.5,242.4 86.8,242.4 86.1,242.4 85.3,242.4 84.6,242.4 83.9,242.4 83.2,242.4 82.5,242.4 81.8,242.4 81.1,242.4 80.4,242.4 79.7,242.4 79.0,242.4 78.3,242.4 77.6,242.4
76.9,242.4 76.1,242.4 75.4,242.4 74.7,242.4 74.0,242.4 73.3,242.4 72.6,242.4 71.9,242.4 '/>
	</g>
</g>
	</g>
	<g id="gnuplot_plot_2" ><title>Mean</title>
<g fill="none" color="white" stroke="rgb( 31, 120, 180)" stroke-width="2.00" stroke-linecap="butt" stroke-linejoin="miter">
</g>
<g fill="none" color="black" stroke="currentColor" stroke-width="2.00" stroke-linecap="butt" stroke-linejoin="miter">
	<path stroke='rgb( 31, 120, 180)'  d='M139.2,242.4 L139.2,77.6  '/></g>
	</g>
<g fill="none" color="black" stroke="currentColor" stroke-width="2.00" stroke-linecap="butt" stroke-linejoin="miter">
</g>
<g fill="none" color="black" stroke="black" stroke-width="1.00" stroke-linecap="butt" stroke-linejoin="miter">
</g>
<g fill="none" color="black" stroke="currentColor" stroke-width="1.00" stroke-linecap="butt" stroke-linejoin="miter">
	<path stroke='black'  d='M71.9,18.1 L71.9,242.4 L425.0,242.4 L425.0,18.1 L71.9,18.1 Z  '/></g>
<g fill="none" color="black" stroke="currentColor" stroke-width="1.00" stroke-linecap="butt" stroke-linejoin="miter">
</g>
</g>
</svg>

