<?xml version="1.0" encoding="utf-8"  standalone="no"?>
<svg 
 viewBox="0 0 1280 720"
 xmlns="http://www.w3.org/2000/svg"
 xmlns:xlink="http://www.w3.org/1999/xlink"
>

<title>Gnuplot</title>
<desc>Produced by GNUPLOT 5.2 patchlevel 6 </desc>

<g id="gnuplot_canvas">

<rect x="0" y="0" width="1280" height="720" fill="none"/>
<defs>

	<circle id='gpDot' r='0.5' stroke-width='0.5' stroke='currentColor'/>
	<path id='gpPt0' stroke-width='0.222' stroke='currentColor' d='M-1,0 h2 M0,-1 v2'/>
	<path id='gpPt1' stroke-width='0.222' stroke='currentColor' d='M-1,-1 L1,1 M1,-1 L-1,1'/>
	<path id='gpPt2' stroke-width='0.222' stroke='currentColor' d='M-1,0 L1,0 M0,-1 L0,1 M-1,-1 L1,1 M-1,1 L1,-1'/>
	<rect id='gpPt3' stroke-width='0.222' stroke='currentColor' x='-1' y='-1' width='2' height='2'/>
	<rect id='gpPt4' stroke-width='0.222' stroke='currentColor' fill='currentColor' x='-1' y='-1' width='2' height='2'/>
	<circle id='gpPt5' stroke-width='0.222' stroke='currentColor' cx='0' cy='0' r='1'/>
	<use xlink:href='#gpPt5' id='gpPt6' fill='currentColor' stroke='none'/>
	<path id='gpPt7' stroke-width='0.222' stroke='currentColor' d='M0,-1.33 L-1.33,0.67 L1.33,0.67 z'/>
	<use xlink:href='#gpPt7' id='gpPt8' fill='currentColor' stroke='none'/>
	<use xlink:href='#gpPt7' id='gpPt9' stroke='currentColor' transform='rotate(180)'/>
	<use xlink:href='#gpPt9' id='gpPt10' fill='currentColor' stroke='none'/>
	<use xlink:href='#gpPt3' id='gpPt11' stroke='currentColor' transform='rotate(45)'/>
	<use xlink:href='#gpPt11' id='gpPt12' fill='currentColor' stroke='none'/>
	<path id='gpPt13' stroke-width='0.222' stroke='currentColor' d='M0,1.330 L1.265,0.411 L0.782,-1.067 L-0.782,-1.076 L-1.265,0.411 z'/>
	<use xlink:href='#gpPt13' id='gpPt14' fill='currentColor' stroke='none'/>
	<filter id='textbox' filterUnits='objectBoundingBox' x='0' y='0' height='1' width='1'>
	  <feFlood flood-color='white' flood-opacity='1' result='bgnd'/>
	  <feComposite in='SourceGraphic' in2='bgnd' operator='atop'/>
	</filter>
	<filter id='greybox' filterUnits='objectBoundingBox' x='0' y='0' height='1' width='1'>
	  <feFlood flood-color='lightgrey' flood-opacity='1' result='grey'/>
	  <feComposite in='SourceGraphic' in2='grey' operator='atop'/>
	</filter>
</defs>
<g fill="none" color="white" stroke="currentColor" stroke-width="1.00" stroke-linecap="butt" stroke-linejoin="miter">
</g>
<g fill="none" color="black" stroke="currentColor" stroke-width="1.00" stroke-linecap="butt" stroke-linejoin="miter">
	<path stroke='black'  d='M71.9,662.4 L80.9,662.4  '/>	<g transform="translate(63.6,666.3)" stroke="none" fill="black" font-family="Helvetica" font-size="12.00"  text-anchor="end">
		<text><tspan font-family="Helvetica" > 0</tspan></text>
	</g>
</g>
<g fill="none" color="black" stroke="currentColor" stroke-width="1.00" stroke-linecap="butt" stroke-linejoin="miter">
	<path stroke='black'  d='M71.9,586.4 L80.9,586.4  '/>	<g transform="translate(63.6,590.3)" stroke="none" fill="black" font-family="Helvetica" font-size="12.00"  text-anchor="end">
		<text><tspan font-family="Helvetica" > 0.5</tspan></text>
	</g>
</g>
<g fill="none" color="black" stroke="currentColor" stroke-width="1.00" stroke-linecap="butt" stroke-linejoin="miter">
	<path stroke='black'  d='M71.9,510.3 L80.9,510.3  '/>	<g transform="translate(63.6,514.2)" stroke="none" fill="black" font-family="Helvetica" font-size="12.00"  text-anchor="end">
		<text><tspan font-family="Helvetica" > 1</tspan></text>
	</g>
</g>
<g fill="none" color="black" stroke="currentColor" stroke-width="1.00" stroke-linecap="butt" stroke-linejoin="miter">
	<path stroke='black'  d='M71.9,434.3 L80.9,434.3  '/>	<g transform="translate(63.6,438.2)" stroke="none" fill="black" font-family="Helvetica" font-size="12.00"  text-anchor="end">
		<text><tspan font-family="Helvetica" > 1.5</tspan></text>
	</g>
</g>
<g fill="none" color="black" stroke="currentColor" stroke-width="1.00" stroke-linecap="butt" stroke-linejoin="miter">
	<path stroke='black'  d='M71.9,358.2 L80.9,358.2  '/>	<g transform="translate(63.6,362.1)" stroke="none" fill="black" font-family="Helvetica" font-size="12.00"  text-anchor="end">
		<text><tspan font-family="Helvetica" > 2</tspan></text>
	</g>
</g>
<g fill="none" color="black" stroke="currentColor" stroke-width="1.00" stroke-linecap="butt" stroke-linejoin="miter">
	<path stroke='black'  d='M71.9,282.2 L80.9,282.2  '/>	<g transform="translate(63.6,286.1)" stroke="none" fill="black" font-family="Helvetica" font-size="12.00"  text-anchor="end">
		<text><tspan font-family="Helvetica" > 2.5</tspan></text>
	</g>
</g>
<g fill="none" color="black" stroke="currentColor" stroke-width="1.00" stroke-linecap="butt" stroke-linejoin="miter">
	<path stroke='black'  d='M71.9,206.2 L80.9,206.2  '/>	<g transform="translate(63.6,210.1)" stroke="none" fill="black" font-family="Helvetica" font-size="12.00"  text-anchor="end">
		<text><tspan font-family="Helvetica" > 3</tspan></text>
	</g>
</g>
<g fill="none" color="black" stroke="currentColor" stroke-width="1.00" stroke-linecap="butt" stroke-linejoin="miter">
	<path stroke='black'  d='M71.9,130.1 L80.9,130.1  '/>	<g transform="translate(63.6,134.0)" stroke="none" fill="black" font-family="Helvetica" font-size="12.00"  text-anchor="end">
		<text><tspan font-family="Helvetica" > 3.5</tspan></text>
	</g>
</g>
<g fill="none" color="black" stroke="currentColor" stroke-width="1.00" stroke-linecap="butt" stroke-linejoin="miter">
	<path stroke='black'  d='M71.9,54.1 L80.9,54.1  '/>	<g transform="translate(63.6,58.0)" stroke="none" fill="black" font-family="Helvetica" font-size="12.00"  text-anchor="end">
		<text><tspan font-family="Helvetica" > 4</tspan></text>
	</g>
</g>
<g fill="none" color="black" stroke="currentColor" stroke-width="1.00" stroke-linecap="butt" stroke-linejoin="miter">
	<path stroke='black'  d='M129.6,662.4 L129.6,653.4  '/>	<g transform="translate(129.6,684.3)" stroke="none" fill="black" font-family="Helvetica" font-size="12.00"  text-anchor="middle">
		<text><tspan font-family="Helvetica" > 42.7</tspan></text>
	</g>
</g>
<g fill="none" color="black" stroke="currentColor" stroke-width="1.00" stroke-linecap="butt" stroke-linejoin="miter">
	<path stroke='black'  d='M307.3,662.4 L307.3,653.4  '/>	<g transform="translate(307.3,684.3)" stroke="none" fill="black" font-family="Helvetica" font-size="12.00"  text-anchor="middle">
		<text><tspan font-family="Helvetica" > 42.8</tspan></text>
	</g>
</g>
<g fill="none" color="black" stroke="currentColor" stroke-width="1.00" stroke-linecap="butt" stroke-linejoin="miter">
	<path stroke='black'  d='M485.0,662.4 L485.0,653.4  '/>	<g transform="translate(485.0,684.3)" stroke="none" fill="black" font-family="Helvetica" font-size="12.00"  text-anchor="middle">
		<text><tspan font-family="Helvetica" > 42.9</tspan></text>
	</g>
</g>
<g fill="none" color="black" stroke="currentColor" stroke-width="1.00" stroke-linecap="butt" stroke-linejoin="miter">
	<path stroke='black'  d='M662.8,662.4 L662.8,653.4  '/>	<g transform="translate(662.8,684.3)" stroke="none" fill="black" font-family="Helvetica" font-size="12.00"  text-anchor="middle">
		<text><tspan font-family="Helvetica" > 43</tspan></text>
	</g>
</g>
<g fill="none" color="black" stroke="currentColor" stroke-width="1.00" stroke-linecap="butt" stroke-linejoin="miter">
	<path stroke='black'  d='M840.5,662.4 L840.5,653.4  '/>	<g transform="translate(840.5,684.3)" stroke="none" fill="black" font-family="Helvetica" font-size="12.00"  text-anchor="middle">
		<text><tspan font-family="Helvetica" > 43.1</tspan></text>
	</g>
</g>
<g fill="none" color="black" stroke="currentColor" stroke-width="1.00" stroke-linecap="butt" stroke-linejoin="miter">
</g>
<g fill="none" color="black" stroke="currentColor" stroke-width="1.00" stroke-linecap="butt" stroke-linejoin="miter">
	<path stroke='black'  d='M71.9,54.1 L71.9,662.4 L1013.6,662.4 L1013.6,54.1 L71.9,54.1 Z  '/></g>
<g fill="none" color="black" stroke="currentColor" stroke-width="1.00" stroke-linecap="butt" stroke-linejoin="miter">
	<g transform="translate(16.3,358.3) rotate(270)" stroke="none" fill="black" font-family="Helvetica" font-size="12.00"  text-anchor="middle">
		<text><tspan font-family="Helvetica" >Density (a.u.)</tspan></text>
	</g>
</g>
<g fill="none" color="black" stroke="currentColor" stroke-width="1.00" stroke-linecap="butt" stroke-linejoin="miter">
	<g transform="translate(542.7,711.3)" stroke="none" fill="black" font-family="Helvetica" font-size="12.00"  text-anchor="middle">
		<text><tspan font-family="Helvetica" >Average time (us)</tspan></text>
	</g>
</g>
<g fill="none" color="black" stroke="currentColor" stroke-width="1.00" stroke-linecap="butt" stroke-linejoin="miter">
	<g transform="translate(542.7,31.0)" stroke="none" fill="black" font-family="Helvetica" font-size="12.00"  text-anchor="middle">
		<text><tspan font-family="Helvetica" >snapshot_restore_with_dense/Dense: Entire region + /proc/pid/mem/1: slope</tspan></text>
	</g>
</g>
	<g id="gnuplot_plot_1" ><title>Bootstrap distribution</title>
<g fill="none" color="white" stroke="black" stroke-width="2.00" stroke-linecap="butt" stroke-linejoin="miter">
</g>
<g fill="none" color="black" stroke="currentColor" stroke-width="2.00" stroke-linecap="butt" stroke-linejoin="miter">
	<g transform="translate(1089.0,67.0)" stroke="none" fill="black" font-family="Helvetica" font-size="12.00"  text-anchor="start">
		<text><tspan font-family="Helvetica" >Bootstrap distribution</tspan></text>
	</g>
</g>
<g fill="none" color="black" stroke="currentColor" stroke-width="2.00" stroke-linecap="butt" stroke-linejoin="miter">
	<path stroke='rgb( 31, 120, 180)'  d='M1038.5,63.1 L1080.7,63.1 M71.9,639.6 L73.8,637.8 L75.7,636.0 L77.6,634.1 L79.4,632.2 L81.3,630.2
		L83.2,628.2 L85.1,626.1 L87.0,623.9 L88.9,621.7 L90.8,619.5 L92.7,617.2 L94.5,614.9 L96.4,612.6
		L98.3,610.2 L100.2,607.8 L102.1,605.3 L104.0,602.9 L105.9,600.4 L107.8,597.9 L109.6,595.3 L111.5,592.7
		L113.4,590.1 L115.3,587.5 L117.2,584.8 L119.1,582.1 L121.0,579.3 L122.9,576.5 L124.7,573.7 L126.6,570.9
		L128.5,568.1 L130.4,565.2 L132.3,562.3 L134.2,559.4 L136.1,556.6 L138.0,553.7 L139.8,550.8 L141.7,548.0
		L143.6,545.2 L145.5,542.4 L147.4,539.6 L149.3,536.9 L151.2,534.2 L153.0,531.5 L154.9,528.9 L156.8,526.3
		L158.7,523.8 L160.6,521.3 L162.5,518.8 L164.4,516.3 L166.3,513.9 L168.1,511.4 L170.0,509.0 L171.9,506.6
		L173.8,504.2 L175.7,501.8 L177.6,499.4 L179.5,496.9 L181.4,494.5 L183.2,492.0 L185.1,489.5 L187.0,486.9
		L188.9,484.3 L190.8,481.7 L192.7,479.0 L194.6,476.3 L196.5,473.5 L198.3,470.6 L200.2,467.7 L202.1,464.6
		L204.0,461.5 L205.9,458.3 L207.8,455.0 L209.7,451.6 L211.6,448.1 L213.4,444.5 L215.3,440.8 L217.2,437.0
		L219.1,433.1 L221.0,429.1 L222.9,424.9 L224.8,420.7 L226.6,416.5 L228.5,412.1 L230.4,407.7 L232.3,403.2
		L234.2,398.7 L236.1,394.1 L238.0,389.5 L239.9,384.9 L241.7,380.2 L243.6,375.6 L245.5,370.9 L247.4,366.3
		L249.3,361.6 L251.2,357.0 L253.1,352.4 L255.0,347.8 L256.8,343.2 L258.7,338.7 L260.6,334.2 L262.5,329.7
		L264.4,325.2 L266.3,320.8 L268.2,316.4 L270.1,312.0 L271.9,307.7 L273.8,303.4 L275.7,299.2 L277.6,295.0
		L279.5,290.9 L281.4,286.8 L283.3,282.8 L285.2,278.9 L287.0,275.1 L288.9,271.3 L290.8,267.7 L292.7,264.2
		L294.6,260.7 L296.5,257.4 L298.4,254.2 L300.2,251.1 L302.1,248.1 L304.0,245.2 L305.9,242.5 L307.8,239.8
		L309.7,237.3 L311.6,234.8 L313.5,232.4 L315.3,230.1 L317.2,227.8 L319.1,225.5 L321.0,223.3 L322.9,221.2
		L324.8,219.0 L326.7,216.8 L328.6,214.6 L330.4,212.4 L332.3,210.2 L334.2,207.9 L336.1,205.6 L338.0,203.3
		L339.9,200.9 L341.8,198.5 L343.7,196.1 L345.5,193.7 L347.4,191.2 L349.3,188.7 L351.2,186.3 L353.1,183.8
		L355.0,181.4 L356.9,179.0 L358.8,176.6 L360.6,174.2 L362.5,171.9 L364.4,169.6 L366.3,167.4 L368.2,165.2
		L370.1,163.1 L372.0,161.1 L373.8,159.1 L375.7,157.1 L377.6,155.2 L379.5,153.4 L381.4,151.6 L383.3,149.9
		L385.2,148.2 L387.1,146.6 L388.9,145.0 L390.8,143.5 L392.7,142.0 L394.6,140.6 L396.5,139.1 L398.4,137.7
		L400.3,136.4 L402.2,135.0 L404.0,133.7 L405.9,132.4 L407.8,131.1 L409.7,129.8 L411.6,128.6 L413.5,127.3
		L415.4,126.1 L417.3,124.9 L419.1,123.7 L421.0,122.6 L422.9,121.4 L424.8,120.3 L426.7,119.3 L428.6,118.3
		L430.5,117.4 L432.4,116.5 L434.2,115.7 L436.1,114.9 L438.0,114.3 L439.9,113.8 L441.8,113.3 L443.7,113.0
		L445.6,112.7 L447.4,112.6 L449.3,112.6 L451.2,112.7 L453.1,112.9 L455.0,113.3 L456.9,113.7 L458.8,114.2
		L460.7,114.9 L462.5,115.6 L464.4,116.3 L466.3,117.2 L468.2,118.1 L470.1,119.1 L472.0,120.0 L473.9,121.1
		L475.8,122.1 L477.6,123.2 L479.5,124.3 L481.4,125.3 L483.3,126.4 L485.2,127.5 L487.1,128.6 L489.0,129.6
		L490.9,130.7 L492.7,131.8 L494.6,132.9 L496.5,134.0 L498.4,135.1 L500.3,136.2 L502.2,137.4 L504.1,138.6
		L506.0,139.8 L507.8,141.1 L509.7,142.4 L511.6,143.8 L513.5,145.3 L515.4,146.8 L517.3,148.4 L519.2,150.1
		L521.0,151.9 L522.9,153.7 L524.8,155.7 L526.7,157.7 L528.6,159.8 L530.5,161.9 L532.4,164.1 L534.3,166.4
		L536.1,168.7 L538.0,171.1 L539.9,173.5 L541.8,175.9 L543.7,178.3 L545.6,180.7 L547.5,183.1 L549.4,185.5
		L551.2,187.9 L553.1,190.2 L555.0,192.5 L556.9,194.8 L558.8,197.0 L560.7,199.3 L562.6,201.4 L564.5,203.6
		L566.3,205.7 L568.2,207.8 L570.1,209.9 L572.0,212.0 L573.9,214.1 L575.8,216.2 L577.7,218.3 L579.5,220.5
		L581.4,222.6 L583.3,224.8 L585.2,226.9 L587.1,229.1 L589.0,231.4 L590.9,233.6 L592.8,235.9 L594.6,238.2
		L596.5,240.5 L598.4,242.9 L600.3,245.2 L602.2,247.6 L604.1,250.1 L606.0,252.5 L607.9,255.0 L609.7,257.5
		L611.6,260.0 L613.5,262.6 L615.4,265.1 L617.3,267.8 L619.2,270.4 L621.1,273.0 L623.0,275.7 L624.8,278.4
		L626.7,281.1 L628.6,283.9 L630.5,286.6 L632.4,289.3 L634.3,292.1 L636.2,294.8 L638.1,297.6 L639.9,300.3
		L641.8,303.1 L643.7,305.8 L645.6,308.5 L647.5,311.2 L649.4,313.9 L651.3,316.6 L653.1,319.2 L655.0,321.9
		L656.9,324.5 L658.8,327.2 L660.7,329.8 L662.6,332.4 L664.5,334.9 L666.4,337.5 L668.2,340.1 L670.1,342.6
		L672.0,345.1 L673.9,347.6 L675.8,350.1 L677.7,352.6 L679.6,355.1 L681.5,357.6 L683.3,360.0 L685.2,362.5
		L687.1,364.9 L689.0,367.3 L690.9,369.8 L692.8,372.2 L694.7,374.6 L696.6,377.0 L698.4,379.4 L700.3,381.8
		L702.2,384.2 L704.1,386.7 L706.0,389.1 L707.9,391.5 L709.8,393.9 L711.7,396.4 L713.5,398.8 L715.4,401.3
		L717.3,403.8 L719.2,406.3 L721.1,408.8 L723.0,411.3 L724.9,413.8 L726.7,416.4 L728.6,418.9 L730.5,421.5
		L732.4,424.0 L734.3,426.6 L736.2,429.1 L738.1,431.7 L740.0,434.2 L741.8,436.7 L743.7,439.2 L745.6,441.6
		L747.5,444.0 L749.4,446.4 L751.3,448.7 L753.2,451.0 L755.1,453.2 L756.9,455.4 L758.8,457.5 L760.7,459.6
		L762.6,461.6 L764.5,463.7 L766.4,465.6 L768.3,467.6 L770.2,469.5 L772.0,471.4 L773.9,473.3 L775.8,475.2
		L777.7,477.1 L779.6,479.0 L781.5,480.8 L783.4,482.7 L785.3,484.6 L787.1,486.5 L789.0,488.4 L790.9,490.3
		L792.8,492.2 L794.7,494.1 L796.6,496.0 L798.5,497.9 L800.3,499.8 L802.2,501.7 L804.1,503.6 L806.0,505.5
		L807.9,507.4 L809.8,509.3 L811.7,511.2 L813.6,513.1 L815.4,515.0 L817.3,516.9 L819.2,518.8 L821.1,520.7
		L823.0,522.6 L824.9,524.5 L826.8,526.4 L828.7,528.2 L830.5,530.1 L832.4,532.0 L834.3,533.8 L836.2,535.7
		L838.1,537.5 L840.0,539.3 L841.9,541.1 L843.8,542.9 L845.6,544.6 L847.5,546.4 L849.4,548.1 L851.3,549.8
		L853.2,551.5 L855.1,553.1 L857.0,554.7 L858.9,556.3 L860.7,557.9 L862.6,559.4 L864.5,560.9 L866.4,562.4
		L868.3,563.9 L870.2,565.3 L872.1,566.7 L873.9,568.1 L875.8,569.4 L877.7,570.7 L879.6,572.0 L881.5,573.3
		L883.4,574.6 L885.3,575.8 L887.2,577.0 L889.0,578.2 L890.9,579.4 L892.8,580.6 L894.7,581.7 L896.6,582.9
		L898.5,584.0 L900.4,585.1 L902.3,586.2 L904.1,587.3 L906.0,588.4 L907.9,589.5 L909.8,590.6 L911.7,591.7
		L913.6,592.7 L915.5,593.8 L917.4,594.8 L919.2,595.8 L921.1,596.8 L923.0,597.8 L924.9,598.8 L926.8,599.8
		L928.7,600.7 L930.6,601.6 L932.5,602.5 L934.3,603.4 L936.2,604.3 L938.1,605.1 L940.0,605.9 L941.9,606.7
		L943.8,607.5 L945.7,608.3 L947.5,609.0 L949.4,609.8 L951.3,610.5 L953.2,611.2 L955.1,612.0 L957.0,612.7
		L958.9,613.4 L960.8,614.1 L962.6,614.8 L964.5,615.5 L966.4,616.2 L968.3,616.9 L970.2,617.6 L972.1,618.3
		L974.0,619.0 L975.9,619.6 L977.7,620.3 L979.6,621.0 L981.5,621.7 L983.4,622.4 L985.3,623.0 L987.2,623.7
		L989.1,624.3 L991.0,624.9 L992.8,625.5 L994.7,626.1 L996.6,626.7 L998.5,627.3 L1000.4,627.8 L1002.3,628.4
		L1004.2,628.9 L1006.1,629.4 L1007.9,629.9 L1009.8,630.4 L1011.7,630.9 L1013.6,631.4  '/></g>
	</g>
	<g id="gnuplot_plot_2" ><title>Confidence interval</title>
<g fill="none" color="white" stroke="rgb( 31, 120, 180)" stroke-width="1.00" stroke-linecap="butt" stroke-linejoin="miter">
</g>
<g fill="none" color="black" stroke="currentColor" stroke-width="1.00" stroke-linecap="butt" stroke-linejoin="miter">
	<g transform="translate(1089.0,85.0)" stroke="none" fill="black" font-family="Helvetica" font-size="12.00"  text-anchor="start">
		<text><tspan font-family="Helvetica" >Confidence interval</tspan></text>
	</g>
</g>
<g fill="none" color="black" stroke="currentColor" stroke-width="1.00" stroke-linecap="butt" stroke-linejoin="miter">
	<g stroke='none' shape-rendering='crispEdges'>
		<polygon fill = 'rgb( 31, 120, 180)' fill-opacity = '0.250000' points = '1038.5,85.6 1080.7,85.6 1080.7,76.6 1038.5,76.6 '/>
		<polygon fill = 'rgb( 31, 120, 180)' fill-opacity = '0.250000' points = '158.7,523.8 160.6,521.3 162.5,518.8 164.4,516.3 166.3,513.9 168.1,511.4 170.0,509.0 171.9,506.6 173.8,504.2 175.7,501.8 177.6,499.4 179.5,496.9 181.4,494.5 183.2,492.0 185.1,489.5 187.0,486.9
188.9,484.3 190.8,481.7 192.7,479.0 194.6,476.3 196.5,473.5 198.3,470.6 200.2,467.7 202.1,464.6 204.0,461.5 205.9,458.3 207.8,455.0 209.7,451.6 211.6,448.1 213.4,444.5 215.3,440.8 217.2,437.0
219.1,433.1 221.0,429.1 222.9,424.9 224.8,420.7 226.6,416.5 228.5,412.1 230.4,407.7 232.3,403.2 234.2,398.7 236.1,394.1 238.0,389.5 239.9,384.9 241.7,380.2 243.6,375.6 245.5,370.9 247.4,366.3
249.3,361.6 251.2,357.0 253.1,352.4 255.0,347.8 256.8,343.2 258.7,338.7 260.6,334.2 262.5,329.7 264.4,325.2 266.3,320.8 268.2,316.4 270.1,312.0 271.9,307.7 273.8,303.4 275.7,299.2 277.6,295.0
279.5,290.9 281.4,286.8 283.3,282.8 285.2,278.9 287.0,275.1 288.9,271.3 290.8,267.7 292.7,264.2 294.6,260.7 296.5,257.4 298.4,254.2 300.2,251.1 302.1,248.1 304.0,245.2 305.9,242.5 307.8,239.8
309.7,237.3 311.6,234.8 313.5,232.4 315.3,230.1 317.2,227.8 319.1,225.5 321.0,223.3 322.9,221.2 324.8,219.0 326.7,216.8 328.6,214.6 330.4,212.4 332.3,210.2 334.2,207.9 336.1,205.6 338.0,203.3
339.9,200.9 341.8,198.5 343.7,196.1 345.5,193.7 347.4,191.2 349.3,188.7 351.2,186.3 353.1,183.8 355.0,181.4 356.9,179.0 358.8,176.6 360.6,174.2 362.5,171.9 364.4,169.6 366.3,167.4 368.2,165.2
370.1,163.1 372.0,161.1 373.8,159.1 375.7,157.1 377.6,155.2 379.5,153.4 381.4,151.6 383.3,149.9 385.2,148.2 387.1,146.6 388.9,145.0 390.8,143.5 392.7,142.0 394.6,140.6 396.5,139.1 398.4,137.7
400.3,136.4 402.2,135.0 404.0,133.7 405.9,132.4 407.8,131.1 409.7,129.8 411.6,128.6 413.5,127.3 415.4,126.1 417.3,124.9 419.1,123.7 421.0,122.6 422.9,121.4 424.8,120.3 426.7,119.3 428.6,118.3
430.5,117.4 432.4,116.5 434.2,115.7 436.1,114.9 438.0,114.3 439.9,113.8 441.8,113.3 443.7,113.0 445.6,112.7 447.4,112.6 449.3,112.6 451.2,112.7 453.1,112.9 455.0,113.3 456.9,113.7 458.8,114.2
460.7,114.9 462.5,115.6 464.4,116.3 466.3,117.2 468.2,118.1 470.1,119.1 472.0,120.0 473.9,121.1 475.8,122.1 477.6,123.2 479.5,124.3 481.4,125.3 483.3,126.4 485.2,127.5 487.1,128.6 489.0,129.6
490.9,130.7 492.7,131.8 494.6,132.9 496.5,134.0 498.4,135.1 500.3,136.2 502.2,137.4 504.1,138.6 506.0,139.8 507.8,141.1 509.7,142.4 511.6,143.8 513.5,145.3 515.4,146.8 517.3,148.4 519.2,150.1
521.0,151.9 522.9,153.7 524.8,155.7 526.7,157.7 528.6,159.8 530.5,161.9 532.4,164.1 534.3,166.4 536.1,168.7 538.0,171.1 539.9,173.5 541.8,175.9 543.7,178.3 545.6,180.7 547.5,183.1 549.4,185.5
551.2,187.9 553.1,190.2 555.0,192.5 556.9,194.8 558.8,197.0 560.7,199.3 562.6,201.4 564.5,203.6 566.3,205.7 568.2,207.8 570.1,209.9 572.0,212.0 573.9,214.1 575.8,216.2 577.7,218.3 579.5,220.5
581.4,222.6 583.3,224.8 585.2,226.9 587.1,229.1 589.0,231.4 590.9,233.6 592.8,235.9 594.6,238.2 596.5,240.5 598.4,242.9 600.3,245.2 602.2,247.6 604.1,250.1 606.0,252.5 607.9,255.0 609.7,257.5
611.6,260.0 613.5,262.6 615.4,265.1 617.3,267.8 619.2,270.4 621.1,273.0 623.0,275.7 624.8,278.4 626.7,281.1 628.6,283.9 630.5,286.6 632.4,289.3 634.3,292.1 636.2,294.8 638.1,297.6 639.9,300.3
641.8,303.1 643.7,305.8 645.6,308.5 647.5,311.2 649.4,313.9 651.3,316.6 653.1,319.2 655.0,321.9 656.9,324.5 658.8,327.2 660.7,329.8 662.6,332.4 664.5,334.9 666.4,337.5 668.2,340.1 670.1,342.6
672.0,345.1 673.9,347.6 675.8,350.1 677.7,352.6 679.6,355.1 681.5,357.6 683.3,360.0 685.2,362.5 687.1,364.9 689.0,367.3 690.9,369.8 692.8,372.2 694.7,374.6 696.6,377.0 698.4,379.4 700.3,381.8
702.2,384.2 704.1,386.7 706.0,389.1 707.9,391.5 709.8,393.9 711.7,396.4 713.5,398.8 715.4,401.3 717.3,403.8 719.2,406.3 721.1,408.8 723.0,411.3 724.9,413.8 726.7,416.4 728.6,418.9 730.5,421.5
732.4,424.0 734.3,426.6 736.2,429.1 738.1,431.7 740.0,434.2 741.8,436.7 743.7,439.2 745.6,441.6 747.5,444.0 749.4,446.4 751.3,448.7 753.2,451.0 755.1,453.2 756.9,455.4 758.8,457.5 760.7,459.6
762.6,461.6 764.5,463.7 766.4,465.6 768.3,467.6 770.2,469.5 772.0,471.4 773.9,473.3 775.8,475.2 777.7,477.1 779.6,479.0 781.5,480.8 783.4,482.7 785.3,484.6 787.1,486.5 789.0,488.4 790.9,490.3
792.8,492.2 794.7,494.1 796.6,496.0 798.5,497.9 800.3,499.8 802.2,501.7 804.1,503.6 806.0,505.5 807.9,507.4 809.8,509.3 811.7,511.2 813.6,513.1 815.4,515.0 817.3,516.9 819.2,518.8 821.1,520.7
823.0,522.6 824.9,524.5 826.8,526.4 828.7,528.2 830.5,530.1 832.4,532.0 834.3,533.8 836.2,535.7 838.1,537.5 840.0,539.3 841.9,541.1 843.8,542.9 845.6,544.6 847.5,546.4 849.4,548.1 851.3,549.8
853.2,551.5 855.1,553.1 857.0,554.7 858.9,556.3 860.7,557.9 862.6,559.4 864.5,560.9 866.4,562.4 868.3,563.9 870.2,565.3 872.1,566.7 873.9,568.1 875.8,569.4 877.7,570.7 879.6,572.0 881.5,573.3
883.4,574.6 885.3,575.8 887.2,577.0 889.0,578.2 890.9,579.4 892.8,580.6 894.7,581.7 896.6,582.9 898.5,584.0 900.4,585.1 902.3,586.2 904.1,587.3 906.0,588.4 907.9,589.5 909.8,590.6 911.7,591.7
913.6,592.7 915.5,593.8 917.4,594.8 919.2,595.8 921.1,596.8 923.0,597.8 924.9,598.8 924.9,662.4 923.0,662.4 921.1,662.4 919.2,662.4 917.4,662.4 915.5,662.4 913.6,662.4 911.7,662.4 909.8,662.4
907.9,662.4 906.0,662.4 904.1,662.4 902.3,662.4 900.4,662.4 898.5,662.4 896.6,662.4 894.7,662.4 892.8,662.4 890.9,662.4 889.0,662.4 887.2,662.4 885.3,662.4 883.4,662.4 881.5,662.4 879.6,662.4
877.7,662.4 875.8,662.4 873.9,662.4 872.1,662.4 870.2,662.4 868.3,662.4 866.4,662.4 864.5,662.4 862.6,662.4 860.7,662.4 858.9,662.4 857.0,662.4 855.1,662.4 853.2,662.4 851.3,662.4 849.4,662.4
847.5,662.4 845.6,662.4 843.8,662.4 841.9,662.4 840.0,662.4 838.1,662.4 836.2,662.4 834.3,662.4 832.4,662.4 830.5,662.4 828.7,662.4 826.8,662.4 824.9,662.4 823.0,662.4 821.1,662.4 819.2,662.4
817.3,662.4 815.4,662.4 813.6,662.4 811.7,662.4 809.8,662.4 807.9,662.4 806.0,662.4 804.1,662.4 802.2,662.4 800.3,662.4 798.5,662.4 796.6,662.4 794.7,662.4 792.8,662.4 790.9,662.4 789.0,662.4
787.1,662.4 785.3,662.4 783.4,662.4 781.5,662.4 779.6,662.4 777.7,662.4 775.8,662.4 773.9,662.4 772.0,662.4 770.2,662.4 768.3,662.4 766.4,662.4 764.5,662.4 762.6,662.4 760.7,662.4 758.8,662.4
756.9,662.4 755.1,662.4 753.2,662.4 751.3,662.4 749.4,662.4 747.5,662.4 745.6,662.4 743.7,662.4 741.8,662.4 740.0,662.4 738.1,662.4 736.2,662.4 734.3,662.4 732.4,662.4 730.5,662.4 728.6,662.4
726.7,662.4 724.9,662.4 723.0,662.4 721.1,662.4 719.2,662.4 717.3,662.4 715.4,662.4 713.5,662.4 711.7,662.4 709.8,662.4 707.9,662.4 706.0,662.4 704.1,662.4 702.2,662.4 700.3,662.4 698.4,662.4
696.6,662.4 694.7,662.4 692.8,662.4 690.9,662.4 689.0,662.4 687.1,662.4 685.2,662.4 683.3,662.4 681.5,662.4 679.6,662.4 677.7,662.4 675.8,662.4 673.9,662.4 672.0,662.4 670.1,662.4 668.2,662.4
666.4,662.4 664.5,662.4 662.6,662.4 660.7,662.4 658.8,662.4 656.9,662.4 655.0,662.4 653.1,662.4 651.3,662.4 649.4,662.4 647.5,662.4 645.6,662.4 643.7,662.4 641.8,662.4 639.9,662.4 638.1,662.4
636.2,662.4 634.3,662.4 632.4,662.4 630.5,662.4 628.6,662.4 626.7,662.4 624.8,662.4 623.0,662.4 621.1,662.4 619.2,662.4 617.3,662.4 615.4,662.4 613.5,662.4 611.6,662.4 609.7,662.4 607.9,662.4
606.0,662.4 604.1,662.4 602.2,662.4 600.3,662.4 598.4,662.4 596.5,662.4 594.6,662.4 592.8,662.4 590.9,662.4 589.0,662.4 587.1,662.4 585.2,662.4 583.3,662.4 581.4,662.4 579.5,662.4 577.7,662.4
575.8,662.4 573.9,662.4 572.0,662.4 570.1,662.4 568.2,662.4 566.3,662.4 564.5,662.4 562.6,662.4 560.7,662.4 558.8,662.4 556.9,662.4 555.0,662.4 553.1,662.4 551.2,662.4 549.4,662.4 547.5,662.4
545.6,662.4 543.7,662.4 541.8,662.4 539.9,662.4 538.0,662.4 536.1,662.4 534.3,662.4 532.4,662.4 530.5,662.4 528.6,662.4 526.7,662.4 524.8,662.4 522.9,662.4 521.0,662.4 519.2,662.4 517.3,662.4
515.4,662.4 513.5,662.4 511.6,662.4 509.7,662.4 507.8,662.4 506.0,662.4 504.1,662.4 502.2,662.4 500.3,662.4 498.4,662.4 496.5,662.4 494.6,662.4 492.7,662.4 490.9,662.4 489.0,662.4 487.1,662.4
485.2,662.4 483.3,662.4 481.4,662.4 479.5,662.4 477.6,662.4 475.8,662.4 473.9,662.4 472.0,662.4 470.1,662.4 468.2,662.4 466.3,662.4 464.4,662.4 462.5,662.4 460.7,662.4 458.8,662.4 456.9,662.4
455.0,662.4 453.1,662.4 451.2,662.4 449.3,662.4 447.4,662.4 445.6,662.4 443.7,662.4 441.8,662.4 439.9,662.4 438.0,662.4 436.1,662.4 434.2,662.4 432.4,662.4 430.5,662.4 428.6,662.4 426.7,662.4
424.8,662.4 422.9,662.4 421.0,662.4 419.1,662.4 417.3,662.4 415.4,662.4 413.5,662.4 411.6,662.4 409.7,662.4 407.8,662.4 405.9,662.4 404.0,662.4 402.2,662.4 400.3,662.4 398.4,662.4 396.5,662.4
394.6,662.4 392.7,662.4 390.8,662.4 388.9,662.4 387.1,662.4 385.2,662.4 383.3,662.4 381.4,662.4 379.5,662.4 377.6,662.4 375.7,662.4 373.8,662.4 372.0,662.4 370.1,662.4 368.2,662.4 366.3,662.4
364.4,662.4 362.5,662.4 360.6,662.4 358.8,662.4 356.9,662.4 355.0,662.4 353.1,662.4 351.2,662.4 349.3,662.4 347.4,662.4 345.5,662.4 343.7,662.4 341.8,662.4 339.9,662.4 338.0,662.4 336.1,662.4
334.2,662.4 332.3,662.4 330.4,662.4 328.6,662.4 326.7,662.4 324.8,662.4 322.9,662.4 321.0,662.4 319.1,662.4 317.2,662.4 315.3,662.4 313.5,662.4 311.6,662.4 309.7,662.4 307.8,662.4 305.9,662.4
304.0,662.4 302.1,662.4 300.2,662.4 298.4,662.4 296.5,662.4 294.6,662.4 292.7,662.4 290.8,662.4 288.9,662.4 287.0,662.4 285.2,662.4 283.3,662.4 281.4,662.4 279.5,662.4 277.6,662.4 275.7,662.4
273.8,662.4 271.9,662.4 270.1,662.4 268.2,662.4 266.3,662.4 264.4,662.4 262.5,662.4 260.6,662.4 258.7,662.4 256.8,662.4 255.0,662.4 253.1,662.4 251.2,662.4 249.3,662.4 247.4,662.4 245.5,662.4
243.6,662.4 241.7,662.4 239.9,662.4 238.0,662.4 236.1,662.4 234.2,662.4 232.3,662.4 230.4,662.4 228.5,662.4 226.6,662.4 224.8,662.4 222.9,662.4 221.0,662.4 219.1,662.4 217.2,662.4 215.3,662.4
213.4,662.4 211.6,662.4 209.7,662.4 207.8,662.4 205.9,662.4 204.0,662.4 202.1,662.4 200.2,662.4 198.3,662.4 196.5,662.4 194.6,662.4 192.7,662.4 190.8,662.4 188.9,662.4 187.0,662.4 185.1,662.4
183.2,662.4 181.4,662.4 179.5,662.4 177.6,662.4 175.7,662.4 173.8,662.4 171.9,662.4 170.0,662.4 168.1,662.4 166.3,662.4 164.4,662.4 162.5,662.4 160.6,662.4 158.7,662.4 '/>
	</g>
</g>
	</g>
	<g id="gnuplot_plot_3" ><title>Point estimate</title>
<g fill="none" color="white" stroke="rgb( 31, 120, 180)" stroke-width="2.00" stroke-linecap="butt" stroke-linejoin="miter">
</g>
<g fill="none" color="black" stroke="currentColor" stroke-width="2.00" stroke-linecap="butt" stroke-linejoin="miter">
	<g transform="translate(1089.0,103.0)" stroke="none" fill="black" font-family="Helvetica" font-size="12.00"  text-anchor="start">
		<text><tspan font-family="Helvetica" >Point estimate</tspan></text>
	</g>
</g>
<g fill="none" color="black" stroke="currentColor" stroke-width="2.00" stroke-linecap="butt" stroke-linejoin="miter">
	<path stroke='rgb( 31, 120, 180)'  d='M1038.5,99.1 L1080.7,99.1 M498.9,662.4 L498.9,135.4  '/></g>
	</g>
<g fill="none" color="black" stroke="currentColor" stroke-width="2.00" stroke-linecap="butt" stroke-linejoin="miter">
</g>
<g fill="none" color="black" stroke="black" stroke-width="1.00" stroke-linecap="butt" stroke-linejoin="miter">
</g>
<g fill="none" color="black" stroke="currentColor" stroke-width="1.00" stroke-linecap="butt" stroke-linejoin="miter">
	<path stroke='black'  d='M71.9,54.1 L71.9,662.4 L1013.6,662.4 L1013.6,54.1 L71.9,54.1 Z  '/></g>
<g fill="none" color="black" stroke="currentColor" stroke-width="1.00" stroke-linecap="butt" stroke-linejoin="miter">
</g>
</g>
</svg>

