group,function,value,throughput_num,throughput_type,sample_measured_value,unit,iteration_count
snapshot_restore_with_dense,Dense: Entire region + process_vm_writev w/ page size,2,,,1130882.0,ns,32
snapshot_restore_with_dense,Dense: Entire region + process_vm_writev w/ page size,2,,,2047000.0,ns,64
snapshot_restore_with_dense,Dense: Entire region + process_vm_writev w/ page size,2,,,3034155.0,ns,96
snapshot_restore_with_dense,Dense: Entire region + process_vm_writev w/ page size,2,,,4052483.0,ns,128
snapshot_restore_with_dense,Dense: Entire region + process_vm_writev w/ page size,2,,,5215519.0,ns,160
snapshot_restore_with_dense,Dense: Entire region + process_vm_writev w/ page size,2,,,6076827.0,ns,192
snapshot_restore_with_dense,Dense: Entire region + process_vm_writev w/ page size,2,,,8379979.0,ns,224
snapshot_restore_with_dense,Dense: Entire region + process_vm_writev w/ page size,2,,,12903232.0,ns,256
snapshot_restore_with_dense,Dense: Entire region + process_vm_writev w/ page size,2,,,9298153.0,ns,288
snapshot_restore_with_dense,Dense: Entire region + process_vm_writev w/ page size,2,,,10253939.0,ns,320
snapshot_restore_with_dense,Dense: Entire region + process_vm_writev w/ page size,2,,,11223556.0,ns,352
snapshot_restore_with_dense,Dense: Entire region + process_vm_writev w/ page size,2,,,12189231.0,ns,384
snapshot_restore_with_dense,Dense: Entire region + process_vm_writev w/ page size,2,,,13184717.0,ns,416
snapshot_restore_with_dense,Dense: Entire region + process_vm_writev w/ page size,2,,,14197030.0,ns,448
snapshot_restore_with_dense,Dense: Entire region + process_vm_writev w/ page size,2,,,15200169.0,ns,480
snapshot_restore_with_dense,Dense: Entire region + process_vm_writev w/ page size,2,,,16482118.0,ns,512
snapshot_restore_with_dense,Dense: Entire region + process_vm_writev w/ page size,2,,,17231801.0,ns,544
snapshot_restore_with_dense,Dense: Entire region + process_vm_writev w/ page size,2,,,18239983.0,ns,576
snapshot_restore_with_dense,Dense: Entire region + process_vm_writev w/ page size,2,,,20108340.0,ns,608
snapshot_restore_with_dense,Dense: Entire region + process_vm_writev w/ page size,2,,,20281744.0,ns,640
snapshot_restore_with_dense,Dense: Entire region + process_vm_writev w/ page size,2,,,21273639.0,ns,672
snapshot_restore_with_dense,Dense: Entire region + process_vm_writev w/ page size,2,,,22371191.0,ns,704
snapshot_restore_with_dense,Dense: Entire region + process_vm_writev w/ page size,2,,,23439227.0,ns,736
snapshot_restore_with_dense,Dense: Entire region + process_vm_writev w/ page size,2,,,24463213.0,ns,768
snapshot_restore_with_dense,Dense: Entire region + process_vm_writev w/ page size,2,,,25517769.0,ns,800
snapshot_restore_with_dense,Dense: Entire region + process_vm_writev w/ page size,2,,,26400221.0,ns,832
snapshot_restore_with_dense,Dense: Entire region + process_vm_writev w/ page size,2,,,27341841.0,ns,864
snapshot_restore_with_dense,Dense: Entire region + process_vm_writev w/ page size,2,,,28362830.0,ns,896
snapshot_restore_with_dense,Dense: Entire region + process_vm_writev w/ page size,2,,,29449439.0,ns,928
snapshot_restore_with_dense,Dense: Entire region + process_vm_writev w/ page size,2,,,30442641.0,ns,960
snapshot_restore_with_dense,Dense: Entire region + process_vm_writev w/ page size,2,,,31435762.0,ns,992
snapshot_restore_with_dense,Dense: Entire region + process_vm_writev w/ page size,2,,,32434906.0,ns,1024
snapshot_restore_with_dense,Dense: Entire region + process_vm_writev w/ page size,2,,,33539159.0,ns,1056
snapshot_restore_with_dense,Dense: Entire region + process_vm_writev w/ page size,2,,,34475946.0,ns,1088
snapshot_restore_with_dense,Dense: Entire region + process_vm_writev w/ page size,2,,,35456637.0,ns,1120
snapshot_restore_with_dense,Dense: Entire region + process_vm_writev w/ page size,2,,,36565551.0,ns,1152
snapshot_restore_with_dense,Dense: Entire region + process_vm_writev w/ page size,2,,,37564689.0,ns,1184
snapshot_restore_with_dense,Dense: Entire region + process_vm_writev w/ page size,2,,,38573523.0,ns,1216
snapshot_restore_with_dense,Dense: Entire region + process_vm_writev w/ page size,2,,,39602890.0,ns,1248
snapshot_restore_with_dense,Dense: Entire region + process_vm_writev w/ page size,2,,,40556587.0,ns,1280
snapshot_restore_with_dense,Dense: Entire region + process_vm_writev w/ page size,2,,,41709257.0,ns,1312
snapshot_restore_with_dense,Dense: Entire region + process_vm_writev w/ page size,2,,,42608392.0,ns,1344
snapshot_restore_with_dense,Dense: Entire region + process_vm_writev w/ page size,2,,,43661587.0,ns,1376
snapshot_restore_with_dense,Dense: Entire region + process_vm_writev w/ page size,2,,,44936034.0,ns,1408
snapshot_restore_with_dense,Dense: Entire region + process_vm_writev w/ page size,2,,,45652920.0,ns,1440
snapshot_restore_with_dense,Dense: Entire region + process_vm_writev w/ page size,2,,,46767203.0,ns,1472
snapshot_restore_with_dense,Dense: Entire region + process_vm_writev w/ page size,2,,,47703896.0,ns,1504
snapshot_restore_with_dense,Dense: Entire region + process_vm_writev w/ page size,2,,,48740449.0,ns,1536
snapshot_restore_with_dense,Dense: Entire region + process_vm_writev w/ page size,2,,,49656037.0,ns,1568
snapshot_restore_with_dense,Dense: Entire region + process_vm_writev w/ page size,2,,,50735841.0,ns,1600
snapshot_restore_with_dense,Dense: Entire region + process_vm_writev w/ page size,2,,,51883119.0,ns,1632
snapshot_restore_with_dense,Dense: Entire region + process_vm_writev w/ page size,2,,,53180280.0,ns,1664
snapshot_restore_with_dense,Dense: Entire region + process_vm_writev w/ page size,2,,,53742833.0,ns,1696
snapshot_restore_with_dense,Dense: Entire region + process_vm_writev w/ page size,2,,,54826142.0,ns,1728
snapshot_restore_with_dense,Dense: Entire region + process_vm_writev w/ page size,2,,,55816223.0,ns,1760
snapshot_restore_with_dense,Dense: Entire region + process_vm_writev w/ page size,2,,,56919826.0,ns,1792
snapshot_restore_with_dense,Dense: Entire region + process_vm_writev w/ page size,2,,,57940693.0,ns,1824
snapshot_restore_with_dense,Dense: Entire region + process_vm_writev w/ page size,2,,,58949666.0,ns,1856
snapshot_restore_with_dense,Dense: Entire region + process_vm_writev w/ page size,2,,,59942353.0,ns,1888
snapshot_restore_with_dense,Dense: Entire region + process_vm_writev w/ page size,2,,,60856762.0,ns,1920
snapshot_restore_with_dense,Dense: Entire region + process_vm_writev w/ page size,2,,,61997490.0,ns,1952
snapshot_restore_with_dense,Dense: Entire region + process_vm_writev w/ page size,2,,,62954972.0,ns,1984
snapshot_restore_with_dense,Dense: Entire region + process_vm_writev w/ page size,2,,,63998544.0,ns,2016
snapshot_restore_with_dense,Dense: Entire region + process_vm_writev w/ page size,2,,,65145250.0,ns,2048
snapshot_restore_with_dense,Dense: Entire region + process_vm_writev w/ page size,2,,,66009844.0,ns,2080
snapshot_restore_with_dense,Dense: Entire region + process_vm_writev w/ page size,2,,,67062238.0,ns,2112
snapshot_restore_with_dense,Dense: Entire region + process_vm_writev w/ page size,2,,,68038409.0,ns,2144
snapshot_restore_with_dense,Dense: Entire region + process_vm_writev w/ page size,2,,,69069207.0,ns,2176
snapshot_restore_with_dense,Dense: Entire region + process_vm_writev w/ page size,2,,,70060196.0,ns,2208
snapshot_restore_with_dense,Dense: Entire region + process_vm_writev w/ page size,2,,,71190590.0,ns,2240
snapshot_restore_with_dense,Dense: Entire region + process_vm_writev w/ page size,2,,,72027100.0,ns,2272
snapshot_restore_with_dense,Dense: Entire region + process_vm_writev w/ page size,2,,,73133309.0,ns,2304
snapshot_restore_with_dense,Dense: Entire region + process_vm_writev w/ page size,2,,,74125070.0,ns,2336
snapshot_restore_with_dense,Dense: Entire region + process_vm_writev w/ page size,2,,,75146139.0,ns,2368
snapshot_restore_with_dense,Dense: Entire region + process_vm_writev w/ page size,2,,,76140866.0,ns,2400
snapshot_restore_with_dense,Dense: Entire region + process_vm_writev w/ page size,2,,,77192440.0,ns,2432
snapshot_restore_with_dense,Dense: Entire region + process_vm_writev w/ page size,2,,,78240790.0,ns,2464
snapshot_restore_with_dense,Dense: Entire region + process_vm_writev w/ page size,2,,,79255929.0,ns,2496
snapshot_restore_with_dense,Dense: Entire region + process_vm_writev w/ page size,2,,,87634139.0,ns,2528
snapshot_restore_with_dense,Dense: Entire region + process_vm_writev w/ page size,2,,,81738705.0,ns,2560
snapshot_restore_with_dense,Dense: Entire region + process_vm_writev w/ page size,2,,,82580682.0,ns,2592
snapshot_restore_with_dense,Dense: Entire region + process_vm_writev w/ page size,2,,,83261441.0,ns,2624
snapshot_restore_with_dense,Dense: Entire region + process_vm_writev w/ page size,2,,,84301229.0,ns,2656
snapshot_restore_with_dense,Dense: Entire region + process_vm_writev w/ page size,2,,,85334103.0,ns,2688
snapshot_restore_with_dense,Dense: Entire region + process_vm_writev w/ page size,2,,,86405391.0,ns,2720
snapshot_restore_with_dense,Dense: Entire region + process_vm_writev w/ page size,2,,,87347276.0,ns,2752
snapshot_restore_with_dense,Dense: Entire region + process_vm_writev w/ page size,2,,,88302951.0,ns,2784
snapshot_restore_with_dense,Dense: Entire region + process_vm_writev w/ page size,2,,,89341563.0,ns,2816
snapshot_restore_with_dense,Dense: Entire region + process_vm_writev w/ page size,2,,,90421117.0,ns,2848
snapshot_restore_with_dense,Dense: Entire region + process_vm_writev w/ page size,2,,,91456852.0,ns,2880
snapshot_restore_with_dense,Dense: Entire region + process_vm_writev w/ page size,2,,,92387296.0,ns,2912
snapshot_restore_with_dense,Dense: Entire region + process_vm_writev w/ page size,2,,,93930383.0,ns,2944
snapshot_restore_with_dense,Dense: Entire region + process_vm_writev w/ page size,2,,,99767771.0,ns,2976
snapshot_restore_with_dense,Dense: Entire region + process_vm_writev w/ page size,2,,,95403157.0,ns,3008
snapshot_restore_with_dense,Dense: Entire region + process_vm_writev w/ page size,2,,,96345856.0,ns,3040
snapshot_restore_with_dense,Dense: Entire region + process_vm_writev w/ page size,2,,,97549870.0,ns,3072
snapshot_restore_with_dense,Dense: Entire region + process_vm_writev w/ page size,2,,,98491484.0,ns,3104
snapshot_restore_with_dense,Dense: Entire region + process_vm_writev w/ page size,2,,,99523209.0,ns,3136
snapshot_restore_with_dense,Dense: Entire region + process_vm_writev w/ page size,2,,,100509027.0,ns,3168
snapshot_restore_with_dense,Dense: Entire region + process_vm_writev w/ page size,2,,,101539513.0,ns,3200
