<?xml version="1.0" encoding="utf-8"  standalone="no"?>
<svg 
 viewBox="0 0 1280 720"
 xmlns="http://www.w3.org/2000/svg"
 xmlns:xlink="http://www.w3.org/1999/xlink"
>

<title>Gnuplot</title>
<desc>Produced by GNUPLOT 5.2 patchlevel 6 </desc>

<g id="gnuplot_canvas">

<rect x="0" y="0" width="1280" height="720" fill="none"/>
<defs>

	<circle id='gpDot' r='0.5' stroke-width='0.5' stroke='currentColor'/>
	<path id='gpPt0' stroke-width='0.222' stroke='currentColor' d='M-1,0 h2 M0,-1 v2'/>
	<path id='gpPt1' stroke-width='0.222' stroke='currentColor' d='M-1,-1 L1,1 M1,-1 L-1,1'/>
	<path id='gpPt2' stroke-width='0.222' stroke='currentColor' d='M-1,0 L1,0 M0,-1 L0,1 M-1,-1 L1,1 M-1,1 L1,-1'/>
	<rect id='gpPt3' stroke-width='0.222' stroke='currentColor' x='-1' y='-1' width='2' height='2'/>
	<rect id='gpPt4' stroke-width='0.222' stroke='currentColor' fill='currentColor' x='-1' y='-1' width='2' height='2'/>
	<circle id='gpPt5' stroke-width='0.222' stroke='currentColor' cx='0' cy='0' r='1'/>
	<use xlink:href='#gpPt5' id='gpPt6' fill='currentColor' stroke='none'/>
	<path id='gpPt7' stroke-width='0.222' stroke='currentColor' d='M0,-1.33 L-1.33,0.67 L1.33,0.67 z'/>
	<use xlink:href='#gpPt7' id='gpPt8' fill='currentColor' stroke='none'/>
	<use xlink:href='#gpPt7' id='gpPt9' stroke='currentColor' transform='rotate(180)'/>
	<use xlink:href='#gpPt9' id='gpPt10' fill='currentColor' stroke='none'/>
	<use xlink:href='#gpPt3' id='gpPt11' stroke='currentColor' transform='rotate(45)'/>
	<use xlink:href='#gpPt11' id='gpPt12' fill='currentColor' stroke='none'/>
	<path id='gpPt13' stroke-width='0.222' stroke='currentColor' d='M0,1.330 L1.265,0.411 L0.782,-1.067 L-0.782,-1.076 L-1.265,0.411 z'/>
	<use xlink:href='#gpPt13' id='gpPt14' fill='currentColor' stroke='none'/>
	<filter id='textbox' filterUnits='objectBoundingBox' x='0' y='0' height='1' width='1'>
	  <feFlood flood-color='white' flood-opacity='1' result='bgnd'/>
	  <feComposite in='SourceGraphic' in2='bgnd' operator='atop'/>
	</filter>
	<filter id='greybox' filterUnits='objectBoundingBox' x='0' y='0' height='1' width='1'>
	  <feFlood flood-color='lightgrey' flood-opacity='1' result='grey'/>
	  <feComposite in='SourceGraphic' in2='grey' operator='atop'/>
	</filter>
</defs>
<g fill="none" color="white" stroke="currentColor" stroke-width="1.00" stroke-linecap="butt" stroke-linejoin="miter">
</g>
<g fill="none" color="black" stroke="currentColor" stroke-width="1.00" stroke-linecap="butt" stroke-linejoin="miter">
	<path stroke='black'  d='M71.9,662.4 L80.9,662.4  '/>	<g transform="translate(63.6,666.3)" stroke="none" fill="black" font-family="Helvetica" font-size="12.00"  text-anchor="end">
		<text><tspan font-family="Helvetica" > 0</tspan></text>
	</g>
</g>
<g fill="none" color="black" stroke="currentColor" stroke-width="1.00" stroke-linecap="butt" stroke-linejoin="miter">
	<path stroke='black'  d='M71.9,540.7 L80.9,540.7  '/>	<g transform="translate(63.6,544.6)" stroke="none" fill="black" font-family="Helvetica" font-size="12.00"  text-anchor="end">
		<text><tspan font-family="Helvetica" > 20</tspan></text>
	</g>
</g>
<g fill="none" color="black" stroke="currentColor" stroke-width="1.00" stroke-linecap="butt" stroke-linejoin="miter">
	<path stroke='black'  d='M71.9,419.1 L80.9,419.1  '/>	<g transform="translate(63.6,423.0)" stroke="none" fill="black" font-family="Helvetica" font-size="12.00"  text-anchor="end">
		<text><tspan font-family="Helvetica" > 40</tspan></text>
	</g>
</g>
<g fill="none" color="black" stroke="currentColor" stroke-width="1.00" stroke-linecap="butt" stroke-linejoin="miter">
	<path stroke='black'  d='M71.9,297.4 L80.9,297.4  '/>	<g transform="translate(63.6,301.3)" stroke="none" fill="black" font-family="Helvetica" font-size="12.00"  text-anchor="end">
		<text><tspan font-family="Helvetica" > 60</tspan></text>
	</g>
</g>
<g fill="none" color="black" stroke="currentColor" stroke-width="1.00" stroke-linecap="butt" stroke-linejoin="miter">
	<path stroke='black'  d='M71.9,175.8 L80.9,175.8  '/>	<g transform="translate(63.6,179.7)" stroke="none" fill="black" font-family="Helvetica" font-size="12.00"  text-anchor="end">
		<text><tspan font-family="Helvetica" > 80</tspan></text>
	</g>
</g>
<g fill="none" color="black" stroke="currentColor" stroke-width="1.00" stroke-linecap="butt" stroke-linejoin="miter">
	<path stroke='black'  d='M71.9,54.1 L80.9,54.1  '/>	<g transform="translate(63.6,58.0)" stroke="none" fill="black" font-family="Helvetica" font-size="12.00"  text-anchor="end">
		<text><tspan font-family="Helvetica" > 100</tspan></text>
	</g>
</g>
<g fill="none" color="black" stroke="currentColor" stroke-width="1.00" stroke-linecap="butt" stroke-linejoin="miter">
	<path stroke='black'  d='M178.2,662.4 L178.2,653.4  '/>	<g transform="translate(178.2,684.3)" stroke="none" fill="black" font-family="Helvetica" font-size="12.00"  text-anchor="middle">
		<text><tspan font-family="Helvetica" > 1.95</tspan></text>
	</g>
</g>
<g fill="none" color="black" stroke="currentColor" stroke-width="1.00" stroke-linecap="butt" stroke-linejoin="miter">
	<path stroke='black'  d='M318.8,662.4 L318.8,653.4  '/>	<g transform="translate(318.8,684.3)" stroke="none" fill="black" font-family="Helvetica" font-size="12.00"  text-anchor="middle">
		<text><tspan font-family="Helvetica" > 2</tspan></text>
	</g>
</g>
<g fill="none" color="black" stroke="currentColor" stroke-width="1.00" stroke-linecap="butt" stroke-linejoin="miter">
	<path stroke='black'  d='M459.4,662.4 L459.4,653.4  '/>	<g transform="translate(459.4,684.3)" stroke="none" fill="black" font-family="Helvetica" font-size="12.00"  text-anchor="middle">
		<text><tspan font-family="Helvetica" > 2.05</tspan></text>
	</g>
</g>
<g fill="none" color="black" stroke="currentColor" stroke-width="1.00" stroke-linecap="butt" stroke-linejoin="miter">
	<path stroke='black'  d='M599.9,662.4 L599.9,653.4  '/>	<g transform="translate(599.9,684.3)" stroke="none" fill="black" font-family="Helvetica" font-size="12.00"  text-anchor="middle">
		<text><tspan font-family="Helvetica" > 2.1</tspan></text>
	</g>
</g>
<g fill="none" color="black" stroke="currentColor" stroke-width="1.00" stroke-linecap="butt" stroke-linejoin="miter">
	<path stroke='black'  d='M740.5,662.4 L740.5,653.4  '/>	<g transform="translate(740.5,684.3)" stroke="none" fill="black" font-family="Helvetica" font-size="12.00"  text-anchor="middle">
		<text><tspan font-family="Helvetica" > 2.15</tspan></text>
	</g>
</g>
<g fill="none" color="black" stroke="currentColor" stroke-width="1.00" stroke-linecap="butt" stroke-linejoin="miter">
	<path stroke='black'  d='M881.1,662.4 L881.1,653.4  '/>	<g transform="translate(881.1,684.3)" stroke="none" fill="black" font-family="Helvetica" font-size="12.00"  text-anchor="middle">
		<text><tspan font-family="Helvetica" > 2.2</tspan></text>
	</g>
</g>
<g fill="none" color="black" stroke="currentColor" stroke-width="1.00" stroke-linecap="butt" stroke-linejoin="miter">
	<path stroke='black'  d='M1012.2,662.4 L1003.2,662.4  '/>	<g transform="translate(1020.5,666.3)" stroke="none" fill="black" font-family="Helvetica" font-size="12.00"  text-anchor="start">
		<text><tspan font-family="Helvetica" > 0</tspan></text>
	</g>
</g>
<g fill="none" color="black" stroke="currentColor" stroke-width="1.00" stroke-linecap="butt" stroke-linejoin="miter">
	<path stroke='black'  d='M1012.2,540.7 L1003.2,540.7  '/>	<g transform="translate(1020.5,544.6)" stroke="none" fill="black" font-family="Helvetica" font-size="12.00"  text-anchor="start">
		<text><tspan font-family="Helvetica" > 5</tspan></text>
	</g>
</g>
<g fill="none" color="black" stroke="currentColor" stroke-width="1.00" stroke-linecap="butt" stroke-linejoin="miter">
	<path stroke='black'  d='M1012.2,419.1 L1003.2,419.1  '/>	<g transform="translate(1020.5,423.0)" stroke="none" fill="black" font-family="Helvetica" font-size="12.00"  text-anchor="start">
		<text><tspan font-family="Helvetica" > 10</tspan></text>
	</g>
</g>
<g fill="none" color="black" stroke="currentColor" stroke-width="1.00" stroke-linecap="butt" stroke-linejoin="miter">
	<path stroke='black'  d='M1012.2,297.4 L1003.2,297.4  '/>	<g transform="translate(1020.5,301.3)" stroke="none" fill="black" font-family="Helvetica" font-size="12.00"  text-anchor="start">
		<text><tspan font-family="Helvetica" > 15</tspan></text>
	</g>
</g>
<g fill="none" color="black" stroke="currentColor" stroke-width="1.00" stroke-linecap="butt" stroke-linejoin="miter">
	<path stroke='black'  d='M1012.2,175.8 L1003.2,175.8  '/>	<g transform="translate(1020.5,179.7)" stroke="none" fill="black" font-family="Helvetica" font-size="12.00"  text-anchor="start">
		<text><tspan font-family="Helvetica" > 20</tspan></text>
	</g>
</g>
<g fill="none" color="black" stroke="currentColor" stroke-width="1.00" stroke-linecap="butt" stroke-linejoin="miter">
	<path stroke='black'  d='M1012.2,54.1 L1003.2,54.1  '/>	<g transform="translate(1020.5,58.0)" stroke="none" fill="black" font-family="Helvetica" font-size="12.00"  text-anchor="start">
		<text><tspan font-family="Helvetica" > 25</tspan></text>
	</g>
</g>
<g fill="none" color="black" stroke="currentColor" stroke-width="1.00" stroke-linecap="butt" stroke-linejoin="miter">
</g>
<g fill="none" color="black" stroke="currentColor" stroke-width="1.00" stroke-linecap="butt" stroke-linejoin="miter">
	<path stroke='black'  d='M71.9,54.1 L71.9,662.4 L1012.2,662.4 L1012.2,54.1 L71.9,54.1 Z  '/></g>
<g fill="none" color="black" stroke="currentColor" stroke-width="1.00" stroke-linecap="butt" stroke-linejoin="miter">
	<g transform="translate(16.3,358.3) rotate(270)" stroke="none" fill="black" font-family="Helvetica" font-size="12.00"  text-anchor="middle">
		<text><tspan font-family="Helvetica" >Iterations</tspan></text>
	</g>
</g>
<g fill="none" color="black" stroke="currentColor" stroke-width="1.00" stroke-linecap="butt" stroke-linejoin="miter">
	<g transform="translate(1074.2,358.3) rotate(270)" stroke="none" fill="black" font-family="Helvetica" font-size="12.00"  text-anchor="middle">
		<text><tspan font-family="Helvetica" >Density (a.u.)</tspan></text>
	</g>
</g>
<g fill="none" color="black" stroke="currentColor" stroke-width="1.00" stroke-linecap="butt" stroke-linejoin="miter">
	<g transform="translate(542.0,711.3)" stroke="none" fill="black" font-family="Helvetica" font-size="12.00"  text-anchor="middle">
		<text><tspan font-family="Helvetica" >Average time (ms)</tspan></text>
	</g>
</g>
<g fill="none" color="black" stroke="currentColor" stroke-width="1.00" stroke-linecap="butt" stroke-linejoin="miter">
	<g transform="translate(542.0,31.0)" stroke="none" fill="black" font-family="Helvetica" font-size="12.00"  text-anchor="middle">
		<text><tspan font-family="Helvetica" >snapshot_restore_with_dense/Dense: Dirty pages + /proc/pid/mem/1000</tspan></text>
	</g>
</g>
	<g id="gnuplot_plot_1" ><title>PDF</title>
<g fill="none" color="black" stroke="currentColor" stroke-width="1.00" stroke-linecap="butt" stroke-linejoin="miter">
	<g transform="translate(1147.1,67.0)" stroke="none" fill="black" font-family="Helvetica" font-size="12.00"  text-anchor="start">
		<text><tspan font-family="Helvetica" >PDF</tspan></text>
	</g>
</g>
<g fill="none" color="black" stroke="currentColor" stroke-width="1.00" stroke-linecap="butt" stroke-linejoin="miter">
	<g stroke='none' shape-rendering='crispEdges'>
		<polygon fill = 'rgb( 31, 120, 180)' fill-opacity = '0.250000' points = '1096.6,67.6 1138.8,67.6 1138.8,58.6 1096.6,58.6 '/>
		<polygon fill = 'rgb( 31, 120, 180)' fill-opacity = '0.250000' points = '71.9,660.0 73.8,659.6 75.7,659.3 77.6,658.8 79.4,658.4 81.3,657.8 83.2,657.2 85.1,656.6 87.0,655.8 88.9,655.0 90.7,654.1 92.6,653.2 94.5,652.1 96.4,650.9 98.3,649.5 100.2,648.1
102.0,646.5 103.9,644.8 105.8,642.9 107.7,640.8 109.6,638.5 111.5,636.1 113.4,633.5 115.2,630.6 117.1,627.5 119.0,624.2 120.9,620.6 122.8,616.8 124.7,612.7 126.5,608.3 128.4,603.6 130.3,598.6
132.2,593.3 134.1,587.7 136.0,581.7 137.9,575.5 139.7,568.8 141.6,561.8 143.5,554.5 145.4,546.8 147.3,538.8 149.2,530.4 151.0,521.7 152.9,512.6 154.8,503.2 156.7,493.5 158.6,483.5 160.5,473.1
162.3,462.5 164.2,451.6 166.1,440.5 168.0,429.2 169.9,417.6 171.8,405.9 173.7,394.1 175.5,382.2 177.4,370.2 179.3,358.1 181.2,346.0 183.1,334.0 185.0,322.1 186.8,310.3 188.7,298.6 190.6,287.2
192.5,275.9 194.4,265.0 196.3,254.4 198.2,244.2 200.0,234.3 201.9,225.0 203.8,216.1 205.7,207.7 207.6,199.9 209.5,192.7 211.3,186.1 213.2,180.2 215.1,175.0 217.0,170.4 218.9,166.6 220.8,163.5
222.6,161.2 224.5,159.6 226.4,158.8 228.3,158.8 230.2,159.5 232.1,161.0 234.0,163.2 235.8,166.2 237.7,170.0 239.6,174.4 241.5,179.5 243.4,185.3 245.3,191.7 247.1,198.7 249.0,206.3 250.9,214.5
252.8,223.1 254.7,232.2 256.6,241.8 258.5,251.7 260.3,261.9 262.2,272.5 264.1,283.4 266.0,294.4 267.9,305.6 269.8,317.0 271.6,328.5 273.5,340.0 275.4,351.6 277.3,363.1 279.2,374.6 281.1,386.0
282.9,397.3 284.8,408.4 286.7,419.4 288.6,430.1 290.5,440.7 292.4,451.0 294.3,461.0 296.1,470.7 298.0,480.2 299.9,489.3 301.8,498.1 303.7,506.6 305.6,514.8 307.4,522.6 309.3,530.1 311.2,537.2
313.1,544.0 315.0,550.5 316.9,556.6 318.8,562.4 320.6,567.8 322.5,573.0 324.4,577.8 326.3,582.3 328.2,586.6 330.1,590.5 331.9,594.2 333.8,597.7 335.7,600.9 337.6,603.8 339.5,606.6 341.4,609.1
343.2,611.4 345.1,613.6 347.0,615.6 348.9,617.4 350.8,619.1 352.7,620.6 354.6,622.0 356.4,623.3 358.3,624.4 360.2,625.5 362.1,626.5 364.0,627.4 365.9,628.3 367.7,629.0 369.6,629.8 371.5,630.4
373.4,631.1 375.3,631.6 377.2,632.2 379.1,632.7 380.9,633.2 382.8,633.7 384.7,634.2 386.6,634.6 388.5,635.1 390.4,635.5 392.2,636.0 394.1,636.4 396.0,636.8 397.9,637.3 399.8,637.7 401.7,638.1
403.5,638.5 405.4,639.0 407.3,639.4 409.2,639.8 411.1,640.2 413.0,640.7 414.9,641.1 416.7,641.5 418.6,642.0 420.5,642.4 422.4,642.8 424.3,643.3 426.2,643.7 428.0,644.1 429.9,644.5 431.8,644.9
433.7,645.3 435.6,645.7 437.5,646.1 439.4,646.5 441.2,646.8 443.1,647.2 445.0,647.5 446.9,647.9 448.8,648.2 450.7,648.5 452.5,648.8 454.4,649.1 456.3,649.3 458.2,649.6 460.1,649.8 462.0,650.1
463.8,650.3 465.7,650.5 467.6,650.7 469.5,650.8 471.4,651.0 473.3,651.1 475.2,651.3 477.0,651.4 478.9,651.5 480.8,651.6 482.7,651.6 484.6,651.7 486.5,651.8 488.3,651.8 490.2,651.8 492.1,651.9
494.0,651.9 495.9,651.9 497.8,651.9 499.7,651.9 501.5,651.9 503.4,651.9 505.3,651.8 507.2,651.8 509.1,651.8 511.0,651.7 512.8,651.7 514.7,651.7 516.6,651.6 518.5,651.6 520.4,651.5 522.3,651.5
524.1,651.4 526.0,651.4 527.9,651.4 529.8,651.3 531.7,651.3 533.6,651.2 535.5,651.2 537.3,651.2 539.2,651.1 541.1,651.1 543.0,651.1 544.9,651.1 546.8,651.0 548.6,651.0 550.5,651.0 552.4,651.0
554.3,651.0 556.2,650.9 558.1,650.9 560.0,650.9 561.8,650.9 563.7,650.8 565.6,650.8 567.5,650.8 569.4,650.8 571.3,650.7 573.1,650.7 575.0,650.6 576.9,650.6 578.8,650.5 580.7,650.5 582.6,650.4
584.4,650.3 586.3,650.3 588.2,650.2 590.1,650.1 592.0,650.0 593.9,649.9 595.8,649.7 597.6,649.6 599.5,649.5 601.4,649.4 603.3,649.2 605.2,649.1 607.1,648.9 608.9,648.7 610.8,648.6 612.7,648.4
614.6,648.2 616.5,648.0 618.4,647.9 620.3,647.7 622.1,647.5 624.0,647.3 625.9,647.1 627.8,647.0 629.7,646.8 631.6,646.6 633.4,646.4 635.3,646.3 637.2,646.1 639.1,646.0 641.0,645.9 642.9,645.7
644.7,645.6 646.6,645.5 648.5,645.5 650.4,645.4 652.3,645.3 654.2,645.3 656.1,645.3 657.9,645.3 659.8,645.3 661.7,645.3 663.6,645.4 665.5,645.5 667.4,645.5 669.2,645.6 671.1,645.8 673.0,645.9
674.9,646.1 676.8,646.3 678.7,646.5 680.6,646.7 682.4,646.9 684.3,647.2 686.2,647.4 688.1,647.7 690.0,648.0 691.9,648.3 693.7,648.6 695.6,648.9 697.5,649.3 699.4,649.6 701.3,649.9 703.2,650.3
705.0,650.7 706.9,651.0 708.8,651.4 710.7,651.8 712.6,652.1 714.5,652.5 716.4,652.9 718.2,653.2 720.1,653.6 722.0,654.0 723.9,654.3 725.8,654.7 727.7,655.0 729.5,655.4 731.4,655.7 733.3,656.0
735.2,656.3 737.1,656.6 739.0,656.9 740.9,657.2 742.7,657.5 744.6,657.7 746.5,658.0 748.4,658.2 750.3,658.5 752.2,658.7 754.0,658.9 755.9,659.1 757.8,659.3 759.7,659.4 761.6,659.6 763.5,659.7
765.3,659.8 767.2,660.0 769.1,660.1 771.0,660.2 772.9,660.2 774.8,660.3 776.7,660.4 778.5,660.4 780.4,660.4 782.3,660.5 784.2,660.5 786.1,660.5 788.0,660.5 789.8,660.5 791.7,660.4 793.6,660.4
795.5,660.4 797.4,660.3 799.3,660.3 801.2,660.2 803.0,660.1 804.9,660.0 806.8,659.9 808.7,659.8 810.6,659.7 812.5,659.6 814.3,659.5 816.2,659.4 818.1,659.3 820.0,659.2 821.9,659.0 823.8,658.9
825.6,658.8 827.5,658.6 829.4,658.5 831.3,658.4 833.2,658.2 835.1,658.1 837.0,658.0 838.8,657.8 840.7,657.7 842.6,657.6 844.5,657.5 846.4,657.4 848.3,657.3 850.1,657.2 852.0,657.1 853.9,657.0
855.8,656.9 857.7,656.8 859.6,656.8 861.5,656.7 863.3,656.6 865.2,656.6 867.1,656.6 869.0,656.6 870.9,656.5 872.8,656.5 874.6,656.6 876.5,656.6 878.4,656.6 880.3,656.6 882.2,656.7 884.1,656.7
885.9,656.8 887.8,656.9 889.7,656.9 891.6,657.0 893.5,657.1 895.4,657.2 897.3,657.3 899.1,657.4 901.0,657.6 902.9,657.7 904.8,657.8 906.7,657.9 908.6,658.1 910.4,658.2 912.3,658.3 914.2,658.5
916.1,658.6 918.0,658.8 919.9,658.9 921.8,659.1 923.6,659.2 925.5,659.3 927.4,659.5 929.3,659.6 931.2,659.8 933.1,659.9 934.9,660.0 936.8,660.2 938.7,660.3 940.6,660.4 942.5,660.5 944.4,660.6
946.2,660.7 948.1,660.8 950.0,660.9 951.9,661.0 953.8,661.1 955.7,661.2 957.6,661.3 959.4,661.4 961.3,661.5 963.2,661.5 965.1,661.6 967.0,661.7 968.9,661.7 970.7,661.8 972.6,661.8 974.5,661.9
976.4,661.9 978.3,662.0 980.2,662.0 982.1,662.0 983.9,662.1 985.8,662.1 987.7,662.1 989.6,662.2 991.5,662.2 993.4,662.2 995.2,662.2 997.1,662.2 999.0,662.3 1000.9,662.3 1002.8,662.3 1004.7,662.3
1006.5,662.3 1008.4,662.3 1010.3,662.3 1012.2,662.3 1012.2,662.4 1010.3,662.4 1008.4,662.4 1006.5,662.4 1004.7,662.4 1002.8,662.4 1000.9,662.4 999.0,662.4 997.1,662.4 995.2,662.4 993.4,662.4 991.5,662.4
989.6,662.4 987.7,662.4 985.8,662.4 983.9,662.4 982.1,662.4 980.2,662.4 978.3,662.4 976.4,662.4 974.5,662.4 972.6,662.4 970.7,662.4 968.9,662.4 967.0,662.4 965.1,662.4 963.2,662.4 961.3,662.4
959.4,662.4 957.6,662.4 955.7,662.4 953.8,662.4 951.9,662.4 950.0,662.4 948.1,662.4 946.2,662.4 944.4,662.4 942.5,662.4 940.6,662.4 938.7,662.4 936.8,662.4 934.9,662.4 933.1,662.4 931.2,662.4
929.3,662.4 927.4,662.4 925.5,662.4 923.6,662.4 921.8,662.4 919.9,662.4 918.0,662.4 916.1,662.4 914.2,662.4 912.3,662.4 910.4,662.4 908.6,662.4 906.7,662.4 904.8,662.4 902.9,662.4 901.0,662.4
899.1,662.4 897.3,662.4 895.4,662.4 893.5,662.4 891.6,662.4 889.7,662.4 887.8,662.4 885.9,662.4 884.1,662.4 882.2,662.4 880.3,662.4 878.4,662.4 876.5,662.4 874.6,662.4 872.8,662.4 870.9,662.4
869.0,662.4 867.1,662.4 865.2,662.4 863.3,662.4 861.5,662.4 859.6,662.4 857.7,662.4 855.8,662.4 853.9,662.4 852.0,662.4 850.1,662.4 848.3,662.4 846.4,662.4 844.5,662.4 842.6,662.4 840.7,662.4
838.8,662.4 837.0,662.4 835.1,662.4 833.2,662.4 831.3,662.4 829.4,662.4 827.5,662.4 825.6,662.4 823.8,662.4 821.9,662.4 820.0,662.4 818.1,662.4 816.2,662.4 814.3,662.4 812.5,662.4 810.6,662.4
808.7,662.4 806.8,662.4 804.9,662.4 803.0,662.4 801.2,662.4 799.3,662.4 797.4,662.4 795.5,662.4 793.6,662.4 791.7,662.4 789.8,662.4 788.0,662.4 786.1,662.4 784.2,662.4 782.3,662.4 780.4,662.4
778.5,662.4 776.7,662.4 774.8,662.4 772.9,662.4 771.0,662.4 769.1,662.4 767.2,662.4 765.3,662.4 763.5,662.4 761.6,662.4 759.7,662.4 757.8,662.4 755.9,662.4 754.0,662.4 752.2,662.4 750.3,662.4
748.4,662.4 746.5,662.4 744.6,662.4 742.7,662.4 740.9,662.4 739.0,662.4 737.1,662.4 735.2,662.4 733.3,662.4 731.4,662.4 729.5,662.4 727.7,662.4 725.8,662.4 723.9,662.4 722.0,662.4 720.1,662.4
718.2,662.4 716.4,662.4 714.5,662.4 712.6,662.4 710.7,662.4 708.8,662.4 706.9,662.4 705.0,662.4 703.2,662.4 701.3,662.4 699.4,662.4 697.5,662.4 695.6,662.4 693.7,662.4 691.9,662.4 690.0,662.4
688.1,662.4 686.2,662.4 684.3,662.4 682.4,662.4 680.6,662.4 678.7,662.4 676.8,662.4 674.9,662.4 673.0,662.4 671.1,662.4 669.2,662.4 667.4,662.4 665.5,662.4 663.6,662.4 661.7,662.4 659.8,662.4
657.9,662.4 656.1,662.4 654.2,662.4 652.3,662.4 650.4,662.4 648.5,662.4 646.6,662.4 644.7,662.4 642.9,662.4 641.0,662.4 639.1,662.4 637.2,662.4 635.3,662.4 633.4,662.4 631.6,662.4 629.7,662.4
627.8,662.4 625.9,662.4 624.0,662.4 622.1,662.4 620.3,662.4 618.4,662.4 616.5,662.4 614.6,662.4 612.7,662.4 610.8,662.4 608.9,662.4 607.1,662.4 605.2,662.4 603.3,662.4 601.4,662.4 599.5,662.4
597.6,662.4 595.8,662.4 593.9,662.4 592.0,662.4 590.1,662.4 588.2,662.4 586.3,662.4 584.4,662.4 582.6,662.4 580.7,662.4 578.8,662.4 576.9,662.4 575.0,662.4 573.1,662.4 571.3,662.4 569.4,662.4
567.5,662.4 565.6,662.4 563.7,662.4 561.8,662.4 560.0,662.4 558.1,662.4 556.2,662.4 554.3,662.4 552.4,662.4 550.5,662.4 548.6,662.4 546.8,662.4 544.9,662.4 543.0,662.4 541.1,662.4 539.2,662.4
537.3,662.4 535.5,662.4 533.6,662.4 531.7,662.4 529.8,662.4 527.9,662.4 526.0,662.4 524.1,662.4 522.3,662.4 520.4,662.4 518.5,662.4 516.6,662.4 514.7,662.4 512.8,662.4 511.0,662.4 509.1,662.4
507.2,662.4 505.3,662.4 503.4,662.4 501.5,662.4 499.7,662.4 497.8,662.4 495.9,662.4 494.0,662.4 492.1,662.4 490.2,662.4 488.3,662.4 486.5,662.4 484.6,662.4 482.7,662.4 480.8,662.4 478.9,662.4
477.0,662.4 475.2,662.4 473.3,662.4 471.4,662.4 469.5,662.4 467.6,662.4 465.7,662.4 463.8,662.4 462.0,662.4 460.1,662.4 458.2,662.4 456.3,662.4 454.4,662.4 452.5,662.4 450.7,662.4 448.8,662.4
446.9,662.4 445.0,662.4 443.1,662.4 441.2,662.4 439.4,662.4 437.5,662.4 435.6,662.4 433.7,662.4 431.8,662.4 429.9,662.4 428.0,662.4 426.2,662.4 424.3,662.4 422.4,662.4 420.5,662.4 418.6,662.4
416.7,662.4 414.9,662.4 413.0,662.4 411.1,662.4 409.2,662.4 407.3,662.4 405.4,662.4 403.5,662.4 401.7,662.4 399.8,662.4 397.9,662.4 396.0,662.4 394.1,662.4 392.2,662.4 390.4,662.4 388.5,662.4
386.6,662.4 384.7,662.4 382.8,662.4 380.9,662.4 379.1,662.4 377.2,662.4 375.3,662.4 373.4,662.4 371.5,662.4 369.6,662.4 367.7,662.4 365.9,662.4 364.0,662.4 362.1,662.4 360.2,662.4 358.3,662.4
356.4,662.4 354.6,662.4 352.7,662.4 350.8,662.4 348.9,662.4 347.0,662.4 345.1,662.4 343.2,662.4 341.4,662.4 339.5,662.4 337.6,662.4 335.7,662.4 333.8,662.4 331.9,662.4 330.1,662.4 328.2,662.4
326.3,662.4 324.4,662.4 322.5,662.4 320.6,662.4 318.8,662.4 316.9,662.4 315.0,662.4 313.1,662.4 311.2,662.4 309.3,662.4 307.4,662.4 305.6,662.4 303.7,662.4 301.8,662.4 299.9,662.4 298.0,662.4
296.1,662.4 294.3,662.4 292.4,662.4 290.5,662.4 288.6,662.4 286.7,662.4 284.8,662.4 282.9,662.4 281.1,662.4 279.2,662.4 277.3,662.4 275.4,662.4 273.5,662.4 271.6,662.4 269.8,662.4 267.9,662.4
266.0,662.4 264.1,662.4 262.2,662.4 260.3,662.4 258.5,662.4 256.6,662.4 254.7,662.4 252.8,662.4 250.9,662.4 249.0,662.4 247.1,662.4 245.3,662.4 243.4,662.4 241.5,662.4 239.6,662.4 237.7,662.4
235.8,662.4 234.0,662.4 232.1,662.4 230.2,662.4 228.3,662.4 226.4,662.4 224.5,662.4 222.6,662.4 220.8,662.4 218.9,662.4 217.0,662.4 215.1,662.4 213.2,662.4 211.3,662.4 209.5,662.4 207.6,662.4
205.7,662.4 203.8,662.4 201.9,662.4 200.0,662.4 198.2,662.4 196.3,662.4 194.4,662.4 192.5,662.4 190.6,662.4 188.7,662.4 186.8,662.4 185.0,662.4 183.1,662.4 181.2,662.4 179.3,662.4 177.4,662.4
175.5,662.4 173.7,662.4 171.8,662.4 169.9,662.4 168.0,662.4 166.1,662.4 164.2,662.4 162.3,662.4 160.5,662.4 158.6,662.4 156.7,662.4 154.8,662.4 152.9,662.4 151.0,662.4 149.2,662.4 147.3,662.4
145.4,662.4 143.5,662.4 141.6,662.4 139.7,662.4 137.9,662.4 136.0,662.4 134.1,662.4 132.2,662.4 130.3,662.4 128.4,662.4 126.5,662.4 124.7,662.4 122.8,662.4 120.9,662.4 119.0,662.4 117.1,662.4
115.2,662.4 113.4,662.4 111.5,662.4 109.6,662.4 107.7,662.4 105.8,662.4 103.9,662.4 102.0,662.4 100.2,662.4 98.3,662.4 96.4,662.4 94.5,662.4 92.6,662.4 90.7,662.4 88.9,662.4 87.0,662.4
85.1,662.4 83.2,662.4 81.3,662.4 79.4,662.4 77.6,662.4 75.7,662.4 73.8,662.4 71.9,662.4 '/>
	</g>
</g>
	</g>
	<g id="gnuplot_plot_2" ><title>Mean</title>
<g fill="none" color="white" stroke="rgb( 31, 120, 180)" stroke-width="2.00" stroke-linecap="butt" stroke-linejoin="miter">
</g>
<g fill="none" color="black" stroke="currentColor" stroke-width="2.00" stroke-linecap="butt" stroke-linejoin="miter">
	<g transform="translate(1147.1,85.0)" stroke="none" fill="black" font-family="Helvetica" font-size="12.00"  text-anchor="start">
		<text><tspan font-family="Helvetica" >Mean</tspan></text>
	</g>
</g>
<g fill="none" color="black" stroke="currentColor" stroke-width="2.00" stroke-linecap="butt" stroke-linejoin="miter">
	<path stroke='rgb( 31, 120, 180)'  d='M1096.6,81.1 L1138.8,81.1 M261.7,662.4 L261.7,54.1  '/></g>
	</g>
	<g id="gnuplot_plot_3" ><title>"Clean" sample</title>
<g fill="none" color="white" stroke="rgb( 31, 120, 180)" stroke-width="1.00" stroke-linecap="butt" stroke-linejoin="miter">
</g>
<g fill="none" color="black" stroke="currentColor" stroke-width="1.00" stroke-linecap="butt" stroke-linejoin="miter">
	<g transform="translate(1147.1,103.0)" stroke="none" fill="black" font-family="Helvetica" font-size="12.00"  text-anchor="start">
		<text><tspan font-family="Helvetica" >"Clean" sample</tspan></text>
	</g>
</g>
<g fill="none" color="black" stroke="currentColor" stroke-width="1.00" stroke-linecap="butt" stroke-linejoin="miter">
	<use xlink:href='#gpPt6' transform='translate(231.4,650.2) scale(3.38)' color='rgb( 31, 120, 180)'/>
	<use xlink:href='#gpPt6' transform='translate(243.0,638.1) scale(3.38)' color='rgb( 31, 120, 180)'/>
	<use xlink:href='#gpPt6' transform='translate(256.3,619.8) scale(3.38)' color='rgb( 31, 120, 180)'/>
	<use xlink:href='#gpPt6' transform='translate(227.6,613.7) scale(3.38)' color='rgb( 31, 120, 180)'/>
	<use xlink:href='#gpPt6' transform='translate(241.9,607.7) scale(3.38)' color='rgb( 31, 120, 180)'/>
	<use xlink:href='#gpPt6' transform='translate(233.5,601.6) scale(3.38)' color='rgb( 31, 120, 180)'/>
	<use xlink:href='#gpPt6' transform='translate(243.5,595.5) scale(3.38)' color='rgb( 31, 120, 180)'/>
	<use xlink:href='#gpPt6' transform='translate(221.5,589.4) scale(3.38)' color='rgb( 31, 120, 180)'/>
	<use xlink:href='#gpPt6' transform='translate(221.8,583.3) scale(3.38)' color='rgb( 31, 120, 180)'/>
	<use xlink:href='#gpPt6' transform='translate(227.6,577.2) scale(3.38)' color='rgb( 31, 120, 180)'/>
	<use xlink:href='#gpPt6' transform='translate(223.6,571.2) scale(3.38)' color='rgb( 31, 120, 180)'/>
	<use xlink:href='#gpPt6' transform='translate(223.2,565.1) scale(3.38)' color='rgb( 31, 120, 180)'/>
	<use xlink:href='#gpPt6' transform='translate(233.9,559.0) scale(3.38)' color='rgb( 31, 120, 180)'/>
	<use xlink:href='#gpPt6' transform='translate(225.2,552.9) scale(3.38)' color='rgb( 31, 120, 180)'/>
	<use xlink:href='#gpPt6' transform='translate(229.7,546.8) scale(3.38)' color='rgb( 31, 120, 180)'/>
	<use xlink:href='#gpPt6' transform='translate(245.8,540.7) scale(3.38)' color='rgb( 31, 120, 180)'/>
	<use xlink:href='#gpPt6' transform='translate(229.1,534.7) scale(3.38)' color='rgb( 31, 120, 180)'/>
	<use xlink:href='#gpPt6' transform='translate(240.0,528.6) scale(3.38)' color='rgb( 31, 120, 180)'/>
	<use xlink:href='#gpPt6' transform='translate(217.4,522.5) scale(3.38)' color='rgb( 31, 120, 180)'/>
	<use xlink:href='#gpPt6' transform='translate(226.0,516.4) scale(3.38)' color='rgb( 31, 120, 180)'/>
	<use xlink:href='#gpPt6' transform='translate(230.0,510.3) scale(3.38)' color='rgb( 31, 120, 180)'/>
	<use xlink:href='#gpPt6' transform='translate(245.0,504.2) scale(3.38)' color='rgb( 31, 120, 180)'/>
	<use xlink:href='#gpPt6' transform='translate(222.3,498.2) scale(3.38)' color='rgb( 31, 120, 180)'/>
	<use xlink:href='#gpPt6' transform='translate(226.7,492.1) scale(3.38)' color='rgb( 31, 120, 180)'/>
	<use xlink:href='#gpPt6' transform='translate(222.9,486.0) scale(3.38)' color='rgb( 31, 120, 180)'/>
	<use xlink:href='#gpPt6' transform='translate(239.6,479.9) scale(3.38)' color='rgb( 31, 120, 180)'/>
	<use xlink:href='#gpPt6' transform='translate(215.7,473.8) scale(3.38)' color='rgb( 31, 120, 180)'/>
	<use xlink:href='#gpPt6' transform='translate(222.1,467.7) scale(3.38)' color='rgb( 31, 120, 180)'/>
	<use xlink:href='#gpPt6' transform='translate(230.0,461.7) scale(3.38)' color='rgb( 31, 120, 180)'/>
	<use xlink:href='#gpPt6' transform='translate(233.3,455.6) scale(3.38)' color='rgb( 31, 120, 180)'/>
	<use xlink:href='#gpPt6' transform='translate(231.6,449.5) scale(3.38)' color='rgb( 31, 120, 180)'/>
	<use xlink:href='#gpPt6' transform='translate(226.9,443.4) scale(3.38)' color='rgb( 31, 120, 180)'/>
	<use xlink:href='#gpPt6' transform='translate(235.2,437.3) scale(3.38)' color='rgb( 31, 120, 180)'/>
	<use xlink:href='#gpPt6' transform='translate(228.3,431.2) scale(3.38)' color='rgb( 31, 120, 180)'/>
	<use xlink:href='#gpPt6' transform='translate(234.7,425.2) scale(3.38)' color='rgb( 31, 120, 180)'/>
	<use xlink:href='#gpPt6' transform='translate(236.3,419.1) scale(3.38)' color='rgb( 31, 120, 180)'/>
	<use xlink:href='#gpPt6' transform='translate(226.4,413.0) scale(3.38)' color='rgb( 31, 120, 180)'/>
	<use xlink:href='#gpPt6' transform='translate(232.0,406.9) scale(3.38)' color='rgb( 31, 120, 180)'/>
	<use xlink:href='#gpPt6' transform='translate(224.5,400.8) scale(3.38)' color='rgb( 31, 120, 180)'/>
	<use xlink:href='#gpPt6' transform='translate(223.6,394.7) scale(3.38)' color='rgb( 31, 120, 180)'/>
	<use xlink:href='#gpPt6' transform='translate(235.5,388.7) scale(3.38)' color='rgb( 31, 120, 180)'/>
	<use xlink:href='#gpPt6' transform='translate(231.4,382.6) scale(3.38)' color='rgb( 31, 120, 180)'/>
	<use xlink:href='#gpPt6' transform='translate(224.7,376.5) scale(3.38)' color='rgb( 31, 120, 180)'/>
	<use xlink:href='#gpPt6' transform='translate(222.6,370.4) scale(3.38)' color='rgb( 31, 120, 180)'/>
	<use xlink:href='#gpPt6' transform='translate(222.4,364.3) scale(3.38)' color='rgb( 31, 120, 180)'/>
	<use xlink:href='#gpPt6' transform='translate(228.1,352.2) scale(3.38)' color='rgb( 31, 120, 180)'/>
	<use xlink:href='#gpPt6' transform='translate(230.9,327.8) scale(3.38)' color='rgb( 31, 120, 180)'/>
	<use xlink:href='#gpPt6' transform='translate(246.3,321.8) scale(3.38)' color='rgb( 31, 120, 180)'/>
	<use xlink:href='#gpPt6' transform='translate(220.2,303.5) scale(3.38)' color='rgb( 31, 120, 180)'/>
	<use xlink:href='#gpPt6' transform='translate(223.8,285.3) scale(3.38)' color='rgb( 31, 120, 180)'/>
	<use xlink:href='#gpPt6' transform='translate(217.9,279.2) scale(3.38)' color='rgb( 31, 120, 180)'/>
	<use xlink:href='#gpPt6' transform='translate(215.5,273.1) scale(3.38)' color='rgb( 31, 120, 180)'/>
	<use xlink:href='#gpPt6' transform='translate(217.8,267.0) scale(3.38)' color='rgb( 31, 120, 180)'/>
	<use xlink:href='#gpPt6' transform='translate(224.5,260.9) scale(3.38)' color='rgb( 31, 120, 180)'/>
	<use xlink:href='#gpPt6' transform='translate(215.3,254.8) scale(3.38)' color='rgb( 31, 120, 180)'/>
	<use xlink:href='#gpPt6' transform='translate(260.6,248.8) scale(3.38)' color='rgb( 31, 120, 180)'/>
	<use xlink:href='#gpPt6' transform='translate(224.4,242.7) scale(3.38)' color='rgb( 31, 120, 180)'/>
	<use xlink:href='#gpPt6' transform='translate(231.7,236.6) scale(3.38)' color='rgb( 31, 120, 180)'/>
	<use xlink:href='#gpPt6' transform='translate(249.2,224.4) scale(3.38)' color='rgb( 31, 120, 180)'/>
	<use xlink:href='#gpPt6' transform='translate(217.0,218.3) scale(3.38)' color='rgb( 31, 120, 180)'/>
	<use xlink:href='#gpPt6' transform='translate(211.8,212.3) scale(3.38)' color='rgb( 31, 120, 180)'/>
	<use xlink:href='#gpPt6' transform='translate(231.8,206.2) scale(3.38)' color='rgb( 31, 120, 180)'/>
	<use xlink:href='#gpPt6' transform='translate(216.2,200.1) scale(3.38)' color='rgb( 31, 120, 180)'/>
	<use xlink:href='#gpPt6' transform='translate(217.9,194.0) scale(3.38)' color='rgb( 31, 120, 180)'/>
	<use xlink:href='#gpPt6' transform='translate(220.1,187.9) scale(3.38)' color='rgb( 31, 120, 180)'/>
	<use xlink:href='#gpPt6' transform='translate(216.4,181.8) scale(3.38)' color='rgb( 31, 120, 180)'/>
	<use xlink:href='#gpPt6' transform='translate(214.6,175.8) scale(3.38)' color='rgb( 31, 120, 180)'/>
	<use xlink:href='#gpPt6' transform='translate(260.2,169.7) scale(3.38)' color='rgb( 31, 120, 180)'/>
	<use xlink:href='#gpPt6' transform='translate(222.9,163.6) scale(3.38)' color='rgb( 31, 120, 180)'/>
	<use xlink:href='#gpPt6' transform='translate(219.3,157.5) scale(3.38)' color='rgb( 31, 120, 180)'/>
	<use xlink:href='#gpPt6' transform='translate(218.4,151.4) scale(3.38)' color='rgb( 31, 120, 180)'/>
	<use xlink:href='#gpPt6' transform='translate(222.0,145.3) scale(3.38)' color='rgb( 31, 120, 180)'/>
	<use xlink:href='#gpPt6' transform='translate(219.6,139.3) scale(3.38)' color='rgb( 31, 120, 180)'/>
	<use xlink:href='#gpPt6' transform='translate(217.3,133.2) scale(3.38)' color='rgb( 31, 120, 180)'/>
	<use xlink:href='#gpPt6' transform='translate(219.1,127.1) scale(3.38)' color='rgb( 31, 120, 180)'/>
	<use xlink:href='#gpPt6' transform='translate(224.5,121.0) scale(3.38)' color='rgb( 31, 120, 180)'/>
	<use xlink:href='#gpPt6' transform='translate(218.1,114.9) scale(3.38)' color='rgb( 31, 120, 180)'/>
	<use xlink:href='#gpPt6' transform='translate(217.8,108.8) scale(3.38)' color='rgb( 31, 120, 180)'/>
	<use xlink:href='#gpPt6' transform='translate(215.4,102.8) scale(3.38)' color='rgb( 31, 120, 180)'/>
	<use xlink:href='#gpPt6' transform='translate(222.4,96.7) scale(3.38)' color='rgb( 31, 120, 180)'/>
	<use xlink:href='#gpPt6' transform='translate(223.0,90.6) scale(3.38)' color='rgb( 31, 120, 180)'/>
	<use xlink:href='#gpPt6' transform='translate(215.6,84.5) scale(3.38)' color='rgb( 31, 120, 180)'/>
	<use xlink:href='#gpPt6' transform='translate(213.3,78.4) scale(3.38)' color='rgb( 31, 120, 180)'/>
	<use xlink:href='#gpPt6' transform='translate(217.4,72.3) scale(3.38)' color='rgb( 31, 120, 180)'/>
	<use xlink:href='#gpPt6' transform='translate(215.6,66.3) scale(3.38)' color='rgb( 31, 120, 180)'/>
	<use xlink:href='#gpPt6' transform='translate(228.8,60.2) scale(3.38)' color='rgb( 31, 120, 180)'/>
	<use xlink:href='#gpPt6' transform='translate(221.8,54.1) scale(3.38)' color='rgb( 31, 120, 180)'/>
	<use xlink:href='#gpPt6' transform='translate(1117.7,99.1) scale(3.38)' color='rgb( 31, 120, 180)'/>
</g>
	</g>
	<g id="gnuplot_plot_4" ><title>Mild outliers</title>
<g fill="none" color="black" stroke="currentColor" stroke-width="1.00" stroke-linecap="butt" stroke-linejoin="miter">
	<g transform="translate(1147.1,121.0)" stroke="none" fill="black" font-family="Helvetica" font-size="12.00"  text-anchor="start">
		<text><tspan font-family="Helvetica" >Mild outliers</tspan></text>
	</g>
</g>
<g fill="none" color="black" stroke="currentColor" stroke-width="1.00" stroke-linecap="butt" stroke-linejoin="miter">
	<use xlink:href='#gpPt6' transform='translate(270.4,309.6) scale(3.38)' color='rgb(255, 127,   0)'/>
	<use xlink:href='#gpPt6' transform='translate(1117.7,117.1) scale(3.38)' color='rgb(255, 127,   0)'/>
</g>
	</g>
	<g id="gnuplot_plot_5" ><title>Severe outliers</title>
<g fill="none" color="black" stroke="currentColor" stroke-width="1.00" stroke-linecap="butt" stroke-linejoin="miter">
	<g transform="translate(1147.1,139.0)" stroke="none" fill="black" font-family="Helvetica" font-size="12.00"  text-anchor="start">
		<text><tspan font-family="Helvetica" >Severe outliers</tspan></text>
	</g>
</g>
<g fill="none" color="black" stroke="currentColor" stroke-width="1.00" stroke-linecap="butt" stroke-linejoin="miter">
	<use xlink:href='#gpPt6' transform='translate(359.6,656.3) scale(3.38)' color='rgb(227,  26,  28)'/>
	<use xlink:href='#gpPt6' transform='translate(872.3,644.2) scale(3.38)' color='rgb(227,  26,  28)'/>
	<use xlink:href='#gpPt6' transform='translate(688.0,632.0) scale(3.38)' color='rgb(227,  26,  28)'/>
	<use xlink:href='#gpPt6' transform='translate(566.8,625.9) scale(3.38)' color='rgb(227,  26,  28)'/>
	<use xlink:href='#gpPt6' transform='translate(358.9,358.2) scale(3.38)' color='rgb(227,  26,  28)'/>
	<use xlink:href='#gpPt6' transform='translate(643.9,346.1) scale(3.38)' color='rgb(227,  26,  28)'/>
	<use xlink:href='#gpPt6' transform='translate(370.2,340.0) scale(3.38)' color='rgb(227,  26,  28)'/>
	<use xlink:href='#gpPt6' transform='translate(395.3,333.9) scale(3.38)' color='rgb(227,  26,  28)'/>
	<use xlink:href='#gpPt6' transform='translate(433.1,315.7) scale(3.38)' color='rgb(227,  26,  28)'/>
	<use xlink:href='#gpPt6' transform='translate(660.4,297.4) scale(3.38)' color='rgb(227,  26,  28)'/>
	<use xlink:href='#gpPt6' transform='translate(290.1,291.3) scale(3.38)' color='rgb(227,  26,  28)'/>
	<use xlink:href='#gpPt6' transform='translate(515.3,230.5) scale(3.38)' color='rgb(227,  26,  28)'/>
	<use xlink:href='#gpPt6' transform='translate(1117.7,135.1) scale(3.38)' color='rgb(227,  26,  28)'/>
</g>
	</g>
	<g id="gnuplot_plot_6" ><title>gnuplot_plot_6</title>
<g fill="none" color="white" stroke="rgb(227,  26,  28)" stroke-width="2.00" stroke-linecap="butt" stroke-linejoin="miter">
</g>
<g fill="none" color="black" stroke="currentColor" stroke-width="2.00" stroke-linecap="butt" stroke-linejoin="miter">
	<path stroke='rgb(255, 127,   0)'  d='M194.7,662.4 L194.7,54.1  '/></g>
	</g>
	<g id="gnuplot_plot_7" ><title>gnuplot_plot_7</title>
<g fill="none" color="black" stroke="currentColor" stroke-width="2.00" stroke-linecap="butt" stroke-linejoin="miter">
	<path stroke='rgb(255, 127,   0)'  d='M262.6,662.4 L262.6,54.1  '/></g>
	</g>
	<g id="gnuplot_plot_8" ><title>gnuplot_plot_8</title>
<g fill="none" color="black" stroke="currentColor" stroke-width="2.00" stroke-linecap="butt" stroke-linejoin="miter">
	<path stroke='rgb(227,  26,  28)'  d='M169.3,662.4 L169.3,54.1  '/></g>
	</g>
	<g id="gnuplot_plot_9" ><title>gnuplot_plot_9</title>
<g fill="none" color="black" stroke="currentColor" stroke-width="2.00" stroke-linecap="butt" stroke-linejoin="miter">
	<path stroke='rgb(227,  26,  28)'  d='M288.0,662.4 L288.0,54.1  '/></g>
	</g>
<g fill="none" color="black" stroke="currentColor" stroke-width="2.00" stroke-linecap="butt" stroke-linejoin="miter">
</g>
<g fill="none" color="black" stroke="black" stroke-width="1.00" stroke-linecap="butt" stroke-linejoin="miter">
</g>
<g fill="none" color="black" stroke="currentColor" stroke-width="1.00" stroke-linecap="butt" stroke-linejoin="miter">
	<path stroke='black'  d='M71.9,54.1 L71.9,662.4 L1012.2,662.4 L1012.2,54.1 L71.9,54.1 Z  '/></g>
<g fill="none" color="black" stroke="currentColor" stroke-width="1.00" stroke-linecap="butt" stroke-linejoin="miter">
</g>
</g>
</svg>

