<?xml version="1.0" encoding="utf-8"  standalone="no"?>
<svg 
 viewBox="0 0 1280 720"
 xmlns="http://www.w3.org/2000/svg"
 xmlns:xlink="http://www.w3.org/1999/xlink"
>

<title>Gnuplot</title>
<desc>Produced by GNUPLOT 5.2 patchlevel 6 </desc>

<g id="gnuplot_canvas">

<rect x="0" y="0" width="1280" height="720" fill="none"/>
<defs>

	<circle id='gpDot' r='0.5' stroke-width='0.5' stroke='currentColor'/>
	<path id='gpPt0' stroke-width='0.222' stroke='currentColor' d='M-1,0 h2 M0,-1 v2'/>
	<path id='gpPt1' stroke-width='0.222' stroke='currentColor' d='M-1,-1 L1,1 M1,-1 L-1,1'/>
	<path id='gpPt2' stroke-width='0.222' stroke='currentColor' d='M-1,0 L1,0 M0,-1 L0,1 M-1,-1 L1,1 M-1,1 L1,-1'/>
	<rect id='gpPt3' stroke-width='0.222' stroke='currentColor' x='-1' y='-1' width='2' height='2'/>
	<rect id='gpPt4' stroke-width='0.222' stroke='currentColor' fill='currentColor' x='-1' y='-1' width='2' height='2'/>
	<circle id='gpPt5' stroke-width='0.222' stroke='currentColor' cx='0' cy='0' r='1'/>
	<use xlink:href='#gpPt5' id='gpPt6' fill='currentColor' stroke='none'/>
	<path id='gpPt7' stroke-width='0.222' stroke='currentColor' d='M0,-1.33 L-1.33,0.67 L1.33,0.67 z'/>
	<use xlink:href='#gpPt7' id='gpPt8' fill='currentColor' stroke='none'/>
	<use xlink:href='#gpPt7' id='gpPt9' stroke='currentColor' transform='rotate(180)'/>
	<use xlink:href='#gpPt9' id='gpPt10' fill='currentColor' stroke='none'/>
	<use xlink:href='#gpPt3' id='gpPt11' stroke='currentColor' transform='rotate(45)'/>
	<use xlink:href='#gpPt11' id='gpPt12' fill='currentColor' stroke='none'/>
	<path id='gpPt13' stroke-width='0.222' stroke='currentColor' d='M0,1.330 L1.265,0.411 L0.782,-1.067 L-0.782,-1.076 L-1.265,0.411 z'/>
	<use xlink:href='#gpPt13' id='gpPt14' fill='currentColor' stroke='none'/>
	<filter id='textbox' filterUnits='objectBoundingBox' x='0' y='0' height='1' width='1'>
	  <feFlood flood-color='white' flood-opacity='1' result='bgnd'/>
	  <feComposite in='SourceGraphic' in2='bgnd' operator='atop'/>
	</filter>
	<filter id='greybox' filterUnits='objectBoundingBox' x='0' y='0' height='1' width='1'>
	  <feFlood flood-color='lightgrey' flood-opacity='1' result='grey'/>
	  <feComposite in='SourceGraphic' in2='grey' operator='atop'/>
	</filter>
</defs>
<g fill="none" color="white" stroke="currentColor" stroke-width="1.00" stroke-linecap="butt" stroke-linejoin="miter">
</g>
<g fill="none" color="black" stroke="currentColor" stroke-width="1.00" stroke-linecap="butt" stroke-linejoin="miter">
	<path stroke='black'  d='M80.2,662.4 L89.2,662.4  '/>	<g transform="translate(71.9,666.3)" stroke="none" fill="black" font-family="Helvetica" font-size="12.00"  text-anchor="end">
		<text><tspan font-family="Helvetica" > 0</tspan></text>
	</g>
</g>
<g fill="none" color="black" stroke="currentColor" stroke-width="1.00" stroke-linecap="butt" stroke-linejoin="miter">
	<path stroke='black'  d='M80.2,601.6 L89.2,601.6  '/>	<g transform="translate(71.9,605.5)" stroke="none" fill="black" font-family="Helvetica" font-size="12.00"  text-anchor="end">
		<text><tspan font-family="Helvetica" > 0.05</tspan></text>
	</g>
</g>
<g fill="none" color="black" stroke="currentColor" stroke-width="1.00" stroke-linecap="butt" stroke-linejoin="miter">
	<path stroke='black'  d='M80.2,540.7 L89.2,540.7  '/>	<g transform="translate(71.9,544.6)" stroke="none" fill="black" font-family="Helvetica" font-size="12.00"  text-anchor="end">
		<text><tspan font-family="Helvetica" > 0.1</tspan></text>
	</g>
</g>
<g fill="none" color="black" stroke="currentColor" stroke-width="1.00" stroke-linecap="butt" stroke-linejoin="miter">
	<path stroke='black'  d='M80.2,479.9 L89.2,479.9  '/>	<g transform="translate(71.9,483.8)" stroke="none" fill="black" font-family="Helvetica" font-size="12.00"  text-anchor="end">
		<text><tspan font-family="Helvetica" > 0.15</tspan></text>
	</g>
</g>
<g fill="none" color="black" stroke="currentColor" stroke-width="1.00" stroke-linecap="butt" stroke-linejoin="miter">
	<path stroke='black'  d='M80.2,419.1 L89.2,419.1  '/>	<g transform="translate(71.9,423.0)" stroke="none" fill="black" font-family="Helvetica" font-size="12.00"  text-anchor="end">
		<text><tspan font-family="Helvetica" > 0.2</tspan></text>
	</g>
</g>
<g fill="none" color="black" stroke="currentColor" stroke-width="1.00" stroke-linecap="butt" stroke-linejoin="miter">
	<path stroke='black'  d='M80.2,358.2 L89.2,358.2  '/>	<g transform="translate(71.9,362.1)" stroke="none" fill="black" font-family="Helvetica" font-size="12.00"  text-anchor="end">
		<text><tspan font-family="Helvetica" > 0.25</tspan></text>
	</g>
</g>
<g fill="none" color="black" stroke="currentColor" stroke-width="1.00" stroke-linecap="butt" stroke-linejoin="miter">
	<path stroke='black'  d='M80.2,297.4 L89.2,297.4  '/>	<g transform="translate(71.9,301.3)" stroke="none" fill="black" font-family="Helvetica" font-size="12.00"  text-anchor="end">
		<text><tspan font-family="Helvetica" > 0.3</tspan></text>
	</g>
</g>
<g fill="none" color="black" stroke="currentColor" stroke-width="1.00" stroke-linecap="butt" stroke-linejoin="miter">
	<path stroke='black'  d='M80.2,236.6 L89.2,236.6  '/>	<g transform="translate(71.9,240.5)" stroke="none" fill="black" font-family="Helvetica" font-size="12.00"  text-anchor="end">
		<text><tspan font-family="Helvetica" > 0.35</tspan></text>
	</g>
</g>
<g fill="none" color="black" stroke="currentColor" stroke-width="1.00" stroke-linecap="butt" stroke-linejoin="miter">
	<path stroke='black'  d='M80.2,175.8 L89.2,175.8  '/>	<g transform="translate(71.9,179.7)" stroke="none" fill="black" font-family="Helvetica" font-size="12.00"  text-anchor="end">
		<text><tspan font-family="Helvetica" > 0.4</tspan></text>
	</g>
</g>
<g fill="none" color="black" stroke="currentColor" stroke-width="1.00" stroke-linecap="butt" stroke-linejoin="miter">
	<path stroke='black'  d='M80.2,114.9 L89.2,114.9  '/>	<g transform="translate(71.9,118.8)" stroke="none" fill="black" font-family="Helvetica" font-size="12.00"  text-anchor="end">
		<text><tspan font-family="Helvetica" > 0.45</tspan></text>
	</g>
</g>
<g fill="none" color="black" stroke="currentColor" stroke-width="1.00" stroke-linecap="butt" stroke-linejoin="miter">
	<path stroke='black'  d='M80.2,54.1 L89.2,54.1  '/>	<g transform="translate(71.9,58.0)" stroke="none" fill="black" font-family="Helvetica" font-size="12.00"  text-anchor="end">
		<text><tspan font-family="Helvetica" > 0.5</tspan></text>
	</g>
</g>
<g fill="none" color="black" stroke="currentColor" stroke-width="1.00" stroke-linecap="butt" stroke-linejoin="miter">
	<path stroke='black'  d='M193.6,662.4 L193.6,653.4  '/>	<g transform="translate(193.6,684.3)" stroke="none" fill="black" font-family="Helvetica" font-size="12.00"  text-anchor="middle">
		<text><tspan font-family="Helvetica" > 1</tspan></text>
	</g>
</g>
<g fill="none" color="black" stroke="currentColor" stroke-width="1.00" stroke-linecap="butt" stroke-linejoin="miter">
	<path stroke='black'  d='M377.0,662.4 L377.0,653.4  '/>	<g transform="translate(377.0,684.3)" stroke="none" fill="black" font-family="Helvetica" font-size="12.00"  text-anchor="middle">
		<text><tspan font-family="Helvetica" > 2</tspan></text>
	</g>
</g>
<g fill="none" color="black" stroke="currentColor" stroke-width="1.00" stroke-linecap="butt" stroke-linejoin="miter">
	<path stroke='black'  d='M560.5,662.4 L560.5,653.4  '/>	<g transform="translate(560.5,684.3)" stroke="none" fill="black" font-family="Helvetica" font-size="12.00"  text-anchor="middle">
		<text><tspan font-family="Helvetica" > 3</tspan></text>
	</g>
</g>
<g fill="none" color="black" stroke="currentColor" stroke-width="1.00" stroke-linecap="butt" stroke-linejoin="miter">
	<path stroke='black'  d='M744.0,662.4 L744.0,653.4  '/>	<g transform="translate(744.0,684.3)" stroke="none" fill="black" font-family="Helvetica" font-size="12.00"  text-anchor="middle">
		<text><tspan font-family="Helvetica" > 4</tspan></text>
	</g>
</g>
<g fill="none" color="black" stroke="currentColor" stroke-width="1.00" stroke-linecap="butt" stroke-linejoin="miter">
	<path stroke='black'  d='M927.4,662.4 L927.4,653.4  '/>	<g transform="translate(927.4,684.3)" stroke="none" fill="black" font-family="Helvetica" font-size="12.00"  text-anchor="middle">
		<text><tspan font-family="Helvetica" > 5</tspan></text>
	</g>
</g>
<g fill="none" color="black" stroke="currentColor" stroke-width="1.00" stroke-linecap="butt" stroke-linejoin="miter">
</g>
<g fill="none" color="black" stroke="currentColor" stroke-width="1.00" stroke-linecap="butt" stroke-linejoin="miter">
	<path stroke='black'  d='M80.2,54.1 L80.2,662.4 L1013.6,662.4 L1013.6,54.1 L80.2,54.1 Z  '/></g>
<g fill="none" color="black" stroke="currentColor" stroke-width="1.00" stroke-linecap="butt" stroke-linejoin="miter">
	<g transform="translate(16.3,358.3) rotate(270)" stroke="none" fill="black" font-family="Helvetica" font-size="12.00"  text-anchor="middle">
		<text><tspan font-family="Helvetica" >Density (a.u.)</tspan></text>
	</g>
</g>
<g fill="none" color="black" stroke="currentColor" stroke-width="1.00" stroke-linecap="butt" stroke-linejoin="miter">
	<g transform="translate(546.9,711.3)" stroke="none" fill="black" font-family="Helvetica" font-size="12.00"  text-anchor="middle">
		<text><tspan font-family="Helvetica" >Average time (us)</tspan></text>
	</g>
</g>
<g fill="none" color="black" stroke="currentColor" stroke-width="1.00" stroke-linecap="butt" stroke-linejoin="miter">
	<g transform="translate(546.9,31.0)" stroke="none" fill="black" font-family="Helvetica" font-size="12.00"  text-anchor="middle">
		<text><tspan font-family="Helvetica" >snapshot_restore_with_dense/Sparse: Dirty pages + process_vm_writev/100: SD</tspan></text>
	</g>
</g>
	<g id="gnuplot_plot_1" ><title>Bootstrap distribution</title>
<g fill="none" color="white" stroke="black" stroke-width="2.00" stroke-linecap="butt" stroke-linejoin="miter">
</g>
<g fill="none" color="black" stroke="currentColor" stroke-width="2.00" stroke-linecap="butt" stroke-linejoin="miter">
	<g transform="translate(1089.0,67.0)" stroke="none" fill="black" font-family="Helvetica" font-size="12.00"  text-anchor="start">
		<text><tspan font-family="Helvetica" >Bootstrap distribution</tspan></text>
	</g>
</g>
<g fill="none" color="black" stroke="currentColor" stroke-width="2.00" stroke-linecap="butt" stroke-linejoin="miter">
	<path stroke='rgb( 31, 120, 180)'  d='M1038.5,63.1 L1080.7,63.1 M80.2,597.5 L82.1,596.0 L83.9,595.1 L85.8,594.6 L87.7,594.6 L89.6,595.1
		L91.4,596.1 L93.3,597.6 L95.2,599.4 L97.0,601.7 L98.9,604.2 L100.8,607.0 L102.6,610.1 L104.5,613.2
		L106.4,616.4 L108.3,619.6 L110.1,622.7 L112.0,625.6 L113.9,628.3 L115.7,630.8 L117.6,632.9 L119.5,634.6
		L121.4,635.9 L123.2,636.8 L125.1,637.2 L127.0,637.1 L128.8,636.5 L130.7,635.3 L132.6,633.7 L134.4,631.6
		L136.3,629.1 L138.2,626.1 L140.1,622.8 L141.9,619.2 L143.8,615.4 L145.7,611.4 L147.5,607.3 L149.4,603.3
		L151.3,599.4 L153.2,595.6 L155.0,592.2 L156.9,589.1 L158.8,586.4 L160.6,584.3 L162.5,582.7 L164.4,581.6
		L166.2,581.1 L168.1,581.2 L170.0,581.8 L171.9,582.9 L173.7,584.4 L175.6,586.3 L177.5,588.5 L179.3,590.8
		L181.2,593.3 L183.1,595.7 L185.0,598.0 L186.8,600.1 L188.7,601.9 L190.6,603.4 L192.4,604.5 L194.3,605.1
		L196.2,605.3 L198.0,604.9 L199.9,604.1 L201.8,602.7 L203.7,600.9 L205.5,598.7 L207.4,596.0 L209.3,593.1
		L211.1,589.8 L213.0,586.3 L214.9,582.6 L216.7,578.8 L218.6,575.0 L220.5,571.2 L222.4,567.4 L224.2,563.8
		L226.1,560.3 L228.0,557.1 L229.8,554.1 L231.7,551.3 L233.6,548.9 L235.5,546.7 L237.3,544.9 L239.2,543.3
		L241.1,542.0 L242.9,540.9 L244.8,540.1 L246.7,539.4 L248.5,539.0 L250.4,538.6 L252.3,538.4 L254.2,538.3
		L256.0,538.2 L257.9,538.3 L259.8,538.3 L261.6,538.5 L263.5,538.7 L265.4,539.0 L267.3,539.4 L269.1,539.9
		L271.0,540.5 L272.9,541.2 L274.7,542.0 L276.6,543.0 L278.5,544.0 L280.3,545.2 L282.2,546.4 L284.1,547.6
		L286.0,548.9 L287.8,550.1 L289.7,551.2 L291.6,552.3 L293.4,553.2 L295.3,554.0 L297.2,554.7 L299.1,555.2
		L300.9,555.6 L302.8,555.8 L304.7,555.9 L306.5,555.9 L308.4,555.8 L310.3,555.7 L312.1,555.5 L314.0,555.4
		L315.9,555.3 L317.8,555.2 L319.6,555.3 L321.5,555.5 L323.4,555.8 L325.2,556.2 L327.1,556.7 L329.0,557.4
		L330.9,558.3 L332.7,559.2 L334.6,560.3 L336.5,561.4 L338.3,562.6 L340.2,563.8 L342.1,565.1 L343.9,566.4
		L345.8,567.6 L347.7,568.7 L349.6,569.7 L351.4,570.6 L353.3,571.2 L355.2,571.7 L357.0,571.8 L358.9,571.6
		L360.8,571.1 L362.7,570.1 L364.5,568.7 L366.4,566.8 L368.3,564.4 L370.1,561.5 L372.0,558.1 L373.9,554.2
		L375.7,549.7 L377.6,544.7 L379.5,539.2 L381.4,533.3 L383.2,527.0 L385.1,520.2 L387.0,513.1 L388.8,505.8
		L390.7,498.1 L392.6,490.3 L394.5,482.2 L396.3,474.0 L398.2,465.7 L400.1,457.2 L401.9,448.7 L403.8,440.1
		L405.7,431.5 L407.5,422.7 L409.4,413.9 L411.3,405.1 L413.2,396.2 L415.0,387.2 L416.9,378.2 L418.8,369.2
		L420.6,360.2 L422.5,351.1 L424.4,342.1 L426.3,333.2 L428.1,324.4 L430.0,315.6 L431.9,307.1 L433.7,298.7
		L435.6,290.6 L437.5,282.8 L439.3,275.3 L441.2,268.1 L443.1,261.3 L445.0,254.9 L446.8,249.0 L448.7,243.4
		L450.6,238.3 L452.4,233.7 L454.3,229.5 L456.2,225.8 L458.0,222.4 L459.9,219.6 L461.8,217.1 L463.7,215.0
		L465.5,213.4 L467.4,212.1 L469.3,211.2 L471.1,210.7 L473.0,210.5 L474.9,210.8 L476.8,211.4 L478.6,212.4
		L480.5,213.8 L482.4,215.6 L484.2,217.8 L486.1,220.4 L488.0,223.5 L489.8,227.0 L491.7,230.8 L493.6,235.1
		L495.5,239.8 L497.3,244.8 L499.2,250.1 L501.1,255.7 L502.9,261.5 L504.8,267.6 L506.7,273.7 L508.6,280.0
		L510.4,286.2 L512.3,292.4 L514.2,298.6 L516.0,304.5 L517.9,310.2 L519.8,315.7 L521.6,320.8 L523.5,325.5
		L525.4,329.8 L527.3,333.6 L529.1,336.8 L531.0,339.6 L532.9,341.7 L534.7,343.2 L536.6,344.0 L538.5,344.2
		L540.4,343.7 L542.2,342.5 L544.1,340.5 L546.0,337.8 L547.8,334.4 L549.7,330.2 L551.6,325.3 L553.4,319.6
		L555.3,313.3 L557.2,306.2 L559.1,298.5 L560.9,290.3 L562.8,281.4 L564.7,272.1 L566.5,262.3 L568.4,252.1
		L570.3,241.6 L572.2,230.9 L574.0,220.1 L575.9,209.2 L577.8,198.3 L579.6,187.5 L581.5,176.8 L583.4,166.4
		L585.2,156.4 L587.1,146.6 L589.0,137.4 L590.9,128.6 L592.7,120.4 L594.6,112.7 L596.5,105.7 L598.3,99.4
		L600.2,93.7 L602.1,88.8 L604.0,84.7 L605.8,81.3 L607.7,78.7 L609.6,77.0 L611.4,76.0 L613.3,75.9
		L615.2,76.5 L617.0,78.0 L618.9,80.3 L620.8,83.4 L622.7,87.2 L624.5,91.7 L626.4,96.9 L628.3,102.8
		L630.1,109.3 L632.0,116.3 L633.9,123.9 L635.8,131.8 L637.6,140.2 L639.5,148.9 L641.4,157.8 L643.2,166.9
		L645.1,176.0 L647.0,185.2 L648.8,194.4 L650.7,203.4 L652.6,212.1 L654.5,220.6 L656.3,228.8 L658.2,236.5
		L660.1,243.8 L661.9,250.4 L663.8,256.5 L665.7,262.0 L667.5,266.7 L669.4,270.7 L671.3,274.0 L673.2,276.5
		L675.0,278.3 L676.9,279.3 L678.8,279.5 L680.6,279.0 L682.5,277.7 L684.4,275.8 L686.3,273.3 L688.1,270.2
		L690.0,266.5 L691.9,262.4 L693.7,258.0 L695.6,253.2 L697.5,248.1 L699.3,242.9 L701.2,237.6 L703.1,232.4
		L705.0,227.2 L706.8,222.2 L708.7,217.4 L710.6,213.0 L712.4,209.0 L714.3,205.4 L716.2,202.4 L718.1,199.9
		L719.9,198.0 L721.8,196.9 L723.7,196.4 L725.5,196.6 L727.4,197.5 L729.3,199.2 L731.1,201.6 L733.0,204.8
		L734.9,208.6 L736.8,213.1 L738.6,218.3 L740.5,224.1 L742.4,230.4 L744.2,237.2 L746.1,244.5 L748.0,252.2
		L749.9,260.1 L751.7,268.3 L753.6,276.7 L755.5,285.2 L757.3,293.7 L759.2,302.2 L761.1,310.5 L762.9,318.7
		L764.8,326.6 L766.7,334.2 L768.6,341.5 L770.4,348.3 L772.3,354.7 L774.2,360.6 L776.0,366.0 L777.9,370.9
		L779.8,375.2 L781.7,379.0 L783.5,382.3 L785.4,385.0 L787.3,387.3 L789.1,389.1 L791.0,390.5 L792.9,391.5
		L794.7,392.2 L796.6,392.6 L798.5,392.8 L800.4,392.8 L802.2,392.6 L804.1,392.4 L806.0,392.2 L807.8,392.0
		L809.7,392.0 L811.6,392.0 L813.5,392.3 L815.3,392.8 L817.2,393.5 L819.1,394.6 L820.9,395.9 L822.8,397.6
		L824.7,399.6 L826.5,402.0 L828.4,404.7 L830.3,407.7 L832.2,411.1 L834.0,414.7 L835.9,418.7 L837.8,422.9
		L839.6,427.4 L841.5,432.0 L843.4,436.9 L845.3,441.8 L847.1,446.9 L849.0,452.0 L850.9,457.2 L852.7,462.3
		L854.6,467.4 L856.5,472.5 L858.3,477.4 L860.2,482.3 L862.1,486.9 L864.0,491.4 L865.8,495.7 L867.7,499.8
		L869.6,503.7 L871.4,507.4 L873.3,510.8 L875.2,514.0 L877.1,516.9 L878.9,519.7 L880.8,522.2 L882.7,524.5
		L884.5,526.7 L886.4,528.6 L888.3,530.4 L890.1,532.1 L892.0,533.7 L893.9,535.2 L895.8,536.6 L897.6,538.0
		L899.5,539.4 L901.4,540.8 L903.2,542.2 L905.1,543.6 L907.0,545.1 L908.8,546.6 L910.7,548.3 L912.6,550.0
		L914.5,551.8 L916.3,553.7 L918.2,555.7 L920.1,557.8 L921.9,560.0 L923.8,562.2 L925.7,564.5 L927.6,566.9
		L929.4,569.3 L931.3,571.8 L933.2,574.2 L935.0,576.7 L936.9,579.2 L938.8,581.6 L940.6,584.0 L942.5,586.3
		L944.4,588.6 L946.3,590.8 L948.1,593.0 L950.0,595.0 L951.9,597.0 L953.7,598.8 L955.6,600.6 L957.5,602.3
		L959.4,603.9 L961.2,605.4 L963.1,606.8 L965.0,608.2 L966.8,609.4 L968.7,610.7 L970.6,611.8 L972.4,612.9
		L974.3,614.0 L976.2,615.1 L978.1,616.1 L979.9,617.1 L981.8,618.2 L983.7,619.2 L985.5,620.2 L987.4,621.2
		L989.3,622.2 L991.2,623.2 L993.0,624.3 L994.9,625.3 L996.8,626.4 L998.6,627.4 L1000.5,628.5 L1002.4,629.6
		L1004.2,630.7 L1006.1,631.7 L1008.0,632.8 L1009.9,633.8 L1011.7,634.8 L1013.6,635.8  '/></g>
	</g>
	<g id="gnuplot_plot_2" ><title>Confidence interval</title>
<g fill="none" color="white" stroke="rgb( 31, 120, 180)" stroke-width="1.00" stroke-linecap="butt" stroke-linejoin="miter">
</g>
<g fill="none" color="black" stroke="currentColor" stroke-width="1.00" stroke-linecap="butt" stroke-linejoin="miter">
	<g transform="translate(1089.0,85.0)" stroke="none" fill="black" font-family="Helvetica" font-size="12.00"  text-anchor="start">
		<text><tspan font-family="Helvetica" >Confidence interval</tspan></text>
	</g>
</g>
<g fill="none" color="black" stroke="currentColor" stroke-width="1.00" stroke-linecap="butt" stroke-linejoin="miter">
	<g stroke='none' shape-rendering='crispEdges'>
		<polygon fill = 'rgb( 31, 120, 180)' fill-opacity = '0.250000' points = '1038.5,85.6 1080.7,85.6 1080.7,76.6 1038.5,76.6 '/>
		<polygon fill = 'rgb( 31, 120, 180)' fill-opacity = '0.250000' points = '166.2,581.1 168.1,581.2 170.0,581.8 171.9,582.9 173.7,584.4 175.6,586.3 177.5,588.5 179.3,590.8 181.2,593.3 183.1,595.7 185.0,598.0 186.8,600.1 188.7,601.9 190.6,603.4 192.4,604.5 194.3,605.1
196.2,605.3 198.0,604.9 199.9,604.1 201.8,602.7 203.7,600.9 205.5,598.7 207.4,596.0 209.3,593.1 211.1,589.8 213.0,586.3 214.9,582.6 216.7,578.8 218.6,575.0 220.5,571.2 222.4,567.4 224.2,563.8
226.1,560.3 228.0,557.1 229.8,554.1 231.7,551.3 233.6,548.9 235.5,546.7 237.3,544.9 239.2,543.3 241.1,542.0 242.9,540.9 244.8,540.1 246.7,539.4 248.5,539.0 250.4,538.6 252.3,538.4 254.2,538.3
256.0,538.2 257.9,538.3 259.8,538.3 261.6,538.5 263.5,538.7 265.4,539.0 267.3,539.4 269.1,539.9 271.0,540.5 272.9,541.2 274.7,542.0 276.6,543.0 278.5,544.0 280.3,545.2 282.2,546.4 284.1,547.6
286.0,548.9 287.8,550.1 289.7,551.2 291.6,552.3 293.4,553.2 295.3,554.0 297.2,554.7 299.1,555.2 300.9,555.6 302.8,555.8 304.7,555.9 306.5,555.9 308.4,555.8 310.3,555.7 312.1,555.5 314.0,555.4
315.9,555.3 317.8,555.2 319.6,555.3 321.5,555.5 323.4,555.8 325.2,556.2 327.1,556.7 329.0,557.4 330.9,558.3 332.7,559.2 334.6,560.3 336.5,561.4 338.3,562.6 340.2,563.8 342.1,565.1 343.9,566.4
345.8,567.6 347.7,568.7 349.6,569.7 351.4,570.6 353.3,571.2 355.2,571.7 357.0,571.8 358.9,571.6 360.8,571.1 362.7,570.1 364.5,568.7 366.4,566.8 368.3,564.4 370.1,561.5 372.0,558.1 373.9,554.2
375.7,549.7 377.6,544.7 379.5,539.2 381.4,533.3 383.2,527.0 385.1,520.2 387.0,513.1 388.8,505.8 390.7,498.1 392.6,490.3 394.5,482.2 396.3,474.0 398.2,465.7 400.1,457.2 401.9,448.7 403.8,440.1
405.7,431.5 407.5,422.7 409.4,413.9 411.3,405.1 413.2,396.2 415.0,387.2 416.9,378.2 418.8,369.2 420.6,360.2 422.5,351.1 424.4,342.1 426.3,333.2 428.1,324.4 430.0,315.6 431.9,307.1 433.7,298.7
435.6,290.6 437.5,282.8 439.3,275.3 441.2,268.1 443.1,261.3 445.0,254.9 446.8,249.0 448.7,243.4 450.6,238.3 452.4,233.7 454.3,229.5 456.2,225.8 458.0,222.4 459.9,219.6 461.8,217.1 463.7,215.0
465.5,213.4 467.4,212.1 469.3,211.2 471.1,210.7 473.0,210.5 474.9,210.8 476.8,211.4 478.6,212.4 480.5,213.8 482.4,215.6 484.2,217.8 486.1,220.4 488.0,223.5 489.8,227.0 491.7,230.8 493.6,235.1
495.5,239.8 497.3,244.8 499.2,250.1 501.1,255.7 502.9,261.5 504.8,267.6 506.7,273.7 508.6,280.0 510.4,286.2 512.3,292.4 514.2,298.6 516.0,304.5 517.9,310.2 519.8,315.7 521.6,320.8 523.5,325.5
525.4,329.8 527.3,333.6 529.1,336.8 531.0,339.6 532.9,341.7 534.7,343.2 536.6,344.0 538.5,344.2 540.4,343.7 542.2,342.5 544.1,340.5 546.0,337.8 547.8,334.4 549.7,330.2 551.6,325.3 553.4,319.6
555.3,313.3 557.2,306.2 559.1,298.5 560.9,290.3 562.8,281.4 564.7,272.1 566.5,262.3 568.4,252.1 570.3,241.6 572.2,230.9 574.0,220.1 575.9,209.2 577.8,198.3 579.6,187.5 581.5,176.8 583.4,166.4
585.2,156.4 587.1,146.6 589.0,137.4 590.9,128.6 592.7,120.4 594.6,112.7 596.5,105.7 598.3,99.4 600.2,93.7 602.1,88.8 604.0,84.7 605.8,81.3 607.7,78.7 609.6,77.0 611.4,76.0 613.3,75.9
615.2,76.5 617.0,78.0 618.9,80.3 620.8,83.4 622.7,87.2 624.5,91.7 626.4,96.9 628.3,102.8 630.1,109.3 632.0,116.3 633.9,123.9 635.8,131.8 637.6,140.2 639.5,148.9 641.4,157.8 643.2,166.9
645.1,176.0 647.0,185.2 648.8,194.4 650.7,203.4 652.6,212.1 654.5,220.6 656.3,228.8 658.2,236.5 660.1,243.8 661.9,250.4 663.8,256.5 665.7,262.0 667.5,266.7 669.4,270.7 671.3,274.0 673.2,276.5
675.0,278.3 676.9,279.3 678.8,279.5 680.6,279.0 682.5,277.7 684.4,275.8 686.3,273.3 688.1,270.2 690.0,266.5 691.9,262.4 693.7,258.0 695.6,253.2 697.5,248.1 699.3,242.9 701.2,237.6 703.1,232.4
705.0,227.2 706.8,222.2 708.7,217.4 710.6,213.0 712.4,209.0 714.3,205.4 716.2,202.4 718.1,199.9 719.9,198.0 721.8,196.9 723.7,196.4 725.5,196.6 727.4,197.5 729.3,199.2 731.1,201.6 733.0,204.8
734.9,208.6 736.8,213.1 738.6,218.3 740.5,224.1 742.4,230.4 744.2,237.2 746.1,244.5 748.0,252.2 749.9,260.1 751.7,268.3 753.6,276.7 755.5,285.2 757.3,293.7 759.2,302.2 761.1,310.5 762.9,318.7
764.8,326.6 766.7,334.2 768.6,341.5 770.4,348.3 772.3,354.7 774.2,360.6 776.0,366.0 777.9,370.9 779.8,375.2 781.7,379.0 783.5,382.3 785.4,385.0 787.3,387.3 789.1,389.1 791.0,390.5 792.9,391.5
794.7,392.2 796.6,392.6 798.5,392.8 800.4,392.8 802.2,392.6 804.1,392.4 806.0,392.2 807.8,392.0 809.7,392.0 811.6,392.0 813.5,392.3 815.3,392.8 817.2,393.5 819.1,394.6 820.9,395.9 822.8,397.6
824.7,399.6 826.5,402.0 828.4,404.7 830.3,407.7 832.2,411.1 834.0,414.7 835.9,418.7 837.8,422.9 839.6,427.4 841.5,432.0 843.4,436.9 845.3,441.8 847.1,446.9 849.0,452.0 850.9,457.2 852.7,462.3
854.6,467.4 856.5,472.5 858.3,477.4 860.2,482.3 862.1,486.9 864.0,491.4 865.8,495.7 867.7,499.8 869.6,503.7 871.4,507.4 873.3,510.8 875.2,514.0 877.1,516.9 878.9,519.7 880.8,522.2 882.7,524.5
884.5,526.7 886.4,528.6 888.3,530.4 890.1,532.1 892.0,533.7 893.9,535.2 895.8,536.6 897.6,538.0 899.5,539.4 901.4,540.8 903.2,542.2 905.1,543.6 907.0,545.1 908.8,546.6 910.7,548.3 912.6,550.0
914.5,551.8 916.3,553.7 918.2,555.7 920.1,557.8 921.9,560.0 923.8,562.2 925.7,564.5 925.7,662.4 923.8,662.4 921.9,662.4 920.1,662.4 918.2,662.4 916.3,662.4 914.5,662.4 912.6,662.4 910.7,662.4
908.8,662.4 907.0,662.4 905.1,662.4 903.2,662.4 901.4,662.4 899.5,662.4 897.6,662.4 895.8,662.4 893.9,662.4 892.0,662.4 890.1,662.4 888.3,662.4 886.4,662.4 884.5,662.4 882.7,662.4 880.8,662.4
878.9,662.4 877.1,662.4 875.2,662.4 873.3,662.4 871.4,662.4 869.6,662.4 867.7,662.4 865.8,662.4 864.0,662.4 862.1,662.4 860.2,662.4 858.3,662.4 856.5,662.4 854.6,662.4 852.7,662.4 850.9,662.4
849.0,662.4 847.1,662.4 845.3,662.4 843.4,662.4 841.5,662.4 839.6,662.4 837.8,662.4 835.9,662.4 834.0,662.4 832.2,662.4 830.3,662.4 828.4,662.4 826.5,662.4 824.7,662.4 822.8,662.4 820.9,662.4
819.1,662.4 817.2,662.4 815.3,662.4 813.5,662.4 811.6,662.4 809.7,662.4 807.8,662.4 806.0,662.4 804.1,662.4 802.2,662.4 800.4,662.4 798.5,662.4 796.6,662.4 794.7,662.4 792.9,662.4 791.0,662.4
789.1,662.4 787.3,662.4 785.4,662.4 783.5,662.4 781.7,662.4 779.8,662.4 777.9,662.4 776.0,662.4 774.2,662.4 772.3,662.4 770.4,662.4 768.6,662.4 766.7,662.4 764.8,662.4 762.9,662.4 761.1,662.4
759.2,662.4 757.3,662.4 755.5,662.4 753.6,662.4 751.7,662.4 749.9,662.4 748.0,662.4 746.1,662.4 744.2,662.4 742.4,662.4 740.5,662.4 738.6,662.4 736.8,662.4 734.9,662.4 733.0,662.4 731.1,662.4
729.3,662.4 727.4,662.4 725.5,662.4 723.7,662.4 721.8,662.4 719.9,662.4 718.1,662.4 716.2,662.4 714.3,662.4 712.4,662.4 710.6,662.4 708.7,662.4 706.8,662.4 705.0,662.4 703.1,662.4 701.2,662.4
699.3,662.4 697.5,662.4 695.6,662.4 693.7,662.4 691.9,662.4 690.0,662.4 688.1,662.4 686.3,662.4 684.4,662.4 682.5,662.4 680.6,662.4 678.8,662.4 676.9,662.4 675.0,662.4 673.2,662.4 671.3,662.4
669.4,662.4 667.5,662.4 665.7,662.4 663.8,662.4 661.9,662.4 660.1,662.4 658.2,662.4 656.3,662.4 654.5,662.4 652.6,662.4 650.7,662.4 648.8,662.4 647.0,662.4 645.1,662.4 643.2,662.4 641.4,662.4
639.5,662.4 637.6,662.4 635.8,662.4 633.9,662.4 632.0,662.4 630.1,662.4 628.3,662.4 626.4,662.4 624.5,662.4 622.7,662.4 620.8,662.4 618.9,662.4 617.0,662.4 615.2,662.4 613.3,662.4 611.4,662.4
609.6,662.4 607.7,662.4 605.8,662.4 604.0,662.4 602.1,662.4 600.2,662.4 598.3,662.4 596.5,662.4 594.6,662.4 592.7,662.4 590.9,662.4 589.0,662.4 587.1,662.4 585.2,662.4 583.4,662.4 581.5,662.4
579.6,662.4 577.8,662.4 575.9,662.4 574.0,662.4 572.2,662.4 570.3,662.4 568.4,662.4 566.5,662.4 564.7,662.4 562.8,662.4 560.9,662.4 559.1,662.4 557.2,662.4 555.3,662.4 553.4,662.4 551.6,662.4
549.7,662.4 547.8,662.4 546.0,662.4 544.1,662.4 542.2,662.4 540.4,662.4 538.5,662.4 536.6,662.4 534.7,662.4 532.9,662.4 531.0,662.4 529.1,662.4 527.3,662.4 525.4,662.4 523.5,662.4 521.6,662.4
519.8,662.4 517.9,662.4 516.0,662.4 514.2,662.4 512.3,662.4 510.4,662.4 508.6,662.4 506.7,662.4 504.8,662.4 502.9,662.4 501.1,662.4 499.2,662.4 497.3,662.4 495.5,662.4 493.6,662.4 491.7,662.4
489.8,662.4 488.0,662.4 486.1,662.4 484.2,662.4 482.4,662.4 480.5,662.4 478.6,662.4 476.8,662.4 474.9,662.4 473.0,662.4 471.1,662.4 469.3,662.4 467.4,662.4 465.5,662.4 463.7,662.4 461.8,662.4
459.9,662.4 458.0,662.4 456.2,662.4 454.3,662.4 452.4,662.4 450.6,662.4 448.7,662.4 446.8,662.4 445.0,662.4 443.1,662.4 441.2,662.4 439.3,662.4 437.5,662.4 435.6,662.4 433.7,662.4 431.9,662.4
430.0,662.4 428.1,662.4 426.3,662.4 424.4,662.4 422.5,662.4 420.6,662.4 418.8,662.4 416.9,662.4 415.0,662.4 413.2,662.4 411.3,662.4 409.4,662.4 407.5,662.4 405.7,662.4 403.8,662.4 401.9,662.4
400.1,662.4 398.2,662.4 396.3,662.4 394.5,662.4 392.6,662.4 390.7,662.4 388.8,662.4 387.0,662.4 385.1,662.4 383.2,662.4 381.4,662.4 379.5,662.4 377.6,662.4 375.7,662.4 373.9,662.4 372.0,662.4
370.1,662.4 368.3,662.4 366.4,662.4 364.5,662.4 362.7,662.4 360.8,662.4 358.9,662.4 357.0,662.4 355.2,662.4 353.3,662.4 351.4,662.4 349.6,662.4 347.7,662.4 345.8,662.4 343.9,662.4 342.1,662.4
340.2,662.4 338.3,662.4 336.5,662.4 334.6,662.4 332.7,662.4 330.9,662.4 329.0,662.4 327.1,662.4 325.2,662.4 323.4,662.4 321.5,662.4 319.6,662.4 317.8,662.4 315.9,662.4 314.0,662.4 312.1,662.4
310.3,662.4 308.4,662.4 306.5,662.4 304.7,662.4 302.8,662.4 300.9,662.4 299.1,662.4 297.2,662.4 295.3,662.4 293.4,662.4 291.6,662.4 289.7,662.4 287.8,662.4 286.0,662.4 284.1,662.4 282.2,662.4
280.3,662.4 278.5,662.4 276.6,662.4 274.7,662.4 272.9,662.4 271.0,662.4 269.1,662.4 267.3,662.4 265.4,662.4 263.5,662.4 261.6,662.4 259.8,662.4 257.9,662.4 256.0,662.4 254.2,662.4 252.3,662.4
250.4,662.4 248.5,662.4 246.7,662.4 244.8,662.4 242.9,662.4 241.1,662.4 239.2,662.4 237.3,662.4 235.5,662.4 233.6,662.4 231.7,662.4 229.8,662.4 228.0,662.4 226.1,662.4 224.2,662.4 222.4,662.4
220.5,662.4 218.6,662.4 216.7,662.4 214.9,662.4 213.0,662.4 211.1,662.4 209.3,662.4 207.4,662.4 205.5,662.4 203.7,662.4 201.8,662.4 199.9,662.4 198.0,662.4 196.2,662.4 194.3,662.4 192.4,662.4
190.6,662.4 188.7,662.4 186.8,662.4 185.0,662.4 183.1,662.4 181.2,662.4 179.3,662.4 177.5,662.4 175.6,662.4 173.7,662.4 171.9,662.4 170.0,662.4 168.1,662.4 166.2,662.4 '/>
	</g>
</g>
	</g>
	<g id="gnuplot_plot_3" ><title>Point estimate</title>
<g fill="none" color="white" stroke="rgb( 31, 120, 180)" stroke-width="2.00" stroke-linecap="butt" stroke-linejoin="miter">
</g>
<g fill="none" color="black" stroke="currentColor" stroke-width="2.00" stroke-linecap="butt" stroke-linejoin="miter">
	<g transform="translate(1089.0,103.0)" stroke="none" fill="black" font-family="Helvetica" font-size="12.00"  text-anchor="start">
		<text><tspan font-family="Helvetica" >Point estimate</tspan></text>
	</g>
</g>
<g fill="none" color="black" stroke="currentColor" stroke-width="2.00" stroke-linecap="butt" stroke-linejoin="miter">
	<path stroke='rgb( 31, 120, 180)'  d='M1038.5,99.1 L1080.7,99.1 M625.4,662.4 L625.4,94.2  '/></g>
	</g>
<g fill="none" color="black" stroke="currentColor" stroke-width="2.00" stroke-linecap="butt" stroke-linejoin="miter">
</g>
<g fill="none" color="black" stroke="black" stroke-width="1.00" stroke-linecap="butt" stroke-linejoin="miter">
</g>
<g fill="none" color="black" stroke="currentColor" stroke-width="1.00" stroke-linecap="butt" stroke-linejoin="miter">
	<path stroke='black'  d='M80.2,54.1 L80.2,662.4 L1013.6,662.4 L1013.6,54.1 L80.2,54.1 Z  '/></g>
<g fill="none" color="black" stroke="currentColor" stroke-width="1.00" stroke-linecap="butt" stroke-linejoin="miter">
</g>
</g>
</svg>

