<?xml version="1.0" encoding="utf-8"  standalone="no"?>
<svg 
 viewBox="0 0 1280 720"
 xmlns="http://www.w3.org/2000/svg"
 xmlns:xlink="http://www.w3.org/1999/xlink"
>

<title>Gnuplot</title>
<desc>Produced by GNUPLOT 5.2 patchlevel 6 </desc>

<g id="gnuplot_canvas">

<rect x="0" y="0" width="1280" height="720" fill="none"/>
<defs>

	<circle id='gpDot' r='0.5' stroke-width='0.5' stroke='currentColor'/>
	<path id='gpPt0' stroke-width='0.222' stroke='currentColor' d='M-1,0 h2 M0,-1 v2'/>
	<path id='gpPt1' stroke-width='0.222' stroke='currentColor' d='M-1,-1 L1,1 M1,-1 L-1,1'/>
	<path id='gpPt2' stroke-width='0.222' stroke='currentColor' d='M-1,0 L1,0 M0,-1 L0,1 M-1,-1 L1,1 M-1,1 L1,-1'/>
	<rect id='gpPt3' stroke-width='0.222' stroke='currentColor' x='-1' y='-1' width='2' height='2'/>
	<rect id='gpPt4' stroke-width='0.222' stroke='currentColor' fill='currentColor' x='-1' y='-1' width='2' height='2'/>
	<circle id='gpPt5' stroke-width='0.222' stroke='currentColor' cx='0' cy='0' r='1'/>
	<use xlink:href='#gpPt5' id='gpPt6' fill='currentColor' stroke='none'/>
	<path id='gpPt7' stroke-width='0.222' stroke='currentColor' d='M0,-1.33 L-1.33,0.67 L1.33,0.67 z'/>
	<use xlink:href='#gpPt7' id='gpPt8' fill='currentColor' stroke='none'/>
	<use xlink:href='#gpPt7' id='gpPt9' stroke='currentColor' transform='rotate(180)'/>
	<use xlink:href='#gpPt9' id='gpPt10' fill='currentColor' stroke='none'/>
	<use xlink:href='#gpPt3' id='gpPt11' stroke='currentColor' transform='rotate(45)'/>
	<use xlink:href='#gpPt11' id='gpPt12' fill='currentColor' stroke='none'/>
	<path id='gpPt13' stroke-width='0.222' stroke='currentColor' d='M0,1.330 L1.265,0.411 L0.782,-1.067 L-0.782,-1.076 L-1.265,0.411 z'/>
	<use xlink:href='#gpPt13' id='gpPt14' fill='currentColor' stroke='none'/>
	<filter id='textbox' filterUnits='objectBoundingBox' x='0' y='0' height='1' width='1'>
	  <feFlood flood-color='white' flood-opacity='1' result='bgnd'/>
	  <feComposite in='SourceGraphic' in2='bgnd' operator='atop'/>
	</filter>
	<filter id='greybox' filterUnits='objectBoundingBox' x='0' y='0' height='1' width='1'>
	  <feFlood flood-color='lightgrey' flood-opacity='1' result='grey'/>
	  <feComposite in='SourceGraphic' in2='grey' operator='atop'/>
	</filter>
</defs>
<g fill="none" color="white" stroke="currentColor" stroke-width="1.00" stroke-linecap="butt" stroke-linejoin="miter">
</g>
<g fill="none" color="black" stroke="currentColor" stroke-width="1.00" stroke-linecap="butt" stroke-linejoin="miter">
	<path stroke='black'  d='M80.2,662.4 L89.2,662.4  '/>	<g transform="translate(71.9,666.3)" stroke="none" fill="black" font-family="Helvetica" font-size="12.00"  text-anchor="end">
		<text><tspan font-family="Helvetica" > 0</tspan></text>
	</g>
</g>
<g fill="none" color="black" stroke="currentColor" stroke-width="1.00" stroke-linecap="butt" stroke-linejoin="miter">
	<path stroke='black'  d='M80.2,594.8 L89.2,594.8  '/>	<g transform="translate(71.9,598.7)" stroke="none" fill="black" font-family="Helvetica" font-size="12.00"  text-anchor="end">
		<text><tspan font-family="Helvetica" > 0.02</tspan></text>
	</g>
</g>
<g fill="none" color="black" stroke="currentColor" stroke-width="1.00" stroke-linecap="butt" stroke-linejoin="miter">
	<path stroke='black'  d='M80.2,527.2 L89.2,527.2  '/>	<g transform="translate(71.9,531.1)" stroke="none" fill="black" font-family="Helvetica" font-size="12.00"  text-anchor="end">
		<text><tspan font-family="Helvetica" > 0.04</tspan></text>
	</g>
</g>
<g fill="none" color="black" stroke="currentColor" stroke-width="1.00" stroke-linecap="butt" stroke-linejoin="miter">
	<path stroke='black'  d='M80.2,459.6 L89.2,459.6  '/>	<g transform="translate(71.9,463.5)" stroke="none" fill="black" font-family="Helvetica" font-size="12.00"  text-anchor="end">
		<text><tspan font-family="Helvetica" > 0.06</tspan></text>
	</g>
</g>
<g fill="none" color="black" stroke="currentColor" stroke-width="1.00" stroke-linecap="butt" stroke-linejoin="miter">
	<path stroke='black'  d='M80.2,392.0 L89.2,392.0  '/>	<g transform="translate(71.9,395.9)" stroke="none" fill="black" font-family="Helvetica" font-size="12.00"  text-anchor="end">
		<text><tspan font-family="Helvetica" > 0.08</tspan></text>
	</g>
</g>
<g fill="none" color="black" stroke="currentColor" stroke-width="1.00" stroke-linecap="butt" stroke-linejoin="miter">
	<path stroke='black'  d='M80.2,324.5 L89.2,324.5  '/>	<g transform="translate(71.9,328.4)" stroke="none" fill="black" font-family="Helvetica" font-size="12.00"  text-anchor="end">
		<text><tspan font-family="Helvetica" > 0.1</tspan></text>
	</g>
</g>
<g fill="none" color="black" stroke="currentColor" stroke-width="1.00" stroke-linecap="butt" stroke-linejoin="miter">
	<path stroke='black'  d='M80.2,256.9 L89.2,256.9  '/>	<g transform="translate(71.9,260.8)" stroke="none" fill="black" font-family="Helvetica" font-size="12.00"  text-anchor="end">
		<text><tspan font-family="Helvetica" > 0.12</tspan></text>
	</g>
</g>
<g fill="none" color="black" stroke="currentColor" stroke-width="1.00" stroke-linecap="butt" stroke-linejoin="miter">
	<path stroke='black'  d='M80.2,189.3 L89.2,189.3  '/>	<g transform="translate(71.9,193.2)" stroke="none" fill="black" font-family="Helvetica" font-size="12.00"  text-anchor="end">
		<text><tspan font-family="Helvetica" > 0.14</tspan></text>
	</g>
</g>
<g fill="none" color="black" stroke="currentColor" stroke-width="1.00" stroke-linecap="butt" stroke-linejoin="miter">
	<path stroke='black'  d='M80.2,121.7 L89.2,121.7  '/>	<g transform="translate(71.9,125.6)" stroke="none" fill="black" font-family="Helvetica" font-size="12.00"  text-anchor="end">
		<text><tspan font-family="Helvetica" > 0.16</tspan></text>
	</g>
</g>
<g fill="none" color="black" stroke="currentColor" stroke-width="1.00" stroke-linecap="butt" stroke-linejoin="miter">
	<path stroke='black'  d='M80.2,54.1 L89.2,54.1  '/>	<g transform="translate(71.9,58.0)" stroke="none" fill="black" font-family="Helvetica" font-size="12.00"  text-anchor="end">
		<text><tspan font-family="Helvetica" > 0.18</tspan></text>
	</g>
</g>
<g fill="none" color="black" stroke="currentColor" stroke-width="1.00" stroke-linecap="butt" stroke-linejoin="miter">
	<path stroke='black'  d='M176.0,662.4 L176.0,653.4  '/>	<g transform="translate(176.0,684.3)" stroke="none" fill="black" font-family="Helvetica" font-size="12.00"  text-anchor="middle">
		<text><tspan font-family="Helvetica" > 12</tspan></text>
	</g>
</g>
<g fill="none" color="black" stroke="currentColor" stroke-width="1.00" stroke-linecap="butt" stroke-linejoin="miter">
	<path stroke='black'  d='M352.0,662.4 L352.0,653.4  '/>	<g transform="translate(352.0,684.3)" stroke="none" fill="black" font-family="Helvetica" font-size="12.00"  text-anchor="middle">
		<text><tspan font-family="Helvetica" > 14</tspan></text>
	</g>
</g>
<g fill="none" color="black" stroke="currentColor" stroke-width="1.00" stroke-linecap="butt" stroke-linejoin="miter">
	<path stroke='black'  d='M528.0,662.4 L528.0,653.4  '/>	<g transform="translate(528.0,684.3)" stroke="none" fill="black" font-family="Helvetica" font-size="12.00"  text-anchor="middle">
		<text><tspan font-family="Helvetica" > 16</tspan></text>
	</g>
</g>
<g fill="none" color="black" stroke="currentColor" stroke-width="1.00" stroke-linecap="butt" stroke-linejoin="miter">
	<path stroke='black'  d='M703.9,662.4 L703.9,653.4  '/>	<g transform="translate(703.9,684.3)" stroke="none" fill="black" font-family="Helvetica" font-size="12.00"  text-anchor="middle">
		<text><tspan font-family="Helvetica" > 18</tspan></text>
	</g>
</g>
<g fill="none" color="black" stroke="currentColor" stroke-width="1.00" stroke-linecap="butt" stroke-linejoin="miter">
	<path stroke='black'  d='M879.9,662.4 L879.9,653.4  '/>	<g transform="translate(879.9,684.3)" stroke="none" fill="black" font-family="Helvetica" font-size="12.00"  text-anchor="middle">
		<text><tspan font-family="Helvetica" > 20</tspan></text>
	</g>
</g>
<g fill="none" color="black" stroke="currentColor" stroke-width="1.00" stroke-linecap="butt" stroke-linejoin="miter">
</g>
<g fill="none" color="black" stroke="currentColor" stroke-width="1.00" stroke-linecap="butt" stroke-linejoin="miter">
	<path stroke='black'  d='M80.2,54.1 L80.2,662.4 L1013.6,662.4 L1013.6,54.1 L80.2,54.1 Z  '/></g>
<g fill="none" color="black" stroke="currentColor" stroke-width="1.00" stroke-linecap="butt" stroke-linejoin="miter">
	<g transform="translate(16.3,358.3) rotate(270)" stroke="none" fill="black" font-family="Helvetica" font-size="12.00"  text-anchor="middle">
		<text><tspan font-family="Helvetica" >Density (a.u.)</tspan></text>
	</g>
</g>
<g fill="none" color="black" stroke="currentColor" stroke-width="1.00" stroke-linecap="butt" stroke-linejoin="miter">
	<g transform="translate(546.9,711.3)" stroke="none" fill="black" font-family="Helvetica" font-size="12.00"  text-anchor="middle">
		<text><tspan font-family="Helvetica" >Average time (ns)</tspan></text>
	</g>
</g>
<g fill="none" color="black" stroke="currentColor" stroke-width="1.00" stroke-linecap="butt" stroke-linejoin="miter">
	<g transform="translate(546.9,31.0)" stroke="none" fill="black" font-family="Helvetica" font-size="12.00"  text-anchor="middle">
		<text><tspan font-family="Helvetica" >snapshot_restore_with_dense/Sparse: Dirty pages + process_vm_writev/2: MAD</tspan></text>
	</g>
</g>
	<g id="gnuplot_plot_1" ><title>Bootstrap distribution</title>
<g fill="none" color="white" stroke="black" stroke-width="2.00" stroke-linecap="butt" stroke-linejoin="miter">
</g>
<g fill="none" color="black" stroke="currentColor" stroke-width="2.00" stroke-linecap="butt" stroke-linejoin="miter">
	<g transform="translate(1089.0,67.0)" stroke="none" fill="black" font-family="Helvetica" font-size="12.00"  text-anchor="start">
		<text><tspan font-family="Helvetica" >Bootstrap distribution</tspan></text>
	</g>
</g>
<g fill="none" color="black" stroke="currentColor" stroke-width="2.00" stroke-linecap="butt" stroke-linejoin="miter">
	<path stroke='rgb( 31, 120, 180)'  d='M1038.5,63.1 L1080.7,63.1 M80.2,631.9 L82.1,631.1 L83.9,630.2 L85.8,629.3 L87.7,628.4 L89.6,627.5
		L91.4,626.4 L93.3,625.4 L95.2,624.3 L97.0,623.1 L98.9,621.8 L100.8,620.4 L102.6,619.0 L104.5,617.5
		L106.4,615.8 L108.3,614.1 L110.1,612.3 L112.0,610.3 L113.9,608.2 L115.7,606.1 L117.6,603.8 L119.5,601.4
		L121.4,598.9 L123.2,596.3 L125.1,593.7 L127.0,590.9 L128.8,588.1 L130.7,585.2 L132.6,582.3 L134.4,579.4
		L136.3,576.4 L138.2,573.4 L140.1,570.4 L141.9,567.5 L143.8,564.6 L145.7,561.7 L147.5,559.0 L149.4,556.3
		L151.3,553.6 L153.2,551.1 L155.0,548.7 L156.9,546.4 L158.8,544.2 L160.6,542.1 L162.5,540.1 L164.4,538.2
		L166.2,536.4 L168.1,534.6 L170.0,532.9 L171.9,531.2 L173.7,529.6 L175.6,527.9 L177.5,526.2 L179.3,524.5
		L181.2,522.7 L183.1,520.8 L185.0,518.8 L186.8,516.7 L188.7,514.5 L190.6,512.2 L192.4,509.8 L194.3,507.2
		L196.2,504.6 L198.0,501.8 L199.9,498.9 L201.8,496.0 L203.7,493.0 L205.5,490.0 L207.4,486.9 L209.3,483.8
		L211.1,480.8 L213.0,477.8 L214.9,474.9 L216.7,472.0 L218.6,469.3 L220.5,466.6 L222.4,464.1 L224.2,461.7
		L226.1,459.5 L228.0,457.4 L229.8,455.4 L231.7,453.5 L233.6,451.8 L235.5,450.2 L237.3,448.7 L239.2,447.2
		L241.1,445.8 L242.9,444.4 L244.8,443.0 L246.7,441.6 L248.5,440.1 L250.4,438.5 L252.3,436.7 L254.2,434.8
		L256.0,432.8 L257.9,430.5 L259.8,428.0 L261.6,425.3 L263.5,422.3 L265.4,419.1 L267.3,415.5 L269.1,411.8
		L271.0,407.7 L272.9,403.4 L274.7,398.8 L276.6,394.0 L278.5,389.0 L280.3,383.8 L282.2,378.4 L284.1,372.9
		L286.0,367.2 L287.8,361.5 L289.7,355.8 L291.6,350.0 L293.4,344.3 L295.3,338.6 L297.2,333.0 L299.1,327.5
		L300.9,322.2 L302.8,317.0 L304.7,312.1 L306.5,307.3 L308.4,302.7 L310.3,298.4 L312.1,294.3 L314.0,290.4
		L315.9,286.8 L317.8,283.4 L319.6,280.1 L321.5,277.1 L323.4,274.2 L325.2,271.5 L327.1,268.9 L329.0,266.4
		L330.9,263.9 L332.7,261.4 L334.6,258.9 L336.5,256.4 L338.3,253.7 L340.2,250.9 L342.1,248.0 L343.9,244.8
		L345.8,241.5 L347.7,237.9 L349.6,234.1 L351.4,230.1 L353.3,225.8 L355.2,221.4 L357.0,216.8 L358.9,212.1
		L360.8,207.4 L362.7,202.6 L364.5,197.9 L366.4,193.3 L368.3,188.9 L370.1,184.7 L372.0,180.8 L373.9,177.2
		L375.7,174.1 L377.6,171.3 L379.5,169.1 L381.4,167.2 L383.2,165.9 L385.1,165.0 L387.0,164.5 L388.8,164.4
		L390.7,164.7 L392.6,165.2 L394.5,166.0 L396.3,166.9 L398.2,167.9 L400.1,168.9 L401.9,169.8 L403.8,170.5
		L405.7,171.0 L407.5,171.1 L409.4,170.9 L411.3,170.2 L413.2,169.1 L415.0,167.4 L416.9,165.2 L418.8,162.4
		L420.6,159.1 L422.5,155.2 L424.4,150.8 L426.3,146.0 L428.1,140.8 L430.0,135.2 L431.9,129.4 L433.7,123.3
		L435.6,117.2 L437.5,111.1 L439.3,105.0 L441.2,99.1 L443.1,93.4 L445.0,88.0 L446.8,83.0 L448.7,78.3
		L450.6,74.1 L452.4,70.3 L454.3,67.1 L456.2,64.3 L458.0,62.0 L459.9,60.3 L461.8,59.0 L463.7,58.3
		L465.5,58.1 L467.4,58.3 L469.3,59.0 L471.1,60.1 L473.0,61.7 L474.9,63.6 L476.8,66.0 L478.6,68.6
		L480.5,71.6 L482.4,74.8 L484.2,78.2 L486.1,81.7 L488.0,85.3 L489.8,88.8 L491.7,92.3 L493.6,95.6
		L495.5,98.6 L497.3,101.2 L499.2,103.5 L501.1,105.3 L502.9,106.6 L504.8,107.3 L506.7,107.4 L508.6,106.9
		L510.4,105.9 L512.3,104.4 L514.2,102.4 L516.0,100.0 L517.9,97.3 L519.8,94.3 L521.6,91.3 L523.5,88.3
		L525.4,85.4 L527.3,82.8 L529.1,80.5 L531.0,78.6 L532.9,77.3 L534.7,76.5 L536.6,76.5 L538.5,77.0
		L540.4,78.3 L542.2,80.2 L544.1,82.8 L546.0,85.9 L547.8,89.5 L549.7,93.5 L551.6,97.8 L553.4,102.2
		L555.3,106.7 L557.2,111.2 L559.1,115.5 L560.9,119.5 L562.8,123.2 L564.7,126.4 L566.5,129.0 L568.4,131.1
		L570.3,132.6 L572.2,133.4 L574.0,133.7 L575.9,133.3 L577.8,132.4 L579.6,131.1 L581.5,129.3 L583.4,127.1
		L585.2,124.7 L587.1,122.2 L589.0,119.5 L590.9,116.9 L592.7,114.4 L594.6,112.0 L596.5,110.0 L598.3,108.2
		L600.2,106.9 L602.1,106.0 L604.0,105.6 L605.8,105.7 L607.7,106.3 L609.6,107.4 L611.4,109.0 L613.3,111.2
		L615.2,113.8 L617.0,116.9 L618.9,120.4 L620.8,124.2 L622.7,128.4 L624.5,132.9 L626.4,137.7 L628.3,142.6
		L630.1,147.7 L632.0,153.0 L633.9,158.2 L635.8,163.6 L637.6,168.9 L639.5,174.1 L641.4,179.3 L643.2,184.4
		L645.1,189.4 L647.0,194.2 L648.8,198.9 L650.7,203.4 L652.6,207.6 L654.5,211.7 L656.3,215.5 L658.2,219.1
		L660.1,222.4 L661.9,225.5 L663.8,228.4 L665.7,230.9 L667.5,233.2 L669.4,235.3 L671.3,237.1 L673.2,238.8
		L675.0,240.2 L676.9,241.5 L678.8,242.6 L680.6,243.6 L682.5,244.6 L684.4,245.5 L686.3,246.4 L688.1,247.4
		L690.0,248.4 L691.9,249.6 L693.7,250.9 L695.6,252.4 L697.5,254.0 L699.3,255.9 L701.2,257.9 L703.1,260.2
		L705.0,262.7 L706.8,265.5 L708.7,268.4 L710.6,271.6 L712.4,274.9 L714.3,278.4 L716.2,282.1 L718.1,285.9
		L719.9,289.9 L721.8,294.0 L723.7,298.1 L725.5,302.4 L727.4,306.7 L729.3,311.1 L731.1,315.5 L733.0,320.0
		L734.9,324.5 L736.8,328.9 L738.6,333.4 L740.5,337.8 L742.4,342.2 L744.2,346.6 L746.1,350.8 L748.0,354.9
		L749.9,359.0 L751.7,362.8 L753.6,366.6 L755.5,370.1 L757.3,373.5 L759.2,376.7 L761.1,379.8 L762.9,382.6
		L764.8,385.3 L766.7,387.8 L768.6,390.2 L770.4,392.5 L772.3,394.6 L774.2,396.7 L776.0,398.6 L777.9,400.6
		L779.8,402.5 L781.7,404.4 L783.5,406.3 L785.4,408.2 L787.3,410.1 L789.1,412.1 L791.0,414.1 L792.9,416.1
		L794.7,418.2 L796.6,420.3 L798.5,422.4 L800.4,424.4 L802.2,426.5 L804.1,428.6 L806.0,430.6 L807.8,432.6
		L809.7,434.5 L811.6,436.4 L813.5,438.3 L815.3,440.1 L817.2,441.9 L819.1,443.6 L820.9,445.4 L822.8,447.1
		L824.7,448.9 L826.5,450.6 L828.4,452.4 L830.3,454.2 L832.2,456.1 L834.0,458.1 L835.9,460.1 L837.8,462.3
		L839.6,464.5 L841.5,466.8 L843.4,469.3 L845.3,471.8 L847.1,474.5 L849.0,477.2 L850.9,480.1 L852.7,483.1
		L854.6,486.1 L856.5,489.2 L858.3,492.4 L860.2,495.7 L862.1,499.0 L864.0,502.3 L865.8,505.7 L867.7,509.1
		L869.6,512.4 L871.4,515.8 L873.3,519.1 L875.2,522.4 L877.1,525.7 L878.9,528.8 L880.8,531.9 L882.7,534.9
		L884.5,537.9 L886.4,540.7 L888.3,543.4 L890.1,545.9 L892.0,548.4 L893.9,550.7 L895.8,552.9 L897.6,554.9
		L899.5,556.8 L901.4,558.6 L903.2,560.2 L905.1,561.8 L907.0,563.2 L908.8,564.5 L910.7,565.8 L912.6,566.9
		L914.5,568.0 L916.3,569.1 L918.2,570.1 L920.1,571.1 L921.9,572.1 L923.8,573.1 L925.7,574.2 L927.6,575.2
		L929.4,576.3 L931.3,577.5 L933.2,578.7 L935.0,579.9 L936.9,581.2 L938.8,582.6 L940.6,584.0 L942.5,585.5
		L944.4,587.0 L946.3,588.6 L948.1,590.2 L950.0,591.9 L951.9,593.5 L953.7,595.2 L955.6,596.9 L957.5,598.6
		L959.4,600.3 L961.2,602.0 L963.1,603.7 L965.0,605.4 L966.8,607.1 L968.7,608.7 L970.6,610.2 L972.4,611.8
		L974.3,613.3 L976.2,614.7 L978.1,616.1 L979.9,617.4 L981.8,618.7 L983.7,619.9 L985.5,621.0 L987.4,622.1
		L989.3,623.1 L991.2,624.1 L993.0,624.9 L994.9,625.8 L996.8,626.5 L998.6,627.2 L1000.5,627.9 L1002.4,628.5
		L1004.2,629.0 L1006.1,629.5 L1008.0,630.0 L1009.9,630.5 L1011.7,630.9 L1013.6,631.3  '/></g>
	</g>
	<g id="gnuplot_plot_2" ><title>Confidence interval</title>
<g fill="none" color="white" stroke="rgb( 31, 120, 180)" stroke-width="1.00" stroke-linecap="butt" stroke-linejoin="miter">
</g>
<g fill="none" color="black" stroke="currentColor" stroke-width="1.00" stroke-linecap="butt" stroke-linejoin="miter">
	<g transform="translate(1089.0,85.0)" stroke="none" fill="black" font-family="Helvetica" font-size="12.00"  text-anchor="start">
		<text><tspan font-family="Helvetica" >Confidence interval</tspan></text>
	</g>
</g>
<g fill="none" color="black" stroke="currentColor" stroke-width="1.00" stroke-linecap="butt" stroke-linejoin="miter">
	<g stroke='none' shape-rendering='crispEdges'>
		<polygon fill = 'rgb( 31, 120, 180)' fill-opacity = '0.250000' points = '1038.5,85.6 1080.7,85.6 1080.7,76.6 1038.5,76.6 '/>
		<polygon fill = 'rgb( 31, 120, 180)' fill-opacity = '0.250000' points = '166.2,536.4 168.1,534.6 170.0,532.9 171.9,531.2 173.7,529.6 175.6,527.9 177.5,526.2 179.3,524.5 181.2,522.7 183.1,520.8 185.0,518.8 186.8,516.7 188.7,514.5 190.6,512.2 192.4,509.8 194.3,507.2
196.2,504.6 198.0,501.8 199.9,498.9 201.8,496.0 203.7,493.0 205.5,490.0 207.4,486.9 209.3,483.8 211.1,480.8 213.0,477.8 214.9,474.9 216.7,472.0 218.6,469.3 220.5,466.6 222.4,464.1 224.2,461.7
226.1,459.5 228.0,457.4 229.8,455.4 231.7,453.5 233.6,451.8 235.5,450.2 237.3,448.7 239.2,447.2 241.1,445.8 242.9,444.4 244.8,443.0 246.7,441.6 248.5,440.1 250.4,438.5 252.3,436.7 254.2,434.8
256.0,432.8 257.9,430.5 259.8,428.0 261.6,425.3 263.5,422.3 265.4,419.1 267.3,415.5 269.1,411.8 271.0,407.7 272.9,403.4 274.7,398.8 276.6,394.0 278.5,389.0 280.3,383.8 282.2,378.4 284.1,372.9
286.0,367.2 287.8,361.5 289.7,355.8 291.6,350.0 293.4,344.3 295.3,338.6 297.2,333.0 299.1,327.5 300.9,322.2 302.8,317.0 304.7,312.1 306.5,307.3 308.4,302.7 310.3,298.4 312.1,294.3 314.0,290.4
315.9,286.8 317.8,283.4 319.6,280.1 321.5,277.1 323.4,274.2 325.2,271.5 327.1,268.9 329.0,266.4 330.9,263.9 332.7,261.4 334.6,258.9 336.5,256.4 338.3,253.7 340.2,250.9 342.1,248.0 343.9,244.8
345.8,241.5 347.7,237.9 349.6,234.1 351.4,230.1 353.3,225.8 355.2,221.4 357.0,216.8 358.9,212.1 360.8,207.4 362.7,202.6 364.5,197.9 366.4,193.3 368.3,188.9 370.1,184.7 372.0,180.8 373.9,177.2
375.7,174.1 377.6,171.3 379.5,169.1 381.4,167.2 383.2,165.9 385.1,165.0 387.0,164.5 388.8,164.4 390.7,164.7 392.6,165.2 394.5,166.0 396.3,166.9 398.2,167.9 400.1,168.9 401.9,169.8 403.8,170.5
405.7,171.0 407.5,171.1 409.4,170.9 411.3,170.2 413.2,169.1 415.0,167.4 416.9,165.2 418.8,162.4 420.6,159.1 422.5,155.2 424.4,150.8 426.3,146.0 428.1,140.8 430.0,135.2 431.9,129.4 433.7,123.3
435.6,117.2 437.5,111.1 439.3,105.0 441.2,99.1 443.1,93.4 445.0,88.0 446.8,83.0 448.7,78.3 450.6,74.1 452.4,70.3 454.3,67.1 456.2,64.3 458.0,62.0 459.9,60.3 461.8,59.0 463.7,58.3
465.5,58.1 467.4,58.3 469.3,59.0 471.1,60.1 473.0,61.7 474.9,63.6 476.8,66.0 478.6,68.6 480.5,71.6 482.4,74.8 484.2,78.2 486.1,81.7 488.0,85.3 489.8,88.8 491.7,92.3 493.6,95.6
495.5,98.6 497.3,101.2 499.2,103.5 501.1,105.3 502.9,106.6 504.8,107.3 506.7,107.4 508.6,106.9 510.4,105.9 512.3,104.4 514.2,102.4 516.0,100.0 517.9,97.3 519.8,94.3 521.6,91.3 523.5,88.3
525.4,85.4 527.3,82.8 529.1,80.5 531.0,78.6 532.9,77.3 534.7,76.5 536.6,76.5 538.5,77.0 540.4,78.3 542.2,80.2 544.1,82.8 546.0,85.9 547.8,89.5 549.7,93.5 551.6,97.8 553.4,102.2
555.3,106.7 557.2,111.2 559.1,115.5 560.9,119.5 562.8,123.2 564.7,126.4 566.5,129.0 568.4,131.1 570.3,132.6 572.2,133.4 574.0,133.7 575.9,133.3 577.8,132.4 579.6,131.1 581.5,129.3 583.4,127.1
585.2,124.7 587.1,122.2 589.0,119.5 590.9,116.9 592.7,114.4 594.6,112.0 596.5,110.0 598.3,108.2 600.2,106.9 602.1,106.0 604.0,105.6 605.8,105.7 607.7,106.3 609.6,107.4 611.4,109.0 613.3,111.2
615.2,113.8 617.0,116.9 618.9,120.4 620.8,124.2 622.7,128.4 624.5,132.9 626.4,137.7 628.3,142.6 630.1,147.7 632.0,153.0 633.9,158.2 635.8,163.6 637.6,168.9 639.5,174.1 641.4,179.3 643.2,184.4
645.1,189.4 647.0,194.2 648.8,198.9 650.7,203.4 652.6,207.6 654.5,211.7 656.3,215.5 658.2,219.1 660.1,222.4 661.9,225.5 663.8,228.4 665.7,230.9 667.5,233.2 669.4,235.3 671.3,237.1 673.2,238.8
675.0,240.2 676.9,241.5 678.8,242.6 680.6,243.6 682.5,244.6 684.4,245.5 686.3,246.4 688.1,247.4 690.0,248.4 691.9,249.6 693.7,250.9 695.6,252.4 697.5,254.0 699.3,255.9 701.2,257.9 703.1,260.2
705.0,262.7 706.8,265.5 708.7,268.4 710.6,271.6 712.4,274.9 714.3,278.4 716.2,282.1 718.1,285.9 719.9,289.9 721.8,294.0 723.7,298.1 725.5,302.4 727.4,306.7 729.3,311.1 731.1,315.5 733.0,320.0
734.9,324.5 736.8,328.9 738.6,333.4 740.5,337.8 742.4,342.2 744.2,346.6 746.1,350.8 748.0,354.9 749.9,359.0 751.7,362.8 753.6,366.6 755.5,370.1 757.3,373.5 759.2,376.7 761.1,379.8 762.9,382.6
764.8,385.3 766.7,387.8 768.6,390.2 770.4,392.5 772.3,394.6 774.2,396.7 776.0,398.6 777.9,400.6 779.8,402.5 781.7,404.4 783.5,406.3 785.4,408.2 787.3,410.1 789.1,412.1 791.0,414.1 792.9,416.1
794.7,418.2 796.6,420.3 798.5,422.4 800.4,424.4 802.2,426.5 804.1,428.6 806.0,430.6 807.8,432.6 809.7,434.5 811.6,436.4 813.5,438.3 815.3,440.1 817.2,441.9 819.1,443.6 820.9,445.4 822.8,447.1
824.7,448.9 826.5,450.6 828.4,452.4 830.3,454.2 832.2,456.1 834.0,458.1 835.9,460.1 837.8,462.3 839.6,464.5 841.5,466.8 843.4,469.3 845.3,471.8 847.1,474.5 849.0,477.2 850.9,480.1 852.7,483.1
854.6,486.1 856.5,489.2 858.3,492.4 860.2,495.7 862.1,499.0 864.0,502.3 865.8,505.7 867.7,509.1 869.6,512.4 871.4,515.8 873.3,519.1 875.2,522.4 877.1,525.7 878.9,528.8 880.8,531.9 882.7,534.9
884.5,537.9 886.4,540.7 888.3,543.4 890.1,545.9 892.0,548.4 893.9,550.7 895.8,552.9 897.6,554.9 899.5,556.8 901.4,558.6 903.2,560.2 905.1,561.8 907.0,563.2 908.8,564.5 910.7,565.8 912.6,566.9
914.5,568.0 916.3,569.1 918.2,570.1 920.1,571.1 921.9,572.1 923.8,573.1 925.7,574.2 925.7,662.4 923.8,662.4 921.9,662.4 920.1,662.4 918.2,662.4 916.3,662.4 914.5,662.4 912.6,662.4 910.7,662.4
908.8,662.4 907.0,662.4 905.1,662.4 903.2,662.4 901.4,662.4 899.5,662.4 897.6,662.4 895.8,662.4 893.9,662.4 892.0,662.4 890.1,662.4 888.3,662.4 886.4,662.4 884.5,662.4 882.7,662.4 880.8,662.4
878.9,662.4 877.1,662.4 875.2,662.4 873.3,662.4 871.4,662.4 869.6,662.4 867.7,662.4 865.8,662.4 864.0,662.4 862.1,662.4 860.2,662.4 858.3,662.4 856.5,662.4 854.6,662.4 852.7,662.4 850.9,662.4
849.0,662.4 847.1,662.4 845.3,662.4 843.4,662.4 841.5,662.4 839.6,662.4 837.8,662.4 835.9,662.4 834.0,662.4 832.2,662.4 830.3,662.4 828.4,662.4 826.5,662.4 824.7,662.4 822.8,662.4 820.9,662.4
819.1,662.4 817.2,662.4 815.3,662.4 813.5,662.4 811.6,662.4 809.7,662.4 807.8,662.4 806.0,662.4 804.1,662.4 802.2,662.4 800.4,662.4 798.5,662.4 796.6,662.4 794.7,662.4 792.9,662.4 791.0,662.4
789.1,662.4 787.3,662.4 785.4,662.4 783.5,662.4 781.7,662.4 779.8,662.4 777.9,662.4 776.0,662.4 774.2,662.4 772.3,662.4 770.4,662.4 768.6,662.4 766.7,662.4 764.8,662.4 762.9,662.4 761.1,662.4
759.2,662.4 757.3,662.4 755.5,662.4 753.6,662.4 751.7,662.4 749.9,662.4 748.0,662.4 746.1,662.4 744.2,662.4 742.4,662.4 740.5,662.4 738.6,662.4 736.8,662.4 734.9,662.4 733.0,662.4 731.1,662.4
729.3,662.4 727.4,662.4 725.5,662.4 723.7,662.4 721.8,662.4 719.9,662.4 718.1,662.4 716.2,662.4 714.3,662.4 712.4,662.4 710.6,662.4 708.7,662.4 706.8,662.4 705.0,662.4 703.1,662.4 701.2,662.4
699.3,662.4 697.5,662.4 695.6,662.4 693.7,662.4 691.9,662.4 690.0,662.4 688.1,662.4 686.3,662.4 684.4,662.4 682.5,662.4 680.6,662.4 678.8,662.4 676.9,662.4 675.0,662.4 673.2,662.4 671.3,662.4
669.4,662.4 667.5,662.4 665.7,662.4 663.8,662.4 661.9,662.4 660.1,662.4 658.2,662.4 656.3,662.4 654.5,662.4 652.6,662.4 650.7,662.4 648.8,662.4 647.0,662.4 645.1,662.4 643.2,662.4 641.4,662.4
639.5,662.4 637.6,662.4 635.8,662.4 633.9,662.4 632.0,662.4 630.1,662.4 628.3,662.4 626.4,662.4 624.5,662.4 622.7,662.4 620.8,662.4 618.9,662.4 617.0,662.4 615.2,662.4 613.3,662.4 611.4,662.4
609.6,662.4 607.7,662.4 605.8,662.4 604.0,662.4 602.1,662.4 600.2,662.4 598.3,662.4 596.5,662.4 594.6,662.4 592.7,662.4 590.9,662.4 589.0,662.4 587.1,662.4 585.2,662.4 583.4,662.4 581.5,662.4
579.6,662.4 577.8,662.4 575.9,662.4 574.0,662.4 572.2,662.4 570.3,662.4 568.4,662.4 566.5,662.4 564.7,662.4 562.8,662.4 560.9,662.4 559.1,662.4 557.2,662.4 555.3,662.4 553.4,662.4 551.6,662.4
549.7,662.4 547.8,662.4 546.0,662.4 544.1,662.4 542.2,662.4 540.4,662.4 538.5,662.4 536.6,662.4 534.7,662.4 532.9,662.4 531.0,662.4 529.1,662.4 527.3,662.4 525.4,662.4 523.5,662.4 521.6,662.4
519.8,662.4 517.9,662.4 516.0,662.4 514.2,662.4 512.3,662.4 510.4,662.4 508.6,662.4 506.7,662.4 504.8,662.4 502.9,662.4 501.1,662.4 499.2,662.4 497.3,662.4 495.5,662.4 493.6,662.4 491.7,662.4
489.8,662.4 488.0,662.4 486.1,662.4 484.2,662.4 482.4,662.4 480.5,662.4 478.6,662.4 476.8,662.4 474.9,662.4 473.0,662.4 471.1,662.4 469.3,662.4 467.4,662.4 465.5,662.4 463.7,662.4 461.8,662.4
459.9,662.4 458.0,662.4 456.2,662.4 454.3,662.4 452.4,662.4 450.6,662.4 448.7,662.4 446.8,662.4 445.0,662.4 443.1,662.4 441.2,662.4 439.3,662.4 437.5,662.4 435.6,662.4 433.7,662.4 431.9,662.4
430.0,662.4 428.1,662.4 426.3,662.4 424.4,662.4 422.5,662.4 420.6,662.4 418.8,662.4 416.9,662.4 415.0,662.4 413.2,662.4 411.3,662.4 409.4,662.4 407.5,662.4 405.7,662.4 403.8,662.4 401.9,662.4
400.1,662.4 398.2,662.4 396.3,662.4 394.5,662.4 392.6,662.4 390.7,662.4 388.8,662.4 387.0,662.4 385.1,662.4 383.2,662.4 381.4,662.4 379.5,662.4 377.6,662.4 375.7,662.4 373.9,662.4 372.0,662.4
370.1,662.4 368.3,662.4 366.4,662.4 364.5,662.4 362.7,662.4 360.8,662.4 358.9,662.4 357.0,662.4 355.2,662.4 353.3,662.4 351.4,662.4 349.6,662.4 347.7,662.4 345.8,662.4 343.9,662.4 342.1,662.4
340.2,662.4 338.3,662.4 336.5,662.4 334.6,662.4 332.7,662.4 330.9,662.4 329.0,662.4 327.1,662.4 325.2,662.4 323.4,662.4 321.5,662.4 319.6,662.4 317.8,662.4 315.9,662.4 314.0,662.4 312.1,662.4
310.3,662.4 308.4,662.4 306.5,662.4 304.7,662.4 302.8,662.4 300.9,662.4 299.1,662.4 297.2,662.4 295.3,662.4 293.4,662.4 291.6,662.4 289.7,662.4 287.8,662.4 286.0,662.4 284.1,662.4 282.2,662.4
280.3,662.4 278.5,662.4 276.6,662.4 274.7,662.4 272.9,662.4 271.0,662.4 269.1,662.4 267.3,662.4 265.4,662.4 263.5,662.4 261.6,662.4 259.8,662.4 257.9,662.4 256.0,662.4 254.2,662.4 252.3,662.4
250.4,662.4 248.5,662.4 246.7,662.4 244.8,662.4 242.9,662.4 241.1,662.4 239.2,662.4 237.3,662.4 235.5,662.4 233.6,662.4 231.7,662.4 229.8,662.4 228.0,662.4 226.1,662.4 224.2,662.4 222.4,662.4
220.5,662.4 218.6,662.4 216.7,662.4 214.9,662.4 213.0,662.4 211.1,662.4 209.3,662.4 207.4,662.4 205.5,662.4 203.7,662.4 201.8,662.4 199.9,662.4 198.0,662.4 196.2,662.4 194.3,662.4 192.4,662.4
190.6,662.4 188.7,662.4 186.8,662.4 185.0,662.4 183.1,662.4 181.2,662.4 179.3,662.4 177.5,662.4 175.6,662.4 173.7,662.4 171.9,662.4 170.0,662.4 168.1,662.4 166.2,662.4 '/>
	</g>
</g>
	</g>
	<g id="gnuplot_plot_3" ><title>Point estimate</title>
<g fill="none" color="white" stroke="rgb( 31, 120, 180)" stroke-width="2.00" stroke-linecap="butt" stroke-linejoin="miter">
</g>
<g fill="none" color="black" stroke="currentColor" stroke-width="2.00" stroke-linecap="butt" stroke-linejoin="miter">
	<g transform="translate(1089.0,103.0)" stroke="none" fill="black" font-family="Helvetica" font-size="12.00"  text-anchor="start">
		<text><tspan font-family="Helvetica" >Point estimate</tspan></text>
	</g>
</g>
<g fill="none" color="black" stroke="currentColor" stroke-width="2.00" stroke-linecap="butt" stroke-linejoin="miter">
	<path stroke='rgb( 31, 120, 180)'  d='M1038.5,99.1 L1080.7,99.1 M561.5,662.4 L561.5,120.6  '/></g>
	</g>
<g fill="none" color="black" stroke="currentColor" stroke-width="2.00" stroke-linecap="butt" stroke-linejoin="miter">
</g>
<g fill="none" color="black" stroke="black" stroke-width="1.00" stroke-linecap="butt" stroke-linejoin="miter">
</g>
<g fill="none" color="black" stroke="currentColor" stroke-width="1.00" stroke-linecap="butt" stroke-linejoin="miter">
	<path stroke='black'  d='M80.2,54.1 L80.2,662.4 L1013.6,662.4 L1013.6,54.1 L80.2,54.1 Z  '/></g>
<g fill="none" color="black" stroke="currentColor" stroke-width="1.00" stroke-linecap="butt" stroke-linejoin="miter">
</g>
</g>
</svg>

