<?xml version="1.0" encoding="utf-8"  standalone="no"?>
<svg 
 viewBox="0 0 1280 720"
 xmlns="http://www.w3.org/2000/svg"
 xmlns:xlink="http://www.w3.org/1999/xlink"
>

<title>Gnuplot</title>
<desc>Produced by GNUPLOT 5.2 patchlevel 6 </desc>

<g id="gnuplot_canvas">

<rect x="0" y="0" width="1280" height="720" fill="none"/>
<defs>

	<circle id='gpDot' r='0.5' stroke-width='0.5' stroke='currentColor'/>
	<path id='gpPt0' stroke-width='0.222' stroke='currentColor' d='M-1,0 h2 M0,-1 v2'/>
	<path id='gpPt1' stroke-width='0.222' stroke='currentColor' d='M-1,-1 L1,1 M1,-1 L-1,1'/>
	<path id='gpPt2' stroke-width='0.222' stroke='currentColor' d='M-1,0 L1,0 M0,-1 L0,1 M-1,-1 L1,1 M-1,1 L1,-1'/>
	<rect id='gpPt3' stroke-width='0.222' stroke='currentColor' x='-1' y='-1' width='2' height='2'/>
	<rect id='gpPt4' stroke-width='0.222' stroke='currentColor' fill='currentColor' x='-1' y='-1' width='2' height='2'/>
	<circle id='gpPt5' stroke-width='0.222' stroke='currentColor' cx='0' cy='0' r='1'/>
	<use xlink:href='#gpPt5' id='gpPt6' fill='currentColor' stroke='none'/>
	<path id='gpPt7' stroke-width='0.222' stroke='currentColor' d='M0,-1.33 L-1.33,0.67 L1.33,0.67 z'/>
	<use xlink:href='#gpPt7' id='gpPt8' fill='currentColor' stroke='none'/>
	<use xlink:href='#gpPt7' id='gpPt9' stroke='currentColor' transform='rotate(180)'/>
	<use xlink:href='#gpPt9' id='gpPt10' fill='currentColor' stroke='none'/>
	<use xlink:href='#gpPt3' id='gpPt11' stroke='currentColor' transform='rotate(45)'/>
	<use xlink:href='#gpPt11' id='gpPt12' fill='currentColor' stroke='none'/>
	<path id='gpPt13' stroke-width='0.222' stroke='currentColor' d='M0,1.330 L1.265,0.411 L0.782,-1.067 L-0.782,-1.076 L-1.265,0.411 z'/>
	<use xlink:href='#gpPt13' id='gpPt14' fill='currentColor' stroke='none'/>
	<filter id='textbox' filterUnits='objectBoundingBox' x='0' y='0' height='1' width='1'>
	  <feFlood flood-color='white' flood-opacity='1' result='bgnd'/>
	  <feComposite in='SourceGraphic' in2='bgnd' operator='atop'/>
	</filter>
	<filter id='greybox' filterUnits='objectBoundingBox' x='0' y='0' height='1' width='1'>
	  <feFlood flood-color='lightgrey' flood-opacity='1' result='grey'/>
	  <feComposite in='SourceGraphic' in2='grey' operator='atop'/>
	</filter>
</defs>
<g fill="none" color="white" stroke="currentColor" stroke-width="1.00" stroke-linecap="butt" stroke-linejoin="miter">
</g>
<g fill="none" color="black" stroke="currentColor" stroke-width="1.00" stroke-linecap="butt" stroke-linejoin="miter">
	<path stroke='black'  d='M63.6,662.4 L72.6,662.4  '/>	<g transform="translate(55.3,666.3)" stroke="none" fill="black" font-family="Helvetica" font-size="12.00"  text-anchor="end">
		<text><tspan font-family="Helvetica" > 0</tspan></text>
	</g>
</g>
<g fill="none" color="black" stroke="currentColor" stroke-width="1.00" stroke-linecap="butt" stroke-linejoin="miter">
	<path stroke='black'  d='M63.6,561.0 L72.6,561.0  '/>	<g transform="translate(55.3,564.9)" stroke="none" fill="black" font-family="Helvetica" font-size="12.00"  text-anchor="end">
		<text><tspan font-family="Helvetica" > 5</tspan></text>
	</g>
</g>
<g fill="none" color="black" stroke="currentColor" stroke-width="1.00" stroke-linecap="butt" stroke-linejoin="miter">
	<path stroke='black'  d='M63.6,459.6 L72.6,459.6  '/>	<g transform="translate(55.3,463.5)" stroke="none" fill="black" font-family="Helvetica" font-size="12.00"  text-anchor="end">
		<text><tspan font-family="Helvetica" > 10</tspan></text>
	</g>
</g>
<g fill="none" color="black" stroke="currentColor" stroke-width="1.00" stroke-linecap="butt" stroke-linejoin="miter">
	<path stroke='black'  d='M63.6,358.2 L72.6,358.2  '/>	<g transform="translate(55.3,362.1)" stroke="none" fill="black" font-family="Helvetica" font-size="12.00"  text-anchor="end">
		<text><tspan font-family="Helvetica" > 15</tspan></text>
	</g>
</g>
<g fill="none" color="black" stroke="currentColor" stroke-width="1.00" stroke-linecap="butt" stroke-linejoin="miter">
	<path stroke='black'  d='M63.6,256.9 L72.6,256.9  '/>	<g transform="translate(55.3,260.8)" stroke="none" fill="black" font-family="Helvetica" font-size="12.00"  text-anchor="end">
		<text><tspan font-family="Helvetica" > 20</tspan></text>
	</g>
</g>
<g fill="none" color="black" stroke="currentColor" stroke-width="1.00" stroke-linecap="butt" stroke-linejoin="miter">
	<path stroke='black'  d='M63.6,155.5 L72.6,155.5  '/>	<g transform="translate(55.3,159.4)" stroke="none" fill="black" font-family="Helvetica" font-size="12.00"  text-anchor="end">
		<text><tspan font-family="Helvetica" > 25</tspan></text>
	</g>
</g>
<g fill="none" color="black" stroke="currentColor" stroke-width="1.00" stroke-linecap="butt" stroke-linejoin="miter">
	<path stroke='black'  d='M63.6,54.1 L72.6,54.1  '/>	<g transform="translate(55.3,58.0)" stroke="none" fill="black" font-family="Helvetica" font-size="12.00"  text-anchor="end">
		<text><tspan font-family="Helvetica" > 30</tspan></text>
	</g>
</g>
<g fill="none" color="black" stroke="currentColor" stroke-width="1.00" stroke-linecap="butt" stroke-linejoin="miter">
	<path stroke='black'  d='M180.5,662.4 L180.5,653.4  '/>	<g transform="translate(180.5,684.3)" stroke="none" fill="black" font-family="Helvetica" font-size="12.00"  text-anchor="middle">
		<text><tspan font-family="Helvetica" > 5.8</tspan></text>
	</g>
</g>
<g fill="none" color="black" stroke="currentColor" stroke-width="1.00" stroke-linecap="butt" stroke-linejoin="miter">
	<path stroke='black'  d='M310.5,662.4 L310.5,653.4  '/>	<g transform="translate(310.5,684.3)" stroke="none" fill="black" font-family="Helvetica" font-size="12.00"  text-anchor="middle">
		<text><tspan font-family="Helvetica" > 5.81</tspan></text>
	</g>
</g>
<g fill="none" color="black" stroke="currentColor" stroke-width="1.00" stroke-linecap="butt" stroke-linejoin="miter">
	<path stroke='black'  d='M440.4,662.4 L440.4,653.4  '/>	<g transform="translate(440.4,684.3)" stroke="none" fill="black" font-family="Helvetica" font-size="12.00"  text-anchor="middle">
		<text><tspan font-family="Helvetica" > 5.82</tspan></text>
	</g>
</g>
<g fill="none" color="black" stroke="currentColor" stroke-width="1.00" stroke-linecap="butt" stroke-linejoin="miter">
	<path stroke='black'  d='M570.4,662.4 L570.4,653.4  '/>	<g transform="translate(570.4,684.3)" stroke="none" fill="black" font-family="Helvetica" font-size="12.00"  text-anchor="middle">
		<text><tspan font-family="Helvetica" > 5.83</tspan></text>
	</g>
</g>
<g fill="none" color="black" stroke="currentColor" stroke-width="1.00" stroke-linecap="butt" stroke-linejoin="miter">
	<path stroke='black'  d='M700.4,662.4 L700.4,653.4  '/>	<g transform="translate(700.4,684.3)" stroke="none" fill="black" font-family="Helvetica" font-size="12.00"  text-anchor="middle">
		<text><tspan font-family="Helvetica" > 5.84</tspan></text>
	</g>
</g>
<g fill="none" color="black" stroke="currentColor" stroke-width="1.00" stroke-linecap="butt" stroke-linejoin="miter">
	<path stroke='black'  d='M830.3,662.4 L830.3,653.4  '/>	<g transform="translate(830.3,684.3)" stroke="none" fill="black" font-family="Helvetica" font-size="12.00"  text-anchor="middle">
		<text><tspan font-family="Helvetica" > 5.85</tspan></text>
	</g>
</g>
<g fill="none" color="black" stroke="currentColor" stroke-width="1.00" stroke-linecap="butt" stroke-linejoin="miter">
	<path stroke='black'  d='M960.3,662.4 L960.3,653.4  '/>	<g transform="translate(960.3,684.3)" stroke="none" fill="black" font-family="Helvetica" font-size="12.00"  text-anchor="middle">
		<text><tspan font-family="Helvetica" > 5.86</tspan></text>
	</g>
</g>
<g fill="none" color="black" stroke="currentColor" stroke-width="1.00" stroke-linecap="butt" stroke-linejoin="miter">
</g>
<g fill="none" color="black" stroke="currentColor" stroke-width="1.00" stroke-linecap="butt" stroke-linejoin="miter">
	<path stroke='black'  d='M63.6,54.1 L63.6,662.4 L1013.6,662.4 L1013.6,54.1 L63.6,54.1 Z  '/></g>
<g fill="none" color="black" stroke="currentColor" stroke-width="1.00" stroke-linecap="butt" stroke-linejoin="miter">
	<g transform="translate(16.3,358.3) rotate(270)" stroke="none" fill="black" font-family="Helvetica" font-size="12.00"  text-anchor="middle">
		<text><tspan font-family="Helvetica" >Density (a.u.)</tspan></text>
	</g>
</g>
<g fill="none" color="black" stroke="currentColor" stroke-width="1.00" stroke-linecap="butt" stroke-linejoin="miter">
	<g transform="translate(538.6,711.3)" stroke="none" fill="black" font-family="Helvetica" font-size="12.00"  text-anchor="middle">
		<text><tspan font-family="Helvetica" >Average time (us)</tspan></text>
	</g>
</g>
<g fill="none" color="black" stroke="currentColor" stroke-width="1.00" stroke-linecap="butt" stroke-linejoin="miter">
	<g transform="translate(538.6,31.0)" stroke="none" fill="black" font-family="Helvetica" font-size="12.00"  text-anchor="middle">
		<text><tspan font-family="Helvetica" >snapshot_restore_with_dense/Sparse: Dirty pages + process_vm_writev/2: mean</tspan></text>
	</g>
</g>
	<g id="gnuplot_plot_1" ><title>Bootstrap distribution</title>
<g fill="none" color="white" stroke="black" stroke-width="2.00" stroke-linecap="butt" stroke-linejoin="miter">
</g>
<g fill="none" color="black" stroke="currentColor" stroke-width="2.00" stroke-linecap="butt" stroke-linejoin="miter">
	<g transform="translate(1089.0,67.0)" stroke="none" fill="black" font-family="Helvetica" font-size="12.00"  text-anchor="start">
		<text><tspan font-family="Helvetica" >Bootstrap distribution</tspan></text>
	</g>
</g>
<g fill="none" color="black" stroke="currentColor" stroke-width="2.00" stroke-linecap="butt" stroke-linejoin="miter">
	<path stroke='rgb( 31, 120, 180)'  d='M1038.5,63.1 L1080.7,63.1 M63.6,636.1 L65.5,634.9 L67.4,633.7 L69.3,632.4 L71.2,631.0 L73.1,629.6
		L75.0,628.1 L76.9,626.6 L78.8,625.1 L80.7,623.4 L82.6,621.7 L84.5,620.0 L86.4,618.2 L88.3,616.3
		L90.3,614.4 L92.2,612.4 L94.1,610.3 L96.0,608.2 L97.9,606.1 L99.8,603.9 L101.7,601.6 L103.6,599.3
		L105.5,597.0 L107.4,594.6 L109.3,592.2 L111.2,589.8 L113.1,587.3 L115.0,584.8 L116.9,582.3 L118.8,579.7
		L120.7,577.2 L122.6,574.6 L124.5,572.0 L126.4,569.4 L128.3,566.7 L130.2,564.1 L132.1,561.4 L134.0,558.7
		L135.9,555.9 L137.8,553.2 L139.8,550.4 L141.7,547.5 L143.6,544.7 L145.5,541.8 L147.4,538.8 L149.3,535.8
		L151.2,532.8 L153.1,529.7 L155.0,526.6 L156.9,523.4 L158.8,520.2 L160.7,516.9 L162.6,513.6 L164.5,510.2
		L166.4,506.8 L168.3,503.4 L170.2,499.9 L172.1,496.4 L174.0,492.9 L175.9,489.4 L177.8,485.8 L179.7,482.3
		L181.6,478.7 L183.5,475.1 L185.4,471.5 L187.3,467.9 L189.3,464.3 L191.2,460.7 L193.1,457.1 L195.0,453.4
		L196.9,449.8 L198.8,446.1 L200.7,442.4 L202.6,438.7 L204.5,435.0 L206.4,431.2 L208.3,427.5 L210.2,423.7
		L212.1,419.9 L214.0,416.1 L215.9,412.3 L217.8,408.5 L219.7,404.7 L221.6,400.8 L223.5,397.0 L225.4,393.3
		L227.3,389.5 L229.2,385.7 L231.1,382.0 L233.0,378.3 L234.9,374.6 L236.8,371.0 L238.8,367.3 L240.7,363.7
		L242.6,360.2 L244.5,356.7 L246.4,353.1 L248.3,349.6 L250.2,346.2 L252.1,342.7 L254.0,339.2 L255.9,335.8
		L257.8,332.3 L259.7,328.8 L261.6,325.4 L263.5,321.9 L265.4,318.4 L267.3,314.9 L269.2,311.4 L271.1,307.9
		L273.0,304.4 L274.9,301.0 L276.8,297.5 L278.7,294.0 L280.6,290.6 L282.5,287.2 L284.4,283.8 L286.3,280.5
		L288.2,277.2 L290.2,273.9 L292.1,270.7 L294.0,267.5 L295.9,264.4 L297.8,261.2 L299.7,258.2 L301.6,255.1
		L303.5,252.1 L305.4,249.1 L307.3,246.1 L309.2,243.1 L311.1,240.1 L313.0,237.1 L314.9,234.2 L316.8,231.2
		L318.7,228.2 L320.6,225.3 L322.5,222.3 L324.4,219.4 L326.3,216.4 L328.2,213.5 L330.1,210.7 L332.0,207.8
		L333.9,205.0 L335.8,202.2 L337.7,199.5 L339.7,196.8 L341.6,194.2 L343.5,191.7 L345.4,189.2 L347.3,186.8
		L349.2,184.5 L351.1,182.2 L353.0,180.1 L354.9,177.9 L356.8,175.8 L358.7,173.8 L360.6,171.8 L362.5,169.9
		L364.4,167.9 L366.3,166.0 L368.2,164.1 L370.1,162.2 L372.0,160.4 L373.9,158.5 L375.8,156.6 L377.7,154.7
		L379.6,152.9 L381.5,151.0 L383.4,149.2 L385.3,147.4 L387.2,145.7 L389.2,144.0 L391.1,142.3 L393.0,140.8
		L394.9,139.3 L396.8,137.9 L398.7,136.7 L400.6,135.5 L402.5,134.5 L404.4,133.6 L406.3,132.7 L408.2,132.1
		L410.1,131.5 L412.0,131.0 L413.9,130.6 L415.8,130.3 L417.7,130.0 L419.6,129.9 L421.5,129.7 L423.4,129.7
		L425.3,129.6 L427.2,129.6 L429.1,129.6 L431.0,129.6 L432.9,129.6 L434.8,129.6 L436.7,129.7 L438.7,129.7
		L440.6,129.7 L442.5,129.8 L444.4,129.8 L446.3,129.9 L448.2,130.0 L450.1,130.2 L452.0,130.4 L453.9,130.6
		L455.8,130.9 L457.7,131.3 L459.6,131.7 L461.5,132.2 L463.4,132.8 L465.3,133.5 L467.2,134.3 L469.1,135.1
		L471.0,136.1 L472.9,137.1 L474.8,138.2 L476.7,139.4 L478.6,140.6 L480.5,141.9 L482.4,143.3 L484.3,144.7
		L486.2,146.2 L488.1,147.7 L490.1,149.2 L492.0,150.7 L493.9,152.2 L495.8,153.8 L497.7,155.3 L499.6,156.9
		L501.5,158.5 L503.4,160.0 L505.3,161.6 L507.2,163.2 L509.1,164.7 L511.0,166.3 L512.9,167.9 L514.8,169.5
		L516.7,171.1 L518.6,172.7 L520.5,174.4 L522.4,176.1 L524.3,177.8 L526.2,179.6 L528.1,181.4 L530.0,183.2
		L531.9,185.0 L533.8,186.9 L535.7,188.9 L537.6,190.8 L539.6,192.8 L541.5,194.8 L543.4,196.9 L545.3,199.0
		L547.2,201.1 L549.1,203.2 L551.0,205.4 L552.9,207.5 L554.8,209.7 L556.7,212.0 L558.6,214.2 L560.5,216.5
		L562.4,218.8 L564.3,221.1 L566.2,223.4 L568.1,225.8 L570.0,228.2 L571.9,230.6 L573.8,233.0 L575.7,235.5
		L577.6,238.0 L579.5,240.6 L581.4,243.1 L583.3,245.7 L585.2,248.4 L587.1,251.0 L589.1,253.7 L591.0,256.4
		L592.9,259.1 L594.8,261.8 L596.7,264.5 L598.6,267.3 L600.5,270.1 L602.4,272.9 L604.3,275.6 L606.2,278.4
		L608.1,281.2 L610.0,284.0 L611.9,286.8 L613.8,289.6 L615.7,292.4 L617.6,295.2 L619.5,297.9 L621.4,300.7
		L623.3,303.5 L625.2,306.2 L627.1,309.0 L629.0,311.7 L630.9,314.4 L632.8,317.1 L634.7,319.8 L636.6,322.5
		L638.5,325.1 L640.5,327.8 L642.4,330.4 L644.3,333.1 L646.2,335.7 L648.1,338.3 L650.0,340.9 L651.9,343.5
		L653.8,346.1 L655.7,348.7 L657.6,351.2 L659.5,353.8 L661.4,356.3 L663.3,358.9 L665.2,361.4 L667.1,363.9
		L669.0,366.4 L670.9,368.8 L672.8,371.3 L674.7,373.7 L676.6,376.2 L678.5,378.6 L680.4,381.0 L682.3,383.5
		L684.2,385.9 L686.1,388.3 L688.0,390.8 L690.0,393.2 L691.9,395.7 L693.8,398.2 L695.7,400.7 L697.6,403.2
		L699.5,405.7 L701.4,408.3 L703.3,410.8 L705.2,413.4 L707.1,415.9 L709.0,418.5 L710.9,421.0 L712.8,423.6
		L714.7,426.1 L716.6,428.6 L718.5,431.1 L720.4,433.5 L722.3,435.9 L724.2,438.3 L726.1,440.6 L728.0,442.9
		L729.9,445.1 L731.8,447.3 L733.7,449.4 L735.6,451.5 L737.5,453.6 L739.5,455.6 L741.4,457.6 L743.3,459.6
		L745.2,461.6 L747.1,463.5 L749.0,465.5 L750.9,467.4 L752.8,469.4 L754.7,471.3 L756.6,473.2 L758.5,475.1
		L760.4,477.0 L762.3,478.9 L764.2,480.9 L766.1,482.8 L768.0,484.7 L769.9,486.6 L771.8,488.5 L773.7,490.4
		L775.6,492.3 L777.5,494.1 L779.4,496.0 L781.3,497.9 L783.2,499.7 L785.1,501.6 L787.0,503.5 L789.0,505.3
		L790.9,507.2 L792.8,509.0 L794.7,510.8 L796.6,512.7 L798.5,514.5 L800.4,516.4 L802.3,518.2 L804.2,520.0
		L806.1,521.9 L808.0,523.7 L809.9,525.5 L811.8,527.4 L813.7,529.2 L815.6,531.0 L817.5,532.8 L819.4,534.6
		L821.3,536.4 L823.2,538.1 L825.1,539.9 L827.0,541.6 L828.9,543.3 L830.8,545.0 L832.7,546.7 L834.6,548.4
		L836.5,550.0 L838.4,551.7 L840.4,553.3 L842.3,554.8 L844.2,556.4 L846.1,557.9 L848.0,559.4 L849.9,560.8
		L851.8,562.2 L853.7,563.6 L855.6,565.0 L857.5,566.3 L859.4,567.6 L861.3,568.9 L863.2,570.1 L865.1,571.3
		L867.0,572.4 L868.9,573.6 L870.8,574.7 L872.7,575.8 L874.6,576.8 L876.5,577.8 L878.4,578.9 L880.3,579.9
		L882.2,580.8 L884.1,581.8 L886.0,582.8 L887.9,583.7 L889.9,584.6 L891.8,585.5 L893.7,586.5 L895.6,587.4
		L897.5,588.3 L899.4,589.2 L901.3,590.1 L903.2,591.0 L905.1,591.9 L907.0,592.8 L908.9,593.7 L910.8,594.6
		L912.7,595.5 L914.6,596.4 L916.5,597.3 L918.4,598.2 L920.3,599.1 L922.2,600.0 L924.1,600.8 L926.0,601.7
		L927.9,602.6 L929.8,603.5 L931.7,604.4 L933.6,605.2 L935.5,606.1 L937.4,606.9 L939.4,607.8 L941.3,608.6
		L943.2,609.5 L945.1,610.3 L947.0,611.1 L948.9,611.9 L950.8,612.8 L952.7,613.6 L954.6,614.4 L956.5,615.2
		L958.4,616.0 L960.3,616.8 L962.2,617.5 L964.1,618.3 L966.0,619.1 L967.9,619.8 L969.8,620.6 L971.7,621.3
		L973.6,622.1 L975.5,622.8 L977.4,623.5 L979.3,624.2 L981.2,624.9 L983.1,625.5 L985.0,626.2 L986.9,626.8
		L988.9,627.5 L990.8,628.1 L992.7,628.7 L994.6,629.3 L996.5,629.8 L998.4,630.4 L1000.3,630.9 L1002.2,631.4
		L1004.1,631.9 L1006.0,632.4 L1007.9,632.9 L1009.8,633.3 L1011.7,633.8 L1013.6,634.2  '/></g>
	</g>
	<g id="gnuplot_plot_2" ><title>Confidence interval</title>
<g fill="none" color="white" stroke="rgb( 31, 120, 180)" stroke-width="1.00" stroke-linecap="butt" stroke-linejoin="miter">
</g>
<g fill="none" color="black" stroke="currentColor" stroke-width="1.00" stroke-linecap="butt" stroke-linejoin="miter">
	<g transform="translate(1089.0,85.0)" stroke="none" fill="black" font-family="Helvetica" font-size="12.00"  text-anchor="start">
		<text><tspan font-family="Helvetica" >Confidence interval</tspan></text>
	</g>
</g>
<g fill="none" color="black" stroke="currentColor" stroke-width="1.00" stroke-linecap="butt" stroke-linejoin="miter">
	<g stroke='none' shape-rendering='crispEdges'>
		<polygon fill = 'rgb( 31, 120, 180)' fill-opacity = '0.250000' points = '1038.5,85.6 1080.7,85.6 1080.7,76.6 1038.5,76.6 '/>
		<polygon fill = 'rgb( 31, 120, 180)' fill-opacity = '0.250000' points = '151.2,532.8 153.1,529.7 155.0,526.6 156.9,523.4 158.8,520.2 160.7,516.9 162.6,513.6 164.5,510.2 166.4,506.8 168.3,503.4 170.2,499.9 172.1,496.4 174.0,492.9 175.9,489.4 177.8,485.8 179.7,482.3
181.6,478.7 183.5,475.1 185.4,471.5 187.3,467.9 189.3,464.3 191.2,460.7 193.1,457.1 195.0,453.4 196.9,449.8 198.8,446.1 200.7,442.4 202.6,438.7 204.5,435.0 206.4,431.2 208.3,427.5 210.2,423.7
212.1,419.9 214.0,416.1 215.9,412.3 217.8,408.5 219.7,404.7 221.6,400.8 223.5,397.0 225.4,393.3 227.3,389.5 229.2,385.7 231.1,382.0 233.0,378.3 234.9,374.6 236.8,371.0 238.8,367.3 240.7,363.7
242.6,360.2 244.5,356.7 246.4,353.1 248.3,349.6 250.2,346.2 252.1,342.7 254.0,339.2 255.9,335.8 257.8,332.3 259.7,328.8 261.6,325.4 263.5,321.9 265.4,318.4 267.3,314.9 269.2,311.4 271.1,307.9
273.0,304.4 274.9,301.0 276.8,297.5 278.7,294.0 280.6,290.6 282.5,287.2 284.4,283.8 286.3,280.5 288.2,277.2 290.2,273.9 292.1,270.7 294.0,267.5 295.9,264.4 297.8,261.2 299.7,258.2 301.6,255.1
303.5,252.1 305.4,249.1 307.3,246.1 309.2,243.1 311.1,240.1 313.0,237.1 314.9,234.2 316.8,231.2 318.7,228.2 320.6,225.3 322.5,222.3 324.4,219.4 326.3,216.4 328.2,213.5 330.1,210.7 332.0,207.8
333.9,205.0 335.8,202.2 337.7,199.5 339.7,196.8 341.6,194.2 343.5,191.7 345.4,189.2 347.3,186.8 349.2,184.5 351.1,182.2 353.0,180.1 354.9,177.9 356.8,175.8 358.7,173.8 360.6,171.8 362.5,169.9
364.4,167.9 366.3,166.0 368.2,164.1 370.1,162.2 372.0,160.4 373.9,158.5 375.8,156.6 377.7,154.7 379.6,152.9 381.5,151.0 383.4,149.2 385.3,147.4 387.2,145.7 389.2,144.0 391.1,142.3 393.0,140.8
394.9,139.3 396.8,137.9 398.7,136.7 400.6,135.5 402.5,134.5 404.4,133.6 406.3,132.7 408.2,132.1 410.1,131.5 412.0,131.0 413.9,130.6 415.8,130.3 417.7,130.0 419.6,129.9 421.5,129.7 423.4,129.7
425.3,129.6 427.2,129.6 429.1,129.6 431.0,129.6 432.9,129.6 434.8,129.6 436.7,129.7 438.7,129.7 440.6,129.7 442.5,129.8 444.4,129.8 446.3,129.9 448.2,130.0 450.1,130.2 452.0,130.4 453.9,130.6
455.8,130.9 457.7,131.3 459.6,131.7 461.5,132.2 463.4,132.8 465.3,133.5 467.2,134.3 469.1,135.1 471.0,136.1 472.9,137.1 474.8,138.2 476.7,139.4 478.6,140.6 480.5,141.9 482.4,143.3 484.3,144.7
486.2,146.2 488.1,147.7 490.1,149.2 492.0,150.7 493.9,152.2 495.8,153.8 497.7,155.3 499.6,156.9 501.5,158.5 503.4,160.0 505.3,161.6 507.2,163.2 509.1,164.7 511.0,166.3 512.9,167.9 514.8,169.5
516.7,171.1 518.6,172.7 520.5,174.4 522.4,176.1 524.3,177.8 526.2,179.6 528.1,181.4 530.0,183.2 531.9,185.0 533.8,186.9 535.7,188.9 537.6,190.8 539.6,192.8 541.5,194.8 543.4,196.9 545.3,199.0
547.2,201.1 549.1,203.2 551.0,205.4 552.9,207.5 554.8,209.7 556.7,212.0 558.6,214.2 560.5,216.5 562.4,218.8 564.3,221.1 566.2,223.4 568.1,225.8 570.0,228.2 571.9,230.6 573.8,233.0 575.7,235.5
577.6,238.0 579.5,240.6 581.4,243.1 583.3,245.7 585.2,248.4 587.1,251.0 589.1,253.7 591.0,256.4 592.9,259.1 594.8,261.8 596.7,264.5 598.6,267.3 600.5,270.1 602.4,272.9 604.3,275.6 606.2,278.4
608.1,281.2 610.0,284.0 611.9,286.8 613.8,289.6 615.7,292.4 617.6,295.2 619.5,297.9 621.4,300.7 623.3,303.5 625.2,306.2 627.1,309.0 629.0,311.7 630.9,314.4 632.8,317.1 634.7,319.8 636.6,322.5
638.5,325.1 640.5,327.8 642.4,330.4 644.3,333.1 646.2,335.7 648.1,338.3 650.0,340.9 651.9,343.5 653.8,346.1 655.7,348.7 657.6,351.2 659.5,353.8 661.4,356.3 663.3,358.9 665.2,361.4 667.1,363.9
669.0,366.4 670.9,368.8 672.8,371.3 674.7,373.7 676.6,376.2 678.5,378.6 680.4,381.0 682.3,383.5 684.2,385.9 686.1,388.3 688.0,390.8 690.0,393.2 691.9,395.7 693.8,398.2 695.7,400.7 697.6,403.2
699.5,405.7 701.4,408.3 703.3,410.8 705.2,413.4 707.1,415.9 709.0,418.5 710.9,421.0 712.8,423.6 714.7,426.1 716.6,428.6 718.5,431.1 720.4,433.5 722.3,435.9 724.2,438.3 726.1,440.6 728.0,442.9
729.9,445.1 731.8,447.3 733.7,449.4 735.6,451.5 737.5,453.6 739.5,455.6 741.4,457.6 743.3,459.6 745.2,461.6 747.1,463.5 749.0,465.5 750.9,467.4 752.8,469.4 754.7,471.3 756.6,473.2 758.5,475.1
760.4,477.0 762.3,478.9 764.2,480.9 766.1,482.8 768.0,484.7 769.9,486.6 771.8,488.5 773.7,490.4 775.6,492.3 777.5,494.1 779.4,496.0 781.3,497.9 783.2,499.7 785.1,501.6 787.0,503.5 789.0,505.3
790.9,507.2 792.8,509.0 794.7,510.8 796.6,512.7 798.5,514.5 800.4,516.4 802.3,518.2 804.2,520.0 806.1,521.9 808.0,523.7 809.9,525.5 811.8,527.4 813.7,529.2 815.6,531.0 817.5,532.8 819.4,534.6
821.3,536.4 823.2,538.1 825.1,539.9 827.0,541.6 828.9,543.3 830.8,545.0 832.7,546.7 834.6,548.4 836.5,550.0 838.4,551.7 840.4,553.3 842.3,554.8 844.2,556.4 846.1,557.9 848.0,559.4 849.9,560.8
851.8,562.2 853.7,563.6 855.6,565.0 857.5,566.3 859.4,567.6 861.3,568.9 863.2,570.1 865.1,571.3 867.0,572.4 868.9,573.6 870.8,574.7 872.7,575.8 874.6,576.8 876.5,577.8 878.4,578.9 880.3,579.9
882.2,580.8 884.1,581.8 886.0,582.8 887.9,583.7 889.9,584.6 891.8,585.5 893.7,586.5 895.6,587.4 897.5,588.3 899.4,589.2 901.3,590.1 903.2,591.0 905.1,591.9 907.0,592.8 908.9,593.7 910.8,594.6
912.7,595.5 914.6,596.4 916.5,597.3 918.4,598.2 920.3,599.1 922.2,600.0 924.1,600.8 924.1,662.4 922.2,662.4 920.3,662.4 918.4,662.4 916.5,662.4 914.6,662.4 912.7,662.4 910.8,662.4 908.9,662.4
907.0,662.4 905.1,662.4 903.2,662.4 901.3,662.4 899.4,662.4 897.5,662.4 895.6,662.4 893.7,662.4 891.8,662.4 889.9,662.4 887.9,662.4 886.0,662.4 884.1,662.4 882.2,662.4 880.3,662.4 878.4,662.4
876.5,662.4 874.6,662.4 872.7,662.4 870.8,662.4 868.9,662.4 867.0,662.4 865.1,662.4 863.2,662.4 861.3,662.4 859.4,662.4 857.5,662.4 855.6,662.4 853.7,662.4 851.8,662.4 849.9,662.4 848.0,662.4
846.1,662.4 844.2,662.4 842.3,662.4 840.4,662.4 838.4,662.4 836.5,662.4 834.6,662.4 832.7,662.4 830.8,662.4 828.9,662.4 827.0,662.4 825.1,662.4 823.2,662.4 821.3,662.4 819.4,662.4 817.5,662.4
815.6,662.4 813.7,662.4 811.8,662.4 809.9,662.4 808.0,662.4 806.1,662.4 804.2,662.4 802.3,662.4 800.4,662.4 798.5,662.4 796.6,662.4 794.7,662.4 792.8,662.4 790.9,662.4 789.0,662.4 787.0,662.4
785.1,662.4 783.2,662.4 781.3,662.4 779.4,662.4 777.5,662.4 775.6,662.4 773.7,662.4 771.8,662.4 769.9,662.4 768.0,662.4 766.1,662.4 764.2,662.4 762.3,662.4 760.4,662.4 758.5,662.4 756.6,662.4
754.7,662.4 752.8,662.4 750.9,662.4 749.0,662.4 747.1,662.4 745.2,662.4 743.3,662.4 741.4,662.4 739.5,662.4 737.5,662.4 735.6,662.4 733.7,662.4 731.8,662.4 729.9,662.4 728.0,662.4 726.1,662.4
724.2,662.4 722.3,662.4 720.4,662.4 718.5,662.4 716.6,662.4 714.7,662.4 712.8,662.4 710.9,662.4 709.0,662.4 707.1,662.4 705.2,662.4 703.3,662.4 701.4,662.4 699.5,662.4 697.6,662.4 695.7,662.4
693.8,662.4 691.9,662.4 690.0,662.4 688.0,662.4 686.1,662.4 684.2,662.4 682.3,662.4 680.4,662.4 678.5,662.4 676.6,662.4 674.7,662.4 672.8,662.4 670.9,662.4 669.0,662.4 667.1,662.4 665.2,662.4
663.3,662.4 661.4,662.4 659.5,662.4 657.6,662.4 655.7,662.4 653.8,662.4 651.9,662.4 650.0,662.4 648.1,662.4 646.2,662.4 644.3,662.4 642.4,662.4 640.5,662.4 638.5,662.4 636.6,662.4 634.7,662.4
632.8,662.4 630.9,662.4 629.0,662.4 627.1,662.4 625.2,662.4 623.3,662.4 621.4,662.4 619.5,662.4 617.6,662.4 615.7,662.4 613.8,662.4 611.9,662.4 610.0,662.4 608.1,662.4 606.2,662.4 604.3,662.4
602.4,662.4 600.5,662.4 598.6,662.4 596.7,662.4 594.8,662.4 592.9,662.4 591.0,662.4 589.1,662.4 587.1,662.4 585.2,662.4 583.3,662.4 581.4,662.4 579.5,662.4 577.6,662.4 575.7,662.4 573.8,662.4
571.9,662.4 570.0,662.4 568.1,662.4 566.2,662.4 564.3,662.4 562.4,662.4 560.5,662.4 558.6,662.4 556.7,662.4 554.8,662.4 552.9,662.4 551.0,662.4 549.1,662.4 547.2,662.4 545.3,662.4 543.4,662.4
541.5,662.4 539.6,662.4 537.6,662.4 535.7,662.4 533.8,662.4 531.9,662.4 530.0,662.4 528.1,662.4 526.2,662.4 524.3,662.4 522.4,662.4 520.5,662.4 518.6,662.4 516.7,662.4 514.8,662.4 512.9,662.4
511.0,662.4 509.1,662.4 507.2,662.4 505.3,662.4 503.4,662.4 501.5,662.4 499.6,662.4 497.7,662.4 495.8,662.4 493.9,662.4 492.0,662.4 490.1,662.4 488.1,662.4 486.2,662.4 484.3,662.4 482.4,662.4
480.5,662.4 478.6,662.4 476.7,662.4 474.8,662.4 472.9,662.4 471.0,662.4 469.1,662.4 467.2,662.4 465.3,662.4 463.4,662.4 461.5,662.4 459.6,662.4 457.7,662.4 455.8,662.4 453.9,662.4 452.0,662.4
450.1,662.4 448.2,662.4 446.3,662.4 444.4,662.4 442.5,662.4 440.6,662.4 438.7,662.4 436.7,662.4 434.8,662.4 432.9,662.4 431.0,662.4 429.1,662.4 427.2,662.4 425.3,662.4 423.4,662.4 421.5,662.4
419.6,662.4 417.7,662.4 415.8,662.4 413.9,662.4 412.0,662.4 410.1,662.4 408.2,662.4 406.3,662.4 404.4,662.4 402.5,662.4 400.6,662.4 398.7,662.4 396.8,662.4 394.9,662.4 393.0,662.4 391.1,662.4
389.2,662.4 387.2,662.4 385.3,662.4 383.4,662.4 381.5,662.4 379.6,662.4 377.7,662.4 375.8,662.4 373.9,662.4 372.0,662.4 370.1,662.4 368.2,662.4 366.3,662.4 364.4,662.4 362.5,662.4 360.6,662.4
358.7,662.4 356.8,662.4 354.9,662.4 353.0,662.4 351.1,662.4 349.2,662.4 347.3,662.4 345.4,662.4 343.5,662.4 341.6,662.4 339.7,662.4 337.7,662.4 335.8,662.4 333.9,662.4 332.0,662.4 330.1,662.4
328.2,662.4 326.3,662.4 324.4,662.4 322.5,662.4 320.6,662.4 318.7,662.4 316.8,662.4 314.9,662.4 313.0,662.4 311.1,662.4 309.2,662.4 307.3,662.4 305.4,662.4 303.5,662.4 301.6,662.4 299.7,662.4
297.8,662.4 295.9,662.4 294.0,662.4 292.1,662.4 290.2,662.4 288.2,662.4 286.3,662.4 284.4,662.4 282.5,662.4 280.6,662.4 278.7,662.4 276.8,662.4 274.9,662.4 273.0,662.4 271.1,662.4 269.2,662.4
267.3,662.4 265.4,662.4 263.5,662.4 261.6,662.4 259.7,662.4 257.8,662.4 255.9,662.4 254.0,662.4 252.1,662.4 250.2,662.4 248.3,662.4 246.4,662.4 244.5,662.4 242.6,662.4 240.7,662.4 238.8,662.4
236.8,662.4 234.9,662.4 233.0,662.4 231.1,662.4 229.2,662.4 227.3,662.4 225.4,662.4 223.5,662.4 221.6,662.4 219.7,662.4 217.8,662.4 215.9,662.4 214.0,662.4 212.1,662.4 210.2,662.4 208.3,662.4
206.4,662.4 204.5,662.4 202.6,662.4 200.7,662.4 198.8,662.4 196.9,662.4 195.0,662.4 193.1,662.4 191.2,662.4 189.3,662.4 187.3,662.4 185.4,662.4 183.5,662.4 181.6,662.4 179.7,662.4 177.8,662.4
175.9,662.4 174.0,662.4 172.1,662.4 170.2,662.4 168.3,662.4 166.4,662.4 164.5,662.4 162.6,662.4 160.7,662.4 158.8,662.4 156.9,662.4 155.0,662.4 153.1,662.4 151.2,662.4 '/>
	</g>
</g>
	</g>
	<g id="gnuplot_plot_3" ><title>Point estimate</title>
<g fill="none" color="white" stroke="rgb( 31, 120, 180)" stroke-width="2.00" stroke-linecap="butt" stroke-linejoin="miter">
</g>
<g fill="none" color="black" stroke="currentColor" stroke-width="2.00" stroke-linecap="butt" stroke-linejoin="miter">
	<g transform="translate(1089.0,103.0)" stroke="none" fill="black" font-family="Helvetica" font-size="12.00"  text-anchor="start">
		<text><tspan font-family="Helvetica" >Point estimate</tspan></text>
	</g>
</g>
<g fill="none" color="black" stroke="currentColor" stroke-width="2.00" stroke-linecap="butt" stroke-linejoin="miter">
	<path stroke='rgb( 31, 120, 180)'  d='M1038.5,99.1 L1080.7,99.1 M487.4,662.4 L487.4,147.1  '/></g>
	</g>
<g fill="none" color="black" stroke="currentColor" stroke-width="2.00" stroke-linecap="butt" stroke-linejoin="miter">
</g>
<g fill="none" color="black" stroke="black" stroke-width="1.00" stroke-linecap="butt" stroke-linejoin="miter">
</g>
<g fill="none" color="black" stroke="currentColor" stroke-width="1.00" stroke-linecap="butt" stroke-linejoin="miter">
	<path stroke='black'  d='M63.6,54.1 L63.6,662.4 L1013.6,662.4 L1013.6,54.1 L63.6,54.1 Z  '/></g>
<g fill="none" color="black" stroke="currentColor" stroke-width="1.00" stroke-linecap="butt" stroke-linejoin="miter">
</g>
</g>
</svg>

