<?xml version="1.0" encoding="utf-8"  standalone="no"?>
<svg 
 viewBox="0 0 1280 720"
 xmlns="http://www.w3.org/2000/svg"
 xmlns:xlink="http://www.w3.org/1999/xlink"
>

<title>Gnuplot</title>
<desc>Produced by GNUPLOT 5.2 patchlevel 6 </desc>

<g id="gnuplot_canvas">

<rect x="0" y="0" width="1280" height="720" fill="none"/>
<defs>

	<circle id='gpDot' r='0.5' stroke-width='0.5' stroke='currentColor'/>
	<path id='gpPt0' stroke-width='0.222' stroke='currentColor' d='M-1,0 h2 M0,-1 v2'/>
	<path id='gpPt1' stroke-width='0.222' stroke='currentColor' d='M-1,-1 L1,1 M1,-1 L-1,1'/>
	<path id='gpPt2' stroke-width='0.222' stroke='currentColor' d='M-1,0 L1,0 M0,-1 L0,1 M-1,-1 L1,1 M-1,1 L1,-1'/>
	<rect id='gpPt3' stroke-width='0.222' stroke='currentColor' x='-1' y='-1' width='2' height='2'/>
	<rect id='gpPt4' stroke-width='0.222' stroke='currentColor' fill='currentColor' x='-1' y='-1' width='2' height='2'/>
	<circle id='gpPt5' stroke-width='0.222' stroke='currentColor' cx='0' cy='0' r='1'/>
	<use xlink:href='#gpPt5' id='gpPt6' fill='currentColor' stroke='none'/>
	<path id='gpPt7' stroke-width='0.222' stroke='currentColor' d='M0,-1.33 L-1.33,0.67 L1.33,0.67 z'/>
	<use xlink:href='#gpPt7' id='gpPt8' fill='currentColor' stroke='none'/>
	<use xlink:href='#gpPt7' id='gpPt9' stroke='currentColor' transform='rotate(180)'/>
	<use xlink:href='#gpPt9' id='gpPt10' fill='currentColor' stroke='none'/>
	<use xlink:href='#gpPt3' id='gpPt11' stroke='currentColor' transform='rotate(45)'/>
	<use xlink:href='#gpPt11' id='gpPt12' fill='currentColor' stroke='none'/>
	<path id='gpPt13' stroke-width='0.222' stroke='currentColor' d='M0,1.330 L1.265,0.411 L0.782,-1.067 L-0.782,-1.076 L-1.265,0.411 z'/>
	<use xlink:href='#gpPt13' id='gpPt14' fill='currentColor' stroke='none'/>
	<filter id='textbox' filterUnits='objectBoundingBox' x='0' y='0' height='1' width='1'>
	  <feFlood flood-color='white' flood-opacity='1' result='bgnd'/>
	  <feComposite in='SourceGraphic' in2='bgnd' operator='atop'/>
	</filter>
	<filter id='greybox' filterUnits='objectBoundingBox' x='0' y='0' height='1' width='1'>
	  <feFlood flood-color='lightgrey' flood-opacity='1' result='grey'/>
	  <feComposite in='SourceGraphic' in2='grey' operator='atop'/>
	</filter>
</defs>
<g fill="none" color="white" stroke="currentColor" stroke-width="1.00" stroke-linecap="butt" stroke-linejoin="miter">
</g>
<g fill="none" color="black" stroke="currentColor" stroke-width="1.00" stroke-linecap="butt" stroke-linejoin="miter">
	<path stroke='black'  d='M63.6,662.4 L72.6,662.4  '/>	<g transform="translate(55.3,666.3)" stroke="none" fill="black" font-family="Helvetica" font-size="12.00"  text-anchor="end">
		<text><tspan font-family="Helvetica" > 0</tspan></text>
	</g>
</g>
<g fill="none" color="black" stroke="currentColor" stroke-width="1.00" stroke-linecap="butt" stroke-linejoin="miter">
	<path stroke='black'  d='M63.6,561.0 L72.6,561.0  '/>	<g transform="translate(55.3,564.9)" stroke="none" fill="black" font-family="Helvetica" font-size="12.00"  text-anchor="end">
		<text><tspan font-family="Helvetica" > 2</tspan></text>
	</g>
</g>
<g fill="none" color="black" stroke="currentColor" stroke-width="1.00" stroke-linecap="butt" stroke-linejoin="miter">
	<path stroke='black'  d='M63.6,459.6 L72.6,459.6  '/>	<g transform="translate(55.3,463.5)" stroke="none" fill="black" font-family="Helvetica" font-size="12.00"  text-anchor="end">
		<text><tspan font-family="Helvetica" > 4</tspan></text>
	</g>
</g>
<g fill="none" color="black" stroke="currentColor" stroke-width="1.00" stroke-linecap="butt" stroke-linejoin="miter">
	<path stroke='black'  d='M63.6,358.2 L72.6,358.2  '/>	<g transform="translate(55.3,362.1)" stroke="none" fill="black" font-family="Helvetica" font-size="12.00"  text-anchor="end">
		<text><tspan font-family="Helvetica" > 6</tspan></text>
	</g>
</g>
<g fill="none" color="black" stroke="currentColor" stroke-width="1.00" stroke-linecap="butt" stroke-linejoin="miter">
	<path stroke='black'  d='M63.6,256.9 L72.6,256.9  '/>	<g transform="translate(55.3,260.8)" stroke="none" fill="black" font-family="Helvetica" font-size="12.00"  text-anchor="end">
		<text><tspan font-family="Helvetica" > 8</tspan></text>
	</g>
</g>
<g fill="none" color="black" stroke="currentColor" stroke-width="1.00" stroke-linecap="butt" stroke-linejoin="miter">
	<path stroke='black'  d='M63.6,155.5 L72.6,155.5  '/>	<g transform="translate(55.3,159.4)" stroke="none" fill="black" font-family="Helvetica" font-size="12.00"  text-anchor="end">
		<text><tspan font-family="Helvetica" > 10</tspan></text>
	</g>
</g>
<g fill="none" color="black" stroke="currentColor" stroke-width="1.00" stroke-linecap="butt" stroke-linejoin="miter">
	<path stroke='black'  d='M63.6,54.1 L72.6,54.1  '/>	<g transform="translate(55.3,58.0)" stroke="none" fill="black" font-family="Helvetica" font-size="12.00"  text-anchor="end">
		<text><tspan font-family="Helvetica" > 12</tspan></text>
	</g>
</g>
<g fill="none" color="black" stroke="currentColor" stroke-width="1.00" stroke-linecap="butt" stroke-linejoin="miter">
	<path stroke='black'  d='M63.6,662.4 L63.6,653.4  '/>	<g transform="translate(63.6,684.3)" stroke="none" fill="black" font-family="Helvetica" font-size="12.00"  text-anchor="middle">
		<text><tspan font-family="Helvetica" > 8</tspan></text>
	</g>
</g>
<g fill="none" color="black" stroke="currentColor" stroke-width="1.00" stroke-linecap="butt" stroke-linejoin="miter">
	<path stroke='black'  d='M195.8,662.4 L195.8,653.4  '/>	<g transform="translate(195.8,684.3)" stroke="none" fill="black" font-family="Helvetica" font-size="12.00"  text-anchor="middle">
		<text><tspan font-family="Helvetica" > 8.2</tspan></text>
	</g>
</g>
<g fill="none" color="black" stroke="currentColor" stroke-width="1.00" stroke-linecap="butt" stroke-linejoin="miter">
	<path stroke='black'  d='M328.1,662.4 L328.1,653.4  '/>	<g transform="translate(328.1,684.3)" stroke="none" fill="black" font-family="Helvetica" font-size="12.00"  text-anchor="middle">
		<text><tspan font-family="Helvetica" > 8.4</tspan></text>
	</g>
</g>
<g fill="none" color="black" stroke="currentColor" stroke-width="1.00" stroke-linecap="butt" stroke-linejoin="miter">
	<path stroke='black'  d='M460.3,662.4 L460.3,653.4  '/>	<g transform="translate(460.3,684.3)" stroke="none" fill="black" font-family="Helvetica" font-size="12.00"  text-anchor="middle">
		<text><tspan font-family="Helvetica" > 8.6</tspan></text>
	</g>
</g>
<g fill="none" color="black" stroke="currentColor" stroke-width="1.00" stroke-linecap="butt" stroke-linejoin="miter">
	<path stroke='black'  d='M592.5,662.4 L592.5,653.4  '/>	<g transform="translate(592.5,684.3)" stroke="none" fill="black" font-family="Helvetica" font-size="12.00"  text-anchor="middle">
		<text><tspan font-family="Helvetica" > 8.8</tspan></text>
	</g>
</g>
<g fill="none" color="black" stroke="currentColor" stroke-width="1.00" stroke-linecap="butt" stroke-linejoin="miter">
	<path stroke='black'  d='M724.8,662.4 L724.8,653.4  '/>	<g transform="translate(724.8,684.3)" stroke="none" fill="black" font-family="Helvetica" font-size="12.00"  text-anchor="middle">
		<text><tspan font-family="Helvetica" > 9</tspan></text>
	</g>
</g>
<g fill="none" color="black" stroke="currentColor" stroke-width="1.00" stroke-linecap="butt" stroke-linejoin="miter">
	<path stroke='black'  d='M857.0,662.4 L857.0,653.4  '/>	<g transform="translate(857.0,684.3)" stroke="none" fill="black" font-family="Helvetica" font-size="12.00"  text-anchor="middle">
		<text><tspan font-family="Helvetica" > 9.2</tspan></text>
	</g>
</g>
<g fill="none" color="black" stroke="currentColor" stroke-width="1.00" stroke-linecap="butt" stroke-linejoin="miter">
	<path stroke='black'  d='M989.3,662.4 L989.3,653.4  '/>	<g transform="translate(989.3,684.3)" stroke="none" fill="black" font-family="Helvetica" font-size="12.00"  text-anchor="middle">
		<text><tspan font-family="Helvetica" > 9.4</tspan></text>
	</g>
</g>
<g fill="none" color="black" stroke="currentColor" stroke-width="1.00" stroke-linecap="butt" stroke-linejoin="miter">
	<path stroke='black'  d='M1121.5,662.4 L1121.5,653.4  '/>	<g transform="translate(1121.5,684.3)" stroke="none" fill="black" font-family="Helvetica" font-size="12.00"  text-anchor="middle">
		<text><tspan font-family="Helvetica" > 9.6</tspan></text>
	</g>
</g>
<g fill="none" color="black" stroke="currentColor" stroke-width="1.00" stroke-linecap="butt" stroke-linejoin="miter">
</g>
<g fill="none" color="black" stroke="currentColor" stroke-width="1.00" stroke-linecap="butt" stroke-linejoin="miter">
	<path stroke='black'  d='M63.6,54.1 L63.6,662.4 L1121.5,662.4 L1121.5,54.1 L63.6,54.1 Z  '/></g>
<g fill="none" color="black" stroke="currentColor" stroke-width="1.00" stroke-linecap="butt" stroke-linejoin="miter">
	<g transform="translate(16.3,358.3) rotate(270)" stroke="none" fill="black" font-family="Helvetica" font-size="12.00"  text-anchor="middle">
		<text><tspan font-family="Helvetica" >Density (a.u.)</tspan></text>
	</g>
</g>
<g fill="none" color="black" stroke="currentColor" stroke-width="1.00" stroke-linecap="butt" stroke-linejoin="miter">
	<g transform="translate(592.5,711.3)" stroke="none" fill="black" font-family="Helvetica" font-size="12.00"  text-anchor="middle">
		<text><tspan font-family="Helvetica" >Average time (us)</tspan></text>
	</g>
</g>
<g fill="none" color="black" stroke="currentColor" stroke-width="1.00" stroke-linecap="butt" stroke-linejoin="miter">
	<g transform="translate(592.5,31.0)" stroke="none" fill="black" font-family="Helvetica" font-size="12.00"  text-anchor="middle">
		<text><tspan font-family="Helvetica" >snapshot_restore_with_dense/Dense: Dirty pages + /proc/pid/mem/2</tspan></text>
	</g>
</g>
	<g id="gnuplot_plot_1" ><title>Base PDF</title>
<g fill="none" color="black" stroke="currentColor" stroke-width="1.00" stroke-linecap="butt" stroke-linejoin="miter">
	<g transform="translate(1196.9,67.0)" stroke="none" fill="black" font-family="Helvetica" font-size="12.00"  text-anchor="start">
		<text><tspan font-family="Helvetica" >Base PDF</tspan></text>
	</g>
</g>
<g fill="none" color="black" stroke="currentColor" stroke-width="1.00" stroke-linecap="butt" stroke-linejoin="miter">
	<g stroke='none' shape-rendering='crispEdges'>
		<polygon fill = 'rgb(227,  26,  28)' fill-opacity = '0.500000' points = '1146.4,67.6 1188.6,67.6 1188.6,58.6 1146.4,58.6 '/>
		<polygon fill = 'rgb(227,  26,  28)' fill-opacity = '0.500000' points = '506.2,662.2 507.3,662.1 508.5,662.1 509.7,662.0 510.9,661.9 512.0,661.8 513.2,661.7 514.4,661.6 515.6,661.4 516.8,661.2 517.9,661.0 519.1,660.7 520.3,660.4 521.5,660.0 522.7,659.6 523.8,659.1
525.0,658.6 526.2,658.0 527.4,657.2 528.5,656.4 529.7,655.5 530.9,654.5 532.1,653.3 533.3,651.9 534.4,650.5 535.6,648.8 536.8,646.9 538.0,644.9 539.1,642.6 540.3,640.1 541.5,637.3 542.7,634.2
543.9,630.9 545.0,627.2 546.2,623.2 547.4,618.8 548.6,614.1 549.8,609.0 550.9,603.4 552.1,597.5 553.3,591.0 554.5,584.2 555.6,576.8 556.8,568.9 558.0,560.6 559.2,551.7 560.4,542.3 561.5,532.4
562.7,521.9 563.9,510.9 565.1,499.4 566.2,487.4 567.4,474.9 568.6,461.9 569.8,448.4 571.0,434.5 572.1,420.1 573.3,405.4 574.5,390.4 575.7,375.1 576.9,359.6 578.0,344.0 579.2,328.2 580.4,312.4
581.6,296.7 582.7,281.1 583.9,265.7 585.1,250.6 586.3,235.9 587.5,221.7 588.6,208.0 589.8,195.1 591.0,182.9 592.2,171.5 593.3,161.0 594.5,151.5 595.7,143.2 596.9,135.9 598.1,129.8 599.2,125.0
600.4,121.5 601.6,119.3 602.8,118.5 604.0,118.9 605.1,120.8 606.3,123.9 607.5,128.4 608.7,134.2 609.8,141.1 611.0,149.3 612.2,158.6 613.4,168.9 614.6,180.2 615.7,192.4 616.9,205.4 618.1,219.0
619.3,233.3 620.4,248.1 621.6,263.4 622.8,278.9 624.0,294.7 625.2,310.7 626.3,326.6 627.5,342.6 628.7,358.5 629.9,374.1 631.1,389.6 632.2,404.7 633.4,419.5 634.6,433.9 635.8,447.9 636.9,461.4
638.1,474.4 639.3,486.8 640.5,498.8 641.7,510.2 642.8,521.0 644.0,531.3 645.2,541.1 646.4,550.3 647.5,559.0 648.7,567.2 649.9,574.9 651.1,582.1 652.3,588.8 653.4,595.1 654.6,601.0 655.8,606.4
657.0,611.5 658.2,616.1 659.3,620.4 660.5,624.4 661.7,628.1 662.9,631.5 664.0,634.6 665.2,637.4 666.4,640.0 667.6,642.4 668.8,644.5 669.9,646.5 671.1,648.3 672.3,649.9 673.5,651.3 674.6,652.6
675.8,653.8 677.0,654.9 678.2,655.8 679.4,656.6 680.5,657.4 681.7,658.1 682.9,658.6 684.1,659.1 685.3,659.6 686.4,660.0 687.6,660.3 688.8,660.6 690.0,660.9 691.1,661.1 692.3,661.3 693.5,661.5
694.7,661.6 695.9,661.8 697.0,661.9 698.2,662.0 699.4,662.0 700.6,662.1 701.7,662.1 702.9,662.2 704.1,662.2 705.3,662.3 706.5,662.3 707.6,662.3 708.8,662.3 710.0,662.3 711.2,662.4 712.4,662.4
713.5,662.4 714.7,662.4 715.9,662.4 717.1,662.4 718.2,662.4 719.4,662.4 720.6,662.4 721.8,662.4 723.0,662.4 724.1,662.4 725.3,662.4 726.5,662.4 727.7,662.4 728.8,662.4 730.0,662.4 731.2,662.4
732.4,662.4 733.6,662.4 734.7,662.4 735.9,662.4 737.1,662.4 738.3,662.4 739.5,662.4 740.6,662.4 741.8,662.4 743.0,662.4 744.2,662.4 745.3,662.4 746.5,662.4 747.7,662.4 748.9,662.4 750.1,662.4
751.2,662.4 752.4,662.4 753.6,662.4 754.8,662.4 755.9,662.4 757.1,662.4 758.3,662.4 759.5,662.4 760.7,662.4 761.8,662.4 763.0,662.4 764.2,662.4 765.4,662.4 766.6,662.4 767.7,662.4 768.9,662.4
770.1,662.4 771.3,662.4 772.4,662.4 773.6,662.4 774.8,662.4 776.0,662.4 777.2,662.4 778.3,662.4 779.5,662.4 780.7,662.4 781.9,662.4 783.0,662.4 784.2,662.4 785.4,662.4 786.6,662.4 787.8,662.4
788.9,662.4 790.1,662.4 791.3,662.4 792.5,662.4 793.7,662.4 794.8,662.4 796.0,662.4 797.2,662.4 798.4,662.4 799.5,662.4 800.7,662.4 801.9,662.4 803.1,662.4 804.3,662.4 805.4,662.4 806.6,662.4
807.8,662.4 809.0,662.4 810.1,662.4 811.3,662.4 812.5,662.4 813.7,662.4 814.9,662.4 816.0,662.4 817.2,662.4 818.4,662.4 819.6,662.4 820.8,662.4 821.9,662.4 823.1,662.4 824.3,662.4 825.5,662.4
826.6,662.4 827.8,662.4 829.0,662.4 830.2,662.4 831.4,662.4 832.5,662.4 833.7,662.4 834.9,662.4 836.1,662.4 837.2,662.4 838.4,662.4 839.6,662.4 840.8,662.4 842.0,662.4 843.1,662.4 844.3,662.4
845.5,662.4 846.7,662.4 847.9,662.4 849.0,662.4 850.2,662.4 851.4,662.4 852.6,662.4 853.7,662.4 854.9,662.4 856.1,662.4 857.3,662.4 858.5,662.4 859.6,662.4 860.8,662.4 862.0,662.4 863.2,662.4
864.4,662.4 865.5,662.4 866.7,662.4 867.9,662.4 869.1,662.4 870.2,662.4 871.4,662.4 872.6,662.4 873.8,662.4 875.0,662.4 876.1,662.4 877.3,662.4 878.5,662.4 879.7,662.4 880.8,662.4 882.0,662.4
883.2,662.4 884.4,662.4 885.6,662.4 886.7,662.4 887.9,662.4 889.1,662.4 890.3,662.4 891.5,662.4 892.6,662.4 893.8,662.4 895.0,662.4 896.2,662.4 897.3,662.4 898.5,662.4 899.7,662.4 900.9,662.4
902.1,662.4 903.2,662.4 904.4,662.4 905.6,662.4 906.8,662.4 907.9,662.4 909.1,662.4 910.3,662.4 911.5,662.4 912.7,662.4 913.8,662.4 915.0,662.4 916.2,662.4 917.4,662.4 918.6,662.4 919.7,662.4
920.9,662.4 922.1,662.4 923.3,662.4 924.4,662.4 925.6,662.4 926.8,662.4 928.0,662.4 929.2,662.4 930.3,662.4 931.5,662.4 932.7,662.4 933.9,662.4 935.0,662.4 936.2,662.4 937.4,662.4 938.6,662.4
939.8,662.4 940.9,662.4 942.1,662.4 943.3,662.4 944.5,662.4 945.7,662.4 946.8,662.4 948.0,662.4 949.2,662.4 950.4,662.4 951.5,662.4 952.7,662.4 953.9,662.4 955.1,662.4 956.3,662.4 957.4,662.4
958.6,662.4 959.8,662.4 961.0,662.4 962.1,662.4 963.3,662.4 964.5,662.4 965.7,662.4 966.9,662.4 968.0,662.4 969.2,662.4 970.4,662.4 971.6,662.4 972.8,662.4 973.9,662.4 975.1,662.3 976.3,662.3
977.5,662.3 978.6,662.3 979.8,662.3 981.0,662.3 982.2,662.3 983.4,662.2 984.5,662.2 985.7,662.2 986.9,662.1 988.1,662.1 989.2,662.0 990.4,662.0 991.6,661.9 992.8,661.8 994.0,661.7 995.1,661.6
996.3,661.5 997.5,661.4 998.7,661.3 999.9,661.2 1001.0,661.0 1002.2,660.9 1003.4,660.7 1004.6,660.5 1005.7,660.4 1006.9,660.2 1008.1,659.9 1009.3,659.7 1010.5,659.5 1011.6,659.3 1012.8,659.0 1014.0,658.8
1015.2,658.5 1016.3,658.3 1017.5,658.0 1018.7,657.8 1019.9,657.5 1021.1,657.3 1022.2,657.0 1023.4,656.8 1024.6,656.6 1025.8,656.4 1027.0,656.2 1028.1,656.0 1029.3,655.9 1030.5,655.8 1031.7,655.7 1032.8,655.6
1034.0,655.5 1035.2,655.5 1036.4,655.5 1037.6,655.5 1038.7,655.6 1039.9,655.6 1041.1,655.7 1042.3,655.9 1043.4,656.0 1044.6,656.2 1045.8,656.3 1047.0,656.5 1048.2,656.7 1049.3,657.0 1050.5,657.2 1051.7,657.4
1052.9,657.7 1054.1,657.9 1055.2,658.2 1056.4,658.4 1057.6,658.7 1058.8,658.9 1059.9,659.2 1061.1,659.4 1062.3,659.7 1063.5,659.9 1064.7,660.1 1065.8,660.3 1067.0,660.5 1068.2,660.7 1069.4,660.8 1070.5,661.0
1071.7,661.1 1072.9,661.3 1074.1,661.4 1075.3,661.5 1076.4,661.6 1077.6,661.7 1078.8,661.8 1080.0,661.9 1081.2,661.9 1082.3,662.0 1083.5,662.1 1084.7,662.1 1085.9,662.1 1087.0,662.2 1088.2,662.2 1089.4,662.2
1090.6,662.3 1091.8,662.3 1092.9,662.3 1094.1,662.3 1094.1,662.4 1092.9,662.4 1091.8,662.4 1090.6,662.4 1089.4,662.4 1088.2,662.4 1087.0,662.4 1085.9,662.4 1084.7,662.4 1083.5,662.4 1082.3,662.4 1081.2,662.4
1080.0,662.4 1078.8,662.4 1077.6,662.4 1076.4,662.4 1075.3,662.4 1074.1,662.4 1072.9,662.4 1071.7,662.4 1070.5,662.4 1069.4,662.4 1068.2,662.4 1067.0,662.4 1065.8,662.4 1064.7,662.4 1063.5,662.4 1062.3,662.4
1061.1,662.4 1059.9,662.4 1058.8,662.4 1057.6,662.4 1056.4,662.4 1055.2,662.4 1054.1,662.4 1052.9,662.4 1051.7,662.4 1050.5,662.4 1049.3,662.4 1048.2,662.4 1047.0,662.4 1045.8,662.4 1044.6,662.4 1043.4,662.4
1042.3,662.4 1041.1,662.4 1039.9,662.4 1038.7,662.4 1037.6,662.4 1036.4,662.4 1035.2,662.4 1034.0,662.4 1032.8,662.4 1031.7,662.4 1030.5,662.4 1029.3,662.4 1028.1,662.4 1027.0,662.4 1025.8,662.4 1024.6,662.4
1023.4,662.4 1022.2,662.4 1021.1,662.4 1019.9,662.4 1018.7,662.4 1017.5,662.4 1016.3,662.4 1015.2,662.4 1014.0,662.4 1012.8,662.4 1011.6,662.4 1010.5,662.4 1009.3,662.4 1008.1,662.4 1006.9,662.4 1005.7,662.4
1004.6,662.4 1003.4,662.4 1002.2,662.4 1001.0,662.4 999.9,662.4 998.7,662.4 997.5,662.4 996.3,662.4 995.1,662.4 994.0,662.4 992.8,662.4 991.6,662.4 990.4,662.4 989.2,662.4 988.1,662.4 986.9,662.4
985.7,662.4 984.5,662.4 983.4,662.4 982.2,662.4 981.0,662.4 979.8,662.4 978.6,662.4 977.5,662.4 976.3,662.4 975.1,662.4 973.9,662.4 972.8,662.4 971.6,662.4 970.4,662.4 969.2,662.4 968.0,662.4
966.9,662.4 965.7,662.4 964.5,662.4 963.3,662.4 962.1,662.4 961.0,662.4 959.8,662.4 958.6,662.4 957.4,662.4 956.3,662.4 955.1,662.4 953.9,662.4 952.7,662.4 951.5,662.4 950.4,662.4 949.2,662.4
948.0,662.4 946.8,662.4 945.7,662.4 944.5,662.4 943.3,662.4 942.1,662.4 940.9,662.4 939.8,662.4 938.6,662.4 937.4,662.4 936.2,662.4 935.0,662.4 933.9,662.4 932.7,662.4 931.5,662.4 930.3,662.4
929.2,662.4 928.0,662.4 926.8,662.4 925.6,662.4 924.4,662.4 923.3,662.4 922.1,662.4 920.9,662.4 919.7,662.4 918.6,662.4 917.4,662.4 916.2,662.4 915.0,662.4 913.8,662.4 912.7,662.4 911.5,662.4
910.3,662.4 909.1,662.4 907.9,662.4 906.8,662.4 905.6,662.4 904.4,662.4 903.2,662.4 902.1,662.4 900.9,662.4 899.7,662.4 898.5,662.4 897.3,662.4 896.2,662.4 895.0,662.4 893.8,662.4 892.6,662.4
891.5,662.4 890.3,662.4 889.1,662.4 887.9,662.4 886.7,662.4 885.6,662.4 884.4,662.4 883.2,662.4 882.0,662.4 880.8,662.4 879.7,662.4 878.5,662.4 877.3,662.4 876.1,662.4 875.0,662.4 873.8,662.4
872.6,662.4 871.4,662.4 870.2,662.4 869.1,662.4 867.9,662.4 866.7,662.4 865.5,662.4 864.4,662.4 863.2,662.4 862.0,662.4 860.8,662.4 859.6,662.4 858.5,662.4 857.3,662.4 856.1,662.4 854.9,662.4
853.7,662.4 852.6,662.4 851.4,662.4 850.2,662.4 849.0,662.4 847.9,662.4 846.7,662.4 845.5,662.4 844.3,662.4 843.1,662.4 842.0,662.4 840.8,662.4 839.6,662.4 838.4,662.4 837.2,662.4 836.1,662.4
834.9,662.4 833.7,662.4 832.5,662.4 831.4,662.4 830.2,662.4 829.0,662.4 827.8,662.4 826.6,662.4 825.5,662.4 824.3,662.4 823.1,662.4 821.9,662.4 820.8,662.4 819.6,662.4 818.4,662.4 817.2,662.4
816.0,662.4 814.9,662.4 813.7,662.4 812.5,662.4 811.3,662.4 810.1,662.4 809.0,662.4 807.8,662.4 806.6,662.4 805.4,662.4 804.3,662.4 803.1,662.4 801.9,662.4 800.7,662.4 799.5,662.4 798.4,662.4
797.2,662.4 796.0,662.4 794.8,662.4 793.7,662.4 792.5,662.4 791.3,662.4 790.1,662.4 788.9,662.4 787.8,662.4 786.6,662.4 785.4,662.4 784.2,662.4 783.0,662.4 781.9,662.4 780.7,662.4 779.5,662.4
778.3,662.4 777.2,662.4 776.0,662.4 774.8,662.4 773.6,662.4 772.4,662.4 771.3,662.4 770.1,662.4 768.9,662.4 767.7,662.4 766.6,662.4 765.4,662.4 764.2,662.4 763.0,662.4 761.8,662.4 760.7,662.4
759.5,662.4 758.3,662.4 757.1,662.4 755.9,662.4 754.8,662.4 753.6,662.4 752.4,662.4 751.2,662.4 750.1,662.4 748.9,662.4 747.7,662.4 746.5,662.4 745.3,662.4 744.2,662.4 743.0,662.4 741.8,662.4
740.6,662.4 739.5,662.4 738.3,662.4 737.1,662.4 735.9,662.4 734.7,662.4 733.6,662.4 732.4,662.4 731.2,662.4 730.0,662.4 728.8,662.4 727.7,662.4 726.5,662.4 725.3,662.4 724.1,662.4 723.0,662.4
721.8,662.4 720.6,662.4 719.4,662.4 718.2,662.4 717.1,662.4 715.9,662.4 714.7,662.4 713.5,662.4 712.4,662.4 711.2,662.4 710.0,662.4 708.8,662.4 707.6,662.4 706.5,662.4 705.3,662.4 704.1,662.4
702.9,662.4 701.7,662.4 700.6,662.4 699.4,662.4 698.2,662.4 697.0,662.4 695.9,662.4 694.7,662.4 693.5,662.4 692.3,662.4 691.1,662.4 690.0,662.4 688.8,662.4 687.6,662.4 686.4,662.4 685.3,662.4
684.1,662.4 682.9,662.4 681.7,662.4 680.5,662.4 679.4,662.4 678.2,662.4 677.0,662.4 675.8,662.4 674.6,662.4 673.5,662.4 672.3,662.4 671.1,662.4 669.9,662.4 668.8,662.4 667.6,662.4 666.4,662.4
665.2,662.4 664.0,662.4 662.9,662.4 661.7,662.4 660.5,662.4 659.3,662.4 658.2,662.4 657.0,662.4 655.8,662.4 654.6,662.4 653.4,662.4 652.3,662.4 651.1,662.4 649.9,662.4 648.7,662.4 647.5,662.4
646.4,662.4 645.2,662.4 644.0,662.4 642.8,662.4 641.7,662.4 640.5,662.4 639.3,662.4 638.1,662.4 636.9,662.4 635.8,662.4 634.6,662.4 633.4,662.4 632.2,662.4 631.1,662.4 629.9,662.4 628.7,662.4
627.5,662.4 626.3,662.4 625.2,662.4 624.0,662.4 622.8,662.4 621.6,662.4 620.4,662.4 619.3,662.4 618.1,662.4 616.9,662.4 615.7,662.4 614.6,662.4 613.4,662.4 612.2,662.4 611.0,662.4 609.8,662.4
608.7,662.4 607.5,662.4 606.3,662.4 605.1,662.4 604.0,662.4 602.8,662.4 601.6,662.4 600.4,662.4 599.2,662.4 598.1,662.4 596.9,662.4 595.7,662.4 594.5,662.4 593.3,662.4 592.2,662.4 591.0,662.4
589.8,662.4 588.6,662.4 587.5,662.4 586.3,662.4 585.1,662.4 583.9,662.4 582.7,662.4 581.6,662.4 580.4,662.4 579.2,662.4 578.0,662.4 576.9,662.4 575.7,662.4 574.5,662.4 573.3,662.4 572.1,662.4
571.0,662.4 569.8,662.4 568.6,662.4 567.4,662.4 566.2,662.4 565.1,662.4 563.9,662.4 562.7,662.4 561.5,662.4 560.4,662.4 559.2,662.4 558.0,662.4 556.8,662.4 555.6,662.4 554.5,662.4 553.3,662.4
552.1,662.4 550.9,662.4 549.8,662.4 548.6,662.4 547.4,662.4 546.2,662.4 545.0,662.4 543.9,662.4 542.7,662.4 541.5,662.4 540.3,662.4 539.1,662.4 538.0,662.4 536.8,662.4 535.6,662.4 534.4,662.4
533.3,662.4 532.1,662.4 530.9,662.4 529.7,662.4 528.5,662.4 527.4,662.4 526.2,662.4 525.0,662.4 523.8,662.4 522.7,662.4 521.5,662.4 520.3,662.4 519.1,662.4 517.9,662.4 516.8,662.4 515.6,662.4
514.4,662.4 513.2,662.4 512.0,662.4 510.9,662.4 509.7,662.4 508.5,662.4 507.3,662.4 506.2,662.4 '/>
	</g>
</g>
	</g>
	<g id="gnuplot_plot_2" ><title>Base Mean</title>
<g fill="none" color="white" stroke="rgb(227,  26,  28)" stroke-width="2.00" stroke-linecap="butt" stroke-linejoin="miter">
</g>
<g fill="none" color="black" stroke="currentColor" stroke-width="2.00" stroke-linecap="butt" stroke-linejoin="miter">
	<g transform="translate(1196.9,85.0)" stroke="none" fill="black" font-family="Helvetica" font-size="12.00"  text-anchor="start">
		<text><tspan font-family="Helvetica" >Base Mean</tspan></text>
	</g>
</g>
<g fill="none" color="black" stroke="currentColor" stroke-width="2.00" stroke-linecap="butt" stroke-linejoin="miter">
	<path stroke='rgb(227,  26,  28)'  d='M1146.4,81.1 L1188.6,81.1 M607.3,662.4 L607.3,127.6  '/></g>
	</g>
	<g id="gnuplot_plot_3" ><title>New PDF</title>
<g fill="none" color="white" stroke="rgb(227,  26,  28)" stroke-width="1.00" stroke-linecap="butt" stroke-linejoin="miter">
</g>
<g fill="none" color="black" stroke="currentColor" stroke-width="1.00" stroke-linecap="butt" stroke-linejoin="miter">
	<g transform="translate(1196.9,103.0)" stroke="none" fill="black" font-family="Helvetica" font-size="12.00"  text-anchor="start">
		<text><tspan font-family="Helvetica" >New PDF</tspan></text>
	</g>
</g>
<g fill="none" color="black" stroke="currentColor" stroke-width="1.00" stroke-linecap="butt" stroke-linejoin="miter">
	<g stroke='none' shape-rendering='crispEdges'>
		<polygon fill = 'rgb( 31, 120, 180)' fill-opacity = '0.500000' points = '1146.4,103.6 1188.6,103.6 1188.6,94.6 1146.4,94.6 '/>
		<polygon fill = 'rgb( 31, 120, 180)' fill-opacity = '0.500000' points = '134.4,662.2 136.1,662.2 137.7,662.2 139.4,662.2 141.1,662.1 142.7,662.1 144.4,662.0 146.1,662.0 147.8,661.9 149.4,661.8 151.1,661.8 152.8,661.7 154.4,661.6 156.1,661.5 157.8,661.4 159.4,661.2
161.1,661.1 162.8,660.9 164.4,660.7 166.1,660.5 167.8,660.2 169.5,660.0 171.1,659.7 172.8,659.4 174.5,659.0 176.1,658.6 177.8,658.2 179.5,657.7 181.1,657.1 182.8,656.6 184.5,655.9 186.1,655.2
187.8,654.5 189.5,653.6 191.2,652.7 192.8,651.7 194.5,650.7 196.2,649.5 197.8,648.3 199.5,646.9 201.2,645.5 202.8,643.9 204.5,642.2 206.2,640.4 207.8,638.5 209.5,636.4 211.2,634.2 212.9,631.9
214.5,629.4 216.2,626.8 217.9,624.0 219.5,621.0 221.2,617.9 222.9,614.6 224.5,611.1 226.2,607.5 227.9,603.7 229.5,599.7 231.2,595.6 232.9,591.2 234.5,586.7 236.2,582.1 237.9,577.2 239.6,572.2
241.2,567.1 242.9,561.8 244.6,556.3 246.2,550.7 247.9,545.0 249.6,539.2 251.2,533.3 252.9,527.2 254.6,521.1 256.2,515.0 257.9,508.8 259.6,502.5 261.3,496.2 262.9,490.0 264.6,483.7 266.3,477.5
267.9,471.4 269.6,465.3 271.3,459.4 272.9,453.5 274.6,447.8 276.3,442.3 277.9,436.9 279.6,431.7 281.3,426.8 283.0,422.1 284.6,417.6 286.3,413.4 288.0,409.5 289.6,405.9 291.3,402.7 293.0,399.7
294.6,397.1 296.3,394.9 298.0,393.0 299.6,391.5 301.3,390.4 303.0,389.6 304.6,389.2 306.3,389.2 308.0,389.6 309.7,390.4 311.3,391.6 313.0,393.1 314.7,395.0 316.3,397.2 318.0,399.8 319.7,402.8
321.3,406.0 323.0,409.6 324.7,413.4 326.3,417.5 328.0,421.9 329.7,426.6 331.4,431.4 333.0,436.5 334.7,441.7 336.4,447.1 338.0,452.7 339.7,458.4 341.4,464.2 343.0,470.1 344.7,476.0 346.4,482.0
348.0,488.1 349.7,494.1 351.4,500.2 353.1,506.2 354.7,512.2 356.4,518.2 358.1,524.1 359.7,529.9 361.4,535.6 363.1,541.2 364.7,546.7 366.4,552.1 368.1,557.4 369.7,562.5 371.4,567.5 373.1,572.3
374.7,577.0 376.4,581.5 378.1,585.9 379.8,590.1 381.4,594.1 383.1,598.0 384.8,601.7 386.4,605.2 388.1,608.6 389.8,611.9 391.4,615.0 393.1,617.9 394.8,620.7 396.4,623.3 398.1,625.8 399.8,628.1
401.5,630.4 403.1,632.4 404.8,634.4 406.5,636.3 408.1,638.0 409.8,639.6 411.5,641.1 413.1,642.5 414.8,643.9 416.5,645.1 418.1,646.2 419.8,647.3 421.5,648.3 423.2,649.2 424.8,650.0 426.5,650.8
428.2,651.5 429.8,652.2 431.5,652.8 433.2,653.4 434.8,653.9 436.5,654.3 438.2,654.8 439.8,655.2 441.5,655.5 443.2,655.8 444.8,656.1 446.5,656.4 448.2,656.6 449.9,656.9 451.5,657.1 453.2,657.2
454.9,657.4 456.5,657.5 458.2,657.7 459.9,657.8 461.5,657.9 463.2,658.0 464.9,658.1 466.5,658.1 468.2,658.2 469.9,658.3 471.6,658.3 473.2,658.4 474.9,658.4 476.6,658.5 478.2,658.5 479.9,658.6
481.6,658.6 483.2,658.6 484.9,658.7 486.6,658.7 488.2,658.7 489.9,658.8 491.6,658.8 493.3,658.9 494.9,658.9 496.6,659.0 498.3,659.0 499.9,659.0 501.6,659.1 503.3,659.1 504.9,659.2 506.6,659.2
508.3,659.3 509.9,659.3 511.6,659.3 513.3,659.4 514.9,659.4 516.6,659.5 518.3,659.5 520.0,659.5 521.6,659.6 523.3,659.6 525.0,659.6 526.6,659.7 528.3,659.7 530.0,659.7 531.6,659.7 533.3,659.7
535.0,659.7 536.6,659.7 538.3,659.7 540.0,659.6 541.7,659.6 543.3,659.6 545.0,659.5 546.7,659.5 548.3,659.4 550.0,659.3 551.7,659.3 553.3,659.2 555.0,659.1 556.7,659.0 558.3,658.9 560.0,658.7
561.7,658.6 563.4,658.5 565.0,658.3 566.7,658.1 568.4,658.0 570.0,657.8 571.7,657.6 573.4,657.4 575.0,657.2 576.7,657.0 578.4,656.8 580.0,656.6 581.7,656.3 583.4,656.1 585.0,655.8 586.7,655.6
588.4,655.3 590.1,655.1 591.7,654.8 593.4,654.5 595.1,654.2 596.7,654.0 598.4,653.7 600.1,653.4 601.7,653.1 603.4,652.8 605.1,652.5 606.7,652.2 608.4,651.9 610.1,651.7 611.8,651.4 613.4,651.1
615.1,650.8 616.8,650.5 618.4,650.2 620.1,650.0 621.8,649.7 623.4,649.5 625.1,649.2 626.8,649.0 628.4,648.7 630.1,648.5 631.8,648.3 633.5,648.1 635.1,647.9 636.8,647.7 638.5,647.5 640.1,647.4
641.8,647.2 643.5,647.1 645.1,647.0 646.8,646.9 648.5,646.8 650.1,646.7 651.8,646.6 653.5,646.6 655.1,646.6 656.8,646.5 658.5,646.6 660.2,646.6 661.8,646.6 663.5,646.7 665.2,646.7 666.8,646.8
668.5,646.9 670.2,647.1 671.8,647.2 673.5,647.4 675.2,647.5 676.8,647.7 678.5,647.9 680.2,648.1 681.9,648.4 683.5,648.6 685.2,648.9 686.9,649.1 688.5,649.4 690.2,649.7 691.9,650.0 693.5,650.3
695.2,650.6 696.9,650.9 698.5,651.2 700.2,651.6 701.9,651.9 703.6,652.2 705.2,652.6 706.9,652.9 708.6,653.2 710.2,653.6 711.9,653.9 713.6,654.2 715.2,654.6 716.9,654.9 718.6,655.2 720.2,655.5
721.9,655.8 723.6,656.1 725.3,656.4 726.9,656.7 728.6,657.0 730.3,657.3 731.9,657.5 733.6,657.8 735.3,658.0 736.9,658.2 738.6,658.5 740.3,658.7 741.9,658.9 743.6,659.1 745.3,659.3 746.9,659.4
748.6,659.6 750.3,659.7 752.0,659.9 753.6,660.0 755.3,660.1 757.0,660.2 758.6,660.3 760.3,660.4 762.0,660.5 763.6,660.5 765.3,660.6 767.0,660.6 768.6,660.7 770.3,660.7 772.0,660.7 773.7,660.8
775.3,660.8 777.0,660.8 778.7,660.8 780.3,660.8 782.0,660.7 783.7,660.7 785.3,660.7 787.0,660.7 788.7,660.6 790.3,660.6 792.0,660.5 793.7,660.5 795.4,660.4 797.0,660.4 798.7,660.3 800.4,660.3
802.0,660.2 803.7,660.1 805.4,660.1 807.0,660.0 808.7,659.9 810.4,659.9 812.0,659.8 813.7,659.8 815.4,659.7 817.0,659.7 818.7,659.6 820.4,659.5 822.1,659.5 823.7,659.5 825.4,659.4 827.1,659.4
828.7,659.3 830.4,659.3 832.1,659.3 833.7,659.3 835.4,659.2 837.1,659.2 838.7,659.2 840.4,659.2 842.1,659.2 843.8,659.2 845.4,659.2 847.1,659.3 848.8,659.3 850.4,659.3 852.1,659.3 853.8,659.4
855.4,659.4 857.1,659.5 858.8,659.5 860.4,659.6 862.1,659.6 863.8,659.7 865.5,659.7 867.1,659.8 868.8,659.9 870.5,659.9 872.1,660.0 873.8,660.1 875.5,660.1 877.1,660.2 878.8,660.3 880.5,660.4
882.1,660.4 883.8,660.5 885.5,660.6 887.1,660.7 888.8,660.7 890.5,660.8 892.2,660.9 893.8,661.0 895.5,661.0 897.2,661.1 898.8,661.2 900.5,661.2 902.2,661.3 903.8,661.4 905.5,661.4 907.2,661.5
908.8,661.5 910.5,661.6 912.2,661.6 913.9,661.7 915.5,661.7 917.2,661.8 918.9,661.8 920.5,661.9 922.2,661.9 923.9,661.9 925.5,662.0 927.2,662.0 928.9,662.0 930.5,662.1 932.2,662.1 933.9,662.1
935.6,662.1 937.2,662.2 938.9,662.2 940.6,662.2 942.2,662.2 943.9,662.2 945.6,662.3 947.2,662.3 948.9,662.3 950.6,662.3 952.2,662.3 953.9,662.3 955.6,662.3 957.2,662.3 958.9,662.3 960.6,662.3
962.3,662.4 963.9,662.4 965.6,662.4 967.3,662.4 967.3,662.4 965.6,662.4 963.9,662.4 962.3,662.4 960.6,662.4 958.9,662.4 957.2,662.4 955.6,662.4 953.9,662.4 952.2,662.4 950.6,662.4 948.9,662.4
947.2,662.4 945.6,662.4 943.9,662.4 942.2,662.4 940.6,662.4 938.9,662.4 937.2,662.4 935.6,662.4 933.9,662.4 932.2,662.4 930.5,662.4 928.9,662.4 927.2,662.4 925.5,662.4 923.9,662.4 922.2,662.4
920.5,662.4 918.9,662.4 917.2,662.4 915.5,662.4 913.9,662.4 912.2,662.4 910.5,662.4 908.8,662.4 907.2,662.4 905.5,662.4 903.8,662.4 902.2,662.4 900.5,662.4 898.8,662.4 897.2,662.4 895.5,662.4
893.8,662.4 892.2,662.4 890.5,662.4 888.8,662.4 887.1,662.4 885.5,662.4 883.8,662.4 882.1,662.4 880.5,662.4 878.8,662.4 877.1,662.4 875.5,662.4 873.8,662.4 872.1,662.4 870.5,662.4 868.8,662.4
867.1,662.4 865.5,662.4 863.8,662.4 862.1,662.4 860.4,662.4 858.8,662.4 857.1,662.4 855.4,662.4 853.8,662.4 852.1,662.4 850.4,662.4 848.8,662.4 847.1,662.4 845.4,662.4 843.8,662.4 842.1,662.4
840.4,662.4 838.7,662.4 837.1,662.4 835.4,662.4 833.7,662.4 832.1,662.4 830.4,662.4 828.7,662.4 827.1,662.4 825.4,662.4 823.7,662.4 822.1,662.4 820.4,662.4 818.7,662.4 817.0,662.4 815.4,662.4
813.7,662.4 812.0,662.4 810.4,662.4 808.7,662.4 807.0,662.4 805.4,662.4 803.7,662.4 802.0,662.4 800.4,662.4 798.7,662.4 797.0,662.4 795.4,662.4 793.7,662.4 792.0,662.4 790.3,662.4 788.7,662.4
787.0,662.4 785.3,662.4 783.7,662.4 782.0,662.4 780.3,662.4 778.7,662.4 777.0,662.4 775.3,662.4 773.7,662.4 772.0,662.4 770.3,662.4 768.6,662.4 767.0,662.4 765.3,662.4 763.6,662.4 762.0,662.4
760.3,662.4 758.6,662.4 757.0,662.4 755.3,662.4 753.6,662.4 752.0,662.4 750.3,662.4 748.6,662.4 746.9,662.4 745.3,662.4 743.6,662.4 741.9,662.4 740.3,662.4 738.6,662.4 736.9,662.4 735.3,662.4
733.6,662.4 731.9,662.4 730.3,662.4 728.6,662.4 726.9,662.4 725.3,662.4 723.6,662.4 721.9,662.4 720.2,662.4 718.6,662.4 716.9,662.4 715.2,662.4 713.6,662.4 711.9,662.4 710.2,662.4 708.6,662.4
706.9,662.4 705.2,662.4 703.6,662.4 701.9,662.4 700.2,662.4 698.5,662.4 696.9,662.4 695.2,662.4 693.5,662.4 691.9,662.4 690.2,662.4 688.5,662.4 686.9,662.4 685.2,662.4 683.5,662.4 681.9,662.4
680.2,662.4 678.5,662.4 676.8,662.4 675.2,662.4 673.5,662.4 671.8,662.4 670.2,662.4 668.5,662.4 666.8,662.4 665.2,662.4 663.5,662.4 661.8,662.4 660.2,662.4 658.5,662.4 656.8,662.4 655.1,662.4
653.5,662.4 651.8,662.4 650.1,662.4 648.5,662.4 646.8,662.4 645.1,662.4 643.5,662.4 641.8,662.4 640.1,662.4 638.5,662.4 636.8,662.4 635.1,662.4 633.5,662.4 631.8,662.4 630.1,662.4 628.4,662.4
626.8,662.4 625.1,662.4 623.4,662.4 621.8,662.4 620.1,662.4 618.4,662.4 616.8,662.4 615.1,662.4 613.4,662.4 611.8,662.4 610.1,662.4 608.4,662.4 606.7,662.4 605.1,662.4 603.4,662.4 601.7,662.4
600.1,662.4 598.4,662.4 596.7,662.4 595.1,662.4 593.4,662.4 591.7,662.4 590.1,662.4 588.4,662.4 586.7,662.4 585.0,662.4 583.4,662.4 581.7,662.4 580.0,662.4 578.4,662.4 576.7,662.4 575.0,662.4
573.4,662.4 571.7,662.4 570.0,662.4 568.4,662.4 566.7,662.4 565.0,662.4 563.4,662.4 561.7,662.4 560.0,662.4 558.3,662.4 556.7,662.4 555.0,662.4 553.3,662.4 551.7,662.4 550.0,662.4 548.3,662.4
546.7,662.4 545.0,662.4 543.3,662.4 541.7,662.4 540.0,662.4 538.3,662.4 536.6,662.4 535.0,662.4 533.3,662.4 531.6,662.4 530.0,662.4 528.3,662.4 526.6,662.4 525.0,662.4 523.3,662.4 521.6,662.4
520.0,662.4 518.3,662.4 516.6,662.4 514.9,662.4 513.3,662.4 511.6,662.4 509.9,662.4 508.3,662.4 506.6,662.4 504.9,662.4 503.3,662.4 501.6,662.4 499.9,662.4 498.3,662.4 496.6,662.4 494.9,662.4
493.3,662.4 491.6,662.4 489.9,662.4 488.2,662.4 486.6,662.4 484.9,662.4 483.2,662.4 481.6,662.4 479.9,662.4 478.2,662.4 476.6,662.4 474.9,662.4 473.2,662.4 471.6,662.4 469.9,662.4 468.2,662.4
466.5,662.4 464.9,662.4 463.2,662.4 461.5,662.4 459.9,662.4 458.2,662.4 456.5,662.4 454.9,662.4 453.2,662.4 451.5,662.4 449.9,662.4 448.2,662.4 446.5,662.4 444.8,662.4 443.2,662.4 441.5,662.4
439.8,662.4 438.2,662.4 436.5,662.4 434.8,662.4 433.2,662.4 431.5,662.4 429.8,662.4 428.2,662.4 426.5,662.4 424.8,662.4 423.2,662.4 421.5,662.4 419.8,662.4 418.1,662.4 416.5,662.4 414.8,662.4
413.1,662.4 411.5,662.4 409.8,662.4 408.1,662.4 406.5,662.4 404.8,662.4 403.1,662.4 401.5,662.4 399.8,662.4 398.1,662.4 396.4,662.4 394.8,662.4 393.1,662.4 391.4,662.4 389.8,662.4 388.1,662.4
386.4,662.4 384.8,662.4 383.1,662.4 381.4,662.4 379.8,662.4 378.1,662.4 376.4,662.4 374.7,662.4 373.1,662.4 371.4,662.4 369.7,662.4 368.1,662.4 366.4,662.4 364.7,662.4 363.1,662.4 361.4,662.4
359.7,662.4 358.1,662.4 356.4,662.4 354.7,662.4 353.1,662.4 351.4,662.4 349.7,662.4 348.0,662.4 346.4,662.4 344.7,662.4 343.0,662.4 341.4,662.4 339.7,662.4 338.0,662.4 336.4,662.4 334.7,662.4
333.0,662.4 331.4,662.4 329.7,662.4 328.0,662.4 326.3,662.4 324.7,662.4 323.0,662.4 321.3,662.4 319.7,662.4 318.0,662.4 316.3,662.4 314.7,662.4 313.0,662.4 311.3,662.4 309.7,662.4 308.0,662.4
306.3,662.4 304.6,662.4 303.0,662.4 301.3,662.4 299.6,662.4 298.0,662.4 296.3,662.4 294.6,662.4 293.0,662.4 291.3,662.4 289.6,662.4 288.0,662.4 286.3,662.4 284.6,662.4 283.0,662.4 281.3,662.4
279.6,662.4 277.9,662.4 276.3,662.4 274.6,662.4 272.9,662.4 271.3,662.4 269.6,662.4 267.9,662.4 266.3,662.4 264.6,662.4 262.9,662.4 261.3,662.4 259.6,662.4 257.9,662.4 256.2,662.4 254.6,662.4
252.9,662.4 251.2,662.4 249.6,662.4 247.9,662.4 246.2,662.4 244.6,662.4 242.9,662.4 241.2,662.4 239.6,662.4 237.9,662.4 236.2,662.4 234.5,662.4 232.9,662.4 231.2,662.4 229.5,662.4 227.9,662.4
226.2,662.4 224.5,662.4 222.9,662.4 221.2,662.4 219.5,662.4 217.9,662.4 216.2,662.4 214.5,662.4 212.9,662.4 211.2,662.4 209.5,662.4 207.8,662.4 206.2,662.4 204.5,662.4 202.8,662.4 201.2,662.4
199.5,662.4 197.8,662.4 196.2,662.4 194.5,662.4 192.8,662.4 191.2,662.4 189.5,662.4 187.8,662.4 186.1,662.4 184.5,662.4 182.8,662.4 181.1,662.4 179.5,662.4 177.8,662.4 176.1,662.4 174.5,662.4
172.8,662.4 171.1,662.4 169.5,662.4 167.8,662.4 166.1,662.4 164.4,662.4 162.8,662.4 161.1,662.4 159.4,662.4 157.8,662.4 156.1,662.4 154.4,662.4 152.8,662.4 151.1,662.4 149.4,662.4 147.8,662.4
146.1,662.4 144.4,662.4 142.7,662.4 141.1,662.4 139.4,662.4 137.7,662.4 136.1,662.4 134.4,662.4 '/>
	</g>
</g>
	</g>
	<g id="gnuplot_plot_4" ><title>New Mean</title>
<g fill="none" color="white" stroke="rgb( 31, 120, 180)" stroke-width="2.00" stroke-linecap="butt" stroke-linejoin="miter">
</g>
<g fill="none" color="black" stroke="currentColor" stroke-width="2.00" stroke-linecap="butt" stroke-linejoin="miter">
	<g transform="translate(1196.9,121.0)" stroke="none" fill="black" font-family="Helvetica" font-size="12.00"  text-anchor="start">
		<text><tspan font-family="Helvetica" >New Mean</tspan></text>
	</g>
</g>
<g fill="none" color="black" stroke="currentColor" stroke-width="2.00" stroke-linecap="butt" stroke-linejoin="miter">
	<path stroke='rgb( 31, 120, 180)'  d='M1146.4,117.1 L1188.6,117.1 M334.9,662.4 L334.9,442.5  '/></g>
	</g>
<g fill="none" color="black" stroke="currentColor" stroke-width="2.00" stroke-linecap="butt" stroke-linejoin="miter">
</g>
<g fill="none" color="black" stroke="black" stroke-width="1.00" stroke-linecap="butt" stroke-linejoin="miter">
</g>
<g fill="none" color="black" stroke="currentColor" stroke-width="1.00" stroke-linecap="butt" stroke-linejoin="miter">
	<path stroke='black'  d='M63.6,54.1 L63.6,662.4 L1121.5,662.4 L1121.5,54.1 L63.6,54.1 Z  '/></g>
<g fill="none" color="black" stroke="currentColor" stroke-width="1.00" stroke-linecap="butt" stroke-linejoin="miter">
</g>
</g>
</svg>

