<?xml version="1.0" encoding="utf-8"  standalone="no"?>
<svg 
 viewBox="0 0 450 300"
 xmlns="http://www.w3.org/2000/svg"
 xmlns:xlink="http://www.w3.org/1999/xlink"
>

<title>Gnuplot</title>
<desc>Produced by GNUPLOT 5.2 patchlevel 6 </desc>

<g id="gnuplot_canvas">

<rect x="0" y="0" width="450" height="300" fill="none"/>
<defs>

	<circle id='gpDot' r='0.5' stroke-width='0.5' stroke='currentColor'/>
	<path id='gpPt0' stroke-width='0.222' stroke='currentColor' d='M-1,0 h2 M0,-1 v2'/>
	<path id='gpPt1' stroke-width='0.222' stroke='currentColor' d='M-1,-1 L1,1 M1,-1 L-1,1'/>
	<path id='gpPt2' stroke-width='0.222' stroke='currentColor' d='M-1,0 L1,0 M0,-1 L0,1 M-1,-1 L1,1 M-1,1 L1,-1'/>
	<rect id='gpPt3' stroke-width='0.222' stroke='currentColor' x='-1' y='-1' width='2' height='2'/>
	<rect id='gpPt4' stroke-width='0.222' stroke='currentColor' fill='currentColor' x='-1' y='-1' width='2' height='2'/>
	<circle id='gpPt5' stroke-width='0.222' stroke='currentColor' cx='0' cy='0' r='1'/>
	<use xlink:href='#gpPt5' id='gpPt6' fill='currentColor' stroke='none'/>
	<path id='gpPt7' stroke-width='0.222' stroke='currentColor' d='M0,-1.33 L-1.33,0.67 L1.33,0.67 z'/>
	<use xlink:href='#gpPt7' id='gpPt8' fill='currentColor' stroke='none'/>
	<use xlink:href='#gpPt7' id='gpPt9' stroke='currentColor' transform='rotate(180)'/>
	<use xlink:href='#gpPt9' id='gpPt10' fill='currentColor' stroke='none'/>
	<use xlink:href='#gpPt3' id='gpPt11' stroke='currentColor' transform='rotate(45)'/>
	<use xlink:href='#gpPt11' id='gpPt12' fill='currentColor' stroke='none'/>
	<path id='gpPt13' stroke-width='0.222' stroke='currentColor' d='M0,1.330 L1.265,0.411 L0.782,-1.067 L-0.782,-1.076 L-1.265,0.411 z'/>
	<use xlink:href='#gpPt13' id='gpPt14' fill='currentColor' stroke='none'/>
	<filter id='textbox' filterUnits='objectBoundingBox' x='0' y='0' height='1' width='1'>
	  <feFlood flood-color='white' flood-opacity='1' result='bgnd'/>
	  <feComposite in='SourceGraphic' in2='bgnd' operator='atop'/>
	</filter>
	<filter id='greybox' filterUnits='objectBoundingBox' x='0' y='0' height='1' width='1'>
	  <feFlood flood-color='lightgrey' flood-opacity='1' result='grey'/>
	  <feComposite in='SourceGraphic' in2='grey' operator='atop'/>
	</filter>
</defs>
<g fill="none" color="white" stroke="currentColor" stroke-width="1.00" stroke-linecap="butt" stroke-linejoin="miter">
</g>
<g fill="none" color="black" stroke="currentColor" stroke-width="1.00" stroke-linecap="butt" stroke-linejoin="miter">
	<path stroke='black'  d='M80.2,242.4 L89.2,242.4  '/>	<g transform="translate(71.9,246.3)" stroke="none" fill="black" font-family="Helvetica" font-size="12.00"  text-anchor="end">
		<text><tspan font-family="Helvetica" > 0</tspan></text>
	</g>
</g>
<g fill="none" color="black" stroke="currentColor" stroke-width="1.00" stroke-linecap="butt" stroke-linejoin="miter">
	<path stroke='black'  d='M80.2,205.8 L89.2,205.8  '/>	<g transform="translate(71.9,209.7)" stroke="none" fill="black" font-family="Helvetica" font-size="12.00"  text-anchor="end">
		<text><tspan font-family="Helvetica" > 0.05</tspan></text>
	</g>
</g>
<g fill="none" color="black" stroke="currentColor" stroke-width="1.00" stroke-linecap="butt" stroke-linejoin="miter">
	<path stroke='black'  d='M80.2,169.1 L89.2,169.1  '/>	<g transform="translate(71.9,173.0)" stroke="none" fill="black" font-family="Helvetica" font-size="12.00"  text-anchor="end">
		<text><tspan font-family="Helvetica" > 0.1</tspan></text>
	</g>
</g>
<g fill="none" color="black" stroke="currentColor" stroke-width="1.00" stroke-linecap="butt" stroke-linejoin="miter">
	<path stroke='black'  d='M80.2,132.5 L89.2,132.5  '/>	<g transform="translate(71.9,136.4)" stroke="none" fill="black" font-family="Helvetica" font-size="12.00"  text-anchor="end">
		<text><tspan font-family="Helvetica" > 0.15</tspan></text>
	</g>
</g>
<g fill="none" color="black" stroke="currentColor" stroke-width="1.00" stroke-linecap="butt" stroke-linejoin="miter">
	<path stroke='black'  d='M80.2,95.8 L89.2,95.8  '/>	<g transform="translate(71.9,99.7)" stroke="none" fill="black" font-family="Helvetica" font-size="12.00"  text-anchor="end">
		<text><tspan font-family="Helvetica" > 0.2</tspan></text>
	</g>
</g>
<g fill="none" color="black" stroke="currentColor" stroke-width="1.00" stroke-linecap="butt" stroke-linejoin="miter">
	<path stroke='black'  d='M80.2,59.2 L89.2,59.2  '/>	<g transform="translate(71.9,63.1)" stroke="none" fill="black" font-family="Helvetica" font-size="12.00"  text-anchor="end">
		<text><tspan font-family="Helvetica" > 0.25</tspan></text>
	</g>
</g>
<g fill="none" color="black" stroke="currentColor" stroke-width="1.00" stroke-linecap="butt" stroke-linejoin="miter">
	<path stroke='black'  d='M80.2,22.6 L89.2,22.6  '/>	<g transform="translate(71.9,26.5)" stroke="none" fill="black" font-family="Helvetica" font-size="12.00"  text-anchor="end">
		<text><tspan font-family="Helvetica" > 0.3</tspan></text>
	</g>
</g>
<g fill="none" color="black" stroke="currentColor" stroke-width="1.00" stroke-linecap="butt" stroke-linejoin="miter">
	<path stroke='black'  d='M127.8,242.4 L127.8,233.4  '/>	<g transform="translate(127.8,264.3)" stroke="none" fill="black" font-family="Helvetica" font-size="12.00"  text-anchor="middle">
		<text><tspan font-family="Helvetica" > 180</tspan></text>
	</g>
</g>
<g fill="none" color="black" stroke="currentColor" stroke-width="1.00" stroke-linecap="butt" stroke-linejoin="miter">
	<path stroke='black'  d='M188.5,242.4 L188.5,233.4  '/>	<g transform="translate(188.5,264.3)" stroke="none" fill="black" font-family="Helvetica" font-size="12.00"  text-anchor="middle">
		<text><tspan font-family="Helvetica" > 185</tspan></text>
	</g>
</g>
<g fill="none" color="black" stroke="currentColor" stroke-width="1.00" stroke-linecap="butt" stroke-linejoin="miter">
	<path stroke='black'  d='M249.2,242.4 L249.2,233.4  '/>	<g transform="translate(249.2,264.3)" stroke="none" fill="black" font-family="Helvetica" font-size="12.00"  text-anchor="middle">
		<text><tspan font-family="Helvetica" > 190</tspan></text>
	</g>
</g>
<g fill="none" color="black" stroke="currentColor" stroke-width="1.00" stroke-linecap="butt" stroke-linejoin="miter">
	<path stroke='black'  d='M309.8,242.4 L309.8,233.4  '/>	<g transform="translate(309.8,264.3)" stroke="none" fill="black" font-family="Helvetica" font-size="12.00"  text-anchor="middle">
		<text><tspan font-family="Helvetica" > 195</tspan></text>
	</g>
</g>
<g fill="none" color="black" stroke="currentColor" stroke-width="1.00" stroke-linecap="butt" stroke-linejoin="miter">
	<path stroke='black'  d='M370.5,242.4 L370.5,233.4  '/>	<g transform="translate(370.5,264.3)" stroke="none" fill="black" font-family="Helvetica" font-size="12.00"  text-anchor="middle">
		<text><tspan font-family="Helvetica" > 200</tspan></text>
	</g>
</g>
<g fill="none" color="black" stroke="currentColor" stroke-width="1.00" stroke-linecap="butt" stroke-linejoin="miter">
</g>
<g fill="none" color="black" stroke="currentColor" stroke-width="1.00" stroke-linecap="butt" stroke-linejoin="miter">
	<path stroke='black'  d='M80.2,18.1 L80.2,242.4 L425.0,242.4 L425.0,18.1 L80.2,18.1 Z  '/></g>
<g fill="none" color="black" stroke="currentColor" stroke-width="1.00" stroke-linecap="butt" stroke-linejoin="miter">
	<g transform="translate(16.3,130.3) rotate(270)" stroke="none" fill="black" font-family="Helvetica" font-size="12.00"  text-anchor="middle">
		<text><tspan font-family="Helvetica" >Density (a.u.)</tspan></text>
	</g>
</g>
<g fill="none" color="black" stroke="currentColor" stroke-width="1.00" stroke-linecap="butt" stroke-linejoin="miter">
	<g transform="translate(252.6,291.3)" stroke="none" fill="black" font-family="Helvetica" font-size="12.00"  text-anchor="middle">
		<text><tspan font-family="Helvetica" >Average time (us)</tspan></text>
	</g>
</g>
<g fill="none" color="black" stroke="currentColor" stroke-width="1.00" stroke-linecap="butt" stroke-linejoin="miter">
</g>
	<g id="gnuplot_plot_1" ><title>PDF</title>
<g fill="none" color="black" stroke="currentColor" stroke-width="1.00" stroke-linecap="butt" stroke-linejoin="miter">
	<g stroke='none' shape-rendering='crispEdges'>
		<polygon fill = 'rgb( 31, 120, 180)' fill-opacity = '0.250000' points = '80.2,241.7 80.9,241.6 81.6,241.5 82.3,241.4 83.0,241.2 83.7,241.0 84.3,240.8 85.0,240.6 85.7,240.3 86.4,240.0 87.1,239.7 87.8,239.3 88.5,238.9 89.2,238.4 89.9,237.9 90.6,237.3
91.3,236.7 91.9,236.0 92.6,235.2 93.3,234.3 94.0,233.4 94.7,232.3 95.4,231.2 96.1,229.9 96.8,228.6 97.5,227.1 98.2,225.5 98.9,223.7 99.5,221.9 100.2,219.8 100.9,217.6 101.6,215.3
102.3,212.8 103.0,210.1 103.7,207.3 104.4,204.2 105.1,201.0 105.8,197.6 106.5,194.1 107.1,190.3 107.8,186.3 108.5,182.2 109.2,177.9 109.9,173.4 110.6,168.7 111.3,163.8 112.0,158.8 112.7,153.6
113.4,148.3 114.1,142.9 114.7,137.4 115.4,131.7 116.1,126.0 116.8,120.2 117.5,114.3 118.2,108.5 118.9,102.6 119.6,96.7 120.3,90.9 121.0,85.1 121.7,79.5 122.3,73.9 123.0,68.5 123.7,63.2
124.4,58.1 125.1,53.3 125.8,48.6 126.5,44.2 127.2,40.1 127.9,36.3 128.6,32.8 129.3,29.7 130.0,26.9 130.6,24.4 131.3,22.4 132.0,20.7 132.7,19.5 133.4,18.6 134.1,18.1 134.8,18.1
135.5,18.5 136.2,19.2 136.9,20.4 137.6,22.0 138.2,24.0 138.9,26.3 139.6,29.0 140.3,32.1 141.0,35.4 141.7,39.1 142.4,43.1 143.1,47.4 143.8,51.9 144.5,56.6 145.2,61.6 145.8,66.7
146.5,72.0 147.2,77.4 147.9,82.9 148.6,88.5 149.3,94.2 150.0,99.9 150.7,105.7 151.4,111.4 152.1,117.1 152.8,122.7 153.4,128.3 154.1,133.9 154.8,139.3 155.5,144.6 156.2,149.8 156.9,154.8
157.6,159.8 158.3,164.5 159.0,169.1 159.7,173.6 160.4,177.8 161.0,181.9 161.7,185.8 162.4,189.5 163.1,193.1 163.8,196.4 164.5,199.6 165.2,202.6 165.9,205.4 166.6,208.1 167.3,210.6 168.0,212.9
168.6,215.1 169.3,217.1 170.0,219.0 170.7,220.7 171.4,222.3 172.1,223.8 172.8,225.1 173.5,226.3 174.2,227.5 174.9,228.5 175.6,229.4 176.2,230.3 176.9,231.0 177.6,231.7 178.3,232.3 179.0,232.8
179.7,233.3 180.4,233.8 181.1,234.1 181.8,234.5 182.5,234.8 183.2,235.0 183.8,235.3 184.5,235.5 185.2,235.7 185.9,235.8 186.6,236.0 187.3,236.1 188.0,236.2 188.7,236.3 189.4,236.4 190.1,236.5
190.8,236.6 191.4,236.7 192.1,236.8 192.8,236.8 193.5,236.9 194.2,237.0 194.9,237.1 195.6,237.2 196.3,237.3 197.0,237.4 197.7,237.5 198.4,237.6 199.0,237.7 199.7,237.8 200.4,238.0 201.1,238.1
201.8,238.2 202.5,238.3 203.2,238.5 203.9,238.6 204.6,238.7 205.3,238.9 206.0,239.0 206.6,239.2 207.3,239.3 208.0,239.4 208.7,239.5 209.4,239.7 210.1,239.8 210.8,239.9 211.5,240.0 212.2,240.1
212.9,240.2 213.6,240.3 214.3,240.4 214.9,240.5 215.6,240.6 216.3,240.7 217.0,240.7 217.7,240.8 218.4,240.8 219.1,240.9 219.8,240.9 220.5,240.9 221.2,240.9 221.9,241.0 222.5,241.0 223.2,241.0
223.9,240.9 224.6,240.9 225.3,240.9 226.0,240.8 226.7,240.8 227.4,240.7 228.1,240.7 228.8,240.6 229.5,240.5 230.1,240.5 230.8,240.4 231.5,240.3 232.2,240.2 232.9,240.1 233.6,239.9 234.3,239.8
235.0,239.7 235.7,239.6 236.4,239.4 237.1,239.3 237.7,239.2 238.4,239.0 239.1,238.9 239.8,238.7 240.5,238.6 241.2,238.4 241.9,238.2 242.6,238.1 243.3,237.9 244.0,237.8 244.7,237.6 245.3,237.5
246.0,237.3 246.7,237.2 247.4,237.0 248.1,236.9 248.8,236.7 249.5,236.6 250.2,236.5 250.9,236.3 251.6,236.2 252.3,236.1 252.9,236.0 253.6,235.9 254.3,235.8 255.0,235.7 255.7,235.6 256.4,235.5
257.1,235.5 257.8,235.4 258.5,235.4 259.2,235.3 259.9,235.3 260.5,235.2 261.2,235.2 261.9,235.2 262.6,235.2 263.3,235.2 264.0,235.2 264.7,235.3 265.4,235.3 266.1,235.3 266.8,235.4 267.5,235.4
268.1,235.5 268.8,235.5 269.5,235.6 270.2,235.6 270.9,235.7 271.6,235.8 272.3,235.9 273.0,236.0 273.7,236.0 274.4,236.1 275.1,236.2 275.7,236.3 276.4,236.4 277.1,236.5 277.8,236.6 278.5,236.7
279.2,236.8 279.9,236.9 280.6,237.0 281.3,237.2 282.0,237.3 282.7,237.4 283.3,237.5 284.0,237.6 284.7,237.7 285.4,237.8 286.1,237.9 286.8,238.0 287.5,238.1 288.2,238.2 288.9,238.3 289.6,238.4
290.3,238.6 290.9,238.7 291.6,238.8 292.3,238.9 293.0,239.0 293.7,239.1 294.4,239.2 295.1,239.3 295.8,239.4 296.5,239.5 297.2,239.6 297.9,239.7 298.6,239.8 299.2,239.9 299.9,240.0 300.6,240.1
301.3,240.2 302.0,240.3 302.7,240.4 303.4,240.5 304.1,240.6 304.8,240.7 305.5,240.8 306.2,240.9 306.8,241.0 307.5,241.0 308.2,241.1 308.9,241.2 309.6,241.3 310.3,241.3 311.0,241.4 311.7,241.5
312.4,241.5 313.1,241.6 313.8,241.7 314.4,241.7 315.1,241.8 315.8,241.8 316.5,241.9 317.2,241.9 317.9,241.9 318.6,242.0 319.3,242.0 320.0,242.0 320.7,242.1 321.4,242.1 322.0,242.1 322.7,242.2
323.4,242.2 324.1,242.2 324.8,242.2 325.5,242.2 326.2,242.3 326.9,242.3 327.6,242.3 328.3,242.3 329.0,242.3 329.6,242.3 330.3,242.3 331.0,242.3 331.7,242.3 332.4,242.3 333.1,242.3 333.8,242.3
334.5,242.3 335.2,242.3 335.9,242.3 336.6,242.3 337.2,242.3 337.9,242.3 338.6,242.3 339.3,242.3 340.0,242.3 340.7,242.3 341.4,242.3 342.1,242.3 342.8,242.2 343.5,242.2 344.2,242.2 344.8,242.2
345.5,242.2 346.2,242.1 346.9,242.1 347.6,242.1 348.3,242.1 349.0,242.0 349.7,242.0 350.4,242.0 351.1,241.9 351.8,241.9 352.4,241.8 353.1,241.8 353.8,241.7 354.5,241.7 355.2,241.6 355.9,241.6
356.6,241.5 357.3,241.5 358.0,241.4 358.7,241.3 359.4,241.3 360.0,241.2 360.7,241.1 361.4,241.1 362.1,241.0 362.8,240.9 363.5,240.9 364.2,240.8 364.9,240.7 365.6,240.7 366.3,240.6 367.0,240.5
367.6,240.5 368.3,240.4 369.0,240.3 369.7,240.3 370.4,240.2 371.1,240.2 371.8,240.1 372.5,240.1 373.2,240.0 373.9,240.0 374.6,240.0 375.2,239.9 375.9,239.9 376.6,239.9 377.3,239.9 378.0,239.9
378.7,239.9 379.4,239.9 380.1,239.9 380.8,239.9 381.5,239.9 382.2,239.9 382.9,239.9 383.5,240.0 384.2,240.0 384.9,240.0 385.6,240.1 386.3,240.1 387.0,240.2 387.7,240.2 388.4,240.3 389.1,240.4
389.8,240.4 390.5,240.5 391.1,240.5 391.8,240.6 392.5,240.7 393.2,240.7 393.9,240.8 394.6,240.9 395.3,241.0 396.0,241.0 396.7,241.1 397.4,241.2 398.1,241.2 398.7,241.3 399.4,241.4 400.1,241.4
400.8,241.5 401.5,241.5 402.2,241.6 402.9,241.6 403.6,241.7 404.3,241.7 405.0,241.8 405.7,241.8 406.3,241.9 407.0,241.9 407.7,242.0 408.4,242.0 409.1,242.0 409.8,242.1 410.5,242.1 411.2,242.1
411.9,242.1 412.6,242.2 413.3,242.2 413.9,242.2 414.6,242.2 415.3,242.2 416.0,242.3 416.7,242.3 417.4,242.3 418.1,242.3 418.8,242.3 419.5,242.3 420.2,242.3 420.9,242.3 421.5,242.3 422.2,242.4
422.9,242.4 423.6,242.4 424.3,242.4 425.0,242.4 425.0,242.4 424.3,242.4 423.6,242.4 422.9,242.4 422.2,242.4 421.5,242.4 420.9,242.4 420.2,242.4 419.5,242.4 418.8,242.4 418.1,242.4 417.4,242.4
416.7,242.4 416.0,242.4 415.3,242.4 414.6,242.4 413.9,242.4 413.3,242.4 412.6,242.4 411.9,242.4 411.2,242.4 410.5,242.4 409.8,242.4 409.1,242.4 408.4,242.4 407.7,242.4 407.0,242.4 406.3,242.4
405.7,242.4 405.0,242.4 404.3,242.4 403.6,242.4 402.9,242.4 402.2,242.4 401.5,242.4 400.8,242.4 400.1,242.4 399.4,242.4 398.7,242.4 398.1,242.4 397.4,242.4 396.7,242.4 396.0,242.4 395.3,242.4
394.6,242.4 393.9,242.4 393.2,242.4 392.5,242.4 391.8,242.4 391.1,242.4 390.5,242.4 389.8,242.4 389.1,242.4 388.4,242.4 387.7,242.4 387.0,242.4 386.3,242.4 385.6,242.4 384.9,242.4 384.2,242.4
383.5,242.4 382.9,242.4 382.2,242.4 381.5,242.4 380.8,242.4 380.1,242.4 379.4,242.4 378.7,242.4 378.0,242.4 377.3,242.4 376.6,242.4 375.9,242.4 375.2,242.4 374.6,242.4 373.9,242.4 373.2,242.4
372.5,242.4 371.8,242.4 371.1,242.4 370.4,242.4 369.7,242.4 369.0,242.4 368.3,242.4 367.6,242.4 367.0,242.4 366.3,242.4 365.6,242.4 364.9,242.4 364.2,242.4 363.5,242.4 362.8,242.4 362.1,242.4
361.4,242.4 360.7,242.4 360.0,242.4 359.4,242.4 358.7,242.4 358.0,242.4 357.3,242.4 356.6,242.4 355.9,242.4 355.2,242.4 354.5,242.4 353.8,242.4 353.1,242.4 352.4,242.4 351.8,242.4 351.1,242.4
350.4,242.4 349.7,242.4 349.0,242.4 348.3,242.4 347.6,242.4 346.9,242.4 346.2,242.4 345.5,242.4 344.8,242.4 344.2,242.4 343.5,242.4 342.8,242.4 342.1,242.4 341.4,242.4 340.7,242.4 340.0,242.4
339.3,242.4 338.6,242.4 337.9,242.4 337.2,242.4 336.6,242.4 335.9,242.4 335.2,242.4 334.5,242.4 333.8,242.4 333.1,242.4 332.4,242.4 331.7,242.4 331.0,242.4 330.3,242.4 329.6,242.4 329.0,242.4
328.3,242.4 327.6,242.4 326.9,242.4 326.2,242.4 325.5,242.4 324.8,242.4 324.1,242.4 323.4,242.4 322.7,242.4 322.0,242.4 321.4,242.4 320.7,242.4 320.0,242.4 319.3,242.4 318.6,242.4 317.9,242.4
317.2,242.4 316.5,242.4 315.8,242.4 315.1,242.4 314.4,242.4 313.8,242.4 313.1,242.4 312.4,242.4 311.7,242.4 311.0,242.4 310.3,242.4 309.6,242.4 308.9,242.4 308.2,242.4 307.5,242.4 306.8,242.4
306.2,242.4 305.5,242.4 304.8,242.4 304.1,242.4 303.4,242.4 302.7,242.4 302.0,242.4 301.3,242.4 300.6,242.4 299.9,242.4 299.2,242.4 298.6,242.4 297.9,242.4 297.2,242.4 296.5,242.4 295.8,242.4
295.1,242.4 294.4,242.4 293.7,242.4 293.0,242.4 292.3,242.4 291.6,242.4 290.9,242.4 290.3,242.4 289.6,242.4 288.9,242.4 288.2,242.4 287.5,242.4 286.8,242.4 286.1,242.4 285.4,242.4 284.7,242.4
284.0,242.4 283.3,242.4 282.7,242.4 282.0,242.4 281.3,242.4 280.6,242.4 279.9,242.4 279.2,242.4 278.5,242.4 277.8,242.4 277.1,242.4 276.4,242.4 275.7,242.4 275.1,242.4 274.4,242.4 273.7,242.4
273.0,242.4 272.3,242.4 271.6,242.4 270.9,242.4 270.2,242.4 269.5,242.4 268.8,242.4 268.1,242.4 267.5,242.4 266.8,242.4 266.1,242.4 265.4,242.4 264.7,242.4 264.0,242.4 263.3,242.4 262.6,242.4
261.9,242.4 261.2,242.4 260.5,242.4 259.9,242.4 259.2,242.4 258.5,242.4 257.8,242.4 257.1,242.4 256.4,242.4 255.7,242.4 255.0,242.4 254.3,242.4 253.6,242.4 252.9,242.4 252.3,242.4 251.6,242.4
250.9,242.4 250.2,242.4 249.5,242.4 248.8,242.4 248.1,242.4 247.4,242.4 246.7,242.4 246.0,242.4 245.3,242.4 244.7,242.4 244.0,242.4 243.3,242.4 242.6,242.4 241.9,242.4 241.2,242.4 240.5,242.4
239.8,242.4 239.1,242.4 238.4,242.4 237.7,242.4 237.1,242.4 236.4,242.4 235.7,242.4 235.0,242.4 234.3,242.4 233.6,242.4 232.9,242.4 232.2,242.4 231.5,242.4 230.8,242.4 230.1,242.4 229.5,242.4
228.8,242.4 228.1,242.4 227.4,242.4 226.7,242.4 226.0,242.4 225.3,242.4 224.6,242.4 223.9,242.4 223.2,242.4 222.5,242.4 221.9,242.4 221.2,242.4 220.5,242.4 219.8,242.4 219.1,242.4 218.4,242.4
217.7,242.4 217.0,242.4 216.3,242.4 215.6,242.4 214.9,242.4 214.3,242.4 213.6,242.4 212.9,242.4 212.2,242.4 211.5,242.4 210.8,242.4 210.1,242.4 209.4,242.4 208.7,242.4 208.0,242.4 207.3,242.4
206.6,242.4 206.0,242.4 205.3,242.4 204.6,242.4 203.9,242.4 203.2,242.4 202.5,242.4 201.8,242.4 201.1,242.4 200.4,242.4 199.7,242.4 199.0,242.4 198.4,242.4 197.7,242.4 197.0,242.4 196.3,242.4
195.6,242.4 194.9,242.4 194.2,242.4 193.5,242.4 192.8,242.4 192.1,242.4 191.4,242.4 190.8,242.4 190.1,242.4 189.4,242.4 188.7,242.4 188.0,242.4 187.3,242.4 186.6,242.4 185.9,242.4 185.2,242.4
184.5,242.4 183.8,242.4 183.2,242.4 182.5,242.4 181.8,242.4 181.1,242.4 180.4,242.4 179.7,242.4 179.0,242.4 178.3,242.4 177.6,242.4 176.9,242.4 176.2,242.4 175.6,242.4 174.9,242.4 174.2,242.4
173.5,242.4 172.8,242.4 172.1,242.4 171.4,242.4 170.7,242.4 170.0,242.4 169.3,242.4 168.6,242.4 168.0,242.4 167.3,242.4 166.6,242.4 165.9,242.4 165.2,242.4 164.5,242.4 163.8,242.4 163.1,242.4
162.4,242.4 161.7,242.4 161.0,242.4 160.4,242.4 159.7,242.4 159.0,242.4 158.3,242.4 157.6,242.4 156.9,242.4 156.2,242.4 155.5,242.4 154.8,242.4 154.1,242.4 153.4,242.4 152.8,242.4 152.1,242.4
151.4,242.4 150.7,242.4 150.0,242.4 149.3,242.4 148.6,242.4 147.9,242.4 147.2,242.4 146.5,242.4 145.8,242.4 145.2,242.4 144.5,242.4 143.8,242.4 143.1,242.4 142.4,242.4 141.7,242.4 141.0,242.4
140.3,242.4 139.6,242.4 138.9,242.4 138.2,242.4 137.6,242.4 136.9,242.4 136.2,242.4 135.5,242.4 134.8,242.4 134.1,242.4 133.4,242.4 132.7,242.4 132.0,242.4 131.3,242.4 130.6,242.4 130.0,242.4
129.3,242.4 128.6,242.4 127.9,242.4 127.2,242.4 126.5,242.4 125.8,242.4 125.1,242.4 124.4,242.4 123.7,242.4 123.0,242.4 122.3,242.4 121.7,242.4 121.0,242.4 120.3,242.4 119.6,242.4 118.9,242.4
118.2,242.4 117.5,242.4 116.8,242.4 116.1,242.4 115.4,242.4 114.7,242.4 114.1,242.4 113.4,242.4 112.7,242.4 112.0,242.4 111.3,242.4 110.6,242.4 109.9,242.4 109.2,242.4 108.5,242.4 107.8,242.4
107.1,242.4 106.5,242.4 105.8,242.4 105.1,242.4 104.4,242.4 103.7,242.4 103.0,242.4 102.3,242.4 101.6,242.4 100.9,242.4 100.2,242.4 99.5,242.4 98.9,242.4 98.2,242.4 97.5,242.4 96.8,242.4
96.1,242.4 95.4,242.4 94.7,242.4 94.0,242.4 93.3,242.4 92.6,242.4 91.9,242.4 91.3,242.4 90.6,242.4 89.9,242.4 89.2,242.4 88.5,242.4 87.8,242.4 87.1,242.4 86.4,242.4 85.7,242.4
85.0,242.4 84.3,242.4 83.7,242.4 83.0,242.4 82.3,242.4 81.6,242.4 80.9,242.4 80.2,242.4 '/>
	</g>
</g>
	</g>
	<g id="gnuplot_plot_2" ><title>Mean</title>
<g fill="none" color="white" stroke="rgb( 31, 120, 180)" stroke-width="2.00" stroke-linecap="butt" stroke-linejoin="miter">
</g>
<g fill="none" color="black" stroke="currentColor" stroke-width="2.00" stroke-linecap="butt" stroke-linejoin="miter">
	<path stroke='rgb( 31, 120, 180)'  d='M143.6,242.4 L143.6,68.5  '/></g>
	</g>
<g fill="none" color="black" stroke="currentColor" stroke-width="2.00" stroke-linecap="butt" stroke-linejoin="miter">
</g>
<g fill="none" color="black" stroke="black" stroke-width="1.00" stroke-linecap="butt" stroke-linejoin="miter">
</g>
<g fill="none" color="black" stroke="currentColor" stroke-width="1.00" stroke-linecap="butt" stroke-linejoin="miter">
	<path stroke='black'  d='M80.2,18.1 L80.2,242.4 L425.0,242.4 L425.0,18.1 L80.2,18.1 Z  '/></g>
<g fill="none" color="black" stroke="currentColor" stroke-width="1.00" stroke-linecap="butt" stroke-linejoin="miter">
</g>
</g>
</svg>

