<?xml version="1.0" encoding="utf-8"  standalone="no"?>
<svg 
 viewBox="0 0 1280 720"
 xmlns="http://www.w3.org/2000/svg"
 xmlns:xlink="http://www.w3.org/1999/xlink"
>

<title>Gnuplot</title>
<desc>Produced by GNUPLOT 5.2 patchlevel 6 </desc>

<g id="gnuplot_canvas">

<rect x="0" y="0" width="1280" height="720" fill="none"/>
<defs>

	<circle id='gpDot' r='0.5' stroke-width='0.5' stroke='currentColor'/>
	<path id='gpPt0' stroke-width='0.222' stroke='currentColor' d='M-1,0 h2 M0,-1 v2'/>
	<path id='gpPt1' stroke-width='0.222' stroke='currentColor' d='M-1,-1 L1,1 M1,-1 L-1,1'/>
	<path id='gpPt2' stroke-width='0.222' stroke='currentColor' d='M-1,0 L1,0 M0,-1 L0,1 M-1,-1 L1,1 M-1,1 L1,-1'/>
	<rect id='gpPt3' stroke-width='0.222' stroke='currentColor' x='-1' y='-1' width='2' height='2'/>
	<rect id='gpPt4' stroke-width='0.222' stroke='currentColor' fill='currentColor' x='-1' y='-1' width='2' height='2'/>
	<circle id='gpPt5' stroke-width='0.222' stroke='currentColor' cx='0' cy='0' r='1'/>
	<use xlink:href='#gpPt5' id='gpPt6' fill='currentColor' stroke='none'/>
	<path id='gpPt7' stroke-width='0.222' stroke='currentColor' d='M0,-1.33 L-1.33,0.67 L1.33,0.67 z'/>
	<use xlink:href='#gpPt7' id='gpPt8' fill='currentColor' stroke='none'/>
	<use xlink:href='#gpPt7' id='gpPt9' stroke='currentColor' transform='rotate(180)'/>
	<use xlink:href='#gpPt9' id='gpPt10' fill='currentColor' stroke='none'/>
	<use xlink:href='#gpPt3' id='gpPt11' stroke='currentColor' transform='rotate(45)'/>
	<use xlink:href='#gpPt11' id='gpPt12' fill='currentColor' stroke='none'/>
	<path id='gpPt13' stroke-width='0.222' stroke='currentColor' d='M0,1.330 L1.265,0.411 L0.782,-1.067 L-0.782,-1.076 L-1.265,0.411 z'/>
	<use xlink:href='#gpPt13' id='gpPt14' fill='currentColor' stroke='none'/>
	<filter id='textbox' filterUnits='objectBoundingBox' x='0' y='0' height='1' width='1'>
	  <feFlood flood-color='white' flood-opacity='1' result='bgnd'/>
	  <feComposite in='SourceGraphic' in2='bgnd' operator='atop'/>
	</filter>
	<filter id='greybox' filterUnits='objectBoundingBox' x='0' y='0' height='1' width='1'>
	  <feFlood flood-color='lightgrey' flood-opacity='1' result='grey'/>
	  <feComposite in='SourceGraphic' in2='grey' operator='atop'/>
	</filter>
</defs>
<g fill="none" color="white" stroke="currentColor" stroke-width="1.00" stroke-linecap="butt" stroke-linejoin="miter">
</g>
<g fill="none" color="black" stroke="currentColor" stroke-width="1.00" stroke-linecap="butt" stroke-linejoin="miter">
	<path stroke='black'  d='M63.6,662.4 L72.6,662.4  '/>	<g transform="translate(55.3,666.3)" stroke="none" fill="black" font-family="Helvetica" font-size="12.00"  text-anchor="end">
		<text><tspan font-family="Helvetica" > 0</tspan></text>
	</g>
</g>
<g fill="none" color="black" stroke="currentColor" stroke-width="1.00" stroke-linecap="butt" stroke-linejoin="miter">
	<path stroke='black'  d='M63.6,586.4 L72.6,586.4  '/>	<g transform="translate(55.3,590.3)" stroke="none" fill="black" font-family="Helvetica" font-size="12.00"  text-anchor="end">
		<text><tspan font-family="Helvetica" > 5</tspan></text>
	</g>
</g>
<g fill="none" color="black" stroke="currentColor" stroke-width="1.00" stroke-linecap="butt" stroke-linejoin="miter">
	<path stroke='black'  d='M63.6,510.3 L72.6,510.3  '/>	<g transform="translate(55.3,514.2)" stroke="none" fill="black" font-family="Helvetica" font-size="12.00"  text-anchor="end">
		<text><tspan font-family="Helvetica" > 10</tspan></text>
	</g>
</g>
<g fill="none" color="black" stroke="currentColor" stroke-width="1.00" stroke-linecap="butt" stroke-linejoin="miter">
	<path stroke='black'  d='M63.6,434.3 L72.6,434.3  '/>	<g transform="translate(55.3,438.2)" stroke="none" fill="black" font-family="Helvetica" font-size="12.00"  text-anchor="end">
		<text><tspan font-family="Helvetica" > 15</tspan></text>
	</g>
</g>
<g fill="none" color="black" stroke="currentColor" stroke-width="1.00" stroke-linecap="butt" stroke-linejoin="miter">
	<path stroke='black'  d='M63.6,358.2 L72.6,358.2  '/>	<g transform="translate(55.3,362.1)" stroke="none" fill="black" font-family="Helvetica" font-size="12.00"  text-anchor="end">
		<text><tspan font-family="Helvetica" > 20</tspan></text>
	</g>
</g>
<g fill="none" color="black" stroke="currentColor" stroke-width="1.00" stroke-linecap="butt" stroke-linejoin="miter">
	<path stroke='black'  d='M63.6,282.2 L72.6,282.2  '/>	<g transform="translate(55.3,286.1)" stroke="none" fill="black" font-family="Helvetica" font-size="12.00"  text-anchor="end">
		<text><tspan font-family="Helvetica" > 25</tspan></text>
	</g>
</g>
<g fill="none" color="black" stroke="currentColor" stroke-width="1.00" stroke-linecap="butt" stroke-linejoin="miter">
	<path stroke='black'  d='M63.6,206.2 L72.6,206.2  '/>	<g transform="translate(55.3,210.1)" stroke="none" fill="black" font-family="Helvetica" font-size="12.00"  text-anchor="end">
		<text><tspan font-family="Helvetica" > 30</tspan></text>
	</g>
</g>
<g fill="none" color="black" stroke="currentColor" stroke-width="1.00" stroke-linecap="butt" stroke-linejoin="miter">
	<path stroke='black'  d='M63.6,130.1 L72.6,130.1  '/>	<g transform="translate(55.3,134.0)" stroke="none" fill="black" font-family="Helvetica" font-size="12.00"  text-anchor="end">
		<text><tspan font-family="Helvetica" > 35</tspan></text>
	</g>
</g>
<g fill="none" color="black" stroke="currentColor" stroke-width="1.00" stroke-linecap="butt" stroke-linejoin="miter">
	<path stroke='black'  d='M63.6,54.1 L72.6,54.1  '/>	<g transform="translate(55.3,58.0)" stroke="none" fill="black" font-family="Helvetica" font-size="12.00"  text-anchor="end">
		<text><tspan font-family="Helvetica" > 40</tspan></text>
	</g>
</g>
<g fill="none" color="black" stroke="currentColor" stroke-width="1.00" stroke-linecap="butt" stroke-linejoin="miter">
	<path stroke='black'  d='M108.1,662.4 L108.1,653.4  '/>	<g transform="translate(108.1,684.3)" stroke="none" fill="black" font-family="Helvetica" font-size="12.00"  text-anchor="middle">
		<text><tspan font-family="Helvetica" >-6</tspan></text>
	</g>
</g>
<g fill="none" color="black" stroke="currentColor" stroke-width="1.00" stroke-linecap="butt" stroke-linejoin="miter">
	<path stroke='black'  d='M281.1,662.4 L281.1,653.4  '/>	<g transform="translate(281.1,684.3)" stroke="none" fill="black" font-family="Helvetica" font-size="12.00"  text-anchor="middle">
		<text><tspan font-family="Helvetica" >-5</tspan></text>
	</g>
</g>
<g fill="none" color="black" stroke="currentColor" stroke-width="1.00" stroke-linecap="butt" stroke-linejoin="miter">
	<path stroke='black'  d='M454.0,662.4 L454.0,653.4  '/>	<g transform="translate(454.0,684.3)" stroke="none" fill="black" font-family="Helvetica" font-size="12.00"  text-anchor="middle">
		<text><tspan font-family="Helvetica" >-4</tspan></text>
	</g>
</g>
<g fill="none" color="black" stroke="currentColor" stroke-width="1.00" stroke-linecap="butt" stroke-linejoin="miter">
	<path stroke='black'  d='M627.0,662.4 L627.0,653.4  '/>	<g transform="translate(627.0,684.3)" stroke="none" fill="black" font-family="Helvetica" font-size="12.00"  text-anchor="middle">
		<text><tspan font-family="Helvetica" >-3</tspan></text>
	</g>
</g>
<g fill="none" color="black" stroke="currentColor" stroke-width="1.00" stroke-linecap="butt" stroke-linejoin="miter">
	<path stroke='black'  d='M799.9,662.4 L799.9,653.4  '/>	<g transform="translate(799.9,684.3)" stroke="none" fill="black" font-family="Helvetica" font-size="12.00"  text-anchor="middle">
		<text><tspan font-family="Helvetica" >-2</tspan></text>
	</g>
</g>
<g fill="none" color="black" stroke="currentColor" stroke-width="1.00" stroke-linecap="butt" stroke-linejoin="miter">
	<path stroke='black'  d='M972.9,662.4 L972.9,653.4  '/>	<g transform="translate(972.9,684.3)" stroke="none" fill="black" font-family="Helvetica" font-size="12.00"  text-anchor="middle">
		<text><tspan font-family="Helvetica" >-1</tspan></text>
	</g>
</g>
<g fill="none" color="black" stroke="currentColor" stroke-width="1.00" stroke-linecap="butt" stroke-linejoin="miter">
</g>
<g fill="none" color="black" stroke="currentColor" stroke-width="1.00" stroke-linecap="butt" stroke-linejoin="miter">
	<path stroke='black'  d='M63.6,54.1 L63.6,662.4 L1013.6,662.4 L1013.6,54.1 L63.6,54.1 Z  '/></g>
<g fill="none" color="black" stroke="currentColor" stroke-width="1.00" stroke-linecap="butt" stroke-linejoin="miter">
	<g transform="translate(16.3,358.3) rotate(270)" stroke="none" fill="black" font-family="Helvetica" font-size="12.00"  text-anchor="middle">
		<text><tspan font-family="Helvetica" >Density (a.u.)</tspan></text>
	</g>
</g>
<g fill="none" color="black" stroke="currentColor" stroke-width="1.00" stroke-linecap="butt" stroke-linejoin="miter">
	<g transform="translate(538.6,711.3)" stroke="none" fill="black" font-family="Helvetica" font-size="12.00"  text-anchor="middle">
		<text><tspan font-family="Helvetica" >Relative change (%)</tspan></text>
	</g>
</g>
<g fill="none" color="black" stroke="currentColor" stroke-width="1.00" stroke-linecap="butt" stroke-linejoin="miter">
	<g transform="translate(538.6,31.0)" stroke="none" fill="black" font-family="Helvetica" font-size="12.00"  text-anchor="middle">
		<text><tspan font-family="Helvetica" >snapshot_restore_with_dense/Sparse: Entire region + /proc/pid/mem/46: mean</tspan></text>
	</g>
</g>
	<g id="gnuplot_plot_1" ><title>Bootstrap distribution</title>
<g fill="none" color="white" stroke="black" stroke-width="2.00" stroke-linecap="butt" stroke-linejoin="miter">
</g>
<g fill="none" color="black" stroke="currentColor" stroke-width="2.00" stroke-linecap="butt" stroke-linejoin="miter">
	<g transform="translate(1089.0,67.0)" stroke="none" fill="black" font-family="Helvetica" font-size="12.00"  text-anchor="start">
		<text><tspan font-family="Helvetica" >Bootstrap distribution</tspan></text>
	</g>
</g>
<g fill="none" color="black" stroke="currentColor" stroke-width="2.00" stroke-linecap="butt" stroke-linejoin="miter">
	<path stroke='rgb( 31, 120, 180)'  d='M1038.5,63.1 L1080.7,63.1 M63.6,630.8 L65.5,630.0 L67.4,629.2 L69.3,628.3 L71.2,627.4 L73.1,626.6
		L75.0,625.7 L76.9,624.8 L78.8,623.9 L80.7,623.0 L82.6,622.1 L84.5,621.2 L86.4,620.3 L88.3,619.4
		L90.3,618.5 L92.2,617.6 L94.1,616.6 L96.0,615.7 L97.9,614.7 L99.8,613.8 L101.7,612.8 L103.6,611.8
		L105.5,610.8 L107.4,609.8 L109.3,608.8 L111.2,607.8 L113.1,606.8 L115.0,605.8 L116.9,604.8 L118.8,603.8
		L120.7,602.7 L122.6,601.7 L124.5,600.6 L126.4,599.5 L128.3,598.4 L130.2,597.2 L132.1,596.0 L134.0,594.8
		L135.9,593.5 L137.8,592.2 L139.8,590.9 L141.7,589.5 L143.6,588.1 L145.5,586.6 L147.4,585.1 L149.3,583.5
		L151.2,581.9 L153.1,580.2 L155.0,578.5 L156.9,576.7 L158.8,575.0 L160.7,573.1 L162.6,571.3 L164.5,569.4
		L166.4,567.5 L168.3,565.5 L170.2,563.6 L172.1,561.6 L174.0,559.5 L175.9,557.5 L177.8,555.4 L179.7,553.3
		L181.6,551.2 L183.5,549.1 L185.4,546.9 L187.3,544.8 L189.3,542.6 L191.2,540.4 L193.1,538.2 L195.0,536.0
		L196.9,533.8 L198.8,531.6 L200.7,529.3 L202.6,527.1 L204.5,524.9 L206.4,522.7 L208.3,520.4 L210.2,518.2
		L212.1,516.0 L214.0,513.7 L215.9,511.5 L217.8,509.2 L219.7,507.0 L221.6,504.7 L223.5,502.4 L225.4,500.1
		L227.3,497.7 L229.2,495.3 L231.1,492.9 L233.0,490.5 L234.9,488.0 L236.8,485.5 L238.8,483.0 L240.7,480.4
		L242.6,477.7 L244.5,475.1 L246.4,472.4 L248.3,469.6 L250.2,466.9 L252.1,464.1 L254.0,461.3 L255.9,458.5
		L257.8,455.7 L259.7,452.8 L261.6,450.0 L263.5,447.2 L265.4,444.3 L267.3,441.5 L269.2,438.7 L271.1,435.9
		L273.0,433.1 L274.9,430.4 L276.8,427.6 L278.7,424.8 L280.6,422.0 L282.5,419.3 L284.4,416.5 L286.3,413.7
		L288.2,410.9 L290.2,408.1 L292.1,405.2 L294.0,402.4 L295.9,399.5 L297.8,396.5 L299.7,393.5 L301.6,390.5
		L303.5,387.4 L305.4,384.2 L307.3,381.1 L309.2,377.8 L311.1,374.6 L313.0,371.2 L314.9,367.9 L316.8,364.5
		L318.7,361.1 L320.6,357.7 L322.5,354.3 L324.4,350.9 L326.3,347.5 L328.2,344.2 L330.1,340.8 L332.0,337.5
		L333.9,334.2 L335.8,330.9 L337.7,327.7 L339.7,324.5 L341.6,321.4 L343.5,318.3 L345.4,315.3 L347.3,312.2
		L349.2,309.2 L351.1,306.2 L353.0,303.3 L354.9,300.3 L356.8,297.4 L358.7,294.4 L360.6,291.5 L362.5,288.5
		L364.4,285.6 L366.3,282.6 L368.2,279.7 L370.1,276.7 L372.0,273.8 L373.9,270.8 L375.8,267.9 L377.7,265.0
		L379.6,262.1 L381.5,259.2 L383.4,256.4 L385.3,253.6 L387.2,250.8 L389.2,248.0 L391.1,245.3 L393.0,242.5
		L394.9,239.8 L396.8,237.2 L398.7,234.5 L400.6,231.9 L402.5,229.3 L404.4,226.6 L406.3,224.1 L408.2,221.5
		L410.1,218.9 L412.0,216.3 L413.9,213.8 L415.8,211.3 L417.7,208.7 L419.6,206.2 L421.5,203.8 L423.4,201.3
		L425.3,198.8 L427.2,196.4 L429.1,194.0 L431.0,191.6 L432.9,189.3 L434.8,186.9 L436.7,184.7 L438.7,182.4
		L440.6,180.2 L442.5,178.0 L444.4,175.9 L446.3,173.8 L448.2,171.8 L450.1,169.8 L452.0,167.8 L453.9,165.9
		L455.8,164.1 L457.7,162.3 L459.6,160.5 L461.5,158.8 L463.4,157.1 L465.3,155.5 L467.2,153.9 L469.1,152.3
		L471.0,150.8 L472.9,149.4 L474.8,147.9 L476.7,146.5 L478.6,145.2 L480.5,143.9 L482.4,142.6 L484.3,141.4
		L486.2,140.2 L488.1,139.1 L490.1,138.0 L492.0,137.0 L493.9,136.1 L495.8,135.2 L497.7,134.4 L499.6,133.6
		L501.5,132.9 L503.4,132.2 L505.3,131.7 L507.2,131.2 L509.1,130.7 L511.0,130.3 L512.9,130.0 L514.8,129.7
		L516.7,129.5 L518.6,129.4 L520.5,129.2 L522.4,129.2 L524.3,129.2 L526.2,129.2 L528.1,129.2 L530.0,129.3
		L531.9,129.4 L533.8,129.6 L535.7,129.7 L537.6,129.9 L539.6,130.1 L541.5,130.3 L543.4,130.5 L545.3,130.8
		L547.2,131.1 L549.1,131.4 L551.0,131.7 L552.9,132.0 L554.8,132.4 L556.7,132.8 L558.6,133.2 L560.5,133.7
		L562.4,134.2 L564.3,134.8 L566.2,135.5 L568.1,136.2 L570.0,137.0 L571.9,137.9 L573.8,138.8 L575.7,139.9
		L577.6,141.0 L579.5,142.3 L581.4,143.6 L583.3,145.1 L585.2,146.6 L587.1,148.3 L589.1,150.0 L591.0,151.8
		L592.9,153.8 L594.8,155.8 L596.7,157.9 L598.6,160.2 L600.5,162.4 L602.4,164.8 L604.3,167.2 L606.2,169.7
		L608.1,172.2 L610.0,174.7 L611.9,177.3 L613.8,179.9 L615.7,182.6 L617.6,185.2 L619.5,187.9 L621.4,190.5
		L623.3,193.1 L625.2,195.8 L627.1,198.4 L629.0,201.0 L630.9,203.6 L632.8,206.2 L634.7,208.8 L636.6,211.3
		L638.5,213.9 L640.5,216.5 L642.4,219.0 L644.3,221.6 L646.2,224.2 L648.1,226.8 L650.0,229.4 L651.9,232.0
		L653.8,234.7 L655.7,237.4 L657.6,240.1 L659.5,242.9 L661.4,245.7 L663.3,248.5 L665.2,251.4 L667.1,254.4
		L669.0,257.3 L670.9,260.4 L672.8,263.5 L674.7,266.6 L676.6,269.8 L678.5,272.9 L680.4,276.2 L682.3,279.4
		L684.2,282.7 L686.1,286.0 L688.0,289.2 L690.0,292.5 L691.9,295.8 L693.8,299.0 L695.7,302.2 L697.6,305.4
		L699.5,308.6 L701.4,311.7 L703.3,314.8 L705.2,317.8 L707.1,320.8 L709.0,323.8 L710.9,326.7 L712.8,329.6
		L714.7,332.5 L716.6,335.3 L718.5,338.1 L720.4,340.9 L722.3,343.7 L724.2,346.4 L726.1,349.1 L728.0,351.8
		L729.9,354.5 L731.8,357.1 L733.7,359.8 L735.6,362.4 L737.5,365.0 L739.5,367.7 L741.4,370.3 L743.3,372.9
		L745.2,375.5 L747.1,378.1 L749.0,380.8 L750.9,383.4 L752.8,386.0 L754.7,388.7 L756.6,391.4 L758.5,394.1
		L760.4,396.8 L762.3,399.5 L764.2,402.3 L766.1,405.0 L768.0,407.8 L769.9,410.6 L771.8,413.5 L773.7,416.3
		L775.6,419.2 L777.5,422.0 L779.4,424.9 L781.3,427.8 L783.2,430.7 L785.1,433.6 L787.0,436.5 L789.0,439.4
		L790.9,442.2 L792.8,445.1 L794.7,448.0 L796.6,450.8 L798.5,453.7 L800.4,456.5 L802.3,459.3 L804.2,462.1
		L806.1,464.9 L808.0,467.6 L809.9,470.4 L811.8,473.1 L813.7,475.8 L815.6,478.4 L817.5,481.0 L819.4,483.6
		L821.3,486.2 L823.2,488.7 L825.1,491.2 L827.0,493.7 L828.9,496.1 L830.8,498.5 L832.7,500.8 L834.6,503.1
		L836.5,505.4 L838.4,507.6 L840.4,509.8 L842.3,512.0 L844.2,514.1 L846.1,516.2 L848.0,518.3 L849.9,520.3
		L851.8,522.3 L853.7,524.3 L855.6,526.3 L857.5,528.2 L859.4,530.1 L861.3,532.0 L863.2,533.9 L865.1,535.7
		L867.0,537.6 L868.9,539.4 L870.8,541.2 L872.7,543.0 L874.6,544.8 L876.5,546.6 L878.4,548.3 L880.3,550.1
		L882.2,551.8 L884.1,553.5 L886.0,555.2 L887.9,556.9 L889.9,558.6 L891.8,560.3 L893.7,561.9 L895.6,563.6
		L897.5,565.2 L899.4,566.9 L901.3,568.5 L903.2,570.1 L905.1,571.7 L907.0,573.3 L908.9,574.8 L910.8,576.4
		L912.7,577.9 L914.6,579.4 L916.5,580.9 L918.4,582.4 L920.3,583.8 L922.2,585.2 L924.1,586.6 L926.0,588.0
		L927.9,589.4 L929.8,590.7 L931.7,592.0 L933.6,593.3 L935.5,594.5 L937.4,595.8 L939.4,597.0 L941.3,598.1
		L943.2,599.3 L945.1,600.5 L947.0,601.6 L948.9,602.7 L950.8,603.8 L952.7,604.9 L954.6,606.0 L956.5,607.1
		L958.4,608.1 L960.3,609.2 L962.2,610.2 L964.1,611.3 L966.0,612.3 L967.9,613.4 L969.8,614.4 L971.7,615.4
		L973.6,616.4 L975.5,617.4 L977.4,618.4 L979.3,619.4 L981.2,620.3 L983.1,621.2 L985.0,622.1 L986.9,623.0
		L988.9,623.9 L990.8,624.7 L992.7,625.5 L994.6,626.3 L996.5,627.0 L998.4,627.8 L1000.3,628.5 L1002.2,629.2
		L1004.1,629.9 L1006.0,630.5 L1007.9,631.2 L1009.8,631.8 L1011.7,632.4 L1013.6,633.0  '/></g>
	</g>
	<g id="gnuplot_plot_2" ><title>Confidence interval</title>
<g fill="none" color="white" stroke="rgb( 31, 120, 180)" stroke-width="1.00" stroke-linecap="butt" stroke-linejoin="miter">
</g>
<g fill="none" color="black" stroke="currentColor" stroke-width="1.00" stroke-linecap="butt" stroke-linejoin="miter">
	<g transform="translate(1089.0,85.0)" stroke="none" fill="black" font-family="Helvetica" font-size="12.00"  text-anchor="start">
		<text><tspan font-family="Helvetica" >Confidence interval</tspan></text>
	</g>
</g>
<g fill="none" color="black" stroke="currentColor" stroke-width="1.00" stroke-linecap="butt" stroke-linejoin="miter">
	<g stroke='none' shape-rendering='crispEdges'>
		<polygon fill = 'rgb( 31, 120, 180)' fill-opacity = '0.250000' points = '1038.5,85.6 1080.7,85.6 1080.7,76.6 1038.5,76.6 '/>
		<polygon fill = 'rgb( 31, 120, 180)' fill-opacity = '0.250000' points = '151.2,581.9 153.1,580.2 155.0,578.5 156.9,576.7 158.8,575.0 160.7,573.1 162.6,571.3 164.5,569.4 166.4,567.5 168.3,565.5 170.2,563.6 172.1,561.6 174.0,559.5 175.9,557.5 177.8,555.4 179.7,553.3
181.6,551.2 183.5,549.1 185.4,546.9 187.3,544.8 189.3,542.6 191.2,540.4 193.1,538.2 195.0,536.0 196.9,533.8 198.8,531.6 200.7,529.3 202.6,527.1 204.5,524.9 206.4,522.7 208.3,520.4 210.2,518.2
212.1,516.0 214.0,513.7 215.9,511.5 217.8,509.2 219.7,507.0 221.6,504.7 223.5,502.4 225.4,500.1 227.3,497.7 229.2,495.3 231.1,492.9 233.0,490.5 234.9,488.0 236.8,485.5 238.8,483.0 240.7,480.4
242.6,477.7 244.5,475.1 246.4,472.4 248.3,469.6 250.2,466.9 252.1,464.1 254.0,461.3 255.9,458.5 257.8,455.7 259.7,452.8 261.6,450.0 263.5,447.2 265.4,444.3 267.3,441.5 269.2,438.7 271.1,435.9
273.0,433.1 274.9,430.4 276.8,427.6 278.7,424.8 280.6,422.0 282.5,419.3 284.4,416.5 286.3,413.7 288.2,410.9 290.2,408.1 292.1,405.2 294.0,402.4 295.9,399.5 297.8,396.5 299.7,393.5 301.6,390.5
303.5,387.4 305.4,384.2 307.3,381.1 309.2,377.8 311.1,374.6 313.0,371.2 314.9,367.9 316.8,364.5 318.7,361.1 320.6,357.7 322.5,354.3 324.4,350.9 326.3,347.5 328.2,344.2 330.1,340.8 332.0,337.5
333.9,334.2 335.8,330.9 337.7,327.7 339.7,324.5 341.6,321.4 343.5,318.3 345.4,315.3 347.3,312.2 349.2,309.2 351.1,306.2 353.0,303.3 354.9,300.3 356.8,297.4 358.7,294.4 360.6,291.5 362.5,288.5
364.4,285.6 366.3,282.6 368.2,279.7 370.1,276.7 372.0,273.8 373.9,270.8 375.8,267.9 377.7,265.0 379.6,262.1 381.5,259.2 383.4,256.4 385.3,253.6 387.2,250.8 389.2,248.0 391.1,245.3 393.0,242.5
394.9,239.8 396.8,237.2 398.7,234.5 400.6,231.9 402.5,229.3 404.4,226.6 406.3,224.1 408.2,221.5 410.1,218.9 412.0,216.3 413.9,213.8 415.8,211.3 417.7,208.7 419.6,206.2 421.5,203.8 423.4,201.3
425.3,198.8 427.2,196.4 429.1,194.0 431.0,191.6 432.9,189.3 434.8,186.9 436.7,184.7 438.7,182.4 440.6,180.2 442.5,178.0 444.4,175.9 446.3,173.8 448.2,171.8 450.1,169.8 452.0,167.8 453.9,165.9
455.8,164.1 457.7,162.3 459.6,160.5 461.5,158.8 463.4,157.1 465.3,155.5 467.2,153.9 469.1,152.3 471.0,150.8 472.9,149.4 474.8,147.9 476.7,146.5 478.6,145.2 480.5,143.9 482.4,142.6 484.3,141.4
486.2,140.2 488.1,139.1 490.1,138.0 492.0,137.0 493.9,136.1 495.8,135.2 497.7,134.4 499.6,133.6 501.5,132.9 503.4,132.2 505.3,131.7 507.2,131.2 509.1,130.7 511.0,130.3 512.9,130.0 514.8,129.7
516.7,129.5 518.6,129.4 520.5,129.2 522.4,129.2 524.3,129.2 526.2,129.2 528.1,129.2 530.0,129.3 531.9,129.4 533.8,129.6 535.7,129.7 537.6,129.9 539.6,130.1 541.5,130.3 543.4,130.5 545.3,130.8
547.2,131.1 549.1,131.4 551.0,131.7 552.9,132.0 554.8,132.4 556.7,132.8 558.6,133.2 560.5,133.7 562.4,134.2 564.3,134.8 566.2,135.5 568.1,136.2 570.0,137.0 571.9,137.9 573.8,138.8 575.7,139.9
577.6,141.0 579.5,142.3 581.4,143.6 583.3,145.1 585.2,146.6 587.1,148.3 589.1,150.0 591.0,151.8 592.9,153.8 594.8,155.8 596.7,157.9 598.6,160.2 600.5,162.4 602.4,164.8 604.3,167.2 606.2,169.7
608.1,172.2 610.0,174.7 611.9,177.3 613.8,179.9 615.7,182.6 617.6,185.2 619.5,187.9 621.4,190.5 623.3,193.1 625.2,195.8 627.1,198.4 629.0,201.0 630.9,203.6 632.8,206.2 634.7,208.8 636.6,211.3
638.5,213.9 640.5,216.5 642.4,219.0 644.3,221.6 646.2,224.2 648.1,226.8 650.0,229.4 651.9,232.0 653.8,234.7 655.7,237.4 657.6,240.1 659.5,242.9 661.4,245.7 663.3,248.5 665.2,251.4 667.1,254.4
669.0,257.3 670.9,260.4 672.8,263.5 674.7,266.6 676.6,269.8 678.5,272.9 680.4,276.2 682.3,279.4 684.2,282.7 686.1,286.0 688.0,289.2 690.0,292.5 691.9,295.8 693.8,299.0 695.7,302.2 697.6,305.4
699.5,308.6 701.4,311.7 703.3,314.8 705.2,317.8 707.1,320.8 709.0,323.8 710.9,326.7 712.8,329.6 714.7,332.5 716.6,335.3 718.5,338.1 720.4,340.9 722.3,343.7 724.2,346.4 726.1,349.1 728.0,351.8
729.9,354.5 731.8,357.1 733.7,359.8 735.6,362.4 737.5,365.0 739.5,367.7 741.4,370.3 743.3,372.9 745.2,375.5 747.1,378.1 749.0,380.8 750.9,383.4 752.8,386.0 754.7,388.7 756.6,391.4 758.5,394.1
760.4,396.8 762.3,399.5 764.2,402.3 766.1,405.0 768.0,407.8 769.9,410.6 771.8,413.5 773.7,416.3 775.6,419.2 777.5,422.0 779.4,424.9 781.3,427.8 783.2,430.7 785.1,433.6 787.0,436.5 789.0,439.4
790.9,442.2 792.8,445.1 794.7,448.0 796.6,450.8 798.5,453.7 800.4,456.5 802.3,459.3 804.2,462.1 806.1,464.9 808.0,467.6 809.9,470.4 811.8,473.1 813.7,475.8 815.6,478.4 817.5,481.0 819.4,483.6
821.3,486.2 823.2,488.7 825.1,491.2 827.0,493.7 828.9,496.1 830.8,498.5 832.7,500.8 834.6,503.1 836.5,505.4 838.4,507.6 840.4,509.8 842.3,512.0 844.2,514.1 846.1,516.2 848.0,518.3 849.9,520.3
851.8,522.3 853.7,524.3 855.6,526.3 857.5,528.2 859.4,530.1 861.3,532.0 863.2,533.9 865.1,535.7 867.0,537.6 868.9,539.4 870.8,541.2 872.7,543.0 874.6,544.8 876.5,546.6 878.4,548.3 880.3,550.1
882.2,551.8 884.1,553.5 886.0,555.2 887.9,556.9 889.9,558.6 891.8,560.3 893.7,561.9 895.6,563.6 897.5,565.2 899.4,566.9 901.3,568.5 903.2,570.1 905.1,571.7 907.0,573.3 908.9,574.8 910.8,576.4
912.7,577.9 914.6,579.4 916.5,580.9 918.4,582.4 920.3,583.8 922.2,585.2 924.1,586.6 924.1,662.4 922.2,662.4 920.3,662.4 918.4,662.4 916.5,662.4 914.6,662.4 912.7,662.4 910.8,662.4 908.9,662.4
907.0,662.4 905.1,662.4 903.2,662.4 901.3,662.4 899.4,662.4 897.5,662.4 895.6,662.4 893.7,662.4 891.8,662.4 889.9,662.4 887.9,662.4 886.0,662.4 884.1,662.4 882.2,662.4 880.3,662.4 878.4,662.4
876.5,662.4 874.6,662.4 872.7,662.4 870.8,662.4 868.9,662.4 867.0,662.4 865.1,662.4 863.2,662.4 861.3,662.4 859.4,662.4 857.5,662.4 855.6,662.4 853.7,662.4 851.8,662.4 849.9,662.4 848.0,662.4
846.1,662.4 844.2,662.4 842.3,662.4 840.4,662.4 838.4,662.4 836.5,662.4 834.6,662.4 832.7,662.4 830.8,662.4 828.9,662.4 827.0,662.4 825.1,662.4 823.2,662.4 821.3,662.4 819.4,662.4 817.5,662.4
815.6,662.4 813.7,662.4 811.8,662.4 809.9,662.4 808.0,662.4 806.1,662.4 804.2,662.4 802.3,662.4 800.4,662.4 798.5,662.4 796.6,662.4 794.7,662.4 792.8,662.4 790.9,662.4 789.0,662.4 787.0,662.4
785.1,662.4 783.2,662.4 781.3,662.4 779.4,662.4 777.5,662.4 775.6,662.4 773.7,662.4 771.8,662.4 769.9,662.4 768.0,662.4 766.1,662.4 764.2,662.4 762.3,662.4 760.4,662.4 758.5,662.4 756.6,662.4
754.7,662.4 752.8,662.4 750.9,662.4 749.0,662.4 747.1,662.4 745.2,662.4 743.3,662.4 741.4,662.4 739.5,662.4 737.5,662.4 735.6,662.4 733.7,662.4 731.8,662.4 729.9,662.4 728.0,662.4 726.1,662.4
724.2,662.4 722.3,662.4 720.4,662.4 718.5,662.4 716.6,662.4 714.7,662.4 712.8,662.4 710.9,662.4 709.0,662.4 707.1,662.4 705.2,662.4 703.3,662.4 701.4,662.4 699.5,662.4 697.6,662.4 695.7,662.4
693.8,662.4 691.9,662.4 690.0,662.4 688.0,662.4 686.1,662.4 684.2,662.4 682.3,662.4 680.4,662.4 678.5,662.4 676.6,662.4 674.7,662.4 672.8,662.4 670.9,662.4 669.0,662.4 667.1,662.4 665.2,662.4
663.3,662.4 661.4,662.4 659.5,662.4 657.6,662.4 655.7,662.4 653.8,662.4 651.9,662.4 650.0,662.4 648.1,662.4 646.2,662.4 644.3,662.4 642.4,662.4 640.5,662.4 638.5,662.4 636.6,662.4 634.7,662.4
632.8,662.4 630.9,662.4 629.0,662.4 627.1,662.4 625.2,662.4 623.3,662.4 621.4,662.4 619.5,662.4 617.6,662.4 615.7,662.4 613.8,662.4 611.9,662.4 610.0,662.4 608.1,662.4 606.2,662.4 604.3,662.4
602.4,662.4 600.5,662.4 598.6,662.4 596.7,662.4 594.8,662.4 592.9,662.4 591.0,662.4 589.1,662.4 587.1,662.4 585.2,662.4 583.3,662.4 581.4,662.4 579.5,662.4 577.6,662.4 575.7,662.4 573.8,662.4
571.9,662.4 570.0,662.4 568.1,662.4 566.2,662.4 564.3,662.4 562.4,662.4 560.5,662.4 558.6,662.4 556.7,662.4 554.8,662.4 552.9,662.4 551.0,662.4 549.1,662.4 547.2,662.4 545.3,662.4 543.4,662.4
541.5,662.4 539.6,662.4 537.6,662.4 535.7,662.4 533.8,662.4 531.9,662.4 530.0,662.4 528.1,662.4 526.2,662.4 524.3,662.4 522.4,662.4 520.5,662.4 518.6,662.4 516.7,662.4 514.8,662.4 512.9,662.4
511.0,662.4 509.1,662.4 507.2,662.4 505.3,662.4 503.4,662.4 501.5,662.4 499.6,662.4 497.7,662.4 495.8,662.4 493.9,662.4 492.0,662.4 490.1,662.4 488.1,662.4 486.2,662.4 484.3,662.4 482.4,662.4
480.5,662.4 478.6,662.4 476.7,662.4 474.8,662.4 472.9,662.4 471.0,662.4 469.1,662.4 467.2,662.4 465.3,662.4 463.4,662.4 461.5,662.4 459.6,662.4 457.7,662.4 455.8,662.4 453.9,662.4 452.0,662.4
450.1,662.4 448.2,662.4 446.3,662.4 444.4,662.4 442.5,662.4 440.6,662.4 438.7,662.4 436.7,662.4 434.8,662.4 432.9,662.4 431.0,662.4 429.1,662.4 427.2,662.4 425.3,662.4 423.4,662.4 421.5,662.4
419.6,662.4 417.7,662.4 415.8,662.4 413.9,662.4 412.0,662.4 410.1,662.4 408.2,662.4 406.3,662.4 404.4,662.4 402.5,662.4 400.6,662.4 398.7,662.4 396.8,662.4 394.9,662.4 393.0,662.4 391.1,662.4
389.2,662.4 387.2,662.4 385.3,662.4 383.4,662.4 381.5,662.4 379.6,662.4 377.7,662.4 375.8,662.4 373.9,662.4 372.0,662.4 370.1,662.4 368.2,662.4 366.3,662.4 364.4,662.4 362.5,662.4 360.6,662.4
358.7,662.4 356.8,662.4 354.9,662.4 353.0,662.4 351.1,662.4 349.2,662.4 347.3,662.4 345.4,662.4 343.5,662.4 341.6,662.4 339.7,662.4 337.7,662.4 335.8,662.4 333.9,662.4 332.0,662.4 330.1,662.4
328.2,662.4 326.3,662.4 324.4,662.4 322.5,662.4 320.6,662.4 318.7,662.4 316.8,662.4 314.9,662.4 313.0,662.4 311.1,662.4 309.2,662.4 307.3,662.4 305.4,662.4 303.5,662.4 301.6,662.4 299.7,662.4
297.8,662.4 295.9,662.4 294.0,662.4 292.1,662.4 290.2,662.4 288.2,662.4 286.3,662.4 284.4,662.4 282.5,662.4 280.6,662.4 278.7,662.4 276.8,662.4 274.9,662.4 273.0,662.4 271.1,662.4 269.2,662.4
267.3,662.4 265.4,662.4 263.5,662.4 261.6,662.4 259.7,662.4 257.8,662.4 255.9,662.4 254.0,662.4 252.1,662.4 250.2,662.4 248.3,662.4 246.4,662.4 244.5,662.4 242.6,662.4 240.7,662.4 238.8,662.4
236.8,662.4 234.9,662.4 233.0,662.4 231.1,662.4 229.2,662.4 227.3,662.4 225.4,662.4 223.5,662.4 221.6,662.4 219.7,662.4 217.8,662.4 215.9,662.4 214.0,662.4 212.1,662.4 210.2,662.4 208.3,662.4
206.4,662.4 204.5,662.4 202.6,662.4 200.7,662.4 198.8,662.4 196.9,662.4 195.0,662.4 193.1,662.4 191.2,662.4 189.3,662.4 187.3,662.4 185.4,662.4 183.5,662.4 181.6,662.4 179.7,662.4 177.8,662.4
175.9,662.4 174.0,662.4 172.1,662.4 170.2,662.4 168.3,662.4 166.4,662.4 164.5,662.4 162.6,662.4 160.7,662.4 158.8,662.4 156.9,662.4 155.0,662.4 153.1,662.4 151.2,662.4 '/>
	</g>
</g>
	</g>
	<g id="gnuplot_plot_3" ><title>Point estimate</title>
<g fill="none" color="white" stroke="rgb( 31, 120, 180)" stroke-width="2.00" stroke-linecap="butt" stroke-linejoin="miter">
</g>
<g fill="none" color="black" stroke="currentColor" stroke-width="2.00" stroke-linecap="butt" stroke-linejoin="miter">
	<g transform="translate(1089.0,103.0)" stroke="none" fill="black" font-family="Helvetica" font-size="12.00"  text-anchor="start">
		<text><tspan font-family="Helvetica" >Point estimate</tspan></text>
	</g>
</g>
<g fill="none" color="black" stroke="currentColor" stroke-width="2.00" stroke-linecap="butt" stroke-linejoin="miter">
	<path stroke='rgb( 31, 120, 180)'  d='M1038.5,99.1 L1080.7,99.1 M536.2,662.4 L536.2,129.8  '/></g>
	</g>
	<g id="gnuplot_plot_4" ><title>Noise threshold</title>
<g fill="none" color="white" stroke="rgb( 31, 120, 180)" stroke-width="1.00" stroke-linecap="butt" stroke-linejoin="miter">
</g>
<g fill="none" color="black" stroke="currentColor" stroke-width="1.00" stroke-linecap="butt" stroke-linejoin="miter">
	<g transform="translate(1089.0,121.0)" stroke="none" fill="black" font-family="Helvetica" font-size="12.00"  text-anchor="start">
		<text><tspan font-family="Helvetica" >Noise threshold</tspan></text>
	</g>
</g>
<g fill="none" color="black" stroke="currentColor" stroke-width="1.00" stroke-linecap="butt" stroke-linejoin="miter">
	<g stroke='none' shape-rendering='crispEdges'>
		<polygon fill = 'rgb(227,  26,  28)' fill-opacity = '0.100000' points = '1038.5,121.6 1080.7,121.6 1080.7,112.6 1038.5,112.6 '/>
		<polygon fill = 'rgb(227,  26,  28)' fill-opacity = '0.100000' points = '972.9,54.1 1013.6,54.1 1013.6,662.4 972.9,662.4 '/>
	</g>
</g>
	</g>
<g fill="none" color="white" stroke="rgb(227,  26,  28)" stroke-width="2.00" stroke-linecap="butt" stroke-linejoin="miter">
</g>
<g fill="none" color="black" stroke="currentColor" stroke-width="2.00" stroke-linecap="butt" stroke-linejoin="miter">
</g>
<g fill="none" color="black" stroke="black" stroke-width="1.00" stroke-linecap="butt" stroke-linejoin="miter">
</g>
<g fill="none" color="black" stroke="currentColor" stroke-width="1.00" stroke-linecap="butt" stroke-linejoin="miter">
	<path stroke='black'  d='M63.6,54.1 L63.6,662.4 L1013.6,662.4 L1013.6,54.1 L63.6,54.1 Z  '/></g>
<g fill="none" color="black" stroke="currentColor" stroke-width="1.00" stroke-linecap="butt" stroke-linejoin="miter">
</g>
</g>
</svg>

