<?xml version="1.0" encoding="utf-8"  standalone="no"?>
<svg 
 viewBox="0 0 1280 720"
 xmlns="http://www.w3.org/2000/svg"
 xmlns:xlink="http://www.w3.org/1999/xlink"
>

<title>Gnuplot</title>
<desc>Produced by GNUPLOT 5.2 patchlevel 6 </desc>

<g id="gnuplot_canvas">

<rect x="0" y="0" width="1280" height="720" fill="none"/>
<defs>

	<circle id='gpDot' r='0.5' stroke-width='0.5' stroke='currentColor'/>
	<path id='gpPt0' stroke-width='0.222' stroke='currentColor' d='M-1,0 h2 M0,-1 v2'/>
	<path id='gpPt1' stroke-width='0.222' stroke='currentColor' d='M-1,-1 L1,1 M1,-1 L-1,1'/>
	<path id='gpPt2' stroke-width='0.222' stroke='currentColor' d='M-1,0 L1,0 M0,-1 L0,1 M-1,-1 L1,1 M-1,1 L1,-1'/>
	<rect id='gpPt3' stroke-width='0.222' stroke='currentColor' x='-1' y='-1' width='2' height='2'/>
	<rect id='gpPt4' stroke-width='0.222' stroke='currentColor' fill='currentColor' x='-1' y='-1' width='2' height='2'/>
	<circle id='gpPt5' stroke-width='0.222' stroke='currentColor' cx='0' cy='0' r='1'/>
	<use xlink:href='#gpPt5' id='gpPt6' fill='currentColor' stroke='none'/>
	<path id='gpPt7' stroke-width='0.222' stroke='currentColor' d='M0,-1.33 L-1.33,0.67 L1.33,0.67 z'/>
	<use xlink:href='#gpPt7' id='gpPt8' fill='currentColor' stroke='none'/>
	<use xlink:href='#gpPt7' id='gpPt9' stroke='currentColor' transform='rotate(180)'/>
	<use xlink:href='#gpPt9' id='gpPt10' fill='currentColor' stroke='none'/>
	<use xlink:href='#gpPt3' id='gpPt11' stroke='currentColor' transform='rotate(45)'/>
	<use xlink:href='#gpPt11' id='gpPt12' fill='currentColor' stroke='none'/>
	<path id='gpPt13' stroke-width='0.222' stroke='currentColor' d='M0,1.330 L1.265,0.411 L0.782,-1.067 L-0.782,-1.076 L-1.265,0.411 z'/>
	<use xlink:href='#gpPt13' id='gpPt14' fill='currentColor' stroke='none'/>
	<filter id='textbox' filterUnits='objectBoundingBox' x='0' y='0' height='1' width='1'>
	  <feFlood flood-color='white' flood-opacity='1' result='bgnd'/>
	  <feComposite in='SourceGraphic' in2='bgnd' operator='atop'/>
	</filter>
	<filter id='greybox' filterUnits='objectBoundingBox' x='0' y='0' height='1' width='1'>
	  <feFlood flood-color='lightgrey' flood-opacity='1' result='grey'/>
	  <feComposite in='SourceGraphic' in2='grey' operator='atop'/>
	</filter>
</defs>
<g fill="none" color="white" stroke="currentColor" stroke-width="1.00" stroke-linecap="butt" stroke-linejoin="miter">
</g>
<g fill="none" color="black" stroke="currentColor" stroke-width="1.00" stroke-linecap="butt" stroke-linejoin="miter">
	<path stroke='black'  d='M71.9,662.4 L80.9,662.4  '/>	<g transform="translate(63.6,666.3)" stroke="none" fill="black" font-family="Helvetica" font-size="12.00"  text-anchor="end">
		<text><tspan font-family="Helvetica" > 0</tspan></text>
	</g>
</g>
<g fill="none" color="black" stroke="currentColor" stroke-width="1.00" stroke-linecap="butt" stroke-linejoin="miter">
	<path stroke='black'  d='M71.9,586.4 L80.9,586.4  '/>	<g transform="translate(63.6,590.3)" stroke="none" fill="black" font-family="Helvetica" font-size="12.00"  text-anchor="end">
		<text><tspan font-family="Helvetica" > 0.1</tspan></text>
	</g>
</g>
<g fill="none" color="black" stroke="currentColor" stroke-width="1.00" stroke-linecap="butt" stroke-linejoin="miter">
	<path stroke='black'  d='M71.9,510.3 L80.9,510.3  '/>	<g transform="translate(63.6,514.2)" stroke="none" fill="black" font-family="Helvetica" font-size="12.00"  text-anchor="end">
		<text><tspan font-family="Helvetica" > 0.2</tspan></text>
	</g>
</g>
<g fill="none" color="black" stroke="currentColor" stroke-width="1.00" stroke-linecap="butt" stroke-linejoin="miter">
	<path stroke='black'  d='M71.9,434.3 L80.9,434.3  '/>	<g transform="translate(63.6,438.2)" stroke="none" fill="black" font-family="Helvetica" font-size="12.00"  text-anchor="end">
		<text><tspan font-family="Helvetica" > 0.3</tspan></text>
	</g>
</g>
<g fill="none" color="black" stroke="currentColor" stroke-width="1.00" stroke-linecap="butt" stroke-linejoin="miter">
	<path stroke='black'  d='M71.9,358.2 L80.9,358.2  '/>	<g transform="translate(63.6,362.1)" stroke="none" fill="black" font-family="Helvetica" font-size="12.00"  text-anchor="end">
		<text><tspan font-family="Helvetica" > 0.4</tspan></text>
	</g>
</g>
<g fill="none" color="black" stroke="currentColor" stroke-width="1.00" stroke-linecap="butt" stroke-linejoin="miter">
	<path stroke='black'  d='M71.9,282.2 L80.9,282.2  '/>	<g transform="translate(63.6,286.1)" stroke="none" fill="black" font-family="Helvetica" font-size="12.00"  text-anchor="end">
		<text><tspan font-family="Helvetica" > 0.5</tspan></text>
	</g>
</g>
<g fill="none" color="black" stroke="currentColor" stroke-width="1.00" stroke-linecap="butt" stroke-linejoin="miter">
	<path stroke='black'  d='M71.9,206.2 L80.9,206.2  '/>	<g transform="translate(63.6,210.1)" stroke="none" fill="black" font-family="Helvetica" font-size="12.00"  text-anchor="end">
		<text><tspan font-family="Helvetica" > 0.6</tspan></text>
	</g>
</g>
<g fill="none" color="black" stroke="currentColor" stroke-width="1.00" stroke-linecap="butt" stroke-linejoin="miter">
	<path stroke='black'  d='M71.9,130.1 L80.9,130.1  '/>	<g transform="translate(63.6,134.0)" stroke="none" fill="black" font-family="Helvetica" font-size="12.00"  text-anchor="end">
		<text><tspan font-family="Helvetica" > 0.7</tspan></text>
	</g>
</g>
<g fill="none" color="black" stroke="currentColor" stroke-width="1.00" stroke-linecap="butt" stroke-linejoin="miter">
	<path stroke='black'  d='M71.9,54.1 L80.9,54.1  '/>	<g transform="translate(63.6,58.0)" stroke="none" fill="black" font-family="Helvetica" font-size="12.00"  text-anchor="end">
		<text><tspan font-family="Helvetica" > 0.8</tspan></text>
	</g>
</g>
<g fill="none" color="black" stroke="currentColor" stroke-width="1.00" stroke-linecap="butt" stroke-linejoin="miter">
	<path stroke='black'  d='M71.9,662.4 L71.9,653.4  '/>	<g transform="translate(71.9,684.3)" stroke="none" fill="black" font-family="Helvetica" font-size="12.00"  text-anchor="middle">
		<text><tspan font-family="Helvetica" > 24</tspan></text>
	</g>
</g>
<g fill="none" color="black" stroke="currentColor" stroke-width="1.00" stroke-linecap="butt" stroke-linejoin="miter">
	<path stroke='black'  d='M221.8,662.4 L221.8,653.4  '/>	<g transform="translate(221.8,684.3)" stroke="none" fill="black" font-family="Helvetica" font-size="12.00"  text-anchor="middle">
		<text><tspan font-family="Helvetica" > 26</tspan></text>
	</g>
</g>
<g fill="none" color="black" stroke="currentColor" stroke-width="1.00" stroke-linecap="butt" stroke-linejoin="miter">
	<path stroke='black'  d='M371.8,662.4 L371.8,653.4  '/>	<g transform="translate(371.8,684.3)" stroke="none" fill="black" font-family="Helvetica" font-size="12.00"  text-anchor="middle">
		<text><tspan font-family="Helvetica" > 28</tspan></text>
	</g>
</g>
<g fill="none" color="black" stroke="currentColor" stroke-width="1.00" stroke-linecap="butt" stroke-linejoin="miter">
	<path stroke='black'  d='M521.7,662.4 L521.7,653.4  '/>	<g transform="translate(521.7,684.3)" stroke="none" fill="black" font-family="Helvetica" font-size="12.00"  text-anchor="middle">
		<text><tspan font-family="Helvetica" > 30</tspan></text>
	</g>
</g>
<g fill="none" color="black" stroke="currentColor" stroke-width="1.00" stroke-linecap="butt" stroke-linejoin="miter">
	<path stroke='black'  d='M671.7,662.4 L671.7,653.4  '/>	<g transform="translate(671.7,684.3)" stroke="none" fill="black" font-family="Helvetica" font-size="12.00"  text-anchor="middle">
		<text><tspan font-family="Helvetica" > 32</tspan></text>
	</g>
</g>
<g fill="none" color="black" stroke="currentColor" stroke-width="1.00" stroke-linecap="butt" stroke-linejoin="miter">
	<path stroke='black'  d='M821.6,662.4 L821.6,653.4  '/>	<g transform="translate(821.6,684.3)" stroke="none" fill="black" font-family="Helvetica" font-size="12.00"  text-anchor="middle">
		<text><tspan font-family="Helvetica" > 34</tspan></text>
	</g>
</g>
<g fill="none" color="black" stroke="currentColor" stroke-width="1.00" stroke-linecap="butt" stroke-linejoin="miter">
	<path stroke='black'  d='M971.6,662.4 L971.6,653.4  '/>	<g transform="translate(971.6,684.3)" stroke="none" fill="black" font-family="Helvetica" font-size="12.00"  text-anchor="middle">
		<text><tspan font-family="Helvetica" > 36</tspan></text>
	</g>
</g>
<g fill="none" color="black" stroke="currentColor" stroke-width="1.00" stroke-linecap="butt" stroke-linejoin="miter">
	<path stroke='black'  d='M1121.5,662.4 L1121.5,653.4  '/>	<g transform="translate(1121.5,684.3)" stroke="none" fill="black" font-family="Helvetica" font-size="12.00"  text-anchor="middle">
		<text><tspan font-family="Helvetica" > 38</tspan></text>
	</g>
</g>
<g fill="none" color="black" stroke="currentColor" stroke-width="1.00" stroke-linecap="butt" stroke-linejoin="miter">
</g>
<g fill="none" color="black" stroke="currentColor" stroke-width="1.00" stroke-linecap="butt" stroke-linejoin="miter">
	<path stroke='black'  d='M71.9,54.1 L71.9,662.4 L1121.5,662.4 L1121.5,54.1 L71.9,54.1 Z  '/></g>
<g fill="none" color="black" stroke="currentColor" stroke-width="1.00" stroke-linecap="butt" stroke-linejoin="miter">
	<g transform="translate(16.3,358.3) rotate(270)" stroke="none" fill="black" font-family="Helvetica" font-size="12.00"  text-anchor="middle">
		<text><tspan font-family="Helvetica" >Density (a.u.)</tspan></text>
	</g>
</g>
<g fill="none" color="black" stroke="currentColor" stroke-width="1.00" stroke-linecap="butt" stroke-linejoin="miter">
	<g transform="translate(596.7,711.3)" stroke="none" fill="black" font-family="Helvetica" font-size="12.00"  text-anchor="middle">
		<text><tspan font-family="Helvetica" >Average time (us)</tspan></text>
	</g>
</g>
<g fill="none" color="black" stroke="currentColor" stroke-width="1.00" stroke-linecap="butt" stroke-linejoin="miter">
	<g transform="translate(596.7,31.0)" stroke="none" fill="black" font-family="Helvetica" font-size="12.00"  text-anchor="middle">
		<text><tspan font-family="Helvetica" >snapshot_restore_with_dense/Sparse: Entire region + process_vm_writev/5</tspan></text>
	</g>
</g>
	<g id="gnuplot_plot_1" ><title>Base PDF</title>
<g fill="none" color="black" stroke="currentColor" stroke-width="1.00" stroke-linecap="butt" stroke-linejoin="miter">
	<g transform="translate(1196.9,67.0)" stroke="none" fill="black" font-family="Helvetica" font-size="12.00"  text-anchor="start">
		<text><tspan font-family="Helvetica" >Base PDF</tspan></text>
	</g>
</g>
<g fill="none" color="black" stroke="currentColor" stroke-width="1.00" stroke-linecap="butt" stroke-linejoin="miter">
	<g stroke='none' shape-rendering='crispEdges'>
		<polygon fill = 'rgb(227,  26,  28)' fill-opacity = '0.500000' points = '1146.4,67.6 1188.6,67.6 1188.6,58.6 1146.4,58.6 '/>
		<polygon fill = 'rgb(227,  26,  28)' fill-opacity = '0.500000' points = '170.7,658.9 172.2,658.4 173.6,657.8 175.1,657.1 176.5,656.3 178.0,655.5 179.4,654.6 180.9,653.5 182.3,652.3 183.8,651.0 185.2,649.5 186.7,647.9 188.1,646.1 189.6,644.1 191.0,641.9 192.5,639.4
193.9,636.8 195.4,633.8 196.8,630.6 198.3,627.2 199.8,623.4 201.2,619.2 202.7,614.8 204.1,609.9 205.6,604.7 207.0,599.1 208.5,593.1 209.9,586.7 211.4,579.8 212.8,572.5 214.3,564.7 215.7,556.4
217.2,547.6 218.6,538.4 220.1,528.6 221.5,518.4 223.0,507.6 224.4,496.4 225.9,484.7 227.3,472.6 228.8,459.9 230.2,446.9 231.7,433.4 233.1,419.6 234.6,405.4 236.0,390.9 237.5,376.1 238.9,361.1
240.4,345.9 241.8,330.5 243.3,315.0 244.7,299.5 246.2,284.0 247.6,268.6 249.1,253.3 250.5,238.2 252.0,223.3 253.4,208.8 254.9,194.7 256.3,181.0 257.8,167.8 259.2,155.2 260.7,143.3 262.1,132.0
263.6,121.5 265.0,111.8 266.5,102.9 267.9,94.9 269.4,87.9 270.8,81.8 272.3,76.7 273.7,72.6 275.2,69.6 276.6,67.6 278.1,66.7 279.5,66.8 281.0,68.0 282.4,70.3 283.9,73.5 285.3,77.8
286.8,83.0 288.2,89.2 289.7,96.3 291.1,104.3 292.6,113.0 294.0,122.6 295.5,132.9 296.9,143.8 298.4,155.3 299.8,167.4 301.3,180.0 302.8,193.0 304.2,206.4 305.7,220.1 307.1,234.0 308.6,248.1
310.0,262.4 311.5,276.7 312.9,291.0 314.4,305.3 315.8,319.5 317.3,333.6 318.7,347.5 320.2,361.2 321.6,374.7 323.1,387.9 324.5,400.7 326.0,413.3 327.4,425.4 328.9,437.2 330.3,448.6 331.8,459.6
333.2,470.2 334.7,480.3 336.1,490.1 337.6,499.3 339.0,508.2 340.5,516.6 341.9,524.7 343.4,532.3 344.8,539.5 346.3,546.3 347.7,552.7 349.2,558.7 350.6,564.4 352.1,569.8 353.5,574.8 355.0,579.5
356.4,583.9 357.9,588.0 359.3,591.9 360.8,595.5 362.2,598.8 363.7,602.0 365.1,604.9 366.6,607.6 368.0,610.2 369.5,612.5 370.9,614.7 372.4,616.8 373.8,618.7 375.3,620.5 376.7,622.2 378.2,623.8
379.6,625.2 381.1,626.6 382.5,627.9 384.0,629.1 385.4,630.3 386.9,631.4 388.3,632.4 389.8,633.4 391.2,634.3 392.7,635.2 394.1,636.0 395.6,636.8 397.0,637.6 398.5,638.3 399.9,639.0 401.4,639.7
402.9,640.3 404.3,641.0 405.8,641.6 407.2,642.2 408.7,642.7 410.1,643.3 411.6,643.8 413.0,644.3 414.5,644.8 415.9,645.3 417.4,645.8 418.8,646.2 420.3,646.7 421.7,647.1 423.2,647.5 424.6,647.9
426.1,648.3 427.5,648.6 429.0,649.0 430.4,649.3 431.9,649.7 433.3,650.0 434.8,650.3 436.2,650.5 437.7,650.8 439.1,651.0 440.6,651.3 442.0,651.5 443.5,651.7 444.9,651.8 446.4,652.0 447.8,652.1
449.3,652.3 450.7,652.4 452.2,652.5 453.6,652.6 455.1,652.6 456.5,652.7 458.0,652.7 459.4,652.7 460.9,652.7 462.3,652.7 463.8,652.7 465.2,652.7 466.7,652.6 468.1,652.6 469.6,652.5 471.0,652.5
472.5,652.4 473.9,652.3 475.4,652.2 476.8,652.1 478.3,652.0 479.7,651.9 481.2,651.8 482.6,651.7 484.1,651.6 485.5,651.5 487.0,651.4 488.4,651.3 489.9,651.2 491.3,651.1 492.8,651.0 494.2,650.9
495.7,650.8 497.1,650.7 498.6,650.6 500.0,650.5 501.5,650.5 503.0,650.4 504.4,650.4 505.9,650.3 507.3,650.3 508.8,650.3 510.2,650.3 511.7,650.2 513.1,650.2 514.6,650.2 516.0,650.3 517.5,650.3
518.9,650.3 520.4,650.3 521.8,650.4 523.3,650.4 524.7,650.4 526.2,650.5 527.6,650.5 529.1,650.6 530.5,650.6 532.0,650.7 533.4,650.7 534.9,650.8 536.3,650.8 537.8,650.9 539.2,650.9 540.7,651.0
542.1,651.0 543.6,651.1 545.0,651.1 546.5,651.1 547.9,651.2 549.4,651.2 550.8,651.2 552.3,651.2 553.7,651.2 555.2,651.2 556.6,651.2 558.1,651.1 559.5,651.1 561.0,651.1 562.4,651.0 563.9,651.0
565.3,650.9 566.8,650.8 568.2,650.8 569.7,650.7 571.1,650.6 572.6,650.5 574.0,650.5 575.5,650.4 576.9,650.3 578.4,650.2 579.8,650.1 581.3,650.0 582.7,649.9 584.2,649.9 585.6,649.8 587.1,649.7
588.5,649.7 590.0,649.6 591.4,649.6 592.9,649.5 594.3,649.5 595.8,649.5 597.2,649.5 598.7,649.5 600.1,649.5 601.6,649.5 603.1,649.6 604.5,649.6 606.0,649.7 607.4,649.8 608.9,649.9 610.3,650.0
611.8,650.1 613.2,650.2 614.7,650.4 616.1,650.6 617.6,650.7 619.0,650.9 620.5,651.1 621.9,651.4 623.4,651.6 624.8,651.8 626.3,652.1 627.7,652.3 629.2,652.6 630.6,652.9 632.1,653.1 633.5,653.4
635.0,653.7 636.4,654.0 637.9,654.3 639.3,654.6 640.8,654.9 642.2,655.2 643.7,655.5 645.1,655.8 646.6,656.1 648.0,656.3 649.5,656.6 650.9,656.9 652.4,657.2 653.8,657.5 655.3,657.7 656.7,658.0
658.2,658.2 659.6,658.5 661.1,658.7 662.5,658.9 664.0,659.1 665.4,659.4 666.9,659.6 668.3,659.7 669.8,659.9 671.2,660.1 672.7,660.3 674.1,660.4 675.6,660.6 677.0,660.7 678.5,660.8 679.9,661.0
681.4,661.1 682.8,661.2 684.3,661.3 685.7,661.4 687.2,661.5 688.6,661.5 690.1,661.6 691.5,661.7 693.0,661.7 694.4,661.8 695.9,661.8 697.3,661.9 698.8,661.9 700.2,661.9 701.7,662.0 703.1,662.0
704.6,662.0 706.1,662.0 707.5,662.0 709.0,662.0 710.4,662.0 711.9,662.0 713.3,662.0 714.8,662.0 716.2,661.9 717.7,661.9 719.1,661.9 720.6,661.8 722.0,661.8 723.5,661.8 724.9,661.7 726.4,661.6
727.8,661.6 729.3,661.5 730.7,661.4 732.2,661.3 733.6,661.3 735.1,661.2 736.5,661.1 738.0,660.9 739.4,660.8 740.9,660.7 742.3,660.6 743.8,660.5 745.2,660.3 746.7,660.2 748.1,660.0 749.6,659.9
751.0,659.7 752.5,659.5 753.9,659.4 755.4,659.2 756.8,659.0 758.3,658.8 759.7,658.7 761.2,658.5 762.6,658.3 764.1,658.1 765.5,657.9 767.0,657.7 768.4,657.6 769.9,657.4 771.3,657.2 772.8,657.0
774.2,656.9 775.7,656.7 777.1,656.5 778.6,656.4 780.0,656.3 781.5,656.1 782.9,656.0 784.4,655.9 785.8,655.8 787.3,655.7 788.7,655.6 790.2,655.6 791.6,655.5 793.1,655.5 794.5,655.5 796.0,655.5
797.4,655.5 798.9,655.5 800.3,655.5 801.8,655.6 803.2,655.6 804.7,655.7 806.2,655.8 807.6,655.9 809.1,656.0 810.5,656.1 812.0,656.2 813.4,656.4 814.9,656.5 816.3,656.7 817.8,656.8 819.2,657.0
820.7,657.2 822.1,657.3 823.6,657.5 825.0,657.7 826.5,657.9 827.9,658.1 829.4,658.2 830.8,658.4 832.3,658.6 833.7,658.8 835.2,659.0 836.6,659.2 838.1,659.3 839.5,659.5 841.0,659.7 842.4,659.8
843.9,660.0 845.3,660.1 846.8,660.3 848.2,660.4 849.7,660.6 851.1,660.7 852.6,660.8 854.0,660.9 855.5,661.0 856.9,661.2 858.4,661.3 859.8,661.3 861.3,661.4 862.7,661.5 864.2,661.6 865.6,661.7
867.1,661.7 868.5,661.8 870.0,661.8 871.4,661.9 872.9,661.9 874.3,662.0 875.8,662.0 877.2,662.1 878.7,662.1 880.1,662.1 881.6,662.2 883.0,662.2 884.5,662.2 885.9,662.2 887.4,662.3 888.8,662.3
890.3,662.3 891.7,662.3 893.2,662.3 894.6,662.3 894.6,662.4 893.2,662.4 891.7,662.4 890.3,662.4 888.8,662.4 887.4,662.4 885.9,662.4 884.5,662.4 883.0,662.4 881.6,662.4 880.1,662.4 878.7,662.4
877.2,662.4 875.8,662.4 874.3,662.4 872.9,662.4 871.4,662.4 870.0,662.4 868.5,662.4 867.1,662.4 865.6,662.4 864.2,662.4 862.7,662.4 861.3,662.4 859.8,662.4 858.4,662.4 856.9,662.4 855.5,662.4
854.0,662.4 852.6,662.4 851.1,662.4 849.7,662.4 848.2,662.4 846.8,662.4 845.3,662.4 843.9,662.4 842.4,662.4 841.0,662.4 839.5,662.4 838.1,662.4 836.6,662.4 835.2,662.4 833.7,662.4 832.3,662.4
830.8,662.4 829.4,662.4 827.9,662.4 826.5,662.4 825.0,662.4 823.6,662.4 822.1,662.4 820.7,662.4 819.2,662.4 817.8,662.4 816.3,662.4 814.9,662.4 813.4,662.4 812.0,662.4 810.5,662.4 809.1,662.4
807.6,662.4 806.2,662.4 804.7,662.4 803.2,662.4 801.8,662.4 800.3,662.4 798.9,662.4 797.4,662.4 796.0,662.4 794.5,662.4 793.1,662.4 791.6,662.4 790.2,662.4 788.7,662.4 787.3,662.4 785.8,662.4
784.4,662.4 782.9,662.4 781.5,662.4 780.0,662.4 778.6,662.4 777.1,662.4 775.7,662.4 774.2,662.4 772.8,662.4 771.3,662.4 769.9,662.4 768.4,662.4 767.0,662.4 765.5,662.4 764.1,662.4 762.6,662.4
761.2,662.4 759.7,662.4 758.3,662.4 756.8,662.4 755.4,662.4 753.9,662.4 752.5,662.4 751.0,662.4 749.6,662.4 748.1,662.4 746.7,662.4 745.2,662.4 743.8,662.4 742.3,662.4 740.9,662.4 739.4,662.4
738.0,662.4 736.5,662.4 735.1,662.4 733.6,662.4 732.2,662.4 730.7,662.4 729.3,662.4 727.8,662.4 726.4,662.4 724.9,662.4 723.5,662.4 722.0,662.4 720.6,662.4 719.1,662.4 717.7,662.4 716.2,662.4
714.8,662.4 713.3,662.4 711.9,662.4 710.4,662.4 709.0,662.4 707.5,662.4 706.1,662.4 704.6,662.4 703.1,662.4 701.7,662.4 700.2,662.4 698.8,662.4 697.3,662.4 695.9,662.4 694.4,662.4 693.0,662.4
691.5,662.4 690.1,662.4 688.6,662.4 687.2,662.4 685.7,662.4 684.3,662.4 682.8,662.4 681.4,662.4 679.9,662.4 678.5,662.4 677.0,662.4 675.6,662.4 674.1,662.4 672.7,662.4 671.2,662.4 669.8,662.4
668.3,662.4 666.9,662.4 665.4,662.4 664.0,662.4 662.5,662.4 661.1,662.4 659.6,662.4 658.2,662.4 656.7,662.4 655.3,662.4 653.8,662.4 652.4,662.4 650.9,662.4 649.5,662.4 648.0,662.4 646.6,662.4
645.1,662.4 643.7,662.4 642.2,662.4 640.8,662.4 639.3,662.4 637.9,662.4 636.4,662.4 635.0,662.4 633.5,662.4 632.1,662.4 630.6,662.4 629.2,662.4 627.7,662.4 626.3,662.4 624.8,662.4 623.4,662.4
621.9,662.4 620.5,662.4 619.0,662.4 617.6,662.4 616.1,662.4 614.7,662.4 613.2,662.4 611.8,662.4 610.3,662.4 608.9,662.4 607.4,662.4 606.0,662.4 604.5,662.4 603.1,662.4 601.6,662.4 600.1,662.4
598.7,662.4 597.2,662.4 595.8,662.4 594.3,662.4 592.9,662.4 591.4,662.4 590.0,662.4 588.5,662.4 587.1,662.4 585.6,662.4 584.2,662.4 582.7,662.4 581.3,662.4 579.8,662.4 578.4,662.4 576.9,662.4
575.5,662.4 574.0,662.4 572.6,662.4 571.1,662.4 569.7,662.4 568.2,662.4 566.8,662.4 565.3,662.4 563.9,662.4 562.4,662.4 561.0,662.4 559.5,662.4 558.1,662.4 556.6,662.4 555.2,662.4 553.7,662.4
552.3,662.4 550.8,662.4 549.4,662.4 547.9,662.4 546.5,662.4 545.0,662.4 543.6,662.4 542.1,662.4 540.7,662.4 539.2,662.4 537.8,662.4 536.3,662.4 534.9,662.4 533.4,662.4 532.0,662.4 530.5,662.4
529.1,662.4 527.6,662.4 526.2,662.4 524.7,662.4 523.3,662.4 521.8,662.4 520.4,662.4 518.9,662.4 517.5,662.4 516.0,662.4 514.6,662.4 513.1,662.4 511.7,662.4 510.2,662.4 508.8,662.4 507.3,662.4
505.9,662.4 504.4,662.4 503.0,662.4 501.5,662.4 500.0,662.4 498.6,662.4 497.1,662.4 495.7,662.4 494.2,662.4 492.8,662.4 491.3,662.4 489.9,662.4 488.4,662.4 487.0,662.4 485.5,662.4 484.1,662.4
482.6,662.4 481.2,662.4 479.7,662.4 478.3,662.4 476.8,662.4 475.4,662.4 473.9,662.4 472.5,662.4 471.0,662.4 469.6,662.4 468.1,662.4 466.7,662.4 465.2,662.4 463.8,662.4 462.3,662.4 460.9,662.4
459.4,662.4 458.0,662.4 456.5,662.4 455.1,662.4 453.6,662.4 452.2,662.4 450.7,662.4 449.3,662.4 447.8,662.4 446.4,662.4 444.9,662.4 443.5,662.4 442.0,662.4 440.6,662.4 439.1,662.4 437.7,662.4
436.2,662.4 434.8,662.4 433.3,662.4 431.9,662.4 430.4,662.4 429.0,662.4 427.5,662.4 426.1,662.4 424.6,662.4 423.2,662.4 421.7,662.4 420.3,662.4 418.8,662.4 417.4,662.4 415.9,662.4 414.5,662.4
413.0,662.4 411.6,662.4 410.1,662.4 408.7,662.4 407.2,662.4 405.8,662.4 404.3,662.4 402.9,662.4 401.4,662.4 399.9,662.4 398.5,662.4 397.0,662.4 395.6,662.4 394.1,662.4 392.7,662.4 391.2,662.4
389.8,662.4 388.3,662.4 386.9,662.4 385.4,662.4 384.0,662.4 382.5,662.4 381.1,662.4 379.6,662.4 378.2,662.4 376.7,662.4 375.3,662.4 373.8,662.4 372.4,662.4 370.9,662.4 369.5,662.4 368.0,662.4
366.6,662.4 365.1,662.4 363.7,662.4 362.2,662.4 360.8,662.4 359.3,662.4 357.9,662.4 356.4,662.4 355.0,662.4 353.5,662.4 352.1,662.4 350.6,662.4 349.2,662.4 347.7,662.4 346.3,662.4 344.8,662.4
343.4,662.4 341.9,662.4 340.5,662.4 339.0,662.4 337.6,662.4 336.1,662.4 334.7,662.4 333.2,662.4 331.8,662.4 330.3,662.4 328.9,662.4 327.4,662.4 326.0,662.4 324.5,662.4 323.1,662.4 321.6,662.4
320.2,662.4 318.7,662.4 317.3,662.4 315.8,662.4 314.4,662.4 312.9,662.4 311.5,662.4 310.0,662.4 308.6,662.4 307.1,662.4 305.7,662.4 304.2,662.4 302.8,662.4 301.3,662.4 299.8,662.4 298.4,662.4
296.9,662.4 295.5,662.4 294.0,662.4 292.6,662.4 291.1,662.4 289.7,662.4 288.2,662.4 286.8,662.4 285.3,662.4 283.9,662.4 282.4,662.4 281.0,662.4 279.5,662.4 278.1,662.4 276.6,662.4 275.2,662.4
273.7,662.4 272.3,662.4 270.8,662.4 269.4,662.4 267.9,662.4 266.5,662.4 265.0,662.4 263.6,662.4 262.1,662.4 260.7,662.4 259.2,662.4 257.8,662.4 256.3,662.4 254.9,662.4 253.4,662.4 252.0,662.4
250.5,662.4 249.1,662.4 247.6,662.4 246.2,662.4 244.7,662.4 243.3,662.4 241.8,662.4 240.4,662.4 238.9,662.4 237.5,662.4 236.0,662.4 234.6,662.4 233.1,662.4 231.7,662.4 230.2,662.4 228.8,662.4
227.3,662.4 225.9,662.4 224.4,662.4 223.0,662.4 221.5,662.4 220.1,662.4 218.6,662.4 217.2,662.4 215.7,662.4 214.3,662.4 212.8,662.4 211.4,662.4 209.9,662.4 208.5,662.4 207.0,662.4 205.6,662.4
204.1,662.4 202.7,662.4 201.2,662.4 199.8,662.4 198.3,662.4 196.8,662.4 195.4,662.4 193.9,662.4 192.5,662.4 191.0,662.4 189.6,662.4 188.1,662.4 186.7,662.4 185.2,662.4 183.8,662.4 182.3,662.4
180.9,662.4 179.4,662.4 178.0,662.4 176.5,662.4 175.1,662.4 173.6,662.4 172.2,662.4 170.7,662.4 '/>
	</g>
</g>
	</g>
	<g id="gnuplot_plot_2" ><title>Base Mean</title>
<g fill="none" color="white" stroke="rgb(227,  26,  28)" stroke-width="2.00" stroke-linecap="butt" stroke-linejoin="miter">
</g>
<g fill="none" color="black" stroke="currentColor" stroke-width="2.00" stroke-linecap="butt" stroke-linejoin="miter">
	<g transform="translate(1196.9,85.0)" stroke="none" fill="black" font-family="Helvetica" font-size="12.00"  text-anchor="start">
		<text><tspan font-family="Helvetica" >Base Mean</tspan></text>
	</g>
</g>
<g fill="none" color="black" stroke="currentColor" stroke-width="2.00" stroke-linecap="butt" stroke-linejoin="miter">
	<path stroke='rgb(227,  26,  28)'  d='M1146.4,81.1 L1188.6,81.1 M300.6,662.4 L300.6,174.2  '/></g>
	</g>
	<g id="gnuplot_plot_3" ><title>New PDF</title>
<g fill="none" color="white" stroke="rgb(227,  26,  28)" stroke-width="1.00" stroke-linecap="butt" stroke-linejoin="miter">
</g>
<g fill="none" color="black" stroke="currentColor" stroke-width="1.00" stroke-linecap="butt" stroke-linejoin="miter">
	<g transform="translate(1196.9,103.0)" stroke="none" fill="black" font-family="Helvetica" font-size="12.00"  text-anchor="start">
		<text><tspan font-family="Helvetica" >New PDF</tspan></text>
	</g>
</g>
<g fill="none" color="black" stroke="currentColor" stroke-width="1.00" stroke-linecap="butt" stroke-linejoin="miter">
	<g stroke='none' shape-rendering='crispEdges'>
		<polygon fill = 'rgb( 31, 120, 180)' fill-opacity = '0.500000' points = '1146.4,103.6 1188.6,103.6 1188.6,94.6 1146.4,94.6 '/>
		<polygon fill = 'rgb( 31, 120, 180)' fill-opacity = '0.500000' points = '158.6,660.1 160.5,659.7 162.4,659.2 164.3,658.6 166.2,657.9 168.1,657.1 170.0,656.2 171.9,655.2 173.8,654.0 175.7,652.6 177.6,651.0 179.5,649.2 181.4,647.2 183.3,644.9 185.2,642.3 187.1,639.4
189.0,636.2 190.9,632.6 192.8,628.5 194.7,624.1 196.6,619.2 198.5,613.8 200.4,607.8 202.3,601.3 204.2,594.2 206.1,586.5 207.9,578.2 209.8,569.2 211.7,559.6 213.6,549.2 215.5,538.2 217.4,526.4
219.3,514.0 221.2,500.9 223.1,487.1 225.0,472.6 226.9,457.5 228.8,441.9 230.7,425.6 232.6,408.9 234.5,391.8 236.4,374.3 238.3,356.5 240.2,338.5 242.1,320.4 244.0,302.3 245.9,284.2 247.8,266.4
249.7,248.8 251.6,231.6 253.5,215.0 255.4,199.0 257.3,183.7 259.2,169.2 261.1,155.7 263.0,143.3 264.9,131.9 266.8,121.8 268.7,113.0 270.6,105.6 272.5,99.6 274.4,95.0 276.3,91.9 278.2,90.4
280.1,90.3 282.0,91.8 283.9,94.8 285.8,99.2 287.7,105.1 289.6,112.4 291.5,120.9 293.3,130.8 295.2,141.7 297.1,153.8 299.0,166.8 300.9,180.7 302.8,195.4 304.7,210.7 306.6,226.6 308.5,243.0
310.4,259.7 312.3,276.7 314.2,293.8 316.1,310.9 318.0,328.0 319.9,345.0 321.8,361.8 323.7,378.2 325.6,394.3 327.5,410.0 329.4,425.3 331.3,440.0 333.2,454.2 335.1,467.8 337.0,480.8 338.9,493.1
340.8,504.9 342.7,516.0 344.6,526.5 346.5,536.4 348.4,545.6 350.3,554.2 352.2,562.3 354.1,569.7 356.0,576.7 357.9,583.1 359.8,589.0 361.7,594.4 363.6,599.4 365.5,603.9 367.4,608.1 369.3,611.9
371.2,615.4 373.1,618.5 375.0,621.4 376.8,624.0 378.7,626.3 380.6,628.5 382.5,630.4 384.4,632.2 386.3,633.8 388.2,635.2 390.1,636.5 392.0,637.7 393.9,638.8 395.8,639.8 397.7,640.7 399.6,641.6
401.5,642.4 403.4,643.1 405.3,643.8 407.2,644.4 409.1,645.1 411.0,645.6 412.9,646.2 414.8,646.7 416.7,647.2 418.6,647.6 420.5,648.1 422.4,648.5 424.3,648.9 426.2,649.3 428.1,649.6 430.0,650.0
431.9,650.3 433.8,650.5 435.7,650.8 437.6,651.0 439.5,651.2 441.4,651.4 443.3,651.5 445.2,651.6 447.1,651.7 449.0,651.8 450.9,651.8 452.8,651.8 454.7,651.8 456.6,651.8 458.5,651.7 460.4,651.6
462.2,651.5 464.1,651.4 466.0,651.3 467.9,651.1 469.8,651.0 471.7,650.8 473.6,650.6 475.5,650.5 477.4,650.3 479.3,650.2 481.2,650.0 483.1,649.9 485.0,649.7 486.9,649.6 488.8,649.5 490.7,649.4
492.6,649.4 494.5,649.3 496.4,649.3 498.3,649.3 500.2,649.3 502.1,649.3 504.0,649.4 505.9,649.5 507.8,649.6 509.7,649.7 511.6,649.8 513.5,650.0 515.4,650.1 517.3,650.3 519.2,650.5 521.1,650.6
523.0,650.8 524.9,651.0 526.8,651.2 528.7,651.4 530.6,651.6 532.5,651.8 534.4,652.0 536.3,652.2 538.2,652.4 540.1,652.5 542.0,652.7 543.9,652.9 545.7,653.0 547.6,653.2 549.5,653.3 551.4,653.4
553.3,653.5 555.2,653.7 557.1,653.8 559.0,653.9 560.9,654.0 562.8,654.1 564.7,654.2 566.6,654.3 568.5,654.4 570.4,654.5 572.3,654.6 574.2,654.7 576.1,654.8 578.0,654.9 579.9,655.1 581.8,655.2
583.7,655.3 585.6,655.5 587.5,655.6 589.4,655.8 591.3,656.0 593.2,656.2 595.1,656.4 597.0,656.6 598.9,656.8 600.8,657.0 602.7,657.2 604.6,657.4 606.5,657.6 608.4,657.8 610.3,658.0 612.2,658.3
614.1,658.5 616.0,658.7 617.9,658.9 619.8,659.1 621.7,659.3 623.6,659.5 625.5,659.7 627.4,659.9 629.3,660.1 631.1,660.3 633.0,660.4 634.9,660.6 636.8,660.7 638.7,660.9 640.6,661.0 642.5,661.1
644.4,661.3 646.3,661.4 648.2,661.5 650.1,661.6 652.0,661.6 653.9,661.7 655.8,661.8 657.7,661.9 659.6,661.9 661.5,662.0 663.4,662.0 665.3,662.1 667.2,662.1 669.1,662.2 671.0,662.2 672.9,662.2
674.8,662.2 676.7,662.3 678.6,662.3 680.5,662.3 682.4,662.3 684.3,662.3 686.2,662.3 688.1,662.3 690.0,662.4 691.9,662.4 693.8,662.4 695.7,662.4 697.6,662.4 699.5,662.4 701.4,662.4 703.3,662.4
705.2,662.4 707.1,662.4 709.0,662.4 710.9,662.4 712.8,662.4 714.6,662.4 716.5,662.4 718.4,662.4 720.3,662.4 722.2,662.4 724.1,662.4 726.0,662.4 727.9,662.4 729.8,662.4 731.7,662.4 733.6,662.4
735.5,662.4 737.4,662.4 739.3,662.4 741.2,662.4 743.1,662.4 745.0,662.4 746.9,662.4 748.8,662.4 750.7,662.4 752.6,662.4 754.5,662.4 756.4,662.4 758.3,662.4 760.2,662.4 762.1,662.4 764.0,662.4
765.9,662.4 767.8,662.4 769.7,662.4 771.6,662.4 773.5,662.4 775.4,662.4 777.3,662.4 779.2,662.4 781.1,662.4 783.0,662.4 784.9,662.4 786.8,662.4 788.7,662.4 790.6,662.4 792.5,662.4 794.4,662.4
796.3,662.4 798.1,662.4 800.0,662.4 801.9,662.4 803.8,662.4 805.7,662.4 807.6,662.4 809.5,662.4 811.4,662.4 813.3,662.4 815.2,662.4 817.1,662.4 819.0,662.4 820.9,662.4 822.8,662.4 824.7,662.4
826.6,662.4 828.5,662.4 830.4,662.4 832.3,662.4 834.2,662.4 836.1,662.4 838.0,662.4 839.9,662.4 841.8,662.4 843.7,662.4 845.6,662.4 847.5,662.4 849.4,662.4 851.3,662.4 853.2,662.4 855.1,662.4
857.0,662.4 858.9,662.4 860.8,662.4 862.7,662.4 864.6,662.4 866.5,662.4 868.4,662.4 870.3,662.4 872.2,662.4 874.1,662.4 876.0,662.4 877.9,662.4 879.8,662.4 881.7,662.4 883.5,662.4 885.4,662.4
887.3,662.3 889.2,662.3 891.1,662.3 893.0,662.3 894.9,662.3 896.8,662.3 898.7,662.3 900.6,662.2 902.5,662.2 904.4,662.2 906.3,662.2 908.2,662.1 910.1,662.1 912.0,662.1 913.9,662.0 915.8,662.0
917.7,661.9 919.6,661.8 921.5,661.8 923.4,661.7 925.3,661.6 927.2,661.5 929.1,661.4 931.0,661.3 932.9,661.2 934.8,661.1 936.7,661.0 938.6,660.8 940.5,660.7 942.4,660.5 944.3,660.4 946.2,660.2
948.1,660.0 950.0,659.8 951.9,659.7 953.8,659.5 955.7,659.3 957.6,659.1 959.5,658.9 961.4,658.7 963.3,658.5 965.2,658.3 967.0,658.1 968.9,657.9 970.8,657.7 972.7,657.5 974.6,657.3 976.5,657.1
978.4,656.9 980.3,656.8 982.2,656.7 984.1,656.5 986.0,656.4 987.9,656.3 989.8,656.2 991.7,656.1 993.6,656.1 995.5,656.1 997.4,656.0 999.3,656.0 1001.2,656.1 1003.1,656.1 1005.0,656.2 1006.9,656.2
1008.8,656.3 1010.7,656.4 1012.6,656.5 1014.5,656.7 1016.4,656.8 1018.3,657.0 1020.2,657.1 1022.1,657.3 1024.0,657.5 1025.9,657.7 1027.8,657.9 1029.7,658.1 1031.6,658.3 1033.5,658.5 1035.4,658.7 1037.3,658.9
1039.2,659.1 1041.1,659.3 1043.0,659.5 1044.9,659.7 1046.8,659.9 1048.7,660.0 1050.6,660.2 1052.4,660.4 1054.3,660.5 1056.2,660.7 1058.1,660.8 1060.0,661.0 1061.9,661.1 1063.8,661.2 1065.7,661.3 1067.6,661.4
1069.5,661.5 1071.4,661.6 1073.3,661.7 1075.2,661.8 1077.1,661.8 1079.0,661.9 1080.9,662.0 1082.8,662.0 1084.7,662.1 1086.6,662.1 1088.5,662.1 1090.4,662.2 1092.3,662.2 1094.2,662.2 1096.1,662.2 1098.0,662.3
1099.9,662.3 1101.8,662.3 1103.7,662.3 1105.6,662.3 1105.6,662.4 1103.7,662.4 1101.8,662.4 1099.9,662.4 1098.0,662.4 1096.1,662.4 1094.2,662.4 1092.3,662.4 1090.4,662.4 1088.5,662.4 1086.6,662.4 1084.7,662.4
1082.8,662.4 1080.9,662.4 1079.0,662.4 1077.1,662.4 1075.2,662.4 1073.3,662.4 1071.4,662.4 1069.5,662.4 1067.6,662.4 1065.7,662.4 1063.8,662.4 1061.9,662.4 1060.0,662.4 1058.1,662.4 1056.2,662.4 1054.3,662.4
1052.4,662.4 1050.6,662.4 1048.7,662.4 1046.8,662.4 1044.9,662.4 1043.0,662.4 1041.1,662.4 1039.2,662.4 1037.3,662.4 1035.4,662.4 1033.5,662.4 1031.6,662.4 1029.7,662.4 1027.8,662.4 1025.9,662.4 1024.0,662.4
1022.1,662.4 1020.2,662.4 1018.3,662.4 1016.4,662.4 1014.5,662.4 1012.6,662.4 1010.7,662.4 1008.8,662.4 1006.9,662.4 1005.0,662.4 1003.1,662.4 1001.2,662.4 999.3,662.4 997.4,662.4 995.5,662.4 993.6,662.4
991.7,662.4 989.8,662.4 987.9,662.4 986.0,662.4 984.1,662.4 982.2,662.4 980.3,662.4 978.4,662.4 976.5,662.4 974.6,662.4 972.7,662.4 970.8,662.4 968.9,662.4 967.0,662.4 965.2,662.4 963.3,662.4
961.4,662.4 959.5,662.4 957.6,662.4 955.7,662.4 953.8,662.4 951.9,662.4 950.0,662.4 948.1,662.4 946.2,662.4 944.3,662.4 942.4,662.4 940.5,662.4 938.6,662.4 936.7,662.4 934.8,662.4 932.9,662.4
931.0,662.4 929.1,662.4 927.2,662.4 925.3,662.4 923.4,662.4 921.5,662.4 919.6,662.4 917.7,662.4 915.8,662.4 913.9,662.4 912.0,662.4 910.1,662.4 908.2,662.4 906.3,662.4 904.4,662.4 902.5,662.4
900.6,662.4 898.7,662.4 896.8,662.4 894.9,662.4 893.0,662.4 891.1,662.4 889.2,662.4 887.3,662.4 885.4,662.4 883.5,662.4 881.7,662.4 879.8,662.4 877.9,662.4 876.0,662.4 874.1,662.4 872.2,662.4
870.3,662.4 868.4,662.4 866.5,662.4 864.6,662.4 862.7,662.4 860.8,662.4 858.9,662.4 857.0,662.4 855.1,662.4 853.2,662.4 851.3,662.4 849.4,662.4 847.5,662.4 845.6,662.4 843.7,662.4 841.8,662.4
839.9,662.4 838.0,662.4 836.1,662.4 834.2,662.4 832.3,662.4 830.4,662.4 828.5,662.4 826.6,662.4 824.7,662.4 822.8,662.4 820.9,662.4 819.0,662.4 817.1,662.4 815.2,662.4 813.3,662.4 811.4,662.4
809.5,662.4 807.6,662.4 805.7,662.4 803.8,662.4 801.9,662.4 800.0,662.4 798.1,662.4 796.3,662.4 794.4,662.4 792.5,662.4 790.6,662.4 788.7,662.4 786.8,662.4 784.9,662.4 783.0,662.4 781.1,662.4
779.2,662.4 777.3,662.4 775.4,662.4 773.5,662.4 771.6,662.4 769.7,662.4 767.8,662.4 765.9,662.4 764.0,662.4 762.1,662.4 760.2,662.4 758.3,662.4 756.4,662.4 754.5,662.4 752.6,662.4 750.7,662.4
748.8,662.4 746.9,662.4 745.0,662.4 743.1,662.4 741.2,662.4 739.3,662.4 737.4,662.4 735.5,662.4 733.6,662.4 731.7,662.4 729.8,662.4 727.9,662.4 726.0,662.4 724.1,662.4 722.2,662.4 720.3,662.4
718.4,662.4 716.5,662.4 714.6,662.4 712.8,662.4 710.9,662.4 709.0,662.4 707.1,662.4 705.2,662.4 703.3,662.4 701.4,662.4 699.5,662.4 697.6,662.4 695.7,662.4 693.8,662.4 691.9,662.4 690.0,662.4
688.1,662.4 686.2,662.4 684.3,662.4 682.4,662.4 680.5,662.4 678.6,662.4 676.7,662.4 674.8,662.4 672.9,662.4 671.0,662.4 669.1,662.4 667.2,662.4 665.3,662.4 663.4,662.4 661.5,662.4 659.6,662.4
657.7,662.4 655.8,662.4 653.9,662.4 652.0,662.4 650.1,662.4 648.2,662.4 646.3,662.4 644.4,662.4 642.5,662.4 640.6,662.4 638.7,662.4 636.8,662.4 634.9,662.4 633.0,662.4 631.1,662.4 629.3,662.4
627.4,662.4 625.5,662.4 623.6,662.4 621.7,662.4 619.8,662.4 617.9,662.4 616.0,662.4 614.1,662.4 612.2,662.4 610.3,662.4 608.4,662.4 606.5,662.4 604.6,662.4 602.7,662.4 600.8,662.4 598.9,662.4
597.0,662.4 595.1,662.4 593.2,662.4 591.3,662.4 589.4,662.4 587.5,662.4 585.6,662.4 583.7,662.4 581.8,662.4 579.9,662.4 578.0,662.4 576.1,662.4 574.2,662.4 572.3,662.4 570.4,662.4 568.5,662.4
566.6,662.4 564.7,662.4 562.8,662.4 560.9,662.4 559.0,662.4 557.1,662.4 555.2,662.4 553.3,662.4 551.4,662.4 549.5,662.4 547.6,662.4 545.7,662.4 543.9,662.4 542.0,662.4 540.1,662.4 538.2,662.4
536.3,662.4 534.4,662.4 532.5,662.4 530.6,662.4 528.7,662.4 526.8,662.4 524.9,662.4 523.0,662.4 521.1,662.4 519.2,662.4 517.3,662.4 515.4,662.4 513.5,662.4 511.6,662.4 509.7,662.4 507.8,662.4
505.9,662.4 504.0,662.4 502.1,662.4 500.2,662.4 498.3,662.4 496.4,662.4 494.5,662.4 492.6,662.4 490.7,662.4 488.8,662.4 486.9,662.4 485.0,662.4 483.1,662.4 481.2,662.4 479.3,662.4 477.4,662.4
475.5,662.4 473.6,662.4 471.7,662.4 469.8,662.4 467.9,662.4 466.0,662.4 464.1,662.4 462.2,662.4 460.4,662.4 458.5,662.4 456.6,662.4 454.7,662.4 452.8,662.4 450.9,662.4 449.0,662.4 447.1,662.4
445.2,662.4 443.3,662.4 441.4,662.4 439.5,662.4 437.6,662.4 435.7,662.4 433.8,662.4 431.9,662.4 430.0,662.4 428.1,662.4 426.2,662.4 424.3,662.4 422.4,662.4 420.5,662.4 418.6,662.4 416.7,662.4
414.8,662.4 412.9,662.4 411.0,662.4 409.1,662.4 407.2,662.4 405.3,662.4 403.4,662.4 401.5,662.4 399.6,662.4 397.7,662.4 395.8,662.4 393.9,662.4 392.0,662.4 390.1,662.4 388.2,662.4 386.3,662.4
384.4,662.4 382.5,662.4 380.6,662.4 378.7,662.4 376.8,662.4 375.0,662.4 373.1,662.4 371.2,662.4 369.3,662.4 367.4,662.4 365.5,662.4 363.6,662.4 361.7,662.4 359.8,662.4 357.9,662.4 356.0,662.4
354.1,662.4 352.2,662.4 350.3,662.4 348.4,662.4 346.5,662.4 344.6,662.4 342.7,662.4 340.8,662.4 338.9,662.4 337.0,662.4 335.1,662.4 333.2,662.4 331.3,662.4 329.4,662.4 327.5,662.4 325.6,662.4
323.7,662.4 321.8,662.4 319.9,662.4 318.0,662.4 316.1,662.4 314.2,662.4 312.3,662.4 310.4,662.4 308.5,662.4 306.6,662.4 304.7,662.4 302.8,662.4 300.9,662.4 299.0,662.4 297.1,662.4 295.2,662.4
293.3,662.4 291.5,662.4 289.6,662.4 287.7,662.4 285.8,662.4 283.9,662.4 282.0,662.4 280.1,662.4 278.2,662.4 276.3,662.4 274.4,662.4 272.5,662.4 270.6,662.4 268.7,662.4 266.8,662.4 264.9,662.4
263.0,662.4 261.1,662.4 259.2,662.4 257.3,662.4 255.4,662.4 253.5,662.4 251.6,662.4 249.7,662.4 247.8,662.4 245.9,662.4 244.0,662.4 242.1,662.4 240.2,662.4 238.3,662.4 236.4,662.4 234.5,662.4
232.6,662.4 230.7,662.4 228.8,662.4 226.9,662.4 225.0,662.4 223.1,662.4 221.2,662.4 219.3,662.4 217.4,662.4 215.5,662.4 213.6,662.4 211.7,662.4 209.8,662.4 207.9,662.4 206.1,662.4 204.2,662.4
202.3,662.4 200.4,662.4 198.5,662.4 196.6,662.4 194.7,662.4 192.8,662.4 190.9,662.4 189.0,662.4 187.1,662.4 185.2,662.4 183.3,662.4 181.4,662.4 179.5,662.4 177.6,662.4 175.7,662.4 173.8,662.4
171.9,662.4 170.0,662.4 168.1,662.4 166.2,662.4 164.3,662.4 162.4,662.4 160.5,662.4 158.6,662.4 '/>
	</g>
</g>
	</g>
	<g id="gnuplot_plot_4" ><title>New Mean</title>
<g fill="none" color="white" stroke="rgb( 31, 120, 180)" stroke-width="2.00" stroke-linecap="butt" stroke-linejoin="miter">
</g>
<g fill="none" color="black" stroke="currentColor" stroke-width="2.00" stroke-linecap="butt" stroke-linejoin="miter">
	<g transform="translate(1196.9,121.0)" stroke="none" fill="black" font-family="Helvetica" font-size="12.00"  text-anchor="start">
		<text><tspan font-family="Helvetica" >New Mean</tspan></text>
	</g>
</g>
<g fill="none" color="black" stroke="currentColor" stroke-width="2.00" stroke-linecap="butt" stroke-linejoin="miter">
	<path stroke='rgb( 31, 120, 180)'  d='M1146.4,117.1 L1188.6,117.1 M297.9,662.4 L297.9,158.9  '/></g>
	</g>
<g fill="none" color="black" stroke="currentColor" stroke-width="2.00" stroke-linecap="butt" stroke-linejoin="miter">
</g>
<g fill="none" color="black" stroke="black" stroke-width="1.00" stroke-linecap="butt" stroke-linejoin="miter">
</g>
<g fill="none" color="black" stroke="currentColor" stroke-width="1.00" stroke-linecap="butt" stroke-linejoin="miter">
	<path stroke='black'  d='M71.9,54.1 L71.9,662.4 L1121.5,662.4 L1121.5,54.1 L71.9,54.1 Z  '/></g>
<g fill="none" color="black" stroke="currentColor" stroke-width="1.00" stroke-linecap="butt" stroke-linejoin="miter">
</g>
</g>
</svg>

