<?xml version="1.0" encoding="utf-8"  standalone="no"?>
<svg 
 viewBox="0 0 1280 720"
 xmlns="http://www.w3.org/2000/svg"
 xmlns:xlink="http://www.w3.org/1999/xlink"
>

<title>Gnuplot</title>
<desc>Produced by GNUPLOT 5.2 patchlevel 6 </desc>

<g id="gnuplot_canvas">

<rect x="0" y="0" width="1280" height="720" fill="none"/>
<defs>

	<circle id='gpDot' r='0.5' stroke-width='0.5' stroke='currentColor'/>
	<path id='gpPt0' stroke-width='0.222' stroke='currentColor' d='M-1,0 h2 M0,-1 v2'/>
	<path id='gpPt1' stroke-width='0.222' stroke='currentColor' d='M-1,-1 L1,1 M1,-1 L-1,1'/>
	<path id='gpPt2' stroke-width='0.222' stroke='currentColor' d='M-1,0 L1,0 M0,-1 L0,1 M-1,-1 L1,1 M-1,1 L1,-1'/>
	<rect id='gpPt3' stroke-width='0.222' stroke='currentColor' x='-1' y='-1' width='2' height='2'/>
	<rect id='gpPt4' stroke-width='0.222' stroke='currentColor' fill='currentColor' x='-1' y='-1' width='2' height='2'/>
	<circle id='gpPt5' stroke-width='0.222' stroke='currentColor' cx='0' cy='0' r='1'/>
	<use xlink:href='#gpPt5' id='gpPt6' fill='currentColor' stroke='none'/>
	<path id='gpPt7' stroke-width='0.222' stroke='currentColor' d='M0,-1.33 L-1.33,0.67 L1.33,0.67 z'/>
	<use xlink:href='#gpPt7' id='gpPt8' fill='currentColor' stroke='none'/>
	<use xlink:href='#gpPt7' id='gpPt9' stroke='currentColor' transform='rotate(180)'/>
	<use xlink:href='#gpPt9' id='gpPt10' fill='currentColor' stroke='none'/>
	<use xlink:href='#gpPt3' id='gpPt11' stroke='currentColor' transform='rotate(45)'/>
	<use xlink:href='#gpPt11' id='gpPt12' fill='currentColor' stroke='none'/>
	<path id='gpPt13' stroke-width='0.222' stroke='currentColor' d='M0,1.330 L1.265,0.411 L0.782,-1.067 L-0.782,-1.076 L-1.265,0.411 z'/>
	<use xlink:href='#gpPt13' id='gpPt14' fill='currentColor' stroke='none'/>
	<filter id='textbox' filterUnits='objectBoundingBox' x='0' y='0' height='1' width='1'>
	  <feFlood flood-color='white' flood-opacity='1' result='bgnd'/>
	  <feComposite in='SourceGraphic' in2='bgnd' operator='atop'/>
	</filter>
	<filter id='greybox' filterUnits='objectBoundingBox' x='0' y='0' height='1' width='1'>
	  <feFlood flood-color='lightgrey' flood-opacity='1' result='grey'/>
	  <feComposite in='SourceGraphic' in2='grey' operator='atop'/>
	</filter>
</defs>
<g fill="none" color="white" stroke="currentColor" stroke-width="1.00" stroke-linecap="butt" stroke-linejoin="miter">
</g>
<g fill="none" color="black" stroke="currentColor" stroke-width="1.00" stroke-linecap="butt" stroke-linejoin="miter">
	<path stroke='black'  d='M63.6,662.4 L72.6,662.4  '/>	<g transform="translate(55.3,666.3)" stroke="none" fill="black" font-family="Helvetica" font-size="12.00"  text-anchor="end">
		<text><tspan font-family="Helvetica" > 0</tspan></text>
	</g>
</g>
<g fill="none" color="black" stroke="currentColor" stroke-width="1.00" stroke-linecap="butt" stroke-linejoin="miter">
	<path stroke='black'  d='M63.6,561.0 L72.6,561.0  '/>	<g transform="translate(55.3,564.9)" stroke="none" fill="black" font-family="Helvetica" font-size="12.00"  text-anchor="end">
		<text><tspan font-family="Helvetica" > 10</tspan></text>
	</g>
</g>
<g fill="none" color="black" stroke="currentColor" stroke-width="1.00" stroke-linecap="butt" stroke-linejoin="miter">
	<path stroke='black'  d='M63.6,459.6 L72.6,459.6  '/>	<g transform="translate(55.3,463.5)" stroke="none" fill="black" font-family="Helvetica" font-size="12.00"  text-anchor="end">
		<text><tspan font-family="Helvetica" > 20</tspan></text>
	</g>
</g>
<g fill="none" color="black" stroke="currentColor" stroke-width="1.00" stroke-linecap="butt" stroke-linejoin="miter">
	<path stroke='black'  d='M63.6,358.2 L72.6,358.2  '/>	<g transform="translate(55.3,362.1)" stroke="none" fill="black" font-family="Helvetica" font-size="12.00"  text-anchor="end">
		<text><tspan font-family="Helvetica" > 30</tspan></text>
	</g>
</g>
<g fill="none" color="black" stroke="currentColor" stroke-width="1.00" stroke-linecap="butt" stroke-linejoin="miter">
	<path stroke='black'  d='M63.6,256.9 L72.6,256.9  '/>	<g transform="translate(55.3,260.8)" stroke="none" fill="black" font-family="Helvetica" font-size="12.00"  text-anchor="end">
		<text><tspan font-family="Helvetica" > 40</tspan></text>
	</g>
</g>
<g fill="none" color="black" stroke="currentColor" stroke-width="1.00" stroke-linecap="butt" stroke-linejoin="miter">
	<path stroke='black'  d='M63.6,155.5 L72.6,155.5  '/>	<g transform="translate(55.3,159.4)" stroke="none" fill="black" font-family="Helvetica" font-size="12.00"  text-anchor="end">
		<text><tspan font-family="Helvetica" > 50</tspan></text>
	</g>
</g>
<g fill="none" color="black" stroke="currentColor" stroke-width="1.00" stroke-linecap="butt" stroke-linejoin="miter">
	<path stroke='black'  d='M63.6,54.1 L72.6,54.1  '/>	<g transform="translate(55.3,58.0)" stroke="none" fill="black" font-family="Helvetica" font-size="12.00"  text-anchor="end">
		<text><tspan font-family="Helvetica" > 60</tspan></text>
	</g>
</g>
<g fill="none" color="black" stroke="currentColor" stroke-width="1.00" stroke-linecap="butt" stroke-linejoin="miter">
	<path stroke='black'  d='M107.9,662.4 L107.9,653.4  '/>	<g transform="translate(107.9,684.3)" stroke="none" fill="black" font-family="Helvetica" font-size="12.00"  text-anchor="middle">
		<text><tspan font-family="Helvetica" >-9.5</tspan></text>
	</g>
</g>
<g fill="none" color="black" stroke="currentColor" stroke-width="1.00" stroke-linecap="butt" stroke-linejoin="miter">
	<path stroke='black'  d='M232.4,662.4 L232.4,653.4  '/>	<g transform="translate(232.4,684.3)" stroke="none" fill="black" font-family="Helvetica" font-size="12.00"  text-anchor="middle">
		<text><tspan font-family="Helvetica" >-9</tspan></text>
	</g>
</g>
<g fill="none" color="black" stroke="currentColor" stroke-width="1.00" stroke-linecap="butt" stroke-linejoin="miter">
	<path stroke='black'  d='M356.9,662.4 L356.9,653.4  '/>	<g transform="translate(356.9,684.3)" stroke="none" fill="black" font-family="Helvetica" font-size="12.00"  text-anchor="middle">
		<text><tspan font-family="Helvetica" >-8.5</tspan></text>
	</g>
</g>
<g fill="none" color="black" stroke="currentColor" stroke-width="1.00" stroke-linecap="butt" stroke-linejoin="miter">
	<path stroke='black'  d='M481.4,662.4 L481.4,653.4  '/>	<g transform="translate(481.4,684.3)" stroke="none" fill="black" font-family="Helvetica" font-size="12.00"  text-anchor="middle">
		<text><tspan font-family="Helvetica" >-8</tspan></text>
	</g>
</g>
<g fill="none" color="black" stroke="currentColor" stroke-width="1.00" stroke-linecap="butt" stroke-linejoin="miter">
	<path stroke='black'  d='M605.9,662.4 L605.9,653.4  '/>	<g transform="translate(605.9,684.3)" stroke="none" fill="black" font-family="Helvetica" font-size="12.00"  text-anchor="middle">
		<text><tspan font-family="Helvetica" >-7.5</tspan></text>
	</g>
</g>
<g fill="none" color="black" stroke="currentColor" stroke-width="1.00" stroke-linecap="butt" stroke-linejoin="miter">
	<path stroke='black'  d='M730.4,662.4 L730.4,653.4  '/>	<g transform="translate(730.4,684.3)" stroke="none" fill="black" font-family="Helvetica" font-size="12.00"  text-anchor="middle">
		<text><tspan font-family="Helvetica" >-7</tspan></text>
	</g>
</g>
<g fill="none" color="black" stroke="currentColor" stroke-width="1.00" stroke-linecap="butt" stroke-linejoin="miter">
	<path stroke='black'  d='M854.9,662.4 L854.9,653.4  '/>	<g transform="translate(854.9,684.3)" stroke="none" fill="black" font-family="Helvetica" font-size="12.00"  text-anchor="middle">
		<text><tspan font-family="Helvetica" >-6.5</tspan></text>
	</g>
</g>
<g fill="none" color="black" stroke="currentColor" stroke-width="1.00" stroke-linecap="butt" stroke-linejoin="miter">
	<path stroke='black'  d='M979.4,662.4 L979.4,653.4  '/>	<g transform="translate(979.4,684.3)" stroke="none" fill="black" font-family="Helvetica" font-size="12.00"  text-anchor="middle">
		<text><tspan font-family="Helvetica" >-6</tspan></text>
	</g>
</g>
<g fill="none" color="black" stroke="currentColor" stroke-width="1.00" stroke-linecap="butt" stroke-linejoin="miter">
</g>
<g fill="none" color="black" stroke="currentColor" stroke-width="1.00" stroke-linecap="butt" stroke-linejoin="miter">
	<path stroke='black'  d='M63.6,54.1 L63.6,662.4 L1013.6,662.4 L1013.6,54.1 L63.6,54.1 Z  '/></g>
<g fill="none" color="black" stroke="currentColor" stroke-width="1.00" stroke-linecap="butt" stroke-linejoin="miter">
	<g transform="translate(16.3,358.3) rotate(270)" stroke="none" fill="black" font-family="Helvetica" font-size="12.00"  text-anchor="middle">
		<text><tspan font-family="Helvetica" >Density (a.u.)</tspan></text>
	</g>
</g>
<g fill="none" color="black" stroke="currentColor" stroke-width="1.00" stroke-linecap="butt" stroke-linejoin="miter">
	<g transform="translate(538.6,711.3)" stroke="none" fill="black" font-family="Helvetica" font-size="12.00"  text-anchor="middle">
		<text><tspan font-family="Helvetica" >Relative change (%)</tspan></text>
	</g>
</g>
<g fill="none" color="black" stroke="currentColor" stroke-width="1.00" stroke-linecap="butt" stroke-linejoin="miter">
	<g transform="translate(538.6,31.0)" stroke="none" fill="black" font-family="Helvetica" font-size="12.00"  text-anchor="middle">
		<text><tspan font-family="Helvetica" >snapshot_restore_with_dense/Dense: Dirty pages + /proc/pid/mem/5: mean</tspan></text>
	</g>
</g>
	<g id="gnuplot_plot_1" ><title>Bootstrap distribution</title>
<g fill="none" color="white" stroke="black" stroke-width="2.00" stroke-linecap="butt" stroke-linejoin="miter">
</g>
<g fill="none" color="black" stroke="currentColor" stroke-width="2.00" stroke-linecap="butt" stroke-linejoin="miter">
	<g transform="translate(1089.0,67.0)" stroke="none" fill="black" font-family="Helvetica" font-size="12.00"  text-anchor="start">
		<text><tspan font-family="Helvetica" >Bootstrap distribution</tspan></text>
	</g>
</g>
<g fill="none" color="black" stroke="currentColor" stroke-width="2.00" stroke-linecap="butt" stroke-linejoin="miter">
	<path stroke='rgb( 31, 120, 180)'  d='M1038.5,63.1 L1080.7,63.1 M63.6,632.1 L65.5,631.6 L67.4,631.1 L69.3,630.7 L71.2,630.2 L73.1,629.8
		L75.0,629.4 L76.9,628.9 L78.8,628.5 L80.7,628.0 L82.6,627.6 L84.5,627.1 L86.4,626.7 L88.3,626.2
		L90.3,625.7 L92.2,625.2 L94.1,624.7 L96.0,624.2 L97.9,623.7 L99.8,623.1 L101.7,622.5 L103.6,621.9
		L105.5,621.2 L107.4,620.5 L109.3,619.8 L111.2,619.1 L113.1,618.4 L115.0,617.6 L116.9,616.8 L118.8,616.0
		L120.7,615.1 L122.6,614.3 L124.5,613.4 L126.4,612.5 L128.3,611.6 L130.2,610.6 L132.1,609.7 L134.0,608.7
		L135.9,607.7 L137.8,606.7 L139.8,605.7 L141.7,604.7 L143.6,603.6 L145.5,602.6 L147.4,601.5 L149.3,600.4
		L151.2,599.3 L153.1,598.2 L155.0,597.1 L156.9,596.0 L158.8,594.8 L160.7,593.6 L162.6,592.5 L164.5,591.3
		L166.4,590.0 L168.3,588.8 L170.2,587.6 L172.1,586.3 L174.0,585.0 L175.9,583.8 L177.8,582.5 L179.7,581.2
		L181.6,579.8 L183.5,578.5 L185.4,577.2 L187.3,575.8 L189.3,574.5 L191.2,573.1 L193.1,571.7 L195.0,570.4
		L196.9,569.0 L198.8,567.6 L200.7,566.2 L202.6,564.9 L204.5,563.5 L206.4,562.1 L208.3,560.7 L210.2,559.3
		L212.1,557.9 L214.0,556.4 L215.9,555.0 L217.8,553.6 L219.7,552.1 L221.6,550.6 L223.5,549.1 L225.4,547.6
		L227.3,546.0 L229.2,544.4 L231.1,542.8 L233.0,541.1 L234.9,539.4 L236.8,537.7 L238.8,536.0 L240.7,534.2
		L242.6,532.3 L244.5,530.5 L246.4,528.6 L248.3,526.7 L250.2,524.8 L252.1,522.9 L254.0,521.0 L255.9,519.0
		L257.8,517.1 L259.7,515.1 L261.6,513.2 L263.5,511.2 L265.4,509.3 L267.3,507.4 L269.2,505.4 L271.1,503.5
		L273.0,501.6 L274.9,499.7 L276.8,497.8 L278.7,495.8 L280.6,493.9 L282.5,492.0 L284.4,490.0 L286.3,488.0
		L288.2,486.0 L290.2,483.9 L292.1,481.9 L294.0,479.8 L295.9,477.7 L297.8,475.5 L299.7,473.4 L301.6,471.2
		L303.5,468.9 L305.4,466.7 L307.3,464.5 L309.2,462.2 L311.1,459.9 L313.0,457.7 L314.9,455.4 L316.8,453.1
		L318.7,450.8 L320.6,448.5 L322.5,446.1 L324.4,443.8 L326.3,441.4 L328.2,439.1 L330.1,436.7 L332.0,434.3
		L333.9,431.9 L335.8,429.4 L337.7,427.0 L339.7,424.5 L341.6,421.9 L343.5,419.4 L345.4,416.8 L347.3,414.2
		L349.2,411.6 L351.1,408.9 L353.0,406.2 L354.9,403.5 L356.8,400.7 L358.7,397.9 L360.6,395.1 L362.5,392.3
		L364.4,389.4 L366.3,386.6 L368.2,383.7 L370.1,380.7 L372.0,377.8 L373.9,374.9 L375.8,371.9 L377.7,369.0
		L379.6,366.0 L381.5,363.1 L383.4,360.2 L385.3,357.3 L387.2,354.4 L389.2,351.6 L391.1,348.8 L393.0,346.1
		L394.9,343.4 L396.8,340.7 L398.7,338.1 L400.6,335.6 L402.5,333.1 L404.4,330.7 L406.3,328.3 L408.2,326.0
		L410.1,323.7 L412.0,321.4 L413.9,319.2 L415.8,317.0 L417.7,314.8 L419.6,312.6 L421.5,310.3 L423.4,308.1
		L425.3,305.8 L427.2,303.5 L429.1,301.1 L431.0,298.7 L432.9,296.3 L434.8,293.7 L436.7,291.2 L438.7,288.6
		L440.6,285.9 L442.5,283.2 L444.4,280.5 L446.3,277.7 L448.2,274.9 L450.1,272.1 L452.0,269.4 L453.9,266.6
		L455.8,263.9 L457.7,261.3 L459.6,258.6 L461.5,256.1 L463.4,253.6 L465.3,251.1 L467.2,248.8 L469.1,246.5
		L471.0,244.3 L472.9,242.1 L474.8,240.0 L476.7,238.0 L478.6,236.0 L480.5,234.1 L482.4,232.2 L484.3,230.4
		L486.2,228.6 L488.1,226.8 L490.1,225.0 L492.0,223.2 L493.9,221.4 L495.8,219.6 L497.7,217.8 L499.6,216.0
		L501.5,214.2 L503.4,212.3 L505.3,210.5 L507.2,208.6 L509.1,206.7 L511.0,204.8 L512.9,202.9 L514.8,201.1
		L516.7,199.2 L518.6,197.3 L520.5,195.4 L522.4,193.6 L524.3,191.8 L526.2,190.0 L528.1,188.2 L530.0,186.5
		L531.9,184.8 L533.8,183.1 L535.7,181.5 L537.6,179.9 L539.6,178.3 L541.5,176.8 L543.4,175.3 L545.3,173.8
		L547.2,172.3 L549.1,170.9 L551.0,169.5 L552.9,168.2 L554.8,166.9 L556.7,165.6 L558.6,164.3 L560.5,163.1
		L562.4,161.9 L564.3,160.7 L566.2,159.6 L568.1,158.6 L570.0,157.6 L571.9,156.6 L573.8,155.7 L575.7,154.8
		L577.6,154.0 L579.5,153.3 L581.4,152.6 L583.3,152.0 L585.2,151.5 L587.1,151.0 L589.1,150.6 L591.0,150.3
		L592.9,150.0 L594.8,149.8 L596.7,149.7 L598.6,149.6 L600.5,149.6 L602.4,149.7 L604.3,149.8 L606.2,150.0
		L608.1,150.3 L610.0,150.6 L611.9,151.0 L613.8,151.4 L615.7,151.9 L617.6,152.4 L619.5,152.9 L621.4,153.6
		L623.3,154.2 L625.2,155.0 L627.1,155.7 L629.0,156.6 L630.9,157.4 L632.8,158.4 L634.7,159.4 L636.6,160.4
		L638.5,161.5 L640.5,162.7 L642.4,163.9 L644.3,165.2 L646.2,166.6 L648.1,168.1 L650.0,169.6 L651.9,171.2
		L653.8,172.9 L655.7,174.7 L657.6,176.5 L659.5,178.5 L661.4,180.5 L663.3,182.5 L665.2,184.7 L667.1,186.9
		L669.0,189.1 L670.9,191.4 L672.8,193.7 L674.7,196.1 L676.6,198.5 L678.5,200.9 L680.4,203.3 L682.3,205.7
		L684.2,208.1 L686.1,210.4 L688.0,212.7 L690.0,215.0 L691.9,217.3 L693.8,219.5 L695.7,221.7 L697.6,223.8
		L699.5,225.9 L701.4,228.0 L703.3,230.1 L705.2,232.1 L707.1,234.1 L709.0,236.1 L710.9,238.2 L712.8,240.2
		L714.7,242.3 L716.6,244.5 L718.5,246.6 L720.4,248.8 L722.3,251.1 L724.2,253.4 L726.1,255.8 L728.0,258.3
		L729.9,260.8 L731.8,263.4 L733.7,266.0 L735.6,268.7 L737.5,271.4 L739.5,274.2 L741.4,277.0 L743.3,279.9
		L745.2,282.8 L747.1,285.7 L749.0,288.7 L750.9,291.7 L752.8,294.7 L754.7,297.8 L756.6,300.9 L758.5,304.0
		L760.4,307.1 L762.3,310.3 L764.2,313.5 L766.1,316.7 L768.0,320.0 L769.9,323.3 L771.8,326.6 L773.7,329.9
		L775.6,333.3 L777.5,336.6 L779.4,340.0 L781.3,343.4 L783.2,346.9 L785.1,350.3 L787.0,353.8 L789.0,357.3
		L790.9,360.8 L792.8,364.3 L794.7,367.8 L796.6,371.4 L798.5,374.9 L800.4,378.5 L802.3,382.0 L804.2,385.6
		L806.1,389.1 L808.0,392.7 L809.9,396.2 L811.8,399.8 L813.7,403.3 L815.6,406.8 L817.5,410.3 L819.4,413.8
		L821.3,417.2 L823.2,420.6 L825.1,424.0 L827.0,427.3 L828.9,430.6 L830.8,433.9 L832.7,437.1 L834.6,440.3
		L836.5,443.5 L838.4,446.6 L840.4,449.7 L842.3,452.8 L844.2,455.9 L846.1,458.9 L848.0,462.0 L849.9,465.0
		L851.8,467.9 L853.7,470.9 L855.6,473.9 L857.5,476.8 L859.4,479.7 L861.3,482.6 L863.2,485.5 L865.1,488.3
		L867.0,491.1 L868.9,493.9 L870.8,496.7 L872.7,499.4 L874.6,502.1 L876.5,504.7 L878.4,507.3 L880.3,509.9
		L882.2,512.5 L884.1,515.0 L886.0,517.4 L887.9,519.9 L889.9,522.3 L891.8,524.7 L893.7,527.0 L895.6,529.4
		L897.5,531.7 L899.4,534.0 L901.3,536.3 L903.2,538.6 L905.1,540.9 L907.0,543.2 L908.9,545.5 L910.8,547.8
		L912.7,550.1 L914.6,552.4 L916.5,554.6 L918.4,556.9 L920.3,559.1 L922.2,561.4 L924.1,563.6 L926.0,565.7
		L927.9,567.9 L929.8,570.0 L931.7,572.1 L933.6,574.2 L935.5,576.2 L937.4,578.2 L939.4,580.1 L941.3,582.0
		L943.2,583.8 L945.1,585.7 L947.0,587.4 L948.9,589.2 L950.8,590.9 L952.7,592.5 L954.6,594.1 L956.5,595.7
		L958.4,597.3 L960.3,598.9 L962.2,600.4 L964.1,601.9 L966.0,603.4 L967.9,604.9 L969.8,606.3 L971.7,607.8
		L973.6,609.2 L975.5,610.6 L977.4,612.0 L979.3,613.4 L981.2,614.7 L983.1,616.1 L985.0,617.4 L986.9,618.7
		L988.9,619.9 L990.8,621.1 L992.7,622.3 L994.6,623.5 L996.5,624.6 L998.4,625.7 L1000.3,626.8 L1002.2,627.8
		L1004.1,628.8 L1006.0,629.8 L1007.9,630.7 L1009.8,631.6 L1011.7,632.5 L1013.6,633.3  '/></g>
	</g>
	<g id="gnuplot_plot_2" ><title>Confidence interval</title>
<g fill="none" color="white" stroke="rgb( 31, 120, 180)" stroke-width="1.00" stroke-linecap="butt" stroke-linejoin="miter">
</g>
<g fill="none" color="black" stroke="currentColor" stroke-width="1.00" stroke-linecap="butt" stroke-linejoin="miter">
	<g transform="translate(1089.0,85.0)" stroke="none" fill="black" font-family="Helvetica" font-size="12.00"  text-anchor="start">
		<text><tspan font-family="Helvetica" >Confidence interval</tspan></text>
	</g>
</g>
<g fill="none" color="black" stroke="currentColor" stroke-width="1.00" stroke-linecap="butt" stroke-linejoin="miter">
	<g stroke='none' shape-rendering='crispEdges'>
		<polygon fill = 'rgb( 31, 120, 180)' fill-opacity = '0.250000' points = '1038.5,85.6 1080.7,85.6 1080.7,76.6 1038.5,76.6 '/>
		<polygon fill = 'rgb( 31, 120, 180)' fill-opacity = '0.250000' points = '151.2,599.3 153.1,598.2 155.0,597.1 156.9,596.0 158.8,594.8 160.7,593.6 162.6,592.5 164.5,591.3 166.4,590.0 168.3,588.8 170.2,587.6 172.1,586.3 174.0,585.0 175.9,583.8 177.8,582.5 179.7,581.2
181.6,579.8 183.5,578.5 185.4,577.2 187.3,575.8 189.3,574.5 191.2,573.1 193.1,571.7 195.0,570.4 196.9,569.0 198.8,567.6 200.7,566.2 202.6,564.9 204.5,563.5 206.4,562.1 208.3,560.7 210.2,559.3
212.1,557.9 214.0,556.4 215.9,555.0 217.8,553.6 219.7,552.1 221.6,550.6 223.5,549.1 225.4,547.6 227.3,546.0 229.2,544.4 231.1,542.8 233.0,541.1 234.9,539.4 236.8,537.7 238.8,536.0 240.7,534.2
242.6,532.3 244.5,530.5 246.4,528.6 248.3,526.7 250.2,524.8 252.1,522.9 254.0,521.0 255.9,519.0 257.8,517.1 259.7,515.1 261.6,513.2 263.5,511.2 265.4,509.3 267.3,507.4 269.2,505.4 271.1,503.5
273.0,501.6 274.9,499.7 276.8,497.8 278.7,495.8 280.6,493.9 282.5,492.0 284.4,490.0 286.3,488.0 288.2,486.0 290.2,483.9 292.1,481.9 294.0,479.8 295.9,477.7 297.8,475.5 299.7,473.4 301.6,471.2
303.5,468.9 305.4,466.7 307.3,464.5 309.2,462.2 311.1,459.9 313.0,457.7 314.9,455.4 316.8,453.1 318.7,450.8 320.6,448.5 322.5,446.1 324.4,443.8 326.3,441.4 328.2,439.1 330.1,436.7 332.0,434.3
333.9,431.9 335.8,429.4 337.7,427.0 339.7,424.5 341.6,421.9 343.5,419.4 345.4,416.8 347.3,414.2 349.2,411.6 351.1,408.9 353.0,406.2 354.9,403.5 356.8,400.7 358.7,397.9 360.6,395.1 362.5,392.3
364.4,389.4 366.3,386.6 368.2,383.7 370.1,380.7 372.0,377.8 373.9,374.9 375.8,371.9 377.7,369.0 379.6,366.0 381.5,363.1 383.4,360.2 385.3,357.3 387.2,354.4 389.2,351.6 391.1,348.8 393.0,346.1
394.9,343.4 396.8,340.7 398.7,338.1 400.6,335.6 402.5,333.1 404.4,330.7 406.3,328.3 408.2,326.0 410.1,323.7 412.0,321.4 413.9,319.2 415.8,317.0 417.7,314.8 419.6,312.6 421.5,310.3 423.4,308.1
425.3,305.8 427.2,303.5 429.1,301.1 431.0,298.7 432.9,296.3 434.8,293.7 436.7,291.2 438.7,288.6 440.6,285.9 442.5,283.2 444.4,280.5 446.3,277.7 448.2,274.9 450.1,272.1 452.0,269.4 453.9,266.6
455.8,263.9 457.7,261.3 459.6,258.6 461.5,256.1 463.4,253.6 465.3,251.1 467.2,248.8 469.1,246.5 471.0,244.3 472.9,242.1 474.8,240.0 476.7,238.0 478.6,236.0 480.5,234.1 482.4,232.2 484.3,230.4
486.2,228.6 488.1,226.8 490.1,225.0 492.0,223.2 493.9,221.4 495.8,219.6 497.7,217.8 499.6,216.0 501.5,214.2 503.4,212.3 505.3,210.5 507.2,208.6 509.1,206.7 511.0,204.8 512.9,202.9 514.8,201.1
516.7,199.2 518.6,197.3 520.5,195.4 522.4,193.6 524.3,191.8 526.2,190.0 528.1,188.2 530.0,186.5 531.9,184.8 533.8,183.1 535.7,181.5 537.6,179.9 539.6,178.3 541.5,176.8 543.4,175.3 545.3,173.8
547.2,172.3 549.1,170.9 551.0,169.5 552.9,168.2 554.8,166.9 556.7,165.6 558.6,164.3 560.5,163.1 562.4,161.9 564.3,160.7 566.2,159.6 568.1,158.6 570.0,157.6 571.9,156.6 573.8,155.7 575.7,154.8
577.6,154.0 579.5,153.3 581.4,152.6 583.3,152.0 585.2,151.5 587.1,151.0 589.1,150.6 591.0,150.3 592.9,150.0 594.8,149.8 596.7,149.7 598.6,149.6 600.5,149.6 602.4,149.7 604.3,149.8 606.2,150.0
608.1,150.3 610.0,150.6 611.9,151.0 613.8,151.4 615.7,151.9 617.6,152.4 619.5,152.9 621.4,153.6 623.3,154.2 625.2,155.0 627.1,155.7 629.0,156.6 630.9,157.4 632.8,158.4 634.7,159.4 636.6,160.4
638.5,161.5 640.5,162.7 642.4,163.9 644.3,165.2 646.2,166.6 648.1,168.1 650.0,169.6 651.9,171.2 653.8,172.9 655.7,174.7 657.6,176.5 659.5,178.5 661.4,180.5 663.3,182.5 665.2,184.7 667.1,186.9
669.0,189.1 670.9,191.4 672.8,193.7 674.7,196.1 676.6,198.5 678.5,200.9 680.4,203.3 682.3,205.7 684.2,208.1 686.1,210.4 688.0,212.7 690.0,215.0 691.9,217.3 693.8,219.5 695.7,221.7 697.6,223.8
699.5,225.9 701.4,228.0 703.3,230.1 705.2,232.1 707.1,234.1 709.0,236.1 710.9,238.2 712.8,240.2 714.7,242.3 716.6,244.5 718.5,246.6 720.4,248.8 722.3,251.1 724.2,253.4 726.1,255.8 728.0,258.3
729.9,260.8 731.8,263.4 733.7,266.0 735.6,268.7 737.5,271.4 739.5,274.2 741.4,277.0 743.3,279.9 745.2,282.8 747.1,285.7 749.0,288.7 750.9,291.7 752.8,294.7 754.7,297.8 756.6,300.9 758.5,304.0
760.4,307.1 762.3,310.3 764.2,313.5 766.1,316.7 768.0,320.0 769.9,323.3 771.8,326.6 773.7,329.9 775.6,333.3 777.5,336.6 779.4,340.0 781.3,343.4 783.2,346.9 785.1,350.3 787.0,353.8 789.0,357.3
790.9,360.8 792.8,364.3 794.7,367.8 796.6,371.4 798.5,374.9 800.4,378.5 802.3,382.0 804.2,385.6 806.1,389.1 808.0,392.7 809.9,396.2 811.8,399.8 813.7,403.3 815.6,406.8 817.5,410.3 819.4,413.8
821.3,417.2 823.2,420.6 825.1,424.0 827.0,427.3 828.9,430.6 830.8,433.9 832.7,437.1 834.6,440.3 836.5,443.5 838.4,446.6 840.4,449.7 842.3,452.8 844.2,455.9 846.1,458.9 848.0,462.0 849.9,465.0
851.8,467.9 853.7,470.9 855.6,473.9 857.5,476.8 859.4,479.7 861.3,482.6 863.2,485.5 865.1,488.3 867.0,491.1 868.9,493.9 870.8,496.7 872.7,499.4 874.6,502.1 876.5,504.7 878.4,507.3 880.3,509.9
882.2,512.5 884.1,515.0 886.0,517.4 887.9,519.9 889.9,522.3 891.8,524.7 893.7,527.0 895.6,529.4 897.5,531.7 899.4,534.0 901.3,536.3 903.2,538.6 905.1,540.9 907.0,543.2 908.9,545.5 910.8,547.8
912.7,550.1 914.6,552.4 916.5,554.6 918.4,556.9 920.3,559.1 922.2,561.4 924.1,563.6 924.1,662.4 922.2,662.4 920.3,662.4 918.4,662.4 916.5,662.4 914.6,662.4 912.7,662.4 910.8,662.4 908.9,662.4
907.0,662.4 905.1,662.4 903.2,662.4 901.3,662.4 899.4,662.4 897.5,662.4 895.6,662.4 893.7,662.4 891.8,662.4 889.9,662.4 887.9,662.4 886.0,662.4 884.1,662.4 882.2,662.4 880.3,662.4 878.4,662.4
876.5,662.4 874.6,662.4 872.7,662.4 870.8,662.4 868.9,662.4 867.0,662.4 865.1,662.4 863.2,662.4 861.3,662.4 859.4,662.4 857.5,662.4 855.6,662.4 853.7,662.4 851.8,662.4 849.9,662.4 848.0,662.4
846.1,662.4 844.2,662.4 842.3,662.4 840.4,662.4 838.4,662.4 836.5,662.4 834.6,662.4 832.7,662.4 830.8,662.4 828.9,662.4 827.0,662.4 825.1,662.4 823.2,662.4 821.3,662.4 819.4,662.4 817.5,662.4
815.6,662.4 813.7,662.4 811.8,662.4 809.9,662.4 808.0,662.4 806.1,662.4 804.2,662.4 802.3,662.4 800.4,662.4 798.5,662.4 796.6,662.4 794.7,662.4 792.8,662.4 790.9,662.4 789.0,662.4 787.0,662.4
785.1,662.4 783.2,662.4 781.3,662.4 779.4,662.4 777.5,662.4 775.6,662.4 773.7,662.4 771.8,662.4 769.9,662.4 768.0,662.4 766.1,662.4 764.2,662.4 762.3,662.4 760.4,662.4 758.5,662.4 756.6,662.4
754.7,662.4 752.8,662.4 750.9,662.4 749.0,662.4 747.1,662.4 745.2,662.4 743.3,662.4 741.4,662.4 739.5,662.4 737.5,662.4 735.6,662.4 733.7,662.4 731.8,662.4 729.9,662.4 728.0,662.4 726.1,662.4
724.2,662.4 722.3,662.4 720.4,662.4 718.5,662.4 716.6,662.4 714.7,662.4 712.8,662.4 710.9,662.4 709.0,662.4 707.1,662.4 705.2,662.4 703.3,662.4 701.4,662.4 699.5,662.4 697.6,662.4 695.7,662.4
693.8,662.4 691.9,662.4 690.0,662.4 688.0,662.4 686.1,662.4 684.2,662.4 682.3,662.4 680.4,662.4 678.5,662.4 676.6,662.4 674.7,662.4 672.8,662.4 670.9,662.4 669.0,662.4 667.1,662.4 665.2,662.4
663.3,662.4 661.4,662.4 659.5,662.4 657.6,662.4 655.7,662.4 653.8,662.4 651.9,662.4 650.0,662.4 648.1,662.4 646.2,662.4 644.3,662.4 642.4,662.4 640.5,662.4 638.5,662.4 636.6,662.4 634.7,662.4
632.8,662.4 630.9,662.4 629.0,662.4 627.1,662.4 625.2,662.4 623.3,662.4 621.4,662.4 619.5,662.4 617.6,662.4 615.7,662.4 613.8,662.4 611.9,662.4 610.0,662.4 608.1,662.4 606.2,662.4 604.3,662.4
602.4,662.4 600.5,662.4 598.6,662.4 596.7,662.4 594.8,662.4 592.9,662.4 591.0,662.4 589.1,662.4 587.1,662.4 585.2,662.4 583.3,662.4 581.4,662.4 579.5,662.4 577.6,662.4 575.7,662.4 573.8,662.4
571.9,662.4 570.0,662.4 568.1,662.4 566.2,662.4 564.3,662.4 562.4,662.4 560.5,662.4 558.6,662.4 556.7,662.4 554.8,662.4 552.9,662.4 551.0,662.4 549.1,662.4 547.2,662.4 545.3,662.4 543.4,662.4
541.5,662.4 539.6,662.4 537.6,662.4 535.7,662.4 533.8,662.4 531.9,662.4 530.0,662.4 528.1,662.4 526.2,662.4 524.3,662.4 522.4,662.4 520.5,662.4 518.6,662.4 516.7,662.4 514.8,662.4 512.9,662.4
511.0,662.4 509.1,662.4 507.2,662.4 505.3,662.4 503.4,662.4 501.5,662.4 499.6,662.4 497.7,662.4 495.8,662.4 493.9,662.4 492.0,662.4 490.1,662.4 488.1,662.4 486.2,662.4 484.3,662.4 482.4,662.4
480.5,662.4 478.6,662.4 476.7,662.4 474.8,662.4 472.9,662.4 471.0,662.4 469.1,662.4 467.2,662.4 465.3,662.4 463.4,662.4 461.5,662.4 459.6,662.4 457.7,662.4 455.8,662.4 453.9,662.4 452.0,662.4
450.1,662.4 448.2,662.4 446.3,662.4 444.4,662.4 442.5,662.4 440.6,662.4 438.7,662.4 436.7,662.4 434.8,662.4 432.9,662.4 431.0,662.4 429.1,662.4 427.2,662.4 425.3,662.4 423.4,662.4 421.5,662.4
419.6,662.4 417.7,662.4 415.8,662.4 413.9,662.4 412.0,662.4 410.1,662.4 408.2,662.4 406.3,662.4 404.4,662.4 402.5,662.4 400.6,662.4 398.7,662.4 396.8,662.4 394.9,662.4 393.0,662.4 391.1,662.4
389.2,662.4 387.2,662.4 385.3,662.4 383.4,662.4 381.5,662.4 379.6,662.4 377.7,662.4 375.8,662.4 373.9,662.4 372.0,662.4 370.1,662.4 368.2,662.4 366.3,662.4 364.4,662.4 362.5,662.4 360.6,662.4
358.7,662.4 356.8,662.4 354.9,662.4 353.0,662.4 351.1,662.4 349.2,662.4 347.3,662.4 345.4,662.4 343.5,662.4 341.6,662.4 339.7,662.4 337.7,662.4 335.8,662.4 333.9,662.4 332.0,662.4 330.1,662.4
328.2,662.4 326.3,662.4 324.4,662.4 322.5,662.4 320.6,662.4 318.7,662.4 316.8,662.4 314.9,662.4 313.0,662.4 311.1,662.4 309.2,662.4 307.3,662.4 305.4,662.4 303.5,662.4 301.6,662.4 299.7,662.4
297.8,662.4 295.9,662.4 294.0,662.4 292.1,662.4 290.2,662.4 288.2,662.4 286.3,662.4 284.4,662.4 282.5,662.4 280.6,662.4 278.7,662.4 276.8,662.4 274.9,662.4 273.0,662.4 271.1,662.4 269.2,662.4
267.3,662.4 265.4,662.4 263.5,662.4 261.6,662.4 259.7,662.4 257.8,662.4 255.9,662.4 254.0,662.4 252.1,662.4 250.2,662.4 248.3,662.4 246.4,662.4 244.5,662.4 242.6,662.4 240.7,662.4 238.8,662.4
236.8,662.4 234.9,662.4 233.0,662.4 231.1,662.4 229.2,662.4 227.3,662.4 225.4,662.4 223.5,662.4 221.6,662.4 219.7,662.4 217.8,662.4 215.9,662.4 214.0,662.4 212.1,662.4 210.2,662.4 208.3,662.4
206.4,662.4 204.5,662.4 202.6,662.4 200.7,662.4 198.8,662.4 196.9,662.4 195.0,662.4 193.1,662.4 191.2,662.4 189.3,662.4 187.3,662.4 185.4,662.4 183.5,662.4 181.6,662.4 179.7,662.4 177.8,662.4
175.9,662.4 174.0,662.4 172.1,662.4 170.2,662.4 168.3,662.4 166.4,662.4 164.5,662.4 162.6,662.4 160.7,662.4 158.8,662.4 156.9,662.4 155.0,662.4 153.1,662.4 151.2,662.4 '/>
	</g>
</g>
	</g>
	<g id="gnuplot_plot_3" ><title>Point estimate</title>
<g fill="none" color="white" stroke="rgb( 31, 120, 180)" stroke-width="2.00" stroke-linecap="butt" stroke-linejoin="miter">
</g>
<g fill="none" color="black" stroke="currentColor" stroke-width="2.00" stroke-linecap="butt" stroke-linejoin="miter">
	<g transform="translate(1089.0,103.0)" stroke="none" fill="black" font-family="Helvetica" font-size="12.00"  text-anchor="start">
		<text><tspan font-family="Helvetica" >Point estimate</tspan></text>
	</g>
</g>
<g fill="none" color="black" stroke="currentColor" stroke-width="2.00" stroke-linecap="butt" stroke-linejoin="miter">
	<path stroke='rgb( 31, 120, 180)'  d='M1038.5,99.1 L1080.7,99.1 M565.1,662.4 L565.1,160.3  '/></g>
	</g>
	<g id="gnuplot_plot_4" ><title>Noise threshold</title>
<g fill="none" color="white" stroke="rgb( 31, 120, 180)" stroke-width="1.00" stroke-linecap="butt" stroke-linejoin="miter">
</g>
<g fill="none" color="black" stroke="currentColor" stroke-width="1.00" stroke-linecap="butt" stroke-linejoin="miter">
	<g transform="translate(1089.0,121.0)" stroke="none" fill="black" font-family="Helvetica" font-size="12.00"  text-anchor="start">
		<text><tspan font-family="Helvetica" >Noise threshold</tspan></text>
	</g>
</g>
<g fill="none" color="black" stroke="currentColor" stroke-width="1.00" stroke-linecap="butt" stroke-linejoin="miter">
	<g stroke='none' shape-rendering='crispEdges'>
		<polygon fill = 'rgb(227,  26,  28)' fill-opacity = '0.100000' points = '1038.5,121.6 1080.7,121.6 1080.7,112.6 1038.5,112.6 '/>
		<polygon fill = 'rgb(227,  26,  28)' fill-opacity = '0.100000' points = '538.6,54.1 538.6,54.1 538.6,662.4 538.6,662.4 '/>
	</g>
</g>
	</g>
<g fill="none" color="white" stroke="rgb(227,  26,  28)" stroke-width="2.00" stroke-linecap="butt" stroke-linejoin="miter">
</g>
<g fill="none" color="black" stroke="currentColor" stroke-width="2.00" stroke-linecap="butt" stroke-linejoin="miter">
</g>
<g fill="none" color="black" stroke="black" stroke-width="1.00" stroke-linecap="butt" stroke-linejoin="miter">
</g>
<g fill="none" color="black" stroke="currentColor" stroke-width="1.00" stroke-linecap="butt" stroke-linejoin="miter">
	<path stroke='black'  d='M63.6,54.1 L63.6,662.4 L1013.6,662.4 L1013.6,54.1 L63.6,54.1 Z  '/></g>
<g fill="none" color="black" stroke="currentColor" stroke-width="1.00" stroke-linecap="butt" stroke-linejoin="miter">
</g>
</g>
</svg>

