<?xml version="1.0" encoding="utf-8"  standalone="no"?>
<svg 
 viewBox="0 0 1280 720"
 xmlns="http://www.w3.org/2000/svg"
 xmlns:xlink="http://www.w3.org/1999/xlink"
>

<title>Gnuplot</title>
<desc>Produced by GNUPLOT 5.2 patchlevel 6 </desc>

<g id="gnuplot_canvas">

<rect x="0" y="0" width="1280" height="720" fill="none"/>
<defs>

	<circle id='gpDot' r='0.5' stroke-width='0.5' stroke='currentColor'/>
	<path id='gpPt0' stroke-width='0.222' stroke='currentColor' d='M-1,0 h2 M0,-1 v2'/>
	<path id='gpPt1' stroke-width='0.222' stroke='currentColor' d='M-1,-1 L1,1 M1,-1 L-1,1'/>
	<path id='gpPt2' stroke-width='0.222' stroke='currentColor' d='M-1,0 L1,0 M0,-1 L0,1 M-1,-1 L1,1 M-1,1 L1,-1'/>
	<rect id='gpPt3' stroke-width='0.222' stroke='currentColor' x='-1' y='-1' width='2' height='2'/>
	<rect id='gpPt4' stroke-width='0.222' stroke='currentColor' fill='currentColor' x='-1' y='-1' width='2' height='2'/>
	<circle id='gpPt5' stroke-width='0.222' stroke='currentColor' cx='0' cy='0' r='1'/>
	<use xlink:href='#gpPt5' id='gpPt6' fill='currentColor' stroke='none'/>
	<path id='gpPt7' stroke-width='0.222' stroke='currentColor' d='M0,-1.33 L-1.33,0.67 L1.33,0.67 z'/>
	<use xlink:href='#gpPt7' id='gpPt8' fill='currentColor' stroke='none'/>
	<use xlink:href='#gpPt7' id='gpPt9' stroke='currentColor' transform='rotate(180)'/>
	<use xlink:href='#gpPt9' id='gpPt10' fill='currentColor' stroke='none'/>
	<use xlink:href='#gpPt3' id='gpPt11' stroke='currentColor' transform='rotate(45)'/>
	<use xlink:href='#gpPt11' id='gpPt12' fill='currentColor' stroke='none'/>
	<path id='gpPt13' stroke-width='0.222' stroke='currentColor' d='M0,1.330 L1.265,0.411 L0.782,-1.067 L-0.782,-1.076 L-1.265,0.411 z'/>
	<use xlink:href='#gpPt13' id='gpPt14' fill='currentColor' stroke='none'/>
	<filter id='textbox' filterUnits='objectBoundingBox' x='0' y='0' height='1' width='1'>
	  <feFlood flood-color='white' flood-opacity='1' result='bgnd'/>
	  <feComposite in='SourceGraphic' in2='bgnd' operator='atop'/>
	</filter>
	<filter id='greybox' filterUnits='objectBoundingBox' x='0' y='0' height='1' width='1'>
	  <feFlood flood-color='lightgrey' flood-opacity='1' result='grey'/>
	  <feComposite in='SourceGraphic' in2='grey' operator='atop'/>
	</filter>
</defs>
<g fill="none" color="white" stroke="currentColor" stroke-width="1.00" stroke-linecap="butt" stroke-linejoin="miter">
</g>
<g fill="none" color="black" stroke="currentColor" stroke-width="1.00" stroke-linecap="butt" stroke-linejoin="miter">
	<path stroke='black'  d='M63.6,662.4 L72.6,662.4  '/>	<g transform="translate(55.3,666.3)" stroke="none" fill="black" font-family="Helvetica" font-size="12.00"  text-anchor="end">
		<text><tspan font-family="Helvetica" > 0</tspan></text>
	</g>
</g>
<g fill="none" color="black" stroke="currentColor" stroke-width="1.00" stroke-linecap="butt" stroke-linejoin="miter">
	<path stroke='black'  d='M63.6,586.4 L72.6,586.4  '/>	<g transform="translate(55.3,590.3)" stroke="none" fill="black" font-family="Helvetica" font-size="12.00"  text-anchor="end">
		<text><tspan font-family="Helvetica" > 10</tspan></text>
	</g>
</g>
<g fill="none" color="black" stroke="currentColor" stroke-width="1.00" stroke-linecap="butt" stroke-linejoin="miter">
	<path stroke='black'  d='M63.6,510.3 L72.6,510.3  '/>	<g transform="translate(55.3,514.2)" stroke="none" fill="black" font-family="Helvetica" font-size="12.00"  text-anchor="end">
		<text><tspan font-family="Helvetica" > 20</tspan></text>
	</g>
</g>
<g fill="none" color="black" stroke="currentColor" stroke-width="1.00" stroke-linecap="butt" stroke-linejoin="miter">
	<path stroke='black'  d='M63.6,434.3 L72.6,434.3  '/>	<g transform="translate(55.3,438.2)" stroke="none" fill="black" font-family="Helvetica" font-size="12.00"  text-anchor="end">
		<text><tspan font-family="Helvetica" > 30</tspan></text>
	</g>
</g>
<g fill="none" color="black" stroke="currentColor" stroke-width="1.00" stroke-linecap="butt" stroke-linejoin="miter">
	<path stroke='black'  d='M63.6,358.2 L72.6,358.2  '/>	<g transform="translate(55.3,362.1)" stroke="none" fill="black" font-family="Helvetica" font-size="12.00"  text-anchor="end">
		<text><tspan font-family="Helvetica" > 40</tspan></text>
	</g>
</g>
<g fill="none" color="black" stroke="currentColor" stroke-width="1.00" stroke-linecap="butt" stroke-linejoin="miter">
	<path stroke='black'  d='M63.6,282.2 L72.6,282.2  '/>	<g transform="translate(55.3,286.1)" stroke="none" fill="black" font-family="Helvetica" font-size="12.00"  text-anchor="end">
		<text><tspan font-family="Helvetica" > 50</tspan></text>
	</g>
</g>
<g fill="none" color="black" stroke="currentColor" stroke-width="1.00" stroke-linecap="butt" stroke-linejoin="miter">
	<path stroke='black'  d='M63.6,206.2 L72.6,206.2  '/>	<g transform="translate(55.3,210.1)" stroke="none" fill="black" font-family="Helvetica" font-size="12.00"  text-anchor="end">
		<text><tspan font-family="Helvetica" > 60</tspan></text>
	</g>
</g>
<g fill="none" color="black" stroke="currentColor" stroke-width="1.00" stroke-linecap="butt" stroke-linejoin="miter">
	<path stroke='black'  d='M63.6,130.1 L72.6,130.1  '/>	<g transform="translate(55.3,134.0)" stroke="none" fill="black" font-family="Helvetica" font-size="12.00"  text-anchor="end">
		<text><tspan font-family="Helvetica" > 70</tspan></text>
	</g>
</g>
<g fill="none" color="black" stroke="currentColor" stroke-width="1.00" stroke-linecap="butt" stroke-linejoin="miter">
	<path stroke='black'  d='M63.6,54.1 L72.6,54.1  '/>	<g transform="translate(55.3,58.0)" stroke="none" fill="black" font-family="Helvetica" font-size="12.00"  text-anchor="end">
		<text><tspan font-family="Helvetica" > 80</tspan></text>
	</g>
</g>
<g fill="none" color="black" stroke="currentColor" stroke-width="1.00" stroke-linecap="butt" stroke-linejoin="miter">
	<path stroke='black'  d='M227.4,662.4 L227.4,653.4  '/>	<g transform="translate(227.4,684.3)" stroke="none" fill="black" font-family="Helvetica" font-size="12.00"  text-anchor="middle">
		<text><tspan font-family="Helvetica" >-11.5</tspan></text>
	</g>
</g>
<g fill="none" color="black" stroke="currentColor" stroke-width="1.00" stroke-linecap="butt" stroke-linejoin="miter">
	<path stroke='black'  d='M400.1,662.4 L400.1,653.4  '/>	<g transform="translate(400.1,684.3)" stroke="none" fill="black" font-family="Helvetica" font-size="12.00"  text-anchor="middle">
		<text><tspan font-family="Helvetica" >-11</tspan></text>
	</g>
</g>
<g fill="none" color="black" stroke="currentColor" stroke-width="1.00" stroke-linecap="butt" stroke-linejoin="miter">
	<path stroke='black'  d='M572.8,662.4 L572.8,653.4  '/>	<g transform="translate(572.8,684.3)" stroke="none" fill="black" font-family="Helvetica" font-size="12.00"  text-anchor="middle">
		<text><tspan font-family="Helvetica" >-10.5</tspan></text>
	</g>
</g>
<g fill="none" color="black" stroke="currentColor" stroke-width="1.00" stroke-linecap="butt" stroke-linejoin="miter">
	<path stroke='black'  d='M745.5,662.4 L745.5,653.4  '/>	<g transform="translate(745.5,684.3)" stroke="none" fill="black" font-family="Helvetica" font-size="12.00"  text-anchor="middle">
		<text><tspan font-family="Helvetica" >-10</tspan></text>
	</g>
</g>
<g fill="none" color="black" stroke="currentColor" stroke-width="1.00" stroke-linecap="butt" stroke-linejoin="miter">
	<path stroke='black'  d='M918.3,662.4 L918.3,653.4  '/>	<g transform="translate(918.3,684.3)" stroke="none" fill="black" font-family="Helvetica" font-size="12.00"  text-anchor="middle">
		<text><tspan font-family="Helvetica" >-9.5</tspan></text>
	</g>
</g>
<g fill="none" color="black" stroke="currentColor" stroke-width="1.00" stroke-linecap="butt" stroke-linejoin="miter">
</g>
<g fill="none" color="black" stroke="currentColor" stroke-width="1.00" stroke-linecap="butt" stroke-linejoin="miter">
	<path stroke='black'  d='M63.6,54.1 L63.6,662.4 L1013.6,662.4 L1013.6,54.1 L63.6,54.1 Z  '/></g>
<g fill="none" color="black" stroke="currentColor" stroke-width="1.00" stroke-linecap="butt" stroke-linejoin="miter">
	<g transform="translate(16.3,358.3) rotate(270)" stroke="none" fill="black" font-family="Helvetica" font-size="12.00"  text-anchor="middle">
		<text><tspan font-family="Helvetica" >Density (a.u.)</tspan></text>
	</g>
</g>
<g fill="none" color="black" stroke="currentColor" stroke-width="1.00" stroke-linecap="butt" stroke-linejoin="miter">
	<g transform="translate(538.6,711.3)" stroke="none" fill="black" font-family="Helvetica" font-size="12.00"  text-anchor="middle">
		<text><tspan font-family="Helvetica" >Relative change (%)</tspan></text>
	</g>
</g>
<g fill="none" color="black" stroke="currentColor" stroke-width="1.00" stroke-linecap="butt" stroke-linejoin="miter">
	<g transform="translate(538.6,31.0)" stroke="none" fill="black" font-family="Helvetica" font-size="12.00"  text-anchor="middle">
		<text><tspan font-family="Helvetica" >snapshot_restore_with_dense/Sparse: Dirty pages + /proc/pid/mem/22: mean</tspan></text>
	</g>
</g>
	<g id="gnuplot_plot_1" ><title>Bootstrap distribution</title>
<g fill="none" color="white" stroke="black" stroke-width="2.00" stroke-linecap="butt" stroke-linejoin="miter">
</g>
<g fill="none" color="black" stroke="currentColor" stroke-width="2.00" stroke-linecap="butt" stroke-linejoin="miter">
	<g transform="translate(1089.0,67.0)" stroke="none" fill="black" font-family="Helvetica" font-size="12.00"  text-anchor="start">
		<text><tspan font-family="Helvetica" >Bootstrap distribution</tspan></text>
	</g>
</g>
<g fill="none" color="black" stroke="currentColor" stroke-width="2.00" stroke-linecap="butt" stroke-linejoin="miter">
	<path stroke='rgb( 31, 120, 180)'  d='M1038.5,63.1 L1080.7,63.1 M63.6,631.5 L65.5,630.8 L67.4,630.1 L69.3,629.5 L71.2,628.8 L73.1,628.1
		L75.0,627.4 L76.9,626.7 L78.8,626.1 L80.7,625.4 L82.6,624.7 L84.5,624.0 L86.4,623.3 L88.3,622.5
		L90.3,621.8 L92.2,621.0 L94.1,620.2 L96.0,619.4 L97.9,618.5 L99.8,617.6 L101.7,616.6 L103.6,615.6
		L105.5,614.5 L107.4,613.4 L109.3,612.3 L111.2,611.1 L113.1,609.8 L115.0,608.5 L116.9,607.2 L118.8,605.8
		L120.7,604.3 L122.6,602.9 L124.5,601.4 L126.4,599.8 L128.3,598.2 L130.2,596.6 L132.1,595.0 L134.0,593.4
		L135.9,591.7 L137.8,590.1 L139.8,588.4 L141.7,586.7 L143.6,585.1 L145.5,583.4 L147.4,581.8 L149.3,580.1
		L151.2,578.4 L153.1,576.8 L155.0,575.2 L156.9,573.5 L158.8,571.9 L160.7,570.3 L162.6,568.7 L164.5,567.1
		L166.4,565.5 L168.3,563.9 L170.2,562.3 L172.1,560.6 L174.0,559.0 L175.9,557.4 L177.8,555.7 L179.7,554.0
		L181.6,552.2 L183.5,550.5 L185.4,548.7 L187.3,546.8 L189.3,545.0 L191.2,543.1 L193.1,541.1 L195.0,539.1
		L196.9,537.1 L198.8,535.0 L200.7,532.9 L202.6,530.7 L204.5,528.5 L206.4,526.2 L208.3,524.0 L210.2,521.6
		L212.1,519.3 L214.0,516.9 L215.9,514.4 L217.8,512.0 L219.7,509.5 L221.6,506.9 L223.5,504.4 L225.4,501.8
		L227.3,499.2 L229.2,496.6 L231.1,494.0 L233.0,491.3 L234.9,488.6 L236.8,486.0 L238.8,483.3 L240.7,480.6
		L242.6,478.0 L244.5,475.3 L246.4,472.7 L248.3,470.0 L250.2,467.4 L252.1,464.9 L254.0,462.3 L255.9,459.7
		L257.8,457.2 L259.7,454.7 L261.6,452.2 L263.5,449.7 L265.4,447.2 L267.3,444.7 L269.2,442.2 L271.1,439.7
		L273.0,437.2 L274.9,434.7 L276.8,432.1 L278.7,429.5 L280.6,426.8 L282.5,424.2 L284.4,421.4 L286.3,418.6
		L288.2,415.8 L290.2,412.9 L292.1,410.0 L294.0,407.0 L295.9,404.0 L297.8,400.9 L299.7,397.8 L301.6,394.6
		L303.5,391.5 L305.4,388.2 L307.3,385.0 L309.2,381.7 L311.1,378.4 L313.0,375.1 L314.9,371.7 L316.8,368.3
		L318.7,364.9 L320.6,361.4 L322.5,358.0 L324.4,354.5 L326.3,351.0 L328.2,347.4 L330.1,343.9 L332.0,340.3
		L333.9,336.8 L335.8,333.2 L337.7,329.7 L339.7,326.1 L341.6,322.6 L343.5,319.1 L345.4,315.7 L347.3,312.3
		L349.2,309.0 L351.1,305.7 L353.0,302.5 L354.9,299.3 L356.8,296.2 L358.7,293.2 L360.6,290.3 L362.5,287.4
		L364.4,284.6 L366.3,281.8 L368.2,279.0 L370.1,276.3 L372.0,273.7 L373.9,271.0 L375.8,268.3 L377.7,265.7
		L379.6,263.0 L381.5,260.3 L383.4,257.5 L385.3,254.7 L387.2,251.9 L389.2,249.1 L391.1,246.2 L393.0,243.2
		L394.9,240.3 L396.8,237.3 L398.7,234.3 L400.6,231.3 L402.5,228.3 L404.4,225.3 L406.3,222.3 L408.2,219.3
		L410.1,216.4 L412.0,213.5 L413.9,210.7 L415.8,207.9 L417.7,205.2 L419.6,202.6 L421.5,200.0 L423.4,197.4
		L425.3,195.0 L427.2,192.6 L429.1,190.2 L431.0,188.0 L432.9,185.7 L434.8,183.6 L436.7,181.4 L438.7,179.4
		L440.6,177.3 L442.5,175.3 L444.4,173.3 L446.3,171.4 L448.2,169.5 L450.1,167.6 L452.0,165.8 L453.9,164.0
		L455.8,162.2 L457.7,160.5 L459.6,158.8 L461.5,157.2 L463.4,155.6 L465.3,154.0 L467.2,152.5 L469.1,151.0
		L471.0,149.5 L472.9,148.1 L474.8,146.8 L476.7,145.5 L478.6,144.2 L480.5,142.9 L482.4,141.7 L484.3,140.5
		L486.2,139.3 L488.1,138.2 L490.1,137.1 L492.0,136.0 L493.9,134.9 L495.8,133.8 L497.7,132.8 L499.6,131.8
		L501.5,130.8 L503.4,129.9 L505.3,129.0 L507.2,128.1 L509.1,127.3 L511.0,126.6 L512.9,126.0 L514.8,125.4
		L516.7,124.9 L518.6,124.6 L520.5,124.3 L522.4,124.2 L524.3,124.1 L526.2,124.2 L528.1,124.4 L530.0,124.7
		L531.9,125.1 L533.8,125.7 L535.7,126.4 L537.6,127.1 L539.6,128.0 L541.5,129.0 L543.4,130.0 L545.3,131.1
		L547.2,132.3 L549.1,133.6 L551.0,134.9 L552.9,136.3 L554.8,137.7 L556.7,139.1 L558.6,140.5 L560.5,142.0
		L562.4,143.4 L564.3,144.9 L566.2,146.4 L568.1,147.8 L570.0,149.3 L571.9,150.7 L573.8,152.2 L575.7,153.6
		L577.6,155.1 L579.5,156.5 L581.4,157.9 L583.3,159.3 L585.2,160.8 L587.1,162.2 L589.1,163.6 L591.0,165.0
		L592.9,166.5 L594.8,167.9 L596.7,169.4 L598.6,170.9 L600.5,172.4 L602.4,173.9 L604.3,175.5 L606.2,177.0
		L608.1,178.7 L610.0,180.3 L611.9,182.0 L613.8,183.8 L615.7,185.6 L617.6,187.4 L619.5,189.3 L621.4,191.3
		L623.3,193.4 L625.2,195.5 L627.1,197.7 L629.0,199.9 L630.9,202.2 L632.8,204.6 L634.7,207.1 L636.6,209.6
		L638.5,212.2 L640.5,214.8 L642.4,217.5 L644.3,220.2 L646.2,223.0 L648.1,225.8 L650.0,228.6 L651.9,231.5
		L653.8,234.3 L655.7,237.2 L657.6,240.1 L659.5,242.9 L661.4,245.8 L663.3,248.7 L665.2,251.6 L667.1,254.4
		L669.0,257.3 L670.9,260.2 L672.8,263.1 L674.7,266.0 L676.6,268.8 L678.5,271.7 L680.4,274.7 L682.3,277.6
		L684.2,280.5 L686.1,283.5 L688.0,286.5 L690.0,289.5 L691.9,292.5 L693.8,295.6 L695.7,298.7 L697.6,301.8
		L699.5,304.9 L701.4,308.0 L703.3,311.2 L705.2,314.4 L707.1,317.6 L709.0,320.8 L710.9,324.0 L712.8,327.2
		L714.7,330.4 L716.6,333.6 L718.5,336.8 L720.4,340.0 L722.3,343.2 L724.2,346.4 L726.1,349.5 L728.0,352.6
		L729.9,355.7 L731.8,358.8 L733.7,361.8 L735.6,364.9 L737.5,367.8 L739.5,370.8 L741.4,373.7 L743.3,376.6
		L745.2,379.4 L747.1,382.2 L749.0,384.9 L750.9,387.6 L752.8,390.3 L754.7,392.9 L756.6,395.4 L758.5,398.0
		L760.4,400.5 L762.3,402.9 L764.2,405.3 L766.1,407.7 L768.0,410.1 L769.9,412.5 L771.8,414.8 L773.7,417.1
		L775.6,419.5 L777.5,421.8 L779.4,424.1 L781.3,426.4 L783.2,428.7 L785.1,431.0 L787.0,433.3 L789.0,435.7
		L790.9,438.0 L792.8,440.4 L794.7,442.8 L796.6,445.3 L798.5,447.7 L800.4,450.2 L802.3,452.7 L804.2,455.2
		L806.1,457.8 L808.0,460.4 L809.9,463.0 L811.8,465.6 L813.7,468.3 L815.6,470.9 L817.5,473.6 L819.4,476.3
		L821.3,479.0 L823.2,481.8 L825.1,484.5 L827.0,487.2 L828.9,489.9 L830.8,492.6 L832.7,495.3 L834.6,497.9
		L836.5,500.5 L838.4,503.1 L840.4,505.7 L842.3,508.3 L844.2,510.8 L846.1,513.2 L848.0,515.7 L849.9,518.1
		L851.8,520.4 L853.7,522.7 L855.6,525.0 L857.5,527.2 L859.4,529.4 L861.3,531.5 L863.2,533.6 L865.1,535.7
		L867.0,537.7 L868.9,539.7 L870.8,541.6 L872.7,543.5 L874.6,545.4 L876.5,547.2 L878.4,549.0 L880.3,550.7
		L882.2,552.5 L884.1,554.2 L886.0,555.8 L887.9,557.5 L889.9,559.1 L891.8,560.7 L893.7,562.3 L895.6,563.9
		L897.5,565.5 L899.4,567.0 L901.3,568.5 L903.2,570.1 L905.1,571.6 L907.0,573.1 L908.9,574.6 L910.8,576.1
		L912.7,577.6 L914.6,579.1 L916.5,580.5 L918.4,582.0 L920.3,583.5 L922.2,585.0 L924.1,586.4 L926.0,587.9
		L927.9,589.4 L929.8,590.8 L931.7,592.3 L933.6,593.7 L935.5,595.1 L937.4,596.5 L939.4,597.9 L941.3,599.3
		L943.2,600.7 L945.1,602.0 L947.0,603.4 L948.9,604.7 L950.8,605.9 L952.7,607.2 L954.6,608.4 L956.5,609.6
		L958.4,610.7 L960.3,611.8 L962.2,612.9 L964.1,614.0 L966.0,615.0 L967.9,616.1 L969.8,617.0 L971.7,618.0
		L973.6,619.0 L975.5,619.9 L977.4,620.8 L979.3,621.7 L981.2,622.6 L983.1,623.4 L985.0,624.3 L986.9,625.2
		L988.9,626.0 L990.8,626.8 L992.7,627.6 L994.6,628.4 L996.5,629.2 L998.4,630.0 L1000.3,630.8 L1002.2,631.5
		L1004.1,632.2 L1006.0,632.9 L1007.9,633.6 L1009.8,634.3 L1011.7,634.9 L1013.6,635.5  '/></g>
	</g>
	<g id="gnuplot_plot_2" ><title>Confidence interval</title>
<g fill="none" color="white" stroke="rgb( 31, 120, 180)" stroke-width="1.00" stroke-linecap="butt" stroke-linejoin="miter">
</g>
<g fill="none" color="black" stroke="currentColor" stroke-width="1.00" stroke-linecap="butt" stroke-linejoin="miter">
	<g transform="translate(1089.0,85.0)" stroke="none" fill="black" font-family="Helvetica" font-size="12.00"  text-anchor="start">
		<text><tspan font-family="Helvetica" >Confidence interval</tspan></text>
	</g>
</g>
<g fill="none" color="black" stroke="currentColor" stroke-width="1.00" stroke-linecap="butt" stroke-linejoin="miter">
	<g stroke='none' shape-rendering='crispEdges'>
		<polygon fill = 'rgb( 31, 120, 180)' fill-opacity = '0.250000' points = '1038.5,85.6 1080.7,85.6 1080.7,76.6 1038.5,76.6 '/>
		<polygon fill = 'rgb( 31, 120, 180)' fill-opacity = '0.250000' points = '151.2,578.4 153.1,576.8 155.0,575.2 156.9,573.5 158.8,571.9 160.7,570.3 162.6,568.7 164.5,567.1 166.4,565.5 168.3,563.9 170.2,562.3 172.1,560.6 174.0,559.0 175.9,557.4 177.8,555.7 179.7,554.0
181.6,552.2 183.5,550.5 185.4,548.7 187.3,546.8 189.3,545.0 191.2,543.1 193.1,541.1 195.0,539.1 196.9,537.1 198.8,535.0 200.7,532.9 202.6,530.7 204.5,528.5 206.4,526.2 208.3,524.0 210.2,521.6
212.1,519.3 214.0,516.9 215.9,514.4 217.8,512.0 219.7,509.5 221.6,506.9 223.5,504.4 225.4,501.8 227.3,499.2 229.2,496.6 231.1,494.0 233.0,491.3 234.9,488.6 236.8,486.0 238.8,483.3 240.7,480.6
242.6,478.0 244.5,475.3 246.4,472.7 248.3,470.0 250.2,467.4 252.1,464.9 254.0,462.3 255.9,459.7 257.8,457.2 259.7,454.7 261.6,452.2 263.5,449.7 265.4,447.2 267.3,444.7 269.2,442.2 271.1,439.7
273.0,437.2 274.9,434.7 276.8,432.1 278.7,429.5 280.6,426.8 282.5,424.2 284.4,421.4 286.3,418.6 288.2,415.8 290.2,412.9 292.1,410.0 294.0,407.0 295.9,404.0 297.8,400.9 299.7,397.8 301.6,394.6
303.5,391.5 305.4,388.2 307.3,385.0 309.2,381.7 311.1,378.4 313.0,375.1 314.9,371.7 316.8,368.3 318.7,364.9 320.6,361.4 322.5,358.0 324.4,354.5 326.3,351.0 328.2,347.4 330.1,343.9 332.0,340.3
333.9,336.8 335.8,333.2 337.7,329.7 339.7,326.1 341.6,322.6 343.5,319.1 345.4,315.7 347.3,312.3 349.2,309.0 351.1,305.7 353.0,302.5 354.9,299.3 356.8,296.2 358.7,293.2 360.6,290.3 362.5,287.4
364.4,284.6 366.3,281.8 368.2,279.0 370.1,276.3 372.0,273.7 373.9,271.0 375.8,268.3 377.7,265.7 379.6,263.0 381.5,260.3 383.4,257.5 385.3,254.7 387.2,251.9 389.2,249.1 391.1,246.2 393.0,243.2
394.9,240.3 396.8,237.3 398.7,234.3 400.6,231.3 402.5,228.3 404.4,225.3 406.3,222.3 408.2,219.3 410.1,216.4 412.0,213.5 413.9,210.7 415.8,207.9 417.7,205.2 419.6,202.6 421.5,200.0 423.4,197.4
425.3,195.0 427.2,192.6 429.1,190.2 431.0,188.0 432.9,185.7 434.8,183.6 436.7,181.4 438.7,179.4 440.6,177.3 442.5,175.3 444.4,173.3 446.3,171.4 448.2,169.5 450.1,167.6 452.0,165.8 453.9,164.0
455.8,162.2 457.7,160.5 459.6,158.8 461.5,157.2 463.4,155.6 465.3,154.0 467.2,152.5 469.1,151.0 471.0,149.5 472.9,148.1 474.8,146.8 476.7,145.5 478.6,144.2 480.5,142.9 482.4,141.7 484.3,140.5
486.2,139.3 488.1,138.2 490.1,137.1 492.0,136.0 493.9,134.9 495.8,133.8 497.7,132.8 499.6,131.8 501.5,130.8 503.4,129.9 505.3,129.0 507.2,128.1 509.1,127.3 511.0,126.6 512.9,126.0 514.8,125.4
516.7,124.9 518.6,124.6 520.5,124.3 522.4,124.2 524.3,124.1 526.2,124.2 528.1,124.4 530.0,124.7 531.9,125.1 533.8,125.7 535.7,126.4 537.6,127.1 539.6,128.0 541.5,129.0 543.4,130.0 545.3,131.1
547.2,132.3 549.1,133.6 551.0,134.9 552.9,136.3 554.8,137.7 556.7,139.1 558.6,140.5 560.5,142.0 562.4,143.4 564.3,144.9 566.2,146.4 568.1,147.8 570.0,149.3 571.9,150.7 573.8,152.2 575.7,153.6
577.6,155.1 579.5,156.5 581.4,157.9 583.3,159.3 585.2,160.8 587.1,162.2 589.1,163.6 591.0,165.0 592.9,166.5 594.8,167.9 596.7,169.4 598.6,170.9 600.5,172.4 602.4,173.9 604.3,175.5 606.2,177.0
608.1,178.7 610.0,180.3 611.9,182.0 613.8,183.8 615.7,185.6 617.6,187.4 619.5,189.3 621.4,191.3 623.3,193.4 625.2,195.5 627.1,197.7 629.0,199.9 630.9,202.2 632.8,204.6 634.7,207.1 636.6,209.6
638.5,212.2 640.5,214.8 642.4,217.5 644.3,220.2 646.2,223.0 648.1,225.8 650.0,228.6 651.9,231.5 653.8,234.3 655.7,237.2 657.6,240.1 659.5,242.9 661.4,245.8 663.3,248.7 665.2,251.6 667.1,254.4
669.0,257.3 670.9,260.2 672.8,263.1 674.7,266.0 676.6,268.8 678.5,271.7 680.4,274.7 682.3,277.6 684.2,280.5 686.1,283.5 688.0,286.5 690.0,289.5 691.9,292.5 693.8,295.6 695.7,298.7 697.6,301.8
699.5,304.9 701.4,308.0 703.3,311.2 705.2,314.4 707.1,317.6 709.0,320.8 710.9,324.0 712.8,327.2 714.7,330.4 716.6,333.6 718.5,336.8 720.4,340.0 722.3,343.2 724.2,346.4 726.1,349.5 728.0,352.6
729.9,355.7 731.8,358.8 733.7,361.8 735.6,364.9 737.5,367.8 739.5,370.8 741.4,373.7 743.3,376.6 745.2,379.4 747.1,382.2 749.0,384.9 750.9,387.6 752.8,390.3 754.7,392.9 756.6,395.4 758.5,398.0
760.4,400.5 762.3,402.9 764.2,405.3 766.1,407.7 768.0,410.1 769.9,412.5 771.8,414.8 773.7,417.1 775.6,419.5 777.5,421.8 779.4,424.1 781.3,426.4 783.2,428.7 785.1,431.0 787.0,433.3 789.0,435.7
790.9,438.0 792.8,440.4 794.7,442.8 796.6,445.3 798.5,447.7 800.4,450.2 802.3,452.7 804.2,455.2 806.1,457.8 808.0,460.4 809.9,463.0 811.8,465.6 813.7,468.3 815.6,470.9 817.5,473.6 819.4,476.3
821.3,479.0 823.2,481.8 825.1,484.5 827.0,487.2 828.9,489.9 830.8,492.6 832.7,495.3 834.6,497.9 836.5,500.5 838.4,503.1 840.4,505.7 842.3,508.3 844.2,510.8 846.1,513.2 848.0,515.7 849.9,518.1
851.8,520.4 853.7,522.7 855.6,525.0 857.5,527.2 859.4,529.4 861.3,531.5 863.2,533.6 865.1,535.7 867.0,537.7 868.9,539.7 870.8,541.6 872.7,543.5 874.6,545.4 876.5,547.2 878.4,549.0 880.3,550.7
882.2,552.5 884.1,554.2 886.0,555.8 887.9,557.5 889.9,559.1 891.8,560.7 893.7,562.3 895.6,563.9 897.5,565.5 899.4,567.0 901.3,568.5 903.2,570.1 905.1,571.6 907.0,573.1 908.9,574.6 910.8,576.1
912.7,577.6 914.6,579.1 916.5,580.5 918.4,582.0 920.3,583.5 922.2,585.0 924.1,586.4 924.1,662.4 922.2,662.4 920.3,662.4 918.4,662.4 916.5,662.4 914.6,662.4 912.7,662.4 910.8,662.4 908.9,662.4
907.0,662.4 905.1,662.4 903.2,662.4 901.3,662.4 899.4,662.4 897.5,662.4 895.6,662.4 893.7,662.4 891.8,662.4 889.9,662.4 887.9,662.4 886.0,662.4 884.1,662.4 882.2,662.4 880.3,662.4 878.4,662.4
876.5,662.4 874.6,662.4 872.7,662.4 870.8,662.4 868.9,662.4 867.0,662.4 865.1,662.4 863.2,662.4 861.3,662.4 859.4,662.4 857.5,662.4 855.6,662.4 853.7,662.4 851.8,662.4 849.9,662.4 848.0,662.4
846.1,662.4 844.2,662.4 842.3,662.4 840.4,662.4 838.4,662.4 836.5,662.4 834.6,662.4 832.7,662.4 830.8,662.4 828.9,662.4 827.0,662.4 825.1,662.4 823.2,662.4 821.3,662.4 819.4,662.4 817.5,662.4
815.6,662.4 813.7,662.4 811.8,662.4 809.9,662.4 808.0,662.4 806.1,662.4 804.2,662.4 802.3,662.4 800.4,662.4 798.5,662.4 796.6,662.4 794.7,662.4 792.8,662.4 790.9,662.4 789.0,662.4 787.0,662.4
785.1,662.4 783.2,662.4 781.3,662.4 779.4,662.4 777.5,662.4 775.6,662.4 773.7,662.4 771.8,662.4 769.9,662.4 768.0,662.4 766.1,662.4 764.2,662.4 762.3,662.4 760.4,662.4 758.5,662.4 756.6,662.4
754.7,662.4 752.8,662.4 750.9,662.4 749.0,662.4 747.1,662.4 745.2,662.4 743.3,662.4 741.4,662.4 739.5,662.4 737.5,662.4 735.6,662.4 733.7,662.4 731.8,662.4 729.9,662.4 728.0,662.4 726.1,662.4
724.2,662.4 722.3,662.4 720.4,662.4 718.5,662.4 716.6,662.4 714.7,662.4 712.8,662.4 710.9,662.4 709.0,662.4 707.1,662.4 705.2,662.4 703.3,662.4 701.4,662.4 699.5,662.4 697.6,662.4 695.7,662.4
693.8,662.4 691.9,662.4 690.0,662.4 688.0,662.4 686.1,662.4 684.2,662.4 682.3,662.4 680.4,662.4 678.5,662.4 676.6,662.4 674.7,662.4 672.8,662.4 670.9,662.4 669.0,662.4 667.1,662.4 665.2,662.4
663.3,662.4 661.4,662.4 659.5,662.4 657.6,662.4 655.7,662.4 653.8,662.4 651.9,662.4 650.0,662.4 648.1,662.4 646.2,662.4 644.3,662.4 642.4,662.4 640.5,662.4 638.5,662.4 636.6,662.4 634.7,662.4
632.8,662.4 630.9,662.4 629.0,662.4 627.1,662.4 625.2,662.4 623.3,662.4 621.4,662.4 619.5,662.4 617.6,662.4 615.7,662.4 613.8,662.4 611.9,662.4 610.0,662.4 608.1,662.4 606.2,662.4 604.3,662.4
602.4,662.4 600.5,662.4 598.6,662.4 596.7,662.4 594.8,662.4 592.9,662.4 591.0,662.4 589.1,662.4 587.1,662.4 585.2,662.4 583.3,662.4 581.4,662.4 579.5,662.4 577.6,662.4 575.7,662.4 573.8,662.4
571.9,662.4 570.0,662.4 568.1,662.4 566.2,662.4 564.3,662.4 562.4,662.4 560.5,662.4 558.6,662.4 556.7,662.4 554.8,662.4 552.9,662.4 551.0,662.4 549.1,662.4 547.2,662.4 545.3,662.4 543.4,662.4
541.5,662.4 539.6,662.4 537.6,662.4 535.7,662.4 533.8,662.4 531.9,662.4 530.0,662.4 528.1,662.4 526.2,662.4 524.3,662.4 522.4,662.4 520.5,662.4 518.6,662.4 516.7,662.4 514.8,662.4 512.9,662.4
511.0,662.4 509.1,662.4 507.2,662.4 505.3,662.4 503.4,662.4 501.5,662.4 499.6,662.4 497.7,662.4 495.8,662.4 493.9,662.4 492.0,662.4 490.1,662.4 488.1,662.4 486.2,662.4 484.3,662.4 482.4,662.4
480.5,662.4 478.6,662.4 476.7,662.4 474.8,662.4 472.9,662.4 471.0,662.4 469.1,662.4 467.2,662.4 465.3,662.4 463.4,662.4 461.5,662.4 459.6,662.4 457.7,662.4 455.8,662.4 453.9,662.4 452.0,662.4
450.1,662.4 448.2,662.4 446.3,662.4 444.4,662.4 442.5,662.4 440.6,662.4 438.7,662.4 436.7,662.4 434.8,662.4 432.9,662.4 431.0,662.4 429.1,662.4 427.2,662.4 425.3,662.4 423.4,662.4 421.5,662.4
419.6,662.4 417.7,662.4 415.8,662.4 413.9,662.4 412.0,662.4 410.1,662.4 408.2,662.4 406.3,662.4 404.4,662.4 402.5,662.4 400.6,662.4 398.7,662.4 396.8,662.4 394.9,662.4 393.0,662.4 391.1,662.4
389.2,662.4 387.2,662.4 385.3,662.4 383.4,662.4 381.5,662.4 379.6,662.4 377.7,662.4 375.8,662.4 373.9,662.4 372.0,662.4 370.1,662.4 368.2,662.4 366.3,662.4 364.4,662.4 362.5,662.4 360.6,662.4
358.7,662.4 356.8,662.4 354.9,662.4 353.0,662.4 351.1,662.4 349.2,662.4 347.3,662.4 345.4,662.4 343.5,662.4 341.6,662.4 339.7,662.4 337.7,662.4 335.8,662.4 333.9,662.4 332.0,662.4 330.1,662.4
328.2,662.4 326.3,662.4 324.4,662.4 322.5,662.4 320.6,662.4 318.7,662.4 316.8,662.4 314.9,662.4 313.0,662.4 311.1,662.4 309.2,662.4 307.3,662.4 305.4,662.4 303.5,662.4 301.6,662.4 299.7,662.4
297.8,662.4 295.9,662.4 294.0,662.4 292.1,662.4 290.2,662.4 288.2,662.4 286.3,662.4 284.4,662.4 282.5,662.4 280.6,662.4 278.7,662.4 276.8,662.4 274.9,662.4 273.0,662.4 271.1,662.4 269.2,662.4
267.3,662.4 265.4,662.4 263.5,662.4 261.6,662.4 259.7,662.4 257.8,662.4 255.9,662.4 254.0,662.4 252.1,662.4 250.2,662.4 248.3,662.4 246.4,662.4 244.5,662.4 242.6,662.4 240.7,662.4 238.8,662.4
236.8,662.4 234.9,662.4 233.0,662.4 231.1,662.4 229.2,662.4 227.3,662.4 225.4,662.4 223.5,662.4 221.6,662.4 219.7,662.4 217.8,662.4 215.9,662.4 214.0,662.4 212.1,662.4 210.2,662.4 208.3,662.4
206.4,662.4 204.5,662.4 202.6,662.4 200.7,662.4 198.8,662.4 196.9,662.4 195.0,662.4 193.1,662.4 191.2,662.4 189.3,662.4 187.3,662.4 185.4,662.4 183.5,662.4 181.6,662.4 179.7,662.4 177.8,662.4
175.9,662.4 174.0,662.4 172.1,662.4 170.2,662.4 168.3,662.4 166.4,662.4 164.5,662.4 162.6,662.4 160.7,662.4 158.8,662.4 156.9,662.4 155.0,662.4 153.1,662.4 151.2,662.4 '/>
	</g>
</g>
	</g>
	<g id="gnuplot_plot_3" ><title>Point estimate</title>
<g fill="none" color="white" stroke="rgb( 31, 120, 180)" stroke-width="2.00" stroke-linecap="butt" stroke-linejoin="miter">
</g>
<g fill="none" color="black" stroke="currentColor" stroke-width="2.00" stroke-linecap="butt" stroke-linejoin="miter">
	<g transform="translate(1089.0,103.0)" stroke="none" fill="black" font-family="Helvetica" font-size="12.00"  text-anchor="start">
		<text><tspan font-family="Helvetica" >Point estimate</tspan></text>
	</g>
</g>
<g fill="none" color="black" stroke="currentColor" stroke-width="2.00" stroke-linecap="butt" stroke-linejoin="miter">
	<path stroke='rgb( 31, 120, 180)'  d='M1038.5,99.1 L1080.7,99.1 M543.2,662.4 L543.2,129.9  '/></g>
	</g>
	<g id="gnuplot_plot_4" ><title>Noise threshold</title>
<g fill="none" color="white" stroke="rgb( 31, 120, 180)" stroke-width="1.00" stroke-linecap="butt" stroke-linejoin="miter">
</g>
<g fill="none" color="black" stroke="currentColor" stroke-width="1.00" stroke-linecap="butt" stroke-linejoin="miter">
	<g transform="translate(1089.0,121.0)" stroke="none" fill="black" font-family="Helvetica" font-size="12.00"  text-anchor="start">
		<text><tspan font-family="Helvetica" >Noise threshold</tspan></text>
	</g>
</g>
<g fill="none" color="black" stroke="currentColor" stroke-width="1.00" stroke-linecap="butt" stroke-linejoin="miter">
	<g stroke='none' shape-rendering='crispEdges'>
		<polygon fill = 'rgb(227,  26,  28)' fill-opacity = '0.100000' points = '1038.5,121.6 1080.7,121.6 1080.7,112.6 1038.5,112.6 '/>
		<polygon fill = 'rgb(227,  26,  28)' fill-opacity = '0.100000' points = '538.6,54.1 538.6,54.1 538.6,662.4 538.6,662.4 '/>
	</g>
</g>
	</g>
<g fill="none" color="white" stroke="rgb(227,  26,  28)" stroke-width="2.00" stroke-linecap="butt" stroke-linejoin="miter">
</g>
<g fill="none" color="black" stroke="currentColor" stroke-width="2.00" stroke-linecap="butt" stroke-linejoin="miter">
</g>
<g fill="none" color="black" stroke="black" stroke-width="1.00" stroke-linecap="butt" stroke-linejoin="miter">
</g>
<g fill="none" color="black" stroke="currentColor" stroke-width="1.00" stroke-linecap="butt" stroke-linejoin="miter">
	<path stroke='black'  d='M63.6,54.1 L63.6,662.4 L1013.6,662.4 L1013.6,54.1 L63.6,54.1 Z  '/></g>
<g fill="none" color="black" stroke="currentColor" stroke-width="1.00" stroke-linecap="butt" stroke-linejoin="miter">
</g>
</g>
</svg>

