group,function,value,throughput_num,throughput_type,sample_measured_value,unit,iteration_count
snapshot_restore_with_dense,Sparse: Entire region + /proc/pid/mem,215,,,1862468.0,ns,1
snapshot_restore_with_dense,Sparse: Entire region + /proc/pid/mem,215,,,3666290.0,ns,2
snapshot_restore_with_dense,Sparse: Entire region + /proc/pid/mem,215,,,5625055.0,ns,3
snapshot_restore_with_dense,Sparse: Entire region + /proc/pid/mem,215,,,7402351.0,ns,4
snapshot_restore_with_dense,Sparse: Entire region + /proc/pid/mem,215,,,9315434.0,ns,5
snapshot_restore_with_dense,Sparse: Entire region + /proc/pid/mem,215,,,11644521.0,ns,6
snapshot_restore_with_dense,Sparse: Entire region + /proc/pid/mem,215,,,13016273.0,ns,7
snapshot_restore_with_dense,Sparse: Entire region + /proc/pid/mem,215,,,14637667.0,ns,8
snapshot_restore_with_dense,Sparse: Entire region + /proc/pid/mem,215,,,16553981.0,ns,9
snapshot_restore_with_dense,Sparse: Entire region + /proc/pid/mem,215,,,18292945.0,ns,10
snapshot_restore_with_dense,Sparse: Entire region + /proc/pid/mem,215,,,20201721.0,ns,11
snapshot_restore_with_dense,Sparse: Entire region + /proc/pid/mem,215,,,21952848.0,ns,12
snapshot_restore_with_dense,Sparse: Entire region + /proc/pid/mem,215,,,23773225.0,ns,13
snapshot_restore_with_dense,Sparse: Entire region + /proc/pid/mem,215,,,25687237.0,ns,14
snapshot_restore_with_dense,Sparse: Entire region + /proc/pid/mem,215,,,27415044.0,ns,15
snapshot_restore_with_dense,Sparse: Entire region + /proc/pid/mem,215,,,29260013.0,ns,16
snapshot_restore_with_dense,Sparse: Entire region + /proc/pid/mem,215,,,31124172.0,ns,17
snapshot_restore_with_dense,Sparse: Entire region + /proc/pid/mem,215,,,32941946.0,ns,18
snapshot_restore_with_dense,Sparse: Entire region + /proc/pid/mem,215,,,34740675.0,ns,19
snapshot_restore_with_dense,Sparse: Entire region + /proc/pid/mem,215,,,36679332.0,ns,20
snapshot_restore_with_dense,Sparse: Entire region + /proc/pid/mem,215,,,38418770.0,ns,21
snapshot_restore_with_dense,Sparse: Entire region + /proc/pid/mem,215,,,40235318.0,ns,22
snapshot_restore_with_dense,Sparse: Entire region + /proc/pid/mem,215,,,42148551.0,ns,23
snapshot_restore_with_dense,Sparse: Entire region + /proc/pid/mem,215,,,43929704.0,ns,24
snapshot_restore_with_dense,Sparse: Entire region + /proc/pid/mem,215,,,45811692.0,ns,25
snapshot_restore_with_dense,Sparse: Entire region + /proc/pid/mem,215,,,47595466.0,ns,26
snapshot_restore_with_dense,Sparse: Entire region + /proc/pid/mem,215,,,49453712.0,ns,27
snapshot_restore_with_dense,Sparse: Entire region + /proc/pid/mem,215,,,51196055.0,ns,28
snapshot_restore_with_dense,Sparse: Entire region + /proc/pid/mem,215,,,58684960.0,ns,29
snapshot_restore_with_dense,Sparse: Entire region + /proc/pid/mem,215,,,55978663.0,ns,30
snapshot_restore_with_dense,Sparse: Entire region + /proc/pid/mem,215,,,57111741.0,ns,31
snapshot_restore_with_dense,Sparse: Entire region + /proc/pid/mem,215,,,58719290.0,ns,32
snapshot_restore_with_dense,Sparse: Entire region + /proc/pid/mem,215,,,60560740.0,ns,33
snapshot_restore_with_dense,Sparse: Entire region + /proc/pid/mem,215,,,62284391.0,ns,34
snapshot_restore_with_dense,Sparse: Entire region + /proc/pid/mem,215,,,64078456.0,ns,35
snapshot_restore_with_dense,Sparse: Entire region + /proc/pid/mem,215,,,65915048.0,ns,36
snapshot_restore_with_dense,Sparse: Entire region + /proc/pid/mem,215,,,67657641.0,ns,37
snapshot_restore_with_dense,Sparse: Entire region + /proc/pid/mem,215,,,69537213.0,ns,38
snapshot_restore_with_dense,Sparse: Entire region + /proc/pid/mem,215,,,71359599.0,ns,39
snapshot_restore_with_dense,Sparse: Entire region + /proc/pid/mem,215,,,73153030.0,ns,40
snapshot_restore_with_dense,Sparse: Entire region + /proc/pid/mem,215,,,75003859.0,ns,41
snapshot_restore_with_dense,Sparse: Entire region + /proc/pid/mem,215,,,76939378.0,ns,42
snapshot_restore_with_dense,Sparse: Entire region + /proc/pid/mem,215,,,78645332.0,ns,43
snapshot_restore_with_dense,Sparse: Entire region + /proc/pid/mem,215,,,80771445.0,ns,44
snapshot_restore_with_dense,Sparse: Entire region + /proc/pid/mem,215,,,82319162.0,ns,45
snapshot_restore_with_dense,Sparse: Entire region + /proc/pid/mem,215,,,84114694.0,ns,46
snapshot_restore_with_dense,Sparse: Entire region + /proc/pid/mem,215,,,86027100.0,ns,47
snapshot_restore_with_dense,Sparse: Entire region + /proc/pid/mem,215,,,87835773.0,ns,48
snapshot_restore_with_dense,Sparse: Entire region + /proc/pid/mem,215,,,89577152.0,ns,49
snapshot_restore_with_dense,Sparse: Entire region + /proc/pid/mem,215,,,91714023.0,ns,50
snapshot_restore_with_dense,Sparse: Entire region + /proc/pid/mem,215,,,93296996.0,ns,51
snapshot_restore_with_dense,Sparse: Entire region + /proc/pid/mem,215,,,95089452.0,ns,52
snapshot_restore_with_dense,Sparse: Entire region + /proc/pid/mem,215,,,96872813.0,ns,53
snapshot_restore_with_dense,Sparse: Entire region + /proc/pid/mem,215,,,98757654.0,ns,54
snapshot_restore_with_dense,Sparse: Entire region + /proc/pid/mem,215,,,100729127.0,ns,55
snapshot_restore_with_dense,Sparse: Entire region + /proc/pid/mem,215,,,102596045.0,ns,56
snapshot_restore_with_dense,Sparse: Entire region + /proc/pid/mem,215,,,104270172.0,ns,57
snapshot_restore_with_dense,Sparse: Entire region + /proc/pid/mem,215,,,106045802.0,ns,58
snapshot_restore_with_dense,Sparse: Entire region + /proc/pid/mem,215,,,107955554.0,ns,59
snapshot_restore_with_dense,Sparse: Entire region + /proc/pid/mem,215,,,109765040.0,ns,60
snapshot_restore_with_dense,Sparse: Entire region + /proc/pid/mem,215,,,111576621.0,ns,61
snapshot_restore_with_dense,Sparse: Entire region + /proc/pid/mem,215,,,113488077.0,ns,62
snapshot_restore_with_dense,Sparse: Entire region + /proc/pid/mem,215,,,115305160.0,ns,63
snapshot_restore_with_dense,Sparse: Entire region + /proc/pid/mem,215,,,117399390.0,ns,64
snapshot_restore_with_dense,Sparse: Entire region + /proc/pid/mem,215,,,118895588.0,ns,65
snapshot_restore_with_dense,Sparse: Entire region + /proc/pid/mem,215,,,120693167.0,ns,66
snapshot_restore_with_dense,Sparse: Entire region + /proc/pid/mem,215,,,122630392.0,ns,67
snapshot_restore_with_dense,Sparse: Entire region + /proc/pid/mem,215,,,124330486.0,ns,68
snapshot_restore_with_dense,Sparse: Entire region + /proc/pid/mem,215,,,126144962.0,ns,69
snapshot_restore_with_dense,Sparse: Entire region + /proc/pid/mem,215,,,127965436.0,ns,70
snapshot_restore_with_dense,Sparse: Entire region + /proc/pid/mem,215,,,129860107.0,ns,71
snapshot_restore_with_dense,Sparse: Entire region + /proc/pid/mem,215,,,131735270.0,ns,72
snapshot_restore_with_dense,Sparse: Entire region + /proc/pid/mem,215,,,133550757.0,ns,73
snapshot_restore_with_dense,Sparse: Entire region + /proc/pid/mem,215,,,135349675.0,ns,74
snapshot_restore_with_dense,Sparse: Entire region + /proc/pid/mem,215,,,137243646.0,ns,75
snapshot_restore_with_dense,Sparse: Entire region + /proc/pid/mem,215,,,139882671.0,ns,76
snapshot_restore_with_dense,Sparse: Entire region + /proc/pid/mem,215,,,140865412.0,ns,77
snapshot_restore_with_dense,Sparse: Entire region + /proc/pid/mem,215,,,142698941.0,ns,78
snapshot_restore_with_dense,Sparse: Entire region + /proc/pid/mem,215,,,144700257.0,ns,79
snapshot_restore_with_dense,Sparse: Entire region + /proc/pid/mem,215,,,146949411.0,ns,80
snapshot_restore_with_dense,Sparse: Entire region + /proc/pid/mem,215,,,148167956.0,ns,81
snapshot_restore_with_dense,Sparse: Entire region + /proc/pid/mem,215,,,149976394.0,ns,82
snapshot_restore_with_dense,Sparse: Entire region + /proc/pid/mem,215,,,152083478.0,ns,83
snapshot_restore_with_dense,Sparse: Entire region + /proc/pid/mem,215,,,153675183.0,ns,84
snapshot_restore_with_dense,Sparse: Entire region + /proc/pid/mem,215,,,155330313.0,ns,85
snapshot_restore_with_dense,Sparse: Entire region + /proc/pid/mem,215,,,157682360.0,ns,86
snapshot_restore_with_dense,Sparse: Entire region + /proc/pid/mem,215,,,159056055.0,ns,87
snapshot_restore_with_dense,Sparse: Entire region + /proc/pid/mem,215,,,160840086.0,ns,88
snapshot_restore_with_dense,Sparse: Entire region + /proc/pid/mem,215,,,162841845.0,ns,89
snapshot_restore_with_dense,Sparse: Entire region + /proc/pid/mem,215,,,164599041.0,ns,90
snapshot_restore_with_dense,Sparse: Entire region + /proc/pid/mem,215,,,166401665.0,ns,91
snapshot_restore_with_dense,Sparse: Entire region + /proc/pid/mem,215,,,168356658.0,ns,92
snapshot_restore_with_dense,Sparse: Entire region + /proc/pid/mem,215,,,170038332.0,ns,93
snapshot_restore_with_dense,Sparse: Entire region + /proc/pid/mem,215,,,171873046.0,ns,94
snapshot_restore_with_dense,Sparse: Entire region + /proc/pid/mem,215,,,173599310.0,ns,95
snapshot_restore_with_dense,Sparse: Entire region + /proc/pid/mem,215,,,175429863.0,ns,96
snapshot_restore_with_dense,Sparse: Entire region + /proc/pid/mem,215,,,177352334.0,ns,97
snapshot_restore_with_dense,Sparse: Entire region + /proc/pid/mem,215,,,179194262.0,ns,98
snapshot_restore_with_dense,Sparse: Entire region + /proc/pid/mem,215,,,180901704.0,ns,99
snapshot_restore_with_dense,Sparse: Entire region + /proc/pid/mem,215,,,182788243.0,ns,100
