<?xml version="1.0" encoding="utf-8"  standalone="no"?>
<svg 
 viewBox="0 0 1280 720"
 xmlns="http://www.w3.org/2000/svg"
 xmlns:xlink="http://www.w3.org/1999/xlink"
>

<title>Gnuplot</title>
<desc>Produced by GNUPLOT 5.2 patchlevel 6 </desc>

<g id="gnuplot_canvas">

<rect x="0" y="0" width="1280" height="720" fill="none"/>
<defs>

	<circle id='gpDot' r='0.5' stroke-width='0.5' stroke='currentColor'/>
	<path id='gpPt0' stroke-width='0.222' stroke='currentColor' d='M-1,0 h2 M0,-1 v2'/>
	<path id='gpPt1' stroke-width='0.222' stroke='currentColor' d='M-1,-1 L1,1 M1,-1 L-1,1'/>
	<path id='gpPt2' stroke-width='0.222' stroke='currentColor' d='M-1,0 L1,0 M0,-1 L0,1 M-1,-1 L1,1 M-1,1 L1,-1'/>
	<rect id='gpPt3' stroke-width='0.222' stroke='currentColor' x='-1' y='-1' width='2' height='2'/>
	<rect id='gpPt4' stroke-width='0.222' stroke='currentColor' fill='currentColor' x='-1' y='-1' width='2' height='2'/>
	<circle id='gpPt5' stroke-width='0.222' stroke='currentColor' cx='0' cy='0' r='1'/>
	<use xlink:href='#gpPt5' id='gpPt6' fill='currentColor' stroke='none'/>
	<path id='gpPt7' stroke-width='0.222' stroke='currentColor' d='M0,-1.33 L-1.33,0.67 L1.33,0.67 z'/>
	<use xlink:href='#gpPt7' id='gpPt8' fill='currentColor' stroke='none'/>
	<use xlink:href='#gpPt7' id='gpPt9' stroke='currentColor' transform='rotate(180)'/>
	<use xlink:href='#gpPt9' id='gpPt10' fill='currentColor' stroke='none'/>
	<use xlink:href='#gpPt3' id='gpPt11' stroke='currentColor' transform='rotate(45)'/>
	<use xlink:href='#gpPt11' id='gpPt12' fill='currentColor' stroke='none'/>
	<path id='gpPt13' stroke-width='0.222' stroke='currentColor' d='M0,1.330 L1.265,0.411 L0.782,-1.067 L-0.782,-1.076 L-1.265,0.411 z'/>
	<use xlink:href='#gpPt13' id='gpPt14' fill='currentColor' stroke='none'/>
	<filter id='textbox' filterUnits='objectBoundingBox' x='0' y='0' height='1' width='1'>
	  <feFlood flood-color='white' flood-opacity='1' result='bgnd'/>
	  <feComposite in='SourceGraphic' in2='bgnd' operator='atop'/>
	</filter>
	<filter id='greybox' filterUnits='objectBoundingBox' x='0' y='0' height='1' width='1'>
	  <feFlood flood-color='lightgrey' flood-opacity='1' result='grey'/>
	  <feComposite in='SourceGraphic' in2='grey' operator='atop'/>
	</filter>
</defs>
<g fill="none" color="white" stroke="currentColor" stroke-width="1.00" stroke-linecap="butt" stroke-linejoin="miter">
</g>
<g fill="none" color="black" stroke="currentColor" stroke-width="1.00" stroke-linecap="butt" stroke-linejoin="miter">
	<path stroke='black'  d='M80.2,662.4 L89.2,662.4  '/>	<g transform="translate(71.9,666.3)" stroke="none" fill="black" font-family="Helvetica" font-size="12.00"  text-anchor="end">
		<text><tspan font-family="Helvetica" > 0</tspan></text>
	</g>
</g>
<g fill="none" color="black" stroke="currentColor" stroke-width="1.00" stroke-linecap="butt" stroke-linejoin="miter">
	<path stroke='black'  d='M80.2,561.0 L89.2,561.0  '/>	<g transform="translate(71.9,564.9)" stroke="none" fill="black" font-family="Helvetica" font-size="12.00"  text-anchor="end">
		<text><tspan font-family="Helvetica" > 0.02</tspan></text>
	</g>
</g>
<g fill="none" color="black" stroke="currentColor" stroke-width="1.00" stroke-linecap="butt" stroke-linejoin="miter">
	<path stroke='black'  d='M80.2,459.6 L89.2,459.6  '/>	<g transform="translate(71.9,463.5)" stroke="none" fill="black" font-family="Helvetica" font-size="12.00"  text-anchor="end">
		<text><tspan font-family="Helvetica" > 0.04</tspan></text>
	</g>
</g>
<g fill="none" color="black" stroke="currentColor" stroke-width="1.00" stroke-linecap="butt" stroke-linejoin="miter">
	<path stroke='black'  d='M80.2,358.2 L89.2,358.2  '/>	<g transform="translate(71.9,362.1)" stroke="none" fill="black" font-family="Helvetica" font-size="12.00"  text-anchor="end">
		<text><tspan font-family="Helvetica" > 0.06</tspan></text>
	</g>
</g>
<g fill="none" color="black" stroke="currentColor" stroke-width="1.00" stroke-linecap="butt" stroke-linejoin="miter">
	<path stroke='black'  d='M80.2,256.9 L89.2,256.9  '/>	<g transform="translate(71.9,260.8)" stroke="none" fill="black" font-family="Helvetica" font-size="12.00"  text-anchor="end">
		<text><tspan font-family="Helvetica" > 0.08</tspan></text>
	</g>
</g>
<g fill="none" color="black" stroke="currentColor" stroke-width="1.00" stroke-linecap="butt" stroke-linejoin="miter">
	<path stroke='black'  d='M80.2,155.5 L89.2,155.5  '/>	<g transform="translate(71.9,159.4)" stroke="none" fill="black" font-family="Helvetica" font-size="12.00"  text-anchor="end">
		<text><tspan font-family="Helvetica" > 0.1</tspan></text>
	</g>
</g>
<g fill="none" color="black" stroke="currentColor" stroke-width="1.00" stroke-linecap="butt" stroke-linejoin="miter">
	<path stroke='black'  d='M80.2,54.1 L89.2,54.1  '/>	<g transform="translate(71.9,58.0)" stroke="none" fill="black" font-family="Helvetica" font-size="12.00"  text-anchor="end">
		<text><tspan font-family="Helvetica" > 0.12</tspan></text>
	</g>
</g>
<g fill="none" color="black" stroke="currentColor" stroke-width="1.00" stroke-linecap="butt" stroke-linejoin="miter">
	<path stroke='black'  d='M117.0,662.4 L117.0,653.4  '/>	<g transform="translate(117.0,684.3)" stroke="none" fill="black" font-family="Helvetica" font-size="12.00"  text-anchor="middle">
		<text><tspan font-family="Helvetica" > 5</tspan></text>
	</g>
</g>
<g fill="none" color="black" stroke="currentColor" stroke-width="1.00" stroke-linecap="butt" stroke-linejoin="miter">
	<path stroke='black'  d='M330.8,662.4 L330.8,653.4  '/>	<g transform="translate(330.8,684.3)" stroke="none" fill="black" font-family="Helvetica" font-size="12.00"  text-anchor="middle">
		<text><tspan font-family="Helvetica" > 10</tspan></text>
	</g>
</g>
<g fill="none" color="black" stroke="currentColor" stroke-width="1.00" stroke-linecap="butt" stroke-linejoin="miter">
	<path stroke='black'  d='M544.6,662.4 L544.6,653.4  '/>	<g transform="translate(544.6,684.3)" stroke="none" fill="black" font-family="Helvetica" font-size="12.00"  text-anchor="middle">
		<text><tspan font-family="Helvetica" > 15</tspan></text>
	</g>
</g>
<g fill="none" color="black" stroke="currentColor" stroke-width="1.00" stroke-linecap="butt" stroke-linejoin="miter">
	<path stroke='black'  d='M758.4,662.4 L758.4,653.4  '/>	<g transform="translate(758.4,684.3)" stroke="none" fill="black" font-family="Helvetica" font-size="12.00"  text-anchor="middle">
		<text><tspan font-family="Helvetica" > 20</tspan></text>
	</g>
</g>
<g fill="none" color="black" stroke="currentColor" stroke-width="1.00" stroke-linecap="butt" stroke-linejoin="miter">
	<path stroke='black'  d='M972.1,662.4 L972.1,653.4  '/>	<g transform="translate(972.1,684.3)" stroke="none" fill="black" font-family="Helvetica" font-size="12.00"  text-anchor="middle">
		<text><tspan font-family="Helvetica" > 25</tspan></text>
	</g>
</g>
<g fill="none" color="black" stroke="currentColor" stroke-width="1.00" stroke-linecap="butt" stroke-linejoin="miter">
</g>
<g fill="none" color="black" stroke="currentColor" stroke-width="1.00" stroke-linecap="butt" stroke-linejoin="miter">
	<path stroke='black'  d='M80.2,54.1 L80.2,662.4 L1013.6,662.4 L1013.6,54.1 L80.2,54.1 Z  '/></g>
<g fill="none" color="black" stroke="currentColor" stroke-width="1.00" stroke-linecap="butt" stroke-linejoin="miter">
	<g transform="translate(16.3,358.3) rotate(270)" stroke="none" fill="black" font-family="Helvetica" font-size="12.00"  text-anchor="middle">
		<text><tspan font-family="Helvetica" >Density (a.u.)</tspan></text>
	</g>
</g>
<g fill="none" color="black" stroke="currentColor" stroke-width="1.00" stroke-linecap="butt" stroke-linejoin="miter">
	<g transform="translate(546.9,711.3)" stroke="none" fill="black" font-family="Helvetica" font-size="12.00"  text-anchor="middle">
		<text><tspan font-family="Helvetica" >Average time (us)</tspan></text>
	</g>
</g>
<g fill="none" color="black" stroke="currentColor" stroke-width="1.00" stroke-linecap="butt" stroke-linejoin="miter">
	<g transform="translate(546.9,31.0)" stroke="none" fill="black" font-family="Helvetica" font-size="12.00"  text-anchor="middle">
		<text><tspan font-family="Helvetica" >snapshot_restore_with_dense/Sparse: Entire region + /proc/pid/mem/100: SD</tspan></text>
	</g>
</g>
	<g id="gnuplot_plot_1" ><title>Bootstrap distribution</title>
<g fill="none" color="white" stroke="black" stroke-width="2.00" stroke-linecap="butt" stroke-linejoin="miter">
</g>
<g fill="none" color="black" stroke="currentColor" stroke-width="2.00" stroke-linecap="butt" stroke-linejoin="miter">
	<g transform="translate(1089.0,67.0)" stroke="none" fill="black" font-family="Helvetica" font-size="12.00"  text-anchor="start">
		<text><tspan font-family="Helvetica" >Bootstrap distribution</tspan></text>
	</g>
</g>
<g fill="none" color="black" stroke="currentColor" stroke-width="2.00" stroke-linecap="butt" stroke-linejoin="miter">
	<path stroke='rgb( 31, 120, 180)'  d='M1038.5,63.1 L1080.7,63.1 M80.2,647.9 L82.1,646.9 L83.9,645.8 L85.8,644.6 L87.7,643.4 L89.6,642.1
		L91.4,640.7 L93.3,639.2 L95.2,637.7 L97.0,636.0 L98.9,634.3 L100.8,632.5 L102.6,630.5 L104.5,628.5
		L106.4,626.4 L108.3,624.2 L110.1,621.9 L112.0,619.5 L113.9,617.0 L115.7,614.4 L117.6,611.6 L119.5,608.8
		L121.4,605.9 L123.2,602.8 L125.1,599.6 L127.0,596.3 L128.8,592.9 L130.7,589.4 L132.6,585.8 L134.4,582.1
		L136.3,578.3 L138.2,574.3 L140.1,570.3 L141.9,566.2 L143.8,562.0 L145.7,557.7 L147.5,553.3 L149.4,548.9
		L151.3,544.3 L153.2,539.8 L155.0,535.2 L156.9,530.5 L158.8,525.8 L160.6,521.2 L162.5,516.5 L164.4,511.8
		L166.2,507.1 L168.1,502.5 L170.0,497.9 L171.9,493.4 L173.7,489.0 L175.6,484.7 L177.5,480.5 L179.3,476.4
		L181.2,472.4 L183.1,468.7 L185.0,465.1 L186.8,461.7 L188.7,458.5 L190.6,455.5 L192.4,452.7 L194.3,450.2
		L196.2,448.0 L198.0,446.0 L199.9,444.3 L201.8,442.8 L203.7,441.7 L205.5,440.8 L207.4,440.2 L209.3,439.9
		L211.1,439.9 L213.0,440.2 L214.9,440.7 L216.7,441.6 L218.6,442.7 L220.5,444.2 L222.4,445.9 L224.2,447.8
		L226.1,450.1 L228.0,452.5 L229.8,455.3 L231.7,458.2 L233.6,461.4 L235.5,464.8 L237.3,468.5 L239.2,472.3
		L241.1,476.3 L242.9,480.4 L244.8,484.7 L246.7,489.2 L248.5,493.8 L250.4,498.5 L252.3,503.3 L254.2,508.2
		L256.0,513.1 L257.9,518.1 L259.8,523.2 L261.6,528.2 L263.5,533.3 L265.4,538.3 L267.3,543.3 L269.1,548.2
		L271.0,553.0 L272.9,557.8 L274.7,562.4 L276.6,566.9 L278.5,571.3 L280.3,575.5 L282.2,579.5 L284.1,583.3
		L286.0,586.8 L287.8,590.2 L289.7,593.2 L291.6,595.9 L293.4,598.4 L295.3,600.5 L297.2,602.2 L299.1,603.6
		L300.9,604.6 L302.8,605.2 L304.7,605.3 L306.5,604.9 L308.4,604.1 L310.3,602.8 L312.1,601.0 L314.0,598.7
		L315.9,595.8 L317.8,592.4 L319.6,588.5 L321.5,584.0 L323.4,579.0 L325.2,573.4 L327.1,567.3 L329.0,560.6
		L330.9,553.5 L332.7,545.8 L334.6,537.7 L336.5,529.2 L338.3,520.2 L340.2,510.9 L342.1,501.2 L343.9,491.3
		L345.8,481.1 L347.7,470.8 L349.6,460.3 L351.4,449.8 L353.3,439.3 L355.2,428.8 L357.0,418.4 L358.9,408.3
		L360.8,398.4 L362.7,388.9 L364.5,379.8 L366.4,371.1 L368.3,363.0 L370.1,355.5 L372.0,348.6 L373.9,342.5
		L375.7,337.1 L377.6,332.4 L379.5,328.6 L381.4,325.7 L383.2,323.6 L385.1,322.3 L387.0,321.9 L388.8,322.3
		L390.7,323.5 L392.6,325.5 L394.5,328.1 L396.3,331.5 L398.2,335.4 L400.1,339.8 L401.9,344.6 L403.8,349.7
		L405.7,355.1 L407.5,360.6 L409.4,366.1 L411.3,371.5 L413.2,376.7 L415.0,381.6 L416.9,386.1 L418.8,390.1
		L420.6,393.5 L422.5,396.1 L424.4,398.0 L426.3,399.1 L428.1,399.2 L430.0,398.4 L431.9,396.5 L433.7,393.7
		L435.6,389.8 L437.5,384.9 L439.3,379.0 L441.2,372.1 L443.1,364.3 L445.0,355.6 L446.8,346.1 L448.7,335.9
		L450.6,325.1 L452.4,313.7 L454.3,301.9 L456.2,289.8 L458.0,277.5 L459.9,265.1 L461.8,252.8 L463.7,240.7
		L465.5,228.9 L467.4,217.5 L469.3,206.6 L471.1,196.5 L473.0,187.0 L474.9,178.5 L476.8,170.9 L478.6,164.4
		L480.5,158.9 L482.4,154.7 L484.2,151.6 L486.1,149.8 L488.0,149.3 L489.8,150.1 L491.7,152.2 L493.6,155.5
		L495.5,160.1 L497.3,165.9 L499.2,172.9 L501.1,180.9 L502.9,189.9 L504.8,199.9 L506.7,210.6 L508.6,222.1
		L510.4,234.1 L512.3,246.6 L514.2,259.3 L516.0,272.3 L517.9,285.2 L519.8,298.0 L521.6,310.5 L523.5,322.5
		L525.4,334.0 L527.3,344.6 L529.1,354.4 L531.0,363.1 L532.9,370.6 L534.7,376.9 L536.6,381.8 L538.5,385.2
		L540.4,387.1 L542.2,387.4 L544.1,386.1 L546.0,383.2 L547.8,378.8 L549.7,372.9 L551.6,365.5 L553.4,356.8
		L555.3,346.8 L557.2,335.8 L559.1,323.9 L560.9,311.2 L562.8,298.0 L564.7,284.4 L566.5,270.7 L568.4,257.1
		L570.3,243.7 L572.2,230.9 L574.0,218.7 L575.9,207.4 L577.8,197.1 L579.6,188.1 L581.5,180.4 L583.4,174.1
		L585.2,169.3 L587.1,166.0 L589.0,164.3 L590.9,164.2 L592.7,165.6 L594.6,168.4 L596.5,172.5 L598.3,177.9
		L600.2,184.4 L602.1,191.7 L604.0,199.8 L605.8,208.5 L607.7,217.5 L609.6,226.7 L611.4,235.8 L613.3,244.8
		L615.2,253.3 L617.0,261.3 L618.9,268.6 L620.8,275.0 L622.7,280.4 L624.5,284.9 L626.4,288.2 L628.3,290.4
		L630.1,291.4 L632.0,291.4 L633.9,290.2 L635.8,288.1 L637.6,285.0 L639.5,281.1 L641.4,276.5 L643.2,271.4
		L645.1,265.9 L647.0,260.1 L648.8,254.3 L650.7,248.6 L652.6,243.2 L654.5,238.2 L656.3,233.7 L658.2,230.0
		L660.1,227.2 L661.9,225.2 L663.8,224.4 L665.7,224.6 L667.5,225.9 L669.4,228.4 L671.3,232.1 L673.2,236.9
		L675.0,242.7 L676.9,249.5 L678.8,257.2 L680.6,265.6 L682.5,274.6 L684.4,284.1 L686.3,293.9 L688.1,303.7
		L690.0,313.6 L691.9,323.2 L693.7,332.4 L695.6,341.1 L697.5,349.1 L699.3,356.3 L701.2,362.5 L703.1,367.8
		L705.0,372.0 L706.8,375.0 L708.7,377.0 L710.6,377.9 L712.4,377.7 L714.3,376.5 L716.2,374.5 L718.1,371.8
		L719.9,368.4 L721.8,364.5 L723.7,360.3 L725.5,356.0 L727.4,351.7 L729.3,347.6 L731.1,343.7 L733.0,340.4
		L734.9,337.6 L736.8,335.6 L738.6,334.3 L740.5,333.8 L742.4,334.3 L744.2,335.6 L746.1,337.8 L748.0,340.8
		L749.9,344.6 L751.7,349.1 L753.6,354.2 L755.5,359.8 L757.3,365.8 L759.2,372.0 L761.1,378.3 L762.9,384.6
		L764.8,390.8 L766.7,396.8 L768.6,402.4 L770.4,407.7 L772.3,412.4 L774.2,416.6 L776.0,420.3 L777.9,423.4
		L779.8,425.9 L781.7,427.9 L783.5,429.4 L785.4,430.5 L787.3,431.2 L789.1,431.6 L791.0,431.9 L792.9,432.0
		L794.7,432.2 L796.6,432.5 L798.5,432.9 L800.4,433.6 L802.2,434.6 L804.1,436.0 L806.0,437.8 L807.8,440.1
		L809.7,442.8 L811.6,445.9 L813.5,449.5 L815.3,453.4 L817.2,457.7 L819.1,462.2 L820.9,466.9 L822.8,471.8
		L824.7,476.6 L826.5,481.5 L828.4,486.2 L830.3,490.7 L832.2,494.9 L834.0,498.8 L835.9,502.4 L837.8,505.5
		L839.6,508.3 L841.5,510.6 L843.4,512.5 L845.3,514.0 L847.1,515.2 L849.0,516.0 L850.9,516.6 L852.7,517.0
		L854.6,517.3 L856.5,517.5 L858.3,517.7 L860.2,518.0 L862.1,518.4 L864.0,519.0 L865.8,519.9 L867.7,521.0
		L869.6,522.3 L871.4,524.0 L873.3,525.9 L875.2,528.1 L877.1,530.6 L878.9,533.3 L880.8,536.1 L882.7,539.1
		L884.5,542.2 L886.4,545.3 L888.3,548.4 L890.1,551.5 L892.0,554.4 L893.9,557.2 L895.8,559.9 L897.6,562.4
		L899.5,564.7 L901.4,566.8 L903.2,568.7 L905.1,570.4 L907.0,572.0 L908.8,573.4 L910.7,574.7 L912.6,575.9
		L914.5,577.0 L916.3,578.1 L918.2,579.2 L920.1,580.4 L921.9,581.5 L923.8,582.8 L925.7,584.1 L927.6,585.5
		L929.4,587.0 L931.3,588.6 L933.2,590.3 L935.0,592.0 L936.9,593.7 L938.8,595.4 L940.6,597.2 L942.5,598.9
		L944.4,600.6 L946.3,602.2 L948.1,603.7 L950.0,605.2 L951.9,606.5 L953.7,607.7 L955.6,608.9 L957.5,609.9
		L959.4,610.8 L961.2,611.6 L963.1,612.4 L965.0,613.0 L966.8,613.7 L968.7,614.3 L970.6,614.9 L972.4,615.6
		L974.3,616.2 L976.2,616.9 L978.1,617.6 L979.9,618.3 L981.8,619.1 L983.7,620.0 L985.5,620.9 L987.4,621.8
		L989.3,622.8 L991.2,623.8 L993.0,624.8 L994.9,625.8 L996.8,626.8 L998.6,627.8 L1000.5,628.8 L1002.4,629.7
		L1004.2,630.6 L1006.1,631.5 L1008.0,632.3 L1009.9,633.0 L1011.7,633.8 L1013.6,634.5  '/></g>
	</g>
	<g id="gnuplot_plot_2" ><title>Confidence interval</title>
<g fill="none" color="white" stroke="rgb( 31, 120, 180)" stroke-width="1.00" stroke-linecap="butt" stroke-linejoin="miter">
</g>
<g fill="none" color="black" stroke="currentColor" stroke-width="1.00" stroke-linecap="butt" stroke-linejoin="miter">
	<g transform="translate(1089.0,85.0)" stroke="none" fill="black" font-family="Helvetica" font-size="12.00"  text-anchor="start">
		<text><tspan font-family="Helvetica" >Confidence interval</tspan></text>
	</g>
</g>
<g fill="none" color="black" stroke="currentColor" stroke-width="1.00" stroke-linecap="butt" stroke-linejoin="miter">
	<g stroke='none' shape-rendering='crispEdges'>
		<polygon fill = 'rgb( 31, 120, 180)' fill-opacity = '0.250000' points = '1038.5,85.6 1080.7,85.6 1080.7,76.6 1038.5,76.6 '/>
		<polygon fill = 'rgb( 31, 120, 180)' fill-opacity = '0.250000' points = '166.2,507.1 168.1,502.5 170.0,497.9 171.9,493.4 173.7,489.0 175.6,484.7 177.5,480.5 179.3,476.4 181.2,472.4 183.1,468.7 185.0,465.1 186.8,461.7 188.7,458.5 190.6,455.5 192.4,452.7 194.3,450.2
196.2,448.0 198.0,446.0 199.9,444.3 201.8,442.8 203.7,441.7 205.5,440.8 207.4,440.2 209.3,439.9 211.1,439.9 213.0,440.2 214.9,440.7 216.7,441.6 218.6,442.7 220.5,444.2 222.4,445.9 224.2,447.8
226.1,450.1 228.0,452.5 229.8,455.3 231.7,458.2 233.6,461.4 235.5,464.8 237.3,468.5 239.2,472.3 241.1,476.3 242.9,480.4 244.8,484.7 246.7,489.2 248.5,493.8 250.4,498.5 252.3,503.3 254.2,508.2
256.0,513.1 257.9,518.1 259.8,523.2 261.6,528.2 263.5,533.3 265.4,538.3 267.3,543.3 269.1,548.2 271.0,553.0 272.9,557.8 274.7,562.4 276.6,566.9 278.5,571.3 280.3,575.5 282.2,579.5 284.1,583.3
286.0,586.8 287.8,590.2 289.7,593.2 291.6,595.9 293.4,598.4 295.3,600.5 297.2,602.2 299.1,603.6 300.9,604.6 302.8,605.2 304.7,605.3 306.5,604.9 308.4,604.1 310.3,602.8 312.1,601.0 314.0,598.7
315.9,595.8 317.8,592.4 319.6,588.5 321.5,584.0 323.4,579.0 325.2,573.4 327.1,567.3 329.0,560.6 330.9,553.5 332.7,545.8 334.6,537.7 336.5,529.2 338.3,520.2 340.2,510.9 342.1,501.2 343.9,491.3
345.8,481.1 347.7,470.8 349.6,460.3 351.4,449.8 353.3,439.3 355.2,428.8 357.0,418.4 358.9,408.3 360.8,398.4 362.7,388.9 364.5,379.8 366.4,371.1 368.3,363.0 370.1,355.5 372.0,348.6 373.9,342.5
375.7,337.1 377.6,332.4 379.5,328.6 381.4,325.7 383.2,323.6 385.1,322.3 387.0,321.9 388.8,322.3 390.7,323.5 392.6,325.5 394.5,328.1 396.3,331.5 398.2,335.4 400.1,339.8 401.9,344.6 403.8,349.7
405.7,355.1 407.5,360.6 409.4,366.1 411.3,371.5 413.2,376.7 415.0,381.6 416.9,386.1 418.8,390.1 420.6,393.5 422.5,396.1 424.4,398.0 426.3,399.1 428.1,399.2 430.0,398.4 431.9,396.5 433.7,393.7
435.6,389.8 437.5,384.9 439.3,379.0 441.2,372.1 443.1,364.3 445.0,355.6 446.8,346.1 448.7,335.9 450.6,325.1 452.4,313.7 454.3,301.9 456.2,289.8 458.0,277.5 459.9,265.1 461.8,252.8 463.7,240.7
465.5,228.9 467.4,217.5 469.3,206.6 471.1,196.5 473.0,187.0 474.9,178.5 476.8,170.9 478.6,164.4 480.5,158.9 482.4,154.7 484.2,151.6 486.1,149.8 488.0,149.3 489.8,150.1 491.7,152.2 493.6,155.5
495.5,160.1 497.3,165.9 499.2,172.9 501.1,180.9 502.9,189.9 504.8,199.9 506.7,210.6 508.6,222.1 510.4,234.1 512.3,246.6 514.2,259.3 516.0,272.3 517.9,285.2 519.8,298.0 521.6,310.5 523.5,322.5
525.4,334.0 527.3,344.6 529.1,354.4 531.0,363.1 532.9,370.6 534.7,376.9 536.6,381.8 538.5,385.2 540.4,387.1 542.2,387.4 544.1,386.1 546.0,383.2 547.8,378.8 549.7,372.9 551.6,365.5 553.4,356.8
555.3,346.8 557.2,335.8 559.1,323.9 560.9,311.2 562.8,298.0 564.7,284.4 566.5,270.7 568.4,257.1 570.3,243.7 572.2,230.9 574.0,218.7 575.9,207.4 577.8,197.1 579.6,188.1 581.5,180.4 583.4,174.1
585.2,169.3 587.1,166.0 589.0,164.3 590.9,164.2 592.7,165.6 594.6,168.4 596.5,172.5 598.3,177.9 600.2,184.4 602.1,191.7 604.0,199.8 605.8,208.5 607.7,217.5 609.6,226.7 611.4,235.8 613.3,244.8
615.2,253.3 617.0,261.3 618.9,268.6 620.8,275.0 622.7,280.4 624.5,284.9 626.4,288.2 628.3,290.4 630.1,291.4 632.0,291.4 633.9,290.2 635.8,288.1 637.6,285.0 639.5,281.1 641.4,276.5 643.2,271.4
645.1,265.9 647.0,260.1 648.8,254.3 650.7,248.6 652.6,243.2 654.5,238.2 656.3,233.7 658.2,230.0 660.1,227.2 661.9,225.2 663.8,224.4 665.7,224.6 667.5,225.9 669.4,228.4 671.3,232.1 673.2,236.9
675.0,242.7 676.9,249.5 678.8,257.2 680.6,265.6 682.5,274.6 684.4,284.1 686.3,293.9 688.1,303.7 690.0,313.6 691.9,323.2 693.7,332.4 695.6,341.1 697.5,349.1 699.3,356.3 701.2,362.5 703.1,367.8
705.0,372.0 706.8,375.0 708.7,377.0 710.6,377.9 712.4,377.7 714.3,376.5 716.2,374.5 718.1,371.8 719.9,368.4 721.8,364.5 723.7,360.3 725.5,356.0 727.4,351.7 729.3,347.6 731.1,343.7 733.0,340.4
734.9,337.6 736.8,335.6 738.6,334.3 740.5,333.8 742.4,334.3 744.2,335.6 746.1,337.8 748.0,340.8 749.9,344.6 751.7,349.1 753.6,354.2 755.5,359.8 757.3,365.8 759.2,372.0 761.1,378.3 762.9,384.6
764.8,390.8 766.7,396.8 768.6,402.4 770.4,407.7 772.3,412.4 774.2,416.6 776.0,420.3 777.9,423.4 779.8,425.9 781.7,427.9 783.5,429.4 785.4,430.5 787.3,431.2 789.1,431.6 791.0,431.9 792.9,432.0
794.7,432.2 796.6,432.5 798.5,432.9 800.4,433.6 802.2,434.6 804.1,436.0 806.0,437.8 807.8,440.1 809.7,442.8 811.6,445.9 813.5,449.5 815.3,453.4 817.2,457.7 819.1,462.2 820.9,466.9 822.8,471.8
824.7,476.6 826.5,481.5 828.4,486.2 830.3,490.7 832.2,494.9 834.0,498.8 835.9,502.4 837.8,505.5 839.6,508.3 841.5,510.6 843.4,512.5 845.3,514.0 847.1,515.2 849.0,516.0 850.9,516.6 852.7,517.0
854.6,517.3 856.5,517.5 858.3,517.7 860.2,518.0 862.1,518.4 864.0,519.0 865.8,519.9 867.7,521.0 869.6,522.3 871.4,524.0 873.3,525.9 875.2,528.1 877.1,530.6 878.9,533.3 880.8,536.1 882.7,539.1
884.5,542.2 886.4,545.3 888.3,548.4 890.1,551.5 892.0,554.4 893.9,557.2 895.8,559.9 897.6,562.4 899.5,564.7 901.4,566.8 903.2,568.7 905.1,570.4 907.0,572.0 908.8,573.4 910.7,574.7 912.6,575.9
914.5,577.0 916.3,578.1 918.2,579.2 920.1,580.4 921.9,581.5 923.8,582.8 925.7,584.1 925.7,662.4 923.8,662.4 921.9,662.4 920.1,662.4 918.2,662.4 916.3,662.4 914.5,662.4 912.6,662.4 910.7,662.4
908.8,662.4 907.0,662.4 905.1,662.4 903.2,662.4 901.4,662.4 899.5,662.4 897.6,662.4 895.8,662.4 893.9,662.4 892.0,662.4 890.1,662.4 888.3,662.4 886.4,662.4 884.5,662.4 882.7,662.4 880.8,662.4
878.9,662.4 877.1,662.4 875.2,662.4 873.3,662.4 871.4,662.4 869.6,662.4 867.7,662.4 865.8,662.4 864.0,662.4 862.1,662.4 860.2,662.4 858.3,662.4 856.5,662.4 854.6,662.4 852.7,662.4 850.9,662.4
849.0,662.4 847.1,662.4 845.3,662.4 843.4,662.4 841.5,662.4 839.6,662.4 837.8,662.4 835.9,662.4 834.0,662.4 832.2,662.4 830.3,662.4 828.4,662.4 826.5,662.4 824.7,662.4 822.8,662.4 820.9,662.4
819.1,662.4 817.2,662.4 815.3,662.4 813.5,662.4 811.6,662.4 809.7,662.4 807.8,662.4 806.0,662.4 804.1,662.4 802.2,662.4 800.4,662.4 798.5,662.4 796.6,662.4 794.7,662.4 792.9,662.4 791.0,662.4
789.1,662.4 787.3,662.4 785.4,662.4 783.5,662.4 781.7,662.4 779.8,662.4 777.9,662.4 776.0,662.4 774.2,662.4 772.3,662.4 770.4,662.4 768.6,662.4 766.7,662.4 764.8,662.4 762.9,662.4 761.1,662.4
759.2,662.4 757.3,662.4 755.5,662.4 753.6,662.4 751.7,662.4 749.9,662.4 748.0,662.4 746.1,662.4 744.2,662.4 742.4,662.4 740.5,662.4 738.6,662.4 736.8,662.4 734.9,662.4 733.0,662.4 731.1,662.4
729.3,662.4 727.4,662.4 725.5,662.4 723.7,662.4 721.8,662.4 719.9,662.4 718.1,662.4 716.2,662.4 714.3,662.4 712.4,662.4 710.6,662.4 708.7,662.4 706.8,662.4 705.0,662.4 703.1,662.4 701.2,662.4
699.3,662.4 697.5,662.4 695.6,662.4 693.7,662.4 691.9,662.4 690.0,662.4 688.1,662.4 686.3,662.4 684.4,662.4 682.5,662.4 680.6,662.4 678.8,662.4 676.9,662.4 675.0,662.4 673.2,662.4 671.3,662.4
669.4,662.4 667.5,662.4 665.7,662.4 663.8,662.4 661.9,662.4 660.1,662.4 658.2,662.4 656.3,662.4 654.5,662.4 652.6,662.4 650.7,662.4 648.8,662.4 647.0,662.4 645.1,662.4 643.2,662.4 641.4,662.4
639.5,662.4 637.6,662.4 635.8,662.4 633.9,662.4 632.0,662.4 630.1,662.4 628.3,662.4 626.4,662.4 624.5,662.4 622.7,662.4 620.8,662.4 618.9,662.4 617.0,662.4 615.2,662.4 613.3,662.4 611.4,662.4
609.6,662.4 607.7,662.4 605.8,662.4 604.0,662.4 602.1,662.4 600.2,662.4 598.3,662.4 596.5,662.4 594.6,662.4 592.7,662.4 590.9,662.4 589.0,662.4 587.1,662.4 585.2,662.4 583.4,662.4 581.5,662.4
579.6,662.4 577.8,662.4 575.9,662.4 574.0,662.4 572.2,662.4 570.3,662.4 568.4,662.4 566.5,662.4 564.7,662.4 562.8,662.4 560.9,662.4 559.1,662.4 557.2,662.4 555.3,662.4 553.4,662.4 551.6,662.4
549.7,662.4 547.8,662.4 546.0,662.4 544.1,662.4 542.2,662.4 540.4,662.4 538.5,662.4 536.6,662.4 534.7,662.4 532.9,662.4 531.0,662.4 529.1,662.4 527.3,662.4 525.4,662.4 523.5,662.4 521.6,662.4
519.8,662.4 517.9,662.4 516.0,662.4 514.2,662.4 512.3,662.4 510.4,662.4 508.6,662.4 506.7,662.4 504.8,662.4 502.9,662.4 501.1,662.4 499.2,662.4 497.3,662.4 495.5,662.4 493.6,662.4 491.7,662.4
489.8,662.4 488.0,662.4 486.1,662.4 484.2,662.4 482.4,662.4 480.5,662.4 478.6,662.4 476.8,662.4 474.9,662.4 473.0,662.4 471.1,662.4 469.3,662.4 467.4,662.4 465.5,662.4 463.7,662.4 461.8,662.4
459.9,662.4 458.0,662.4 456.2,662.4 454.3,662.4 452.4,662.4 450.6,662.4 448.7,662.4 446.8,662.4 445.0,662.4 443.1,662.4 441.2,662.4 439.3,662.4 437.5,662.4 435.6,662.4 433.7,662.4 431.9,662.4
430.0,662.4 428.1,662.4 426.3,662.4 424.4,662.4 422.5,662.4 420.6,662.4 418.8,662.4 416.9,662.4 415.0,662.4 413.2,662.4 411.3,662.4 409.4,662.4 407.5,662.4 405.7,662.4 403.8,662.4 401.9,662.4
400.1,662.4 398.2,662.4 396.3,662.4 394.5,662.4 392.6,662.4 390.7,662.4 388.8,662.4 387.0,662.4 385.1,662.4 383.2,662.4 381.4,662.4 379.5,662.4 377.6,662.4 375.7,662.4 373.9,662.4 372.0,662.4
370.1,662.4 368.3,662.4 366.4,662.4 364.5,662.4 362.7,662.4 360.8,662.4 358.9,662.4 357.0,662.4 355.2,662.4 353.3,662.4 351.4,662.4 349.6,662.4 347.7,662.4 345.8,662.4 343.9,662.4 342.1,662.4
340.2,662.4 338.3,662.4 336.5,662.4 334.6,662.4 332.7,662.4 330.9,662.4 329.0,662.4 327.1,662.4 325.2,662.4 323.4,662.4 321.5,662.4 319.6,662.4 317.8,662.4 315.9,662.4 314.0,662.4 312.1,662.4
310.3,662.4 308.4,662.4 306.5,662.4 304.7,662.4 302.8,662.4 300.9,662.4 299.1,662.4 297.2,662.4 295.3,662.4 293.4,662.4 291.6,662.4 289.7,662.4 287.8,662.4 286.0,662.4 284.1,662.4 282.2,662.4
280.3,662.4 278.5,662.4 276.6,662.4 274.7,662.4 272.9,662.4 271.0,662.4 269.1,662.4 267.3,662.4 265.4,662.4 263.5,662.4 261.6,662.4 259.8,662.4 257.9,662.4 256.0,662.4 254.2,662.4 252.3,662.4
250.4,662.4 248.5,662.4 246.7,662.4 244.8,662.4 242.9,662.4 241.1,662.4 239.2,662.4 237.3,662.4 235.5,662.4 233.6,662.4 231.7,662.4 229.8,662.4 228.0,662.4 226.1,662.4 224.2,662.4 222.4,662.4
220.5,662.4 218.6,662.4 216.7,662.4 214.9,662.4 213.0,662.4 211.1,662.4 209.3,662.4 207.4,662.4 205.5,662.4 203.7,662.4 201.8,662.4 199.9,662.4 198.0,662.4 196.2,662.4 194.3,662.4 192.4,662.4
190.6,662.4 188.7,662.4 186.8,662.4 185.0,662.4 183.1,662.4 181.2,662.4 179.3,662.4 177.5,662.4 175.6,662.4 173.7,662.4 171.9,662.4 170.0,662.4 168.1,662.4 166.2,662.4 '/>
	</g>
</g>
	</g>
	<g id="gnuplot_plot_3" ><title>Point estimate</title>
<g fill="none" color="white" stroke="rgb( 31, 120, 180)" stroke-width="2.00" stroke-linecap="butt" stroke-linejoin="miter">
</g>
<g fill="none" color="black" stroke="currentColor" stroke-width="2.00" stroke-linecap="butt" stroke-linejoin="miter">
	<g transform="translate(1089.0,103.0)" stroke="none" fill="black" font-family="Helvetica" font-size="12.00"  text-anchor="start">
		<text><tspan font-family="Helvetica" >Point estimate</tspan></text>
	</g>
</g>
<g fill="none" color="black" stroke="currentColor" stroke-width="2.00" stroke-linecap="butt" stroke-linejoin="miter">
	<path stroke='rgb( 31, 120, 180)'  d='M1038.5,99.1 L1080.7,99.1 M587.3,662.4 L587.3,165.9  '/></g>
	</g>
<g fill="none" color="black" stroke="currentColor" stroke-width="2.00" stroke-linecap="butt" stroke-linejoin="miter">
</g>
<g fill="none" color="black" stroke="black" stroke-width="1.00" stroke-linecap="butt" stroke-linejoin="miter">
</g>
<g fill="none" color="black" stroke="currentColor" stroke-width="1.00" stroke-linecap="butt" stroke-linejoin="miter">
	<path stroke='black'  d='M80.2,54.1 L80.2,662.4 L1013.6,662.4 L1013.6,54.1 L80.2,54.1 Z  '/></g>
<g fill="none" color="black" stroke="currentColor" stroke-width="1.00" stroke-linecap="butt" stroke-linejoin="miter">
</g>
</g>
</svg>

