group,function,value,throughput_num,throughput_type,sample_measured_value,unit,iteration_count
snapshot_restore_with_dense,Dense: Entire region + /proc/pid/mem,5,,,1074332.0,ns,24
snapshot_restore_with_dense,Dense: Entire region + /proc/pid/mem,5,,,2061168.0,ns,48
snapshot_restore_with_dense,Dense: Entire region + /proc/pid/mem,5,,,3090884.0,ns,72
snapshot_restore_with_dense,Dense: Entire region + /proc/pid/mem,5,,,4117785.0,ns,96
snapshot_restore_with_dense,Dense: Entire region + /proc/pid/mem,5,,,5834330.0,ns,120
snapshot_restore_with_dense,Dense: Entire region + /proc/pid/mem,5,,,6140127.0,ns,144
snapshot_restore_with_dense,Dense: Entire region + /proc/pid/mem,5,,,8668398.0,ns,168
snapshot_restore_with_dense,Dense: Entire region + /proc/pid/mem,5,,,8680858.0,ns,192
snapshot_restore_with_dense,Dense: Entire region + /proc/pid/mem,5,,,9675039.0,ns,216
snapshot_restore_with_dense,Dense: Entire region + /proc/pid/mem,5,,,10653095.0,ns,240
snapshot_restore_with_dense,Dense: Entire region + /proc/pid/mem,5,,,11464344.0,ns,264
snapshot_restore_with_dense,Dense: Entire region + /proc/pid/mem,5,,,12378228.0,ns,288
snapshot_restore_with_dense,Dense: Entire region + /proc/pid/mem,5,,,13286402.0,ns,312
snapshot_restore_with_dense,Dense: Entire region + /proc/pid/mem,5,,,14311426.0,ns,336
snapshot_restore_with_dense,Dense: Entire region + /proc/pid/mem,5,,,15336654.0,ns,360
snapshot_restore_with_dense,Dense: Entire region + /proc/pid/mem,5,,,16715674.0,ns,384
snapshot_restore_with_dense,Dense: Entire region + /proc/pid/mem,5,,,17395755.0,ns,408
snapshot_restore_with_dense,Dense: Entire region + /proc/pid/mem,5,,,18387383.0,ns,432
snapshot_restore_with_dense,Dense: Entire region + /proc/pid/mem,5,,,19398044.0,ns,456
snapshot_restore_with_dense,Dense: Entire region + /proc/pid/mem,5,,,20427217.0,ns,480
snapshot_restore_with_dense,Dense: Entire region + /proc/pid/mem,5,,,21467392.0,ns,504
snapshot_restore_with_dense,Dense: Entire region + /proc/pid/mem,5,,,22533350.0,ns,528
snapshot_restore_with_dense,Dense: Entire region + /proc/pid/mem,5,,,23568780.0,ns,552
snapshot_restore_with_dense,Dense: Entire region + /proc/pid/mem,5,,,24511105.0,ns,576
snapshot_restore_with_dense,Dense: Entire region + /proc/pid/mem,5,,,25546275.0,ns,600
snapshot_restore_with_dense,Dense: Entire region + /proc/pid/mem,5,,,26624751.0,ns,624
snapshot_restore_with_dense,Dense: Entire region + /proc/pid/mem,5,,,27578106.0,ns,648
snapshot_restore_with_dense,Dense: Entire region + /proc/pid/mem,5,,,28608037.0,ns,672
snapshot_restore_with_dense,Dense: Entire region + /proc/pid/mem,5,,,29650489.0,ns,696
snapshot_restore_with_dense,Dense: Entire region + /proc/pid/mem,5,,,30730408.0,ns,720
snapshot_restore_with_dense,Dense: Entire region + /proc/pid/mem,5,,,31683431.0,ns,744
snapshot_restore_with_dense,Dense: Entire region + /proc/pid/mem,5,,,32726529.0,ns,768
snapshot_restore_with_dense,Dense: Entire region + /proc/pid/mem,5,,,33801338.0,ns,792
snapshot_restore_with_dense,Dense: Entire region + /proc/pid/mem,5,,,34771152.0,ns,816
snapshot_restore_with_dense,Dense: Entire region + /proc/pid/mem,5,,,35753514.0,ns,840
snapshot_restore_with_dense,Dense: Entire region + /proc/pid/mem,5,,,36861829.0,ns,864
snapshot_restore_with_dense,Dense: Entire region + /proc/pid/mem,5,,,37862725.0,ns,888
snapshot_restore_with_dense,Dense: Entire region + /proc/pid/mem,5,,,38857113.0,ns,912
snapshot_restore_with_dense,Dense: Entire region + /proc/pid/mem,5,,,39901576.0,ns,936
snapshot_restore_with_dense,Dense: Entire region + /proc/pid/mem,5,,,40880498.0,ns,960
snapshot_restore_with_dense,Dense: Entire region + /proc/pid/mem,5,,,41984153.0,ns,984
snapshot_restore_with_dense,Dense: Entire region + /proc/pid/mem,5,,,42932095.0,ns,1008
snapshot_restore_with_dense,Dense: Entire region + /proc/pid/mem,5,,,43977501.0,ns,1032
snapshot_restore_with_dense,Dense: Entire region + /proc/pid/mem,5,,,44987210.0,ns,1056
snapshot_restore_with_dense,Dense: Entire region + /proc/pid/mem,5,,,46029022.0,ns,1080
snapshot_restore_with_dense,Dense: Entire region + /proc/pid/mem,5,,,47208021.0,ns,1104
snapshot_restore_with_dense,Dense: Entire region + /proc/pid/mem,5,,,48016583.0,ns,1128
snapshot_restore_with_dense,Dense: Entire region + /proc/pid/mem,5,,,49152793.0,ns,1152
snapshot_restore_with_dense,Dense: Entire region + /proc/pid/mem,5,,,50035694.0,ns,1176
snapshot_restore_with_dense,Dense: Entire region + /proc/pid/mem,5,,,51203454.0,ns,1200
snapshot_restore_with_dense,Dense: Entire region + /proc/pid/mem,5,,,52088250.0,ns,1224
snapshot_restore_with_dense,Dense: Entire region + /proc/pid/mem,5,,,53162325.0,ns,1248
snapshot_restore_with_dense,Dense: Entire region + /proc/pid/mem,5,,,54143403.0,ns,1272
snapshot_restore_with_dense,Dense: Entire region + /proc/pid/mem,5,,,55211153.0,ns,1296
snapshot_restore_with_dense,Dense: Entire region + /proc/pid/mem,5,,,56209165.0,ns,1320
snapshot_restore_with_dense,Dense: Entire region + /proc/pid/mem,5,,,57194423.0,ns,1344
snapshot_restore_with_dense,Dense: Entire region + /proc/pid/mem,5,,,58255947.0,ns,1368
snapshot_restore_with_dense,Dense: Entire region + /proc/pid/mem,5,,,59326403.0,ns,1392
snapshot_restore_with_dense,Dense: Entire region + /proc/pid/mem,5,,,60398626.0,ns,1416
snapshot_restore_with_dense,Dense: Entire region + /proc/pid/mem,5,,,61326995.0,ns,1440
snapshot_restore_with_dense,Dense: Entire region + /proc/pid/mem,5,,,62376282.0,ns,1464
snapshot_restore_with_dense,Dense: Entire region + /proc/pid/mem,5,,,63385469.0,ns,1488
snapshot_restore_with_dense,Dense: Entire region + /proc/pid/mem,5,,,64453822.0,ns,1512
snapshot_restore_with_dense,Dense: Entire region + /proc/pid/mem,5,,,65754881.0,ns,1536
snapshot_restore_with_dense,Dense: Entire region + /proc/pid/mem,5,,,66563555.0,ns,1560
snapshot_restore_with_dense,Dense: Entire region + /proc/pid/mem,5,,,67457723.0,ns,1584
snapshot_restore_with_dense,Dense: Entire region + /proc/pid/mem,5,,,68559388.0,ns,1608
snapshot_restore_with_dense,Dense: Entire region + /proc/pid/mem,5,,,69505447.0,ns,1632
snapshot_restore_with_dense,Dense: Entire region + /proc/pid/mem,5,,,70491456.0,ns,1656
snapshot_restore_with_dense,Dense: Entire region + /proc/pid/mem,5,,,71569381.0,ns,1680
snapshot_restore_with_dense,Dense: Entire region + /proc/pid/mem,5,,,72584215.0,ns,1704
snapshot_restore_with_dense,Dense: Entire region + /proc/pid/mem,5,,,73540374.0,ns,1728
snapshot_restore_with_dense,Dense: Entire region + /proc/pid/mem,5,,,74637046.0,ns,1752
snapshot_restore_with_dense,Dense: Entire region + /proc/pid/mem,5,,,75629028.0,ns,1776
snapshot_restore_with_dense,Dense: Entire region + /proc/pid/mem,5,,,76708901.0,ns,1800
snapshot_restore_with_dense,Dense: Entire region + /proc/pid/mem,5,,,77617506.0,ns,1824
snapshot_restore_with_dense,Dense: Entire region + /proc/pid/mem,5,,,78891927.0,ns,1848
snapshot_restore_with_dense,Dense: Entire region + /proc/pid/mem,5,,,79924148.0,ns,1872
snapshot_restore_with_dense,Dense: Entire region + /proc/pid/mem,5,,,80960262.0,ns,1896
snapshot_restore_with_dense,Dense: Entire region + /proc/pid/mem,5,,,81886270.0,ns,1920
snapshot_restore_with_dense,Dense: Entire region + /proc/pid/mem,5,,,82783263.0,ns,1944
snapshot_restore_with_dense,Dense: Entire region + /proc/pid/mem,5,,,83900360.0,ns,1968
snapshot_restore_with_dense,Dense: Entire region + /proc/pid/mem,5,,,84828313.0,ns,1992
snapshot_restore_with_dense,Dense: Entire region + /proc/pid/mem,5,,,85863255.0,ns,2016
snapshot_restore_with_dense,Dense: Entire region + /proc/pid/mem,5,,,86851567.0,ns,2040
snapshot_restore_with_dense,Dense: Entire region + /proc/pid/mem,5,,,87949581.0,ns,2064
snapshot_restore_with_dense,Dense: Entire region + /proc/pid/mem,5,,,88926227.0,ns,2088
snapshot_restore_with_dense,Dense: Entire region + /proc/pid/mem,5,,,89936684.0,ns,2112
snapshot_restore_with_dense,Dense: Entire region + /proc/pid/mem,5,,,91220501.0,ns,2136
snapshot_restore_with_dense,Dense: Entire region + /proc/pid/mem,5,,,92025421.0,ns,2160
snapshot_restore_with_dense,Dense: Entire region + /proc/pid/mem,5,,,93048973.0,ns,2184
snapshot_restore_with_dense,Dense: Entire region + /proc/pid/mem,5,,,94047697.0,ns,2208
snapshot_restore_with_dense,Dense: Entire region + /proc/pid/mem,5,,,95094933.0,ns,2232
snapshot_restore_with_dense,Dense: Entire region + /proc/pid/mem,5,,,96107491.0,ns,2256
snapshot_restore_with_dense,Dense: Entire region + /proc/pid/mem,5,,,97111337.0,ns,2280
snapshot_restore_with_dense,Dense: Entire region + /proc/pid/mem,5,,,98089992.0,ns,2304
snapshot_restore_with_dense,Dense: Entire region + /proc/pid/mem,5,,,99157058.0,ns,2328
snapshot_restore_with_dense,Dense: Entire region + /proc/pid/mem,5,,,100474480.0,ns,2352
snapshot_restore_with_dense,Dense: Entire region + /proc/pid/mem,5,,,101409069.0,ns,2376
snapshot_restore_with_dense,Dense: Entire region + /proc/pid/mem,5,,,102298195.0,ns,2400
