group,function,value,throughput_num,throughput_type,sample_measured_value,unit,iteration_count
snapshot_restore_with_dense,Dense: Entire region + process_vm_writev w/ page size,46,,,1056745.0,ns,32
snapshot_restore_with_dense,Dense: Entire region + process_vm_writev w/ page size,46,,,2023565.0,ns,64
snapshot_restore_with_dense,Dense: Entire region + process_vm_writev w/ page size,46,,,3055577.0,ns,96
snapshot_restore_with_dense,Dense: Entire region + process_vm_writev w/ page size,46,,,4096045.0,ns,128
snapshot_restore_with_dense,Dense: Entire region + process_vm_writev w/ page size,46,,,5190024.0,ns,160
snapshot_restore_with_dense,Dense: Entire region + process_vm_writev w/ page size,46,,,6114879.0,ns,192
snapshot_restore_with_dense,Dense: Entire region + process_vm_writev w/ page size,46,,,7321564.0,ns,224
snapshot_restore_with_dense,Dense: Entire region + process_vm_writev w/ page size,46,,,8607974.0,ns,256
snapshot_restore_with_dense,Dense: Entire region + process_vm_writev w/ page size,46,,,9495945.0,ns,288
snapshot_restore_with_dense,Dense: Entire region + process_vm_writev w/ page size,46,,,10245252.0,ns,320
snapshot_restore_with_dense,Dense: Entire region + process_vm_writev w/ page size,46,,,11204235.0,ns,352
snapshot_restore_with_dense,Dense: Entire region + process_vm_writev w/ page size,46,,,12230515.0,ns,384
snapshot_restore_with_dense,Dense: Entire region + process_vm_writev w/ page size,46,,,13189201.0,ns,416
snapshot_restore_with_dense,Dense: Entire region + process_vm_writev w/ page size,46,,,14323172.0,ns,448
snapshot_restore_with_dense,Dense: Entire region + process_vm_writev w/ page size,46,,,15288417.0,ns,480
snapshot_restore_with_dense,Dense: Entire region + process_vm_writev w/ page size,46,,,16193387.0,ns,512
snapshot_restore_with_dense,Dense: Entire region + process_vm_writev w/ page size,46,,,17224453.0,ns,544
snapshot_restore_with_dense,Dense: Entire region + process_vm_writev w/ page size,46,,,18384283.0,ns,576
snapshot_restore_with_dense,Dense: Entire region + process_vm_writev w/ page size,46,,,19252375.0,ns,608
snapshot_restore_with_dense,Dense: Entire region + process_vm_writev w/ page size,46,,,20340001.0,ns,640
snapshot_restore_with_dense,Dense: Entire region + process_vm_writev w/ page size,46,,,21267015.0,ns,672
snapshot_restore_with_dense,Dense: Entire region + process_vm_writev w/ page size,46,,,22290514.0,ns,704
snapshot_restore_with_dense,Dense: Entire region + process_vm_writev w/ page size,46,,,23304243.0,ns,736
snapshot_restore_with_dense,Dense: Entire region + process_vm_writev w/ page size,46,,,24464812.0,ns,768
snapshot_restore_with_dense,Dense: Entire region + process_vm_writev w/ page size,46,,,25327412.0,ns,800
snapshot_restore_with_dense,Dense: Entire region + process_vm_writev w/ page size,46,,,26347078.0,ns,832
snapshot_restore_with_dense,Dense: Entire region + process_vm_writev w/ page size,46,,,27426989.0,ns,864
snapshot_restore_with_dense,Dense: Entire region + process_vm_writev w/ page size,46,,,28433939.0,ns,896
snapshot_restore_with_dense,Dense: Entire region + process_vm_writev w/ page size,46,,,29408603.0,ns,928
snapshot_restore_with_dense,Dense: Entire region + process_vm_writev w/ page size,46,,,30363409.0,ns,960
snapshot_restore_with_dense,Dense: Entire region + process_vm_writev w/ page size,46,,,31483691.0,ns,992
snapshot_restore_with_dense,Dense: Entire region + process_vm_writev w/ page size,46,,,33453488.0,ns,1024
snapshot_restore_with_dense,Dense: Entire region + process_vm_writev w/ page size,46,,,33616936.0,ns,1056
snapshot_restore_with_dense,Dense: Entire region + process_vm_writev w/ page size,46,,,34534370.0,ns,1088
snapshot_restore_with_dense,Dense: Entire region + process_vm_writev w/ page size,46,,,35602628.0,ns,1120
snapshot_restore_with_dense,Dense: Entire region + process_vm_writev w/ page size,46,,,36497415.0,ns,1152
snapshot_restore_with_dense,Dense: Entire region + process_vm_writev w/ page size,46,,,37579224.0,ns,1184
snapshot_restore_with_dense,Dense: Entire region + process_vm_writev w/ page size,46,,,38527037.0,ns,1216
snapshot_restore_with_dense,Dense: Entire region + process_vm_writev w/ page size,46,,,39474891.0,ns,1248
snapshot_restore_with_dense,Dense: Entire region + process_vm_writev w/ page size,46,,,40618987.0,ns,1280
snapshot_restore_with_dense,Dense: Entire region + process_vm_writev w/ page size,46,,,41851812.0,ns,1312
snapshot_restore_with_dense,Dense: Entire region + process_vm_writev w/ page size,46,,,42604105.0,ns,1344
snapshot_restore_with_dense,Dense: Entire region + process_vm_writev w/ page size,46,,,43689860.0,ns,1376
snapshot_restore_with_dense,Dense: Entire region + process_vm_writev w/ page size,46,,,44558342.0,ns,1408
snapshot_restore_with_dense,Dense: Entire region + process_vm_writev w/ page size,46,,,45652753.0,ns,1440
snapshot_restore_with_dense,Dense: Entire region + process_vm_writev w/ page size,46,,,46651333.0,ns,1472
snapshot_restore_with_dense,Dense: Entire region + process_vm_writev w/ page size,46,,,47743182.0,ns,1504
snapshot_restore_with_dense,Dense: Entire region + process_vm_writev w/ page size,46,,,48677072.0,ns,1536
snapshot_restore_with_dense,Dense: Entire region + process_vm_writev w/ page size,46,,,49731919.0,ns,1568
snapshot_restore_with_dense,Dense: Entire region + process_vm_writev w/ page size,46,,,50734101.0,ns,1600
snapshot_restore_with_dense,Dense: Entire region + process_vm_writev w/ page size,46,,,51874712.0,ns,1632
snapshot_restore_with_dense,Dense: Entire region + process_vm_writev w/ page size,46,,,52684055.0,ns,1664
snapshot_restore_with_dense,Dense: Entire region + process_vm_writev w/ page size,46,,,53784913.0,ns,1696
snapshot_restore_with_dense,Dense: Entire region + process_vm_writev w/ page size,46,,,54679593.0,ns,1728
snapshot_restore_with_dense,Dense: Entire region + process_vm_writev w/ page size,46,,,55779680.0,ns,1760
snapshot_restore_with_dense,Dense: Entire region + process_vm_writev w/ page size,46,,,56734985.0,ns,1792
snapshot_restore_with_dense,Dense: Entire region + process_vm_writev w/ page size,46,,,57817649.0,ns,1824
snapshot_restore_with_dense,Dense: Entire region + process_vm_writev w/ page size,46,,,58803789.0,ns,1856
snapshot_restore_with_dense,Dense: Entire region + process_vm_writev w/ page size,46,,,59755239.0,ns,1888
snapshot_restore_with_dense,Dense: Entire region + process_vm_writev w/ page size,46,,,60871722.0,ns,1920
snapshot_restore_with_dense,Dense: Entire region + process_vm_writev w/ page size,46,,,61786688.0,ns,1952
snapshot_restore_with_dense,Dense: Entire region + process_vm_writev w/ page size,46,,,62955922.0,ns,1984
snapshot_restore_with_dense,Dense: Entire region + process_vm_writev w/ page size,46,,,63925490.0,ns,2016
snapshot_restore_with_dense,Dense: Entire region + process_vm_writev w/ page size,46,,,64898580.0,ns,2048
snapshot_restore_with_dense,Dense: Entire region + process_vm_writev w/ page size,46,,,65862561.0,ns,2080
snapshot_restore_with_dense,Dense: Entire region + process_vm_writev w/ page size,46,,,67028351.0,ns,2112
snapshot_restore_with_dense,Dense: Entire region + process_vm_writev w/ page size,46,,,67974178.0,ns,2144
snapshot_restore_with_dense,Dense: Entire region + process_vm_writev w/ page size,46,,,69016927.0,ns,2176
snapshot_restore_with_dense,Dense: Entire region + process_vm_writev w/ page size,46,,,70039269.0,ns,2208
snapshot_restore_with_dense,Dense: Entire region + process_vm_writev w/ page size,46,,,70965287.0,ns,2240
snapshot_restore_with_dense,Dense: Entire region + process_vm_writev w/ page size,46,,,71997510.0,ns,2272
snapshot_restore_with_dense,Dense: Entire region + process_vm_writev w/ page size,46,,,72974889.0,ns,2304
snapshot_restore_with_dense,Dense: Entire region + process_vm_writev w/ page size,46,,,73997212.0,ns,2336
snapshot_restore_with_dense,Dense: Entire region + process_vm_writev w/ page size,46,,,74974613.0,ns,2368
snapshot_restore_with_dense,Dense: Entire region + process_vm_writev w/ page size,46,,,76137899.0,ns,2400
snapshot_restore_with_dense,Dense: Entire region + process_vm_writev w/ page size,46,,,77131677.0,ns,2432
snapshot_restore_with_dense,Dense: Entire region + process_vm_writev w/ page size,46,,,77976227.0,ns,2464
snapshot_restore_with_dense,Dense: Entire region + process_vm_writev w/ page size,46,,,79093304.0,ns,2496
snapshot_restore_with_dense,Dense: Entire region + process_vm_writev w/ page size,46,,,85898370.0,ns,2528
snapshot_restore_with_dense,Dense: Entire region + process_vm_writev w/ page size,46,,,81704034.0,ns,2560
snapshot_restore_with_dense,Dense: Entire region + process_vm_writev w/ page size,46,,,82459796.0,ns,2592
snapshot_restore_with_dense,Dense: Entire region + process_vm_writev w/ page size,46,,,83419441.0,ns,2624
snapshot_restore_with_dense,Dense: Entire region + process_vm_writev w/ page size,46,,,84257665.0,ns,2656
snapshot_restore_with_dense,Dense: Entire region + process_vm_writev w/ page size,46,,,85245437.0,ns,2688
snapshot_restore_with_dense,Dense: Entire region + process_vm_writev w/ page size,46,,,86128856.0,ns,2720
snapshot_restore_with_dense,Dense: Entire region + process_vm_writev w/ page size,46,,,87138475.0,ns,2752
snapshot_restore_with_dense,Dense: Entire region + process_vm_writev w/ page size,46,,,88074965.0,ns,2784
snapshot_restore_with_dense,Dense: Entire region + process_vm_writev w/ page size,46,,,89290230.0,ns,2816
snapshot_restore_with_dense,Dense: Entire region + process_vm_writev w/ page size,46,,,90370709.0,ns,2848
snapshot_restore_with_dense,Dense: Entire region + process_vm_writev w/ page size,46,,,91340436.0,ns,2880
snapshot_restore_with_dense,Dense: Entire region + process_vm_writev w/ page size,46,,,92524347.0,ns,2912
snapshot_restore_with_dense,Dense: Entire region + process_vm_writev w/ page size,46,,,93262998.0,ns,2944
snapshot_restore_with_dense,Dense: Entire region + process_vm_writev w/ page size,46,,,99054786.0,ns,2976
snapshot_restore_with_dense,Dense: Entire region + process_vm_writev w/ page size,46,,,95760905.0,ns,3008
snapshot_restore_with_dense,Dense: Entire region + process_vm_writev w/ page size,46,,,101416337.0,ns,3040
snapshot_restore_with_dense,Dense: Entire region + process_vm_writev w/ page size,46,,,97229017.0,ns,3072
snapshot_restore_with_dense,Dense: Entire region + process_vm_writev w/ page size,46,,,98339081.0,ns,3104
snapshot_restore_with_dense,Dense: Entire region + process_vm_writev w/ page size,46,,,99357260.0,ns,3136
snapshot_restore_with_dense,Dense: Entire region + process_vm_writev w/ page size,46,,,100328423.0,ns,3168
snapshot_restore_with_dense,Dense: Entire region + process_vm_writev w/ page size,46,,,101328139.0,ns,3200
