<?xml version="1.0" encoding="utf-8"  standalone="no"?>
<svg 
 viewBox="0 0 450 300"
 xmlns="http://www.w3.org/2000/svg"
 xmlns:xlink="http://www.w3.org/1999/xlink"
>

<title>Gnuplot</title>
<desc>Produced by GNUPLOT 5.2 patchlevel 6 </desc>

<g id="gnuplot_canvas">

<rect x="0" y="0" width="450" height="300" fill="none"/>
<defs>

	<circle id='gpDot' r='0.5' stroke-width='0.5' stroke='currentColor'/>
	<path id='gpPt0' stroke-width='0.222' stroke='currentColor' d='M-1,0 h2 M0,-1 v2'/>
	<path id='gpPt1' stroke-width='0.222' stroke='currentColor' d='M-1,-1 L1,1 M1,-1 L-1,1'/>
	<path id='gpPt2' stroke-width='0.222' stroke='currentColor' d='M-1,0 L1,0 M0,-1 L0,1 M-1,-1 L1,1 M-1,1 L1,-1'/>
	<rect id='gpPt3' stroke-width='0.222' stroke='currentColor' x='-1' y='-1' width='2' height='2'/>
	<rect id='gpPt4' stroke-width='0.222' stroke='currentColor' fill='currentColor' x='-1' y='-1' width='2' height='2'/>
	<circle id='gpPt5' stroke-width='0.222' stroke='currentColor' cx='0' cy='0' r='1'/>
	<use xlink:href='#gpPt5' id='gpPt6' fill='currentColor' stroke='none'/>
	<path id='gpPt7' stroke-width='0.222' stroke='currentColor' d='M0,-1.33 L-1.33,0.67 L1.33,0.67 z'/>
	<use xlink:href='#gpPt7' id='gpPt8' fill='currentColor' stroke='none'/>
	<use xlink:href='#gpPt7' id='gpPt9' stroke='currentColor' transform='rotate(180)'/>
	<use xlink:href='#gpPt9' id='gpPt10' fill='currentColor' stroke='none'/>
	<use xlink:href='#gpPt3' id='gpPt11' stroke='currentColor' transform='rotate(45)'/>
	<use xlink:href='#gpPt11' id='gpPt12' fill='currentColor' stroke='none'/>
	<path id='gpPt13' stroke-width='0.222' stroke='currentColor' d='M0,1.330 L1.265,0.411 L0.782,-1.067 L-0.782,-1.076 L-1.265,0.411 z'/>
	<use xlink:href='#gpPt13' id='gpPt14' fill='currentColor' stroke='none'/>
	<filter id='textbox' filterUnits='objectBoundingBox' x='0' y='0' height='1' width='1'>
	  <feFlood flood-color='white' flood-opacity='1' result='bgnd'/>
	  <feComposite in='SourceGraphic' in2='bgnd' operator='atop'/>
	</filter>
	<filter id='greybox' filterUnits='objectBoundingBox' x='0' y='0' height='1' width='1'>
	  <feFlood flood-color='lightgrey' flood-opacity='1' result='grey'/>
	  <feComposite in='SourceGraphic' in2='grey' operator='atop'/>
	</filter>
</defs>
<g fill="none" color="white" stroke="currentColor" stroke-width="1.00" stroke-linecap="butt" stroke-linejoin="miter">
</g>
<g fill="none" color="black" stroke="currentColor" stroke-width="1.00" stroke-linecap="butt" stroke-linejoin="miter">
	<path stroke='black'  d='M71.9,242.4 L80.9,242.4  '/>	<g transform="translate(63.6,246.3)" stroke="none" fill="black" font-family="Helvetica" font-size="12.00"  text-anchor="end">
		<text><tspan font-family="Helvetica" > 0</tspan></text>
	</g>
</g>
<g fill="none" color="black" stroke="currentColor" stroke-width="1.00" stroke-linecap="butt" stroke-linejoin="miter">
	<path stroke='black'  d='M71.9,203.5 L80.9,203.5  '/>	<g transform="translate(63.6,207.4)" stroke="none" fill="black" font-family="Helvetica" font-size="12.00"  text-anchor="end">
		<text><tspan font-family="Helvetica" > 0.2</tspan></text>
	</g>
</g>
<g fill="none" color="black" stroke="currentColor" stroke-width="1.00" stroke-linecap="butt" stroke-linejoin="miter">
	<path stroke='black'  d='M71.9,164.6 L80.9,164.6  '/>	<g transform="translate(63.6,168.5)" stroke="none" fill="black" font-family="Helvetica" font-size="12.00"  text-anchor="end">
		<text><tspan font-family="Helvetica" > 0.4</tspan></text>
	</g>
</g>
<g fill="none" color="black" stroke="currentColor" stroke-width="1.00" stroke-linecap="butt" stroke-linejoin="miter">
	<path stroke='black'  d='M71.9,125.7 L80.9,125.7  '/>	<g transform="translate(63.6,129.6)" stroke="none" fill="black" font-family="Helvetica" font-size="12.00"  text-anchor="end">
		<text><tspan font-family="Helvetica" > 0.6</tspan></text>
	</g>
</g>
<g fill="none" color="black" stroke="currentColor" stroke-width="1.00" stroke-linecap="butt" stroke-linejoin="miter">
	<path stroke='black'  d='M71.9,86.8 L80.9,86.8  '/>	<g transform="translate(63.6,90.7)" stroke="none" fill="black" font-family="Helvetica" font-size="12.00"  text-anchor="end">
		<text><tspan font-family="Helvetica" > 0.8</tspan></text>
	</g>
</g>
<g fill="none" color="black" stroke="currentColor" stroke-width="1.00" stroke-linecap="butt" stroke-linejoin="miter">
	<path stroke='black'  d='M71.9,47.9 L80.9,47.9  '/>	<g transform="translate(63.6,51.8)" stroke="none" fill="black" font-family="Helvetica" font-size="12.00"  text-anchor="end">
		<text><tspan font-family="Helvetica" > 1</tspan></text>
	</g>
</g>
<g fill="none" color="black" stroke="currentColor" stroke-width="1.00" stroke-linecap="butt" stroke-linejoin="miter">
	<path stroke='black'  d='M89.4,242.4 L89.4,233.4  '/>	<g transform="translate(89.4,264.3)" stroke="none" fill="black" font-family="Helvetica" font-size="12.00"  text-anchor="middle">
		<text><tspan font-family="Helvetica" > 31</tspan></text>
	</g>
</g>
<g fill="none" color="black" stroke="currentColor" stroke-width="1.00" stroke-linecap="butt" stroke-linejoin="miter">
	<path stroke='black'  d='M142.8,242.4 L142.8,233.4  '/>	<g transform="translate(142.8,264.3)" stroke="none" fill="black" font-family="Helvetica" font-size="12.00"  text-anchor="middle">
		<text><tspan font-family="Helvetica" > 32</tspan></text>
	</g>
</g>
<g fill="none" color="black" stroke="currentColor" stroke-width="1.00" stroke-linecap="butt" stroke-linejoin="miter">
	<path stroke='black'  d='M196.1,242.4 L196.1,233.4  '/>	<g transform="translate(196.1,264.3)" stroke="none" fill="black" font-family="Helvetica" font-size="12.00"  text-anchor="middle">
		<text><tspan font-family="Helvetica" > 33</tspan></text>
	</g>
</g>
<g fill="none" color="black" stroke="currentColor" stroke-width="1.00" stroke-linecap="butt" stroke-linejoin="miter">
	<path stroke='black'  d='M249.5,242.4 L249.5,233.4  '/>	<g transform="translate(249.5,264.3)" stroke="none" fill="black" font-family="Helvetica" font-size="12.00"  text-anchor="middle">
		<text><tspan font-family="Helvetica" > 34</tspan></text>
	</g>
</g>
<g fill="none" color="black" stroke="currentColor" stroke-width="1.00" stroke-linecap="butt" stroke-linejoin="miter">
	<path stroke='black'  d='M302.8,242.4 L302.8,233.4  '/>	<g transform="translate(302.8,264.3)" stroke="none" fill="black" font-family="Helvetica" font-size="12.00"  text-anchor="middle">
		<text><tspan font-family="Helvetica" > 35</tspan></text>
	</g>
</g>
<g fill="none" color="black" stroke="currentColor" stroke-width="1.00" stroke-linecap="butt" stroke-linejoin="miter">
	<path stroke='black'  d='M356.2,242.4 L356.2,233.4  '/>	<g transform="translate(356.2,264.3)" stroke="none" fill="black" font-family="Helvetica" font-size="12.00"  text-anchor="middle">
		<text><tspan font-family="Helvetica" > 36</tspan></text>
	</g>
</g>
<g fill="none" color="black" stroke="currentColor" stroke-width="1.00" stroke-linecap="butt" stroke-linejoin="miter">
	<path stroke='black'  d='M409.5,242.4 L409.5,233.4  '/>	<g transform="translate(409.5,264.3)" stroke="none" fill="black" font-family="Helvetica" font-size="12.00"  text-anchor="middle">
		<text><tspan font-family="Helvetica" > 37</tspan></text>
	</g>
</g>
<g fill="none" color="black" stroke="currentColor" stroke-width="1.00" stroke-linecap="butt" stroke-linejoin="miter">
</g>
<g fill="none" color="black" stroke="currentColor" stroke-width="1.00" stroke-linecap="butt" stroke-linejoin="miter">
	<path stroke='black'  d='M71.9,18.1 L71.9,242.4 L425.0,242.4 L425.0,18.1 L71.9,18.1 Z  '/></g>
<g fill="none" color="black" stroke="currentColor" stroke-width="1.00" stroke-linecap="butt" stroke-linejoin="miter">
	<g transform="translate(16.3,130.3) rotate(270)" stroke="none" fill="black" font-family="Helvetica" font-size="12.00"  text-anchor="middle">
		<text><tspan font-family="Helvetica" >Density (a.u.)</tspan></text>
	</g>
</g>
<g fill="none" color="black" stroke="currentColor" stroke-width="1.00" stroke-linecap="butt" stroke-linejoin="miter">
	<g transform="translate(248.4,291.3)" stroke="none" fill="black" font-family="Helvetica" font-size="12.00"  text-anchor="middle">
		<text><tspan font-family="Helvetica" >Average time (us)</tspan></text>
	</g>
</g>
<g fill="none" color="black" stroke="currentColor" stroke-width="1.00" stroke-linecap="butt" stroke-linejoin="miter">
</g>
	<g id="gnuplot_plot_1" ><title>PDF</title>
<g fill="none" color="black" stroke="currentColor" stroke-width="1.00" stroke-linecap="butt" stroke-linejoin="miter">
	<g stroke='none' shape-rendering='crispEdges'>
		<polygon fill = 'rgb( 31, 120, 180)' fill-opacity = '0.250000' points = '71.9,241.1 72.6,241.0 73.3,240.8 74.0,240.6 74.7,240.3 75.4,240.1 76.1,239.8 76.9,239.5 77.6,239.1 78.3,238.7 79.0,238.3 79.7,237.8 80.4,237.3 81.1,236.8 81.8,236.1 82.5,235.5
83.2,234.7 83.9,233.9 84.6,233.1 85.3,232.1 86.1,231.1 86.8,230.0 87.5,228.8 88.2,227.5 88.9,226.1 89.6,224.6 90.3,223.0 91.0,221.3 91.7,219.5 92.4,217.5 93.1,215.4 93.8,213.2
94.5,210.9 95.3,208.4 96.0,205.8 96.7,203.1 97.4,200.2 98.1,197.1 98.8,193.9 99.5,190.6 100.2,187.1 100.9,183.4 101.6,179.7 102.3,175.7 103.0,171.7 103.7,167.5 104.5,163.1 105.2,158.7
105.9,154.1 106.6,149.4 107.3,144.6 108.0,139.7 108.7,134.8 109.4,129.7 110.1,124.6 110.8,119.5 111.5,114.3 112.2,109.1 112.9,103.8 113.6,98.6 114.4,93.5 115.1,88.3 115.8,83.2 116.5,78.2
117.2,73.3 117.9,68.5 118.6,63.8 119.3,59.3 120.0,54.9 120.7,50.7 121.4,46.7 122.1,42.9 122.8,39.3 123.6,36.0 124.3,32.9 125.0,30.1 125.7,27.5 126.4,25.3 127.1,23.3 127.8,21.7
128.5,20.3 129.2,19.3 129.9,18.6 130.6,18.2 131.3,18.1 132.0,18.4 132.8,18.9 133.5,19.8 134.2,21.0 134.9,22.5 135.6,24.4 136.3,26.5 137.0,28.9 137.7,31.5 138.4,34.4 139.1,37.6
139.8,41.0 140.5,44.6 141.2,48.4 142.0,52.5 142.7,56.6 143.4,61.0 144.1,65.5 144.8,70.1 145.5,74.8 146.2,79.6 146.9,84.4 147.6,89.4 148.3,94.3 149.0,99.3 149.7,104.3 150.4,109.3
151.2,114.3 151.9,119.2 152.6,124.1 153.3,129.0 154.0,133.7 154.7,138.4 155.4,143.0 156.1,147.5 156.8,151.9 157.5,156.2 158.2,160.4 158.9,164.4 159.6,168.3 160.4,172.1 161.1,175.8 161.8,179.3
162.5,182.6 163.2,185.9 163.9,189.0 164.6,191.9 165.3,194.8 166.0,197.5 166.7,200.0 167.4,202.4 168.1,204.7 168.8,206.9 169.6,209.0 170.3,210.9 171.0,212.7 171.7,214.4 172.4,216.0 173.1,217.6
173.8,219.0 174.5,220.3 175.2,221.5 175.9,222.6 176.6,223.7 177.3,224.7 178.0,225.6 178.7,226.4 179.5,227.2 180.2,227.9 180.9,228.6 181.6,229.2 182.3,229.8 183.0,230.3 183.7,230.8 184.4,231.2
185.1,231.6 185.8,231.9 186.5,232.3 187.2,232.6 187.9,232.8 188.7,233.1 189.4,233.3 190.1,233.5 190.8,233.7 191.5,233.8 192.2,234.0 192.9,234.1 193.6,234.2 194.3,234.3 195.0,234.4 195.7,234.5
196.4,234.5 197.1,234.6 197.9,234.6 198.6,234.7 199.3,234.7 200.0,234.8 200.7,234.8 201.4,234.8 202.1,234.9 202.8,234.9 203.5,234.9 204.2,234.9 204.9,234.9 205.6,235.0 206.3,235.0 207.1,235.0
207.8,235.0 208.5,235.0 209.2,235.1 209.9,235.1 210.6,235.1 211.3,235.1 212.0,235.2 212.7,235.2 213.4,235.2 214.1,235.3 214.8,235.3 215.5,235.4 216.3,235.4 217.0,235.5 217.7,235.5 218.4,235.6
219.1,235.6 219.8,235.7 220.5,235.8 221.2,235.8 221.9,235.9 222.6,236.0 223.3,236.1 224.0,236.1 224.7,236.2 225.5,236.3 226.2,236.4 226.9,236.5 227.6,236.6 228.3,236.7 229.0,236.8 229.7,236.9
230.4,237.0 231.1,237.1 231.8,237.2 232.5,237.3 233.2,237.4 233.9,237.5 234.7,237.6 235.4,237.7 236.1,237.8 236.8,237.9 237.5,238.0 238.2,238.1 238.9,238.2 239.6,238.3 240.3,238.5 241.0,238.6
241.7,238.7 242.4,238.8 243.1,238.9 243.9,239.0 244.6,239.1 245.3,239.2 246.0,239.3 246.7,239.4 247.4,239.5 248.1,239.6 248.8,239.7 249.5,239.8 250.2,239.9 250.9,240.0 251.6,240.1 252.3,240.2
253.0,240.3 253.8,240.4 254.5,240.5 255.2,240.6 255.9,240.7 256.6,240.7 257.3,240.8 258.0,240.9 258.7,241.0 259.4,241.1 260.1,241.1 260.8,241.2 261.5,241.3 262.2,241.3 263.0,241.4 263.7,241.5
264.4,241.5 265.1,241.6 265.8,241.6 266.5,241.7 267.2,241.7 267.9,241.8 268.6,241.8 269.3,241.8 270.0,241.9 270.7,241.9 271.4,242.0 272.2,242.0 272.9,242.0 273.6,242.1 274.3,242.1 275.0,242.1
275.7,242.1 276.4,242.1 277.1,242.2 277.8,242.2 278.5,242.2 279.2,242.2 279.9,242.2 280.6,242.3 281.4,242.3 282.1,242.3 282.8,242.3 283.5,242.3 284.2,242.3 284.9,242.3 285.6,242.3 286.3,242.3
287.0,242.3 287.7,242.3 288.4,242.4 289.1,242.4 289.8,242.4 290.6,242.4 291.3,242.4 292.0,242.4 292.7,242.4 293.4,242.4 294.1,242.4 294.8,242.4 295.5,242.4 296.2,242.4 296.9,242.4 297.6,242.4
298.3,242.4 299.0,242.4 299.8,242.4 300.5,242.4 301.2,242.4 301.9,242.4 302.6,242.4 303.3,242.4 304.0,242.4 304.7,242.4 305.4,242.4 306.1,242.3 306.8,242.3 307.5,242.3 308.2,242.3 309.0,242.3
309.7,242.3 310.4,242.3 311.1,242.3 311.8,242.3 312.5,242.3 313.2,242.2 313.9,242.2 314.6,242.2 315.3,242.2 316.0,242.2 316.7,242.1 317.4,242.1 318.2,242.1 318.9,242.0 319.6,242.0 320.3,242.0
321.0,241.9 321.7,241.9 322.4,241.8 323.1,241.8 323.8,241.7 324.5,241.7 325.2,241.6 325.9,241.5 326.6,241.5 327.3,241.4 328.1,241.3 328.8,241.2 329.5,241.1 330.2,241.1 330.9,241.0 331.6,240.9
332.3,240.7 333.0,240.6 333.7,240.5 334.4,240.4 335.1,240.3 335.8,240.1 336.5,240.0 337.3,239.9 338.0,239.7 338.7,239.6 339.4,239.4 340.1,239.3 340.8,239.1 341.5,239.0 342.2,238.8 342.9,238.6
343.6,238.5 344.3,238.3 345.0,238.1 345.7,238.0 346.5,237.8 347.2,237.6 347.9,237.5 348.6,237.3 349.3,237.1 350.0,237.0 350.7,236.8 351.4,236.7 352.1,236.5 352.8,236.4 353.5,236.2 354.2,236.1
354.9,236.0 355.7,235.8 356.4,235.7 357.1,235.6 357.8,235.5 358.5,235.4 359.2,235.4 359.9,235.3 360.6,235.2 361.3,235.2 362.0,235.1 362.7,235.1 363.4,235.1 364.1,235.1 364.9,235.1 365.6,235.1
366.3,235.1 367.0,235.1 367.7,235.2 368.4,235.2 369.1,235.3 369.8,235.4 370.5,235.5 371.2,235.5 371.9,235.6 372.6,235.8 373.3,235.9 374.1,236.0 374.8,236.1 375.5,236.3 376.2,236.4 376.9,236.5
377.6,236.7 378.3,236.8 379.0,237.0 379.7,237.2 380.4,237.3 381.1,237.5 381.8,237.7 382.5,237.8 383.3,238.0 384.0,238.2 384.7,238.3 385.4,238.5 386.1,238.7 386.8,238.8 387.5,239.0 388.2,239.1
388.9,239.3 389.6,239.5 390.3,239.6 391.0,239.7 391.7,239.9 392.4,240.0 393.2,240.2 393.9,240.3 394.6,240.4 395.3,240.5 396.0,240.6 396.7,240.8 397.4,240.9 398.1,241.0 398.8,241.1 399.5,241.1
400.2,241.2 400.9,241.3 401.6,241.4 402.4,241.5 403.1,241.5 403.8,241.6 404.5,241.7 405.2,241.7 405.9,241.8 406.6,241.8 407.3,241.9 408.0,241.9 408.7,242.0 409.4,242.0 410.1,242.0 410.8,242.1
411.6,242.1 412.3,242.1 413.0,242.1 413.7,242.2 414.4,242.2 415.1,242.2 415.8,242.2 416.5,242.2 417.2,242.3 417.9,242.3 418.6,242.3 419.3,242.3 420.0,242.3 420.8,242.3 421.5,242.3 422.2,242.3
422.9,242.3 423.6,242.4 424.3,242.4 425.0,242.4 425.0,242.4 424.3,242.4 423.6,242.4 422.9,242.4 422.2,242.4 421.5,242.4 420.8,242.4 420.0,242.4 419.3,242.4 418.6,242.4 417.9,242.4 417.2,242.4
416.5,242.4 415.8,242.4 415.1,242.4 414.4,242.4 413.7,242.4 413.0,242.4 412.3,242.4 411.6,242.4 410.8,242.4 410.1,242.4 409.4,242.4 408.7,242.4 408.0,242.4 407.3,242.4 406.6,242.4 405.9,242.4
405.2,242.4 404.5,242.4 403.8,242.4 403.1,242.4 402.4,242.4 401.6,242.4 400.9,242.4 400.2,242.4 399.5,242.4 398.8,242.4 398.1,242.4 397.4,242.4 396.7,242.4 396.0,242.4 395.3,242.4 394.6,242.4
393.9,242.4 393.2,242.4 392.4,242.4 391.7,242.4 391.0,242.4 390.3,242.4 389.6,242.4 388.9,242.4 388.2,242.4 387.5,242.4 386.8,242.4 386.1,242.4 385.4,242.4 384.7,242.4 384.0,242.4 383.3,242.4
382.5,242.4 381.8,242.4 381.1,242.4 380.4,242.4 379.7,242.4 379.0,242.4 378.3,242.4 377.6,242.4 376.9,242.4 376.2,242.4 375.5,242.4 374.8,242.4 374.1,242.4 373.3,242.4 372.6,242.4 371.9,242.4
371.2,242.4 370.5,242.4 369.8,242.4 369.1,242.4 368.4,242.4 367.7,242.4 367.0,242.4 366.3,242.4 365.6,242.4 364.9,242.4 364.1,242.4 363.4,242.4 362.7,242.4 362.0,242.4 361.3,242.4 360.6,242.4
359.9,242.4 359.2,242.4 358.5,242.4 357.8,242.4 357.1,242.4 356.4,242.4 355.7,242.4 354.9,242.4 354.2,242.4 353.5,242.4 352.8,242.4 352.1,242.4 351.4,242.4 350.7,242.4 350.0,242.4 349.3,242.4
348.6,242.4 347.9,242.4 347.2,242.4 346.5,242.4 345.7,242.4 345.0,242.4 344.3,242.4 343.6,242.4 342.9,242.4 342.2,242.4 341.5,242.4 340.8,242.4 340.1,242.4 339.4,242.4 338.7,242.4 338.0,242.4
337.3,242.4 336.5,242.4 335.8,242.4 335.1,242.4 334.4,242.4 333.7,242.4 333.0,242.4 332.3,242.4 331.6,242.4 330.9,242.4 330.2,242.4 329.5,242.4 328.8,242.4 328.1,242.4 327.3,242.4 326.6,242.4
325.9,242.4 325.2,242.4 324.5,242.4 323.8,242.4 323.1,242.4 322.4,242.4 321.7,242.4 321.0,242.4 320.3,242.4 319.6,242.4 318.9,242.4 318.2,242.4 317.4,242.4 316.7,242.4 316.0,242.4 315.3,242.4
314.6,242.4 313.9,242.4 313.2,242.4 312.5,242.4 311.8,242.4 311.1,242.4 310.4,242.4 309.7,242.4 309.0,242.4 308.2,242.4 307.5,242.4 306.8,242.4 306.1,242.4 305.4,242.4 304.7,242.4 304.0,242.4
303.3,242.4 302.6,242.4 301.9,242.4 301.2,242.4 300.5,242.4 299.8,242.4 299.0,242.4 298.3,242.4 297.6,242.4 296.9,242.4 296.2,242.4 295.5,242.4 294.8,242.4 294.1,242.4 293.4,242.4 292.7,242.4
292.0,242.4 291.3,242.4 290.6,242.4 289.8,242.4 289.1,242.4 288.4,242.4 287.7,242.4 287.0,242.4 286.3,242.4 285.6,242.4 284.9,242.4 284.2,242.4 283.5,242.4 282.8,242.4 282.1,242.4 281.4,242.4
280.6,242.4 279.9,242.4 279.2,242.4 278.5,242.4 277.8,242.4 277.1,242.4 276.4,242.4 275.7,242.4 275.0,242.4 274.3,242.4 273.6,242.4 272.9,242.4 272.2,242.4 271.4,242.4 270.7,242.4 270.0,242.4
269.3,242.4 268.6,242.4 267.9,242.4 267.2,242.4 266.5,242.4 265.8,242.4 265.1,242.4 264.4,242.4 263.7,242.4 263.0,242.4 262.2,242.4 261.5,242.4 260.8,242.4 260.1,242.4 259.4,242.4 258.7,242.4
258.0,242.4 257.3,242.4 256.6,242.4 255.9,242.4 255.2,242.4 254.5,242.4 253.8,242.4 253.0,242.4 252.3,242.4 251.6,242.4 250.9,242.4 250.2,242.4 249.5,242.4 248.8,242.4 248.1,242.4 247.4,242.4
246.7,242.4 246.0,242.4 245.3,242.4 244.6,242.4 243.9,242.4 243.1,242.4 242.4,242.4 241.7,242.4 241.0,242.4 240.3,242.4 239.6,242.4 238.9,242.4 238.2,242.4 237.5,242.4 236.8,242.4 236.1,242.4
235.4,242.4 234.7,242.4 233.9,242.4 233.2,242.4 232.5,242.4 231.8,242.4 231.1,242.4 230.4,242.4 229.7,242.4 229.0,242.4 228.3,242.4 227.6,242.4 226.9,242.4 226.2,242.4 225.5,242.4 224.7,242.4
224.0,242.4 223.3,242.4 222.6,242.4 221.9,242.4 221.2,242.4 220.5,242.4 219.8,242.4 219.1,242.4 218.4,242.4 217.7,242.4 217.0,242.4 216.3,242.4 215.5,242.4 214.8,242.4 214.1,242.4 213.4,242.4
212.7,242.4 212.0,242.4 211.3,242.4 210.6,242.4 209.9,242.4 209.2,242.4 208.5,242.4 207.8,242.4 207.1,242.4 206.3,242.4 205.6,242.4 204.9,242.4 204.2,242.4 203.5,242.4 202.8,242.4 202.1,242.4
201.4,242.4 200.7,242.4 200.0,242.4 199.3,242.4 198.6,242.4 197.9,242.4 197.1,242.4 196.4,242.4 195.7,242.4 195.0,242.4 194.3,242.4 193.6,242.4 192.9,242.4 192.2,242.4 191.5,242.4 190.8,242.4
190.1,242.4 189.4,242.4 188.7,242.4 187.9,242.4 187.2,242.4 186.5,242.4 185.8,242.4 185.1,242.4 184.4,242.4 183.7,242.4 183.0,242.4 182.3,242.4 181.6,242.4 180.9,242.4 180.2,242.4 179.5,242.4
178.7,242.4 178.0,242.4 177.3,242.4 176.6,242.4 175.9,242.4 175.2,242.4 174.5,242.4 173.8,242.4 173.1,242.4 172.4,242.4 171.7,242.4 171.0,242.4 170.3,242.4 169.6,242.4 168.8,242.4 168.1,242.4
167.4,242.4 166.7,242.4 166.0,242.4 165.3,242.4 164.6,242.4 163.9,242.4 163.2,242.4 162.5,242.4 161.8,242.4 161.1,242.4 160.4,242.4 159.6,242.4 158.9,242.4 158.2,242.4 157.5,242.4 156.8,242.4
156.1,242.4 155.4,242.4 154.7,242.4 154.0,242.4 153.3,242.4 152.6,242.4 151.9,242.4 151.2,242.4 150.4,242.4 149.7,242.4 149.0,242.4 148.3,242.4 147.6,242.4 146.9,242.4 146.2,242.4 145.5,242.4
144.8,242.4 144.1,242.4 143.4,242.4 142.7,242.4 142.0,242.4 141.2,242.4 140.5,242.4 139.8,242.4 139.1,242.4 138.4,242.4 137.7,242.4 137.0,242.4 136.3,242.4 135.6,242.4 134.9,242.4 134.2,242.4
133.5,242.4 132.8,242.4 132.0,242.4 131.3,242.4 130.6,242.4 129.9,242.4 129.2,242.4 128.5,242.4 127.8,242.4 127.1,242.4 126.4,242.4 125.7,242.4 125.0,242.4 124.3,242.4 123.6,242.4 122.8,242.4
122.1,242.4 121.4,242.4 120.7,242.4 120.0,242.4 119.3,242.4 118.6,242.4 117.9,242.4 117.2,242.4 116.5,242.4 115.8,242.4 115.1,242.4 114.4,242.4 113.6,242.4 112.9,242.4 112.2,242.4 111.5,242.4
110.8,242.4 110.1,242.4 109.4,242.4 108.7,242.4 108.0,242.4 107.3,242.4 106.6,242.4 105.9,242.4 105.2,242.4 104.5,242.4 103.7,242.4 103.0,242.4 102.3,242.4 101.6,242.4 100.9,242.4 100.2,242.4
99.5,242.4 98.8,242.4 98.1,242.4 97.4,242.4 96.7,242.4 96.0,242.4 95.3,242.4 94.5,242.4 93.8,242.4 93.1,242.4 92.4,242.4 91.7,242.4 91.0,242.4 90.3,242.4 89.6,242.4 88.9,242.4
88.2,242.4 87.5,242.4 86.8,242.4 86.1,242.4 85.3,242.4 84.6,242.4 83.9,242.4 83.2,242.4 82.5,242.4 81.8,242.4 81.1,242.4 80.4,242.4 79.7,242.4 79.0,242.4 78.3,242.4 77.6,242.4
76.9,242.4 76.1,242.4 75.4,242.4 74.7,242.4 74.0,242.4 73.3,242.4 72.6,242.4 71.9,242.4 '/>
	</g>
</g>
	</g>
	<g id="gnuplot_plot_2" ><title>Mean</title>
<g fill="none" color="white" stroke="rgb( 31, 120, 180)" stroke-width="2.00" stroke-linecap="butt" stroke-linejoin="miter">
</g>
<g fill="none" color="black" stroke="currentColor" stroke-width="2.00" stroke-linecap="butt" stroke-linejoin="miter">
	<path stroke='rgb( 31, 120, 180)'  d='M142.1,242.4 L142.1,70.7  '/></g>
	</g>
<g fill="none" color="black" stroke="currentColor" stroke-width="2.00" stroke-linecap="butt" stroke-linejoin="miter">
</g>
<g fill="none" color="black" stroke="black" stroke-width="1.00" stroke-linecap="butt" stroke-linejoin="miter">
</g>
<g fill="none" color="black" stroke="currentColor" stroke-width="1.00" stroke-linecap="butt" stroke-linejoin="miter">
	<path stroke='black'  d='M71.9,18.1 L71.9,242.4 L425.0,242.4 L425.0,18.1 L71.9,18.1 Z  '/></g>
<g fill="none" color="black" stroke="currentColor" stroke-width="1.00" stroke-linecap="butt" stroke-linejoin="miter">
</g>
</g>
</svg>

