<?xml version="1.0" encoding="utf-8"  standalone="no"?>
<svg 
 viewBox="0 0 1280 720"
 xmlns="http://www.w3.org/2000/svg"
 xmlns:xlink="http://www.w3.org/1999/xlink"
>

<title>Gnuplot</title>
<desc>Produced by GNUPLOT 5.2 patchlevel 6 </desc>

<g id="gnuplot_canvas">

<rect x="0" y="0" width="1280" height="720" fill="none"/>
<defs>

	<circle id='gpDot' r='0.5' stroke-width='0.5' stroke='currentColor'/>
	<path id='gpPt0' stroke-width='0.222' stroke='currentColor' d='M-1,0 h2 M0,-1 v2'/>
	<path id='gpPt1' stroke-width='0.222' stroke='currentColor' d='M-1,-1 L1,1 M1,-1 L-1,1'/>
	<path id='gpPt2' stroke-width='0.222' stroke='currentColor' d='M-1,0 L1,0 M0,-1 L0,1 M-1,-1 L1,1 M-1,1 L1,-1'/>
	<rect id='gpPt3' stroke-width='0.222' stroke='currentColor' x='-1' y='-1' width='2' height='2'/>
	<rect id='gpPt4' stroke-width='0.222' stroke='currentColor' fill='currentColor' x='-1' y='-1' width='2' height='2'/>
	<circle id='gpPt5' stroke-width='0.222' stroke='currentColor' cx='0' cy='0' r='1'/>
	<use xlink:href='#gpPt5' id='gpPt6' fill='currentColor' stroke='none'/>
	<path id='gpPt7' stroke-width='0.222' stroke='currentColor' d='M0,-1.33 L-1.33,0.67 L1.33,0.67 z'/>
	<use xlink:href='#gpPt7' id='gpPt8' fill='currentColor' stroke='none'/>
	<use xlink:href='#gpPt7' id='gpPt9' stroke='currentColor' transform='rotate(180)'/>
	<use xlink:href='#gpPt9' id='gpPt10' fill='currentColor' stroke='none'/>
	<use xlink:href='#gpPt3' id='gpPt11' stroke='currentColor' transform='rotate(45)'/>
	<use xlink:href='#gpPt11' id='gpPt12' fill='currentColor' stroke='none'/>
	<path id='gpPt13' stroke-width='0.222' stroke='currentColor' d='M0,1.330 L1.265,0.411 L0.782,-1.067 L-0.782,-1.076 L-1.265,0.411 z'/>
	<use xlink:href='#gpPt13' id='gpPt14' fill='currentColor' stroke='none'/>
	<filter id='textbox' filterUnits='objectBoundingBox' x='0' y='0' height='1' width='1'>
	  <feFlood flood-color='white' flood-opacity='1' result='bgnd'/>
	  <feComposite in='SourceGraphic' in2='bgnd' operator='atop'/>
	</filter>
	<filter id='greybox' filterUnits='objectBoundingBox' x='0' y='0' height='1' width='1'>
	  <feFlood flood-color='lightgrey' flood-opacity='1' result='grey'/>
	  <feComposite in='SourceGraphic' in2='grey' operator='atop'/>
	</filter>
</defs>
<g fill="none" color="white" stroke="currentColor" stroke-width="1.00" stroke-linecap="butt" stroke-linejoin="miter">
</g>
<g fill="none" color="black" stroke="currentColor" stroke-width="1.00" stroke-linecap="butt" stroke-linejoin="miter">
	<path stroke='black'  d='M63.6,662.4 L72.6,662.4  '/>	<g transform="translate(55.3,666.3)" stroke="none" fill="black" font-family="Helvetica" font-size="12.00"  text-anchor="end">
		<text><tspan font-family="Helvetica" > 0</tspan></text>
	</g>
</g>
<g fill="none" color="black" stroke="currentColor" stroke-width="1.00" stroke-linecap="butt" stroke-linejoin="miter">
	<path stroke='black'  d='M63.6,601.6 L72.6,601.6  '/>	<g transform="translate(55.3,605.5)" stroke="none" fill="black" font-family="Helvetica" font-size="12.00"  text-anchor="end">
		<text><tspan font-family="Helvetica" > 5</tspan></text>
	</g>
</g>
<g fill="none" color="black" stroke="currentColor" stroke-width="1.00" stroke-linecap="butt" stroke-linejoin="miter">
	<path stroke='black'  d='M63.6,540.7 L72.6,540.7  '/>	<g transform="translate(55.3,544.6)" stroke="none" fill="black" font-family="Helvetica" font-size="12.00"  text-anchor="end">
		<text><tspan font-family="Helvetica" > 10</tspan></text>
	</g>
</g>
<g fill="none" color="black" stroke="currentColor" stroke-width="1.00" stroke-linecap="butt" stroke-linejoin="miter">
	<path stroke='black'  d='M63.6,479.9 L72.6,479.9  '/>	<g transform="translate(55.3,483.8)" stroke="none" fill="black" font-family="Helvetica" font-size="12.00"  text-anchor="end">
		<text><tspan font-family="Helvetica" > 15</tspan></text>
	</g>
</g>
<g fill="none" color="black" stroke="currentColor" stroke-width="1.00" stroke-linecap="butt" stroke-linejoin="miter">
	<path stroke='black'  d='M63.6,419.1 L72.6,419.1  '/>	<g transform="translate(55.3,423.0)" stroke="none" fill="black" font-family="Helvetica" font-size="12.00"  text-anchor="end">
		<text><tspan font-family="Helvetica" > 20</tspan></text>
	</g>
</g>
<g fill="none" color="black" stroke="currentColor" stroke-width="1.00" stroke-linecap="butt" stroke-linejoin="miter">
	<path stroke='black'  d='M63.6,358.2 L72.6,358.2  '/>	<g transform="translate(55.3,362.1)" stroke="none" fill="black" font-family="Helvetica" font-size="12.00"  text-anchor="end">
		<text><tspan font-family="Helvetica" > 25</tspan></text>
	</g>
</g>
<g fill="none" color="black" stroke="currentColor" stroke-width="1.00" stroke-linecap="butt" stroke-linejoin="miter">
	<path stroke='black'  d='M63.6,297.4 L72.6,297.4  '/>	<g transform="translate(55.3,301.3)" stroke="none" fill="black" font-family="Helvetica" font-size="12.00"  text-anchor="end">
		<text><tspan font-family="Helvetica" > 30</tspan></text>
	</g>
</g>
<g fill="none" color="black" stroke="currentColor" stroke-width="1.00" stroke-linecap="butt" stroke-linejoin="miter">
	<path stroke='black'  d='M63.6,236.6 L72.6,236.6  '/>	<g transform="translate(55.3,240.5)" stroke="none" fill="black" font-family="Helvetica" font-size="12.00"  text-anchor="end">
		<text><tspan font-family="Helvetica" > 35</tspan></text>
	</g>
</g>
<g fill="none" color="black" stroke="currentColor" stroke-width="1.00" stroke-linecap="butt" stroke-linejoin="miter">
	<path stroke='black'  d='M63.6,175.8 L72.6,175.8  '/>	<g transform="translate(55.3,179.7)" stroke="none" fill="black" font-family="Helvetica" font-size="12.00"  text-anchor="end">
		<text><tspan font-family="Helvetica" > 40</tspan></text>
	</g>
</g>
<g fill="none" color="black" stroke="currentColor" stroke-width="1.00" stroke-linecap="butt" stroke-linejoin="miter">
	<path stroke='black'  d='M63.6,114.9 L72.6,114.9  '/>	<g transform="translate(55.3,118.8)" stroke="none" fill="black" font-family="Helvetica" font-size="12.00"  text-anchor="end">
		<text><tspan font-family="Helvetica" > 45</tspan></text>
	</g>
</g>
<g fill="none" color="black" stroke="currentColor" stroke-width="1.00" stroke-linecap="butt" stroke-linejoin="miter">
	<path stroke='black'  d='M63.6,54.1 L72.6,54.1  '/>	<g transform="translate(55.3,58.0)" stroke="none" fill="black" font-family="Helvetica" font-size="12.00"  text-anchor="end">
		<text><tspan font-family="Helvetica" > 50</tspan></text>
	</g>
</g>
<g fill="none" color="black" stroke="currentColor" stroke-width="1.00" stroke-linecap="butt" stroke-linejoin="miter">
	<path stroke='black'  d='M63.9,662.4 L63.9,653.4  '/>	<g transform="translate(63.9,684.3)" stroke="none" fill="black" font-family="Helvetica" font-size="12.00"  text-anchor="middle">
		<text><tspan font-family="Helvetica" >-21</tspan></text>
	</g>
</g>
<g fill="none" color="black" stroke="currentColor" stroke-width="1.00" stroke-linecap="butt" stroke-linejoin="miter">
	<path stroke='black'  d='M188.8,662.4 L188.8,653.4  '/>	<g transform="translate(188.8,684.3)" stroke="none" fill="black" font-family="Helvetica" font-size="12.00"  text-anchor="middle">
		<text><tspan font-family="Helvetica" >-20.5</tspan></text>
	</g>
</g>
<g fill="none" color="black" stroke="currentColor" stroke-width="1.00" stroke-linecap="butt" stroke-linejoin="miter">
	<path stroke='black'  d='M313.6,662.4 L313.6,653.4  '/>	<g transform="translate(313.6,684.3)" stroke="none" fill="black" font-family="Helvetica" font-size="12.00"  text-anchor="middle">
		<text><tspan font-family="Helvetica" >-20</tspan></text>
	</g>
</g>
<g fill="none" color="black" stroke="currentColor" stroke-width="1.00" stroke-linecap="butt" stroke-linejoin="miter">
	<path stroke='black'  d='M438.5,662.4 L438.5,653.4  '/>	<g transform="translate(438.5,684.3)" stroke="none" fill="black" font-family="Helvetica" font-size="12.00"  text-anchor="middle">
		<text><tspan font-family="Helvetica" >-19.5</tspan></text>
	</g>
</g>
<g fill="none" color="black" stroke="currentColor" stroke-width="1.00" stroke-linecap="butt" stroke-linejoin="miter">
	<path stroke='black'  d='M563.4,662.4 L563.4,653.4  '/>	<g transform="translate(563.4,684.3)" stroke="none" fill="black" font-family="Helvetica" font-size="12.00"  text-anchor="middle">
		<text><tspan font-family="Helvetica" >-19</tspan></text>
	</g>
</g>
<g fill="none" color="black" stroke="currentColor" stroke-width="1.00" stroke-linecap="butt" stroke-linejoin="miter">
	<path stroke='black'  d='M688.2,662.4 L688.2,653.4  '/>	<g transform="translate(688.2,684.3)" stroke="none" fill="black" font-family="Helvetica" font-size="12.00"  text-anchor="middle">
		<text><tspan font-family="Helvetica" >-18.5</tspan></text>
	</g>
</g>
<g fill="none" color="black" stroke="currentColor" stroke-width="1.00" stroke-linecap="butt" stroke-linejoin="miter">
	<path stroke='black'  d='M813.1,662.4 L813.1,653.4  '/>	<g transform="translate(813.1,684.3)" stroke="none" fill="black" font-family="Helvetica" font-size="12.00"  text-anchor="middle">
		<text><tspan font-family="Helvetica" >-18</tspan></text>
	</g>
</g>
<g fill="none" color="black" stroke="currentColor" stroke-width="1.00" stroke-linecap="butt" stroke-linejoin="miter">
	<path stroke='black'  d='M937.9,662.4 L937.9,653.4  '/>	<g transform="translate(937.9,684.3)" stroke="none" fill="black" font-family="Helvetica" font-size="12.00"  text-anchor="middle">
		<text><tspan font-family="Helvetica" >-17.5</tspan></text>
	</g>
</g>
<g fill="none" color="black" stroke="currentColor" stroke-width="1.00" stroke-linecap="butt" stroke-linejoin="miter">
</g>
<g fill="none" color="black" stroke="currentColor" stroke-width="1.00" stroke-linecap="butt" stroke-linejoin="miter">
	<path stroke='black'  d='M63.6,54.1 L63.6,662.4 L1013.6,662.4 L1013.6,54.1 L63.6,54.1 Z  '/></g>
<g fill="none" color="black" stroke="currentColor" stroke-width="1.00" stroke-linecap="butt" stroke-linejoin="miter">
	<g transform="translate(16.3,358.3) rotate(270)" stroke="none" fill="black" font-family="Helvetica" font-size="12.00"  text-anchor="middle">
		<text><tspan font-family="Helvetica" >Density (a.u.)</tspan></text>
	</g>
</g>
<g fill="none" color="black" stroke="currentColor" stroke-width="1.00" stroke-linecap="butt" stroke-linejoin="miter">
	<g transform="translate(538.6,711.3)" stroke="none" fill="black" font-family="Helvetica" font-size="12.00"  text-anchor="middle">
		<text><tspan font-family="Helvetica" >Relative change (%)</tspan></text>
	</g>
</g>
<g fill="none" color="black" stroke="currentColor" stroke-width="1.00" stroke-linecap="butt" stroke-linejoin="miter">
	<g transform="translate(538.6,31.0)" stroke="none" fill="black" font-family="Helvetica" font-size="12.00"  text-anchor="middle">
		<text><tspan font-family="Helvetica" >snapshot_restore_with_dense/Sparse: Dirty pages + process_vm_writev/46: mean</tspan></text>
	</g>
</g>
	<g id="gnuplot_plot_1" ><title>Bootstrap distribution</title>
<g fill="none" color="white" stroke="black" stroke-width="2.00" stroke-linecap="butt" stroke-linejoin="miter">
</g>
<g fill="none" color="black" stroke="currentColor" stroke-width="2.00" stroke-linecap="butt" stroke-linejoin="miter">
	<g transform="translate(1089.0,67.0)" stroke="none" fill="black" font-family="Helvetica" font-size="12.00"  text-anchor="start">
		<text><tspan font-family="Helvetica" >Bootstrap distribution</tspan></text>
	</g>
</g>
<g fill="none" color="black" stroke="currentColor" stroke-width="2.00" stroke-linecap="butt" stroke-linejoin="miter">
	<path stroke='rgb( 31, 120, 180)'  d='M1038.5,63.1 L1080.7,63.1 M63.6,627.1 L65.5,626.3 L67.4,625.6 L69.3,624.8 L71.2,624.1 L73.1,623.3
		L75.0,622.6 L76.9,621.8 L78.8,621.0 L80.7,620.2 L82.6,619.4 L84.5,618.6 L86.4,617.8 L88.3,617.0
		L90.3,616.1 L92.2,615.2 L94.1,614.3 L96.0,613.4 L97.9,612.5 L99.8,611.5 L101.7,610.5 L103.6,609.5
		L105.5,608.4 L107.4,607.4 L109.3,606.3 L111.2,605.2 L113.1,604.0 L115.0,602.9 L116.9,601.7 L118.8,600.5
		L120.7,599.3 L122.6,598.1 L124.5,596.9 L126.4,595.7 L128.3,594.5 L130.2,593.3 L132.1,592.1 L134.0,590.9
		L135.9,589.7 L137.8,588.4 L139.8,587.2 L141.7,586.0 L143.6,584.8 L145.5,583.5 L147.4,582.3 L149.3,581.1
		L151.2,579.8 L153.1,578.6 L155.0,577.3 L156.9,576.0 L158.8,574.8 L160.7,573.5 L162.6,572.2 L164.5,570.9
		L166.4,569.6 L168.3,568.3 L170.2,566.9 L172.1,565.6 L174.0,564.2 L175.9,562.8 L177.8,561.4 L179.7,560.0
		L181.6,558.5 L183.5,557.0 L185.4,555.5 L187.3,554.0 L189.3,552.5 L191.2,550.9 L193.1,549.3 L195.0,547.7
		L196.9,546.1 L198.8,544.4 L200.7,542.7 L202.6,541.0 L204.5,539.3 L206.4,537.6 L208.3,535.9 L210.2,534.2
		L212.1,532.4 L214.0,530.7 L215.9,528.9 L217.8,527.1 L219.7,525.3 L221.6,523.5 L223.5,521.6 L225.4,519.7
		L227.3,517.8 L229.2,515.8 L231.1,513.8 L233.0,511.8 L234.9,509.7 L236.8,507.6 L238.8,505.4 L240.7,503.2
		L242.6,500.9 L244.5,498.6 L246.4,496.3 L248.3,493.9 L250.2,491.5 L252.1,489.0 L254.0,486.6 L255.9,484.1
		L257.8,481.6 L259.7,479.1 L261.6,476.6 L263.5,474.1 L265.4,471.6 L267.3,469.1 L269.2,466.5 L271.1,464.0
		L273.0,461.5 L274.9,459.0 L276.8,456.4 L278.7,453.9 L280.6,451.3 L282.5,448.7 L284.4,446.1 L286.3,443.4
		L288.2,440.7 L290.2,437.9 L292.1,435.1 L294.0,432.2 L295.9,429.3 L297.8,426.4 L299.7,423.4 L301.6,420.3
		L303.5,417.2 L305.4,414.1 L307.3,411.0 L309.2,407.8 L311.1,404.6 L313.0,401.4 L314.9,398.2 L316.8,395.0
		L318.7,391.8 L320.6,388.6 L322.5,385.4 L324.4,382.2 L326.3,379.1 L328.2,375.9 L330.1,372.8 L332.0,369.7
		L333.9,366.6 L335.8,363.5 L337.7,360.4 L339.7,357.3 L341.6,354.2 L343.5,351.1 L345.4,347.9 L347.3,344.8
		L349.2,341.6 L351.1,338.5 L353.0,335.3 L354.9,332.1 L356.8,328.9 L358.7,325.7 L360.6,322.5 L362.5,319.2
		L364.4,316.0 L366.3,312.7 L368.2,309.5 L370.1,306.3 L372.0,303.1 L373.9,299.9 L375.8,296.7 L377.7,293.5
		L379.6,290.4 L381.5,287.3 L383.4,284.2 L385.3,281.1 L387.2,278.0 L389.2,275.0 L391.1,271.9 L393.0,268.9
		L394.9,265.9 L396.8,262.9 L398.7,259.8 L400.6,256.8 L402.5,253.8 L404.4,250.7 L406.3,247.6 L408.2,244.6
		L410.1,241.5 L412.0,238.4 L413.9,235.2 L415.8,232.1 L417.7,229.0 L419.6,225.9 L421.5,222.7 L423.4,219.6
		L425.3,216.4 L427.2,213.3 L429.1,210.2 L431.0,207.0 L432.9,203.9 L434.8,200.8 L436.7,197.6 L438.7,194.5
		L440.6,191.3 L442.5,188.2 L444.4,185.0 L446.3,181.8 L448.2,178.6 L450.1,175.4 L452.0,172.2 L453.9,169.0
		L455.8,165.8 L457.7,162.6 L459.6,159.4 L461.5,156.2 L463.4,153.0 L465.3,149.9 L467.2,146.8 L469.1,143.7
		L471.0,140.7 L472.9,137.7 L474.8,134.8 L476.7,132.0 L478.6,129.2 L480.5,126.5 L482.4,123.9 L484.3,121.4
		L486.2,119.0 L488.1,116.6 L490.1,114.4 L492.0,112.2 L493.9,110.1 L495.8,108.1 L497.7,106.2 L499.6,104.3
		L501.5,102.6 L503.4,100.9 L505.3,99.3 L507.2,97.7 L509.1,96.3 L511.0,94.8 L512.9,93.5 L514.8,92.1
		L516.7,90.9 L518.6,89.6 L520.5,88.4 L522.4,87.1 L524.3,85.9 L526.2,84.7 L528.1,83.5 L530.0,82.3
		L531.9,81.0 L533.8,79.8 L535.7,78.5 L537.6,77.2 L539.6,75.9 L541.5,74.6 L543.4,73.3 L545.3,71.9
		L547.2,70.6 L549.1,69.3 L551.0,68.0 L552.9,66.8 L554.8,65.6 L556.7,64.5 L558.6,63.4 L560.5,62.4
		L562.4,61.4 L564.3,60.6 L566.2,59.8 L568.1,59.1 L570.0,58.5 L571.9,58.0 L573.8,57.6 L575.7,57.2
		L577.6,57.0 L579.5,56.8 L581.4,56.6 L583.3,56.6 L585.2,56.6 L587.1,56.6 L589.1,56.7 L591.0,56.8
		L592.9,57.0 L594.8,57.1 L596.7,57.3 L598.6,57.5 L600.5,57.8 L602.4,58.1 L604.3,58.4 L606.2,58.7
		L608.1,59.0 L610.0,59.4 L611.9,59.9 L613.8,60.4 L615.7,60.9 L617.6,61.5 L619.5,62.2 L621.4,63.0
		L623.3,63.8 L625.2,64.7 L627.1,65.6 L629.0,66.6 L630.9,67.7 L632.8,68.9 L634.7,70.1 L636.6,71.5
		L638.5,72.8 L640.5,74.3 L642.4,75.8 L644.3,77.4 L646.2,79.1 L648.1,80.8 L650.0,82.6 L651.9,84.5
		L653.8,86.4 L655.7,88.4 L657.6,90.5 L659.5,92.6 L661.4,94.8 L663.3,97.0 L665.2,99.3 L667.1,101.7
		L669.0,104.0 L670.9,106.5 L672.8,108.9 L674.7,111.4 L676.6,113.9 L678.5,116.5 L680.4,119.0 L682.3,121.6
		L684.2,124.2 L686.1,126.8 L688.0,129.4 L690.0,132.1 L691.9,134.7 L693.8,137.4 L695.7,140.1 L697.6,142.9
		L699.5,145.6 L701.4,148.4 L703.3,151.2 L705.2,154.1 L707.1,157.0 L709.0,160.0 L710.9,163.0 L712.8,166.0
		L714.7,169.2 L716.6,172.4 L718.5,175.7 L720.4,179.0 L722.3,182.4 L724.2,185.9 L726.1,189.5 L728.0,193.2
		L729.9,197.0 L731.8,200.8 L733.7,204.8 L735.6,208.8 L737.5,212.9 L739.5,217.0 L741.4,221.2 L743.3,225.5
		L745.2,229.7 L747.1,234.1 L749.0,238.4 L750.9,242.8 L752.8,247.1 L754.7,251.5 L756.6,255.8 L758.5,260.1
		L760.4,264.4 L762.3,268.6 L764.2,272.8 L766.1,276.9 L768.0,281.0 L769.9,284.9 L771.8,288.8 L773.7,292.7
		L775.6,296.4 L777.5,300.1 L779.4,303.7 L781.3,307.3 L783.2,310.8 L785.1,314.2 L787.0,317.5 L789.0,320.8
		L790.9,324.0 L792.8,327.2 L794.7,330.4 L796.6,333.6 L798.5,336.7 L800.4,339.8 L802.3,342.9 L804.2,346.0
		L806.1,349.2 L808.0,352.3 L809.9,355.5 L811.8,358.8 L813.7,362.1 L815.6,365.4 L817.5,368.8 L819.4,372.2
		L821.3,375.8 L823.2,379.3 L825.1,382.9 L827.0,386.6 L828.9,390.3 L830.8,394.1 L832.7,397.9 L834.6,401.7
		L836.5,405.6 L838.4,409.5 L840.4,413.4 L842.3,417.2 L844.2,421.1 L846.1,425.0 L848.0,428.8 L849.9,432.6
		L851.8,436.4 L853.7,440.1 L855.6,443.8 L857.5,447.5 L859.4,451.1 L861.3,454.6 L863.2,458.1 L865.1,461.5
		L867.0,464.9 L868.9,468.2 L870.8,471.5 L872.7,474.7 L874.6,477.9 L876.5,481.0 L878.4,484.1 L880.3,487.2
		L882.2,490.2 L884.1,493.1 L886.0,496.1 L887.9,499.0 L889.9,501.8 L891.8,504.6 L893.7,507.4 L895.6,510.1
		L897.5,512.8 L899.4,515.5 L901.3,518.1 L903.2,520.7 L905.1,523.3 L907.0,525.8 L908.9,528.3 L910.8,530.7
		L912.7,533.1 L914.6,535.5 L916.5,537.9 L918.4,540.3 L920.3,542.6 L922.2,544.9 L924.1,547.2 L926.0,549.5
		L927.9,551.8 L929.8,554.0 L931.7,556.3 L933.6,558.5 L935.5,560.7 L937.4,562.9 L939.4,565.1 L941.3,567.3
		L943.2,569.4 L945.1,571.5 L947.0,573.6 L948.9,575.7 L950.8,577.8 L952.7,579.8 L954.6,581.8 L956.5,583.7
		L958.4,585.6 L960.3,587.5 L962.2,589.3 L964.1,591.2 L966.0,592.9 L967.9,594.7 L969.8,596.4 L971.7,598.1
		L973.6,599.7 L975.5,601.3 L977.4,602.9 L979.3,604.4 L981.2,605.9 L983.1,607.4 L985.0,608.9 L986.9,610.3
		L988.9,611.7 L990.8,613.0 L992.7,614.4 L994.6,615.7 L996.5,616.9 L998.4,618.2 L1000.3,619.4 L1002.2,620.6
		L1004.1,621.7 L1006.0,622.9 L1007.9,624.0 L1009.8,625.1 L1011.7,626.1 L1013.6,627.2  '/></g>
	</g>
	<g id="gnuplot_plot_2" ><title>Confidence interval</title>
<g fill="none" color="white" stroke="rgb( 31, 120, 180)" stroke-width="1.00" stroke-linecap="butt" stroke-linejoin="miter">
</g>
<g fill="none" color="black" stroke="currentColor" stroke-width="1.00" stroke-linecap="butt" stroke-linejoin="miter">
	<g transform="translate(1089.0,85.0)" stroke="none" fill="black" font-family="Helvetica" font-size="12.00"  text-anchor="start">
		<text><tspan font-family="Helvetica" >Confidence interval</tspan></text>
	</g>
</g>
<g fill="none" color="black" stroke="currentColor" stroke-width="1.00" stroke-linecap="butt" stroke-linejoin="miter">
	<g stroke='none' shape-rendering='crispEdges'>
		<polygon fill = 'rgb( 31, 120, 180)' fill-opacity = '0.250000' points = '1038.5,85.6 1080.7,85.6 1080.7,76.6 1038.5,76.6 '/>
		<polygon fill = 'rgb( 31, 120, 180)' fill-opacity = '0.250000' points = '151.2,579.8 153.1,578.6 155.0,577.3 156.9,576.0 158.8,574.8 160.7,573.5 162.6,572.2 164.5,570.9 166.4,569.6 168.3,568.3 170.2,566.9 172.1,565.6 174.0,564.2 175.9,562.8 177.8,561.4 179.7,560.0
181.6,558.5 183.5,557.0 185.4,555.5 187.3,554.0 189.3,552.5 191.2,550.9 193.1,549.3 195.0,547.7 196.9,546.1 198.8,544.4 200.7,542.7 202.6,541.0 204.5,539.3 206.4,537.6 208.3,535.9 210.2,534.2
212.1,532.4 214.0,530.7 215.9,528.9 217.8,527.1 219.7,525.3 221.6,523.5 223.5,521.6 225.4,519.7 227.3,517.8 229.2,515.8 231.1,513.8 233.0,511.8 234.9,509.7 236.8,507.6 238.8,505.4 240.7,503.2
242.6,500.9 244.5,498.6 246.4,496.3 248.3,493.9 250.2,491.5 252.1,489.0 254.0,486.6 255.9,484.1 257.8,481.6 259.7,479.1 261.6,476.6 263.5,474.1 265.4,471.6 267.3,469.1 269.2,466.5 271.1,464.0
273.0,461.5 274.9,459.0 276.8,456.4 278.7,453.9 280.6,451.3 282.5,448.7 284.4,446.1 286.3,443.4 288.2,440.7 290.2,437.9 292.1,435.1 294.0,432.2 295.9,429.3 297.8,426.4 299.7,423.4 301.6,420.3
303.5,417.2 305.4,414.1 307.3,411.0 309.2,407.8 311.1,404.6 313.0,401.4 314.9,398.2 316.8,395.0 318.7,391.8 320.6,388.6 322.5,385.4 324.4,382.2 326.3,379.1 328.2,375.9 330.1,372.8 332.0,369.7
333.9,366.6 335.8,363.5 337.7,360.4 339.7,357.3 341.6,354.2 343.5,351.1 345.4,347.9 347.3,344.8 349.2,341.6 351.1,338.5 353.0,335.3 354.9,332.1 356.8,328.9 358.7,325.7 360.6,322.5 362.5,319.2
364.4,316.0 366.3,312.7 368.2,309.5 370.1,306.3 372.0,303.1 373.9,299.9 375.8,296.7 377.7,293.5 379.6,290.4 381.5,287.3 383.4,284.2 385.3,281.1 387.2,278.0 389.2,275.0 391.1,271.9 393.0,268.9
394.9,265.9 396.8,262.9 398.7,259.8 400.6,256.8 402.5,253.8 404.4,250.7 406.3,247.6 408.2,244.6 410.1,241.5 412.0,238.4 413.9,235.2 415.8,232.1 417.7,229.0 419.6,225.9 421.5,222.7 423.4,219.6
425.3,216.4 427.2,213.3 429.1,210.2 431.0,207.0 432.9,203.9 434.8,200.8 436.7,197.6 438.7,194.5 440.6,191.3 442.5,188.2 444.4,185.0 446.3,181.8 448.2,178.6 450.1,175.4 452.0,172.2 453.9,169.0
455.8,165.8 457.7,162.6 459.6,159.4 461.5,156.2 463.4,153.0 465.3,149.9 467.2,146.8 469.1,143.7 471.0,140.7 472.9,137.7 474.8,134.8 476.7,132.0 478.6,129.2 480.5,126.5 482.4,123.9 484.3,121.4
486.2,119.0 488.1,116.6 490.1,114.4 492.0,112.2 493.9,110.1 495.8,108.1 497.7,106.2 499.6,104.3 501.5,102.6 503.4,100.9 505.3,99.3 507.2,97.7 509.1,96.3 511.0,94.8 512.9,93.5 514.8,92.1
516.7,90.9 518.6,89.6 520.5,88.4 522.4,87.1 524.3,85.9 526.2,84.7 528.1,83.5 530.0,82.3 531.9,81.0 533.8,79.8 535.7,78.5 537.6,77.2 539.6,75.9 541.5,74.6 543.4,73.3 545.3,71.9
547.2,70.6 549.1,69.3 551.0,68.0 552.9,66.8 554.8,65.6 556.7,64.5 558.6,63.4 560.5,62.4 562.4,61.4 564.3,60.6 566.2,59.8 568.1,59.1 570.0,58.5 571.9,58.0 573.8,57.6 575.7,57.2
577.6,57.0 579.5,56.8 581.4,56.6 583.3,56.6 585.2,56.6 587.1,56.6 589.1,56.7 591.0,56.8 592.9,57.0 594.8,57.1 596.7,57.3 598.6,57.5 600.5,57.8 602.4,58.1 604.3,58.4 606.2,58.7
608.1,59.0 610.0,59.4 611.9,59.9 613.8,60.4 615.7,60.9 617.6,61.5 619.5,62.2 621.4,63.0 623.3,63.8 625.2,64.7 627.1,65.6 629.0,66.6 630.9,67.7 632.8,68.9 634.7,70.1 636.6,71.5
638.5,72.8 640.5,74.3 642.4,75.8 644.3,77.4 646.2,79.1 648.1,80.8 650.0,82.6 651.9,84.5 653.8,86.4 655.7,88.4 657.6,90.5 659.5,92.6 661.4,94.8 663.3,97.0 665.2,99.3 667.1,101.7
669.0,104.0 670.9,106.5 672.8,108.9 674.7,111.4 676.6,113.9 678.5,116.5 680.4,119.0 682.3,121.6 684.2,124.2 686.1,126.8 688.0,129.4 690.0,132.1 691.9,134.7 693.8,137.4 695.7,140.1 697.6,142.9
699.5,145.6 701.4,148.4 703.3,151.2 705.2,154.1 707.1,157.0 709.0,160.0 710.9,163.0 712.8,166.0 714.7,169.2 716.6,172.4 718.5,175.7 720.4,179.0 722.3,182.4 724.2,185.9 726.1,189.5 728.0,193.2
729.9,197.0 731.8,200.8 733.7,204.8 735.6,208.8 737.5,212.9 739.5,217.0 741.4,221.2 743.3,225.5 745.2,229.7 747.1,234.1 749.0,238.4 750.9,242.8 752.8,247.1 754.7,251.5 756.6,255.8 758.5,260.1
760.4,264.4 762.3,268.6 764.2,272.8 766.1,276.9 768.0,281.0 769.9,284.9 771.8,288.8 773.7,292.7 775.6,296.4 777.5,300.1 779.4,303.7 781.3,307.3 783.2,310.8 785.1,314.2 787.0,317.5 789.0,320.8
790.9,324.0 792.8,327.2 794.7,330.4 796.6,333.6 798.5,336.7 800.4,339.8 802.3,342.9 804.2,346.0 806.1,349.2 808.0,352.3 809.9,355.5 811.8,358.8 813.7,362.1 815.6,365.4 817.5,368.8 819.4,372.2
821.3,375.8 823.2,379.3 825.1,382.9 827.0,386.6 828.9,390.3 830.8,394.1 832.7,397.9 834.6,401.7 836.5,405.6 838.4,409.5 840.4,413.4 842.3,417.2 844.2,421.1 846.1,425.0 848.0,428.8 849.9,432.6
851.8,436.4 853.7,440.1 855.6,443.8 857.5,447.5 859.4,451.1 861.3,454.6 863.2,458.1 865.1,461.5 867.0,464.9 868.9,468.2 870.8,471.5 872.7,474.7 874.6,477.9 876.5,481.0 878.4,484.1 880.3,487.2
882.2,490.2 884.1,493.1 886.0,496.1 887.9,499.0 889.9,501.8 891.8,504.6 893.7,507.4 895.6,510.1 897.5,512.8 899.4,515.5 901.3,518.1 903.2,520.7 905.1,523.3 907.0,525.8 908.9,528.3 910.8,530.7
912.7,533.1 914.6,535.5 916.5,537.9 918.4,540.3 920.3,542.6 922.2,544.9 924.1,547.2 924.1,662.4 922.2,662.4 920.3,662.4 918.4,662.4 916.5,662.4 914.6,662.4 912.7,662.4 910.8,662.4 908.9,662.4
907.0,662.4 905.1,662.4 903.2,662.4 901.3,662.4 899.4,662.4 897.5,662.4 895.6,662.4 893.7,662.4 891.8,662.4 889.9,662.4 887.9,662.4 886.0,662.4 884.1,662.4 882.2,662.4 880.3,662.4 878.4,662.4
876.5,662.4 874.6,662.4 872.7,662.4 870.8,662.4 868.9,662.4 867.0,662.4 865.1,662.4 863.2,662.4 861.3,662.4 859.4,662.4 857.5,662.4 855.6,662.4 853.7,662.4 851.8,662.4 849.9,662.4 848.0,662.4
846.1,662.4 844.2,662.4 842.3,662.4 840.4,662.4 838.4,662.4 836.5,662.4 834.6,662.4 832.7,662.4 830.8,662.4 828.9,662.4 827.0,662.4 825.1,662.4 823.2,662.4 821.3,662.4 819.4,662.4 817.5,662.4
815.6,662.4 813.7,662.4 811.8,662.4 809.9,662.4 808.0,662.4 806.1,662.4 804.2,662.4 802.3,662.4 800.4,662.4 798.5,662.4 796.6,662.4 794.7,662.4 792.8,662.4 790.9,662.4 789.0,662.4 787.0,662.4
785.1,662.4 783.2,662.4 781.3,662.4 779.4,662.4 777.5,662.4 775.6,662.4 773.7,662.4 771.8,662.4 769.9,662.4 768.0,662.4 766.1,662.4 764.2,662.4 762.3,662.4 760.4,662.4 758.5,662.4 756.6,662.4
754.7,662.4 752.8,662.4 750.9,662.4 749.0,662.4 747.1,662.4 745.2,662.4 743.3,662.4 741.4,662.4 739.5,662.4 737.5,662.4 735.6,662.4 733.7,662.4 731.8,662.4 729.9,662.4 728.0,662.4 726.1,662.4
724.2,662.4 722.3,662.4 720.4,662.4 718.5,662.4 716.6,662.4 714.7,662.4 712.8,662.4 710.9,662.4 709.0,662.4 707.1,662.4 705.2,662.4 703.3,662.4 701.4,662.4 699.5,662.4 697.6,662.4 695.7,662.4
693.8,662.4 691.9,662.4 690.0,662.4 688.0,662.4 686.1,662.4 684.2,662.4 682.3,662.4 680.4,662.4 678.5,662.4 676.6,662.4 674.7,662.4 672.8,662.4 670.9,662.4 669.0,662.4 667.1,662.4 665.2,662.4
663.3,662.4 661.4,662.4 659.5,662.4 657.6,662.4 655.7,662.4 653.8,662.4 651.9,662.4 650.0,662.4 648.1,662.4 646.2,662.4 644.3,662.4 642.4,662.4 640.5,662.4 638.5,662.4 636.6,662.4 634.7,662.4
632.8,662.4 630.9,662.4 629.0,662.4 627.1,662.4 625.2,662.4 623.3,662.4 621.4,662.4 619.5,662.4 617.6,662.4 615.7,662.4 613.8,662.4 611.9,662.4 610.0,662.4 608.1,662.4 606.2,662.4 604.3,662.4
602.4,662.4 600.5,662.4 598.6,662.4 596.7,662.4 594.8,662.4 592.9,662.4 591.0,662.4 589.1,662.4 587.1,662.4 585.2,662.4 583.3,662.4 581.4,662.4 579.5,662.4 577.6,662.4 575.7,662.4 573.8,662.4
571.9,662.4 570.0,662.4 568.1,662.4 566.2,662.4 564.3,662.4 562.4,662.4 560.5,662.4 558.6,662.4 556.7,662.4 554.8,662.4 552.9,662.4 551.0,662.4 549.1,662.4 547.2,662.4 545.3,662.4 543.4,662.4
541.5,662.4 539.6,662.4 537.6,662.4 535.7,662.4 533.8,662.4 531.9,662.4 530.0,662.4 528.1,662.4 526.2,662.4 524.3,662.4 522.4,662.4 520.5,662.4 518.6,662.4 516.7,662.4 514.8,662.4 512.9,662.4
511.0,662.4 509.1,662.4 507.2,662.4 505.3,662.4 503.4,662.4 501.5,662.4 499.6,662.4 497.7,662.4 495.8,662.4 493.9,662.4 492.0,662.4 490.1,662.4 488.1,662.4 486.2,662.4 484.3,662.4 482.4,662.4
480.5,662.4 478.6,662.4 476.7,662.4 474.8,662.4 472.9,662.4 471.0,662.4 469.1,662.4 467.2,662.4 465.3,662.4 463.4,662.4 461.5,662.4 459.6,662.4 457.7,662.4 455.8,662.4 453.9,662.4 452.0,662.4
450.1,662.4 448.2,662.4 446.3,662.4 444.4,662.4 442.5,662.4 440.6,662.4 438.7,662.4 436.7,662.4 434.8,662.4 432.9,662.4 431.0,662.4 429.1,662.4 427.2,662.4 425.3,662.4 423.4,662.4 421.5,662.4
419.6,662.4 417.7,662.4 415.8,662.4 413.9,662.4 412.0,662.4 410.1,662.4 408.2,662.4 406.3,662.4 404.4,662.4 402.5,662.4 400.6,662.4 398.7,662.4 396.8,662.4 394.9,662.4 393.0,662.4 391.1,662.4
389.2,662.4 387.2,662.4 385.3,662.4 383.4,662.4 381.5,662.4 379.6,662.4 377.7,662.4 375.8,662.4 373.9,662.4 372.0,662.4 370.1,662.4 368.2,662.4 366.3,662.4 364.4,662.4 362.5,662.4 360.6,662.4
358.7,662.4 356.8,662.4 354.9,662.4 353.0,662.4 351.1,662.4 349.2,662.4 347.3,662.4 345.4,662.4 343.5,662.4 341.6,662.4 339.7,662.4 337.7,662.4 335.8,662.4 333.9,662.4 332.0,662.4 330.1,662.4
328.2,662.4 326.3,662.4 324.4,662.4 322.5,662.4 320.6,662.4 318.7,662.4 316.8,662.4 314.9,662.4 313.0,662.4 311.1,662.4 309.2,662.4 307.3,662.4 305.4,662.4 303.5,662.4 301.6,662.4 299.7,662.4
297.8,662.4 295.9,662.4 294.0,662.4 292.1,662.4 290.2,662.4 288.2,662.4 286.3,662.4 284.4,662.4 282.5,662.4 280.6,662.4 278.7,662.4 276.8,662.4 274.9,662.4 273.0,662.4 271.1,662.4 269.2,662.4
267.3,662.4 265.4,662.4 263.5,662.4 261.6,662.4 259.7,662.4 257.8,662.4 255.9,662.4 254.0,662.4 252.1,662.4 250.2,662.4 248.3,662.4 246.4,662.4 244.5,662.4 242.6,662.4 240.7,662.4 238.8,662.4
236.8,662.4 234.9,662.4 233.0,662.4 231.1,662.4 229.2,662.4 227.3,662.4 225.4,662.4 223.5,662.4 221.6,662.4 219.7,662.4 217.8,662.4 215.9,662.4 214.0,662.4 212.1,662.4 210.2,662.4 208.3,662.4
206.4,662.4 204.5,662.4 202.6,662.4 200.7,662.4 198.8,662.4 196.9,662.4 195.0,662.4 193.1,662.4 191.2,662.4 189.3,662.4 187.3,662.4 185.4,662.4 183.5,662.4 181.6,662.4 179.7,662.4 177.8,662.4
175.9,662.4 174.0,662.4 172.1,662.4 170.2,662.4 168.3,662.4 166.4,662.4 164.5,662.4 162.6,662.4 160.7,662.4 158.8,662.4 156.9,662.4 155.0,662.4 153.1,662.4 151.2,662.4 '/>
	</g>
</g>
	</g>
	<g id="gnuplot_plot_3" ><title>Point estimate</title>
<g fill="none" color="white" stroke="rgb( 31, 120, 180)" stroke-width="2.00" stroke-linecap="butt" stroke-linejoin="miter">
</g>
<g fill="none" color="black" stroke="currentColor" stroke-width="2.00" stroke-linecap="butt" stroke-linejoin="miter">
	<g transform="translate(1089.0,103.0)" stroke="none" fill="black" font-family="Helvetica" font-size="12.00"  text-anchor="start">
		<text><tspan font-family="Helvetica" >Point estimate</tspan></text>
	</g>
</g>
<g fill="none" color="black" stroke="currentColor" stroke-width="2.00" stroke-linecap="butt" stroke-linejoin="miter">
	<path stroke='rgb( 31, 120, 180)'  d='M1038.5,99.1 L1080.7,99.1 M563.1,662.4 L563.1,61.1  '/></g>
	</g>
	<g id="gnuplot_plot_4" ><title>Noise threshold</title>
<g fill="none" color="white" stroke="rgb( 31, 120, 180)" stroke-width="1.00" stroke-linecap="butt" stroke-linejoin="miter">
</g>
<g fill="none" color="black" stroke="currentColor" stroke-width="1.00" stroke-linecap="butt" stroke-linejoin="miter">
	<g transform="translate(1089.0,121.0)" stroke="none" fill="black" font-family="Helvetica" font-size="12.00"  text-anchor="start">
		<text><tspan font-family="Helvetica" >Noise threshold</tspan></text>
	</g>
</g>
<g fill="none" color="black" stroke="currentColor" stroke-width="1.00" stroke-linecap="butt" stroke-linejoin="miter">
	<g stroke='none' shape-rendering='crispEdges'>
		<polygon fill = 'rgb(227,  26,  28)' fill-opacity = '0.100000' points = '1038.5,121.6 1080.7,121.6 1080.7,112.6 1038.5,112.6 '/>
		<polygon fill = 'rgb(227,  26,  28)' fill-opacity = '0.100000' points = '538.6,54.1 538.6,54.1 538.6,662.4 538.6,662.4 '/>
	</g>
</g>
	</g>
<g fill="none" color="white" stroke="rgb(227,  26,  28)" stroke-width="2.00" stroke-linecap="butt" stroke-linejoin="miter">
</g>
<g fill="none" color="black" stroke="currentColor" stroke-width="2.00" stroke-linecap="butt" stroke-linejoin="miter">
</g>
<g fill="none" color="black" stroke="black" stroke-width="1.00" stroke-linecap="butt" stroke-linejoin="miter">
</g>
<g fill="none" color="black" stroke="currentColor" stroke-width="1.00" stroke-linecap="butt" stroke-linejoin="miter">
	<path stroke='black'  d='M63.6,54.1 L63.6,662.4 L1013.6,662.4 L1013.6,54.1 L63.6,54.1 Z  '/></g>
<g fill="none" color="black" stroke="currentColor" stroke-width="1.00" stroke-linecap="butt" stroke-linejoin="miter">
</g>
</g>
</svg>

