<?xml version="1.0" encoding="utf-8"  standalone="no"?>
<svg 
 viewBox="0 0 1280 720"
 xmlns="http://www.w3.org/2000/svg"
 xmlns:xlink="http://www.w3.org/1999/xlink"
>

<title>Gnuplot</title>
<desc>Produced by GNUPLOT 5.2 patchlevel 6 </desc>

<g id="gnuplot_canvas">

<rect x="0" y="0" width="1280" height="720" fill="none"/>
<defs>

	<circle id='gpDot' r='0.5' stroke-width='0.5' stroke='currentColor'/>
	<path id='gpPt0' stroke-width='0.222' stroke='currentColor' d='M-1,0 h2 M0,-1 v2'/>
	<path id='gpPt1' stroke-width='0.222' stroke='currentColor' d='M-1,-1 L1,1 M1,-1 L-1,1'/>
	<path id='gpPt2' stroke-width='0.222' stroke='currentColor' d='M-1,0 L1,0 M0,-1 L0,1 M-1,-1 L1,1 M-1,1 L1,-1'/>
	<rect id='gpPt3' stroke-width='0.222' stroke='currentColor' x='-1' y='-1' width='2' height='2'/>
	<rect id='gpPt4' stroke-width='0.222' stroke='currentColor' fill='currentColor' x='-1' y='-1' width='2' height='2'/>
	<circle id='gpPt5' stroke-width='0.222' stroke='currentColor' cx='0' cy='0' r='1'/>
	<use xlink:href='#gpPt5' id='gpPt6' fill='currentColor' stroke='none'/>
	<path id='gpPt7' stroke-width='0.222' stroke='currentColor' d='M0,-1.33 L-1.33,0.67 L1.33,0.67 z'/>
	<use xlink:href='#gpPt7' id='gpPt8' fill='currentColor' stroke='none'/>
	<use xlink:href='#gpPt7' id='gpPt9' stroke='currentColor' transform='rotate(180)'/>
	<use xlink:href='#gpPt9' id='gpPt10' fill='currentColor' stroke='none'/>
	<use xlink:href='#gpPt3' id='gpPt11' stroke='currentColor' transform='rotate(45)'/>
	<use xlink:href='#gpPt11' id='gpPt12' fill='currentColor' stroke='none'/>
	<path id='gpPt13' stroke-width='0.222' stroke='currentColor' d='M0,1.330 L1.265,0.411 L0.782,-1.067 L-0.782,-1.076 L-1.265,0.411 z'/>
	<use xlink:href='#gpPt13' id='gpPt14' fill='currentColor' stroke='none'/>
	<filter id='textbox' filterUnits='objectBoundingBox' x='0' y='0' height='1' width='1'>
	  <feFlood flood-color='white' flood-opacity='1' result='bgnd'/>
	  <feComposite in='SourceGraphic' in2='bgnd' operator='atop'/>
	</filter>
	<filter id='greybox' filterUnits='objectBoundingBox' x='0' y='0' height='1' width='1'>
	  <feFlood flood-color='lightgrey' flood-opacity='1' result='grey'/>
	  <feComposite in='SourceGraphic' in2='grey' operator='atop'/>
	</filter>
</defs>
<g fill="none" color="white" stroke="currentColor" stroke-width="1.00" stroke-linecap="butt" stroke-linejoin="miter">
</g>
<g fill="none" color="black" stroke="currentColor" stroke-width="1.00" stroke-linecap="butt" stroke-linejoin="miter">
	<path stroke='black'  d='M71.9,662.4 L80.9,662.4  '/>	<g transform="translate(63.6,666.3)" stroke="none" fill="black" font-family="Helvetica" font-size="12.00"  text-anchor="end">
		<text><tspan font-family="Helvetica" > 0</tspan></text>
	</g>
</g>
<g fill="none" color="black" stroke="currentColor" stroke-width="1.00" stroke-linecap="butt" stroke-linejoin="miter">
	<path stroke='black'  d='M71.9,601.6 L80.9,601.6  '/>	<g transform="translate(63.6,605.5)" stroke="none" fill="black" font-family="Helvetica" font-size="12.00"  text-anchor="end">
		<text><tspan font-family="Helvetica" > 10</tspan></text>
	</g>
</g>
<g fill="none" color="black" stroke="currentColor" stroke-width="1.00" stroke-linecap="butt" stroke-linejoin="miter">
	<path stroke='black'  d='M71.9,540.7 L80.9,540.7  '/>	<g transform="translate(63.6,544.6)" stroke="none" fill="black" font-family="Helvetica" font-size="12.00"  text-anchor="end">
		<text><tspan font-family="Helvetica" > 20</tspan></text>
	</g>
</g>
<g fill="none" color="black" stroke="currentColor" stroke-width="1.00" stroke-linecap="butt" stroke-linejoin="miter">
	<path stroke='black'  d='M71.9,479.9 L80.9,479.9  '/>	<g transform="translate(63.6,483.8)" stroke="none" fill="black" font-family="Helvetica" font-size="12.00"  text-anchor="end">
		<text><tspan font-family="Helvetica" > 30</tspan></text>
	</g>
</g>
<g fill="none" color="black" stroke="currentColor" stroke-width="1.00" stroke-linecap="butt" stroke-linejoin="miter">
	<path stroke='black'  d='M71.9,419.1 L80.9,419.1  '/>	<g transform="translate(63.6,423.0)" stroke="none" fill="black" font-family="Helvetica" font-size="12.00"  text-anchor="end">
		<text><tspan font-family="Helvetica" > 40</tspan></text>
	</g>
</g>
<g fill="none" color="black" stroke="currentColor" stroke-width="1.00" stroke-linecap="butt" stroke-linejoin="miter">
	<path stroke='black'  d='M71.9,358.2 L80.9,358.2  '/>	<g transform="translate(63.6,362.1)" stroke="none" fill="black" font-family="Helvetica" font-size="12.00"  text-anchor="end">
		<text><tspan font-family="Helvetica" > 50</tspan></text>
	</g>
</g>
<g fill="none" color="black" stroke="currentColor" stroke-width="1.00" stroke-linecap="butt" stroke-linejoin="miter">
	<path stroke='black'  d='M71.9,297.4 L80.9,297.4  '/>	<g transform="translate(63.6,301.3)" stroke="none" fill="black" font-family="Helvetica" font-size="12.00"  text-anchor="end">
		<text><tspan font-family="Helvetica" > 60</tspan></text>
	</g>
</g>
<g fill="none" color="black" stroke="currentColor" stroke-width="1.00" stroke-linecap="butt" stroke-linejoin="miter">
	<path stroke='black'  d='M71.9,236.6 L80.9,236.6  '/>	<g transform="translate(63.6,240.5)" stroke="none" fill="black" font-family="Helvetica" font-size="12.00"  text-anchor="end">
		<text><tspan font-family="Helvetica" > 70</tspan></text>
	</g>
</g>
<g fill="none" color="black" stroke="currentColor" stroke-width="1.00" stroke-linecap="butt" stroke-linejoin="miter">
	<path stroke='black'  d='M71.9,175.8 L80.9,175.8  '/>	<g transform="translate(63.6,179.7)" stroke="none" fill="black" font-family="Helvetica" font-size="12.00"  text-anchor="end">
		<text><tspan font-family="Helvetica" > 80</tspan></text>
	</g>
</g>
<g fill="none" color="black" stroke="currentColor" stroke-width="1.00" stroke-linecap="butt" stroke-linejoin="miter">
	<path stroke='black'  d='M71.9,114.9 L80.9,114.9  '/>	<g transform="translate(63.6,118.8)" stroke="none" fill="black" font-family="Helvetica" font-size="12.00"  text-anchor="end">
		<text><tspan font-family="Helvetica" > 90</tspan></text>
	</g>
</g>
<g fill="none" color="black" stroke="currentColor" stroke-width="1.00" stroke-linecap="butt" stroke-linejoin="miter">
	<path stroke='black'  d='M71.9,54.1 L80.9,54.1  '/>	<g transform="translate(63.6,58.0)" stroke="none" fill="black" font-family="Helvetica" font-size="12.00"  text-anchor="end">
		<text><tspan font-family="Helvetica" > 100</tspan></text>
	</g>
</g>
<g fill="none" color="black" stroke="currentColor" stroke-width="1.00" stroke-linecap="butt" stroke-linejoin="miter">
	<path stroke='black'  d='M96.8,662.4 L96.8,653.4  '/>	<g transform="translate(96.8,684.3)" stroke="none" fill="black" font-family="Helvetica" font-size="12.00"  text-anchor="middle">
		<text><tspan font-family="Helvetica" > 42.6</tspan></text>
	</g>
</g>
<g fill="none" color="black" stroke="currentColor" stroke-width="1.00" stroke-linecap="butt" stroke-linejoin="miter">
	<path stroke='black'  d='M213.2,662.4 L213.2,653.4  '/>	<g transform="translate(213.2,684.3)" stroke="none" fill="black" font-family="Helvetica" font-size="12.00"  text-anchor="middle">
		<text><tspan font-family="Helvetica" > 42.605</tspan></text>
	</g>
</g>
<g fill="none" color="black" stroke="currentColor" stroke-width="1.00" stroke-linecap="butt" stroke-linejoin="miter">
	<path stroke='black'  d='M329.6,662.4 L329.6,653.4  '/>	<g transform="translate(329.6,684.3)" stroke="none" fill="black" font-family="Helvetica" font-size="12.00"  text-anchor="middle">
		<text><tspan font-family="Helvetica" > 42.61</tspan></text>
	</g>
</g>
<g fill="none" color="black" stroke="currentColor" stroke-width="1.00" stroke-linecap="butt" stroke-linejoin="miter">
	<path stroke='black'  d='M446.1,662.4 L446.1,653.4  '/>	<g transform="translate(446.1,684.3)" stroke="none" fill="black" font-family="Helvetica" font-size="12.00"  text-anchor="middle">
		<text><tspan font-family="Helvetica" > 42.615</tspan></text>
	</g>
</g>
<g fill="none" color="black" stroke="currentColor" stroke-width="1.00" stroke-linecap="butt" stroke-linejoin="miter">
	<path stroke='black'  d='M562.5,662.4 L562.5,653.4  '/>	<g transform="translate(562.5,684.3)" stroke="none" fill="black" font-family="Helvetica" font-size="12.00"  text-anchor="middle">
		<text><tspan font-family="Helvetica" > 42.62</tspan></text>
	</g>
</g>
<g fill="none" color="black" stroke="currentColor" stroke-width="1.00" stroke-linecap="butt" stroke-linejoin="miter">
	<path stroke='black'  d='M678.9,662.4 L678.9,653.4  '/>	<g transform="translate(678.9,684.3)" stroke="none" fill="black" font-family="Helvetica" font-size="12.00"  text-anchor="middle">
		<text><tspan font-family="Helvetica" > 42.625</tspan></text>
	</g>
</g>
<g fill="none" color="black" stroke="currentColor" stroke-width="1.00" stroke-linecap="butt" stroke-linejoin="miter">
	<path stroke='black'  d='M795.3,662.4 L795.3,653.4  '/>	<g transform="translate(795.3,684.3)" stroke="none" fill="black" font-family="Helvetica" font-size="12.00"  text-anchor="middle">
		<text><tspan font-family="Helvetica" > 42.63</tspan></text>
	</g>
</g>
<g fill="none" color="black" stroke="currentColor" stroke-width="1.00" stroke-linecap="butt" stroke-linejoin="miter">
	<path stroke='black'  d='M911.8,662.4 L911.8,653.4  '/>	<g transform="translate(911.8,684.3)" stroke="none" fill="black" font-family="Helvetica" font-size="12.00"  text-anchor="middle">
		<text><tspan font-family="Helvetica" > 42.635</tspan></text>
	</g>
</g>
<g fill="none" color="black" stroke="currentColor" stroke-width="1.00" stroke-linecap="butt" stroke-linejoin="miter">
</g>
<g fill="none" color="black" stroke="currentColor" stroke-width="1.00" stroke-linecap="butt" stroke-linejoin="miter">
	<path stroke='black'  d='M71.9,54.1 L71.9,662.4 L1013.6,662.4 L1013.6,54.1 L71.9,54.1 Z  '/></g>
<g fill="none" color="black" stroke="currentColor" stroke-width="1.00" stroke-linecap="butt" stroke-linejoin="miter">
	<g transform="translate(16.3,358.3) rotate(270)" stroke="none" fill="black" font-family="Helvetica" font-size="12.00"  text-anchor="middle">
		<text><tspan font-family="Helvetica" >Density (a.u.)</tspan></text>
	</g>
</g>
<g fill="none" color="black" stroke="currentColor" stroke-width="1.00" stroke-linecap="butt" stroke-linejoin="miter">
	<g transform="translate(542.7,711.3)" stroke="none" fill="black" font-family="Helvetica" font-size="12.00"  text-anchor="middle">
		<text><tspan font-family="Helvetica" >Average time (us)</tspan></text>
	</g>
</g>
<g fill="none" color="black" stroke="currentColor" stroke-width="1.00" stroke-linecap="butt" stroke-linejoin="miter">
	<g transform="translate(542.7,31.0)" stroke="none" fill="black" font-family="Helvetica" font-size="12.00"  text-anchor="middle">
		<text><tspan font-family="Helvetica" >snapshot_restore_with_dense/Sparse: Entire region + /proc/pid/mem/5: median</tspan></text>
	</g>
</g>
	<g id="gnuplot_plot_1" ><title>Bootstrap distribution</title>
<g fill="none" color="white" stroke="black" stroke-width="2.00" stroke-linecap="butt" stroke-linejoin="miter">
</g>
<g fill="none" color="black" stroke="currentColor" stroke-width="2.00" stroke-linecap="butt" stroke-linejoin="miter">
	<g transform="translate(1089.0,67.0)" stroke="none" fill="black" font-family="Helvetica" font-size="12.00"  text-anchor="start">
		<text><tspan font-family="Helvetica" >Bootstrap distribution</tspan></text>
	</g>
</g>
<g fill="none" color="black" stroke="currentColor" stroke-width="2.00" stroke-linecap="butt" stroke-linejoin="miter">
	<path stroke='rgb( 31, 120, 180)'  d='M1038.5,63.1 L1080.7,63.1 M71.9,649.2 L73.8,648.3 L75.7,647.4 L77.6,646.4 L79.4,645.4 L81.3,644.4
		L83.2,643.3 L85.1,642.3 L87.0,641.2 L88.9,640.1 L90.8,638.9 L92.7,637.8 L94.5,636.6 L96.4,635.4
		L98.3,634.2 L100.2,633.0 L102.1,631.8 L104.0,630.5 L105.9,629.2 L107.8,627.9 L109.6,626.6 L111.5,625.2
		L113.4,623.8 L115.3,622.3 L117.2,620.8 L119.1,619.2 L121.0,617.4 L122.9,615.6 L124.7,613.6 L126.6,611.5
		L128.5,609.2 L130.4,606.7 L132.3,604.0 L134.2,601.1 L136.1,598.0 L138.0,594.6 L139.8,590.9 L141.7,587.0
		L143.6,582.7 L145.5,578.1 L147.4,573.2 L149.3,568.0 L151.2,562.4 L153.0,556.5 L154.9,550.3 L156.8,543.7
		L158.7,536.7 L160.6,529.5 L162.5,521.9 L164.4,513.9 L166.3,505.7 L168.1,497.2 L170.0,488.4 L171.9,479.3
		L173.8,470.0 L175.7,460.4 L177.6,450.6 L179.5,440.6 L181.4,430.4 L183.2,420.0 L185.1,409.5 L187.0,398.8
		L188.9,388.0 L190.8,377.0 L192.7,366.0 L194.6,354.8 L196.5,343.6 L198.3,332.3 L200.2,321.0 L202.1,309.8
		L204.0,298.5 L205.9,287.4 L207.8,276.5 L209.7,265.7 L211.6,255.2 L213.4,245.1 L215.3,235.4 L217.2,226.3
		L219.1,217.7 L221.0,209.8 L222.9,202.6 L224.8,196.3 L226.6,190.9 L228.5,186.3 L230.4,182.8 L232.3,180.3
		L234.2,178.9 L236.1,178.5 L238.0,179.1 L239.9,180.7 L241.7,183.2 L243.6,186.7 L245.5,191.0 L247.4,196.1
		L249.3,201.9 L251.2,208.3 L253.1,215.2 L255.0,222.6 L256.8,230.2 L258.7,238.2 L260.6,246.3 L262.5,254.5
		L264.4,262.6 L266.3,270.8 L268.2,278.8 L270.1,286.7 L271.9,294.3 L273.8,301.7 L275.7,308.8 L277.6,315.6
		L279.5,322.1 L281.4,328.2 L283.3,334.0 L285.2,339.4 L287.0,344.5 L288.9,349.2 L290.8,353.6 L292.7,357.6
		L294.6,361.2 L296.5,364.5 L298.4,367.5 L300.2,370.1 L302.1,372.3 L304.0,374.3 L305.9,375.8 L307.8,377.0
		L309.7,377.9 L311.6,378.3 L313.5,378.4 L315.3,378.1 L317.2,377.3 L319.1,376.0 L321.0,374.2 L322.9,371.8
		L324.8,368.8 L326.7,365.2 L328.6,360.8 L330.4,355.8 L332.3,349.9 L334.2,343.2 L336.1,335.6 L338.0,327.1
		L339.9,317.7 L341.8,307.4 L343.7,296.2 L345.5,284.2 L347.4,271.4 L349.3,257.9 L351.2,243.8 L353.1,229.4
		L355.0,214.6 L356.9,199.8 L358.8,185.2 L360.6,170.9 L362.5,157.2 L364.4,144.4 L366.3,132.8 L368.2,122.4
		L370.1,113.7 L372.0,106.7 L373.8,101.8 L375.7,98.9 L377.6,98.3 L379.5,99.9 L381.4,103.9 L383.3,110.1
		L385.2,118.5 L387.1,129.0 L388.9,141.3 L390.8,155.4 L392.7,170.9 L394.6,187.7 L396.5,205.5 L398.4,223.9
		L400.3,242.8 L402.2,261.8 L404.0,280.8 L405.9,299.5 L407.8,317.7 L409.7,335.3 L411.6,352.1 L413.5,368.0
		L415.4,382.9 L417.3,396.8 L419.1,409.6 L421.0,421.4 L422.9,432.1 L424.8,441.8 L426.7,450.5 L428.6,458.4
		L430.5,465.3 L432.4,471.5 L434.2,477.0 L436.1,481.9 L438.0,486.2 L439.9,490.0 L441.8,493.4 L443.7,496.4
		L445.6,499.1 L447.4,501.6 L449.3,503.9 L451.2,505.9 L453.1,507.9 L455.0,509.7 L456.9,511.4 L458.8,513.0
		L460.7,514.6 L462.5,516.1 L464.4,517.6 L466.3,519.0 L468.2,520.4 L470.1,521.8 L472.0,523.1 L473.9,524.5
		L475.8,525.8 L477.6,527.2 L479.5,528.5 L481.4,529.8 L483.3,531.1 L485.2,532.4 L487.1,533.6 L489.0,534.7
		L490.9,535.7 L492.7,536.6 L494.6,537.3 L496.5,537.8 L498.4,538.1 L500.3,538.2 L502.2,538.0 L504.1,537.5
		L506.0,536.8 L507.8,535.8 L509.7,534.6 L511.6,533.2 L513.5,531.6 L515.4,530.0 L517.3,528.3 L519.2,526.7
		L521.0,525.2 L522.9,523.8 L524.8,522.7 L526.7,522.0 L528.6,521.6 L530.5,521.8 L532.4,522.4 L534.3,523.6
		L536.1,525.3 L538.0,527.6 L539.9,530.5 L541.8,534.0 L543.7,538.0 L545.6,542.5 L547.5,547.4 L549.4,552.7
		L551.2,558.3 L553.1,564.1 L555.0,570.1 L556.9,576.1 L558.8,582.2 L560.7,588.2 L562.6,594.0 L564.5,599.7
		L566.3,605.2 L568.2,610.3 L570.1,615.2 L572.0,619.7 L573.9,623.8 L575.8,627.6 L577.7,631.0 L579.5,634.0
		L581.4,636.7 L583.3,639.0 L585.2,641.1 L587.1,642.8 L589.0,644.2 L590.9,645.4 L592.8,646.3 L594.6,647.1
		L596.5,647.6 L598.4,647.9 L600.3,648.1 L602.2,648.2 L604.1,648.1 L606.0,647.8 L607.9,647.5 L609.7,647.0
		L611.6,646.4 L613.5,645.6 L615.4,644.7 L617.3,643.7 L619.2,642.5 L621.1,641.1 L623.0,639.6 L624.8,637.9
		L626.7,636.0 L628.6,634.0 L630.5,631.8 L632.4,629.5 L634.3,627.0 L636.2,624.5 L638.1,621.9 L639.9,619.2
		L641.8,616.6 L643.7,613.9 L645.6,611.4 L647.5,609.0 L649.4,606.8 L651.3,604.7 L653.1,602.9 L655.0,601.4
		L656.9,600.2 L658.8,599.3 L660.7,598.8 L662.6,598.6 L664.5,598.7 L666.4,599.2 L668.2,599.9 L670.1,601.0
		L672.0,602.2 L673.9,603.7 L675.8,605.4 L677.7,607.1 L679.6,609.0 L681.5,610.9 L683.3,612.8 L685.2,614.7
		L687.1,616.5 L689.0,618.3 L690.9,620.0 L692.8,621.7 L694.7,623.2 L696.6,624.6 L698.4,626.0 L700.3,627.3
		L702.2,628.5 L704.1,629.6 L706.0,630.7 L707.9,631.8 L709.8,632.9 L711.7,633.9 L713.5,635.0 L715.4,636.1
		L717.3,637.1 L719.2,638.2 L721.1,639.2 L723.0,640.3 L724.9,641.3 L726.7,642.3 L728.6,643.2 L730.5,644.0
		L732.4,644.8 L734.3,645.4 L736.2,646.0 L738.1,646.4 L740.0,646.6 L741.8,646.7 L743.7,646.7 L745.6,646.4
		L747.5,646.0 L749.4,645.4 L751.3,644.6 L753.2,643.7 L755.1,642.7 L756.9,641.5 L758.8,640.1 L760.7,638.7
		L762.6,637.3 L764.5,635.8 L766.4,634.3 L768.3,632.8 L770.2,631.3 L772.0,630.0 L773.9,628.7 L775.8,627.5
		L777.7,626.5 L779.6,625.5 L781.5,624.8 L783.4,624.1 L785.3,623.5 L787.1,623.1 L789.0,622.8 L790.9,622.5
		L792.8,622.2 L794.7,622.0 L796.6,621.8 L798.5,621.6 L800.3,621.3 L802.2,621.0 L804.1,620.6 L806.0,620.2
		L807.9,619.6 L809.8,619.0 L811.7,618.4 L813.6,617.7 L815.4,616.9 L817.3,616.2 L819.2,615.4 L821.1,614.7
		L823.0,613.9 L824.9,613.3 L826.8,612.7 L828.7,612.1 L830.5,611.6 L832.4,611.1 L834.3,610.7 L836.2,610.3
		L838.1,609.9 L840.0,609.6 L841.9,609.2 L843.8,608.8 L845.6,608.3 L847.5,607.8 L849.4,607.2 L851.3,606.5
		L853.2,605.7 L855.1,604.8 L857.0,603.8 L858.9,602.8 L860.7,601.6 L862.6,600.4 L864.5,599.2 L866.4,597.9
		L868.3,596.6 L870.2,595.3 L872.1,594.1 L873.9,592.9 L875.8,591.7 L877.7,590.7 L879.6,589.7 L881.5,588.9
		L883.4,588.2 L885.3,587.6 L887.2,587.1 L889.0,586.8 L890.9,586.7 L892.8,586.6 L894.7,586.7 L896.6,587.0
		L898.5,587.3 L900.4,587.8 L902.3,588.4 L904.1,589.1 L906.0,589.9 L907.9,590.8 L909.8,591.8 L911.7,592.8
		L913.6,594.0 L915.5,595.1 L917.4,596.4 L919.2,597.7 L921.1,599.0 L923.0,600.4 L924.9,601.8 L926.8,603.2
		L928.7,604.6 L930.6,606.1 L932.5,607.5 L934.3,609.0 L936.2,610.5 L938.1,611.9 L940.0,613.4 L941.9,614.8
		L943.8,616.2 L945.7,617.6 L947.5,619.0 L949.4,620.3 L951.3,621.6 L953.2,622.9 L955.1,624.2 L957.0,625.4
		L958.9,626.6 L960.8,627.7 L962.6,628.8 L964.5,629.9 L966.4,630.9 L968.3,631.9 L970.2,632.8 L972.1,633.7
		L974.0,634.5 L975.9,635.3 L977.7,636.1 L979.6,636.8 L981.5,637.5 L983.4,638.1 L985.3,638.7 L987.2,639.2
		L989.1,639.8 L991.0,640.2 L992.8,640.7 L994.7,641.1 L996.6,641.6 L998.5,641.9 L1000.4,642.3 L1002.3,642.7
		L1004.2,643.0 L1006.1,643.4 L1007.9,643.7 L1009.8,644.0 L1011.7,644.3 L1013.6,644.7  '/></g>
	</g>
	<g id="gnuplot_plot_2" ><title>Confidence interval</title>
<g fill="none" color="white" stroke="rgb( 31, 120, 180)" stroke-width="1.00" stroke-linecap="butt" stroke-linejoin="miter">
</g>
<g fill="none" color="black" stroke="currentColor" stroke-width="1.00" stroke-linecap="butt" stroke-linejoin="miter">
	<g transform="translate(1089.0,85.0)" stroke="none" fill="black" font-family="Helvetica" font-size="12.00"  text-anchor="start">
		<text><tspan font-family="Helvetica" >Confidence interval</tspan></text>
	</g>
</g>
<g fill="none" color="black" stroke="currentColor" stroke-width="1.00" stroke-linecap="butt" stroke-linejoin="miter">
	<g stroke='none' shape-rendering='crispEdges'>
		<polygon fill = 'rgb( 31, 120, 180)' fill-opacity = '0.250000' points = '1038.5,85.6 1080.7,85.6 1080.7,76.6 1038.5,76.6 '/>
		<polygon fill = 'rgb( 31, 120, 180)' fill-opacity = '0.250000' points = '158.7,536.7 160.6,529.5 162.5,521.9 164.4,513.9 166.3,505.7 168.1,497.2 170.0,488.4 171.9,479.3 173.8,470.0 175.7,460.4 177.6,450.6 179.5,440.6 181.4,430.4 183.2,420.0 185.1,409.5 187.0,398.8
188.9,388.0 190.8,377.0 192.7,366.0 194.6,354.8 196.5,343.6 198.3,332.3 200.2,321.0 202.1,309.8 204.0,298.5 205.9,287.4 207.8,276.5 209.7,265.7 211.6,255.2 213.4,245.1 215.3,235.4 217.2,226.3
219.1,217.7 221.0,209.8 222.9,202.6 224.8,196.3 226.6,190.9 228.5,186.3 230.4,182.8 232.3,180.3 234.2,178.9 236.1,178.5 238.0,179.1 239.9,180.7 241.7,183.2 243.6,186.7 245.5,191.0 247.4,196.1
249.3,201.9 251.2,208.3 253.1,215.2 255.0,222.6 256.8,230.2 258.7,238.2 260.6,246.3 262.5,254.5 264.4,262.6 266.3,270.8 268.2,278.8 270.1,286.7 271.9,294.3 273.8,301.7 275.7,308.8 277.6,315.6
279.5,322.1 281.4,328.2 283.3,334.0 285.2,339.4 287.0,344.5 288.9,349.2 290.8,353.6 292.7,357.6 294.6,361.2 296.5,364.5 298.4,367.5 300.2,370.1 302.1,372.3 304.0,374.3 305.9,375.8 307.8,377.0
309.7,377.9 311.6,378.3 313.5,378.4 315.3,378.1 317.2,377.3 319.1,376.0 321.0,374.2 322.9,371.8 324.8,368.8 326.7,365.2 328.6,360.8 330.4,355.8 332.3,349.9 334.2,343.2 336.1,335.6 338.0,327.1
339.9,317.7 341.8,307.4 343.7,296.2 345.5,284.2 347.4,271.4 349.3,257.9 351.2,243.8 353.1,229.4 355.0,214.6 356.9,199.8 358.8,185.2 360.6,170.9 362.5,157.2 364.4,144.4 366.3,132.8 368.2,122.4
370.1,113.7 372.0,106.7 373.8,101.8 375.7,98.9 377.6,98.3 379.5,99.9 381.4,103.9 383.3,110.1 385.2,118.5 387.1,129.0 388.9,141.3 390.8,155.4 392.7,170.9 394.6,187.7 396.5,205.5 398.4,223.9
400.3,242.8 402.2,261.8 404.0,280.8 405.9,299.5 407.8,317.7 409.7,335.3 411.6,352.1 413.5,368.0 415.4,382.9 417.3,396.8 419.1,409.6 421.0,421.4 422.9,432.1 424.8,441.8 426.7,450.5 428.6,458.4
430.5,465.3 432.4,471.5 434.2,477.0 436.1,481.9 438.0,486.2 439.9,490.0 441.8,493.4 443.7,496.4 445.6,499.1 447.4,501.6 449.3,503.9 451.2,505.9 453.1,507.9 455.0,509.7 456.9,511.4 458.8,513.0
460.7,514.6 462.5,516.1 464.4,517.6 466.3,519.0 468.2,520.4 470.1,521.8 472.0,523.1 473.9,524.5 475.8,525.8 477.6,527.2 479.5,528.5 481.4,529.8 483.3,531.1 485.2,532.4 487.1,533.6 489.0,534.7
490.9,535.7 492.7,536.6 494.6,537.3 496.5,537.8 498.4,538.1 500.3,538.2 502.2,538.0 504.1,537.5 506.0,536.8 507.8,535.8 509.7,534.6 511.6,533.2 513.5,531.6 515.4,530.0 517.3,528.3 519.2,526.7
521.0,525.2 522.9,523.8 524.8,522.7 526.7,522.0 528.6,521.6 530.5,521.8 532.4,522.4 534.3,523.6 536.1,525.3 538.0,527.6 539.9,530.5 541.8,534.0 543.7,538.0 545.6,542.5 547.5,547.4 549.4,552.7
551.2,558.3 553.1,564.1 555.0,570.1 556.9,576.1 558.8,582.2 560.7,588.2 562.6,594.0 564.5,599.7 566.3,605.2 568.2,610.3 570.1,615.2 572.0,619.7 573.9,623.8 575.8,627.6 577.7,631.0 579.5,634.0
581.4,636.7 583.3,639.0 585.2,641.1 587.1,642.8 589.0,644.2 590.9,645.4 592.8,646.3 594.6,647.1 596.5,647.6 598.4,647.9 600.3,648.1 602.2,648.2 604.1,648.1 606.0,647.8 607.9,647.5 609.7,647.0
611.6,646.4 613.5,645.6 615.4,644.7 617.3,643.7 619.2,642.5 621.1,641.1 623.0,639.6 624.8,637.9 626.7,636.0 628.6,634.0 630.5,631.8 632.4,629.5 634.3,627.0 636.2,624.5 638.1,621.9 639.9,619.2
641.8,616.6 643.7,613.9 645.6,611.4 647.5,609.0 649.4,606.8 651.3,604.7 653.1,602.9 655.0,601.4 656.9,600.2 658.8,599.3 660.7,598.8 662.6,598.6 664.5,598.7 666.4,599.2 668.2,599.9 670.1,601.0
672.0,602.2 673.9,603.7 675.8,605.4 677.7,607.1 679.6,609.0 681.5,610.9 683.3,612.8 685.2,614.7 687.1,616.5 689.0,618.3 690.9,620.0 692.8,621.7 694.7,623.2 696.6,624.6 698.4,626.0 700.3,627.3
702.2,628.5 704.1,629.6 706.0,630.7 707.9,631.8 709.8,632.9 711.7,633.9 713.5,635.0 715.4,636.1 717.3,637.1 719.2,638.2 721.1,639.2 723.0,640.3 724.9,641.3 726.7,642.3 728.6,643.2 730.5,644.0
732.4,644.8 734.3,645.4 736.2,646.0 738.1,646.4 740.0,646.6 741.8,646.7 743.7,646.7 745.6,646.4 747.5,646.0 749.4,645.4 751.3,644.6 753.2,643.7 755.1,642.7 756.9,641.5 758.8,640.1 760.7,638.7
762.6,637.3 764.5,635.8 766.4,634.3 768.3,632.8 770.2,631.3 772.0,630.0 773.9,628.7 775.8,627.5 777.7,626.5 779.6,625.5 781.5,624.8 783.4,624.1 785.3,623.5 787.1,623.1 789.0,622.8 790.9,622.5
792.8,622.2 794.7,622.0 796.6,621.8 798.5,621.6 800.3,621.3 802.2,621.0 804.1,620.6 806.0,620.2 807.9,619.6 809.8,619.0 811.7,618.4 813.6,617.7 815.4,616.9 817.3,616.2 819.2,615.4 821.1,614.7
823.0,613.9 824.9,613.3 826.8,612.7 828.7,612.1 830.5,611.6 832.4,611.1 834.3,610.7 836.2,610.3 838.1,609.9 840.0,609.6 841.9,609.2 843.8,608.8 845.6,608.3 847.5,607.8 849.4,607.2 851.3,606.5
853.2,605.7 855.1,604.8 857.0,603.8 858.9,602.8 860.7,601.6 862.6,600.4 864.5,599.2 866.4,597.9 868.3,596.6 870.2,595.3 872.1,594.1 873.9,592.9 875.8,591.7 877.7,590.7 879.6,589.7 881.5,588.9
883.4,588.2 885.3,587.6 887.2,587.1 889.0,586.8 890.9,586.7 892.8,586.6 894.7,586.7 896.6,587.0 898.5,587.3 900.4,587.8 902.3,588.4 904.1,589.1 906.0,589.9 907.9,590.8 909.8,591.8 911.7,592.8
913.6,594.0 915.5,595.1 917.4,596.4 919.2,597.7 921.1,599.0 923.0,600.4 924.9,601.8 924.9,662.4 923.0,662.4 921.1,662.4 919.2,662.4 917.4,662.4 915.5,662.4 913.6,662.4 911.7,662.4 909.8,662.4
907.9,662.4 906.0,662.4 904.1,662.4 902.3,662.4 900.4,662.4 898.5,662.4 896.6,662.4 894.7,662.4 892.8,662.4 890.9,662.4 889.0,662.4 887.2,662.4 885.3,662.4 883.4,662.4 881.5,662.4 879.6,662.4
877.7,662.4 875.8,662.4 873.9,662.4 872.1,662.4 870.2,662.4 868.3,662.4 866.4,662.4 864.5,662.4 862.6,662.4 860.7,662.4 858.9,662.4 857.0,662.4 855.1,662.4 853.2,662.4 851.3,662.4 849.4,662.4
847.5,662.4 845.6,662.4 843.8,662.4 841.9,662.4 840.0,662.4 838.1,662.4 836.2,662.4 834.3,662.4 832.4,662.4 830.5,662.4 828.7,662.4 826.8,662.4 824.9,662.4 823.0,662.4 821.1,662.4 819.2,662.4
817.3,662.4 815.4,662.4 813.6,662.4 811.7,662.4 809.8,662.4 807.9,662.4 806.0,662.4 804.1,662.4 802.2,662.4 800.3,662.4 798.5,662.4 796.6,662.4 794.7,662.4 792.8,662.4 790.9,662.4 789.0,662.4
787.1,662.4 785.3,662.4 783.4,662.4 781.5,662.4 779.6,662.4 777.7,662.4 775.8,662.4 773.9,662.4 772.0,662.4 770.2,662.4 768.3,662.4 766.4,662.4 764.5,662.4 762.6,662.4 760.7,662.4 758.8,662.4
756.9,662.4 755.1,662.4 753.2,662.4 751.3,662.4 749.4,662.4 747.5,662.4 745.6,662.4 743.7,662.4 741.8,662.4 740.0,662.4 738.1,662.4 736.2,662.4 734.3,662.4 732.4,662.4 730.5,662.4 728.6,662.4
726.7,662.4 724.9,662.4 723.0,662.4 721.1,662.4 719.2,662.4 717.3,662.4 715.4,662.4 713.5,662.4 711.7,662.4 709.8,662.4 707.9,662.4 706.0,662.4 704.1,662.4 702.2,662.4 700.3,662.4 698.4,662.4
696.6,662.4 694.7,662.4 692.8,662.4 690.9,662.4 689.0,662.4 687.1,662.4 685.2,662.4 683.3,662.4 681.5,662.4 679.6,662.4 677.7,662.4 675.8,662.4 673.9,662.4 672.0,662.4 670.1,662.4 668.2,662.4
666.4,662.4 664.5,662.4 662.6,662.4 660.7,662.4 658.8,662.4 656.9,662.4 655.0,662.4 653.1,662.4 651.3,662.4 649.4,662.4 647.5,662.4 645.6,662.4 643.7,662.4 641.8,662.4 639.9,662.4 638.1,662.4
636.2,662.4 634.3,662.4 632.4,662.4 630.5,662.4 628.6,662.4 626.7,662.4 624.8,662.4 623.0,662.4 621.1,662.4 619.2,662.4 617.3,662.4 615.4,662.4 613.5,662.4 611.6,662.4 609.7,662.4 607.9,662.4
606.0,662.4 604.1,662.4 602.2,662.4 600.3,662.4 598.4,662.4 596.5,662.4 594.6,662.4 592.8,662.4 590.9,662.4 589.0,662.4 587.1,662.4 585.2,662.4 583.3,662.4 581.4,662.4 579.5,662.4 577.7,662.4
575.8,662.4 573.9,662.4 572.0,662.4 570.1,662.4 568.2,662.4 566.3,662.4 564.5,662.4 562.6,662.4 560.7,662.4 558.8,662.4 556.9,662.4 555.0,662.4 553.1,662.4 551.2,662.4 549.4,662.4 547.5,662.4
545.6,662.4 543.7,662.4 541.8,662.4 539.9,662.4 538.0,662.4 536.1,662.4 534.3,662.4 532.4,662.4 530.5,662.4 528.6,662.4 526.7,662.4 524.8,662.4 522.9,662.4 521.0,662.4 519.2,662.4 517.3,662.4
515.4,662.4 513.5,662.4 511.6,662.4 509.7,662.4 507.8,662.4 506.0,662.4 504.1,662.4 502.2,662.4 500.3,662.4 498.4,662.4 496.5,662.4 494.6,662.4 492.7,662.4 490.9,662.4 489.0,662.4 487.1,662.4
485.2,662.4 483.3,662.4 481.4,662.4 479.5,662.4 477.6,662.4 475.8,662.4 473.9,662.4 472.0,662.4 470.1,662.4 468.2,662.4 466.3,662.4 464.4,662.4 462.5,662.4 460.7,662.4 458.8,662.4 456.9,662.4
455.0,662.4 453.1,662.4 451.2,662.4 449.3,662.4 447.4,662.4 445.6,662.4 443.7,662.4 441.8,662.4 439.9,662.4 438.0,662.4 436.1,662.4 434.2,662.4 432.4,662.4 430.5,662.4 428.6,662.4 426.7,662.4
424.8,662.4 422.9,662.4 421.0,662.4 419.1,662.4 417.3,662.4 415.4,662.4 413.5,662.4 411.6,662.4 409.7,662.4 407.8,662.4 405.9,662.4 404.0,662.4 402.2,662.4 400.3,662.4 398.4,662.4 396.5,662.4
394.6,662.4 392.7,662.4 390.8,662.4 388.9,662.4 387.1,662.4 385.2,662.4 383.3,662.4 381.4,662.4 379.5,662.4 377.6,662.4 375.7,662.4 373.8,662.4 372.0,662.4 370.1,662.4 368.2,662.4 366.3,662.4
364.4,662.4 362.5,662.4 360.6,662.4 358.8,662.4 356.9,662.4 355.0,662.4 353.1,662.4 351.2,662.4 349.3,662.4 347.4,662.4 345.5,662.4 343.7,662.4 341.8,662.4 339.9,662.4 338.0,662.4 336.1,662.4
334.2,662.4 332.3,662.4 330.4,662.4 328.6,662.4 326.7,662.4 324.8,662.4 322.9,662.4 321.0,662.4 319.1,662.4 317.2,662.4 315.3,662.4 313.5,662.4 311.6,662.4 309.7,662.4 307.8,662.4 305.9,662.4
304.0,662.4 302.1,662.4 300.2,662.4 298.4,662.4 296.5,662.4 294.6,662.4 292.7,662.4 290.8,662.4 288.9,662.4 287.0,662.4 285.2,662.4 283.3,662.4 281.4,662.4 279.5,662.4 277.6,662.4 275.7,662.4
273.8,662.4 271.9,662.4 270.1,662.4 268.2,662.4 266.3,662.4 264.4,662.4 262.5,662.4 260.6,662.4 258.7,662.4 256.8,662.4 255.0,662.4 253.1,662.4 251.2,662.4 249.3,662.4 247.4,662.4 245.5,662.4
243.6,662.4 241.7,662.4 239.9,662.4 238.0,662.4 236.1,662.4 234.2,662.4 232.3,662.4 230.4,662.4 228.5,662.4 226.6,662.4 224.8,662.4 222.9,662.4 221.0,662.4 219.1,662.4 217.2,662.4 215.3,662.4
213.4,662.4 211.6,662.4 209.7,662.4 207.8,662.4 205.9,662.4 204.0,662.4 202.1,662.4 200.2,662.4 198.3,662.4 196.5,662.4 194.6,662.4 192.7,662.4 190.8,662.4 188.9,662.4 187.0,662.4 185.1,662.4
183.2,662.4 181.4,662.4 179.5,662.4 177.6,662.4 175.7,662.4 173.8,662.4 171.9,662.4 170.0,662.4 168.1,662.4 166.3,662.4 164.4,662.4 162.5,662.4 160.6,662.4 158.7,662.4 '/>
	</g>
</g>
	</g>
	<g id="gnuplot_plot_3" ><title>Point estimate</title>
<g fill="none" color="white" stroke="rgb( 31, 120, 180)" stroke-width="2.00" stroke-linecap="butt" stroke-linejoin="miter">
</g>
<g fill="none" color="black" stroke="currentColor" stroke-width="2.00" stroke-linecap="butt" stroke-linejoin="miter">
	<g transform="translate(1089.0,103.0)" stroke="none" fill="black" font-family="Helvetica" font-size="12.00"  text-anchor="start">
		<text><tspan font-family="Helvetica" >Point estimate</tspan></text>
	</g>
</g>
<g fill="none" color="black" stroke="currentColor" stroke-width="2.00" stroke-linecap="butt" stroke-linejoin="miter">
	<path stroke='rgb( 31, 120, 180)'  d='M1038.5,99.1 L1080.7,99.1 M360.8,662.4 L360.8,169.9  '/></g>
	</g>
<g fill="none" color="black" stroke="currentColor" stroke-width="2.00" stroke-linecap="butt" stroke-linejoin="miter">
</g>
<g fill="none" color="black" stroke="black" stroke-width="1.00" stroke-linecap="butt" stroke-linejoin="miter">
</g>
<g fill="none" color="black" stroke="currentColor" stroke-width="1.00" stroke-linecap="butt" stroke-linejoin="miter">
	<path stroke='black'  d='M71.9,54.1 L71.9,662.4 L1013.6,662.4 L1013.6,54.1 L71.9,54.1 Z  '/></g>
<g fill="none" color="black" stroke="currentColor" stroke-width="1.00" stroke-linecap="butt" stroke-linejoin="miter">
</g>
</g>
</svg>

