<?xml version="1.0" encoding="utf-8"  standalone="no"?>
<svg 
 viewBox="0 0 1280 720"
 xmlns="http://www.w3.org/2000/svg"
 xmlns:xlink="http://www.w3.org/1999/xlink"
>

<title>Gnuplot</title>
<desc>Produced by GNUPLOT 5.2 patchlevel 6 </desc>

<g id="gnuplot_canvas">

<rect x="0" y="0" width="1280" height="720" fill="none"/>
<defs>

	<circle id='gpDot' r='0.5' stroke-width='0.5' stroke='currentColor'/>
	<path id='gpPt0' stroke-width='0.222' stroke='currentColor' d='M-1,0 h2 M0,-1 v2'/>
	<path id='gpPt1' stroke-width='0.222' stroke='currentColor' d='M-1,-1 L1,1 M1,-1 L-1,1'/>
	<path id='gpPt2' stroke-width='0.222' stroke='currentColor' d='M-1,0 L1,0 M0,-1 L0,1 M-1,-1 L1,1 M-1,1 L1,-1'/>
	<rect id='gpPt3' stroke-width='0.222' stroke='currentColor' x='-1' y='-1' width='2' height='2'/>
	<rect id='gpPt4' stroke-width='0.222' stroke='currentColor' fill='currentColor' x='-1' y='-1' width='2' height='2'/>
	<circle id='gpPt5' stroke-width='0.222' stroke='currentColor' cx='0' cy='0' r='1'/>
	<use xlink:href='#gpPt5' id='gpPt6' fill='currentColor' stroke='none'/>
	<path id='gpPt7' stroke-width='0.222' stroke='currentColor' d='M0,-1.33 L-1.33,0.67 L1.33,0.67 z'/>
	<use xlink:href='#gpPt7' id='gpPt8' fill='currentColor' stroke='none'/>
	<use xlink:href='#gpPt7' id='gpPt9' stroke='currentColor' transform='rotate(180)'/>
	<use xlink:href='#gpPt9' id='gpPt10' fill='currentColor' stroke='none'/>
	<use xlink:href='#gpPt3' id='gpPt11' stroke='currentColor' transform='rotate(45)'/>
	<use xlink:href='#gpPt11' id='gpPt12' fill='currentColor' stroke='none'/>
	<path id='gpPt13' stroke-width='0.222' stroke='currentColor' d='M0,1.330 L1.265,0.411 L0.782,-1.067 L-0.782,-1.076 L-1.265,0.411 z'/>
	<use xlink:href='#gpPt13' id='gpPt14' fill='currentColor' stroke='none'/>
	<filter id='textbox' filterUnits='objectBoundingBox' x='0' y='0' height='1' width='1'>
	  <feFlood flood-color='white' flood-opacity='1' result='bgnd'/>
	  <feComposite in='SourceGraphic' in2='bgnd' operator='atop'/>
	</filter>
	<filter id='greybox' filterUnits='objectBoundingBox' x='0' y='0' height='1' width='1'>
	  <feFlood flood-color='lightgrey' flood-opacity='1' result='grey'/>
	  <feComposite in='SourceGraphic' in2='grey' operator='atop'/>
	</filter>
</defs>
<g fill="none" color="white" stroke="currentColor" stroke-width="1.00" stroke-linecap="butt" stroke-linejoin="miter">
</g>
<g fill="none" color="black" stroke="currentColor" stroke-width="1.00" stroke-linecap="butt" stroke-linejoin="miter">
	<path stroke='black'  d='M88.5,662.4 L97.5,662.4  '/>	<g transform="translate(80.2,666.3)" stroke="none" fill="black" font-family="Helvetica" font-size="12.00"  text-anchor="end">
		<text><tspan font-family="Helvetica" > 0</tspan></text>
	</g>
</g>
<g fill="none" color="black" stroke="currentColor" stroke-width="1.00" stroke-linecap="butt" stroke-linejoin="miter">
	<path stroke='black'  d='M88.5,575.5 L97.5,575.5  '/>	<g transform="translate(80.2,579.4)" stroke="none" fill="black" font-family="Helvetica" font-size="12.00"  text-anchor="end">
		<text><tspan font-family="Helvetica" > 0.001</tspan></text>
	</g>
</g>
<g fill="none" color="black" stroke="currentColor" stroke-width="1.00" stroke-linecap="butt" stroke-linejoin="miter">
	<path stroke='black'  d='M88.5,488.6 L97.5,488.6  '/>	<g transform="translate(80.2,492.5)" stroke="none" fill="black" font-family="Helvetica" font-size="12.00"  text-anchor="end">
		<text><tspan font-family="Helvetica" > 0.002</tspan></text>
	</g>
</g>
<g fill="none" color="black" stroke="currentColor" stroke-width="1.00" stroke-linecap="butt" stroke-linejoin="miter">
	<path stroke='black'  d='M88.5,401.7 L97.5,401.7  '/>	<g transform="translate(80.2,405.6)" stroke="none" fill="black" font-family="Helvetica" font-size="12.00"  text-anchor="end">
		<text><tspan font-family="Helvetica" > 0.003</tspan></text>
	</g>
</g>
<g fill="none" color="black" stroke="currentColor" stroke-width="1.00" stroke-linecap="butt" stroke-linejoin="miter">
	<path stroke='black'  d='M88.5,314.8 L97.5,314.8  '/>	<g transform="translate(80.2,318.7)" stroke="none" fill="black" font-family="Helvetica" font-size="12.00"  text-anchor="end">
		<text><tspan font-family="Helvetica" > 0.004</tspan></text>
	</g>
</g>
<g fill="none" color="black" stroke="currentColor" stroke-width="1.00" stroke-linecap="butt" stroke-linejoin="miter">
	<path stroke='black'  d='M88.5,227.9 L97.5,227.9  '/>	<g transform="translate(80.2,231.8)" stroke="none" fill="black" font-family="Helvetica" font-size="12.00"  text-anchor="end">
		<text><tspan font-family="Helvetica" > 0.005</tspan></text>
	</g>
</g>
<g fill="none" color="black" stroke="currentColor" stroke-width="1.00" stroke-linecap="butt" stroke-linejoin="miter">
	<path stroke='black'  d='M88.5,141.0 L97.5,141.0  '/>	<g transform="translate(80.2,144.9)" stroke="none" fill="black" font-family="Helvetica" font-size="12.00"  text-anchor="end">
		<text><tspan font-family="Helvetica" > 0.006</tspan></text>
	</g>
</g>
<g fill="none" color="black" stroke="currentColor" stroke-width="1.00" stroke-linecap="butt" stroke-linejoin="miter">
	<path stroke='black'  d='M88.5,54.1 L97.5,54.1  '/>	<g transform="translate(80.2,58.0)" stroke="none" fill="black" font-family="Helvetica" font-size="12.00"  text-anchor="end">
		<text><tspan font-family="Helvetica" > 0.007</tspan></text>
	</g>
</g>
<g fill="none" color="black" stroke="currentColor" stroke-width="1.00" stroke-linecap="butt" stroke-linejoin="miter">
	<path stroke='black'  d='M206.4,662.4 L206.4,653.4  '/>	<g transform="translate(206.4,684.3)" stroke="none" fill="black" font-family="Helvetica" font-size="12.00"  text-anchor="middle">
		<text><tspan font-family="Helvetica" > 250</tspan></text>
	</g>
</g>
<g fill="none" color="black" stroke="currentColor" stroke-width="1.00" stroke-linecap="butt" stroke-linejoin="miter">
	<path stroke='black'  d='M379.3,662.4 L379.3,653.4  '/>	<g transform="translate(379.3,684.3)" stroke="none" fill="black" font-family="Helvetica" font-size="12.00"  text-anchor="middle">
		<text><tspan font-family="Helvetica" > 300</tspan></text>
	</g>
</g>
<g fill="none" color="black" stroke="currentColor" stroke-width="1.00" stroke-linecap="butt" stroke-linejoin="miter">
	<path stroke='black'  d='M552.2,662.4 L552.2,653.4  '/>	<g transform="translate(552.2,684.3)" stroke="none" fill="black" font-family="Helvetica" font-size="12.00"  text-anchor="middle">
		<text><tspan font-family="Helvetica" > 350</tspan></text>
	</g>
</g>
<g fill="none" color="black" stroke="currentColor" stroke-width="1.00" stroke-linecap="butt" stroke-linejoin="miter">
	<path stroke='black'  d='M725.2,662.4 L725.2,653.4  '/>	<g transform="translate(725.2,684.3)" stroke="none" fill="black" font-family="Helvetica" font-size="12.00"  text-anchor="middle">
		<text><tspan font-family="Helvetica" > 400</tspan></text>
	</g>
</g>
<g fill="none" color="black" stroke="currentColor" stroke-width="1.00" stroke-linecap="butt" stroke-linejoin="miter">
	<path stroke='black'  d='M898.1,662.4 L898.1,653.4  '/>	<g transform="translate(898.1,684.3)" stroke="none" fill="black" font-family="Helvetica" font-size="12.00"  text-anchor="middle">
		<text><tspan font-family="Helvetica" > 450</tspan></text>
	</g>
</g>
<g fill="none" color="black" stroke="currentColor" stroke-width="1.00" stroke-linecap="butt" stroke-linejoin="miter">
</g>
<g fill="none" color="black" stroke="currentColor" stroke-width="1.00" stroke-linecap="butt" stroke-linejoin="miter">
	<path stroke='black'  d='M88.5,54.1 L88.5,662.4 L1013.6,662.4 L1013.6,54.1 L88.5,54.1 Z  '/></g>
<g fill="none" color="black" stroke="currentColor" stroke-width="1.00" stroke-linecap="butt" stroke-linejoin="miter">
	<g transform="translate(16.3,358.3) rotate(270)" stroke="none" fill="black" font-family="Helvetica" font-size="12.00"  text-anchor="middle">
		<text><tspan font-family="Helvetica" >Density (a.u.)</tspan></text>
	</g>
</g>
<g fill="none" color="black" stroke="currentColor" stroke-width="1.00" stroke-linecap="butt" stroke-linejoin="miter">
	<g transform="translate(551.0,711.3)" stroke="none" fill="black" font-family="Helvetica" font-size="12.00"  text-anchor="middle">
		<text><tspan font-family="Helvetica" >Average time (ns)</tspan></text>
	</g>
</g>
<g fill="none" color="black" stroke="currentColor" stroke-width="1.00" stroke-linecap="butt" stroke-linejoin="miter">
	<g transform="translate(551.0,31.0)" stroke="none" fill="black" font-family="Helvetica" font-size="12.00"  text-anchor="middle">
		<text><tspan font-family="Helvetica" >snapshot_restore_with_dense/Dense: Entire region + process_vm_writev w/ page size/463: MAD</tspan></text>
	</g>
</g>
	<g id="gnuplot_plot_1" ><title>Bootstrap distribution</title>
<g fill="none" color="white" stroke="black" stroke-width="2.00" stroke-linecap="butt" stroke-linejoin="miter">
</g>
<g fill="none" color="black" stroke="currentColor" stroke-width="2.00" stroke-linecap="butt" stroke-linejoin="miter">
	<g transform="translate(1089.0,67.0)" stroke="none" fill="black" font-family="Helvetica" font-size="12.00"  text-anchor="start">
		<text><tspan font-family="Helvetica" >Bootstrap distribution</tspan></text>
	</g>
</g>
<g fill="none" color="black" stroke="currentColor" stroke-width="2.00" stroke-linecap="butt" stroke-linejoin="miter">
	<path stroke='rgb( 31, 120, 180)'  d='M1038.5,63.1 L1080.7,63.1 M88.5,630.5 L90.4,629.5 L92.2,628.5 L94.1,627.5 L95.9,626.4 L97.8,625.4
		L99.6,624.3 L101.5,623.1 L103.3,622.0 L105.2,620.7 L107.0,619.4 L108.9,618.0 L110.7,616.5 L112.6,614.9
		L114.5,613.2 L116.3,611.4 L118.2,609.5 L120.0,607.4 L121.9,605.2 L123.7,602.8 L125.6,600.4 L127.4,597.8
		L129.3,595.0 L131.1,592.2 L133.0,589.3 L134.8,586.2 L136.7,583.2 L138.6,580.1 L140.4,576.9 L142.3,573.8
		L144.1,570.7 L146.0,567.7 L147.8,564.8 L149.7,562.0 L151.5,559.3 L153.4,556.8 L155.2,554.4 L157.1,552.3
		L158.9,550.3 L160.8,548.6 L162.7,547.0 L164.5,545.7 L166.4,544.6 L168.2,543.6 L170.1,542.8 L171.9,542.2
		L173.8,541.7 L175.6,541.3 L177.5,540.9 L179.3,540.6 L181.2,540.3 L183.0,539.9 L184.9,539.5 L186.8,539.0
		L188.6,538.3 L190.5,537.5 L192.3,536.5 L194.2,535.2 L196.0,533.8 L197.9,532.0 L199.7,530.0 L201.6,527.8
		L203.4,525.2 L205.3,522.4 L207.2,519.2 L209.0,515.8 L210.9,512.2 L212.7,508.3 L214.6,504.2 L216.4,499.9
		L218.3,495.3 L220.1,490.7 L222.0,485.9 L223.8,481.0 L225.7,476.0 L227.5,471.0 L229.4,465.9 L231.3,460.8
		L233.1,455.8 L235.0,450.8 L236.8,445.8 L238.7,440.8 L240.5,436.0 L242.4,431.2 L244.2,426.5 L246.1,421.9
		L247.9,417.4 L249.8,413.0 L251.6,408.7 L253.5,404.4 L255.4,400.2 L257.2,396.1 L259.1,392.0 L260.9,387.9
		L262.8,383.9 L264.6,379.9 L266.5,375.8 L268.3,371.8 L270.2,367.7 L272.0,363.6 L273.9,359.5 L275.7,355.3
		L277.6,351.1 L279.5,346.8 L281.3,342.4 L283.2,338.0 L285.0,333.6 L286.9,329.1 L288.7,324.6 L290.6,320.1
		L292.4,315.5 L294.3,311.0 L296.1,306.5 L298.0,302.1 L299.8,297.7 L301.7,293.4 L303.6,289.2 L305.4,285.2
		L307.3,281.3 L309.1,277.7 L311.0,274.2 L312.8,271.0 L314.7,268.0 L316.5,265.3 L318.4,262.9 L320.2,260.8
		L322.1,259.1 L323.9,257.6 L325.8,256.5 L327.7,255.6 L329.5,255.1 L331.4,254.9 L333.2,255.0 L335.1,255.3
		L336.9,255.8 L338.8,256.4 L340.6,257.2 L342.5,258.1 L344.3,259.0 L346.2,259.9 L348.0,260.7 L349.9,261.3
		L351.8,261.8 L353.6,262.0 L355.5,261.9 L357.3,261.4 L359.2,260.6 L361.0,259.3 L362.9,257.6 L364.7,255.3
		L366.6,252.6 L368.4,249.5 L370.3,245.9 L372.1,241.8 L374.0,237.4 L375.9,232.7 L377.7,227.7 L379.6,222.6
		L381.4,217.3 L383.3,212.1 L385.1,206.9 L387.0,201.9 L388.8,197.1 L390.7,192.7 L392.5,188.7 L394.4,185.1
		L396.2,182.1 L398.1,179.6 L400.0,177.6 L401.8,176.2 L403.7,175.4 L405.5,175.0 L407.4,175.2 L409.2,175.7
		L411.1,176.6 L412.9,177.8 L414.8,179.1 L416.6,180.6 L418.5,182.1 L420.3,183.6 L422.2,185.0 L424.1,186.1
		L425.9,187.0 L427.8,187.7 L429.6,187.9 L431.5,187.8 L433.3,187.4 L435.2,186.6 L437.0,185.4 L438.9,183.9
		L440.7,182.0 L442.6,179.9 L444.5,177.6 L446.3,175.1 L448.2,172.5 L450.0,169.9 L451.9,167.2 L453.7,164.6
		L455.6,162.0 L457.4,159.6 L459.3,157.2 L461.1,155.1 L463.0,153.0 L464.8,151.1 L466.7,149.3 L468.6,147.6
		L470.4,145.8 L472.3,144.1 L474.1,142.3 L476.0,140.4 L477.8,138.4 L479.7,136.1 L481.5,133.5 L483.4,130.7
		L485.2,127.6 L487.1,124.1 L488.9,120.4 L490.8,116.4 L492.7,112.2 L494.5,107.8 L496.4,103.3 L498.2,98.7
		L500.1,94.3 L501.9,90.1 L503.8,86.1 L505.6,82.5 L507.5,79.5 L509.3,77.0 L511.2,75.2 L513.0,74.2
		L514.9,74.0 L516.8,74.7 L518.6,76.2 L520.5,78.6 L522.3,81.9 L524.2,85.9 L526.0,90.7 L527.9,96.2
		L529.7,102.2 L531.6,108.7 L533.4,115.5 L535.3,122.6 L537.1,129.8 L539.0,136.9 L540.9,143.8 L542.7,150.5
		L544.6,156.8 L546.4,162.7 L548.3,167.9 L550.1,172.6 L552.0,176.6 L553.8,179.9 L555.7,182.5 L557.5,184.3
		L559.4,185.5 L561.2,185.9 L563.1,185.7 L565.0,185.0 L566.8,183.7 L568.7,182.0 L570.5,179.8 L572.4,177.4
		L574.2,174.8 L576.1,172.1 L577.9,169.4 L579.8,166.6 L581.6,164.0 L583.5,161.6 L585.3,159.4 L587.2,157.6
		L589.1,156.0 L590.9,154.8 L592.8,154.0 L594.6,153.6 L596.5,153.5 L598.3,153.9 L600.2,154.6 L602.0,155.6
		L603.9,156.8 L605.7,158.4 L607.6,160.1 L609.4,161.9 L611.3,163.8 L613.2,165.7 L615.0,167.6 L616.9,169.4
		L618.7,171.0 L620.6,172.5 L622.4,173.7 L624.3,174.7 L626.1,175.3 L628.0,175.6 L629.8,175.5 L631.7,175.0
		L633.5,174.1 L635.4,172.9 L637.3,171.2 L639.1,169.2 L641.0,166.8 L642.8,164.0 L644.7,160.9 L646.5,157.6
		L648.4,154.0 L650.2,150.2 L652.1,146.3 L653.9,142.3 L655.8,138.3 L657.6,134.3 L659.5,130.3 L661.4,126.5
		L663.2,122.9 L665.1,119.5 L666.9,116.3 L668.8,113.5 L670.6,111.0 L672.5,108.9 L674.3,107.2 L676.2,105.9
		L678.0,105.1 L679.9,104.6 L681.8,104.6 L683.6,105.0 L685.5,105.8 L687.3,107.0 L689.2,108.5 L691.0,110.4
		L692.9,112.6 L694.7,115.1 L696.6,117.9 L698.4,120.8 L700.3,124.0 L702.1,127.3 L704.0,130.8 L705.9,134.3
		L707.7,137.9 L709.6,141.6 L711.4,145.3 L713.3,149.1 L715.1,152.8 L717.0,156.6 L718.8,160.4 L720.7,164.3
		L722.5,168.1 L724.4,172.1 L726.2,176.2 L728.1,180.3 L730.0,184.7 L731.8,189.2 L733.7,194.0 L735.5,199.0
		L737.4,204.2 L739.2,209.8 L741.1,215.6 L742.9,221.8 L744.8,228.3 L746.6,235.0 L748.5,242.0 L750.3,249.2
		L752.2,256.7 L754.1,264.3 L755.9,272.0 L757.8,279.8 L759.6,287.7 L761.5,295.5 L763.3,303.2 L765.2,310.8
		L767.0,318.3 L768.9,325.6 L770.7,332.6 L772.6,339.4 L774.4,345.9 L776.3,352.1 L778.2,357.9 L780.0,363.5
		L781.9,368.7 L783.7,373.5 L785.6,378.1 L787.4,382.3 L789.3,386.2 L791.1,389.9 L793.0,393.3 L794.8,396.4
		L796.7,399.4 L798.5,402.2 L800.4,404.8 L802.3,407.3 L804.1,409.8 L806.0,412.2 L807.8,414.5 L809.7,416.9
		L811.5,419.3 L813.4,421.7 L815.2,424.2 L817.1,426.7 L818.9,429.3 L820.8,432.0 L822.6,434.8 L824.5,437.6
		L826.4,440.5 L828.2,443.4 L830.1,446.4 L831.9,449.4 L833.8,452.4 L835.6,455.5 L837.5,458.6 L839.3,461.7
		L841.2,464.8 L843.0,467.9 L844.9,471.1 L846.7,474.2 L848.6,477.4 L850.5,480.5 L852.3,483.7 L854.2,486.9
		L856.0,490.2 L857.9,493.4 L859.7,496.7 L861.6,500.0 L863.4,503.4 L865.3,506.7 L867.1,510.1 L869.0,513.5
		L870.8,516.8 L872.7,520.2 L874.6,523.6 L876.4,526.9 L878.3,530.2 L880.1,533.5 L882.0,536.7 L883.8,539.9
		L885.7,543.0 L887.5,546.0 L889.4,549.0 L891.2,551.8 L893.1,554.5 L894.9,557.2 L896.8,559.7 L898.7,562.1
		L900.5,564.4 L902.4,566.6 L904.2,568.7 L906.1,570.7 L907.9,572.5 L909.8,574.3 L911.6,576.0 L913.5,577.6
		L915.3,579.1 L917.2,580.5 L919.1,581.9 L920.9,583.2 L922.8,584.5 L924.6,585.7 L926.5,586.8 L928.3,587.9
		L930.2,589.0 L932.0,590.0 L933.9,591.0 L935.7,591.9 L937.6,592.8 L939.4,593.6 L941.3,594.5 L943.2,595.3
		L945.0,596.1 L946.9,596.8 L948.7,597.6 L950.6,598.4 L952.4,599.1 L954.3,599.8 L956.1,600.6 L958.0,601.4
		L959.8,602.1 L961.7,602.9 L963.5,603.8 L965.4,604.6 L967.3,605.5 L969.1,606.4 L971.0,607.3 L972.8,608.3
		L974.7,609.3 L976.5,610.3 L978.4,611.4 L980.2,612.4 L982.1,613.5 L983.9,614.7 L985.8,615.8 L987.6,617.0
		L989.5,618.2 L991.4,619.4 L993.2,620.6 L995.1,621.8 L996.9,623.0 L998.8,624.1 L1000.6,625.3 L1002.5,626.4
		L1004.3,627.5 L1006.2,628.5 L1008.0,629.5 L1009.9,630.5 L1011.7,631.4 L1013.6,632.3  '/></g>
	</g>
	<g id="gnuplot_plot_2" ><title>Confidence interval</title>
<g fill="none" color="white" stroke="rgb( 31, 120, 180)" stroke-width="1.00" stroke-linecap="butt" stroke-linejoin="miter">
</g>
<g fill="none" color="black" stroke="currentColor" stroke-width="1.00" stroke-linecap="butt" stroke-linejoin="miter">
	<g transform="translate(1089.0,85.0)" stroke="none" fill="black" font-family="Helvetica" font-size="12.00"  text-anchor="start">
		<text><tspan font-family="Helvetica" >Confidence interval</tspan></text>
	</g>
</g>
<g fill="none" color="black" stroke="currentColor" stroke-width="1.00" stroke-linecap="butt" stroke-linejoin="miter">
	<g stroke='none' shape-rendering='crispEdges'>
		<polygon fill = 'rgb( 31, 120, 180)' fill-opacity = '0.250000' points = '1038.5,85.6 1080.7,85.6 1080.7,76.6 1038.5,76.6 '/>
		<polygon fill = 'rgb( 31, 120, 180)' fill-opacity = '0.250000' points = '173.8,541.7 175.6,541.3 177.5,540.9 179.3,540.6 181.2,540.3 183.0,539.9 184.9,539.5 186.8,539.0 188.6,538.3 190.5,537.5 192.3,536.5 194.2,535.2 196.0,533.8 197.9,532.0 199.7,530.0 201.6,527.8
203.4,525.2 205.3,522.4 207.2,519.2 209.0,515.8 210.9,512.2 212.7,508.3 214.6,504.2 216.4,499.9 218.3,495.3 220.1,490.7 222.0,485.9 223.8,481.0 225.7,476.0 227.5,471.0 229.4,465.9 231.3,460.8
233.1,455.8 235.0,450.8 236.8,445.8 238.7,440.8 240.5,436.0 242.4,431.2 244.2,426.5 246.1,421.9 247.9,417.4 249.8,413.0 251.6,408.7 253.5,404.4 255.4,400.2 257.2,396.1 259.1,392.0 260.9,387.9
262.8,383.9 264.6,379.9 266.5,375.8 268.3,371.8 270.2,367.7 272.0,363.6 273.9,359.5 275.7,355.3 277.6,351.1 279.5,346.8 281.3,342.4 283.2,338.0 285.0,333.6 286.9,329.1 288.7,324.6 290.6,320.1
292.4,315.5 294.3,311.0 296.1,306.5 298.0,302.1 299.8,297.7 301.7,293.4 303.6,289.2 305.4,285.2 307.3,281.3 309.1,277.7 311.0,274.2 312.8,271.0 314.7,268.0 316.5,265.3 318.4,262.9 320.2,260.8
322.1,259.1 323.9,257.6 325.8,256.5 327.7,255.6 329.5,255.1 331.4,254.9 333.2,255.0 335.1,255.3 336.9,255.8 338.8,256.4 340.6,257.2 342.5,258.1 344.3,259.0 346.2,259.9 348.0,260.7 349.9,261.3
351.8,261.8 353.6,262.0 355.5,261.9 357.3,261.4 359.2,260.6 361.0,259.3 362.9,257.6 364.7,255.3 366.6,252.6 368.4,249.5 370.3,245.9 372.1,241.8 374.0,237.4 375.9,232.7 377.7,227.7 379.6,222.6
381.4,217.3 383.3,212.1 385.1,206.9 387.0,201.9 388.8,197.1 390.7,192.7 392.5,188.7 394.4,185.1 396.2,182.1 398.1,179.6 400.0,177.6 401.8,176.2 403.7,175.4 405.5,175.0 407.4,175.2 409.2,175.7
411.1,176.6 412.9,177.8 414.8,179.1 416.6,180.6 418.5,182.1 420.3,183.6 422.2,185.0 424.1,186.1 425.9,187.0 427.8,187.7 429.6,187.9 431.5,187.8 433.3,187.4 435.2,186.6 437.0,185.4 438.9,183.9
440.7,182.0 442.6,179.9 444.5,177.6 446.3,175.1 448.2,172.5 450.0,169.9 451.9,167.2 453.7,164.6 455.6,162.0 457.4,159.6 459.3,157.2 461.1,155.1 463.0,153.0 464.8,151.1 466.7,149.3 468.6,147.6
470.4,145.8 472.3,144.1 474.1,142.3 476.0,140.4 477.8,138.4 479.7,136.1 481.5,133.5 483.4,130.7 485.2,127.6 487.1,124.1 488.9,120.4 490.8,116.4 492.7,112.2 494.5,107.8 496.4,103.3 498.2,98.7
500.1,94.3 501.9,90.1 503.8,86.1 505.6,82.5 507.5,79.5 509.3,77.0 511.2,75.2 513.0,74.2 514.9,74.0 516.8,74.7 518.6,76.2 520.5,78.6 522.3,81.9 524.2,85.9 526.0,90.7 527.9,96.2
529.7,102.2 531.6,108.7 533.4,115.5 535.3,122.6 537.1,129.8 539.0,136.9 540.9,143.8 542.7,150.5 544.6,156.8 546.4,162.7 548.3,167.9 550.1,172.6 552.0,176.6 553.8,179.9 555.7,182.5 557.5,184.3
559.4,185.5 561.2,185.9 563.1,185.7 565.0,185.0 566.8,183.7 568.7,182.0 570.5,179.8 572.4,177.4 574.2,174.8 576.1,172.1 577.9,169.4 579.8,166.6 581.6,164.0 583.5,161.6 585.3,159.4 587.2,157.6
589.1,156.0 590.9,154.8 592.8,154.0 594.6,153.6 596.5,153.5 598.3,153.9 600.2,154.6 602.0,155.6 603.9,156.8 605.7,158.4 607.6,160.1 609.4,161.9 611.3,163.8 613.2,165.7 615.0,167.6 616.9,169.4
618.7,171.0 620.6,172.5 622.4,173.7 624.3,174.7 626.1,175.3 628.0,175.6 629.8,175.5 631.7,175.0 633.5,174.1 635.4,172.9 637.3,171.2 639.1,169.2 641.0,166.8 642.8,164.0 644.7,160.9 646.5,157.6
648.4,154.0 650.2,150.2 652.1,146.3 653.9,142.3 655.8,138.3 657.6,134.3 659.5,130.3 661.4,126.5 663.2,122.9 665.1,119.5 666.9,116.3 668.8,113.5 670.6,111.0 672.5,108.9 674.3,107.2 676.2,105.9
678.0,105.1 679.9,104.6 681.8,104.6 683.6,105.0 685.5,105.8 687.3,107.0 689.2,108.5 691.0,110.4 692.9,112.6 694.7,115.1 696.6,117.9 698.4,120.8 700.3,124.0 702.1,127.3 704.0,130.8 705.9,134.3
707.7,137.9 709.6,141.6 711.4,145.3 713.3,149.1 715.1,152.8 717.0,156.6 718.8,160.4 720.7,164.3 722.5,168.1 724.4,172.1 726.2,176.2 728.1,180.3 730.0,184.7 731.8,189.2 733.7,194.0 735.5,199.0
737.4,204.2 739.2,209.8 741.1,215.6 742.9,221.8 744.8,228.3 746.6,235.0 748.5,242.0 750.3,249.2 752.2,256.7 754.1,264.3 755.9,272.0 757.8,279.8 759.6,287.7 761.5,295.5 763.3,303.2 765.2,310.8
767.0,318.3 768.9,325.6 770.7,332.6 772.6,339.4 774.4,345.9 776.3,352.1 778.2,357.9 780.0,363.5 781.9,368.7 783.7,373.5 785.6,378.1 787.4,382.3 789.3,386.2 791.1,389.9 793.0,393.3 794.8,396.4
796.7,399.4 798.5,402.2 800.4,404.8 802.3,407.3 804.1,409.8 806.0,412.2 807.8,414.5 809.7,416.9 811.5,419.3 813.4,421.7 815.2,424.2 817.1,426.7 818.9,429.3 820.8,432.0 822.6,434.8 824.5,437.6
826.4,440.5 828.2,443.4 830.1,446.4 831.9,449.4 833.8,452.4 835.6,455.5 837.5,458.6 839.3,461.7 841.2,464.8 843.0,467.9 844.9,471.1 846.7,474.2 848.6,477.4 850.5,480.5 852.3,483.7 854.2,486.9
856.0,490.2 857.9,493.4 859.7,496.7 861.6,500.0 863.4,503.4 865.3,506.7 867.1,510.1 869.0,513.5 870.8,516.8 872.7,520.2 874.6,523.6 876.4,526.9 878.3,530.2 880.1,533.5 882.0,536.7 883.8,539.9
885.7,543.0 887.5,546.0 889.4,549.0 891.2,551.8 893.1,554.5 894.9,557.2 896.8,559.7 898.7,562.1 900.5,564.4 902.4,566.6 904.2,568.7 906.1,570.7 907.9,572.5 909.8,574.3 911.6,576.0 913.5,577.6
915.3,579.1 917.2,580.5 919.1,581.9 920.9,583.2 922.8,584.5 924.6,585.7 926.5,586.8 926.5,662.4 924.6,662.4 922.8,662.4 920.9,662.4 919.1,662.4 917.2,662.4 915.3,662.4 913.5,662.4 911.6,662.4
909.8,662.4 907.9,662.4 906.1,662.4 904.2,662.4 902.4,662.4 900.5,662.4 898.7,662.4 896.8,662.4 894.9,662.4 893.1,662.4 891.2,662.4 889.4,662.4 887.5,662.4 885.7,662.4 883.8,662.4 882.0,662.4
880.1,662.4 878.3,662.4 876.4,662.4 874.6,662.4 872.7,662.4 870.8,662.4 869.0,662.4 867.1,662.4 865.3,662.4 863.4,662.4 861.6,662.4 859.7,662.4 857.9,662.4 856.0,662.4 854.2,662.4 852.3,662.4
850.5,662.4 848.6,662.4 846.7,662.4 844.9,662.4 843.0,662.4 841.2,662.4 839.3,662.4 837.5,662.4 835.6,662.4 833.8,662.4 831.9,662.4 830.1,662.4 828.2,662.4 826.4,662.4 824.5,662.4 822.6,662.4
820.8,662.4 818.9,662.4 817.1,662.4 815.2,662.4 813.4,662.4 811.5,662.4 809.7,662.4 807.8,662.4 806.0,662.4 804.1,662.4 802.3,662.4 800.4,662.4 798.5,662.4 796.7,662.4 794.8,662.4 793.0,662.4
791.1,662.4 789.3,662.4 787.4,662.4 785.6,662.4 783.7,662.4 781.9,662.4 780.0,662.4 778.2,662.4 776.3,662.4 774.4,662.4 772.6,662.4 770.7,662.4 768.9,662.4 767.0,662.4 765.2,662.4 763.3,662.4
761.5,662.4 759.6,662.4 757.8,662.4 755.9,662.4 754.1,662.4 752.2,662.4 750.3,662.4 748.5,662.4 746.6,662.4 744.8,662.4 742.9,662.4 741.1,662.4 739.2,662.4 737.4,662.4 735.5,662.4 733.7,662.4
731.8,662.4 730.0,662.4 728.1,662.4 726.2,662.4 724.4,662.4 722.5,662.4 720.7,662.4 718.8,662.4 717.0,662.4 715.1,662.4 713.3,662.4 711.4,662.4 709.6,662.4 707.7,662.4 705.9,662.4 704.0,662.4
702.1,662.4 700.3,662.4 698.4,662.4 696.6,662.4 694.7,662.4 692.9,662.4 691.0,662.4 689.2,662.4 687.3,662.4 685.5,662.4 683.6,662.4 681.8,662.4 679.9,662.4 678.0,662.4 676.2,662.4 674.3,662.4
672.5,662.4 670.6,662.4 668.8,662.4 666.9,662.4 665.1,662.4 663.2,662.4 661.4,662.4 659.5,662.4 657.6,662.4 655.8,662.4 653.9,662.4 652.1,662.4 650.2,662.4 648.4,662.4 646.5,662.4 644.7,662.4
642.8,662.4 641.0,662.4 639.1,662.4 637.3,662.4 635.4,662.4 633.5,662.4 631.7,662.4 629.8,662.4 628.0,662.4 626.1,662.4 624.3,662.4 622.4,662.4 620.6,662.4 618.7,662.4 616.9,662.4 615.0,662.4
613.2,662.4 611.3,662.4 609.4,662.4 607.6,662.4 605.7,662.4 603.9,662.4 602.0,662.4 600.2,662.4 598.3,662.4 596.5,662.4 594.6,662.4 592.8,662.4 590.9,662.4 589.1,662.4 587.2,662.4 585.3,662.4
583.5,662.4 581.6,662.4 579.8,662.4 577.9,662.4 576.1,662.4 574.2,662.4 572.4,662.4 570.5,662.4 568.7,662.4 566.8,662.4 565.0,662.4 563.1,662.4 561.2,662.4 559.4,662.4 557.5,662.4 555.7,662.4
553.8,662.4 552.0,662.4 550.1,662.4 548.3,662.4 546.4,662.4 544.6,662.4 542.7,662.4 540.9,662.4 539.0,662.4 537.1,662.4 535.3,662.4 533.4,662.4 531.6,662.4 529.7,662.4 527.9,662.4 526.0,662.4
524.2,662.4 522.3,662.4 520.5,662.4 518.6,662.4 516.8,662.4 514.9,662.4 513.0,662.4 511.2,662.4 509.3,662.4 507.5,662.4 505.6,662.4 503.8,662.4 501.9,662.4 500.1,662.4 498.2,662.4 496.4,662.4
494.5,662.4 492.7,662.4 490.8,662.4 488.9,662.4 487.1,662.4 485.2,662.4 483.4,662.4 481.5,662.4 479.7,662.4 477.8,662.4 476.0,662.4 474.1,662.4 472.3,662.4 470.4,662.4 468.6,662.4 466.7,662.4
464.8,662.4 463.0,662.4 461.1,662.4 459.3,662.4 457.4,662.4 455.6,662.4 453.7,662.4 451.9,662.4 450.0,662.4 448.2,662.4 446.3,662.4 444.5,662.4 442.6,662.4 440.7,662.4 438.9,662.4 437.0,662.4
435.2,662.4 433.3,662.4 431.5,662.4 429.6,662.4 427.8,662.4 425.9,662.4 424.1,662.4 422.2,662.4 420.3,662.4 418.5,662.4 416.6,662.4 414.8,662.4 412.9,662.4 411.1,662.4 409.2,662.4 407.4,662.4
405.5,662.4 403.7,662.4 401.8,662.4 400.0,662.4 398.1,662.4 396.2,662.4 394.4,662.4 392.5,662.4 390.7,662.4 388.8,662.4 387.0,662.4 385.1,662.4 383.3,662.4 381.4,662.4 379.6,662.4 377.7,662.4
375.9,662.4 374.0,662.4 372.1,662.4 370.3,662.4 368.4,662.4 366.6,662.4 364.7,662.4 362.9,662.4 361.0,662.4 359.2,662.4 357.3,662.4 355.5,662.4 353.6,662.4 351.8,662.4 349.9,662.4 348.0,662.4
346.2,662.4 344.3,662.4 342.5,662.4 340.6,662.4 338.8,662.4 336.9,662.4 335.1,662.4 333.2,662.4 331.4,662.4 329.5,662.4 327.7,662.4 325.8,662.4 323.9,662.4 322.1,662.4 320.2,662.4 318.4,662.4
316.5,662.4 314.7,662.4 312.8,662.4 311.0,662.4 309.1,662.4 307.3,662.4 305.4,662.4 303.6,662.4 301.7,662.4 299.8,662.4 298.0,662.4 296.1,662.4 294.3,662.4 292.4,662.4 290.6,662.4 288.7,662.4
286.9,662.4 285.0,662.4 283.2,662.4 281.3,662.4 279.5,662.4 277.6,662.4 275.7,662.4 273.9,662.4 272.0,662.4 270.2,662.4 268.3,662.4 266.5,662.4 264.6,662.4 262.8,662.4 260.9,662.4 259.1,662.4
257.2,662.4 255.4,662.4 253.5,662.4 251.6,662.4 249.8,662.4 247.9,662.4 246.1,662.4 244.2,662.4 242.4,662.4 240.5,662.4 238.7,662.4 236.8,662.4 235.0,662.4 233.1,662.4 231.3,662.4 229.4,662.4
227.5,662.4 225.7,662.4 223.8,662.4 222.0,662.4 220.1,662.4 218.3,662.4 216.4,662.4 214.6,662.4 212.7,662.4 210.9,662.4 209.0,662.4 207.2,662.4 205.3,662.4 203.4,662.4 201.6,662.4 199.7,662.4
197.9,662.4 196.0,662.4 194.2,662.4 192.3,662.4 190.5,662.4 188.6,662.4 186.8,662.4 184.9,662.4 183.0,662.4 181.2,662.4 179.3,662.4 177.5,662.4 175.6,662.4 173.8,662.4 '/>
	</g>
</g>
	</g>
	<g id="gnuplot_plot_3" ><title>Point estimate</title>
<g fill="none" color="white" stroke="rgb( 31, 120, 180)" stroke-width="2.00" stroke-linecap="butt" stroke-linejoin="miter">
</g>
<g fill="none" color="black" stroke="currentColor" stroke-width="2.00" stroke-linecap="butt" stroke-linejoin="miter">
	<g transform="translate(1089.0,103.0)" stroke="none" fill="black" font-family="Helvetica" font-size="12.00"  text-anchor="start">
		<text><tspan font-family="Helvetica" >Point estimate</tspan></text>
	</g>
</g>
<g fill="none" color="black" stroke="currentColor" stroke-width="2.00" stroke-linecap="butt" stroke-linejoin="miter">
	<path stroke='rgb( 31, 120, 180)'  d='M1038.5,99.1 L1080.7,99.1 M609.4,662.4 L609.4,161.8  '/></g>
	</g>
<g fill="none" color="black" stroke="currentColor" stroke-width="2.00" stroke-linecap="butt" stroke-linejoin="miter">
</g>
<g fill="none" color="black" stroke="black" stroke-width="1.00" stroke-linecap="butt" stroke-linejoin="miter">
</g>
<g fill="none" color="black" stroke="currentColor" stroke-width="1.00" stroke-linecap="butt" stroke-linejoin="miter">
	<path stroke='black'  d='M88.5,54.1 L88.5,662.4 L1013.6,662.4 L1013.6,54.1 L88.5,54.1 Z  '/></g>
<g fill="none" color="black" stroke="currentColor" stroke-width="1.00" stroke-linecap="butt" stroke-linejoin="miter">
</g>
</g>
</svg>

