<?xml version="1.0" encoding="utf-8"  standalone="no"?>
<svg 
 viewBox="0 0 1280 720"
 xmlns="http://www.w3.org/2000/svg"
 xmlns:xlink="http://www.w3.org/1999/xlink"
>

<title>Gnuplot</title>
<desc>Produced by GNUPLOT 5.2 patchlevel 6 </desc>

<g id="gnuplot_canvas">

<rect x="0" y="0" width="1280" height="720" fill="none"/>
<defs>

	<circle id='gpDot' r='0.5' stroke-width='0.5' stroke='currentColor'/>
	<path id='gpPt0' stroke-width='0.222' stroke='currentColor' d='M-1,0 h2 M0,-1 v2'/>
	<path id='gpPt1' stroke-width='0.222' stroke='currentColor' d='M-1,-1 L1,1 M1,-1 L-1,1'/>
	<path id='gpPt2' stroke-width='0.222' stroke='currentColor' d='M-1,0 L1,0 M0,-1 L0,1 M-1,-1 L1,1 M-1,1 L1,-1'/>
	<rect id='gpPt3' stroke-width='0.222' stroke='currentColor' x='-1' y='-1' width='2' height='2'/>
	<rect id='gpPt4' stroke-width='0.222' stroke='currentColor' fill='currentColor' x='-1' y='-1' width='2' height='2'/>
	<circle id='gpPt5' stroke-width='0.222' stroke='currentColor' cx='0' cy='0' r='1'/>
	<use xlink:href='#gpPt5' id='gpPt6' fill='currentColor' stroke='none'/>
	<path id='gpPt7' stroke-width='0.222' stroke='currentColor' d='M0,-1.33 L-1.33,0.67 L1.33,0.67 z'/>
	<use xlink:href='#gpPt7' id='gpPt8' fill='currentColor' stroke='none'/>
	<use xlink:href='#gpPt7' id='gpPt9' stroke='currentColor' transform='rotate(180)'/>
	<use xlink:href='#gpPt9' id='gpPt10' fill='currentColor' stroke='none'/>
	<use xlink:href='#gpPt3' id='gpPt11' stroke='currentColor' transform='rotate(45)'/>
	<use xlink:href='#gpPt11' id='gpPt12' fill='currentColor' stroke='none'/>
	<path id='gpPt13' stroke-width='0.222' stroke='currentColor' d='M0,1.330 L1.265,0.411 L0.782,-1.067 L-0.782,-1.076 L-1.265,0.411 z'/>
	<use xlink:href='#gpPt13' id='gpPt14' fill='currentColor' stroke='none'/>
	<filter id='textbox' filterUnits='objectBoundingBox' x='0' y='0' height='1' width='1'>
	  <feFlood flood-color='white' flood-opacity='1' result='bgnd'/>
	  <feComposite in='SourceGraphic' in2='bgnd' operator='atop'/>
	</filter>
	<filter id='greybox' filterUnits='objectBoundingBox' x='0' y='0' height='1' width='1'>
	  <feFlood flood-color='lightgrey' flood-opacity='1' result='grey'/>
	  <feComposite in='SourceGraphic' in2='grey' operator='atop'/>
	</filter>
</defs>
<g fill="none" color="white" stroke="currentColor" stroke-width="1.00" stroke-linecap="butt" stroke-linejoin="miter">
</g>
<g fill="none" color="black" stroke="currentColor" stroke-width="1.00" stroke-linecap="butt" stroke-linejoin="miter">
	<path stroke='black'  d='M71.9,662.4 L80.9,662.4  '/>	<g transform="translate(63.6,666.3)" stroke="none" fill="black" font-family="Helvetica" font-size="12.00"  text-anchor="end">
		<text><tspan font-family="Helvetica" > 0</tspan></text>
	</g>
</g>
<g fill="none" color="black" stroke="currentColor" stroke-width="1.00" stroke-linecap="butt" stroke-linejoin="miter">
	<path stroke='black'  d='M71.9,540.7 L80.9,540.7  '/>	<g transform="translate(63.6,544.6)" stroke="none" fill="black" font-family="Helvetica" font-size="12.00"  text-anchor="end">
		<text><tspan font-family="Helvetica" > 100</tspan></text>
	</g>
</g>
<g fill="none" color="black" stroke="currentColor" stroke-width="1.00" stroke-linecap="butt" stroke-linejoin="miter">
	<path stroke='black'  d='M71.9,419.1 L80.9,419.1  '/>	<g transform="translate(63.6,423.0)" stroke="none" fill="black" font-family="Helvetica" font-size="12.00"  text-anchor="end">
		<text><tspan font-family="Helvetica" > 200</tspan></text>
	</g>
</g>
<g fill="none" color="black" stroke="currentColor" stroke-width="1.00" stroke-linecap="butt" stroke-linejoin="miter">
	<path stroke='black'  d='M71.9,297.4 L80.9,297.4  '/>	<g transform="translate(63.6,301.3)" stroke="none" fill="black" font-family="Helvetica" font-size="12.00"  text-anchor="end">
		<text><tspan font-family="Helvetica" > 300</tspan></text>
	</g>
</g>
<g fill="none" color="black" stroke="currentColor" stroke-width="1.00" stroke-linecap="butt" stroke-linejoin="miter">
	<path stroke='black'  d='M71.9,175.8 L80.9,175.8  '/>	<g transform="translate(63.6,179.7)" stroke="none" fill="black" font-family="Helvetica" font-size="12.00"  text-anchor="end">
		<text><tspan font-family="Helvetica" > 400</tspan></text>
	</g>
</g>
<g fill="none" color="black" stroke="currentColor" stroke-width="1.00" stroke-linecap="butt" stroke-linejoin="miter">
	<path stroke='black'  d='M71.9,54.1 L80.9,54.1  '/>	<g transform="translate(63.6,58.0)" stroke="none" fill="black" font-family="Helvetica" font-size="12.00"  text-anchor="end">
		<text><tspan font-family="Helvetica" > 500</tspan></text>
	</g>
</g>
<g fill="none" color="black" stroke="currentColor" stroke-width="1.00" stroke-linecap="butt" stroke-linejoin="miter">
	<path stroke='black'  d='M105.0,662.4 L105.0,653.4  '/>	<g transform="translate(105.0,684.3)" stroke="none" fill="black" font-family="Helvetica" font-size="12.00"  text-anchor="middle">
		<text><tspan font-family="Helvetica" > 235</tspan></text>
	</g>
</g>
<g fill="none" color="black" stroke="currentColor" stroke-width="1.00" stroke-linecap="butt" stroke-linejoin="miter">
	<path stroke='black'  d='M203.2,662.4 L203.2,653.4  '/>	<g transform="translate(203.2,684.3)" stroke="none" fill="black" font-family="Helvetica" font-size="12.00"  text-anchor="middle">
		<text><tspan font-family="Helvetica" > 240</tspan></text>
	</g>
</g>
<g fill="none" color="black" stroke="currentColor" stroke-width="1.00" stroke-linecap="butt" stroke-linejoin="miter">
	<path stroke='black'  d='M301.4,662.4 L301.4,653.4  '/>	<g transform="translate(301.4,684.3)" stroke="none" fill="black" font-family="Helvetica" font-size="12.00"  text-anchor="middle">
		<text><tspan font-family="Helvetica" > 245</tspan></text>
	</g>
</g>
<g fill="none" color="black" stroke="currentColor" stroke-width="1.00" stroke-linecap="butt" stroke-linejoin="miter">
	<path stroke='black'  d='M399.7,662.4 L399.7,653.4  '/>	<g transform="translate(399.7,684.3)" stroke="none" fill="black" font-family="Helvetica" font-size="12.00"  text-anchor="middle">
		<text><tspan font-family="Helvetica" > 250</tspan></text>
	</g>
</g>
<g fill="none" color="black" stroke="currentColor" stroke-width="1.00" stroke-linecap="butt" stroke-linejoin="miter">
	<path stroke='black'  d='M497.9,662.4 L497.9,653.4  '/>	<g transform="translate(497.9,684.3)" stroke="none" fill="black" font-family="Helvetica" font-size="12.00"  text-anchor="middle">
		<text><tspan font-family="Helvetica" > 255</tspan></text>
	</g>
</g>
<g fill="none" color="black" stroke="currentColor" stroke-width="1.00" stroke-linecap="butt" stroke-linejoin="miter">
	<path stroke='black'  d='M596.1,662.4 L596.1,653.4  '/>	<g transform="translate(596.1,684.3)" stroke="none" fill="black" font-family="Helvetica" font-size="12.00"  text-anchor="middle">
		<text><tspan font-family="Helvetica" > 260</tspan></text>
	</g>
</g>
<g fill="none" color="black" stroke="currentColor" stroke-width="1.00" stroke-linecap="butt" stroke-linejoin="miter">
	<path stroke='black'  d='M694.3,662.4 L694.3,653.4  '/>	<g transform="translate(694.3,684.3)" stroke="none" fill="black" font-family="Helvetica" font-size="12.00"  text-anchor="middle">
		<text><tspan font-family="Helvetica" > 265</tspan></text>
	</g>
</g>
<g fill="none" color="black" stroke="currentColor" stroke-width="1.00" stroke-linecap="butt" stroke-linejoin="miter">
	<path stroke='black'  d='M792.5,662.4 L792.5,653.4  '/>	<g transform="translate(792.5,684.3)" stroke="none" fill="black" font-family="Helvetica" font-size="12.00"  text-anchor="middle">
		<text><tspan font-family="Helvetica" > 270</tspan></text>
	</g>
</g>
<g fill="none" color="black" stroke="currentColor" stroke-width="1.00" stroke-linecap="butt" stroke-linejoin="miter">
	<path stroke='black'  d='M890.7,662.4 L890.7,653.4  '/>	<g transform="translate(890.7,684.3)" stroke="none" fill="black" font-family="Helvetica" font-size="12.00"  text-anchor="middle">
		<text><tspan font-family="Helvetica" > 275</tspan></text>
	</g>
</g>
<g fill="none" color="black" stroke="currentColor" stroke-width="1.00" stroke-linecap="butt" stroke-linejoin="miter">
	<path stroke='black'  d='M988.9,662.4 L988.9,653.4  '/>	<g transform="translate(988.9,684.3)" stroke="none" fill="black" font-family="Helvetica" font-size="12.00"  text-anchor="middle">
		<text><tspan font-family="Helvetica" > 280</tspan></text>
	</g>
</g>
<g fill="none" color="black" stroke="currentColor" stroke-width="1.00" stroke-linecap="butt" stroke-linejoin="miter">
	<path stroke='black'  d='M995.6,662.4 L986.6,662.4  '/>	<g transform="translate(1003.9,666.3)" stroke="none" fill="black" font-family="Helvetica" font-size="12.00"  text-anchor="start">
		<text><tspan font-family="Helvetica" > 0</tspan></text>
	</g>
</g>
<g fill="none" color="black" stroke="currentColor" stroke-width="1.00" stroke-linecap="butt" stroke-linejoin="miter">
	<path stroke='black'  d='M995.6,594.8 L986.6,594.8  '/>	<g transform="translate(1003.9,598.7)" stroke="none" fill="black" font-family="Helvetica" font-size="12.00"  text-anchor="start">
		<text><tspan font-family="Helvetica" > 0.02</tspan></text>
	</g>
</g>
<g fill="none" color="black" stroke="currentColor" stroke-width="1.00" stroke-linecap="butt" stroke-linejoin="miter">
	<path stroke='black'  d='M995.6,527.2 L986.6,527.2  '/>	<g transform="translate(1003.9,531.1)" stroke="none" fill="black" font-family="Helvetica" font-size="12.00"  text-anchor="start">
		<text><tspan font-family="Helvetica" > 0.04</tspan></text>
	</g>
</g>
<g fill="none" color="black" stroke="currentColor" stroke-width="1.00" stroke-linecap="butt" stroke-linejoin="miter">
	<path stroke='black'  d='M995.6,459.6 L986.6,459.6  '/>	<g transform="translate(1003.9,463.5)" stroke="none" fill="black" font-family="Helvetica" font-size="12.00"  text-anchor="start">
		<text><tspan font-family="Helvetica" > 0.06</tspan></text>
	</g>
</g>
<g fill="none" color="black" stroke="currentColor" stroke-width="1.00" stroke-linecap="butt" stroke-linejoin="miter">
	<path stroke='black'  d='M995.6,392.0 L986.6,392.0  '/>	<g transform="translate(1003.9,395.9)" stroke="none" fill="black" font-family="Helvetica" font-size="12.00"  text-anchor="start">
		<text><tspan font-family="Helvetica" > 0.08</tspan></text>
	</g>
</g>
<g fill="none" color="black" stroke="currentColor" stroke-width="1.00" stroke-linecap="butt" stroke-linejoin="miter">
	<path stroke='black'  d='M995.6,324.5 L986.6,324.5  '/>	<g transform="translate(1003.9,328.4)" stroke="none" fill="black" font-family="Helvetica" font-size="12.00"  text-anchor="start">
		<text><tspan font-family="Helvetica" > 0.1</tspan></text>
	</g>
</g>
<g fill="none" color="black" stroke="currentColor" stroke-width="1.00" stroke-linecap="butt" stroke-linejoin="miter">
	<path stroke='black'  d='M995.6,256.9 L986.6,256.9  '/>	<g transform="translate(1003.9,260.8)" stroke="none" fill="black" font-family="Helvetica" font-size="12.00"  text-anchor="start">
		<text><tspan font-family="Helvetica" > 0.12</tspan></text>
	</g>
</g>
<g fill="none" color="black" stroke="currentColor" stroke-width="1.00" stroke-linecap="butt" stroke-linejoin="miter">
	<path stroke='black'  d='M995.6,189.3 L986.6,189.3  '/>	<g transform="translate(1003.9,193.2)" stroke="none" fill="black" font-family="Helvetica" font-size="12.00"  text-anchor="start">
		<text><tspan font-family="Helvetica" > 0.14</tspan></text>
	</g>
</g>
<g fill="none" color="black" stroke="currentColor" stroke-width="1.00" stroke-linecap="butt" stroke-linejoin="miter">
	<path stroke='black'  d='M995.6,121.7 L986.6,121.7  '/>	<g transform="translate(1003.9,125.6)" stroke="none" fill="black" font-family="Helvetica" font-size="12.00"  text-anchor="start">
		<text><tspan font-family="Helvetica" > 0.16</tspan></text>
	</g>
</g>
<g fill="none" color="black" stroke="currentColor" stroke-width="1.00" stroke-linecap="butt" stroke-linejoin="miter">
	<path stroke='black'  d='M995.6,54.1 L986.6,54.1  '/>	<g transform="translate(1003.9,58.0)" stroke="none" fill="black" font-family="Helvetica" font-size="12.00"  text-anchor="start">
		<text><tspan font-family="Helvetica" > 0.18</tspan></text>
	</g>
</g>
<g fill="none" color="black" stroke="currentColor" stroke-width="1.00" stroke-linecap="butt" stroke-linejoin="miter">
</g>
<g fill="none" color="black" stroke="currentColor" stroke-width="1.00" stroke-linecap="butt" stroke-linejoin="miter">
	<path stroke='black'  d='M71.9,54.1 L71.9,662.4 L995.6,662.4 L995.6,54.1 L71.9,54.1 Z  '/></g>
<g fill="none" color="black" stroke="currentColor" stroke-width="1.00" stroke-linecap="butt" stroke-linejoin="miter">
	<g transform="translate(16.3,358.3) rotate(270)" stroke="none" fill="black" font-family="Helvetica" font-size="12.00"  text-anchor="middle">
		<text><tspan font-family="Helvetica" >Iterations</tspan></text>
	</g>
</g>
<g fill="none" color="black" stroke="currentColor" stroke-width="1.00" stroke-linecap="butt" stroke-linejoin="miter">
	<g transform="translate(1074.2,358.3) rotate(270)" stroke="none" fill="black" font-family="Helvetica" font-size="12.00"  text-anchor="middle">
		<text><tspan font-family="Helvetica" >Density (a.u.)</tspan></text>
	</g>
</g>
<g fill="none" color="black" stroke="currentColor" stroke-width="1.00" stroke-linecap="butt" stroke-linejoin="miter">
	<g transform="translate(533.7,711.3)" stroke="none" fill="black" font-family="Helvetica" font-size="12.00"  text-anchor="middle">
		<text><tspan font-family="Helvetica" >Average time (us)</tspan></text>
	</g>
</g>
<g fill="none" color="black" stroke="currentColor" stroke-width="1.00" stroke-linecap="butt" stroke-linejoin="miter">
	<g transform="translate(533.7,31.0)" stroke="none" fill="black" font-family="Helvetica" font-size="12.00"  text-anchor="middle">
		<text><tspan font-family="Helvetica" >snapshot_restore_with_dense/Dense: Entire region + process_vm_writev w/ page size/463</tspan></text>
	</g>
</g>
	<g id="gnuplot_plot_1" ><title>PDF</title>
<g fill="none" color="black" stroke="currentColor" stroke-width="1.00" stroke-linecap="butt" stroke-linejoin="miter">
	<g transform="translate(1147.1,67.0)" stroke="none" fill="black" font-family="Helvetica" font-size="12.00"  text-anchor="start">
		<text><tspan font-family="Helvetica" >PDF</tspan></text>
	</g>
</g>
<g fill="none" color="black" stroke="currentColor" stroke-width="1.00" stroke-linecap="butt" stroke-linejoin="miter">
	<g stroke='none' shape-rendering='crispEdges'>
		<polygon fill = 'rgb( 31, 120, 180)' fill-opacity = '0.250000' points = '1096.6,67.6 1138.8,67.6 1138.8,58.6 1096.6,58.6 '/>
		<polygon fill = 'rgb( 31, 120, 180)' fill-opacity = '0.250000' points = '71.9,660.7 73.8,660.4 75.6,660.1 77.5,659.8 79.3,659.3 81.2,658.9 83.0,658.3 84.9,657.7 86.7,657.0 88.6,656.2 90.4,655.3 92.3,654.3 94.1,653.2 96.0,651.9 97.8,650.5 99.7,648.9
101.5,647.1 103.4,645.2 105.2,643.0 107.1,640.6 108.9,638.0 110.8,635.1 112.6,631.9 114.5,628.4 116.3,624.6 118.2,620.5 120.0,616.0 121.9,611.1 123.7,605.8 125.6,600.1 127.4,593.9 129.3,587.3
131.1,580.2 133.0,572.7 134.8,564.6 136.7,556.1 138.5,547.0 140.4,537.4 142.2,527.3 144.1,516.6 145.9,505.4 147.8,493.7 149.6,481.5 151.5,468.8 153.3,455.6 155.2,442.0 157.1,428.0 158.9,413.5
160.8,398.7 162.6,383.6 164.5,368.2 166.3,352.6 168.2,336.8 170.0,320.8 171.9,304.8 173.7,288.8 175.6,272.9 177.4,257.1 179.3,241.5 181.1,226.2 183.0,211.2 184.8,196.6 186.7,182.5 188.5,168.9
190.4,156.0 192.2,143.8 194.1,132.3 195.9,121.7 197.8,111.9 199.6,103.0 201.5,95.1 203.3,88.2 205.2,82.4 207.0,77.7 208.9,74.1 210.7,71.6 212.6,70.3 214.4,70.1 216.3,71.1 218.1,73.2
220.0,76.4 221.8,80.8 223.7,86.2 225.5,92.6 227.4,100.1 229.2,108.6 231.1,117.9 232.9,128.1 234.8,139.1 236.6,150.9 238.5,163.3 240.4,176.3 242.2,189.9 244.1,203.9 245.9,218.4 247.8,233.2
249.6,248.2 251.5,263.5 253.3,278.9 255.2,294.3 257.0,309.8 258.9,325.2 260.7,340.5 262.6,355.6 264.4,370.5 266.3,385.2 268.1,399.6 270.0,413.7 271.8,427.3 273.7,440.6 275.5,453.5 277.4,465.9
279.2,477.9 281.1,489.4 282.9,500.5 284.8,511.0 286.6,521.1 288.5,530.6 290.3,539.7 292.2,548.3 294.0,556.4 295.9,564.1 297.7,571.3 299.6,578.1 301.4,584.4 303.3,590.4 305.1,595.9 307.0,601.1
308.8,605.9 310.7,610.3 312.5,614.4 314.4,618.3 316.2,621.8 318.1,625.1 319.9,628.0 321.8,630.8 323.6,633.3 325.5,635.7 327.4,637.8 329.2,639.7 331.1,641.5 332.9,643.1 334.8,644.6 336.6,645.9
338.5,647.1 340.3,648.2 342.2,649.2 344.0,650.1 345.9,650.9 347.7,651.6 349.6,652.3 351.4,652.8 353.3,653.4 355.1,653.8 357.0,654.2 358.8,654.5 360.7,654.8 362.5,655.0 364.4,655.2 366.2,655.4
368.1,655.5 369.9,655.6 371.8,655.6 373.6,655.6 375.5,655.6 377.3,655.6 379.2,655.5 381.0,655.4 382.9,655.3 384.7,655.1 386.6,655.0 388.4,654.8 390.3,654.6 392.1,654.4 394.0,654.2 395.8,653.9
397.7,653.7 399.5,653.4 401.4,653.1 403.2,652.8 405.1,652.5 406.9,652.2 408.8,651.9 410.7,651.6 412.5,651.3 414.4,651.0 416.2,650.7 418.1,650.4 419.9,650.1 421.8,649.7 423.6,649.4 425.5,649.1
427.3,648.8 429.2,648.6 431.0,648.3 432.9,648.0 434.7,647.7 436.6,647.5 438.4,647.3 440.3,647.0 442.1,646.8 444.0,646.7 445.8,646.5 447.7,646.3 449.5,646.2 451.4,646.1 453.2,646.0 455.1,645.9
456.9,645.9 458.8,645.9 460.6,645.9 462.5,645.9 464.3,646.0 466.2,646.0 468.0,646.1 469.9,646.3 471.7,646.4 473.6,646.6 475.4,646.8 477.3,647.0 479.1,647.2 481.0,647.5 482.8,647.7 484.7,648.0
486.5,648.4 488.4,648.7 490.2,649.0 492.1,649.4 494.0,649.8 495.8,650.1 497.7,650.5 499.5,650.9 501.4,651.3 503.2,651.8 505.1,652.2 506.9,652.6 508.8,653.0 510.6,653.4 512.5,653.8 514.3,654.3
516.2,654.7 518.0,655.1 519.9,655.5 521.7,655.8 523.6,656.2 525.4,656.6 527.3,656.9 529.1,657.3 531.0,657.6 532.8,657.9 534.7,658.2 536.5,658.5 538.4,658.8 540.2,659.1 542.1,659.3 543.9,659.6
545.8,659.8 547.6,660.0 549.5,660.2 551.3,660.4 553.2,660.6 555.0,660.7 556.9,660.9 558.7,661.0 560.6,661.1 562.4,661.3 564.3,661.4 566.1,661.5 568.0,661.6 569.8,661.7 571.7,661.7 573.5,661.8
575.4,661.9 577.3,661.9 579.1,662.0 581.0,662.0 582.8,662.1 584.7,662.1 586.5,662.1 588.4,662.2 590.2,662.2 592.1,662.2 593.9,662.3 595.8,662.3 597.6,662.3 599.5,662.3 601.3,662.3 603.2,662.3
605.0,662.3 606.9,662.3 608.7,662.4 610.6,662.4 612.4,662.4 614.3,662.4 616.1,662.4 618.0,662.4 619.8,662.4 621.7,662.4 623.5,662.4 625.4,662.4 627.2,662.4 629.1,662.4 630.9,662.4 632.8,662.4
634.6,662.4 636.5,662.4 638.3,662.4 640.2,662.4 642.0,662.4 643.9,662.4 645.7,662.4 647.6,662.4 649.4,662.4 651.3,662.4 653.1,662.4 655.0,662.4 656.8,662.4 658.7,662.3 660.6,662.3 662.4,662.3
664.3,662.3 666.1,662.3 668.0,662.3 669.8,662.3 671.7,662.3 673.5,662.2 675.4,662.2 677.2,662.2 679.1,662.2 680.9,662.1 682.8,662.1 684.6,662.1 686.5,662.0 688.3,662.0 690.2,662.0 692.0,661.9
693.9,661.9 695.7,661.8 697.6,661.7 699.4,661.7 701.3,661.6 703.1,661.5 705.0,661.4 706.8,661.3 708.7,661.2 710.5,661.1 712.4,661.0 714.2,660.9 716.1,660.8 717.9,660.7 719.8,660.5 721.6,660.4
723.5,660.3 725.3,660.1 727.2,660.0 729.0,659.8 730.9,659.6 732.7,659.5 734.6,659.3 736.4,659.1 738.3,658.9 740.1,658.7 742.0,658.6 743.9,658.4 745.7,658.2 747.6,658.0 749.4,657.8 751.3,657.6
753.1,657.4 755.0,657.3 756.8,657.1 758.7,656.9 760.5,656.8 762.4,656.6 764.2,656.4 766.1,656.3 767.9,656.2 769.8,656.0 771.6,655.9 773.5,655.8 775.3,655.7 777.2,655.6 779.0,655.5 780.9,655.4
782.7,655.4 784.6,655.3 786.4,655.2 788.3,655.2 790.1,655.2 792.0,655.1 793.8,655.1 795.7,655.1 797.5,655.1 799.4,655.1 801.2,655.1 803.1,655.1 804.9,655.1 806.8,655.2 808.6,655.2 810.5,655.2
812.3,655.2 814.2,655.2 816.0,655.3 817.9,655.3 819.7,655.3 821.6,655.3 823.4,655.3 825.3,655.3 827.1,655.3 829.0,655.3 830.9,655.3 832.7,655.3 834.6,655.3 836.4,655.3 838.3,655.3 840.1,655.3
842.0,655.3 843.8,655.2 845.7,655.2 847.5,655.2 849.4,655.2 851.2,655.2 853.1,655.1 854.9,655.1 856.8,655.1 858.6,655.1 860.5,655.1 862.3,655.1 864.2,655.1 866.0,655.1 867.9,655.2 869.7,655.2
871.6,655.2 873.4,655.3 875.3,655.4 877.1,655.4 879.0,655.5 880.8,655.6 882.7,655.7 884.5,655.8 886.4,655.9 888.2,656.0 890.1,656.2 891.9,656.3 893.8,656.4 895.6,656.6 897.5,656.7 899.3,656.9
901.2,657.1 903.0,657.3 904.9,657.4 906.7,657.6 908.6,657.8 910.4,658.0 912.3,658.2 914.2,658.4 916.0,658.6 917.9,658.7 919.7,658.9 921.6,659.1 923.4,659.3 925.3,659.5 927.1,659.6 929.0,659.8
930.8,659.9 932.7,660.1 934.5,660.3 936.4,660.4 938.2,660.5 940.1,660.7 941.9,660.8 943.8,660.9 945.6,661.0 947.5,661.1 949.3,661.2 951.2,661.3 953.0,661.4 954.9,661.5 956.7,661.6 958.6,661.7
960.4,661.7 962.3,661.8 964.1,661.8 966.0,661.9 967.8,662.0 969.7,662.0 971.5,662.0 973.4,662.1 975.2,662.1 977.1,662.1 978.9,662.2 980.8,662.2 982.6,662.2 984.5,662.2 986.3,662.3 988.2,662.3
990.0,662.3 991.9,662.3 993.7,662.3 995.6,662.3 995.6,662.4 993.7,662.4 991.9,662.4 990.0,662.4 988.2,662.4 986.3,662.4 984.5,662.4 982.6,662.4 980.8,662.4 978.9,662.4 977.1,662.4 975.2,662.4
973.4,662.4 971.5,662.4 969.7,662.4 967.8,662.4 966.0,662.4 964.1,662.4 962.3,662.4 960.4,662.4 958.6,662.4 956.7,662.4 954.9,662.4 953.0,662.4 951.2,662.4 949.3,662.4 947.5,662.4 945.6,662.4
943.8,662.4 941.9,662.4 940.1,662.4 938.2,662.4 936.4,662.4 934.5,662.4 932.7,662.4 930.8,662.4 929.0,662.4 927.1,662.4 925.3,662.4 923.4,662.4 921.6,662.4 919.7,662.4 917.9,662.4 916.0,662.4
914.2,662.4 912.3,662.4 910.4,662.4 908.6,662.4 906.7,662.4 904.9,662.4 903.0,662.4 901.2,662.4 899.3,662.4 897.5,662.4 895.6,662.4 893.8,662.4 891.9,662.4 890.1,662.4 888.2,662.4 886.4,662.4
884.5,662.4 882.7,662.4 880.8,662.4 879.0,662.4 877.1,662.4 875.3,662.4 873.4,662.4 871.6,662.4 869.7,662.4 867.9,662.4 866.0,662.4 864.2,662.4 862.3,662.4 860.5,662.4 858.6,662.4 856.8,662.4
854.9,662.4 853.1,662.4 851.2,662.4 849.4,662.4 847.5,662.4 845.7,662.4 843.8,662.4 842.0,662.4 840.1,662.4 838.3,662.4 836.4,662.4 834.6,662.4 832.7,662.4 830.9,662.4 829.0,662.4 827.1,662.4
825.3,662.4 823.4,662.4 821.6,662.4 819.7,662.4 817.9,662.4 816.0,662.4 814.2,662.4 812.3,662.4 810.5,662.4 808.6,662.4 806.8,662.4 804.9,662.4 803.1,662.4 801.2,662.4 799.4,662.4 797.5,662.4
795.7,662.4 793.8,662.4 792.0,662.4 790.1,662.4 788.3,662.4 786.4,662.4 784.6,662.4 782.7,662.4 780.9,662.4 779.0,662.4 777.2,662.4 775.3,662.4 773.5,662.4 771.6,662.4 769.8,662.4 767.9,662.4
766.1,662.4 764.2,662.4 762.4,662.4 760.5,662.4 758.7,662.4 756.8,662.4 755.0,662.4 753.1,662.4 751.3,662.4 749.4,662.4 747.6,662.4 745.7,662.4 743.9,662.4 742.0,662.4 740.1,662.4 738.3,662.4
736.4,662.4 734.6,662.4 732.7,662.4 730.9,662.4 729.0,662.4 727.2,662.4 725.3,662.4 723.5,662.4 721.6,662.4 719.8,662.4 717.9,662.4 716.1,662.4 714.2,662.4 712.4,662.4 710.5,662.4 708.7,662.4
706.8,662.4 705.0,662.4 703.1,662.4 701.3,662.4 699.4,662.4 697.6,662.4 695.7,662.4 693.9,662.4 692.0,662.4 690.2,662.4 688.3,662.4 686.5,662.4 684.6,662.4 682.8,662.4 680.9,662.4 679.1,662.4
677.2,662.4 675.4,662.4 673.5,662.4 671.7,662.4 669.8,662.4 668.0,662.4 666.1,662.4 664.3,662.4 662.4,662.4 660.6,662.4 658.7,662.4 656.8,662.4 655.0,662.4 653.1,662.4 651.3,662.4 649.4,662.4
647.6,662.4 645.7,662.4 643.9,662.4 642.0,662.4 640.2,662.4 638.3,662.4 636.5,662.4 634.6,662.4 632.8,662.4 630.9,662.4 629.1,662.4 627.2,662.4 625.4,662.4 623.5,662.4 621.7,662.4 619.8,662.4
618.0,662.4 616.1,662.4 614.3,662.4 612.4,662.4 610.6,662.4 608.7,662.4 606.9,662.4 605.0,662.4 603.2,662.4 601.3,662.4 599.5,662.4 597.6,662.4 595.8,662.4 593.9,662.4 592.1,662.4 590.2,662.4
588.4,662.4 586.5,662.4 584.7,662.4 582.8,662.4 581.0,662.4 579.1,662.4 577.3,662.4 575.4,662.4 573.5,662.4 571.7,662.4 569.8,662.4 568.0,662.4 566.1,662.4 564.3,662.4 562.4,662.4 560.6,662.4
558.7,662.4 556.9,662.4 555.0,662.4 553.2,662.4 551.3,662.4 549.5,662.4 547.6,662.4 545.8,662.4 543.9,662.4 542.1,662.4 540.2,662.4 538.4,662.4 536.5,662.4 534.7,662.4 532.8,662.4 531.0,662.4
529.1,662.4 527.3,662.4 525.4,662.4 523.6,662.4 521.7,662.4 519.9,662.4 518.0,662.4 516.2,662.4 514.3,662.4 512.5,662.4 510.6,662.4 508.8,662.4 506.9,662.4 505.1,662.4 503.2,662.4 501.4,662.4
499.5,662.4 497.7,662.4 495.8,662.4 494.0,662.4 492.1,662.4 490.2,662.4 488.4,662.4 486.5,662.4 484.7,662.4 482.8,662.4 481.0,662.4 479.1,662.4 477.3,662.4 475.4,662.4 473.6,662.4 471.7,662.4
469.9,662.4 468.0,662.4 466.2,662.4 464.3,662.4 462.5,662.4 460.6,662.4 458.8,662.4 456.9,662.4 455.1,662.4 453.2,662.4 451.4,662.4 449.5,662.4 447.7,662.4 445.8,662.4 444.0,662.4 442.1,662.4
440.3,662.4 438.4,662.4 436.6,662.4 434.7,662.4 432.9,662.4 431.0,662.4 429.2,662.4 427.3,662.4 425.5,662.4 423.6,662.4 421.8,662.4 419.9,662.4 418.1,662.4 416.2,662.4 414.4,662.4 412.5,662.4
410.7,662.4 408.8,662.4 406.9,662.4 405.1,662.4 403.2,662.4 401.4,662.4 399.5,662.4 397.7,662.4 395.8,662.4 394.0,662.4 392.1,662.4 390.3,662.4 388.4,662.4 386.6,662.4 384.7,662.4 382.9,662.4
381.0,662.4 379.2,662.4 377.3,662.4 375.5,662.4 373.6,662.4 371.8,662.4 369.9,662.4 368.1,662.4 366.2,662.4 364.4,662.4 362.5,662.4 360.7,662.4 358.8,662.4 357.0,662.4 355.1,662.4 353.3,662.4
351.4,662.4 349.6,662.4 347.7,662.4 345.9,662.4 344.0,662.4 342.2,662.4 340.3,662.4 338.5,662.4 336.6,662.4 334.8,662.4 332.9,662.4 331.1,662.4 329.2,662.4 327.4,662.4 325.5,662.4 323.6,662.4
321.8,662.4 319.9,662.4 318.1,662.4 316.2,662.4 314.4,662.4 312.5,662.4 310.7,662.4 308.8,662.4 307.0,662.4 305.1,662.4 303.3,662.4 301.4,662.4 299.6,662.4 297.7,662.4 295.9,662.4 294.0,662.4
292.2,662.4 290.3,662.4 288.5,662.4 286.6,662.4 284.8,662.4 282.9,662.4 281.1,662.4 279.2,662.4 277.4,662.4 275.5,662.4 273.7,662.4 271.8,662.4 270.0,662.4 268.1,662.4 266.3,662.4 264.4,662.4
262.6,662.4 260.7,662.4 258.9,662.4 257.0,662.4 255.2,662.4 253.3,662.4 251.5,662.4 249.6,662.4 247.8,662.4 245.9,662.4 244.1,662.4 242.2,662.4 240.4,662.4 238.5,662.4 236.6,662.4 234.8,662.4
232.9,662.4 231.1,662.4 229.2,662.4 227.4,662.4 225.5,662.4 223.7,662.4 221.8,662.4 220.0,662.4 218.1,662.4 216.3,662.4 214.4,662.4 212.6,662.4 210.7,662.4 208.9,662.4 207.0,662.4 205.2,662.4
203.3,662.4 201.5,662.4 199.6,662.4 197.8,662.4 195.9,662.4 194.1,662.4 192.2,662.4 190.4,662.4 188.5,662.4 186.7,662.4 184.8,662.4 183.0,662.4 181.1,662.4 179.3,662.4 177.4,662.4 175.6,662.4
173.7,662.4 171.9,662.4 170.0,662.4 168.2,662.4 166.3,662.4 164.5,662.4 162.6,662.4 160.8,662.4 158.9,662.4 157.1,662.4 155.2,662.4 153.3,662.4 151.5,662.4 149.6,662.4 147.8,662.4 145.9,662.4
144.1,662.4 142.2,662.4 140.4,662.4 138.5,662.4 136.7,662.4 134.8,662.4 133.0,662.4 131.1,662.4 129.3,662.4 127.4,662.4 125.6,662.4 123.7,662.4 121.9,662.4 120.0,662.4 118.2,662.4 116.3,662.4
114.5,662.4 112.6,662.4 110.8,662.4 108.9,662.4 107.1,662.4 105.2,662.4 103.4,662.4 101.5,662.4 99.7,662.4 97.8,662.4 96.0,662.4 94.1,662.4 92.3,662.4 90.4,662.4 88.6,662.4 86.7,662.4
84.9,662.4 83.0,662.4 81.2,662.4 79.3,662.4 77.5,662.4 75.6,662.4 73.8,662.4 71.9,662.4 '/>
	</g>
</g>
	</g>
	<g id="gnuplot_plot_2" ><title>Mean</title>
<g fill="none" color="white" stroke="rgb( 31, 120, 180)" stroke-width="2.00" stroke-linecap="butt" stroke-linejoin="miter">
</g>
<g fill="none" color="black" stroke="currentColor" stroke-width="2.00" stroke-linecap="butt" stroke-linejoin="miter">
	<g transform="translate(1147.1,85.0)" stroke="none" fill="black" font-family="Helvetica" font-size="12.00"  text-anchor="start">
		<text><tspan font-family="Helvetica" >Mean</tspan></text>
	</g>
</g>
<g fill="none" color="black" stroke="currentColor" stroke-width="2.00" stroke-linecap="butt" stroke-linejoin="miter">
	<path stroke='rgb( 31, 120, 180)'  d='M1096.6,81.1 L1138.8,81.1 M235.0,662.4 L235.0,54.1  '/></g>
	</g>
	<g id="gnuplot_plot_3" ><title>"Clean" sample</title>
<g fill="none" color="white" stroke="rgb( 31, 120, 180)" stroke-width="1.00" stroke-linecap="butt" stroke-linejoin="miter">
</g>
<g fill="none" color="black" stroke="currentColor" stroke-width="1.00" stroke-linecap="butt" stroke-linejoin="miter">
	<g transform="translate(1147.1,103.0)" stroke="none" fill="black" font-family="Helvetica" font-size="12.00"  text-anchor="start">
		<text><tspan font-family="Helvetica" >"Clean" sample</tspan></text>
	</g>
</g>
<g fill="none" color="black" stroke="currentColor" stroke-width="1.00" stroke-linecap="butt" stroke-linejoin="miter">
	<use xlink:href='#gpPt6' transform='translate(193.5,650.2) scale(3.38)' color='rgb( 31, 120, 180)'/>
	<use xlink:href='#gpPt6' transform='translate(230.1,644.2) scale(3.38)' color='rgb( 31, 120, 180)'/>
	<use xlink:href='#gpPt6' transform='translate(229.1,632.0) scale(3.38)' color='rgb( 31, 120, 180)'/>
	<use xlink:href='#gpPt6' transform='translate(225.6,595.5) scale(3.38)' color='rgb( 31, 120, 180)'/>
	<use xlink:href='#gpPt6' transform='translate(225.4,589.4) scale(3.38)' color='rgb( 31, 120, 180)'/>
	<use xlink:href='#gpPt6' transform='translate(218.5,571.2) scale(3.38)' color='rgb( 31, 120, 180)'/>
	<use xlink:href='#gpPt6' transform='translate(229.1,565.1) scale(3.38)' color='rgb( 31, 120, 180)'/>
	<use xlink:href='#gpPt6' transform='translate(212.4,559.0) scale(3.38)' color='rgb( 31, 120, 180)'/>
	<use xlink:href='#gpPt6' transform='translate(203.7,552.9) scale(3.38)' color='rgb( 31, 120, 180)'/>
	<use xlink:href='#gpPt6' transform='translate(212.0,546.8) scale(3.38)' color='rgb( 31, 120, 180)'/>
	<use xlink:href='#gpPt6' transform='translate(212.2,540.7) scale(3.38)' color='rgb( 31, 120, 180)'/>
	<use xlink:href='#gpPt6' transform='translate(208.9,534.7) scale(3.38)' color='rgb( 31, 120, 180)'/>
	<use xlink:href='#gpPt6' transform='translate(212.3,528.6) scale(3.38)' color='rgb( 31, 120, 180)'/>
	<use xlink:href='#gpPt6' transform='translate(204.6,522.5) scale(3.38)' color='rgb( 31, 120, 180)'/>
	<use xlink:href='#gpPt6' transform='translate(226.7,516.4) scale(3.38)' color='rgb( 31, 120, 180)'/>
	<use xlink:href='#gpPt6' transform='translate(203.6,510.3) scale(3.38)' color='rgb( 31, 120, 180)'/>
	<use xlink:href='#gpPt6' transform='translate(205.9,504.2) scale(3.38)' color='rgb( 31, 120, 180)'/>
	<use xlink:href='#gpPt6' transform='translate(211.5,498.2) scale(3.38)' color='rgb( 31, 120, 180)'/>
	<use xlink:href='#gpPt6' transform='translate(208.7,492.1) scale(3.38)' color='rgb( 31, 120, 180)'/>
	<use xlink:href='#gpPt6' transform='translate(209.4,486.0) scale(3.38)' color='rgb( 31, 120, 180)'/>
	<use xlink:href='#gpPt6' transform='translate(215.6,479.9) scale(3.38)' color='rgb( 31, 120, 180)'/>
	<use xlink:href='#gpPt6' transform='translate(207.7,473.8) scale(3.38)' color='rgb( 31, 120, 180)'/>
	<use xlink:href='#gpPt6' transform='translate(203.4,467.7) scale(3.38)' color='rgb( 31, 120, 180)'/>
	<use xlink:href='#gpPt6' transform='translate(217.7,461.7) scale(3.38)' color='rgb( 31, 120, 180)'/>
	<use xlink:href='#gpPt6' transform='translate(203.2,455.6) scale(3.38)' color='rgb( 31, 120, 180)'/>
	<use xlink:href='#gpPt6' transform='translate(208.6,449.5) scale(3.38)' color='rgb( 31, 120, 180)'/>
	<use xlink:href='#gpPt6' transform='translate(210.3,443.4) scale(3.38)' color='rgb( 31, 120, 180)'/>
	<use xlink:href='#gpPt6' transform='translate(222.3,437.3) scale(3.38)' color='rgb( 31, 120, 180)'/>
	<use xlink:href='#gpPt6' transform='translate(230.9,431.2) scale(3.38)' color='rgb( 31, 120, 180)'/>
	<use xlink:href='#gpPt6' transform='translate(208.0,425.2) scale(3.38)' color='rgb( 31, 120, 180)'/>
	<use xlink:href='#gpPt6' transform='translate(214.2,419.1) scale(3.38)' color='rgb( 31, 120, 180)'/>
	<use xlink:href='#gpPt6' transform='translate(207.4,413.0) scale(3.38)' color='rgb( 31, 120, 180)'/>
	<use xlink:href='#gpPt6' transform='translate(213.8,406.9) scale(3.38)' color='rgb( 31, 120, 180)'/>
	<use xlink:href='#gpPt6' transform='translate(207.5,400.8) scale(3.38)' color='rgb( 31, 120, 180)'/>
	<use xlink:href='#gpPt6' transform='translate(213.7,394.7) scale(3.38)' color='rgb( 31, 120, 180)'/>
	<use xlink:href='#gpPt6' transform='translate(210.6,388.7) scale(3.38)' color='rgb( 31, 120, 180)'/>
	<use xlink:href='#gpPt6' transform='translate(212.5,382.6) scale(3.38)' color='rgb( 31, 120, 180)'/>
	<use xlink:href='#gpPt6' transform='translate(204.3,376.5) scale(3.38)' color='rgb( 31, 120, 180)'/>
	<use xlink:href='#gpPt6' transform='translate(214.5,370.4) scale(3.38)' color='rgb( 31, 120, 180)'/>
	<use xlink:href='#gpPt6' transform='translate(203.6,364.3) scale(3.38)' color='rgb( 31, 120, 180)'/>
	<use xlink:href='#gpPt6' transform='translate(212.6,358.2) scale(3.38)' color='rgb( 31, 120, 180)'/>
	<use xlink:href='#gpPt6' transform='translate(218.7,352.2) scale(3.38)' color='rgb( 31, 120, 180)'/>
	<use xlink:href='#gpPt6' transform='translate(208.8,346.1) scale(3.38)' color='rgb( 31, 120, 180)'/>
	<use xlink:href='#gpPt6' transform='translate(214.8,340.0) scale(3.38)' color='rgb( 31, 120, 180)'/>
	<use xlink:href='#gpPt6' transform='translate(209.8,333.9) scale(3.38)' color='rgb( 31, 120, 180)'/>
	<use xlink:href='#gpPt6' transform='translate(208.4,327.8) scale(3.38)' color='rgb( 31, 120, 180)'/>
	<use xlink:href='#gpPt6' transform='translate(217.7,321.8) scale(3.38)' color='rgb( 31, 120, 180)'/>
	<use xlink:href='#gpPt6' transform='translate(205.9,315.7) scale(3.38)' color='rgb( 31, 120, 180)'/>
	<use xlink:href='#gpPt6' transform='translate(213.1,309.6) scale(3.38)' color='rgb( 31, 120, 180)'/>
	<use xlink:href='#gpPt6' transform='translate(217.4,303.5) scale(3.38)' color='rgb( 31, 120, 180)'/>
	<use xlink:href='#gpPt6' transform='translate(208.7,297.4) scale(3.38)' color='rgb( 31, 120, 180)'/>
	<use xlink:href='#gpPt6' transform='translate(212.7,291.3) scale(3.38)' color='rgb( 31, 120, 180)'/>
	<use xlink:href='#gpPt6' transform='translate(211.3,285.3) scale(3.38)' color='rgb( 31, 120, 180)'/>
	<use xlink:href='#gpPt6' transform='translate(210.7,279.2) scale(3.38)' color='rgb( 31, 120, 180)'/>
	<use xlink:href='#gpPt6' transform='translate(203.6,273.1) scale(3.38)' color='rgb( 31, 120, 180)'/>
	<use xlink:href='#gpPt6' transform='translate(215.1,267.0) scale(3.38)' color='rgb( 31, 120, 180)'/>
	<use xlink:href='#gpPt6' transform='translate(213.2,260.9) scale(3.38)' color='rgb( 31, 120, 180)'/>
	<use xlink:href='#gpPt6' transform='translate(210.0,254.8) scale(3.38)' color='rgb( 31, 120, 180)'/>
	<use xlink:href='#gpPt6' transform='translate(212.1,248.8) scale(3.38)' color='rgb( 31, 120, 180)'/>
	<use xlink:href='#gpPt6' transform='translate(207.9,242.7) scale(3.38)' color='rgb( 31, 120, 180)'/>
	<use xlink:href='#gpPt6' transform='translate(206.1,236.6) scale(3.38)' color='rgb( 31, 120, 180)'/>
	<use xlink:href='#gpPt6' transform='translate(206.9,230.5) scale(3.38)' color='rgb( 31, 120, 180)'/>
	<use xlink:href='#gpPt6' transform='translate(212.6,224.4) scale(3.38)' color='rgb( 31, 120, 180)'/>
	<use xlink:href='#gpPt6' transform='translate(227.4,218.3) scale(3.38)' color='rgb( 31, 120, 180)'/>
	<use xlink:href='#gpPt6' transform='translate(212.9,206.2) scale(3.38)' color='rgb( 31, 120, 180)'/>
	<use xlink:href='#gpPt6' transform='translate(204.2,200.1) scale(3.38)' color='rgb( 31, 120, 180)'/>
	<use xlink:href='#gpPt6' transform='translate(208.4,194.0) scale(3.38)' color='rgb( 31, 120, 180)'/>
	<use xlink:href='#gpPt6' transform='translate(206.7,187.9) scale(3.38)' color='rgb( 31, 120, 180)'/>
	<use xlink:href='#gpPt6' transform='translate(206.4,181.8) scale(3.38)' color='rgb( 31, 120, 180)'/>
	<use xlink:href='#gpPt6' transform='translate(215.5,175.8) scale(3.38)' color='rgb( 31, 120, 180)'/>
	<use xlink:href='#gpPt6' transform='translate(205.9,169.7) scale(3.38)' color='rgb( 31, 120, 180)'/>
	<use xlink:href='#gpPt6' transform='translate(207.9,163.6) scale(3.38)' color='rgb( 31, 120, 180)'/>
	<use xlink:href='#gpPt6' transform='translate(208.5,151.4) scale(3.38)' color='rgb( 31, 120, 180)'/>
	<use xlink:href='#gpPt6' transform='translate(207.0,145.3) scale(3.38)' color='rgb( 31, 120, 180)'/>
	<use xlink:href='#gpPt6' transform='translate(207.6,139.3) scale(3.38)' color='rgb( 31, 120, 180)'/>
	<use xlink:href='#gpPt6' transform='translate(208.6,133.2) scale(3.38)' color='rgb( 31, 120, 180)'/>
	<use xlink:href='#gpPt6' transform='translate(206.9,127.1) scale(3.38)' color='rgb( 31, 120, 180)'/>
	<use xlink:href='#gpPt6' transform='translate(206.0,121.0) scale(3.38)' color='rgb( 31, 120, 180)'/>
	<use xlink:href='#gpPt6' transform='translate(216.5,114.9) scale(3.38)' color='rgb( 31, 120, 180)'/>
	<use xlink:href='#gpPt6' transform='translate(206.9,108.8) scale(3.38)' color='rgb( 31, 120, 180)'/>
	<use xlink:href='#gpPt6' transform='translate(210.5,102.8) scale(3.38)' color='rgb( 31, 120, 180)'/>
	<use xlink:href='#gpPt6' transform='translate(234.0,90.6) scale(3.38)' color='rgb( 31, 120, 180)'/>
	<use xlink:href='#gpPt6' transform='translate(231.8,84.5) scale(3.38)' color='rgb( 31, 120, 180)'/>
	<use xlink:href='#gpPt6' transform='translate(229.2,78.4) scale(3.38)' color='rgb( 31, 120, 180)'/>
	<use xlink:href='#gpPt6' transform='translate(213.2,72.3) scale(3.38)' color='rgb( 31, 120, 180)'/>
	<use xlink:href='#gpPt6' transform='translate(209.6,66.3) scale(3.38)' color='rgb( 31, 120, 180)'/>
	<use xlink:href='#gpPt6' transform='translate(211.4,60.2) scale(3.38)' color='rgb( 31, 120, 180)'/>
	<use xlink:href='#gpPt6' transform='translate(210.1,54.1) scale(3.38)' color='rgb( 31, 120, 180)'/>
	<use xlink:href='#gpPt6' transform='translate(1117.7,99.1) scale(3.38)' color='rgb( 31, 120, 180)'/>
</g>
	</g>
	<g id="gnuplot_plot_4" ><title>Mild outliers</title>
<g fill="none" color="black" stroke="currentColor" stroke-width="1.00" stroke-linecap="butt" stroke-linejoin="miter">
	<g transform="translate(1147.1,121.0)" stroke="none" fill="black" font-family="Helvetica" font-size="12.00"  text-anchor="start">
		<text><tspan font-family="Helvetica" >Mild outliers</tspan></text>
	</g>
</g>
<g fill="none" color="black" stroke="currentColor" stroke-width="1.00" stroke-linecap="butt" stroke-linejoin="miter">
	<use xlink:href='#gpPt6' transform='translate(239.2,625.9) scale(3.38)' color='rgb(255, 127,   0)'/>
	<use xlink:href='#gpPt6' transform='translate(237.0,601.6) scale(3.38)' color='rgb(255, 127,   0)'/>
	<use xlink:href='#gpPt6' transform='translate(237.9,577.2) scale(3.38)' color='rgb(255, 127,   0)'/>
	<use xlink:href='#gpPt6' transform='translate(244.9,212.3) scale(3.38)' color='rgb(255, 127,   0)'/>
	<use xlink:href='#gpPt6' transform='translate(1117.7,117.1) scale(3.38)' color='rgb(255, 127,   0)'/>
</g>
	</g>
	<g id="gnuplot_plot_5" ><title>Severe outliers</title>
<g fill="none" color="black" stroke="currentColor" stroke-width="1.00" stroke-linecap="butt" stroke-linejoin="miter">
	<g transform="translate(1147.1,139.0)" stroke="none" fill="black" font-family="Helvetica" font-size="12.00"  text-anchor="start">
		<text><tspan font-family="Helvetica" >Severe outliers</tspan></text>
	</g>
</g>
<g fill="none" color="black" stroke="currentColor" stroke-width="1.00" stroke-linecap="butt" stroke-linejoin="miter">
	<use xlink:href='#gpPt6' transform='translate(420.5,656.3) scale(3.38)' color='rgb(227,  26,  28)'/>
	<use xlink:href='#gpPt6' transform='translate(874.0,638.1) scale(3.38)' color='rgb(227,  26,  28)'/>
	<use xlink:href='#gpPt6' transform='translate(784.1,619.8) scale(3.38)' color='rgb(227,  26,  28)'/>
	<use xlink:href='#gpPt6' transform='translate(473.1,613.7) scale(3.38)' color='rgb(227,  26,  28)'/>
	<use xlink:href='#gpPt6' transform='translate(311.6,607.7) scale(3.38)' color='rgb(227,  26,  28)'/>
	<use xlink:href='#gpPt6' transform='translate(269.7,583.3) scale(3.38)' color='rgb(227,  26,  28)'/>
	<use xlink:href='#gpPt6' transform='translate(255.5,157.5) scale(3.38)' color='rgb(227,  26,  28)'/>
	<use xlink:href='#gpPt6' transform='translate(472.0,96.7) scale(3.38)' color='rgb(227,  26,  28)'/>
	<use xlink:href='#gpPt6' transform='translate(1117.7,135.1) scale(3.38)' color='rgb(227,  26,  28)'/>
</g>
	</g>
	<g id="gnuplot_plot_6" ><title>gnuplot_plot_6</title>
<g fill="none" color="white" stroke="rgb(227,  26,  28)" stroke-width="2.00" stroke-linecap="butt" stroke-linejoin="miter">
</g>
<g fill="none" color="black" stroke="currentColor" stroke-width="2.00" stroke-linecap="butt" stroke-linejoin="miter">
	<path stroke='rgb(255, 127,   0)'  d='M191.8,662.4 L191.8,54.1  '/></g>
	</g>
	<g id="gnuplot_plot_7" ><title>gnuplot_plot_7</title>
<g fill="none" color="black" stroke="currentColor" stroke-width="2.00" stroke-linecap="butt" stroke-linejoin="miter">
	<path stroke='rgb(255, 127,   0)'  d='M234.6,662.4 L234.6,54.1  '/></g>
	</g>
	<g id="gnuplot_plot_8" ><title>gnuplot_plot_8</title>
<g fill="none" color="black" stroke="currentColor" stroke-width="2.00" stroke-linecap="butt" stroke-linejoin="miter">
	<path stroke='rgb(227,  26,  28)'  d='M175.8,662.4 L175.8,54.1  '/></g>
	</g>
	<g id="gnuplot_plot_9" ><title>gnuplot_plot_9</title>
<g fill="none" color="black" stroke="currentColor" stroke-width="2.00" stroke-linecap="butt" stroke-linejoin="miter">
	<path stroke='rgb(227,  26,  28)'  d='M250.7,662.4 L250.7,54.1  '/></g>
	</g>
<g fill="none" color="black" stroke="currentColor" stroke-width="2.00" stroke-linecap="butt" stroke-linejoin="miter">
</g>
<g fill="none" color="black" stroke="black" stroke-width="1.00" stroke-linecap="butt" stroke-linejoin="miter">
</g>
<g fill="none" color="black" stroke="currentColor" stroke-width="1.00" stroke-linecap="butt" stroke-linejoin="miter">
	<path stroke='black'  d='M71.9,54.1 L71.9,662.4 L995.6,662.4 L995.6,54.1 L71.9,54.1 Z  '/></g>
<g fill="none" color="black" stroke="currentColor" stroke-width="1.00" stroke-linecap="butt" stroke-linejoin="miter">
</g>
</g>
</svg>

