<?xml version="1.0" encoding="utf-8"  standalone="no"?>
<svg 
 viewBox="0 0 1280 720"
 xmlns="http://www.w3.org/2000/svg"
 xmlns:xlink="http://www.w3.org/1999/xlink"
>

<title>Gnuplot</title>
<desc>Produced by GNUPLOT 5.2 patchlevel 6 </desc>

<g id="gnuplot_canvas">

<rect x="0" y="0" width="1280" height="720" fill="none"/>
<defs>

	<circle id='gpDot' r='0.5' stroke-width='0.5' stroke='currentColor'/>
	<path id='gpPt0' stroke-width='0.222' stroke='currentColor' d='M-1,0 h2 M0,-1 v2'/>
	<path id='gpPt1' stroke-width='0.222' stroke='currentColor' d='M-1,-1 L1,1 M1,-1 L-1,1'/>
	<path id='gpPt2' stroke-width='0.222' stroke='currentColor' d='M-1,0 L1,0 M0,-1 L0,1 M-1,-1 L1,1 M-1,1 L1,-1'/>
	<rect id='gpPt3' stroke-width='0.222' stroke='currentColor' x='-1' y='-1' width='2' height='2'/>
	<rect id='gpPt4' stroke-width='0.222' stroke='currentColor' fill='currentColor' x='-1' y='-1' width='2' height='2'/>
	<circle id='gpPt5' stroke-width='0.222' stroke='currentColor' cx='0' cy='0' r='1'/>
	<use xlink:href='#gpPt5' id='gpPt6' fill='currentColor' stroke='none'/>
	<path id='gpPt7' stroke-width='0.222' stroke='currentColor' d='M0,-1.33 L-1.33,0.67 L1.33,0.67 z'/>
	<use xlink:href='#gpPt7' id='gpPt8' fill='currentColor' stroke='none'/>
	<use xlink:href='#gpPt7' id='gpPt9' stroke='currentColor' transform='rotate(180)'/>
	<use xlink:href='#gpPt9' id='gpPt10' fill='currentColor' stroke='none'/>
	<use xlink:href='#gpPt3' id='gpPt11' stroke='currentColor' transform='rotate(45)'/>
	<use xlink:href='#gpPt11' id='gpPt12' fill='currentColor' stroke='none'/>
	<path id='gpPt13' stroke-width='0.222' stroke='currentColor' d='M0,1.330 L1.265,0.411 L0.782,-1.067 L-0.782,-1.076 L-1.265,0.411 z'/>
	<use xlink:href='#gpPt13' id='gpPt14' fill='currentColor' stroke='none'/>
	<filter id='textbox' filterUnits='objectBoundingBox' x='0' y='0' height='1' width='1'>
	  <feFlood flood-color='white' flood-opacity='1' result='bgnd'/>
	  <feComposite in='SourceGraphic' in2='bgnd' operator='atop'/>
	</filter>
	<filter id='greybox' filterUnits='objectBoundingBox' x='0' y='0' height='1' width='1'>
	  <feFlood flood-color='lightgrey' flood-opacity='1' result='grey'/>
	  <feComposite in='SourceGraphic' in2='grey' operator='atop'/>
	</filter>
</defs>
<g fill="none" color="white" stroke="currentColor" stroke-width="1.00" stroke-linecap="butt" stroke-linejoin="miter">
</g>
<g fill="none" color="black" stroke="currentColor" stroke-width="1.00" stroke-linecap="butt" stroke-linejoin="miter">
	<path stroke='black'  d='M71.9,662.4 L80.9,662.4  '/>	<g transform="translate(63.6,666.3)" stroke="none" fill="black" font-family="Helvetica" font-size="12.00"  text-anchor="end">
		<text><tspan font-family="Helvetica" > 0</tspan></text>
	</g>
</g>
<g fill="none" color="black" stroke="currentColor" stroke-width="1.00" stroke-linecap="butt" stroke-linejoin="miter">
	<path stroke='black'  d='M71.9,601.6 L80.9,601.6  '/>	<g transform="translate(63.6,605.5)" stroke="none" fill="black" font-family="Helvetica" font-size="12.00"  text-anchor="end">
		<text><tspan font-family="Helvetica" > 0.1</tspan></text>
	</g>
</g>
<g fill="none" color="black" stroke="currentColor" stroke-width="1.00" stroke-linecap="butt" stroke-linejoin="miter">
	<path stroke='black'  d='M71.9,540.7 L80.9,540.7  '/>	<g transform="translate(63.6,544.6)" stroke="none" fill="black" font-family="Helvetica" font-size="12.00"  text-anchor="end">
		<text><tspan font-family="Helvetica" > 0.2</tspan></text>
	</g>
</g>
<g fill="none" color="black" stroke="currentColor" stroke-width="1.00" stroke-linecap="butt" stroke-linejoin="miter">
	<path stroke='black'  d='M71.9,479.9 L80.9,479.9  '/>	<g transform="translate(63.6,483.8)" stroke="none" fill="black" font-family="Helvetica" font-size="12.00"  text-anchor="end">
		<text><tspan font-family="Helvetica" > 0.3</tspan></text>
	</g>
</g>
<g fill="none" color="black" stroke="currentColor" stroke-width="1.00" stroke-linecap="butt" stroke-linejoin="miter">
	<path stroke='black'  d='M71.9,419.1 L80.9,419.1  '/>	<g transform="translate(63.6,423.0)" stroke="none" fill="black" font-family="Helvetica" font-size="12.00"  text-anchor="end">
		<text><tspan font-family="Helvetica" > 0.4</tspan></text>
	</g>
</g>
<g fill="none" color="black" stroke="currentColor" stroke-width="1.00" stroke-linecap="butt" stroke-linejoin="miter">
	<path stroke='black'  d='M71.9,358.2 L80.9,358.2  '/>	<g transform="translate(63.6,362.1)" stroke="none" fill="black" font-family="Helvetica" font-size="12.00"  text-anchor="end">
		<text><tspan font-family="Helvetica" > 0.5</tspan></text>
	</g>
</g>
<g fill="none" color="black" stroke="currentColor" stroke-width="1.00" stroke-linecap="butt" stroke-linejoin="miter">
	<path stroke='black'  d='M71.9,297.4 L80.9,297.4  '/>	<g transform="translate(63.6,301.3)" stroke="none" fill="black" font-family="Helvetica" font-size="12.00"  text-anchor="end">
		<text><tspan font-family="Helvetica" > 0.6</tspan></text>
	</g>
</g>
<g fill="none" color="black" stroke="currentColor" stroke-width="1.00" stroke-linecap="butt" stroke-linejoin="miter">
	<path stroke='black'  d='M71.9,236.6 L80.9,236.6  '/>	<g transform="translate(63.6,240.5)" stroke="none" fill="black" font-family="Helvetica" font-size="12.00"  text-anchor="end">
		<text><tspan font-family="Helvetica" > 0.7</tspan></text>
	</g>
</g>
<g fill="none" color="black" stroke="currentColor" stroke-width="1.00" stroke-linecap="butt" stroke-linejoin="miter">
	<path stroke='black'  d='M71.9,175.8 L80.9,175.8  '/>	<g transform="translate(63.6,179.7)" stroke="none" fill="black" font-family="Helvetica" font-size="12.00"  text-anchor="end">
		<text><tspan font-family="Helvetica" > 0.8</tspan></text>
	</g>
</g>
<g fill="none" color="black" stroke="currentColor" stroke-width="1.00" stroke-linecap="butt" stroke-linejoin="miter">
	<path stroke='black'  d='M71.9,114.9 L80.9,114.9  '/>	<g transform="translate(63.6,118.8)" stroke="none" fill="black" font-family="Helvetica" font-size="12.00"  text-anchor="end">
		<text><tspan font-family="Helvetica" > 0.9</tspan></text>
	</g>
</g>
<g fill="none" color="black" stroke="currentColor" stroke-width="1.00" stroke-linecap="butt" stroke-linejoin="miter">
	<path stroke='black'  d='M71.9,54.1 L80.9,54.1  '/>	<g transform="translate(63.6,58.0)" stroke="none" fill="black" font-family="Helvetica" font-size="12.00"  text-anchor="end">
		<text><tspan font-family="Helvetica" > 1</tspan></text>
	</g>
</g>
<g fill="none" color="black" stroke="currentColor" stroke-width="1.00" stroke-linecap="butt" stroke-linejoin="miter">
	<path stroke='black'  d='M71.9,662.4 L71.9,653.4  '/>	<g transform="translate(71.9,684.3)" stroke="none" fill="black" font-family="Helvetica" font-size="12.00"  text-anchor="middle">
		<text><tspan font-family="Helvetica" > 41</tspan></text>
	</g>
</g>
<g fill="none" color="black" stroke="currentColor" stroke-width="1.00" stroke-linecap="butt" stroke-linejoin="miter">
	<path stroke='black'  d='M188.5,662.4 L188.5,653.4  '/>	<g transform="translate(188.5,684.3)" stroke="none" fill="black" font-family="Helvetica" font-size="12.00"  text-anchor="middle">
		<text><tspan font-family="Helvetica" > 42</tspan></text>
	</g>
</g>
<g fill="none" color="black" stroke="currentColor" stroke-width="1.00" stroke-linecap="butt" stroke-linejoin="miter">
	<path stroke='black'  d='M305.1,662.4 L305.1,653.4  '/>	<g transform="translate(305.1,684.3)" stroke="none" fill="black" font-family="Helvetica" font-size="12.00"  text-anchor="middle">
		<text><tspan font-family="Helvetica" > 43</tspan></text>
	</g>
</g>
<g fill="none" color="black" stroke="currentColor" stroke-width="1.00" stroke-linecap="butt" stroke-linejoin="miter">
	<path stroke='black'  d='M421.8,662.4 L421.8,653.4  '/>	<g transform="translate(421.8,684.3)" stroke="none" fill="black" font-family="Helvetica" font-size="12.00"  text-anchor="middle">
		<text><tspan font-family="Helvetica" > 44</tspan></text>
	</g>
</g>
<g fill="none" color="black" stroke="currentColor" stroke-width="1.00" stroke-linecap="butt" stroke-linejoin="miter">
	<path stroke='black'  d='M538.4,662.4 L538.4,653.4  '/>	<g transform="translate(538.4,684.3)" stroke="none" fill="black" font-family="Helvetica" font-size="12.00"  text-anchor="middle">
		<text><tspan font-family="Helvetica" > 45</tspan></text>
	</g>
</g>
<g fill="none" color="black" stroke="currentColor" stroke-width="1.00" stroke-linecap="butt" stroke-linejoin="miter">
	<path stroke='black'  d='M655.0,662.4 L655.0,653.4  '/>	<g transform="translate(655.0,684.3)" stroke="none" fill="black" font-family="Helvetica" font-size="12.00"  text-anchor="middle">
		<text><tspan font-family="Helvetica" > 46</tspan></text>
	</g>
</g>
<g fill="none" color="black" stroke="currentColor" stroke-width="1.00" stroke-linecap="butt" stroke-linejoin="miter">
	<path stroke='black'  d='M771.6,662.4 L771.6,653.4  '/>	<g transform="translate(771.6,684.3)" stroke="none" fill="black" font-family="Helvetica" font-size="12.00"  text-anchor="middle">
		<text><tspan font-family="Helvetica" > 47</tspan></text>
	</g>
</g>
<g fill="none" color="black" stroke="currentColor" stroke-width="1.00" stroke-linecap="butt" stroke-linejoin="miter">
	<path stroke='black'  d='M888.3,662.4 L888.3,653.4  '/>	<g transform="translate(888.3,684.3)" stroke="none" fill="black" font-family="Helvetica" font-size="12.00"  text-anchor="middle">
		<text><tspan font-family="Helvetica" > 48</tspan></text>
	</g>
</g>
<g fill="none" color="black" stroke="currentColor" stroke-width="1.00" stroke-linecap="butt" stroke-linejoin="miter">
	<path stroke='black'  d='M1004.9,662.4 L1004.9,653.4  '/>	<g transform="translate(1004.9,684.3)" stroke="none" fill="black" font-family="Helvetica" font-size="12.00"  text-anchor="middle">
		<text><tspan font-family="Helvetica" > 49</tspan></text>
	</g>
</g>
<g fill="none" color="black" stroke="currentColor" stroke-width="1.00" stroke-linecap="butt" stroke-linejoin="miter">
	<path stroke='black'  d='M1121.5,662.4 L1121.5,653.4  '/>	<g transform="translate(1121.5,684.3)" stroke="none" fill="black" font-family="Helvetica" font-size="12.00"  text-anchor="middle">
		<text><tspan font-family="Helvetica" > 50</tspan></text>
	</g>
</g>
<g fill="none" color="black" stroke="currentColor" stroke-width="1.00" stroke-linecap="butt" stroke-linejoin="miter">
</g>
<g fill="none" color="black" stroke="currentColor" stroke-width="1.00" stroke-linecap="butt" stroke-linejoin="miter">
	<path stroke='black'  d='M71.9,54.1 L71.9,662.4 L1121.5,662.4 L1121.5,54.1 L71.9,54.1 Z  '/></g>
<g fill="none" color="black" stroke="currentColor" stroke-width="1.00" stroke-linecap="butt" stroke-linejoin="miter">
	<g transform="translate(16.3,358.3) rotate(270)" stroke="none" fill="black" font-family="Helvetica" font-size="12.00"  text-anchor="middle">
		<text><tspan font-family="Helvetica" >Density (a.u.)</tspan></text>
	</g>
</g>
<g fill="none" color="black" stroke="currentColor" stroke-width="1.00" stroke-linecap="butt" stroke-linejoin="miter">
	<g transform="translate(596.7,711.3)" stroke="none" fill="black" font-family="Helvetica" font-size="12.00"  text-anchor="middle">
		<text><tspan font-family="Helvetica" >Average time (us)</tspan></text>
	</g>
</g>
<g fill="none" color="black" stroke="currentColor" stroke-width="1.00" stroke-linecap="butt" stroke-linejoin="miter">
	<g transform="translate(596.7,31.0)" stroke="none" fill="black" font-family="Helvetica" font-size="12.00"  text-anchor="middle">
		<text><tspan font-family="Helvetica" >snapshot_restore_with_dense/Dense: Entire region + /proc/pid/mem/2</tspan></text>
	</g>
</g>
	<g id="gnuplot_plot_1" ><title>Base PDF</title>
<g fill="none" color="black" stroke="currentColor" stroke-width="1.00" stroke-linecap="butt" stroke-linejoin="miter">
	<g transform="translate(1196.9,67.0)" stroke="none" fill="black" font-family="Helvetica" font-size="12.00"  text-anchor="start">
		<text><tspan font-family="Helvetica" >Base PDF</tspan></text>
	</g>
</g>
<g fill="none" color="black" stroke="currentColor" stroke-width="1.00" stroke-linecap="butt" stroke-linejoin="miter">
	<g stroke='none' shape-rendering='crispEdges'>
		<polygon fill = 'rgb(227,  26,  28)' fill-opacity = '0.500000' points = '1146.4,67.6 1188.6,67.6 1188.6,58.6 1146.4,58.6 '/>
		<polygon fill = 'rgb(227,  26,  28)' fill-opacity = '0.500000' points = '93.9,660.9 95.8,660.7 97.7,660.4 99.5,660.2 101.4,659.8 103.3,659.5 105.2,659.1 107.0,658.6 108.9,658.1 110.8,657.5 112.7,656.9 114.5,656.2 116.4,655.4 118.3,654.5 120.2,653.5 122.1,652.4
123.9,651.2 125.8,649.9 127.7,648.5 129.6,646.9 131.4,645.2 133.3,643.3 135.2,641.2 137.1,638.9 138.9,636.5 140.8,633.8 142.7,631.0 144.6,627.9 146.5,624.5 148.3,620.9 150.2,617.0 152.1,612.9
154.0,608.5 155.8,603.7 157.7,598.7 159.6,593.3 161.5,587.7 163.4,581.7 165.2,575.3 167.1,568.6 169.0,561.6 170.9,554.2 172.7,546.5 174.6,538.4 176.5,530.0 178.4,521.2 180.2,512.1 182.1,502.7
184.0,493.0 185.9,483.0 187.8,472.7 189.6,462.1 191.5,451.3 193.4,440.2 195.3,429.0 197.1,417.6 199.0,406.0 200.9,394.3 202.8,382.6 204.7,370.7 206.5,358.9 208.4,347.1 210.3,335.3 212.2,323.6
214.0,312.1 215.9,300.7 217.8,289.6 219.7,278.6 221.5,268.0 223.4,257.7 225.3,247.7 227.2,238.2 229.1,229.1 230.9,220.4 232.8,212.2 234.7,204.6 236.6,197.5 238.4,191.0 240.3,185.0 242.2,179.7
244.1,175.1 245.9,171.0 247.8,167.7 249.7,165.0 251.6,163.0 253.5,161.6 255.3,160.9 257.2,160.9 259.1,161.6 261.0,162.9 262.8,164.8 264.7,167.4 266.6,170.5 268.5,174.3 270.4,178.6 272.2,183.5
274.1,188.8 276.0,194.7 277.9,201.0 279.7,207.7 281.6,214.9 283.5,222.4 285.4,230.3 287.2,238.4 289.1,246.9 291.0,255.6 292.9,264.5 294.8,273.5 296.6,282.8 298.5,292.1 300.4,301.6 302.3,311.1
304.1,320.7 306.0,330.3 307.9,340.0 309.8,349.5 311.6,359.1 313.5,368.6 315.4,378.0 317.3,387.3 319.2,396.5 321.0,405.6 322.9,414.5 324.8,423.3 326.7,431.9 328.5,440.4 330.4,448.7 332.3,456.9
334.2,464.8 336.1,472.6 337.9,480.1 339.8,487.5 341.7,494.7 343.6,501.6 345.4,508.4 347.3,515.0 349.2,521.4 351.1,527.6 352.9,533.6 354.8,539.4 356.7,545.0 358.6,550.4 360.5,555.7 362.3,560.7
364.2,565.6 366.1,570.3 368.0,574.8 369.8,579.1 371.7,583.3 373.6,587.3 375.5,591.2 377.4,594.9 379.2,598.5 381.1,601.8 383.0,605.1 384.9,608.2 386.7,611.2 388.6,614.0 390.5,616.7 392.4,619.3
394.2,621.8 396.1,624.1 398.0,626.4 399.9,628.5 401.8,630.5 403.6,632.4 405.5,634.3 407.4,636.0 409.3,637.6 411.1,639.1 413.0,640.6 414.9,642.0 416.8,643.3 418.6,644.5 420.5,645.7 422.4,646.7
424.3,647.8 426.2,648.7 428.0,649.6 429.9,650.4 431.8,651.2 433.7,651.9 435.5,652.6 437.4,653.2 439.3,653.8 441.2,654.4 443.1,654.9 444.9,655.3 446.8,655.7 448.7,656.1 450.6,656.4 452.4,656.7
454.3,657.0 456.2,657.3 458.1,657.5 459.9,657.6 461.8,657.8 463.7,657.9 465.6,658.0 467.5,658.1 469.3,658.1 471.2,658.2 473.1,658.2 475.0,658.1 476.8,658.1 478.7,658.0 480.6,657.9 482.5,657.8
484.3,657.7 486.2,657.6 488.1,657.4 490.0,657.3 491.9,657.1 493.7,656.9 495.6,656.7 497.5,656.5 499.4,656.2 501.2,656.0 503.1,655.7 505.0,655.5 506.9,655.2 508.8,655.0 510.6,654.7 512.5,654.4
514.4,654.1 516.3,653.9 518.1,653.6 520.0,653.3 521.9,653.0 523.8,652.8 525.6,652.5 527.5,652.2 529.4,652.0 531.3,651.8 533.2,651.5 535.0,651.3 536.9,651.1 538.8,650.9 540.7,650.7 542.5,650.5
544.4,650.3 546.3,650.2 548.2,650.0 550.0,649.9 551.9,649.8 553.8,649.7 555.7,649.6 557.6,649.5 559.4,649.5 561.3,649.4 563.2,649.4 565.1,649.4 566.9,649.4 568.8,649.4 570.7,649.4 572.6,649.4
574.5,649.5 576.3,649.5 578.2,649.6 580.1,649.7 582.0,649.7 583.8,649.8 585.7,649.9 587.6,650.0 589.5,650.1 591.3,650.2 593.2,650.3 595.1,650.4 597.0,650.6 598.9,650.7 600.7,650.8 602.6,650.9
604.5,651.1 606.4,651.2 608.2,651.3 610.1,651.4 612.0,651.5 613.9,651.7 615.8,651.8 617.6,651.9 619.5,652.0 621.4,652.2 623.3,652.3 625.1,652.4 627.0,652.6 628.9,652.7 630.8,652.8 632.6,652.9
634.5,653.1 636.4,653.2 638.3,653.3 640.2,653.5 642.0,653.6 643.9,653.8 645.8,653.9 647.7,654.1 649.5,654.2 651.4,654.4 653.3,654.6 655.2,654.7 657.0,654.9 658.9,655.1 660.8,655.2 662.7,655.4
664.6,655.6 666.4,655.8 668.3,656.0 670.2,656.1 672.1,656.3 673.9,656.5 675.8,656.7 677.7,656.9 679.6,657.1 681.5,657.3 683.3,657.4 685.2,657.6 687.1,657.8 689.0,658.0 690.8,658.1 692.7,658.3
694.6,658.5 696.5,658.6 698.3,658.7 700.2,658.9 702.1,659.0 704.0,659.1 705.9,659.2 707.7,659.3 709.6,659.4 711.5,659.5 713.4,659.6 715.2,659.7 717.1,659.7 719.0,659.7 720.9,659.8 722.7,659.8
724.6,659.8 726.5,659.8 728.4,659.8 730.3,659.8 732.1,659.7 734.0,659.7 735.9,659.6 737.8,659.6 739.6,659.5 741.5,659.4 743.4,659.3 745.3,659.2 747.2,659.1 749.0,659.0 750.9,658.9 752.8,658.7
754.7,658.6 756.5,658.5 758.4,658.3 760.3,658.2 762.2,658.0 764.0,657.9 765.9,657.7 767.8,657.6 769.7,657.4 771.6,657.3 773.4,657.1 775.3,657.0 777.2,656.8 779.1,656.7 780.9,656.5 782.8,656.4
784.7,656.3 786.6,656.1 788.5,656.0 790.3,655.9 792.2,655.8 794.1,655.7 796.0,655.6 797.8,655.5 799.7,655.5 801.6,655.4 803.5,655.3 805.3,655.3 807.2,655.2 809.1,655.2 811.0,655.2 812.9,655.1
814.7,655.1 816.6,655.1 818.5,655.1 820.4,655.1 822.2,655.1 824.1,655.1 826.0,655.1 827.9,655.1 829.7,655.1 831.6,655.2 833.5,655.2 835.4,655.2 837.3,655.2 839.1,655.2 841.0,655.2 842.9,655.2
844.8,655.2 846.6,655.2 848.5,655.3 850.4,655.3 852.3,655.3 854.2,655.3 856.0,655.2 857.9,655.2 859.8,655.2 861.7,655.2 863.5,655.2 865.4,655.2 867.3,655.2 869.2,655.2 871.0,655.2 872.9,655.1
874.8,655.1 876.7,655.1 878.6,655.1 880.4,655.1 882.3,655.1 884.2,655.1 886.1,655.1 887.9,655.1 889.8,655.2 891.7,655.2 893.6,655.2 895.4,655.2 897.3,655.3 899.2,655.3 901.1,655.4 903.0,655.5
904.8,655.6 906.7,655.6 908.6,655.7 910.5,655.8 912.3,655.9 914.2,656.1 916.1,656.2 918.0,656.3 919.9,656.4 921.7,656.6 923.6,656.7 925.5,656.9 927.4,657.0 929.2,657.2 931.1,657.4 933.0,657.5
934.9,657.7 936.7,657.9 938.6,658.1 940.5,658.2 942.4,658.4 944.3,658.6 946.1,658.7 948.0,658.9 949.9,659.1 951.8,659.2 953.6,659.4 955.5,659.6 957.4,659.7 959.3,659.9 961.2,660.0 963.0,660.2
964.9,660.3 966.8,660.4 968.7,660.6 970.5,660.7 972.4,660.8 974.3,660.9 976.2,661.0 978.0,661.1 979.9,661.2 981.8,661.3 983.7,661.4 985.6,661.5 987.4,661.6 989.3,661.6 991.2,661.7 993.1,661.8
994.9,661.8 996.8,661.9 998.7,661.9 1000.6,662.0 1002.4,662.0 1004.3,662.0 1006.2,662.1 1008.1,662.1 1010.0,662.1 1011.8,662.2 1013.7,662.2 1015.6,662.2 1017.5,662.2 1019.3,662.3 1021.2,662.3 1023.1,662.3
1025.0,662.3 1026.9,662.3 1028.7,662.3 1030.6,662.3 1030.6,662.4 1028.7,662.4 1026.9,662.4 1025.0,662.4 1023.1,662.4 1021.2,662.4 1019.3,662.4 1017.5,662.4 1015.6,662.4 1013.7,662.4 1011.8,662.4 1010.0,662.4
1008.1,662.4 1006.2,662.4 1004.3,662.4 1002.4,662.4 1000.6,662.4 998.7,662.4 996.8,662.4 994.9,662.4 993.1,662.4 991.2,662.4 989.3,662.4 987.4,662.4 985.6,662.4 983.7,662.4 981.8,662.4 979.9,662.4
978.0,662.4 976.2,662.4 974.3,662.4 972.4,662.4 970.5,662.4 968.7,662.4 966.8,662.4 964.9,662.4 963.0,662.4 961.2,662.4 959.3,662.4 957.4,662.4 955.5,662.4 953.6,662.4 951.8,662.4 949.9,662.4
948.0,662.4 946.1,662.4 944.3,662.4 942.4,662.4 940.5,662.4 938.6,662.4 936.7,662.4 934.9,662.4 933.0,662.4 931.1,662.4 929.2,662.4 927.4,662.4 925.5,662.4 923.6,662.4 921.7,662.4 919.9,662.4
918.0,662.4 916.1,662.4 914.2,662.4 912.3,662.4 910.5,662.4 908.6,662.4 906.7,662.4 904.8,662.4 903.0,662.4 901.1,662.4 899.2,662.4 897.3,662.4 895.4,662.4 893.6,662.4 891.7,662.4 889.8,662.4
887.9,662.4 886.1,662.4 884.2,662.4 882.3,662.4 880.4,662.4 878.6,662.4 876.7,662.4 874.8,662.4 872.9,662.4 871.0,662.4 869.2,662.4 867.3,662.4 865.4,662.4 863.5,662.4 861.7,662.4 859.8,662.4
857.9,662.4 856.0,662.4 854.2,662.4 852.3,662.4 850.4,662.4 848.5,662.4 846.6,662.4 844.8,662.4 842.9,662.4 841.0,662.4 839.1,662.4 837.3,662.4 835.4,662.4 833.5,662.4 831.6,662.4 829.7,662.4
827.9,662.4 826.0,662.4 824.1,662.4 822.2,662.4 820.4,662.4 818.5,662.4 816.6,662.4 814.7,662.4 812.9,662.4 811.0,662.4 809.1,662.4 807.2,662.4 805.3,662.4 803.5,662.4 801.6,662.4 799.7,662.4
797.8,662.4 796.0,662.4 794.1,662.4 792.2,662.4 790.3,662.4 788.5,662.4 786.6,662.4 784.7,662.4 782.8,662.4 780.9,662.4 779.1,662.4 777.2,662.4 775.3,662.4 773.4,662.4 771.6,662.4 769.7,662.4
767.8,662.4 765.9,662.4 764.0,662.4 762.2,662.4 760.3,662.4 758.4,662.4 756.5,662.4 754.7,662.4 752.8,662.4 750.9,662.4 749.0,662.4 747.2,662.4 745.3,662.4 743.4,662.4 741.5,662.4 739.6,662.4
737.8,662.4 735.9,662.4 734.0,662.4 732.1,662.4 730.3,662.4 728.4,662.4 726.5,662.4 724.6,662.4 722.7,662.4 720.9,662.4 719.0,662.4 717.1,662.4 715.2,662.4 713.4,662.4 711.5,662.4 709.6,662.4
707.7,662.4 705.9,662.4 704.0,662.4 702.1,662.4 700.2,662.4 698.3,662.4 696.5,662.4 694.6,662.4 692.7,662.4 690.8,662.4 689.0,662.4 687.1,662.4 685.2,662.4 683.3,662.4 681.5,662.4 679.6,662.4
677.7,662.4 675.8,662.4 673.9,662.4 672.1,662.4 670.2,662.4 668.3,662.4 666.4,662.4 664.6,662.4 662.7,662.4 660.8,662.4 658.9,662.4 657.0,662.4 655.2,662.4 653.3,662.4 651.4,662.4 649.5,662.4
647.7,662.4 645.8,662.4 643.9,662.4 642.0,662.4 640.2,662.4 638.3,662.4 636.4,662.4 634.5,662.4 632.6,662.4 630.8,662.4 628.9,662.4 627.0,662.4 625.1,662.4 623.3,662.4 621.4,662.4 619.5,662.4
617.6,662.4 615.8,662.4 613.9,662.4 612.0,662.4 610.1,662.4 608.2,662.4 606.4,662.4 604.5,662.4 602.6,662.4 600.7,662.4 598.9,662.4 597.0,662.4 595.1,662.4 593.2,662.4 591.3,662.4 589.5,662.4
587.6,662.4 585.7,662.4 583.8,662.4 582.0,662.4 580.1,662.4 578.2,662.4 576.3,662.4 574.5,662.4 572.6,662.4 570.7,662.4 568.8,662.4 566.9,662.4 565.1,662.4 563.2,662.4 561.3,662.4 559.4,662.4
557.6,662.4 555.7,662.4 553.8,662.4 551.9,662.4 550.0,662.4 548.2,662.4 546.3,662.4 544.4,662.4 542.5,662.4 540.7,662.4 538.8,662.4 536.9,662.4 535.0,662.4 533.2,662.4 531.3,662.4 529.4,662.4
527.5,662.4 525.6,662.4 523.8,662.4 521.9,662.4 520.0,662.4 518.1,662.4 516.3,662.4 514.4,662.4 512.5,662.4 510.6,662.4 508.8,662.4 506.9,662.4 505.0,662.4 503.1,662.4 501.2,662.4 499.4,662.4
497.5,662.4 495.6,662.4 493.7,662.4 491.9,662.4 490.0,662.4 488.1,662.4 486.2,662.4 484.3,662.4 482.5,662.4 480.6,662.4 478.7,662.4 476.8,662.4 475.0,662.4 473.1,662.4 471.2,662.4 469.3,662.4
467.5,662.4 465.6,662.4 463.7,662.4 461.8,662.4 459.9,662.4 458.1,662.4 456.2,662.4 454.3,662.4 452.4,662.4 450.6,662.4 448.7,662.4 446.8,662.4 444.9,662.4 443.1,662.4 441.2,662.4 439.3,662.4
437.4,662.4 435.5,662.4 433.7,662.4 431.8,662.4 429.9,662.4 428.0,662.4 426.2,662.4 424.3,662.4 422.4,662.4 420.5,662.4 418.6,662.4 416.8,662.4 414.9,662.4 413.0,662.4 411.1,662.4 409.3,662.4
407.4,662.4 405.5,662.4 403.6,662.4 401.8,662.4 399.9,662.4 398.0,662.4 396.1,662.4 394.2,662.4 392.4,662.4 390.5,662.4 388.6,662.4 386.7,662.4 384.9,662.4 383.0,662.4 381.1,662.4 379.2,662.4
377.4,662.4 375.5,662.4 373.6,662.4 371.7,662.4 369.8,662.4 368.0,662.4 366.1,662.4 364.2,662.4 362.3,662.4 360.5,662.4 358.6,662.4 356.7,662.4 354.8,662.4 352.9,662.4 351.1,662.4 349.2,662.4
347.3,662.4 345.4,662.4 343.6,662.4 341.7,662.4 339.8,662.4 337.9,662.4 336.1,662.4 334.2,662.4 332.3,662.4 330.4,662.4 328.5,662.4 326.7,662.4 324.8,662.4 322.9,662.4 321.0,662.4 319.2,662.4
317.3,662.4 315.4,662.4 313.5,662.4 311.6,662.4 309.8,662.4 307.9,662.4 306.0,662.4 304.1,662.4 302.3,662.4 300.4,662.4 298.5,662.4 296.6,662.4 294.8,662.4 292.9,662.4 291.0,662.4 289.1,662.4
287.2,662.4 285.4,662.4 283.5,662.4 281.6,662.4 279.7,662.4 277.9,662.4 276.0,662.4 274.1,662.4 272.2,662.4 270.4,662.4 268.5,662.4 266.6,662.4 264.7,662.4 262.8,662.4 261.0,662.4 259.1,662.4
257.2,662.4 255.3,662.4 253.5,662.4 251.6,662.4 249.7,662.4 247.8,662.4 245.9,662.4 244.1,662.4 242.2,662.4 240.3,662.4 238.4,662.4 236.6,662.4 234.7,662.4 232.8,662.4 230.9,662.4 229.1,662.4
227.2,662.4 225.3,662.4 223.4,662.4 221.5,662.4 219.7,662.4 217.8,662.4 215.9,662.4 214.0,662.4 212.2,662.4 210.3,662.4 208.4,662.4 206.5,662.4 204.7,662.4 202.8,662.4 200.9,662.4 199.0,662.4
197.1,662.4 195.3,662.4 193.4,662.4 191.5,662.4 189.6,662.4 187.8,662.4 185.9,662.4 184.0,662.4 182.1,662.4 180.2,662.4 178.4,662.4 176.5,662.4 174.6,662.4 172.7,662.4 170.9,662.4 169.0,662.4
167.1,662.4 165.2,662.4 163.4,662.4 161.5,662.4 159.6,662.4 157.7,662.4 155.8,662.4 154.0,662.4 152.1,662.4 150.2,662.4 148.3,662.4 146.5,662.4 144.6,662.4 142.7,662.4 140.8,662.4 138.9,662.4
137.1,662.4 135.2,662.4 133.3,662.4 131.4,662.4 129.6,662.4 127.7,662.4 125.8,662.4 123.9,662.4 122.1,662.4 120.2,662.4 118.3,662.4 116.4,662.4 114.5,662.4 112.7,662.4 110.8,662.4 108.9,662.4
107.0,662.4 105.2,662.4 103.3,662.4 101.4,662.4 99.5,662.4 97.7,662.4 95.8,662.4 93.9,662.4 '/>
	</g>
</g>
	</g>
	<g id="gnuplot_plot_2" ><title>Base Mean</title>
<g fill="none" color="white" stroke="rgb(227,  26,  28)" stroke-width="2.00" stroke-linecap="butt" stroke-linejoin="miter">
</g>
<g fill="none" color="black" stroke="currentColor" stroke-width="2.00" stroke-linecap="butt" stroke-linejoin="miter">
	<g transform="translate(1196.9,85.0)" stroke="none" fill="black" font-family="Helvetica" font-size="12.00"  text-anchor="start">
		<text><tspan font-family="Helvetica" >Base Mean</tspan></text>
	</g>
</g>
<g fill="none" color="black" stroke="currentColor" stroke-width="2.00" stroke-linecap="butt" stroke-linejoin="miter">
	<path stroke='rgb(227,  26,  28)'  d='M1146.4,81.1 L1188.6,81.1 M286.4,662.4 L286.4,234.5  '/></g>
	</g>
	<g id="gnuplot_plot_3" ><title>New PDF</title>
<g fill="none" color="white" stroke="rgb(227,  26,  28)" stroke-width="1.00" stroke-linecap="butt" stroke-linejoin="miter">
</g>
<g fill="none" color="black" stroke="currentColor" stroke-width="1.00" stroke-linecap="butt" stroke-linejoin="miter">
	<g transform="translate(1196.9,103.0)" stroke="none" fill="black" font-family="Helvetica" font-size="12.00"  text-anchor="start">
		<text><tspan font-family="Helvetica" >New PDF</tspan></text>
	</g>
</g>
<g fill="none" color="black" stroke="currentColor" stroke-width="1.00" stroke-linecap="butt" stroke-linejoin="miter">
	<g stroke='none' shape-rendering='crispEdges'>
		<polygon fill = 'rgb( 31, 120, 180)' fill-opacity = '0.500000' points = '1146.4,103.6 1188.6,103.6 1188.6,94.6 1146.4,94.6 '/>
		<polygon fill = 'rgb( 31, 120, 180)' fill-opacity = '0.500000' points = '122.8,659.4 124.6,659.0 126.5,658.5 128.4,657.9 130.3,657.3 132.2,656.6 134.1,655.8 135.9,654.9 137.8,653.9 139.7,652.8 141.6,651.5 143.5,650.1 145.4,648.6 147.2,646.9 149.1,645.0 151.0,643.0
152.9,640.7 154.8,638.2 156.7,635.5 158.6,632.6 160.4,629.3 162.3,625.8 164.2,622.0 166.1,617.9 168.0,613.4 169.9,608.6 171.7,603.4 173.6,597.9 175.5,591.9 177.4,585.6 179.3,578.8 181.2,571.6
183.0,564.0 184.9,555.9 186.8,547.3 188.7,538.3 190.6,528.8 192.5,518.9 194.4,508.5 196.2,497.7 198.1,486.4 200.0,474.7 201.9,462.6 203.8,450.0 205.7,437.1 207.5,423.9 209.4,410.3 211.3,396.4
213.2,382.3 215.1,368.0 217.0,353.4 218.8,338.8 220.7,324.1 222.6,309.3 224.5,294.6 226.4,279.9 228.3,265.4 230.1,251.1 232.0,237.0 233.9,223.2 235.8,209.8 237.7,196.8 239.6,184.3 241.5,172.3
243.3,161.0 245.2,150.3 247.1,140.3 249.0,131.0 250.9,122.6 252.8,114.9 254.6,108.2 256.5,102.4 258.4,97.5 260.3,93.6 262.2,90.6 264.1,88.7 265.9,87.7 267.8,87.8 269.7,88.8 271.6,90.9
273.5,93.9 275.4,97.9 277.3,102.9 279.1,108.7 281.0,115.5 282.9,123.1 284.8,131.4 286.7,140.6 288.6,150.4 290.4,161.0 292.3,172.1 294.2,183.8 296.1,195.9 298.0,208.5 299.9,221.5 301.7,234.8
303.6,248.4 305.5,262.2 307.4,276.2 309.3,290.2 311.2,304.3 313.1,318.4 314.9,332.4 316.8,346.3 318.7,360.1 320.6,373.7 322.5,387.1 324.4,400.2 326.2,413.0 328.1,425.5 330.0,437.6 331.9,449.4
333.8,460.8 335.7,471.8 337.5,482.4 339.4,492.5 341.3,502.3 343.2,511.5 345.1,520.4 347.0,528.8 348.9,536.8 350.7,544.3 352.6,551.5 354.5,558.2 356.4,564.5 358.3,570.4 360.2,575.9 362.0,581.1
363.9,586.0 365.8,590.4 367.7,594.6 369.6,598.5 371.5,602.1 373.3,605.4 375.2,608.4 377.1,611.2 379.0,613.8 380.9,616.2 382.8,618.4 384.7,620.4 386.5,622.3 388.4,624.0 390.3,625.6 392.2,627.0
394.1,628.3 396.0,629.6 397.8,630.7 399.7,631.8 401.6,632.8 403.5,633.7 405.4,634.6 407.3,635.4 409.1,636.2 411.0,636.9 412.9,637.7 414.8,638.4 416.7,639.0 418.6,639.7 420.5,640.3 422.3,640.9
424.2,641.5 426.1,642.1 428.0,642.7 429.9,643.3 431.8,643.9 433.6,644.4 435.5,645.0 437.4,645.5 439.3,646.1 441.2,646.6 443.1,647.1 444.9,647.6 446.8,648.1 448.7,648.6 450.6,649.1 452.5,649.5
454.4,649.9 456.3,650.3 458.1,650.7 460.0,651.1 461.9,651.4 463.8,651.8 465.7,652.1 467.6,652.4 469.4,652.6 471.3,652.9 473.2,653.1 475.1,653.3 477.0,653.4 478.9,653.6 480.7,653.7 482.6,653.8
484.5,653.8 486.4,653.9 488.3,653.9 490.2,653.9 492.1,653.9 493.9,653.9 495.8,653.8 497.7,653.7 499.6,653.7 501.5,653.6 503.4,653.5 505.2,653.3 507.1,653.2 509.0,653.1 510.9,652.9 512.8,652.7
514.7,652.6 516.5,652.4 518.4,652.2 520.3,652.0 522.2,651.8 524.1,651.7 526.0,651.5 527.9,651.3 529.7,651.1 531.6,650.9 533.5,650.7 535.4,650.6 537.3,650.4 539.2,650.2 541.0,650.1 542.9,649.9
544.8,649.7 546.7,649.6 548.6,649.5 550.5,649.3 552.3,649.2 554.2,649.1 556.1,649.0 558.0,648.9 559.9,648.8 561.8,648.7 563.7,648.7 565.5,648.6 567.4,648.6 569.3,648.5 571.2,648.5 573.1,648.5
575.0,648.5 576.8,648.5 578.7,648.5 580.6,648.5 582.5,648.5 584.4,648.6 586.3,648.6 588.1,648.7 590.0,648.8 591.9,648.8 593.8,648.9 595.7,649.0 597.6,649.2 599.5,649.3 601.3,649.4 603.2,649.6
605.1,649.7 607.0,649.9 608.9,650.1 610.8,650.3 612.6,650.5 614.5,650.7 616.4,650.9 618.3,651.1 620.2,651.3 622.1,651.6 623.9,651.8 625.8,652.1 627.7,652.3 629.6,652.6 631.5,652.8 633.4,653.1
635.2,653.4 637.1,653.7 639.0,653.9 640.9,654.2 642.8,654.5 644.7,654.8 646.6,655.1 648.4,655.3 650.3,655.6 652.2,655.9 654.1,656.2 656.0,656.5 657.9,656.7 659.7,657.0 661.6,657.2 663.5,657.5
665.4,657.7 667.3,658.0 669.2,658.2 671.0,658.5 672.9,658.7 674.8,658.9 676.7,659.1 678.6,659.3 680.5,659.5 682.4,659.7 684.2,659.9 686.1,660.0 688.0,660.2 689.9,660.3 691.8,660.5 693.7,660.6
695.5,660.7 697.4,660.9 699.3,661.0 701.2,661.1 703.1,661.2 705.0,661.2 706.8,661.3 708.7,661.4 710.6,661.5 712.5,661.5 714.4,661.6 716.3,661.6 718.2,661.7 720.0,661.7 721.9,661.7 723.8,661.7
725.7,661.7 727.6,661.7 729.5,661.7 731.3,661.7 733.2,661.7 735.1,661.7 737.0,661.7 738.9,661.6 740.8,661.6 742.6,661.6 744.5,661.5 746.4,661.5 748.3,661.4 750.2,661.3 752.1,661.2 754.0,661.2
755.8,661.1 757.7,661.0 759.6,660.9 761.5,660.8 763.4,660.7 765.3,660.5 767.1,660.4 769.0,660.3 770.9,660.1 772.8,660.0 774.7,659.9 776.6,659.7 778.4,659.5 780.3,659.4 782.2,659.2 784.1,659.1
786.0,658.9 787.9,658.7 789.8,658.5 791.6,658.4 793.5,658.2 795.4,658.0 797.3,657.8 799.2,657.7 801.1,657.5 802.9,657.3 804.8,657.2 806.7,657.0 808.6,656.8 810.5,656.7 812.4,656.5 814.2,656.4
816.1,656.3 818.0,656.1 819.9,656.0 821.8,655.9 823.7,655.8 825.6,655.7 827.4,655.6 829.3,655.6 831.2,655.5 833.1,655.4 835.0,655.4 836.9,655.3 838.7,655.3 840.6,655.3 842.5,655.2 844.4,655.2
846.3,655.2 848.2,655.2 850.0,655.2 851.9,655.2 853.8,655.2 855.7,655.2 857.6,655.3 859.5,655.3 861.4,655.3 863.2,655.3 865.1,655.3 867.0,655.4 868.9,655.4 870.8,655.4 872.7,655.4 874.5,655.4
876.4,655.4 878.3,655.5 880.2,655.5 882.1,655.5 884.0,655.5 885.8,655.5 887.7,655.5 889.6,655.5 891.5,655.4 893.4,655.4 895.3,655.4 897.2,655.4 899.0,655.4 900.9,655.3 902.8,655.3 904.7,655.3
906.6,655.3 908.5,655.3 910.3,655.2 912.2,655.2 914.1,655.2 916.0,655.2 917.9,655.2 919.8,655.2 921.6,655.2 923.5,655.2 925.4,655.2 927.3,655.3 929.2,655.3 931.1,655.3 933.0,655.4 934.8,655.5
936.7,655.5 938.6,655.6 940.5,655.7 942.4,655.8 944.3,655.9 946.1,656.0 948.0,656.1 949.9,656.2 951.8,656.4 953.7,656.5 955.6,656.6 957.4,656.8 959.3,656.9 961.2,657.1 963.1,657.3 965.0,657.4
966.9,657.6 968.8,657.8 970.6,657.9 972.5,658.1 974.4,658.3 976.3,658.5 978.2,658.6 980.1,658.8 981.9,659.0 983.8,659.2 985.7,659.3 987.6,659.5 989.5,659.6 991.4,659.8 993.2,660.0 995.1,660.1
997.0,660.2 998.9,660.4 1000.8,660.5 1002.7,660.6 1004.5,660.8 1006.4,660.9 1008.3,661.0 1010.2,661.1 1012.1,661.2 1014.0,661.3 1015.9,661.4 1017.7,661.5 1019.6,661.5 1021.5,661.6 1023.4,661.7 1025.3,661.7
1027.2,661.8 1029.0,661.8 1030.9,661.9 1032.8,661.9 1034.7,662.0 1036.6,662.0 1038.5,662.1 1040.3,662.1 1042.2,662.1 1044.1,662.2 1046.0,662.2 1047.9,662.2 1049.8,662.2 1051.7,662.2 1053.5,662.3 1055.4,662.3
1057.3,662.3 1059.2,662.3 1061.1,662.3 1063.0,662.3 1063.0,662.4 1061.1,662.4 1059.2,662.4 1057.3,662.4 1055.4,662.4 1053.5,662.4 1051.7,662.4 1049.8,662.4 1047.9,662.4 1046.0,662.4 1044.1,662.4 1042.2,662.4
1040.3,662.4 1038.5,662.4 1036.6,662.4 1034.7,662.4 1032.8,662.4 1030.9,662.4 1029.0,662.4 1027.2,662.4 1025.3,662.4 1023.4,662.4 1021.5,662.4 1019.6,662.4 1017.7,662.4 1015.9,662.4 1014.0,662.4 1012.1,662.4
1010.2,662.4 1008.3,662.4 1006.4,662.4 1004.5,662.4 1002.7,662.4 1000.8,662.4 998.9,662.4 997.0,662.4 995.1,662.4 993.2,662.4 991.4,662.4 989.5,662.4 987.6,662.4 985.7,662.4 983.8,662.4 981.9,662.4
980.1,662.4 978.2,662.4 976.3,662.4 974.4,662.4 972.5,662.4 970.6,662.4 968.8,662.4 966.9,662.4 965.0,662.4 963.1,662.4 961.2,662.4 959.3,662.4 957.4,662.4 955.6,662.4 953.7,662.4 951.8,662.4
949.9,662.4 948.0,662.4 946.1,662.4 944.3,662.4 942.4,662.4 940.5,662.4 938.6,662.4 936.7,662.4 934.8,662.4 933.0,662.4 931.1,662.4 929.2,662.4 927.3,662.4 925.4,662.4 923.5,662.4 921.6,662.4
919.8,662.4 917.9,662.4 916.0,662.4 914.1,662.4 912.2,662.4 910.3,662.4 908.5,662.4 906.6,662.4 904.7,662.4 902.8,662.4 900.9,662.4 899.0,662.4 897.2,662.4 895.3,662.4 893.4,662.4 891.5,662.4
889.6,662.4 887.7,662.4 885.8,662.4 884.0,662.4 882.1,662.4 880.2,662.4 878.3,662.4 876.4,662.4 874.5,662.4 872.7,662.4 870.8,662.4 868.9,662.4 867.0,662.4 865.1,662.4 863.2,662.4 861.4,662.4
859.5,662.4 857.6,662.4 855.7,662.4 853.8,662.4 851.9,662.4 850.0,662.4 848.2,662.4 846.3,662.4 844.4,662.4 842.5,662.4 840.6,662.4 838.7,662.4 836.9,662.4 835.0,662.4 833.1,662.4 831.2,662.4
829.3,662.4 827.4,662.4 825.6,662.4 823.7,662.4 821.8,662.4 819.9,662.4 818.0,662.4 816.1,662.4 814.2,662.4 812.4,662.4 810.5,662.4 808.6,662.4 806.7,662.4 804.8,662.4 802.9,662.4 801.1,662.4
799.2,662.4 797.3,662.4 795.4,662.4 793.5,662.4 791.6,662.4 789.8,662.4 787.9,662.4 786.0,662.4 784.1,662.4 782.2,662.4 780.3,662.4 778.4,662.4 776.6,662.4 774.7,662.4 772.8,662.4 770.9,662.4
769.0,662.4 767.1,662.4 765.3,662.4 763.4,662.4 761.5,662.4 759.6,662.4 757.7,662.4 755.8,662.4 754.0,662.4 752.1,662.4 750.2,662.4 748.3,662.4 746.4,662.4 744.5,662.4 742.6,662.4 740.8,662.4
738.9,662.4 737.0,662.4 735.1,662.4 733.2,662.4 731.3,662.4 729.5,662.4 727.6,662.4 725.7,662.4 723.8,662.4 721.9,662.4 720.0,662.4 718.2,662.4 716.3,662.4 714.4,662.4 712.5,662.4 710.6,662.4
708.7,662.4 706.8,662.4 705.0,662.4 703.1,662.4 701.2,662.4 699.3,662.4 697.4,662.4 695.5,662.4 693.7,662.4 691.8,662.4 689.9,662.4 688.0,662.4 686.1,662.4 684.2,662.4 682.4,662.4 680.5,662.4
678.6,662.4 676.7,662.4 674.8,662.4 672.9,662.4 671.0,662.4 669.2,662.4 667.3,662.4 665.4,662.4 663.5,662.4 661.6,662.4 659.7,662.4 657.9,662.4 656.0,662.4 654.1,662.4 652.2,662.4 650.3,662.4
648.4,662.4 646.6,662.4 644.7,662.4 642.8,662.4 640.9,662.4 639.0,662.4 637.1,662.4 635.2,662.4 633.4,662.4 631.5,662.4 629.6,662.4 627.7,662.4 625.8,662.4 623.9,662.4 622.1,662.4 620.2,662.4
618.3,662.4 616.4,662.4 614.5,662.4 612.6,662.4 610.8,662.4 608.9,662.4 607.0,662.4 605.1,662.4 603.2,662.4 601.3,662.4 599.5,662.4 597.6,662.4 595.7,662.4 593.8,662.4 591.9,662.4 590.0,662.4
588.1,662.4 586.3,662.4 584.4,662.4 582.5,662.4 580.6,662.4 578.7,662.4 576.8,662.4 575.0,662.4 573.1,662.4 571.2,662.4 569.3,662.4 567.4,662.4 565.5,662.4 563.7,662.4 561.8,662.4 559.9,662.4
558.0,662.4 556.1,662.4 554.2,662.4 552.3,662.4 550.5,662.4 548.6,662.4 546.7,662.4 544.8,662.4 542.9,662.4 541.0,662.4 539.2,662.4 537.3,662.4 535.4,662.4 533.5,662.4 531.6,662.4 529.7,662.4
527.9,662.4 526.0,662.4 524.1,662.4 522.2,662.4 520.3,662.4 518.4,662.4 516.5,662.4 514.7,662.4 512.8,662.4 510.9,662.4 509.0,662.4 507.1,662.4 505.2,662.4 503.4,662.4 501.5,662.4 499.6,662.4
497.7,662.4 495.8,662.4 493.9,662.4 492.1,662.4 490.2,662.4 488.3,662.4 486.4,662.4 484.5,662.4 482.6,662.4 480.7,662.4 478.9,662.4 477.0,662.4 475.1,662.4 473.2,662.4 471.3,662.4 469.4,662.4
467.6,662.4 465.7,662.4 463.8,662.4 461.9,662.4 460.0,662.4 458.1,662.4 456.3,662.4 454.4,662.4 452.5,662.4 450.6,662.4 448.7,662.4 446.8,662.4 444.9,662.4 443.1,662.4 441.2,662.4 439.3,662.4
437.4,662.4 435.5,662.4 433.6,662.4 431.8,662.4 429.9,662.4 428.0,662.4 426.1,662.4 424.2,662.4 422.3,662.4 420.5,662.4 418.6,662.4 416.7,662.4 414.8,662.4 412.9,662.4 411.0,662.4 409.1,662.4
407.3,662.4 405.4,662.4 403.5,662.4 401.6,662.4 399.7,662.4 397.8,662.4 396.0,662.4 394.1,662.4 392.2,662.4 390.3,662.4 388.4,662.4 386.5,662.4 384.7,662.4 382.8,662.4 380.9,662.4 379.0,662.4
377.1,662.4 375.2,662.4 373.3,662.4 371.5,662.4 369.6,662.4 367.7,662.4 365.8,662.4 363.9,662.4 362.0,662.4 360.2,662.4 358.3,662.4 356.4,662.4 354.5,662.4 352.6,662.4 350.7,662.4 348.9,662.4
347.0,662.4 345.1,662.4 343.2,662.4 341.3,662.4 339.4,662.4 337.5,662.4 335.7,662.4 333.8,662.4 331.9,662.4 330.0,662.4 328.1,662.4 326.2,662.4 324.4,662.4 322.5,662.4 320.6,662.4 318.7,662.4
316.8,662.4 314.9,662.4 313.1,662.4 311.2,662.4 309.3,662.4 307.4,662.4 305.5,662.4 303.6,662.4 301.7,662.4 299.9,662.4 298.0,662.4 296.1,662.4 294.2,662.4 292.3,662.4 290.4,662.4 288.6,662.4
286.7,662.4 284.8,662.4 282.9,662.4 281.0,662.4 279.1,662.4 277.3,662.4 275.4,662.4 273.5,662.4 271.6,662.4 269.7,662.4 267.8,662.4 265.9,662.4 264.1,662.4 262.2,662.4 260.3,662.4 258.4,662.4
256.5,662.4 254.6,662.4 252.8,662.4 250.9,662.4 249.0,662.4 247.1,662.4 245.2,662.4 243.3,662.4 241.5,662.4 239.6,662.4 237.7,662.4 235.8,662.4 233.9,662.4 232.0,662.4 230.1,662.4 228.3,662.4
226.4,662.4 224.5,662.4 222.6,662.4 220.7,662.4 218.8,662.4 217.0,662.4 215.1,662.4 213.2,662.4 211.3,662.4 209.4,662.4 207.5,662.4 205.7,662.4 203.8,662.4 201.9,662.4 200.0,662.4 198.1,662.4
196.2,662.4 194.4,662.4 192.5,662.4 190.6,662.4 188.7,662.4 186.8,662.4 184.9,662.4 183.0,662.4 181.2,662.4 179.3,662.4 177.4,662.4 175.5,662.4 173.6,662.4 171.7,662.4 169.9,662.4 168.0,662.4
166.1,662.4 164.2,662.4 162.3,662.4 160.4,662.4 158.6,662.4 156.7,662.4 154.8,662.4 152.9,662.4 151.0,662.4 149.1,662.4 147.2,662.4 145.4,662.4 143.5,662.4 141.6,662.4 139.7,662.4 137.8,662.4
135.9,662.4 134.1,662.4 132.2,662.4 130.3,662.4 128.4,662.4 126.5,662.4 124.6,662.4 122.8,662.4 '/>
	</g>
</g>
	</g>
	<g id="gnuplot_plot_4" ><title>New Mean</title>
<g fill="none" color="white" stroke="rgb( 31, 120, 180)" stroke-width="2.00" stroke-linecap="butt" stroke-linejoin="miter">
</g>
<g fill="none" color="black" stroke="currentColor" stroke-width="2.00" stroke-linecap="butt" stroke-linejoin="miter">
	<g transform="translate(1196.9,121.0)" stroke="none" fill="black" font-family="Helvetica" font-size="12.00"  text-anchor="start">
		<text><tspan font-family="Helvetica" >New Mean</tspan></text>
	</g>
</g>
<g fill="none" color="black" stroke="currentColor" stroke-width="2.00" stroke-linecap="butt" stroke-linejoin="miter">
	<path stroke='rgb( 31, 120, 180)'  d='M1146.4,117.1 L1188.6,117.1 M293.8,662.4 L293.8,180.9  '/></g>
	</g>
<g fill="none" color="black" stroke="currentColor" stroke-width="2.00" stroke-linecap="butt" stroke-linejoin="miter">
</g>
<g fill="none" color="black" stroke="black" stroke-width="1.00" stroke-linecap="butt" stroke-linejoin="miter">
</g>
<g fill="none" color="black" stroke="currentColor" stroke-width="1.00" stroke-linecap="butt" stroke-linejoin="miter">
	<path stroke='black'  d='M71.9,54.1 L71.9,662.4 L1121.5,662.4 L1121.5,54.1 L71.9,54.1 Z  '/></g>
<g fill="none" color="black" stroke="currentColor" stroke-width="1.00" stroke-linecap="butt" stroke-linejoin="miter">
</g>
</g>
</svg>

