<?xml version="1.0" encoding="utf-8"  standalone="no"?>
<svg 
 viewBox="0 0 1280 720"
 xmlns="http://www.w3.org/2000/svg"
 xmlns:xlink="http://www.w3.org/1999/xlink"
>

<title>Gnuplot</title>
<desc>Produced by GNUPLOT 5.2 patchlevel 6 </desc>

<g id="gnuplot_canvas">

<rect x="0" y="0" width="1280" height="720" fill="none"/>
<defs>

	<circle id='gpDot' r='0.5' stroke-width='0.5' stroke='currentColor'/>
	<path id='gpPt0' stroke-width='0.222' stroke='currentColor' d='M-1,0 h2 M0,-1 v2'/>
	<path id='gpPt1' stroke-width='0.222' stroke='currentColor' d='M-1,-1 L1,1 M1,-1 L-1,1'/>
	<path id='gpPt2' stroke-width='0.222' stroke='currentColor' d='M-1,0 L1,0 M0,-1 L0,1 M-1,-1 L1,1 M-1,1 L1,-1'/>
	<rect id='gpPt3' stroke-width='0.222' stroke='currentColor' x='-1' y='-1' width='2' height='2'/>
	<rect id='gpPt4' stroke-width='0.222' stroke='currentColor' fill='currentColor' x='-1' y='-1' width='2' height='2'/>
	<circle id='gpPt5' stroke-width='0.222' stroke='currentColor' cx='0' cy='0' r='1'/>
	<use xlink:href='#gpPt5' id='gpPt6' fill='currentColor' stroke='none'/>
	<path id='gpPt7' stroke-width='0.222' stroke='currentColor' d='M0,-1.33 L-1.33,0.67 L1.33,0.67 z'/>
	<use xlink:href='#gpPt7' id='gpPt8' fill='currentColor' stroke='none'/>
	<use xlink:href='#gpPt7' id='gpPt9' stroke='currentColor' transform='rotate(180)'/>
	<use xlink:href='#gpPt9' id='gpPt10' fill='currentColor' stroke='none'/>
	<use xlink:href='#gpPt3' id='gpPt11' stroke='currentColor' transform='rotate(45)'/>
	<use xlink:href='#gpPt11' id='gpPt12' fill='currentColor' stroke='none'/>
	<path id='gpPt13' stroke-width='0.222' stroke='currentColor' d='M0,1.330 L1.265,0.411 L0.782,-1.067 L-0.782,-1.076 L-1.265,0.411 z'/>
	<use xlink:href='#gpPt13' id='gpPt14' fill='currentColor' stroke='none'/>
	<filter id='textbox' filterUnits='objectBoundingBox' x='0' y='0' height='1' width='1'>
	  <feFlood flood-color='white' flood-opacity='1' result='bgnd'/>
	  <feComposite in='SourceGraphic' in2='bgnd' operator='atop'/>
	</filter>
	<filter id='greybox' filterUnits='objectBoundingBox' x='0' y='0' height='1' width='1'>
	  <feFlood flood-color='lightgrey' flood-opacity='1' result='grey'/>
	  <feComposite in='SourceGraphic' in2='grey' operator='atop'/>
	</filter>
</defs>
<g fill="none" color="white" stroke="currentColor" stroke-width="1.00" stroke-linecap="butt" stroke-linejoin="miter">
</g>
<g fill="none" color="black" stroke="currentColor" stroke-width="1.00" stroke-linecap="butt" stroke-linejoin="miter">
	<path stroke='black'  d='M63.6,662.4 L72.6,662.4  '/>	<g transform="translate(55.3,666.3)" stroke="none" fill="black" font-family="Helvetica" font-size="12.00"  text-anchor="end">
		<text><tspan font-family="Helvetica" > 0</tspan></text>
	</g>
</g>
<g fill="none" color="black" stroke="currentColor" stroke-width="1.00" stroke-linecap="butt" stroke-linejoin="miter">
	<path stroke='black'  d='M63.6,575.5 L72.6,575.5  '/>	<g transform="translate(55.3,579.4)" stroke="none" fill="black" font-family="Helvetica" font-size="12.00"  text-anchor="end">
		<text><tspan font-family="Helvetica" > 10</tspan></text>
	</g>
</g>
<g fill="none" color="black" stroke="currentColor" stroke-width="1.00" stroke-linecap="butt" stroke-linejoin="miter">
	<path stroke='black'  d='M63.6,488.6 L72.6,488.6  '/>	<g transform="translate(55.3,492.5)" stroke="none" fill="black" font-family="Helvetica" font-size="12.00"  text-anchor="end">
		<text><tspan font-family="Helvetica" > 20</tspan></text>
	</g>
</g>
<g fill="none" color="black" stroke="currentColor" stroke-width="1.00" stroke-linecap="butt" stroke-linejoin="miter">
	<path stroke='black'  d='M63.6,401.7 L72.6,401.7  '/>	<g transform="translate(55.3,405.6)" stroke="none" fill="black" font-family="Helvetica" font-size="12.00"  text-anchor="end">
		<text><tspan font-family="Helvetica" > 30</tspan></text>
	</g>
</g>
<g fill="none" color="black" stroke="currentColor" stroke-width="1.00" stroke-linecap="butt" stroke-linejoin="miter">
	<path stroke='black'  d='M63.6,314.8 L72.6,314.8  '/>	<g transform="translate(55.3,318.7)" stroke="none" fill="black" font-family="Helvetica" font-size="12.00"  text-anchor="end">
		<text><tspan font-family="Helvetica" > 40</tspan></text>
	</g>
</g>
<g fill="none" color="black" stroke="currentColor" stroke-width="1.00" stroke-linecap="butt" stroke-linejoin="miter">
	<path stroke='black'  d='M63.6,227.9 L72.6,227.9  '/>	<g transform="translate(55.3,231.8)" stroke="none" fill="black" font-family="Helvetica" font-size="12.00"  text-anchor="end">
		<text><tspan font-family="Helvetica" > 50</tspan></text>
	</g>
</g>
<g fill="none" color="black" stroke="currentColor" stroke-width="1.00" stroke-linecap="butt" stroke-linejoin="miter">
	<path stroke='black'  d='M63.6,141.0 L72.6,141.0  '/>	<g transform="translate(55.3,144.9)" stroke="none" fill="black" font-family="Helvetica" font-size="12.00"  text-anchor="end">
		<text><tspan font-family="Helvetica" > 60</tspan></text>
	</g>
</g>
<g fill="none" color="black" stroke="currentColor" stroke-width="1.00" stroke-linecap="butt" stroke-linejoin="miter">
	<path stroke='black'  d='M63.6,54.1 L72.6,54.1  '/>	<g transform="translate(55.3,58.0)" stroke="none" fill="black" font-family="Helvetica" font-size="12.00"  text-anchor="end">
		<text><tspan font-family="Helvetica" > 70</tspan></text>
	</g>
</g>
<g fill="none" color="black" stroke="currentColor" stroke-width="1.00" stroke-linecap="butt" stroke-linejoin="miter">
	<path stroke='black'  d='M125.7,662.4 L125.7,653.4  '/>	<g transform="translate(125.7,684.3)" stroke="none" fill="black" font-family="Helvetica" font-size="12.00"  text-anchor="middle">
		<text><tspan font-family="Helvetica" > 5.07</tspan></text>
	</g>
</g>
<g fill="none" color="black" stroke="currentColor" stroke-width="1.00" stroke-linecap="butt" stroke-linejoin="miter">
	<path stroke='black'  d='M299.1,662.4 L299.1,653.4  '/>	<g transform="translate(299.1,684.3)" stroke="none" fill="black" font-family="Helvetica" font-size="12.00"  text-anchor="middle">
		<text><tspan font-family="Helvetica" > 5.075</tspan></text>
	</g>
</g>
<g fill="none" color="black" stroke="currentColor" stroke-width="1.00" stroke-linecap="butt" stroke-linejoin="miter">
	<path stroke='black'  d='M472.6,662.4 L472.6,653.4  '/>	<g transform="translate(472.6,684.3)" stroke="none" fill="black" font-family="Helvetica" font-size="12.00"  text-anchor="middle">
		<text><tspan font-family="Helvetica" > 5.08</tspan></text>
	</g>
</g>
<g fill="none" color="black" stroke="currentColor" stroke-width="1.00" stroke-linecap="butt" stroke-linejoin="miter">
	<path stroke='black'  d='M646.0,662.4 L646.0,653.4  '/>	<g transform="translate(646.0,684.3)" stroke="none" fill="black" font-family="Helvetica" font-size="12.00"  text-anchor="middle">
		<text><tspan font-family="Helvetica" > 5.085</tspan></text>
	</g>
</g>
<g fill="none" color="black" stroke="currentColor" stroke-width="1.00" stroke-linecap="butt" stroke-linejoin="miter">
	<path stroke='black'  d='M819.4,662.4 L819.4,653.4  '/>	<g transform="translate(819.4,684.3)" stroke="none" fill="black" font-family="Helvetica" font-size="12.00"  text-anchor="middle">
		<text><tspan font-family="Helvetica" > 5.09</tspan></text>
	</g>
</g>
<g fill="none" color="black" stroke="currentColor" stroke-width="1.00" stroke-linecap="butt" stroke-linejoin="miter">
	<path stroke='black'  d='M992.9,662.4 L992.9,653.4  '/>	<g transform="translate(992.9,684.3)" stroke="none" fill="black" font-family="Helvetica" font-size="12.00"  text-anchor="middle">
		<text><tspan font-family="Helvetica" > 5.095</tspan></text>
	</g>
</g>
<g fill="none" color="black" stroke="currentColor" stroke-width="1.00" stroke-linecap="butt" stroke-linejoin="miter">
</g>
<g fill="none" color="black" stroke="currentColor" stroke-width="1.00" stroke-linecap="butt" stroke-linejoin="miter">
	<path stroke='black'  d='M63.6,54.1 L63.6,662.4 L1013.6,662.4 L1013.6,54.1 L63.6,54.1 Z  '/></g>
<g fill="none" color="black" stroke="currentColor" stroke-width="1.00" stroke-linecap="butt" stroke-linejoin="miter">
	<g transform="translate(16.3,358.3) rotate(270)" stroke="none" fill="black" font-family="Helvetica" font-size="12.00"  text-anchor="middle">
		<text><tspan font-family="Helvetica" >Density (a.u.)</tspan></text>
	</g>
</g>
<g fill="none" color="black" stroke="currentColor" stroke-width="1.00" stroke-linecap="butt" stroke-linejoin="miter">
	<g transform="translate(538.6,711.3)" stroke="none" fill="black" font-family="Helvetica" font-size="12.00"  text-anchor="middle">
		<text><tspan font-family="Helvetica" >Average time (ms)</tspan></text>
	</g>
</g>
<g fill="none" color="black" stroke="currentColor" stroke-width="1.00" stroke-linecap="butt" stroke-linejoin="miter">
	<g transform="translate(538.6,31.0)" stroke="none" fill="black" font-family="Helvetica" font-size="12.00"  text-anchor="middle">
		<text><tspan font-family="Helvetica" >snapshot_restore_with_dense/Sparse: Entire region + process_vm_writev/1000: mean</tspan></text>
	</g>
</g>
	<g id="gnuplot_plot_1" ><title>Bootstrap distribution</title>
<g fill="none" color="white" stroke="black" stroke-width="2.00" stroke-linecap="butt" stroke-linejoin="miter">
</g>
<g fill="none" color="black" stroke="currentColor" stroke-width="2.00" stroke-linecap="butt" stroke-linejoin="miter">
	<g transform="translate(1089.0,67.0)" stroke="none" fill="black" font-family="Helvetica" font-size="12.00"  text-anchor="start">
		<text><tspan font-family="Helvetica" >Bootstrap distribution</tspan></text>
	</g>
</g>
<g fill="none" color="black" stroke="currentColor" stroke-width="2.00" stroke-linecap="butt" stroke-linejoin="miter">
	<path stroke='rgb( 31, 120, 180)'  d='M1038.5,63.1 L1080.7,63.1 M63.6,628.4 L65.5,627.0 L67.4,625.6 L69.3,624.2 L71.2,622.7 L73.1,621.2
		L75.0,619.7 L76.9,618.1 L78.8,616.5 L80.7,614.9 L82.6,613.2 L84.5,611.5 L86.4,609.7 L88.3,607.9
		L90.3,606.1 L92.2,604.2 L94.1,602.3 L96.0,600.3 L97.9,598.4 L99.8,596.3 L101.7,594.3 L103.6,592.2
		L105.5,590.1 L107.4,587.9 L109.3,585.8 L111.2,583.6 L113.1,581.3 L115.0,579.1 L116.9,576.8 L118.8,574.5
		L120.7,572.1 L122.6,569.7 L124.5,567.3 L126.4,564.9 L128.3,562.4 L130.2,559.9 L132.1,557.4 L134.0,554.8
		L135.9,552.2 L137.8,549.5 L139.8,546.8 L141.7,544.1 L143.6,541.2 L145.5,538.4 L147.4,535.5 L149.3,532.5
		L151.2,529.5 L153.1,526.4 L155.0,523.2 L156.9,520.0 L158.8,516.7 L160.7,513.4 L162.6,510.0 L164.5,506.6
		L166.4,503.1 L168.3,499.5 L170.2,495.9 L172.1,492.3 L174.0,488.6 L175.9,484.8 L177.8,481.1 L179.7,477.3
		L181.6,473.4 L183.5,469.6 L185.4,465.7 L187.3,461.8 L189.3,457.9 L191.2,454.0 L193.1,450.0 L195.0,446.1
		L196.9,442.1 L198.8,438.1 L200.7,434.1 L202.6,430.1 L204.5,426.1 L206.4,422.1 L208.3,418.1 L210.2,414.0
		L212.1,410.0 L214.0,405.9 L215.9,401.8 L217.8,397.8 L219.7,393.7 L221.6,389.6 L223.5,385.5 L225.4,381.3
		L227.3,377.2 L229.2,373.1 L231.1,368.9 L233.0,364.8 L234.9,360.6 L236.8,356.5 L238.8,352.3 L240.7,348.2
		L242.6,344.0 L244.5,339.9 L246.4,335.7 L248.3,331.5 L250.2,327.4 L252.1,323.2 L254.0,319.0 L255.9,314.9
		L257.8,310.7 L259.7,306.5 L261.6,302.3 L263.5,298.1 L265.4,293.8 L267.3,289.6 L269.2,285.3 L271.1,281.0
		L273.0,276.7 L274.9,272.3 L276.8,268.0 L278.7,263.6 L280.6,259.2 L282.5,254.8 L284.4,250.4 L286.3,245.9
		L288.2,241.5 L290.2,237.1 L292.1,232.8 L294.0,228.4 L295.9,224.2 L297.8,219.9 L299.7,215.8 L301.6,211.7
		L303.5,207.7 L305.4,203.7 L307.3,199.9 L309.2,196.2 L311.1,192.6 L313.0,189.1 L314.9,185.8 L316.8,182.5
		L318.7,179.4 L320.6,176.3 L322.5,173.4 L324.4,170.6 L326.3,167.8 L328.2,165.1 L330.1,162.6 L332.0,160.0
		L333.9,157.6 L335.8,155.1 L337.7,152.8 L339.7,150.4 L341.6,148.1 L343.5,145.8 L345.4,143.5 L347.3,141.2
		L349.2,138.8 L351.1,136.5 L353.0,134.2 L354.9,131.9 L356.8,129.6 L358.7,127.2 L360.6,124.9 L362.5,122.6
		L364.4,120.3 L366.3,117.9 L368.2,115.7 L370.1,113.4 L372.0,111.2 L373.9,109.0 L375.8,106.8 L377.7,104.7
		L379.6,102.6 L381.5,100.6 L383.4,98.6 L385.3,96.7 L387.2,94.8 L389.2,93.0 L391.1,91.2 L393.0,89.5
		L394.9,87.8 L396.8,86.2 L398.7,84.7 L400.6,83.1 L402.5,81.6 L404.4,80.2 L406.3,78.8 L408.2,77.4
		L410.1,76.1 L412.0,74.8 L413.9,73.6 L415.8,72.4 L417.7,71.3 L419.6,70.2 L421.5,69.2 L423.4,68.3
		L425.3,67.4 L427.2,66.6 L429.1,65.9 L431.0,65.3 L432.9,64.7 L434.8,64.2 L436.7,63.8 L438.7,63.5
		L440.6,63.3 L442.5,63.2 L444.4,63.1 L446.3,63.1 L448.2,63.2 L450.1,63.4 L452.0,63.6 L453.9,63.9
		L455.8,64.3 L457.7,64.7 L459.6,65.1 L461.5,65.6 L463.4,66.1 L465.3,66.7 L467.2,67.3 L469.1,67.9
		L471.0,68.6 L472.9,69.2 L474.8,69.9 L476.7,70.6 L478.6,71.3 L480.5,72.1 L482.4,72.8 L484.3,73.6
		L486.2,74.3 L488.1,75.1 L490.1,75.9 L492.0,76.7 L493.9,77.5 L495.8,78.4 L497.7,79.2 L499.6,80.1
		L501.5,81.0 L503.4,82.0 L505.3,82.9 L507.2,84.0 L509.1,85.0 L511.0,86.2 L512.9,87.3 L514.8,88.6
		L516.7,89.9 L518.6,91.3 L520.5,92.7 L522.4,94.2 L524.3,95.8 L526.2,97.4 L528.1,99.1 L530.0,100.9
		L531.9,102.7 L533.8,104.6 L535.7,106.6 L537.6,108.6 L539.6,110.6 L541.5,112.7 L543.4,114.8 L545.3,116.9
		L547.2,119.1 L549.1,121.3 L551.0,123.5 L552.9,125.7 L554.8,127.9 L556.7,130.2 L558.6,132.5 L560.5,134.8
		L562.4,137.1 L564.3,139.5 L566.2,141.8 L568.1,144.2 L570.0,146.7 L571.9,149.2 L573.8,151.7 L575.7,154.3
		L577.6,156.9 L579.5,159.6 L581.4,162.4 L583.3,165.2 L585.2,168.0 L587.1,170.9 L589.1,173.8 L591.0,176.8
		L592.9,179.8 L594.8,182.8 L596.7,185.9 L598.6,189.0 L600.5,192.1 L602.4,195.2 L604.3,198.3 L606.2,201.4
		L608.1,204.5 L610.0,207.5 L611.9,210.6 L613.8,213.6 L615.7,216.6 L617.6,219.6 L619.5,222.6 L621.4,225.5
		L623.3,228.4 L625.2,231.3 L627.1,234.2 L629.0,237.0 L630.9,239.9 L632.8,242.7 L634.7,245.6 L636.6,248.4
		L638.5,251.3 L640.5,254.2 L642.4,257.1 L644.3,260.0 L646.2,263.0 L648.1,266.0 L650.0,269.0 L651.9,272.0
		L653.8,275.1 L655.7,278.3 L657.6,281.4 L659.5,284.6 L661.4,287.8 L663.3,291.1 L665.2,294.3 L667.1,297.6
		L669.0,300.9 L670.9,304.2 L672.8,307.5 L674.7,310.7 L676.6,314.0 L678.5,317.3 L680.4,320.5 L682.3,323.7
		L684.2,326.9 L686.1,330.0 L688.0,333.1 L690.0,336.2 L691.9,339.3 L693.8,342.3 L695.7,345.3 L697.6,348.2
		L699.5,351.1 L701.4,354.0 L703.3,356.8 L705.2,359.6 L707.1,362.3 L709.0,365.0 L710.9,367.6 L712.8,370.2
		L714.7,372.8 L716.6,375.3 L718.5,377.8 L720.4,380.2 L722.3,382.6 L724.2,385.0 L726.1,387.3 L728.0,389.7
		L729.9,392.0 L731.8,394.3 L733.7,396.5 L735.6,398.8 L737.5,401.1 L739.5,403.4 L741.4,405.7 L743.3,408.0
		L745.2,410.3 L747.1,412.6 L749.0,415.0 L750.9,417.4 L752.8,419.8 L754.7,422.3 L756.6,424.7 L758.5,427.2
		L760.4,429.7 L762.3,432.3 L764.2,434.8 L766.1,437.4 L768.0,440.0 L769.9,442.6 L771.8,445.2 L773.7,447.8
		L775.6,450.4 L777.5,453.0 L779.4,455.6 L781.3,458.1 L783.2,460.7 L785.1,463.2 L787.0,465.8 L789.0,468.2
		L790.9,470.7 L792.8,473.2 L794.7,475.6 L796.6,478.0 L798.5,480.3 L800.4,482.7 L802.3,485.0 L804.2,487.3
		L806.1,489.5 L808.0,491.8 L809.9,494.0 L811.8,496.1 L813.7,498.3 L815.6,500.5 L817.5,502.6 L819.4,504.7
		L821.3,506.8 L823.2,508.9 L825.1,511.0 L827.0,513.0 L828.9,515.1 L830.8,517.2 L832.7,519.2 L834.6,521.3
		L836.5,523.4 L838.4,525.5 L840.4,527.6 L842.3,529.6 L844.2,531.7 L846.1,533.8 L848.0,535.8 L849.9,537.8
		L851.8,539.9 L853.7,541.9 L855.6,543.8 L857.5,545.7 L859.4,547.6 L861.3,549.5 L863.2,551.3 L865.1,553.1
		L867.0,554.8 L868.9,556.4 L870.8,558.1 L872.7,559.6 L874.6,561.2 L876.5,562.7 L878.4,564.1 L880.3,565.5
		L882.2,566.9 L884.1,568.2 L886.0,569.5 L887.9,570.8 L889.9,572.0 L891.8,573.2 L893.7,574.4 L895.6,575.6
		L897.5,576.7 L899.4,577.9 L901.3,579.0 L903.2,580.0 L905.1,581.1 L907.0,582.1 L908.9,583.1 L910.8,584.1
		L912.7,585.1 L914.6,586.1 L916.5,587.1 L918.4,588.0 L920.3,589.0 L922.2,589.9 L924.1,590.9 L926.0,591.8
		L927.9,592.8 L929.8,593.7 L931.7,594.7 L933.6,595.6 L935.5,596.6 L937.4,597.6 L939.4,598.5 L941.3,599.5
		L943.2,600.5 L945.1,601.5 L947.0,602.5 L948.9,603.5 L950.8,604.5 L952.7,605.5 L954.6,606.5 L956.5,607.5
		L958.4,608.5 L960.3,609.5 L962.2,610.5 L964.1,611.4 L966.0,612.4 L967.9,613.3 L969.8,614.3 L971.7,615.2
		L973.6,616.1 L975.5,616.9 L977.4,617.8 L979.3,618.6 L981.2,619.4 L983.1,620.2 L985.0,621.0 L986.9,621.8
		L988.9,622.5 L990.8,623.2 L992.7,623.9 L994.6,624.6 L996.5,625.3 L998.4,625.9 L1000.3,626.5 L1002.2,627.1
		L1004.1,627.6 L1006.0,628.2 L1007.9,628.7 L1009.8,629.2 L1011.7,629.7 L1013.6,630.1  '/></g>
	</g>
	<g id="gnuplot_plot_2" ><title>Confidence interval</title>
<g fill="none" color="white" stroke="rgb( 31, 120, 180)" stroke-width="1.00" stroke-linecap="butt" stroke-linejoin="miter">
</g>
<g fill="none" color="black" stroke="currentColor" stroke-width="1.00" stroke-linecap="butt" stroke-linejoin="miter">
	<g transform="translate(1089.0,85.0)" stroke="none" fill="black" font-family="Helvetica" font-size="12.00"  text-anchor="start">
		<text><tspan font-family="Helvetica" >Confidence interval</tspan></text>
	</g>
</g>
<g fill="none" color="black" stroke="currentColor" stroke-width="1.00" stroke-linecap="butt" stroke-linejoin="miter">
	<g stroke='none' shape-rendering='crispEdges'>
		<polygon fill = 'rgb( 31, 120, 180)' fill-opacity = '0.250000' points = '1038.5,85.6 1080.7,85.6 1080.7,76.6 1038.5,76.6 '/>
		<polygon fill = 'rgb( 31, 120, 180)' fill-opacity = '0.250000' points = '151.2,529.5 153.1,526.4 155.0,523.2 156.9,520.0 158.8,516.7 160.7,513.4 162.6,510.0 164.5,506.6 166.4,503.1 168.3,499.5 170.2,495.9 172.1,492.3 174.0,488.6 175.9,484.8 177.8,481.1 179.7,477.3
181.6,473.4 183.5,469.6 185.4,465.7 187.3,461.8 189.3,457.9 191.2,454.0 193.1,450.0 195.0,446.1 196.9,442.1 198.8,438.1 200.7,434.1 202.6,430.1 204.5,426.1 206.4,422.1 208.3,418.1 210.2,414.0
212.1,410.0 214.0,405.9 215.9,401.8 217.8,397.8 219.7,393.7 221.6,389.6 223.5,385.5 225.4,381.3 227.3,377.2 229.2,373.1 231.1,368.9 233.0,364.8 234.9,360.6 236.8,356.5 238.8,352.3 240.7,348.2
242.6,344.0 244.5,339.9 246.4,335.7 248.3,331.5 250.2,327.4 252.1,323.2 254.0,319.0 255.9,314.9 257.8,310.7 259.7,306.5 261.6,302.3 263.5,298.1 265.4,293.8 267.3,289.6 269.2,285.3 271.1,281.0
273.0,276.7 274.9,272.3 276.8,268.0 278.7,263.6 280.6,259.2 282.5,254.8 284.4,250.4 286.3,245.9 288.2,241.5 290.2,237.1 292.1,232.8 294.0,228.4 295.9,224.2 297.8,219.9 299.7,215.8 301.6,211.7
303.5,207.7 305.4,203.7 307.3,199.9 309.2,196.2 311.1,192.6 313.0,189.1 314.9,185.8 316.8,182.5 318.7,179.4 320.6,176.3 322.5,173.4 324.4,170.6 326.3,167.8 328.2,165.1 330.1,162.6 332.0,160.0
333.9,157.6 335.8,155.1 337.7,152.8 339.7,150.4 341.6,148.1 343.5,145.8 345.4,143.5 347.3,141.2 349.2,138.8 351.1,136.5 353.0,134.2 354.9,131.9 356.8,129.6 358.7,127.2 360.6,124.9 362.5,122.6
364.4,120.3 366.3,117.9 368.2,115.7 370.1,113.4 372.0,111.2 373.9,109.0 375.8,106.8 377.7,104.7 379.6,102.6 381.5,100.6 383.4,98.6 385.3,96.7 387.2,94.8 389.2,93.0 391.1,91.2 393.0,89.5
394.9,87.8 396.8,86.2 398.7,84.7 400.6,83.1 402.5,81.6 404.4,80.2 406.3,78.8 408.2,77.4 410.1,76.1 412.0,74.8 413.9,73.6 415.8,72.4 417.7,71.3 419.6,70.2 421.5,69.2 423.4,68.3
425.3,67.4 427.2,66.6 429.1,65.9 431.0,65.3 432.9,64.7 434.8,64.2 436.7,63.8 438.7,63.5 440.6,63.3 442.5,63.2 444.4,63.1 446.3,63.1 448.2,63.2 450.1,63.4 452.0,63.6 453.9,63.9
455.8,64.3 457.7,64.7 459.6,65.1 461.5,65.6 463.4,66.1 465.3,66.7 467.2,67.3 469.1,67.9 471.0,68.6 472.9,69.2 474.8,69.9 476.7,70.6 478.6,71.3 480.5,72.1 482.4,72.8 484.3,73.6
486.2,74.3 488.1,75.1 490.1,75.9 492.0,76.7 493.9,77.5 495.8,78.4 497.7,79.2 499.6,80.1 501.5,81.0 503.4,82.0 505.3,82.9 507.2,84.0 509.1,85.0 511.0,86.2 512.9,87.3 514.8,88.6
516.7,89.9 518.6,91.3 520.5,92.7 522.4,94.2 524.3,95.8 526.2,97.4 528.1,99.1 530.0,100.9 531.9,102.7 533.8,104.6 535.7,106.6 537.6,108.6 539.6,110.6 541.5,112.7 543.4,114.8 545.3,116.9
547.2,119.1 549.1,121.3 551.0,123.5 552.9,125.7 554.8,127.9 556.7,130.2 558.6,132.5 560.5,134.8 562.4,137.1 564.3,139.5 566.2,141.8 568.1,144.2 570.0,146.7 571.9,149.2 573.8,151.7 575.7,154.3
577.6,156.9 579.5,159.6 581.4,162.4 583.3,165.2 585.2,168.0 587.1,170.9 589.1,173.8 591.0,176.8 592.9,179.8 594.8,182.8 596.7,185.9 598.6,189.0 600.5,192.1 602.4,195.2 604.3,198.3 606.2,201.4
608.1,204.5 610.0,207.5 611.9,210.6 613.8,213.6 615.7,216.6 617.6,219.6 619.5,222.6 621.4,225.5 623.3,228.4 625.2,231.3 627.1,234.2 629.0,237.0 630.9,239.9 632.8,242.7 634.7,245.6 636.6,248.4
638.5,251.3 640.5,254.2 642.4,257.1 644.3,260.0 646.2,263.0 648.1,266.0 650.0,269.0 651.9,272.0 653.8,275.1 655.7,278.3 657.6,281.4 659.5,284.6 661.4,287.8 663.3,291.1 665.2,294.3 667.1,297.6
669.0,300.9 670.9,304.2 672.8,307.5 674.7,310.7 676.6,314.0 678.5,317.3 680.4,320.5 682.3,323.7 684.2,326.9 686.1,330.0 688.0,333.1 690.0,336.2 691.9,339.3 693.8,342.3 695.7,345.3 697.6,348.2
699.5,351.1 701.4,354.0 703.3,356.8 705.2,359.6 707.1,362.3 709.0,365.0 710.9,367.6 712.8,370.2 714.7,372.8 716.6,375.3 718.5,377.8 720.4,380.2 722.3,382.6 724.2,385.0 726.1,387.3 728.0,389.7
729.9,392.0 731.8,394.3 733.7,396.5 735.6,398.8 737.5,401.1 739.5,403.4 741.4,405.7 743.3,408.0 745.2,410.3 747.1,412.6 749.0,415.0 750.9,417.4 752.8,419.8 754.7,422.3 756.6,424.7 758.5,427.2
760.4,429.7 762.3,432.3 764.2,434.8 766.1,437.4 768.0,440.0 769.9,442.6 771.8,445.2 773.7,447.8 775.6,450.4 777.5,453.0 779.4,455.6 781.3,458.1 783.2,460.7 785.1,463.2 787.0,465.8 789.0,468.2
790.9,470.7 792.8,473.2 794.7,475.6 796.6,478.0 798.5,480.3 800.4,482.7 802.3,485.0 804.2,487.3 806.1,489.5 808.0,491.8 809.9,494.0 811.8,496.1 813.7,498.3 815.6,500.5 817.5,502.6 819.4,504.7
821.3,506.8 823.2,508.9 825.1,511.0 827.0,513.0 828.9,515.1 830.8,517.2 832.7,519.2 834.6,521.3 836.5,523.4 838.4,525.5 840.4,527.6 842.3,529.6 844.2,531.7 846.1,533.8 848.0,535.8 849.9,537.8
851.8,539.9 853.7,541.9 855.6,543.8 857.5,545.7 859.4,547.6 861.3,549.5 863.2,551.3 865.1,553.1 867.0,554.8 868.9,556.4 870.8,558.1 872.7,559.6 874.6,561.2 876.5,562.7 878.4,564.1 880.3,565.5
882.2,566.9 884.1,568.2 886.0,569.5 887.9,570.8 889.9,572.0 891.8,573.2 893.7,574.4 895.6,575.6 897.5,576.7 899.4,577.9 901.3,579.0 903.2,580.0 905.1,581.1 907.0,582.1 908.9,583.1 910.8,584.1
912.7,585.1 914.6,586.1 916.5,587.1 918.4,588.0 920.3,589.0 922.2,589.9 924.1,590.9 924.1,662.4 922.2,662.4 920.3,662.4 918.4,662.4 916.5,662.4 914.6,662.4 912.7,662.4 910.8,662.4 908.9,662.4
907.0,662.4 905.1,662.4 903.2,662.4 901.3,662.4 899.4,662.4 897.5,662.4 895.6,662.4 893.7,662.4 891.8,662.4 889.9,662.4 887.9,662.4 886.0,662.4 884.1,662.4 882.2,662.4 880.3,662.4 878.4,662.4
876.5,662.4 874.6,662.4 872.7,662.4 870.8,662.4 868.9,662.4 867.0,662.4 865.1,662.4 863.2,662.4 861.3,662.4 859.4,662.4 857.5,662.4 855.6,662.4 853.7,662.4 851.8,662.4 849.9,662.4 848.0,662.4
846.1,662.4 844.2,662.4 842.3,662.4 840.4,662.4 838.4,662.4 836.5,662.4 834.6,662.4 832.7,662.4 830.8,662.4 828.9,662.4 827.0,662.4 825.1,662.4 823.2,662.4 821.3,662.4 819.4,662.4 817.5,662.4
815.6,662.4 813.7,662.4 811.8,662.4 809.9,662.4 808.0,662.4 806.1,662.4 804.2,662.4 802.3,662.4 800.4,662.4 798.5,662.4 796.6,662.4 794.7,662.4 792.8,662.4 790.9,662.4 789.0,662.4 787.0,662.4
785.1,662.4 783.2,662.4 781.3,662.4 779.4,662.4 777.5,662.4 775.6,662.4 773.7,662.4 771.8,662.4 769.9,662.4 768.0,662.4 766.1,662.4 764.2,662.4 762.3,662.4 760.4,662.4 758.5,662.4 756.6,662.4
754.7,662.4 752.8,662.4 750.9,662.4 749.0,662.4 747.1,662.4 745.2,662.4 743.3,662.4 741.4,662.4 739.5,662.4 737.5,662.4 735.6,662.4 733.7,662.4 731.8,662.4 729.9,662.4 728.0,662.4 726.1,662.4
724.2,662.4 722.3,662.4 720.4,662.4 718.5,662.4 716.6,662.4 714.7,662.4 712.8,662.4 710.9,662.4 709.0,662.4 707.1,662.4 705.2,662.4 703.3,662.4 701.4,662.4 699.5,662.4 697.6,662.4 695.7,662.4
693.8,662.4 691.9,662.4 690.0,662.4 688.0,662.4 686.1,662.4 684.2,662.4 682.3,662.4 680.4,662.4 678.5,662.4 676.6,662.4 674.7,662.4 672.8,662.4 670.9,662.4 669.0,662.4 667.1,662.4 665.2,662.4
663.3,662.4 661.4,662.4 659.5,662.4 657.6,662.4 655.7,662.4 653.8,662.4 651.9,662.4 650.0,662.4 648.1,662.4 646.2,662.4 644.3,662.4 642.4,662.4 640.5,662.4 638.5,662.4 636.6,662.4 634.7,662.4
632.8,662.4 630.9,662.4 629.0,662.4 627.1,662.4 625.2,662.4 623.3,662.4 621.4,662.4 619.5,662.4 617.6,662.4 615.7,662.4 613.8,662.4 611.9,662.4 610.0,662.4 608.1,662.4 606.2,662.4 604.3,662.4
602.4,662.4 600.5,662.4 598.6,662.4 596.7,662.4 594.8,662.4 592.9,662.4 591.0,662.4 589.1,662.4 587.1,662.4 585.2,662.4 583.3,662.4 581.4,662.4 579.5,662.4 577.6,662.4 575.7,662.4 573.8,662.4
571.9,662.4 570.0,662.4 568.1,662.4 566.2,662.4 564.3,662.4 562.4,662.4 560.5,662.4 558.6,662.4 556.7,662.4 554.8,662.4 552.9,662.4 551.0,662.4 549.1,662.4 547.2,662.4 545.3,662.4 543.4,662.4
541.5,662.4 539.6,662.4 537.6,662.4 535.7,662.4 533.8,662.4 531.9,662.4 530.0,662.4 528.1,662.4 526.2,662.4 524.3,662.4 522.4,662.4 520.5,662.4 518.6,662.4 516.7,662.4 514.8,662.4 512.9,662.4
511.0,662.4 509.1,662.4 507.2,662.4 505.3,662.4 503.4,662.4 501.5,662.4 499.6,662.4 497.7,662.4 495.8,662.4 493.9,662.4 492.0,662.4 490.1,662.4 488.1,662.4 486.2,662.4 484.3,662.4 482.4,662.4
480.5,662.4 478.6,662.4 476.7,662.4 474.8,662.4 472.9,662.4 471.0,662.4 469.1,662.4 467.2,662.4 465.3,662.4 463.4,662.4 461.5,662.4 459.6,662.4 457.7,662.4 455.8,662.4 453.9,662.4 452.0,662.4
450.1,662.4 448.2,662.4 446.3,662.4 444.4,662.4 442.5,662.4 440.6,662.4 438.7,662.4 436.7,662.4 434.8,662.4 432.9,662.4 431.0,662.4 429.1,662.4 427.2,662.4 425.3,662.4 423.4,662.4 421.5,662.4
419.6,662.4 417.7,662.4 415.8,662.4 413.9,662.4 412.0,662.4 410.1,662.4 408.2,662.4 406.3,662.4 404.4,662.4 402.5,662.4 400.6,662.4 398.7,662.4 396.8,662.4 394.9,662.4 393.0,662.4 391.1,662.4
389.2,662.4 387.2,662.4 385.3,662.4 383.4,662.4 381.5,662.4 379.6,662.4 377.7,662.4 375.8,662.4 373.9,662.4 372.0,662.4 370.1,662.4 368.2,662.4 366.3,662.4 364.4,662.4 362.5,662.4 360.6,662.4
358.7,662.4 356.8,662.4 354.9,662.4 353.0,662.4 351.1,662.4 349.2,662.4 347.3,662.4 345.4,662.4 343.5,662.4 341.6,662.4 339.7,662.4 337.7,662.4 335.8,662.4 333.9,662.4 332.0,662.4 330.1,662.4
328.2,662.4 326.3,662.4 324.4,662.4 322.5,662.4 320.6,662.4 318.7,662.4 316.8,662.4 314.9,662.4 313.0,662.4 311.1,662.4 309.2,662.4 307.3,662.4 305.4,662.4 303.5,662.4 301.6,662.4 299.7,662.4
297.8,662.4 295.9,662.4 294.0,662.4 292.1,662.4 290.2,662.4 288.2,662.4 286.3,662.4 284.4,662.4 282.5,662.4 280.6,662.4 278.7,662.4 276.8,662.4 274.9,662.4 273.0,662.4 271.1,662.4 269.2,662.4
267.3,662.4 265.4,662.4 263.5,662.4 261.6,662.4 259.7,662.4 257.8,662.4 255.9,662.4 254.0,662.4 252.1,662.4 250.2,662.4 248.3,662.4 246.4,662.4 244.5,662.4 242.6,662.4 240.7,662.4 238.8,662.4
236.8,662.4 234.9,662.4 233.0,662.4 231.1,662.4 229.2,662.4 227.3,662.4 225.4,662.4 223.5,662.4 221.6,662.4 219.7,662.4 217.8,662.4 215.9,662.4 214.0,662.4 212.1,662.4 210.2,662.4 208.3,662.4
206.4,662.4 204.5,662.4 202.6,662.4 200.7,662.4 198.8,662.4 196.9,662.4 195.0,662.4 193.1,662.4 191.2,662.4 189.3,662.4 187.3,662.4 185.4,662.4 183.5,662.4 181.6,662.4 179.7,662.4 177.8,662.4
175.9,662.4 174.0,662.4 172.1,662.4 170.2,662.4 168.3,662.4 166.4,662.4 164.5,662.4 162.6,662.4 160.7,662.4 158.8,662.4 156.9,662.4 155.0,662.4 153.1,662.4 151.2,662.4 '/>
	</g>
</g>
	</g>
	<g id="gnuplot_plot_3" ><title>Point estimate</title>
<g fill="none" color="white" stroke="rgb( 31, 120, 180)" stroke-width="2.00" stroke-linecap="butt" stroke-linejoin="miter">
</g>
<g fill="none" color="black" stroke="currentColor" stroke-width="2.00" stroke-linecap="butt" stroke-linejoin="miter">
	<g transform="translate(1089.0,103.0)" stroke="none" fill="black" font-family="Helvetica" font-size="12.00"  text-anchor="start">
		<text><tspan font-family="Helvetica" >Point estimate</tspan></text>
	</g>
</g>
<g fill="none" color="black" stroke="currentColor" stroke-width="2.00" stroke-linecap="butt" stroke-linejoin="miter">
	<path stroke='rgb( 31, 120, 180)'  d='M1038.5,99.1 L1080.7,99.1 M496.0,662.4 L496.0,78.5  '/></g>
	</g>
<g fill="none" color="black" stroke="currentColor" stroke-width="2.00" stroke-linecap="butt" stroke-linejoin="miter">
</g>
<g fill="none" color="black" stroke="black" stroke-width="1.00" stroke-linecap="butt" stroke-linejoin="miter">
</g>
<g fill="none" color="black" stroke="currentColor" stroke-width="1.00" stroke-linecap="butt" stroke-linejoin="miter">
	<path stroke='black'  d='M63.6,54.1 L63.6,662.4 L1013.6,662.4 L1013.6,54.1 L63.6,54.1 Z  '/></g>
<g fill="none" color="black" stroke="currentColor" stroke-width="1.00" stroke-linecap="butt" stroke-linejoin="miter">
</g>
</g>
</svg>

