<?xml version="1.0" encoding="utf-8"  standalone="no"?>
<svg 
 viewBox="0 0 1280 720"
 xmlns="http://www.w3.org/2000/svg"
 xmlns:xlink="http://www.w3.org/1999/xlink"
>

<title>Gnuplot</title>
<desc>Produced by GNUPLOT 5.2 patchlevel 6 </desc>

<g id="gnuplot_canvas">

<rect x="0" y="0" width="1280" height="720" fill="none"/>
<defs>

	<circle id='gpDot' r='0.5' stroke-width='0.5' stroke='currentColor'/>
	<path id='gpPt0' stroke-width='0.222' stroke='currentColor' d='M-1,0 h2 M0,-1 v2'/>
	<path id='gpPt1' stroke-width='0.222' stroke='currentColor' d='M-1,-1 L1,1 M1,-1 L-1,1'/>
	<path id='gpPt2' stroke-width='0.222' stroke='currentColor' d='M-1,0 L1,0 M0,-1 L0,1 M-1,-1 L1,1 M-1,1 L1,-1'/>
	<rect id='gpPt3' stroke-width='0.222' stroke='currentColor' x='-1' y='-1' width='2' height='2'/>
	<rect id='gpPt4' stroke-width='0.222' stroke='currentColor' fill='currentColor' x='-1' y='-1' width='2' height='2'/>
	<circle id='gpPt5' stroke-width='0.222' stroke='currentColor' cx='0' cy='0' r='1'/>
	<use xlink:href='#gpPt5' id='gpPt6' fill='currentColor' stroke='none'/>
	<path id='gpPt7' stroke-width='0.222' stroke='currentColor' d='M0,-1.33 L-1.33,0.67 L1.33,0.67 z'/>
	<use xlink:href='#gpPt7' id='gpPt8' fill='currentColor' stroke='none'/>
	<use xlink:href='#gpPt7' id='gpPt9' stroke='currentColor' transform='rotate(180)'/>
	<use xlink:href='#gpPt9' id='gpPt10' fill='currentColor' stroke='none'/>
	<use xlink:href='#gpPt3' id='gpPt11' stroke='currentColor' transform='rotate(45)'/>
	<use xlink:href='#gpPt11' id='gpPt12' fill='currentColor' stroke='none'/>
	<path id='gpPt13' stroke-width='0.222' stroke='currentColor' d='M0,1.330 L1.265,0.411 L0.782,-1.067 L-0.782,-1.076 L-1.265,0.411 z'/>
	<use xlink:href='#gpPt13' id='gpPt14' fill='currentColor' stroke='none'/>
	<filter id='textbox' filterUnits='objectBoundingBox' x='0' y='0' height='1' width='1'>
	  <feFlood flood-color='white' flood-opacity='1' result='bgnd'/>
	  <feComposite in='SourceGraphic' in2='bgnd' operator='atop'/>
	</filter>
	<filter id='greybox' filterUnits='objectBoundingBox' x='0' y='0' height='1' width='1'>
	  <feFlood flood-color='lightgrey' flood-opacity='1' result='grey'/>
	  <feComposite in='SourceGraphic' in2='grey' operator='atop'/>
	</filter>
</defs>
<g fill="none" color="white" stroke="currentColor" stroke-width="1.00" stroke-linecap="butt" stroke-linejoin="miter">
</g>
<g fill="none" color="black" stroke="currentColor" stroke-width="1.00" stroke-linecap="butt" stroke-linejoin="miter">
	<path stroke='black'  d='M71.9,662.4 L80.9,662.4  '/>	<g transform="translate(63.6,666.3)" stroke="none" fill="black" font-family="Helvetica" font-size="12.00"  text-anchor="end">
		<text><tspan font-family="Helvetica" > 0</tspan></text>
	</g>
</g>
<g fill="none" color="black" stroke="currentColor" stroke-width="1.00" stroke-linecap="butt" stroke-linejoin="miter">
	<path stroke='black'  d='M71.9,586.4 L80.9,586.4  '/>	<g transform="translate(63.6,590.3)" stroke="none" fill="black" font-family="Helvetica" font-size="12.00"  text-anchor="end">
		<text><tspan font-family="Helvetica" > 20</tspan></text>
	</g>
</g>
<g fill="none" color="black" stroke="currentColor" stroke-width="1.00" stroke-linecap="butt" stroke-linejoin="miter">
	<path stroke='black'  d='M71.9,510.3 L80.9,510.3  '/>	<g transform="translate(63.6,514.2)" stroke="none" fill="black" font-family="Helvetica" font-size="12.00"  text-anchor="end">
		<text><tspan font-family="Helvetica" > 40</tspan></text>
	</g>
</g>
<g fill="none" color="black" stroke="currentColor" stroke-width="1.00" stroke-linecap="butt" stroke-linejoin="miter">
	<path stroke='black'  d='M71.9,434.3 L80.9,434.3  '/>	<g transform="translate(63.6,438.2)" stroke="none" fill="black" font-family="Helvetica" font-size="12.00"  text-anchor="end">
		<text><tspan font-family="Helvetica" > 60</tspan></text>
	</g>
</g>
<g fill="none" color="black" stroke="currentColor" stroke-width="1.00" stroke-linecap="butt" stroke-linejoin="miter">
	<path stroke='black'  d='M71.9,358.2 L80.9,358.2  '/>	<g transform="translate(63.6,362.1)" stroke="none" fill="black" font-family="Helvetica" font-size="12.00"  text-anchor="end">
		<text><tspan font-family="Helvetica" > 80</tspan></text>
	</g>
</g>
<g fill="none" color="black" stroke="currentColor" stroke-width="1.00" stroke-linecap="butt" stroke-linejoin="miter">
	<path stroke='black'  d='M71.9,282.2 L80.9,282.2  '/>	<g transform="translate(63.6,286.1)" stroke="none" fill="black" font-family="Helvetica" font-size="12.00"  text-anchor="end">
		<text><tspan font-family="Helvetica" > 100</tspan></text>
	</g>
</g>
<g fill="none" color="black" stroke="currentColor" stroke-width="1.00" stroke-linecap="butt" stroke-linejoin="miter">
	<path stroke='black'  d='M71.9,206.2 L80.9,206.2  '/>	<g transform="translate(63.6,210.1)" stroke="none" fill="black" font-family="Helvetica" font-size="12.00"  text-anchor="end">
		<text><tspan font-family="Helvetica" > 120</tspan></text>
	</g>
</g>
<g fill="none" color="black" stroke="currentColor" stroke-width="1.00" stroke-linecap="butt" stroke-linejoin="miter">
	<path stroke='black'  d='M71.9,130.1 L80.9,130.1  '/>	<g transform="translate(63.6,134.0)" stroke="none" fill="black" font-family="Helvetica" font-size="12.00"  text-anchor="end">
		<text><tspan font-family="Helvetica" > 140</tspan></text>
	</g>
</g>
<g fill="none" color="black" stroke="currentColor" stroke-width="1.00" stroke-linecap="butt" stroke-linejoin="miter">
	<path stroke='black'  d='M71.9,54.1 L80.9,54.1  '/>	<g transform="translate(63.6,58.0)" stroke="none" fill="black" font-family="Helvetica" font-size="12.00"  text-anchor="end">
		<text><tspan font-family="Helvetica" > 160</tspan></text>
	</g>
</g>
<g fill="none" color="black" stroke="currentColor" stroke-width="1.00" stroke-linecap="butt" stroke-linejoin="miter">
	<path stroke='black'  d='M158.6,662.4 L158.6,653.4  '/>	<g transform="translate(158.6,684.3)" stroke="none" fill="black" font-family="Helvetica" font-size="12.00"  text-anchor="middle">
		<text><tspan font-family="Helvetica" > 5.068</tspan></text>
	</g>
</g>
<g fill="none" color="black" stroke="currentColor" stroke-width="1.00" stroke-linecap="butt" stroke-linejoin="miter">
	<path stroke='black'  d='M302.5,662.4 L302.5,653.4  '/>	<g transform="translate(302.5,684.3)" stroke="none" fill="black" font-family="Helvetica" font-size="12.00"  text-anchor="middle">
		<text><tspan font-family="Helvetica" > 5.07</tspan></text>
	</g>
</g>
<g fill="none" color="black" stroke="currentColor" stroke-width="1.00" stroke-linecap="butt" stroke-linejoin="miter">
	<path stroke='black'  d='M446.4,662.4 L446.4,653.4  '/>	<g transform="translate(446.4,684.3)" stroke="none" fill="black" font-family="Helvetica" font-size="12.00"  text-anchor="middle">
		<text><tspan font-family="Helvetica" > 5.072</tspan></text>
	</g>
</g>
<g fill="none" color="black" stroke="currentColor" stroke-width="1.00" stroke-linecap="butt" stroke-linejoin="miter">
	<path stroke='black'  d='M590.3,662.4 L590.3,653.4  '/>	<g transform="translate(590.3,684.3)" stroke="none" fill="black" font-family="Helvetica" font-size="12.00"  text-anchor="middle">
		<text><tspan font-family="Helvetica" > 5.074</tspan></text>
	</g>
</g>
<g fill="none" color="black" stroke="currentColor" stroke-width="1.00" stroke-linecap="butt" stroke-linejoin="miter">
	<path stroke='black'  d='M734.2,662.4 L734.2,653.4  '/>	<g transform="translate(734.2,684.3)" stroke="none" fill="black" font-family="Helvetica" font-size="12.00"  text-anchor="middle">
		<text><tspan font-family="Helvetica" > 5.076</tspan></text>
	</g>
</g>
<g fill="none" color="black" stroke="currentColor" stroke-width="1.00" stroke-linecap="butt" stroke-linejoin="miter">
	<path stroke='black'  d='M878.1,662.4 L878.1,653.4  '/>	<g transform="translate(878.1,684.3)" stroke="none" fill="black" font-family="Helvetica" font-size="12.00"  text-anchor="middle">
		<text><tspan font-family="Helvetica" > 5.078</tspan></text>
	</g>
</g>
<g fill="none" color="black" stroke="currentColor" stroke-width="1.00" stroke-linecap="butt" stroke-linejoin="miter">
</g>
<g fill="none" color="black" stroke="currentColor" stroke-width="1.00" stroke-linecap="butt" stroke-linejoin="miter">
	<path stroke='black'  d='M71.9,54.1 L71.9,662.4 L1013.6,662.4 L1013.6,54.1 L71.9,54.1 Z  '/></g>
<g fill="none" color="black" stroke="currentColor" stroke-width="1.00" stroke-linecap="butt" stroke-linejoin="miter">
	<g transform="translate(16.3,358.3) rotate(270)" stroke="none" fill="black" font-family="Helvetica" font-size="12.00"  text-anchor="middle">
		<text><tspan font-family="Helvetica" >Density (a.u.)</tspan></text>
	</g>
</g>
<g fill="none" color="black" stroke="currentColor" stroke-width="1.00" stroke-linecap="butt" stroke-linejoin="miter">
	<g transform="translate(542.7,711.3)" stroke="none" fill="black" font-family="Helvetica" font-size="12.00"  text-anchor="middle">
		<text><tspan font-family="Helvetica" >Average time (ms)</tspan></text>
	</g>
</g>
<g fill="none" color="black" stroke="currentColor" stroke-width="1.00" stroke-linecap="butt" stroke-linejoin="miter">
	<g transform="translate(542.7,31.0)" stroke="none" fill="black" font-family="Helvetica" font-size="12.00"  text-anchor="middle">
		<text><tspan font-family="Helvetica" >snapshot_restore_with_dense/Sparse: Entire region + process_vm_writev/1000: slope</tspan></text>
	</g>
</g>
	<g id="gnuplot_plot_1" ><title>Bootstrap distribution</title>
<g fill="none" color="white" stroke="black" stroke-width="2.00" stroke-linecap="butt" stroke-linejoin="miter">
</g>
<g fill="none" color="black" stroke="currentColor" stroke-width="2.00" stroke-linecap="butt" stroke-linejoin="miter">
	<g transform="translate(1089.0,67.0)" stroke="none" fill="black" font-family="Helvetica" font-size="12.00"  text-anchor="start">
		<text><tspan font-family="Helvetica" >Bootstrap distribution</tspan></text>
	</g>
</g>
<g fill="none" color="black" stroke="currentColor" stroke-width="2.00" stroke-linecap="butt" stroke-linejoin="miter">
	<path stroke='rgb( 31, 120, 180)'  d='M1038.5,63.1 L1080.7,63.1 M71.9,630.3 L73.8,629.1 L75.7,627.9 L77.6,626.7 L79.4,625.4 L81.3,624.1
		L83.2,622.7 L85.1,621.3 L87.0,619.9 L88.9,618.5 L90.8,617.0 L92.7,615.5 L94.5,614.0 L96.4,612.5
		L98.3,610.9 L100.2,609.3 L102.1,607.7 L104.0,606.1 L105.9,604.5 L107.8,602.9 L109.6,601.3 L111.5,599.7
		L113.4,598.0 L115.3,596.4 L117.2,594.7 L119.1,593.0 L121.0,591.3 L122.9,589.6 L124.7,587.8 L126.6,586.1
		L128.5,584.3 L130.4,582.4 L132.3,580.6 L134.2,578.7 L136.1,576.8 L138.0,574.9 L139.8,572.9 L141.7,570.9
		L143.6,568.9 L145.5,566.8 L147.4,564.7 L149.3,562.6 L151.2,560.4 L153.0,558.3 L154.9,556.0 L156.8,553.8
		L158.7,551.5 L160.6,549.2 L162.5,546.8 L164.4,544.4 L166.3,542.0 L168.1,539.5 L170.0,536.9 L171.9,534.3
		L173.8,531.7 L175.7,529.0 L177.6,526.2 L179.5,523.4 L181.4,520.6 L183.2,517.7 L185.1,514.7 L187.0,511.7
		L188.9,508.6 L190.8,505.4 L192.7,502.2 L194.6,499.0 L196.5,495.7 L198.3,492.3 L200.2,488.9 L202.1,485.5
		L204.0,482.0 L205.9,478.5 L207.8,474.9 L209.7,471.3 L211.6,467.7 L213.4,464.1 L215.3,460.4 L217.2,456.7
		L219.1,453.1 L221.0,449.4 L222.9,445.7 L224.8,442.0 L226.6,438.4 L228.5,434.7 L230.4,431.1 L232.3,427.5
		L234.2,424.0 L236.1,420.4 L238.0,416.9 L239.9,413.5 L241.7,410.0 L243.6,406.6 L245.5,403.3 L247.4,399.9
		L249.3,396.6 L251.2,393.3 L253.1,390.0 L255.0,386.7 L256.8,383.5 L258.7,380.2 L260.6,376.9 L262.5,373.6
		L264.4,370.3 L266.3,367.0 L268.2,363.6 L270.1,360.2 L271.9,356.8 L273.8,353.4 L275.7,349.9 L277.6,346.4
		L279.5,342.9 L281.4,339.3 L283.3,335.7 L285.2,332.1 L287.0,328.4 L288.9,324.8 L290.8,321.1 L292.7,317.4
		L294.6,313.7 L296.5,310.1 L298.4,306.4 L300.2,302.7 L302.1,299.1 L304.0,295.5 L305.9,291.9 L307.8,288.4
		L309.7,284.9 L311.6,281.4 L313.5,278.0 L315.3,274.6 L317.2,271.2 L319.1,267.9 L321.0,264.6 L322.9,261.4
		L324.8,258.1 L326.7,254.9 L328.6,251.7 L330.4,248.5 L332.3,245.3 L334.2,242.2 L336.1,239.0 L338.0,235.9
		L339.9,232.8 L341.8,229.7 L343.7,226.6 L345.5,223.6 L347.4,220.5 L349.3,217.5 L351.2,214.6 L353.1,211.7
		L355.0,208.9 L356.9,206.1 L358.8,203.4 L360.6,200.7 L362.5,198.1 L364.4,195.6 L366.3,193.2 L368.2,190.8
		L370.1,188.5 L372.0,186.3 L373.8,184.1 L375.7,182.0 L377.6,179.9 L379.5,177.8 L381.4,175.8 L383.3,173.8
		L385.2,171.8 L387.1,169.8 L388.9,167.8 L390.8,165.8 L392.7,163.8 L394.6,161.9 L396.5,159.9 L398.4,157.9
		L400.3,155.9 L402.2,154.0 L404.0,152.0 L405.9,150.0 L407.8,148.1 L409.7,146.2 L411.6,144.3 L413.5,142.4
		L415.4,140.5 L417.3,138.7 L419.1,136.9 L421.0,135.1 L422.9,133.3 L424.8,131.6 L426.7,129.9 L428.6,128.2
		L430.5,126.5 L432.4,124.9 L434.2,123.3 L436.1,121.7 L438.0,120.2 L439.9,118.8 L441.8,117.4 L443.7,116.0
		L445.6,114.8 L447.4,113.6 L449.3,112.5 L451.2,111.5 L453.1,110.6 L455.0,109.7 L456.9,109.0 L458.8,108.3
		L460.7,107.8 L462.5,107.3 L464.4,106.9 L466.3,106.5 L468.2,106.2 L470.1,106.0 L472.0,105.8 L473.9,105.7
		L475.8,105.6 L477.6,105.5 L479.5,105.4 L481.4,105.4 L483.3,105.4 L485.2,105.4 L487.1,105.4 L489.0,105.4
		L490.9,105.5 L492.7,105.6 L494.6,105.7 L496.5,105.9 L498.4,106.1 L500.3,106.4 L502.2,106.7 L504.1,107.1
		L506.0,107.6 L507.8,108.1 L509.7,108.7 L511.6,109.3 L513.5,110.1 L515.4,110.9 L517.3,111.8 L519.2,112.7
		L521.0,113.7 L522.9,114.8 L524.8,116.0 L526.7,117.3 L528.6,118.6 L530.5,120.0 L532.4,121.5 L534.3,123.0
		L536.1,124.7 L538.0,126.4 L539.9,128.2 L541.8,130.1 L543.7,132.0 L545.6,134.1 L547.5,136.2 L549.4,138.4
		L551.2,140.7 L553.1,143.1 L555.0,145.5 L556.9,148.0 L558.8,150.6 L560.7,153.2 L562.6,155.9 L564.5,158.6
		L566.3,161.3 L568.2,164.1 L570.1,166.9 L572.0,169.7 L573.9,172.6 L575.8,175.5 L577.7,178.4 L579.5,181.3
		L581.4,184.2 L583.3,187.1 L585.2,190.0 L587.1,192.9 L589.0,195.8 L590.9,198.6 L592.8,201.5 L594.6,204.3
		L596.5,207.1 L598.4,209.8 L600.3,212.6 L602.2,215.2 L604.1,217.8 L606.0,220.4 L607.9,222.9 L609.7,225.4
		L611.6,227.8 L613.5,230.2 L615.4,232.5 L617.3,234.8 L619.2,237.1 L621.1,239.4 L623.0,241.6 L624.8,243.8
		L626.7,246.0 L628.6,248.2 L630.5,250.5 L632.4,252.7 L634.3,255.0 L636.2,257.3 L638.1,259.7 L639.9,262.0
		L641.8,264.5 L643.7,267.0 L645.6,269.5 L647.5,272.1 L649.4,274.7 L651.3,277.4 L653.1,280.1 L655.0,282.8
		L656.9,285.6 L658.8,288.5 L660.7,291.4 L662.6,294.3 L664.5,297.2 L666.4,300.1 L668.2,303.1 L670.1,306.1
		L672.0,309.1 L673.9,312.1 L675.8,315.2 L677.7,318.2 L679.6,321.2 L681.5,324.2 L683.3,327.2 L685.2,330.2
		L687.1,333.2 L689.0,336.2 L690.9,339.2 L692.8,342.1 L694.7,345.1 L696.6,348.0 L698.4,350.9 L700.3,353.8
		L702.2,356.7 L704.1,359.5 L706.0,362.4 L707.9,365.2 L709.8,368.1 L711.7,370.9 L713.5,373.8 L715.4,376.6
		L717.3,379.4 L719.2,382.2 L721.1,385.0 L723.0,387.8 L724.9,390.6 L726.7,393.4 L728.6,396.2 L730.5,398.9
		L732.4,401.7 L734.3,404.4 L736.2,407.1 L738.1,409.8 L740.0,412.5 L741.8,415.1 L743.7,417.7 L745.6,420.3
		L747.5,422.8 L749.4,425.4 L751.3,427.9 L753.2,430.3 L755.1,432.8 L756.9,435.2 L758.8,437.5 L760.7,439.9
		L762.6,442.2 L764.5,444.5 L766.4,446.7 L768.3,449.0 L770.2,451.2 L772.0,453.4 L773.9,455.6 L775.8,457.7
		L777.7,459.8 L779.6,462.0 L781.5,464.1 L783.4,466.2 L785.3,468.2 L787.1,470.3 L789.0,472.4 L790.9,474.4
		L792.8,476.5 L794.7,478.5 L796.6,480.6 L798.5,482.6 L800.3,484.6 L802.2,486.7 L804.1,488.8 L806.0,490.8
		L807.9,492.9 L809.8,495.0 L811.7,497.1 L813.6,499.2 L815.4,501.3 L817.3,503.4 L819.2,505.6 L821.1,507.7
		L823.0,509.8 L824.9,512.0 L826.8,514.1 L828.7,516.2 L830.5,518.3 L832.4,520.4 L834.3,522.5 L836.2,524.6
		L838.1,526.6 L840.0,528.6 L841.9,530.6 L843.8,532.6 L845.6,534.5 L847.5,536.4 L849.4,538.3 L851.3,540.2
		L853.2,542.0 L855.1,543.7 L857.0,545.5 L858.9,547.2 L860.7,548.9 L862.6,550.6 L864.5,552.2 L866.4,553.8
		L868.3,555.4 L870.2,557.0 L872.1,558.5 L873.9,560.1 L875.8,561.6 L877.7,563.1 L879.6,564.6 L881.5,566.1
		L883.4,567.5 L885.3,569.0 L887.2,570.4 L889.0,571.8 L890.9,573.2 L892.8,574.6 L894.7,576.0 L896.6,577.3
		L898.5,578.7 L900.4,580.0 L902.3,581.3 L904.1,582.6 L906.0,583.9 L907.9,585.1 L909.8,586.4 L911.7,587.6
		L913.6,588.8 L915.5,590.0 L917.4,591.2 L919.2,592.3 L921.1,593.5 L923.0,594.6 L924.9,595.7 L926.8,596.8
		L928.7,597.9 L930.6,599.0 L932.5,600.1 L934.3,601.1 L936.2,602.1 L938.1,603.1 L940.0,604.1 L941.9,605.0
		L943.8,605.9 L945.7,606.8 L947.5,607.6 L949.4,608.5 L951.3,609.2 L953.2,610.0 L955.1,610.7 L957.0,611.5
		L958.9,612.1 L960.8,612.8 L962.6,613.5 L964.5,614.1 L966.4,614.7 L968.3,615.3 L970.2,615.9 L972.1,616.5
		L974.0,617.1 L975.9,617.7 L977.7,618.3 L979.6,618.9 L981.5,619.5 L983.4,620.1 L985.3,620.7 L987.2,621.3
		L989.1,621.9 L991.0,622.6 L992.8,623.2 L994.7,623.9 L996.6,624.6 L998.5,625.2 L1000.4,625.9 L1002.3,626.6
		L1004.2,627.3 L1006.1,627.9 L1007.9,628.6 L1009.8,629.3 L1011.7,629.9 L1013.6,630.6  '/></g>
	</g>
	<g id="gnuplot_plot_2" ><title>Confidence interval</title>
<g fill="none" color="white" stroke="rgb( 31, 120, 180)" stroke-width="1.00" stroke-linecap="butt" stroke-linejoin="miter">
</g>
<g fill="none" color="black" stroke="currentColor" stroke-width="1.00" stroke-linecap="butt" stroke-linejoin="miter">
	<g transform="translate(1089.0,85.0)" stroke="none" fill="black" font-family="Helvetica" font-size="12.00"  text-anchor="start">
		<text><tspan font-family="Helvetica" >Confidence interval</tspan></text>
	</g>
</g>
<g fill="none" color="black" stroke="currentColor" stroke-width="1.00" stroke-linecap="butt" stroke-linejoin="miter">
	<g stroke='none' shape-rendering='crispEdges'>
		<polygon fill = 'rgb( 31, 120, 180)' fill-opacity = '0.250000' points = '1038.5,85.6 1080.7,85.6 1080.7,76.6 1038.5,76.6 '/>
		<polygon fill = 'rgb( 31, 120, 180)' fill-opacity = '0.250000' points = '158.7,551.5 160.6,549.2 162.5,546.8 164.4,544.4 166.3,542.0 168.1,539.5 170.0,536.9 171.9,534.3 173.8,531.7 175.7,529.0 177.6,526.2 179.5,523.4 181.4,520.6 183.2,517.7 185.1,514.7 187.0,511.7
188.9,508.6 190.8,505.4 192.7,502.2 194.6,499.0 196.5,495.7 198.3,492.3 200.2,488.9 202.1,485.5 204.0,482.0 205.9,478.5 207.8,474.9 209.7,471.3 211.6,467.7 213.4,464.1 215.3,460.4 217.2,456.7
219.1,453.1 221.0,449.4 222.9,445.7 224.8,442.0 226.6,438.4 228.5,434.7 230.4,431.1 232.3,427.5 234.2,424.0 236.1,420.4 238.0,416.9 239.9,413.5 241.7,410.0 243.6,406.6 245.5,403.3 247.4,399.9
249.3,396.6 251.2,393.3 253.1,390.0 255.0,386.7 256.8,383.5 258.7,380.2 260.6,376.9 262.5,373.6 264.4,370.3 266.3,367.0 268.2,363.6 270.1,360.2 271.9,356.8 273.8,353.4 275.7,349.9 277.6,346.4
279.5,342.9 281.4,339.3 283.3,335.7 285.2,332.1 287.0,328.4 288.9,324.8 290.8,321.1 292.7,317.4 294.6,313.7 296.5,310.1 298.4,306.4 300.2,302.7 302.1,299.1 304.0,295.5 305.9,291.9 307.8,288.4
309.7,284.9 311.6,281.4 313.5,278.0 315.3,274.6 317.2,271.2 319.1,267.9 321.0,264.6 322.9,261.4 324.8,258.1 326.7,254.9 328.6,251.7 330.4,248.5 332.3,245.3 334.2,242.2 336.1,239.0 338.0,235.9
339.9,232.8 341.8,229.7 343.7,226.6 345.5,223.6 347.4,220.5 349.3,217.5 351.2,214.6 353.1,211.7 355.0,208.9 356.9,206.1 358.8,203.4 360.6,200.7 362.5,198.1 364.4,195.6 366.3,193.2 368.2,190.8
370.1,188.5 372.0,186.3 373.8,184.1 375.7,182.0 377.6,179.9 379.5,177.8 381.4,175.8 383.3,173.8 385.2,171.8 387.1,169.8 388.9,167.8 390.8,165.8 392.7,163.8 394.6,161.9 396.5,159.9 398.4,157.9
400.3,155.9 402.2,154.0 404.0,152.0 405.9,150.0 407.8,148.1 409.7,146.2 411.6,144.3 413.5,142.4 415.4,140.5 417.3,138.7 419.1,136.9 421.0,135.1 422.9,133.3 424.8,131.6 426.7,129.9 428.6,128.2
430.5,126.5 432.4,124.9 434.2,123.3 436.1,121.7 438.0,120.2 439.9,118.8 441.8,117.4 443.7,116.0 445.6,114.8 447.4,113.6 449.3,112.5 451.2,111.5 453.1,110.6 455.0,109.7 456.9,109.0 458.8,108.3
460.7,107.8 462.5,107.3 464.4,106.9 466.3,106.5 468.2,106.2 470.1,106.0 472.0,105.8 473.9,105.7 475.8,105.6 477.6,105.5 479.5,105.4 481.4,105.4 483.3,105.4 485.2,105.4 487.1,105.4 489.0,105.4
490.9,105.5 492.7,105.6 494.6,105.7 496.5,105.9 498.4,106.1 500.3,106.4 502.2,106.7 504.1,107.1 506.0,107.6 507.8,108.1 509.7,108.7 511.6,109.3 513.5,110.1 515.4,110.9 517.3,111.8 519.2,112.7
521.0,113.7 522.9,114.8 524.8,116.0 526.7,117.3 528.6,118.6 530.5,120.0 532.4,121.5 534.3,123.0 536.1,124.7 538.0,126.4 539.9,128.2 541.8,130.1 543.7,132.0 545.6,134.1 547.5,136.2 549.4,138.4
551.2,140.7 553.1,143.1 555.0,145.5 556.9,148.0 558.8,150.6 560.7,153.2 562.6,155.9 564.5,158.6 566.3,161.3 568.2,164.1 570.1,166.9 572.0,169.7 573.9,172.6 575.8,175.5 577.7,178.4 579.5,181.3
581.4,184.2 583.3,187.1 585.2,190.0 587.1,192.9 589.0,195.8 590.9,198.6 592.8,201.5 594.6,204.3 596.5,207.1 598.4,209.8 600.3,212.6 602.2,215.2 604.1,217.8 606.0,220.4 607.9,222.9 609.7,225.4
611.6,227.8 613.5,230.2 615.4,232.5 617.3,234.8 619.2,237.1 621.1,239.4 623.0,241.6 624.8,243.8 626.7,246.0 628.6,248.2 630.5,250.5 632.4,252.7 634.3,255.0 636.2,257.3 638.1,259.7 639.9,262.0
641.8,264.5 643.7,267.0 645.6,269.5 647.5,272.1 649.4,274.7 651.3,277.4 653.1,280.1 655.0,282.8 656.9,285.6 658.8,288.5 660.7,291.4 662.6,294.3 664.5,297.2 666.4,300.1 668.2,303.1 670.1,306.1
672.0,309.1 673.9,312.1 675.8,315.2 677.7,318.2 679.6,321.2 681.5,324.2 683.3,327.2 685.2,330.2 687.1,333.2 689.0,336.2 690.9,339.2 692.8,342.1 694.7,345.1 696.6,348.0 698.4,350.9 700.3,353.8
702.2,356.7 704.1,359.5 706.0,362.4 707.9,365.2 709.8,368.1 711.7,370.9 713.5,373.8 715.4,376.6 717.3,379.4 719.2,382.2 721.1,385.0 723.0,387.8 724.9,390.6 726.7,393.4 728.6,396.2 730.5,398.9
732.4,401.7 734.3,404.4 736.2,407.1 738.1,409.8 740.0,412.5 741.8,415.1 743.7,417.7 745.6,420.3 747.5,422.8 749.4,425.4 751.3,427.9 753.2,430.3 755.1,432.8 756.9,435.2 758.8,437.5 760.7,439.9
762.6,442.2 764.5,444.5 766.4,446.7 768.3,449.0 770.2,451.2 772.0,453.4 773.9,455.6 775.8,457.7 777.7,459.8 779.6,462.0 781.5,464.1 783.4,466.2 785.3,468.2 787.1,470.3 789.0,472.4 790.9,474.4
792.8,476.5 794.7,478.5 796.6,480.6 798.5,482.6 800.3,484.6 802.2,486.7 804.1,488.8 806.0,490.8 807.9,492.9 809.8,495.0 811.7,497.1 813.6,499.2 815.4,501.3 817.3,503.4 819.2,505.6 821.1,507.7
823.0,509.8 824.9,512.0 826.8,514.1 828.7,516.2 830.5,518.3 832.4,520.4 834.3,522.5 836.2,524.6 838.1,526.6 840.0,528.6 841.9,530.6 843.8,532.6 845.6,534.5 847.5,536.4 849.4,538.3 851.3,540.2
853.2,542.0 855.1,543.7 857.0,545.5 858.9,547.2 860.7,548.9 862.6,550.6 864.5,552.2 866.4,553.8 868.3,555.4 870.2,557.0 872.1,558.5 873.9,560.1 875.8,561.6 877.7,563.1 879.6,564.6 881.5,566.1
883.4,567.5 885.3,569.0 887.2,570.4 889.0,571.8 890.9,573.2 892.8,574.6 894.7,576.0 896.6,577.3 898.5,578.7 900.4,580.0 902.3,581.3 904.1,582.6 906.0,583.9 907.9,585.1 909.8,586.4 911.7,587.6
913.6,588.8 915.5,590.0 917.4,591.2 919.2,592.3 921.1,593.5 923.0,594.6 924.9,595.7 924.9,662.4 923.0,662.4 921.1,662.4 919.2,662.4 917.4,662.4 915.5,662.4 913.6,662.4 911.7,662.4 909.8,662.4
907.9,662.4 906.0,662.4 904.1,662.4 902.3,662.4 900.4,662.4 898.5,662.4 896.6,662.4 894.7,662.4 892.8,662.4 890.9,662.4 889.0,662.4 887.2,662.4 885.3,662.4 883.4,662.4 881.5,662.4 879.6,662.4
877.7,662.4 875.8,662.4 873.9,662.4 872.1,662.4 870.2,662.4 868.3,662.4 866.4,662.4 864.5,662.4 862.6,662.4 860.7,662.4 858.9,662.4 857.0,662.4 855.1,662.4 853.2,662.4 851.3,662.4 849.4,662.4
847.5,662.4 845.6,662.4 843.8,662.4 841.9,662.4 840.0,662.4 838.1,662.4 836.2,662.4 834.3,662.4 832.4,662.4 830.5,662.4 828.7,662.4 826.8,662.4 824.9,662.4 823.0,662.4 821.1,662.4 819.2,662.4
817.3,662.4 815.4,662.4 813.6,662.4 811.7,662.4 809.8,662.4 807.9,662.4 806.0,662.4 804.1,662.4 802.2,662.4 800.3,662.4 798.5,662.4 796.6,662.4 794.7,662.4 792.8,662.4 790.9,662.4 789.0,662.4
787.1,662.4 785.3,662.4 783.4,662.4 781.5,662.4 779.6,662.4 777.7,662.4 775.8,662.4 773.9,662.4 772.0,662.4 770.2,662.4 768.3,662.4 766.4,662.4 764.5,662.4 762.6,662.4 760.7,662.4 758.8,662.4
756.9,662.4 755.1,662.4 753.2,662.4 751.3,662.4 749.4,662.4 747.5,662.4 745.6,662.4 743.7,662.4 741.8,662.4 740.0,662.4 738.1,662.4 736.2,662.4 734.3,662.4 732.4,662.4 730.5,662.4 728.6,662.4
726.7,662.4 724.9,662.4 723.0,662.4 721.1,662.4 719.2,662.4 717.3,662.4 715.4,662.4 713.5,662.4 711.7,662.4 709.8,662.4 707.9,662.4 706.0,662.4 704.1,662.4 702.2,662.4 700.3,662.4 698.4,662.4
696.6,662.4 694.7,662.4 692.8,662.4 690.9,662.4 689.0,662.4 687.1,662.4 685.2,662.4 683.3,662.4 681.5,662.4 679.6,662.4 677.7,662.4 675.8,662.4 673.9,662.4 672.0,662.4 670.1,662.4 668.2,662.4
666.4,662.4 664.5,662.4 662.6,662.4 660.7,662.4 658.8,662.4 656.9,662.4 655.0,662.4 653.1,662.4 651.3,662.4 649.4,662.4 647.5,662.4 645.6,662.4 643.7,662.4 641.8,662.4 639.9,662.4 638.1,662.4
636.2,662.4 634.3,662.4 632.4,662.4 630.5,662.4 628.6,662.4 626.7,662.4 624.8,662.4 623.0,662.4 621.1,662.4 619.2,662.4 617.3,662.4 615.4,662.4 613.5,662.4 611.6,662.4 609.7,662.4 607.9,662.4
606.0,662.4 604.1,662.4 602.2,662.4 600.3,662.4 598.4,662.4 596.5,662.4 594.6,662.4 592.8,662.4 590.9,662.4 589.0,662.4 587.1,662.4 585.2,662.4 583.3,662.4 581.4,662.4 579.5,662.4 577.7,662.4
575.8,662.4 573.9,662.4 572.0,662.4 570.1,662.4 568.2,662.4 566.3,662.4 564.5,662.4 562.6,662.4 560.7,662.4 558.8,662.4 556.9,662.4 555.0,662.4 553.1,662.4 551.2,662.4 549.4,662.4 547.5,662.4
545.6,662.4 543.7,662.4 541.8,662.4 539.9,662.4 538.0,662.4 536.1,662.4 534.3,662.4 532.4,662.4 530.5,662.4 528.6,662.4 526.7,662.4 524.8,662.4 522.9,662.4 521.0,662.4 519.2,662.4 517.3,662.4
515.4,662.4 513.5,662.4 511.6,662.4 509.7,662.4 507.8,662.4 506.0,662.4 504.1,662.4 502.2,662.4 500.3,662.4 498.4,662.4 496.5,662.4 494.6,662.4 492.7,662.4 490.9,662.4 489.0,662.4 487.1,662.4
485.2,662.4 483.3,662.4 481.4,662.4 479.5,662.4 477.6,662.4 475.8,662.4 473.9,662.4 472.0,662.4 470.1,662.4 468.2,662.4 466.3,662.4 464.4,662.4 462.5,662.4 460.7,662.4 458.8,662.4 456.9,662.4
455.0,662.4 453.1,662.4 451.2,662.4 449.3,662.4 447.4,662.4 445.6,662.4 443.7,662.4 441.8,662.4 439.9,662.4 438.0,662.4 436.1,662.4 434.2,662.4 432.4,662.4 430.5,662.4 428.6,662.4 426.7,662.4
424.8,662.4 422.9,662.4 421.0,662.4 419.1,662.4 417.3,662.4 415.4,662.4 413.5,662.4 411.6,662.4 409.7,662.4 407.8,662.4 405.9,662.4 404.0,662.4 402.2,662.4 400.3,662.4 398.4,662.4 396.5,662.4
394.6,662.4 392.7,662.4 390.8,662.4 388.9,662.4 387.1,662.4 385.2,662.4 383.3,662.4 381.4,662.4 379.5,662.4 377.6,662.4 375.7,662.4 373.8,662.4 372.0,662.4 370.1,662.4 368.2,662.4 366.3,662.4
364.4,662.4 362.5,662.4 360.6,662.4 358.8,662.4 356.9,662.4 355.0,662.4 353.1,662.4 351.2,662.4 349.3,662.4 347.4,662.4 345.5,662.4 343.7,662.4 341.8,662.4 339.9,662.4 338.0,662.4 336.1,662.4
334.2,662.4 332.3,662.4 330.4,662.4 328.6,662.4 326.7,662.4 324.8,662.4 322.9,662.4 321.0,662.4 319.1,662.4 317.2,662.4 315.3,662.4 313.5,662.4 311.6,662.4 309.7,662.4 307.8,662.4 305.9,662.4
304.0,662.4 302.1,662.4 300.2,662.4 298.4,662.4 296.5,662.4 294.6,662.4 292.7,662.4 290.8,662.4 288.9,662.4 287.0,662.4 285.2,662.4 283.3,662.4 281.4,662.4 279.5,662.4 277.6,662.4 275.7,662.4
273.8,662.4 271.9,662.4 270.1,662.4 268.2,662.4 266.3,662.4 264.4,662.4 262.5,662.4 260.6,662.4 258.7,662.4 256.8,662.4 255.0,662.4 253.1,662.4 251.2,662.4 249.3,662.4 247.4,662.4 245.5,662.4
243.6,662.4 241.7,662.4 239.9,662.4 238.0,662.4 236.1,662.4 234.2,662.4 232.3,662.4 230.4,662.4 228.5,662.4 226.6,662.4 224.8,662.4 222.9,662.4 221.0,662.4 219.1,662.4 217.2,662.4 215.3,662.4
213.4,662.4 211.6,662.4 209.7,662.4 207.8,662.4 205.9,662.4 204.0,662.4 202.1,662.4 200.2,662.4 198.3,662.4 196.5,662.4 194.6,662.4 192.7,662.4 190.8,662.4 188.9,662.4 187.0,662.4 185.1,662.4
183.2,662.4 181.4,662.4 179.5,662.4 177.6,662.4 175.7,662.4 173.8,662.4 171.9,662.4 170.0,662.4 168.1,662.4 166.3,662.4 164.4,662.4 162.5,662.4 160.6,662.4 158.7,662.4 '/>
	</g>
</g>
	</g>
	<g id="gnuplot_plot_3" ><title>Point estimate</title>
<g fill="none" color="white" stroke="rgb( 31, 120, 180)" stroke-width="2.00" stroke-linecap="butt" stroke-linejoin="miter">
</g>
<g fill="none" color="black" stroke="currentColor" stroke-width="2.00" stroke-linecap="butt" stroke-linejoin="miter">
	<g transform="translate(1089.0,103.0)" stroke="none" fill="black" font-family="Helvetica" font-size="12.00"  text-anchor="start">
		<text><tspan font-family="Helvetica" >Point estimate</tspan></text>
	</g>
</g>
<g fill="none" color="black" stroke="currentColor" stroke-width="2.00" stroke-linecap="butt" stroke-linejoin="miter">
	<path stroke='rgb( 31, 120, 180)'  d='M1038.5,99.1 L1080.7,99.1 M509.2,662.4 L509.2,108.5  '/></g>
	</g>
<g fill="none" color="black" stroke="currentColor" stroke-width="2.00" stroke-linecap="butt" stroke-linejoin="miter">
</g>
<g fill="none" color="black" stroke="black" stroke-width="1.00" stroke-linecap="butt" stroke-linejoin="miter">
</g>
<g fill="none" color="black" stroke="currentColor" stroke-width="1.00" stroke-linecap="butt" stroke-linejoin="miter">
	<path stroke='black'  d='M71.9,54.1 L71.9,662.4 L1013.6,662.4 L1013.6,54.1 L71.9,54.1 Z  '/></g>
<g fill="none" color="black" stroke="currentColor" stroke-width="1.00" stroke-linecap="butt" stroke-linejoin="miter">
</g>
</g>
</svg>

