<?xml version="1.0" encoding="utf-8"  standalone="no"?>
<svg 
 viewBox="0 0 1280 720"
 xmlns="http://www.w3.org/2000/svg"
 xmlns:xlink="http://www.w3.org/1999/xlink"
>

<title>Gnuplot</title>
<desc>Produced by GNUPLOT 5.2 patchlevel 6 </desc>

<g id="gnuplot_canvas">

<rect x="0" y="0" width="1280" height="720" fill="none"/>
<defs>

	<circle id='gpDot' r='0.5' stroke-width='0.5' stroke='currentColor'/>
	<path id='gpPt0' stroke-width='0.222' stroke='currentColor' d='M-1,0 h2 M0,-1 v2'/>
	<path id='gpPt1' stroke-width='0.222' stroke='currentColor' d='M-1,-1 L1,1 M1,-1 L-1,1'/>
	<path id='gpPt2' stroke-width='0.222' stroke='currentColor' d='M-1,0 L1,0 M0,-1 L0,1 M-1,-1 L1,1 M-1,1 L1,-1'/>
	<rect id='gpPt3' stroke-width='0.222' stroke='currentColor' x='-1' y='-1' width='2' height='2'/>
	<rect id='gpPt4' stroke-width='0.222' stroke='currentColor' fill='currentColor' x='-1' y='-1' width='2' height='2'/>
	<circle id='gpPt5' stroke-width='0.222' stroke='currentColor' cx='0' cy='0' r='1'/>
	<use xlink:href='#gpPt5' id='gpPt6' fill='currentColor' stroke='none'/>
	<path id='gpPt7' stroke-width='0.222' stroke='currentColor' d='M0,-1.33 L-1.33,0.67 L1.33,0.67 z'/>
	<use xlink:href='#gpPt7' id='gpPt8' fill='currentColor' stroke='none'/>
	<use xlink:href='#gpPt7' id='gpPt9' stroke='currentColor' transform='rotate(180)'/>
	<use xlink:href='#gpPt9' id='gpPt10' fill='currentColor' stroke='none'/>
	<use xlink:href='#gpPt3' id='gpPt11' stroke='currentColor' transform='rotate(45)'/>
	<use xlink:href='#gpPt11' id='gpPt12' fill='currentColor' stroke='none'/>
	<path id='gpPt13' stroke-width='0.222' stroke='currentColor' d='M0,1.330 L1.265,0.411 L0.782,-1.067 L-0.782,-1.076 L-1.265,0.411 z'/>
	<use xlink:href='#gpPt13' id='gpPt14' fill='currentColor' stroke='none'/>
	<filter id='textbox' filterUnits='objectBoundingBox' x='0' y='0' height='1' width='1'>
	  <feFlood flood-color='white' flood-opacity='1' result='bgnd'/>
	  <feComposite in='SourceGraphic' in2='bgnd' operator='atop'/>
	</filter>
	<filter id='greybox' filterUnits='objectBoundingBox' x='0' y='0' height='1' width='1'>
	  <feFlood flood-color='lightgrey' flood-opacity='1' result='grey'/>
	  <feComposite in='SourceGraphic' in2='grey' operator='atop'/>
	</filter>
</defs>
<g fill="none" color="white" stroke="currentColor" stroke-width="1.00" stroke-linecap="butt" stroke-linejoin="miter">
</g>
<g fill="none" color="black" stroke="currentColor" stroke-width="1.00" stroke-linecap="butt" stroke-linejoin="miter">
	<path stroke='black'  d='M88.5,662.4 L97.5,662.4  '/>	<g transform="translate(80.2,666.3)" stroke="none" fill="black" font-family="Helvetica" font-size="12.00"  text-anchor="end">
		<text><tspan font-family="Helvetica" > 0</tspan></text>
	</g>
</g>
<g fill="none" color="black" stroke="currentColor" stroke-width="1.00" stroke-linecap="butt" stroke-linejoin="miter">
	<path stroke='black'  d='M88.5,601.6 L97.5,601.6  '/>	<g transform="translate(80.2,605.5)" stroke="none" fill="black" font-family="Helvetica" font-size="12.00"  text-anchor="end">
		<text><tspan font-family="Helvetica" > 0.005</tspan></text>
	</g>
</g>
<g fill="none" color="black" stroke="currentColor" stroke-width="1.00" stroke-linecap="butt" stroke-linejoin="miter">
	<path stroke='black'  d='M88.5,540.7 L97.5,540.7  '/>	<g transform="translate(80.2,544.6)" stroke="none" fill="black" font-family="Helvetica" font-size="12.00"  text-anchor="end">
		<text><tspan font-family="Helvetica" > 0.01</tspan></text>
	</g>
</g>
<g fill="none" color="black" stroke="currentColor" stroke-width="1.00" stroke-linecap="butt" stroke-linejoin="miter">
	<path stroke='black'  d='M88.5,479.9 L97.5,479.9  '/>	<g transform="translate(80.2,483.8)" stroke="none" fill="black" font-family="Helvetica" font-size="12.00"  text-anchor="end">
		<text><tspan font-family="Helvetica" > 0.015</tspan></text>
	</g>
</g>
<g fill="none" color="black" stroke="currentColor" stroke-width="1.00" stroke-linecap="butt" stroke-linejoin="miter">
	<path stroke='black'  d='M88.5,419.1 L97.5,419.1  '/>	<g transform="translate(80.2,423.0)" stroke="none" fill="black" font-family="Helvetica" font-size="12.00"  text-anchor="end">
		<text><tspan font-family="Helvetica" > 0.02</tspan></text>
	</g>
</g>
<g fill="none" color="black" stroke="currentColor" stroke-width="1.00" stroke-linecap="butt" stroke-linejoin="miter">
	<path stroke='black'  d='M88.5,358.2 L97.5,358.2  '/>	<g transform="translate(80.2,362.1)" stroke="none" fill="black" font-family="Helvetica" font-size="12.00"  text-anchor="end">
		<text><tspan font-family="Helvetica" > 0.025</tspan></text>
	</g>
</g>
<g fill="none" color="black" stroke="currentColor" stroke-width="1.00" stroke-linecap="butt" stroke-linejoin="miter">
	<path stroke='black'  d='M88.5,297.4 L97.5,297.4  '/>	<g transform="translate(80.2,301.3)" stroke="none" fill="black" font-family="Helvetica" font-size="12.00"  text-anchor="end">
		<text><tspan font-family="Helvetica" > 0.03</tspan></text>
	</g>
</g>
<g fill="none" color="black" stroke="currentColor" stroke-width="1.00" stroke-linecap="butt" stroke-linejoin="miter">
	<path stroke='black'  d='M88.5,236.6 L97.5,236.6  '/>	<g transform="translate(80.2,240.5)" stroke="none" fill="black" font-family="Helvetica" font-size="12.00"  text-anchor="end">
		<text><tspan font-family="Helvetica" > 0.035</tspan></text>
	</g>
</g>
<g fill="none" color="black" stroke="currentColor" stroke-width="1.00" stroke-linecap="butt" stroke-linejoin="miter">
	<path stroke='black'  d='M88.5,175.8 L97.5,175.8  '/>	<g transform="translate(80.2,179.7)" stroke="none" fill="black" font-family="Helvetica" font-size="12.00"  text-anchor="end">
		<text><tspan font-family="Helvetica" > 0.04</tspan></text>
	</g>
</g>
<g fill="none" color="black" stroke="currentColor" stroke-width="1.00" stroke-linecap="butt" stroke-linejoin="miter">
	<path stroke='black'  d='M88.5,114.9 L97.5,114.9  '/>	<g transform="translate(80.2,118.8)" stroke="none" fill="black" font-family="Helvetica" font-size="12.00"  text-anchor="end">
		<text><tspan font-family="Helvetica" > 0.045</tspan></text>
	</g>
</g>
<g fill="none" color="black" stroke="currentColor" stroke-width="1.00" stroke-linecap="butt" stroke-linejoin="miter">
	<path stroke='black'  d='M88.5,54.1 L97.5,54.1  '/>	<g transform="translate(80.2,58.0)" stroke="none" fill="black" font-family="Helvetica" font-size="12.00"  text-anchor="end">
		<text><tspan font-family="Helvetica" > 0.05</tspan></text>
	</g>
</g>
<g fill="none" color="black" stroke="currentColor" stroke-width="1.00" stroke-linecap="butt" stroke-linejoin="miter">
	<path stroke='black'  d='M155.6,662.4 L155.6,653.4  '/>	<g transform="translate(155.6,684.3)" stroke="none" fill="black" font-family="Helvetica" font-size="12.00"  text-anchor="middle">
		<text><tspan font-family="Helvetica" > 40</tspan></text>
	</g>
</g>
<g fill="none" color="black" stroke="currentColor" stroke-width="1.00" stroke-linecap="butt" stroke-linejoin="miter">
	<path stroke='black'  d='M259.7,662.4 L259.7,653.4  '/>	<g transform="translate(259.7,684.3)" stroke="none" fill="black" font-family="Helvetica" font-size="12.00"  text-anchor="middle">
		<text><tspan font-family="Helvetica" > 45</tspan></text>
	</g>
</g>
<g fill="none" color="black" stroke="currentColor" stroke-width="1.00" stroke-linecap="butt" stroke-linejoin="miter">
	<path stroke='black'  d='M363.8,662.4 L363.8,653.4  '/>	<g transform="translate(363.8,684.3)" stroke="none" fill="black" font-family="Helvetica" font-size="12.00"  text-anchor="middle">
		<text><tspan font-family="Helvetica" > 50</tspan></text>
	</g>
</g>
<g fill="none" color="black" stroke="currentColor" stroke-width="1.00" stroke-linecap="butt" stroke-linejoin="miter">
	<path stroke='black'  d='M467.9,662.4 L467.9,653.4  '/>	<g transform="translate(467.9,684.3)" stroke="none" fill="black" font-family="Helvetica" font-size="12.00"  text-anchor="middle">
		<text><tspan font-family="Helvetica" > 55</tspan></text>
	</g>
</g>
<g fill="none" color="black" stroke="currentColor" stroke-width="1.00" stroke-linecap="butt" stroke-linejoin="miter">
	<path stroke='black'  d='M571.9,662.4 L571.9,653.4  '/>	<g transform="translate(571.9,684.3)" stroke="none" fill="black" font-family="Helvetica" font-size="12.00"  text-anchor="middle">
		<text><tspan font-family="Helvetica" > 60</tspan></text>
	</g>
</g>
<g fill="none" color="black" stroke="currentColor" stroke-width="1.00" stroke-linecap="butt" stroke-linejoin="miter">
	<path stroke='black'  d='M676.0,662.4 L676.0,653.4  '/>	<g transform="translate(676.0,684.3)" stroke="none" fill="black" font-family="Helvetica" font-size="12.00"  text-anchor="middle">
		<text><tspan font-family="Helvetica" > 65</tspan></text>
	</g>
</g>
<g fill="none" color="black" stroke="currentColor" stroke-width="1.00" stroke-linecap="butt" stroke-linejoin="miter">
	<path stroke='black'  d='M780.1,662.4 L780.1,653.4  '/>	<g transform="translate(780.1,684.3)" stroke="none" fill="black" font-family="Helvetica" font-size="12.00"  text-anchor="middle">
		<text><tspan font-family="Helvetica" > 70</tspan></text>
	</g>
</g>
<g fill="none" color="black" stroke="currentColor" stroke-width="1.00" stroke-linecap="butt" stroke-linejoin="miter">
	<path stroke='black'  d='M884.2,662.4 L884.2,653.4  '/>	<g transform="translate(884.2,684.3)" stroke="none" fill="black" font-family="Helvetica" font-size="12.00"  text-anchor="middle">
		<text><tspan font-family="Helvetica" > 75</tspan></text>
	</g>
</g>
<g fill="none" color="black" stroke="currentColor" stroke-width="1.00" stroke-linecap="butt" stroke-linejoin="miter">
	<path stroke='black'  d='M988.3,662.4 L988.3,653.4  '/>	<g transform="translate(988.3,684.3)" stroke="none" fill="black" font-family="Helvetica" font-size="12.00"  text-anchor="middle">
		<text><tspan font-family="Helvetica" > 80</tspan></text>
	</g>
</g>
<g fill="none" color="black" stroke="currentColor" stroke-width="1.00" stroke-linecap="butt" stroke-linejoin="miter">
</g>
<g fill="none" color="black" stroke="currentColor" stroke-width="1.00" stroke-linecap="butt" stroke-linejoin="miter">
	<path stroke='black'  d='M88.5,54.1 L88.5,662.4 L1013.6,662.4 L1013.6,54.1 L88.5,54.1 Z  '/></g>
<g fill="none" color="black" stroke="currentColor" stroke-width="1.00" stroke-linecap="butt" stroke-linejoin="miter">
	<g transform="translate(16.3,358.3) rotate(270)" stroke="none" fill="black" font-family="Helvetica" font-size="12.00"  text-anchor="middle">
		<text><tspan font-family="Helvetica" >Density (a.u.)</tspan></text>
	</g>
</g>
<g fill="none" color="black" stroke="currentColor" stroke-width="1.00" stroke-linecap="butt" stroke-linejoin="miter">
	<g transform="translate(551.0,711.3)" stroke="none" fill="black" font-family="Helvetica" font-size="12.00"  text-anchor="middle">
		<text><tspan font-family="Helvetica" >Average time (ns)</tspan></text>
	</g>
</g>
<g fill="none" color="black" stroke="currentColor" stroke-width="1.00" stroke-linecap="butt" stroke-linejoin="miter">
	<g transform="translate(551.0,31.0)" stroke="none" fill="black" font-family="Helvetica" font-size="12.00"  text-anchor="middle">
		<text><tspan font-family="Helvetica" >snapshot_restore_with_dense/Sparse: Dirty pages + /proc/pid/mem/5: MAD</tspan></text>
	</g>
</g>
	<g id="gnuplot_plot_1" ><title>Bootstrap distribution</title>
<g fill="none" color="white" stroke="black" stroke-width="2.00" stroke-linecap="butt" stroke-linejoin="miter">
</g>
<g fill="none" color="black" stroke="currentColor" stroke-width="2.00" stroke-linecap="butt" stroke-linejoin="miter">
	<g transform="translate(1089.0,67.0)" stroke="none" fill="black" font-family="Helvetica" font-size="12.00"  text-anchor="start">
		<text><tspan font-family="Helvetica" >Bootstrap distribution</tspan></text>
	</g>
</g>
<g fill="none" color="black" stroke="currentColor" stroke-width="2.00" stroke-linecap="butt" stroke-linejoin="miter">
	<path stroke='rgb( 31, 120, 180)'  d='M1038.5,63.1 L1080.7,63.1 M88.5,634.0 L90.4,633.1 L92.2,632.1 L94.1,631.1 L95.9,630.0 L97.8,628.9
		L99.6,627.7 L101.5,626.5 L103.3,625.3 L105.2,624.0 L107.0,622.7 L108.9,621.4 L110.7,620.0 L112.6,618.5
		L114.5,617.1 L116.3,615.6 L118.2,614.0 L120.0,612.5 L121.9,610.9 L123.7,609.2 L125.6,607.6 L127.4,605.9
		L129.3,604.1 L131.1,602.3 L133.0,600.5 L134.8,598.7 L136.7,596.8 L138.6,594.9 L140.4,593.0 L142.3,591.0
		L144.1,589.0 L146.0,586.9 L147.8,584.8 L149.7,582.6 L151.5,580.4 L153.4,578.1 L155.2,575.7 L157.1,573.3
		L158.9,570.9 L160.8,568.4 L162.7,565.9 L164.5,563.3 L166.4,560.6 L168.2,558.0 L170.1,555.3 L171.9,552.6
		L173.8,550.0 L175.6,547.3 L177.5,544.7 L179.3,542.2 L181.2,539.7 L183.0,537.2 L184.9,534.9 L186.8,532.6
		L188.6,530.4 L190.5,528.4 L192.3,526.4 L194.2,524.5 L196.0,522.7 L197.9,521.1 L199.7,519.4 L201.6,517.9
		L203.4,516.4 L205.3,515.0 L207.2,513.6 L209.0,512.2 L210.9,510.9 L212.7,509.5 L214.6,508.1 L216.4,506.6
		L218.3,505.1 L220.1,503.6 L222.0,501.9 L223.8,500.2 L225.7,498.4 L227.5,496.5 L229.4,494.4 L231.3,492.2
		L233.1,489.9 L235.0,487.4 L236.8,484.9 L238.7,482.1 L240.5,479.3 L242.4,476.3 L244.2,473.2 L246.1,470.0
		L247.9,466.7 L249.8,463.3 L251.6,459.9 L253.5,456.4 L255.4,452.9 L257.2,449.4 L259.1,445.9 L260.9,442.4
		L262.8,438.9 L264.6,435.5 L266.5,432.0 L268.3,428.6 L270.2,425.2 L272.0,421.8 L273.9,418.3 L275.7,414.8
		L277.6,411.3 L279.5,407.6 L281.3,403.9 L283.2,400.1 L285.0,396.2 L286.9,392.3 L288.7,388.2 L290.6,384.1
		L292.4,379.9 L294.3,375.6 L296.1,371.4 L298.0,367.2 L299.8,363.0 L301.7,358.9 L303.6,354.8 L305.4,350.9
		L307.3,347.2 L309.1,343.5 L311.0,340.1 L312.8,336.7 L314.7,333.6 L316.5,330.5 L318.4,327.6 L320.2,324.7
		L322.1,322.0 L323.9,319.2 L325.8,316.5 L327.7,313.7 L329.5,310.9 L331.4,308.0 L333.2,305.0 L335.1,301.9
		L336.9,298.7 L338.8,295.3 L340.6,291.8 L342.5,288.3 L344.3,284.6 L346.2,280.9 L348.0,277.2 L349.9,273.4
		L351.8,269.8 L353.6,266.2 L355.5,262.7 L357.3,259.4 L359.2,256.3 L361.0,253.5 L362.9,250.9 L364.7,248.6
		L366.6,246.6 L368.4,244.8 L370.3,243.4 L372.1,242.3 L374.0,241.5 L375.9,241.0 L377.7,240.7 L379.6,240.5
		L381.4,240.6 L383.3,240.7 L385.1,240.8 L387.0,241.0 L388.8,241.0 L390.7,240.9 L392.5,240.6 L394.4,240.0
		L396.2,239.0 L398.1,237.6 L400.0,235.7 L401.8,233.4 L403.7,230.5 L405.5,227.1 L407.4,223.2 L409.2,218.7
		L411.1,213.7 L412.9,208.3 L414.8,202.5 L416.6,196.4 L418.5,190.1 L420.3,183.6 L422.2,177.1 L424.1,170.6
		L425.9,164.2 L427.8,158.1 L429.6,152.3 L431.5,146.9 L433.3,142.0 L435.2,137.6 L437.0,133.8 L438.9,130.6
		L440.7,127.9 L442.6,125.8 L444.5,124.3 L446.3,123.3 L448.2,122.8 L450.0,122.8 L451.9,123.1 L453.7,123.6
		L455.6,124.4 L457.4,125.3 L459.3,126.2 L461.1,127.1 L463.0,128.0 L464.8,128.6 L466.7,129.1 L468.6,129.3
		L470.4,129.2 L472.3,128.9 L474.1,128.1 L476.0,127.1 L477.8,125.7 L479.7,124.1 L481.5,122.1 L483.4,119.9
		L485.2,117.5 L487.1,114.9 L488.9,112.2 L490.8,109.4 L492.7,106.7 L494.5,103.9 L496.4,101.3 L498.2,98.8
		L500.1,96.6 L501.9,94.5 L503.8,92.8 L505.6,91.4 L507.5,90.3 L509.3,89.5 L511.2,89.2 L513.0,89.2
		L514.9,89.6 L516.8,90.4 L518.6,91.6 L520.5,93.1 L522.3,95.0 L524.2,97.2 L526.0,99.7 L527.9,102.5
		L529.7,105.6 L531.6,108.9 L533.4,112.5 L535.3,116.2 L537.1,120.1 L539.0,124.2 L540.9,128.5 L542.7,132.8
		L544.6,137.2 L546.4,141.7 L548.3,146.2 L550.1,150.7 L552.0,155.2 L553.8,159.6 L555.7,163.9 L557.5,168.0
		L559.4,172.0 L561.2,175.7 L563.1,179.2 L565.0,182.4 L566.8,185.3 L568.7,187.8 L570.5,189.9 L572.4,191.8
		L574.2,193.2 L576.1,194.3 L577.9,195.1 L579.8,195.7 L581.6,196.0 L583.5,196.1 L585.3,196.1 L587.2,196.1
		L589.1,196.0 L590.9,196.1 L592.8,196.2 L594.6,196.5 L596.5,197.1 L598.3,197.9 L600.2,199.1 L602.0,200.6
		L603.9,202.4 L605.7,204.5 L607.6,207.0 L609.4,209.8 L611.3,212.9 L613.2,216.2 L615.0,219.7 L616.9,223.3
		L618.7,227.1 L620.6,231.0 L622.4,234.9 L624.3,238.7 L626.1,242.5 L628.0,246.2 L629.8,249.8 L631.7,253.2
		L633.5,256.5 L635.4,259.6 L637.3,262.5 L639.1,265.3 L641.0,267.9 L642.8,270.4 L644.7,272.7 L646.5,274.9
		L648.4,276.9 L650.2,278.9 L652.1,280.8 L653.9,282.6 L655.8,284.3 L657.6,286.0 L659.5,287.7 L661.4,289.3
		L663.2,290.9 L665.1,292.5 L666.9,294.0 L668.8,295.5 L670.6,297.0 L672.5,298.4 L674.3,299.9 L676.2,301.4
		L678.0,302.8 L679.9,304.3 L681.8,305.9 L683.6,307.5 L685.5,309.1 L687.3,310.9 L689.2,312.7 L691.0,314.7
		L692.9,316.9 L694.7,319.2 L696.6,321.7 L698.4,324.5 L700.3,327.4 L702.1,330.6 L704.0,333.9 L705.9,337.5
		L707.7,341.3 L709.6,345.3 L711.4,349.5 L713.3,353.8 L715.1,358.3 L717.0,362.8 L718.8,367.4 L720.7,372.0
		L722.5,376.6 L724.4,381.1 L726.2,385.5 L728.1,389.8 L730.0,394.0 L731.8,397.9 L733.7,401.7 L735.5,405.3
		L737.4,408.7 L739.2,411.9 L741.1,414.9 L742.9,417.8 L744.8,420.5 L746.6,423.0 L748.5,425.5 L750.3,427.8
		L752.2,430.2 L754.1,432.5 L755.9,434.9 L757.8,437.3 L759.6,439.8 L761.5,442.4 L763.3,445.1 L765.2,447.9
		L767.0,450.9 L768.9,454.0 L770.7,457.3 L772.6,460.7 L774.4,464.1 L776.3,467.7 L778.2,471.4 L780.0,475.1
		L781.9,478.8 L783.7,482.5 L785.6,486.2 L787.4,489.9 L789.3,493.5 L791.1,497.1 L793.0,500.6 L794.8,503.9
		L796.7,507.2 L798.5,510.4 L800.4,513.4 L802.3,516.4 L804.1,519.3 L806.0,522.0 L807.8,524.7 L809.7,527.2
		L811.5,529.7 L813.4,532.1 L815.2,534.4 L817.1,536.7 L818.9,538.8 L820.8,540.9 L822.6,542.9 L824.5,544.8
		L826.4,546.6 L828.2,548.4 L830.1,550.1 L831.9,551.7 L833.8,553.3 L835.6,554.8 L837.5,556.2 L839.3,557.6
		L841.2,558.9 L843.0,560.2 L844.9,561.5 L846.7,562.8 L848.6,564.1 L850.5,565.3 L852.3,566.6 L854.2,567.9
		L856.0,569.2 L857.9,570.6 L859.7,571.9 L861.6,573.3 L863.4,574.7 L865.3,576.1 L867.1,577.6 L869.0,579.0
		L870.8,580.5 L872.7,581.9 L874.6,583.4 L876.4,584.8 L878.3,586.2 L880.1,587.6 L882.0,588.9 L883.8,590.3
		L885.7,591.6 L887.5,592.9 L889.4,594.2 L891.2,595.4 L893.1,596.6 L894.9,597.8 L896.8,599.0 L898.7,600.2
		L900.5,601.4 L902.4,602.5 L904.2,603.6 L906.1,604.7 L907.9,605.8 L909.8,606.9 L911.6,608.0 L913.5,609.0
		L915.3,610.1 L917.2,611.1 L919.1,612.1 L920.9,613.0 L922.8,614.0 L924.6,614.9 L926.5,615.8 L928.3,616.7
		L930.2,617.5 L932.0,618.3 L933.9,619.1 L935.7,619.8 L937.6,620.5 L939.4,621.2 L941.3,621.8 L943.2,622.4
		L945.0,623.0 L946.9,623.5 L948.7,624.0 L950.6,624.5 L952.4,624.9 L954.3,625.4 L956.1,625.8 L958.0,626.2
		L959.8,626.5 L961.7,626.9 L963.5,627.3 L965.4,627.7 L967.3,628.1 L969.1,628.4 L971.0,628.8 L972.8,629.2
		L974.7,629.7 L976.5,630.1 L978.4,630.5 L980.2,631.0 L982.1,631.4 L983.9,631.9 L985.8,632.3 L987.6,632.7
		L989.5,633.1 L991.4,633.5 L993.2,633.9 L995.1,634.3 L996.9,634.6 L998.8,634.9 L1000.6,635.2 L1002.5,635.4
		L1004.3,635.7 L1006.2,635.9 L1008.0,636.1 L1009.9,636.3 L1011.7,636.5 L1013.6,636.6  '/></g>
	</g>
	<g id="gnuplot_plot_2" ><title>Confidence interval</title>
<g fill="none" color="white" stroke="rgb( 31, 120, 180)" stroke-width="1.00" stroke-linecap="butt" stroke-linejoin="miter">
</g>
<g fill="none" color="black" stroke="currentColor" stroke-width="1.00" stroke-linecap="butt" stroke-linejoin="miter">
	<g transform="translate(1089.0,85.0)" stroke="none" fill="black" font-family="Helvetica" font-size="12.00"  text-anchor="start">
		<text><tspan font-family="Helvetica" >Confidence interval</tspan></text>
	</g>
</g>
<g fill="none" color="black" stroke="currentColor" stroke-width="1.00" stroke-linecap="butt" stroke-linejoin="miter">
	<g stroke='none' shape-rendering='crispEdges'>
		<polygon fill = 'rgb( 31, 120, 180)' fill-opacity = '0.250000' points = '1038.5,85.6 1080.7,85.6 1080.7,76.6 1038.5,76.6 '/>
		<polygon fill = 'rgb( 31, 120, 180)' fill-opacity = '0.250000' points = '173.8,550.0 175.6,547.3 177.5,544.7 179.3,542.2 181.2,539.7 183.0,537.2 184.9,534.9 186.8,532.6 188.6,530.4 190.5,528.4 192.3,526.4 194.2,524.5 196.0,522.7 197.9,521.1 199.7,519.4 201.6,517.9
203.4,516.4 205.3,515.0 207.2,513.6 209.0,512.2 210.9,510.9 212.7,509.5 214.6,508.1 216.4,506.6 218.3,505.1 220.1,503.6 222.0,501.9 223.8,500.2 225.7,498.4 227.5,496.5 229.4,494.4 231.3,492.2
233.1,489.9 235.0,487.4 236.8,484.9 238.7,482.1 240.5,479.3 242.4,476.3 244.2,473.2 246.1,470.0 247.9,466.7 249.8,463.3 251.6,459.9 253.5,456.4 255.4,452.9 257.2,449.4 259.1,445.9 260.9,442.4
262.8,438.9 264.6,435.5 266.5,432.0 268.3,428.6 270.2,425.2 272.0,421.8 273.9,418.3 275.7,414.8 277.6,411.3 279.5,407.6 281.3,403.9 283.2,400.1 285.0,396.2 286.9,392.3 288.7,388.2 290.6,384.1
292.4,379.9 294.3,375.6 296.1,371.4 298.0,367.2 299.8,363.0 301.7,358.9 303.6,354.8 305.4,350.9 307.3,347.2 309.1,343.5 311.0,340.1 312.8,336.7 314.7,333.6 316.5,330.5 318.4,327.6 320.2,324.7
322.1,322.0 323.9,319.2 325.8,316.5 327.7,313.7 329.5,310.9 331.4,308.0 333.2,305.0 335.1,301.9 336.9,298.7 338.8,295.3 340.6,291.8 342.5,288.3 344.3,284.6 346.2,280.9 348.0,277.2 349.9,273.4
351.8,269.8 353.6,266.2 355.5,262.7 357.3,259.4 359.2,256.3 361.0,253.5 362.9,250.9 364.7,248.6 366.6,246.6 368.4,244.8 370.3,243.4 372.1,242.3 374.0,241.5 375.9,241.0 377.7,240.7 379.6,240.5
381.4,240.6 383.3,240.7 385.1,240.8 387.0,241.0 388.8,241.0 390.7,240.9 392.5,240.6 394.4,240.0 396.2,239.0 398.1,237.6 400.0,235.7 401.8,233.4 403.7,230.5 405.5,227.1 407.4,223.2 409.2,218.7
411.1,213.7 412.9,208.3 414.8,202.5 416.6,196.4 418.5,190.1 420.3,183.6 422.2,177.1 424.1,170.6 425.9,164.2 427.8,158.1 429.6,152.3 431.5,146.9 433.3,142.0 435.2,137.6 437.0,133.8 438.9,130.6
440.7,127.9 442.6,125.8 444.5,124.3 446.3,123.3 448.2,122.8 450.0,122.8 451.9,123.1 453.7,123.6 455.6,124.4 457.4,125.3 459.3,126.2 461.1,127.1 463.0,128.0 464.8,128.6 466.7,129.1 468.6,129.3
470.4,129.2 472.3,128.9 474.1,128.1 476.0,127.1 477.8,125.7 479.7,124.1 481.5,122.1 483.4,119.9 485.2,117.5 487.1,114.9 488.9,112.2 490.8,109.4 492.7,106.7 494.5,103.9 496.4,101.3 498.2,98.8
500.1,96.6 501.9,94.5 503.8,92.8 505.6,91.4 507.5,90.3 509.3,89.5 511.2,89.2 513.0,89.2 514.9,89.6 516.8,90.4 518.6,91.6 520.5,93.1 522.3,95.0 524.2,97.2 526.0,99.7 527.9,102.5
529.7,105.6 531.6,108.9 533.4,112.5 535.3,116.2 537.1,120.1 539.0,124.2 540.9,128.5 542.7,132.8 544.6,137.2 546.4,141.7 548.3,146.2 550.1,150.7 552.0,155.2 553.8,159.6 555.7,163.9 557.5,168.0
559.4,172.0 561.2,175.7 563.1,179.2 565.0,182.4 566.8,185.3 568.7,187.8 570.5,189.9 572.4,191.8 574.2,193.2 576.1,194.3 577.9,195.1 579.8,195.7 581.6,196.0 583.5,196.1 585.3,196.1 587.2,196.1
589.1,196.0 590.9,196.1 592.8,196.2 594.6,196.5 596.5,197.1 598.3,197.9 600.2,199.1 602.0,200.6 603.9,202.4 605.7,204.5 607.6,207.0 609.4,209.8 611.3,212.9 613.2,216.2 615.0,219.7 616.9,223.3
618.7,227.1 620.6,231.0 622.4,234.9 624.3,238.7 626.1,242.5 628.0,246.2 629.8,249.8 631.7,253.2 633.5,256.5 635.4,259.6 637.3,262.5 639.1,265.3 641.0,267.9 642.8,270.4 644.7,272.7 646.5,274.9
648.4,276.9 650.2,278.9 652.1,280.8 653.9,282.6 655.8,284.3 657.6,286.0 659.5,287.7 661.4,289.3 663.2,290.9 665.1,292.5 666.9,294.0 668.8,295.5 670.6,297.0 672.5,298.4 674.3,299.9 676.2,301.4
678.0,302.8 679.9,304.3 681.8,305.9 683.6,307.5 685.5,309.1 687.3,310.9 689.2,312.7 691.0,314.7 692.9,316.9 694.7,319.2 696.6,321.7 698.4,324.5 700.3,327.4 702.1,330.6 704.0,333.9 705.9,337.5
707.7,341.3 709.6,345.3 711.4,349.5 713.3,353.8 715.1,358.3 717.0,362.8 718.8,367.4 720.7,372.0 722.5,376.6 724.4,381.1 726.2,385.5 728.1,389.8 730.0,394.0 731.8,397.9 733.7,401.7 735.5,405.3
737.4,408.7 739.2,411.9 741.1,414.9 742.9,417.8 744.8,420.5 746.6,423.0 748.5,425.5 750.3,427.8 752.2,430.2 754.1,432.5 755.9,434.9 757.8,437.3 759.6,439.8 761.5,442.4 763.3,445.1 765.2,447.9
767.0,450.9 768.9,454.0 770.7,457.3 772.6,460.7 774.4,464.1 776.3,467.7 778.2,471.4 780.0,475.1 781.9,478.8 783.7,482.5 785.6,486.2 787.4,489.9 789.3,493.5 791.1,497.1 793.0,500.6 794.8,503.9
796.7,507.2 798.5,510.4 800.4,513.4 802.3,516.4 804.1,519.3 806.0,522.0 807.8,524.7 809.7,527.2 811.5,529.7 813.4,532.1 815.2,534.4 817.1,536.7 818.9,538.8 820.8,540.9 822.6,542.9 824.5,544.8
826.4,546.6 828.2,548.4 830.1,550.1 831.9,551.7 833.8,553.3 835.6,554.8 837.5,556.2 839.3,557.6 841.2,558.9 843.0,560.2 844.9,561.5 846.7,562.8 848.6,564.1 850.5,565.3 852.3,566.6 854.2,567.9
856.0,569.2 857.9,570.6 859.7,571.9 861.6,573.3 863.4,574.7 865.3,576.1 867.1,577.6 869.0,579.0 870.8,580.5 872.7,581.9 874.6,583.4 876.4,584.8 878.3,586.2 880.1,587.6 882.0,588.9 883.8,590.3
885.7,591.6 887.5,592.9 889.4,594.2 891.2,595.4 893.1,596.6 894.9,597.8 896.8,599.0 898.7,600.2 900.5,601.4 902.4,602.5 904.2,603.6 906.1,604.7 907.9,605.8 909.8,606.9 911.6,608.0 913.5,609.0
915.3,610.1 917.2,611.1 919.1,612.1 920.9,613.0 922.8,614.0 924.6,614.9 926.5,615.8 926.5,662.4 924.6,662.4 922.8,662.4 920.9,662.4 919.1,662.4 917.2,662.4 915.3,662.4 913.5,662.4 911.6,662.4
909.8,662.4 907.9,662.4 906.1,662.4 904.2,662.4 902.4,662.4 900.5,662.4 898.7,662.4 896.8,662.4 894.9,662.4 893.1,662.4 891.2,662.4 889.4,662.4 887.5,662.4 885.7,662.4 883.8,662.4 882.0,662.4
880.1,662.4 878.3,662.4 876.4,662.4 874.6,662.4 872.7,662.4 870.8,662.4 869.0,662.4 867.1,662.4 865.3,662.4 863.4,662.4 861.6,662.4 859.7,662.4 857.9,662.4 856.0,662.4 854.2,662.4 852.3,662.4
850.5,662.4 848.6,662.4 846.7,662.4 844.9,662.4 843.0,662.4 841.2,662.4 839.3,662.4 837.5,662.4 835.6,662.4 833.8,662.4 831.9,662.4 830.1,662.4 828.2,662.4 826.4,662.4 824.5,662.4 822.6,662.4
820.8,662.4 818.9,662.4 817.1,662.4 815.2,662.4 813.4,662.4 811.5,662.4 809.7,662.4 807.8,662.4 806.0,662.4 804.1,662.4 802.3,662.4 800.4,662.4 798.5,662.4 796.7,662.4 794.8,662.4 793.0,662.4
791.1,662.4 789.3,662.4 787.4,662.4 785.6,662.4 783.7,662.4 781.9,662.4 780.0,662.4 778.2,662.4 776.3,662.4 774.4,662.4 772.6,662.4 770.7,662.4 768.9,662.4 767.0,662.4 765.2,662.4 763.3,662.4
761.5,662.4 759.6,662.4 757.8,662.4 755.9,662.4 754.1,662.4 752.2,662.4 750.3,662.4 748.5,662.4 746.6,662.4 744.8,662.4 742.9,662.4 741.1,662.4 739.2,662.4 737.4,662.4 735.5,662.4 733.7,662.4
731.8,662.4 730.0,662.4 728.1,662.4 726.2,662.4 724.4,662.4 722.5,662.4 720.7,662.4 718.8,662.4 717.0,662.4 715.1,662.4 713.3,662.4 711.4,662.4 709.6,662.4 707.7,662.4 705.9,662.4 704.0,662.4
702.1,662.4 700.3,662.4 698.4,662.4 696.6,662.4 694.7,662.4 692.9,662.4 691.0,662.4 689.2,662.4 687.3,662.4 685.5,662.4 683.6,662.4 681.8,662.4 679.9,662.4 678.0,662.4 676.2,662.4 674.3,662.4
672.5,662.4 670.6,662.4 668.8,662.4 666.9,662.4 665.1,662.4 663.2,662.4 661.4,662.4 659.5,662.4 657.6,662.4 655.8,662.4 653.9,662.4 652.1,662.4 650.2,662.4 648.4,662.4 646.5,662.4 644.7,662.4
642.8,662.4 641.0,662.4 639.1,662.4 637.3,662.4 635.4,662.4 633.5,662.4 631.7,662.4 629.8,662.4 628.0,662.4 626.1,662.4 624.3,662.4 622.4,662.4 620.6,662.4 618.7,662.4 616.9,662.4 615.0,662.4
613.2,662.4 611.3,662.4 609.4,662.4 607.6,662.4 605.7,662.4 603.9,662.4 602.0,662.4 600.2,662.4 598.3,662.4 596.5,662.4 594.6,662.4 592.8,662.4 590.9,662.4 589.1,662.4 587.2,662.4 585.3,662.4
583.5,662.4 581.6,662.4 579.8,662.4 577.9,662.4 576.1,662.4 574.2,662.4 572.4,662.4 570.5,662.4 568.7,662.4 566.8,662.4 565.0,662.4 563.1,662.4 561.2,662.4 559.4,662.4 557.5,662.4 555.7,662.4
553.8,662.4 552.0,662.4 550.1,662.4 548.3,662.4 546.4,662.4 544.6,662.4 542.7,662.4 540.9,662.4 539.0,662.4 537.1,662.4 535.3,662.4 533.4,662.4 531.6,662.4 529.7,662.4 527.9,662.4 526.0,662.4
524.2,662.4 522.3,662.4 520.5,662.4 518.6,662.4 516.8,662.4 514.9,662.4 513.0,662.4 511.2,662.4 509.3,662.4 507.5,662.4 505.6,662.4 503.8,662.4 501.9,662.4 500.1,662.4 498.2,662.4 496.4,662.4
494.5,662.4 492.7,662.4 490.8,662.4 488.9,662.4 487.1,662.4 485.2,662.4 483.4,662.4 481.5,662.4 479.7,662.4 477.8,662.4 476.0,662.4 474.1,662.4 472.3,662.4 470.4,662.4 468.6,662.4 466.7,662.4
464.8,662.4 463.0,662.4 461.1,662.4 459.3,662.4 457.4,662.4 455.6,662.4 453.7,662.4 451.9,662.4 450.0,662.4 448.2,662.4 446.3,662.4 444.5,662.4 442.6,662.4 440.7,662.4 438.9,662.4 437.0,662.4
435.2,662.4 433.3,662.4 431.5,662.4 429.6,662.4 427.8,662.4 425.9,662.4 424.1,662.4 422.2,662.4 420.3,662.4 418.5,662.4 416.6,662.4 414.8,662.4 412.9,662.4 411.1,662.4 409.2,662.4 407.4,662.4
405.5,662.4 403.7,662.4 401.8,662.4 400.0,662.4 398.1,662.4 396.2,662.4 394.4,662.4 392.5,662.4 390.7,662.4 388.8,662.4 387.0,662.4 385.1,662.4 383.3,662.4 381.4,662.4 379.6,662.4 377.7,662.4
375.9,662.4 374.0,662.4 372.1,662.4 370.3,662.4 368.4,662.4 366.6,662.4 364.7,662.4 362.9,662.4 361.0,662.4 359.2,662.4 357.3,662.4 355.5,662.4 353.6,662.4 351.8,662.4 349.9,662.4 348.0,662.4
346.2,662.4 344.3,662.4 342.5,662.4 340.6,662.4 338.8,662.4 336.9,662.4 335.1,662.4 333.2,662.4 331.4,662.4 329.5,662.4 327.7,662.4 325.8,662.4 323.9,662.4 322.1,662.4 320.2,662.4 318.4,662.4
316.5,662.4 314.7,662.4 312.8,662.4 311.0,662.4 309.1,662.4 307.3,662.4 305.4,662.4 303.6,662.4 301.7,662.4 299.8,662.4 298.0,662.4 296.1,662.4 294.3,662.4 292.4,662.4 290.6,662.4 288.7,662.4
286.9,662.4 285.0,662.4 283.2,662.4 281.3,662.4 279.5,662.4 277.6,662.4 275.7,662.4 273.9,662.4 272.0,662.4 270.2,662.4 268.3,662.4 266.5,662.4 264.6,662.4 262.8,662.4 260.9,662.4 259.1,662.4
257.2,662.4 255.4,662.4 253.5,662.4 251.6,662.4 249.8,662.4 247.9,662.4 246.1,662.4 244.2,662.4 242.4,662.4 240.5,662.4 238.7,662.4 236.8,662.4 235.0,662.4 233.1,662.4 231.3,662.4 229.4,662.4
227.5,662.4 225.7,662.4 223.8,662.4 222.0,662.4 220.1,662.4 218.3,662.4 216.4,662.4 214.6,662.4 212.7,662.4 210.9,662.4 209.0,662.4 207.2,662.4 205.3,662.4 203.4,662.4 201.6,662.4 199.7,662.4
197.9,662.4 196.0,662.4 194.2,662.4 192.3,662.4 190.5,662.4 188.6,662.4 186.8,662.4 184.9,662.4 183.0,662.4 181.2,662.4 179.3,662.4 177.5,662.4 175.6,662.4 173.8,662.4 '/>
	</g>
</g>
	</g>
	<g id="gnuplot_plot_3" ><title>Point estimate</title>
<g fill="none" color="white" stroke="rgb( 31, 120, 180)" stroke-width="2.00" stroke-linecap="butt" stroke-linejoin="miter">
</g>
<g fill="none" color="black" stroke="currentColor" stroke-width="2.00" stroke-linecap="butt" stroke-linejoin="miter">
	<g transform="translate(1089.0,103.0)" stroke="none" fill="black" font-family="Helvetica" font-size="12.00"  text-anchor="start">
		<text><tspan font-family="Helvetica" >Point estimate</tspan></text>
	</g>
</g>
<g fill="none" color="black" stroke="currentColor" stroke-width="2.00" stroke-linecap="butt" stroke-linejoin="miter">
	<path stroke='rgb( 31, 120, 180)'  d='M1038.5,99.1 L1080.7,99.1 M502.1,662.4 L502.1,94.4  '/></g>
	</g>
<g fill="none" color="black" stroke="currentColor" stroke-width="2.00" stroke-linecap="butt" stroke-linejoin="miter">
</g>
<g fill="none" color="black" stroke="black" stroke-width="1.00" stroke-linecap="butt" stroke-linejoin="miter">
</g>
<g fill="none" color="black" stroke="currentColor" stroke-width="1.00" stroke-linecap="butt" stroke-linejoin="miter">
	<path stroke='black'  d='M88.5,54.1 L88.5,662.4 L1013.6,662.4 L1013.6,54.1 L88.5,54.1 Z  '/></g>
<g fill="none" color="black" stroke="currentColor" stroke-width="1.00" stroke-linecap="butt" stroke-linejoin="miter">
</g>
</g>
</svg>

