<?xml version="1.0" encoding="utf-8"  standalone="no"?>
<svg 
 viewBox="0 0 450 300"
 xmlns="http://www.w3.org/2000/svg"
 xmlns:xlink="http://www.w3.org/1999/xlink"
>

<title>Gnuplot</title>
<desc>Produced by GNUPLOT 5.2 patchlevel 6 </desc>

<g id="gnuplot_canvas">

<rect x="0" y="0" width="450" height="300" fill="none"/>
<defs>

	<circle id='gpDot' r='0.5' stroke-width='0.5' stroke='currentColor'/>
	<path id='gpPt0' stroke-width='0.222' stroke='currentColor' d='M-1,0 h2 M0,-1 v2'/>
	<path id='gpPt1' stroke-width='0.222' stroke='currentColor' d='M-1,-1 L1,1 M1,-1 L-1,1'/>
	<path id='gpPt2' stroke-width='0.222' stroke='currentColor' d='M-1,0 L1,0 M0,-1 L0,1 M-1,-1 L1,1 M-1,1 L1,-1'/>
	<rect id='gpPt3' stroke-width='0.222' stroke='currentColor' x='-1' y='-1' width='2' height='2'/>
	<rect id='gpPt4' stroke-width='0.222' stroke='currentColor' fill='currentColor' x='-1' y='-1' width='2' height='2'/>
	<circle id='gpPt5' stroke-width='0.222' stroke='currentColor' cx='0' cy='0' r='1'/>
	<use xlink:href='#gpPt5' id='gpPt6' fill='currentColor' stroke='none'/>
	<path id='gpPt7' stroke-width='0.222' stroke='currentColor' d='M0,-1.33 L-1.33,0.67 L1.33,0.67 z'/>
	<use xlink:href='#gpPt7' id='gpPt8' fill='currentColor' stroke='none'/>
	<use xlink:href='#gpPt7' id='gpPt9' stroke='currentColor' transform='rotate(180)'/>
	<use xlink:href='#gpPt9' id='gpPt10' fill='currentColor' stroke='none'/>
	<use xlink:href='#gpPt3' id='gpPt11' stroke='currentColor' transform='rotate(45)'/>
	<use xlink:href='#gpPt11' id='gpPt12' fill='currentColor' stroke='none'/>
	<path id='gpPt13' stroke-width='0.222' stroke='currentColor' d='M0,1.330 L1.265,0.411 L0.782,-1.067 L-0.782,-1.076 L-1.265,0.411 z'/>
	<use xlink:href='#gpPt13' id='gpPt14' fill='currentColor' stroke='none'/>
	<filter id='textbox' filterUnits='objectBoundingBox' x='0' y='0' height='1' width='1'>
	  <feFlood flood-color='white' flood-opacity='1' result='bgnd'/>
	  <feComposite in='SourceGraphic' in2='bgnd' operator='atop'/>
	</filter>
	<filter id='greybox' filterUnits='objectBoundingBox' x='0' y='0' height='1' width='1'>
	  <feFlood flood-color='lightgrey' flood-opacity='1' result='grey'/>
	  <feComposite in='SourceGraphic' in2='grey' operator='atop'/>
	</filter>
</defs>
<g fill="none" color="white" stroke="currentColor" stroke-width="1.00" stroke-linecap="butt" stroke-linejoin="miter">
</g>
<g fill="none" color="black" stroke="currentColor" stroke-width="1.00" stroke-linecap="butt" stroke-linejoin="miter">
	<path stroke='black'  d='M71.9,242.4 L80.9,242.4  '/>	<g transform="translate(63.6,246.3)" stroke="none" fill="black" font-family="Helvetica" font-size="12.00"  text-anchor="end">
		<text><tspan font-family="Helvetica" > 0</tspan></text>
	</g>
</g>
<g fill="none" color="black" stroke="currentColor" stroke-width="1.00" stroke-linecap="butt" stroke-linejoin="miter">
	<path stroke='black'  d='M71.9,215.2 L80.9,215.2  '/>	<g transform="translate(63.6,219.1)" stroke="none" fill="black" font-family="Helvetica" font-size="12.00"  text-anchor="end">
		<text><tspan font-family="Helvetica" > 0.2</tspan></text>
	</g>
</g>
<g fill="none" color="black" stroke="currentColor" stroke-width="1.00" stroke-linecap="butt" stroke-linejoin="miter">
	<path stroke='black'  d='M71.9,187.9 L80.9,187.9  '/>	<g transform="translate(63.6,191.8)" stroke="none" fill="black" font-family="Helvetica" font-size="12.00"  text-anchor="end">
		<text><tspan font-family="Helvetica" > 0.4</tspan></text>
	</g>
</g>
<g fill="none" color="black" stroke="currentColor" stroke-width="1.00" stroke-linecap="butt" stroke-linejoin="miter">
	<path stroke='black'  d='M71.9,160.7 L80.9,160.7  '/>	<g transform="translate(63.6,164.6)" stroke="none" fill="black" font-family="Helvetica" font-size="12.00"  text-anchor="end">
		<text><tspan font-family="Helvetica" > 0.6</tspan></text>
	</g>
</g>
<g fill="none" color="black" stroke="currentColor" stroke-width="1.00" stroke-linecap="butt" stroke-linejoin="miter">
	<path stroke='black'  d='M71.9,133.4 L80.9,133.4  '/>	<g transform="translate(63.6,137.3)" stroke="none" fill="black" font-family="Helvetica" font-size="12.00"  text-anchor="end">
		<text><tspan font-family="Helvetica" > 0.8</tspan></text>
	</g>
</g>
<g fill="none" color="black" stroke="currentColor" stroke-width="1.00" stroke-linecap="butt" stroke-linejoin="miter">
	<path stroke='black'  d='M71.9,106.2 L80.9,106.2  '/>	<g transform="translate(63.6,110.1)" stroke="none" fill="black" font-family="Helvetica" font-size="12.00"  text-anchor="end">
		<text><tspan font-family="Helvetica" > 1</tspan></text>
	</g>
</g>
<g fill="none" color="black" stroke="currentColor" stroke-width="1.00" stroke-linecap="butt" stroke-linejoin="miter">
	<path stroke='black'  d='M71.9,78.9 L80.9,78.9  '/>	<g transform="translate(63.6,82.8)" stroke="none" fill="black" font-family="Helvetica" font-size="12.00"  text-anchor="end">
		<text><tspan font-family="Helvetica" > 1.2</tspan></text>
	</g>
</g>
<g fill="none" color="black" stroke="currentColor" stroke-width="1.00" stroke-linecap="butt" stroke-linejoin="miter">
	<path stroke='black'  d='M71.9,51.7 L80.9,51.7  '/>	<g transform="translate(63.6,55.6)" stroke="none" fill="black" font-family="Helvetica" font-size="12.00"  text-anchor="end">
		<text><tspan font-family="Helvetica" > 1.4</tspan></text>
	</g>
</g>
<g fill="none" color="black" stroke="currentColor" stroke-width="1.00" stroke-linecap="butt" stroke-linejoin="miter">
	<path stroke='black'  d='M71.9,24.4 L80.9,24.4  '/>	<g transform="translate(63.6,28.3)" stroke="none" fill="black" font-family="Helvetica" font-size="12.00"  text-anchor="end">
		<text><tspan font-family="Helvetica" > 1.6</tspan></text>
	</g>
</g>
<g fill="none" color="black" stroke="currentColor" stroke-width="1.00" stroke-linecap="butt" stroke-linejoin="miter">
	<path stroke='black'  d='M116.1,242.4 L116.1,233.4  '/>	<g transform="translate(116.1,264.3)" stroke="none" fill="black" font-family="Helvetica" font-size="12.00"  text-anchor="middle">
		<text><tspan font-family="Helvetica" > 23</tspan></text>
	</g>
</g>
<g fill="none" color="black" stroke="currentColor" stroke-width="1.00" stroke-linecap="butt" stroke-linejoin="miter">
	<path stroke='black'  d='M183.8,242.4 L183.8,233.4  '/>	<g transform="translate(183.8,264.3)" stroke="none" fill="black" font-family="Helvetica" font-size="12.00"  text-anchor="middle">
		<text><tspan font-family="Helvetica" > 24</tspan></text>
	</g>
</g>
<g fill="none" color="black" stroke="currentColor" stroke-width="1.00" stroke-linecap="butt" stroke-linejoin="miter">
	<path stroke='black'  d='M251.6,242.4 L251.6,233.4  '/>	<g transform="translate(251.6,264.3)" stroke="none" fill="black" font-family="Helvetica" font-size="12.00"  text-anchor="middle">
		<text><tspan font-family="Helvetica" > 25</tspan></text>
	</g>
</g>
<g fill="none" color="black" stroke="currentColor" stroke-width="1.00" stroke-linecap="butt" stroke-linejoin="miter">
	<path stroke='black'  d='M319.3,242.4 L319.3,233.4  '/>	<g transform="translate(319.3,264.3)" stroke="none" fill="black" font-family="Helvetica" font-size="12.00"  text-anchor="middle">
		<text><tspan font-family="Helvetica" > 26</tspan></text>
	</g>
</g>
<g fill="none" color="black" stroke="currentColor" stroke-width="1.00" stroke-linecap="butt" stroke-linejoin="miter">
	<path stroke='black'  d='M387.0,242.4 L387.0,233.4  '/>	<g transform="translate(387.0,264.3)" stroke="none" fill="black" font-family="Helvetica" font-size="12.00"  text-anchor="middle">
		<text><tspan font-family="Helvetica" > 27</tspan></text>
	</g>
</g>
<g fill="none" color="black" stroke="currentColor" stroke-width="1.00" stroke-linecap="butt" stroke-linejoin="miter">
</g>
<g fill="none" color="black" stroke="currentColor" stroke-width="1.00" stroke-linecap="butt" stroke-linejoin="miter">
	<path stroke='black'  d='M71.9,18.1 L71.9,242.4 L425.0,242.4 L425.0,18.1 L71.9,18.1 Z  '/></g>
<g fill="none" color="black" stroke="currentColor" stroke-width="1.00" stroke-linecap="butt" stroke-linejoin="miter">
	<g transform="translate(16.3,130.3) rotate(270)" stroke="none" fill="black" font-family="Helvetica" font-size="12.00"  text-anchor="middle">
		<text><tspan font-family="Helvetica" >Density (a.u.)</tspan></text>
	</g>
</g>
<g fill="none" color="black" stroke="currentColor" stroke-width="1.00" stroke-linecap="butt" stroke-linejoin="miter">
	<g transform="translate(248.4,291.3)" stroke="none" fill="black" font-family="Helvetica" font-size="12.00"  text-anchor="middle">
		<text><tspan font-family="Helvetica" >Average time (us)</tspan></text>
	</g>
</g>
<g fill="none" color="black" stroke="currentColor" stroke-width="1.00" stroke-linecap="butt" stroke-linejoin="miter">
</g>
	<g id="gnuplot_plot_1" ><title>PDF</title>
<g fill="none" color="black" stroke="currentColor" stroke-width="1.00" stroke-linecap="butt" stroke-linejoin="miter">
	<g stroke='none' shape-rendering='crispEdges'>
		<polygon fill = 'rgb( 31, 120, 180)' fill-opacity = '0.250000' points = '71.9,242.2 72.6,242.1 73.3,242.1 74.0,242.0 74.7,242.0 75.4,241.9 76.1,241.8 76.9,241.7 77.6,241.6 78.3,241.5 79.0,241.3 79.7,241.2 80.4,241.0 81.1,240.8 81.8,240.6 82.5,240.3
83.2,240.0 83.9,239.7 84.6,239.3 85.3,238.9 86.1,238.5 86.8,238.0 87.5,237.4 88.2,236.8 88.9,236.1 89.6,235.3 90.3,234.5 91.0,233.6 91.7,232.6 92.4,231.5 93.1,230.3 93.8,228.9
94.5,227.5 95.3,225.9 96.0,224.3 96.7,222.4 97.4,220.5 98.1,218.4 98.8,216.1 99.5,213.7 100.2,211.1 100.9,208.4 101.6,205.4 102.3,202.3 103.0,199.0 103.7,195.6 104.5,191.9 105.2,188.1
105.9,184.1 106.6,179.9 107.3,175.5 108.0,170.9 108.7,166.2 109.4,161.3 110.1,156.3 110.8,151.1 111.5,145.8 112.2,140.3 112.9,134.8 113.6,129.2 114.4,123.5 115.1,117.7 115.8,111.9 116.5,106.1
117.2,100.2 117.9,94.5 118.6,88.7 119.3,83.0 120.0,77.4 120.7,72.0 121.4,66.7 122.1,61.5 122.8,56.5 123.6,51.8 124.3,47.3 125.0,43.0 125.7,39.0 126.4,35.3 127.1,32.0 127.8,28.9
128.5,26.3 129.2,23.9 129.9,22.0 130.6,20.4 131.3,19.3 132.0,18.5 132.8,18.1 133.5,18.1 134.2,18.6 134.9,19.4 135.6,20.6 136.3,22.2 137.0,24.2 137.7,26.5 138.4,29.2 139.1,32.2
139.8,35.5 140.5,39.2 141.2,43.1 142.0,47.3 142.7,51.7 143.4,56.3 144.1,61.2 144.8,66.2 145.5,71.3 146.2,76.6 146.9,82.0 147.6,87.5 148.3,93.0 149.0,98.5 149.7,104.1 150.4,109.7
151.2,115.2 151.9,120.7 152.6,126.2 153.3,131.5 154.0,136.8 154.7,141.9 155.4,147.0 156.1,151.9 156.8,156.7 157.5,161.3 158.2,165.8 158.9,170.1 159.6,174.3 160.4,178.3 161.1,182.1 161.8,185.8
162.5,189.3 163.2,192.6 163.9,195.7 164.6,198.7 165.3,201.5 166.0,204.2 166.7,206.7 167.4,209.0 168.1,211.2 168.8,213.3 169.6,215.2 170.3,217.0 171.0,218.6 171.7,220.2 172.4,221.6 173.1,223.0
173.8,224.2 174.5,225.3 175.2,226.4 175.9,227.4 176.6,228.3 177.3,229.1 178.0,229.9 178.7,230.6 179.5,231.2 180.2,231.8 180.9,232.3 181.6,232.9 182.3,233.3 183.0,233.7 183.7,234.1 184.4,234.5
185.1,234.8 185.8,235.2 186.5,235.5 187.2,235.7 187.9,236.0 188.7,236.2 189.4,236.4 190.1,236.6 190.8,236.8 191.5,237.0 192.2,237.2 192.9,237.3 193.6,237.4 194.3,237.6 195.0,237.7 195.7,237.8
196.4,237.9 197.1,238.0 197.9,238.0 198.6,238.1 199.3,238.2 200.0,238.2 200.7,238.2 201.4,238.3 202.1,238.3 202.8,238.3 203.5,238.3 204.2,238.3 204.9,238.3 205.6,238.2 206.3,238.2 207.1,238.2
207.8,238.1 208.5,238.1 209.2,238.0 209.9,238.0 210.6,237.9 211.3,237.8 212.0,237.7 212.7,237.7 213.4,237.6 214.1,237.5 214.8,237.4 215.5,237.4 216.3,237.3 217.0,237.2 217.7,237.2 218.4,237.1
219.1,237.0 219.8,237.0 220.5,236.9 221.2,236.9 221.9,236.8 222.6,236.8 223.3,236.8 224.0,236.7 224.7,236.7 225.5,236.7 226.2,236.7 226.9,236.7 227.6,236.7 228.3,236.7 229.0,236.7 229.7,236.7
230.4,236.8 231.1,236.8 231.8,236.8 232.5,236.9 233.2,236.9 233.9,237.0 234.7,237.0 235.4,237.1 236.1,237.2 236.8,237.2 237.5,237.3 238.2,237.4 238.9,237.4 239.6,237.5 240.3,237.6 241.0,237.6
241.7,237.7 242.4,237.8 243.1,237.9 243.9,237.9 244.6,238.0 245.3,238.1 246.0,238.1 246.7,238.2 247.4,238.3 248.1,238.4 248.8,238.4 249.5,238.5 250.2,238.6 250.9,238.7 251.6,238.7 252.3,238.8
253.0,238.9 253.8,238.9 254.5,239.0 255.2,239.1 255.9,239.2 256.6,239.3 257.3,239.3 258.0,239.4 258.7,239.5 259.4,239.6 260.1,239.7 260.8,239.7 261.5,239.8 262.2,239.9 263.0,240.0 263.7,240.1
264.4,240.2 265.1,240.2 265.8,240.3 266.5,240.4 267.2,240.5 267.9,240.6 268.6,240.6 269.3,240.7 270.0,240.8 270.7,240.9 271.4,241.0 272.2,241.0 272.9,241.1 273.6,241.2 274.3,241.3 275.0,241.3
275.7,241.4 276.4,241.5 277.1,241.5 277.8,241.6 278.5,241.6 279.2,241.7 279.9,241.7 280.6,241.8 281.4,241.8 282.1,241.9 282.8,241.9 283.5,242.0 284.2,242.0 284.9,242.0 285.6,242.1 286.3,242.1
287.0,242.1 287.7,242.1 288.4,242.2 289.1,242.2 289.8,242.2 290.6,242.2 291.3,242.2 292.0,242.3 292.7,242.3 293.4,242.3 294.1,242.3 294.8,242.3 295.5,242.3 296.2,242.3 296.9,242.3 297.6,242.3
298.3,242.3 299.0,242.4 299.8,242.4 300.5,242.4 301.2,242.4 301.9,242.4 302.6,242.4 303.3,242.4 304.0,242.4 304.7,242.4 305.4,242.4 306.1,242.4 306.8,242.4 307.5,242.4 308.2,242.4 309.0,242.4
309.7,242.4 310.4,242.4 311.1,242.4 311.8,242.4 312.5,242.3 313.2,242.3 313.9,242.3 314.6,242.3 315.3,242.3 316.0,242.3 316.7,242.3 317.4,242.3 318.2,242.3 318.9,242.3 319.6,242.2 320.3,242.2
321.0,242.2 321.7,242.2 322.4,242.2 323.1,242.1 323.8,242.1 324.5,242.1 325.2,242.0 325.9,242.0 326.6,242.0 327.3,241.9 328.1,241.9 328.8,241.8 329.5,241.8 330.2,241.7 330.9,241.7 331.6,241.6
332.3,241.6 333.0,241.5 333.7,241.5 334.4,241.4 335.1,241.3 335.8,241.3 336.5,241.2 337.3,241.1 338.0,241.0 338.7,240.9 339.4,240.9 340.1,240.8 340.8,240.7 341.5,240.6 342.2,240.5 342.9,240.4
343.6,240.3 344.3,240.2 345.0,240.1 345.7,240.0 346.5,240.0 347.2,239.9 347.9,239.8 348.6,239.7 349.3,239.6 350.0,239.5 350.7,239.4 351.4,239.3 352.1,239.2 352.8,239.2 353.5,239.1 354.2,239.0
354.9,238.9 355.7,238.9 356.4,238.8 357.1,238.7 357.8,238.7 358.5,238.6 359.2,238.6 359.9,238.5 360.6,238.5 361.3,238.4 362.0,238.4 362.7,238.4 363.4,238.3 364.1,238.3 364.9,238.3 365.6,238.3
366.3,238.3 367.0,238.3 367.7,238.3 368.4,238.3 369.1,238.3 369.8,238.3 370.5,238.3 371.2,238.3 371.9,238.4 372.6,238.4 373.3,238.4 374.1,238.5 374.8,238.5 375.5,238.6 376.2,238.6 376.9,238.7
377.6,238.8 378.3,238.8 379.0,238.9 379.7,239.0 380.4,239.1 381.1,239.1 381.8,239.2 382.5,239.3 383.3,239.4 384.0,239.5 384.7,239.6 385.4,239.6 386.1,239.7 386.8,239.8 387.5,239.9 388.2,240.0
388.9,240.1 389.6,240.2 390.3,240.3 391.0,240.4 391.7,240.5 392.4,240.6 393.2,240.7 393.9,240.7 394.6,240.8 395.3,240.9 396.0,241.0 396.7,241.1 397.4,241.2 398.1,241.2 398.8,241.3 399.5,241.4
400.2,241.4 400.9,241.5 401.6,241.6 402.4,241.6 403.1,241.7 403.8,241.7 404.5,241.8 405.2,241.8 405.9,241.9 406.6,241.9 407.3,242.0 408.0,242.0 408.7,242.0 409.4,242.1 410.1,242.1 410.8,242.1
411.6,242.1 412.3,242.2 413.0,242.2 413.7,242.2 414.4,242.2 415.1,242.2 415.8,242.3 416.5,242.3 417.2,242.3 417.9,242.3 418.6,242.3 419.3,242.3 420.0,242.3 420.8,242.3 421.5,242.3 422.2,242.4
422.9,242.4 423.6,242.4 424.3,242.4 425.0,242.4 425.0,242.4 424.3,242.4 423.6,242.4 422.9,242.4 422.2,242.4 421.5,242.4 420.8,242.4 420.0,242.4 419.3,242.4 418.6,242.4 417.9,242.4 417.2,242.4
416.5,242.4 415.8,242.4 415.1,242.4 414.4,242.4 413.7,242.4 413.0,242.4 412.3,242.4 411.6,242.4 410.8,242.4 410.1,242.4 409.4,242.4 408.7,242.4 408.0,242.4 407.3,242.4 406.6,242.4 405.9,242.4
405.2,242.4 404.5,242.4 403.8,242.4 403.1,242.4 402.4,242.4 401.6,242.4 400.9,242.4 400.2,242.4 399.5,242.4 398.8,242.4 398.1,242.4 397.4,242.4 396.7,242.4 396.0,242.4 395.3,242.4 394.6,242.4
393.9,242.4 393.2,242.4 392.4,242.4 391.7,242.4 391.0,242.4 390.3,242.4 389.6,242.4 388.9,242.4 388.2,242.4 387.5,242.4 386.8,242.4 386.1,242.4 385.4,242.4 384.7,242.4 384.0,242.4 383.3,242.4
382.5,242.4 381.8,242.4 381.1,242.4 380.4,242.4 379.7,242.4 379.0,242.4 378.3,242.4 377.6,242.4 376.9,242.4 376.2,242.4 375.5,242.4 374.8,242.4 374.1,242.4 373.3,242.4 372.6,242.4 371.9,242.4
371.2,242.4 370.5,242.4 369.8,242.4 369.1,242.4 368.4,242.4 367.7,242.4 367.0,242.4 366.3,242.4 365.6,242.4 364.9,242.4 364.1,242.4 363.4,242.4 362.7,242.4 362.0,242.4 361.3,242.4 360.6,242.4
359.9,242.4 359.2,242.4 358.5,242.4 357.8,242.4 357.1,242.4 356.4,242.4 355.7,242.4 354.9,242.4 354.2,242.4 353.5,242.4 352.8,242.4 352.1,242.4 351.4,242.4 350.7,242.4 350.0,242.4 349.3,242.4
348.6,242.4 347.9,242.4 347.2,242.4 346.5,242.4 345.7,242.4 345.0,242.4 344.3,242.4 343.6,242.4 342.9,242.4 342.2,242.4 341.5,242.4 340.8,242.4 340.1,242.4 339.4,242.4 338.7,242.4 338.0,242.4
337.3,242.4 336.5,242.4 335.8,242.4 335.1,242.4 334.4,242.4 333.7,242.4 333.0,242.4 332.3,242.4 331.6,242.4 330.9,242.4 330.2,242.4 329.5,242.4 328.8,242.4 328.1,242.4 327.3,242.4 326.6,242.4
325.9,242.4 325.2,242.4 324.5,242.4 323.8,242.4 323.1,242.4 322.4,242.4 321.7,242.4 321.0,242.4 320.3,242.4 319.6,242.4 318.9,242.4 318.2,242.4 317.4,242.4 316.7,242.4 316.0,242.4 315.3,242.4
314.6,242.4 313.9,242.4 313.2,242.4 312.5,242.4 311.8,242.4 311.1,242.4 310.4,242.4 309.7,242.4 309.0,242.4 308.2,242.4 307.5,242.4 306.8,242.4 306.1,242.4 305.4,242.4 304.7,242.4 304.0,242.4
303.3,242.4 302.6,242.4 301.9,242.4 301.2,242.4 300.5,242.4 299.8,242.4 299.0,242.4 298.3,242.4 297.6,242.4 296.9,242.4 296.2,242.4 295.5,242.4 294.8,242.4 294.1,242.4 293.4,242.4 292.7,242.4
292.0,242.4 291.3,242.4 290.6,242.4 289.8,242.4 289.1,242.4 288.4,242.4 287.7,242.4 287.0,242.4 286.3,242.4 285.6,242.4 284.9,242.4 284.2,242.4 283.5,242.4 282.8,242.4 282.1,242.4 281.4,242.4
280.6,242.4 279.9,242.4 279.2,242.4 278.5,242.4 277.8,242.4 277.1,242.4 276.4,242.4 275.7,242.4 275.0,242.4 274.3,242.4 273.6,242.4 272.9,242.4 272.2,242.4 271.4,242.4 270.7,242.4 270.0,242.4
269.3,242.4 268.6,242.4 267.9,242.4 267.2,242.4 266.5,242.4 265.8,242.4 265.1,242.4 264.4,242.4 263.7,242.4 263.0,242.4 262.2,242.4 261.5,242.4 260.8,242.4 260.1,242.4 259.4,242.4 258.7,242.4
258.0,242.4 257.3,242.4 256.6,242.4 255.9,242.4 255.2,242.4 254.5,242.4 253.8,242.4 253.0,242.4 252.3,242.4 251.6,242.4 250.9,242.4 250.2,242.4 249.5,242.4 248.8,242.4 248.1,242.4 247.4,242.4
246.7,242.4 246.0,242.4 245.3,242.4 244.6,242.4 243.9,242.4 243.1,242.4 242.4,242.4 241.7,242.4 241.0,242.4 240.3,242.4 239.6,242.4 238.9,242.4 238.2,242.4 237.5,242.4 236.8,242.4 236.1,242.4
235.4,242.4 234.7,242.4 233.9,242.4 233.2,242.4 232.5,242.4 231.8,242.4 231.1,242.4 230.4,242.4 229.7,242.4 229.0,242.4 228.3,242.4 227.6,242.4 226.9,242.4 226.2,242.4 225.5,242.4 224.7,242.4
224.0,242.4 223.3,242.4 222.6,242.4 221.9,242.4 221.2,242.4 220.5,242.4 219.8,242.4 219.1,242.4 218.4,242.4 217.7,242.4 217.0,242.4 216.3,242.4 215.5,242.4 214.8,242.4 214.1,242.4 213.4,242.4
212.7,242.4 212.0,242.4 211.3,242.4 210.6,242.4 209.9,242.4 209.2,242.4 208.5,242.4 207.8,242.4 207.1,242.4 206.3,242.4 205.6,242.4 204.9,242.4 204.2,242.4 203.5,242.4 202.8,242.4 202.1,242.4
201.4,242.4 200.7,242.4 200.0,242.4 199.3,242.4 198.6,242.4 197.9,242.4 197.1,242.4 196.4,242.4 195.7,242.4 195.0,242.4 194.3,242.4 193.6,242.4 192.9,242.4 192.2,242.4 191.5,242.4 190.8,242.4
190.1,242.4 189.4,242.4 188.7,242.4 187.9,242.4 187.2,242.4 186.5,242.4 185.8,242.4 185.1,242.4 184.4,242.4 183.7,242.4 183.0,242.4 182.3,242.4 181.6,242.4 180.9,242.4 180.2,242.4 179.5,242.4
178.7,242.4 178.0,242.4 177.3,242.4 176.6,242.4 175.9,242.4 175.2,242.4 174.5,242.4 173.8,242.4 173.1,242.4 172.4,242.4 171.7,242.4 171.0,242.4 170.3,242.4 169.6,242.4 168.8,242.4 168.1,242.4
167.4,242.4 166.7,242.4 166.0,242.4 165.3,242.4 164.6,242.4 163.9,242.4 163.2,242.4 162.5,242.4 161.8,242.4 161.1,242.4 160.4,242.4 159.6,242.4 158.9,242.4 158.2,242.4 157.5,242.4 156.8,242.4
156.1,242.4 155.4,242.4 154.7,242.4 154.0,242.4 153.3,242.4 152.6,242.4 151.9,242.4 151.2,242.4 150.4,242.4 149.7,242.4 149.0,242.4 148.3,242.4 147.6,242.4 146.9,242.4 146.2,242.4 145.5,242.4
144.8,242.4 144.1,242.4 143.4,242.4 142.7,242.4 142.0,242.4 141.2,242.4 140.5,242.4 139.8,242.4 139.1,242.4 138.4,242.4 137.7,242.4 137.0,242.4 136.3,242.4 135.6,242.4 134.9,242.4 134.2,242.4
133.5,242.4 132.8,242.4 132.0,242.4 131.3,242.4 130.6,242.4 129.9,242.4 129.2,242.4 128.5,242.4 127.8,242.4 127.1,242.4 126.4,242.4 125.7,242.4 125.0,242.4 124.3,242.4 123.6,242.4 122.8,242.4
122.1,242.4 121.4,242.4 120.7,242.4 120.0,242.4 119.3,242.4 118.6,242.4 117.9,242.4 117.2,242.4 116.5,242.4 115.8,242.4 115.1,242.4 114.4,242.4 113.6,242.4 112.9,242.4 112.2,242.4 111.5,242.4
110.8,242.4 110.1,242.4 109.4,242.4 108.7,242.4 108.0,242.4 107.3,242.4 106.6,242.4 105.9,242.4 105.2,242.4 104.5,242.4 103.7,242.4 103.0,242.4 102.3,242.4 101.6,242.4 100.9,242.4 100.2,242.4
99.5,242.4 98.8,242.4 98.1,242.4 97.4,242.4 96.7,242.4 96.0,242.4 95.3,242.4 94.5,242.4 93.8,242.4 93.1,242.4 92.4,242.4 91.7,242.4 91.0,242.4 90.3,242.4 89.6,242.4 88.9,242.4
88.2,242.4 87.5,242.4 86.8,242.4 86.1,242.4 85.3,242.4 84.6,242.4 83.9,242.4 83.2,242.4 82.5,242.4 81.8,242.4 81.1,242.4 80.4,242.4 79.7,242.4 79.0,242.4 78.3,242.4 77.6,242.4
76.9,242.4 76.1,242.4 75.4,242.4 74.7,242.4 74.0,242.4 73.3,242.4 72.6,242.4 71.9,242.4 '/>
	</g>
</g>
	</g>
	<g id="gnuplot_plot_2" ><title>Mean</title>
<g fill="none" color="white" stroke="rgb( 31, 120, 180)" stroke-width="2.00" stroke-linecap="butt" stroke-linejoin="miter">
</g>
<g fill="none" color="black" stroke="currentColor" stroke-width="2.00" stroke-linecap="butt" stroke-linejoin="miter">
	<path stroke='rgb( 31, 120, 180)'  d='M142.1,242.4 L142.1,65.8  '/></g>
	</g>
<g fill="none" color="black" stroke="currentColor" stroke-width="2.00" stroke-linecap="butt" stroke-linejoin="miter">
</g>
<g fill="none" color="black" stroke="black" stroke-width="1.00" stroke-linecap="butt" stroke-linejoin="miter">
</g>
<g fill="none" color="black" stroke="currentColor" stroke-width="1.00" stroke-linecap="butt" stroke-linejoin="miter">
	<path stroke='black'  d='M71.9,18.1 L71.9,242.4 L425.0,242.4 L425.0,18.1 L71.9,18.1 Z  '/></g>
<g fill="none" color="black" stroke="currentColor" stroke-width="1.00" stroke-linecap="butt" stroke-linejoin="miter">
</g>
</g>
</svg>

