group,function,value,throughput_num,throughput_type,sample_measured_value,unit,iteration_count
snapshot_restore_with_dense,Dense: Entire region + process_vm_writev,10,,,1042574.0,ns,37
snapshot_restore_with_dense,Dense: Entire region + process_vm_writev,10,,,1991977.0,ns,74
snapshot_restore_with_dense,Dense: Entire region + process_vm_writev,10,,,2961247.0,ns,111
snapshot_restore_with_dense,Dense: Entire region + process_vm_writev,10,,,3966200.0,ns,148
snapshot_restore_with_dense,Dense: Entire region + process_vm_writev,10,,,5611808.0,ns,185
snapshot_restore_with_dense,Dense: Entire region + process_vm_writev,10,,,5948880.0,ns,222
snapshot_restore_with_dense,Dense: Entire region + process_vm_writev,10,,,7642611.0,ns,259
snapshot_restore_with_dense,Dense: Entire region + process_vm_writev,10,,,8396278.0,ns,296
snapshot_restore_with_dense,Dense: Entire region + process_vm_writev,10,,,9216844.0,ns,333
snapshot_restore_with_dense,Dense: Entire region + process_vm_writev,10,,,10047234.0,ns,370
snapshot_restore_with_dense,Dense: Entire region + process_vm_writev,10,,,10972203.0,ns,407
snapshot_restore_with_dense,Dense: Entire region + process_vm_writev,10,,,11930283.0,ns,444
snapshot_restore_with_dense,Dense: Entire region + process_vm_writev,10,,,12949232.0,ns,481
snapshot_restore_with_dense,Dense: Entire region + process_vm_writev,10,,,13829837.0,ns,518
snapshot_restore_with_dense,Dense: Entire region + process_vm_writev,10,,,14852482.0,ns,555
snapshot_restore_with_dense,Dense: Entire region + process_vm_writev,10,,,15901068.0,ns,592
snapshot_restore_with_dense,Dense: Entire region + process_vm_writev,10,,,16855122.0,ns,629
snapshot_restore_with_dense,Dense: Entire region + process_vm_writev,10,,,17782552.0,ns,666
snapshot_restore_with_dense,Dense: Entire region + process_vm_writev,10,,,18837983.0,ns,703
snapshot_restore_with_dense,Dense: Entire region + process_vm_writev,10,,,19772107.0,ns,740
snapshot_restore_with_dense,Dense: Entire region + process_vm_writev,10,,,20763893.0,ns,777
snapshot_restore_with_dense,Dense: Entire region + process_vm_writev,10,,,21741687.0,ns,814
snapshot_restore_with_dense,Dense: Entire region + process_vm_writev,10,,,22744159.0,ns,851
snapshot_restore_with_dense,Dense: Entire region + process_vm_writev,10,,,23890296.0,ns,888
snapshot_restore_with_dense,Dense: Entire region + process_vm_writev,10,,,24742429.0,ns,925
snapshot_restore_with_dense,Dense: Entire region + process_vm_writev,10,,,25781768.0,ns,962
snapshot_restore_with_dense,Dense: Entire region + process_vm_writev,10,,,26756937.0,ns,999
snapshot_restore_with_dense,Dense: Entire region + process_vm_writev,10,,,27714329.0,ns,1036
snapshot_restore_with_dense,Dense: Entire region + process_vm_writev,10,,,28674339.0,ns,1073
snapshot_restore_with_dense,Dense: Entire region + process_vm_writev,10,,,29653420.0,ns,1110
snapshot_restore_with_dense,Dense: Entire region + process_vm_writev,10,,,30650756.0,ns,1147
snapshot_restore_with_dense,Dense: Entire region + process_vm_writev,10,,,31633095.0,ns,1184
snapshot_restore_with_dense,Dense: Entire region + process_vm_writev,10,,,32615787.0,ns,1221
snapshot_restore_with_dense,Dense: Entire region + process_vm_writev,10,,,33631542.0,ns,1258
snapshot_restore_with_dense,Dense: Entire region + process_vm_writev,10,,,34625020.0,ns,1295
snapshot_restore_with_dense,Dense: Entire region + process_vm_writev,10,,,35624725.0,ns,1332
snapshot_restore_with_dense,Dense: Entire region + process_vm_writev,10,,,36563335.0,ns,1369
snapshot_restore_with_dense,Dense: Entire region + process_vm_writev,10,,,37613258.0,ns,1406
snapshot_restore_with_dense,Dense: Entire region + process_vm_writev,10,,,38555379.0,ns,1443
snapshot_restore_with_dense,Dense: Entire region + process_vm_writev,10,,,39689917.0,ns,1480
snapshot_restore_with_dense,Dense: Entire region + process_vm_writev,10,,,40884801.0,ns,1517
snapshot_restore_with_dense,Dense: Entire region + process_vm_writev,10,,,41597881.0,ns,1554
snapshot_restore_with_dense,Dense: Entire region + process_vm_writev,10,,,42598778.0,ns,1591
snapshot_restore_with_dense,Dense: Entire region + process_vm_writev,10,,,43571637.0,ns,1628
snapshot_restore_with_dense,Dense: Entire region + process_vm_writev,10,,,44640264.0,ns,1665
snapshot_restore_with_dense,Dense: Entire region + process_vm_writev,10,,,45673562.0,ns,1702
snapshot_restore_with_dense,Dense: Entire region + process_vm_writev,10,,,46687942.0,ns,1739
snapshot_restore_with_dense,Dense: Entire region + process_vm_writev,10,,,47546233.0,ns,1776
snapshot_restore_with_dense,Dense: Entire region + process_vm_writev,10,,,48547137.0,ns,1813
snapshot_restore_with_dense,Dense: Entire region + process_vm_writev,10,,,49502581.0,ns,1850
snapshot_restore_with_dense,Dense: Entire region + process_vm_writev,10,,,50484434.0,ns,1887
snapshot_restore_with_dense,Dense: Entire region + process_vm_writev,10,,,51467903.0,ns,1924
snapshot_restore_with_dense,Dense: Entire region + process_vm_writev,10,,,52398118.0,ns,1961
snapshot_restore_with_dense,Dense: Entire region + process_vm_writev,10,,,53396629.0,ns,1998
snapshot_restore_with_dense,Dense: Entire region + process_vm_writev,10,,,54449853.0,ns,2035
snapshot_restore_with_dense,Dense: Entire region + process_vm_writev,10,,,55416490.0,ns,2072
snapshot_restore_with_dense,Dense: Entire region + process_vm_writev,10,,,56514946.0,ns,2109
snapshot_restore_with_dense,Dense: Entire region + process_vm_writev,10,,,57381794.0,ns,2146
snapshot_restore_with_dense,Dense: Entire region + process_vm_writev,10,,,58440189.0,ns,2183
snapshot_restore_with_dense,Dense: Entire region + process_vm_writev,10,,,60723178.0,ns,2220
snapshot_restore_with_dense,Dense: Entire region + process_vm_writev,10,,,60658367.0,ns,2257
snapshot_restore_with_dense,Dense: Entire region + process_vm_writev,10,,,61542251.0,ns,2294
snapshot_restore_with_dense,Dense: Entire region + process_vm_writev,10,,,62271663.0,ns,2331
snapshot_restore_with_dense,Dense: Entire region + process_vm_writev,10,,,63372554.0,ns,2368
snapshot_restore_with_dense,Dense: Entire region + process_vm_writev,10,,,64262857.0,ns,2405
snapshot_restore_with_dense,Dense: Entire region + process_vm_writev,10,,,66413582.0,ns,2442
snapshot_restore_with_dense,Dense: Entire region + process_vm_writev,10,,,66382531.0,ns,2479
snapshot_restore_with_dense,Dense: Entire region + process_vm_writev,10,,,67131966.0,ns,2516
snapshot_restore_with_dense,Dense: Entire region + process_vm_writev,10,,,68319959.0,ns,2553
snapshot_restore_with_dense,Dense: Entire region + process_vm_writev,10,,,69175940.0,ns,2590
snapshot_restore_with_dense,Dense: Entire region + process_vm_writev,10,,,70212720.0,ns,2627
snapshot_restore_with_dense,Dense: Entire region + process_vm_writev,10,,,71283433.0,ns,2664
snapshot_restore_with_dense,Dense: Entire region + process_vm_writev,10,,,72231680.0,ns,2701
snapshot_restore_with_dense,Dense: Entire region + process_vm_writev,10,,,73118828.0,ns,2738
snapshot_restore_with_dense,Dense: Entire region + process_vm_writev,10,,,74245520.0,ns,2775
snapshot_restore_with_dense,Dense: Entire region + process_vm_writev,10,,,75148923.0,ns,2812
snapshot_restore_with_dense,Dense: Entire region + process_vm_writev,10,,,76061496.0,ns,2849
snapshot_restore_with_dense,Dense: Entire region + process_vm_writev,10,,,77147640.0,ns,2886
snapshot_restore_with_dense,Dense: Entire region + process_vm_writev,10,,,78093280.0,ns,2923
snapshot_restore_with_dense,Dense: Entire region + process_vm_writev,10,,,79244768.0,ns,2960
snapshot_restore_with_dense,Dense: Entire region + process_vm_writev,10,,,80141692.0,ns,2997
snapshot_restore_with_dense,Dense: Entire region + process_vm_writev,10,,,81123898.0,ns,3034
snapshot_restore_with_dense,Dense: Entire region + process_vm_writev,10,,,82006675.0,ns,3071
snapshot_restore_with_dense,Dense: Entire region + process_vm_writev,10,,,82963785.0,ns,3108
snapshot_restore_with_dense,Dense: Entire region + process_vm_writev,10,,,84240997.0,ns,3145
snapshot_restore_with_dense,Dense: Entire region + process_vm_writev,10,,,85075004.0,ns,3182
snapshot_restore_with_dense,Dense: Entire region + process_vm_writev,10,,,86163017.0,ns,3219
snapshot_restore_with_dense,Dense: Entire region + process_vm_writev,10,,,87102962.0,ns,3256
snapshot_restore_with_dense,Dense: Entire region + process_vm_writev,10,,,87961798.0,ns,3293
snapshot_restore_with_dense,Dense: Entire region + process_vm_writev,10,,,89037618.0,ns,3330
snapshot_restore_with_dense,Dense: Entire region + process_vm_writev,10,,,90092880.0,ns,3367
snapshot_restore_with_dense,Dense: Entire region + process_vm_writev,10,,,90990267.0,ns,3404
snapshot_restore_with_dense,Dense: Entire region + process_vm_writev,10,,,92034517.0,ns,3441
snapshot_restore_with_dense,Dense: Entire region + process_vm_writev,10,,,93089476.0,ns,3478
snapshot_restore_with_dense,Dense: Entire region + process_vm_writev,10,,,93949343.0,ns,3515
snapshot_restore_with_dense,Dense: Entire region + process_vm_writev,10,,,94981048.0,ns,3552
snapshot_restore_with_dense,Dense: Entire region + process_vm_writev,10,,,95914954.0,ns,3589
snapshot_restore_with_dense,Dense: Entire region + process_vm_writev,10,,,96836042.0,ns,3626
snapshot_restore_with_dense,Dense: Entire region + process_vm_writev,10,,,98144305.0,ns,3663
snapshot_restore_with_dense,Dense: Entire region + process_vm_writev,10,,,98998621.0,ns,3700
