<?xml version="1.0" encoding="utf-8"  standalone="no"?>
<svg 
 viewBox="0 0 450 300"
 xmlns="http://www.w3.org/2000/svg"
 xmlns:xlink="http://www.w3.org/1999/xlink"
>

<title>Gnuplot</title>
<desc>Produced by GNUPLOT 5.2 patchlevel 6 </desc>

<g id="gnuplot_canvas">

<rect x="0" y="0" width="450" height="300" fill="none"/>
<defs>

	<circle id='gpDot' r='0.5' stroke-width='0.5' stroke='currentColor'/>
	<path id='gpPt0' stroke-width='0.222' stroke='currentColor' d='M-1,0 h2 M0,-1 v2'/>
	<path id='gpPt1' stroke-width='0.222' stroke='currentColor' d='M-1,-1 L1,1 M1,-1 L-1,1'/>
	<path id='gpPt2' stroke-width='0.222' stroke='currentColor' d='M-1,0 L1,0 M0,-1 L0,1 M-1,-1 L1,1 M-1,1 L1,-1'/>
	<rect id='gpPt3' stroke-width='0.222' stroke='currentColor' x='-1' y='-1' width='2' height='2'/>
	<rect id='gpPt4' stroke-width='0.222' stroke='currentColor' fill='currentColor' x='-1' y='-1' width='2' height='2'/>
	<circle id='gpPt5' stroke-width='0.222' stroke='currentColor' cx='0' cy='0' r='1'/>
	<use xlink:href='#gpPt5' id='gpPt6' fill='currentColor' stroke='none'/>
	<path id='gpPt7' stroke-width='0.222' stroke='currentColor' d='M0,-1.33 L-1.33,0.67 L1.33,0.67 z'/>
	<use xlink:href='#gpPt7' id='gpPt8' fill='currentColor' stroke='none'/>
	<use xlink:href='#gpPt7' id='gpPt9' stroke='currentColor' transform='rotate(180)'/>
	<use xlink:href='#gpPt9' id='gpPt10' fill='currentColor' stroke='none'/>
	<use xlink:href='#gpPt3' id='gpPt11' stroke='currentColor' transform='rotate(45)'/>
	<use xlink:href='#gpPt11' id='gpPt12' fill='currentColor' stroke='none'/>
	<path id='gpPt13' stroke-width='0.222' stroke='currentColor' d='M0,1.330 L1.265,0.411 L0.782,-1.067 L-0.782,-1.076 L-1.265,0.411 z'/>
	<use xlink:href='#gpPt13' id='gpPt14' fill='currentColor' stroke='none'/>
	<filter id='textbox' filterUnits='objectBoundingBox' x='0' y='0' height='1' width='1'>
	  <feFlood flood-color='white' flood-opacity='1' result='bgnd'/>
	  <feComposite in='SourceGraphic' in2='bgnd' operator='atop'/>
	</filter>
	<filter id='greybox' filterUnits='objectBoundingBox' x='0' y='0' height='1' width='1'>
	  <feFlood flood-color='lightgrey' flood-opacity='1' result='grey'/>
	  <feComposite in='SourceGraphic' in2='grey' operator='atop'/>
	</filter>
</defs>
<g fill="none" color="white" stroke="currentColor" stroke-width="1.00" stroke-linecap="butt" stroke-linejoin="miter">
</g>
<g fill="none" color="black" stroke="currentColor" stroke-width="1.00" stroke-linecap="butt" stroke-linejoin="miter">
	<path stroke='black'  d='M71.9,242.4 L80.9,242.4  '/>	<g transform="translate(63.6,246.3)" stroke="none" fill="black" font-family="Helvetica" font-size="12.00"  text-anchor="end">
		<text><tspan font-family="Helvetica" > 0</tspan></text>
	</g>
</g>
<g fill="none" color="black" stroke="currentColor" stroke-width="1.00" stroke-linecap="butt" stroke-linejoin="miter">
	<path stroke='black'  d='M71.9,220.0 L80.9,220.0  '/>	<g transform="translate(63.6,223.9)" stroke="none" fill="black" font-family="Helvetica" font-size="12.00"  text-anchor="end">
		<text><tspan font-family="Helvetica" > 0.1</tspan></text>
	</g>
</g>
<g fill="none" color="black" stroke="currentColor" stroke-width="1.00" stroke-linecap="butt" stroke-linejoin="miter">
	<path stroke='black'  d='M71.9,197.5 L80.9,197.5  '/>	<g transform="translate(63.6,201.4)" stroke="none" fill="black" font-family="Helvetica" font-size="12.00"  text-anchor="end">
		<text><tspan font-family="Helvetica" > 0.2</tspan></text>
	</g>
</g>
<g fill="none" color="black" stroke="currentColor" stroke-width="1.00" stroke-linecap="butt" stroke-linejoin="miter">
	<path stroke='black'  d='M71.9,175.1 L80.9,175.1  '/>	<g transform="translate(63.6,179.0)" stroke="none" fill="black" font-family="Helvetica" font-size="12.00"  text-anchor="end">
		<text><tspan font-family="Helvetica" > 0.3</tspan></text>
	</g>
</g>
<g fill="none" color="black" stroke="currentColor" stroke-width="1.00" stroke-linecap="butt" stroke-linejoin="miter">
	<path stroke='black'  d='M71.9,152.7 L80.9,152.7  '/>	<g transform="translate(63.6,156.6)" stroke="none" fill="black" font-family="Helvetica" font-size="12.00"  text-anchor="end">
		<text><tspan font-family="Helvetica" > 0.4</tspan></text>
	</g>
</g>
<g fill="none" color="black" stroke="currentColor" stroke-width="1.00" stroke-linecap="butt" stroke-linejoin="miter">
	<path stroke='black'  d='M71.9,130.2 L80.9,130.2  '/>	<g transform="translate(63.6,134.1)" stroke="none" fill="black" font-family="Helvetica" font-size="12.00"  text-anchor="end">
		<text><tspan font-family="Helvetica" > 0.5</tspan></text>
	</g>
</g>
<g fill="none" color="black" stroke="currentColor" stroke-width="1.00" stroke-linecap="butt" stroke-linejoin="miter">
	<path stroke='black'  d='M71.9,107.8 L80.9,107.8  '/>	<g transform="translate(63.6,111.7)" stroke="none" fill="black" font-family="Helvetica" font-size="12.00"  text-anchor="end">
		<text><tspan font-family="Helvetica" > 0.6</tspan></text>
	</g>
</g>
<g fill="none" color="black" stroke="currentColor" stroke-width="1.00" stroke-linecap="butt" stroke-linejoin="miter">
	<path stroke='black'  d='M71.9,85.4 L80.9,85.4  '/>	<g transform="translate(63.6,89.3)" stroke="none" fill="black" font-family="Helvetica" font-size="12.00"  text-anchor="end">
		<text><tspan font-family="Helvetica" > 0.7</tspan></text>
	</g>
</g>
<g fill="none" color="black" stroke="currentColor" stroke-width="1.00" stroke-linecap="butt" stroke-linejoin="miter">
	<path stroke='black'  d='M71.9,63.0 L80.9,63.0  '/>	<g transform="translate(63.6,66.9)" stroke="none" fill="black" font-family="Helvetica" font-size="12.00"  text-anchor="end">
		<text><tspan font-family="Helvetica" > 0.8</tspan></text>
	</g>
</g>
<g fill="none" color="black" stroke="currentColor" stroke-width="1.00" stroke-linecap="butt" stroke-linejoin="miter">
	<path stroke='black'  d='M71.9,40.5 L80.9,40.5  '/>	<g transform="translate(63.6,44.4)" stroke="none" fill="black" font-family="Helvetica" font-size="12.00"  text-anchor="end">
		<text><tspan font-family="Helvetica" > 0.9</tspan></text>
	</g>
</g>
<g fill="none" color="black" stroke="currentColor" stroke-width="1.00" stroke-linecap="butt" stroke-linejoin="miter">
	<path stroke='black'  d='M71.9,18.1 L80.9,18.1  '/>	<g transform="translate(63.6,22.0)" stroke="none" fill="black" font-family="Helvetica" font-size="12.00"  text-anchor="end">
		<text><tspan font-family="Helvetica" > 1</tspan></text>
	</g>
</g>
<g fill="none" color="black" stroke="currentColor" stroke-width="1.00" stroke-linecap="butt" stroke-linejoin="miter">
	<path stroke='black'  d='M71.9,242.4 L71.9,233.4  '/>	<g transform="translate(71.9,264.3)" stroke="none" fill="black" font-family="Helvetica" font-size="12.00"  text-anchor="middle">
		<text><tspan font-family="Helvetica" > 24</tspan></text>
	</g>
</g>
<g fill="none" color="black" stroke="currentColor" stroke-width="1.00" stroke-linecap="butt" stroke-linejoin="miter">
	<path stroke='black'  d='M107.2,242.4 L107.2,233.4  '/>	<g transform="translate(107.2,264.3)" stroke="none" fill="black" font-family="Helvetica" font-size="12.00"  text-anchor="middle">
		<text><tspan font-family="Helvetica" > 26</tspan></text>
	</g>
</g>
<g fill="none" color="black" stroke="currentColor" stroke-width="1.00" stroke-linecap="butt" stroke-linejoin="miter">
	<path stroke='black'  d='M142.5,242.4 L142.5,233.4  '/>	<g transform="translate(142.5,264.3)" stroke="none" fill="black" font-family="Helvetica" font-size="12.00"  text-anchor="middle">
		<text><tspan font-family="Helvetica" > 28</tspan></text>
	</g>
</g>
<g fill="none" color="black" stroke="currentColor" stroke-width="1.00" stroke-linecap="butt" stroke-linejoin="miter">
	<path stroke='black'  d='M177.8,242.4 L177.8,233.4  '/>	<g transform="translate(177.8,264.3)" stroke="none" fill="black" font-family="Helvetica" font-size="12.00"  text-anchor="middle">
		<text><tspan font-family="Helvetica" > 30</tspan></text>
	</g>
</g>
<g fill="none" color="black" stroke="currentColor" stroke-width="1.00" stroke-linecap="butt" stroke-linejoin="miter">
	<path stroke='black'  d='M213.1,242.4 L213.1,233.4  '/>	<g transform="translate(213.1,264.3)" stroke="none" fill="black" font-family="Helvetica" font-size="12.00"  text-anchor="middle">
		<text><tspan font-family="Helvetica" > 32</tspan></text>
	</g>
</g>
<g fill="none" color="black" stroke="currentColor" stroke-width="1.00" stroke-linecap="butt" stroke-linejoin="miter">
	<path stroke='black'  d='M248.5,242.4 L248.5,233.4  '/>	<g transform="translate(248.5,264.3)" stroke="none" fill="black" font-family="Helvetica" font-size="12.00"  text-anchor="middle">
		<text><tspan font-family="Helvetica" > 34</tspan></text>
	</g>
</g>
<g fill="none" color="black" stroke="currentColor" stroke-width="1.00" stroke-linecap="butt" stroke-linejoin="miter">
	<path stroke='black'  d='M283.8,242.4 L283.8,233.4  '/>	<g transform="translate(283.8,264.3)" stroke="none" fill="black" font-family="Helvetica" font-size="12.00"  text-anchor="middle">
		<text><tspan font-family="Helvetica" > 36</tspan></text>
	</g>
</g>
<g fill="none" color="black" stroke="currentColor" stroke-width="1.00" stroke-linecap="butt" stroke-linejoin="miter">
	<path stroke='black'  d='M319.1,242.4 L319.1,233.4  '/>	<g transform="translate(319.1,264.3)" stroke="none" fill="black" font-family="Helvetica" font-size="12.00"  text-anchor="middle">
		<text><tspan font-family="Helvetica" > 38</tspan></text>
	</g>
</g>
<g fill="none" color="black" stroke="currentColor" stroke-width="1.00" stroke-linecap="butt" stroke-linejoin="miter">
	<path stroke='black'  d='M354.4,242.4 L354.4,233.4  '/>	<g transform="translate(354.4,264.3)" stroke="none" fill="black" font-family="Helvetica" font-size="12.00"  text-anchor="middle">
		<text><tspan font-family="Helvetica" > 40</tspan></text>
	</g>
</g>
<g fill="none" color="black" stroke="currentColor" stroke-width="1.00" stroke-linecap="butt" stroke-linejoin="miter">
	<path stroke='black'  d='M389.7,242.4 L389.7,233.4  '/>	<g transform="translate(389.7,264.3)" stroke="none" fill="black" font-family="Helvetica" font-size="12.00"  text-anchor="middle">
		<text><tspan font-family="Helvetica" > 42</tspan></text>
	</g>
</g>
<g fill="none" color="black" stroke="currentColor" stroke-width="1.00" stroke-linecap="butt" stroke-linejoin="miter">
	<path stroke='black'  d='M425.0,242.4 L425.0,233.4  '/>	<g transform="translate(425.0,264.3)" stroke="none" fill="black" font-family="Helvetica" font-size="12.00"  text-anchor="middle">
		<text><tspan font-family="Helvetica" > 44</tspan></text>
	</g>
</g>
<g fill="none" color="black" stroke="currentColor" stroke-width="1.00" stroke-linecap="butt" stroke-linejoin="miter">
</g>
<g fill="none" color="black" stroke="currentColor" stroke-width="1.00" stroke-linecap="butt" stroke-linejoin="miter">
	<path stroke='black'  d='M71.9,18.1 L71.9,242.4 L425.0,242.4 L425.0,18.1 L71.9,18.1 Z  '/></g>
<g fill="none" color="black" stroke="currentColor" stroke-width="1.00" stroke-linecap="butt" stroke-linejoin="miter">
	<g transform="translate(16.3,130.3) rotate(270)" stroke="none" fill="black" font-family="Helvetica" font-size="12.00"  text-anchor="middle">
		<text><tspan font-family="Helvetica" >Density (a.u.)</tspan></text>
	</g>
</g>
<g fill="none" color="black" stroke="currentColor" stroke-width="1.00" stroke-linecap="butt" stroke-linejoin="miter">
	<g transform="translate(248.4,291.3)" stroke="none" fill="black" font-family="Helvetica" font-size="12.00"  text-anchor="middle">
		<text><tspan font-family="Helvetica" >Average time (us)</tspan></text>
	</g>
</g>
<g fill="none" color="black" stroke="currentColor" stroke-width="1.00" stroke-linecap="butt" stroke-linejoin="miter">
</g>
	<g id="gnuplot_plot_1" ><title>Base PDF</title>
<g fill="none" color="black" stroke="currentColor" stroke-width="1.00" stroke-linecap="butt" stroke-linejoin="miter">
	<g stroke='none' shape-rendering='crispEdges'>
		<polygon fill = 'rgb(227,  26,  28)' fill-opacity = '0.500000' points = '78.3,241.6 79.0,241.5 79.7,241.3 80.4,241.1 81.1,240.8 81.7,240.5 82.4,240.2 83.1,239.8 83.8,239.4 84.4,238.8 85.1,238.2 85.8,237.6 86.5,236.8 87.2,235.9 87.8,235.0 88.5,233.9
89.2,232.7 89.9,231.3 90.6,229.8 91.2,228.1 91.9,226.3 92.6,224.3 93.3,222.2 94.0,219.8 94.6,217.3 95.3,214.6 96.0,211.6 96.7,208.5 97.3,205.2 98.0,201.8 98.7,198.1 99.4,194.3
100.1,190.3 100.7,186.2 101.4,181.9 102.1,177.6 102.8,173.2 103.5,168.7 104.1,164.2 104.8,159.7 105.5,155.3 106.2,150.9 106.9,146.6 107.5,142.5 108.2,138.5 108.9,134.7 109.6,131.2 110.3,127.9
110.9,125.0 111.6,122.3 112.3,120.0 113.0,118.1 113.6,116.6 114.3,115.4 115.0,114.7 115.7,114.4 116.4,114.6 117.0,115.1 117.7,116.1 118.4,117.5 119.1,119.3 119.8,121.4 120.4,123.9 121.1,126.7
121.8,129.9 122.5,133.3 123.2,136.9 123.8,140.7 124.5,144.7 125.2,148.9 125.9,153.1 126.5,157.5 127.2,161.8 127.9,166.2 128.6,170.5 129.3,174.8 129.9,179.1 130.6,183.2 131.3,187.2 132.0,191.1
132.7,194.8 133.3,198.3 134.0,201.7 134.7,204.9 135.4,207.9 136.1,210.8 136.7,213.4 137.4,215.8 138.1,218.1 138.8,220.2 139.5,222.1 140.1,223.9 140.8,225.5 141.5,226.9 142.2,228.2 142.8,229.4
143.5,230.4 144.2,231.4 144.9,232.2 145.6,232.9 146.2,233.6 146.9,234.2 147.6,234.7 148.3,235.1 149.0,235.5 149.6,235.9 150.3,236.2 151.0,236.5 151.7,236.7 152.4,237.0 153.0,237.2 153.7,237.4
154.4,237.6 155.1,237.7 155.7,237.9 156.4,238.0 157.1,238.2 157.8,238.3 158.5,238.5 159.1,238.6 159.8,238.7 160.5,238.9 161.2,239.0 161.9,239.1 162.5,239.2 163.2,239.4 163.9,239.5 164.6,239.6
165.3,239.8 165.9,239.9 166.6,240.0 167.3,240.1 168.0,240.3 168.7,240.4 169.3,240.5 170.0,240.6 170.7,240.7 171.4,240.8 172.0,240.9 172.7,241.0 173.4,241.1 174.1,241.2 174.8,241.3 175.4,241.4
176.1,241.5 176.8,241.5 177.5,241.6 178.2,241.7 178.8,241.7 179.5,241.8 180.2,241.9 180.9,241.9 181.6,242.0 182.2,242.0 182.9,242.0 183.6,242.1 184.3,242.1 184.9,242.1 185.6,242.2 186.3,242.2
187.0,242.2 187.7,242.2 188.3,242.3 189.0,242.3 189.7,242.3 190.4,242.3 191.1,242.3 191.7,242.3 192.4,242.3 193.1,242.4 193.8,242.4 194.5,242.4 195.1,242.4 195.8,242.4 196.5,242.4 197.2,242.4
197.9,242.4 198.5,242.4 199.2,242.4 199.9,242.4 200.6,242.4 201.2,242.4 201.9,242.4 202.6,242.4 203.3,242.4 204.0,242.4 204.6,242.4 205.3,242.4 206.0,242.4 206.7,242.4 207.4,242.4 208.0,242.4
208.7,242.4 209.4,242.4 210.1,242.4 210.8,242.4 211.4,242.4 212.1,242.4 212.8,242.4 213.5,242.4 214.1,242.4 214.8,242.4 215.5,242.4 216.2,242.4 216.9,242.4 217.5,242.4 218.2,242.4 218.9,242.4
219.6,242.4 220.3,242.4 220.9,242.4 221.6,242.4 222.3,242.4 223.0,242.4 223.7,242.4 224.3,242.4 225.0,242.4 225.7,242.4 226.4,242.4 227.1,242.4 227.7,242.4 228.4,242.4 229.1,242.4 229.8,242.4
230.4,242.4 231.1,242.4 231.8,242.4 232.5,242.4 233.2,242.4 233.8,242.4 234.5,242.4 235.2,242.4 235.9,242.4 236.6,242.4 237.2,242.4 237.9,242.4 238.6,242.4 239.3,242.4 240.0,242.4 240.6,242.4
241.3,242.4 242.0,242.4 242.7,242.4 243.3,242.4 244.0,242.4 244.7,242.4 245.4,242.4 246.1,242.4 246.7,242.4 247.4,242.4 248.1,242.4 248.8,242.4 249.5,242.4 250.1,242.4 250.8,242.4 251.5,242.4
252.2,242.4 252.9,242.4 253.5,242.4 254.2,242.4 254.9,242.4 255.6,242.4 256.3,242.4 256.9,242.4 257.6,242.4 258.3,242.4 259.0,242.4 259.6,242.4 260.3,242.4 261.0,242.4 261.7,242.4 262.4,242.4
263.0,242.4 263.7,242.4 264.4,242.4 265.1,242.4 265.8,242.4 266.4,242.4 267.1,242.4 267.8,242.4 268.5,242.4 269.2,242.4 269.8,242.4 270.5,242.4 271.2,242.4 271.9,242.4 272.5,242.4 273.2,242.4
273.9,242.4 274.6,242.4 275.3,242.4 275.9,242.4 276.6,242.4 277.3,242.4 278.0,242.4 278.7,242.4 279.3,242.4 280.0,242.4 280.7,242.4 281.4,242.4 282.1,242.4 282.7,242.4 283.4,242.4 284.1,242.4
284.8,242.4 285.5,242.4 286.1,242.4 286.8,242.4 287.5,242.4 288.2,242.4 288.8,242.4 289.5,242.4 290.2,242.4 290.9,242.4 291.6,242.4 292.2,242.4 292.9,242.4 293.6,242.4 294.3,242.4 295.0,242.4
295.6,242.4 296.3,242.4 297.0,242.4 297.7,242.4 298.4,242.4 299.0,242.4 299.7,242.4 300.4,242.4 301.1,242.4 301.7,242.4 302.4,242.4 303.1,242.4 303.8,242.4 304.5,242.4 305.1,242.4 305.8,242.4
306.5,242.4 307.2,242.4 307.9,242.4 308.5,242.4 309.2,242.4 309.9,242.4 310.6,242.4 311.3,242.4 311.9,242.4 312.6,242.4 313.3,242.4 314.0,242.4 314.7,242.4 315.3,242.4 316.0,242.4 316.7,242.4
317.4,242.4 318.0,242.4 318.7,242.4 319.4,242.4 320.1,242.4 320.8,242.4 321.4,242.4 322.1,242.4 322.8,242.4 323.5,242.4 324.2,242.4 324.8,242.4 325.5,242.4 326.2,242.4 326.9,242.4 327.6,242.4
328.2,242.4 328.9,242.4 329.6,242.4 330.3,242.4 330.9,242.4 331.6,242.4 332.3,242.4 333.0,242.4 333.7,242.4 334.3,242.4 335.0,242.4 335.7,242.4 336.4,242.4 337.1,242.4 337.7,242.4 338.4,242.4
339.1,242.4 339.8,242.4 340.5,242.4 341.1,242.4 341.8,242.4 342.5,242.4 343.2,242.4 343.9,242.4 344.5,242.4 345.2,242.4 345.9,242.4 346.6,242.4 347.2,242.4 347.9,242.4 348.6,242.4 349.3,242.4
350.0,242.4 350.6,242.4 351.3,242.4 352.0,242.4 352.7,242.3 353.4,242.3 354.0,242.3 354.7,242.3 355.4,242.3 356.1,242.3 356.8,242.3 357.4,242.3 358.1,242.2 358.8,242.2 359.5,242.2 360.1,242.2
360.8,242.2 361.5,242.1 362.2,242.1 362.9,242.1 363.5,242.0 364.2,242.0 364.9,242.0 365.6,241.9 366.3,241.9 366.9,241.8 367.6,241.8 368.3,241.7 369.0,241.7 369.7,241.7 370.3,241.6 371.0,241.6
371.7,241.5 372.4,241.5 373.1,241.4 373.7,241.4 374.4,241.3 375.1,241.3 375.8,241.2 376.4,241.2 377.1,241.2 377.8,241.1 378.5,241.1 379.2,241.1 379.8,241.1 380.5,241.1 381.2,241.0 381.9,241.0
382.6,241.0 383.2,241.0 383.9,241.0 384.6,241.1 385.3,241.1 386.0,241.1 386.6,241.1 387.3,241.2 388.0,241.2 388.7,241.2 389.3,241.3 390.0,241.3 390.7,241.3 391.4,241.4 392.1,241.4 392.7,241.5
393.4,241.5 394.1,241.6 394.8,241.6 395.5,241.7 396.1,241.7 396.8,241.8 397.5,241.8 398.2,241.9 398.9,241.9 399.5,241.9 400.2,242.0 400.9,242.0 401.6,242.1 402.3,242.1 402.9,242.1 403.6,242.1
404.3,242.2 405.0,242.2 405.6,242.2 406.3,242.2 407.0,242.3 407.7,242.3 408.4,242.3 409.0,242.3 409.7,242.3 410.4,242.3 411.1,242.3 411.8,242.3 412.4,242.4 413.1,242.4 413.8,242.4 414.5,242.4
415.2,242.4 415.8,242.4 416.5,242.4 417.2,242.4 417.2,242.4 416.5,242.4 415.8,242.4 415.2,242.4 414.5,242.4 413.8,242.4 413.1,242.4 412.4,242.4 411.8,242.4 411.1,242.4 410.4,242.4 409.7,242.4
409.0,242.4 408.4,242.4 407.7,242.4 407.0,242.4 406.3,242.4 405.6,242.4 405.0,242.4 404.3,242.4 403.6,242.4 402.9,242.4 402.3,242.4 401.6,242.4 400.9,242.4 400.2,242.4 399.5,242.4 398.9,242.4
398.2,242.4 397.5,242.4 396.8,242.4 396.1,242.4 395.5,242.4 394.8,242.4 394.1,242.4 393.4,242.4 392.7,242.4 392.1,242.4 391.4,242.4 390.7,242.4 390.0,242.4 389.3,242.4 388.7,242.4 388.0,242.4
387.3,242.4 386.6,242.4 386.0,242.4 385.3,242.4 384.6,242.4 383.9,242.4 383.2,242.4 382.6,242.4 381.9,242.4 381.2,242.4 380.5,242.4 379.8,242.4 379.2,242.4 378.5,242.4 377.8,242.4 377.1,242.4
376.4,242.4 375.8,242.4 375.1,242.4 374.4,242.4 373.7,242.4 373.1,242.4 372.4,242.4 371.7,242.4 371.0,242.4 370.3,242.4 369.7,242.4 369.0,242.4 368.3,242.4 367.6,242.4 366.9,242.4 366.3,242.4
365.6,242.4 364.9,242.4 364.2,242.4 363.5,242.4 362.9,242.4 362.2,242.4 361.5,242.4 360.8,242.4 360.1,242.4 359.5,242.4 358.8,242.4 358.1,242.4 357.4,242.4 356.8,242.4 356.1,242.4 355.4,242.4
354.7,242.4 354.0,242.4 353.4,242.4 352.7,242.4 352.0,242.4 351.3,242.4 350.6,242.4 350.0,242.4 349.3,242.4 348.6,242.4 347.9,242.4 347.2,242.4 346.6,242.4 345.9,242.4 345.2,242.4 344.5,242.4
343.9,242.4 343.2,242.4 342.5,242.4 341.8,242.4 341.1,242.4 340.5,242.4 339.8,242.4 339.1,242.4 338.4,242.4 337.7,242.4 337.1,242.4 336.4,242.4 335.7,242.4 335.0,242.4 334.3,242.4 333.7,242.4
333.0,242.4 332.3,242.4 331.6,242.4 330.9,242.4 330.3,242.4 329.6,242.4 328.9,242.4 328.2,242.4 327.6,242.4 326.9,242.4 326.2,242.4 325.5,242.4 324.8,242.4 324.2,242.4 323.5,242.4 322.8,242.4
322.1,242.4 321.4,242.4 320.8,242.4 320.1,242.4 319.4,242.4 318.7,242.4 318.0,242.4 317.4,242.4 316.7,242.4 316.0,242.4 315.3,242.4 314.7,242.4 314.0,242.4 313.3,242.4 312.6,242.4 311.9,242.4
311.3,242.4 310.6,242.4 309.9,242.4 309.2,242.4 308.5,242.4 307.9,242.4 307.2,242.4 306.5,242.4 305.8,242.4 305.1,242.4 304.5,242.4 303.8,242.4 303.1,242.4 302.4,242.4 301.7,242.4 301.1,242.4
300.4,242.4 299.7,242.4 299.0,242.4 298.4,242.4 297.7,242.4 297.0,242.4 296.3,242.4 295.6,242.4 295.0,242.4 294.3,242.4 293.6,242.4 292.9,242.4 292.2,242.4 291.6,242.4 290.9,242.4 290.2,242.4
289.5,242.4 288.8,242.4 288.2,242.4 287.5,242.4 286.8,242.4 286.1,242.4 285.5,242.4 284.8,242.4 284.1,242.4 283.4,242.4 282.7,242.4 282.1,242.4 281.4,242.4 280.7,242.4 280.0,242.4 279.3,242.4
278.7,242.4 278.0,242.4 277.3,242.4 276.6,242.4 275.9,242.4 275.3,242.4 274.6,242.4 273.9,242.4 273.2,242.4 272.5,242.4 271.9,242.4 271.2,242.4 270.5,242.4 269.8,242.4 269.2,242.4 268.5,242.4
267.8,242.4 267.1,242.4 266.4,242.4 265.8,242.4 265.1,242.4 264.4,242.4 263.7,242.4 263.0,242.4 262.4,242.4 261.7,242.4 261.0,242.4 260.3,242.4 259.6,242.4 259.0,242.4 258.3,242.4 257.6,242.4
256.9,242.4 256.3,242.4 255.6,242.4 254.9,242.4 254.2,242.4 253.5,242.4 252.9,242.4 252.2,242.4 251.5,242.4 250.8,242.4 250.1,242.4 249.5,242.4 248.8,242.4 248.1,242.4 247.4,242.4 246.7,242.4
246.1,242.4 245.4,242.4 244.7,242.4 244.0,242.4 243.3,242.4 242.7,242.4 242.0,242.4 241.3,242.4 240.6,242.4 240.0,242.4 239.3,242.4 238.6,242.4 237.9,242.4 237.2,242.4 236.6,242.4 235.9,242.4
235.2,242.4 234.5,242.4 233.8,242.4 233.2,242.4 232.5,242.4 231.8,242.4 231.1,242.4 230.4,242.4 229.8,242.4 229.1,242.4 228.4,242.4 227.7,242.4 227.1,242.4 226.4,242.4 225.7,242.4 225.0,242.4
224.3,242.4 223.7,242.4 223.0,242.4 222.3,242.4 221.6,242.4 220.9,242.4 220.3,242.4 219.6,242.4 218.9,242.4 218.2,242.4 217.5,242.4 216.9,242.4 216.2,242.4 215.5,242.4 214.8,242.4 214.1,242.4
213.5,242.4 212.8,242.4 212.1,242.4 211.4,242.4 210.8,242.4 210.1,242.4 209.4,242.4 208.7,242.4 208.0,242.4 207.4,242.4 206.7,242.4 206.0,242.4 205.3,242.4 204.6,242.4 204.0,242.4 203.3,242.4
202.6,242.4 201.9,242.4 201.2,242.4 200.6,242.4 199.9,242.4 199.2,242.4 198.5,242.4 197.9,242.4 197.2,242.4 196.5,242.4 195.8,242.4 195.1,242.4 194.5,242.4 193.8,242.4 193.1,242.4 192.4,242.4
191.7,242.4 191.1,242.4 190.4,242.4 189.7,242.4 189.0,242.4 188.3,242.4 187.7,242.4 187.0,242.4 186.3,242.4 185.6,242.4 184.9,242.4 184.3,242.4 183.6,242.4 182.9,242.4 182.2,242.4 181.6,242.4
180.9,242.4 180.2,242.4 179.5,242.4 178.8,242.4 178.2,242.4 177.5,242.4 176.8,242.4 176.1,242.4 175.4,242.4 174.8,242.4 174.1,242.4 173.4,242.4 172.7,242.4 172.0,242.4 171.4,242.4 170.7,242.4
170.0,242.4 169.3,242.4 168.7,242.4 168.0,242.4 167.3,242.4 166.6,242.4 165.9,242.4 165.3,242.4 164.6,242.4 163.9,242.4 163.2,242.4 162.5,242.4 161.9,242.4 161.2,242.4 160.5,242.4 159.8,242.4
159.1,242.4 158.5,242.4 157.8,242.4 157.1,242.4 156.4,242.4 155.7,242.4 155.1,242.4 154.4,242.4 153.7,242.4 153.0,242.4 152.4,242.4 151.7,242.4 151.0,242.4 150.3,242.4 149.6,242.4 149.0,242.4
148.3,242.4 147.6,242.4 146.9,242.4 146.2,242.4 145.6,242.4 144.9,242.4 144.2,242.4 143.5,242.4 142.8,242.4 142.2,242.4 141.5,242.4 140.8,242.4 140.1,242.4 139.5,242.4 138.8,242.4 138.1,242.4
137.4,242.4 136.7,242.4 136.1,242.4 135.4,242.4 134.7,242.4 134.0,242.4 133.3,242.4 132.7,242.4 132.0,242.4 131.3,242.4 130.6,242.4 129.9,242.4 129.3,242.4 128.6,242.4 127.9,242.4 127.2,242.4
126.5,242.4 125.9,242.4 125.2,242.4 124.5,242.4 123.8,242.4 123.2,242.4 122.5,242.4 121.8,242.4 121.1,242.4 120.4,242.4 119.8,242.4 119.1,242.4 118.4,242.4 117.7,242.4 117.0,242.4 116.4,242.4
115.7,242.4 115.0,242.4 114.3,242.4 113.6,242.4 113.0,242.4 112.3,242.4 111.6,242.4 110.9,242.4 110.3,242.4 109.6,242.4 108.9,242.4 108.2,242.4 107.5,242.4 106.9,242.4 106.2,242.4 105.5,242.4
104.8,242.4 104.1,242.4 103.5,242.4 102.8,242.4 102.1,242.4 101.4,242.4 100.7,242.4 100.1,242.4 99.4,242.4 98.7,242.4 98.0,242.4 97.3,242.4 96.7,242.4 96.0,242.4 95.3,242.4 94.6,242.4
94.0,242.4 93.3,242.4 92.6,242.4 91.9,242.4 91.2,242.4 90.6,242.4 89.9,242.4 89.2,242.4 88.5,242.4 87.8,242.4 87.2,242.4 86.5,242.4 85.8,242.4 85.1,242.4 84.4,242.4 83.8,242.4
83.1,242.4 82.4,242.4 81.7,242.4 81.1,242.4 80.4,242.4 79.7,242.4 79.0,242.4 78.3,242.4 '/>
	</g>
</g>
	</g>
	<g id="gnuplot_plot_2" ><title>Base Mean</title>
<g fill="none" color="white" stroke="rgb(227,  26,  28)" stroke-width="2.00" stroke-linecap="butt" stroke-linejoin="miter">
</g>
<g fill="none" color="black" stroke="currentColor" stroke-width="2.00" stroke-linecap="butt" stroke-linejoin="miter">
	<path stroke='rgb(227,  26,  28)'  d='M119.9,242.4 L119.9,121.8  '/></g>
	</g>
	<g id="gnuplot_plot_3" ><title>New PDF</title>
<g fill="none" color="white" stroke="rgb(227,  26,  28)" stroke-width="1.00" stroke-linecap="butt" stroke-linejoin="miter">
</g>
<g fill="none" color="black" stroke="currentColor" stroke-width="1.00" stroke-linecap="butt" stroke-linejoin="miter">
	<g stroke='none' shape-rendering='crispEdges'>
		<polygon fill = 'rgb( 31, 120, 180)' fill-opacity = '0.500000' points = '99.2,241.4 99.5,241.3 99.7,241.1 100.0,240.9 100.3,240.7 100.5,240.5 100.8,240.3 101.1,240.0 101.3,239.7 101.6,239.3 101.9,239.0 102.1,238.5 102.4,238.1 102.6,237.6 102.9,237.0 103.2,236.4
103.4,235.7 103.7,235.0 104.0,234.2 104.2,233.3 104.5,232.3 104.8,231.3 105.0,230.2 105.3,229.0 105.5,227.7 105.8,226.2 106.1,224.7 106.3,223.1 106.6,221.3 106.9,219.5 107.1,217.5 107.4,215.3
107.7,213.1 107.9,210.7 108.2,208.1 108.5,205.4 108.7,202.6 109.0,199.6 109.2,196.5 109.5,193.2 109.8,189.8 110.0,186.2 110.3,182.5 110.6,178.7 110.8,174.7 111.1,170.5 111.4,166.3 111.6,161.9
111.9,157.4 112.1,152.8 112.4,148.1 112.7,143.3 112.9,138.4 113.2,133.5 113.5,128.6 113.7,123.5 114.0,118.5 114.3,113.5 114.5,108.5 114.8,103.5 115.1,98.5 115.3,93.6 115.6,88.8 115.8,84.1
116.1,79.6 116.4,75.1 116.6,70.8 116.9,66.7 117.2,62.7 117.4,59.0 117.7,55.5 118.0,52.2 118.2,49.2 118.5,46.4 118.8,43.9 119.0,41.7 119.3,39.8 119.5,38.2 119.8,36.9 120.1,35.9
120.3,35.2 120.6,34.9 120.9,34.8 121.1,35.1 121.4,35.7 121.7,36.7 121.9,37.9 122.2,39.4 122.4,41.3 122.7,43.4 123.0,45.7 123.2,48.4 123.5,51.3 123.8,54.4 124.0,57.7 124.3,61.3
124.6,65.0 124.8,68.9 125.1,73.0 125.4,77.2 125.6,81.5 125.9,85.9 126.1,90.4 126.4,94.9 126.7,99.5 126.9,104.1 127.2,108.8 127.5,113.4 127.7,118.1 128.0,122.7 128.3,127.3 128.5,131.8
128.8,136.2 129.0,140.6 129.3,144.9 129.6,149.1 129.8,153.2 130.1,157.2 130.4,161.0 130.6,164.8 130.9,168.4 131.2,171.9 131.4,175.3 131.7,178.5 132.0,181.7 132.2,184.7 132.5,187.5 132.7,190.2
133.0,192.8 133.3,195.3 133.5,197.7 133.8,199.9 134.1,202.0 134.3,204.0 134.6,205.9 134.9,207.7 135.1,209.4 135.4,211.0 135.7,212.5 135.9,213.9 136.2,215.3 136.4,216.5 136.7,217.7 137.0,218.8
137.2,219.8 137.5,220.8 137.8,221.7 138.0,222.5 138.3,223.3 138.6,224.0 138.8,224.7 139.1,225.4 139.3,226.0 139.6,226.5 139.9,227.0 140.1,227.5 140.4,228.0 140.7,228.4 140.9,228.8 141.2,229.2
141.5,229.5 141.7,229.8 142.0,230.1 142.3,230.4 142.5,230.6 142.8,230.8 143.0,231.0 143.3,231.2 143.6,231.4 143.8,231.6 144.1,231.7 144.4,231.9 144.6,232.0 144.9,232.1 145.2,232.2 145.4,232.3
145.7,232.4 145.9,232.5 146.2,232.6 146.5,232.7 146.7,232.7 147.0,232.8 147.3,232.9 147.5,233.0 147.8,233.0 148.1,233.1 148.3,233.2 148.6,233.3 148.9,233.3 149.1,233.4 149.4,233.5 149.6,233.6
149.9,233.7 150.2,233.8 150.4,233.9 150.7,234.0 151.0,234.1 151.2,234.2 151.5,234.3 151.8,234.5 152.0,234.6 152.3,234.7 152.6,234.9 152.8,235.0 153.1,235.2 153.3,235.3 153.6,235.5 153.9,235.6
154.1,235.8 154.4,235.9 154.7,236.1 154.9,236.2 155.2,236.4 155.5,236.5 155.7,236.7 156.0,236.8 156.2,237.0 156.5,237.1 156.8,237.3 157.0,237.4 157.3,237.5 157.6,237.7 157.8,237.8 158.1,237.9
158.4,238.0 158.6,238.1 158.9,238.2 159.2,238.2 159.4,238.3 159.7,238.4 159.9,238.4 160.2,238.5 160.5,238.5 160.7,238.6 161.0,238.6 161.3,238.6 161.5,238.6 161.8,238.6 162.1,238.6 162.3,238.6
162.6,238.6 162.9,238.6 163.1,238.6 163.4,238.6 163.6,238.5 163.9,238.5 164.2,238.4 164.4,238.4 164.7,238.4 165.0,238.3 165.2,238.3 165.5,238.2 165.8,238.2 166.0,238.1 166.3,238.1 166.5,238.0
166.8,238.0 167.1,237.9 167.3,237.9 167.6,237.9 167.9,237.8 168.1,237.8 168.4,237.8 168.7,237.7 168.9,237.7 169.2,237.7 169.5,237.7 169.7,237.7 170.0,237.7 170.2,237.7 170.5,237.7 170.8,237.7
171.0,237.7 171.3,237.7 171.6,237.7 171.8,237.8 172.1,237.8 172.4,237.8 172.6,237.9 172.9,237.9 173.1,237.9 173.4,238.0 173.7,238.0 173.9,238.0 174.2,238.1 174.5,238.1 174.7,238.2 175.0,238.2
175.3,238.2 175.5,238.3 175.8,238.3 176.1,238.4 176.3,238.4 176.6,238.4 176.8,238.4 177.1,238.5 177.4,238.5 177.6,238.5 177.9,238.5 178.2,238.5 178.4,238.5 178.7,238.5 179.0,238.5 179.2,238.5
179.5,238.5 179.8,238.5 180.0,238.4 180.3,238.4 180.5,238.4 180.8,238.4 181.1,238.3 181.3,238.3 181.6,238.2 181.9,238.2 182.1,238.1 182.4,238.1 182.7,238.0 182.9,238.0 183.2,237.9 183.4,237.9
183.7,237.8 184.0,237.8 184.2,237.7 184.5,237.7 184.8,237.6 185.0,237.6 185.3,237.6 185.6,237.5 185.8,237.5 186.1,237.5 186.4,237.5 186.6,237.4 186.9,237.4 187.1,237.4 187.4,237.4 187.7,237.4
187.9,237.5 188.2,237.5 188.5,237.5 188.7,237.5 189.0,237.6 189.3,237.6 189.5,237.7 189.8,237.7 190.0,237.8 190.3,237.9 190.6,237.9 190.8,238.0 191.1,238.1 191.4,238.2 191.6,238.3 191.9,238.4
192.2,238.5 192.4,238.6 192.7,238.7 193.0,238.8 193.2,238.9 193.5,239.0 193.7,239.1 194.0,239.2 194.3,239.3 194.5,239.5 194.8,239.6 195.1,239.7 195.3,239.8 195.6,239.9 195.9,240.0 196.1,240.1
196.4,240.2 196.7,240.3 196.9,240.3 197.2,240.4 197.4,240.5 197.7,240.6 198.0,240.6 198.2,240.7 198.5,240.8 198.8,240.8 199.0,240.9 199.3,240.9 199.6,241.0 199.8,241.0 200.1,241.0 200.3,241.0
200.6,241.1 200.9,241.1 201.1,241.1 201.4,241.1 201.7,241.1 201.9,241.1 202.2,241.1 202.5,241.1 202.7,241.0 203.0,241.0 203.3,241.0 203.5,241.0 203.8,240.9 204.0,240.9 204.3,240.9 204.6,240.8
204.8,240.8 205.1,240.7 205.4,240.7 205.6,240.6 205.9,240.6 206.2,240.6 206.4,240.5 206.7,240.5 206.9,240.4 207.2,240.4 207.5,240.3 207.7,240.3 208.0,240.2 208.3,240.2 208.5,240.2 208.8,240.1
209.1,240.1 209.3,240.1 209.6,240.0 209.9,240.0 210.1,240.0 210.4,240.0 210.6,240.0 210.9,240.0 211.2,240.0 211.4,240.0 211.7,240.0 212.0,240.0 212.2,240.0 212.5,240.0 212.8,240.0 213.0,240.0
213.3,240.1 213.6,240.1 213.8,240.1 214.1,240.2 214.3,240.2 214.6,240.2 214.9,240.3 215.1,240.3 215.4,240.4 215.7,240.4 215.9,240.5 216.2,240.5 216.5,240.6 216.7,240.6 217.0,240.7 217.2,240.8
217.5,240.8 217.8,240.9 218.0,240.9 218.3,241.0 218.6,241.1 218.8,241.1 219.1,241.2 219.4,241.2 219.6,241.3 219.9,241.4 220.2,241.4 220.4,241.5 220.7,241.5 220.9,241.6 221.2,241.6 221.5,241.7
221.7,241.7 222.0,241.7 222.3,241.8 222.5,241.8 222.8,241.9 223.1,241.9 223.3,241.9 223.6,242.0 223.9,242.0 224.1,242.0 224.4,242.1 224.6,242.1 224.9,242.1 225.2,242.1 225.4,242.2 225.7,242.2
226.0,242.2 226.2,242.2 226.5,242.2 226.8,242.2 227.0,242.3 227.3,242.3 227.5,242.3 227.8,242.3 228.1,242.3 228.3,242.3 228.6,242.3 228.9,242.3 229.1,242.3 229.4,242.3 229.7,242.4 229.9,242.4
230.2,242.4 230.5,242.4 230.7,242.4 231.0,242.4 231.0,242.4 230.7,242.4 230.5,242.4 230.2,242.4 229.9,242.4 229.7,242.4 229.4,242.4 229.1,242.4 228.9,242.4 228.6,242.4 228.3,242.4 228.1,242.4
227.8,242.4 227.5,242.4 227.3,242.4 227.0,242.4 226.8,242.4 226.5,242.4 226.2,242.4 226.0,242.4 225.7,242.4 225.4,242.4 225.2,242.4 224.9,242.4 224.6,242.4 224.4,242.4 224.1,242.4 223.9,242.4
223.6,242.4 223.3,242.4 223.1,242.4 222.8,242.4 222.5,242.4 222.3,242.4 222.0,242.4 221.7,242.4 221.5,242.4 221.2,242.4 220.9,242.4 220.7,242.4 220.4,242.4 220.2,242.4 219.9,242.4 219.6,242.4
219.4,242.4 219.1,242.4 218.8,242.4 218.6,242.4 218.3,242.4 218.0,242.4 217.8,242.4 217.5,242.4 217.2,242.4 217.0,242.4 216.7,242.4 216.5,242.4 216.2,242.4 215.9,242.4 215.7,242.4 215.4,242.4
215.1,242.4 214.9,242.4 214.6,242.4 214.3,242.4 214.1,242.4 213.8,242.4 213.6,242.4 213.3,242.4 213.0,242.4 212.8,242.4 212.5,242.4 212.2,242.4 212.0,242.4 211.7,242.4 211.4,242.4 211.2,242.4
210.9,242.4 210.6,242.4 210.4,242.4 210.1,242.4 209.9,242.4 209.6,242.4 209.3,242.4 209.1,242.4 208.8,242.4 208.5,242.4 208.3,242.4 208.0,242.4 207.7,242.4 207.5,242.4 207.2,242.4 206.9,242.4
206.7,242.4 206.4,242.4 206.2,242.4 205.9,242.4 205.6,242.4 205.4,242.4 205.1,242.4 204.8,242.4 204.6,242.4 204.3,242.4 204.0,242.4 203.8,242.4 203.5,242.4 203.3,242.4 203.0,242.4 202.7,242.4
202.5,242.4 202.2,242.4 201.9,242.4 201.7,242.4 201.4,242.4 201.1,242.4 200.9,242.4 200.6,242.4 200.3,242.4 200.1,242.4 199.8,242.4 199.6,242.4 199.3,242.4 199.0,242.4 198.8,242.4 198.5,242.4
198.2,242.4 198.0,242.4 197.7,242.4 197.4,242.4 197.2,242.4 196.9,242.4 196.7,242.4 196.4,242.4 196.1,242.4 195.9,242.4 195.6,242.4 195.3,242.4 195.1,242.4 194.8,242.4 194.5,242.4 194.3,242.4
194.0,242.4 193.7,242.4 193.5,242.4 193.2,242.4 193.0,242.4 192.7,242.4 192.4,242.4 192.2,242.4 191.9,242.4 191.6,242.4 191.4,242.4 191.1,242.4 190.8,242.4 190.6,242.4 190.3,242.4 190.0,242.4
189.8,242.4 189.5,242.4 189.3,242.4 189.0,242.4 188.7,242.4 188.5,242.4 188.2,242.4 187.9,242.4 187.7,242.4 187.4,242.4 187.1,242.4 186.9,242.4 186.6,242.4 186.4,242.4 186.1,242.4 185.8,242.4
185.6,242.4 185.3,242.4 185.0,242.4 184.8,242.4 184.5,242.4 184.2,242.4 184.0,242.4 183.7,242.4 183.4,242.4 183.2,242.4 182.9,242.4 182.7,242.4 182.4,242.4 182.1,242.4 181.9,242.4 181.6,242.4
181.3,242.4 181.1,242.4 180.8,242.4 180.5,242.4 180.3,242.4 180.0,242.4 179.8,242.4 179.5,242.4 179.2,242.4 179.0,242.4 178.7,242.4 178.4,242.4 178.2,242.4 177.9,242.4 177.6,242.4 177.4,242.4
177.1,242.4 176.8,242.4 176.6,242.4 176.3,242.4 176.1,242.4 175.8,242.4 175.5,242.4 175.3,242.4 175.0,242.4 174.7,242.4 174.5,242.4 174.2,242.4 173.9,242.4 173.7,242.4 173.4,242.4 173.1,242.4
172.9,242.4 172.6,242.4 172.4,242.4 172.1,242.4 171.8,242.4 171.6,242.4 171.3,242.4 171.0,242.4 170.8,242.4 170.5,242.4 170.2,242.4 170.0,242.4 169.7,242.4 169.5,242.4 169.2,242.4 168.9,242.4
168.7,242.4 168.4,242.4 168.1,242.4 167.9,242.4 167.6,242.4 167.3,242.4 167.1,242.4 166.8,242.4 166.5,242.4 166.3,242.4 166.0,242.4 165.8,242.4 165.5,242.4 165.2,242.4 165.0,242.4 164.7,242.4
164.4,242.4 164.2,242.4 163.9,242.4 163.6,242.4 163.4,242.4 163.1,242.4 162.9,242.4 162.6,242.4 162.3,242.4 162.1,242.4 161.8,242.4 161.5,242.4 161.3,242.4 161.0,242.4 160.7,242.4 160.5,242.4
160.2,242.4 159.9,242.4 159.7,242.4 159.4,242.4 159.2,242.4 158.9,242.4 158.6,242.4 158.4,242.4 158.1,242.4 157.8,242.4 157.6,242.4 157.3,242.4 157.0,242.4 156.8,242.4 156.5,242.4 156.2,242.4
156.0,242.4 155.7,242.4 155.5,242.4 155.2,242.4 154.9,242.4 154.7,242.4 154.4,242.4 154.1,242.4 153.9,242.4 153.6,242.4 153.3,242.4 153.1,242.4 152.8,242.4 152.6,242.4 152.3,242.4 152.0,242.4
151.8,242.4 151.5,242.4 151.2,242.4 151.0,242.4 150.7,242.4 150.4,242.4 150.2,242.4 149.9,242.4 149.6,242.4 149.4,242.4 149.1,242.4 148.9,242.4 148.6,242.4 148.3,242.4 148.1,242.4 147.8,242.4
147.5,242.4 147.3,242.4 147.0,242.4 146.7,242.4 146.5,242.4 146.2,242.4 145.9,242.4 145.7,242.4 145.4,242.4 145.2,242.4 144.9,242.4 144.6,242.4 144.4,242.4 144.1,242.4 143.8,242.4 143.6,242.4
143.3,242.4 143.0,242.4 142.8,242.4 142.5,242.4 142.3,242.4 142.0,242.4 141.7,242.4 141.5,242.4 141.2,242.4 140.9,242.4 140.7,242.4 140.4,242.4 140.1,242.4 139.9,242.4 139.6,242.4 139.3,242.4
139.1,242.4 138.8,242.4 138.6,242.4 138.3,242.4 138.0,242.4 137.8,242.4 137.5,242.4 137.2,242.4 137.0,242.4 136.7,242.4 136.4,242.4 136.2,242.4 135.9,242.4 135.7,242.4 135.4,242.4 135.1,242.4
134.9,242.4 134.6,242.4 134.3,242.4 134.1,242.4 133.8,242.4 133.5,242.4 133.3,242.4 133.0,242.4 132.7,242.4 132.5,242.4 132.2,242.4 132.0,242.4 131.7,242.4 131.4,242.4 131.2,242.4 130.9,242.4
130.6,242.4 130.4,242.4 130.1,242.4 129.8,242.4 129.6,242.4 129.3,242.4 129.0,242.4 128.8,242.4 128.5,242.4 128.3,242.4 128.0,242.4 127.7,242.4 127.5,242.4 127.2,242.4 126.9,242.4 126.7,242.4
126.4,242.4 126.1,242.4 125.9,242.4 125.6,242.4 125.4,242.4 125.1,242.4 124.8,242.4 124.6,242.4 124.3,242.4 124.0,242.4 123.8,242.4 123.5,242.4 123.2,242.4 123.0,242.4 122.7,242.4 122.4,242.4
122.2,242.4 121.9,242.4 121.7,242.4 121.4,242.4 121.1,242.4 120.9,242.4 120.6,242.4 120.3,242.4 120.1,242.4 119.8,242.4 119.5,242.4 119.3,242.4 119.0,242.4 118.8,242.4 118.5,242.4 118.2,242.4
118.0,242.4 117.7,242.4 117.4,242.4 117.2,242.4 116.9,242.4 116.6,242.4 116.4,242.4 116.1,242.4 115.8,242.4 115.6,242.4 115.3,242.4 115.1,242.4 114.8,242.4 114.5,242.4 114.3,242.4 114.0,242.4
113.7,242.4 113.5,242.4 113.2,242.4 112.9,242.4 112.7,242.4 112.4,242.4 112.1,242.4 111.9,242.4 111.6,242.4 111.4,242.4 111.1,242.4 110.8,242.4 110.6,242.4 110.3,242.4 110.0,242.4 109.8,242.4
109.5,242.4 109.2,242.4 109.0,242.4 108.7,242.4 108.5,242.4 108.2,242.4 107.9,242.4 107.7,242.4 107.4,242.4 107.1,242.4 106.9,242.4 106.6,242.4 106.3,242.4 106.1,242.4 105.8,242.4 105.5,242.4
105.3,242.4 105.0,242.4 104.8,242.4 104.5,242.4 104.2,242.4 104.0,242.4 103.7,242.4 103.4,242.4 103.2,242.4 102.9,242.4 102.6,242.4 102.4,242.4 102.1,242.4 101.9,242.4 101.6,242.4 101.3,242.4
101.1,242.4 100.8,242.4 100.5,242.4 100.3,242.4 100.0,242.4 99.7,242.4 99.5,242.4 99.2,242.4 '/>
	</g>
</g>
	</g>
	<g id="gnuplot_plot_4" ><title>New Mean</title>
<g fill="none" color="white" stroke="rgb( 31, 120, 180)" stroke-width="2.00" stroke-linecap="butt" stroke-linejoin="miter">
</g>
<g fill="none" color="black" stroke="currentColor" stroke-width="2.00" stroke-linecap="butt" stroke-linejoin="miter">
	<path stroke='rgb( 31, 120, 180)'  d='M125.6,242.4 L125.6,81.8  '/></g>
	</g>
<g fill="none" color="black" stroke="currentColor" stroke-width="2.00" stroke-linecap="butt" stroke-linejoin="miter">
</g>
<g fill="none" color="black" stroke="black" stroke-width="1.00" stroke-linecap="butt" stroke-linejoin="miter">
</g>
<g fill="none" color="black" stroke="currentColor" stroke-width="1.00" stroke-linecap="butt" stroke-linejoin="miter">
	<path stroke='black'  d='M71.9,18.1 L71.9,242.4 L425.0,242.4 L425.0,18.1 L71.9,18.1 Z  '/></g>
<g fill="none" color="black" stroke="currentColor" stroke-width="1.00" stroke-linecap="butt" stroke-linejoin="miter">
</g>
</g>
</svg>

