<?xml version="1.0" encoding="utf-8"  standalone="no"?>
<svg 
 viewBox="0 0 450 300"
 xmlns="http://www.w3.org/2000/svg"
 xmlns:xlink="http://www.w3.org/1999/xlink"
>

<title>Gnuplot</title>
<desc>Produced by GNUPLOT 5.2 patchlevel 6 </desc>

<g id="gnuplot_canvas">

<rect x="0" y="0" width="450" height="300" fill="none"/>
<defs>

	<circle id='gpDot' r='0.5' stroke-width='0.5' stroke='currentColor'/>
	<path id='gpPt0' stroke-width='0.222' stroke='currentColor' d='M-1,0 h2 M0,-1 v2'/>
	<path id='gpPt1' stroke-width='0.222' stroke='currentColor' d='M-1,-1 L1,1 M1,-1 L-1,1'/>
	<path id='gpPt2' stroke-width='0.222' stroke='currentColor' d='M-1,0 L1,0 M0,-1 L0,1 M-1,-1 L1,1 M-1,1 L1,-1'/>
	<rect id='gpPt3' stroke-width='0.222' stroke='currentColor' x='-1' y='-1' width='2' height='2'/>
	<rect id='gpPt4' stroke-width='0.222' stroke='currentColor' fill='currentColor' x='-1' y='-1' width='2' height='2'/>
	<circle id='gpPt5' stroke-width='0.222' stroke='currentColor' cx='0' cy='0' r='1'/>
	<use xlink:href='#gpPt5' id='gpPt6' fill='currentColor' stroke='none'/>
	<path id='gpPt7' stroke-width='0.222' stroke='currentColor' d='M0,-1.33 L-1.33,0.67 L1.33,0.67 z'/>
	<use xlink:href='#gpPt7' id='gpPt8' fill='currentColor' stroke='none'/>
	<use xlink:href='#gpPt7' id='gpPt9' stroke='currentColor' transform='rotate(180)'/>
	<use xlink:href='#gpPt9' id='gpPt10' fill='currentColor' stroke='none'/>
	<use xlink:href='#gpPt3' id='gpPt11' stroke='currentColor' transform='rotate(45)'/>
	<use xlink:href='#gpPt11' id='gpPt12' fill='currentColor' stroke='none'/>
	<path id='gpPt13' stroke-width='0.222' stroke='currentColor' d='M0,1.330 L1.265,0.411 L0.782,-1.067 L-0.782,-1.076 L-1.265,0.411 z'/>
	<use xlink:href='#gpPt13' id='gpPt14' fill='currentColor' stroke='none'/>
	<filter id='textbox' filterUnits='objectBoundingBox' x='0' y='0' height='1' width='1'>
	  <feFlood flood-color='white' flood-opacity='1' result='bgnd'/>
	  <feComposite in='SourceGraphic' in2='bgnd' operator='atop'/>
	</filter>
	<filter id='greybox' filterUnits='objectBoundingBox' x='0' y='0' height='1' width='1'>
	  <feFlood flood-color='lightgrey' flood-opacity='1' result='grey'/>
	  <feComposite in='SourceGraphic' in2='grey' operator='atop'/>
	</filter>
</defs>
<g fill="none" color="white" stroke="currentColor" stroke-width="1.00" stroke-linecap="butt" stroke-linejoin="miter">
</g>
<g fill="none" color="black" stroke="currentColor" stroke-width="1.00" stroke-linecap="butt" stroke-linejoin="miter">
	<path stroke='black'  d='M55.3,242.4 L64.3,242.4  '/>	<g transform="translate(47.0,246.3)" stroke="none" fill="black" font-family="Helvetica" font-size="12.00"  text-anchor="end">
		<text><tspan font-family="Helvetica" > 0</tspan></text>
	</g>
</g>
<g fill="none" color="black" stroke="currentColor" stroke-width="1.00" stroke-linecap="butt" stroke-linejoin="miter">
	<path stroke='black'  d='M55.3,214.4 L64.3,214.4  '/>	<g transform="translate(47.0,218.3)" stroke="none" fill="black" font-family="Helvetica" font-size="12.00"  text-anchor="end">
		<text><tspan font-family="Helvetica" > 1</tspan></text>
	</g>
</g>
<g fill="none" color="black" stroke="currentColor" stroke-width="1.00" stroke-linecap="butt" stroke-linejoin="miter">
	<path stroke='black'  d='M55.3,186.3 L64.3,186.3  '/>	<g transform="translate(47.0,190.2)" stroke="none" fill="black" font-family="Helvetica" font-size="12.00"  text-anchor="end">
		<text><tspan font-family="Helvetica" > 2</tspan></text>
	</g>
</g>
<g fill="none" color="black" stroke="currentColor" stroke-width="1.00" stroke-linecap="butt" stroke-linejoin="miter">
	<path stroke='black'  d='M55.3,158.3 L64.3,158.3  '/>	<g transform="translate(47.0,162.2)" stroke="none" fill="black" font-family="Helvetica" font-size="12.00"  text-anchor="end">
		<text><tspan font-family="Helvetica" > 3</tspan></text>
	</g>
</g>
<g fill="none" color="black" stroke="currentColor" stroke-width="1.00" stroke-linecap="butt" stroke-linejoin="miter">
	<path stroke='black'  d='M55.3,130.2 L64.3,130.2  '/>	<g transform="translate(47.0,134.1)" stroke="none" fill="black" font-family="Helvetica" font-size="12.00"  text-anchor="end">
		<text><tspan font-family="Helvetica" > 4</tspan></text>
	</g>
</g>
<g fill="none" color="black" stroke="currentColor" stroke-width="1.00" stroke-linecap="butt" stroke-linejoin="miter">
	<path stroke='black'  d='M55.3,102.2 L64.3,102.2  '/>	<g transform="translate(47.0,106.1)" stroke="none" fill="black" font-family="Helvetica" font-size="12.00"  text-anchor="end">
		<text><tspan font-family="Helvetica" > 5</tspan></text>
	</g>
</g>
<g fill="none" color="black" stroke="currentColor" stroke-width="1.00" stroke-linecap="butt" stroke-linejoin="miter">
	<path stroke='black'  d='M55.3,74.2 L64.3,74.2  '/>	<g transform="translate(47.0,78.1)" stroke="none" fill="black" font-family="Helvetica" font-size="12.00"  text-anchor="end">
		<text><tspan font-family="Helvetica" > 6</tspan></text>
	</g>
</g>
<g fill="none" color="black" stroke="currentColor" stroke-width="1.00" stroke-linecap="butt" stroke-linejoin="miter">
	<path stroke='black'  d='M55.3,46.1 L64.3,46.1  '/>	<g transform="translate(47.0,50.0)" stroke="none" fill="black" font-family="Helvetica" font-size="12.00"  text-anchor="end">
		<text><tspan font-family="Helvetica" > 7</tspan></text>
	</g>
</g>
<g fill="none" color="black" stroke="currentColor" stroke-width="1.00" stroke-linecap="butt" stroke-linejoin="miter">
	<path stroke='black'  d='M55.3,18.1 L64.3,18.1  '/>	<g transform="translate(47.0,22.0)" stroke="none" fill="black" font-family="Helvetica" font-size="12.00"  text-anchor="end">
		<text><tspan font-family="Helvetica" > 8</tspan></text>
	</g>
</g>
<g fill="none" color="black" stroke="currentColor" stroke-width="1.00" stroke-linecap="butt" stroke-linejoin="miter">
	<path stroke='black'  d='M55.3,242.4 L55.3,233.4  '/>	<g transform="translate(55.3,264.3)" stroke="none" fill="black" font-family="Helvetica" font-size="12.00"  text-anchor="middle">
		<text><tspan font-family="Helvetica" > 6</tspan></text>
	</g>
</g>
<g fill="none" color="black" stroke="currentColor" stroke-width="1.00" stroke-linecap="butt" stroke-linejoin="miter">
	<path stroke='black'  d='M116.9,242.4 L116.9,233.4  '/>	<g transform="translate(116.9,264.3)" stroke="none" fill="black" font-family="Helvetica" font-size="12.00"  text-anchor="middle">
		<text><tspan font-family="Helvetica" > 6.5</tspan></text>
	</g>
</g>
<g fill="none" color="black" stroke="currentColor" stroke-width="1.00" stroke-linecap="butt" stroke-linejoin="miter">
	<path stroke='black'  d='M178.5,242.4 L178.5,233.4  '/>	<g transform="translate(178.5,264.3)" stroke="none" fill="black" font-family="Helvetica" font-size="12.00"  text-anchor="middle">
		<text><tspan font-family="Helvetica" > 7</tspan></text>
	</g>
</g>
<g fill="none" color="black" stroke="currentColor" stroke-width="1.00" stroke-linecap="butt" stroke-linejoin="miter">
	<path stroke='black'  d='M240.2,242.4 L240.2,233.4  '/>	<g transform="translate(240.2,264.3)" stroke="none" fill="black" font-family="Helvetica" font-size="12.00"  text-anchor="middle">
		<text><tspan font-family="Helvetica" > 7.5</tspan></text>
	</g>
</g>
<g fill="none" color="black" stroke="currentColor" stroke-width="1.00" stroke-linecap="butt" stroke-linejoin="miter">
	<path stroke='black'  d='M301.8,242.4 L301.8,233.4  '/>	<g transform="translate(301.8,264.3)" stroke="none" fill="black" font-family="Helvetica" font-size="12.00"  text-anchor="middle">
		<text><tspan font-family="Helvetica" > 8</tspan></text>
	</g>
</g>
<g fill="none" color="black" stroke="currentColor" stroke-width="1.00" stroke-linecap="butt" stroke-linejoin="miter">
	<path stroke='black'  d='M363.4,242.4 L363.4,233.4  '/>	<g transform="translate(363.4,264.3)" stroke="none" fill="black" font-family="Helvetica" font-size="12.00"  text-anchor="middle">
		<text><tspan font-family="Helvetica" > 8.5</tspan></text>
	</g>
</g>
<g fill="none" color="black" stroke="currentColor" stroke-width="1.00" stroke-linecap="butt" stroke-linejoin="miter">
	<path stroke='black'  d='M425.0,242.4 L425.0,233.4  '/>	<g transform="translate(425.0,264.3)" stroke="none" fill="black" font-family="Helvetica" font-size="12.00"  text-anchor="middle">
		<text><tspan font-family="Helvetica" > 9</tspan></text>
	</g>
</g>
<g fill="none" color="black" stroke="currentColor" stroke-width="1.00" stroke-linecap="butt" stroke-linejoin="miter">
</g>
<g fill="none" color="black" stroke="currentColor" stroke-width="1.00" stroke-linecap="butt" stroke-linejoin="miter">
	<path stroke='black'  d='M55.3,18.1 L55.3,242.4 L425.0,242.4 L425.0,18.1 L55.3,18.1 Z  '/></g>
<g fill="none" color="black" stroke="currentColor" stroke-width="1.00" stroke-linecap="butt" stroke-linejoin="miter">
	<g transform="translate(16.3,130.3) rotate(270)" stroke="none" fill="black" font-family="Helvetica" font-size="12.00"  text-anchor="middle">
		<text><tspan font-family="Helvetica" >Density (a.u.)</tspan></text>
	</g>
</g>
<g fill="none" color="black" stroke="currentColor" stroke-width="1.00" stroke-linecap="butt" stroke-linejoin="miter">
	<g transform="translate(240.1,291.3)" stroke="none" fill="black" font-family="Helvetica" font-size="12.00"  text-anchor="middle">
		<text><tspan font-family="Helvetica" >Average time (us)</tspan></text>
	</g>
</g>
<g fill="none" color="black" stroke="currentColor" stroke-width="1.00" stroke-linecap="butt" stroke-linejoin="miter">
</g>
	<g id="gnuplot_plot_1" ><title>Base PDF</title>
<g fill="none" color="black" stroke="currentColor" stroke-width="1.00" stroke-linecap="butt" stroke-linejoin="miter">
	<g stroke='none' shape-rendering='crispEdges'>
		<polygon fill = 'rgb(227,  26,  28)' fill-opacity = '0.500000' points = '239.9,242.4 240.2,242.4 240.5,242.4 240.9,242.4 241.2,242.3 241.5,242.3 241.8,242.3 242.1,242.3 242.4,242.3 242.7,242.3 243.0,242.3 243.4,242.2 243.7,242.2 244.0,242.2 244.3,242.2 244.6,242.1
244.9,242.1 245.2,242.0 245.5,242.0 245.9,241.9 246.2,241.9 246.5,241.8 246.8,241.7 247.1,241.6 247.4,241.5 247.7,241.4 248.0,241.3 248.4,241.1 248.7,240.9 249.0,240.7 249.3,240.5 249.6,240.3
249.9,240.0 250.2,239.7 250.5,239.4 250.9,239.0 251.2,238.6 251.5,238.1 251.8,237.6 252.1,237.1 252.4,236.4 252.7,235.7 253.0,235.0 253.4,234.1 253.7,233.2 254.0,232.2 254.3,231.1 254.6,229.9
254.9,228.6 255.2,227.2 255.5,225.7 255.9,224.0 256.2,222.2 256.5,220.3 256.8,218.2 257.1,215.9 257.4,213.5 257.7,211.0 258.0,208.3 258.4,205.4 258.7,202.3 259.0,199.1 259.3,195.7 259.6,192.2
259.9,188.4 260.2,184.5 260.5,180.4 260.9,176.2 261.2,171.8 261.5,167.3 261.8,162.6 262.1,157.9 262.4,153.0 262.7,148.0 263.0,142.9 263.4,137.8 263.7,132.7 264.0,127.5 264.3,122.3 264.6,117.2
264.9,112.1 265.2,107.1 265.5,102.1 265.9,97.3 266.2,92.6 266.5,88.1 266.8,83.8 267.1,79.7 267.4,75.9 267.7,72.3 268.0,69.0 268.4,66.0 268.7,63.3 269.0,61.0 269.3,59.0 269.6,57.4
269.9,56.1 270.2,55.3 270.5,54.8 270.9,54.7 271.2,55.0 271.5,55.7 271.8,56.7 272.1,58.2 272.4,60.0 272.7,62.1 273.0,64.6 273.4,67.5 273.7,70.6 274.0,74.0 274.3,77.7 274.6,81.6
274.9,85.8 275.2,90.2 275.5,94.7 275.9,99.4 276.2,104.2 276.5,109.1 276.8,114.1 277.1,119.1 277.4,124.2 277.7,129.3 278.0,134.3 278.4,139.4 278.7,144.3 279.0,149.2 279.3,154.1 279.6,158.8
279.9,163.4 280.2,167.8 280.5,172.2 280.9,176.4 281.2,180.4 281.5,184.3 281.8,188.0 282.1,191.5 282.4,194.9 282.7,198.0 283.0,201.1 283.4,203.9 283.7,206.6 284.0,209.1 284.3,211.5 284.6,213.7
284.9,215.8 285.2,217.7 285.5,219.5 285.9,221.1 286.2,222.6 286.5,224.1 286.8,225.4 287.1,226.5 287.4,227.6 287.7,228.7 288.0,229.6 288.4,230.4 288.7,231.2 289.0,231.9 289.3,232.6 289.6,233.2
289.9,233.7 290.2,234.2 290.5,234.7 290.9,235.1 291.2,235.5 291.5,235.9 291.8,236.2 292.1,236.5 292.4,236.8 292.7,237.1 293.0,237.4 293.4,237.6 293.7,237.9 294.0,238.1 294.3,238.3 294.6,238.5
294.9,238.8 295.2,238.9 295.5,239.1 295.9,239.3 296.2,239.5 296.5,239.7 296.8,239.8 297.1,240.0 297.4,240.1 297.7,240.3 298.0,240.4 298.4,240.5 298.7,240.7 299.0,240.8 299.3,240.9 299.6,241.0
299.9,241.1 300.2,241.2 300.5,241.3 300.9,241.4 301.2,241.5 301.5,241.6 301.8,241.6 302.1,241.7 302.4,241.8 302.7,241.8 303.0,241.9 303.4,241.9 303.7,242.0 304.0,242.0 304.3,242.0 304.6,242.1
304.9,242.1 305.2,242.1 305.5,242.2 305.9,242.2 306.2,242.2 306.5,242.2 306.8,242.2 307.1,242.2 307.4,242.2 307.7,242.2 308.0,242.2 308.4,242.2 308.7,242.2 309.0,242.2 309.3,242.2 309.6,242.2
309.9,242.2 310.2,242.2 310.5,242.1 310.9,242.1 311.2,242.1 311.5,242.0 311.8,242.0 312.1,242.0 312.4,241.9 312.7,241.9 313.1,241.8 313.4,241.7 313.7,241.7 314.0,241.6 314.3,241.5 314.6,241.5
314.9,241.4 315.2,241.3 315.6,241.2 315.9,241.1 316.2,241.0 316.5,240.9 316.8,240.8 317.1,240.7 317.4,240.6 317.7,240.4 318.1,240.3 318.4,240.2 318.7,240.1 319.0,239.9 319.3,239.8 319.6,239.7
319.9,239.5 320.2,239.4 320.6,239.3 320.9,239.1 321.2,239.0 321.5,238.9 321.8,238.8 322.1,238.7 322.4,238.6 322.7,238.4 323.1,238.4 323.4,238.3 323.7,238.2 324.0,238.1 324.3,238.0 324.6,238.0
324.9,237.9 325.2,237.9 325.6,237.8 325.9,237.8 326.2,237.8 326.5,237.8 326.8,237.8 327.1,237.8 327.4,237.8 327.7,237.8 328.1,237.9 328.4,237.9 328.7,237.9 329.0,238.0 329.3,238.0 329.6,238.1
329.9,238.1 330.2,238.2 330.6,238.3 330.9,238.3 331.2,238.4 331.5,238.5 331.8,238.5 332.1,238.6 332.4,238.6 332.7,238.7 333.1,238.8 333.4,238.8 333.7,238.9 334.0,239.0 334.3,239.0 334.6,239.1
334.9,239.1 335.2,239.2 335.6,239.2 335.9,239.3 336.2,239.3 336.5,239.4 336.8,239.4 337.1,239.5 337.4,239.5 337.7,239.5 338.1,239.6 338.4,239.6 338.7,239.7 339.0,239.7 339.3,239.8 339.6,239.8
339.9,239.9 340.2,239.9 340.6,240.0 340.9,240.1 341.2,240.1 341.5,240.2 341.8,240.2 342.1,240.3 342.4,240.4 342.7,240.4 343.1,240.5 343.4,240.6 343.7,240.6 344.0,240.7 344.3,240.8 344.6,240.9
344.9,240.9 345.2,241.0 345.6,241.1 345.9,241.1 346.2,241.2 346.5,241.3 346.8,241.3 347.1,241.4 347.4,241.5 347.7,241.5 348.1,241.6 348.4,241.6 348.7,241.7 349.0,241.8 349.3,241.8 349.6,241.8
349.9,241.9 350.2,241.9 350.6,242.0 350.9,242.0 351.2,242.0 351.5,242.1 351.8,242.1 352.1,242.1 352.4,242.2 352.7,242.2 353.1,242.2 353.4,242.2 353.7,242.2 354.0,242.3 354.3,242.3 354.6,242.3
354.9,242.3 355.2,242.3 355.6,242.3 355.9,242.3 356.2,242.3 356.5,242.3 356.8,242.3 357.1,242.3 357.4,242.3 357.7,242.3 358.1,242.3 358.4,242.3 358.7,242.3 359.0,242.3 359.3,242.3 359.6,242.3
359.9,242.3 360.2,242.3 360.6,242.3 360.9,242.3 361.2,242.3 361.5,242.3 361.8,242.3 362.1,242.2 362.4,242.2 362.7,242.2 363.1,242.2 363.4,242.2 363.7,242.1 364.0,242.1 364.3,242.1 364.6,242.1
364.9,242.0 365.2,242.0 365.6,242.0 365.9,241.9 366.2,241.9 366.5,241.8 366.8,241.8 367.1,241.7 367.4,241.7 367.7,241.6 368.1,241.6 368.4,241.5 368.7,241.4 369.0,241.4 369.3,241.3 369.6,241.3
369.9,241.2 370.2,241.1 370.6,241.1 370.9,241.0 371.2,240.9 371.5,240.9 371.8,240.8 372.1,240.8 372.4,240.7 372.7,240.6 373.1,240.6 373.4,240.5 373.7,240.5 374.0,240.4 374.3,240.4 374.6,240.4
374.9,240.3 375.2,240.3 375.6,240.3 375.9,240.3 376.2,240.2 376.5,240.2 376.8,240.2 377.1,240.2 377.4,240.2 377.7,240.3 378.1,240.3 378.4,240.3 378.7,240.3 379.0,240.4 379.3,240.4 379.6,240.4
379.9,240.5 380.2,240.5 380.6,240.6 380.9,240.6 381.2,240.7 381.5,240.7 381.8,240.8 382.1,240.9 382.4,240.9 382.7,241.0 383.1,241.1 383.4,241.1 383.7,241.2 384.0,241.3 384.3,241.3 384.6,241.4
384.9,241.4 385.3,241.5 385.6,241.6 385.9,241.6 386.2,241.7 386.5,241.7 386.8,241.8 387.1,241.8 387.4,241.9 387.8,241.9 388.1,241.9 388.4,242.0 388.7,242.0 389.0,242.1 389.3,242.1 389.6,242.1
389.9,242.1 390.3,242.2 390.6,242.2 390.9,242.2 391.2,242.2 391.5,242.2 391.8,242.3 392.1,242.3 392.4,242.3 392.8,242.3 393.1,242.3 393.4,242.3 393.7,242.3 394.0,242.3 394.3,242.4 394.6,242.4
394.9,242.4 395.3,242.4 395.6,242.4 395.9,242.4 395.9,242.4 395.6,242.4 395.3,242.4 394.9,242.4 394.6,242.4 394.3,242.4 394.0,242.4 393.7,242.4 393.4,242.4 393.1,242.4 392.8,242.4 392.4,242.4
392.1,242.4 391.8,242.4 391.5,242.4 391.2,242.4 390.9,242.4 390.6,242.4 390.3,242.4 389.9,242.4 389.6,242.4 389.3,242.4 389.0,242.4 388.7,242.4 388.4,242.4 388.1,242.4 387.8,242.4 387.4,242.4
387.1,242.4 386.8,242.4 386.5,242.4 386.2,242.4 385.9,242.4 385.6,242.4 385.3,242.4 384.9,242.4 384.6,242.4 384.3,242.4 384.0,242.4 383.7,242.4 383.4,242.4 383.1,242.4 382.7,242.4 382.4,242.4
382.1,242.4 381.8,242.4 381.5,242.4 381.2,242.4 380.9,242.4 380.6,242.4 380.2,242.4 379.9,242.4 379.6,242.4 379.3,242.4 379.0,242.4 378.7,242.4 378.4,242.4 378.1,242.4 377.7,242.4 377.4,242.4
377.1,242.4 376.8,242.4 376.5,242.4 376.2,242.4 375.9,242.4 375.6,242.4 375.2,242.4 374.9,242.4 374.6,242.4 374.3,242.4 374.0,242.4 373.7,242.4 373.4,242.4 373.1,242.4 372.7,242.4 372.4,242.4
372.1,242.4 371.8,242.4 371.5,242.4 371.2,242.4 370.9,242.4 370.6,242.4 370.2,242.4 369.9,242.4 369.6,242.4 369.3,242.4 369.0,242.4 368.7,242.4 368.4,242.4 368.1,242.4 367.7,242.4 367.4,242.4
367.1,242.4 366.8,242.4 366.5,242.4 366.2,242.4 365.9,242.4 365.6,242.4 365.2,242.4 364.9,242.4 364.6,242.4 364.3,242.4 364.0,242.4 363.7,242.4 363.4,242.4 363.1,242.4 362.7,242.4 362.4,242.4
362.1,242.4 361.8,242.4 361.5,242.4 361.2,242.4 360.9,242.4 360.6,242.4 360.2,242.4 359.9,242.4 359.6,242.4 359.3,242.4 359.0,242.4 358.7,242.4 358.4,242.4 358.1,242.4 357.7,242.4 357.4,242.4
357.1,242.4 356.8,242.4 356.5,242.4 356.2,242.4 355.9,242.4 355.6,242.4 355.2,242.4 354.9,242.4 354.6,242.4 354.3,242.4 354.0,242.4 353.7,242.4 353.4,242.4 353.1,242.4 352.7,242.4 352.4,242.4
352.1,242.4 351.8,242.4 351.5,242.4 351.2,242.4 350.9,242.4 350.6,242.4 350.2,242.4 349.9,242.4 349.6,242.4 349.3,242.4 349.0,242.4 348.7,242.4 348.4,242.4 348.1,242.4 347.7,242.4 347.4,242.4
347.1,242.4 346.8,242.4 346.5,242.4 346.2,242.4 345.9,242.4 345.6,242.4 345.2,242.4 344.9,242.4 344.6,242.4 344.3,242.4 344.0,242.4 343.7,242.4 343.4,242.4 343.1,242.4 342.7,242.4 342.4,242.4
342.1,242.4 341.8,242.4 341.5,242.4 341.2,242.4 340.9,242.4 340.6,242.4 340.2,242.4 339.9,242.4 339.6,242.4 339.3,242.4 339.0,242.4 338.7,242.4 338.4,242.4 338.1,242.4 337.7,242.4 337.4,242.4
337.1,242.4 336.8,242.4 336.5,242.4 336.2,242.4 335.9,242.4 335.6,242.4 335.2,242.4 334.9,242.4 334.6,242.4 334.3,242.4 334.0,242.4 333.7,242.4 333.4,242.4 333.1,242.4 332.7,242.4 332.4,242.4
332.1,242.4 331.8,242.4 331.5,242.4 331.2,242.4 330.9,242.4 330.6,242.4 330.2,242.4 329.9,242.4 329.6,242.4 329.3,242.4 329.0,242.4 328.7,242.4 328.4,242.4 328.1,242.4 327.7,242.4 327.4,242.4
327.1,242.4 326.8,242.4 326.5,242.4 326.2,242.4 325.9,242.4 325.6,242.4 325.2,242.4 324.9,242.4 324.6,242.4 324.3,242.4 324.0,242.4 323.7,242.4 323.4,242.4 323.1,242.4 322.7,242.4 322.4,242.4
322.1,242.4 321.8,242.4 321.5,242.4 321.2,242.4 320.9,242.4 320.6,242.4 320.2,242.4 319.9,242.4 319.6,242.4 319.3,242.4 319.0,242.4 318.7,242.4 318.4,242.4 318.1,242.4 317.7,242.4 317.4,242.4
317.1,242.4 316.8,242.4 316.5,242.4 316.2,242.4 315.9,242.4 315.6,242.4 315.2,242.4 314.9,242.4 314.6,242.4 314.3,242.4 314.0,242.4 313.7,242.4 313.4,242.4 313.1,242.4 312.7,242.4 312.4,242.4
312.1,242.4 311.8,242.4 311.5,242.4 311.2,242.4 310.9,242.4 310.5,242.4 310.2,242.4 309.9,242.4 309.6,242.4 309.3,242.4 309.0,242.4 308.7,242.4 308.4,242.4 308.0,242.4 307.7,242.4 307.4,242.4
307.1,242.4 306.8,242.4 306.5,242.4 306.2,242.4 305.9,242.4 305.5,242.4 305.2,242.4 304.9,242.4 304.6,242.4 304.3,242.4 304.0,242.4 303.7,242.4 303.4,242.4 303.0,242.4 302.7,242.4 302.4,242.4
302.1,242.4 301.8,242.4 301.5,242.4 301.2,242.4 300.9,242.4 300.5,242.4 300.2,242.4 299.9,242.4 299.6,242.4 299.3,242.4 299.0,242.4 298.7,242.4 298.4,242.4 298.0,242.4 297.7,242.4 297.4,242.4
297.1,242.4 296.8,242.4 296.5,242.4 296.2,242.4 295.9,242.4 295.5,242.4 295.2,242.4 294.9,242.4 294.6,242.4 294.3,242.4 294.0,242.4 293.7,242.4 293.4,242.4 293.0,242.4 292.7,242.4 292.4,242.4
292.1,242.4 291.8,242.4 291.5,242.4 291.2,242.4 290.9,242.4 290.5,242.4 290.2,242.4 289.9,242.4 289.6,242.4 289.3,242.4 289.0,242.4 288.7,242.4 288.4,242.4 288.0,242.4 287.7,242.4 287.4,242.4
287.1,242.4 286.8,242.4 286.5,242.4 286.2,242.4 285.9,242.4 285.5,242.4 285.2,242.4 284.9,242.4 284.6,242.4 284.3,242.4 284.0,242.4 283.7,242.4 283.4,242.4 283.0,242.4 282.7,242.4 282.4,242.4
282.1,242.4 281.8,242.4 281.5,242.4 281.2,242.4 280.9,242.4 280.5,242.4 280.2,242.4 279.9,242.4 279.6,242.4 279.3,242.4 279.0,242.4 278.7,242.4 278.4,242.4 278.0,242.4 277.7,242.4 277.4,242.4
277.1,242.4 276.8,242.4 276.5,242.4 276.2,242.4 275.9,242.4 275.5,242.4 275.2,242.4 274.9,242.4 274.6,242.4 274.3,242.4 274.0,242.4 273.7,242.4 273.4,242.4 273.0,242.4 272.7,242.4 272.4,242.4
272.1,242.4 271.8,242.4 271.5,242.4 271.2,242.4 270.9,242.4 270.5,242.4 270.2,242.4 269.9,242.4 269.6,242.4 269.3,242.4 269.0,242.4 268.7,242.4 268.4,242.4 268.0,242.4 267.7,242.4 267.4,242.4
267.1,242.4 266.8,242.4 266.5,242.4 266.2,242.4 265.9,242.4 265.5,242.4 265.2,242.4 264.9,242.4 264.6,242.4 264.3,242.4 264.0,242.4 263.7,242.4 263.4,242.4 263.0,242.4 262.7,242.4 262.4,242.4
262.1,242.4 261.8,242.4 261.5,242.4 261.2,242.4 260.9,242.4 260.5,242.4 260.2,242.4 259.9,242.4 259.6,242.4 259.3,242.4 259.0,242.4 258.7,242.4 258.4,242.4 258.0,242.4 257.7,242.4 257.4,242.4
257.1,242.4 256.8,242.4 256.5,242.4 256.2,242.4 255.9,242.4 255.5,242.4 255.2,242.4 254.9,242.4 254.6,242.4 254.3,242.4 254.0,242.4 253.7,242.4 253.4,242.4 253.0,242.4 252.7,242.4 252.4,242.4
252.1,242.4 251.8,242.4 251.5,242.4 251.2,242.4 250.9,242.4 250.5,242.4 250.2,242.4 249.9,242.4 249.6,242.4 249.3,242.4 249.0,242.4 248.7,242.4 248.4,242.4 248.0,242.4 247.7,242.4 247.4,242.4
247.1,242.4 246.8,242.4 246.5,242.4 246.2,242.4 245.9,242.4 245.5,242.4 245.2,242.4 244.9,242.4 244.6,242.4 244.3,242.4 244.0,242.4 243.7,242.4 243.4,242.4 243.0,242.4 242.7,242.4 242.4,242.4
242.1,242.4 241.8,242.4 241.5,242.4 241.2,242.4 240.9,242.4 240.5,242.4 240.2,242.4 239.9,242.4 '/>
	</g>
</g>
	</g>
	<g id="gnuplot_plot_2" ><title>Base Mean</title>
<g fill="none" color="white" stroke="rgb(227,  26,  28)" stroke-width="2.00" stroke-linecap="butt" stroke-linejoin="miter">
</g>
<g fill="none" color="black" stroke="currentColor" stroke-width="2.00" stroke-linecap="butt" stroke-linejoin="miter">
	<path stroke='rgb(227,  26,  28)'  d='M274.0,242.4 L274.0,74.2  '/></g>
	</g>
	<g id="gnuplot_plot_3" ><title>New PDF</title>
<g fill="none" color="white" stroke="rgb(227,  26,  28)" stroke-width="1.00" stroke-linecap="butt" stroke-linejoin="miter">
</g>
<g fill="none" color="black" stroke="currentColor" stroke-width="1.00" stroke-linecap="butt" stroke-linejoin="miter">
	<g stroke='none' shape-rendering='crispEdges'>
		<polygon fill = 'rgb( 31, 120, 180)' fill-opacity = '0.500000' points = '101.3,242.1 101.5,242.1 101.8,242.0 102.0,242.0 102.3,241.9 102.6,241.8 102.8,241.7 103.1,241.6 103.4,241.5 103.6,241.4 103.9,241.3 104.2,241.1 104.4,240.9 104.7,240.7 105.0,240.5 105.2,240.3
105.5,240.0 105.7,239.7 106.0,239.3 106.3,239.0 106.5,238.5 106.8,238.1 107.1,237.6 107.3,237.0 107.6,236.4 107.9,235.7 108.1,234.9 108.4,234.1 108.7,233.2 108.9,232.3 109.2,231.2 109.4,230.1
109.7,228.8 110.0,227.5 110.2,226.1 110.5,224.5 110.8,222.9 111.0,221.1 111.3,219.2 111.6,217.2 111.8,215.0 112.1,212.7 112.3,210.3 112.6,207.7 112.9,205.0 113.1,202.1 113.4,199.1 113.7,196.0
113.9,192.7 114.2,189.2 114.5,185.6 114.7,181.9 115.0,178.0 115.3,174.0 115.5,169.9 115.8,165.6 116.0,161.3 116.3,156.8 116.6,152.2 116.8,147.6 117.1,142.9 117.4,138.1 117.6,133.3 117.9,128.4
118.2,123.5 118.4,118.6 118.7,113.8 119.0,108.9 119.2,104.2 119.5,99.4 119.7,94.8 120.0,90.3 120.3,85.9 120.5,81.6 120.8,77.5 121.1,73.5 121.3,69.8 121.6,66.2 121.9,62.9 122.1,59.9
122.4,57.0 122.6,54.5 122.9,52.2 123.2,50.3 123.4,48.6 123.7,47.2 124.0,46.2 124.2,45.4 124.5,45.0 124.8,44.9 125.0,45.2 125.3,45.7 125.6,46.6 125.8,47.8 126.1,49.3 126.3,51.1
126.6,53.2 126.9,55.6 127.1,58.3 127.4,61.2 127.7,64.3 127.9,67.7 128.2,71.3 128.5,75.1 128.7,79.1 129.0,83.2 129.3,87.5 129.5,91.9 129.8,96.4 130.0,101.0 130.3,105.6 130.6,110.4
130.8,115.1 131.1,119.9 131.4,124.7 131.6,129.4 131.9,134.2 132.2,138.8 132.4,143.5 132.7,148.0 132.9,152.5 133.2,156.9 133.5,161.2 133.7,165.4 134.0,169.5 134.3,173.4 134.5,177.2 134.8,180.9
135.1,184.4 135.3,187.9 135.6,191.1 135.9,194.2 136.1,197.2 136.4,200.0 136.6,202.7 136.9,205.3 137.2,207.7 137.4,210.0 137.7,212.1 138.0,214.1 138.2,216.0 138.5,217.8 138.8,219.4 139.0,221.0
139.3,222.4 139.5,223.8 139.8,225.0 140.1,226.2 140.3,227.2 140.6,228.2 140.9,229.2 141.1,230.0 141.4,230.8 141.7,231.5 141.9,232.2 142.2,232.8 142.5,233.4 142.7,233.9 143.0,234.4 143.2,234.8
143.5,235.2 143.8,235.6 144.0,236.0 144.3,236.3 144.6,236.6 144.8,236.9 145.1,237.2 145.4,237.4 145.6,237.7 145.9,237.9 146.2,238.1 146.4,238.3 146.7,238.5 146.9,238.7 147.2,238.8 147.5,239.0
147.7,239.2 148.0,239.3 148.3,239.5 148.5,239.6 148.8,239.7 149.1,239.9 149.3,240.0 149.6,240.1 149.8,240.2 150.1,240.3 150.4,240.4 150.6,240.5 150.9,240.6 151.2,240.7 151.4,240.8 151.7,240.9
152.0,241.0 152.2,241.0 152.5,241.1 152.8,241.2 153.0,241.2 153.3,241.3 153.5,241.3 153.8,241.3 154.1,241.4 154.3,241.4 154.6,241.4 154.9,241.4 155.1,241.5 155.4,241.5 155.7,241.5 155.9,241.5
156.2,241.4 156.5,241.4 156.7,241.4 157.0,241.4 157.2,241.3 157.5,241.3 157.8,241.2 158.0,241.2 158.3,241.1 158.6,241.0 158.8,240.9 159.1,240.9 159.4,240.8 159.6,240.7 159.9,240.6 160.1,240.5
160.4,240.3 160.7,240.2 160.9,240.1 161.2,240.0 161.5,239.8 161.7,239.7 162.0,239.6 162.3,239.4 162.5,239.3 162.8,239.1 163.1,238.9 163.3,238.8 163.6,238.6 163.8,238.5 164.1,238.3 164.4,238.2
164.6,238.0 164.9,237.8 165.2,237.7 165.4,237.5 165.7,237.4 166.0,237.2 166.2,237.1 166.5,237.0 166.7,236.8 167.0,236.7 167.3,236.6 167.5,236.5 167.8,236.4 168.1,236.3 168.3,236.2 168.6,236.2
168.9,236.1 169.1,236.0 169.4,236.0 169.7,236.0 169.9,236.0 170.2,236.0 170.4,236.0 170.7,236.0 171.0,236.0 171.2,236.0 171.5,236.1 171.8,236.1 172.0,236.2 172.3,236.3 172.6,236.4 172.8,236.5
173.1,236.6 173.4,236.7 173.6,236.8 173.9,236.9 174.1,237.0 174.4,237.2 174.7,237.3 174.9,237.5 175.2,237.6 175.5,237.8 175.7,237.9 176.0,238.1 176.3,238.2 176.5,238.4 176.8,238.6 177.0,238.7
177.3,238.9 177.6,239.0 177.8,239.2 178.1,239.3 178.4,239.5 178.6,239.6 178.9,239.8 179.2,239.9 179.4,240.1 179.7,240.2 180.0,240.3 180.2,240.5 180.5,240.6 180.7,240.7 181.0,240.8 181.3,240.9
181.5,241.0 181.8,241.1 182.1,241.2 182.3,241.3 182.6,241.4 182.9,241.5 183.1,241.5 183.4,241.6 183.7,241.7 183.9,241.7 184.2,241.8 184.4,241.8 184.7,241.9 185.0,241.9 185.2,242.0 185.5,242.0
185.8,242.0 186.0,242.1 186.3,242.1 186.6,242.1 186.8,242.2 187.1,242.2 187.3,242.2 187.6,242.2 187.9,242.2 188.1,242.3 188.4,242.3 188.7,242.3 188.9,242.3 189.2,242.3 189.5,242.3 189.7,242.3
190.0,242.3 190.3,242.3 190.5,242.3 190.8,242.3 191.0,242.4 191.3,242.4 191.6,242.4 191.8,242.4 192.1,242.4 192.4,242.4 192.6,242.4 192.9,242.4 193.2,242.4 193.4,242.3 193.7,242.3 193.9,242.3
194.2,242.3 194.5,242.3 194.7,242.3 195.0,242.3 195.3,242.3 195.5,242.3 195.8,242.3 196.1,242.3 196.3,242.2 196.6,242.2 196.9,242.2 197.1,242.2 197.4,242.2 197.6,242.1 197.9,242.1 198.2,242.1
198.4,242.1 198.7,242.0 199.0,242.0 199.2,242.0 199.5,241.9 199.8,241.9 200.0,241.8 200.3,241.8 200.6,241.7 200.8,241.7 201.1,241.6 201.3,241.6 201.6,241.5 201.9,241.4 202.1,241.4 202.4,241.3
202.7,241.2 202.9,241.1 203.2,241.0 203.5,241.0 203.7,240.9 204.0,240.8 204.2,240.7 204.5,240.6 204.8,240.5 205.0,240.4 205.3,240.3 205.6,240.2 205.8,240.1 206.1,240.0 206.4,239.8 206.6,239.7
206.9,239.6 207.2,239.5 207.4,239.4 207.7,239.3 207.9,239.2 208.2,239.1 208.5,239.0 208.7,238.9 209.0,238.8 209.3,238.7 209.5,238.6 209.8,238.6 210.1,238.5 210.3,238.4 210.6,238.4 210.9,238.3
211.1,238.3 211.4,238.2 211.6,238.2 211.9,238.1 212.2,238.1 212.4,238.1 212.7,238.1 213.0,238.1 213.2,238.1 213.5,238.1 213.8,238.1 214.0,238.2 214.3,238.2 214.5,238.2 214.8,238.3 215.1,238.3
215.3,238.4 215.6,238.5 215.9,238.5 216.1,238.6 216.4,238.7 216.7,238.8 216.9,238.9 217.2,239.0 217.5,239.1 217.7,239.2 218.0,239.3 218.2,239.4 218.5,239.5 218.8,239.6 219.0,239.7 219.3,239.8
219.6,239.9 219.8,240.0 220.1,240.1 220.4,240.2 220.6,240.3 220.9,240.4 221.2,240.5 221.4,240.6 221.7,240.7 221.9,240.8 222.2,240.9 222.5,241.0 222.7,241.1 223.0,241.2 223.3,241.2 223.5,241.3
223.8,241.4 224.1,241.5 224.3,241.5 224.6,241.6 224.8,241.6 225.1,241.7 225.4,241.8 225.6,241.8 225.9,241.9 226.2,241.9 226.4,241.9 226.7,242.0 227.0,242.0 227.2,242.0 227.5,242.1 227.8,242.1
228.0,242.1 228.3,242.2 228.5,242.2 228.8,242.2 229.1,242.2 229.3,242.2 229.6,242.3 229.9,242.3 230.1,242.3 230.4,242.3 230.7,242.3 230.9,242.3 231.2,242.3 231.4,242.3 231.7,242.3 232.0,242.4
232.2,242.4 232.5,242.4 232.8,242.4 233.0,242.4 233.0,242.4 232.8,242.4 232.5,242.4 232.2,242.4 232.0,242.4 231.7,242.4 231.4,242.4 231.2,242.4 230.9,242.4 230.7,242.4 230.4,242.4 230.1,242.4
229.9,242.4 229.6,242.4 229.3,242.4 229.1,242.4 228.8,242.4 228.5,242.4 228.3,242.4 228.0,242.4 227.8,242.4 227.5,242.4 227.2,242.4 227.0,242.4 226.7,242.4 226.4,242.4 226.2,242.4 225.9,242.4
225.6,242.4 225.4,242.4 225.1,242.4 224.8,242.4 224.6,242.4 224.3,242.4 224.1,242.4 223.8,242.4 223.5,242.4 223.3,242.4 223.0,242.4 222.7,242.4 222.5,242.4 222.2,242.4 221.9,242.4 221.7,242.4
221.4,242.4 221.2,242.4 220.9,242.4 220.6,242.4 220.4,242.4 220.1,242.4 219.8,242.4 219.6,242.4 219.3,242.4 219.0,242.4 218.8,242.4 218.5,242.4 218.2,242.4 218.0,242.4 217.7,242.4 217.5,242.4
217.2,242.4 216.9,242.4 216.7,242.4 216.4,242.4 216.1,242.4 215.9,242.4 215.6,242.4 215.3,242.4 215.1,242.4 214.8,242.4 214.5,242.4 214.3,242.4 214.0,242.4 213.8,242.4 213.5,242.4 213.2,242.4
213.0,242.4 212.7,242.4 212.4,242.4 212.2,242.4 211.9,242.4 211.6,242.4 211.4,242.4 211.1,242.4 210.9,242.4 210.6,242.4 210.3,242.4 210.1,242.4 209.8,242.4 209.5,242.4 209.3,242.4 209.0,242.4
208.7,242.4 208.5,242.4 208.2,242.4 207.9,242.4 207.7,242.4 207.4,242.4 207.2,242.4 206.9,242.4 206.6,242.4 206.4,242.4 206.1,242.4 205.8,242.4 205.6,242.4 205.3,242.4 205.0,242.4 204.8,242.4
204.5,242.4 204.2,242.4 204.0,242.4 203.7,242.4 203.5,242.4 203.2,242.4 202.9,242.4 202.7,242.4 202.4,242.4 202.1,242.4 201.9,242.4 201.6,242.4 201.3,242.4 201.1,242.4 200.8,242.4 200.6,242.4
200.3,242.4 200.0,242.4 199.8,242.4 199.5,242.4 199.2,242.4 199.0,242.4 198.7,242.4 198.4,242.4 198.2,242.4 197.9,242.4 197.6,242.4 197.4,242.4 197.1,242.4 196.9,242.4 196.6,242.4 196.3,242.4
196.1,242.4 195.8,242.4 195.5,242.4 195.3,242.4 195.0,242.4 194.7,242.4 194.5,242.4 194.2,242.4 193.9,242.4 193.7,242.4 193.4,242.4 193.2,242.4 192.9,242.4 192.6,242.4 192.4,242.4 192.1,242.4
191.8,242.4 191.6,242.4 191.3,242.4 191.0,242.4 190.8,242.4 190.5,242.4 190.3,242.4 190.0,242.4 189.7,242.4 189.5,242.4 189.2,242.4 188.9,242.4 188.7,242.4 188.4,242.4 188.1,242.4 187.9,242.4
187.6,242.4 187.3,242.4 187.1,242.4 186.8,242.4 186.6,242.4 186.3,242.4 186.0,242.4 185.8,242.4 185.5,242.4 185.2,242.4 185.0,242.4 184.7,242.4 184.4,242.4 184.2,242.4 183.9,242.4 183.7,242.4
183.4,242.4 183.1,242.4 182.9,242.4 182.6,242.4 182.3,242.4 182.1,242.4 181.8,242.4 181.5,242.4 181.3,242.4 181.0,242.4 180.7,242.4 180.5,242.4 180.2,242.4 180.0,242.4 179.7,242.4 179.4,242.4
179.2,242.4 178.9,242.4 178.6,242.4 178.4,242.4 178.1,242.4 177.8,242.4 177.6,242.4 177.3,242.4 177.0,242.4 176.8,242.4 176.5,242.4 176.3,242.4 176.0,242.4 175.7,242.4 175.5,242.4 175.2,242.4
174.9,242.4 174.7,242.4 174.4,242.4 174.1,242.4 173.9,242.4 173.6,242.4 173.4,242.4 173.1,242.4 172.8,242.4 172.6,242.4 172.3,242.4 172.0,242.4 171.8,242.4 171.5,242.4 171.2,242.4 171.0,242.4
170.7,242.4 170.4,242.4 170.2,242.4 169.9,242.4 169.7,242.4 169.4,242.4 169.1,242.4 168.9,242.4 168.6,242.4 168.3,242.4 168.1,242.4 167.8,242.4 167.5,242.4 167.3,242.4 167.0,242.4 166.7,242.4
166.5,242.4 166.2,242.4 166.0,242.4 165.7,242.4 165.4,242.4 165.2,242.4 164.9,242.4 164.6,242.4 164.4,242.4 164.1,242.4 163.8,242.4 163.6,242.4 163.3,242.4 163.1,242.4 162.8,242.4 162.5,242.4
162.3,242.4 162.0,242.4 161.7,242.4 161.5,242.4 161.2,242.4 160.9,242.4 160.7,242.4 160.4,242.4 160.1,242.4 159.9,242.4 159.6,242.4 159.4,242.4 159.1,242.4 158.8,242.4 158.6,242.4 158.3,242.4
158.0,242.4 157.8,242.4 157.5,242.4 157.2,242.4 157.0,242.4 156.7,242.4 156.5,242.4 156.2,242.4 155.9,242.4 155.7,242.4 155.4,242.4 155.1,242.4 154.9,242.4 154.6,242.4 154.3,242.4 154.1,242.4
153.8,242.4 153.5,242.4 153.3,242.4 153.0,242.4 152.8,242.4 152.5,242.4 152.2,242.4 152.0,242.4 151.7,242.4 151.4,242.4 151.2,242.4 150.9,242.4 150.6,242.4 150.4,242.4 150.1,242.4 149.8,242.4
149.6,242.4 149.3,242.4 149.1,242.4 148.8,242.4 148.5,242.4 148.3,242.4 148.0,242.4 147.7,242.4 147.5,242.4 147.2,242.4 146.9,242.4 146.7,242.4 146.4,242.4 146.2,242.4 145.9,242.4 145.6,242.4
145.4,242.4 145.1,242.4 144.8,242.4 144.6,242.4 144.3,242.4 144.0,242.4 143.8,242.4 143.5,242.4 143.2,242.4 143.0,242.4 142.7,242.4 142.5,242.4 142.2,242.4 141.9,242.4 141.7,242.4 141.4,242.4
141.1,242.4 140.9,242.4 140.6,242.4 140.3,242.4 140.1,242.4 139.8,242.4 139.5,242.4 139.3,242.4 139.0,242.4 138.8,242.4 138.5,242.4 138.2,242.4 138.0,242.4 137.7,242.4 137.4,242.4 137.2,242.4
136.9,242.4 136.6,242.4 136.4,242.4 136.1,242.4 135.9,242.4 135.6,242.4 135.3,242.4 135.1,242.4 134.8,242.4 134.5,242.4 134.3,242.4 134.0,242.4 133.7,242.4 133.5,242.4 133.2,242.4 132.9,242.4
132.7,242.4 132.4,242.4 132.2,242.4 131.9,242.4 131.6,242.4 131.4,242.4 131.1,242.4 130.8,242.4 130.6,242.4 130.3,242.4 130.0,242.4 129.8,242.4 129.5,242.4 129.3,242.4 129.0,242.4 128.7,242.4
128.5,242.4 128.2,242.4 127.9,242.4 127.7,242.4 127.4,242.4 127.1,242.4 126.9,242.4 126.6,242.4 126.3,242.4 126.1,242.4 125.8,242.4 125.6,242.4 125.3,242.4 125.0,242.4 124.8,242.4 124.5,242.4
124.2,242.4 124.0,242.4 123.7,242.4 123.4,242.4 123.2,242.4 122.9,242.4 122.6,242.4 122.4,242.4 122.1,242.4 121.9,242.4 121.6,242.4 121.3,242.4 121.1,242.4 120.8,242.4 120.5,242.4 120.3,242.4
120.0,242.4 119.7,242.4 119.5,242.4 119.2,242.4 119.0,242.4 118.7,242.4 118.4,242.4 118.2,242.4 117.9,242.4 117.6,242.4 117.4,242.4 117.1,242.4 116.8,242.4 116.6,242.4 116.3,242.4 116.0,242.4
115.8,242.4 115.5,242.4 115.3,242.4 115.0,242.4 114.7,242.4 114.5,242.4 114.2,242.4 113.9,242.4 113.7,242.4 113.4,242.4 113.1,242.4 112.9,242.4 112.6,242.4 112.3,242.4 112.1,242.4 111.8,242.4
111.6,242.4 111.3,242.4 111.0,242.4 110.8,242.4 110.5,242.4 110.2,242.4 110.0,242.4 109.7,242.4 109.4,242.4 109.2,242.4 108.9,242.4 108.7,242.4 108.4,242.4 108.1,242.4 107.9,242.4 107.6,242.4
107.3,242.4 107.1,242.4 106.8,242.4 106.5,242.4 106.3,242.4 106.0,242.4 105.7,242.4 105.5,242.4 105.2,242.4 105.0,242.4 104.7,242.4 104.4,242.4 104.2,242.4 103.9,242.4 103.6,242.4 103.4,242.4
103.1,242.4 102.8,242.4 102.6,242.4 102.3,242.4 102.0,242.4 101.8,242.4 101.5,242.4 101.3,242.4 '/>
	</g>
</g>
	</g>
	<g id="gnuplot_plot_4" ><title>New Mean</title>
<g fill="none" color="white" stroke="rgb( 31, 120, 180)" stroke-width="2.00" stroke-linecap="butt" stroke-linejoin="miter">
</g>
<g fill="none" color="black" stroke="currentColor" stroke-width="2.00" stroke-linecap="butt" stroke-linejoin="miter">
	<path stroke='rgb( 31, 120, 180)'  d='M128.2,242.4 L128.2,71.3  '/></g>
	</g>
<g fill="none" color="black" stroke="currentColor" stroke-width="2.00" stroke-linecap="butt" stroke-linejoin="miter">
</g>
<g fill="none" color="black" stroke="black" stroke-width="1.00" stroke-linecap="butt" stroke-linejoin="miter">
</g>
<g fill="none" color="black" stroke="currentColor" stroke-width="1.00" stroke-linecap="butt" stroke-linejoin="miter">
	<path stroke='black'  d='M55.3,18.1 L55.3,242.4 L425.0,242.4 L425.0,18.1 L55.3,18.1 Z  '/></g>
<g fill="none" color="black" stroke="currentColor" stroke-width="1.00" stroke-linecap="butt" stroke-linejoin="miter">
</g>
</g>
</svg>

