<?xml version="1.0" encoding="utf-8"  standalone="no"?>
<svg 
 viewBox="0 0 1280 720"
 xmlns="http://www.w3.org/2000/svg"
 xmlns:xlink="http://www.w3.org/1999/xlink"
>

<title>Gnuplot</title>
<desc>Produced by GNUPLOT 5.2 patchlevel 6 </desc>

<g id="gnuplot_canvas">

<rect x="0" y="0" width="1280" height="720" fill="none"/>
<defs>

	<circle id='gpDot' r='0.5' stroke-width='0.5' stroke='currentColor'/>
	<path id='gpPt0' stroke-width='0.222' stroke='currentColor' d='M-1,0 h2 M0,-1 v2'/>
	<path id='gpPt1' stroke-width='0.222' stroke='currentColor' d='M-1,-1 L1,1 M1,-1 L-1,1'/>
	<path id='gpPt2' stroke-width='0.222' stroke='currentColor' d='M-1,0 L1,0 M0,-1 L0,1 M-1,-1 L1,1 M-1,1 L1,-1'/>
	<rect id='gpPt3' stroke-width='0.222' stroke='currentColor' x='-1' y='-1' width='2' height='2'/>
	<rect id='gpPt4' stroke-width='0.222' stroke='currentColor' fill='currentColor' x='-1' y='-1' width='2' height='2'/>
	<circle id='gpPt5' stroke-width='0.222' stroke='currentColor' cx='0' cy='0' r='1'/>
	<use xlink:href='#gpPt5' id='gpPt6' fill='currentColor' stroke='none'/>
	<path id='gpPt7' stroke-width='0.222' stroke='currentColor' d='M0,-1.33 L-1.33,0.67 L1.33,0.67 z'/>
	<use xlink:href='#gpPt7' id='gpPt8' fill='currentColor' stroke='none'/>
	<use xlink:href='#gpPt7' id='gpPt9' stroke='currentColor' transform='rotate(180)'/>
	<use xlink:href='#gpPt9' id='gpPt10' fill='currentColor' stroke='none'/>
	<use xlink:href='#gpPt3' id='gpPt11' stroke='currentColor' transform='rotate(45)'/>
	<use xlink:href='#gpPt11' id='gpPt12' fill='currentColor' stroke='none'/>
	<path id='gpPt13' stroke-width='0.222' stroke='currentColor' d='M0,1.330 L1.265,0.411 L0.782,-1.067 L-0.782,-1.076 L-1.265,0.411 z'/>
	<use xlink:href='#gpPt13' id='gpPt14' fill='currentColor' stroke='none'/>
	<filter id='textbox' filterUnits='objectBoundingBox' x='0' y='0' height='1' width='1'>
	  <feFlood flood-color='white' flood-opacity='1' result='bgnd'/>
	  <feComposite in='SourceGraphic' in2='bgnd' operator='atop'/>
	</filter>
	<filter id='greybox' filterUnits='objectBoundingBox' x='0' y='0' height='1' width='1'>
	  <feFlood flood-color='lightgrey' flood-opacity='1' result='grey'/>
	  <feComposite in='SourceGraphic' in2='grey' operator='atop'/>
	</filter>
</defs>
<g fill="none" color="white" stroke="currentColor" stroke-width="1.00" stroke-linecap="butt" stroke-linejoin="miter">
</g>
<g fill="none" color="black" stroke="currentColor" stroke-width="1.00" stroke-linecap="butt" stroke-linejoin="miter">
	<path stroke='black'  d='M88.5,662.4 L97.5,662.4  '/>	<g transform="translate(80.2,666.3)" stroke="none" fill="black" font-family="Helvetica" font-size="12.00"  text-anchor="end">
		<text><tspan font-family="Helvetica" > 0</tspan></text>
	</g>
</g>
<g fill="none" color="black" stroke="currentColor" stroke-width="1.00" stroke-linecap="butt" stroke-linejoin="miter">
	<path stroke='black'  d='M88.5,561.0 L97.5,561.0  '/>	<g transform="translate(80.2,564.9)" stroke="none" fill="black" font-family="Helvetica" font-size="12.00"  text-anchor="end">
		<text><tspan font-family="Helvetica" > 0.002</tspan></text>
	</g>
</g>
<g fill="none" color="black" stroke="currentColor" stroke-width="1.00" stroke-linecap="butt" stroke-linejoin="miter">
	<path stroke='black'  d='M88.5,459.6 L97.5,459.6  '/>	<g transform="translate(80.2,463.5)" stroke="none" fill="black" font-family="Helvetica" font-size="12.00"  text-anchor="end">
		<text><tspan font-family="Helvetica" > 0.004</tspan></text>
	</g>
</g>
<g fill="none" color="black" stroke="currentColor" stroke-width="1.00" stroke-linecap="butt" stroke-linejoin="miter">
	<path stroke='black'  d='M88.5,358.2 L97.5,358.2  '/>	<g transform="translate(80.2,362.1)" stroke="none" fill="black" font-family="Helvetica" font-size="12.00"  text-anchor="end">
		<text><tspan font-family="Helvetica" > 0.006</tspan></text>
	</g>
</g>
<g fill="none" color="black" stroke="currentColor" stroke-width="1.00" stroke-linecap="butt" stroke-linejoin="miter">
	<path stroke='black'  d='M88.5,256.9 L97.5,256.9  '/>	<g transform="translate(80.2,260.8)" stroke="none" fill="black" font-family="Helvetica" font-size="12.00"  text-anchor="end">
		<text><tspan font-family="Helvetica" > 0.008</tspan></text>
	</g>
</g>
<g fill="none" color="black" stroke="currentColor" stroke-width="1.00" stroke-linecap="butt" stroke-linejoin="miter">
	<path stroke='black'  d='M88.5,155.5 L97.5,155.5  '/>	<g transform="translate(80.2,159.4)" stroke="none" fill="black" font-family="Helvetica" font-size="12.00"  text-anchor="end">
		<text><tspan font-family="Helvetica" > 0.01</tspan></text>
	</g>
</g>
<g fill="none" color="black" stroke="currentColor" stroke-width="1.00" stroke-linecap="butt" stroke-linejoin="miter">
	<path stroke='black'  d='M88.5,54.1 L97.5,54.1  '/>	<g transform="translate(80.2,58.0)" stroke="none" fill="black" font-family="Helvetica" font-size="12.00"  text-anchor="end">
		<text><tspan font-family="Helvetica" > 0.012</tspan></text>
	</g>
</g>
<g fill="none" color="black" stroke="currentColor" stroke-width="1.00" stroke-linecap="butt" stroke-linejoin="miter">
	<path stroke='black'  d='M135.6,662.4 L135.6,653.4  '/>	<g transform="translate(135.6,684.3)" stroke="none" fill="black" font-family="Helvetica" font-size="12.00"  text-anchor="middle">
		<text><tspan font-family="Helvetica" > 160</tspan></text>
	</g>
</g>
<g fill="none" color="black" stroke="currentColor" stroke-width="1.00" stroke-linecap="butt" stroke-linejoin="miter">
	<path stroke='black'  d='M242.4,662.4 L242.4,653.4  '/>	<g transform="translate(242.4,684.3)" stroke="none" fill="black" font-family="Helvetica" font-size="12.00"  text-anchor="middle">
		<text><tspan font-family="Helvetica" > 180</tspan></text>
	</g>
</g>
<g fill="none" color="black" stroke="currentColor" stroke-width="1.00" stroke-linecap="butt" stroke-linejoin="miter">
	<path stroke='black'  d='M349.2,662.4 L349.2,653.4  '/>	<g transform="translate(349.2,684.3)" stroke="none" fill="black" font-family="Helvetica" font-size="12.00"  text-anchor="middle">
		<text><tspan font-family="Helvetica" > 200</tspan></text>
	</g>
</g>
<g fill="none" color="black" stroke="currentColor" stroke-width="1.00" stroke-linecap="butt" stroke-linejoin="miter">
	<path stroke='black'  d='M456.0,662.4 L456.0,653.4  '/>	<g transform="translate(456.0,684.3)" stroke="none" fill="black" font-family="Helvetica" font-size="12.00"  text-anchor="middle">
		<text><tspan font-family="Helvetica" > 220</tspan></text>
	</g>
</g>
<g fill="none" color="black" stroke="currentColor" stroke-width="1.00" stroke-linecap="butt" stroke-linejoin="miter">
	<path stroke='black'  d='M562.8,662.4 L562.8,653.4  '/>	<g transform="translate(562.8,684.3)" stroke="none" fill="black" font-family="Helvetica" font-size="12.00"  text-anchor="middle">
		<text><tspan font-family="Helvetica" > 240</tspan></text>
	</g>
</g>
<g fill="none" color="black" stroke="currentColor" stroke-width="1.00" stroke-linecap="butt" stroke-linejoin="miter">
	<path stroke='black'  d='M669.6,662.4 L669.6,653.4  '/>	<g transform="translate(669.6,684.3)" stroke="none" fill="black" font-family="Helvetica" font-size="12.00"  text-anchor="middle">
		<text><tspan font-family="Helvetica" > 260</tspan></text>
	</g>
</g>
<g fill="none" color="black" stroke="currentColor" stroke-width="1.00" stroke-linecap="butt" stroke-linejoin="miter">
	<path stroke='black'  d='M776.4,662.4 L776.4,653.4  '/>	<g transform="translate(776.4,684.3)" stroke="none" fill="black" font-family="Helvetica" font-size="12.00"  text-anchor="middle">
		<text><tspan font-family="Helvetica" > 280</tspan></text>
	</g>
</g>
<g fill="none" color="black" stroke="currentColor" stroke-width="1.00" stroke-linecap="butt" stroke-linejoin="miter">
	<path stroke='black'  d='M883.2,662.4 L883.2,653.4  '/>	<g transform="translate(883.2,684.3)" stroke="none" fill="black" font-family="Helvetica" font-size="12.00"  text-anchor="middle">
		<text><tspan font-family="Helvetica" > 300</tspan></text>
	</g>
</g>
<g fill="none" color="black" stroke="currentColor" stroke-width="1.00" stroke-linecap="butt" stroke-linejoin="miter">
	<path stroke='black'  d='M990.0,662.4 L990.0,653.4  '/>	<g transform="translate(990.0,684.3)" stroke="none" fill="black" font-family="Helvetica" font-size="12.00"  text-anchor="middle">
		<text><tspan font-family="Helvetica" > 320</tspan></text>
	</g>
</g>
<g fill="none" color="black" stroke="currentColor" stroke-width="1.00" stroke-linecap="butt" stroke-linejoin="miter">
</g>
<g fill="none" color="black" stroke="currentColor" stroke-width="1.00" stroke-linecap="butt" stroke-linejoin="miter">
	<path stroke='black'  d='M88.5,54.1 L88.5,662.4 L1013.6,662.4 L1013.6,54.1 L88.5,54.1 Z  '/></g>
<g fill="none" color="black" stroke="currentColor" stroke-width="1.00" stroke-linecap="butt" stroke-linejoin="miter">
	<g transform="translate(16.3,358.3) rotate(270)" stroke="none" fill="black" font-family="Helvetica" font-size="12.00"  text-anchor="middle">
		<text><tspan font-family="Helvetica" >Density (a.u.)</tspan></text>
	</g>
</g>
<g fill="none" color="black" stroke="currentColor" stroke-width="1.00" stroke-linecap="butt" stroke-linejoin="miter">
	<g transform="translate(551.0,711.3)" stroke="none" fill="black" font-family="Helvetica" font-size="12.00"  text-anchor="middle">
		<text><tspan font-family="Helvetica" >Average time (ns)</tspan></text>
	</g>
</g>
<g fill="none" color="black" stroke="currentColor" stroke-width="1.00" stroke-linecap="butt" stroke-linejoin="miter">
	<g transform="translate(551.0,31.0)" stroke="none" fill="black" font-family="Helvetica" font-size="12.00"  text-anchor="middle">
		<text><tspan font-family="Helvetica" >snapshot_restore_with_dense/Dense: Entire region + /proc/pid/mem/215: MAD</tspan></text>
	</g>
</g>
	<g id="gnuplot_plot_1" ><title>Bootstrap distribution</title>
<g fill="none" color="white" stroke="black" stroke-width="2.00" stroke-linecap="butt" stroke-linejoin="miter">
</g>
<g fill="none" color="black" stroke="currentColor" stroke-width="2.00" stroke-linecap="butt" stroke-linejoin="miter">
	<g transform="translate(1089.0,67.0)" stroke="none" fill="black" font-family="Helvetica" font-size="12.00"  text-anchor="start">
		<text><tspan font-family="Helvetica" >Bootstrap distribution</tspan></text>
	</g>
</g>
<g fill="none" color="black" stroke="currentColor" stroke-width="2.00" stroke-linecap="butt" stroke-linejoin="miter">
	<path stroke='rgb( 31, 120, 180)'  d='M1038.5,63.1 L1080.7,63.1 M88.5,634.3 L90.4,632.8 L92.2,631.1 L94.1,629.4 L95.9,627.6 L97.8,625.8
		L99.6,623.9 L101.5,621.9 L103.3,619.9 L105.2,617.8 L107.0,615.7 L108.9,613.5 L110.7,611.3 L112.6,609.1
		L114.5,606.9 L116.3,604.7 L118.2,602.5 L120.0,600.3 L121.9,598.1 L123.7,595.9 L125.6,593.8 L127.4,591.7
		L129.3,589.5 L131.1,587.4 L133.0,585.3 L134.8,583.3 L136.7,581.2 L138.6,579.1 L140.4,576.9 L142.3,574.8
		L144.1,572.5 L146.0,570.2 L147.8,567.8 L149.7,565.3 L151.5,562.7 L153.4,559.9 L155.2,556.9 L157.1,553.8
		L158.9,550.5 L160.8,547.0 L162.7,543.3 L164.5,539.4 L166.4,535.2 L168.2,530.9 L170.1,526.3 L171.9,521.5
		L173.8,516.6 L175.6,511.4 L177.5,506.2 L179.3,500.7 L181.2,495.2 L183.0,489.6 L184.9,484.0 L186.8,478.4
		L188.6,472.7 L190.5,467.2 L192.3,461.7 L194.2,456.3 L196.0,451.0 L197.9,445.9 L199.7,441.0 L201.6,436.2
		L203.4,431.6 L205.3,427.2 L207.2,423.0 L209.0,418.9 L210.9,414.9 L212.7,411.1 L214.6,407.3 L216.4,403.6
		L218.3,399.8 L220.1,396.0 L222.0,392.1 L223.8,388.2 L225.7,384.0 L227.5,379.6 L229.4,375.1 L231.3,370.3
		L233.1,365.2 L235.0,359.9 L236.8,354.3 L238.7,348.5 L240.5,342.5 L242.4,336.3 L244.2,330.0 L246.1,323.5
		L247.9,317.0 L249.8,310.5 L251.6,304.1 L253.5,297.7 L255.4,291.6 L257.2,285.7 L259.1,280.0 L260.9,274.7
		L262.8,269.8 L264.6,265.3 L266.5,261.2 L268.3,257.5 L270.2,254.3 L272.0,251.5 L273.9,249.2 L275.7,247.3
		L277.6,245.8 L279.5,244.6 L281.3,243.9 L283.2,243.4 L285.0,243.2 L286.9,243.3 L288.7,243.5 L290.6,243.9
		L292.4,244.4 L294.3,245.0 L296.1,245.6 L298.0,246.1 L299.8,246.7 L301.7,247.2 L303.6,247.6 L305.4,247.9
		L307.3,248.2 L309.1,248.3 L311.0,248.2 L312.8,248.1 L314.7,247.8 L316.5,247.5 L318.4,247.0 L320.2,246.4
		L322.1,245.8 L323.9,245.1 L325.8,244.3 L327.7,243.4 L329.5,242.5 L331.4,241.6 L333.2,240.6 L335.1,239.5
		L336.9,238.3 L338.8,237.1 L340.6,235.7 L342.5,234.2 L344.3,232.6 L346.2,230.8 L348.0,228.8 L349.9,226.5
		L351.8,224.0 L353.6,221.3 L355.5,218.2 L357.3,214.8 L359.2,211.2 L361.0,207.2 L362.9,203.0 L364.7,198.5
		L366.6,193.8 L368.4,188.8 L370.3,183.8 L372.1,178.6 L374.0,173.5 L375.9,168.4 L377.7,163.4 L379.6,158.7
		L381.4,154.2 L383.3,150.1 L385.1,146.4 L387.0,143.3 L388.8,140.8 L390.7,138.9 L392.5,137.7 L394.4,137.2
		L396.2,137.5 L398.1,138.5 L400.0,140.3 L401.8,142.9 L403.7,146.2 L405.5,150.1 L407.4,154.8 L409.2,159.9
		L411.1,165.7 L412.9,171.9 L414.8,178.4 L416.6,185.3 L418.5,192.5 L420.3,199.8 L422.2,207.3 L424.1,214.8
		L425.9,222.2 L427.8,229.7 L429.6,237.0 L431.5,244.2 L433.3,251.2 L435.2,258.0 L437.0,264.5 L438.9,270.8
		L440.7,276.9 L442.6,282.7 L444.5,288.2 L446.3,293.4 L448.2,298.3 L450.0,302.9 L451.9,307.3 L453.7,311.3
		L455.6,315.1 L457.4,318.5 L459.3,321.7 L461.1,324.6 L463.0,327.2 L464.8,329.6 L466.7,331.6 L468.6,333.4
		L470.4,334.8 L472.3,336.0 L474.1,337.0 L476.0,337.6 L477.8,338.0 L479.7,338.1 L481.5,338.0 L483.4,337.6
		L485.2,337.0 L487.1,336.2 L488.9,335.2 L490.8,334.0 L492.7,332.7 L494.5,331.2 L496.4,329.7 L498.2,328.1
		L500.1,326.4 L501.9,324.7 L503.8,323.0 L505.6,321.4 L507.5,319.8 L509.3,318.4 L511.2,317.0 L513.0,315.8
		L514.9,314.7 L516.8,313.7 L518.6,313.0 L520.5,312.4 L522.3,311.9 L524.2,311.7 L526.0,311.6 L527.9,311.6
		L529.7,311.8 L531.6,312.2 L533.4,312.6 L535.3,313.1 L537.1,313.7 L539.0,314.3 L540.9,315.0 L542.7,315.6
		L544.6,316.3 L546.4,316.9 L548.3,317.5 L550.1,317.9 L552.0,318.3 L553.8,318.6 L555.7,318.8 L557.5,318.8
		L559.4,318.7 L561.2,318.4 L563.1,317.9 L565.0,317.3 L566.8,316.5 L568.7,315.4 L570.5,314.2 L572.4,312.8
		L574.2,311.1 L576.1,309.2 L577.9,307.1 L579.8,304.8 L581.6,302.3 L583.5,299.5 L585.3,296.5 L587.2,293.3
		L589.1,289.8 L590.9,286.2 L592.8,282.4 L594.6,278.4 L596.5,274.2 L598.3,269.8 L600.2,265.3 L602.0,260.7
		L603.9,256.0 L605.7,251.3 L607.6,246.4 L609.4,241.6 L611.3,236.8 L613.2,232.0 L615.0,227.3 L616.9,222.7
		L618.7,218.2 L620.6,213.9 L622.4,209.7 L624.3,205.8 L626.1,202.1 L628.0,198.6 L629.8,195.4 L631.7,192.5
		L633.5,189.9 L635.4,187.6 L637.3,185.5 L639.1,183.8 L641.0,182.4 L642.8,181.2 L644.7,180.3 L646.5,179.7
		L648.4,179.4 L650.2,179.3 L652.1,179.4 L653.9,179.7 L655.8,180.3 L657.6,181.0 L659.5,181.9 L661.4,183.0
		L663.2,184.3 L665.1,185.7 L666.9,187.3 L668.8,189.0 L670.6,190.9 L672.5,193.0 L674.3,195.2 L676.2,197.6
		L678.0,200.2 L679.9,202.9 L681.8,205.8 L683.6,208.9 L685.5,212.2 L687.3,215.6 L689.2,219.2 L691.0,223.0
		L692.9,227.0 L694.7,231.1 L696.6,235.3 L698.4,239.7 L700.3,244.1 L702.1,248.7 L704.0,253.3 L705.9,258.0
		L707.7,262.6 L709.6,267.3 L711.4,272.0 L713.3,276.5 L715.1,281.1 L717.0,285.5 L718.8,289.8 L720.7,294.0
		L722.5,298.1 L724.4,302.1 L726.2,305.9 L728.1,309.6 L730.0,313.2 L731.8,316.6 L733.7,320.0 L735.5,323.4
		L737.4,326.6 L739.2,329.8 L741.1,333.1 L742.9,336.3 L744.8,339.5 L746.6,342.8 L748.5,346.2 L750.3,349.6
		L752.2,353.1 L754.1,356.7 L755.9,360.4 L757.8,364.1 L759.6,367.9 L761.5,371.8 L763.3,375.6 L765.2,379.5
		L767.0,383.4 L768.9,387.2 L770.7,390.9 L772.6,394.6 L774.4,398.1 L776.3,401.5 L778.2,404.8 L780.0,408.0
		L781.9,411.0 L783.7,413.9 L785.6,416.6 L787.4,419.2 L789.3,421.7 L791.1,424.1 L793.0,426.5 L794.8,428.8
		L796.7,431.1 L798.5,433.4 L800.4,435.8 L802.3,438.2 L804.1,440.6 L806.0,443.1 L807.8,445.7 L809.7,448.4
		L811.5,451.1 L813.4,453.9 L815.2,456.8 L817.1,459.7 L818.9,462.5 L820.8,465.4 L822.6,468.3 L824.5,471.1
		L826.4,473.8 L828.2,476.4 L830.1,478.9 L831.9,481.3 L833.8,483.5 L835.6,485.6 L837.5,487.6 L839.3,489.5
		L841.2,491.2 L843.0,492.8 L844.9,494.3 L846.7,495.7 L848.6,497.0 L850.5,498.3 L852.3,499.6 L854.2,500.9
		L856.0,502.1 L857.9,503.4 L859.7,504.7 L861.6,506.1 L863.4,507.5 L865.3,508.9 L867.1,510.4 L869.0,512.0
		L870.8,513.6 L872.7,515.2 L874.6,516.8 L876.4,518.5 L878.3,520.1 L880.1,521.8 L882.0,523.4 L883.8,525.0
		L885.7,526.5 L887.5,528.1 L889.4,529.5 L891.2,531.0 L893.1,532.4 L894.9,533.7 L896.8,535.0 L898.7,536.3
		L900.5,537.6 L902.4,538.9 L904.2,540.2 L906.1,541.5 L907.9,542.8 L909.8,544.2 L911.6,545.6 L913.5,547.2
		L915.3,548.8 L917.2,550.4 L919.1,552.2 L920.9,554.1 L922.8,556.1 L924.6,558.2 L926.5,560.3 L928.3,562.6
		L930.2,565.0 L932.0,567.4 L933.9,569.9 L935.7,572.5 L937.6,575.1 L939.4,577.7 L941.3,580.4 L943.2,583.0
		L945.0,585.7 L946.9,588.3 L948.7,590.9 L950.6,593.5 L952.4,596.0 L954.3,598.4 L956.1,600.8 L958.0,603.0
		L959.8,605.2 L961.7,607.2 L963.5,609.2 L965.4,611.0 L967.3,612.8 L969.1,614.4 L971.0,616.0 L972.8,617.4
		L974.7,618.8 L976.5,620.1 L978.4,621.3 L980.2,622.4 L982.1,623.4 L983.9,624.4 L985.8,625.3 L987.6,626.2
		L989.5,627.0 L991.4,627.8 L993.2,628.6 L995.1,629.3 L996.9,630.0 L998.8,630.7 L1000.6,631.3 L1002.5,631.9
		L1004.3,632.6 L1006.2,633.2 L1008.0,633.7 L1009.9,634.3 L1011.7,634.9 L1013.6,635.4  '/></g>
	</g>
	<g id="gnuplot_plot_2" ><title>Confidence interval</title>
<g fill="none" color="white" stroke="rgb( 31, 120, 180)" stroke-width="1.00" stroke-linecap="butt" stroke-linejoin="miter">
</g>
<g fill="none" color="black" stroke="currentColor" stroke-width="1.00" stroke-linecap="butt" stroke-linejoin="miter">
	<g transform="translate(1089.0,85.0)" stroke="none" fill="black" font-family="Helvetica" font-size="12.00"  text-anchor="start">
		<text><tspan font-family="Helvetica" >Confidence interval</tspan></text>
	</g>
</g>
<g fill="none" color="black" stroke="currentColor" stroke-width="1.00" stroke-linecap="butt" stroke-linejoin="miter">
	<g stroke='none' shape-rendering='crispEdges'>
		<polygon fill = 'rgb( 31, 120, 180)' fill-opacity = '0.250000' points = '1038.5,85.6 1080.7,85.6 1080.7,76.6 1038.5,76.6 '/>
		<polygon fill = 'rgb( 31, 120, 180)' fill-opacity = '0.250000' points = '173.8,516.6 175.6,511.4 177.5,506.2 179.3,500.7 181.2,495.2 183.0,489.6 184.9,484.0 186.8,478.4 188.6,472.7 190.5,467.2 192.3,461.7 194.2,456.3 196.0,451.0 197.9,445.9 199.7,441.0 201.6,436.2
203.4,431.6 205.3,427.2 207.2,423.0 209.0,418.9 210.9,414.9 212.7,411.1 214.6,407.3 216.4,403.6 218.3,399.8 220.1,396.0 222.0,392.1 223.8,388.2 225.7,384.0 227.5,379.6 229.4,375.1 231.3,370.3
233.1,365.2 235.0,359.9 236.8,354.3 238.7,348.5 240.5,342.5 242.4,336.3 244.2,330.0 246.1,323.5 247.9,317.0 249.8,310.5 251.6,304.1 253.5,297.7 255.4,291.6 257.2,285.7 259.1,280.0 260.9,274.7
262.8,269.8 264.6,265.3 266.5,261.2 268.3,257.5 270.2,254.3 272.0,251.5 273.9,249.2 275.7,247.3 277.6,245.8 279.5,244.6 281.3,243.9 283.2,243.4 285.0,243.2 286.9,243.3 288.7,243.5 290.6,243.9
292.4,244.4 294.3,245.0 296.1,245.6 298.0,246.1 299.8,246.7 301.7,247.2 303.6,247.6 305.4,247.9 307.3,248.2 309.1,248.3 311.0,248.2 312.8,248.1 314.7,247.8 316.5,247.5 318.4,247.0 320.2,246.4
322.1,245.8 323.9,245.1 325.8,244.3 327.7,243.4 329.5,242.5 331.4,241.6 333.2,240.6 335.1,239.5 336.9,238.3 338.8,237.1 340.6,235.7 342.5,234.2 344.3,232.6 346.2,230.8 348.0,228.8 349.9,226.5
351.8,224.0 353.6,221.3 355.5,218.2 357.3,214.8 359.2,211.2 361.0,207.2 362.9,203.0 364.7,198.5 366.6,193.8 368.4,188.8 370.3,183.8 372.1,178.6 374.0,173.5 375.9,168.4 377.7,163.4 379.6,158.7
381.4,154.2 383.3,150.1 385.1,146.4 387.0,143.3 388.8,140.8 390.7,138.9 392.5,137.7 394.4,137.2 396.2,137.5 398.1,138.5 400.0,140.3 401.8,142.9 403.7,146.2 405.5,150.1 407.4,154.8 409.2,159.9
411.1,165.7 412.9,171.9 414.8,178.4 416.6,185.3 418.5,192.5 420.3,199.8 422.2,207.3 424.1,214.8 425.9,222.2 427.8,229.7 429.6,237.0 431.5,244.2 433.3,251.2 435.2,258.0 437.0,264.5 438.9,270.8
440.7,276.9 442.6,282.7 444.5,288.2 446.3,293.4 448.2,298.3 450.0,302.9 451.9,307.3 453.7,311.3 455.6,315.1 457.4,318.5 459.3,321.7 461.1,324.6 463.0,327.2 464.8,329.6 466.7,331.6 468.6,333.4
470.4,334.8 472.3,336.0 474.1,337.0 476.0,337.6 477.8,338.0 479.7,338.1 481.5,338.0 483.4,337.6 485.2,337.0 487.1,336.2 488.9,335.2 490.8,334.0 492.7,332.7 494.5,331.2 496.4,329.7 498.2,328.1
500.1,326.4 501.9,324.7 503.8,323.0 505.6,321.4 507.5,319.8 509.3,318.4 511.2,317.0 513.0,315.8 514.9,314.7 516.8,313.7 518.6,313.0 520.5,312.4 522.3,311.9 524.2,311.7 526.0,311.6 527.9,311.6
529.7,311.8 531.6,312.2 533.4,312.6 535.3,313.1 537.1,313.7 539.0,314.3 540.9,315.0 542.7,315.6 544.6,316.3 546.4,316.9 548.3,317.5 550.1,317.9 552.0,318.3 553.8,318.6 555.7,318.8 557.5,318.8
559.4,318.7 561.2,318.4 563.1,317.9 565.0,317.3 566.8,316.5 568.7,315.4 570.5,314.2 572.4,312.8 574.2,311.1 576.1,309.2 577.9,307.1 579.8,304.8 581.6,302.3 583.5,299.5 585.3,296.5 587.2,293.3
589.1,289.8 590.9,286.2 592.8,282.4 594.6,278.4 596.5,274.2 598.3,269.8 600.2,265.3 602.0,260.7 603.9,256.0 605.7,251.3 607.6,246.4 609.4,241.6 611.3,236.8 613.2,232.0 615.0,227.3 616.9,222.7
618.7,218.2 620.6,213.9 622.4,209.7 624.3,205.8 626.1,202.1 628.0,198.6 629.8,195.4 631.7,192.5 633.5,189.9 635.4,187.6 637.3,185.5 639.1,183.8 641.0,182.4 642.8,181.2 644.7,180.3 646.5,179.7
648.4,179.4 650.2,179.3 652.1,179.4 653.9,179.7 655.8,180.3 657.6,181.0 659.5,181.9 661.4,183.0 663.2,184.3 665.1,185.7 666.9,187.3 668.8,189.0 670.6,190.9 672.5,193.0 674.3,195.2 676.2,197.6
678.0,200.2 679.9,202.9 681.8,205.8 683.6,208.9 685.5,212.2 687.3,215.6 689.2,219.2 691.0,223.0 692.9,227.0 694.7,231.1 696.6,235.3 698.4,239.7 700.3,244.1 702.1,248.7 704.0,253.3 705.9,258.0
707.7,262.6 709.6,267.3 711.4,272.0 713.3,276.5 715.1,281.1 717.0,285.5 718.8,289.8 720.7,294.0 722.5,298.1 724.4,302.1 726.2,305.9 728.1,309.6 730.0,313.2 731.8,316.6 733.7,320.0 735.5,323.4
737.4,326.6 739.2,329.8 741.1,333.1 742.9,336.3 744.8,339.5 746.6,342.8 748.5,346.2 750.3,349.6 752.2,353.1 754.1,356.7 755.9,360.4 757.8,364.1 759.6,367.9 761.5,371.8 763.3,375.6 765.2,379.5
767.0,383.4 768.9,387.2 770.7,390.9 772.6,394.6 774.4,398.1 776.3,401.5 778.2,404.8 780.0,408.0 781.9,411.0 783.7,413.9 785.6,416.6 787.4,419.2 789.3,421.7 791.1,424.1 793.0,426.5 794.8,428.8
796.7,431.1 798.5,433.4 800.4,435.8 802.3,438.2 804.1,440.6 806.0,443.1 807.8,445.7 809.7,448.4 811.5,451.1 813.4,453.9 815.2,456.8 817.1,459.7 818.9,462.5 820.8,465.4 822.6,468.3 824.5,471.1
826.4,473.8 828.2,476.4 830.1,478.9 831.9,481.3 833.8,483.5 835.6,485.6 837.5,487.6 839.3,489.5 841.2,491.2 843.0,492.8 844.9,494.3 846.7,495.7 848.6,497.0 850.5,498.3 852.3,499.6 854.2,500.9
856.0,502.1 857.9,503.4 859.7,504.7 861.6,506.1 863.4,507.5 865.3,508.9 867.1,510.4 869.0,512.0 870.8,513.6 872.7,515.2 874.6,516.8 876.4,518.5 878.3,520.1 880.1,521.8 882.0,523.4 883.8,525.0
885.7,526.5 887.5,528.1 889.4,529.5 891.2,531.0 893.1,532.4 894.9,533.7 896.8,535.0 898.7,536.3 900.5,537.6 902.4,538.9 904.2,540.2 906.1,541.5 907.9,542.8 909.8,544.2 911.6,545.6 913.5,547.2
915.3,548.8 917.2,550.4 919.1,552.2 920.9,554.1 922.8,556.1 924.6,558.2 926.5,560.3 926.5,662.4 924.6,662.4 922.8,662.4 920.9,662.4 919.1,662.4 917.2,662.4 915.3,662.4 913.5,662.4 911.6,662.4
909.8,662.4 907.9,662.4 906.1,662.4 904.2,662.4 902.4,662.4 900.5,662.4 898.7,662.4 896.8,662.4 894.9,662.4 893.1,662.4 891.2,662.4 889.4,662.4 887.5,662.4 885.7,662.4 883.8,662.4 882.0,662.4
880.1,662.4 878.3,662.4 876.4,662.4 874.6,662.4 872.7,662.4 870.8,662.4 869.0,662.4 867.1,662.4 865.3,662.4 863.4,662.4 861.6,662.4 859.7,662.4 857.9,662.4 856.0,662.4 854.2,662.4 852.3,662.4
850.5,662.4 848.6,662.4 846.7,662.4 844.9,662.4 843.0,662.4 841.2,662.4 839.3,662.4 837.5,662.4 835.6,662.4 833.8,662.4 831.9,662.4 830.1,662.4 828.2,662.4 826.4,662.4 824.5,662.4 822.6,662.4
820.8,662.4 818.9,662.4 817.1,662.4 815.2,662.4 813.4,662.4 811.5,662.4 809.7,662.4 807.8,662.4 806.0,662.4 804.1,662.4 802.3,662.4 800.4,662.4 798.5,662.4 796.7,662.4 794.8,662.4 793.0,662.4
791.1,662.4 789.3,662.4 787.4,662.4 785.6,662.4 783.7,662.4 781.9,662.4 780.0,662.4 778.2,662.4 776.3,662.4 774.4,662.4 772.6,662.4 770.7,662.4 768.9,662.4 767.0,662.4 765.2,662.4 763.3,662.4
761.5,662.4 759.6,662.4 757.8,662.4 755.9,662.4 754.1,662.4 752.2,662.4 750.3,662.4 748.5,662.4 746.6,662.4 744.8,662.4 742.9,662.4 741.1,662.4 739.2,662.4 737.4,662.4 735.5,662.4 733.7,662.4
731.8,662.4 730.0,662.4 728.1,662.4 726.2,662.4 724.4,662.4 722.5,662.4 720.7,662.4 718.8,662.4 717.0,662.4 715.1,662.4 713.3,662.4 711.4,662.4 709.6,662.4 707.7,662.4 705.9,662.4 704.0,662.4
702.1,662.4 700.3,662.4 698.4,662.4 696.6,662.4 694.7,662.4 692.9,662.4 691.0,662.4 689.2,662.4 687.3,662.4 685.5,662.4 683.6,662.4 681.8,662.4 679.9,662.4 678.0,662.4 676.2,662.4 674.3,662.4
672.5,662.4 670.6,662.4 668.8,662.4 666.9,662.4 665.1,662.4 663.2,662.4 661.4,662.4 659.5,662.4 657.6,662.4 655.8,662.4 653.9,662.4 652.1,662.4 650.2,662.4 648.4,662.4 646.5,662.4 644.7,662.4
642.8,662.4 641.0,662.4 639.1,662.4 637.3,662.4 635.4,662.4 633.5,662.4 631.7,662.4 629.8,662.4 628.0,662.4 626.1,662.4 624.3,662.4 622.4,662.4 620.6,662.4 618.7,662.4 616.9,662.4 615.0,662.4
613.2,662.4 611.3,662.4 609.4,662.4 607.6,662.4 605.7,662.4 603.9,662.4 602.0,662.4 600.2,662.4 598.3,662.4 596.5,662.4 594.6,662.4 592.8,662.4 590.9,662.4 589.1,662.4 587.2,662.4 585.3,662.4
583.5,662.4 581.6,662.4 579.8,662.4 577.9,662.4 576.1,662.4 574.2,662.4 572.4,662.4 570.5,662.4 568.7,662.4 566.8,662.4 565.0,662.4 563.1,662.4 561.2,662.4 559.4,662.4 557.5,662.4 555.7,662.4
553.8,662.4 552.0,662.4 550.1,662.4 548.3,662.4 546.4,662.4 544.6,662.4 542.7,662.4 540.9,662.4 539.0,662.4 537.1,662.4 535.3,662.4 533.4,662.4 531.6,662.4 529.7,662.4 527.9,662.4 526.0,662.4
524.2,662.4 522.3,662.4 520.5,662.4 518.6,662.4 516.8,662.4 514.9,662.4 513.0,662.4 511.2,662.4 509.3,662.4 507.5,662.4 505.6,662.4 503.8,662.4 501.9,662.4 500.1,662.4 498.2,662.4 496.4,662.4
494.5,662.4 492.7,662.4 490.8,662.4 488.9,662.4 487.1,662.4 485.2,662.4 483.4,662.4 481.5,662.4 479.7,662.4 477.8,662.4 476.0,662.4 474.1,662.4 472.3,662.4 470.4,662.4 468.6,662.4 466.7,662.4
464.8,662.4 463.0,662.4 461.1,662.4 459.3,662.4 457.4,662.4 455.6,662.4 453.7,662.4 451.9,662.4 450.0,662.4 448.2,662.4 446.3,662.4 444.5,662.4 442.6,662.4 440.7,662.4 438.9,662.4 437.0,662.4
435.2,662.4 433.3,662.4 431.5,662.4 429.6,662.4 427.8,662.4 425.9,662.4 424.1,662.4 422.2,662.4 420.3,662.4 418.5,662.4 416.6,662.4 414.8,662.4 412.9,662.4 411.1,662.4 409.2,662.4 407.4,662.4
405.5,662.4 403.7,662.4 401.8,662.4 400.0,662.4 398.1,662.4 396.2,662.4 394.4,662.4 392.5,662.4 390.7,662.4 388.8,662.4 387.0,662.4 385.1,662.4 383.3,662.4 381.4,662.4 379.6,662.4 377.7,662.4
375.9,662.4 374.0,662.4 372.1,662.4 370.3,662.4 368.4,662.4 366.6,662.4 364.7,662.4 362.9,662.4 361.0,662.4 359.2,662.4 357.3,662.4 355.5,662.4 353.6,662.4 351.8,662.4 349.9,662.4 348.0,662.4
346.2,662.4 344.3,662.4 342.5,662.4 340.6,662.4 338.8,662.4 336.9,662.4 335.1,662.4 333.2,662.4 331.4,662.4 329.5,662.4 327.7,662.4 325.8,662.4 323.9,662.4 322.1,662.4 320.2,662.4 318.4,662.4
316.5,662.4 314.7,662.4 312.8,662.4 311.0,662.4 309.1,662.4 307.3,662.4 305.4,662.4 303.6,662.4 301.7,662.4 299.8,662.4 298.0,662.4 296.1,662.4 294.3,662.4 292.4,662.4 290.6,662.4 288.7,662.4
286.9,662.4 285.0,662.4 283.2,662.4 281.3,662.4 279.5,662.4 277.6,662.4 275.7,662.4 273.9,662.4 272.0,662.4 270.2,662.4 268.3,662.4 266.5,662.4 264.6,662.4 262.8,662.4 260.9,662.4 259.1,662.4
257.2,662.4 255.4,662.4 253.5,662.4 251.6,662.4 249.8,662.4 247.9,662.4 246.1,662.4 244.2,662.4 242.4,662.4 240.5,662.4 238.7,662.4 236.8,662.4 235.0,662.4 233.1,662.4 231.3,662.4 229.4,662.4
227.5,662.4 225.7,662.4 223.8,662.4 222.0,662.4 220.1,662.4 218.3,662.4 216.4,662.4 214.6,662.4 212.7,662.4 210.9,662.4 209.0,662.4 207.2,662.4 205.3,662.4 203.4,662.4 201.6,662.4 199.7,662.4
197.9,662.4 196.0,662.4 194.2,662.4 192.3,662.4 190.5,662.4 188.6,662.4 186.8,662.4 184.9,662.4 183.0,662.4 181.2,662.4 179.3,662.4 177.5,662.4 175.6,662.4 173.8,662.4 '/>
	</g>
</g>
	</g>
	<g id="gnuplot_plot_3" ><title>Point estimate</title>
<g fill="none" color="white" stroke="rgb( 31, 120, 180)" stroke-width="2.00" stroke-linecap="butt" stroke-linejoin="miter">
</g>
<g fill="none" color="black" stroke="currentColor" stroke-width="2.00" stroke-linecap="butt" stroke-linejoin="miter">
	<g transform="translate(1089.0,103.0)" stroke="none" fill="black" font-family="Helvetica" font-size="12.00"  text-anchor="start">
		<text><tspan font-family="Helvetica" >Point estimate</tspan></text>
	</g>
</g>
<g fill="none" color="black" stroke="currentColor" stroke-width="2.00" stroke-linecap="butt" stroke-linejoin="miter">
	<path stroke='rgb( 31, 120, 180)'  d='M1038.5,99.1 L1080.7,99.1 M593.4,662.4 L593.4,281.1  '/></g>
	</g>
<g fill="none" color="black" stroke="currentColor" stroke-width="2.00" stroke-linecap="butt" stroke-linejoin="miter">
</g>
<g fill="none" color="black" stroke="black" stroke-width="1.00" stroke-linecap="butt" stroke-linejoin="miter">
</g>
<g fill="none" color="black" stroke="currentColor" stroke-width="1.00" stroke-linecap="butt" stroke-linejoin="miter">
	<path stroke='black'  d='M88.5,54.1 L88.5,662.4 L1013.6,662.4 L1013.6,54.1 L88.5,54.1 Z  '/></g>
<g fill="none" color="black" stroke="currentColor" stroke-width="1.00" stroke-linecap="butt" stroke-linejoin="miter">
</g>
</g>
</svg>

