<?xml version="1.0" encoding="utf-8"  standalone="no"?>
<svg 
 viewBox="0 0 1280 720"
 xmlns="http://www.w3.org/2000/svg"
 xmlns:xlink="http://www.w3.org/1999/xlink"
>

<title>Gnuplot</title>
<desc>Produced by GNUPLOT 5.2 patchlevel 6 </desc>

<g id="gnuplot_canvas">

<rect x="0" y="0" width="1280" height="720" fill="none"/>
<defs>

	<circle id='gpDot' r='0.5' stroke-width='0.5' stroke='currentColor'/>
	<path id='gpPt0' stroke-width='0.222' stroke='currentColor' d='M-1,0 h2 M0,-1 v2'/>
	<path id='gpPt1' stroke-width='0.222' stroke='currentColor' d='M-1,-1 L1,1 M1,-1 L-1,1'/>
	<path id='gpPt2' stroke-width='0.222' stroke='currentColor' d='M-1,0 L1,0 M0,-1 L0,1 M-1,-1 L1,1 M-1,1 L1,-1'/>
	<rect id='gpPt3' stroke-width='0.222' stroke='currentColor' x='-1' y='-1' width='2' height='2'/>
	<rect id='gpPt4' stroke-width='0.222' stroke='currentColor' fill='currentColor' x='-1' y='-1' width='2' height='2'/>
	<circle id='gpPt5' stroke-width='0.222' stroke='currentColor' cx='0' cy='0' r='1'/>
	<use xlink:href='#gpPt5' id='gpPt6' fill='currentColor' stroke='none'/>
	<path id='gpPt7' stroke-width='0.222' stroke='currentColor' d='M0,-1.33 L-1.33,0.67 L1.33,0.67 z'/>
	<use xlink:href='#gpPt7' id='gpPt8' fill='currentColor' stroke='none'/>
	<use xlink:href='#gpPt7' id='gpPt9' stroke='currentColor' transform='rotate(180)'/>
	<use xlink:href='#gpPt9' id='gpPt10' fill='currentColor' stroke='none'/>
	<use xlink:href='#gpPt3' id='gpPt11' stroke='currentColor' transform='rotate(45)'/>
	<use xlink:href='#gpPt11' id='gpPt12' fill='currentColor' stroke='none'/>
	<path id='gpPt13' stroke-width='0.222' stroke='currentColor' d='M0,1.330 L1.265,0.411 L0.782,-1.067 L-0.782,-1.076 L-1.265,0.411 z'/>
	<use xlink:href='#gpPt13' id='gpPt14' fill='currentColor' stroke='none'/>
	<filter id='textbox' filterUnits='objectBoundingBox' x='0' y='0' height='1' width='1'>
	  <feFlood flood-color='white' flood-opacity='1' result='bgnd'/>
	  <feComposite in='SourceGraphic' in2='bgnd' operator='atop'/>
	</filter>
	<filter id='greybox' filterUnits='objectBoundingBox' x='0' y='0' height='1' width='1'>
	  <feFlood flood-color='lightgrey' flood-opacity='1' result='grey'/>
	  <feComposite in='SourceGraphic' in2='grey' operator='atop'/>
	</filter>
</defs>
<g fill="none" color="white" stroke="currentColor" stroke-width="1.00" stroke-linecap="butt" stroke-linejoin="miter">
</g>
<g fill="none" color="black" stroke="currentColor" stroke-width="1.00" stroke-linecap="butt" stroke-linejoin="miter">
	<path stroke='black'  d='M63.6,662.4 L72.6,662.4  '/>	<g transform="translate(55.3,666.3)" stroke="none" fill="black" font-family="Helvetica" font-size="12.00"  text-anchor="end">
		<text><tspan font-family="Helvetica" > 0</tspan></text>
	</g>
</g>
<g fill="none" color="black" stroke="currentColor" stroke-width="1.00" stroke-linecap="butt" stroke-linejoin="miter">
	<path stroke='black'  d='M63.6,540.7 L72.6,540.7  '/>	<g transform="translate(55.3,544.6)" stroke="none" fill="black" font-family="Helvetica" font-size="12.00"  text-anchor="end">
		<text><tspan font-family="Helvetica" > 5</tspan></text>
	</g>
</g>
<g fill="none" color="black" stroke="currentColor" stroke-width="1.00" stroke-linecap="butt" stroke-linejoin="miter">
	<path stroke='black'  d='M63.6,419.1 L72.6,419.1  '/>	<g transform="translate(55.3,423.0)" stroke="none" fill="black" font-family="Helvetica" font-size="12.00"  text-anchor="end">
		<text><tspan font-family="Helvetica" > 10</tspan></text>
	</g>
</g>
<g fill="none" color="black" stroke="currentColor" stroke-width="1.00" stroke-linecap="butt" stroke-linejoin="miter">
	<path stroke='black'  d='M63.6,297.4 L72.6,297.4  '/>	<g transform="translate(55.3,301.3)" stroke="none" fill="black" font-family="Helvetica" font-size="12.00"  text-anchor="end">
		<text><tspan font-family="Helvetica" > 15</tspan></text>
	</g>
</g>
<g fill="none" color="black" stroke="currentColor" stroke-width="1.00" stroke-linecap="butt" stroke-linejoin="miter">
	<path stroke='black'  d='M63.6,175.8 L72.6,175.8  '/>	<g transform="translate(55.3,179.7)" stroke="none" fill="black" font-family="Helvetica" font-size="12.00"  text-anchor="end">
		<text><tspan font-family="Helvetica" > 20</tspan></text>
	</g>
</g>
<g fill="none" color="black" stroke="currentColor" stroke-width="1.00" stroke-linecap="butt" stroke-linejoin="miter">
	<path stroke='black'  d='M63.6,54.1 L72.6,54.1  '/>	<g transform="translate(55.3,58.0)" stroke="none" fill="black" font-family="Helvetica" font-size="12.00"  text-anchor="end">
		<text><tspan font-family="Helvetica" > 25</tspan></text>
	</g>
</g>
<g fill="none" color="black" stroke="currentColor" stroke-width="1.00" stroke-linecap="butt" stroke-linejoin="miter">
	<path stroke='black'  d='M107.5,662.4 L107.5,653.4  '/>	<g transform="translate(107.5,684.3)" stroke="none" fill="black" font-family="Helvetica" font-size="12.00"  text-anchor="middle">
		<text><tspan font-family="Helvetica" > 170.34</tspan></text>
	</g>
</g>
<g fill="none" color="black" stroke="currentColor" stroke-width="1.00" stroke-linecap="butt" stroke-linejoin="miter">
	<path stroke='black'  d='M255.2,662.4 L255.2,653.4  '/>	<g transform="translate(255.2,684.3)" stroke="none" fill="black" font-family="Helvetica" font-size="12.00"  text-anchor="middle">
		<text><tspan font-family="Helvetica" > 170.36</tspan></text>
	</g>
</g>
<g fill="none" color="black" stroke="currentColor" stroke-width="1.00" stroke-linecap="butt" stroke-linejoin="miter">
	<path stroke='black'  d='M403.0,662.4 L403.0,653.4  '/>	<g transform="translate(403.0,684.3)" stroke="none" fill="black" font-family="Helvetica" font-size="12.00"  text-anchor="middle">
		<text><tspan font-family="Helvetica" > 170.38</tspan></text>
	</g>
</g>
<g fill="none" color="black" stroke="currentColor" stroke-width="1.00" stroke-linecap="butt" stroke-linejoin="miter">
	<path stroke='black'  d='M550.8,662.4 L550.8,653.4  '/>	<g transform="translate(550.8,684.3)" stroke="none" fill="black" font-family="Helvetica" font-size="12.00"  text-anchor="middle">
		<text><tspan font-family="Helvetica" > 170.4</tspan></text>
	</g>
</g>
<g fill="none" color="black" stroke="currentColor" stroke-width="1.00" stroke-linecap="butt" stroke-linejoin="miter">
	<path stroke='black'  d='M698.6,662.4 L698.6,653.4  '/>	<g transform="translate(698.6,684.3)" stroke="none" fill="black" font-family="Helvetica" font-size="12.00"  text-anchor="middle">
		<text><tspan font-family="Helvetica" > 170.42</tspan></text>
	</g>
</g>
<g fill="none" color="black" stroke="currentColor" stroke-width="1.00" stroke-linecap="butt" stroke-linejoin="miter">
	<path stroke='black'  d='M846.4,662.4 L846.4,653.4  '/>	<g transform="translate(846.4,684.3)" stroke="none" fill="black" font-family="Helvetica" font-size="12.00"  text-anchor="middle">
		<text><tspan font-family="Helvetica" > 170.44</tspan></text>
	</g>
</g>
<g fill="none" color="black" stroke="currentColor" stroke-width="1.00" stroke-linecap="butt" stroke-linejoin="miter">
	<path stroke='black'  d='M994.1,662.4 L994.1,653.4  '/>	<g transform="translate(994.1,684.3)" stroke="none" fill="black" font-family="Helvetica" font-size="12.00"  text-anchor="middle">
		<text><tspan font-family="Helvetica" > 170.46</tspan></text>
	</g>
</g>
<g fill="none" color="black" stroke="currentColor" stroke-width="1.00" stroke-linecap="butt" stroke-linejoin="miter">
</g>
<g fill="none" color="black" stroke="currentColor" stroke-width="1.00" stroke-linecap="butt" stroke-linejoin="miter">
	<path stroke='black'  d='M63.6,54.1 L63.6,662.4 L1013.6,662.4 L1013.6,54.1 L63.6,54.1 Z  '/></g>
<g fill="none" color="black" stroke="currentColor" stroke-width="1.00" stroke-linecap="butt" stroke-linejoin="miter">
	<g transform="translate(16.3,358.3) rotate(270)" stroke="none" fill="black" font-family="Helvetica" font-size="12.00"  text-anchor="middle">
		<text><tspan font-family="Helvetica" >Density (a.u.)</tspan></text>
	</g>
</g>
<g fill="none" color="black" stroke="currentColor" stroke-width="1.00" stroke-linecap="butt" stroke-linejoin="miter">
	<g transform="translate(538.6,711.3)" stroke="none" fill="black" font-family="Helvetica" font-size="12.00"  text-anchor="middle">
		<text><tspan font-family="Helvetica" >Average time (us)</tspan></text>
	</g>
</g>
<g fill="none" color="black" stroke="currentColor" stroke-width="1.00" stroke-linecap="butt" stroke-linejoin="miter">
	<g transform="translate(538.6,31.0)" stroke="none" fill="black" font-family="Helvetica" font-size="12.00"  text-anchor="middle">
		<text><tspan font-family="Helvetica" >snapshot_restore_with_dense/Dense: Entire region + /proc/pid/mem/215: median</tspan></text>
	</g>
</g>
	<g id="gnuplot_plot_1" ><title>Bootstrap distribution</title>
<g fill="none" color="white" stroke="black" stroke-width="2.00" stroke-linecap="butt" stroke-linejoin="miter">
</g>
<g fill="none" color="black" stroke="currentColor" stroke-width="2.00" stroke-linecap="butt" stroke-linejoin="miter">
	<g transform="translate(1089.0,67.0)" stroke="none" fill="black" font-family="Helvetica" font-size="12.00"  text-anchor="start">
		<text><tspan font-family="Helvetica" >Bootstrap distribution</tspan></text>
	</g>
</g>
<g fill="none" color="black" stroke="currentColor" stroke-width="2.00" stroke-linecap="butt" stroke-linejoin="miter">
	<path stroke='rgb( 31, 120, 180)'  d='M1038.5,63.1 L1080.7,63.1 M63.6,644.8 L65.5,644.6 L67.4,644.4 L69.3,644.1 L71.2,643.8 L73.1,643.5
		L75.0,643.2 L76.9,642.9 L78.8,642.5 L80.7,642.1 L82.6,641.6 L84.5,641.1 L86.4,640.6 L88.3,640.0
		L90.3,639.4 L92.2,638.7 L94.1,638.0 L96.0,637.2 L97.9,636.4 L99.8,635.5 L101.7,634.5 L103.6,633.5
		L105.5,632.4 L107.4,631.2 L109.3,629.9 L111.2,628.6 L113.1,627.2 L115.0,625.7 L116.9,624.2 L118.8,622.6
		L120.7,620.9 L122.6,619.2 L124.5,617.4 L126.4,615.6 L128.3,613.8 L130.2,611.9 L132.1,609.9 L134.0,608.0
		L135.9,606.0 L137.8,604.0 L139.8,602.0 L141.7,600.0 L143.6,597.9 L145.5,595.8 L147.4,593.7 L149.3,591.6
		L151.2,589.5 L153.1,587.3 L155.0,585.1 L156.9,582.8 L158.8,580.5 L160.7,578.2 L162.6,575.8 L164.5,573.4
		L166.4,570.9 L168.3,568.4 L170.2,565.9 L172.1,563.3 L174.0,560.7 L175.9,558.2 L177.8,555.6 L179.7,553.0
		L181.6,550.5 L183.5,547.9 L185.4,545.4 L187.3,543.0 L189.3,540.6 L191.2,538.2 L193.1,535.9 L195.0,533.7
		L196.9,531.4 L198.8,529.2 L200.7,527.0 L202.6,524.8 L204.5,522.5 L206.4,520.2 L208.3,517.7 L210.2,515.1
		L212.1,512.4 L214.0,509.4 L215.9,506.1 L217.8,502.6 L219.7,498.8 L221.6,494.5 L223.5,489.9 L225.4,484.9
		L227.3,479.5 L229.2,473.7 L231.1,467.4 L233.0,460.8 L234.9,453.8 L236.8,446.5 L238.8,438.9 L240.7,431.1
		L242.6,423.3 L244.5,415.4 L246.4,407.6 L248.3,400.0 L250.2,392.7 L252.1,385.9 L254.0,379.6 L255.9,374.0
		L257.8,369.2 L259.7,365.3 L261.6,362.4 L263.5,360.6 L265.4,359.8 L267.3,360.2 L269.2,361.7 L271.1,364.3
		L273.0,367.9 L274.9,372.6 L276.8,378.2 L278.7,384.6 L280.6,391.7 L282.5,399.4 L284.4,407.4 L286.3,415.6
		L288.2,423.9 L290.2,432.2 L292.1,440.2 L294.0,447.8 L295.9,455.0 L297.8,461.6 L299.7,467.5 L301.6,472.8
		L303.5,477.2 L305.4,481.0 L307.3,483.9 L309.2,486.2 L311.1,487.8 L313.0,488.8 L314.9,489.3 L316.8,489.4
		L318.7,489.1 L320.6,488.7 L322.5,488.0 L324.4,487.3 L326.3,486.6 L328.2,486.0 L330.1,485.4 L332.0,485.0
		L333.9,484.7 L335.8,484.5 L337.7,484.3 L339.7,484.2 L341.6,483.9 L343.5,483.5 L345.4,482.8 L347.3,481.8
		L349.2,480.2 L351.1,477.9 L353.0,475.0 L354.9,471.2 L356.8,466.5 L358.7,460.8 L360.6,454.0 L362.5,446.2
		L364.4,437.4 L366.3,427.5 L368.2,416.6 L370.1,405.0 L372.0,392.6 L373.9,379.6 L375.8,366.2 L377.7,352.7
		L379.6,339.1 L381.5,325.9 L383.4,313.1 L385.3,301.1 L387.2,290.1 L389.2,280.3 L391.1,271.9 L393.0,265.2
		L394.9,260.2 L396.8,257.0 L398.7,255.9 L400.6,256.8 L402.5,259.8 L404.4,264.8 L406.3,271.9 L408.2,280.8
		L410.1,291.5 L412.0,303.8 L413.9,317.5 L415.8,332.5 L417.7,348.5 L419.6,365.3 L421.5,382.7 L423.4,400.4
		L425.3,418.3 L427.2,436.0 L429.1,453.5 L431.0,470.5 L432.9,486.9 L434.8,502.5 L436.7,517.2 L438.7,531.0
		L440.6,543.7 L442.5,555.2 L444.4,565.6 L446.3,574.8 L448.2,582.8 L450.1,589.6 L452.0,595.2 L453.9,599.7
		L455.8,603.0 L457.7,605.2 L459.6,606.4 L461.5,606.5 L463.4,605.7 L465.3,604.0 L467.2,601.4 L469.1,597.9
		L471.0,593.8 L472.9,588.9 L474.8,583.4 L476.7,577.4 L478.6,570.9 L480.5,564.0 L482.4,556.7 L484.3,549.3
		L486.2,541.7 L488.1,534.1 L490.1,526.6 L492.0,519.2 L493.9,512.1 L495.8,505.4 L497.7,499.1 L499.6,493.3
		L501.5,488.1 L503.4,483.6 L505.3,479.9 L507.2,476.9 L509.1,474.7 L511.0,473.4 L512.9,472.9 L514.8,473.2
		L516.7,474.4 L518.6,476.4 L520.5,479.2 L522.4,482.6 L524.3,486.8 L526.2,491.6 L528.1,496.9 L530.0,502.6
		L531.9,508.8 L533.8,515.3 L535.7,522.0 L537.6,528.9 L539.6,535.8 L541.5,542.8 L543.4,549.6 L545.3,556.3
		L547.2,562.8 L549.1,568.9 L551.0,574.7 L552.9,580.1 L554.8,585.0 L556.7,589.3 L558.6,593.1 L560.5,596.2
		L562.4,598.7 L564.3,600.5 L566.2,601.6 L568.1,602.0 L570.0,601.6 L571.9,600.5 L573.8,598.6 L575.7,595.9
		L577.6,592.5 L579.5,588.4 L581.4,583.6 L583.3,578.0 L585.2,571.8 L587.1,565.0 L589.1,557.5 L591.0,549.4
		L592.9,540.8 L594.8,531.6 L596.7,521.9 L598.6,511.7 L600.5,501.1 L602.4,490.1 L604.3,478.6 L606.2,466.7
		L608.1,454.5 L610.0,441.8 L611.9,428.8 L613.8,415.5 L615.7,401.7 L617.6,387.7 L619.5,373.3 L621.4,358.6
		L623.3,343.5 L625.2,328.2 L627.1,312.6 L629.0,296.9 L630.9,280.9 L632.8,264.9 L634.7,248.8 L636.6,232.7
		L638.5,216.8 L640.5,201.0 L642.4,185.7 L644.3,170.7 L646.2,156.3 L648.1,142.6 L650.0,129.7 L651.9,117.7
		L653.8,106.7 L655.7,96.9 L657.6,88.4 L659.5,81.2 L661.4,75.4 L663.3,71.2 L665.2,68.4 L667.1,67.3
		L669.0,67.7 L670.9,69.7 L672.8,73.3 L674.7,78.4 L676.6,84.9 L678.5,92.8 L680.4,102.0 L682.3,112.4
		L684.2,123.8 L686.1,136.2 L688.0,149.4 L690.0,163.3 L691.9,177.7 L693.8,192.4 L695.7,207.5 L697.6,222.6
		L699.5,237.7 L701.4,252.7 L703.3,267.4 L705.2,281.8 L707.1,295.7 L709.0,309.0 L710.9,321.8 L712.8,334.0
		L714.7,345.4 L716.6,356.1 L718.5,366.1 L720.4,375.4 L722.3,383.9 L724.2,391.7 L726.1,398.7 L728.0,405.1
		L729.9,410.9 L731.8,416.0 L733.7,420.5 L735.6,424.4 L737.5,427.8 L739.5,430.7 L741.4,433.1 L743.3,435.0
		L745.2,436.6 L747.1,437.7 L749.0,438.5 L750.9,438.9 L752.8,439.1 L754.7,438.9 L756.6,438.6 L758.5,438.1
		L760.4,437.5 L762.3,436.9 L764.2,436.2 L766.1,435.6 L768.0,435.1 L769.9,434.8 L771.8,434.7 L773.7,434.8
		L775.6,435.3 L777.5,436.1 L779.4,437.3 L781.3,438.9 L783.2,440.9 L785.1,443.2 L787.0,446.0 L789.0,449.1
		L790.9,452.5 L792.8,456.2 L794.7,460.1 L796.6,464.1 L798.5,468.3 L800.4,472.5 L802.3,476.8 L804.2,481.0
		L806.1,485.1 L808.0,489.0 L809.9,492.8 L811.8,496.4 L813.7,499.7 L815.6,502.7 L817.5,505.5 L819.4,508.0
		L821.3,510.3 L823.2,512.2 L825.1,513.8 L827.0,515.1 L828.9,516.1 L830.8,516.8 L832.7,517.2 L834.6,517.3
		L836.5,517.1 L838.4,516.6 L840.4,515.9 L842.3,514.8 L844.2,513.4 L846.1,511.8 L848.0,509.9 L849.9,507.9
		L851.8,505.6 L853.7,503.2 L855.6,500.6 L857.5,498.0 L859.4,495.4 L861.3,492.9 L863.2,490.4 L865.1,488.0
		L867.0,485.9 L868.9,484.1 L870.8,482.5 L872.7,481.3 L874.6,480.5 L876.5,480.1 L878.4,480.2 L880.3,480.7
		L882.2,481.7 L884.1,483.2 L886.0,485.1 L887.9,487.5 L889.9,490.3 L891.8,493.4 L893.7,497.0 L895.6,500.8
		L897.5,504.9 L899.4,509.2 L901.3,513.7 L903.2,518.3 L905.1,523.0 L907.0,527.8 L908.9,532.6 L910.8,537.4
		L912.7,542.2 L914.6,546.9 L916.5,551.6 L918.4,556.2 L920.3,560.7 L922.2,565.2 L924.1,569.5 L926.0,573.7
		L927.9,577.8 L929.8,581.9 L931.7,585.8 L933.6,589.6 L935.5,593.4 L937.4,597.0 L939.4,600.6 L941.3,604.0
		L943.2,607.3 L945.1,610.5 L947.0,613.6 L948.9,616.6 L950.8,619.4 L952.7,622.1 L954.6,624.6 L956.5,626.9
		L958.4,629.1 L960.3,631.1 L962.2,633.0 L964.1,634.7 L966.0,636.2 L967.9,637.5 L969.8,638.7 L971.7,639.7
		L973.6,640.5 L975.5,641.3 L977.4,641.9 L979.3,642.4 L981.2,642.8 L983.1,643.1 L985.0,643.3 L986.9,643.5
		L988.9,643.7 L990.8,643.9 L992.7,644.0 L994.6,644.1 L996.5,644.3 L998.4,644.5 L1000.3,644.7 L1002.2,644.9
		L1004.1,645.2 L1006.0,645.4 L1007.9,645.8 L1009.8,646.1 L1011.7,646.5 L1013.6,646.9  '/></g>
	</g>
	<g id="gnuplot_plot_2" ><title>Confidence interval</title>
<g fill="none" color="white" stroke="rgb( 31, 120, 180)" stroke-width="1.00" stroke-linecap="butt" stroke-linejoin="miter">
</g>
<g fill="none" color="black" stroke="currentColor" stroke-width="1.00" stroke-linecap="butt" stroke-linejoin="miter">
	<g transform="translate(1089.0,85.0)" stroke="none" fill="black" font-family="Helvetica" font-size="12.00"  text-anchor="start">
		<text><tspan font-family="Helvetica" >Confidence interval</tspan></text>
	</g>
</g>
<g fill="none" color="black" stroke="currentColor" stroke-width="1.00" stroke-linecap="butt" stroke-linejoin="miter">
	<g stroke='none' shape-rendering='crispEdges'>
		<polygon fill = 'rgb( 31, 120, 180)' fill-opacity = '0.250000' points = '1038.5,85.6 1080.7,85.6 1080.7,76.6 1038.5,76.6 '/>
		<polygon fill = 'rgb( 31, 120, 180)' fill-opacity = '0.250000' points = '151.2,589.5 153.1,587.3 155.0,585.1 156.9,582.8 158.8,580.5 160.7,578.2 162.6,575.8 164.5,573.4 166.4,570.9 168.3,568.4 170.2,565.9 172.1,563.3 174.0,560.7 175.9,558.2 177.8,555.6 179.7,553.0
181.6,550.5 183.5,547.9 185.4,545.4 187.3,543.0 189.3,540.6 191.2,538.2 193.1,535.9 195.0,533.7 196.9,531.4 198.8,529.2 200.7,527.0 202.6,524.8 204.5,522.5 206.4,520.2 208.3,517.7 210.2,515.1
212.1,512.4 214.0,509.4 215.9,506.1 217.8,502.6 219.7,498.8 221.6,494.5 223.5,489.9 225.4,484.9 227.3,479.5 229.2,473.7 231.1,467.4 233.0,460.8 234.9,453.8 236.8,446.5 238.8,438.9 240.7,431.1
242.6,423.3 244.5,415.4 246.4,407.6 248.3,400.0 250.2,392.7 252.1,385.9 254.0,379.6 255.9,374.0 257.8,369.2 259.7,365.3 261.6,362.4 263.5,360.6 265.4,359.8 267.3,360.2 269.2,361.7 271.1,364.3
273.0,367.9 274.9,372.6 276.8,378.2 278.7,384.6 280.6,391.7 282.5,399.4 284.4,407.4 286.3,415.6 288.2,423.9 290.2,432.2 292.1,440.2 294.0,447.8 295.9,455.0 297.8,461.6 299.7,467.5 301.6,472.8
303.5,477.2 305.4,481.0 307.3,483.9 309.2,486.2 311.1,487.8 313.0,488.8 314.9,489.3 316.8,489.4 318.7,489.1 320.6,488.7 322.5,488.0 324.4,487.3 326.3,486.6 328.2,486.0 330.1,485.4 332.0,485.0
333.9,484.7 335.8,484.5 337.7,484.3 339.7,484.2 341.6,483.9 343.5,483.5 345.4,482.8 347.3,481.8 349.2,480.2 351.1,477.9 353.0,475.0 354.9,471.2 356.8,466.5 358.7,460.8 360.6,454.0 362.5,446.2
364.4,437.4 366.3,427.5 368.2,416.6 370.1,405.0 372.0,392.6 373.9,379.6 375.8,366.2 377.7,352.7 379.6,339.1 381.5,325.9 383.4,313.1 385.3,301.1 387.2,290.1 389.2,280.3 391.1,271.9 393.0,265.2
394.9,260.2 396.8,257.0 398.7,255.9 400.6,256.8 402.5,259.8 404.4,264.8 406.3,271.9 408.2,280.8 410.1,291.5 412.0,303.8 413.9,317.5 415.8,332.5 417.7,348.5 419.6,365.3 421.5,382.7 423.4,400.4
425.3,418.3 427.2,436.0 429.1,453.5 431.0,470.5 432.9,486.9 434.8,502.5 436.7,517.2 438.7,531.0 440.6,543.7 442.5,555.2 444.4,565.6 446.3,574.8 448.2,582.8 450.1,589.6 452.0,595.2 453.9,599.7
455.8,603.0 457.7,605.2 459.6,606.4 461.5,606.5 463.4,605.7 465.3,604.0 467.2,601.4 469.1,597.9 471.0,593.8 472.9,588.9 474.8,583.4 476.7,577.4 478.6,570.9 480.5,564.0 482.4,556.7 484.3,549.3
486.2,541.7 488.1,534.1 490.1,526.6 492.0,519.2 493.9,512.1 495.8,505.4 497.7,499.1 499.6,493.3 501.5,488.1 503.4,483.6 505.3,479.9 507.2,476.9 509.1,474.7 511.0,473.4 512.9,472.9 514.8,473.2
516.7,474.4 518.6,476.4 520.5,479.2 522.4,482.6 524.3,486.8 526.2,491.6 528.1,496.9 530.0,502.6 531.9,508.8 533.8,515.3 535.7,522.0 537.6,528.9 539.6,535.8 541.5,542.8 543.4,549.6 545.3,556.3
547.2,562.8 549.1,568.9 551.0,574.7 552.9,580.1 554.8,585.0 556.7,589.3 558.6,593.1 560.5,596.2 562.4,598.7 564.3,600.5 566.2,601.6 568.1,602.0 570.0,601.6 571.9,600.5 573.8,598.6 575.7,595.9
577.6,592.5 579.5,588.4 581.4,583.6 583.3,578.0 585.2,571.8 587.1,565.0 589.1,557.5 591.0,549.4 592.9,540.8 594.8,531.6 596.7,521.9 598.6,511.7 600.5,501.1 602.4,490.1 604.3,478.6 606.2,466.7
608.1,454.5 610.0,441.8 611.9,428.8 613.8,415.5 615.7,401.7 617.6,387.7 619.5,373.3 621.4,358.6 623.3,343.5 625.2,328.2 627.1,312.6 629.0,296.9 630.9,280.9 632.8,264.9 634.7,248.8 636.6,232.7
638.5,216.8 640.5,201.0 642.4,185.7 644.3,170.7 646.2,156.3 648.1,142.6 650.0,129.7 651.9,117.7 653.8,106.7 655.7,96.9 657.6,88.4 659.5,81.2 661.4,75.4 663.3,71.2 665.2,68.4 667.1,67.3
669.0,67.7 670.9,69.7 672.8,73.3 674.7,78.4 676.6,84.9 678.5,92.8 680.4,102.0 682.3,112.4 684.2,123.8 686.1,136.2 688.0,149.4 690.0,163.3 691.9,177.7 693.8,192.4 695.7,207.5 697.6,222.6
699.5,237.7 701.4,252.7 703.3,267.4 705.2,281.8 707.1,295.7 709.0,309.0 710.9,321.8 712.8,334.0 714.7,345.4 716.6,356.1 718.5,366.1 720.4,375.4 722.3,383.9 724.2,391.7 726.1,398.7 728.0,405.1
729.9,410.9 731.8,416.0 733.7,420.5 735.6,424.4 737.5,427.8 739.5,430.7 741.4,433.1 743.3,435.0 745.2,436.6 747.1,437.7 749.0,438.5 750.9,438.9 752.8,439.1 754.7,438.9 756.6,438.6 758.5,438.1
760.4,437.5 762.3,436.9 764.2,436.2 766.1,435.6 768.0,435.1 769.9,434.8 771.8,434.7 773.7,434.8 775.6,435.3 777.5,436.1 779.4,437.3 781.3,438.9 783.2,440.9 785.1,443.2 787.0,446.0 789.0,449.1
790.9,452.5 792.8,456.2 794.7,460.1 796.6,464.1 798.5,468.3 800.4,472.5 802.3,476.8 804.2,481.0 806.1,485.1 808.0,489.0 809.9,492.8 811.8,496.4 813.7,499.7 815.6,502.7 817.5,505.5 819.4,508.0
821.3,510.3 823.2,512.2 825.1,513.8 827.0,515.1 828.9,516.1 830.8,516.8 832.7,517.2 834.6,517.3 836.5,517.1 838.4,516.6 840.4,515.9 842.3,514.8 844.2,513.4 846.1,511.8 848.0,509.9 849.9,507.9
851.8,505.6 853.7,503.2 855.6,500.6 857.5,498.0 859.4,495.4 861.3,492.9 863.2,490.4 865.1,488.0 867.0,485.9 868.9,484.1 870.8,482.5 872.7,481.3 874.6,480.5 876.5,480.1 878.4,480.2 880.3,480.7
882.2,481.7 884.1,483.2 886.0,485.1 887.9,487.5 889.9,490.3 891.8,493.4 893.7,497.0 895.6,500.8 897.5,504.9 899.4,509.2 901.3,513.7 903.2,518.3 905.1,523.0 907.0,527.8 908.9,532.6 910.8,537.4
912.7,542.2 914.6,546.9 916.5,551.6 918.4,556.2 920.3,560.7 922.2,565.2 924.1,569.5 924.1,662.4 922.2,662.4 920.3,662.4 918.4,662.4 916.5,662.4 914.6,662.4 912.7,662.4 910.8,662.4 908.9,662.4
907.0,662.4 905.1,662.4 903.2,662.4 901.3,662.4 899.4,662.4 897.5,662.4 895.6,662.4 893.7,662.4 891.8,662.4 889.9,662.4 887.9,662.4 886.0,662.4 884.1,662.4 882.2,662.4 880.3,662.4 878.4,662.4
876.5,662.4 874.6,662.4 872.7,662.4 870.8,662.4 868.9,662.4 867.0,662.4 865.1,662.4 863.2,662.4 861.3,662.4 859.4,662.4 857.5,662.4 855.6,662.4 853.7,662.4 851.8,662.4 849.9,662.4 848.0,662.4
846.1,662.4 844.2,662.4 842.3,662.4 840.4,662.4 838.4,662.4 836.5,662.4 834.6,662.4 832.7,662.4 830.8,662.4 828.9,662.4 827.0,662.4 825.1,662.4 823.2,662.4 821.3,662.4 819.4,662.4 817.5,662.4
815.6,662.4 813.7,662.4 811.8,662.4 809.9,662.4 808.0,662.4 806.1,662.4 804.2,662.4 802.3,662.4 800.4,662.4 798.5,662.4 796.6,662.4 794.7,662.4 792.8,662.4 790.9,662.4 789.0,662.4 787.0,662.4
785.1,662.4 783.2,662.4 781.3,662.4 779.4,662.4 777.5,662.4 775.6,662.4 773.7,662.4 771.8,662.4 769.9,662.4 768.0,662.4 766.1,662.4 764.2,662.4 762.3,662.4 760.4,662.4 758.5,662.4 756.6,662.4
754.7,662.4 752.8,662.4 750.9,662.4 749.0,662.4 747.1,662.4 745.2,662.4 743.3,662.4 741.4,662.4 739.5,662.4 737.5,662.4 735.6,662.4 733.7,662.4 731.8,662.4 729.9,662.4 728.0,662.4 726.1,662.4
724.2,662.4 722.3,662.4 720.4,662.4 718.5,662.4 716.6,662.4 714.7,662.4 712.8,662.4 710.9,662.4 709.0,662.4 707.1,662.4 705.2,662.4 703.3,662.4 701.4,662.4 699.5,662.4 697.6,662.4 695.7,662.4
693.8,662.4 691.9,662.4 690.0,662.4 688.0,662.4 686.1,662.4 684.2,662.4 682.3,662.4 680.4,662.4 678.5,662.4 676.6,662.4 674.7,662.4 672.8,662.4 670.9,662.4 669.0,662.4 667.1,662.4 665.2,662.4
663.3,662.4 661.4,662.4 659.5,662.4 657.6,662.4 655.7,662.4 653.8,662.4 651.9,662.4 650.0,662.4 648.1,662.4 646.2,662.4 644.3,662.4 642.4,662.4 640.5,662.4 638.5,662.4 636.6,662.4 634.7,662.4
632.8,662.4 630.9,662.4 629.0,662.4 627.1,662.4 625.2,662.4 623.3,662.4 621.4,662.4 619.5,662.4 617.6,662.4 615.7,662.4 613.8,662.4 611.9,662.4 610.0,662.4 608.1,662.4 606.2,662.4 604.3,662.4
602.4,662.4 600.5,662.4 598.6,662.4 596.7,662.4 594.8,662.4 592.9,662.4 591.0,662.4 589.1,662.4 587.1,662.4 585.2,662.4 583.3,662.4 581.4,662.4 579.5,662.4 577.6,662.4 575.7,662.4 573.8,662.4
571.9,662.4 570.0,662.4 568.1,662.4 566.2,662.4 564.3,662.4 562.4,662.4 560.5,662.4 558.6,662.4 556.7,662.4 554.8,662.4 552.9,662.4 551.0,662.4 549.1,662.4 547.2,662.4 545.3,662.4 543.4,662.4
541.5,662.4 539.6,662.4 537.6,662.4 535.7,662.4 533.8,662.4 531.9,662.4 530.0,662.4 528.1,662.4 526.2,662.4 524.3,662.4 522.4,662.4 520.5,662.4 518.6,662.4 516.7,662.4 514.8,662.4 512.9,662.4
511.0,662.4 509.1,662.4 507.2,662.4 505.3,662.4 503.4,662.4 501.5,662.4 499.6,662.4 497.7,662.4 495.8,662.4 493.9,662.4 492.0,662.4 490.1,662.4 488.1,662.4 486.2,662.4 484.3,662.4 482.4,662.4
480.5,662.4 478.6,662.4 476.7,662.4 474.8,662.4 472.9,662.4 471.0,662.4 469.1,662.4 467.2,662.4 465.3,662.4 463.4,662.4 461.5,662.4 459.6,662.4 457.7,662.4 455.8,662.4 453.9,662.4 452.0,662.4
450.1,662.4 448.2,662.4 446.3,662.4 444.4,662.4 442.5,662.4 440.6,662.4 438.7,662.4 436.7,662.4 434.8,662.4 432.9,662.4 431.0,662.4 429.1,662.4 427.2,662.4 425.3,662.4 423.4,662.4 421.5,662.4
419.6,662.4 417.7,662.4 415.8,662.4 413.9,662.4 412.0,662.4 410.1,662.4 408.2,662.4 406.3,662.4 404.4,662.4 402.5,662.4 400.6,662.4 398.7,662.4 396.8,662.4 394.9,662.4 393.0,662.4 391.1,662.4
389.2,662.4 387.2,662.4 385.3,662.4 383.4,662.4 381.5,662.4 379.6,662.4 377.7,662.4 375.8,662.4 373.9,662.4 372.0,662.4 370.1,662.4 368.2,662.4 366.3,662.4 364.4,662.4 362.5,662.4 360.6,662.4
358.7,662.4 356.8,662.4 354.9,662.4 353.0,662.4 351.1,662.4 349.2,662.4 347.3,662.4 345.4,662.4 343.5,662.4 341.6,662.4 339.7,662.4 337.7,662.4 335.8,662.4 333.9,662.4 332.0,662.4 330.1,662.4
328.2,662.4 326.3,662.4 324.4,662.4 322.5,662.4 320.6,662.4 318.7,662.4 316.8,662.4 314.9,662.4 313.0,662.4 311.1,662.4 309.2,662.4 307.3,662.4 305.4,662.4 303.5,662.4 301.6,662.4 299.7,662.4
297.8,662.4 295.9,662.4 294.0,662.4 292.1,662.4 290.2,662.4 288.2,662.4 286.3,662.4 284.4,662.4 282.5,662.4 280.6,662.4 278.7,662.4 276.8,662.4 274.9,662.4 273.0,662.4 271.1,662.4 269.2,662.4
267.3,662.4 265.4,662.4 263.5,662.4 261.6,662.4 259.7,662.4 257.8,662.4 255.9,662.4 254.0,662.4 252.1,662.4 250.2,662.4 248.3,662.4 246.4,662.4 244.5,662.4 242.6,662.4 240.7,662.4 238.8,662.4
236.8,662.4 234.9,662.4 233.0,662.4 231.1,662.4 229.2,662.4 227.3,662.4 225.4,662.4 223.5,662.4 221.6,662.4 219.7,662.4 217.8,662.4 215.9,662.4 214.0,662.4 212.1,662.4 210.2,662.4 208.3,662.4
206.4,662.4 204.5,662.4 202.6,662.4 200.7,662.4 198.8,662.4 196.9,662.4 195.0,662.4 193.1,662.4 191.2,662.4 189.3,662.4 187.3,662.4 185.4,662.4 183.5,662.4 181.6,662.4 179.7,662.4 177.8,662.4
175.9,662.4 174.0,662.4 172.1,662.4 170.2,662.4 168.3,662.4 166.4,662.4 164.5,662.4 162.6,662.4 160.7,662.4 158.8,662.4 156.9,662.4 155.0,662.4 153.1,662.4 151.2,662.4 '/>
	</g>
</g>
	</g>
	<g id="gnuplot_plot_3" ><title>Point estimate</title>
<g fill="none" color="white" stroke="rgb( 31, 120, 180)" stroke-width="2.00" stroke-linecap="butt" stroke-linejoin="miter">
</g>
<g fill="none" color="black" stroke="currentColor" stroke-width="2.00" stroke-linecap="butt" stroke-linejoin="miter">
	<g transform="translate(1089.0,103.0)" stroke="none" fill="black" font-family="Helvetica" font-size="12.00"  text-anchor="start">
		<text><tspan font-family="Helvetica" >Point estimate</tspan></text>
	</g>
</g>
<g fill="none" color="black" stroke="currentColor" stroke-width="2.00" stroke-linecap="butt" stroke-linejoin="miter">
	<path stroke='rgb( 31, 120, 180)'  d='M1038.5,99.1 L1080.7,99.1 M630.7,662.4 L630.7,283.3  '/></g>
	</g>
<g fill="none" color="black" stroke="currentColor" stroke-width="2.00" stroke-linecap="butt" stroke-linejoin="miter">
</g>
<g fill="none" color="black" stroke="black" stroke-width="1.00" stroke-linecap="butt" stroke-linejoin="miter">
</g>
<g fill="none" color="black" stroke="currentColor" stroke-width="1.00" stroke-linecap="butt" stroke-linejoin="miter">
	<path stroke='black'  d='M63.6,54.1 L63.6,662.4 L1013.6,662.4 L1013.6,54.1 L63.6,54.1 Z  '/></g>
<g fill="none" color="black" stroke="currentColor" stroke-width="1.00" stroke-linecap="butt" stroke-linejoin="miter">
</g>
</g>
</svg>

