<?xml version="1.0" encoding="utf-8"  standalone="no"?>
<svg 
 viewBox="0 0 1280 720"
 xmlns="http://www.w3.org/2000/svg"
 xmlns:xlink="http://www.w3.org/1999/xlink"
>

<title>Gnuplot</title>
<desc>Produced by GNUPLOT 5.2 patchlevel 6 </desc>

<g id="gnuplot_canvas">

<rect x="0" y="0" width="1280" height="720" fill="none"/>
<defs>

	<circle id='gpDot' r='0.5' stroke-width='0.5' stroke='currentColor'/>
	<path id='gpPt0' stroke-width='0.222' stroke='currentColor' d='M-1,0 h2 M0,-1 v2'/>
	<path id='gpPt1' stroke-width='0.222' stroke='currentColor' d='M-1,-1 L1,1 M1,-1 L-1,1'/>
	<path id='gpPt2' stroke-width='0.222' stroke='currentColor' d='M-1,0 L1,0 M0,-1 L0,1 M-1,-1 L1,1 M-1,1 L1,-1'/>
	<rect id='gpPt3' stroke-width='0.222' stroke='currentColor' x='-1' y='-1' width='2' height='2'/>
	<rect id='gpPt4' stroke-width='0.222' stroke='currentColor' fill='currentColor' x='-1' y='-1' width='2' height='2'/>
	<circle id='gpPt5' stroke-width='0.222' stroke='currentColor' cx='0' cy='0' r='1'/>
	<use xlink:href='#gpPt5' id='gpPt6' fill='currentColor' stroke='none'/>
	<path id='gpPt7' stroke-width='0.222' stroke='currentColor' d='M0,-1.33 L-1.33,0.67 L1.33,0.67 z'/>
	<use xlink:href='#gpPt7' id='gpPt8' fill='currentColor' stroke='none'/>
	<use xlink:href='#gpPt7' id='gpPt9' stroke='currentColor' transform='rotate(180)'/>
	<use xlink:href='#gpPt9' id='gpPt10' fill='currentColor' stroke='none'/>
	<use xlink:href='#gpPt3' id='gpPt11' stroke='currentColor' transform='rotate(45)'/>
	<use xlink:href='#gpPt11' id='gpPt12' fill='currentColor' stroke='none'/>
	<path id='gpPt13' stroke-width='0.222' stroke='currentColor' d='M0,1.330 L1.265,0.411 L0.782,-1.067 L-0.782,-1.076 L-1.265,0.411 z'/>
	<use xlink:href='#gpPt13' id='gpPt14' fill='currentColor' stroke='none'/>
	<filter id='textbox' filterUnits='objectBoundingBox' x='0' y='0' height='1' width='1'>
	  <feFlood flood-color='white' flood-opacity='1' result='bgnd'/>
	  <feComposite in='SourceGraphic' in2='bgnd' operator='atop'/>
	</filter>
	<filter id='greybox' filterUnits='objectBoundingBox' x='0' y='0' height='1' width='1'>
	  <feFlood flood-color='lightgrey' flood-opacity='1' result='grey'/>
	  <feComposite in='SourceGraphic' in2='grey' operator='atop'/>
	</filter>
</defs>
<g fill="none" color="white" stroke="currentColor" stroke-width="1.00" stroke-linecap="butt" stroke-linejoin="miter">
</g>
<g fill="none" color="black" stroke="currentColor" stroke-width="1.00" stroke-linecap="butt" stroke-linejoin="miter">
	<path stroke='black'  d='M80.2,662.4 L89.2,662.4  '/>	<g transform="translate(71.9,666.3)" stroke="none" fill="black" font-family="Helvetica" font-size="12.00"  text-anchor="end">
		<text><tspan font-family="Helvetica" > 0</tspan></text>
	</g>
</g>
<g fill="none" color="black" stroke="currentColor" stroke-width="1.00" stroke-linecap="butt" stroke-linejoin="miter">
	<path stroke='black'  d='M80.2,561.0 L89.2,561.0  '/>	<g transform="translate(71.9,564.9)" stroke="none" fill="black" font-family="Helvetica" font-size="12.00"  text-anchor="end">
		<text><tspan font-family="Helvetica" > 0.05</tspan></text>
	</g>
</g>
<g fill="none" color="black" stroke="currentColor" stroke-width="1.00" stroke-linecap="butt" stroke-linejoin="miter">
	<path stroke='black'  d='M80.2,459.6 L89.2,459.6  '/>	<g transform="translate(71.9,463.5)" stroke="none" fill="black" font-family="Helvetica" font-size="12.00"  text-anchor="end">
		<text><tspan font-family="Helvetica" > 0.1</tspan></text>
	</g>
</g>
<g fill="none" color="black" stroke="currentColor" stroke-width="1.00" stroke-linecap="butt" stroke-linejoin="miter">
	<path stroke='black'  d='M80.2,358.2 L89.2,358.2  '/>	<g transform="translate(71.9,362.1)" stroke="none" fill="black" font-family="Helvetica" font-size="12.00"  text-anchor="end">
		<text><tspan font-family="Helvetica" > 0.15</tspan></text>
	</g>
</g>
<g fill="none" color="black" stroke="currentColor" stroke-width="1.00" stroke-linecap="butt" stroke-linejoin="miter">
	<path stroke='black'  d='M80.2,256.9 L89.2,256.9  '/>	<g transform="translate(71.9,260.8)" stroke="none" fill="black" font-family="Helvetica" font-size="12.00"  text-anchor="end">
		<text><tspan font-family="Helvetica" > 0.2</tspan></text>
	</g>
</g>
<g fill="none" color="black" stroke="currentColor" stroke-width="1.00" stroke-linecap="butt" stroke-linejoin="miter">
	<path stroke='black'  d='M80.2,155.5 L89.2,155.5  '/>	<g transform="translate(71.9,159.4)" stroke="none" fill="black" font-family="Helvetica" font-size="12.00"  text-anchor="end">
		<text><tspan font-family="Helvetica" > 0.25</tspan></text>
	</g>
</g>
<g fill="none" color="black" stroke="currentColor" stroke-width="1.00" stroke-linecap="butt" stroke-linejoin="miter">
	<path stroke='black'  d='M80.2,54.1 L89.2,54.1  '/>	<g transform="translate(71.9,58.0)" stroke="none" fill="black" font-family="Helvetica" font-size="12.00"  text-anchor="end">
		<text><tspan font-family="Helvetica" > 0.3</tspan></text>
	</g>
</g>
<g fill="none" color="black" stroke="currentColor" stroke-width="1.00" stroke-linecap="butt" stroke-linejoin="miter">
	<path stroke='black'  d='M211.0,662.4 L211.0,653.4  '/>	<g transform="translate(211.0,684.3)" stroke="none" fill="black" font-family="Helvetica" font-size="12.00"  text-anchor="middle">
		<text><tspan font-family="Helvetica" > 2</tspan></text>
	</g>
</g>
<g fill="none" color="black" stroke="currentColor" stroke-width="1.00" stroke-linecap="butt" stroke-linejoin="miter">
	<path stroke='black'  d='M344.3,662.4 L344.3,653.4  '/>	<g transform="translate(344.3,684.3)" stroke="none" fill="black" font-family="Helvetica" font-size="12.00"  text-anchor="middle">
		<text><tspan font-family="Helvetica" > 3</tspan></text>
	</g>
</g>
<g fill="none" color="black" stroke="currentColor" stroke-width="1.00" stroke-linecap="butt" stroke-linejoin="miter">
	<path stroke='black'  d='M477.5,662.4 L477.5,653.4  '/>	<g transform="translate(477.5,684.3)" stroke="none" fill="black" font-family="Helvetica" font-size="12.00"  text-anchor="middle">
		<text><tspan font-family="Helvetica" > 4</tspan></text>
	</g>
</g>
<g fill="none" color="black" stroke="currentColor" stroke-width="1.00" stroke-linecap="butt" stroke-linejoin="miter">
	<path stroke='black'  d='M610.8,662.4 L610.8,653.4  '/>	<g transform="translate(610.8,684.3)" stroke="none" fill="black" font-family="Helvetica" font-size="12.00"  text-anchor="middle">
		<text><tspan font-family="Helvetica" > 5</tspan></text>
	</g>
</g>
<g fill="none" color="black" stroke="currentColor" stroke-width="1.00" stroke-linecap="butt" stroke-linejoin="miter">
	<path stroke='black'  d='M744.1,662.4 L744.1,653.4  '/>	<g transform="translate(744.1,684.3)" stroke="none" fill="black" font-family="Helvetica" font-size="12.00"  text-anchor="middle">
		<text><tspan font-family="Helvetica" > 6</tspan></text>
	</g>
</g>
<g fill="none" color="black" stroke="currentColor" stroke-width="1.00" stroke-linecap="butt" stroke-linejoin="miter">
	<path stroke='black'  d='M877.3,662.4 L877.3,653.4  '/>	<g transform="translate(877.3,684.3)" stroke="none" fill="black" font-family="Helvetica" font-size="12.00"  text-anchor="middle">
		<text><tspan font-family="Helvetica" > 7</tspan></text>
	</g>
</g>
<g fill="none" color="black" stroke="currentColor" stroke-width="1.00" stroke-linecap="butt" stroke-linejoin="miter">
	<path stroke='black'  d='M1010.6,662.4 L1010.6,653.4  '/>	<g transform="translate(1010.6,684.3)" stroke="none" fill="black" font-family="Helvetica" font-size="12.00"  text-anchor="middle">
		<text><tspan font-family="Helvetica" > 8</tspan></text>
	</g>
</g>
<g fill="none" color="black" stroke="currentColor" stroke-width="1.00" stroke-linecap="butt" stroke-linejoin="miter">
</g>
<g fill="none" color="black" stroke="currentColor" stroke-width="1.00" stroke-linecap="butt" stroke-linejoin="miter">
	<path stroke='black'  d='M80.2,54.1 L80.2,662.4 L1013.6,662.4 L1013.6,54.1 L80.2,54.1 Z  '/></g>
<g fill="none" color="black" stroke="currentColor" stroke-width="1.00" stroke-linecap="butt" stroke-linejoin="miter">
	<g transform="translate(16.3,358.3) rotate(270)" stroke="none" fill="black" font-family="Helvetica" font-size="12.00"  text-anchor="middle">
		<text><tspan font-family="Helvetica" >Density (a.u.)</tspan></text>
	</g>
</g>
<g fill="none" color="black" stroke="currentColor" stroke-width="1.00" stroke-linecap="butt" stroke-linejoin="miter">
	<g transform="translate(546.9,711.3)" stroke="none" fill="black" font-family="Helvetica" font-size="12.00"  text-anchor="middle">
		<text><tspan font-family="Helvetica" >Average time (us)</tspan></text>
	</g>
</g>
<g fill="none" color="black" stroke="currentColor" stroke-width="1.00" stroke-linecap="butt" stroke-linejoin="miter">
	<g transform="translate(546.9,31.0)" stroke="none" fill="black" font-family="Helvetica" font-size="12.00"  text-anchor="middle">
		<text><tspan font-family="Helvetica" >snapshot_restore_with_dense/Dense: Entire region + /proc/pid/mem/215: SD</tspan></text>
	</g>
</g>
	<g id="gnuplot_plot_1" ><title>Bootstrap distribution</title>
<g fill="none" color="white" stroke="black" stroke-width="2.00" stroke-linecap="butt" stroke-linejoin="miter">
</g>
<g fill="none" color="black" stroke="currentColor" stroke-width="2.00" stroke-linecap="butt" stroke-linejoin="miter">
	<g transform="translate(1089.0,67.0)" stroke="none" fill="black" font-family="Helvetica" font-size="12.00"  text-anchor="start">
		<text><tspan font-family="Helvetica" >Bootstrap distribution</tspan></text>
	</g>
</g>
<g fill="none" color="black" stroke="currentColor" stroke-width="2.00" stroke-linecap="butt" stroke-linejoin="miter">
	<path stroke='rgb( 31, 120, 180)'  d='M1038.5,63.1 L1080.7,63.1 M80.2,629.1 L82.1,627.8 L83.9,626.5 L85.8,625.1 L87.7,623.7 L89.6,622.3
		L91.4,620.8 L93.3,619.4 L95.2,617.9 L97.0,616.4 L98.9,615.0 L100.8,613.5 L102.6,612.0 L104.5,610.6
		L106.4,609.1 L108.3,607.7 L110.1,606.3 L112.0,604.9 L113.9,603.5 L115.7,602.2 L117.6,600.8 L119.5,599.5
		L121.4,598.2 L123.2,596.9 L125.1,595.6 L127.0,594.3 L128.8,593.1 L130.7,591.9 L132.6,590.7 L134.4,589.5
		L136.3,588.3 L138.2,587.2 L140.1,586.1 L141.9,585.1 L143.8,584.1 L145.7,583.2 L147.5,582.3 L149.4,581.4
		L151.3,580.7 L153.2,580.0 L155.0,579.3 L156.9,578.8 L158.8,578.3 L160.6,577.9 L162.5,577.5 L164.4,577.3
		L166.2,577.1 L168.1,577.1 L170.0,577.1 L171.9,577.2 L173.7,577.4 L175.6,577.6 L177.5,578.0 L179.3,578.4
		L181.2,579.0 L183.1,579.6 L185.0,580.3 L186.8,581.1 L188.7,581.9 L190.6,582.9 L192.4,583.9 L194.3,584.9
		L196.2,586.0 L198.0,587.2 L199.9,588.4 L201.8,589.6 L203.7,590.8 L205.5,592.0 L207.4,593.2 L209.3,594.3
		L211.1,595.5 L213.0,596.5 L214.9,597.4 L216.7,598.3 L218.6,599.0 L220.5,599.6 L222.4,599.9 L224.2,600.1
		L226.1,600.1 L228.0,599.8 L229.8,599.2 L231.7,598.3 L233.6,597.1 L235.5,595.5 L237.3,593.6 L239.2,591.3
		L241.1,588.6 L242.9,585.5 L244.8,582.0 L246.7,578.0 L248.5,573.7 L250.4,568.9 L252.3,563.7 L254.2,558.1
		L256.0,552.1 L257.9,545.7 L259.8,539.0 L261.6,532.0 L263.5,524.7 L265.4,517.1 L267.3,509.3 L269.1,501.3
		L271.0,493.2 L272.9,485.0 L274.7,476.7 L276.6,468.5 L278.5,460.3 L280.3,452.2 L282.2,444.3 L284.1,436.5
		L286.0,429.1 L287.8,421.9 L289.7,415.2 L291.6,408.8 L293.4,402.9 L295.3,397.5 L297.2,392.6 L299.1,388.3
		L300.9,384.5 L302.8,381.4 L304.7,378.9 L306.5,377.1 L308.4,375.9 L310.3,375.4 L312.1,375.6 L314.0,376.4
		L315.9,377.8 L317.8,379.9 L319.6,382.6 L321.5,385.8 L323.4,389.5 L325.2,393.7 L327.1,398.4 L329.0,403.4
		L330.9,408.7 L332.7,414.3 L334.6,420.1 L336.5,426.0 L338.3,431.9 L340.2,437.7 L342.1,443.5 L343.9,449.0
		L345.8,454.2 L347.7,459.0 L349.6,463.4 L351.4,467.3 L353.3,470.5 L355.2,473.1 L357.0,474.9 L358.9,476.0
		L360.8,476.2 L362.7,475.5 L364.5,474.0 L366.4,471.6 L368.3,468.2 L370.1,464.0 L372.0,458.9 L373.9,452.9
		L375.7,446.2 L377.6,438.7 L379.5,430.5 L381.4,421.8 L383.2,412.5 L385.1,402.8 L387.0,392.7 L388.8,382.4
		L390.7,371.9 L392.6,361.4 L394.5,350.9 L396.3,340.5 L398.2,330.4 L400.1,320.5 L401.9,311.1 L403.8,302.0
		L405.7,293.5 L407.5,285.6 L409.4,278.2 L411.3,271.5 L413.2,265.4 L415.0,260.1 L416.9,255.4 L418.8,251.4
		L420.6,248.1 L422.5,245.4 L424.4,243.4 L426.3,242.0 L428.1,241.1 L430.0,240.8 L431.9,240.9 L433.7,241.3
		L435.6,242.2 L437.5,243.3 L439.3,244.6 L441.2,246.0 L443.1,247.5 L445.0,249.1 L446.8,250.5 L448.7,251.9
		L450.6,253.2 L452.4,254.2 L454.3,255.0 L456.2,255.5 L458.0,255.8 L459.9,255.7 L461.8,255.2 L463.7,254.4
		L465.5,253.3 L467.4,251.8 L469.3,250.0 L471.1,247.8 L473.0,245.3 L474.9,242.5 L476.8,239.3 L478.6,235.9
		L480.5,232.1 L482.4,228.0 L484.2,223.7 L486.1,219.0 L488.0,214.0 L489.8,208.8 L491.7,203.2 L493.6,197.4
		L495.5,191.3 L497.3,184.9 L499.2,178.2 L501.1,171.4 L502.9,164.3 L504.8,157.1 L506.7,149.8 L508.6,142.4
		L510.4,135.1 L512.3,127.8 L514.2,120.7 L516.0,113.9 L517.9,107.4 L519.8,101.3 L521.6,95.6 L523.5,90.6
		L525.4,86.2 L527.3,82.5 L529.1,79.7 L531.0,77.6 L532.9,76.4 L534.7,76.0 L536.6,76.5 L538.5,77.9
		L540.4,80.1 L542.2,83.1 L544.1,86.7 L546.0,91.0 L547.8,95.8 L549.7,101.0 L551.6,106.4 L553.4,112.0
		L555.3,117.6 L557.2,123.1 L559.1,128.3 L560.9,133.1 L562.8,137.3 L564.7,140.9 L566.5,143.6 L568.4,145.6
		L570.3,146.6 L572.2,146.7 L574.0,145.8 L575.9,144.0 L577.8,141.3 L579.6,137.7 L581.5,133.4 L583.4,128.5
		L585.2,123.0 L587.1,117.2 L589.0,111.1 L590.9,105.0 L592.7,99.0 L594.6,93.3 L596.5,88.0 L598.3,83.3
		L600.2,79.2 L602.1,75.9 L604.0,73.5 L605.8,72.0 L607.7,71.4 L609.6,71.7 L611.4,72.9 L613.3,74.9
		L615.2,77.7 L617.0,81.2 L618.9,85.2 L620.8,89.7 L622.7,94.4 L624.5,99.4 L626.4,104.3 L628.3,109.2
		L630.1,113.9 L632.0,118.3 L633.9,122.3 L635.8,125.8 L637.6,128.8 L639.5,131.2 L641.4,133.1 L643.2,134.5
		L645.1,135.3 L647.0,135.6 L648.8,135.4 L650.7,134.9 L652.6,134.1 L654.5,133.0 L656.3,131.8 L658.2,130.5
		L660.1,129.1 L661.9,127.8 L663.8,126.6 L665.7,125.6 L667.5,124.8 L669.4,124.2 L671.3,123.9 L673.2,123.9
		L675.0,124.3 L676.9,124.9 L678.8,126.0 L680.6,127.3 L682.5,129.0 L684.4,131.1 L686.3,133.4 L688.1,136.2
		L690.0,139.3 L691.9,142.6 L693.7,146.3 L695.6,150.3 L697.5,154.6 L699.3,159.1 L701.2,163.9 L703.1,168.8
		L705.0,173.8 L706.8,178.9 L708.7,184.1 L710.6,189.2 L712.4,194.2 L714.3,199.2 L716.2,203.9 L718.1,208.4
		L719.9,212.7 L721.8,216.6 L723.7,220.2 L725.5,223.5 L727.4,226.5 L729.3,229.2 L731.1,231.7 L733.0,233.9
		L734.9,236.0 L736.8,237.9 L738.6,239.9 L740.5,241.8 L742.4,243.9 L744.2,246.1 L746.1,248.5 L748.0,251.2
		L749.9,254.2 L751.7,257.5 L753.6,261.1 L755.5,265.1 L757.3,269.3 L759.2,273.8 L761.1,278.5 L762.9,283.3
		L764.8,288.2 L766.7,293.2 L768.6,298.1 L770.4,302.9 L772.3,307.5 L774.2,312.0 L776.0,316.2 L777.9,320.1
		L779.8,323.8 L781.7,327.2 L783.5,330.3 L785.4,333.1 L787.3,335.7 L789.1,338.2 L791.0,340.5 L792.9,342.7
		L794.7,344.9 L796.6,347.0 L798.5,349.2 L800.4,351.5 L802.2,353.9 L804.1,356.4 L806.0,359.0 L807.8,361.8
		L809.7,364.8 L811.6,368.0 L813.5,371.3 L815.3,374.8 L817.2,378.4 L819.1,382.2 L820.9,386.0 L822.8,390.0
		L824.7,394.1 L826.5,398.2 L828.4,402.3 L830.3,406.5 L832.2,410.7 L834.0,414.8 L835.9,419.0 L837.8,423.1
		L839.6,427.1 L841.5,431.1 L843.4,435.0 L845.3,438.8 L847.1,442.5 L849.0,446.1 L850.9,449.6 L852.7,453.0
		L854.6,456.3 L856.5,459.5 L858.3,462.7 L860.2,465.8 L862.1,468.8 L864.0,471.8 L865.8,474.7 L867.7,477.7
		L869.6,480.6 L871.4,483.5 L873.3,486.4 L875.2,489.4 L877.1,492.3 L878.9,495.2 L880.8,498.2 L882.7,501.1
		L884.5,504.0 L886.4,506.8 L888.3,509.6 L890.1,512.4 L892.0,515.1 L893.9,517.7 L895.8,520.3 L897.6,522.9
		L899.5,525.3 L901.4,527.8 L903.2,530.1 L905.1,532.5 L907.0,534.8 L908.8,537.1 L910.7,539.3 L912.6,541.6
		L914.5,543.8 L916.3,546.1 L918.2,548.3 L920.1,550.6 L921.9,552.8 L923.8,555.1 L925.7,557.3 L927.6,559.6
		L929.4,561.8 L931.3,564.1 L933.2,566.3 L935.0,568.5 L936.9,570.6 L938.8,572.8 L940.6,574.9 L942.5,577.0
		L944.4,579.0 L946.3,581.1 L948.1,583.1 L950.0,585.0 L951.9,586.9 L953.7,588.8 L955.6,590.6 L957.5,592.4
		L959.4,594.2 L961.2,595.9 L963.1,597.6 L965.0,599.2 L966.8,600.8 L968.7,602.3 L970.6,603.8 L972.4,605.3
		L974.3,606.7 L976.2,608.1 L978.1,609.4 L979.9,610.7 L981.8,612.0 L983.7,613.2 L985.5,614.4 L987.4,615.6
		L989.3,616.7 L991.2,617.8 L993.0,618.9 L994.9,620.0 L996.8,621.0 L998.6,622.0 L1000.5,623.0 L1002.4,623.9
		L1004.2,624.9 L1006.1,625.8 L1008.0,626.7 L1009.9,627.6 L1011.7,628.5 L1013.6,629.4  '/></g>
	</g>
	<g id="gnuplot_plot_2" ><title>Confidence interval</title>
<g fill="none" color="white" stroke="rgb( 31, 120, 180)" stroke-width="1.00" stroke-linecap="butt" stroke-linejoin="miter">
</g>
<g fill="none" color="black" stroke="currentColor" stroke-width="1.00" stroke-linecap="butt" stroke-linejoin="miter">
	<g transform="translate(1089.0,85.0)" stroke="none" fill="black" font-family="Helvetica" font-size="12.00"  text-anchor="start">
		<text><tspan font-family="Helvetica" >Confidence interval</tspan></text>
	</g>
</g>
<g fill="none" color="black" stroke="currentColor" stroke-width="1.00" stroke-linecap="butt" stroke-linejoin="miter">
	<g stroke='none' shape-rendering='crispEdges'>
		<polygon fill = 'rgb( 31, 120, 180)' fill-opacity = '0.250000' points = '1038.5,85.6 1080.7,85.6 1080.7,76.6 1038.5,76.6 '/>
		<polygon fill = 'rgb( 31, 120, 180)' fill-opacity = '0.250000' points = '166.2,577.1 168.1,577.1 170.0,577.1 171.9,577.2 173.7,577.4 175.6,577.6 177.5,578.0 179.3,578.4 181.2,579.0 183.1,579.6 185.0,580.3 186.8,581.1 188.7,581.9 190.6,582.9 192.4,583.9 194.3,584.9
196.2,586.0 198.0,587.2 199.9,588.4 201.8,589.6 203.7,590.8 205.5,592.0 207.4,593.2 209.3,594.3 211.1,595.5 213.0,596.5 214.9,597.4 216.7,598.3 218.6,599.0 220.5,599.6 222.4,599.9 224.2,600.1
226.1,600.1 228.0,599.8 229.8,599.2 231.7,598.3 233.6,597.1 235.5,595.5 237.3,593.6 239.2,591.3 241.1,588.6 242.9,585.5 244.8,582.0 246.7,578.0 248.5,573.7 250.4,568.9 252.3,563.7 254.2,558.1
256.0,552.1 257.9,545.7 259.8,539.0 261.6,532.0 263.5,524.7 265.4,517.1 267.3,509.3 269.1,501.3 271.0,493.2 272.9,485.0 274.7,476.7 276.6,468.5 278.5,460.3 280.3,452.2 282.2,444.3 284.1,436.5
286.0,429.1 287.8,421.9 289.7,415.2 291.6,408.8 293.4,402.9 295.3,397.5 297.2,392.6 299.1,388.3 300.9,384.5 302.8,381.4 304.7,378.9 306.5,377.1 308.4,375.9 310.3,375.4 312.1,375.6 314.0,376.4
315.9,377.8 317.8,379.9 319.6,382.6 321.5,385.8 323.4,389.5 325.2,393.7 327.1,398.4 329.0,403.4 330.9,408.7 332.7,414.3 334.6,420.1 336.5,426.0 338.3,431.9 340.2,437.7 342.1,443.5 343.9,449.0
345.8,454.2 347.7,459.0 349.6,463.4 351.4,467.3 353.3,470.5 355.2,473.1 357.0,474.9 358.9,476.0 360.8,476.2 362.7,475.5 364.5,474.0 366.4,471.6 368.3,468.2 370.1,464.0 372.0,458.9 373.9,452.9
375.7,446.2 377.6,438.7 379.5,430.5 381.4,421.8 383.2,412.5 385.1,402.8 387.0,392.7 388.8,382.4 390.7,371.9 392.6,361.4 394.5,350.9 396.3,340.5 398.2,330.4 400.1,320.5 401.9,311.1 403.8,302.0
405.7,293.5 407.5,285.6 409.4,278.2 411.3,271.5 413.2,265.4 415.0,260.1 416.9,255.4 418.8,251.4 420.6,248.1 422.5,245.4 424.4,243.4 426.3,242.0 428.1,241.1 430.0,240.8 431.9,240.9 433.7,241.3
435.6,242.2 437.5,243.3 439.3,244.6 441.2,246.0 443.1,247.5 445.0,249.1 446.8,250.5 448.7,251.9 450.6,253.2 452.4,254.2 454.3,255.0 456.2,255.5 458.0,255.8 459.9,255.7 461.8,255.2 463.7,254.4
465.5,253.3 467.4,251.8 469.3,250.0 471.1,247.8 473.0,245.3 474.9,242.5 476.8,239.3 478.6,235.9 480.5,232.1 482.4,228.0 484.2,223.7 486.1,219.0 488.0,214.0 489.8,208.8 491.7,203.2 493.6,197.4
495.5,191.3 497.3,184.9 499.2,178.2 501.1,171.4 502.9,164.3 504.8,157.1 506.7,149.8 508.6,142.4 510.4,135.1 512.3,127.8 514.2,120.7 516.0,113.9 517.9,107.4 519.8,101.3 521.6,95.6 523.5,90.6
525.4,86.2 527.3,82.5 529.1,79.7 531.0,77.6 532.9,76.4 534.7,76.0 536.6,76.5 538.5,77.9 540.4,80.1 542.2,83.1 544.1,86.7 546.0,91.0 547.8,95.8 549.7,101.0 551.6,106.4 553.4,112.0
555.3,117.6 557.2,123.1 559.1,128.3 560.9,133.1 562.8,137.3 564.7,140.9 566.5,143.6 568.4,145.6 570.3,146.6 572.2,146.7 574.0,145.8 575.9,144.0 577.8,141.3 579.6,137.7 581.5,133.4 583.4,128.5
585.2,123.0 587.1,117.2 589.0,111.1 590.9,105.0 592.7,99.0 594.6,93.3 596.5,88.0 598.3,83.3 600.2,79.2 602.1,75.9 604.0,73.5 605.8,72.0 607.7,71.4 609.6,71.7 611.4,72.9 613.3,74.9
615.2,77.7 617.0,81.2 618.9,85.2 620.8,89.7 622.7,94.4 624.5,99.4 626.4,104.3 628.3,109.2 630.1,113.9 632.0,118.3 633.9,122.3 635.8,125.8 637.6,128.8 639.5,131.2 641.4,133.1 643.2,134.5
645.1,135.3 647.0,135.6 648.8,135.4 650.7,134.9 652.6,134.1 654.5,133.0 656.3,131.8 658.2,130.5 660.1,129.1 661.9,127.8 663.8,126.6 665.7,125.6 667.5,124.8 669.4,124.2 671.3,123.9 673.2,123.9
675.0,124.3 676.9,124.9 678.8,126.0 680.6,127.3 682.5,129.0 684.4,131.1 686.3,133.4 688.1,136.2 690.0,139.3 691.9,142.6 693.7,146.3 695.6,150.3 697.5,154.6 699.3,159.1 701.2,163.9 703.1,168.8
705.0,173.8 706.8,178.9 708.7,184.1 710.6,189.2 712.4,194.2 714.3,199.2 716.2,203.9 718.1,208.4 719.9,212.7 721.8,216.6 723.7,220.2 725.5,223.5 727.4,226.5 729.3,229.2 731.1,231.7 733.0,233.9
734.9,236.0 736.8,237.9 738.6,239.9 740.5,241.8 742.4,243.9 744.2,246.1 746.1,248.5 748.0,251.2 749.9,254.2 751.7,257.5 753.6,261.1 755.5,265.1 757.3,269.3 759.2,273.8 761.1,278.5 762.9,283.3
764.8,288.2 766.7,293.2 768.6,298.1 770.4,302.9 772.3,307.5 774.2,312.0 776.0,316.2 777.9,320.1 779.8,323.8 781.7,327.2 783.5,330.3 785.4,333.1 787.3,335.7 789.1,338.2 791.0,340.5 792.9,342.7
794.7,344.9 796.6,347.0 798.5,349.2 800.4,351.5 802.2,353.9 804.1,356.4 806.0,359.0 807.8,361.8 809.7,364.8 811.6,368.0 813.5,371.3 815.3,374.8 817.2,378.4 819.1,382.2 820.9,386.0 822.8,390.0
824.7,394.1 826.5,398.2 828.4,402.3 830.3,406.5 832.2,410.7 834.0,414.8 835.9,419.0 837.8,423.1 839.6,427.1 841.5,431.1 843.4,435.0 845.3,438.8 847.1,442.5 849.0,446.1 850.9,449.6 852.7,453.0
854.6,456.3 856.5,459.5 858.3,462.7 860.2,465.8 862.1,468.8 864.0,471.8 865.8,474.7 867.7,477.7 869.6,480.6 871.4,483.5 873.3,486.4 875.2,489.4 877.1,492.3 878.9,495.2 880.8,498.2 882.7,501.1
884.5,504.0 886.4,506.8 888.3,509.6 890.1,512.4 892.0,515.1 893.9,517.7 895.8,520.3 897.6,522.9 899.5,525.3 901.4,527.8 903.2,530.1 905.1,532.5 907.0,534.8 908.8,537.1 910.7,539.3 912.6,541.6
914.5,543.8 916.3,546.1 918.2,548.3 920.1,550.6 921.9,552.8 923.8,555.1 925.7,557.3 925.7,662.4 923.8,662.4 921.9,662.4 920.1,662.4 918.2,662.4 916.3,662.4 914.5,662.4 912.6,662.4 910.7,662.4
908.8,662.4 907.0,662.4 905.1,662.4 903.2,662.4 901.4,662.4 899.5,662.4 897.6,662.4 895.8,662.4 893.9,662.4 892.0,662.4 890.1,662.4 888.3,662.4 886.4,662.4 884.5,662.4 882.7,662.4 880.8,662.4
878.9,662.4 877.1,662.4 875.2,662.4 873.3,662.4 871.4,662.4 869.6,662.4 867.7,662.4 865.8,662.4 864.0,662.4 862.1,662.4 860.2,662.4 858.3,662.4 856.5,662.4 854.6,662.4 852.7,662.4 850.9,662.4
849.0,662.4 847.1,662.4 845.3,662.4 843.4,662.4 841.5,662.4 839.6,662.4 837.8,662.4 835.9,662.4 834.0,662.4 832.2,662.4 830.3,662.4 828.4,662.4 826.5,662.4 824.7,662.4 822.8,662.4 820.9,662.4
819.1,662.4 817.2,662.4 815.3,662.4 813.5,662.4 811.6,662.4 809.7,662.4 807.8,662.4 806.0,662.4 804.1,662.4 802.2,662.4 800.4,662.4 798.5,662.4 796.6,662.4 794.7,662.4 792.9,662.4 791.0,662.4
789.1,662.4 787.3,662.4 785.4,662.4 783.5,662.4 781.7,662.4 779.8,662.4 777.9,662.4 776.0,662.4 774.2,662.4 772.3,662.4 770.4,662.4 768.6,662.4 766.7,662.4 764.8,662.4 762.9,662.4 761.1,662.4
759.2,662.4 757.3,662.4 755.5,662.4 753.6,662.4 751.7,662.4 749.9,662.4 748.0,662.4 746.1,662.4 744.2,662.4 742.4,662.4 740.5,662.4 738.6,662.4 736.8,662.4 734.9,662.4 733.0,662.4 731.1,662.4
729.3,662.4 727.4,662.4 725.5,662.4 723.7,662.4 721.8,662.4 719.9,662.4 718.1,662.4 716.2,662.4 714.3,662.4 712.4,662.4 710.6,662.4 708.7,662.4 706.8,662.4 705.0,662.4 703.1,662.4 701.2,662.4
699.3,662.4 697.5,662.4 695.6,662.4 693.7,662.4 691.9,662.4 690.0,662.4 688.1,662.4 686.3,662.4 684.4,662.4 682.5,662.4 680.6,662.4 678.8,662.4 676.9,662.4 675.0,662.4 673.2,662.4 671.3,662.4
669.4,662.4 667.5,662.4 665.7,662.4 663.8,662.4 661.9,662.4 660.1,662.4 658.2,662.4 656.3,662.4 654.5,662.4 652.6,662.4 650.7,662.4 648.8,662.4 647.0,662.4 645.1,662.4 643.2,662.4 641.4,662.4
639.5,662.4 637.6,662.4 635.8,662.4 633.9,662.4 632.0,662.4 630.1,662.4 628.3,662.4 626.4,662.4 624.5,662.4 622.7,662.4 620.8,662.4 618.9,662.4 617.0,662.4 615.2,662.4 613.3,662.4 611.4,662.4
609.6,662.4 607.7,662.4 605.8,662.4 604.0,662.4 602.1,662.4 600.2,662.4 598.3,662.4 596.5,662.4 594.6,662.4 592.7,662.4 590.9,662.4 589.0,662.4 587.1,662.4 585.2,662.4 583.4,662.4 581.5,662.4
579.6,662.4 577.8,662.4 575.9,662.4 574.0,662.4 572.2,662.4 570.3,662.4 568.4,662.4 566.5,662.4 564.7,662.4 562.8,662.4 560.9,662.4 559.1,662.4 557.2,662.4 555.3,662.4 553.4,662.4 551.6,662.4
549.7,662.4 547.8,662.4 546.0,662.4 544.1,662.4 542.2,662.4 540.4,662.4 538.5,662.4 536.6,662.4 534.7,662.4 532.9,662.4 531.0,662.4 529.1,662.4 527.3,662.4 525.4,662.4 523.5,662.4 521.6,662.4
519.8,662.4 517.9,662.4 516.0,662.4 514.2,662.4 512.3,662.4 510.4,662.4 508.6,662.4 506.7,662.4 504.8,662.4 502.9,662.4 501.1,662.4 499.2,662.4 497.3,662.4 495.5,662.4 493.6,662.4 491.7,662.4
489.8,662.4 488.0,662.4 486.1,662.4 484.2,662.4 482.4,662.4 480.5,662.4 478.6,662.4 476.8,662.4 474.9,662.4 473.0,662.4 471.1,662.4 469.3,662.4 467.4,662.4 465.5,662.4 463.7,662.4 461.8,662.4
459.9,662.4 458.0,662.4 456.2,662.4 454.3,662.4 452.4,662.4 450.6,662.4 448.7,662.4 446.8,662.4 445.0,662.4 443.1,662.4 441.2,662.4 439.3,662.4 437.5,662.4 435.6,662.4 433.7,662.4 431.9,662.4
430.0,662.4 428.1,662.4 426.3,662.4 424.4,662.4 422.5,662.4 420.6,662.4 418.8,662.4 416.9,662.4 415.0,662.4 413.2,662.4 411.3,662.4 409.4,662.4 407.5,662.4 405.7,662.4 403.8,662.4 401.9,662.4
400.1,662.4 398.2,662.4 396.3,662.4 394.5,662.4 392.6,662.4 390.7,662.4 388.8,662.4 387.0,662.4 385.1,662.4 383.2,662.4 381.4,662.4 379.5,662.4 377.6,662.4 375.7,662.4 373.9,662.4 372.0,662.4
370.1,662.4 368.3,662.4 366.4,662.4 364.5,662.4 362.7,662.4 360.8,662.4 358.9,662.4 357.0,662.4 355.2,662.4 353.3,662.4 351.4,662.4 349.6,662.4 347.7,662.4 345.8,662.4 343.9,662.4 342.1,662.4
340.2,662.4 338.3,662.4 336.5,662.4 334.6,662.4 332.7,662.4 330.9,662.4 329.0,662.4 327.1,662.4 325.2,662.4 323.4,662.4 321.5,662.4 319.6,662.4 317.8,662.4 315.9,662.4 314.0,662.4 312.1,662.4
310.3,662.4 308.4,662.4 306.5,662.4 304.7,662.4 302.8,662.4 300.9,662.4 299.1,662.4 297.2,662.4 295.3,662.4 293.4,662.4 291.6,662.4 289.7,662.4 287.8,662.4 286.0,662.4 284.1,662.4 282.2,662.4
280.3,662.4 278.5,662.4 276.6,662.4 274.7,662.4 272.9,662.4 271.0,662.4 269.1,662.4 267.3,662.4 265.4,662.4 263.5,662.4 261.6,662.4 259.8,662.4 257.9,662.4 256.0,662.4 254.2,662.4 252.3,662.4
250.4,662.4 248.5,662.4 246.7,662.4 244.8,662.4 242.9,662.4 241.1,662.4 239.2,662.4 237.3,662.4 235.5,662.4 233.6,662.4 231.7,662.4 229.8,662.4 228.0,662.4 226.1,662.4 224.2,662.4 222.4,662.4
220.5,662.4 218.6,662.4 216.7,662.4 214.9,662.4 213.0,662.4 211.1,662.4 209.3,662.4 207.4,662.4 205.5,662.4 203.7,662.4 201.8,662.4 199.9,662.4 198.0,662.4 196.2,662.4 194.3,662.4 192.4,662.4
190.6,662.4 188.7,662.4 186.8,662.4 185.0,662.4 183.1,662.4 181.2,662.4 179.3,662.4 177.5,662.4 175.6,662.4 173.7,662.4 171.9,662.4 170.0,662.4 168.1,662.4 166.2,662.4 '/>
	</g>
</g>
	</g>
	<g id="gnuplot_plot_3" ><title>Point estimate</title>
<g fill="none" color="white" stroke="rgb( 31, 120, 180)" stroke-width="2.00" stroke-linecap="butt" stroke-linejoin="miter">
</g>
<g fill="none" color="black" stroke="currentColor" stroke-width="2.00" stroke-linecap="butt" stroke-linejoin="miter">
	<g transform="translate(1089.0,103.0)" stroke="none" fill="black" font-family="Helvetica" font-size="12.00"  text-anchor="start">
		<text><tspan font-family="Helvetica" >Point estimate</tspan></text>
	</g>
</g>
<g fill="none" color="black" stroke="currentColor" stroke-width="2.00" stroke-linecap="butt" stroke-linejoin="miter">
	<path stroke='rgb( 31, 120, 180)'  d='M1038.5,99.1 L1080.7,99.1 M607.9,662.4 L607.9,71.4  '/></g>
	</g>
<g fill="none" color="black" stroke="currentColor" stroke-width="2.00" stroke-linecap="butt" stroke-linejoin="miter">
</g>
<g fill="none" color="black" stroke="black" stroke-width="1.00" stroke-linecap="butt" stroke-linejoin="miter">
</g>
<g fill="none" color="black" stroke="currentColor" stroke-width="1.00" stroke-linecap="butt" stroke-linejoin="miter">
	<path stroke='black'  d='M80.2,54.1 L80.2,662.4 L1013.6,662.4 L1013.6,54.1 L80.2,54.1 Z  '/></g>
<g fill="none" color="black" stroke="currentColor" stroke-width="1.00" stroke-linecap="butt" stroke-linejoin="miter">
</g>
</g>
</svg>

