group,function,value,throughput_num,throughput_type,sample_measured_value,unit,iteration_count
snapshot_restore_with_dense,Sparse: Dirty pages + process_vm_writev,5,,,1035083.0,ns,80
snapshot_restore_with_dense,Sparse: Dirty pages + process_vm_writev,5,,,2014264.0,ns,160
snapshot_restore_with_dense,Sparse: Dirty pages + process_vm_writev,5,,,3003332.0,ns,240
snapshot_restore_with_dense,Sparse: Dirty pages + process_vm_writev,5,,,4014477.0,ns,320
snapshot_restore_with_dense,Sparse: Dirty pages + process_vm_writev,5,,,5099858.0,ns,400
snapshot_restore_with_dense,Sparse: Dirty pages + process_vm_writev,5,,,6007598.0,ns,480
snapshot_restore_with_dense,Sparse: Dirty pages + process_vm_writev,5,,,7212184.0,ns,560
snapshot_restore_with_dense,Sparse: Dirty pages + process_vm_writev,5,,,8479748.0,ns,640
snapshot_restore_with_dense,Sparse: Dirty pages + process_vm_writev,5,,,9359687.0,ns,720
snapshot_restore_with_dense,Sparse: Dirty pages + process_vm_writev,5,,,10210809.0,ns,800
snapshot_restore_with_dense,Sparse: Dirty pages + process_vm_writev,5,,,11004069.0,ns,880
snapshot_restore_with_dense,Sparse: Dirty pages + process_vm_writev,5,,,11995014.0,ns,960
snapshot_restore_with_dense,Sparse: Dirty pages + process_vm_writev,5,,,13038967.0,ns,1040
snapshot_restore_with_dense,Sparse: Dirty pages + process_vm_writev,5,,,14002968.0,ns,1120
snapshot_restore_with_dense,Sparse: Dirty pages + process_vm_writev,5,,,15054163.0,ns,1200
snapshot_restore_with_dense,Sparse: Dirty pages + process_vm_writev,5,,,16022779.0,ns,1280
snapshot_restore_with_dense,Sparse: Dirty pages + process_vm_writev,5,,,16982948.0,ns,1360
snapshot_restore_with_dense,Sparse: Dirty pages + process_vm_writev,5,,,17999615.0,ns,1440
snapshot_restore_with_dense,Sparse: Dirty pages + process_vm_writev,5,,,19005653.0,ns,1520
snapshot_restore_with_dense,Sparse: Dirty pages + process_vm_writev,5,,,19997545.0,ns,1600
snapshot_restore_with_dense,Sparse: Dirty pages + process_vm_writev,5,,,21006109.0,ns,1680
snapshot_restore_with_dense,Sparse: Dirty pages + process_vm_writev,5,,,22080539.0,ns,1760
snapshot_restore_with_dense,Sparse: Dirty pages + process_vm_writev,5,,,22971295.0,ns,1840
snapshot_restore_with_dense,Sparse: Dirty pages + process_vm_writev,5,,,24029444.0,ns,1920
snapshot_restore_with_dense,Sparse: Dirty pages + process_vm_writev,5,,,25106942.0,ns,2000
snapshot_restore_with_dense,Sparse: Dirty pages + process_vm_writev,5,,,26168707.0,ns,2080
snapshot_restore_with_dense,Sparse: Dirty pages + process_vm_writev,5,,,26938796.0,ns,2160
snapshot_restore_with_dense,Sparse: Dirty pages + process_vm_writev,5,,,28043934.0,ns,2240
snapshot_restore_with_dense,Sparse: Dirty pages + process_vm_writev,5,,,29049064.0,ns,2320
snapshot_restore_with_dense,Sparse: Dirty pages + process_vm_writev,5,,,30088054.0,ns,2400
snapshot_restore_with_dense,Sparse: Dirty pages + process_vm_writev,5,,,30982649.0,ns,2480
snapshot_restore_with_dense,Sparse: Dirty pages + process_vm_writev,5,,,31984240.0,ns,2560
snapshot_restore_with_dense,Sparse: Dirty pages + process_vm_writev,5,,,32982857.0,ns,2640
snapshot_restore_with_dense,Sparse: Dirty pages + process_vm_writev,5,,,34031161.0,ns,2720
snapshot_restore_with_dense,Sparse: Dirty pages + process_vm_writev,5,,,34983443.0,ns,2800
snapshot_restore_with_dense,Sparse: Dirty pages + process_vm_writev,5,,,36034033.0,ns,2880
snapshot_restore_with_dense,Sparse: Dirty pages + process_vm_writev,5,,,36928663.0,ns,2960
snapshot_restore_with_dense,Sparse: Dirty pages + process_vm_writev,5,,,37974745.0,ns,3040
snapshot_restore_with_dense,Sparse: Dirty pages + process_vm_writev,5,,,39056567.0,ns,3120
snapshot_restore_with_dense,Sparse: Dirty pages + process_vm_writev,5,,,39799325.0,ns,3200
snapshot_restore_with_dense,Sparse: Dirty pages + process_vm_writev,5,,,40925659.0,ns,3280
snapshot_restore_with_dense,Sparse: Dirty pages + process_vm_writev,5,,,41916324.0,ns,3360
snapshot_restore_with_dense,Sparse: Dirty pages + process_vm_writev,5,,,42888009.0,ns,3440
snapshot_restore_with_dense,Sparse: Dirty pages + process_vm_writev,5,,,43818980.0,ns,3520
snapshot_restore_with_dense,Sparse: Dirty pages + process_vm_writev,5,,,44905239.0,ns,3600
snapshot_restore_with_dense,Sparse: Dirty pages + process_vm_writev,5,,,45936906.0,ns,3680
snapshot_restore_with_dense,Sparse: Dirty pages + process_vm_writev,5,,,46925345.0,ns,3760
snapshot_restore_with_dense,Sparse: Dirty pages + process_vm_writev,5,,,48053813.0,ns,3840
snapshot_restore_with_dense,Sparse: Dirty pages + process_vm_writev,5,,,49083054.0,ns,3920
snapshot_restore_with_dense,Sparse: Dirty pages + process_vm_writev,5,,,50233219.0,ns,4000
snapshot_restore_with_dense,Sparse: Dirty pages + process_vm_writev,5,,,50905083.0,ns,4080
snapshot_restore_with_dense,Sparse: Dirty pages + process_vm_writev,5,,,52123198.0,ns,4160
snapshot_restore_with_dense,Sparse: Dirty pages + process_vm_writev,5,,,53119426.0,ns,4240
snapshot_restore_with_dense,Sparse: Dirty pages + process_vm_writev,5,,,54002727.0,ns,4320
snapshot_restore_with_dense,Sparse: Dirty pages + process_vm_writev,5,,,55033513.0,ns,4400
snapshot_restore_with_dense,Sparse: Dirty pages + process_vm_writev,5,,,56102695.0,ns,4480
snapshot_restore_with_dense,Sparse: Dirty pages + process_vm_writev,5,,,57016759.0,ns,4560
snapshot_restore_with_dense,Sparse: Dirty pages + process_vm_writev,5,,,58009049.0,ns,4640
snapshot_restore_with_dense,Sparse: Dirty pages + process_vm_writev,5,,,59084474.0,ns,4720
snapshot_restore_with_dense,Sparse: Dirty pages + process_vm_writev,5,,,60243390.0,ns,4800
snapshot_restore_with_dense,Sparse: Dirty pages + process_vm_writev,5,,,60920540.0,ns,4880
snapshot_restore_with_dense,Sparse: Dirty pages + process_vm_writev,5,,,61858914.0,ns,4960
snapshot_restore_with_dense,Sparse: Dirty pages + process_vm_writev,5,,,62952170.0,ns,5040
snapshot_restore_with_dense,Sparse: Dirty pages + process_vm_writev,5,,,64043495.0,ns,5120
snapshot_restore_with_dense,Sparse: Dirty pages + process_vm_writev,5,,,65106398.0,ns,5200
snapshot_restore_with_dense,Sparse: Dirty pages + process_vm_writev,5,,,66149617.0,ns,5280
snapshot_restore_with_dense,Sparse: Dirty pages + process_vm_writev,5,,,67061425.0,ns,5360
snapshot_restore_with_dense,Sparse: Dirty pages + process_vm_writev,5,,,68018756.0,ns,5440
snapshot_restore_with_dense,Sparse: Dirty pages + process_vm_writev,5,,,69239595.0,ns,5520
snapshot_restore_with_dense,Sparse: Dirty pages + process_vm_writev,5,,,70107072.0,ns,5600
snapshot_restore_with_dense,Sparse: Dirty pages + process_vm_writev,5,,,71086728.0,ns,5680
snapshot_restore_with_dense,Sparse: Dirty pages + process_vm_writev,5,,,72150731.0,ns,5760
snapshot_restore_with_dense,Sparse: Dirty pages + process_vm_writev,5,,,73191797.0,ns,5840
snapshot_restore_with_dense,Sparse: Dirty pages + process_vm_writev,5,,,74066889.0,ns,5920
snapshot_restore_with_dense,Sparse: Dirty pages + process_vm_writev,5,,,75162684.0,ns,6000
snapshot_restore_with_dense,Sparse: Dirty pages + process_vm_writev,5,,,75942288.0,ns,6080
snapshot_restore_with_dense,Sparse: Dirty pages + process_vm_writev,5,,,77040490.0,ns,6160
snapshot_restore_with_dense,Sparse: Dirty pages + process_vm_writev,5,,,77692458.0,ns,6240
snapshot_restore_with_dense,Sparse: Dirty pages + process_vm_writev,5,,,79123350.0,ns,6320
snapshot_restore_with_dense,Sparse: Dirty pages + process_vm_writev,5,,,80143110.0,ns,6400
snapshot_restore_with_dense,Sparse: Dirty pages + process_vm_writev,5,,,81009921.0,ns,6480
snapshot_restore_with_dense,Sparse: Dirty pages + process_vm_writev,5,,,82212886.0,ns,6560
snapshot_restore_with_dense,Sparse: Dirty pages + process_vm_writev,5,,,82798935.0,ns,6640
snapshot_restore_with_dense,Sparse: Dirty pages + process_vm_writev,5,,,84009349.0,ns,6720
snapshot_restore_with_dense,Sparse: Dirty pages + process_vm_writev,5,,,85133513.0,ns,6800
snapshot_restore_with_dense,Sparse: Dirty pages + process_vm_writev,5,,,86186625.0,ns,6880
snapshot_restore_with_dense,Sparse: Dirty pages + process_vm_writev,5,,,86972235.0,ns,6960
snapshot_restore_with_dense,Sparse: Dirty pages + process_vm_writev,5,,,88275034.0,ns,7040
snapshot_restore_with_dense,Sparse: Dirty pages + process_vm_writev,5,,,88853679.0,ns,7120
snapshot_restore_with_dense,Sparse: Dirty pages + process_vm_writev,5,,,90126548.0,ns,7200
snapshot_restore_with_dense,Sparse: Dirty pages + process_vm_writev,5,,,91052579.0,ns,7280
snapshot_restore_with_dense,Sparse: Dirty pages + process_vm_writev,5,,,92215098.0,ns,7360
snapshot_restore_with_dense,Sparse: Dirty pages + process_vm_writev,5,,,93317888.0,ns,7440
snapshot_restore_with_dense,Sparse: Dirty pages + process_vm_writev,5,,,94812327.0,ns,7520
snapshot_restore_with_dense,Sparse: Dirty pages + process_vm_writev,5,,,95095168.0,ns,7600
snapshot_restore_with_dense,Sparse: Dirty pages + process_vm_writev,5,,,95709102.0,ns,7680
snapshot_restore_with_dense,Sparse: Dirty pages + process_vm_writev,5,,,96673806.0,ns,7760
snapshot_restore_with_dense,Sparse: Dirty pages + process_vm_writev,5,,,97807178.0,ns,7840
snapshot_restore_with_dense,Sparse: Dirty pages + process_vm_writev,5,,,98731413.0,ns,7920
snapshot_restore_with_dense,Sparse: Dirty pages + process_vm_writev,5,,,99771729.0,ns,8000
