<?xml version="1.0" encoding="utf-8"  standalone="no"?>
<svg 
 viewBox="0 0 1280 720"
 xmlns="http://www.w3.org/2000/svg"
 xmlns:xlink="http://www.w3.org/1999/xlink"
>

<title>Gnuplot</title>
<desc>Produced by GNUPLOT 5.2 patchlevel 6 </desc>

<g id="gnuplot_canvas">

<rect x="0" y="0" width="1280" height="720" fill="none"/>
<defs>

	<circle id='gpDot' r='0.5' stroke-width='0.5' stroke='currentColor'/>
	<path id='gpPt0' stroke-width='0.222' stroke='currentColor' d='M-1,0 h2 M0,-1 v2'/>
	<path id='gpPt1' stroke-width='0.222' stroke='currentColor' d='M-1,-1 L1,1 M1,-1 L-1,1'/>
	<path id='gpPt2' stroke-width='0.222' stroke='currentColor' d='M-1,0 L1,0 M0,-1 L0,1 M-1,-1 L1,1 M-1,1 L1,-1'/>
	<rect id='gpPt3' stroke-width='0.222' stroke='currentColor' x='-1' y='-1' width='2' height='2'/>
	<rect id='gpPt4' stroke-width='0.222' stroke='currentColor' fill='currentColor' x='-1' y='-1' width='2' height='2'/>
	<circle id='gpPt5' stroke-width='0.222' stroke='currentColor' cx='0' cy='0' r='1'/>
	<use xlink:href='#gpPt5' id='gpPt6' fill='currentColor' stroke='none'/>
	<path id='gpPt7' stroke-width='0.222' stroke='currentColor' d='M0,-1.33 L-1.33,0.67 L1.33,0.67 z'/>
	<use xlink:href='#gpPt7' id='gpPt8' fill='currentColor' stroke='none'/>
	<use xlink:href='#gpPt7' id='gpPt9' stroke='currentColor' transform='rotate(180)'/>
	<use xlink:href='#gpPt9' id='gpPt10' fill='currentColor' stroke='none'/>
	<use xlink:href='#gpPt3' id='gpPt11' stroke='currentColor' transform='rotate(45)'/>
	<use xlink:href='#gpPt11' id='gpPt12' fill='currentColor' stroke='none'/>
	<path id='gpPt13' stroke-width='0.222' stroke='currentColor' d='M0,1.330 L1.265,0.411 L0.782,-1.067 L-0.782,-1.076 L-1.265,0.411 z'/>
	<use xlink:href='#gpPt13' id='gpPt14' fill='currentColor' stroke='none'/>
	<filter id='textbox' filterUnits='objectBoundingBox' x='0' y='0' height='1' width='1'>
	  <feFlood flood-color='white' flood-opacity='1' result='bgnd'/>
	  <feComposite in='SourceGraphic' in2='bgnd' operator='atop'/>
	</filter>
	<filter id='greybox' filterUnits='objectBoundingBox' x='0' y='0' height='1' width='1'>
	  <feFlood flood-color='lightgrey' flood-opacity='1' result='grey'/>
	  <feComposite in='SourceGraphic' in2='grey' operator='atop'/>
	</filter>
</defs>
<g fill="none" color="white" stroke="currentColor" stroke-width="1.00" stroke-linecap="butt" stroke-linejoin="miter">
</g>
<g fill="none" color="black" stroke="currentColor" stroke-width="1.00" stroke-linecap="butt" stroke-linejoin="miter">
	<path stroke='black'  d='M71.9,662.4 L80.9,662.4  '/>	<g transform="translate(63.6,666.3)" stroke="none" fill="black" font-family="Helvetica" font-size="12.00"  text-anchor="end">
		<text><tspan font-family="Helvetica" > 0</tspan></text>
	</g>
</g>
<g fill="none" color="black" stroke="currentColor" stroke-width="1.00" stroke-linecap="butt" stroke-linejoin="miter">
	<path stroke='black'  d='M71.9,594.8 L80.9,594.8  '/>	<g transform="translate(63.6,598.7)" stroke="none" fill="black" font-family="Helvetica" font-size="12.00"  text-anchor="end">
		<text><tspan font-family="Helvetica" > 0.2</tspan></text>
	</g>
</g>
<g fill="none" color="black" stroke="currentColor" stroke-width="1.00" stroke-linecap="butt" stroke-linejoin="miter">
	<path stroke='black'  d='M71.9,527.2 L80.9,527.2  '/>	<g transform="translate(63.6,531.1)" stroke="none" fill="black" font-family="Helvetica" font-size="12.00"  text-anchor="end">
		<text><tspan font-family="Helvetica" > 0.4</tspan></text>
	</g>
</g>
<g fill="none" color="black" stroke="currentColor" stroke-width="1.00" stroke-linecap="butt" stroke-linejoin="miter">
	<path stroke='black'  d='M71.9,459.6 L80.9,459.6  '/>	<g transform="translate(63.6,463.5)" stroke="none" fill="black" font-family="Helvetica" font-size="12.00"  text-anchor="end">
		<text><tspan font-family="Helvetica" > 0.6</tspan></text>
	</g>
</g>
<g fill="none" color="black" stroke="currentColor" stroke-width="1.00" stroke-linecap="butt" stroke-linejoin="miter">
	<path stroke='black'  d='M71.9,392.0 L80.9,392.0  '/>	<g transform="translate(63.6,395.9)" stroke="none" fill="black" font-family="Helvetica" font-size="12.00"  text-anchor="end">
		<text><tspan font-family="Helvetica" > 0.8</tspan></text>
	</g>
</g>
<g fill="none" color="black" stroke="currentColor" stroke-width="1.00" stroke-linecap="butt" stroke-linejoin="miter">
	<path stroke='black'  d='M71.9,324.5 L80.9,324.5  '/>	<g transform="translate(63.6,328.4)" stroke="none" fill="black" font-family="Helvetica" font-size="12.00"  text-anchor="end">
		<text><tspan font-family="Helvetica" > 1</tspan></text>
	</g>
</g>
<g fill="none" color="black" stroke="currentColor" stroke-width="1.00" stroke-linecap="butt" stroke-linejoin="miter">
	<path stroke='black'  d='M71.9,256.9 L80.9,256.9  '/>	<g transform="translate(63.6,260.8)" stroke="none" fill="black" font-family="Helvetica" font-size="12.00"  text-anchor="end">
		<text><tspan font-family="Helvetica" > 1.2</tspan></text>
	</g>
</g>
<g fill="none" color="black" stroke="currentColor" stroke-width="1.00" stroke-linecap="butt" stroke-linejoin="miter">
	<path stroke='black'  d='M71.9,189.3 L80.9,189.3  '/>	<g transform="translate(63.6,193.2)" stroke="none" fill="black" font-family="Helvetica" font-size="12.00"  text-anchor="end">
		<text><tspan font-family="Helvetica" > 1.4</tspan></text>
	</g>
</g>
<g fill="none" color="black" stroke="currentColor" stroke-width="1.00" stroke-linecap="butt" stroke-linejoin="miter">
	<path stroke='black'  d='M71.9,121.7 L80.9,121.7  '/>	<g transform="translate(63.6,125.6)" stroke="none" fill="black" font-family="Helvetica" font-size="12.00"  text-anchor="end">
		<text><tspan font-family="Helvetica" > 1.6</tspan></text>
	</g>
</g>
<g fill="none" color="black" stroke="currentColor" stroke-width="1.00" stroke-linecap="butt" stroke-linejoin="miter">
	<path stroke='black'  d='M71.9,54.1 L80.9,54.1  '/>	<g transform="translate(63.6,58.0)" stroke="none" fill="black" font-family="Helvetica" font-size="12.00"  text-anchor="end">
		<text><tspan font-family="Helvetica" > 1.8</tspan></text>
	</g>
</g>
<g fill="none" color="black" stroke="currentColor" stroke-width="1.00" stroke-linecap="butt" stroke-linejoin="miter">
	<path stroke='black'  d='M119.5,662.4 L119.5,653.4  '/>	<g transform="translate(119.5,684.3)" stroke="none" fill="black" font-family="Helvetica" font-size="12.00"  text-anchor="middle">
		<text><tspan font-family="Helvetica" > 121</tspan></text>
	</g>
</g>
<g fill="none" color="black" stroke="currentColor" stroke-width="1.00" stroke-linecap="butt" stroke-linejoin="miter">
	<path stroke='black'  d='M289.0,662.4 L289.0,653.4  '/>	<g transform="translate(289.0,684.3)" stroke="none" fill="black" font-family="Helvetica" font-size="12.00"  text-anchor="middle">
		<text><tspan font-family="Helvetica" > 121.2</tspan></text>
	</g>
</g>
<g fill="none" color="black" stroke="currentColor" stroke-width="1.00" stroke-linecap="butt" stroke-linejoin="miter">
	<path stroke='black'  d='M458.6,662.4 L458.6,653.4  '/>	<g transform="translate(458.6,684.3)" stroke="none" fill="black" font-family="Helvetica" font-size="12.00"  text-anchor="middle">
		<text><tspan font-family="Helvetica" > 121.4</tspan></text>
	</g>
</g>
<g fill="none" color="black" stroke="currentColor" stroke-width="1.00" stroke-linecap="butt" stroke-linejoin="miter">
	<path stroke='black'  d='M628.1,662.4 L628.1,653.4  '/>	<g transform="translate(628.1,684.3)" stroke="none" fill="black" font-family="Helvetica" font-size="12.00"  text-anchor="middle">
		<text><tspan font-family="Helvetica" > 121.6</tspan></text>
	</g>
</g>
<g fill="none" color="black" stroke="currentColor" stroke-width="1.00" stroke-linecap="butt" stroke-linejoin="miter">
	<path stroke='black'  d='M797.6,662.4 L797.6,653.4  '/>	<g transform="translate(797.6,684.3)" stroke="none" fill="black" font-family="Helvetica" font-size="12.00"  text-anchor="middle">
		<text><tspan font-family="Helvetica" > 121.8</tspan></text>
	</g>
</g>
<g fill="none" color="black" stroke="currentColor" stroke-width="1.00" stroke-linecap="butt" stroke-linejoin="miter">
	<path stroke='black'  d='M967.1,662.4 L967.1,653.4  '/>	<g transform="translate(967.1,684.3)" stroke="none" fill="black" font-family="Helvetica" font-size="12.00"  text-anchor="middle">
		<text><tspan font-family="Helvetica" > 122</tspan></text>
	</g>
</g>
<g fill="none" color="black" stroke="currentColor" stroke-width="1.00" stroke-linecap="butt" stroke-linejoin="miter">
</g>
<g fill="none" color="black" stroke="currentColor" stroke-width="1.00" stroke-linecap="butt" stroke-linejoin="miter">
	<path stroke='black'  d='M71.9,54.1 L71.9,662.4 L1013.6,662.4 L1013.6,54.1 L71.9,54.1 Z  '/></g>
<g fill="none" color="black" stroke="currentColor" stroke-width="1.00" stroke-linecap="butt" stroke-linejoin="miter">
	<g transform="translate(16.3,358.3) rotate(270)" stroke="none" fill="black" font-family="Helvetica" font-size="12.00"  text-anchor="middle">
		<text><tspan font-family="Helvetica" >Density (a.u.)</tspan></text>
	</g>
</g>
<g fill="none" color="black" stroke="currentColor" stroke-width="1.00" stroke-linecap="butt" stroke-linejoin="miter">
	<g transform="translate(542.7,711.3)" stroke="none" fill="black" font-family="Helvetica" font-size="12.00"  text-anchor="middle">
		<text><tspan font-family="Helvetica" >Average time (us)</tspan></text>
	</g>
</g>
<g fill="none" color="black" stroke="currentColor" stroke-width="1.00" stroke-linecap="butt" stroke-linejoin="miter">
	<g transform="translate(542.7,31.0)" stroke="none" fill="black" font-family="Helvetica" font-size="12.00"  text-anchor="middle">
		<text><tspan font-family="Helvetica" >perf/no_perf: mean</tspan></text>
	</g>
</g>
	<g id="gnuplot_plot_1" ><title>Bootstrap distribution</title>
<g fill="none" color="white" stroke="black" stroke-width="2.00" stroke-linecap="butt" stroke-linejoin="miter">
</g>
<g fill="none" color="black" stroke="currentColor" stroke-width="2.00" stroke-linecap="butt" stroke-linejoin="miter">
	<g transform="translate(1089.0,67.0)" stroke="none" fill="black" font-family="Helvetica" font-size="12.00"  text-anchor="start">
		<text><tspan font-family="Helvetica" >Bootstrap distribution</tspan></text>
	</g>
</g>
<g fill="none" color="black" stroke="currentColor" stroke-width="2.00" stroke-linecap="butt" stroke-linejoin="miter">
	<path stroke='rgb( 31, 120, 180)'  d='M1038.5,63.1 L1080.7,63.1 M71.9,629.9 L73.8,628.7 L75.7,627.4 L77.6,626.1 L79.4,624.8 L81.3,623.5
		L83.2,622.1 L85.1,620.7 L87.0,619.2 L88.9,617.7 L90.8,616.2 L92.7,614.6 L94.5,613.0 L96.4,611.3
		L98.3,609.5 L100.2,607.7 L102.1,605.9 L104.0,604.0 L105.9,602.0 L107.8,600.0 L109.6,598.0 L111.5,595.9
		L113.4,593.7 L115.3,591.5 L117.2,589.3 L119.1,587.0 L121.0,584.7 L122.9,582.3 L124.7,579.9 L126.6,577.5
		L128.5,575.0 L130.4,572.4 L132.3,569.9 L134.2,567.3 L136.1,564.7 L138.0,562.0 L139.8,559.3 L141.7,556.6
		L143.6,553.8 L145.5,551.1 L147.4,548.3 L149.3,545.4 L151.2,542.6 L153.0,539.7 L154.9,536.8 L156.8,533.9
		L158.7,531.0 L160.6,528.0 L162.5,525.1 L164.4,522.1 L166.3,519.0 L168.1,516.0 L170.0,512.9 L171.9,509.7
		L173.8,506.6 L175.7,503.3 L177.6,500.1 L179.5,496.8 L181.4,493.4 L183.2,490.0 L185.1,486.5 L187.0,483.0
		L188.9,479.4 L190.8,475.8 L192.7,472.1 L194.6,468.4 L196.5,464.6 L198.3,460.7 L200.2,456.8 L202.1,452.9
		L204.0,449.0 L205.9,445.0 L207.8,440.9 L209.7,436.9 L211.6,432.8 L213.4,428.7 L215.3,424.6 L217.2,420.5
		L219.1,416.3 L221.0,412.1 L222.9,408.0 L224.8,403.8 L226.6,399.6 L228.5,395.4 L230.4,391.3 L232.3,387.1
		L234.2,382.9 L236.1,378.7 L238.0,374.6 L239.9,370.4 L241.7,366.3 L243.6,362.1 L245.5,358.0 L247.4,353.9
		L249.3,349.8 L251.2,345.8 L253.1,341.7 L255.0,337.7 L256.8,333.7 L258.7,329.7 L260.6,325.7 L262.5,321.8
		L264.4,317.8 L266.3,313.9 L268.2,310.0 L270.1,306.1 L271.9,302.2 L273.8,298.3 L275.7,294.4 L277.6,290.5
		L279.5,286.6 L281.4,282.8 L283.3,278.9 L285.2,275.1 L287.0,271.3 L288.9,267.5 L290.8,263.7 L292.7,260.0
		L294.6,256.3 L296.5,252.6 L298.4,249.0 L300.2,245.4 L302.1,241.8 L304.0,238.3 L305.9,234.9 L307.8,231.5
		L309.7,228.2 L311.6,224.9 L313.5,221.7 L315.3,218.5 L317.2,215.3 L319.1,212.2 L321.0,209.2 L322.9,206.2
		L324.8,203.1 L326.7,200.2 L328.6,197.2 L330.4,194.2 L332.3,191.3 L334.2,188.3 L336.1,185.3 L338.0,182.4
		L339.9,179.4 L341.8,176.4 L343.7,173.5 L345.5,170.5 L347.4,167.5 L349.3,164.6 L351.2,161.6 L353.1,158.7
		L355.0,155.8 L356.9,152.9 L358.8,150.1 L360.6,147.3 L362.5,144.5 L364.4,141.8 L366.3,139.2 L368.2,136.7
		L370.1,134.2 L372.0,131.8 L373.8,129.4 L375.7,127.2 L377.6,125.0 L379.5,122.9 L381.4,120.9 L383.3,119.0
		L385.2,117.2 L387.1,115.4 L388.9,113.7 L390.8,112.1 L392.7,110.6 L394.6,109.1 L396.5,107.7 L398.4,106.4
		L400.3,105.1 L402.2,103.9 L404.0,102.7 L405.9,101.6 L407.8,100.5 L409.7,99.5 L411.6,98.5 L413.5,97.5
		L415.4,96.5 L417.3,95.6 L419.1,94.6 L421.0,93.7 L422.9,92.8 L424.8,91.9 L426.7,91.0 L428.6,90.1
		L430.5,89.3 L432.4,88.5 L434.2,87.7 L436.1,86.9 L438.0,86.2 L439.9,85.5 L441.8,84.9 L443.7,84.4
		L445.6,83.9 L447.4,83.5 L449.3,83.2 L451.2,82.9 L453.1,82.8 L455.0,82.7 L456.9,82.8 L458.8,82.9
		L460.7,83.1 L462.5,83.4 L464.4,83.7 L466.3,84.2 L468.2,84.7 L470.1,85.3 L472.0,85.9 L473.9,86.6
		L475.8,87.3 L477.6,88.1 L479.5,88.9 L481.4,89.8 L483.3,90.7 L485.2,91.7 L487.1,92.7 L489.0,93.8
		L490.9,94.8 L492.7,96.0 L494.6,97.2 L496.5,98.4 L498.4,99.7 L500.3,101.1 L502.2,102.5 L504.1,103.9
		L506.0,105.4 L507.8,107.0 L509.7,108.6 L511.6,110.3 L513.5,112.0 L515.4,113.8 L517.3,115.6 L519.2,117.5
		L521.0,119.4 L522.9,121.3 L524.8,123.3 L526.7,125.3 L528.6,127.3 L530.5,129.4 L532.4,131.5 L534.3,133.6
		L536.1,135.7 L538.0,137.9 L539.9,140.0 L541.8,142.2 L543.7,144.3 L545.6,146.5 L547.5,148.7 L549.4,150.9
		L551.2,153.1 L553.1,155.3 L555.0,157.5 L556.9,159.7 L558.8,161.9 L560.7,164.1 L562.6,166.3 L564.5,168.5
		L566.3,170.7 L568.2,172.9 L570.1,175.1 L572.0,177.2 L573.9,179.4 L575.8,181.5 L577.7,183.7 L579.5,185.8
		L581.4,187.9 L583.3,190.1 L585.2,192.2 L587.1,194.3 L589.0,196.4 L590.9,198.6 L592.8,200.8 L594.6,203.0
		L596.5,205.2 L598.4,207.5 L600.3,209.8 L602.2,212.2 L604.1,214.6 L606.0,217.1 L607.9,219.7 L609.7,222.4
		L611.6,225.1 L613.5,227.8 L615.4,230.7 L617.3,233.5 L619.2,236.5 L621.1,239.5 L623.0,242.5 L624.8,245.6
		L626.7,248.7 L628.6,251.8 L630.5,255.0 L632.4,258.2 L634.3,261.3 L636.2,264.5 L638.1,267.6 L639.9,270.8
		L641.8,273.9 L643.7,277.1 L645.6,280.2 L647.5,283.2 L649.4,286.3 L651.3,289.3 L653.1,292.4 L655.0,295.4
		L656.9,298.3 L658.8,301.3 L660.7,304.2 L662.6,307.1 L664.5,310.0 L666.4,312.8 L668.2,315.6 L670.1,318.4
		L672.0,321.2 L673.9,323.9 L675.8,326.6 L677.7,329.3 L679.6,331.9 L681.5,334.6 L683.3,337.2 L685.2,339.8
		L687.1,342.4 L689.0,344.9 L690.9,347.5 L692.8,350.1 L694.7,352.6 L696.6,355.2 L698.4,357.7 L700.3,360.3
		L702.2,362.9 L704.1,365.5 L706.0,368.1 L707.9,370.7 L709.8,373.3 L711.7,375.9 L713.5,378.5 L715.4,381.1
		L717.3,383.8 L719.2,386.4 L721.1,389.0 L723.0,391.6 L724.9,394.2 L726.7,396.7 L728.6,399.3 L730.5,401.9
		L732.4,404.4 L734.3,406.9 L736.2,409.4 L738.1,411.9 L740.0,414.4 L741.8,416.9 L743.7,419.4 L745.6,421.9
		L747.5,424.4 L749.4,426.8 L751.3,429.3 L753.2,431.8 L755.1,434.3 L756.9,436.8 L758.8,439.3 L760.7,441.9
		L762.6,444.4 L764.5,447.0 L766.4,449.5 L768.3,452.1 L770.2,454.6 L772.0,457.2 L773.9,459.7 L775.8,462.3
		L777.7,464.8 L779.6,467.3 L781.5,469.8 L783.4,472.2 L785.3,474.6 L787.1,477.0 L789.0,479.4 L790.9,481.7
		L792.8,483.9 L794.7,486.2 L796.6,488.3 L798.5,490.5 L800.3,492.6 L802.2,494.7 L804.1,496.7 L806.0,498.7
		L807.9,500.7 L809.8,502.7 L811.7,504.6 L813.6,506.5 L815.4,508.5 L817.3,510.4 L819.2,512.2 L821.1,514.1
		L823.0,516.0 L824.9,517.9 L826.8,519.7 L828.7,521.6 L830.5,523.5 L832.4,525.3 L834.3,527.2 L836.2,529.0
		L838.1,530.8 L840.0,532.7 L841.9,534.5 L843.8,536.2 L845.6,538.0 L847.5,539.7 L849.4,541.5 L851.3,543.2
		L853.2,544.8 L855.1,546.5 L857.0,548.1 L858.9,549.7 L860.7,551.3 L862.6,552.8 L864.5,554.4 L866.4,555.9
		L868.3,557.4 L870.2,558.8 L872.1,560.3 L873.9,561.7 L875.8,563.1 L877.7,564.5 L879.6,565.8 L881.5,567.2
		L883.4,568.5 L885.3,569.8 L887.2,571.0 L889.0,572.3 L890.9,573.5 L892.8,574.7 L894.7,575.8 L896.6,577.0
		L898.5,578.1 L900.4,579.2 L902.3,580.2 L904.1,581.3 L906.0,582.3 L907.9,583.3 L909.8,584.3 L911.7,585.3
		L913.6,586.3 L915.5,587.3 L917.4,588.3 L919.2,589.4 L921.1,590.4 L923.0,591.4 L924.9,592.5 L926.8,593.6
		L928.7,594.7 L930.6,595.8 L932.5,596.9 L934.3,598.0 L936.2,599.1 L938.1,600.2 L940.0,601.4 L941.9,602.5
		L943.8,603.6 L945.7,604.7 L947.5,605.7 L949.4,606.8 L951.3,607.8 L953.2,608.9 L955.1,609.9 L957.0,610.8
		L958.9,611.8 L960.8,612.7 L962.6,613.6 L964.5,614.4 L966.4,615.3 L968.3,616.1 L970.2,616.9 L972.1,617.7
		L974.0,618.4 L975.9,619.1 L977.7,619.8 L979.6,620.5 L981.5,621.2 L983.4,621.9 L985.3,622.5 L987.2,623.2
		L989.1,623.8 L991.0,624.4 L992.8,625.0 L994.7,625.6 L996.6,626.2 L998.5,626.8 L1000.4,627.4 L1002.3,628.0
		L1004.2,628.5 L1006.1,629.1 L1007.9,629.6 L1009.8,630.2 L1011.7,630.7 L1013.6,631.2  '/></g>
	</g>
	<g id="gnuplot_plot_2" ><title>Confidence interval</title>
<g fill="none" color="white" stroke="rgb( 31, 120, 180)" stroke-width="1.00" stroke-linecap="butt" stroke-linejoin="miter">
</g>
<g fill="none" color="black" stroke="currentColor" stroke-width="1.00" stroke-linecap="butt" stroke-linejoin="miter">
	<g transform="translate(1089.0,85.0)" stroke="none" fill="black" font-family="Helvetica" font-size="12.00"  text-anchor="start">
		<text><tspan font-family="Helvetica" >Confidence interval</tspan></text>
	</g>
</g>
<g fill="none" color="black" stroke="currentColor" stroke-width="1.00" stroke-linecap="butt" stroke-linejoin="miter">
	<g stroke='none' shape-rendering='crispEdges'>
		<polygon fill = 'rgb( 31, 120, 180)' fill-opacity = '0.250000' points = '1038.5,85.6 1080.7,85.6 1080.7,76.6 1038.5,76.6 '/>
		<polygon fill = 'rgb( 31, 120, 180)' fill-opacity = '0.250000' points = '158.7,531.0 160.6,528.0 162.5,525.1 164.4,522.1 166.3,519.0 168.1,516.0 170.0,512.9 171.9,509.7 173.8,506.6 175.7,503.3 177.6,500.1 179.5,496.8 181.4,493.4 183.2,490.0 185.1,486.5 187.0,483.0
188.9,479.4 190.8,475.8 192.7,472.1 194.6,468.4 196.5,464.6 198.3,460.7 200.2,456.8 202.1,452.9 204.0,449.0 205.9,445.0 207.8,440.9 209.7,436.9 211.6,432.8 213.4,428.7 215.3,424.6 217.2,420.5
219.1,416.3 221.0,412.1 222.9,408.0 224.8,403.8 226.6,399.6 228.5,395.4 230.4,391.3 232.3,387.1 234.2,382.9 236.1,378.7 238.0,374.6 239.9,370.4 241.7,366.3 243.6,362.1 245.5,358.0 247.4,353.9
249.3,349.8 251.2,345.8 253.1,341.7 255.0,337.7 256.8,333.7 258.7,329.7 260.6,325.7 262.5,321.8 264.4,317.8 266.3,313.9 268.2,310.0 270.1,306.1 271.9,302.2 273.8,298.3 275.7,294.4 277.6,290.5
279.5,286.6 281.4,282.8 283.3,278.9 285.2,275.1 287.0,271.3 288.9,267.5 290.8,263.7 292.7,260.0 294.6,256.3 296.5,252.6 298.4,249.0 300.2,245.4 302.1,241.8 304.0,238.3 305.9,234.9 307.8,231.5
309.7,228.2 311.6,224.9 313.5,221.7 315.3,218.5 317.2,215.3 319.1,212.2 321.0,209.2 322.9,206.2 324.8,203.1 326.7,200.2 328.6,197.2 330.4,194.2 332.3,191.3 334.2,188.3 336.1,185.3 338.0,182.4
339.9,179.4 341.8,176.4 343.7,173.5 345.5,170.5 347.4,167.5 349.3,164.6 351.2,161.6 353.1,158.7 355.0,155.8 356.9,152.9 358.8,150.1 360.6,147.3 362.5,144.5 364.4,141.8 366.3,139.2 368.2,136.7
370.1,134.2 372.0,131.8 373.8,129.4 375.7,127.2 377.6,125.0 379.5,122.9 381.4,120.9 383.3,119.0 385.2,117.2 387.1,115.4 388.9,113.7 390.8,112.1 392.7,110.6 394.6,109.1 396.5,107.7 398.4,106.4
400.3,105.1 402.2,103.9 404.0,102.7 405.9,101.6 407.8,100.5 409.7,99.5 411.6,98.5 413.5,97.5 415.4,96.5 417.3,95.6 419.1,94.6 421.0,93.7 422.9,92.8 424.8,91.9 426.7,91.0 428.6,90.1
430.5,89.3 432.4,88.5 434.2,87.7 436.1,86.9 438.0,86.2 439.9,85.5 441.8,84.9 443.7,84.4 445.6,83.9 447.4,83.5 449.3,83.2 451.2,82.9 453.1,82.8 455.0,82.7 456.9,82.8 458.8,82.9
460.7,83.1 462.5,83.4 464.4,83.7 466.3,84.2 468.2,84.7 470.1,85.3 472.0,85.9 473.9,86.6 475.8,87.3 477.6,88.1 479.5,88.9 481.4,89.8 483.3,90.7 485.2,91.7 487.1,92.7 489.0,93.8
490.9,94.8 492.7,96.0 494.6,97.2 496.5,98.4 498.4,99.7 500.3,101.1 502.2,102.5 504.1,103.9 506.0,105.4 507.8,107.0 509.7,108.6 511.6,110.3 513.5,112.0 515.4,113.8 517.3,115.6 519.2,117.5
521.0,119.4 522.9,121.3 524.8,123.3 526.7,125.3 528.6,127.3 530.5,129.4 532.4,131.5 534.3,133.6 536.1,135.7 538.0,137.9 539.9,140.0 541.8,142.2 543.7,144.3 545.6,146.5 547.5,148.7 549.4,150.9
551.2,153.1 553.1,155.3 555.0,157.5 556.9,159.7 558.8,161.9 560.7,164.1 562.6,166.3 564.5,168.5 566.3,170.7 568.2,172.9 570.1,175.1 572.0,177.2 573.9,179.4 575.8,181.5 577.7,183.7 579.5,185.8
581.4,187.9 583.3,190.1 585.2,192.2 587.1,194.3 589.0,196.4 590.9,198.6 592.8,200.8 594.6,203.0 596.5,205.2 598.4,207.5 600.3,209.8 602.2,212.2 604.1,214.6 606.0,217.1 607.9,219.7 609.7,222.4
611.6,225.1 613.5,227.8 615.4,230.7 617.3,233.5 619.2,236.5 621.1,239.5 623.0,242.5 624.8,245.6 626.7,248.7 628.6,251.8 630.5,255.0 632.4,258.2 634.3,261.3 636.2,264.5 638.1,267.6 639.9,270.8
641.8,273.9 643.7,277.1 645.6,280.2 647.5,283.2 649.4,286.3 651.3,289.3 653.1,292.4 655.0,295.4 656.9,298.3 658.8,301.3 660.7,304.2 662.6,307.1 664.5,310.0 666.4,312.8 668.2,315.6 670.1,318.4
672.0,321.2 673.9,323.9 675.8,326.6 677.7,329.3 679.6,331.9 681.5,334.6 683.3,337.2 685.2,339.8 687.1,342.4 689.0,344.9 690.9,347.5 692.8,350.1 694.7,352.6 696.6,355.2 698.4,357.7 700.3,360.3
702.2,362.9 704.1,365.5 706.0,368.1 707.9,370.7 709.8,373.3 711.7,375.9 713.5,378.5 715.4,381.1 717.3,383.8 719.2,386.4 721.1,389.0 723.0,391.6 724.9,394.2 726.7,396.7 728.6,399.3 730.5,401.9
732.4,404.4 734.3,406.9 736.2,409.4 738.1,411.9 740.0,414.4 741.8,416.9 743.7,419.4 745.6,421.9 747.5,424.4 749.4,426.8 751.3,429.3 753.2,431.8 755.1,434.3 756.9,436.8 758.8,439.3 760.7,441.9
762.6,444.4 764.5,447.0 766.4,449.5 768.3,452.1 770.2,454.6 772.0,457.2 773.9,459.7 775.8,462.3 777.7,464.8 779.6,467.3 781.5,469.8 783.4,472.2 785.3,474.6 787.1,477.0 789.0,479.4 790.9,481.7
792.8,483.9 794.7,486.2 796.6,488.3 798.5,490.5 800.3,492.6 802.2,494.7 804.1,496.7 806.0,498.7 807.9,500.7 809.8,502.7 811.7,504.6 813.6,506.5 815.4,508.5 817.3,510.4 819.2,512.2 821.1,514.1
823.0,516.0 824.9,517.9 826.8,519.7 828.7,521.6 830.5,523.5 832.4,525.3 834.3,527.2 836.2,529.0 838.1,530.8 840.0,532.7 841.9,534.5 843.8,536.2 845.6,538.0 847.5,539.7 849.4,541.5 851.3,543.2
853.2,544.8 855.1,546.5 857.0,548.1 858.9,549.7 860.7,551.3 862.6,552.8 864.5,554.4 866.4,555.9 868.3,557.4 870.2,558.8 872.1,560.3 873.9,561.7 875.8,563.1 877.7,564.5 879.6,565.8 881.5,567.2
883.4,568.5 885.3,569.8 887.2,571.0 889.0,572.3 890.9,573.5 892.8,574.7 894.7,575.8 896.6,577.0 898.5,578.1 900.4,579.2 902.3,580.2 904.1,581.3 906.0,582.3 907.9,583.3 909.8,584.3 911.7,585.3
913.6,586.3 915.5,587.3 917.4,588.3 919.2,589.4 921.1,590.4 923.0,591.4 924.9,592.5 924.9,662.4 923.0,662.4 921.1,662.4 919.2,662.4 917.4,662.4 915.5,662.4 913.6,662.4 911.7,662.4 909.8,662.4
907.9,662.4 906.0,662.4 904.1,662.4 902.3,662.4 900.4,662.4 898.5,662.4 896.6,662.4 894.7,662.4 892.8,662.4 890.9,662.4 889.0,662.4 887.2,662.4 885.3,662.4 883.4,662.4 881.5,662.4 879.6,662.4
877.7,662.4 875.8,662.4 873.9,662.4 872.1,662.4 870.2,662.4 868.3,662.4 866.4,662.4 864.5,662.4 862.6,662.4 860.7,662.4 858.9,662.4 857.0,662.4 855.1,662.4 853.2,662.4 851.3,662.4 849.4,662.4
847.5,662.4 845.6,662.4 843.8,662.4 841.9,662.4 840.0,662.4 838.1,662.4 836.2,662.4 834.3,662.4 832.4,662.4 830.5,662.4 828.7,662.4 826.8,662.4 824.9,662.4 823.0,662.4 821.1,662.4 819.2,662.4
817.3,662.4 815.4,662.4 813.6,662.4 811.7,662.4 809.8,662.4 807.9,662.4 806.0,662.4 804.1,662.4 802.2,662.4 800.3,662.4 798.5,662.4 796.6,662.4 794.7,662.4 792.8,662.4 790.9,662.4 789.0,662.4
787.1,662.4 785.3,662.4 783.4,662.4 781.5,662.4 779.6,662.4 777.7,662.4 775.8,662.4 773.9,662.4 772.0,662.4 770.2,662.4 768.3,662.4 766.4,662.4 764.5,662.4 762.6,662.4 760.7,662.4 758.8,662.4
756.9,662.4 755.1,662.4 753.2,662.4 751.3,662.4 749.4,662.4 747.5,662.4 745.6,662.4 743.7,662.4 741.8,662.4 740.0,662.4 738.1,662.4 736.2,662.4 734.3,662.4 732.4,662.4 730.5,662.4 728.6,662.4
726.7,662.4 724.9,662.4 723.0,662.4 721.1,662.4 719.2,662.4 717.3,662.4 715.4,662.4 713.5,662.4 711.7,662.4 709.8,662.4 707.9,662.4 706.0,662.4 704.1,662.4 702.2,662.4 700.3,662.4 698.4,662.4
696.6,662.4 694.7,662.4 692.8,662.4 690.9,662.4 689.0,662.4 687.1,662.4 685.2,662.4 683.3,662.4 681.5,662.4 679.6,662.4 677.7,662.4 675.8,662.4 673.9,662.4 672.0,662.4 670.1,662.4 668.2,662.4
666.4,662.4 664.5,662.4 662.6,662.4 660.7,662.4 658.8,662.4 656.9,662.4 655.0,662.4 653.1,662.4 651.3,662.4 649.4,662.4 647.5,662.4 645.6,662.4 643.7,662.4 641.8,662.4 639.9,662.4 638.1,662.4
636.2,662.4 634.3,662.4 632.4,662.4 630.5,662.4 628.6,662.4 626.7,662.4 624.8,662.4 623.0,662.4 621.1,662.4 619.2,662.4 617.3,662.4 615.4,662.4 613.5,662.4 611.6,662.4 609.7,662.4 607.9,662.4
606.0,662.4 604.1,662.4 602.2,662.4 600.3,662.4 598.4,662.4 596.5,662.4 594.6,662.4 592.8,662.4 590.9,662.4 589.0,662.4 587.1,662.4 585.2,662.4 583.3,662.4 581.4,662.4 579.5,662.4 577.7,662.4
575.8,662.4 573.9,662.4 572.0,662.4 570.1,662.4 568.2,662.4 566.3,662.4 564.5,662.4 562.6,662.4 560.7,662.4 558.8,662.4 556.9,662.4 555.0,662.4 553.1,662.4 551.2,662.4 549.4,662.4 547.5,662.4
545.6,662.4 543.7,662.4 541.8,662.4 539.9,662.4 538.0,662.4 536.1,662.4 534.3,662.4 532.4,662.4 530.5,662.4 528.6,662.4 526.7,662.4 524.8,662.4 522.9,662.4 521.0,662.4 519.2,662.4 517.3,662.4
515.4,662.4 513.5,662.4 511.6,662.4 509.7,662.4 507.8,662.4 506.0,662.4 504.1,662.4 502.2,662.4 500.3,662.4 498.4,662.4 496.5,662.4 494.6,662.4 492.7,662.4 490.9,662.4 489.0,662.4 487.1,662.4
485.2,662.4 483.3,662.4 481.4,662.4 479.5,662.4 477.6,662.4 475.8,662.4 473.9,662.4 472.0,662.4 470.1,662.4 468.2,662.4 466.3,662.4 464.4,662.4 462.5,662.4 460.7,662.4 458.8,662.4 456.9,662.4
455.0,662.4 453.1,662.4 451.2,662.4 449.3,662.4 447.4,662.4 445.6,662.4 443.7,662.4 441.8,662.4 439.9,662.4 438.0,662.4 436.1,662.4 434.2,662.4 432.4,662.4 430.5,662.4 428.6,662.4 426.7,662.4
424.8,662.4 422.9,662.4 421.0,662.4 419.1,662.4 417.3,662.4 415.4,662.4 413.5,662.4 411.6,662.4 409.7,662.4 407.8,662.4 405.9,662.4 404.0,662.4 402.2,662.4 400.3,662.4 398.4,662.4 396.5,662.4
394.6,662.4 392.7,662.4 390.8,662.4 388.9,662.4 387.1,662.4 385.2,662.4 383.3,662.4 381.4,662.4 379.5,662.4 377.6,662.4 375.7,662.4 373.8,662.4 372.0,662.4 370.1,662.4 368.2,662.4 366.3,662.4
364.4,662.4 362.5,662.4 360.6,662.4 358.8,662.4 356.9,662.4 355.0,662.4 353.1,662.4 351.2,662.4 349.3,662.4 347.4,662.4 345.5,662.4 343.7,662.4 341.8,662.4 339.9,662.4 338.0,662.4 336.1,662.4
334.2,662.4 332.3,662.4 330.4,662.4 328.6,662.4 326.7,662.4 324.8,662.4 322.9,662.4 321.0,662.4 319.1,662.4 317.2,662.4 315.3,662.4 313.5,662.4 311.6,662.4 309.7,662.4 307.8,662.4 305.9,662.4
304.0,662.4 302.1,662.4 300.2,662.4 298.4,662.4 296.5,662.4 294.6,662.4 292.7,662.4 290.8,662.4 288.9,662.4 287.0,662.4 285.2,662.4 283.3,662.4 281.4,662.4 279.5,662.4 277.6,662.4 275.7,662.4
273.8,662.4 271.9,662.4 270.1,662.4 268.2,662.4 266.3,662.4 264.4,662.4 262.5,662.4 260.6,662.4 258.7,662.4 256.8,662.4 255.0,662.4 253.1,662.4 251.2,662.4 249.3,662.4 247.4,662.4 245.5,662.4
243.6,662.4 241.7,662.4 239.9,662.4 238.0,662.4 236.1,662.4 234.2,662.4 232.3,662.4 230.4,662.4 228.5,662.4 226.6,662.4 224.8,662.4 222.9,662.4 221.0,662.4 219.1,662.4 217.2,662.4 215.3,662.4
213.4,662.4 211.6,662.4 209.7,662.4 207.8,662.4 205.9,662.4 204.0,662.4 202.1,662.4 200.2,662.4 198.3,662.4 196.5,662.4 194.6,662.4 192.7,662.4 190.8,662.4 188.9,662.4 187.0,662.4 185.1,662.4
183.2,662.4 181.4,662.4 179.5,662.4 177.6,662.4 175.7,662.4 173.8,662.4 171.9,662.4 170.0,662.4 168.1,662.4 166.3,662.4 164.4,662.4 162.5,662.4 160.6,662.4 158.7,662.4 '/>
	</g>
</g>
	</g>
	<g id="gnuplot_plot_3" ><title>Point estimate</title>
<g fill="none" color="white" stroke="rgb( 31, 120, 180)" stroke-width="2.00" stroke-linecap="butt" stroke-linejoin="miter">
</g>
<g fill="none" color="black" stroke="currentColor" stroke-width="2.00" stroke-linecap="butt" stroke-linejoin="miter">
	<g transform="translate(1089.0,103.0)" stroke="none" fill="black" font-family="Helvetica" font-size="12.00"  text-anchor="start">
		<text><tspan font-family="Helvetica" >Point estimate</tspan></text>
	</g>
</g>
<g fill="none" color="black" stroke="currentColor" stroke-width="2.00" stroke-linecap="butt" stroke-linejoin="miter">
	<path stroke='rgb( 31, 120, 180)'  d='M1038.5,99.1 L1080.7,99.1 M497.7,662.4 L497.7,99.2  '/></g>
	</g>
<g fill="none" color="black" stroke="currentColor" stroke-width="2.00" stroke-linecap="butt" stroke-linejoin="miter">
</g>
<g fill="none" color="black" stroke="black" stroke-width="1.00" stroke-linecap="butt" stroke-linejoin="miter">
</g>
<g fill="none" color="black" stroke="currentColor" stroke-width="1.00" stroke-linecap="butt" stroke-linejoin="miter">
	<path stroke='black'  d='M71.9,54.1 L71.9,662.4 L1013.6,662.4 L1013.6,54.1 L71.9,54.1 Z  '/></g>
<g fill="none" color="black" stroke="currentColor" stroke-width="1.00" stroke-linecap="butt" stroke-linejoin="miter">
</g>
</g>
</svg>

