<?xml version="1.0" encoding="utf-8"  standalone="no"?>
<svg 
 viewBox="0 0 1280 720"
 xmlns="http://www.w3.org/2000/svg"
 xmlns:xlink="http://www.w3.org/1999/xlink"
>

<title>Gnuplot</title>
<desc>Produced by GNUPLOT 5.2 patchlevel 6 </desc>

<g id="gnuplot_canvas">

<rect x="0" y="0" width="1280" height="720" fill="none"/>
<defs>

	<circle id='gpDot' r='0.5' stroke-width='0.5' stroke='currentColor'/>
	<path id='gpPt0' stroke-width='0.222' stroke='currentColor' d='M-1,0 h2 M0,-1 v2'/>
	<path id='gpPt1' stroke-width='0.222' stroke='currentColor' d='M-1,-1 L1,1 M1,-1 L-1,1'/>
	<path id='gpPt2' stroke-width='0.222' stroke='currentColor' d='M-1,0 L1,0 M0,-1 L0,1 M-1,-1 L1,1 M-1,1 L1,-1'/>
	<rect id='gpPt3' stroke-width='0.222' stroke='currentColor' x='-1' y='-1' width='2' height='2'/>
	<rect id='gpPt4' stroke-width='0.222' stroke='currentColor' fill='currentColor' x='-1' y='-1' width='2' height='2'/>
	<circle id='gpPt5' stroke-width='0.222' stroke='currentColor' cx='0' cy='0' r='1'/>
	<use xlink:href='#gpPt5' id='gpPt6' fill='currentColor' stroke='none'/>
	<path id='gpPt7' stroke-width='0.222' stroke='currentColor' d='M0,-1.33 L-1.33,0.67 L1.33,0.67 z'/>
	<use xlink:href='#gpPt7' id='gpPt8' fill='currentColor' stroke='none'/>
	<use xlink:href='#gpPt7' id='gpPt9' stroke='currentColor' transform='rotate(180)'/>
	<use xlink:href='#gpPt9' id='gpPt10' fill='currentColor' stroke='none'/>
	<use xlink:href='#gpPt3' id='gpPt11' stroke='currentColor' transform='rotate(45)'/>
	<use xlink:href='#gpPt11' id='gpPt12' fill='currentColor' stroke='none'/>
	<path id='gpPt13' stroke-width='0.222' stroke='currentColor' d='M0,1.330 L1.265,0.411 L0.782,-1.067 L-0.782,-1.076 L-1.265,0.411 z'/>
	<use xlink:href='#gpPt13' id='gpPt14' fill='currentColor' stroke='none'/>
	<filter id='textbox' filterUnits='objectBoundingBox' x='0' y='0' height='1' width='1'>
	  <feFlood flood-color='white' flood-opacity='1' result='bgnd'/>
	  <feComposite in='SourceGraphic' in2='bgnd' operator='atop'/>
	</filter>
	<filter id='greybox' filterUnits='objectBoundingBox' x='0' y='0' height='1' width='1'>
	  <feFlood flood-color='lightgrey' flood-opacity='1' result='grey'/>
	  <feComposite in='SourceGraphic' in2='grey' operator='atop'/>
	</filter>
</defs>
<g fill="none" color="white" stroke="currentColor" stroke-width="1.00" stroke-linecap="butt" stroke-linejoin="miter">
</g>
<g fill="none" color="black" stroke="currentColor" stroke-width="1.00" stroke-linecap="butt" stroke-linejoin="miter">
	<path stroke='black'  d='M63.6,662.4 L72.6,662.4  '/>	<g transform="translate(55.3,666.3)" stroke="none" fill="black" font-family="Helvetica" font-size="12.00"  text-anchor="end">
		<text><tspan font-family="Helvetica" > 0</tspan></text>
	</g>
</g>
<g fill="none" color="black" stroke="currentColor" stroke-width="1.00" stroke-linecap="butt" stroke-linejoin="miter">
	<path stroke='black'  d='M63.6,575.5 L72.6,575.5  '/>	<g transform="translate(55.3,579.4)" stroke="none" fill="black" font-family="Helvetica" font-size="12.00"  text-anchor="end">
		<text><tspan font-family="Helvetica" > 2</tspan></text>
	</g>
</g>
<g fill="none" color="black" stroke="currentColor" stroke-width="1.00" stroke-linecap="butt" stroke-linejoin="miter">
	<path stroke='black'  d='M63.6,488.6 L72.6,488.6  '/>	<g transform="translate(55.3,492.5)" stroke="none" fill="black" font-family="Helvetica" font-size="12.00"  text-anchor="end">
		<text><tspan font-family="Helvetica" > 4</tspan></text>
	</g>
</g>
<g fill="none" color="black" stroke="currentColor" stroke-width="1.00" stroke-linecap="butt" stroke-linejoin="miter">
	<path stroke='black'  d='M63.6,401.7 L72.6,401.7  '/>	<g transform="translate(55.3,405.6)" stroke="none" fill="black" font-family="Helvetica" font-size="12.00"  text-anchor="end">
		<text><tspan font-family="Helvetica" > 6</tspan></text>
	</g>
</g>
<g fill="none" color="black" stroke="currentColor" stroke-width="1.00" stroke-linecap="butt" stroke-linejoin="miter">
	<path stroke='black'  d='M63.6,314.8 L72.6,314.8  '/>	<g transform="translate(55.3,318.7)" stroke="none" fill="black" font-family="Helvetica" font-size="12.00"  text-anchor="end">
		<text><tspan font-family="Helvetica" > 8</tspan></text>
	</g>
</g>
<g fill="none" color="black" stroke="currentColor" stroke-width="1.00" stroke-linecap="butt" stroke-linejoin="miter">
	<path stroke='black'  d='M63.6,227.9 L72.6,227.9  '/>	<g transform="translate(55.3,231.8)" stroke="none" fill="black" font-family="Helvetica" font-size="12.00"  text-anchor="end">
		<text><tspan font-family="Helvetica" > 10</tspan></text>
	</g>
</g>
<g fill="none" color="black" stroke="currentColor" stroke-width="1.00" stroke-linecap="butt" stroke-linejoin="miter">
	<path stroke='black'  d='M63.6,141.0 L72.6,141.0  '/>	<g transform="translate(55.3,144.9)" stroke="none" fill="black" font-family="Helvetica" font-size="12.00"  text-anchor="end">
		<text><tspan font-family="Helvetica" > 12</tspan></text>
	</g>
</g>
<g fill="none" color="black" stroke="currentColor" stroke-width="1.00" stroke-linecap="butt" stroke-linejoin="miter">
	<path stroke='black'  d='M63.6,54.1 L72.6,54.1  '/>	<g transform="translate(55.3,58.0)" stroke="none" fill="black" font-family="Helvetica" font-size="12.00"  text-anchor="end">
		<text><tspan font-family="Helvetica" > 14</tspan></text>
	</g>
</g>
<g fill="none" color="black" stroke="currentColor" stroke-width="1.00" stroke-linecap="butt" stroke-linejoin="miter">
	<path stroke='black'  d='M134.1,662.4 L134.1,653.4  '/>	<g transform="translate(134.1,684.3)" stroke="none" fill="black" font-family="Helvetica" font-size="12.00"  text-anchor="middle">
		<text><tspan font-family="Helvetica" > 128.52</tspan></text>
	</g>
</g>
<g fill="none" color="black" stroke="currentColor" stroke-width="1.00" stroke-linecap="butt" stroke-linejoin="miter">
	<path stroke='black'  d='M258.3,662.4 L258.3,653.4  '/>	<g transform="translate(258.3,684.3)" stroke="none" fill="black" font-family="Helvetica" font-size="12.00"  text-anchor="middle">
		<text><tspan font-family="Helvetica" > 128.54</tspan></text>
	</g>
</g>
<g fill="none" color="black" stroke="currentColor" stroke-width="1.00" stroke-linecap="butt" stroke-linejoin="miter">
	<path stroke='black'  d='M382.5,662.4 L382.5,653.4  '/>	<g transform="translate(382.5,684.3)" stroke="none" fill="black" font-family="Helvetica" font-size="12.00"  text-anchor="middle">
		<text><tspan font-family="Helvetica" > 128.56</tspan></text>
	</g>
</g>
<g fill="none" color="black" stroke="currentColor" stroke-width="1.00" stroke-linecap="butt" stroke-linejoin="miter">
	<path stroke='black'  d='M506.8,662.4 L506.8,653.4  '/>	<g transform="translate(506.8,684.3)" stroke="none" fill="black" font-family="Helvetica" font-size="12.00"  text-anchor="middle">
		<text><tspan font-family="Helvetica" > 128.58</tspan></text>
	</g>
</g>
<g fill="none" color="black" stroke="currentColor" stroke-width="1.00" stroke-linecap="butt" stroke-linejoin="miter">
	<path stroke='black'  d='M631.0,662.4 L631.0,653.4  '/>	<g transform="translate(631.0,684.3)" stroke="none" fill="black" font-family="Helvetica" font-size="12.00"  text-anchor="middle">
		<text><tspan font-family="Helvetica" > 128.6</tspan></text>
	</g>
</g>
<g fill="none" color="black" stroke="currentColor" stroke-width="1.00" stroke-linecap="butt" stroke-linejoin="miter">
	<path stroke='black'  d='M755.2,662.4 L755.2,653.4  '/>	<g transform="translate(755.2,684.3)" stroke="none" fill="black" font-family="Helvetica" font-size="12.00"  text-anchor="middle">
		<text><tspan font-family="Helvetica" > 128.62</tspan></text>
	</g>
</g>
<g fill="none" color="black" stroke="currentColor" stroke-width="1.00" stroke-linecap="butt" stroke-linejoin="miter">
	<path stroke='black'  d='M879.5,662.4 L879.5,653.4  '/>	<g transform="translate(879.5,684.3)" stroke="none" fill="black" font-family="Helvetica" font-size="12.00"  text-anchor="middle">
		<text><tspan font-family="Helvetica" > 128.64</tspan></text>
	</g>
</g>
<g fill="none" color="black" stroke="currentColor" stroke-width="1.00" stroke-linecap="butt" stroke-linejoin="miter">
	<path stroke='black'  d='M1003.7,662.4 L1003.7,653.4  '/>	<g transform="translate(1003.7,684.3)" stroke="none" fill="black" font-family="Helvetica" font-size="12.00"  text-anchor="middle">
		<text><tspan font-family="Helvetica" > 128.66</tspan></text>
	</g>
</g>
<g fill="none" color="black" stroke="currentColor" stroke-width="1.00" stroke-linecap="butt" stroke-linejoin="miter">
</g>
<g fill="none" color="black" stroke="currentColor" stroke-width="1.00" stroke-linecap="butt" stroke-linejoin="miter">
	<path stroke='black'  d='M63.6,54.1 L63.6,662.4 L1013.6,662.4 L1013.6,54.1 L63.6,54.1 Z  '/></g>
<g fill="none" color="black" stroke="currentColor" stroke-width="1.00" stroke-linecap="butt" stroke-linejoin="miter">
	<g transform="translate(16.3,358.3) rotate(270)" stroke="none" fill="black" font-family="Helvetica" font-size="12.00"  text-anchor="middle">
		<text><tspan font-family="Helvetica" >Density (a.u.)</tspan></text>
	</g>
</g>
<g fill="none" color="black" stroke="currentColor" stroke-width="1.00" stroke-linecap="butt" stroke-linejoin="miter">
	<g transform="translate(538.6,711.3)" stroke="none" fill="black" font-family="Helvetica" font-size="12.00"  text-anchor="middle">
		<text><tspan font-family="Helvetica" >Average time (us)</tspan></text>
	</g>
</g>
<g fill="none" color="black" stroke="currentColor" stroke-width="1.00" stroke-linecap="butt" stroke-linejoin="miter">
	<g transform="translate(538.6,31.0)" stroke="none" fill="black" font-family="Helvetica" font-size="12.00"  text-anchor="middle">
		<text><tspan font-family="Helvetica" >snapshot_restore_with_dense/Sparse: Entire region + process_vm_writev/22: slope</tspan></text>
	</g>
</g>
	<g id="gnuplot_plot_1" ><title>Bootstrap distribution</title>
<g fill="none" color="white" stroke="black" stroke-width="2.00" stroke-linecap="butt" stroke-linejoin="miter">
</g>
<g fill="none" color="black" stroke="currentColor" stroke-width="2.00" stroke-linecap="butt" stroke-linejoin="miter">
	<g transform="translate(1089.0,67.0)" stroke="none" fill="black" font-family="Helvetica" font-size="12.00"  text-anchor="start">
		<text><tspan font-family="Helvetica" >Bootstrap distribution</tspan></text>
	</g>
</g>
<g fill="none" color="black" stroke="currentColor" stroke-width="2.00" stroke-linecap="butt" stroke-linejoin="miter">
	<path stroke='rgb( 31, 120, 180)'  d='M1038.5,63.1 L1080.7,63.1 M63.6,638.3 L65.5,637.0 L67.4,635.5 L69.3,634.1 L71.2,632.5 L73.1,630.9
		L75.0,629.2 L76.9,627.5 L78.8,625.7 L80.7,623.8 L82.6,621.8 L84.5,619.8 L86.4,617.8 L88.3,615.6
		L90.3,613.5 L92.2,611.2 L94.1,608.9 L96.0,606.5 L97.9,604.1 L99.8,601.5 L101.7,599.0 L103.6,596.3
		L105.5,593.6 L107.4,590.8 L109.3,587.9 L111.2,585.0 L113.1,581.9 L115.0,578.8 L116.9,575.6 L118.8,572.3
		L120.7,568.9 L122.6,565.4 L124.5,561.9 L126.4,558.2 L128.3,554.4 L130.2,550.5 L132.1,546.6 L134.0,542.5
		L135.9,538.4 L137.8,534.1 L139.8,529.8 L141.7,525.4 L143.6,520.9 L145.5,516.3 L147.4,511.6 L149.3,506.9
		L151.2,502.1 L153.1,497.3 L155.0,492.4 L156.9,487.5 L158.8,482.5 L160.7,477.4 L162.6,472.4 L164.5,467.2
		L166.4,462.1 L168.3,456.9 L170.2,451.6 L172.1,446.4 L174.0,441.1 L175.9,435.7 L177.8,430.3 L179.7,424.9
		L181.6,419.4 L183.5,413.9 L185.4,408.4 L187.3,402.8 L189.3,397.2 L191.2,391.6 L193.1,385.9 L195.0,380.2
		L196.9,374.5 L198.8,368.8 L200.7,363.1 L202.6,357.3 L204.5,351.6 L206.4,345.9 L208.3,340.2 L210.2,334.5
		L212.1,328.9 L214.0,323.3 L215.9,317.8 L217.8,312.3 L219.7,306.9 L221.6,301.6 L223.5,296.4 L225.4,291.2
		L227.3,286.2 L229.2,281.3 L231.1,276.4 L233.0,271.7 L234.9,267.1 L236.8,262.7 L238.8,258.3 L240.7,254.1
		L242.6,250.0 L244.5,246.1 L246.4,242.3 L248.3,238.6 L250.2,235.1 L252.1,231.7 L254.0,228.4 L255.9,225.3
		L257.8,222.3 L259.7,219.4 L261.6,216.7 L263.5,214.1 L265.4,211.6 L267.3,209.2 L269.2,206.9 L271.1,204.7
		L273.0,202.5 L274.9,200.5 L276.8,198.5 L278.7,196.5 L280.6,194.6 L282.5,192.7 L284.4,190.9 L286.3,189.1
		L288.2,187.3 L290.2,185.6 L292.1,183.8 L294.0,182.1 L295.9,180.4 L297.8,178.8 L299.7,177.2 L301.6,175.6
		L303.5,174.0 L305.4,172.5 L307.3,171.1 L309.2,169.7 L311.1,168.4 L313.0,167.2 L314.9,166.0 L316.8,164.9
		L318.7,163.9 L320.6,163.0 L322.5,162.2 L324.4,161.4 L326.3,160.7 L328.2,160.1 L330.1,159.6 L332.0,159.1
		L333.9,158.6 L335.8,158.2 L337.7,157.9 L339.7,157.6 L341.6,157.3 L343.5,157.0 L345.4,156.7 L347.3,156.3
		L349.2,156.0 L351.1,155.6 L353.0,155.2 L354.9,154.8 L356.8,154.3 L358.7,153.8 L360.6,153.2 L362.5,152.5
		L364.4,151.8 L366.3,151.1 L368.2,150.3 L370.1,149.4 L372.0,148.5 L373.9,147.6 L375.8,146.6 L377.7,145.6
		L379.6,144.5 L381.5,143.4 L383.4,142.4 L385.3,141.2 L387.2,140.1 L389.2,139.0 L391.1,137.9 L393.0,136.8
		L394.9,135.7 L396.8,134.7 L398.7,133.7 L400.6,132.7 L402.5,131.8 L404.4,131.0 L406.3,130.2 L408.2,129.5
		L410.1,128.9 L412.0,128.4 L413.9,128.0 L415.8,127.7 L417.7,127.5 L419.6,127.3 L421.5,127.3 L423.4,127.3
		L425.3,127.5 L427.2,127.7 L429.1,128.0 L431.0,128.4 L432.9,128.9 L434.8,129.4 L436.7,130.0 L438.7,130.6
		L440.6,131.3 L442.5,132.0 L444.4,132.8 L446.3,133.7 L448.2,134.6 L450.1,135.5 L452.0,136.6 L453.9,137.6
		L455.8,138.8 L457.7,140.0 L459.6,141.2 L461.5,142.6 L463.4,144.0 L465.3,145.4 L467.2,147.0 L469.1,148.6
		L471.0,150.3 L472.9,152.1 L474.8,153.9 L476.7,155.8 L478.6,157.8 L480.5,159.8 L482.4,161.8 L484.3,163.9
		L486.2,166.0 L488.1,168.2 L490.1,170.3 L492.0,172.5 L493.9,174.7 L495.8,176.9 L497.7,179.1 L499.6,181.3
		L501.5,183.6 L503.4,185.8 L505.3,188.0 L507.2,190.3 L509.1,192.5 L511.0,194.8 L512.9,197.1 L514.8,199.4
		L516.7,201.8 L518.6,204.2 L520.5,206.6 L522.4,209.0 L524.3,211.5 L526.2,213.9 L528.1,216.4 L530.0,219.0
		L531.9,221.5 L533.8,224.0 L535.7,226.6 L537.6,229.1 L539.6,231.7 L541.5,234.2 L543.4,236.7 L545.3,239.3
		L547.2,241.8 L549.1,244.3 L551.0,246.7 L552.9,249.2 L554.8,251.6 L556.7,254.1 L558.6,256.5 L560.5,258.9
		L562.4,261.4 L564.3,263.8 L566.2,266.2 L568.1,268.6 L570.0,271.0 L571.9,273.5 L573.8,275.9 L575.7,278.4
		L577.6,280.8 L579.5,283.3 L581.4,285.7 L583.3,288.2 L585.2,290.7 L587.1,293.1 L589.1,295.6 L591.0,298.0
		L592.9,300.5 L594.8,303.0 L596.7,305.4 L598.6,307.8 L600.5,310.3 L602.4,312.7 L604.3,315.2 L606.2,317.6
		L608.1,320.0 L610.0,322.5 L611.9,324.9 L613.8,327.4 L615.7,329.8 L617.6,332.3 L619.5,334.8 L621.4,337.2
		L623.3,339.7 L625.2,342.2 L627.1,344.7 L629.0,347.1 L630.9,349.6 L632.8,352.1 L634.7,354.6 L636.6,357.0
		L638.5,359.5 L640.5,361.9 L642.4,364.3 L644.3,366.7 L646.2,369.1 L648.1,371.5 L650.0,373.8 L651.9,376.1
		L653.8,378.4 L655.7,380.7 L657.6,383.0 L659.5,385.2 L661.4,387.4 L663.3,389.6 L665.2,391.8 L667.1,394.0
		L669.0,396.2 L670.9,398.3 L672.8,400.5 L674.7,402.6 L676.6,404.8 L678.5,406.9 L680.4,409.0 L682.3,411.2
		L684.2,413.3 L686.1,415.5 L688.0,417.6 L690.0,419.8 L691.9,422.0 L693.8,424.1 L695.7,426.3 L697.6,428.5
		L699.5,430.6 L701.4,432.8 L703.3,435.0 L705.2,437.1 L707.1,439.3 L709.0,441.4 L710.9,443.5 L712.8,445.6
		L714.7,447.7 L716.6,449.8 L718.5,451.8 L720.4,453.9 L722.3,455.9 L724.2,457.9 L726.1,459.9 L728.0,461.9
		L729.9,463.8 L731.8,465.7 L733.7,467.7 L735.6,469.6 L737.5,471.5 L739.5,473.4 L741.4,475.3 L743.3,477.2
		L745.2,479.1 L747.1,481.0 L749.0,482.9 L750.9,484.8 L752.8,486.7 L754.7,488.7 L756.6,490.6 L758.5,492.5
		L760.4,494.3 L762.3,496.2 L764.2,498.1 L766.1,500.0 L768.0,501.8 L769.9,503.6 L771.8,505.5 L773.7,507.2
		L775.6,509.0 L777.5,510.7 L779.4,512.4 L781.3,514.1 L783.2,515.7 L785.1,517.3 L787.0,518.9 L789.0,520.4
		L790.9,521.9 L792.8,523.4 L794.7,524.9 L796.6,526.3 L798.5,527.7 L800.4,529.1 L802.3,530.5 L804.2,531.8
		L806.1,533.2 L808.0,534.5 L809.9,535.9 L811.8,537.2 L813.7,538.5 L815.6,539.9 L817.5,541.2 L819.4,542.5
		L821.3,543.9 L823.2,545.2 L825.1,546.6 L827.0,547.9 L828.9,549.3 L830.8,550.6 L832.7,552.0 L834.6,553.4
		L836.5,554.8 L838.4,556.1 L840.4,557.5 L842.3,558.9 L844.2,560.2 L846.1,561.6 L848.0,563.0 L849.9,564.3
		L851.8,565.6 L853.7,567.0 L855.6,568.3 L857.5,569.6 L859.4,570.8 L861.3,572.1 L863.2,573.3 L865.1,574.5
		L867.0,575.7 L868.9,576.9 L870.8,578.0 L872.7,579.1 L874.6,580.2 L876.5,581.3 L878.4,582.4 L880.3,583.5
		L882.2,584.5 L884.1,585.5 L886.0,586.5 L887.9,587.5 L889.9,588.5 L891.8,589.4 L893.7,590.4 L895.6,591.3
		L897.5,592.3 L899.4,593.2 L901.3,594.1 L903.2,595.0 L905.1,595.9 L907.0,596.7 L908.9,597.6 L910.8,598.5
		L912.7,599.3 L914.6,600.2 L916.5,601.0 L918.4,601.8 L920.3,602.7 L922.2,603.5 L924.1,604.3 L926.0,605.1
		L927.9,605.9 L929.8,606.7 L931.7,607.6 L933.6,608.4 L935.5,609.2 L937.4,610.0 L939.4,610.8 L941.3,611.6
		L943.2,612.4 L945.1,613.2 L947.0,613.9 L948.9,614.7 L950.8,615.5 L952.7,616.3 L954.6,617.0 L956.5,617.7
		L958.4,618.5 L960.3,619.2 L962.2,619.9 L964.1,620.6 L966.0,621.2 L967.9,621.9 L969.8,622.5 L971.7,623.1
		L973.6,623.7 L975.5,624.3 L977.4,624.9 L979.3,625.4 L981.2,625.9 L983.1,626.4 L985.0,626.9 L986.9,627.4
		L988.9,627.9 L990.8,628.3 L992.7,628.8 L994.6,629.2 L996.5,629.6 L998.4,630.0 L1000.3,630.5 L1002.2,630.9
		L1004.1,631.3 L1006.0,631.7 L1007.9,632.1 L1009.8,632.5 L1011.7,633.0 L1013.6,633.4  '/></g>
	</g>
	<g id="gnuplot_plot_2" ><title>Confidence interval</title>
<g fill="none" color="white" stroke="rgb( 31, 120, 180)" stroke-width="1.00" stroke-linecap="butt" stroke-linejoin="miter">
</g>
<g fill="none" color="black" stroke="currentColor" stroke-width="1.00" stroke-linecap="butt" stroke-linejoin="miter">
	<g transform="translate(1089.0,85.0)" stroke="none" fill="black" font-family="Helvetica" font-size="12.00"  text-anchor="start">
		<text><tspan font-family="Helvetica" >Confidence interval</tspan></text>
	</g>
</g>
<g fill="none" color="black" stroke="currentColor" stroke-width="1.00" stroke-linecap="butt" stroke-linejoin="miter">
	<g stroke='none' shape-rendering='crispEdges'>
		<polygon fill = 'rgb( 31, 120, 180)' fill-opacity = '0.250000' points = '1038.5,85.6 1080.7,85.6 1080.7,76.6 1038.5,76.6 '/>
		<polygon fill = 'rgb( 31, 120, 180)' fill-opacity = '0.250000' points = '151.2,502.1 153.1,497.3 155.0,492.4 156.9,487.5 158.8,482.5 160.7,477.4 162.6,472.4 164.5,467.2 166.4,462.1 168.3,456.9 170.2,451.6 172.1,446.4 174.0,441.1 175.9,435.7 177.8,430.3 179.7,424.9
181.6,419.4 183.5,413.9 185.4,408.4 187.3,402.8 189.3,397.2 191.2,391.6 193.1,385.9 195.0,380.2 196.9,374.5 198.8,368.8 200.7,363.1 202.6,357.3 204.5,351.6 206.4,345.9 208.3,340.2 210.2,334.5
212.1,328.9 214.0,323.3 215.9,317.8 217.8,312.3 219.7,306.9 221.6,301.6 223.5,296.4 225.4,291.2 227.3,286.2 229.2,281.3 231.1,276.4 233.0,271.7 234.9,267.1 236.8,262.7 238.8,258.3 240.7,254.1
242.6,250.0 244.5,246.1 246.4,242.3 248.3,238.6 250.2,235.1 252.1,231.7 254.0,228.4 255.9,225.3 257.8,222.3 259.7,219.4 261.6,216.7 263.5,214.1 265.4,211.6 267.3,209.2 269.2,206.9 271.1,204.7
273.0,202.5 274.9,200.5 276.8,198.5 278.7,196.5 280.6,194.6 282.5,192.7 284.4,190.9 286.3,189.1 288.2,187.3 290.2,185.6 292.1,183.8 294.0,182.1 295.9,180.4 297.8,178.8 299.7,177.2 301.6,175.6
303.5,174.0 305.4,172.5 307.3,171.1 309.2,169.7 311.1,168.4 313.0,167.2 314.9,166.0 316.8,164.9 318.7,163.9 320.6,163.0 322.5,162.2 324.4,161.4 326.3,160.7 328.2,160.1 330.1,159.6 332.0,159.1
333.9,158.6 335.8,158.2 337.7,157.9 339.7,157.6 341.6,157.3 343.5,157.0 345.4,156.7 347.3,156.3 349.2,156.0 351.1,155.6 353.0,155.2 354.9,154.8 356.8,154.3 358.7,153.8 360.6,153.2 362.5,152.5
364.4,151.8 366.3,151.1 368.2,150.3 370.1,149.4 372.0,148.5 373.9,147.6 375.8,146.6 377.7,145.6 379.6,144.5 381.5,143.4 383.4,142.4 385.3,141.2 387.2,140.1 389.2,139.0 391.1,137.9 393.0,136.8
394.9,135.7 396.8,134.7 398.7,133.7 400.6,132.7 402.5,131.8 404.4,131.0 406.3,130.2 408.2,129.5 410.1,128.9 412.0,128.4 413.9,128.0 415.8,127.7 417.7,127.5 419.6,127.3 421.5,127.3 423.4,127.3
425.3,127.5 427.2,127.7 429.1,128.0 431.0,128.4 432.9,128.9 434.8,129.4 436.7,130.0 438.7,130.6 440.6,131.3 442.5,132.0 444.4,132.8 446.3,133.7 448.2,134.6 450.1,135.5 452.0,136.6 453.9,137.6
455.8,138.8 457.7,140.0 459.6,141.2 461.5,142.6 463.4,144.0 465.3,145.4 467.2,147.0 469.1,148.6 471.0,150.3 472.9,152.1 474.8,153.9 476.7,155.8 478.6,157.8 480.5,159.8 482.4,161.8 484.3,163.9
486.2,166.0 488.1,168.2 490.1,170.3 492.0,172.5 493.9,174.7 495.8,176.9 497.7,179.1 499.6,181.3 501.5,183.6 503.4,185.8 505.3,188.0 507.2,190.3 509.1,192.5 511.0,194.8 512.9,197.1 514.8,199.4
516.7,201.8 518.6,204.2 520.5,206.6 522.4,209.0 524.3,211.5 526.2,213.9 528.1,216.4 530.0,219.0 531.9,221.5 533.8,224.0 535.7,226.6 537.6,229.1 539.6,231.7 541.5,234.2 543.4,236.7 545.3,239.3
547.2,241.8 549.1,244.3 551.0,246.7 552.9,249.2 554.8,251.6 556.7,254.1 558.6,256.5 560.5,258.9 562.4,261.4 564.3,263.8 566.2,266.2 568.1,268.6 570.0,271.0 571.9,273.5 573.8,275.9 575.7,278.4
577.6,280.8 579.5,283.3 581.4,285.7 583.3,288.2 585.2,290.7 587.1,293.1 589.1,295.6 591.0,298.0 592.9,300.5 594.8,303.0 596.7,305.4 598.6,307.8 600.5,310.3 602.4,312.7 604.3,315.2 606.2,317.6
608.1,320.0 610.0,322.5 611.9,324.9 613.8,327.4 615.7,329.8 617.6,332.3 619.5,334.8 621.4,337.2 623.3,339.7 625.2,342.2 627.1,344.7 629.0,347.1 630.9,349.6 632.8,352.1 634.7,354.6 636.6,357.0
638.5,359.5 640.5,361.9 642.4,364.3 644.3,366.7 646.2,369.1 648.1,371.5 650.0,373.8 651.9,376.1 653.8,378.4 655.7,380.7 657.6,383.0 659.5,385.2 661.4,387.4 663.3,389.6 665.2,391.8 667.1,394.0
669.0,396.2 670.9,398.3 672.8,400.5 674.7,402.6 676.6,404.8 678.5,406.9 680.4,409.0 682.3,411.2 684.2,413.3 686.1,415.5 688.0,417.6 690.0,419.8 691.9,422.0 693.8,424.1 695.7,426.3 697.6,428.5
699.5,430.6 701.4,432.8 703.3,435.0 705.2,437.1 707.1,439.3 709.0,441.4 710.9,443.5 712.8,445.6 714.7,447.7 716.6,449.8 718.5,451.8 720.4,453.9 722.3,455.9 724.2,457.9 726.1,459.9 728.0,461.9
729.9,463.8 731.8,465.7 733.7,467.7 735.6,469.6 737.5,471.5 739.5,473.4 741.4,475.3 743.3,477.2 745.2,479.1 747.1,481.0 749.0,482.9 750.9,484.8 752.8,486.7 754.7,488.7 756.6,490.6 758.5,492.5
760.4,494.3 762.3,496.2 764.2,498.1 766.1,500.0 768.0,501.8 769.9,503.6 771.8,505.5 773.7,507.2 775.6,509.0 777.5,510.7 779.4,512.4 781.3,514.1 783.2,515.7 785.1,517.3 787.0,518.9 789.0,520.4
790.9,521.9 792.8,523.4 794.7,524.9 796.6,526.3 798.5,527.7 800.4,529.1 802.3,530.5 804.2,531.8 806.1,533.2 808.0,534.5 809.9,535.9 811.8,537.2 813.7,538.5 815.6,539.9 817.5,541.2 819.4,542.5
821.3,543.9 823.2,545.2 825.1,546.6 827.0,547.9 828.9,549.3 830.8,550.6 832.7,552.0 834.6,553.4 836.5,554.8 838.4,556.1 840.4,557.5 842.3,558.9 844.2,560.2 846.1,561.6 848.0,563.0 849.9,564.3
851.8,565.6 853.7,567.0 855.6,568.3 857.5,569.6 859.4,570.8 861.3,572.1 863.2,573.3 865.1,574.5 867.0,575.7 868.9,576.9 870.8,578.0 872.7,579.1 874.6,580.2 876.5,581.3 878.4,582.4 880.3,583.5
882.2,584.5 884.1,585.5 886.0,586.5 887.9,587.5 889.9,588.5 891.8,589.4 893.7,590.4 895.6,591.3 897.5,592.3 899.4,593.2 901.3,594.1 903.2,595.0 905.1,595.9 907.0,596.7 908.9,597.6 910.8,598.5
912.7,599.3 914.6,600.2 916.5,601.0 918.4,601.8 920.3,602.7 922.2,603.5 924.1,604.3 924.1,662.4 922.2,662.4 920.3,662.4 918.4,662.4 916.5,662.4 914.6,662.4 912.7,662.4 910.8,662.4 908.9,662.4
907.0,662.4 905.1,662.4 903.2,662.4 901.3,662.4 899.4,662.4 897.5,662.4 895.6,662.4 893.7,662.4 891.8,662.4 889.9,662.4 887.9,662.4 886.0,662.4 884.1,662.4 882.2,662.4 880.3,662.4 878.4,662.4
876.5,662.4 874.6,662.4 872.7,662.4 870.8,662.4 868.9,662.4 867.0,662.4 865.1,662.4 863.2,662.4 861.3,662.4 859.4,662.4 857.5,662.4 855.6,662.4 853.7,662.4 851.8,662.4 849.9,662.4 848.0,662.4
846.1,662.4 844.2,662.4 842.3,662.4 840.4,662.4 838.4,662.4 836.5,662.4 834.6,662.4 832.7,662.4 830.8,662.4 828.9,662.4 827.0,662.4 825.1,662.4 823.2,662.4 821.3,662.4 819.4,662.4 817.5,662.4
815.6,662.4 813.7,662.4 811.8,662.4 809.9,662.4 808.0,662.4 806.1,662.4 804.2,662.4 802.3,662.4 800.4,662.4 798.5,662.4 796.6,662.4 794.7,662.4 792.8,662.4 790.9,662.4 789.0,662.4 787.0,662.4
785.1,662.4 783.2,662.4 781.3,662.4 779.4,662.4 777.5,662.4 775.6,662.4 773.7,662.4 771.8,662.4 769.9,662.4 768.0,662.4 766.1,662.4 764.2,662.4 762.3,662.4 760.4,662.4 758.5,662.4 756.6,662.4
754.7,662.4 752.8,662.4 750.9,662.4 749.0,662.4 747.1,662.4 745.2,662.4 743.3,662.4 741.4,662.4 739.5,662.4 737.5,662.4 735.6,662.4 733.7,662.4 731.8,662.4 729.9,662.4 728.0,662.4 726.1,662.4
724.2,662.4 722.3,662.4 720.4,662.4 718.5,662.4 716.6,662.4 714.7,662.4 712.8,662.4 710.9,662.4 709.0,662.4 707.1,662.4 705.2,662.4 703.3,662.4 701.4,662.4 699.5,662.4 697.6,662.4 695.7,662.4
693.8,662.4 691.9,662.4 690.0,662.4 688.0,662.4 686.1,662.4 684.2,662.4 682.3,662.4 680.4,662.4 678.5,662.4 676.6,662.4 674.7,662.4 672.8,662.4 670.9,662.4 669.0,662.4 667.1,662.4 665.2,662.4
663.3,662.4 661.4,662.4 659.5,662.4 657.6,662.4 655.7,662.4 653.8,662.4 651.9,662.4 650.0,662.4 648.1,662.4 646.2,662.4 644.3,662.4 642.4,662.4 640.5,662.4 638.5,662.4 636.6,662.4 634.7,662.4
632.8,662.4 630.9,662.4 629.0,662.4 627.1,662.4 625.2,662.4 623.3,662.4 621.4,662.4 619.5,662.4 617.6,662.4 615.7,662.4 613.8,662.4 611.9,662.4 610.0,662.4 608.1,662.4 606.2,662.4 604.3,662.4
602.4,662.4 600.5,662.4 598.6,662.4 596.7,662.4 594.8,662.4 592.9,662.4 591.0,662.4 589.1,662.4 587.1,662.4 585.2,662.4 583.3,662.4 581.4,662.4 579.5,662.4 577.6,662.4 575.7,662.4 573.8,662.4
571.9,662.4 570.0,662.4 568.1,662.4 566.2,662.4 564.3,662.4 562.4,662.4 560.5,662.4 558.6,662.4 556.7,662.4 554.8,662.4 552.9,662.4 551.0,662.4 549.1,662.4 547.2,662.4 545.3,662.4 543.4,662.4
541.5,662.4 539.6,662.4 537.6,662.4 535.7,662.4 533.8,662.4 531.9,662.4 530.0,662.4 528.1,662.4 526.2,662.4 524.3,662.4 522.4,662.4 520.5,662.4 518.6,662.4 516.7,662.4 514.8,662.4 512.9,662.4
511.0,662.4 509.1,662.4 507.2,662.4 505.3,662.4 503.4,662.4 501.5,662.4 499.6,662.4 497.7,662.4 495.8,662.4 493.9,662.4 492.0,662.4 490.1,662.4 488.1,662.4 486.2,662.4 484.3,662.4 482.4,662.4
480.5,662.4 478.6,662.4 476.7,662.4 474.8,662.4 472.9,662.4 471.0,662.4 469.1,662.4 467.2,662.4 465.3,662.4 463.4,662.4 461.5,662.4 459.6,662.4 457.7,662.4 455.8,662.4 453.9,662.4 452.0,662.4
450.1,662.4 448.2,662.4 446.3,662.4 444.4,662.4 442.5,662.4 440.6,662.4 438.7,662.4 436.7,662.4 434.8,662.4 432.9,662.4 431.0,662.4 429.1,662.4 427.2,662.4 425.3,662.4 423.4,662.4 421.5,662.4
419.6,662.4 417.7,662.4 415.8,662.4 413.9,662.4 412.0,662.4 410.1,662.4 408.2,662.4 406.3,662.4 404.4,662.4 402.5,662.4 400.6,662.4 398.7,662.4 396.8,662.4 394.9,662.4 393.0,662.4 391.1,662.4
389.2,662.4 387.2,662.4 385.3,662.4 383.4,662.4 381.5,662.4 379.6,662.4 377.7,662.4 375.8,662.4 373.9,662.4 372.0,662.4 370.1,662.4 368.2,662.4 366.3,662.4 364.4,662.4 362.5,662.4 360.6,662.4
358.7,662.4 356.8,662.4 354.9,662.4 353.0,662.4 351.1,662.4 349.2,662.4 347.3,662.4 345.4,662.4 343.5,662.4 341.6,662.4 339.7,662.4 337.7,662.4 335.8,662.4 333.9,662.4 332.0,662.4 330.1,662.4
328.2,662.4 326.3,662.4 324.4,662.4 322.5,662.4 320.6,662.4 318.7,662.4 316.8,662.4 314.9,662.4 313.0,662.4 311.1,662.4 309.2,662.4 307.3,662.4 305.4,662.4 303.5,662.4 301.6,662.4 299.7,662.4
297.8,662.4 295.9,662.4 294.0,662.4 292.1,662.4 290.2,662.4 288.2,662.4 286.3,662.4 284.4,662.4 282.5,662.4 280.6,662.4 278.7,662.4 276.8,662.4 274.9,662.4 273.0,662.4 271.1,662.4 269.2,662.4
267.3,662.4 265.4,662.4 263.5,662.4 261.6,662.4 259.7,662.4 257.8,662.4 255.9,662.4 254.0,662.4 252.1,662.4 250.2,662.4 248.3,662.4 246.4,662.4 244.5,662.4 242.6,662.4 240.7,662.4 238.8,662.4
236.8,662.4 234.9,662.4 233.0,662.4 231.1,662.4 229.2,662.4 227.3,662.4 225.4,662.4 223.5,662.4 221.6,662.4 219.7,662.4 217.8,662.4 215.9,662.4 214.0,662.4 212.1,662.4 210.2,662.4 208.3,662.4
206.4,662.4 204.5,662.4 202.6,662.4 200.7,662.4 198.8,662.4 196.9,662.4 195.0,662.4 193.1,662.4 191.2,662.4 189.3,662.4 187.3,662.4 185.4,662.4 183.5,662.4 181.6,662.4 179.7,662.4 177.8,662.4
175.9,662.4 174.0,662.4 172.1,662.4 170.2,662.4 168.3,662.4 166.4,662.4 164.5,662.4 162.6,662.4 160.7,662.4 158.8,662.4 156.9,662.4 155.0,662.4 153.1,662.4 151.2,662.4 '/>
	</g>
</g>
	</g>
	<g id="gnuplot_plot_3" ><title>Point estimate</title>
<g fill="none" color="white" stroke="rgb( 31, 120, 180)" stroke-width="2.00" stroke-linecap="butt" stroke-linejoin="miter">
</g>
<g fill="none" color="black" stroke="currentColor" stroke-width="2.00" stroke-linecap="butt" stroke-linejoin="miter">
	<g transform="translate(1089.0,103.0)" stroke="none" fill="black" font-family="Helvetica" font-size="12.00"  text-anchor="start">
		<text><tspan font-family="Helvetica" >Point estimate</tspan></text>
	</g>
</g>
<g fill="none" color="black" stroke="currentColor" stroke-width="2.00" stroke-linecap="butt" stroke-linejoin="miter">
	<path stroke='rgb( 31, 120, 180)'  d='M1038.5,99.1 L1080.7,99.1 M469.8,662.4 L469.8,149.3  '/></g>
	</g>
<g fill="none" color="black" stroke="currentColor" stroke-width="2.00" stroke-linecap="butt" stroke-linejoin="miter">
</g>
<g fill="none" color="black" stroke="black" stroke-width="1.00" stroke-linecap="butt" stroke-linejoin="miter">
</g>
<g fill="none" color="black" stroke="currentColor" stroke-width="1.00" stroke-linecap="butt" stroke-linejoin="miter">
	<path stroke='black'  d='M63.6,54.1 L63.6,662.4 L1013.6,662.4 L1013.6,54.1 L63.6,54.1 Z  '/></g>
<g fill="none" color="black" stroke="currentColor" stroke-width="1.00" stroke-linecap="butt" stroke-linejoin="miter">
</g>
</g>
</svg>

