<?xml version="1.0" encoding="utf-8"  standalone="no"?>
<svg 
 viewBox="0 0 450 300"
 xmlns="http://www.w3.org/2000/svg"
 xmlns:xlink="http://www.w3.org/1999/xlink"
>

<title>Gnuplot</title>
<desc>Produced by GNUPLOT 5.2 patchlevel 6 </desc>

<g id="gnuplot_canvas">

<rect x="0" y="0" width="450" height="300" fill="none"/>
<defs>

	<circle id='gpDot' r='0.5' stroke-width='0.5' stroke='currentColor'/>
	<path id='gpPt0' stroke-width='0.222' stroke='currentColor' d='M-1,0 h2 M0,-1 v2'/>
	<path id='gpPt1' stroke-width='0.222' stroke='currentColor' d='M-1,-1 L1,1 M1,-1 L-1,1'/>
	<path id='gpPt2' stroke-width='0.222' stroke='currentColor' d='M-1,0 L1,0 M0,-1 L0,1 M-1,-1 L1,1 M-1,1 L1,-1'/>
	<rect id='gpPt3' stroke-width='0.222' stroke='currentColor' x='-1' y='-1' width='2' height='2'/>
	<rect id='gpPt4' stroke-width='0.222' stroke='currentColor' fill='currentColor' x='-1' y='-1' width='2' height='2'/>
	<circle id='gpPt5' stroke-width='0.222' stroke='currentColor' cx='0' cy='0' r='1'/>
	<use xlink:href='#gpPt5' id='gpPt6' fill='currentColor' stroke='none'/>
	<path id='gpPt7' stroke-width='0.222' stroke='currentColor' d='M0,-1.33 L-1.33,0.67 L1.33,0.67 z'/>
	<use xlink:href='#gpPt7' id='gpPt8' fill='currentColor' stroke='none'/>
	<use xlink:href='#gpPt7' id='gpPt9' stroke='currentColor' transform='rotate(180)'/>
	<use xlink:href='#gpPt9' id='gpPt10' fill='currentColor' stroke='none'/>
	<use xlink:href='#gpPt3' id='gpPt11' stroke='currentColor' transform='rotate(45)'/>
	<use xlink:href='#gpPt11' id='gpPt12' fill='currentColor' stroke='none'/>
	<path id='gpPt13' stroke-width='0.222' stroke='currentColor' d='M0,1.330 L1.265,0.411 L0.782,-1.067 L-0.782,-1.076 L-1.265,0.411 z'/>
	<use xlink:href='#gpPt13' id='gpPt14' fill='currentColor' stroke='none'/>
	<filter id='textbox' filterUnits='objectBoundingBox' x='0' y='0' height='1' width='1'>
	  <feFlood flood-color='white' flood-opacity='1' result='bgnd'/>
	  <feComposite in='SourceGraphic' in2='bgnd' operator='atop'/>
	</filter>
	<filter id='greybox' filterUnits='objectBoundingBox' x='0' y='0' height='1' width='1'>
	  <feFlood flood-color='lightgrey' flood-opacity='1' result='grey'/>
	  <feComposite in='SourceGraphic' in2='grey' operator='atop'/>
	</filter>
</defs>
<g fill="none" color="white" stroke="currentColor" stroke-width="1.00" stroke-linecap="butt" stroke-linejoin="miter">
</g>
<g fill="none" color="black" stroke="currentColor" stroke-width="1.00" stroke-linecap="butt" stroke-linejoin="miter">
	<path stroke='black'  d='M71.9,242.4 L80.9,242.4  '/>	<g transform="translate(63.6,246.3)" stroke="none" fill="black" font-family="Helvetica" font-size="12.00"  text-anchor="end">
		<text><tspan font-family="Helvetica" > 0</tspan></text>
	</g>
</g>
<g fill="none" color="black" stroke="currentColor" stroke-width="1.00" stroke-linecap="butt" stroke-linejoin="miter">
	<path stroke='black'  d='M71.9,215.6 L80.9,215.6  '/>	<g transform="translate(63.6,219.5)" stroke="none" fill="black" font-family="Helvetica" font-size="12.00"  text-anchor="end">
		<text><tspan font-family="Helvetica" > 0.5</tspan></text>
	</g>
</g>
<g fill="none" color="black" stroke="currentColor" stroke-width="1.00" stroke-linecap="butt" stroke-linejoin="miter">
	<path stroke='black'  d='M71.9,188.8 L80.9,188.8  '/>	<g transform="translate(63.6,192.7)" stroke="none" fill="black" font-family="Helvetica" font-size="12.00"  text-anchor="end">
		<text><tspan font-family="Helvetica" > 1</tspan></text>
	</g>
</g>
<g fill="none" color="black" stroke="currentColor" stroke-width="1.00" stroke-linecap="butt" stroke-linejoin="miter">
	<path stroke='black'  d='M71.9,162.0 L80.9,162.0  '/>	<g transform="translate(63.6,165.9)" stroke="none" fill="black" font-family="Helvetica" font-size="12.00"  text-anchor="end">
		<text><tspan font-family="Helvetica" > 1.5</tspan></text>
	</g>
</g>
<g fill="none" color="black" stroke="currentColor" stroke-width="1.00" stroke-linecap="butt" stroke-linejoin="miter">
	<path stroke='black'  d='M71.9,135.1 L80.9,135.1  '/>	<g transform="translate(63.6,139.0)" stroke="none" fill="black" font-family="Helvetica" font-size="12.00"  text-anchor="end">
		<text><tspan font-family="Helvetica" > 2</tspan></text>
	</g>
</g>
<g fill="none" color="black" stroke="currentColor" stroke-width="1.00" stroke-linecap="butt" stroke-linejoin="miter">
	<path stroke='black'  d='M71.9,108.3 L80.9,108.3  '/>	<g transform="translate(63.6,112.2)" stroke="none" fill="black" font-family="Helvetica" font-size="12.00"  text-anchor="end">
		<text><tspan font-family="Helvetica" > 2.5</tspan></text>
	</g>
</g>
<g fill="none" color="black" stroke="currentColor" stroke-width="1.00" stroke-linecap="butt" stroke-linejoin="miter">
	<path stroke='black'  d='M71.9,81.5 L80.9,81.5  '/>	<g transform="translate(63.6,85.4)" stroke="none" fill="black" font-family="Helvetica" font-size="12.00"  text-anchor="end">
		<text><tspan font-family="Helvetica" > 3</tspan></text>
	</g>
</g>
<g fill="none" color="black" stroke="currentColor" stroke-width="1.00" stroke-linecap="butt" stroke-linejoin="miter">
	<path stroke='black'  d='M71.9,54.7 L80.9,54.7  '/>	<g transform="translate(63.6,58.6)" stroke="none" fill="black" font-family="Helvetica" font-size="12.00"  text-anchor="end">
		<text><tspan font-family="Helvetica" > 3.5</tspan></text>
	</g>
</g>
<g fill="none" color="black" stroke="currentColor" stroke-width="1.00" stroke-linecap="butt" stroke-linejoin="miter">
	<path stroke='black'  d='M71.9,27.9 L80.9,27.9  '/>	<g transform="translate(63.6,31.8)" stroke="none" fill="black" font-family="Helvetica" font-size="12.00"  text-anchor="end">
		<text><tspan font-family="Helvetica" > 4</tspan></text>
	</g>
</g>
<g fill="none" color="black" stroke="currentColor" stroke-width="1.00" stroke-linecap="butt" stroke-linejoin="miter">
	<path stroke='black'  d='M81.2,242.4 L81.2,233.4  '/>	<g transform="translate(81.2,264.3)" stroke="none" fill="black" font-family="Helvetica" font-size="12.00"  text-anchor="middle">
		<text><tspan font-family="Helvetica" > 4</tspan></text>
	</g>
</g>
<g fill="none" color="black" stroke="currentColor" stroke-width="1.00" stroke-linecap="butt" stroke-linejoin="miter">
	<path stroke='black'  d='M144.5,242.4 L144.5,233.4  '/>	<g transform="translate(144.5,264.3)" stroke="none" fill="black" font-family="Helvetica" font-size="12.00"  text-anchor="middle">
		<text><tspan font-family="Helvetica" > 4.5</tspan></text>
	</g>
</g>
<g fill="none" color="black" stroke="currentColor" stroke-width="1.00" stroke-linecap="butt" stroke-linejoin="miter">
	<path stroke='black'  d='M207.8,242.4 L207.8,233.4  '/>	<g transform="translate(207.8,264.3)" stroke="none" fill="black" font-family="Helvetica" font-size="12.00"  text-anchor="middle">
		<text><tspan font-family="Helvetica" > 5</tspan></text>
	</g>
</g>
<g fill="none" color="black" stroke="currentColor" stroke-width="1.00" stroke-linecap="butt" stroke-linejoin="miter">
	<path stroke='black'  d='M271.1,242.4 L271.1,233.4  '/>	<g transform="translate(271.1,264.3)" stroke="none" fill="black" font-family="Helvetica" font-size="12.00"  text-anchor="middle">
		<text><tspan font-family="Helvetica" > 5.5</tspan></text>
	</g>
</g>
<g fill="none" color="black" stroke="currentColor" stroke-width="1.00" stroke-linecap="butt" stroke-linejoin="miter">
	<path stroke='black'  d='M334.3,242.4 L334.3,233.4  '/>	<g transform="translate(334.3,264.3)" stroke="none" fill="black" font-family="Helvetica" font-size="12.00"  text-anchor="middle">
		<text><tspan font-family="Helvetica" > 6</tspan></text>
	</g>
</g>
<g fill="none" color="black" stroke="currentColor" stroke-width="1.00" stroke-linecap="butt" stroke-linejoin="miter">
	<path stroke='black'  d='M397.6,242.4 L397.6,233.4  '/>	<g transform="translate(397.6,264.3)" stroke="none" fill="black" font-family="Helvetica" font-size="12.00"  text-anchor="middle">
		<text><tspan font-family="Helvetica" > 6.5</tspan></text>
	</g>
</g>
<g fill="none" color="black" stroke="currentColor" stroke-width="1.00" stroke-linecap="butt" stroke-linejoin="miter">
</g>
<g fill="none" color="black" stroke="currentColor" stroke-width="1.00" stroke-linecap="butt" stroke-linejoin="miter">
	<path stroke='black'  d='M71.9,18.1 L71.9,242.4 L425.0,242.4 L425.0,18.1 L71.9,18.1 Z  '/></g>
<g fill="none" color="black" stroke="currentColor" stroke-width="1.00" stroke-linecap="butt" stroke-linejoin="miter">
	<g transform="translate(16.3,130.3) rotate(270)" stroke="none" fill="black" font-family="Helvetica" font-size="12.00"  text-anchor="middle">
		<text><tspan font-family="Helvetica" >Density (a.u.)</tspan></text>
	</g>
</g>
<g fill="none" color="black" stroke="currentColor" stroke-width="1.00" stroke-linecap="butt" stroke-linejoin="miter">
	<g transform="translate(248.4,291.3)" stroke="none" fill="black" font-family="Helvetica" font-size="12.00"  text-anchor="middle">
		<text><tspan font-family="Helvetica" >Average time (us)</tspan></text>
	</g>
</g>
<g fill="none" color="black" stroke="currentColor" stroke-width="1.00" stroke-linecap="butt" stroke-linejoin="miter">
</g>
	<g id="gnuplot_plot_1" ><title>PDF</title>
<g fill="none" color="black" stroke="currentColor" stroke-width="1.00" stroke-linecap="butt" stroke-linejoin="miter">
	<g stroke='none' shape-rendering='crispEdges'>
		<polygon fill = 'rgb( 31, 120, 180)' fill-opacity = '0.250000' points = '71.9,242.1 72.6,242.0 73.3,242.0 74.0,241.9 74.7,241.8 75.4,241.6 76.1,241.5 76.9,241.3 77.6,241.0 78.3,240.8 79.0,240.5 79.7,240.1 80.4,239.7 81.1,239.2 81.8,238.6 82.5,237.9
83.2,237.2 83.9,236.3 84.6,235.3 85.3,234.2 86.1,232.9 86.8,231.5 87.5,229.9 88.2,228.1 88.9,226.1 89.6,223.9 90.3,221.4 91.0,218.7 91.7,215.8 92.4,212.5 93.1,209.0 93.8,205.1
94.5,201.0 95.3,196.5 96.0,191.7 96.7,186.6 97.4,181.2 98.1,175.4 98.8,169.4 99.5,163.0 100.2,156.4 100.9,149.6 101.6,142.5 102.3,135.2 103.0,127.7 103.7,120.1 104.5,112.5 105.2,104.8
105.9,97.1 106.6,89.5 107.3,81.9 108.0,74.6 108.7,67.5 109.4,60.6 110.1,54.1 110.8,48.0 111.5,42.4 112.2,37.2 112.9,32.6 113.6,28.5 114.4,25.1 115.1,22.3 115.8,20.2 116.5,18.8
117.2,18.1 117.9,18.1 118.6,18.8 119.3,20.3 120.0,22.4 120.7,25.2 121.4,28.6 122.1,32.7 122.8,37.3 123.6,42.5 124.3,48.1 125.0,54.2 125.7,60.6 126.4,67.4 127.1,74.4 127.8,81.6
128.5,89.0 129.2,96.5 129.9,104.1 130.6,111.6 131.3,119.1 132.0,126.5 132.8,133.8 133.5,140.9 134.2,147.8 134.9,154.4 135.6,160.8 136.3,166.9 137.0,172.7 137.7,178.2 138.4,183.4 139.1,188.3
139.8,192.8 140.5,197.0 141.2,201.0 142.0,204.6 142.7,207.9 143.4,210.9 144.1,213.7 144.8,216.2 145.5,218.5 146.2,220.6 146.9,222.4 147.6,224.1 148.3,225.6 149.0,226.9 149.7,228.1 150.4,229.1
151.2,230.0 151.9,230.8 152.6,231.6 153.3,232.2 154.0,232.8 154.7,233.3 155.4,233.7 156.1,234.2 156.8,234.5 157.5,234.9 158.2,235.2 158.9,235.4 159.6,235.7 160.4,235.9 161.1,236.1 161.8,236.3
162.5,236.5 163.2,236.7 163.9,236.9 164.6,237.0 165.3,237.2 166.0,237.3 166.7,237.4 167.4,237.5 168.1,237.6 168.8,237.7 169.6,237.8 170.3,237.8 171.0,237.9 171.7,237.9 172.4,237.9 173.1,238.0
173.8,238.0 174.5,238.0 175.2,237.9 175.9,237.9 176.6,237.9 177.3,237.9 178.0,237.8 178.7,237.8 179.5,237.7 180.2,237.7 180.9,237.6 181.6,237.6 182.3,237.5 183.0,237.5 183.7,237.4 184.4,237.4
185.1,237.4 185.8,237.4 186.5,237.4 187.2,237.4 187.9,237.4 188.7,237.4 189.4,237.4 190.1,237.5 190.8,237.6 191.5,237.6 192.2,237.7 192.9,237.8 193.6,237.9 194.3,238.1 195.0,238.2 195.7,238.3
196.4,238.5 197.1,238.6 197.9,238.8 198.6,238.9 199.3,239.1 200.0,239.3 200.7,239.4 201.4,239.6 202.1,239.8 202.8,239.9 203.5,240.1 204.2,240.3 204.9,240.4 205.6,240.6 206.3,240.7 207.1,240.8
207.8,241.0 208.5,241.1 209.2,241.2 209.9,241.3 210.6,241.4 211.3,241.5 212.0,241.6 212.7,241.7 213.4,241.8 214.1,241.8 214.8,241.9 215.5,242.0 216.3,242.0 217.0,242.1 217.7,242.1 218.4,242.1
219.1,242.2 219.8,242.2 220.5,242.2 221.2,242.3 221.9,242.3 222.6,242.3 223.3,242.3 224.0,242.3 224.7,242.3 225.5,242.3 226.2,242.4 226.9,242.4 227.6,242.4 228.3,242.4 229.0,242.4 229.7,242.4
230.4,242.4 231.1,242.4 231.8,242.4 232.5,242.4 233.2,242.4 233.9,242.4 234.7,242.4 235.4,242.4 236.1,242.4 236.8,242.4 237.5,242.4 238.2,242.4 238.9,242.4 239.6,242.4 240.3,242.4 241.0,242.4
241.7,242.4 242.4,242.4 243.1,242.4 243.9,242.4 244.6,242.4 245.3,242.4 246.0,242.4 246.7,242.4 247.4,242.4 248.1,242.4 248.8,242.4 249.5,242.4 250.2,242.4 250.9,242.4 251.6,242.4 252.3,242.4
253.0,242.4 253.8,242.4 254.5,242.4 255.2,242.4 255.9,242.4 256.6,242.4 257.3,242.4 258.0,242.4 258.7,242.4 259.4,242.4 260.1,242.4 260.8,242.4 261.5,242.4 262.2,242.4 263.0,242.4 263.7,242.4
264.4,242.4 265.1,242.4 265.8,242.4 266.5,242.4 267.2,242.4 267.9,242.4 268.6,242.4 269.3,242.4 270.0,242.4 270.7,242.4 271.4,242.4 272.2,242.4 272.9,242.4 273.6,242.4 274.3,242.4 275.0,242.4
275.7,242.4 276.4,242.4 277.1,242.4 277.8,242.4 278.5,242.4 279.2,242.4 279.9,242.4 280.6,242.4 281.4,242.4 282.1,242.4 282.8,242.4 283.5,242.4 284.2,242.4 284.9,242.4 285.6,242.4 286.3,242.4
287.0,242.4 287.7,242.4 288.4,242.4 289.1,242.4 289.8,242.4 290.6,242.4 291.3,242.4 292.0,242.4 292.7,242.4 293.4,242.4 294.1,242.4 294.8,242.4 295.5,242.4 296.2,242.4 296.9,242.4 297.6,242.4
298.3,242.4 299.0,242.4 299.8,242.4 300.5,242.4 301.2,242.4 301.9,242.4 302.6,242.4 303.3,242.4 304.0,242.4 304.7,242.4 305.4,242.4 306.1,242.4 306.8,242.4 307.5,242.4 308.2,242.4 309.0,242.4
309.7,242.4 310.4,242.4 311.1,242.4 311.8,242.4 312.5,242.4 313.2,242.4 313.9,242.4 314.6,242.4 315.3,242.4 316.0,242.4 316.7,242.4 317.4,242.4 318.2,242.4 318.9,242.4 319.6,242.4 320.3,242.4
321.0,242.4 321.7,242.4 322.4,242.4 323.1,242.4 323.8,242.4 324.5,242.4 325.2,242.4 325.9,242.4 326.6,242.4 327.3,242.4 328.1,242.4 328.8,242.4 329.5,242.4 330.2,242.4 330.9,242.4 331.6,242.4
332.3,242.4 333.0,242.4 333.7,242.4 334.4,242.4 335.1,242.4 335.8,242.4 336.5,242.4 337.3,242.4 338.0,242.4 338.7,242.4 339.4,242.4 340.1,242.4 340.8,242.4 341.5,242.4 342.2,242.4 342.9,242.4
343.6,242.4 344.3,242.4 345.0,242.4 345.7,242.4 346.5,242.4 347.2,242.4 347.9,242.4 348.6,242.4 349.3,242.4 350.0,242.4 350.7,242.4 351.4,242.4 352.1,242.4 352.8,242.4 353.5,242.4 354.2,242.3
354.9,242.3 355.7,242.3 356.4,242.3 357.1,242.3 357.8,242.3 358.5,242.3 359.2,242.2 359.9,242.2 360.6,242.2 361.3,242.2 362.0,242.1 362.7,242.1 363.4,242.1 364.1,242.0 364.9,242.0 365.6,241.9
366.3,241.9 367.0,241.8 367.7,241.8 368.4,241.7 369.1,241.7 369.8,241.6 370.5,241.5 371.2,241.4 371.9,241.4 372.6,241.3 373.3,241.2 374.1,241.1 374.8,241.0 375.5,241.0 376.2,240.9 376.9,240.8
377.6,240.7 378.3,240.6 379.0,240.5 379.7,240.5 380.4,240.4 381.1,240.3 381.8,240.3 382.5,240.2 383.3,240.2 384.0,240.1 384.7,240.1 385.4,240.0 386.1,240.0 386.8,240.0 387.5,240.0 388.2,240.0
388.9,240.0 389.6,240.0 390.3,240.0 391.0,240.1 391.7,240.1 392.4,240.1 393.2,240.2 393.9,240.2 394.6,240.3 395.3,240.4 396.0,240.4 396.7,240.5 397.4,240.6 398.1,240.7 398.8,240.8 399.5,240.8
400.2,240.9 400.9,241.0 401.6,241.1 402.4,241.2 403.1,241.3 403.8,241.3 404.5,241.4 405.2,241.5 405.9,241.6 406.6,241.6 407.3,241.7 408.0,241.8 408.7,241.8 409.4,241.9 410.1,241.9 410.8,242.0
411.6,242.0 412.3,242.1 413.0,242.1 413.7,242.1 414.4,242.2 415.1,242.2 415.8,242.2 416.5,242.2 417.2,242.3 417.9,242.3 418.6,242.3 419.3,242.3 420.0,242.3 420.8,242.3 421.5,242.3 422.2,242.3
422.9,242.4 423.6,242.4 424.3,242.4 425.0,242.4 425.0,242.4 424.3,242.4 423.6,242.4 422.9,242.4 422.2,242.4 421.5,242.4 420.8,242.4 420.0,242.4 419.3,242.4 418.6,242.4 417.9,242.4 417.2,242.4
416.5,242.4 415.8,242.4 415.1,242.4 414.4,242.4 413.7,242.4 413.0,242.4 412.3,242.4 411.6,242.4 410.8,242.4 410.1,242.4 409.4,242.4 408.7,242.4 408.0,242.4 407.3,242.4 406.6,242.4 405.9,242.4
405.2,242.4 404.5,242.4 403.8,242.4 403.1,242.4 402.4,242.4 401.6,242.4 400.9,242.4 400.2,242.4 399.5,242.4 398.8,242.4 398.1,242.4 397.4,242.4 396.7,242.4 396.0,242.4 395.3,242.4 394.6,242.4
393.9,242.4 393.2,242.4 392.4,242.4 391.7,242.4 391.0,242.4 390.3,242.4 389.6,242.4 388.9,242.4 388.2,242.4 387.5,242.4 386.8,242.4 386.1,242.4 385.4,242.4 384.7,242.4 384.0,242.4 383.3,242.4
382.5,242.4 381.8,242.4 381.1,242.4 380.4,242.4 379.7,242.4 379.0,242.4 378.3,242.4 377.6,242.4 376.9,242.4 376.2,242.4 375.5,242.4 374.8,242.4 374.1,242.4 373.3,242.4 372.6,242.4 371.9,242.4
371.2,242.4 370.5,242.4 369.8,242.4 369.1,242.4 368.4,242.4 367.7,242.4 367.0,242.4 366.3,242.4 365.6,242.4 364.9,242.4 364.1,242.4 363.4,242.4 362.7,242.4 362.0,242.4 361.3,242.4 360.6,242.4
359.9,242.4 359.2,242.4 358.5,242.4 357.8,242.4 357.1,242.4 356.4,242.4 355.7,242.4 354.9,242.4 354.2,242.4 353.5,242.4 352.8,242.4 352.1,242.4 351.4,242.4 350.7,242.4 350.0,242.4 349.3,242.4
348.6,242.4 347.9,242.4 347.2,242.4 346.5,242.4 345.7,242.4 345.0,242.4 344.3,242.4 343.6,242.4 342.9,242.4 342.2,242.4 341.5,242.4 340.8,242.4 340.1,242.4 339.4,242.4 338.7,242.4 338.0,242.4
337.3,242.4 336.5,242.4 335.8,242.4 335.1,242.4 334.4,242.4 333.7,242.4 333.0,242.4 332.3,242.4 331.6,242.4 330.9,242.4 330.2,242.4 329.5,242.4 328.8,242.4 328.1,242.4 327.3,242.4 326.6,242.4
325.9,242.4 325.2,242.4 324.5,242.4 323.8,242.4 323.1,242.4 322.4,242.4 321.7,242.4 321.0,242.4 320.3,242.4 319.6,242.4 318.9,242.4 318.2,242.4 317.4,242.4 316.7,242.4 316.0,242.4 315.3,242.4
314.6,242.4 313.9,242.4 313.2,242.4 312.5,242.4 311.8,242.4 311.1,242.4 310.4,242.4 309.7,242.4 309.0,242.4 308.2,242.4 307.5,242.4 306.8,242.4 306.1,242.4 305.4,242.4 304.7,242.4 304.0,242.4
303.3,242.4 302.6,242.4 301.9,242.4 301.2,242.4 300.5,242.4 299.8,242.4 299.0,242.4 298.3,242.4 297.6,242.4 296.9,242.4 296.2,242.4 295.5,242.4 294.8,242.4 294.1,242.4 293.4,242.4 292.7,242.4
292.0,242.4 291.3,242.4 290.6,242.4 289.8,242.4 289.1,242.4 288.4,242.4 287.7,242.4 287.0,242.4 286.3,242.4 285.6,242.4 284.9,242.4 284.2,242.4 283.5,242.4 282.8,242.4 282.1,242.4 281.4,242.4
280.6,242.4 279.9,242.4 279.2,242.4 278.5,242.4 277.8,242.4 277.1,242.4 276.4,242.4 275.7,242.4 275.0,242.4 274.3,242.4 273.6,242.4 272.9,242.4 272.2,242.4 271.4,242.4 270.7,242.4 270.0,242.4
269.3,242.4 268.6,242.4 267.9,242.4 267.2,242.4 266.5,242.4 265.8,242.4 265.1,242.4 264.4,242.4 263.7,242.4 263.0,242.4 262.2,242.4 261.5,242.4 260.8,242.4 260.1,242.4 259.4,242.4 258.7,242.4
258.0,242.4 257.3,242.4 256.6,242.4 255.9,242.4 255.2,242.4 254.5,242.4 253.8,242.4 253.0,242.4 252.3,242.4 251.6,242.4 250.9,242.4 250.2,242.4 249.5,242.4 248.8,242.4 248.1,242.4 247.4,242.4
246.7,242.4 246.0,242.4 245.3,242.4 244.6,242.4 243.9,242.4 243.1,242.4 242.4,242.4 241.7,242.4 241.0,242.4 240.3,242.4 239.6,242.4 238.9,242.4 238.2,242.4 237.5,242.4 236.8,242.4 236.1,242.4
235.4,242.4 234.7,242.4 233.9,242.4 233.2,242.4 232.5,242.4 231.8,242.4 231.1,242.4 230.4,242.4 229.7,242.4 229.0,242.4 228.3,242.4 227.6,242.4 226.9,242.4 226.2,242.4 225.5,242.4 224.7,242.4
224.0,242.4 223.3,242.4 222.6,242.4 221.9,242.4 221.2,242.4 220.5,242.4 219.8,242.4 219.1,242.4 218.4,242.4 217.7,242.4 217.0,242.4 216.3,242.4 215.5,242.4 214.8,242.4 214.1,242.4 213.4,242.4
212.7,242.4 212.0,242.4 211.3,242.4 210.6,242.4 209.9,242.4 209.2,242.4 208.5,242.4 207.8,242.4 207.1,242.4 206.3,242.4 205.6,242.4 204.9,242.4 204.2,242.4 203.5,242.4 202.8,242.4 202.1,242.4
201.4,242.4 200.7,242.4 200.0,242.4 199.3,242.4 198.6,242.4 197.9,242.4 197.1,242.4 196.4,242.4 195.7,242.4 195.0,242.4 194.3,242.4 193.6,242.4 192.9,242.4 192.2,242.4 191.5,242.4 190.8,242.4
190.1,242.4 189.4,242.4 188.7,242.4 187.9,242.4 187.2,242.4 186.5,242.4 185.8,242.4 185.1,242.4 184.4,242.4 183.7,242.4 183.0,242.4 182.3,242.4 181.6,242.4 180.9,242.4 180.2,242.4 179.5,242.4
178.7,242.4 178.0,242.4 177.3,242.4 176.6,242.4 175.9,242.4 175.2,242.4 174.5,242.4 173.8,242.4 173.1,242.4 172.4,242.4 171.7,242.4 171.0,242.4 170.3,242.4 169.6,242.4 168.8,242.4 168.1,242.4
167.4,242.4 166.7,242.4 166.0,242.4 165.3,242.4 164.6,242.4 163.9,242.4 163.2,242.4 162.5,242.4 161.8,242.4 161.1,242.4 160.4,242.4 159.6,242.4 158.9,242.4 158.2,242.4 157.5,242.4 156.8,242.4
156.1,242.4 155.4,242.4 154.7,242.4 154.0,242.4 153.3,242.4 152.6,242.4 151.9,242.4 151.2,242.4 150.4,242.4 149.7,242.4 149.0,242.4 148.3,242.4 147.6,242.4 146.9,242.4 146.2,242.4 145.5,242.4
144.8,242.4 144.1,242.4 143.4,242.4 142.7,242.4 142.0,242.4 141.2,242.4 140.5,242.4 139.8,242.4 139.1,242.4 138.4,242.4 137.7,242.4 137.0,242.4 136.3,242.4 135.6,242.4 134.9,242.4 134.2,242.4
133.5,242.4 132.8,242.4 132.0,242.4 131.3,242.4 130.6,242.4 129.9,242.4 129.2,242.4 128.5,242.4 127.8,242.4 127.1,242.4 126.4,242.4 125.7,242.4 125.0,242.4 124.3,242.4 123.6,242.4 122.8,242.4
122.1,242.4 121.4,242.4 120.7,242.4 120.0,242.4 119.3,242.4 118.6,242.4 117.9,242.4 117.2,242.4 116.5,242.4 115.8,242.4 115.1,242.4 114.4,242.4 113.6,242.4 112.9,242.4 112.2,242.4 111.5,242.4
110.8,242.4 110.1,242.4 109.4,242.4 108.7,242.4 108.0,242.4 107.3,242.4 106.6,242.4 105.9,242.4 105.2,242.4 104.5,242.4 103.7,242.4 103.0,242.4 102.3,242.4 101.6,242.4 100.9,242.4 100.2,242.4
99.5,242.4 98.8,242.4 98.1,242.4 97.4,242.4 96.7,242.4 96.0,242.4 95.3,242.4 94.5,242.4 93.8,242.4 93.1,242.4 92.4,242.4 91.7,242.4 91.0,242.4 90.3,242.4 89.6,242.4 88.9,242.4
88.2,242.4 87.5,242.4 86.8,242.4 86.1,242.4 85.3,242.4 84.6,242.4 83.9,242.4 83.2,242.4 82.5,242.4 81.8,242.4 81.1,242.4 80.4,242.4 79.7,242.4 79.0,242.4 78.3,242.4 77.6,242.4
76.9,242.4 76.1,242.4 75.4,242.4 74.7,242.4 74.0,242.4 73.3,242.4 72.6,242.4 71.9,242.4 '/>
	</g>
</g>
	</g>
	<g id="gnuplot_plot_2" ><title>Mean</title>
<g fill="none" color="white" stroke="rgb( 31, 120, 180)" stroke-width="2.00" stroke-linecap="butt" stroke-linejoin="miter">
</g>
<g fill="none" color="black" stroke="currentColor" stroke-width="2.00" stroke-linecap="butt" stroke-linejoin="miter">
	<path stroke='rgb( 31, 120, 180)'  d='M122.7,242.4 L122.7,54.9  '/></g>
	</g>
<g fill="none" color="black" stroke="currentColor" stroke-width="2.00" stroke-linecap="butt" stroke-linejoin="miter">
</g>
<g fill="none" color="black" stroke="black" stroke-width="1.00" stroke-linecap="butt" stroke-linejoin="miter">
</g>
<g fill="none" color="black" stroke="currentColor" stroke-width="1.00" stroke-linecap="butt" stroke-linejoin="miter">
	<path stroke='black'  d='M71.9,18.1 L71.9,242.4 L425.0,242.4 L425.0,18.1 L71.9,18.1 Z  '/></g>
<g fill="none" color="black" stroke="currentColor" stroke-width="1.00" stroke-linecap="butt" stroke-linejoin="miter">
</g>
</g>
</svg>

