group,function,value,throughput_num,throughput_type,sample_measured_value,unit,iteration_count
snapshot_restore_with_dense,Dense: Dirty pages + process_vm_writev,10,,,1059287.0,ns,202
snapshot_restore_with_dense,Dense: Dirty pages + process_vm_writev,10,,,1984917.0,ns,404
snapshot_restore_with_dense,Dense: Dirty pages + process_vm_writev,10,,,2982462.0,ns,606
snapshot_restore_with_dense,Dense: Dirty pages + process_vm_writev,10,,,3966000.0,ns,808
snapshot_restore_with_dense,Dense: Dirty pages + process_vm_writev,10,,,5070103.0,ns,1010
snapshot_restore_with_dense,Dense: Dirty pages + process_vm_writev,10,,,6001526.0,ns,1212
snapshot_restore_with_dense,Dense: Dirty pages + process_vm_writev,10,,,7913023.0,ns,1414
snapshot_restore_with_dense,Dense: Dirty pages + process_vm_writev,10,,,11911477.0,ns,1616
snapshot_restore_with_dense,Dense: Dirty pages + process_vm_writev,10,,,9038218.0,ns,1818
snapshot_restore_with_dense,Dense: Dirty pages + process_vm_writev,10,,,10046700.0,ns,2020
snapshot_restore_with_dense,Dense: Dirty pages + process_vm_writev,10,,,14441102.0,ns,2222
snapshot_restore_with_dense,Dense: Dirty pages + process_vm_writev,10,,,13035340.0,ns,2424
snapshot_restore_with_dense,Dense: Dirty pages + process_vm_writev,10,,,12878076.0,ns,2626
snapshot_restore_with_dense,Dense: Dirty pages + process_vm_writev,10,,,13907906.0,ns,2828
snapshot_restore_with_dense,Dense: Dirty pages + process_vm_writev,10,,,15209550.0,ns,3030
snapshot_restore_with_dense,Dense: Dirty pages + process_vm_writev,10,,,15952786.0,ns,3232
snapshot_restore_with_dense,Dense: Dirty pages + process_vm_writev,10,,,16796506.0,ns,3434
snapshot_restore_with_dense,Dense: Dirty pages + process_vm_writev,10,,,17936142.0,ns,3636
snapshot_restore_with_dense,Dense: Dirty pages + process_vm_writev,10,,,18908263.0,ns,3838
snapshot_restore_with_dense,Dense: Dirty pages + process_vm_writev,10,,,19814047.0,ns,4040
snapshot_restore_with_dense,Dense: Dirty pages + process_vm_writev,10,,,20912657.0,ns,4242
snapshot_restore_with_dense,Dense: Dirty pages + process_vm_writev,10,,,21935097.0,ns,4444
snapshot_restore_with_dense,Dense: Dirty pages + process_vm_writev,10,,,22882329.0,ns,4646
snapshot_restore_with_dense,Dense: Dirty pages + process_vm_writev,10,,,23765281.0,ns,4848
snapshot_restore_with_dense,Dense: Dirty pages + process_vm_writev,10,,,24692118.0,ns,5050
snapshot_restore_with_dense,Dense: Dirty pages + process_vm_writev,10,,,25730064.0,ns,5252
snapshot_restore_with_dense,Dense: Dirty pages + process_vm_writev,10,,,26826140.0,ns,5454
snapshot_restore_with_dense,Dense: Dirty pages + process_vm_writev,10,,,27846279.0,ns,5656
snapshot_restore_with_dense,Dense: Dirty pages + process_vm_writev,10,,,28734579.0,ns,5858
snapshot_restore_with_dense,Dense: Dirty pages + process_vm_writev,10,,,29793060.0,ns,6060
snapshot_restore_with_dense,Dense: Dirty pages + process_vm_writev,10,,,30815806.0,ns,6262
snapshot_restore_with_dense,Dense: Dirty pages + process_vm_writev,10,,,31788103.0,ns,6464
snapshot_restore_with_dense,Dense: Dirty pages + process_vm_writev,10,,,32989864.0,ns,6666
snapshot_restore_with_dense,Dense: Dirty pages + process_vm_writev,10,,,33869689.0,ns,6868
snapshot_restore_with_dense,Dense: Dirty pages + process_vm_writev,10,,,34586292.0,ns,7070
snapshot_restore_with_dense,Dense: Dirty pages + process_vm_writev,10,,,35682677.0,ns,7272
snapshot_restore_with_dense,Dense: Dirty pages + process_vm_writev,10,,,36708873.0,ns,7474
snapshot_restore_with_dense,Dense: Dirty pages + process_vm_writev,10,,,37793236.0,ns,7676
snapshot_restore_with_dense,Dense: Dirty pages + process_vm_writev,10,,,38573103.0,ns,7878
snapshot_restore_with_dense,Dense: Dirty pages + process_vm_writev,10,,,39683677.0,ns,8080
snapshot_restore_with_dense,Dense: Dirty pages + process_vm_writev,10,,,40736846.0,ns,8282
snapshot_restore_with_dense,Dense: Dirty pages + process_vm_writev,10,,,41582268.0,ns,8484
snapshot_restore_with_dense,Dense: Dirty pages + process_vm_writev,10,,,42503249.0,ns,8686
snapshot_restore_with_dense,Dense: Dirty pages + process_vm_writev,10,,,43546348.0,ns,8888
snapshot_restore_with_dense,Dense: Dirty pages + process_vm_writev,10,,,44726908.0,ns,9090
snapshot_restore_with_dense,Dense: Dirty pages + process_vm_writev,10,,,45699346.0,ns,9292
snapshot_restore_with_dense,Dense: Dirty pages + process_vm_writev,10,,,46822326.0,ns,9494
snapshot_restore_with_dense,Dense: Dirty pages + process_vm_writev,10,,,47708339.0,ns,9696
snapshot_restore_with_dense,Dense: Dirty pages + process_vm_writev,10,,,48582879.0,ns,9898
snapshot_restore_with_dense,Dense: Dirty pages + process_vm_writev,10,,,49619387.0,ns,10100
snapshot_restore_with_dense,Dense: Dirty pages + process_vm_writev,10,,,50603327.0,ns,10302
snapshot_restore_with_dense,Dense: Dirty pages + process_vm_writev,10,,,51471056.0,ns,10504
snapshot_restore_with_dense,Dense: Dirty pages + process_vm_writev,10,,,52743369.0,ns,10706
snapshot_restore_with_dense,Dense: Dirty pages + process_vm_writev,10,,,53573807.0,ns,10908
snapshot_restore_with_dense,Dense: Dirty pages + process_vm_writev,10,,,54656457.0,ns,11110
snapshot_restore_with_dense,Dense: Dirty pages + process_vm_writev,10,,,55638986.0,ns,11312
snapshot_restore_with_dense,Dense: Dirty pages + process_vm_writev,10,,,56418154.0,ns,11514
snapshot_restore_with_dense,Dense: Dirty pages + process_vm_writev,10,,,58118062.0,ns,11716
snapshot_restore_with_dense,Dense: Dirty pages + process_vm_writev,10,,,58392112.0,ns,11918
snapshot_restore_with_dense,Dense: Dirty pages + process_vm_writev,10,,,59551168.0,ns,12120
snapshot_restore_with_dense,Dense: Dirty pages + process_vm_writev,10,,,60198502.0,ns,12322
snapshot_restore_with_dense,Dense: Dirty pages + process_vm_writev,10,,,61509064.0,ns,12524
snapshot_restore_with_dense,Dense: Dirty pages + process_vm_writev,10,,,62452272.0,ns,12726
snapshot_restore_with_dense,Dense: Dirty pages + process_vm_writev,10,,,63474282.0,ns,12928
snapshot_restore_with_dense,Dense: Dirty pages + process_vm_writev,10,,,64263006.0,ns,13130
snapshot_restore_with_dense,Dense: Dirty pages + process_vm_writev,10,,,65578600.0,ns,13332
snapshot_restore_with_dense,Dense: Dirty pages + process_vm_writev,10,,,66408122.0,ns,13534
snapshot_restore_with_dense,Dense: Dirty pages + process_vm_writev,10,,,67283425.0,ns,13736
snapshot_restore_with_dense,Dense: Dirty pages + process_vm_writev,10,,,68090260.0,ns,13938
snapshot_restore_with_dense,Dense: Dirty pages + process_vm_writev,10,,,69054636.0,ns,14140
snapshot_restore_with_dense,Dense: Dirty pages + process_vm_writev,10,,,70238139.0,ns,14342
snapshot_restore_with_dense,Dense: Dirty pages + process_vm_writev,10,,,71450433.0,ns,14544
snapshot_restore_with_dense,Dense: Dirty pages + process_vm_writev,10,,,72438098.0,ns,14746
snapshot_restore_with_dense,Dense: Dirty pages + process_vm_writev,10,,,73527267.0,ns,14948
snapshot_restore_with_dense,Dense: Dirty pages + process_vm_writev,10,,,74447897.0,ns,15150
snapshot_restore_with_dense,Dense: Dirty pages + process_vm_writev,10,,,75386016.0,ns,15352
snapshot_restore_with_dense,Dense: Dirty pages + process_vm_writev,10,,,76087360.0,ns,15554
snapshot_restore_with_dense,Dense: Dirty pages + process_vm_writev,10,,,77120629.0,ns,15756
snapshot_restore_with_dense,Dense: Dirty pages + process_vm_writev,10,,,78130240.0,ns,15958
snapshot_restore_with_dense,Dense: Dirty pages + process_vm_writev,10,,,79109980.0,ns,16160
snapshot_restore_with_dense,Dense: Dirty pages + process_vm_writev,10,,,80138587.0,ns,16362
snapshot_restore_with_dense,Dense: Dirty pages + process_vm_writev,10,,,81315653.0,ns,16564
snapshot_restore_with_dense,Dense: Dirty pages + process_vm_writev,10,,,82385678.0,ns,16766
snapshot_restore_with_dense,Dense: Dirty pages + process_vm_writev,10,,,83366536.0,ns,16968
snapshot_restore_with_dense,Dense: Dirty pages + process_vm_writev,10,,,84447252.0,ns,17170
snapshot_restore_with_dense,Dense: Dirty pages + process_vm_writev,10,,,85228346.0,ns,17372
snapshot_restore_with_dense,Dense: Dirty pages + process_vm_writev,10,,,86049546.0,ns,17574
snapshot_restore_with_dense,Dense: Dirty pages + process_vm_writev,10,,,87394963.0,ns,17776
snapshot_restore_with_dense,Dense: Dirty pages + process_vm_writev,10,,,88219864.0,ns,17978
snapshot_restore_with_dense,Dense: Dirty pages + process_vm_writev,10,,,88887265.0,ns,18180
snapshot_restore_with_dense,Dense: Dirty pages + process_vm_writev,10,,,90138100.0,ns,18382
snapshot_restore_with_dense,Dense: Dirty pages + process_vm_writev,10,,,91028832.0,ns,18584
snapshot_restore_with_dense,Dense: Dirty pages + process_vm_writev,10,,,92017099.0,ns,18786
snapshot_restore_with_dense,Dense: Dirty pages + process_vm_writev,10,,,97617860.0,ns,18988
snapshot_restore_with_dense,Dense: Dirty pages + process_vm_writev,10,,,96226385.0,ns,19190
snapshot_restore_with_dense,Dense: Dirty pages + process_vm_writev,10,,,95412948.0,ns,19392
snapshot_restore_with_dense,Dense: Dirty pages + process_vm_writev,10,,,96017855.0,ns,19594
snapshot_restore_with_dense,Dense: Dirty pages + process_vm_writev,10,,,97233202.0,ns,19796
snapshot_restore_with_dense,Dense: Dirty pages + process_vm_writev,10,,,98172604.0,ns,19998
snapshot_restore_with_dense,Dense: Dirty pages + process_vm_writev,10,,,98901185.0,ns,20200
