group,function,value,throughput_num,throughput_type,sample_measured_value,unit,iteration_count
snapshot_restore_with_dense,Dense: Dirty pages + process_vm_writev,1,,,1038963.0,ns,231
snapshot_restore_with_dense,Dense: Dirty pages + process_vm_writev,1,,,1951319.0,ns,462
snapshot_restore_with_dense,Dense: Dirty pages + process_vm_writev,1,,,2978529.0,ns,693
snapshot_restore_with_dense,Dense: Dirty pages + process_vm_writev,1,,,3962613.0,ns,924
snapshot_restore_with_dense,Dense: Dirty pages + process_vm_writev,1,,,5499183.0,ns,1155
snapshot_restore_with_dense,Dense: Dirty pages + process_vm_writev,1,,,6000810.0,ns,1386
snapshot_restore_with_dense,Dense: Dirty pages + process_vm_writev,1,,,8320734.0,ns,1617
snapshot_restore_with_dense,Dense: Dirty pages + process_vm_writev,1,,,8418291.0,ns,1848
snapshot_restore_with_dense,Dense: Dirty pages + process_vm_writev,1,,,9248309.0,ns,2079
snapshot_restore_with_dense,Dense: Dirty pages + process_vm_writev,1,,,10249805.0,ns,2310
snapshot_restore_with_dense,Dense: Dirty pages + process_vm_writev,1,,,10927012.0,ns,2541
snapshot_restore_with_dense,Dense: Dirty pages + process_vm_writev,1,,,11903648.0,ns,2772
snapshot_restore_with_dense,Dense: Dirty pages + process_vm_writev,1,,,12765665.0,ns,3003
snapshot_restore_with_dense,Dense: Dirty pages + process_vm_writev,1,,,13781973.0,ns,3234
snapshot_restore_with_dense,Dense: Dirty pages + process_vm_writev,1,,,15195271.0,ns,3465
snapshot_restore_with_dense,Dense: Dirty pages + process_vm_writev,1,,,15805990.0,ns,3696
snapshot_restore_with_dense,Dense: Dirty pages + process_vm_writev,1,,,16812904.0,ns,3927
snapshot_restore_with_dense,Dense: Dirty pages + process_vm_writev,1,,,17799845.0,ns,4158
snapshot_restore_with_dense,Dense: Dirty pages + process_vm_writev,1,,,18741226.0,ns,4389
snapshot_restore_with_dense,Dense: Dirty pages + process_vm_writev,1,,,19786633.0,ns,4620
snapshot_restore_with_dense,Dense: Dirty pages + process_vm_writev,1,,,20790979.0,ns,4851
snapshot_restore_with_dense,Dense: Dirty pages + process_vm_writev,1,,,21843865.0,ns,5082
snapshot_restore_with_dense,Dense: Dirty pages + process_vm_writev,1,,,22771262.0,ns,5313
snapshot_restore_with_dense,Dense: Dirty pages + process_vm_writev,1,,,23861935.0,ns,5544
snapshot_restore_with_dense,Dense: Dirty pages + process_vm_writev,1,,,24783439.0,ns,5775
snapshot_restore_with_dense,Dense: Dirty pages + process_vm_writev,1,,,25778969.0,ns,6006
snapshot_restore_with_dense,Dense: Dirty pages + process_vm_writev,1,,,26721057.0,ns,6237
snapshot_restore_with_dense,Dense: Dirty pages + process_vm_writev,1,,,27773550.0,ns,6468
snapshot_restore_with_dense,Dense: Dirty pages + process_vm_writev,1,,,28863702.0,ns,6699
snapshot_restore_with_dense,Dense: Dirty pages + process_vm_writev,1,,,29958823.0,ns,6930
snapshot_restore_with_dense,Dense: Dirty pages + process_vm_writev,1,,,30733175.0,ns,7161
snapshot_restore_with_dense,Dense: Dirty pages + process_vm_writev,1,,,31771283.0,ns,7392
snapshot_restore_with_dense,Dense: Dirty pages + process_vm_writev,1,,,32639613.0,ns,7623
snapshot_restore_with_dense,Dense: Dirty pages + process_vm_writev,1,,,33618512.0,ns,7854
snapshot_restore_with_dense,Dense: Dirty pages + process_vm_writev,1,,,34712396.0,ns,8085
snapshot_restore_with_dense,Dense: Dirty pages + process_vm_writev,1,,,35675761.0,ns,8316
snapshot_restore_with_dense,Dense: Dirty pages + process_vm_writev,1,,,36914126.0,ns,8547
snapshot_restore_with_dense,Dense: Dirty pages + process_vm_writev,1,,,37883186.0,ns,8778
snapshot_restore_with_dense,Dense: Dirty pages + process_vm_writev,1,,,38632740.0,ns,9009
snapshot_restore_with_dense,Dense: Dirty pages + process_vm_writev,1,,,39554910.0,ns,9240
snapshot_restore_with_dense,Dense: Dirty pages + process_vm_writev,1,,,40712870.0,ns,9471
snapshot_restore_with_dense,Dense: Dirty pages + process_vm_writev,1,,,41418564.0,ns,9702
snapshot_restore_with_dense,Dense: Dirty pages + process_vm_writev,1,,,42568338.0,ns,9933
snapshot_restore_with_dense,Dense: Dirty pages + process_vm_writev,1,,,43550628.0,ns,10164
snapshot_restore_with_dense,Dense: Dirty pages + process_vm_writev,1,,,44516962.0,ns,10395
snapshot_restore_with_dense,Dense: Dirty pages + process_vm_writev,1,,,45551490.0,ns,10626
snapshot_restore_with_dense,Dense: Dirty pages + process_vm_writev,1,,,46491980.0,ns,10857
snapshot_restore_with_dense,Dense: Dirty pages + process_vm_writev,1,,,47684316.0,ns,11088
snapshot_restore_with_dense,Dense: Dirty pages + process_vm_writev,1,,,48392119.0,ns,11319
snapshot_restore_with_dense,Dense: Dirty pages + process_vm_writev,1,,,49714258.0,ns,11550
snapshot_restore_with_dense,Dense: Dirty pages + process_vm_writev,1,,,50576355.0,ns,11781
snapshot_restore_with_dense,Dense: Dirty pages + process_vm_writev,1,,,51622789.0,ns,12012
snapshot_restore_with_dense,Dense: Dirty pages + process_vm_writev,1,,,52591137.0,ns,12243
snapshot_restore_with_dense,Dense: Dirty pages + process_vm_writev,1,,,53649479.0,ns,12474
snapshot_restore_with_dense,Dense: Dirty pages + process_vm_writev,1,,,54516720.0,ns,12705
snapshot_restore_with_dense,Dense: Dirty pages + process_vm_writev,1,,,55646441.0,ns,12936
snapshot_restore_with_dense,Dense: Dirty pages + process_vm_writev,1,,,56634894.0,ns,13167
snapshot_restore_with_dense,Dense: Dirty pages + process_vm_writev,1,,,57510676.0,ns,13398
snapshot_restore_with_dense,Dense: Dirty pages + process_vm_writev,1,,,58491624.0,ns,13629
snapshot_restore_with_dense,Dense: Dirty pages + process_vm_writev,1,,,59444905.0,ns,13860
snapshot_restore_with_dense,Dense: Dirty pages + process_vm_writev,1,,,60533186.0,ns,14091
snapshot_restore_with_dense,Dense: Dirty pages + process_vm_writev,1,,,61297987.0,ns,14322
snapshot_restore_with_dense,Dense: Dirty pages + process_vm_writev,1,,,62561216.0,ns,14553
snapshot_restore_with_dense,Dense: Dirty pages + process_vm_writev,1,,,63571834.0,ns,14784
snapshot_restore_with_dense,Dense: Dirty pages + process_vm_writev,1,,,64537089.0,ns,15015
snapshot_restore_with_dense,Dense: Dirty pages + process_vm_writev,1,,,65448559.0,ns,15246
snapshot_restore_with_dense,Dense: Dirty pages + process_vm_writev,1,,,66484768.0,ns,15477
snapshot_restore_with_dense,Dense: Dirty pages + process_vm_writev,1,,,67448940.0,ns,15708
snapshot_restore_with_dense,Dense: Dirty pages + process_vm_writev,1,,,68493054.0,ns,15939
snapshot_restore_with_dense,Dense: Dirty pages + process_vm_writev,1,,,69405773.0,ns,16170
snapshot_restore_with_dense,Dense: Dirty pages + process_vm_writev,1,,,75424686.0,ns,16401
snapshot_restore_with_dense,Dense: Dirty pages + process_vm_writev,1,,,72716589.0,ns,16632
snapshot_restore_with_dense,Dense: Dirty pages + process_vm_writev,1,,,72718235.0,ns,16863
snapshot_restore_with_dense,Dense: Dirty pages + process_vm_writev,1,,,73625570.0,ns,17094
snapshot_restore_with_dense,Dense: Dirty pages + process_vm_writev,1,,,74510073.0,ns,17325
snapshot_restore_with_dense,Dense: Dirty pages + process_vm_writev,1,,,75388911.0,ns,17556
snapshot_restore_with_dense,Dense: Dirty pages + process_vm_writev,1,,,76459827.0,ns,17787
snapshot_restore_with_dense,Dense: Dirty pages + process_vm_writev,1,,,77199030.0,ns,18018
snapshot_restore_with_dense,Dense: Dirty pages + process_vm_writev,1,,,78168567.0,ns,18249
snapshot_restore_with_dense,Dense: Dirty pages + process_vm_writev,1,,,79170367.0,ns,18480
snapshot_restore_with_dense,Dense: Dirty pages + process_vm_writev,1,,,80441248.0,ns,18711
snapshot_restore_with_dense,Dense: Dirty pages + process_vm_writev,1,,,81437574.0,ns,18942
snapshot_restore_with_dense,Dense: Dirty pages + process_vm_writev,1,,,82307520.0,ns,19173
snapshot_restore_with_dense,Dense: Dirty pages + process_vm_writev,1,,,83203454.0,ns,19404
snapshot_restore_with_dense,Dense: Dirty pages + process_vm_writev,1,,,84170385.0,ns,19635
snapshot_restore_with_dense,Dense: Dirty pages + process_vm_writev,1,,,85327574.0,ns,19866
snapshot_restore_with_dense,Dense: Dirty pages + process_vm_writev,1,,,86185012.0,ns,20097
snapshot_restore_with_dense,Dense: Dirty pages + process_vm_writev,1,,,87054021.0,ns,20328
snapshot_restore_with_dense,Dense: Dirty pages + process_vm_writev,1,,,88121830.0,ns,20559
snapshot_restore_with_dense,Dense: Dirty pages + process_vm_writev,1,,,89089810.0,ns,20790
snapshot_restore_with_dense,Dense: Dirty pages + process_vm_writev,1,,,90145471.0,ns,21021
snapshot_restore_with_dense,Dense: Dirty pages + process_vm_writev,1,,,91078893.0,ns,21252
snapshot_restore_with_dense,Dense: Dirty pages + process_vm_writev,1,,,92185919.0,ns,21483
snapshot_restore_with_dense,Dense: Dirty pages + process_vm_writev,1,,,93055816.0,ns,21714
snapshot_restore_with_dense,Dense: Dirty pages + process_vm_writev,1,,,96279075.0,ns,21945
snapshot_restore_with_dense,Dense: Dirty pages + process_vm_writev,1,,,96976099.0,ns,22176
snapshot_restore_with_dense,Dense: Dirty pages + process_vm_writev,1,,,98248835.0,ns,22407
snapshot_restore_with_dense,Dense: Dirty pages + process_vm_writev,1,,,98660808.0,ns,22638
snapshot_restore_with_dense,Dense: Dirty pages + process_vm_writev,1,,,100669299.0,ns,22869
snapshot_restore_with_dense,Dense: Dirty pages + process_vm_writev,1,,,101154922.0,ns,23100
