<?xml version="1.0" encoding="utf-8"  standalone="no"?>
<svg 
 viewBox="0 0 1280 720"
 xmlns="http://www.w3.org/2000/svg"
 xmlns:xlink="http://www.w3.org/1999/xlink"
>

<title>Gnuplot</title>
<desc>Produced by GNUPLOT 5.2 patchlevel 6 </desc>

<g id="gnuplot_canvas">

<rect x="0" y="0" width="1280" height="720" fill="none"/>
<defs>

	<circle id='gpDot' r='0.5' stroke-width='0.5' stroke='currentColor'/>
	<path id='gpPt0' stroke-width='0.222' stroke='currentColor' d='M-1,0 h2 M0,-1 v2'/>
	<path id='gpPt1' stroke-width='0.222' stroke='currentColor' d='M-1,-1 L1,1 M1,-1 L-1,1'/>
	<path id='gpPt2' stroke-width='0.222' stroke='currentColor' d='M-1,0 L1,0 M0,-1 L0,1 M-1,-1 L1,1 M-1,1 L1,-1'/>
	<rect id='gpPt3' stroke-width='0.222' stroke='currentColor' x='-1' y='-1' width='2' height='2'/>
	<rect id='gpPt4' stroke-width='0.222' stroke='currentColor' fill='currentColor' x='-1' y='-1' width='2' height='2'/>
	<circle id='gpPt5' stroke-width='0.222' stroke='currentColor' cx='0' cy='0' r='1'/>
	<use xlink:href='#gpPt5' id='gpPt6' fill='currentColor' stroke='none'/>
	<path id='gpPt7' stroke-width='0.222' stroke='currentColor' d='M0,-1.33 L-1.33,0.67 L1.33,0.67 z'/>
	<use xlink:href='#gpPt7' id='gpPt8' fill='currentColor' stroke='none'/>
	<use xlink:href='#gpPt7' id='gpPt9' stroke='currentColor' transform='rotate(180)'/>
	<use xlink:href='#gpPt9' id='gpPt10' fill='currentColor' stroke='none'/>
	<use xlink:href='#gpPt3' id='gpPt11' stroke='currentColor' transform='rotate(45)'/>
	<use xlink:href='#gpPt11' id='gpPt12' fill='currentColor' stroke='none'/>
	<path id='gpPt13' stroke-width='0.222' stroke='currentColor' d='M0,1.330 L1.265,0.411 L0.782,-1.067 L-0.782,-1.076 L-1.265,0.411 z'/>
	<use xlink:href='#gpPt13' id='gpPt14' fill='currentColor' stroke='none'/>
	<filter id='textbox' filterUnits='objectBoundingBox' x='0' y='0' height='1' width='1'>
	  <feFlood flood-color='white' flood-opacity='1' result='bgnd'/>
	  <feComposite in='SourceGraphic' in2='bgnd' operator='atop'/>
	</filter>
	<filter id='greybox' filterUnits='objectBoundingBox' x='0' y='0' height='1' width='1'>
	  <feFlood flood-color='lightgrey' flood-opacity='1' result='grey'/>
	  <feComposite in='SourceGraphic' in2='grey' operator='atop'/>
	</filter>
</defs>
<g fill="none" color="white" stroke="currentColor" stroke-width="1.00" stroke-linecap="butt" stroke-linejoin="miter">
</g>
<g fill="none" color="black" stroke="currentColor" stroke-width="1.00" stroke-linecap="butt" stroke-linejoin="miter">
	<path stroke='black'  d='M71.9,662.4 L80.9,662.4  '/>	<g transform="translate(63.6,666.3)" stroke="none" fill="black" font-family="Helvetica" font-size="12.00"  text-anchor="end">
		<text><tspan font-family="Helvetica" > 0</tspan></text>
	</g>
</g>
<g fill="none" color="black" stroke="currentColor" stroke-width="1.00" stroke-linecap="butt" stroke-linejoin="miter">
	<path stroke='black'  d='M71.9,575.5 L80.9,575.5  '/>	<g transform="translate(63.6,579.4)" stroke="none" fill="black" font-family="Helvetica" font-size="12.00"  text-anchor="end">
		<text><tspan font-family="Helvetica" > 0.2</tspan></text>
	</g>
</g>
<g fill="none" color="black" stroke="currentColor" stroke-width="1.00" stroke-linecap="butt" stroke-linejoin="miter">
	<path stroke='black'  d='M71.9,488.6 L80.9,488.6  '/>	<g transform="translate(63.6,492.5)" stroke="none" fill="black" font-family="Helvetica" font-size="12.00"  text-anchor="end">
		<text><tspan font-family="Helvetica" > 0.4</tspan></text>
	</g>
</g>
<g fill="none" color="black" stroke="currentColor" stroke-width="1.00" stroke-linecap="butt" stroke-linejoin="miter">
	<path stroke='black'  d='M71.9,401.7 L80.9,401.7  '/>	<g transform="translate(63.6,405.6)" stroke="none" fill="black" font-family="Helvetica" font-size="12.00"  text-anchor="end">
		<text><tspan font-family="Helvetica" > 0.6</tspan></text>
	</g>
</g>
<g fill="none" color="black" stroke="currentColor" stroke-width="1.00" stroke-linecap="butt" stroke-linejoin="miter">
	<path stroke='black'  d='M71.9,314.8 L80.9,314.8  '/>	<g transform="translate(63.6,318.7)" stroke="none" fill="black" font-family="Helvetica" font-size="12.00"  text-anchor="end">
		<text><tspan font-family="Helvetica" > 0.8</tspan></text>
	</g>
</g>
<g fill="none" color="black" stroke="currentColor" stroke-width="1.00" stroke-linecap="butt" stroke-linejoin="miter">
	<path stroke='black'  d='M71.9,227.9 L80.9,227.9  '/>	<g transform="translate(63.6,231.8)" stroke="none" fill="black" font-family="Helvetica" font-size="12.00"  text-anchor="end">
		<text><tspan font-family="Helvetica" > 1</tspan></text>
	</g>
</g>
<g fill="none" color="black" stroke="currentColor" stroke-width="1.00" stroke-linecap="butt" stroke-linejoin="miter">
	<path stroke='black'  d='M71.9,141.0 L80.9,141.0  '/>	<g transform="translate(63.6,144.9)" stroke="none" fill="black" font-family="Helvetica" font-size="12.00"  text-anchor="end">
		<text><tspan font-family="Helvetica" > 1.2</tspan></text>
	</g>
</g>
<g fill="none" color="black" stroke="currentColor" stroke-width="1.00" stroke-linecap="butt" stroke-linejoin="miter">
	<path stroke='black'  d='M71.9,54.1 L80.9,54.1  '/>	<g transform="translate(63.6,58.0)" stroke="none" fill="black" font-family="Helvetica" font-size="12.00"  text-anchor="end">
		<text><tspan font-family="Helvetica" > 1.4</tspan></text>
	</g>
</g>
<g fill="none" color="black" stroke="currentColor" stroke-width="1.00" stroke-linecap="butt" stroke-linejoin="miter">
	<path stroke='black'  d='M164.1,662.4 L164.1,653.4  '/>	<g transform="translate(164.1,684.3)" stroke="none" fill="black" font-family="Helvetica" font-size="12.00"  text-anchor="middle">
		<text><tspan font-family="Helvetica" > 0.6</tspan></text>
	</g>
</g>
<g fill="none" color="black" stroke="currentColor" stroke-width="1.00" stroke-linecap="butt" stroke-linejoin="miter">
	<path stroke='black'  d='M289.5,662.4 L289.5,653.4  '/>	<g transform="translate(289.5,684.3)" stroke="none" fill="black" font-family="Helvetica" font-size="12.00"  text-anchor="middle">
		<text><tspan font-family="Helvetica" > 0.8</tspan></text>
	</g>
</g>
<g fill="none" color="black" stroke="currentColor" stroke-width="1.00" stroke-linecap="butt" stroke-linejoin="miter">
	<path stroke='black'  d='M414.8,662.4 L414.8,653.4  '/>	<g transform="translate(414.8,684.3)" stroke="none" fill="black" font-family="Helvetica" font-size="12.00"  text-anchor="middle">
		<text><tspan font-family="Helvetica" > 1</tspan></text>
	</g>
</g>
<g fill="none" color="black" stroke="currentColor" stroke-width="1.00" stroke-linecap="butt" stroke-linejoin="miter">
	<path stroke='black'  d='M540.1,662.4 L540.1,653.4  '/>	<g transform="translate(540.1,684.3)" stroke="none" fill="black" font-family="Helvetica" font-size="12.00"  text-anchor="middle">
		<text><tspan font-family="Helvetica" > 1.2</tspan></text>
	</g>
</g>
<g fill="none" color="black" stroke="currentColor" stroke-width="1.00" stroke-linecap="butt" stroke-linejoin="miter">
	<path stroke='black'  d='M665.5,662.4 L665.5,653.4  '/>	<g transform="translate(665.5,684.3)" stroke="none" fill="black" font-family="Helvetica" font-size="12.00"  text-anchor="middle">
		<text><tspan font-family="Helvetica" > 1.4</tspan></text>
	</g>
</g>
<g fill="none" color="black" stroke="currentColor" stroke-width="1.00" stroke-linecap="butt" stroke-linejoin="miter">
	<path stroke='black'  d='M790.8,662.4 L790.8,653.4  '/>	<g transform="translate(790.8,684.3)" stroke="none" fill="black" font-family="Helvetica" font-size="12.00"  text-anchor="middle">
		<text><tspan font-family="Helvetica" > 1.6</tspan></text>
	</g>
</g>
<g fill="none" color="black" stroke="currentColor" stroke-width="1.00" stroke-linecap="butt" stroke-linejoin="miter">
	<path stroke='black'  d='M916.1,662.4 L916.1,653.4  '/>	<g transform="translate(916.1,684.3)" stroke="none" fill="black" font-family="Helvetica" font-size="12.00"  text-anchor="middle">
		<text><tspan font-family="Helvetica" > 1.8</tspan></text>
	</g>
</g>
<g fill="none" color="black" stroke="currentColor" stroke-width="1.00" stroke-linecap="butt" stroke-linejoin="miter">
</g>
<g fill="none" color="black" stroke="currentColor" stroke-width="1.00" stroke-linecap="butt" stroke-linejoin="miter">
	<path stroke='black'  d='M71.9,54.1 L71.9,662.4 L1013.6,662.4 L1013.6,54.1 L71.9,54.1 Z  '/></g>
<g fill="none" color="black" stroke="currentColor" stroke-width="1.00" stroke-linecap="butt" stroke-linejoin="miter">
	<g transform="translate(16.3,358.3) rotate(270)" stroke="none" fill="black" font-family="Helvetica" font-size="12.00"  text-anchor="middle">
		<text><tspan font-family="Helvetica" >Density (a.u.)</tspan></text>
	</g>
</g>
<g fill="none" color="black" stroke="currentColor" stroke-width="1.00" stroke-linecap="butt" stroke-linejoin="miter">
	<g transform="translate(542.7,711.3)" stroke="none" fill="black" font-family="Helvetica" font-size="12.00"  text-anchor="middle">
		<text><tspan font-family="Helvetica" >Average time (us)</tspan></text>
	</g>
</g>
<g fill="none" color="black" stroke="currentColor" stroke-width="1.00" stroke-linecap="butt" stroke-linejoin="miter">
	<g transform="translate(542.7,31.0)" stroke="none" fill="black" font-family="Helvetica" font-size="12.00"  text-anchor="middle">
		<text><tspan font-family="Helvetica" >snapshot_restore_with_dense/Sparse: Entire region + process_vm_writev w/ page size/10: SD</tspan></text>
	</g>
</g>
	<g id="gnuplot_plot_1" ><title>Bootstrap distribution</title>
<g fill="none" color="white" stroke="black" stroke-width="2.00" stroke-linecap="butt" stroke-linejoin="miter">
</g>
<g fill="none" color="black" stroke="currentColor" stroke-width="2.00" stroke-linecap="butt" stroke-linejoin="miter">
	<g transform="translate(1089.0,67.0)" stroke="none" fill="black" font-family="Helvetica" font-size="12.00"  text-anchor="start">
		<text><tspan font-family="Helvetica" >Bootstrap distribution</tspan></text>
	</g>
</g>
<g fill="none" color="black" stroke="currentColor" stroke-width="2.00" stroke-linecap="butt" stroke-linejoin="miter">
	<path stroke='rgb( 31, 120, 180)'  d='M1038.5,63.1 L1080.7,63.1 M71.9,631.2 L73.8,630.3 L75.7,629.4 L77.6,628.5 L79.4,627.5 L81.3,626.6
		L83.2,625.7 L85.1,624.7 L87.0,623.8 L88.9,622.8 L90.8,621.9 L92.7,620.9 L94.5,620.0 L96.4,619.1
		L98.3,618.2 L100.2,617.3 L102.1,616.4 L104.0,615.5 L105.9,614.6 L107.8,613.8 L109.6,613.0 L111.5,612.2
		L113.4,611.5 L115.3,610.8 L117.2,610.1 L119.1,609.5 L121.0,608.9 L122.9,608.3 L124.7,607.8 L126.6,607.3
		L128.5,606.8 L130.4,606.3 L132.3,605.9 L134.2,605.4 L136.1,605.0 L138.0,604.5 L139.8,604.1 L141.7,603.6
		L143.6,603.2 L145.5,602.7 L147.4,602.2 L149.3,601.7 L151.2,601.1 L153.0,600.5 L154.9,599.9 L156.8,599.3
		L158.7,598.6 L160.6,597.9 L162.5,597.1 L164.4,596.2 L166.3,595.3 L168.1,594.4 L170.0,593.4 L171.9,592.3
		L173.8,591.1 L175.7,589.9 L177.6,588.6 L179.5,587.2 L181.4,585.8 L183.2,584.3 L185.1,582.8 L187.0,581.2
		L188.9,579.5 L190.8,577.8 L192.7,576.1 L194.6,574.2 L196.5,572.4 L198.3,570.5 L200.2,568.6 L202.1,566.7
		L204.0,564.8 L205.9,562.8 L207.8,560.9 L209.7,559.0 L211.6,557.0 L213.4,555.2 L215.3,553.3 L217.2,551.5
		L219.1,549.7 L221.0,548.0 L222.9,546.3 L224.8,544.7 L226.6,543.2 L228.5,541.7 L230.4,540.3 L232.3,538.9
		L234.2,537.6 L236.1,536.4 L238.0,535.2 L239.9,534.0 L241.7,532.8 L243.6,531.7 L245.5,530.6 L247.4,529.4
		L249.3,528.2 L251.2,527.0 L253.1,525.7 L255.0,524.4 L256.8,522.9 L258.7,521.4 L260.6,519.7 L262.5,517.9
		L264.4,516.0 L266.3,513.9 L268.2,511.8 L270.1,509.4 L271.9,507.0 L273.8,504.4 L275.7,501.7 L277.6,498.8
		L279.5,495.9 L281.4,492.9 L283.3,489.8 L285.2,486.7 L287.0,483.5 L288.9,480.3 L290.8,477.1 L292.7,474.0
		L294.6,470.9 L296.5,467.8 L298.4,464.8 L300.2,461.9 L302.1,459.1 L304.0,456.3 L305.9,453.7 L307.8,451.2
		L309.7,448.9 L311.6,446.6 L313.5,444.4 L315.3,442.4 L317.2,440.4 L319.1,438.4 L321.0,436.6 L322.9,434.7
		L324.8,432.9 L326.7,431.0 L328.6,429.2 L330.4,427.2 L332.3,425.2 L334.2,423.1 L336.1,420.9 L338.0,418.5
		L339.9,416.0 L341.8,413.3 L343.7,410.5 L345.5,407.5 L347.4,404.4 L349.3,401.0 L351.2,397.6 L353.1,393.9
		L355.0,390.2 L356.9,386.3 L358.8,382.3 L360.6,378.3 L362.5,374.2 L364.4,370.0 L366.3,365.9 L368.2,361.7
		L370.1,357.6 L372.0,353.5 L373.8,349.5 L375.7,345.6 L377.6,341.8 L379.5,338.1 L381.4,334.5 L383.3,331.1
		L385.2,327.8 L387.1,324.6 L388.9,321.6 L390.8,318.7 L392.7,315.9 L394.6,313.2 L396.5,310.6 L398.4,308.1
		L400.3,305.6 L402.2,303.1 L404.0,300.7 L405.9,298.3 L407.8,295.8 L409.7,293.3 L411.6,290.7 L413.5,288.1
		L415.4,285.3 L417.3,282.5 L419.1,279.6 L421.0,276.5 L422.9,273.4 L424.8,270.1 L426.7,266.8 L428.6,263.4
		L430.5,259.9 L432.4,256.4 L434.2,252.9 L436.1,249.3 L438.0,245.8 L439.9,242.4 L441.8,239.0 L443.7,235.6
		L445.6,232.4 L447.4,229.3 L449.3,226.3 L451.2,223.4 L453.1,220.6 L455.0,218.0 L456.9,215.4 L458.8,213.0
		L460.7,210.6 L462.5,208.3 L464.4,206.0 L466.3,203.7 L468.2,201.4 L470.1,199.1 L472.0,196.7 L473.9,194.2
		L475.8,191.7 L477.6,189.1 L479.5,186.4 L481.4,183.6 L483.3,180.7 L485.2,177.8 L487.1,174.8 L489.0,171.8
		L490.9,168.7 L492.7,165.7 L494.6,162.6 L496.5,159.7 L498.4,156.8 L500.3,154.0 L502.2,151.2 L504.1,148.6
		L506.0,146.1 L507.8,143.8 L509.7,141.6 L511.6,139.4 L513.5,137.4 L515.4,135.5 L517.3,133.7 L519.2,132.0
		L521.0,130.4 L522.9,128.8 L524.8,127.2 L526.7,125.7 L528.6,124.2 L530.5,122.7 L532.4,121.3 L534.3,119.8
		L536.1,118.4 L538.0,117.0 L539.9,115.6 L541.8,114.3 L543.7,113.0 L545.6,111.8 L547.5,110.7 L549.4,109.7
		L551.2,108.7 L553.1,107.9 L555.0,107.2 L556.9,106.6 L558.8,106.1 L560.7,105.8 L562.6,105.5 L564.5,105.4
		L566.3,105.3 L568.2,105.3 L570.1,105.4 L572.0,105.5 L573.9,105.7 L575.8,105.8 L577.7,106.0 L579.5,106.2
		L581.4,106.3 L583.3,106.4 L585.2,106.5 L587.1,106.5 L589.0,106.5 L590.9,106.5 L592.8,106.4 L594.6,106.4
		L596.5,106.3 L598.4,106.3 L600.3,106.3 L602.2,106.4 L604.1,106.5 L606.0,106.6 L607.9,106.9 L609.7,107.2
		L611.6,107.6 L613.5,108.1 L615.4,108.6 L617.3,109.2 L619.2,109.9 L621.1,110.5 L623.0,111.3 L624.8,112.0
		L626.7,112.7 L628.6,113.5 L630.5,114.2 L632.4,115.0 L634.3,115.7 L636.2,116.4 L638.1,117.1 L639.9,117.9
		L641.8,118.7 L643.7,119.5 L645.6,120.3 L647.5,121.3 L649.4,122.3 L651.3,123.5 L653.1,124.8 L655.0,126.2
		L656.9,127.7 L658.8,129.4 L660.7,131.2 L662.6,133.2 L664.5,135.4 L666.4,137.6 L668.2,140.0 L670.1,142.5
		L672.0,145.0 L673.9,147.7 L675.8,150.4 L677.7,153.1 L679.6,155.9 L681.5,158.7 L683.3,161.6 L685.2,164.4
		L687.1,167.2 L689.0,170.0 L690.9,172.8 L692.8,175.7 L694.7,178.5 L696.6,181.3 L698.4,184.1 L700.3,186.9
		L702.2,189.7 L704.1,192.6 L706.0,195.4 L707.9,198.3 L709.8,201.2 L711.7,204.1 L713.5,207.0 L715.4,210.0
		L717.3,212.9 L719.2,215.9 L721.1,218.9 L723.0,221.9 L724.9,224.9 L726.7,228.0 L728.6,231.1 L730.5,234.2
		L732.4,237.4 L734.3,240.6 L736.2,243.8 L738.1,247.1 L740.0,250.4 L741.8,253.8 L743.7,257.1 L745.6,260.6
		L747.5,264.0 L749.4,267.5 L751.3,271.0 L753.2,274.6 L755.1,278.1 L756.9,281.6 L758.8,285.2 L760.7,288.7
		L762.6,292.2 L764.5,295.6 L766.4,299.1 L768.3,302.5 L770.2,305.9 L772.0,309.4 L773.9,312.7 L775.8,316.1
		L777.7,319.5 L779.6,322.9 L781.5,326.3 L783.4,329.7 L785.3,333.1 L787.1,336.6 L789.0,340.1 L790.9,343.6
		L792.8,347.2 L794.7,350.7 L796.6,354.3 L798.5,357.9 L800.3,361.6 L802.2,365.2 L804.1,368.9 L806.0,372.5
		L807.9,376.2 L809.8,379.8 L811.7,383.5 L813.6,387.1 L815.4,390.7 L817.3,394.4 L819.2,398.0 L821.1,401.5
		L823.0,405.1 L824.9,408.7 L826.8,412.2 L828.7,415.7 L830.5,419.2 L832.4,422.7 L834.3,426.2 L836.2,429.6
		L838.1,433.1 L840.0,436.5 L841.9,439.9 L843.8,443.3 L845.6,446.7 L847.5,450.1 L849.4,453.4 L851.3,456.8
		L853.2,460.1 L855.1,463.4 L857.0,466.7 L858.9,470.0 L860.7,473.3 L862.6,476.5 L864.5,479.8 L866.4,483.0
		L868.3,486.2 L870.2,489.3 L872.1,492.5 L873.9,495.6 L875.8,498.7 L877.7,501.7 L879.6,504.8 L881.5,507.7
		L883.4,510.7 L885.3,513.6 L887.2,516.5 L889.0,519.3 L890.9,522.1 L892.8,524.9 L894.7,527.7 L896.6,530.4
		L898.5,533.0 L900.4,535.6 L902.3,538.2 L904.1,540.8 L906.0,543.3 L907.9,545.7 L909.8,548.1 L911.7,550.5
		L913.6,552.8 L915.5,555.0 L917.4,557.2 L919.2,559.4 L921.1,561.5 L923.0,563.5 L924.9,565.5 L926.8,567.4
		L928.7,569.3 L930.6,571.1 L932.5,572.9 L934.3,574.7 L936.2,576.4 L938.1,578.1 L940.0,579.8 L941.9,581.4
		L943.8,583.0 L945.7,584.6 L947.5,586.1 L949.4,587.7 L951.3,589.2 L953.2,590.8 L955.1,592.3 L957.0,593.8
		L958.9,595.3 L960.8,596.7 L962.6,598.2 L964.5,599.7 L966.4,601.1 L968.3,602.5 L970.2,603.9 L972.1,605.3
		L974.0,606.7 L975.9,608.0 L977.7,609.3 L979.6,610.6 L981.5,611.9 L983.4,613.1 L985.3,614.4 L987.2,615.6
		L989.1,616.7 L991.0,617.9 L992.8,619.0 L994.7,620.1 L996.6,621.2 L998.5,622.3 L1000.4,623.3 L1002.3,624.4
		L1004.2,625.4 L1006.1,626.4 L1007.9,627.4 L1009.8,628.3 L1011.7,629.3 L1013.6,630.2  '/></g>
	</g>
	<g id="gnuplot_plot_2" ><title>Confidence interval</title>
<g fill="none" color="white" stroke="rgb( 31, 120, 180)" stroke-width="1.00" stroke-linecap="butt" stroke-linejoin="miter">
</g>
<g fill="none" color="black" stroke="currentColor" stroke-width="1.00" stroke-linecap="butt" stroke-linejoin="miter">
	<g transform="translate(1089.0,85.0)" stroke="none" fill="black" font-family="Helvetica" font-size="12.00"  text-anchor="start">
		<text><tspan font-family="Helvetica" >Confidence interval</tspan></text>
	</g>
</g>
<g fill="none" color="black" stroke="currentColor" stroke-width="1.00" stroke-linecap="butt" stroke-linejoin="miter">
	<g stroke='none' shape-rendering='crispEdges'>
		<polygon fill = 'rgb( 31, 120, 180)' fill-opacity = '0.250000' points = '1038.5,85.6 1080.7,85.6 1080.7,76.6 1038.5,76.6 '/>
		<polygon fill = 'rgb( 31, 120, 180)' fill-opacity = '0.250000' points = '158.7,598.6 160.6,597.9 162.5,597.1 164.4,596.2 166.3,595.3 168.1,594.4 170.0,593.4 171.9,592.3 173.8,591.1 175.7,589.9 177.6,588.6 179.5,587.2 181.4,585.8 183.2,584.3 185.1,582.8 187.0,581.2
188.9,579.5 190.8,577.8 192.7,576.1 194.6,574.2 196.5,572.4 198.3,570.5 200.2,568.6 202.1,566.7 204.0,564.8 205.9,562.8 207.8,560.9 209.7,559.0 211.6,557.0 213.4,555.2 215.3,553.3 217.2,551.5
219.1,549.7 221.0,548.0 222.9,546.3 224.8,544.7 226.6,543.2 228.5,541.7 230.4,540.3 232.3,538.9 234.2,537.6 236.1,536.4 238.0,535.2 239.9,534.0 241.7,532.8 243.6,531.7 245.5,530.6 247.4,529.4
249.3,528.2 251.2,527.0 253.1,525.7 255.0,524.4 256.8,522.9 258.7,521.4 260.6,519.7 262.5,517.9 264.4,516.0 266.3,513.9 268.2,511.8 270.1,509.4 271.9,507.0 273.8,504.4 275.7,501.7 277.6,498.8
279.5,495.9 281.4,492.9 283.3,489.8 285.2,486.7 287.0,483.5 288.9,480.3 290.8,477.1 292.7,474.0 294.6,470.9 296.5,467.8 298.4,464.8 300.2,461.9 302.1,459.1 304.0,456.3 305.9,453.7 307.8,451.2
309.7,448.9 311.6,446.6 313.5,444.4 315.3,442.4 317.2,440.4 319.1,438.4 321.0,436.6 322.9,434.7 324.8,432.9 326.7,431.0 328.6,429.2 330.4,427.2 332.3,425.2 334.2,423.1 336.1,420.9 338.0,418.5
339.9,416.0 341.8,413.3 343.7,410.5 345.5,407.5 347.4,404.4 349.3,401.0 351.2,397.6 353.1,393.9 355.0,390.2 356.9,386.3 358.8,382.3 360.6,378.3 362.5,374.2 364.4,370.0 366.3,365.9 368.2,361.7
370.1,357.6 372.0,353.5 373.8,349.5 375.7,345.6 377.6,341.8 379.5,338.1 381.4,334.5 383.3,331.1 385.2,327.8 387.1,324.6 388.9,321.6 390.8,318.7 392.7,315.9 394.6,313.2 396.5,310.6 398.4,308.1
400.3,305.6 402.2,303.1 404.0,300.7 405.9,298.3 407.8,295.8 409.7,293.3 411.6,290.7 413.5,288.1 415.4,285.3 417.3,282.5 419.1,279.6 421.0,276.5 422.9,273.4 424.8,270.1 426.7,266.8 428.6,263.4
430.5,259.9 432.4,256.4 434.2,252.9 436.1,249.3 438.0,245.8 439.9,242.4 441.8,239.0 443.7,235.6 445.6,232.4 447.4,229.3 449.3,226.3 451.2,223.4 453.1,220.6 455.0,218.0 456.9,215.4 458.8,213.0
460.7,210.6 462.5,208.3 464.4,206.0 466.3,203.7 468.2,201.4 470.1,199.1 472.0,196.7 473.9,194.2 475.8,191.7 477.6,189.1 479.5,186.4 481.4,183.6 483.3,180.7 485.2,177.8 487.1,174.8 489.0,171.8
490.9,168.7 492.7,165.7 494.6,162.6 496.5,159.7 498.4,156.8 500.3,154.0 502.2,151.2 504.1,148.6 506.0,146.1 507.8,143.8 509.7,141.6 511.6,139.4 513.5,137.4 515.4,135.5 517.3,133.7 519.2,132.0
521.0,130.4 522.9,128.8 524.8,127.2 526.7,125.7 528.6,124.2 530.5,122.7 532.4,121.3 534.3,119.8 536.1,118.4 538.0,117.0 539.9,115.6 541.8,114.3 543.7,113.0 545.6,111.8 547.5,110.7 549.4,109.7
551.2,108.7 553.1,107.9 555.0,107.2 556.9,106.6 558.8,106.1 560.7,105.8 562.6,105.5 564.5,105.4 566.3,105.3 568.2,105.3 570.1,105.4 572.0,105.5 573.9,105.7 575.8,105.8 577.7,106.0 579.5,106.2
581.4,106.3 583.3,106.4 585.2,106.5 587.1,106.5 589.0,106.5 590.9,106.5 592.8,106.4 594.6,106.4 596.5,106.3 598.4,106.3 600.3,106.3 602.2,106.4 604.1,106.5 606.0,106.6 607.9,106.9 609.7,107.2
611.6,107.6 613.5,108.1 615.4,108.6 617.3,109.2 619.2,109.9 621.1,110.5 623.0,111.3 624.8,112.0 626.7,112.7 628.6,113.5 630.5,114.2 632.4,115.0 634.3,115.7 636.2,116.4 638.1,117.1 639.9,117.9
641.8,118.7 643.7,119.5 645.6,120.3 647.5,121.3 649.4,122.3 651.3,123.5 653.1,124.8 655.0,126.2 656.9,127.7 658.8,129.4 660.7,131.2 662.6,133.2 664.5,135.4 666.4,137.6 668.2,140.0 670.1,142.5
672.0,145.0 673.9,147.7 675.8,150.4 677.7,153.1 679.6,155.9 681.5,158.7 683.3,161.6 685.2,164.4 687.1,167.2 689.0,170.0 690.9,172.8 692.8,175.7 694.7,178.5 696.6,181.3 698.4,184.1 700.3,186.9
702.2,189.7 704.1,192.6 706.0,195.4 707.9,198.3 709.8,201.2 711.7,204.1 713.5,207.0 715.4,210.0 717.3,212.9 719.2,215.9 721.1,218.9 723.0,221.9 724.9,224.9 726.7,228.0 728.6,231.1 730.5,234.2
732.4,237.4 734.3,240.6 736.2,243.8 738.1,247.1 740.0,250.4 741.8,253.8 743.7,257.1 745.6,260.6 747.5,264.0 749.4,267.5 751.3,271.0 753.2,274.6 755.1,278.1 756.9,281.6 758.8,285.2 760.7,288.7
762.6,292.2 764.5,295.6 766.4,299.1 768.3,302.5 770.2,305.9 772.0,309.4 773.9,312.7 775.8,316.1 777.7,319.5 779.6,322.9 781.5,326.3 783.4,329.7 785.3,333.1 787.1,336.6 789.0,340.1 790.9,343.6
792.8,347.2 794.7,350.7 796.6,354.3 798.5,357.9 800.3,361.6 802.2,365.2 804.1,368.9 806.0,372.5 807.9,376.2 809.8,379.8 811.7,383.5 813.6,387.1 815.4,390.7 817.3,394.4 819.2,398.0 821.1,401.5
823.0,405.1 824.9,408.7 826.8,412.2 828.7,415.7 830.5,419.2 832.4,422.7 834.3,426.2 836.2,429.6 838.1,433.1 840.0,436.5 841.9,439.9 843.8,443.3 845.6,446.7 847.5,450.1 849.4,453.4 851.3,456.8
853.2,460.1 855.1,463.4 857.0,466.7 858.9,470.0 860.7,473.3 862.6,476.5 864.5,479.8 866.4,483.0 868.3,486.2 870.2,489.3 872.1,492.5 873.9,495.6 875.8,498.7 877.7,501.7 879.6,504.8 881.5,507.7
883.4,510.7 885.3,513.6 887.2,516.5 889.0,519.3 890.9,522.1 892.8,524.9 894.7,527.7 896.6,530.4 898.5,533.0 900.4,535.6 902.3,538.2 904.1,540.8 906.0,543.3 907.9,545.7 909.8,548.1 911.7,550.5
913.6,552.8 915.5,555.0 917.4,557.2 919.2,559.4 921.1,561.5 923.0,563.5 924.9,565.5 924.9,662.4 923.0,662.4 921.1,662.4 919.2,662.4 917.4,662.4 915.5,662.4 913.6,662.4 911.7,662.4 909.8,662.4
907.9,662.4 906.0,662.4 904.1,662.4 902.3,662.4 900.4,662.4 898.5,662.4 896.6,662.4 894.7,662.4 892.8,662.4 890.9,662.4 889.0,662.4 887.2,662.4 885.3,662.4 883.4,662.4 881.5,662.4 879.6,662.4
877.7,662.4 875.8,662.4 873.9,662.4 872.1,662.4 870.2,662.4 868.3,662.4 866.4,662.4 864.5,662.4 862.6,662.4 860.7,662.4 858.9,662.4 857.0,662.4 855.1,662.4 853.2,662.4 851.3,662.4 849.4,662.4
847.5,662.4 845.6,662.4 843.8,662.4 841.9,662.4 840.0,662.4 838.1,662.4 836.2,662.4 834.3,662.4 832.4,662.4 830.5,662.4 828.7,662.4 826.8,662.4 824.9,662.4 823.0,662.4 821.1,662.4 819.2,662.4
817.3,662.4 815.4,662.4 813.6,662.4 811.7,662.4 809.8,662.4 807.9,662.4 806.0,662.4 804.1,662.4 802.2,662.4 800.3,662.4 798.5,662.4 796.6,662.4 794.7,662.4 792.8,662.4 790.9,662.4 789.0,662.4
787.1,662.4 785.3,662.4 783.4,662.4 781.5,662.4 779.6,662.4 777.7,662.4 775.8,662.4 773.9,662.4 772.0,662.4 770.2,662.4 768.3,662.4 766.4,662.4 764.5,662.4 762.6,662.4 760.7,662.4 758.8,662.4
756.9,662.4 755.1,662.4 753.2,662.4 751.3,662.4 749.4,662.4 747.5,662.4 745.6,662.4 743.7,662.4 741.8,662.4 740.0,662.4 738.1,662.4 736.2,662.4 734.3,662.4 732.4,662.4 730.5,662.4 728.6,662.4
726.7,662.4 724.9,662.4 723.0,662.4 721.1,662.4 719.2,662.4 717.3,662.4 715.4,662.4 713.5,662.4 711.7,662.4 709.8,662.4 707.9,662.4 706.0,662.4 704.1,662.4 702.2,662.4 700.3,662.4 698.4,662.4
696.6,662.4 694.7,662.4 692.8,662.4 690.9,662.4 689.0,662.4 687.1,662.4 685.2,662.4 683.3,662.4 681.5,662.4 679.6,662.4 677.7,662.4 675.8,662.4 673.9,662.4 672.0,662.4 670.1,662.4 668.2,662.4
666.4,662.4 664.5,662.4 662.6,662.4 660.7,662.4 658.8,662.4 656.9,662.4 655.0,662.4 653.1,662.4 651.3,662.4 649.4,662.4 647.5,662.4 645.6,662.4 643.7,662.4 641.8,662.4 639.9,662.4 638.1,662.4
636.2,662.4 634.3,662.4 632.4,662.4 630.5,662.4 628.6,662.4 626.7,662.4 624.8,662.4 623.0,662.4 621.1,662.4 619.2,662.4 617.3,662.4 615.4,662.4 613.5,662.4 611.6,662.4 609.7,662.4 607.9,662.4
606.0,662.4 604.1,662.4 602.2,662.4 600.3,662.4 598.4,662.4 596.5,662.4 594.6,662.4 592.8,662.4 590.9,662.4 589.0,662.4 587.1,662.4 585.2,662.4 583.3,662.4 581.4,662.4 579.5,662.4 577.7,662.4
575.8,662.4 573.9,662.4 572.0,662.4 570.1,662.4 568.2,662.4 566.3,662.4 564.5,662.4 562.6,662.4 560.7,662.4 558.8,662.4 556.9,662.4 555.0,662.4 553.1,662.4 551.2,662.4 549.4,662.4 547.5,662.4
545.6,662.4 543.7,662.4 541.8,662.4 539.9,662.4 538.0,662.4 536.1,662.4 534.3,662.4 532.4,662.4 530.5,662.4 528.6,662.4 526.7,662.4 524.8,662.4 522.9,662.4 521.0,662.4 519.2,662.4 517.3,662.4
515.4,662.4 513.5,662.4 511.6,662.4 509.7,662.4 507.8,662.4 506.0,662.4 504.1,662.4 502.2,662.4 500.3,662.4 498.4,662.4 496.5,662.4 494.6,662.4 492.7,662.4 490.9,662.4 489.0,662.4 487.1,662.4
485.2,662.4 483.3,662.4 481.4,662.4 479.5,662.4 477.6,662.4 475.8,662.4 473.9,662.4 472.0,662.4 470.1,662.4 468.2,662.4 466.3,662.4 464.4,662.4 462.5,662.4 460.7,662.4 458.8,662.4 456.9,662.4
455.0,662.4 453.1,662.4 451.2,662.4 449.3,662.4 447.4,662.4 445.6,662.4 443.7,662.4 441.8,662.4 439.9,662.4 438.0,662.4 436.1,662.4 434.2,662.4 432.4,662.4 430.5,662.4 428.6,662.4 426.7,662.4
424.8,662.4 422.9,662.4 421.0,662.4 419.1,662.4 417.3,662.4 415.4,662.4 413.5,662.4 411.6,662.4 409.7,662.4 407.8,662.4 405.9,662.4 404.0,662.4 402.2,662.4 400.3,662.4 398.4,662.4 396.5,662.4
394.6,662.4 392.7,662.4 390.8,662.4 388.9,662.4 387.1,662.4 385.2,662.4 383.3,662.4 381.4,662.4 379.5,662.4 377.6,662.4 375.7,662.4 373.8,662.4 372.0,662.4 370.1,662.4 368.2,662.4 366.3,662.4
364.4,662.4 362.5,662.4 360.6,662.4 358.8,662.4 356.9,662.4 355.0,662.4 353.1,662.4 351.2,662.4 349.3,662.4 347.4,662.4 345.5,662.4 343.7,662.4 341.8,662.4 339.9,662.4 338.0,662.4 336.1,662.4
334.2,662.4 332.3,662.4 330.4,662.4 328.6,662.4 326.7,662.4 324.8,662.4 322.9,662.4 321.0,662.4 319.1,662.4 317.2,662.4 315.3,662.4 313.5,662.4 311.6,662.4 309.7,662.4 307.8,662.4 305.9,662.4
304.0,662.4 302.1,662.4 300.2,662.4 298.4,662.4 296.5,662.4 294.6,662.4 292.7,662.4 290.8,662.4 288.9,662.4 287.0,662.4 285.2,662.4 283.3,662.4 281.4,662.4 279.5,662.4 277.6,662.4 275.7,662.4
273.8,662.4 271.9,662.4 270.1,662.4 268.2,662.4 266.3,662.4 264.4,662.4 262.5,662.4 260.6,662.4 258.7,662.4 256.8,662.4 255.0,662.4 253.1,662.4 251.2,662.4 249.3,662.4 247.4,662.4 245.5,662.4
243.6,662.4 241.7,662.4 239.9,662.4 238.0,662.4 236.1,662.4 234.2,662.4 232.3,662.4 230.4,662.4 228.5,662.4 226.6,662.4 224.8,662.4 222.9,662.4 221.0,662.4 219.1,662.4 217.2,662.4 215.3,662.4
213.4,662.4 211.6,662.4 209.7,662.4 207.8,662.4 205.9,662.4 204.0,662.4 202.1,662.4 200.2,662.4 198.3,662.4 196.5,662.4 194.6,662.4 192.7,662.4 190.8,662.4 188.9,662.4 187.0,662.4 185.1,662.4
183.2,662.4 181.4,662.4 179.5,662.4 177.6,662.4 175.7,662.4 173.8,662.4 171.9,662.4 170.0,662.4 168.1,662.4 166.3,662.4 164.4,662.4 162.5,662.4 160.6,662.4 158.7,662.4 '/>
	</g>
</g>
	</g>
	<g id="gnuplot_plot_3" ><title>Point estimate</title>
<g fill="none" color="white" stroke="rgb( 31, 120, 180)" stroke-width="2.00" stroke-linecap="butt" stroke-linejoin="miter">
</g>
<g fill="none" color="black" stroke="currentColor" stroke-width="2.00" stroke-linecap="butt" stroke-linejoin="miter">
	<g transform="translate(1089.0,103.0)" stroke="none" fill="black" font-family="Helvetica" font-size="12.00"  text-anchor="start">
		<text><tspan font-family="Helvetica" >Point estimate</tspan></text>
	</g>
</g>
<g fill="none" color="black" stroke="currentColor" stroke-width="2.00" stroke-linecap="butt" stroke-linejoin="miter">
	<path stroke='rgb( 31, 120, 180)'  d='M1038.5,99.1 L1080.7,99.1 M597.0,662.4 L597.0,106.3  '/></g>
	</g>
<g fill="none" color="black" stroke="currentColor" stroke-width="2.00" stroke-linecap="butt" stroke-linejoin="miter">
</g>
<g fill="none" color="black" stroke="black" stroke-width="1.00" stroke-linecap="butt" stroke-linejoin="miter">
</g>
<g fill="none" color="black" stroke="currentColor" stroke-width="1.00" stroke-linecap="butt" stroke-linejoin="miter">
	<path stroke='black'  d='M71.9,54.1 L71.9,662.4 L1013.6,662.4 L1013.6,54.1 L71.9,54.1 Z  '/></g>
<g fill="none" color="black" stroke="currentColor" stroke-width="1.00" stroke-linecap="butt" stroke-linejoin="miter">
</g>
</g>
</svg>

