<?xml version="1.0" encoding="utf-8"  standalone="no"?>
<svg 
 viewBox="0 0 1280 720"
 xmlns="http://www.w3.org/2000/svg"
 xmlns:xlink="http://www.w3.org/1999/xlink"
>

<title>Gnuplot</title>
<desc>Produced by GNUPLOT 5.2 patchlevel 6 </desc>

<g id="gnuplot_canvas">

<rect x="0" y="0" width="1280" height="720" fill="none"/>
<defs>

	<circle id='gpDot' r='0.5' stroke-width='0.5' stroke='currentColor'/>
	<path id='gpPt0' stroke-width='0.222' stroke='currentColor' d='M-1,0 h2 M0,-1 v2'/>
	<path id='gpPt1' stroke-width='0.222' stroke='currentColor' d='M-1,-1 L1,1 M1,-1 L-1,1'/>
	<path id='gpPt2' stroke-width='0.222' stroke='currentColor' d='M-1,0 L1,0 M0,-1 L0,1 M-1,-1 L1,1 M-1,1 L1,-1'/>
	<rect id='gpPt3' stroke-width='0.222' stroke='currentColor' x='-1' y='-1' width='2' height='2'/>
	<rect id='gpPt4' stroke-width='0.222' stroke='currentColor' fill='currentColor' x='-1' y='-1' width='2' height='2'/>
	<circle id='gpPt5' stroke-width='0.222' stroke='currentColor' cx='0' cy='0' r='1'/>
	<use xlink:href='#gpPt5' id='gpPt6' fill='currentColor' stroke='none'/>
	<path id='gpPt7' stroke-width='0.222' stroke='currentColor' d='M0,-1.33 L-1.33,0.67 L1.33,0.67 z'/>
	<use xlink:href='#gpPt7' id='gpPt8' fill='currentColor' stroke='none'/>
	<use xlink:href='#gpPt7' id='gpPt9' stroke='currentColor' transform='rotate(180)'/>
	<use xlink:href='#gpPt9' id='gpPt10' fill='currentColor' stroke='none'/>
	<use xlink:href='#gpPt3' id='gpPt11' stroke='currentColor' transform='rotate(45)'/>
	<use xlink:href='#gpPt11' id='gpPt12' fill='currentColor' stroke='none'/>
	<path id='gpPt13' stroke-width='0.222' stroke='currentColor' d='M0,1.330 L1.265,0.411 L0.782,-1.067 L-0.782,-1.076 L-1.265,0.411 z'/>
	<use xlink:href='#gpPt13' id='gpPt14' fill='currentColor' stroke='none'/>
	<filter id='textbox' filterUnits='objectBoundingBox' x='0' y='0' height='1' width='1'>
	  <feFlood flood-color='white' flood-opacity='1' result='bgnd'/>
	  <feComposite in='SourceGraphic' in2='bgnd' operator='atop'/>
	</filter>
	<filter id='greybox' filterUnits='objectBoundingBox' x='0' y='0' height='1' width='1'>
	  <feFlood flood-color='lightgrey' flood-opacity='1' result='grey'/>
	  <feComposite in='SourceGraphic' in2='grey' operator='atop'/>
	</filter>
</defs>
<g fill="none" color="white" stroke="currentColor" stroke-width="1.00" stroke-linecap="butt" stroke-linejoin="miter">
</g>
<g fill="none" color="black" stroke="currentColor" stroke-width="1.00" stroke-linecap="butt" stroke-linejoin="miter">
	<path stroke='black'  d='M80.2,662.4 L89.2,662.4  '/>	<g transform="translate(71.9,666.3)" stroke="none" fill="black" font-family="Helvetica" font-size="12.00"  text-anchor="end">
		<text><tspan font-family="Helvetica" > 0</tspan></text>
	</g>
</g>
<g fill="none" color="black" stroke="currentColor" stroke-width="1.00" stroke-linecap="butt" stroke-linejoin="miter">
	<path stroke='black'  d='M80.2,575.5 L89.2,575.5  '/>	<g transform="translate(71.9,579.4)" stroke="none" fill="black" font-family="Helvetica" font-size="12.00"  text-anchor="end">
		<text><tspan font-family="Helvetica" > 200</tspan></text>
	</g>
</g>
<g fill="none" color="black" stroke="currentColor" stroke-width="1.00" stroke-linecap="butt" stroke-linejoin="miter">
	<path stroke='black'  d='M80.2,488.6 L89.2,488.6  '/>	<g transform="translate(71.9,492.5)" stroke="none" fill="black" font-family="Helvetica" font-size="12.00"  text-anchor="end">
		<text><tspan font-family="Helvetica" > 400</tspan></text>
	</g>
</g>
<g fill="none" color="black" stroke="currentColor" stroke-width="1.00" stroke-linecap="butt" stroke-linejoin="miter">
	<path stroke='black'  d='M80.2,401.7 L89.2,401.7  '/>	<g transform="translate(71.9,405.6)" stroke="none" fill="black" font-family="Helvetica" font-size="12.00"  text-anchor="end">
		<text><tspan font-family="Helvetica" > 600</tspan></text>
	</g>
</g>
<g fill="none" color="black" stroke="currentColor" stroke-width="1.00" stroke-linecap="butt" stroke-linejoin="miter">
	<path stroke='black'  d='M80.2,314.8 L89.2,314.8  '/>	<g transform="translate(71.9,318.7)" stroke="none" fill="black" font-family="Helvetica" font-size="12.00"  text-anchor="end">
		<text><tspan font-family="Helvetica" > 800</tspan></text>
	</g>
</g>
<g fill="none" color="black" stroke="currentColor" stroke-width="1.00" stroke-linecap="butt" stroke-linejoin="miter">
	<path stroke='black'  d='M80.2,227.9 L89.2,227.9  '/>	<g transform="translate(71.9,231.8)" stroke="none" fill="black" font-family="Helvetica" font-size="12.00"  text-anchor="end">
		<text><tspan font-family="Helvetica" > 1000</tspan></text>
	</g>
</g>
<g fill="none" color="black" stroke="currentColor" stroke-width="1.00" stroke-linecap="butt" stroke-linejoin="miter">
	<path stroke='black'  d='M80.2,141.0 L89.2,141.0  '/>	<g transform="translate(71.9,144.9)" stroke="none" fill="black" font-family="Helvetica" font-size="12.00"  text-anchor="end">
		<text><tspan font-family="Helvetica" > 1200</tspan></text>
	</g>
</g>
<g fill="none" color="black" stroke="currentColor" stroke-width="1.00" stroke-linecap="butt" stroke-linejoin="miter">
	<path stroke='black'  d='M80.2,54.1 L89.2,54.1  '/>	<g transform="translate(71.9,58.0)" stroke="none" fill="black" font-family="Helvetica" font-size="12.00"  text-anchor="end">
		<text><tspan font-family="Helvetica" > 1400</tspan></text>
	</g>
</g>
<g fill="none" color="black" stroke="currentColor" stroke-width="1.00" stroke-linecap="butt" stroke-linejoin="miter">
	<path stroke='black'  d='M177.2,662.4 L177.2,653.4  '/>	<g transform="translate(177.2,684.3)" stroke="none" fill="black" font-family="Helvetica" font-size="12.00"  text-anchor="middle">
		<text><tspan font-family="Helvetica" >-26.34</tspan></text>
	</g>
</g>
<g fill="none" color="black" stroke="currentColor" stroke-width="1.00" stroke-linecap="butt" stroke-linejoin="miter">
	<path stroke='black'  d='M296.5,662.4 L296.5,653.4  '/>	<g transform="translate(296.5,684.3)" stroke="none" fill="black" font-family="Helvetica" font-size="12.00"  text-anchor="middle">
		<text><tspan font-family="Helvetica" >-26.32</tspan></text>
	</g>
</g>
<g fill="none" color="black" stroke="currentColor" stroke-width="1.00" stroke-linecap="butt" stroke-linejoin="miter">
	<path stroke='black'  d='M415.8,662.4 L415.8,653.4  '/>	<g transform="translate(415.8,684.3)" stroke="none" fill="black" font-family="Helvetica" font-size="12.00"  text-anchor="middle">
		<text><tspan font-family="Helvetica" >-26.3</tspan></text>
	</g>
</g>
<g fill="none" color="black" stroke="currentColor" stroke-width="1.00" stroke-linecap="butt" stroke-linejoin="miter">
	<path stroke='black'  d='M535.0,662.4 L535.0,653.4  '/>	<g transform="translate(535.0,684.3)" stroke="none" fill="black" font-family="Helvetica" font-size="12.00"  text-anchor="middle">
		<text><tspan font-family="Helvetica" >-26.28</tspan></text>
	</g>
</g>
<g fill="none" color="black" stroke="currentColor" stroke-width="1.00" stroke-linecap="butt" stroke-linejoin="miter">
	<path stroke='black'  d='M654.3,662.4 L654.3,653.4  '/>	<g transform="translate(654.3,684.3)" stroke="none" fill="black" font-family="Helvetica" font-size="12.00"  text-anchor="middle">
		<text><tspan font-family="Helvetica" >-26.26</tspan></text>
	</g>
</g>
<g fill="none" color="black" stroke="currentColor" stroke-width="1.00" stroke-linecap="butt" stroke-linejoin="miter">
	<path stroke='black'  d='M773.6,662.4 L773.6,653.4  '/>	<g transform="translate(773.6,684.3)" stroke="none" fill="black" font-family="Helvetica" font-size="12.00"  text-anchor="middle">
		<text><tspan font-family="Helvetica" >-26.24</tspan></text>
	</g>
</g>
<g fill="none" color="black" stroke="currentColor" stroke-width="1.00" stroke-linecap="butt" stroke-linejoin="miter">
	<path stroke='black'  d='M892.9,662.4 L892.9,653.4  '/>	<g transform="translate(892.9,684.3)" stroke="none" fill="black" font-family="Helvetica" font-size="12.00"  text-anchor="middle">
		<text><tspan font-family="Helvetica" >-26.22</tspan></text>
	</g>
</g>
<g fill="none" color="black" stroke="currentColor" stroke-width="1.00" stroke-linecap="butt" stroke-linejoin="miter">
	<path stroke='black'  d='M1012.2,662.4 L1012.2,653.4  '/>	<g transform="translate(1012.2,684.3)" stroke="none" fill="black" font-family="Helvetica" font-size="12.00"  text-anchor="middle">
		<text><tspan font-family="Helvetica" >-26.2</tspan></text>
	</g>
</g>
<g fill="none" color="black" stroke="currentColor" stroke-width="1.00" stroke-linecap="butt" stroke-linejoin="miter">
</g>
<g fill="none" color="black" stroke="currentColor" stroke-width="1.00" stroke-linecap="butt" stroke-linejoin="miter">
	<path stroke='black'  d='M80.2,54.1 L80.2,662.4 L1013.6,662.4 L1013.6,54.1 L80.2,54.1 Z  '/></g>
<g fill="none" color="black" stroke="currentColor" stroke-width="1.00" stroke-linecap="butt" stroke-linejoin="miter">
	<g transform="translate(16.3,358.3) rotate(270)" stroke="none" fill="black" font-family="Helvetica" font-size="12.00"  text-anchor="middle">
		<text><tspan font-family="Helvetica" >Density (a.u.)</tspan></text>
	</g>
</g>
<g fill="none" color="black" stroke="currentColor" stroke-width="1.00" stroke-linecap="butt" stroke-linejoin="miter">
	<g transform="translate(546.9,711.3)" stroke="none" fill="black" font-family="Helvetica" font-size="12.00"  text-anchor="middle">
		<text><tspan font-family="Helvetica" >Relative change (%)</tspan></text>
	</g>
</g>
<g fill="none" color="black" stroke="currentColor" stroke-width="1.00" stroke-linecap="butt" stroke-linejoin="miter">
	<g transform="translate(546.9,31.0)" stroke="none" fill="black" font-family="Helvetica" font-size="12.00"  text-anchor="middle">
		<text><tspan font-family="Helvetica" >snapshot_restore_with_dense/Dense: Dirty pages + process_vm_writev/46: median</tspan></text>
	</g>
</g>
	<g id="gnuplot_plot_1" ><title>Bootstrap distribution</title>
<g fill="none" color="white" stroke="black" stroke-width="2.00" stroke-linecap="butt" stroke-linejoin="miter">
</g>
<g fill="none" color="black" stroke="currentColor" stroke-width="2.00" stroke-linecap="butt" stroke-linejoin="miter">
	<g transform="translate(1089.0,67.0)" stroke="none" fill="black" font-family="Helvetica" font-size="12.00"  text-anchor="start">
		<text><tspan font-family="Helvetica" >Bootstrap distribution</tspan></text>
	</g>
</g>
<g fill="none" color="black" stroke="currentColor" stroke-width="2.00" stroke-linecap="butt" stroke-linejoin="miter">
	<path stroke='rgb( 31, 120, 180)'  d='M1038.5,63.1 L1080.7,63.1 M80.2,634.0 L82.1,632.7 L83.9,631.4 L85.8,630.0 L87.7,628.6 L89.6,627.2
		L91.4,625.7 L93.3,624.2 L95.2,622.7 L97.0,621.1 L98.9,619.5 L100.8,617.8 L102.6,616.1 L104.5,614.4
		L106.4,612.6 L108.3,610.8 L110.1,608.9 L112.0,607.0 L113.9,605.1 L115.7,603.1 L117.6,601.0 L119.5,599.0
		L121.4,596.8 L123.2,594.6 L125.1,592.4 L127.0,590.1 L128.8,587.8 L130.7,585.4 L132.6,583.0 L134.4,580.6
		L136.3,578.1 L138.2,575.5 L140.1,573.0 L141.9,570.3 L143.8,567.7 L145.7,565.0 L147.5,562.2 L149.4,559.5
		L151.3,556.6 L153.2,553.8 L155.0,550.9 L156.9,547.9 L158.8,545.0 L160.6,541.9 L162.5,538.9 L164.4,535.8
		L166.2,532.7 L168.1,529.5 L170.0,526.4 L171.9,523.2 L173.7,519.9 L175.6,516.7 L177.5,513.5 L179.3,510.2
		L181.2,507.0 L183.1,503.7 L185.0,500.5 L186.8,497.3 L188.7,494.1 L190.6,491.0 L192.4,487.8 L194.3,484.7
		L196.2,481.7 L198.0,478.6 L199.9,475.6 L201.8,472.7 L203.7,469.8 L205.5,467.0 L207.4,464.2 L209.3,461.5
		L211.1,458.8 L213.0,456.2 L214.9,453.7 L216.7,451.2 L218.6,448.9 L220.5,446.5 L222.4,444.3 L224.2,442.1
		L226.1,440.0 L228.0,438.0 L229.8,436.1 L231.7,434.2 L233.6,432.4 L235.5,430.7 L237.3,429.1 L239.2,427.5
		L241.1,425.9 L242.9,424.4 L244.8,423.0 L246.7,421.6 L248.5,420.2 L250.4,418.8 L252.3,417.5 L254.2,416.1
		L256.0,414.8 L257.9,413.4 L259.8,412.1 L261.6,410.7 L263.5,409.3 L265.4,407.8 L267.3,406.4 L269.1,404.9
		L271.0,403.3 L272.9,401.8 L274.7,400.2 L276.6,398.6 L278.5,397.0 L280.3,395.3 L282.2,393.6 L284.1,391.8
		L286.0,390.0 L287.8,388.2 L289.7,386.3 L291.6,384.4 L293.4,382.3 L295.3,380.3 L297.2,378.1 L299.1,375.8
		L300.9,373.5 L302.8,371.1 L304.7,368.6 L306.5,366.1 L308.4,363.5 L310.3,360.8 L312.1,358.1 L314.0,355.4
		L315.9,352.7 L317.8,349.9 L319.6,347.2 L321.5,344.5 L323.4,341.8 L325.2,339.2 L327.1,336.6 L329.0,334.1
		L330.9,331.6 L332.7,329.1 L334.6,326.7 L336.5,324.3 L338.3,322.0 L340.2,319.7 L342.1,317.5 L343.9,315.2
		L345.8,313.0 L347.7,310.8 L349.6,308.6 L351.4,306.5 L353.3,304.3 L355.2,302.2 L357.0,300.0 L358.9,297.9
		L360.8,295.7 L362.7,293.5 L364.5,291.2 L366.4,288.9 L368.3,286.5 L370.1,284.0 L372.0,281.4 L373.9,278.7
		L375.7,275.8 L377.6,272.7 L379.5,269.5 L381.4,266.0 L383.2,262.4 L385.1,258.6 L387.0,254.6 L388.8,250.4
		L390.7,246.0 L392.6,241.5 L394.5,236.8 L396.3,232.0 L398.2,227.1 L400.1,222.2 L401.9,217.3 L403.8,212.3
		L405.7,207.4 L407.5,202.5 L409.4,197.7 L411.3,193.0 L413.2,188.3 L415.0,183.7 L416.9,179.3 L418.8,174.9
		L420.6,170.6 L422.5,166.5 L424.4,162.4 L426.3,158.4 L428.1,154.5 L430.0,150.7 L431.9,147.0 L433.7,143.5
		L435.6,140.0 L437.5,136.7 L439.3,133.6 L441.2,130.6 L443.1,127.9 L445.0,125.3 L446.8,123.0 L448.7,120.9
		L450.6,119.1 L452.4,117.6 L454.3,116.3 L456.2,115.3 L458.0,114.5 L459.9,114.0 L461.8,113.7 L463.7,113.6
		L465.5,113.6 L467.4,113.8 L469.3,114.1 L471.1,114.5 L473.0,115.0 L474.9,115.5 L476.8,116.1 L478.6,116.7
		L480.5,117.3 L482.4,118.0 L484.2,118.8 L486.1,119.6 L488.0,120.4 L489.8,121.4 L491.7,122.4 L493.6,123.5
		L495.5,124.8 L497.3,126.2 L499.2,127.7 L501.1,129.4 L502.9,131.1 L504.8,133.0 L506.7,134.9 L508.6,136.9
		L510.4,139.0 L512.3,141.1 L514.2,143.1 L516.0,145.1 L517.9,147.1 L519.8,148.9 L521.6,150.7 L523.5,152.3
		L525.4,153.9 L527.3,155.3 L529.1,156.7 L531.0,158.0 L532.9,159.2 L534.7,160.4 L536.6,161.6 L538.5,162.8
		L540.4,164.1 L542.2,165.5 L544.1,167.0 L546.0,168.6 L547.8,170.4 L549.7,172.4 L551.6,174.5 L553.4,176.8
		L555.3,179.2 L557.2,181.8 L559.1,184.5 L560.9,187.2 L562.8,190.1 L564.7,192.9 L566.5,195.8 L568.4,198.7
		L570.3,201.5 L572.2,204.3 L574.0,207.0 L575.9,209.6 L577.8,212.1 L579.6,214.5 L581.5,216.8 L583.4,219.0
		L585.2,221.1 L587.1,223.1 L589.0,224.9 L590.9,226.7 L592.7,228.4 L594.6,229.9 L596.5,231.4 L598.3,232.7
		L600.2,234.0 L602.1,235.1 L604.0,236.1 L605.8,237.1 L607.7,237.9 L609.6,238.7 L611.4,239.4 L613.3,240.1
		L615.2,240.8 L617.0,241.4 L618.9,242.0 L620.8,242.6 L622.7,243.2 L624.5,243.9 L626.4,244.6 L628.3,245.3
		L630.1,246.2 L632.0,247.0 L633.9,248.0 L635.8,248.9 L637.6,249.9 L639.5,251.0 L641.4,252.1 L643.2,253.3
		L645.1,254.4 L647.0,255.6 L648.8,256.9 L650.7,258.2 L652.6,259.6 L654.5,261.1 L656.3,262.7 L658.2,264.5
		L660.1,266.4 L661.9,268.5 L663.8,270.9 L665.7,273.5 L667.5,276.3 L669.4,279.4 L671.3,282.8 L673.2,286.5
		L675.0,290.5 L676.9,294.7 L678.8,299.1 L680.6,303.7 L682.5,308.4 L684.4,313.3 L686.3,318.2 L688.1,323.1
		L690.0,328.0 L691.9,332.9 L693.7,337.7 L695.6,342.3 L697.5,346.9 L699.3,351.2 L701.2,355.5 L703.1,359.5
		L705.0,363.5 L706.8,367.2 L708.7,370.9 L710.6,374.4 L712.4,377.7 L714.3,381.0 L716.2,384.2 L718.1,387.2
		L719.9,390.1 L721.8,393.0 L723.7,395.6 L725.5,398.2 L727.4,400.6 L729.3,402.8 L731.1,404.8 L733.0,406.6
		L734.9,408.2 L736.8,409.5 L738.6,410.7 L740.5,411.6 L742.4,412.3 L744.2,412.9 L746.1,413.3 L748.0,413.6
		L749.9,413.9 L751.7,414.1 L753.6,414.3 L755.5,414.6 L757.3,415.0 L759.2,415.5 L761.1,416.2 L762.9,417.1
		L764.8,418.3 L766.7,419.7 L768.6,421.4 L770.4,423.3 L772.3,425.5 L774.2,427.9 L776.0,430.6 L777.9,433.4
		L779.8,436.4 L781.7,439.5 L783.5,442.7 L785.4,446.0 L787.3,449.3 L789.1,452.7 L791.0,456.0 L792.9,459.2
		L794.7,462.5 L796.6,465.6 L798.5,468.7 L800.4,471.6 L802.2,474.5 L804.1,477.3 L806.0,480.0 L807.8,482.6
		L809.7,485.2 L811.6,487.7 L813.5,490.1 L815.3,492.4 L817.2,494.7 L819.1,497.0 L820.9,499.2 L822.8,501.3
		L824.7,503.4 L826.5,505.5 L828.4,507.6 L830.3,509.6 L832.2,511.6 L834.0,513.5 L835.9,515.4 L837.8,517.2
		L839.6,519.0 L841.5,520.7 L843.4,522.4 L845.3,524.0 L847.1,525.5 L849.0,527.0 L850.9,528.5 L852.7,529.9
		L854.6,531.3 L856.5,532.6 L858.3,534.0 L860.2,535.3 L862.1,536.7 L864.0,538.0 L865.8,539.4 L867.7,540.9
		L869.6,542.4 L871.4,543.9 L873.3,545.5 L875.2,547.2 L877.1,549.0 L878.9,550.8 L880.8,552.8 L882.7,554.8
		L884.5,556.8 L886.4,559.0 L888.3,561.1 L890.1,563.3 L892.0,565.6 L893.9,567.8 L895.8,570.1 L897.6,572.3
		L899.5,574.5 L901.4,576.7 L903.2,578.8 L905.1,580.8 L907.0,582.8 L908.8,584.8 L910.7,586.6 L912.6,588.4
		L914.5,590.2 L916.3,591.9 L918.2,593.5 L920.1,595.1 L921.9,596.6 L923.8,598.1 L925.7,599.6 L927.6,601.0
		L929.4,602.5 L931.3,603.8 L933.2,605.2 L935.0,606.5 L936.9,607.7 L938.8,608.9 L940.6,610.0 L942.5,611.1
		L944.4,612.1 L946.3,613.0 L948.1,613.8 L950.0,614.5 L951.9,615.1 L953.7,615.6 L955.6,616.0 L957.5,616.3
		L959.4,616.6 L961.2,616.7 L963.1,616.8 L965.0,616.8 L966.8,616.8 L968.7,616.7 L970.6,616.7 L972.4,616.6
		L974.3,616.6 L976.2,616.6 L978.1,616.7 L979.9,616.8 L981.8,617.0 L983.7,617.2 L985.5,617.6 L987.4,618.0
		L989.3,618.6 L991.2,619.2 L993.0,619.9 L994.9,620.6 L996.8,621.5 L998.6,622.4 L1000.5,623.4 L1002.4,624.4
		L1004.2,625.5 L1006.1,626.5 L1008.0,627.7 L1009.9,628.8 L1011.7,629.9 L1013.6,631.1  '/></g>
	</g>
	<g id="gnuplot_plot_2" ><title>Confidence interval</title>
<g fill="none" color="white" stroke="rgb( 31, 120, 180)" stroke-width="1.00" stroke-linecap="butt" stroke-linejoin="miter">
</g>
<g fill="none" color="black" stroke="currentColor" stroke-width="1.00" stroke-linecap="butt" stroke-linejoin="miter">
	<g transform="translate(1089.0,85.0)" stroke="none" fill="black" font-family="Helvetica" font-size="12.00"  text-anchor="start">
		<text><tspan font-family="Helvetica" >Confidence interval</tspan></text>
	</g>
</g>
<g fill="none" color="black" stroke="currentColor" stroke-width="1.00" stroke-linecap="butt" stroke-linejoin="miter">
	<g stroke='none' shape-rendering='crispEdges'>
		<polygon fill = 'rgb( 31, 120, 180)' fill-opacity = '0.250000' points = '1038.5,85.6 1080.7,85.6 1080.7,76.6 1038.5,76.6 '/>
		<polygon fill = 'rgb( 31, 120, 180)' fill-opacity = '0.250000' points = '166.2,532.7 168.1,529.5 170.0,526.4 171.9,523.2 173.7,519.9 175.6,516.7 177.5,513.5 179.3,510.2 181.2,507.0 183.1,503.7 185.0,500.5 186.8,497.3 188.7,494.1 190.6,491.0 192.4,487.8 194.3,484.7
196.2,481.7 198.0,478.6 199.9,475.6 201.8,472.7 203.7,469.8 205.5,467.0 207.4,464.2 209.3,461.5 211.1,458.8 213.0,456.2 214.9,453.7 216.7,451.2 218.6,448.9 220.5,446.5 222.4,444.3 224.2,442.1
226.1,440.0 228.0,438.0 229.8,436.1 231.7,434.2 233.6,432.4 235.5,430.7 237.3,429.1 239.2,427.5 241.1,425.9 242.9,424.4 244.8,423.0 246.7,421.6 248.5,420.2 250.4,418.8 252.3,417.5 254.2,416.1
256.0,414.8 257.9,413.4 259.8,412.1 261.6,410.7 263.5,409.3 265.4,407.8 267.3,406.4 269.1,404.9 271.0,403.3 272.9,401.8 274.7,400.2 276.6,398.6 278.5,397.0 280.3,395.3 282.2,393.6 284.1,391.8
286.0,390.0 287.8,388.2 289.7,386.3 291.6,384.4 293.4,382.3 295.3,380.3 297.2,378.1 299.1,375.8 300.9,373.5 302.8,371.1 304.7,368.6 306.5,366.1 308.4,363.5 310.3,360.8 312.1,358.1 314.0,355.4
315.9,352.7 317.8,349.9 319.6,347.2 321.5,344.5 323.4,341.8 325.2,339.2 327.1,336.6 329.0,334.1 330.9,331.6 332.7,329.1 334.6,326.7 336.5,324.3 338.3,322.0 340.2,319.7 342.1,317.5 343.9,315.2
345.8,313.0 347.7,310.8 349.6,308.6 351.4,306.5 353.3,304.3 355.2,302.2 357.0,300.0 358.9,297.9 360.8,295.7 362.7,293.5 364.5,291.2 366.4,288.9 368.3,286.5 370.1,284.0 372.0,281.4 373.9,278.7
375.7,275.8 377.6,272.7 379.5,269.5 381.4,266.0 383.2,262.4 385.1,258.6 387.0,254.6 388.8,250.4 390.7,246.0 392.6,241.5 394.5,236.8 396.3,232.0 398.2,227.1 400.1,222.2 401.9,217.3 403.8,212.3
405.7,207.4 407.5,202.5 409.4,197.7 411.3,193.0 413.2,188.3 415.0,183.7 416.9,179.3 418.8,174.9 420.6,170.6 422.5,166.5 424.4,162.4 426.3,158.4 428.1,154.5 430.0,150.7 431.9,147.0 433.7,143.5
435.6,140.0 437.5,136.7 439.3,133.6 441.2,130.6 443.1,127.9 445.0,125.3 446.8,123.0 448.7,120.9 450.6,119.1 452.4,117.6 454.3,116.3 456.2,115.3 458.0,114.5 459.9,114.0 461.8,113.7 463.7,113.6
465.5,113.6 467.4,113.8 469.3,114.1 471.1,114.5 473.0,115.0 474.9,115.5 476.8,116.1 478.6,116.7 480.5,117.3 482.4,118.0 484.2,118.8 486.1,119.6 488.0,120.4 489.8,121.4 491.7,122.4 493.6,123.5
495.5,124.8 497.3,126.2 499.2,127.7 501.1,129.4 502.9,131.1 504.8,133.0 506.7,134.9 508.6,136.9 510.4,139.0 512.3,141.1 514.2,143.1 516.0,145.1 517.9,147.1 519.8,148.9 521.6,150.7 523.5,152.3
525.4,153.9 527.3,155.3 529.1,156.7 531.0,158.0 532.9,159.2 534.7,160.4 536.6,161.6 538.5,162.8 540.4,164.1 542.2,165.5 544.1,167.0 546.0,168.6 547.8,170.4 549.7,172.4 551.6,174.5 553.4,176.8
555.3,179.2 557.2,181.8 559.1,184.5 560.9,187.2 562.8,190.1 564.7,192.9 566.5,195.8 568.4,198.7 570.3,201.5 572.2,204.3 574.0,207.0 575.9,209.6 577.8,212.1 579.6,214.5 581.5,216.8 583.4,219.0
585.2,221.1 587.1,223.1 589.0,224.9 590.9,226.7 592.7,228.4 594.6,229.9 596.5,231.4 598.3,232.7 600.2,234.0 602.1,235.1 604.0,236.1 605.8,237.1 607.7,237.9 609.6,238.7 611.4,239.4 613.3,240.1
615.2,240.8 617.0,241.4 618.9,242.0 620.8,242.6 622.7,243.2 624.5,243.9 626.4,244.6 628.3,245.3 630.1,246.2 632.0,247.0 633.9,248.0 635.8,248.9 637.6,249.9 639.5,251.0 641.4,252.1 643.2,253.3
645.1,254.4 647.0,255.6 648.8,256.9 650.7,258.2 652.6,259.6 654.5,261.1 656.3,262.7 658.2,264.5 660.1,266.4 661.9,268.5 663.8,270.9 665.7,273.5 667.5,276.3 669.4,279.4 671.3,282.8 673.2,286.5
675.0,290.5 676.9,294.7 678.8,299.1 680.6,303.7 682.5,308.4 684.4,313.3 686.3,318.2 688.1,323.1 690.0,328.0 691.9,332.9 693.7,337.7 695.6,342.3 697.5,346.9 699.3,351.2 701.2,355.5 703.1,359.5
705.0,363.5 706.8,367.2 708.7,370.9 710.6,374.4 712.4,377.7 714.3,381.0 716.2,384.2 718.1,387.2 719.9,390.1 721.8,393.0 723.7,395.6 725.5,398.2 727.4,400.6 729.3,402.8 731.1,404.8 733.0,406.6
734.9,408.2 736.8,409.5 738.6,410.7 740.5,411.6 742.4,412.3 744.2,412.9 746.1,413.3 748.0,413.6 749.9,413.9 751.7,414.1 753.6,414.3 755.5,414.6 757.3,415.0 759.2,415.5 761.1,416.2 762.9,417.1
764.8,418.3 766.7,419.7 768.6,421.4 770.4,423.3 772.3,425.5 774.2,427.9 776.0,430.6 777.9,433.4 779.8,436.4 781.7,439.5 783.5,442.7 785.4,446.0 787.3,449.3 789.1,452.7 791.0,456.0 792.9,459.2
794.7,462.5 796.6,465.6 798.5,468.7 800.4,471.6 802.2,474.5 804.1,477.3 806.0,480.0 807.8,482.6 809.7,485.2 811.6,487.7 813.5,490.1 815.3,492.4 817.2,494.7 819.1,497.0 820.9,499.2 822.8,501.3
824.7,503.4 826.5,505.5 828.4,507.6 830.3,509.6 832.2,511.6 834.0,513.5 835.9,515.4 837.8,517.2 839.6,519.0 841.5,520.7 843.4,522.4 845.3,524.0 847.1,525.5 849.0,527.0 850.9,528.5 852.7,529.9
854.6,531.3 856.5,532.6 858.3,534.0 860.2,535.3 862.1,536.7 864.0,538.0 865.8,539.4 867.7,540.9 869.6,542.4 871.4,543.9 873.3,545.5 875.2,547.2 877.1,549.0 878.9,550.8 880.8,552.8 882.7,554.8
884.5,556.8 886.4,559.0 888.3,561.1 890.1,563.3 892.0,565.6 893.9,567.8 895.8,570.1 897.6,572.3 899.5,574.5 901.4,576.7 903.2,578.8 905.1,580.8 907.0,582.8 908.8,584.8 910.7,586.6 912.6,588.4
914.5,590.2 916.3,591.9 918.2,593.5 920.1,595.1 921.9,596.6 923.8,598.1 925.7,599.6 925.7,662.4 923.8,662.4 921.9,662.4 920.1,662.4 918.2,662.4 916.3,662.4 914.5,662.4 912.6,662.4 910.7,662.4
908.8,662.4 907.0,662.4 905.1,662.4 903.2,662.4 901.4,662.4 899.5,662.4 897.6,662.4 895.8,662.4 893.9,662.4 892.0,662.4 890.1,662.4 888.3,662.4 886.4,662.4 884.5,662.4 882.7,662.4 880.8,662.4
878.9,662.4 877.1,662.4 875.2,662.4 873.3,662.4 871.4,662.4 869.6,662.4 867.7,662.4 865.8,662.4 864.0,662.4 862.1,662.4 860.2,662.4 858.3,662.4 856.5,662.4 854.6,662.4 852.7,662.4 850.9,662.4
849.0,662.4 847.1,662.4 845.3,662.4 843.4,662.4 841.5,662.4 839.6,662.4 837.8,662.4 835.9,662.4 834.0,662.4 832.2,662.4 830.3,662.4 828.4,662.4 826.5,662.4 824.7,662.4 822.8,662.4 820.9,662.4
819.1,662.4 817.2,662.4 815.3,662.4 813.5,662.4 811.6,662.4 809.7,662.4 807.8,662.4 806.0,662.4 804.1,662.4 802.2,662.4 800.4,662.4 798.5,662.4 796.6,662.4 794.7,662.4 792.9,662.4 791.0,662.4
789.1,662.4 787.3,662.4 785.4,662.4 783.5,662.4 781.7,662.4 779.8,662.4 777.9,662.4 776.0,662.4 774.2,662.4 772.3,662.4 770.4,662.4 768.6,662.4 766.7,662.4 764.8,662.4 762.9,662.4 761.1,662.4
759.2,662.4 757.3,662.4 755.5,662.4 753.6,662.4 751.7,662.4 749.9,662.4 748.0,662.4 746.1,662.4 744.2,662.4 742.4,662.4 740.5,662.4 738.6,662.4 736.8,662.4 734.9,662.4 733.0,662.4 731.1,662.4
729.3,662.4 727.4,662.4 725.5,662.4 723.7,662.4 721.8,662.4 719.9,662.4 718.1,662.4 716.2,662.4 714.3,662.4 712.4,662.4 710.6,662.4 708.7,662.4 706.8,662.4 705.0,662.4 703.1,662.4 701.2,662.4
699.3,662.4 697.5,662.4 695.6,662.4 693.7,662.4 691.9,662.4 690.0,662.4 688.1,662.4 686.3,662.4 684.4,662.4 682.5,662.4 680.6,662.4 678.8,662.4 676.9,662.4 675.0,662.4 673.2,662.4 671.3,662.4
669.4,662.4 667.5,662.4 665.7,662.4 663.8,662.4 661.9,662.4 660.1,662.4 658.2,662.4 656.3,662.4 654.5,662.4 652.6,662.4 650.7,662.4 648.8,662.4 647.0,662.4 645.1,662.4 643.2,662.4 641.4,662.4
639.5,662.4 637.6,662.4 635.8,662.4 633.9,662.4 632.0,662.4 630.1,662.4 628.3,662.4 626.4,662.4 624.5,662.4 622.7,662.4 620.8,662.4 618.9,662.4 617.0,662.4 615.2,662.4 613.3,662.4 611.4,662.4
609.6,662.4 607.7,662.4 605.8,662.4 604.0,662.4 602.1,662.4 600.2,662.4 598.3,662.4 596.5,662.4 594.6,662.4 592.7,662.4 590.9,662.4 589.0,662.4 587.1,662.4 585.2,662.4 583.4,662.4 581.5,662.4
579.6,662.4 577.8,662.4 575.9,662.4 574.0,662.4 572.2,662.4 570.3,662.4 568.4,662.4 566.5,662.4 564.7,662.4 562.8,662.4 560.9,662.4 559.1,662.4 557.2,662.4 555.3,662.4 553.4,662.4 551.6,662.4
549.7,662.4 547.8,662.4 546.0,662.4 544.1,662.4 542.2,662.4 540.4,662.4 538.5,662.4 536.6,662.4 534.7,662.4 532.9,662.4 531.0,662.4 529.1,662.4 527.3,662.4 525.4,662.4 523.5,662.4 521.6,662.4
519.8,662.4 517.9,662.4 516.0,662.4 514.2,662.4 512.3,662.4 510.4,662.4 508.6,662.4 506.7,662.4 504.8,662.4 502.9,662.4 501.1,662.4 499.2,662.4 497.3,662.4 495.5,662.4 493.6,662.4 491.7,662.4
489.8,662.4 488.0,662.4 486.1,662.4 484.2,662.4 482.4,662.4 480.5,662.4 478.6,662.4 476.8,662.4 474.9,662.4 473.0,662.4 471.1,662.4 469.3,662.4 467.4,662.4 465.5,662.4 463.7,662.4 461.8,662.4
459.9,662.4 458.0,662.4 456.2,662.4 454.3,662.4 452.4,662.4 450.6,662.4 448.7,662.4 446.8,662.4 445.0,662.4 443.1,662.4 441.2,662.4 439.3,662.4 437.5,662.4 435.6,662.4 433.7,662.4 431.9,662.4
430.0,662.4 428.1,662.4 426.3,662.4 424.4,662.4 422.5,662.4 420.6,662.4 418.8,662.4 416.9,662.4 415.0,662.4 413.2,662.4 411.3,662.4 409.4,662.4 407.5,662.4 405.7,662.4 403.8,662.4 401.9,662.4
400.1,662.4 398.2,662.4 396.3,662.4 394.5,662.4 392.6,662.4 390.7,662.4 388.8,662.4 387.0,662.4 385.1,662.4 383.2,662.4 381.4,662.4 379.5,662.4 377.6,662.4 375.7,662.4 373.9,662.4 372.0,662.4
370.1,662.4 368.3,662.4 366.4,662.4 364.5,662.4 362.7,662.4 360.8,662.4 358.9,662.4 357.0,662.4 355.2,662.4 353.3,662.4 351.4,662.4 349.6,662.4 347.7,662.4 345.8,662.4 343.9,662.4 342.1,662.4
340.2,662.4 338.3,662.4 336.5,662.4 334.6,662.4 332.7,662.4 330.9,662.4 329.0,662.4 327.1,662.4 325.2,662.4 323.4,662.4 321.5,662.4 319.6,662.4 317.8,662.4 315.9,662.4 314.0,662.4 312.1,662.4
310.3,662.4 308.4,662.4 306.5,662.4 304.7,662.4 302.8,662.4 300.9,662.4 299.1,662.4 297.2,662.4 295.3,662.4 293.4,662.4 291.6,662.4 289.7,662.4 287.8,662.4 286.0,662.4 284.1,662.4 282.2,662.4
280.3,662.4 278.5,662.4 276.6,662.4 274.7,662.4 272.9,662.4 271.0,662.4 269.1,662.4 267.3,662.4 265.4,662.4 263.5,662.4 261.6,662.4 259.8,662.4 257.9,662.4 256.0,662.4 254.2,662.4 252.3,662.4
250.4,662.4 248.5,662.4 246.7,662.4 244.8,662.4 242.9,662.4 241.1,662.4 239.2,662.4 237.3,662.4 235.5,662.4 233.6,662.4 231.7,662.4 229.8,662.4 228.0,662.4 226.1,662.4 224.2,662.4 222.4,662.4
220.5,662.4 218.6,662.4 216.7,662.4 214.9,662.4 213.0,662.4 211.1,662.4 209.3,662.4 207.4,662.4 205.5,662.4 203.7,662.4 201.8,662.4 199.9,662.4 198.0,662.4 196.2,662.4 194.3,662.4 192.4,662.4
190.6,662.4 188.7,662.4 186.8,662.4 185.0,662.4 183.1,662.4 181.2,662.4 179.3,662.4 177.5,662.4 175.6,662.4 173.7,662.4 171.9,662.4 170.0,662.4 168.1,662.4 166.2,662.4 '/>
	</g>
</g>
	</g>
	<g id="gnuplot_plot_3" ><title>Point estimate</title>
<g fill="none" color="white" stroke="rgb( 31, 120, 180)" stroke-width="2.00" stroke-linecap="butt" stroke-linejoin="miter">
</g>
<g fill="none" color="black" stroke="currentColor" stroke-width="2.00" stroke-linecap="butt" stroke-linejoin="miter">
	<g transform="translate(1089.0,103.0)" stroke="none" fill="black" font-family="Helvetica" font-size="12.00"  text-anchor="start">
		<text><tspan font-family="Helvetica" >Point estimate</tspan></text>
	</g>
</g>
<g fill="none" color="black" stroke="currentColor" stroke-width="2.00" stroke-linecap="butt" stroke-linejoin="miter">
	<path stroke='rgb( 31, 120, 180)'  d='M1038.5,99.1 L1080.7,99.1 M522.2,662.4 L522.2,151.2  '/></g>
	</g>
	<g id="gnuplot_plot_4" ><title>Noise threshold</title>
<g fill="none" color="white" stroke="rgb( 31, 120, 180)" stroke-width="1.00" stroke-linecap="butt" stroke-linejoin="miter">
</g>
<g fill="none" color="black" stroke="currentColor" stroke-width="1.00" stroke-linecap="butt" stroke-linejoin="miter">
	<g transform="translate(1089.0,121.0)" stroke="none" fill="black" font-family="Helvetica" font-size="12.00"  text-anchor="start">
		<text><tspan font-family="Helvetica" >Noise threshold</tspan></text>
	</g>
</g>
<g fill="none" color="black" stroke="currentColor" stroke-width="1.00" stroke-linecap="butt" stroke-linejoin="miter">
	<g stroke='none' shape-rendering='crispEdges'>
		<polygon fill = 'rgb(227,  26,  28)' fill-opacity = '0.100000' points = '1038.5,121.6 1080.7,121.6 1080.7,112.6 1038.5,112.6 '/>
		<polygon fill = 'rgb(227,  26,  28)' fill-opacity = '0.100000' points = '546.9,54.1 546.9,54.1 546.9,662.4 546.9,662.4 '/>
	</g>
</g>
	</g>
<g fill="none" color="white" stroke="rgb(227,  26,  28)" stroke-width="2.00" stroke-linecap="butt" stroke-linejoin="miter">
</g>
<g fill="none" color="black" stroke="currentColor" stroke-width="2.00" stroke-linecap="butt" stroke-linejoin="miter">
</g>
<g fill="none" color="black" stroke="black" stroke-width="1.00" stroke-linecap="butt" stroke-linejoin="miter">
</g>
<g fill="none" color="black" stroke="currentColor" stroke-width="1.00" stroke-linecap="butt" stroke-linejoin="miter">
	<path stroke='black'  d='M80.2,54.1 L80.2,662.4 L1013.6,662.4 L1013.6,54.1 L80.2,54.1 Z  '/></g>
<g fill="none" color="black" stroke="currentColor" stroke-width="1.00" stroke-linecap="butt" stroke-linejoin="miter">
</g>
</g>
</svg>

