<?xml version="1.0" encoding="utf-8"  standalone="no"?>
<svg 
 viewBox="0 0 1280 720"
 xmlns="http://www.w3.org/2000/svg"
 xmlns:xlink="http://www.w3.org/1999/xlink"
>

<title>Gnuplot</title>
<desc>Produced by GNUPLOT 5.2 patchlevel 6 </desc>

<g id="gnuplot_canvas">

<rect x="0" y="0" width="1280" height="720" fill="none"/>
<defs>

	<circle id='gpDot' r='0.5' stroke-width='0.5' stroke='currentColor'/>
	<path id='gpPt0' stroke-width='0.222' stroke='currentColor' d='M-1,0 h2 M0,-1 v2'/>
	<path id='gpPt1' stroke-width='0.222' stroke='currentColor' d='M-1,-1 L1,1 M1,-1 L-1,1'/>
	<path id='gpPt2' stroke-width='0.222' stroke='currentColor' d='M-1,0 L1,0 M0,-1 L0,1 M-1,-1 L1,1 M-1,1 L1,-1'/>
	<rect id='gpPt3' stroke-width='0.222' stroke='currentColor' x='-1' y='-1' width='2' height='2'/>
	<rect id='gpPt4' stroke-width='0.222' stroke='currentColor' fill='currentColor' x='-1' y='-1' width='2' height='2'/>
	<circle id='gpPt5' stroke-width='0.222' stroke='currentColor' cx='0' cy='0' r='1'/>
	<use xlink:href='#gpPt5' id='gpPt6' fill='currentColor' stroke='none'/>
	<path id='gpPt7' stroke-width='0.222' stroke='currentColor' d='M0,-1.33 L-1.33,0.67 L1.33,0.67 z'/>
	<use xlink:href='#gpPt7' id='gpPt8' fill='currentColor' stroke='none'/>
	<use xlink:href='#gpPt7' id='gpPt9' stroke='currentColor' transform='rotate(180)'/>
	<use xlink:href='#gpPt9' id='gpPt10' fill='currentColor' stroke='none'/>
	<use xlink:href='#gpPt3' id='gpPt11' stroke='currentColor' transform='rotate(45)'/>
	<use xlink:href='#gpPt11' id='gpPt12' fill='currentColor' stroke='none'/>
	<path id='gpPt13' stroke-width='0.222' stroke='currentColor' d='M0,1.330 L1.265,0.411 L0.782,-1.067 L-0.782,-1.076 L-1.265,0.411 z'/>
	<use xlink:href='#gpPt13' id='gpPt14' fill='currentColor' stroke='none'/>
	<filter id='textbox' filterUnits='objectBoundingBox' x='0' y='0' height='1' width='1'>
	  <feFlood flood-color='white' flood-opacity='1' result='bgnd'/>
	  <feComposite in='SourceGraphic' in2='bgnd' operator='atop'/>
	</filter>
	<filter id='greybox' filterUnits='objectBoundingBox' x='0' y='0' height='1' width='1'>
	  <feFlood flood-color='lightgrey' flood-opacity='1' result='grey'/>
	  <feComposite in='SourceGraphic' in2='grey' operator='atop'/>
	</filter>
</defs>
<g fill="none" color="white" stroke="currentColor" stroke-width="1.00" stroke-linecap="butt" stroke-linejoin="miter">
</g>
<g fill="none" color="black" stroke="currentColor" stroke-width="1.00" stroke-linecap="butt" stroke-linejoin="miter">
	<path stroke='black'  d='M71.9,662.4 L80.9,662.4  '/>	<g transform="translate(63.6,666.3)" stroke="none" fill="black" font-family="Helvetica" font-size="12.00"  text-anchor="end">
		<text><tspan font-family="Helvetica" > 0</tspan></text>
	</g>
</g>
<g fill="none" color="black" stroke="currentColor" stroke-width="1.00" stroke-linecap="butt" stroke-linejoin="miter">
	<path stroke='black'  d='M71.9,561.0 L80.9,561.0  '/>	<g transform="translate(63.6,564.9)" stroke="none" fill="black" font-family="Helvetica" font-size="12.00"  text-anchor="end">
		<text><tspan font-family="Helvetica" > 20</tspan></text>
	</g>
</g>
<g fill="none" color="black" stroke="currentColor" stroke-width="1.00" stroke-linecap="butt" stroke-linejoin="miter">
	<path stroke='black'  d='M71.9,459.6 L80.9,459.6  '/>	<g transform="translate(63.6,463.5)" stroke="none" fill="black" font-family="Helvetica" font-size="12.00"  text-anchor="end">
		<text><tspan font-family="Helvetica" > 40</tspan></text>
	</g>
</g>
<g fill="none" color="black" stroke="currentColor" stroke-width="1.00" stroke-linecap="butt" stroke-linejoin="miter">
	<path stroke='black'  d='M71.9,358.2 L80.9,358.2  '/>	<g transform="translate(63.6,362.1)" stroke="none" fill="black" font-family="Helvetica" font-size="12.00"  text-anchor="end">
		<text><tspan font-family="Helvetica" > 60</tspan></text>
	</g>
</g>
<g fill="none" color="black" stroke="currentColor" stroke-width="1.00" stroke-linecap="butt" stroke-linejoin="miter">
	<path stroke='black'  d='M71.9,256.9 L80.9,256.9  '/>	<g transform="translate(63.6,260.8)" stroke="none" fill="black" font-family="Helvetica" font-size="12.00"  text-anchor="end">
		<text><tspan font-family="Helvetica" > 80</tspan></text>
	</g>
</g>
<g fill="none" color="black" stroke="currentColor" stroke-width="1.00" stroke-linecap="butt" stroke-linejoin="miter">
	<path stroke='black'  d='M71.9,155.5 L80.9,155.5  '/>	<g transform="translate(63.6,159.4)" stroke="none" fill="black" font-family="Helvetica" font-size="12.00"  text-anchor="end">
		<text><tspan font-family="Helvetica" > 100</tspan></text>
	</g>
</g>
<g fill="none" color="black" stroke="currentColor" stroke-width="1.00" stroke-linecap="butt" stroke-linejoin="miter">
	<path stroke='black'  d='M71.9,54.1 L80.9,54.1  '/>	<g transform="translate(63.6,58.0)" stroke="none" fill="black" font-family="Helvetica" font-size="12.00"  text-anchor="end">
		<text><tspan font-family="Helvetica" > 120</tspan></text>
	</g>
</g>
<g fill="none" color="black" stroke="currentColor" stroke-width="1.00" stroke-linecap="butt" stroke-linejoin="miter">
	<path stroke='black'  d='M194.9,662.4 L194.9,653.4  '/>	<g transform="translate(194.9,684.3)" stroke="none" fill="black" font-family="Helvetica" font-size="12.00"  text-anchor="middle">
		<text><tspan font-family="Helvetica" > 31.745</tspan></text>
	</g>
</g>
<g fill="none" color="black" stroke="currentColor" stroke-width="1.00" stroke-linecap="butt" stroke-linejoin="miter">
	<path stroke='black'  d='M328.2,662.4 L328.2,653.4  '/>	<g transform="translate(328.2,684.3)" stroke="none" fill="black" font-family="Helvetica" font-size="12.00"  text-anchor="middle">
		<text><tspan font-family="Helvetica" > 31.75</tspan></text>
	</g>
</g>
<g fill="none" color="black" stroke="currentColor" stroke-width="1.00" stroke-linecap="butt" stroke-linejoin="miter">
	<path stroke='black'  d='M461.4,662.4 L461.4,653.4  '/>	<g transform="translate(461.4,684.3)" stroke="none" fill="black" font-family="Helvetica" font-size="12.00"  text-anchor="middle">
		<text><tspan font-family="Helvetica" > 31.755</tspan></text>
	</g>
</g>
<g fill="none" color="black" stroke="currentColor" stroke-width="1.00" stroke-linecap="butt" stroke-linejoin="miter">
	<path stroke='black'  d='M594.7,662.4 L594.7,653.4  '/>	<g transform="translate(594.7,684.3)" stroke="none" fill="black" font-family="Helvetica" font-size="12.00"  text-anchor="middle">
		<text><tspan font-family="Helvetica" > 31.76</tspan></text>
	</g>
</g>
<g fill="none" color="black" stroke="currentColor" stroke-width="1.00" stroke-linecap="butt" stroke-linejoin="miter">
	<path stroke='black'  d='M728.0,662.4 L728.0,653.4  '/>	<g transform="translate(728.0,684.3)" stroke="none" fill="black" font-family="Helvetica" font-size="12.00"  text-anchor="middle">
		<text><tspan font-family="Helvetica" > 31.765</tspan></text>
	</g>
</g>
<g fill="none" color="black" stroke="currentColor" stroke-width="1.00" stroke-linecap="butt" stroke-linejoin="miter">
	<path stroke='black'  d='M861.3,662.4 L861.3,653.4  '/>	<g transform="translate(861.3,684.3)" stroke="none" fill="black" font-family="Helvetica" font-size="12.00"  text-anchor="middle">
		<text><tspan font-family="Helvetica" > 31.77</tspan></text>
	</g>
</g>
<g fill="none" color="black" stroke="currentColor" stroke-width="1.00" stroke-linecap="butt" stroke-linejoin="miter">
	<path stroke='black'  d='M994.6,662.4 L994.6,653.4  '/>	<g transform="translate(994.6,684.3)" stroke="none" fill="black" font-family="Helvetica" font-size="12.00"  text-anchor="middle">
		<text><tspan font-family="Helvetica" > 31.775</tspan></text>
	</g>
</g>
<g fill="none" color="black" stroke="currentColor" stroke-width="1.00" stroke-linecap="butt" stroke-linejoin="miter">
</g>
<g fill="none" color="black" stroke="currentColor" stroke-width="1.00" stroke-linecap="butt" stroke-linejoin="miter">
	<path stroke='black'  d='M71.9,54.1 L71.9,662.4 L1013.6,662.4 L1013.6,54.1 L71.9,54.1 Z  '/></g>
<g fill="none" color="black" stroke="currentColor" stroke-width="1.00" stroke-linecap="butt" stroke-linejoin="miter">
	<g transform="translate(16.3,358.3) rotate(270)" stroke="none" fill="black" font-family="Helvetica" font-size="12.00"  text-anchor="middle">
		<text><tspan font-family="Helvetica" >Density (a.u.)</tspan></text>
	</g>
</g>
<g fill="none" color="black" stroke="currentColor" stroke-width="1.00" stroke-linecap="butt" stroke-linejoin="miter">
	<g transform="translate(542.7,711.3)" stroke="none" fill="black" font-family="Helvetica" font-size="12.00"  text-anchor="middle">
		<text><tspan font-family="Helvetica" >Average time (us)</tspan></text>
	</g>
</g>
<g fill="none" color="black" stroke="currentColor" stroke-width="1.00" stroke-linecap="butt" stroke-linejoin="miter">
	<g transform="translate(542.7,31.0)" stroke="none" fill="black" font-family="Helvetica" font-size="12.00"  text-anchor="middle">
		<text><tspan font-family="Helvetica" >snapshot_restore_with_dense/Dense: Entire region + process_vm_writev w/ page size/10: median</tspan></text>
	</g>
</g>
	<g id="gnuplot_plot_1" ><title>Bootstrap distribution</title>
<g fill="none" color="white" stroke="black" stroke-width="2.00" stroke-linecap="butt" stroke-linejoin="miter">
</g>
<g fill="none" color="black" stroke="currentColor" stroke-width="2.00" stroke-linecap="butt" stroke-linejoin="miter">
	<g transform="translate(1089.0,67.0)" stroke="none" fill="black" font-family="Helvetica" font-size="12.00"  text-anchor="start">
		<text><tspan font-family="Helvetica" >Bootstrap distribution</tspan></text>
	</g>
</g>
<g fill="none" color="black" stroke="currentColor" stroke-width="2.00" stroke-linecap="butt" stroke-linejoin="miter">
	<path stroke='rgb( 31, 120, 180)'  d='M1038.5,63.1 L1080.7,63.1 M71.9,658.8 L73.8,658.2 L75.7,657.5 L77.6,656.7 L79.4,655.8 L81.3,654.7
		L83.2,653.6 L85.1,652.3 L87.0,650.9 L88.9,649.3 L90.8,647.7 L92.7,645.9 L94.5,644.0 L96.4,642.0
		L98.3,639.9 L100.2,637.8 L102.1,635.5 L104.0,633.3 L105.9,631.0 L107.8,628.7 L109.6,626.4 L111.5,624.2
		L113.4,622.0 L115.3,619.9 L117.2,617.9 L119.1,615.9 L121.0,614.0 L122.9,612.2 L124.7,610.5 L126.6,608.8
		L128.5,607.2 L130.4,605.6 L132.3,604.0 L134.2,602.3 L136.1,600.6 L138.0,598.8 L139.8,596.8 L141.7,594.7
		L143.6,592.4 L145.5,589.9 L147.4,587.1 L149.3,584.0 L151.2,580.7 L153.0,577.1 L154.9,573.2 L156.8,569.1
		L158.7,564.6 L160.6,559.9 L162.5,555.0 L164.4,549.9 L166.3,544.7 L168.1,539.3 L170.0,533.8 L171.9,528.2
		L173.8,522.6 L175.7,517.0 L177.6,511.4 L179.5,505.7 L181.4,500.1 L183.2,494.6 L185.1,489.0 L187.0,483.4
		L188.9,477.9 L190.8,472.3 L192.7,466.6 L194.6,460.9 L196.5,455.1 L198.3,449.3 L200.2,443.4 L202.1,437.4
		L204.0,431.4 L205.9,425.4 L207.8,419.4 L209.7,413.6 L211.6,407.9 L213.4,402.5 L215.3,397.5 L217.2,392.9
		L219.1,388.9 L221.0,385.4 L222.9,382.7 L224.8,380.8 L226.6,379.7 L228.5,379.4 L230.4,380.1 L232.3,381.6
		L234.2,384.0 L236.1,387.3 L238.0,391.3 L239.9,396.0 L241.7,401.3 L243.6,407.1 L245.5,413.3 L247.4,419.7
		L249.3,426.3 L251.2,433.0 L253.1,439.5 L255.0,445.9 L256.8,452.0 L258.7,457.8 L260.6,463.1 L262.5,468.1
		L264.4,472.5 L266.3,476.4 L268.2,479.8 L270.1,482.7 L271.9,485.1 L273.8,487.0 L275.7,488.5 L277.6,489.5
		L279.5,490.2 L281.4,490.5 L283.3,490.4 L285.2,490.1 L287.0,489.5 L288.9,488.7 L290.8,487.7 L292.7,486.5
		L294.6,485.2 L296.5,483.7 L298.4,482.1 L300.2,480.4 L302.1,478.6 L304.0,476.6 L305.9,474.5 L307.8,472.3
		L309.7,469.9 L311.6,467.2 L313.5,464.4 L315.3,461.2 L317.2,457.8 L319.1,454.0 L321.0,449.8 L322.9,445.1
		L324.8,439.9 L326.7,434.2 L328.6,427.9 L330.4,421.0 L332.3,413.3 L334.2,405.0 L336.1,395.9 L338.0,386.1
		L339.9,375.6 L341.8,364.3 L343.7,352.3 L345.5,339.7 L347.4,326.4 L349.3,312.6 L351.2,298.4 L353.1,283.8
		L355.0,269.1 L356.9,254.4 L358.8,239.9 L360.6,225.8 L362.5,212.2 L364.4,199.5 L366.3,187.8 L368.2,177.4
		L370.1,168.4 L372.0,161.2 L373.8,155.9 L375.7,152.6 L377.6,151.6 L379.5,152.8 L381.4,156.5 L383.3,162.6
		L385.2,171.0 L387.1,181.8 L388.9,194.8 L390.8,209.9 L392.7,226.8 L394.6,245.4 L396.5,265.4 L398.4,286.6
		L400.3,308.5 L402.2,331.0 L404.0,353.7 L405.9,376.4 L407.8,398.7 L409.7,420.4 L411.6,441.3 L413.5,461.1
		L415.4,479.6 L417.3,496.8 L419.1,512.4 L421.0,526.4 L422.9,538.7 L424.8,549.3 L426.7,558.1 L428.6,565.3
		L430.5,570.9 L432.4,574.9 L434.2,577.4 L436.1,578.5 L438.0,578.4 L439.9,577.2 L441.8,575.0 L443.7,571.9
		L445.6,568.2 L447.4,563.9 L449.3,559.2 L451.2,554.3 L453.1,549.3 L455.0,544.3 L456.9,539.5 L458.8,534.9
		L460.7,530.7 L462.5,526.9 L464.4,523.7 L466.3,521.1 L468.2,519.1 L470.1,517.7 L472.0,517.0 L473.9,516.9
		L475.8,517.4 L477.6,518.5 L479.5,520.2 L481.4,522.4 L483.3,524.9 L485.2,527.9 L487.1,531.1 L489.0,534.6
		L490.9,538.3 L492.7,542.0 L494.6,545.8 L496.5,549.5 L498.4,553.1 L500.3,556.6 L502.2,559.9 L504.1,562.9
		L506.0,565.5 L507.8,567.9 L509.7,569.9 L511.6,571.4 L513.5,572.6 L515.4,573.3 L517.3,573.5 L519.2,573.3
		L521.0,572.7 L522.9,571.6 L524.8,570.1 L526.7,568.2 L528.6,566.0 L530.5,563.5 L532.4,560.7 L534.3,557.6
		L536.1,554.4 L538.0,551.0 L539.9,547.5 L541.8,543.9 L543.7,540.2 L545.6,536.6 L547.5,532.9 L549.4,529.3
		L551.2,525.6 L553.1,522.0 L555.0,518.5 L556.9,514.9 L558.8,511.4 L560.7,507.9 L562.6,504.4 L564.5,500.9
		L566.3,497.3 L568.2,493.7 L570.1,490.1 L572.0,486.4 L573.9,482.7 L575.8,478.9 L577.7,475.1 L579.5,471.2
		L581.4,467.3 L583.3,463.4 L585.2,459.5 L587.1,455.6 L589.0,451.9 L590.9,448.4 L592.8,445.1 L594.6,442.0
		L596.5,439.4 L598.4,437.1 L600.3,435.2 L602.2,433.9 L604.1,433.1 L606.0,433.0 L607.9,433.4 L609.7,434.4
		L611.6,436.1 L613.5,438.3 L615.4,441.1 L617.3,444.3 L619.2,448.0 L621.1,452.0 L623.0,456.3 L624.8,460.7
		L626.7,465.2 L628.6,469.7 L630.5,474.1 L632.4,478.3 L634.3,482.3 L636.2,486.0 L638.1,489.4 L639.9,492.5
		L641.8,495.1 L643.7,497.5 L645.6,499.4 L647.5,501.1 L649.4,502.4 L651.3,503.5 L653.1,504.3 L655.0,504.9
		L656.9,505.3 L658.8,505.5 L660.7,505.5 L662.6,505.3 L664.5,504.9 L666.4,504.3 L668.2,503.4 L670.1,502.2
		L672.0,500.7 L673.9,498.9 L675.8,496.7 L677.7,494.2 L679.6,491.4 L681.5,488.2 L683.3,484.6 L685.2,480.8
		L687.1,476.8 L689.0,472.5 L690.9,468.2 L692.8,463.8 L694.7,459.5 L696.6,455.3 L698.4,451.4 L700.3,447.7
		L702.2,444.5 L704.1,441.7 L706.0,439.4 L707.9,437.7 L709.8,436.5 L711.7,436.0 L713.5,436.2 L715.4,437.0
		L717.3,438.5 L719.2,440.6 L721.1,443.3 L723.0,446.6 L724.9,450.4 L726.7,454.8 L728.6,459.6 L730.5,464.9
		L732.4,470.6 L734.3,476.7 L736.2,483.1 L738.1,489.8 L740.0,496.7 L741.8,503.8 L743.7,511.1 L745.6,518.5
		L747.5,525.9 L749.4,533.4 L751.3,540.8 L753.2,548.1 L755.1,555.3 L756.9,562.3 L758.8,569.0 L760.7,575.5
		L762.6,581.6 L764.5,587.3 L766.4,592.7 L768.3,597.6 L770.2,602.0 L772.0,606.0 L773.9,609.5 L775.8,612.5
		L777.7,615.1 L779.6,617.2 L781.5,618.9 L783.4,620.2 L785.3,621.2 L787.1,621.8 L789.0,622.2 L790.9,622.3
		L792.8,622.3 L794.7,622.1 L796.6,621.8 L798.5,621.5 L800.3,621.2 L802.2,620.9 L804.1,620.7 L806.0,620.5
		L807.9,620.5 L809.8,620.5 L811.7,620.7 L813.6,621.0 L815.4,621.4 L817.3,622.0 L819.2,622.6 L821.1,623.4
		L823.0,624.2 L824.9,625.0 L826.8,625.9 L828.7,626.8 L830.5,627.7 L832.4,628.5 L834.3,629.4 L836.2,630.1
		L838.1,630.8 L840.0,631.4 L841.9,631.9 L843.8,632.3 L845.6,632.6 L847.5,632.9 L849.4,633.0 L851.3,633.0
		L853.2,633.0 L855.1,632.9 L857.0,632.8 L858.9,632.6 L860.7,632.4 L862.6,632.1 L864.5,631.9 L866.4,631.6
		L868.3,631.4 L870.2,631.1 L872.1,630.9 L873.9,630.7 L875.8,630.5 L877.7,630.4 L879.6,630.2 L881.5,630.1
		L883.4,630.1 L885.3,630.0 L887.2,630.0 L889.0,630.0 L890.9,630.0 L892.8,630.0 L894.7,630.1 L896.6,630.1
		L898.5,630.2 L900.4,630.2 L902.3,630.3 L904.1,630.4 L906.0,630.4 L907.9,630.5 L909.8,630.6 L911.7,630.7
		L913.6,630.8 L915.5,630.9 L917.4,631.0 L919.2,631.1 L921.1,631.2 L923.0,631.4 L924.9,631.5 L926.8,631.7
		L928.7,631.9 L930.6,632.1 L932.5,632.3 L934.3,632.6 L936.2,632.8 L938.1,633.1 L940.0,633.4 L941.9,633.7
		L943.8,634.1 L945.7,634.4 L947.5,634.8 L949.4,635.2 L951.3,635.6 L953.2,636.0 L955.1,636.5 L957.0,636.9
		L958.9,637.4 L960.8,637.9 L962.6,638.4 L964.5,638.8 L966.4,639.3 L968.3,639.8 L970.2,640.3 L972.1,640.8
		L974.0,641.3 L975.9,641.8 L977.7,642.2 L979.6,642.7 L981.5,643.1 L983.4,643.5 L985.3,643.9 L987.2,644.2
		L989.1,644.6 L991.0,644.9 L992.8,645.2 L994.7,645.5 L996.6,645.8 L998.5,646.0 L1000.4,646.3 L1002.3,646.5
		L1004.2,646.7 L1006.1,646.9 L1007.9,647.1 L1009.8,647.2 L1011.7,647.4 L1013.6,647.5  '/></g>
	</g>
	<g id="gnuplot_plot_2" ><title>Confidence interval</title>
<g fill="none" color="white" stroke="rgb( 31, 120, 180)" stroke-width="1.00" stroke-linecap="butt" stroke-linejoin="miter">
</g>
<g fill="none" color="black" stroke="currentColor" stroke-width="1.00" stroke-linecap="butt" stroke-linejoin="miter">
	<g transform="translate(1089.0,85.0)" stroke="none" fill="black" font-family="Helvetica" font-size="12.00"  text-anchor="start">
		<text><tspan font-family="Helvetica" >Confidence interval</tspan></text>
	</g>
</g>
<g fill="none" color="black" stroke="currentColor" stroke-width="1.00" stroke-linecap="butt" stroke-linejoin="miter">
	<g stroke='none' shape-rendering='crispEdges'>
		<polygon fill = 'rgb( 31, 120, 180)' fill-opacity = '0.250000' points = '1038.5,85.6 1080.7,85.6 1080.7,76.6 1038.5,76.6 '/>
		<polygon fill = 'rgb( 31, 120, 180)' fill-opacity = '0.250000' points = '158.7,564.6 160.6,559.9 162.5,555.0 164.4,549.9 166.3,544.7 168.1,539.3 170.0,533.8 171.9,528.2 173.8,522.6 175.7,517.0 177.6,511.4 179.5,505.7 181.4,500.1 183.2,494.6 185.1,489.0 187.0,483.4
188.9,477.9 190.8,472.3 192.7,466.6 194.6,460.9 196.5,455.1 198.3,449.3 200.2,443.4 202.1,437.4 204.0,431.4 205.9,425.4 207.8,419.4 209.7,413.6 211.6,407.9 213.4,402.5 215.3,397.5 217.2,392.9
219.1,388.9 221.0,385.4 222.9,382.7 224.8,380.8 226.6,379.7 228.5,379.4 230.4,380.1 232.3,381.6 234.2,384.0 236.1,387.3 238.0,391.3 239.9,396.0 241.7,401.3 243.6,407.1 245.5,413.3 247.4,419.7
249.3,426.3 251.2,433.0 253.1,439.5 255.0,445.9 256.8,452.0 258.7,457.8 260.6,463.1 262.5,468.1 264.4,472.5 266.3,476.4 268.2,479.8 270.1,482.7 271.9,485.1 273.8,487.0 275.7,488.5 277.6,489.5
279.5,490.2 281.4,490.5 283.3,490.4 285.2,490.1 287.0,489.5 288.9,488.7 290.8,487.7 292.7,486.5 294.6,485.2 296.5,483.7 298.4,482.1 300.2,480.4 302.1,478.6 304.0,476.6 305.9,474.5 307.8,472.3
309.7,469.9 311.6,467.2 313.5,464.4 315.3,461.2 317.2,457.8 319.1,454.0 321.0,449.8 322.9,445.1 324.8,439.9 326.7,434.2 328.6,427.9 330.4,421.0 332.3,413.3 334.2,405.0 336.1,395.9 338.0,386.1
339.9,375.6 341.8,364.3 343.7,352.3 345.5,339.7 347.4,326.4 349.3,312.6 351.2,298.4 353.1,283.8 355.0,269.1 356.9,254.4 358.8,239.9 360.6,225.8 362.5,212.2 364.4,199.5 366.3,187.8 368.2,177.4
370.1,168.4 372.0,161.2 373.8,155.9 375.7,152.6 377.6,151.6 379.5,152.8 381.4,156.5 383.3,162.6 385.2,171.0 387.1,181.8 388.9,194.8 390.8,209.9 392.7,226.8 394.6,245.4 396.5,265.4 398.4,286.6
400.3,308.5 402.2,331.0 404.0,353.7 405.9,376.4 407.8,398.7 409.7,420.4 411.6,441.3 413.5,461.1 415.4,479.6 417.3,496.8 419.1,512.4 421.0,526.4 422.9,538.7 424.8,549.3 426.7,558.1 428.6,565.3
430.5,570.9 432.4,574.9 434.2,577.4 436.1,578.5 438.0,578.4 439.9,577.2 441.8,575.0 443.7,571.9 445.6,568.2 447.4,563.9 449.3,559.2 451.2,554.3 453.1,549.3 455.0,544.3 456.9,539.5 458.8,534.9
460.7,530.7 462.5,526.9 464.4,523.7 466.3,521.1 468.2,519.1 470.1,517.7 472.0,517.0 473.9,516.9 475.8,517.4 477.6,518.5 479.5,520.2 481.4,522.4 483.3,524.9 485.2,527.9 487.1,531.1 489.0,534.6
490.9,538.3 492.7,542.0 494.6,545.8 496.5,549.5 498.4,553.1 500.3,556.6 502.2,559.9 504.1,562.9 506.0,565.5 507.8,567.9 509.7,569.9 511.6,571.4 513.5,572.6 515.4,573.3 517.3,573.5 519.2,573.3
521.0,572.7 522.9,571.6 524.8,570.1 526.7,568.2 528.6,566.0 530.5,563.5 532.4,560.7 534.3,557.6 536.1,554.4 538.0,551.0 539.9,547.5 541.8,543.9 543.7,540.2 545.6,536.6 547.5,532.9 549.4,529.3
551.2,525.6 553.1,522.0 555.0,518.5 556.9,514.9 558.8,511.4 560.7,507.9 562.6,504.4 564.5,500.9 566.3,497.3 568.2,493.7 570.1,490.1 572.0,486.4 573.9,482.7 575.8,478.9 577.7,475.1 579.5,471.2
581.4,467.3 583.3,463.4 585.2,459.5 587.1,455.6 589.0,451.9 590.9,448.4 592.8,445.1 594.6,442.0 596.5,439.4 598.4,437.1 600.3,435.2 602.2,433.9 604.1,433.1 606.0,433.0 607.9,433.4 609.7,434.4
611.6,436.1 613.5,438.3 615.4,441.1 617.3,444.3 619.2,448.0 621.1,452.0 623.0,456.3 624.8,460.7 626.7,465.2 628.6,469.7 630.5,474.1 632.4,478.3 634.3,482.3 636.2,486.0 638.1,489.4 639.9,492.5
641.8,495.1 643.7,497.5 645.6,499.4 647.5,501.1 649.4,502.4 651.3,503.5 653.1,504.3 655.0,504.9 656.9,505.3 658.8,505.5 660.7,505.5 662.6,505.3 664.5,504.9 666.4,504.3 668.2,503.4 670.1,502.2
672.0,500.7 673.9,498.9 675.8,496.7 677.7,494.2 679.6,491.4 681.5,488.2 683.3,484.6 685.2,480.8 687.1,476.8 689.0,472.5 690.9,468.2 692.8,463.8 694.7,459.5 696.6,455.3 698.4,451.4 700.3,447.7
702.2,444.5 704.1,441.7 706.0,439.4 707.9,437.7 709.8,436.5 711.7,436.0 713.5,436.2 715.4,437.0 717.3,438.5 719.2,440.6 721.1,443.3 723.0,446.6 724.9,450.4 726.7,454.8 728.6,459.6 730.5,464.9
732.4,470.6 734.3,476.7 736.2,483.1 738.1,489.8 740.0,496.7 741.8,503.8 743.7,511.1 745.6,518.5 747.5,525.9 749.4,533.4 751.3,540.8 753.2,548.1 755.1,555.3 756.9,562.3 758.8,569.0 760.7,575.5
762.6,581.6 764.5,587.3 766.4,592.7 768.3,597.6 770.2,602.0 772.0,606.0 773.9,609.5 775.8,612.5 777.7,615.1 779.6,617.2 781.5,618.9 783.4,620.2 785.3,621.2 787.1,621.8 789.0,622.2 790.9,622.3
792.8,622.3 794.7,622.1 796.6,621.8 798.5,621.5 800.3,621.2 802.2,620.9 804.1,620.7 806.0,620.5 807.9,620.5 809.8,620.5 811.7,620.7 813.6,621.0 815.4,621.4 817.3,622.0 819.2,622.6 821.1,623.4
823.0,624.2 824.9,625.0 826.8,625.9 828.7,626.8 830.5,627.7 832.4,628.5 834.3,629.4 836.2,630.1 838.1,630.8 840.0,631.4 841.9,631.9 843.8,632.3 845.6,632.6 847.5,632.9 849.4,633.0 851.3,633.0
853.2,633.0 855.1,632.9 857.0,632.8 858.9,632.6 860.7,632.4 862.6,632.1 864.5,631.9 866.4,631.6 868.3,631.4 870.2,631.1 872.1,630.9 873.9,630.7 875.8,630.5 877.7,630.4 879.6,630.2 881.5,630.1
883.4,630.1 885.3,630.0 887.2,630.0 889.0,630.0 890.9,630.0 892.8,630.0 894.7,630.1 896.6,630.1 898.5,630.2 900.4,630.2 902.3,630.3 904.1,630.4 906.0,630.4 907.9,630.5 909.8,630.6 911.7,630.7
913.6,630.8 915.5,630.9 917.4,631.0 919.2,631.1 921.1,631.2 923.0,631.4 924.9,631.5 924.9,662.4 923.0,662.4 921.1,662.4 919.2,662.4 917.4,662.4 915.5,662.4 913.6,662.4 911.7,662.4 909.8,662.4
907.9,662.4 906.0,662.4 904.1,662.4 902.3,662.4 900.4,662.4 898.5,662.4 896.6,662.4 894.7,662.4 892.8,662.4 890.9,662.4 889.0,662.4 887.2,662.4 885.3,662.4 883.4,662.4 881.5,662.4 879.6,662.4
877.7,662.4 875.8,662.4 873.9,662.4 872.1,662.4 870.2,662.4 868.3,662.4 866.4,662.4 864.5,662.4 862.6,662.4 860.7,662.4 858.9,662.4 857.0,662.4 855.1,662.4 853.2,662.4 851.3,662.4 849.4,662.4
847.5,662.4 845.6,662.4 843.8,662.4 841.9,662.4 840.0,662.4 838.1,662.4 836.2,662.4 834.3,662.4 832.4,662.4 830.5,662.4 828.7,662.4 826.8,662.4 824.9,662.4 823.0,662.4 821.1,662.4 819.2,662.4
817.3,662.4 815.4,662.4 813.6,662.4 811.7,662.4 809.8,662.4 807.9,662.4 806.0,662.4 804.1,662.4 802.2,662.4 800.3,662.4 798.5,662.4 796.6,662.4 794.7,662.4 792.8,662.4 790.9,662.4 789.0,662.4
787.1,662.4 785.3,662.4 783.4,662.4 781.5,662.4 779.6,662.4 777.7,662.4 775.8,662.4 773.9,662.4 772.0,662.4 770.2,662.4 768.3,662.4 766.4,662.4 764.5,662.4 762.6,662.4 760.7,662.4 758.8,662.4
756.9,662.4 755.1,662.4 753.2,662.4 751.3,662.4 749.4,662.4 747.5,662.4 745.6,662.4 743.7,662.4 741.8,662.4 740.0,662.4 738.1,662.4 736.2,662.4 734.3,662.4 732.4,662.4 730.5,662.4 728.6,662.4
726.7,662.4 724.9,662.4 723.0,662.4 721.1,662.4 719.2,662.4 717.3,662.4 715.4,662.4 713.5,662.4 711.7,662.4 709.8,662.4 707.9,662.4 706.0,662.4 704.1,662.4 702.2,662.4 700.3,662.4 698.4,662.4
696.6,662.4 694.7,662.4 692.8,662.4 690.9,662.4 689.0,662.4 687.1,662.4 685.2,662.4 683.3,662.4 681.5,662.4 679.6,662.4 677.7,662.4 675.8,662.4 673.9,662.4 672.0,662.4 670.1,662.4 668.2,662.4
666.4,662.4 664.5,662.4 662.6,662.4 660.7,662.4 658.8,662.4 656.9,662.4 655.0,662.4 653.1,662.4 651.3,662.4 649.4,662.4 647.5,662.4 645.6,662.4 643.7,662.4 641.8,662.4 639.9,662.4 638.1,662.4
636.2,662.4 634.3,662.4 632.4,662.4 630.5,662.4 628.6,662.4 626.7,662.4 624.8,662.4 623.0,662.4 621.1,662.4 619.2,662.4 617.3,662.4 615.4,662.4 613.5,662.4 611.6,662.4 609.7,662.4 607.9,662.4
606.0,662.4 604.1,662.4 602.2,662.4 600.3,662.4 598.4,662.4 596.5,662.4 594.6,662.4 592.8,662.4 590.9,662.4 589.0,662.4 587.1,662.4 585.2,662.4 583.3,662.4 581.4,662.4 579.5,662.4 577.7,662.4
575.8,662.4 573.9,662.4 572.0,662.4 570.1,662.4 568.2,662.4 566.3,662.4 564.5,662.4 562.6,662.4 560.7,662.4 558.8,662.4 556.9,662.4 555.0,662.4 553.1,662.4 551.2,662.4 549.4,662.4 547.5,662.4
545.6,662.4 543.7,662.4 541.8,662.4 539.9,662.4 538.0,662.4 536.1,662.4 534.3,662.4 532.4,662.4 530.5,662.4 528.6,662.4 526.7,662.4 524.8,662.4 522.9,662.4 521.0,662.4 519.2,662.4 517.3,662.4
515.4,662.4 513.5,662.4 511.6,662.4 509.7,662.4 507.8,662.4 506.0,662.4 504.1,662.4 502.2,662.4 500.3,662.4 498.4,662.4 496.5,662.4 494.6,662.4 492.7,662.4 490.9,662.4 489.0,662.4 487.1,662.4
485.2,662.4 483.3,662.4 481.4,662.4 479.5,662.4 477.6,662.4 475.8,662.4 473.9,662.4 472.0,662.4 470.1,662.4 468.2,662.4 466.3,662.4 464.4,662.4 462.5,662.4 460.7,662.4 458.8,662.4 456.9,662.4
455.0,662.4 453.1,662.4 451.2,662.4 449.3,662.4 447.4,662.4 445.6,662.4 443.7,662.4 441.8,662.4 439.9,662.4 438.0,662.4 436.1,662.4 434.2,662.4 432.4,662.4 430.5,662.4 428.6,662.4 426.7,662.4
424.8,662.4 422.9,662.4 421.0,662.4 419.1,662.4 417.3,662.4 415.4,662.4 413.5,662.4 411.6,662.4 409.7,662.4 407.8,662.4 405.9,662.4 404.0,662.4 402.2,662.4 400.3,662.4 398.4,662.4 396.5,662.4
394.6,662.4 392.7,662.4 390.8,662.4 388.9,662.4 387.1,662.4 385.2,662.4 383.3,662.4 381.4,662.4 379.5,662.4 377.6,662.4 375.7,662.4 373.8,662.4 372.0,662.4 370.1,662.4 368.2,662.4 366.3,662.4
364.4,662.4 362.5,662.4 360.6,662.4 358.8,662.4 356.9,662.4 355.0,662.4 353.1,662.4 351.2,662.4 349.3,662.4 347.4,662.4 345.5,662.4 343.7,662.4 341.8,662.4 339.9,662.4 338.0,662.4 336.1,662.4
334.2,662.4 332.3,662.4 330.4,662.4 328.6,662.4 326.7,662.4 324.8,662.4 322.9,662.4 321.0,662.4 319.1,662.4 317.2,662.4 315.3,662.4 313.5,662.4 311.6,662.4 309.7,662.4 307.8,662.4 305.9,662.4
304.0,662.4 302.1,662.4 300.2,662.4 298.4,662.4 296.5,662.4 294.6,662.4 292.7,662.4 290.8,662.4 288.9,662.4 287.0,662.4 285.2,662.4 283.3,662.4 281.4,662.4 279.5,662.4 277.6,662.4 275.7,662.4
273.8,662.4 271.9,662.4 270.1,662.4 268.2,662.4 266.3,662.4 264.4,662.4 262.5,662.4 260.6,662.4 258.7,662.4 256.8,662.4 255.0,662.4 253.1,662.4 251.2,662.4 249.3,662.4 247.4,662.4 245.5,662.4
243.6,662.4 241.7,662.4 239.9,662.4 238.0,662.4 236.1,662.4 234.2,662.4 232.3,662.4 230.4,662.4 228.5,662.4 226.6,662.4 224.8,662.4 222.9,662.4 221.0,662.4 219.1,662.4 217.2,662.4 215.3,662.4
213.4,662.4 211.6,662.4 209.7,662.4 207.8,662.4 205.9,662.4 204.0,662.4 202.1,662.4 200.2,662.4 198.3,662.4 196.5,662.4 194.6,662.4 192.7,662.4 190.8,662.4 188.9,662.4 187.0,662.4 185.1,662.4
183.2,662.4 181.4,662.4 179.5,662.4 177.6,662.4 175.7,662.4 173.8,662.4 171.9,662.4 170.0,662.4 168.1,662.4 166.3,662.4 164.4,662.4 162.5,662.4 160.6,662.4 158.7,662.4 '/>
	</g>
</g>
	</g>
	<g id="gnuplot_plot_3" ><title>Point estimate</title>
<g fill="none" color="white" stroke="rgb( 31, 120, 180)" stroke-width="2.00" stroke-linecap="butt" stroke-linejoin="miter">
</g>
<g fill="none" color="black" stroke="currentColor" stroke-width="2.00" stroke-linecap="butt" stroke-linejoin="miter">
	<g transform="translate(1089.0,103.0)" stroke="none" fill="black" font-family="Helvetica" font-size="12.00"  text-anchor="start">
		<text><tspan font-family="Helvetica" >Point estimate</tspan></text>
	</g>
</g>
<g fill="none" color="black" stroke="currentColor" stroke-width="2.00" stroke-linecap="butt" stroke-linejoin="miter">
	<path stroke='rgb( 31, 120, 180)'  d='M1038.5,99.1 L1080.7,99.1 M389.4,662.4 L389.4,198.6  '/></g>
	</g>
<g fill="none" color="black" stroke="currentColor" stroke-width="2.00" stroke-linecap="butt" stroke-linejoin="miter">
</g>
<g fill="none" color="black" stroke="black" stroke-width="1.00" stroke-linecap="butt" stroke-linejoin="miter">
</g>
<g fill="none" color="black" stroke="currentColor" stroke-width="1.00" stroke-linecap="butt" stroke-linejoin="miter">
	<path stroke='black'  d='M71.9,54.1 L71.9,662.4 L1013.6,662.4 L1013.6,54.1 L71.9,54.1 Z  '/></g>
<g fill="none" color="black" stroke="currentColor" stroke-width="1.00" stroke-linecap="butt" stroke-linejoin="miter">
</g>
</g>
</svg>

