<?xml version="1.0" encoding="utf-8"  standalone="no"?>
<svg 
 viewBox="0 0 1280 720"
 xmlns="http://www.w3.org/2000/svg"
 xmlns:xlink="http://www.w3.org/1999/xlink"
>

<title>Gnuplot</title>
<desc>Produced by GNUPLOT 5.2 patchlevel 6 </desc>

<g id="gnuplot_canvas">

<rect x="0" y="0" width="1280" height="720" fill="none"/>
<defs>

	<circle id='gpDot' r='0.5' stroke-width='0.5' stroke='currentColor'/>
	<path id='gpPt0' stroke-width='0.222' stroke='currentColor' d='M-1,0 h2 M0,-1 v2'/>
	<path id='gpPt1' stroke-width='0.222' stroke='currentColor' d='M-1,-1 L1,1 M1,-1 L-1,1'/>
	<path id='gpPt2' stroke-width='0.222' stroke='currentColor' d='M-1,0 L1,0 M0,-1 L0,1 M-1,-1 L1,1 M-1,1 L1,-1'/>
	<rect id='gpPt3' stroke-width='0.222' stroke='currentColor' x='-1' y='-1' width='2' height='2'/>
	<rect id='gpPt4' stroke-width='0.222' stroke='currentColor' fill='currentColor' x='-1' y='-1' width='2' height='2'/>
	<circle id='gpPt5' stroke-width='0.222' stroke='currentColor' cx='0' cy='0' r='1'/>
	<use xlink:href='#gpPt5' id='gpPt6' fill='currentColor' stroke='none'/>
	<path id='gpPt7' stroke-width='0.222' stroke='currentColor' d='M0,-1.33 L-1.33,0.67 L1.33,0.67 z'/>
	<use xlink:href='#gpPt7' id='gpPt8' fill='currentColor' stroke='none'/>
	<use xlink:href='#gpPt7' id='gpPt9' stroke='currentColor' transform='rotate(180)'/>
	<use xlink:href='#gpPt9' id='gpPt10' fill='currentColor' stroke='none'/>
	<use xlink:href='#gpPt3' id='gpPt11' stroke='currentColor' transform='rotate(45)'/>
	<use xlink:href='#gpPt11' id='gpPt12' fill='currentColor' stroke='none'/>
	<path id='gpPt13' stroke-width='0.222' stroke='currentColor' d='M0,1.330 L1.265,0.411 L0.782,-1.067 L-0.782,-1.076 L-1.265,0.411 z'/>
	<use xlink:href='#gpPt13' id='gpPt14' fill='currentColor' stroke='none'/>
	<filter id='textbox' filterUnits='objectBoundingBox' x='0' y='0' height='1' width='1'>
	  <feFlood flood-color='white' flood-opacity='1' result='bgnd'/>
	  <feComposite in='SourceGraphic' in2='bgnd' operator='atop'/>
	</filter>
	<filter id='greybox' filterUnits='objectBoundingBox' x='0' y='0' height='1' width='1'>
	  <feFlood flood-color='lightgrey' flood-opacity='1' result='grey'/>
	  <feComposite in='SourceGraphic' in2='grey' operator='atop'/>
	</filter>
</defs>
<g fill="none" color="white" stroke="currentColor" stroke-width="1.00" stroke-linecap="butt" stroke-linejoin="miter">
</g>
<g fill="none" color="black" stroke="currentColor" stroke-width="1.00" stroke-linecap="butt" stroke-linejoin="miter">
</g>
<g fill="none" color="black" stroke="black" stroke-width="0.50" stroke-linecap="butt" stroke-linejoin="miter">
</g>
<g fill="none" color="gray" stroke="currentColor" stroke-width="0.50" stroke-linecap="butt" stroke-linejoin="miter">
	<path stroke='gray' stroke-dasharray='2,4' class="gridline"  d='M71.9,644.4 L1255.0,644.4  '/></g>
<g fill="none" color="gray" stroke="gray" stroke-width="1.00" stroke-linecap="butt" stroke-linejoin="miter">
</g>
<g fill="none" color="black" stroke="currentColor" stroke-width="1.00" stroke-linecap="butt" stroke-linejoin="miter">
	<path stroke='black'  d='M71.9,644.4 L80.9,644.4  '/>	<g transform="translate(63.6,648.3)" stroke="none" fill="black" font-family="Helvetica" font-size="12.00"  text-anchor="end">
		<text><tspan font-family="Helvetica" > 0</tspan></text>
	</g>
</g>
<g fill="none" color="black" stroke="currentColor" stroke-width="1.00" stroke-linecap="butt" stroke-linejoin="miter">
</g>
<g fill="none" color="black" stroke="black" stroke-width="0.50" stroke-linecap="butt" stroke-linejoin="miter">
</g>
<g fill="none" color="gray" stroke="currentColor" stroke-width="0.50" stroke-linecap="butt" stroke-linejoin="miter">
	<path stroke='gray' stroke-dasharray='2,4' class="gridline"  d='M71.9,585.4 L1255.0,585.4  '/></g>
<g fill="none" color="gray" stroke="gray" stroke-width="1.00" stroke-linecap="butt" stroke-linejoin="miter">
</g>
<g fill="none" color="black" stroke="currentColor" stroke-width="1.00" stroke-linecap="butt" stroke-linejoin="miter">
	<path stroke='black'  d='M71.9,585.4 L80.9,585.4  '/>	<g transform="translate(63.6,589.3)" stroke="none" fill="black" font-family="Helvetica" font-size="12.00"  text-anchor="end">
		<text><tspan font-family="Helvetica" > 10</tspan></text>
	</g>
</g>
<g fill="none" color="black" stroke="currentColor" stroke-width="1.00" stroke-linecap="butt" stroke-linejoin="miter">
</g>
<g fill="none" color="black" stroke="black" stroke-width="0.50" stroke-linecap="butt" stroke-linejoin="miter">
</g>
<g fill="none" color="gray" stroke="currentColor" stroke-width="0.50" stroke-linecap="butt" stroke-linejoin="miter">
	<path stroke='gray' stroke-dasharray='2,4' class="gridline"  d='M71.9,526.3 L1255.0,526.3  '/></g>
<g fill="none" color="gray" stroke="gray" stroke-width="1.00" stroke-linecap="butt" stroke-linejoin="miter">
</g>
<g fill="none" color="black" stroke="currentColor" stroke-width="1.00" stroke-linecap="butt" stroke-linejoin="miter">
	<path stroke='black'  d='M71.9,526.3 L80.9,526.3  '/>	<g transform="translate(63.6,530.2)" stroke="none" fill="black" font-family="Helvetica" font-size="12.00"  text-anchor="end">
		<text><tspan font-family="Helvetica" > 20</tspan></text>
	</g>
</g>
<g fill="none" color="black" stroke="currentColor" stroke-width="1.00" stroke-linecap="butt" stroke-linejoin="miter">
</g>
<g fill="none" color="black" stroke="black" stroke-width="0.50" stroke-linecap="butt" stroke-linejoin="miter">
</g>
<g fill="none" color="gray" stroke="currentColor" stroke-width="0.50" stroke-linecap="butt" stroke-linejoin="miter">
	<path stroke='gray' stroke-dasharray='2,4' class="gridline"  d='M71.9,467.3 L1255.0,467.3  '/></g>
<g fill="none" color="gray" stroke="gray" stroke-width="1.00" stroke-linecap="butt" stroke-linejoin="miter">
</g>
<g fill="none" color="black" stroke="currentColor" stroke-width="1.00" stroke-linecap="butt" stroke-linejoin="miter">
	<path stroke='black'  d='M71.9,467.3 L80.9,467.3  '/>	<g transform="translate(63.6,471.2)" stroke="none" fill="black" font-family="Helvetica" font-size="12.00"  text-anchor="end">
		<text><tspan font-family="Helvetica" > 30</tspan></text>
	</g>
</g>
<g fill="none" color="black" stroke="currentColor" stroke-width="1.00" stroke-linecap="butt" stroke-linejoin="miter">
</g>
<g fill="none" color="black" stroke="black" stroke-width="0.50" stroke-linecap="butt" stroke-linejoin="miter">
</g>
<g fill="none" color="gray" stroke="currentColor" stroke-width="0.50" stroke-linecap="butt" stroke-linejoin="miter">
	<path stroke='gray' stroke-dasharray='2,4' class="gridline"  d='M71.9,408.3 L1255.0,408.3  '/></g>
<g fill="none" color="gray" stroke="gray" stroke-width="1.00" stroke-linecap="butt" stroke-linejoin="miter">
</g>
<g fill="none" color="black" stroke="currentColor" stroke-width="1.00" stroke-linecap="butt" stroke-linejoin="miter">
	<path stroke='black'  d='M71.9,408.3 L80.9,408.3  '/>	<g transform="translate(63.6,412.2)" stroke="none" fill="black" font-family="Helvetica" font-size="12.00"  text-anchor="end">
		<text><tspan font-family="Helvetica" > 40</tspan></text>
	</g>
</g>
<g fill="none" color="black" stroke="currentColor" stroke-width="1.00" stroke-linecap="butt" stroke-linejoin="miter">
</g>
<g fill="none" color="black" stroke="black" stroke-width="0.50" stroke-linecap="butt" stroke-linejoin="miter">
</g>
<g fill="none" color="gray" stroke="currentColor" stroke-width="0.50" stroke-linecap="butt" stroke-linejoin="miter">
	<path stroke='gray' stroke-dasharray='2,4' class="gridline"  d='M71.9,349.2 L1255.0,349.2  '/></g>
<g fill="none" color="gray" stroke="gray" stroke-width="1.00" stroke-linecap="butt" stroke-linejoin="miter">
</g>
<g fill="none" color="black" stroke="currentColor" stroke-width="1.00" stroke-linecap="butt" stroke-linejoin="miter">
	<path stroke='black'  d='M71.9,349.2 L80.9,349.2  '/>	<g transform="translate(63.6,353.1)" stroke="none" fill="black" font-family="Helvetica" font-size="12.00"  text-anchor="end">
		<text><tspan font-family="Helvetica" > 50</tspan></text>
	</g>
</g>
<g fill="none" color="black" stroke="currentColor" stroke-width="1.00" stroke-linecap="butt" stroke-linejoin="miter">
</g>
<g fill="none" color="black" stroke="black" stroke-width="0.50" stroke-linecap="butt" stroke-linejoin="miter">
</g>
<g fill="none" color="gray" stroke="currentColor" stroke-width="0.50" stroke-linecap="butt" stroke-linejoin="miter">
	<path stroke='gray' stroke-dasharray='2,4' class="gridline"  d='M71.9,290.2 L1255.0,290.2  '/></g>
<g fill="none" color="gray" stroke="gray" stroke-width="1.00" stroke-linecap="butt" stroke-linejoin="miter">
</g>
<g fill="none" color="black" stroke="currentColor" stroke-width="1.00" stroke-linecap="butt" stroke-linejoin="miter">
	<path stroke='black'  d='M71.9,290.2 L80.9,290.2  '/>	<g transform="translate(63.6,294.1)" stroke="none" fill="black" font-family="Helvetica" font-size="12.00"  text-anchor="end">
		<text><tspan font-family="Helvetica" > 60</tspan></text>
	</g>
</g>
<g fill="none" color="black" stroke="currentColor" stroke-width="1.00" stroke-linecap="butt" stroke-linejoin="miter">
</g>
<g fill="none" color="black" stroke="black" stroke-width="0.50" stroke-linecap="butt" stroke-linejoin="miter">
</g>
<g fill="none" color="gray" stroke="currentColor" stroke-width="0.50" stroke-linecap="butt" stroke-linejoin="miter">
	<path stroke='gray' stroke-dasharray='2,4' class="gridline"  d='M71.9,231.2 L1255.0,231.2  '/></g>
<g fill="none" color="gray" stroke="gray" stroke-width="1.00" stroke-linecap="butt" stroke-linejoin="miter">
</g>
<g fill="none" color="black" stroke="currentColor" stroke-width="1.00" stroke-linecap="butt" stroke-linejoin="miter">
	<path stroke='black'  d='M71.9,231.2 L80.9,231.2  '/>	<g transform="translate(63.6,235.1)" stroke="none" fill="black" font-family="Helvetica" font-size="12.00"  text-anchor="end">
		<text><tspan font-family="Helvetica" > 70</tspan></text>
	</g>
</g>
<g fill="none" color="black" stroke="currentColor" stroke-width="1.00" stroke-linecap="butt" stroke-linejoin="miter">
</g>
<g fill="none" color="black" stroke="black" stroke-width="0.50" stroke-linecap="butt" stroke-linejoin="miter">
</g>
<g fill="none" color="gray" stroke="currentColor" stroke-width="0.50" stroke-linecap="butt" stroke-linejoin="miter">
	<path stroke='gray' stroke-dasharray='2,4' class="gridline"  d='M71.9,172.2 L1255.0,172.2  '/></g>
<g fill="none" color="gray" stroke="gray" stroke-width="1.00" stroke-linecap="butt" stroke-linejoin="miter">
</g>
<g fill="none" color="black" stroke="currentColor" stroke-width="1.00" stroke-linecap="butt" stroke-linejoin="miter">
	<path stroke='black'  d='M71.9,172.2 L80.9,172.2  '/>	<g transform="translate(63.6,176.1)" stroke="none" fill="black" font-family="Helvetica" font-size="12.00"  text-anchor="end">
		<text><tspan font-family="Helvetica" > 80</tspan></text>
	</g>
</g>
<g fill="none" color="black" stroke="currentColor" stroke-width="1.00" stroke-linecap="butt" stroke-linejoin="miter">
</g>
<g fill="none" color="black" stroke="black" stroke-width="0.50" stroke-linecap="butt" stroke-linejoin="miter">
</g>
<g fill="none" color="gray" stroke="currentColor" stroke-width="0.50" stroke-linecap="butt" stroke-linejoin="miter">
	<path stroke='gray' stroke-dasharray='2,4' class="gridline"  d='M71.9,113.1 L80.2,113.1 M296.7,113.1 L1255.0,113.1  '/></g>
<g fill="none" color="gray" stroke="gray" stroke-width="1.00" stroke-linecap="butt" stroke-linejoin="miter">
</g>
<g fill="none" color="black" stroke="currentColor" stroke-width="1.00" stroke-linecap="butt" stroke-linejoin="miter">
	<path stroke='black'  d='M71.9,113.1 L80.9,113.1  '/>	<g transform="translate(63.6,117.0)" stroke="none" fill="black" font-family="Helvetica" font-size="12.00"  text-anchor="end">
		<text><tspan font-family="Helvetica" > 90</tspan></text>
	</g>
</g>
<g fill="none" color="black" stroke="currentColor" stroke-width="1.00" stroke-linecap="butt" stroke-linejoin="miter">
</g>
<g fill="none" color="black" stroke="black" stroke-width="0.50" stroke-linecap="butt" stroke-linejoin="miter">
</g>
<g fill="none" color="gray" stroke="currentColor" stroke-width="0.50" stroke-linecap="butt" stroke-linejoin="miter">
	<path stroke='gray' stroke-dasharray='2,4' class="gridline"  d='M71.9,54.1 L1255.0,54.1  '/></g>
<g fill="none" color="gray" stroke="gray" stroke-width="1.00" stroke-linecap="butt" stroke-linejoin="miter">
</g>
<g fill="none" color="black" stroke="currentColor" stroke-width="1.00" stroke-linecap="butt" stroke-linejoin="miter">
	<path stroke='black'  d='M71.9,54.1 L80.9,54.1  '/>	<g transform="translate(63.6,58.0)" stroke="none" fill="black" font-family="Helvetica" font-size="12.00"  text-anchor="end">
		<text><tspan font-family="Helvetica" > 100</tspan></text>
	</g>
</g>
<g fill="none" color="black" stroke="currentColor" stroke-width="1.00" stroke-linecap="butt" stroke-linejoin="miter">
</g>
<g fill="none" color="black" stroke="black" stroke-width="0.50" stroke-linecap="butt" stroke-linejoin="miter">
</g>
<g fill="none" color="gray" stroke="currentColor" stroke-width="0.50" stroke-linecap="butt" stroke-linejoin="miter">
	<path stroke='gray' stroke-dasharray='2,4' class="gridline"  d='M71.9,644.4 L71.9,54.1  '/></g>
<g fill="none" color="gray" stroke="gray" stroke-width="1.00" stroke-linecap="butt" stroke-linejoin="miter">
</g>
<g fill="none" color="black" stroke="currentColor" stroke-width="1.00" stroke-linecap="butt" stroke-linejoin="miter">
	<path stroke='black'  d='M71.9,644.4 L71.9,635.4  '/>	<g transform="translate(71.9,666.3)" stroke="none" fill="black" font-family="Helvetica" font-size="12.00"  text-anchor="middle">
		<text><tspan font-family="Helvetica" > 0</tspan></text>
	</g>
</g>
<g fill="none" color="black" stroke="currentColor" stroke-width="1.00" stroke-linecap="butt" stroke-linejoin="miter">
</g>
<g fill="none" color="black" stroke="black" stroke-width="0.50" stroke-linecap="butt" stroke-linejoin="miter">
</g>
<g fill="none" color="gray" stroke="currentColor" stroke-width="0.50" stroke-linecap="butt" stroke-linejoin="miter">
	<path stroke='gray' stroke-dasharray='2,4' class="gridline"  d='M240.9,644.4 L240.9,117.1 M240.9,63.1 L240.9,54.1  '/></g>
<g fill="none" color="gray" stroke="gray" stroke-width="1.00" stroke-linecap="butt" stroke-linejoin="miter">
</g>
<g fill="none" color="black" stroke="currentColor" stroke-width="1.00" stroke-linecap="butt" stroke-linejoin="miter">
	<path stroke='black'  d='M240.9,644.4 L240.9,635.4  '/>	<g transform="translate(240.9,666.3)" stroke="none" fill="black" font-family="Helvetica" font-size="12.00"  text-anchor="middle">
		<text><tspan font-family="Helvetica" > 0.5</tspan></text>
	</g>
</g>
<g fill="none" color="black" stroke="currentColor" stroke-width="1.00" stroke-linecap="butt" stroke-linejoin="miter">
</g>
<g fill="none" color="black" stroke="black" stroke-width="0.50" stroke-linecap="butt" stroke-linejoin="miter">
</g>
<g fill="none" color="gray" stroke="currentColor" stroke-width="0.50" stroke-linecap="butt" stroke-linejoin="miter">
	<path stroke='gray' stroke-dasharray='2,4' class="gridline"  d='M409.9,644.4 L409.9,54.1  '/></g>
<g fill="none" color="gray" stroke="gray" stroke-width="1.00" stroke-linecap="butt" stroke-linejoin="miter">
</g>
<g fill="none" color="black" stroke="currentColor" stroke-width="1.00" stroke-linecap="butt" stroke-linejoin="miter">
	<path stroke='black'  d='M409.9,644.4 L409.9,635.4  '/>	<g transform="translate(409.9,666.3)" stroke="none" fill="black" font-family="Helvetica" font-size="12.00"  text-anchor="middle">
		<text><tspan font-family="Helvetica" > 1</tspan></text>
	</g>
</g>
<g fill="none" color="black" stroke="currentColor" stroke-width="1.00" stroke-linecap="butt" stroke-linejoin="miter">
</g>
<g fill="none" color="black" stroke="black" stroke-width="0.50" stroke-linecap="butt" stroke-linejoin="miter">
</g>
<g fill="none" color="gray" stroke="currentColor" stroke-width="0.50" stroke-linecap="butt" stroke-linejoin="miter">
	<path stroke='gray' stroke-dasharray='2,4' class="gridline"  d='M578.9,644.4 L578.9,54.1  '/></g>
<g fill="none" color="gray" stroke="gray" stroke-width="1.00" stroke-linecap="butt" stroke-linejoin="miter">
</g>
<g fill="none" color="black" stroke="currentColor" stroke-width="1.00" stroke-linecap="butt" stroke-linejoin="miter">
	<path stroke='black'  d='M578.9,644.4 L578.9,635.4  '/>	<g transform="translate(578.9,666.3)" stroke="none" fill="black" font-family="Helvetica" font-size="12.00"  text-anchor="middle">
		<text><tspan font-family="Helvetica" > 1.5</tspan></text>
	</g>
</g>
<g fill="none" color="black" stroke="currentColor" stroke-width="1.00" stroke-linecap="butt" stroke-linejoin="miter">
</g>
<g fill="none" color="black" stroke="black" stroke-width="0.50" stroke-linecap="butt" stroke-linejoin="miter">
</g>
<g fill="none" color="gray" stroke="currentColor" stroke-width="0.50" stroke-linecap="butt" stroke-linejoin="miter">
	<path stroke='gray' stroke-dasharray='2,4' class="gridline"  d='M748.0,644.4 L748.0,54.1  '/></g>
<g fill="none" color="gray" stroke="gray" stroke-width="1.00" stroke-linecap="butt" stroke-linejoin="miter">
</g>
<g fill="none" color="black" stroke="currentColor" stroke-width="1.00" stroke-linecap="butt" stroke-linejoin="miter">
	<path stroke='black'  d='M748.0,644.4 L748.0,635.4  '/>	<g transform="translate(748.0,666.3)" stroke="none" fill="black" font-family="Helvetica" font-size="12.00"  text-anchor="middle">
		<text><tspan font-family="Helvetica" > 2</tspan></text>
	</g>
</g>
<g fill="none" color="black" stroke="currentColor" stroke-width="1.00" stroke-linecap="butt" stroke-linejoin="miter">
</g>
<g fill="none" color="black" stroke="black" stroke-width="0.50" stroke-linecap="butt" stroke-linejoin="miter">
</g>
<g fill="none" color="gray" stroke="currentColor" stroke-width="0.50" stroke-linecap="butt" stroke-linejoin="miter">
	<path stroke='gray' stroke-dasharray='2,4' class="gridline"  d='M917.0,644.4 L917.0,54.1  '/></g>
<g fill="none" color="gray" stroke="gray" stroke-width="1.00" stroke-linecap="butt" stroke-linejoin="miter">
</g>
<g fill="none" color="black" stroke="currentColor" stroke-width="1.00" stroke-linecap="butt" stroke-linejoin="miter">
	<path stroke='black'  d='M917.0,644.4 L917.0,635.4  '/>	<g transform="translate(917.0,666.3)" stroke="none" fill="black" font-family="Helvetica" font-size="12.00"  text-anchor="middle">
		<text><tspan font-family="Helvetica" > 2.5</tspan></text>
	</g>
</g>
<g fill="none" color="black" stroke="currentColor" stroke-width="1.00" stroke-linecap="butt" stroke-linejoin="miter">
</g>
<g fill="none" color="black" stroke="black" stroke-width="0.50" stroke-linecap="butt" stroke-linejoin="miter">
</g>
<g fill="none" color="gray" stroke="currentColor" stroke-width="0.50" stroke-linecap="butt" stroke-linejoin="miter">
	<path stroke='gray' stroke-dasharray='2,4' class="gridline"  d='M1086.0,644.4 L1086.0,54.1  '/></g>
<g fill="none" color="gray" stroke="gray" stroke-width="1.00" stroke-linecap="butt" stroke-linejoin="miter">
</g>
<g fill="none" color="black" stroke="currentColor" stroke-width="1.00" stroke-linecap="butt" stroke-linejoin="miter">
	<path stroke='black'  d='M1086.0,644.4 L1086.0,635.4  '/>	<g transform="translate(1086.0,666.3)" stroke="none" fill="black" font-family="Helvetica" font-size="12.00"  text-anchor="middle">
		<text><tspan font-family="Helvetica" > 3</tspan></text>
	</g>
</g>
<g fill="none" color="black" stroke="currentColor" stroke-width="1.00" stroke-linecap="butt" stroke-linejoin="miter">
</g>
<g fill="none" color="black" stroke="black" stroke-width="0.50" stroke-linecap="butt" stroke-linejoin="miter">
</g>
<g fill="none" color="gray" stroke="currentColor" stroke-width="0.50" stroke-linecap="butt" stroke-linejoin="miter">
	<path stroke='gray' stroke-dasharray='2,4' class="gridline"  d='M1255.0,644.4 L1255.0,54.1  '/></g>
<g fill="none" color="gray" stroke="gray" stroke-width="1.00" stroke-linecap="butt" stroke-linejoin="miter">
</g>
<g fill="none" color="black" stroke="currentColor" stroke-width="1.00" stroke-linecap="butt" stroke-linejoin="miter">
	<path stroke='black'  d='M1255.0,644.4 L1255.0,635.4  '/>	<g transform="translate(1255.0,666.3)" stroke="none" fill="black" font-family="Helvetica" font-size="12.00"  text-anchor="middle">
		<text><tspan font-family="Helvetica" > 3.5</tspan></text>
	</g>
</g>
<g fill="none" color="black" stroke="currentColor" stroke-width="1.00" stroke-linecap="butt" stroke-linejoin="miter">
</g>
<g fill="none" color="black" stroke="currentColor" stroke-width="1.00" stroke-linecap="butt" stroke-linejoin="miter">
	<path stroke='black'  d='M71.9,54.1 L71.9,644.4 L1255.0,644.4 L1255.0,54.1 L71.9,54.1 Z  '/></g>
<g fill="none" color="black" stroke="currentColor" stroke-width="1.00" stroke-linecap="butt" stroke-linejoin="miter">
	<g transform="translate(16.3,349.3) rotate(270)" stroke="none" fill="black" font-family="Helvetica" font-size="12.00"  text-anchor="middle">
		<text><tspan font-family="Helvetica" >Total sample time (ms)</tspan></text>
	</g>
</g>
<g fill="none" color="black" stroke="currentColor" stroke-width="1.00" stroke-linecap="butt" stroke-linejoin="miter">
	<g transform="translate(663.4,693.3)" stroke="none" fill="black" font-family="Helvetica" font-size="12.00"  text-anchor="middle">
		<text><tspan font-family="Helvetica" >Iterations (x 10</tspan><tspan font-family="Helvetica"  font-size="9.6" dy="-6.00px">3</tspan><tspan font-family="Helvetica"  font-size="12.0" dy="6.00px">)</tspan></text>
	</g>
</g>
<g fill="none" color="black" stroke="currentColor" stroke-width="1.00" stroke-linecap="butt" stroke-linejoin="miter">
	<g transform="translate(663.4,31.0)" stroke="none" fill="black" font-family="Helvetica" font-size="12.00"  text-anchor="middle">
		<text><tspan font-family="Helvetica" >snapshot_restore_with_dense/Dense: Entire region + process_vm_writev w/ page size/10</tspan></text>
	</g>
</g>
	<g id="gnuplot_plot_1" ><title>Sample</title>
<g fill="none" color="black" stroke="currentColor" stroke-width="1.00" stroke-linecap="butt" stroke-linejoin="miter">
	<g transform="translate(139.0,76.0)" stroke="none" fill="black" font-family="Helvetica" font-size="12.00"  text-anchor="start">
		<text><tspan font-family="Helvetica" >Sample</tspan></text>
	</g>
</g>
<g fill="none" color="black" stroke="currentColor" stroke-width="1.00" stroke-linecap="butt" stroke-linejoin="miter">
	<use xlink:href='#gpPt6' transform='translate(82.4,638.3) scale(2.25)' color='rgb( 31, 120, 180)'/>
	<use xlink:href='#gpPt6' transform='translate(92.9,632.8) scale(2.25)' color='rgb( 31, 120, 180)'/>
	<use xlink:href='#gpPt6' transform='translate(103.3,626.9) scale(2.25)' color='rgb( 31, 120, 180)'/>
	<use xlink:href='#gpPt6' transform='translate(113.8,620.8) scale(2.25)' color='rgb( 31, 120, 180)'/>
	<use xlink:href='#gpPt6' transform='translate(124.3,614.7) scale(2.25)' color='rgb( 31, 120, 180)'/>
	<use xlink:href='#gpPt6' transform='translate(134.8,609.4) scale(2.25)' color='rgb( 31, 120, 180)'/>
	<use xlink:href='#gpPt6' transform='translate(145.3,598.0) scale(2.25)' color='rgb( 31, 120, 180)'/>
	<use xlink:href='#gpPt6' transform='translate(155.7,569.8) scale(2.25)' color='rgb( 31, 120, 180)'/>
	<use xlink:href='#gpPt6' transform='translate(166.2,589.7) scale(2.25)' color='rgb( 31, 120, 180)'/>
	<use xlink:href='#gpPt6' transform='translate(176.7,585.1) scale(2.25)' color='rgb( 31, 120, 180)'/>
	<use xlink:href='#gpPt6' transform='translate(187.2,580.2) scale(2.25)' color='rgb( 31, 120, 180)'/>
	<use xlink:href='#gpPt6' transform='translate(197.6,574.6) scale(2.25)' color='rgb( 31, 120, 180)'/>
	<use xlink:href='#gpPt6' transform='translate(208.1,568.7) scale(2.25)' color='rgb( 31, 120, 180)'/>
	<use xlink:href='#gpPt6' transform='translate(218.6,562.9) scale(2.25)' color='rgb( 31, 120, 180)'/>
	<use xlink:href='#gpPt6' transform='translate(229.1,557.1) scale(2.25)' color='rgb( 31, 120, 180)'/>
	<use xlink:href='#gpPt6' transform='translate(239.6,551.3) scale(2.25)' color='rgb( 31, 120, 180)'/>
	<use xlink:href='#gpPt6' transform='translate(250.0,545.8) scale(2.25)' color='rgb( 31, 120, 180)'/>
	<use xlink:href='#gpPt6' transform='translate(260.5,539.5) scale(2.25)' color='rgb( 31, 120, 180)'/>
	<use xlink:href='#gpPt6' transform='translate(271.0,534.1) scale(2.25)' color='rgb( 31, 120, 180)'/>
	<use xlink:href='#gpPt6' transform='translate(281.5,528.3) scale(2.25)' color='rgb( 31, 120, 180)'/>
	<use xlink:href='#gpPt6' transform='translate(292.0,522.6) scale(2.25)' color='rgb( 31, 120, 180)'/>
	<use xlink:href='#gpPt6' transform='translate(302.4,516.7) scale(2.25)' color='rgb( 31, 120, 180)'/>
	<use xlink:href='#gpPt6' transform='translate(312.9,510.6) scale(2.25)' color='rgb( 31, 120, 180)'/>
	<use xlink:href='#gpPt6' transform='translate(323.4,505.1) scale(2.25)' color='rgb( 31, 120, 180)'/>
	<use xlink:href='#gpPt6' transform='translate(333.9,499.4) scale(2.25)' color='rgb( 31, 120, 180)'/>
	<use xlink:href='#gpPt6' transform='translate(344.4,493.6) scale(2.25)' color='rgb( 31, 120, 180)'/>
	<use xlink:href='#gpPt6' transform='translate(354.8,487.3) scale(2.25)' color='rgb( 31, 120, 180)'/>
	<use xlink:href='#gpPt6' transform='translate(365.3,481.7) scale(2.25)' color='rgb( 31, 120, 180)'/>
	<use xlink:href='#gpPt6' transform='translate(375.8,476.1) scale(2.25)' color='rgb( 31, 120, 180)'/>
	<use xlink:href='#gpPt6' transform='translate(386.3,470.3) scale(2.25)' color='rgb( 31, 120, 180)'/>
	<use xlink:href='#gpPt6' transform='translate(396.7,464.0) scale(2.25)' color='rgb( 31, 120, 180)'/>
	<use xlink:href='#gpPt6' transform='translate(407.2,458.6) scale(2.25)' color='rgb( 31, 120, 180)'/>
	<use xlink:href='#gpPt6' transform='translate(417.7,452.7) scale(2.25)' color='rgb( 31, 120, 180)'/>
	<use xlink:href='#gpPt6' transform='translate(428.2,446.7) scale(2.25)' color='rgb( 31, 120, 180)'/>
	<use xlink:href='#gpPt6' transform='translate(438.7,441.4) scale(2.25)' color='rgb( 31, 120, 180)'/>
	<use xlink:href='#gpPt6' transform='translate(449.1,435.0) scale(2.25)' color='rgb( 31, 120, 180)'/>
	<use xlink:href='#gpPt6' transform='translate(459.6,428.6) scale(2.25)' color='rgb( 31, 120, 180)'/>
	<use xlink:href='#gpPt6' transform='translate(470.1,423.7) scale(2.25)' color='rgb( 31, 120, 180)'/>
	<use xlink:href='#gpPt6' transform='translate(480.6,416.9) scale(2.25)' color='rgb( 31, 120, 180)'/>
	<use xlink:href='#gpPt6' transform='translate(491.1,411.8) scale(2.25)' color='rgb( 31, 120, 180)'/>
	<use xlink:href='#gpPt6' transform='translate(501.5,406.3) scale(2.25)' color='rgb( 31, 120, 180)'/>
	<use xlink:href='#gpPt6' transform='translate(512.0,400.0) scale(2.25)' color='rgb( 31, 120, 180)'/>
	<use xlink:href='#gpPt6' transform='translate(522.5,394.2) scale(2.25)' color='rgb( 31, 120, 180)'/>
	<use xlink:href='#gpPt6' transform='translate(533.0,387.9) scale(2.25)' color='rgb( 31, 120, 180)'/>
	<use xlink:href='#gpPt6' transform='translate(543.4,382.1) scale(2.25)' color='rgb( 31, 120, 180)'/>
	<use xlink:href='#gpPt6' transform='translate(553.9,377.0) scale(2.25)' color='rgb( 31, 120, 180)'/>
	<use xlink:href='#gpPt6' transform='translate(564.4,371.1) scale(2.25)' color='rgb( 31, 120, 180)'/>
	<use xlink:href='#gpPt6' transform='translate(574.9,365.8) scale(2.25)' color='rgb( 31, 120, 180)'/>
	<use xlink:href='#gpPt6' transform='translate(585.4,359.2) scale(2.25)' color='rgb( 31, 120, 180)'/>
	<use xlink:href='#gpPt6' transform='translate(595.8,354.0) scale(2.25)' color='rgb( 31, 120, 180)'/>
	<use xlink:href='#gpPt6' transform='translate(606.3,348.0) scale(2.25)' color='rgb( 31, 120, 180)'/>
	<use xlink:href='#gpPt6' transform='translate(616.8,342.6) scale(2.25)' color='rgb( 31, 120, 180)'/>
	<use xlink:href='#gpPt6' transform='translate(627.3,336.4) scale(2.25)' color='rgb( 31, 120, 180)'/>
	<use xlink:href='#gpPt6' transform='translate(637.8,330.5) scale(2.25)' color='rgb( 31, 120, 180)'/>
	<use xlink:href='#gpPt6' transform='translate(648.2,324.7) scale(2.25)' color='rgb( 31, 120, 180)'/>
	<use xlink:href='#gpPt6' transform='translate(658.7,319.3) scale(2.25)' color='rgb( 31, 120, 180)'/>
	<use xlink:href='#gpPt6' transform='translate(669.2,313.1) scale(2.25)' color='rgb( 31, 120, 180)'/>
	<use xlink:href='#gpPt6' transform='translate(679.7,307.8) scale(2.25)' color='rgb( 31, 120, 180)'/>
	<use xlink:href='#gpPt6' transform='translate(690.2,299.6) scale(2.25)' color='rgb( 31, 120, 180)'/>
	<use xlink:href='#gpPt6' transform='translate(700.6,295.3) scale(2.25)' color='rgb( 31, 120, 180)'/>
	<use xlink:href='#gpPt6' transform='translate(711.1,290.1) scale(2.25)' color='rgb( 31, 120, 180)'/>
	<use xlink:href='#gpPt6' transform='translate(721.6,284.3) scale(2.25)' color='rgb( 31, 120, 180)'/>
	<use xlink:href='#gpPt6' transform='translate(732.1,277.8) scale(2.25)' color='rgb( 31, 120, 180)'/>
	<use xlink:href='#gpPt6' transform='translate(742.5,272.3) scale(2.25)' color='rgb( 31, 120, 180)'/>
	<use xlink:href='#gpPt6' transform='translate(753.0,265.8) scale(2.25)' color='rgb( 31, 120, 180)'/>
	<use xlink:href='#gpPt6' transform='translate(763.5,261.6) scale(2.25)' color='rgb( 31, 120, 180)'/>
	<use xlink:href='#gpPt6' transform='translate(774.0,254.7) scale(2.25)' color='rgb( 31, 120, 180)'/>
	<use xlink:href='#gpPt6' transform='translate(784.5,249.5) scale(2.25)' color='rgb( 31, 120, 180)'/>
	<use xlink:href='#gpPt6' transform='translate(794.9,243.7) scale(2.25)' color='rgb( 31, 120, 180)'/>
	<use xlink:href='#gpPt6' transform='translate(805.4,237.8) scale(2.25)' color='rgb( 31, 120, 180)'/>
	<use xlink:href='#gpPt6' transform='translate(815.9,232.1) scale(2.25)' color='rgb( 31, 120, 180)'/>
	<use xlink:href='#gpPt6' transform='translate(826.4,226.5) scale(2.25)' color='rgb( 31, 120, 180)'/>
	<use xlink:href='#gpPt6' transform='translate(836.9,220.4) scale(2.25)' color='rgb( 31, 120, 180)'/>
	<use xlink:href='#gpPt6' transform='translate(847.3,214.4) scale(2.25)' color='rgb( 31, 120, 180)'/>
	<use xlink:href='#gpPt6' transform='translate(857.8,208.7) scale(2.25)' color='rgb( 31, 120, 180)'/>
	<use xlink:href='#gpPt6' transform='translate(868.3,203.1) scale(2.25)' color='rgb( 31, 120, 180)'/>
	<use xlink:href='#gpPt6' transform='translate(878.8,196.8) scale(2.25)' color='rgb( 31, 120, 180)'/>
	<use xlink:href='#gpPt6' transform='translate(889.3,191.2) scale(2.25)' color='rgb( 31, 120, 180)'/>
	<use xlink:href='#gpPt6' transform='translate(899.7,185.9) scale(2.25)' color='rgb( 31, 120, 180)'/>
	<use xlink:href='#gpPt6' transform='translate(910.2,179.7) scale(2.25)' color='rgb( 31, 120, 180)'/>
	<use xlink:href='#gpPt6' transform='translate(920.7,174.3) scale(2.25)' color='rgb( 31, 120, 180)'/>
	<use xlink:href='#gpPt6' transform='translate(931.2,168.1) scale(2.25)' color='rgb( 31, 120, 180)'/>
	<use xlink:href='#gpPt6' transform='translate(941.6,162.4) scale(2.25)' color='rgb( 31, 120, 180)'/>
	<use xlink:href='#gpPt6' transform='translate(952.1,155.8) scale(2.25)' color='rgb( 31, 120, 180)'/>
	<use xlink:href='#gpPt6' transform='translate(962.6,150.9) scale(2.25)' color='rgb( 31, 120, 180)'/>
	<use xlink:href='#gpPt6' transform='translate(973.1,145.0) scale(2.25)' color='rgb( 31, 120, 180)'/>
	<use xlink:href='#gpPt6' transform='translate(983.6,137.8) scale(2.25)' color='rgb( 31, 120, 180)'/>
	<use xlink:href='#gpPt6' transform='translate(994.0,133.2) scale(2.25)' color='rgb( 31, 120, 180)'/>
	<use xlink:href='#gpPt6' transform='translate(1004.5,127.4) scale(2.25)' color='rgb( 31, 120, 180)'/>
	<use xlink:href='#gpPt6' transform='translate(1015.0,121.5) scale(2.25)' color='rgb( 31, 120, 180)'/>
	<use xlink:href='#gpPt6' transform='translate(1025.5,115.5) scale(2.25)' color='rgb( 31, 120, 180)'/>
	<use xlink:href='#gpPt6' transform='translate(1036.0,110.3) scale(2.25)' color='rgb( 31, 120, 180)'/>
	<use xlink:href='#gpPt6' transform='translate(1046.4,104.4) scale(2.25)' color='rgb( 31, 120, 180)'/>
	<use xlink:href='#gpPt6' transform='translate(1056.9,98.6) scale(2.25)' color='rgb( 31, 120, 180)'/>
	<use xlink:href='#gpPt6' transform='translate(1067.4,92.4) scale(2.25)' color='rgb( 31, 120, 180)'/>
	<use xlink:href='#gpPt6' transform='translate(1077.9,86.7) scale(2.25)' color='rgb( 31, 120, 180)'/>
	<use xlink:href='#gpPt6' transform='translate(1088.4,79.8) scale(2.25)' color='rgb( 31, 120, 180)'/>
	<use xlink:href='#gpPt6' transform='translate(1098.8,73.6) scale(2.25)' color='rgb( 31, 120, 180)'/>
	<use xlink:href='#gpPt6' transform='translate(1109.3,69.4) scale(2.25)' color='rgb( 31, 120, 180)'/>
	<use xlink:href='#gpPt6' transform='translate(1119.8,62.9) scale(2.25)' color='rgb( 31, 120, 180)'/>
	<use xlink:href='#gpPt6' transform='translate(109.6,72.1) scale(2.25)' color='rgb( 31, 120, 180)'/>
</g>
	</g>
	<g id="gnuplot_plot_2" ><title>Linear regression</title>
<g fill="none" color="white" stroke="rgb( 31, 120, 180)" stroke-width="2.00" stroke-linecap="butt" stroke-linejoin="miter">
</g>
<g fill="none" color="black" stroke="currentColor" stroke-width="2.00" stroke-linecap="butt" stroke-linejoin="miter">
	<g transform="translate(139.0,94.0)" stroke="none" fill="black" font-family="Helvetica" font-size="12.00"  text-anchor="start">
		<text><tspan font-family="Helvetica" >Linear regression</tspan></text>
	</g>
</g>
<g fill="none" color="black" stroke="currentColor" stroke-width="2.00" stroke-linecap="butt" stroke-linejoin="miter">
	<path stroke='rgb( 31, 120, 180)'  d='M88.5,90.1 L130.7,90.1 M71.9,644.4 L1119.8,63.2  '/></g>
	</g>
	<g id="gnuplot_plot_3" ><title>Confidence interval</title>
<g fill="none" color="white" stroke="rgb( 31, 120, 180)" stroke-width="1.00" stroke-linecap="butt" stroke-linejoin="miter">
</g>
<g fill="none" color="black" stroke="currentColor" stroke-width="1.00" stroke-linecap="butt" stroke-linejoin="miter">
	<g transform="translate(139.0,112.0)" stroke="none" fill="black" font-family="Helvetica" font-size="12.00"  text-anchor="start">
		<text><tspan font-family="Helvetica" >Confidence interval</tspan></text>
	</g>
</g>
<g fill="none" color="black" stroke="currentColor" stroke-width="1.00" stroke-linecap="butt" stroke-linejoin="miter">
	<g stroke='none' shape-rendering='crispEdges'>
		<polygon fill = 'rgb( 31, 120, 180)' fill-opacity = '0.250000' points = '88.5,112.6 130.7,112.6 130.7,103.6 88.5,103.6 '/>
		<polygon fill = 'rgb( 31, 120, 180)' fill-opacity = '0.250000' points = '71.9,644.4 71.9,644.4 71.9,644.4 '/>
		<polygon fill = 'rgb( 31, 120, 180)' fill-opacity = '0.250000' points = '71.9,644.4 1119.8,63.4 1119.8,62.9 '/>
	</g>
</g>
	</g>
<g fill="none" color="white" stroke="rgb( 31, 120, 180)" stroke-width="2.00" stroke-linecap="butt" stroke-linejoin="miter">
</g>
<g fill="none" color="black" stroke="currentColor" stroke-width="2.00" stroke-linecap="butt" stroke-linejoin="miter">
</g>
<g fill="none" color="black" stroke="black" stroke-width="1.00" stroke-linecap="butt" stroke-linejoin="miter">
</g>
<g fill="none" color="black" stroke="currentColor" stroke-width="1.00" stroke-linecap="butt" stroke-linejoin="miter">
	<path stroke='black'  d='M71.9,54.1 L71.9,644.4 L1255.0,644.4 L1255.0,54.1 L71.9,54.1 Z  '/></g>
<g fill="none" color="black" stroke="currentColor" stroke-width="1.00" stroke-linecap="butt" stroke-linejoin="miter">
</g>
</g>
</svg>

