<?xml version="1.0" encoding="utf-8"  standalone="no"?>
<svg 
 viewBox="0 0 450 300"
 xmlns="http://www.w3.org/2000/svg"
 xmlns:xlink="http://www.w3.org/1999/xlink"
>

<title>Gnuplot</title>
<desc>Produced by GNUPLOT 5.2 patchlevel 6 </desc>

<g id="gnuplot_canvas">

<rect x="0" y="0" width="450" height="300" fill="none"/>
<defs>

	<circle id='gpDot' r='0.5' stroke-width='0.5' stroke='currentColor'/>
	<path id='gpPt0' stroke-width='0.222' stroke='currentColor' d='M-1,0 h2 M0,-1 v2'/>
	<path id='gpPt1' stroke-width='0.222' stroke='currentColor' d='M-1,-1 L1,1 M1,-1 L-1,1'/>
	<path id='gpPt2' stroke-width='0.222' stroke='currentColor' d='M-1,0 L1,0 M0,-1 L0,1 M-1,-1 L1,1 M-1,1 L1,-1'/>
	<rect id='gpPt3' stroke-width='0.222' stroke='currentColor' x='-1' y='-1' width='2' height='2'/>
	<rect id='gpPt4' stroke-width='0.222' stroke='currentColor' fill='currentColor' x='-1' y='-1' width='2' height='2'/>
	<circle id='gpPt5' stroke-width='0.222' stroke='currentColor' cx='0' cy='0' r='1'/>
	<use xlink:href='#gpPt5' id='gpPt6' fill='currentColor' stroke='none'/>
	<path id='gpPt7' stroke-width='0.222' stroke='currentColor' d='M0,-1.33 L-1.33,0.67 L1.33,0.67 z'/>
	<use xlink:href='#gpPt7' id='gpPt8' fill='currentColor' stroke='none'/>
	<use xlink:href='#gpPt7' id='gpPt9' stroke='currentColor' transform='rotate(180)'/>
	<use xlink:href='#gpPt9' id='gpPt10' fill='currentColor' stroke='none'/>
	<use xlink:href='#gpPt3' id='gpPt11' stroke='currentColor' transform='rotate(45)'/>
	<use xlink:href='#gpPt11' id='gpPt12' fill='currentColor' stroke='none'/>
	<path id='gpPt13' stroke-width='0.222' stroke='currentColor' d='M0,1.330 L1.265,0.411 L0.782,-1.067 L-0.782,-1.076 L-1.265,0.411 z'/>
	<use xlink:href='#gpPt13' id='gpPt14' fill='currentColor' stroke='none'/>
	<filter id='textbox' filterUnits='objectBoundingBox' x='0' y='0' height='1' width='1'>
	  <feFlood flood-color='white' flood-opacity='1' result='bgnd'/>
	  <feComposite in='SourceGraphic' in2='bgnd' operator='atop'/>
	</filter>
	<filter id='greybox' filterUnits='objectBoundingBox' x='0' y='0' height='1' width='1'>
	  <feFlood flood-color='lightgrey' flood-opacity='1' result='grey'/>
	  <feComposite in='SourceGraphic' in2='grey' operator='atop'/>
	</filter>
</defs>
<g fill="none" color="white" stroke="currentColor" stroke-width="1.00" stroke-linecap="butt" stroke-linejoin="miter">
</g>
<g fill="none" color="black" stroke="currentColor" stroke-width="1.00" stroke-linecap="butt" stroke-linejoin="miter">
	<path stroke='black'  d='M71.9,242.4 L80.9,242.4  '/>	<g transform="translate(63.6,246.3)" stroke="none" fill="black" font-family="Helvetica" font-size="12.00"  text-anchor="end">
		<text><tspan font-family="Helvetica" > 0</tspan></text>
	</g>
</g>
<g fill="none" color="black" stroke="currentColor" stroke-width="1.00" stroke-linecap="butt" stroke-linejoin="miter">
	<path stroke='black'  d='M71.9,214.4 L80.9,214.4  '/>	<g transform="translate(63.6,218.3)" stroke="none" fill="black" font-family="Helvetica" font-size="12.00"  text-anchor="end">
		<text><tspan font-family="Helvetica" > 0.1</tspan></text>
	</g>
</g>
<g fill="none" color="black" stroke="currentColor" stroke-width="1.00" stroke-linecap="butt" stroke-linejoin="miter">
	<path stroke='black'  d='M71.9,186.3 L80.9,186.3  '/>	<g transform="translate(63.6,190.2)" stroke="none" fill="black" font-family="Helvetica" font-size="12.00"  text-anchor="end">
		<text><tspan font-family="Helvetica" > 0.2</tspan></text>
	</g>
</g>
<g fill="none" color="black" stroke="currentColor" stroke-width="1.00" stroke-linecap="butt" stroke-linejoin="miter">
	<path stroke='black'  d='M71.9,158.3 L80.9,158.3  '/>	<g transform="translate(63.6,162.2)" stroke="none" fill="black" font-family="Helvetica" font-size="12.00"  text-anchor="end">
		<text><tspan font-family="Helvetica" > 0.3</tspan></text>
	</g>
</g>
<g fill="none" color="black" stroke="currentColor" stroke-width="1.00" stroke-linecap="butt" stroke-linejoin="miter">
	<path stroke='black'  d='M71.9,130.2 L80.9,130.2  '/>	<g transform="translate(63.6,134.1)" stroke="none" fill="black" font-family="Helvetica" font-size="12.00"  text-anchor="end">
		<text><tspan font-family="Helvetica" > 0.4</tspan></text>
	</g>
</g>
<g fill="none" color="black" stroke="currentColor" stroke-width="1.00" stroke-linecap="butt" stroke-linejoin="miter">
	<path stroke='black'  d='M71.9,102.2 L80.9,102.2  '/>	<g transform="translate(63.6,106.1)" stroke="none" fill="black" font-family="Helvetica" font-size="12.00"  text-anchor="end">
		<text><tspan font-family="Helvetica" > 0.5</tspan></text>
	</g>
</g>
<g fill="none" color="black" stroke="currentColor" stroke-width="1.00" stroke-linecap="butt" stroke-linejoin="miter">
	<path stroke='black'  d='M71.9,74.2 L80.9,74.2  '/>	<g transform="translate(63.6,78.1)" stroke="none" fill="black" font-family="Helvetica" font-size="12.00"  text-anchor="end">
		<text><tspan font-family="Helvetica" > 0.6</tspan></text>
	</g>
</g>
<g fill="none" color="black" stroke="currentColor" stroke-width="1.00" stroke-linecap="butt" stroke-linejoin="miter">
	<path stroke='black'  d='M71.9,46.1 L80.9,46.1  '/>	<g transform="translate(63.6,50.0)" stroke="none" fill="black" font-family="Helvetica" font-size="12.00"  text-anchor="end">
		<text><tspan font-family="Helvetica" > 0.7</tspan></text>
	</g>
</g>
<g fill="none" color="black" stroke="currentColor" stroke-width="1.00" stroke-linecap="butt" stroke-linejoin="miter">
	<path stroke='black'  d='M71.9,18.1 L80.9,18.1  '/>	<g transform="translate(63.6,22.0)" stroke="none" fill="black" font-family="Helvetica" font-size="12.00"  text-anchor="end">
		<text><tspan font-family="Helvetica" > 0.8</tspan></text>
	</g>
</g>
<g fill="none" color="black" stroke="currentColor" stroke-width="1.00" stroke-linecap="butt" stroke-linejoin="miter">
	<path stroke='black'  d='M71.9,242.4 L71.9,233.4  '/>	<g transform="translate(71.9,264.3)" stroke="none" fill="black" font-family="Helvetica" font-size="12.00"  text-anchor="middle">
		<text><tspan font-family="Helvetica" > 25</tspan></text>
	</g>
</g>
<g fill="none" color="black" stroke="currentColor" stroke-width="1.00" stroke-linecap="butt" stroke-linejoin="miter">
	<path stroke='black'  d='M130.8,242.4 L130.8,233.4  '/>	<g transform="translate(130.8,264.3)" stroke="none" fill="black" font-family="Helvetica" font-size="12.00"  text-anchor="middle">
		<text><tspan font-family="Helvetica" > 30</tspan></text>
	</g>
</g>
<g fill="none" color="black" stroke="currentColor" stroke-width="1.00" stroke-linecap="butt" stroke-linejoin="miter">
	<path stroke='black'  d='M189.6,242.4 L189.6,233.4  '/>	<g transform="translate(189.6,264.3)" stroke="none" fill="black" font-family="Helvetica" font-size="12.00"  text-anchor="middle">
		<text><tspan font-family="Helvetica" > 35</tspan></text>
	</g>
</g>
<g fill="none" color="black" stroke="currentColor" stroke-width="1.00" stroke-linecap="butt" stroke-linejoin="miter">
	<path stroke='black'  d='M248.5,242.4 L248.5,233.4  '/>	<g transform="translate(248.5,264.3)" stroke="none" fill="black" font-family="Helvetica" font-size="12.00"  text-anchor="middle">
		<text><tspan font-family="Helvetica" > 40</tspan></text>
	</g>
</g>
<g fill="none" color="black" stroke="currentColor" stroke-width="1.00" stroke-linecap="butt" stroke-linejoin="miter">
	<path stroke='black'  d='M307.3,242.4 L307.3,233.4  '/>	<g transform="translate(307.3,264.3)" stroke="none" fill="black" font-family="Helvetica" font-size="12.00"  text-anchor="middle">
		<text><tspan font-family="Helvetica" > 45</tspan></text>
	</g>
</g>
<g fill="none" color="black" stroke="currentColor" stroke-width="1.00" stroke-linecap="butt" stroke-linejoin="miter">
	<path stroke='black'  d='M366.2,242.4 L366.2,233.4  '/>	<g transform="translate(366.2,264.3)" stroke="none" fill="black" font-family="Helvetica" font-size="12.00"  text-anchor="middle">
		<text><tspan font-family="Helvetica" > 50</tspan></text>
	</g>
</g>
<g fill="none" color="black" stroke="currentColor" stroke-width="1.00" stroke-linecap="butt" stroke-linejoin="miter">
	<path stroke='black'  d='M425.0,242.4 L425.0,233.4  '/>	<g transform="translate(425.0,264.3)" stroke="none" fill="black" font-family="Helvetica" font-size="12.00"  text-anchor="middle">
		<text><tspan font-family="Helvetica" > 55</tspan></text>
	</g>
</g>
<g fill="none" color="black" stroke="currentColor" stroke-width="1.00" stroke-linecap="butt" stroke-linejoin="miter">
</g>
<g fill="none" color="black" stroke="currentColor" stroke-width="1.00" stroke-linecap="butt" stroke-linejoin="miter">
	<path stroke='black'  d='M71.9,18.1 L71.9,242.4 L425.0,242.4 L425.0,18.1 L71.9,18.1 Z  '/></g>
<g fill="none" color="black" stroke="currentColor" stroke-width="1.00" stroke-linecap="butt" stroke-linejoin="miter">
	<g transform="translate(16.3,130.3) rotate(270)" stroke="none" fill="black" font-family="Helvetica" font-size="12.00"  text-anchor="middle">
		<text><tspan font-family="Helvetica" >Density (a.u.)</tspan></text>
	</g>
</g>
<g fill="none" color="black" stroke="currentColor" stroke-width="1.00" stroke-linecap="butt" stroke-linejoin="miter">
	<g transform="translate(248.4,291.3)" stroke="none" fill="black" font-family="Helvetica" font-size="12.00"  text-anchor="middle">
		<text><tspan font-family="Helvetica" >Average time (us)</tspan></text>
	</g>
</g>
<g fill="none" color="black" stroke="currentColor" stroke-width="1.00" stroke-linecap="butt" stroke-linejoin="miter">
</g>
	<g id="gnuplot_plot_1" ><title>Base PDF</title>
<g fill="none" color="black" stroke="currentColor" stroke-width="1.00" stroke-linecap="butt" stroke-linejoin="miter">
	<g stroke='none' shape-rendering='crispEdges'>
		<polygon fill = 'rgb(227,  26,  28)' fill-opacity = '0.500000' points = '135.4,241.4 135.5,241.3 135.7,241.1 135.9,241.0 136.0,240.9 136.2,240.7 136.3,240.5 136.5,240.3 136.6,240.1 136.8,239.9 136.9,239.7 137.1,239.4 137.3,239.1 137.4,238.8 137.6,238.5 137.7,238.1
137.9,237.7 138.0,237.3 138.2,236.8 138.3,236.3 138.5,235.8 138.7,235.2 138.8,234.6 139.0,234.0 139.1,233.3 139.3,232.5 139.4,231.8 139.6,230.9 139.8,230.0 139.9,229.0 140.1,228.0 140.2,227.0
140.4,225.8 140.5,224.6 140.7,223.3 140.8,222.0 141.0,220.5 141.2,219.0 141.3,217.4 141.5,215.8 141.6,214.0 141.8,212.2 141.9,210.3 142.1,208.3 142.2,206.2 142.4,204.0 142.6,201.7 142.7,199.4
142.9,196.9 143.0,194.4 143.2,191.7 143.3,189.0 143.5,186.2 143.6,183.3 143.8,180.3 144.0,177.2 144.1,174.0 144.3,170.7 144.4,167.4 144.6,163.9 144.7,160.4 144.9,156.9 145.0,153.2 145.2,149.5
145.4,145.8 145.5,142.0 145.7,138.1 145.8,134.2 146.0,130.3 146.1,126.3 146.3,122.3 146.4,118.3 146.6,114.3 146.8,110.3 146.9,106.3 147.1,102.3 147.2,98.4 147.4,94.5 147.5,90.6 147.7,86.7
147.8,83.0 148.0,79.3 148.2,75.7 148.3,72.1 148.5,68.7 148.6,65.3 148.8,62.1 148.9,59.0 149.1,56.0 149.3,53.2 149.4,50.5 149.6,47.9 149.7,45.5 149.9,43.3 150.0,41.2 150.2,39.3
150.3,37.6 150.5,36.0 150.7,34.7 150.8,33.5 151.0,32.6 151.1,31.8 151.3,31.3 151.4,30.9 151.6,30.7 151.7,30.7 151.9,31.0 152.1,31.4 152.2,32.0 152.4,32.8 152.5,33.8 152.7,35.0
152.8,36.4 153.0,38.0 153.1,39.7 153.3,41.6 153.5,43.6 153.6,45.8 153.8,48.2 153.9,50.7 154.1,53.3 154.2,56.1 154.4,59.0 154.5,62.0 154.7,65.1 154.9,68.3 155.0,71.6 155.2,74.9
155.3,78.4 155.5,81.9 155.6,85.4 155.8,89.0 155.9,92.7 156.1,96.3 156.3,100.0 156.4,103.7 156.6,107.4 156.7,111.1 156.9,114.8 157.0,118.5 157.2,122.1 157.3,125.7 157.5,129.3 157.7,132.9
157.8,136.4 158.0,139.8 158.1,143.2 158.3,146.6 158.4,149.9 158.6,153.1 158.8,156.2 158.9,159.3 159.1,162.3 159.2,165.2 159.4,168.1 159.5,170.9 159.7,173.5 159.8,176.2 160.0,178.7 160.2,181.1
160.3,183.5 160.5,185.8 160.6,188.0 160.8,190.1 160.9,192.1 161.1,194.1 161.2,195.9 161.4,197.7 161.6,199.5 161.7,201.1 161.9,202.7 162.0,204.2 162.2,205.6 162.3,207.0 162.5,208.3 162.6,209.5
162.8,210.7 163.0,211.8 163.1,212.8 163.3,213.8 163.4,214.8 163.6,215.7 163.7,216.5 163.9,217.3 164.0,218.0 164.2,218.7 164.4,219.4 164.5,220.0 164.7,220.6 164.8,221.1 165.0,221.6 165.1,222.1
165.3,222.5 165.4,222.9 165.6,223.3 165.8,223.6 165.9,223.9 166.1,224.2 166.2,224.5 166.4,224.7 166.5,224.9 166.7,225.1 166.8,225.3 167.0,225.5 167.2,225.6 167.3,225.7 167.5,225.8 167.6,225.9
167.8,225.9 167.9,226.0 168.1,226.0 168.3,226.0 168.4,226.0 168.6,226.0 168.7,226.0 168.9,226.0 169.0,225.9 169.2,225.9 169.3,225.8 169.5,225.8 169.7,225.7 169.8,225.6 170.0,225.5 170.1,225.4
170.3,225.3 170.4,225.2 170.6,225.1 170.7,224.9 170.9,224.8 171.1,224.7 171.2,224.5 171.4,224.4 171.5,224.3 171.7,224.1 171.8,224.0 172.0,223.8 172.1,223.7 172.3,223.5 172.5,223.4 172.6,223.2
172.8,223.1 172.9,222.9 173.1,222.8 173.2,222.7 173.4,222.5 173.5,222.4 173.7,222.3 173.9,222.2 174.0,222.0 174.2,221.9 174.3,221.8 174.5,221.7 174.6,221.6 174.8,221.5 174.9,221.5 175.1,221.4
175.3,221.3 175.4,221.3 175.6,221.2 175.7,221.2 175.9,221.1 176.0,221.1 176.2,221.1 176.3,221.1 176.5,221.1 176.7,221.1 176.8,221.1 177.0,221.1 177.1,221.1 177.3,221.2 177.4,221.2 177.6,221.3
177.8,221.4 177.9,221.4 178.1,221.5 178.2,221.6 178.4,221.7 178.5,221.8 178.7,221.9 178.8,222.0 179.0,222.2 179.2,222.3 179.3,222.5 179.5,222.6 179.6,222.8 179.8,222.9 179.9,223.1 180.1,223.2
180.2,223.4 180.4,223.6 180.6,223.8 180.7,223.9 180.9,224.1 181.0,224.3 181.2,224.5 181.3,224.7 181.5,224.9 181.6,225.1 181.8,225.3 182.0,225.5 182.1,225.7 182.3,225.9 182.4,226.0 182.6,226.2
182.7,226.4 182.9,226.6 183.0,226.8 183.2,227.0 183.4,227.1 183.5,227.3 183.7,227.5 183.8,227.7 184.0,227.8 184.1,228.0 184.3,228.1 184.4,228.3 184.6,228.4 184.8,228.6 184.9,228.7 185.1,228.8
185.2,229.0 185.4,229.1 185.5,229.2 185.7,229.3 185.8,229.4 186.0,229.5 186.2,229.6 186.3,229.7 186.5,229.8 186.6,229.9 186.8,229.9 186.9,230.0 187.1,230.1 187.3,230.1 187.4,230.2 187.6,230.2
187.7,230.3 187.9,230.3 188.0,230.3 188.2,230.4 188.3,230.4 188.5,230.4 188.7,230.4 188.8,230.5 189.0,230.5 189.1,230.5 189.3,230.5 189.4,230.5 189.6,230.5 189.7,230.5 189.9,230.5 190.1,230.5
190.2,230.5 190.4,230.5 190.5,230.6 190.7,230.6 190.8,230.6 191.0,230.6 191.1,230.6 191.3,230.6 191.5,230.6 191.6,230.6 191.8,230.6 191.9,230.6 192.1,230.7 192.2,230.7 192.4,230.7 192.5,230.7
192.7,230.8 192.9,230.8 193.0,230.8 193.2,230.9 193.3,230.9 193.5,231.0 193.6,231.0 193.8,231.1 193.9,231.2 194.1,231.2 194.3,231.3 194.4,231.4 194.6,231.5 194.7,231.6 194.9,231.7 195.0,231.8
195.2,231.9 195.3,232.0 195.5,232.1 195.7,232.2 195.8,232.3 196.0,232.5 196.1,232.6 196.3,232.7 196.4,232.9 196.6,233.0 196.8,233.1 196.9,233.3 197.1,233.4 197.2,233.6 197.4,233.8 197.5,233.9
197.7,234.1 197.8,234.2 198.0,234.4 198.2,234.6 198.3,234.7 198.5,234.9 198.6,235.1 198.8,235.3 198.9,235.4 199.1,235.6 199.2,235.8 199.4,235.9 199.6,236.1 199.7,236.3 199.9,236.5 200.0,236.6
200.2,236.8 200.3,237.0 200.5,237.1 200.6,237.3 200.8,237.5 201.0,237.6 201.1,237.8 201.3,237.9 201.4,238.1 201.6,238.2 201.7,238.4 201.9,238.5 202.0,238.7 202.2,238.8 202.4,239.0 202.5,239.1
202.7,239.2 202.8,239.4 203.0,239.5 203.1,239.6 203.3,239.7 203.4,239.9 203.6,240.0 203.8,240.1 203.9,240.2 204.1,240.3 204.2,240.4 204.4,240.5 204.5,240.6 204.7,240.7 204.8,240.8 205.0,240.8
205.2,240.9 205.3,241.0 205.5,241.1 205.6,241.1 205.8,241.2 205.9,241.3 206.1,241.3 206.3,241.4 206.4,241.5 206.6,241.5 206.7,241.6 206.9,241.6 207.0,241.7 207.2,241.7 207.3,241.8 207.5,241.8
207.7,241.8 207.8,241.9 208.0,241.9 208.1,241.9 208.3,242.0 208.4,242.0 208.6,242.0 208.7,242.1 208.9,242.1 209.1,242.1 209.2,242.1 209.4,242.1 209.5,242.2 209.7,242.2 209.8,242.2 210.0,242.2
210.1,242.2 210.3,242.2 210.5,242.3 210.6,242.3 210.8,242.3 210.9,242.3 211.1,242.3 211.2,242.3 211.4,242.3 211.5,242.3 211.7,242.3 211.9,242.3 212.0,242.3 212.2,242.3 212.3,242.3 212.5,242.4
212.6,242.4 212.8,242.4 212.9,242.4 213.1,242.4 213.1,242.4 212.9,242.4 212.8,242.4 212.6,242.4 212.5,242.4 212.3,242.4 212.2,242.4 212.0,242.4 211.9,242.4 211.7,242.4 211.5,242.4 211.4,242.4
211.2,242.4 211.1,242.4 210.9,242.4 210.8,242.4 210.6,242.4 210.5,242.4 210.3,242.4 210.1,242.4 210.0,242.4 209.8,242.4 209.7,242.4 209.5,242.4 209.4,242.4 209.2,242.4 209.1,242.4 208.9,242.4
208.7,242.4 208.6,242.4 208.4,242.4 208.3,242.4 208.1,242.4 208.0,242.4 207.8,242.4 207.7,242.4 207.5,242.4 207.3,242.4 207.2,242.4 207.0,242.4 206.9,242.4 206.7,242.4 206.6,242.4 206.4,242.4
206.3,242.4 206.1,242.4 205.9,242.4 205.8,242.4 205.6,242.4 205.5,242.4 205.3,242.4 205.2,242.4 205.0,242.4 204.8,242.4 204.7,242.4 204.5,242.4 204.4,242.4 204.2,242.4 204.1,242.4 203.9,242.4
203.8,242.4 203.6,242.4 203.4,242.4 203.3,242.4 203.1,242.4 203.0,242.4 202.8,242.4 202.7,242.4 202.5,242.4 202.4,242.4 202.2,242.4 202.0,242.4 201.9,242.4 201.7,242.4 201.6,242.4 201.4,242.4
201.3,242.4 201.1,242.4 201.0,242.4 200.8,242.4 200.6,242.4 200.5,242.4 200.3,242.4 200.2,242.4 200.0,242.4 199.9,242.4 199.7,242.4 199.6,242.4 199.4,242.4 199.2,242.4 199.1,242.4 198.9,242.4
198.8,242.4 198.6,242.4 198.5,242.4 198.3,242.4 198.2,242.4 198.0,242.4 197.8,242.4 197.7,242.4 197.5,242.4 197.4,242.4 197.2,242.4 197.1,242.4 196.9,242.4 196.8,242.4 196.6,242.4 196.4,242.4
196.3,242.4 196.1,242.4 196.0,242.4 195.8,242.4 195.7,242.4 195.5,242.4 195.3,242.4 195.2,242.4 195.0,242.4 194.9,242.4 194.7,242.4 194.6,242.4 194.4,242.4 194.3,242.4 194.1,242.4 193.9,242.4
193.8,242.4 193.6,242.4 193.5,242.4 193.3,242.4 193.2,242.4 193.0,242.4 192.9,242.4 192.7,242.4 192.5,242.4 192.4,242.4 192.2,242.4 192.1,242.4 191.9,242.4 191.8,242.4 191.6,242.4 191.5,242.4
191.3,242.4 191.1,242.4 191.0,242.4 190.8,242.4 190.7,242.4 190.5,242.4 190.4,242.4 190.2,242.4 190.1,242.4 189.9,242.4 189.7,242.4 189.6,242.4 189.4,242.4 189.3,242.4 189.1,242.4 189.0,242.4
188.8,242.4 188.7,242.4 188.5,242.4 188.3,242.4 188.2,242.4 188.0,242.4 187.9,242.4 187.7,242.4 187.6,242.4 187.4,242.4 187.3,242.4 187.1,242.4 186.9,242.4 186.8,242.4 186.6,242.4 186.5,242.4
186.3,242.4 186.2,242.4 186.0,242.4 185.8,242.4 185.7,242.4 185.5,242.4 185.4,242.4 185.2,242.4 185.1,242.4 184.9,242.4 184.8,242.4 184.6,242.4 184.4,242.4 184.3,242.4 184.1,242.4 184.0,242.4
183.8,242.4 183.7,242.4 183.5,242.4 183.4,242.4 183.2,242.4 183.0,242.4 182.9,242.4 182.7,242.4 182.6,242.4 182.4,242.4 182.3,242.4 182.1,242.4 182.0,242.4 181.8,242.4 181.6,242.4 181.5,242.4
181.3,242.4 181.2,242.4 181.0,242.4 180.9,242.4 180.7,242.4 180.6,242.4 180.4,242.4 180.2,242.4 180.1,242.4 179.9,242.4 179.8,242.4 179.6,242.4 179.5,242.4 179.3,242.4 179.2,242.4 179.0,242.4
178.8,242.4 178.7,242.4 178.5,242.4 178.4,242.4 178.2,242.4 178.1,242.4 177.9,242.4 177.8,242.4 177.6,242.4 177.4,242.4 177.3,242.4 177.1,242.4 177.0,242.4 176.8,242.4 176.7,242.4 176.5,242.4
176.3,242.4 176.2,242.4 176.0,242.4 175.9,242.4 175.7,242.4 175.6,242.4 175.4,242.4 175.3,242.4 175.1,242.4 174.9,242.4 174.8,242.4 174.6,242.4 174.5,242.4 174.3,242.4 174.2,242.4 174.0,242.4
173.9,242.4 173.7,242.4 173.5,242.4 173.4,242.4 173.2,242.4 173.1,242.4 172.9,242.4 172.8,242.4 172.6,242.4 172.5,242.4 172.3,242.4 172.1,242.4 172.0,242.4 171.8,242.4 171.7,242.4 171.5,242.4
171.4,242.4 171.2,242.4 171.1,242.4 170.9,242.4 170.7,242.4 170.6,242.4 170.4,242.4 170.3,242.4 170.1,242.4 170.0,242.4 169.8,242.4 169.7,242.4 169.5,242.4 169.3,242.4 169.2,242.4 169.0,242.4
168.9,242.4 168.7,242.4 168.6,242.4 168.4,242.4 168.3,242.4 168.1,242.4 167.9,242.4 167.8,242.4 167.6,242.4 167.5,242.4 167.3,242.4 167.2,242.4 167.0,242.4 166.8,242.4 166.7,242.4 166.5,242.4
166.4,242.4 166.2,242.4 166.1,242.4 165.9,242.4 165.8,242.4 165.6,242.4 165.4,242.4 165.3,242.4 165.1,242.4 165.0,242.4 164.8,242.4 164.7,242.4 164.5,242.4 164.4,242.4 164.2,242.4 164.0,242.4
163.9,242.4 163.7,242.4 163.6,242.4 163.4,242.4 163.3,242.4 163.1,242.4 163.0,242.4 162.8,242.4 162.6,242.4 162.5,242.4 162.3,242.4 162.2,242.4 162.0,242.4 161.9,242.4 161.7,242.4 161.6,242.4
161.4,242.4 161.2,242.4 161.1,242.4 160.9,242.4 160.8,242.4 160.6,242.4 160.5,242.4 160.3,242.4 160.2,242.4 160.0,242.4 159.8,242.4 159.7,242.4 159.5,242.4 159.4,242.4 159.2,242.4 159.1,242.4
158.9,242.4 158.8,242.4 158.6,242.4 158.4,242.4 158.3,242.4 158.1,242.4 158.0,242.4 157.8,242.4 157.7,242.4 157.5,242.4 157.3,242.4 157.2,242.4 157.0,242.4 156.9,242.4 156.7,242.4 156.6,242.4
156.4,242.4 156.3,242.4 156.1,242.4 155.9,242.4 155.8,242.4 155.6,242.4 155.5,242.4 155.3,242.4 155.2,242.4 155.0,242.4 154.9,242.4 154.7,242.4 154.5,242.4 154.4,242.4 154.2,242.4 154.1,242.4
153.9,242.4 153.8,242.4 153.6,242.4 153.5,242.4 153.3,242.4 153.1,242.4 153.0,242.4 152.8,242.4 152.7,242.4 152.5,242.4 152.4,242.4 152.2,242.4 152.1,242.4 151.9,242.4 151.7,242.4 151.6,242.4
151.4,242.4 151.3,242.4 151.1,242.4 151.0,242.4 150.8,242.4 150.7,242.4 150.5,242.4 150.3,242.4 150.2,242.4 150.0,242.4 149.9,242.4 149.7,242.4 149.6,242.4 149.4,242.4 149.3,242.4 149.1,242.4
148.9,242.4 148.8,242.4 148.6,242.4 148.5,242.4 148.3,242.4 148.2,242.4 148.0,242.4 147.8,242.4 147.7,242.4 147.5,242.4 147.4,242.4 147.2,242.4 147.1,242.4 146.9,242.4 146.8,242.4 146.6,242.4
146.4,242.4 146.3,242.4 146.1,242.4 146.0,242.4 145.8,242.4 145.7,242.4 145.5,242.4 145.4,242.4 145.2,242.4 145.0,242.4 144.9,242.4 144.7,242.4 144.6,242.4 144.4,242.4 144.3,242.4 144.1,242.4
144.0,242.4 143.8,242.4 143.6,242.4 143.5,242.4 143.3,242.4 143.2,242.4 143.0,242.4 142.9,242.4 142.7,242.4 142.6,242.4 142.4,242.4 142.2,242.4 142.1,242.4 141.9,242.4 141.8,242.4 141.6,242.4
141.5,242.4 141.3,242.4 141.2,242.4 141.0,242.4 140.8,242.4 140.7,242.4 140.5,242.4 140.4,242.4 140.2,242.4 140.1,242.4 139.9,242.4 139.8,242.4 139.6,242.4 139.4,242.4 139.3,242.4 139.1,242.4
139.0,242.4 138.8,242.4 138.7,242.4 138.5,242.4 138.3,242.4 138.2,242.4 138.0,242.4 137.9,242.4 137.7,242.4 137.6,242.4 137.4,242.4 137.3,242.4 137.1,242.4 136.9,242.4 136.8,242.4 136.6,242.4
136.5,242.4 136.3,242.4 136.2,242.4 136.0,242.4 135.9,242.4 135.7,242.4 135.5,242.4 135.4,242.4 '/>
	</g>
</g>
	</g>
	<g id="gnuplot_plot_2" ><title>Base Mean</title>
<g fill="none" color="white" stroke="rgb(227,  26,  28)" stroke-width="2.00" stroke-linecap="butt" stroke-linejoin="miter">
</g>
<g fill="none" color="black" stroke="currentColor" stroke-width="2.00" stroke-linecap="butt" stroke-linejoin="miter">
	<path stroke='rgb(227,  26,  28)'  d='M156.8,242.4 L156.8,112.2  '/></g>
	</g>
	<g id="gnuplot_plot_3" ><title>New PDF</title>
<g fill="none" color="white" stroke="rgb(227,  26,  28)" stroke-width="1.00" stroke-linecap="butt" stroke-linejoin="miter">
</g>
<g fill="none" color="black" stroke="currentColor" stroke-width="1.00" stroke-linecap="butt" stroke-linejoin="miter">
	<g stroke='none' shape-rendering='crispEdges'>
		<polygon fill = 'rgb( 31, 120, 180)' fill-opacity = '0.500000' points = '121.2,241.4 121.7,241.1 122.3,240.9 122.9,240.6 123.5,240.3 124.0,239.9 124.6,239.5 125.2,239.0 125.7,238.4 126.3,237.8 126.9,237.0 127.5,236.2 128.0,235.2 128.6,234.2 129.2,233.0 129.8,231.7
130.3,230.2 130.9,228.6 131.5,226.8 132.0,224.9 132.6,222.8 133.2,220.5 133.8,218.0 134.3,215.3 134.9,212.4 135.5,209.4 136.0,206.1 136.6,202.7 137.2,199.1 137.8,195.3 138.3,191.3 138.9,187.2
139.5,183.0 140.0,178.7 140.6,174.3 141.2,169.8 141.8,165.3 142.3,160.8 142.9,156.3 143.5,151.9 144.0,147.6 144.6,143.4 145.2,139.3 145.8,135.5 146.3,131.9 146.9,128.5 147.5,125.4 148.1,122.7
148.6,120.3 149.2,118.2 149.8,116.6 150.3,115.3 150.9,114.5 151.5,114.1 152.1,114.1 152.6,114.5 153.2,115.3 153.8,116.6 154.3,118.2 154.9,120.3 155.5,122.6 156.1,125.4 156.6,128.4 157.2,131.7
157.8,135.2 158.3,139.0 158.9,143.0 159.5,147.1 160.1,151.3 160.6,155.6 161.2,160.0 161.8,164.3 162.4,168.7 162.9,173.0 163.5,177.3 164.1,181.5 164.6,185.6 165.2,189.6 165.8,193.4 166.4,197.1
166.9,200.6 167.5,203.9 168.1,207.1 168.6,210.1 169.2,212.9 169.8,215.5 170.4,218.0 170.9,220.3 171.5,222.4 172.1,224.3 172.6,226.1 173.2,227.7 173.8,229.2 174.4,230.6 174.9,231.9 175.5,233.0
176.1,234.0 176.7,234.9 177.2,235.7 177.8,236.5 178.4,237.1 178.9,237.7 179.5,238.2 180.1,238.7 180.7,239.1 181.2,239.5 181.8,239.8 182.4,240.1 182.9,240.3 183.5,240.6 184.1,240.8 184.7,240.9
185.2,241.1 185.8,241.2 186.4,241.3 186.9,241.4 187.5,241.4 188.1,241.5 188.7,241.5 189.2,241.5 189.8,241.6 190.4,241.6 190.9,241.6 191.5,241.6 192.1,241.6 192.7,241.5 193.2,241.5 193.8,241.5
194.4,241.5 195.0,241.4 195.5,241.4 196.1,241.4 196.7,241.3 197.2,241.3 197.8,241.3 198.4,241.2 199.0,241.2 199.5,241.2 200.1,241.1 200.7,241.1 201.2,241.1 201.8,241.1 202.4,241.1 203.0,241.1
203.5,241.1 204.1,241.1 204.7,241.1 205.2,241.1 205.8,241.1 206.4,241.1 207.0,241.1 207.5,241.1 208.1,241.2 208.7,241.2 209.3,241.2 209.8,241.3 210.4,241.3 211.0,241.3 211.5,241.4 212.1,241.4
212.7,241.5 213.3,241.5 213.8,241.6 214.4,241.6 215.0,241.7 215.5,241.7 216.1,241.8 216.7,241.8 217.3,241.8 217.8,241.9 218.4,241.9 219.0,242.0 219.5,242.0 220.1,242.0 220.7,242.1 221.3,242.1
221.8,242.1 222.4,242.2 223.0,242.2 223.6,242.2 224.1,242.2 224.7,242.2 225.3,242.3 225.8,242.3 226.4,242.3 227.0,242.3 227.6,242.3 228.1,242.3 228.7,242.3 229.3,242.3 229.8,242.4 230.4,242.4
231.0,242.4 231.6,242.4 232.1,242.4 232.7,242.4 233.3,242.4 233.8,242.4 234.4,242.4 235.0,242.4 235.6,242.4 236.1,242.4 236.7,242.4 237.3,242.4 237.8,242.4 238.4,242.4 239.0,242.4 239.6,242.4
240.1,242.4 240.7,242.4 241.3,242.4 241.9,242.4 242.4,242.4 243.0,242.4 243.6,242.4 244.1,242.4 244.7,242.4 245.3,242.4 245.9,242.4 246.4,242.4 247.0,242.4 247.6,242.4 248.1,242.4 248.7,242.4
249.3,242.4 249.9,242.4 250.4,242.4 251.0,242.4 251.6,242.4 252.1,242.4 252.7,242.4 253.3,242.4 253.9,242.4 254.4,242.4 255.0,242.4 255.6,242.4 256.2,242.4 256.7,242.4 257.3,242.4 257.9,242.4
258.4,242.4 259.0,242.4 259.6,242.4 260.2,242.4 260.7,242.4 261.3,242.4 261.9,242.4 262.4,242.4 263.0,242.4 263.6,242.4 264.2,242.4 264.7,242.4 265.3,242.4 265.9,242.4 266.4,242.4 267.0,242.4
267.6,242.4 268.2,242.4 268.7,242.4 269.3,242.4 269.9,242.4 270.5,242.4 271.0,242.4 271.6,242.4 272.2,242.4 272.7,242.4 273.3,242.4 273.9,242.4 274.5,242.4 275.0,242.4 275.6,242.4 276.2,242.4
276.7,242.4 277.3,242.4 277.9,242.4 278.5,242.4 279.0,242.4 279.6,242.4 280.2,242.4 280.7,242.4 281.3,242.4 281.9,242.4 282.5,242.4 283.0,242.4 283.6,242.4 284.2,242.4 284.7,242.4 285.3,242.4
285.9,242.4 286.5,242.4 287.0,242.4 287.6,242.4 288.2,242.4 288.8,242.4 289.3,242.4 289.9,242.4 290.5,242.4 291.0,242.4 291.6,242.4 292.2,242.4 292.8,242.4 293.3,242.4 293.9,242.4 294.5,242.4
295.0,242.4 295.6,242.4 296.2,242.4 296.8,242.4 297.3,242.4 297.9,242.4 298.5,242.4 299.0,242.4 299.6,242.4 300.2,242.4 300.8,242.4 301.3,242.4 301.9,242.4 302.5,242.4 303.1,242.4 303.6,242.4
304.2,242.4 304.8,242.4 305.3,242.4 305.9,242.4 306.5,242.4 307.1,242.4 307.6,242.4 308.2,242.4 308.8,242.4 309.3,242.4 309.9,242.4 310.5,242.4 311.1,242.4 311.6,242.4 312.2,242.4 312.8,242.4
313.3,242.4 313.9,242.4 314.5,242.4 315.1,242.4 315.6,242.4 316.2,242.4 316.8,242.4 317.4,242.4 317.9,242.4 318.5,242.4 319.1,242.4 319.6,242.4 320.2,242.4 320.8,242.4 321.4,242.4 321.9,242.4
322.5,242.4 323.1,242.4 323.6,242.4 324.2,242.4 324.8,242.4 325.4,242.4 325.9,242.4 326.5,242.4 327.1,242.4 327.6,242.4 328.2,242.4 328.8,242.4 329.4,242.4 329.9,242.4 330.5,242.4 331.1,242.4
331.6,242.4 332.2,242.4 332.8,242.4 333.4,242.4 333.9,242.4 334.5,242.4 335.1,242.4 335.7,242.4 336.2,242.4 336.8,242.4 337.4,242.4 337.9,242.4 338.5,242.4 339.1,242.4 339.7,242.4 340.2,242.4
340.8,242.4 341.4,242.4 341.9,242.4 342.5,242.4 343.1,242.4 343.7,242.4 344.2,242.4 344.8,242.4 345.4,242.4 345.9,242.4 346.5,242.4 347.1,242.4 347.7,242.4 348.2,242.4 348.8,242.4 349.4,242.4
350.0,242.4 350.5,242.4 351.1,242.4 351.7,242.4 352.2,242.3 352.8,242.3 353.4,242.3 354.0,242.3 354.5,242.3 355.1,242.3 355.7,242.3 356.2,242.3 356.8,242.2 357.4,242.2 358.0,242.2 358.5,242.2
359.1,242.2 359.7,242.1 360.2,242.1 360.8,242.1 361.4,242.0 362.0,242.0 362.5,242.0 363.1,241.9 363.7,241.9 364.3,241.8 364.8,241.8 365.4,241.7 366.0,241.7 366.5,241.7 367.1,241.6 367.7,241.6
368.3,241.5 368.8,241.5 369.4,241.4 370.0,241.4 370.5,241.3 371.1,241.3 371.7,241.3 372.3,241.2 372.8,241.2 373.4,241.2 374.0,241.1 374.5,241.1 375.1,241.1 375.7,241.1 376.3,241.1 376.8,241.1
377.4,241.1 378.0,241.1 378.5,241.1 379.1,241.1 379.7,241.1 380.3,241.1 380.8,241.1 381.4,241.2 382.0,241.2 382.6,241.2 383.1,241.3 383.7,241.3 384.3,241.4 384.8,241.4 385.4,241.5 386.0,241.5
386.6,241.5 387.1,241.6 387.7,241.6 388.3,241.7 388.8,241.7 389.4,241.8 390.0,241.8 390.6,241.9 391.1,241.9 391.7,242.0 392.3,242.0 392.8,242.0 393.4,242.1 394.0,242.1 394.6,242.1 395.1,242.1
395.7,242.2 396.3,242.2 396.9,242.2 397.4,242.2 398.0,242.3 398.6,242.3 399.1,242.3 399.7,242.3 400.3,242.3 400.9,242.3 401.4,242.3 402.0,242.3 402.6,242.4 403.1,242.4 403.7,242.4 404.3,242.4
404.9,242.4 405.4,242.4 406.0,242.4 406.6,242.4 406.6,242.4 406.0,242.4 405.4,242.4 404.9,242.4 404.3,242.4 403.7,242.4 403.1,242.4 402.6,242.4 402.0,242.4 401.4,242.4 400.9,242.4 400.3,242.4
399.7,242.4 399.1,242.4 398.6,242.4 398.0,242.4 397.4,242.4 396.9,242.4 396.3,242.4 395.7,242.4 395.1,242.4 394.6,242.4 394.0,242.4 393.4,242.4 392.8,242.4 392.3,242.4 391.7,242.4 391.1,242.4
390.6,242.4 390.0,242.4 389.4,242.4 388.8,242.4 388.3,242.4 387.7,242.4 387.1,242.4 386.6,242.4 386.0,242.4 385.4,242.4 384.8,242.4 384.3,242.4 383.7,242.4 383.1,242.4 382.6,242.4 382.0,242.4
381.4,242.4 380.8,242.4 380.3,242.4 379.7,242.4 379.1,242.4 378.5,242.4 378.0,242.4 377.4,242.4 376.8,242.4 376.3,242.4 375.7,242.4 375.1,242.4 374.5,242.4 374.0,242.4 373.4,242.4 372.8,242.4
372.3,242.4 371.7,242.4 371.1,242.4 370.5,242.4 370.0,242.4 369.4,242.4 368.8,242.4 368.3,242.4 367.7,242.4 367.1,242.4 366.5,242.4 366.0,242.4 365.4,242.4 364.8,242.4 364.3,242.4 363.7,242.4
363.1,242.4 362.5,242.4 362.0,242.4 361.4,242.4 360.8,242.4 360.2,242.4 359.7,242.4 359.1,242.4 358.5,242.4 358.0,242.4 357.4,242.4 356.8,242.4 356.2,242.4 355.7,242.4 355.1,242.4 354.5,242.4
354.0,242.4 353.4,242.4 352.8,242.4 352.2,242.4 351.7,242.4 351.1,242.4 350.5,242.4 350.0,242.4 349.4,242.4 348.8,242.4 348.2,242.4 347.7,242.4 347.1,242.4 346.5,242.4 345.9,242.4 345.4,242.4
344.8,242.4 344.2,242.4 343.7,242.4 343.1,242.4 342.5,242.4 341.9,242.4 341.4,242.4 340.8,242.4 340.2,242.4 339.7,242.4 339.1,242.4 338.5,242.4 337.9,242.4 337.4,242.4 336.8,242.4 336.2,242.4
335.7,242.4 335.1,242.4 334.5,242.4 333.9,242.4 333.4,242.4 332.8,242.4 332.2,242.4 331.6,242.4 331.1,242.4 330.5,242.4 329.9,242.4 329.4,242.4 328.8,242.4 328.2,242.4 327.6,242.4 327.1,242.4
326.5,242.4 325.9,242.4 325.4,242.4 324.8,242.4 324.2,242.4 323.6,242.4 323.1,242.4 322.5,242.4 321.9,242.4 321.4,242.4 320.8,242.4 320.2,242.4 319.6,242.4 319.1,242.4 318.5,242.4 317.9,242.4
317.4,242.4 316.8,242.4 316.2,242.4 315.6,242.4 315.1,242.4 314.5,242.4 313.9,242.4 313.3,242.4 312.8,242.4 312.2,242.4 311.6,242.4 311.1,242.4 310.5,242.4 309.9,242.4 309.3,242.4 308.8,242.4
308.2,242.4 307.6,242.4 307.1,242.4 306.5,242.4 305.9,242.4 305.3,242.4 304.8,242.4 304.2,242.4 303.6,242.4 303.1,242.4 302.5,242.4 301.9,242.4 301.3,242.4 300.8,242.4 300.2,242.4 299.6,242.4
299.0,242.4 298.5,242.4 297.9,242.4 297.3,242.4 296.8,242.4 296.2,242.4 295.6,242.4 295.0,242.4 294.5,242.4 293.9,242.4 293.3,242.4 292.8,242.4 292.2,242.4 291.6,242.4 291.0,242.4 290.5,242.4
289.9,242.4 289.3,242.4 288.8,242.4 288.2,242.4 287.6,242.4 287.0,242.4 286.5,242.4 285.9,242.4 285.3,242.4 284.7,242.4 284.2,242.4 283.6,242.4 283.0,242.4 282.5,242.4 281.9,242.4 281.3,242.4
280.7,242.4 280.2,242.4 279.6,242.4 279.0,242.4 278.5,242.4 277.9,242.4 277.3,242.4 276.7,242.4 276.2,242.4 275.6,242.4 275.0,242.4 274.5,242.4 273.9,242.4 273.3,242.4 272.7,242.4 272.2,242.4
271.6,242.4 271.0,242.4 270.5,242.4 269.9,242.4 269.3,242.4 268.7,242.4 268.2,242.4 267.6,242.4 267.0,242.4 266.4,242.4 265.9,242.4 265.3,242.4 264.7,242.4 264.2,242.4 263.6,242.4 263.0,242.4
262.4,242.4 261.9,242.4 261.3,242.4 260.7,242.4 260.2,242.4 259.6,242.4 259.0,242.4 258.4,242.4 257.9,242.4 257.3,242.4 256.7,242.4 256.2,242.4 255.6,242.4 255.0,242.4 254.4,242.4 253.9,242.4
253.3,242.4 252.7,242.4 252.1,242.4 251.6,242.4 251.0,242.4 250.4,242.4 249.9,242.4 249.3,242.4 248.7,242.4 248.1,242.4 247.6,242.4 247.0,242.4 246.4,242.4 245.9,242.4 245.3,242.4 244.7,242.4
244.1,242.4 243.6,242.4 243.0,242.4 242.4,242.4 241.9,242.4 241.3,242.4 240.7,242.4 240.1,242.4 239.6,242.4 239.0,242.4 238.4,242.4 237.8,242.4 237.3,242.4 236.7,242.4 236.1,242.4 235.6,242.4
235.0,242.4 234.4,242.4 233.8,242.4 233.3,242.4 232.7,242.4 232.1,242.4 231.6,242.4 231.0,242.4 230.4,242.4 229.8,242.4 229.3,242.4 228.7,242.4 228.1,242.4 227.6,242.4 227.0,242.4 226.4,242.4
225.8,242.4 225.3,242.4 224.7,242.4 224.1,242.4 223.6,242.4 223.0,242.4 222.4,242.4 221.8,242.4 221.3,242.4 220.7,242.4 220.1,242.4 219.5,242.4 219.0,242.4 218.4,242.4 217.8,242.4 217.3,242.4
216.7,242.4 216.1,242.4 215.5,242.4 215.0,242.4 214.4,242.4 213.8,242.4 213.3,242.4 212.7,242.4 212.1,242.4 211.5,242.4 211.0,242.4 210.4,242.4 209.8,242.4 209.3,242.4 208.7,242.4 208.1,242.4
207.5,242.4 207.0,242.4 206.4,242.4 205.8,242.4 205.2,242.4 204.7,242.4 204.1,242.4 203.5,242.4 203.0,242.4 202.4,242.4 201.8,242.4 201.2,242.4 200.7,242.4 200.1,242.4 199.5,242.4 199.0,242.4
198.4,242.4 197.8,242.4 197.2,242.4 196.7,242.4 196.1,242.4 195.5,242.4 195.0,242.4 194.4,242.4 193.8,242.4 193.2,242.4 192.7,242.4 192.1,242.4 191.5,242.4 190.9,242.4 190.4,242.4 189.8,242.4
189.2,242.4 188.7,242.4 188.1,242.4 187.5,242.4 186.9,242.4 186.4,242.4 185.8,242.4 185.2,242.4 184.7,242.4 184.1,242.4 183.5,242.4 182.9,242.4 182.4,242.4 181.8,242.4 181.2,242.4 180.7,242.4
180.1,242.4 179.5,242.4 178.9,242.4 178.4,242.4 177.8,242.4 177.2,242.4 176.7,242.4 176.1,242.4 175.5,242.4 174.9,242.4 174.4,242.4 173.8,242.4 173.2,242.4 172.6,242.4 172.1,242.4 171.5,242.4
170.9,242.4 170.4,242.4 169.8,242.4 169.2,242.4 168.6,242.4 168.1,242.4 167.5,242.4 166.9,242.4 166.4,242.4 165.8,242.4 165.2,242.4 164.6,242.4 164.1,242.4 163.5,242.4 162.9,242.4 162.4,242.4
161.8,242.4 161.2,242.4 160.6,242.4 160.1,242.4 159.5,242.4 158.9,242.4 158.3,242.4 157.8,242.4 157.2,242.4 156.6,242.4 156.1,242.4 155.5,242.4 154.9,242.4 154.3,242.4 153.8,242.4 153.2,242.4
152.6,242.4 152.1,242.4 151.5,242.4 150.9,242.4 150.3,242.4 149.8,242.4 149.2,242.4 148.6,242.4 148.1,242.4 147.5,242.4 146.9,242.4 146.3,242.4 145.8,242.4 145.2,242.4 144.6,242.4 144.0,242.4
143.5,242.4 142.9,242.4 142.3,242.4 141.8,242.4 141.2,242.4 140.6,242.4 140.0,242.4 139.5,242.4 138.9,242.4 138.3,242.4 137.8,242.4 137.2,242.4 136.6,242.4 136.0,242.4 135.5,242.4 134.9,242.4
134.3,242.4 133.8,242.4 133.2,242.4 132.6,242.4 132.0,242.4 131.5,242.4 130.9,242.4 130.3,242.4 129.8,242.4 129.2,242.4 128.6,242.4 128.0,242.4 127.5,242.4 126.9,242.4 126.3,242.4 125.7,242.4
125.2,242.4 124.6,242.4 124.0,242.4 123.5,242.4 122.9,242.4 122.3,242.4 121.7,242.4 121.2,242.4 '/>
	</g>
</g>
	</g>
	<g id="gnuplot_plot_4" ><title>New Mean</title>
<g fill="none" color="white" stroke="rgb( 31, 120, 180)" stroke-width="2.00" stroke-linecap="butt" stroke-linejoin="miter">
</g>
<g fill="none" color="black" stroke="currentColor" stroke-width="2.00" stroke-linecap="butt" stroke-linejoin="miter">
	<path stroke='rgb( 31, 120, 180)'  d='M154.9,242.4 L154.9,120.1  '/></g>
	</g>
<g fill="none" color="black" stroke="currentColor" stroke-width="2.00" stroke-linecap="butt" stroke-linejoin="miter">
</g>
<g fill="none" color="black" stroke="black" stroke-width="1.00" stroke-linecap="butt" stroke-linejoin="miter">
</g>
<g fill="none" color="black" stroke="currentColor" stroke-width="1.00" stroke-linecap="butt" stroke-linejoin="miter">
	<path stroke='black'  d='M71.9,18.1 L71.9,242.4 L425.0,242.4 L425.0,18.1 L71.9,18.1 Z  '/></g>
<g fill="none" color="black" stroke="currentColor" stroke-width="1.00" stroke-linecap="butt" stroke-linejoin="miter">
</g>
</g>
</svg>

