<?xml version="1.0" encoding="utf-8"  standalone="no"?>
<svg 
 viewBox="0 0 1280 720"
 xmlns="http://www.w3.org/2000/svg"
 xmlns:xlink="http://www.w3.org/1999/xlink"
>

<title>Gnuplot</title>
<desc>Produced by GNUPLOT 5.2 patchlevel 6 </desc>

<g id="gnuplot_canvas">

<rect x="0" y="0" width="1280" height="720" fill="none"/>
<defs>

	<circle id='gpDot' r='0.5' stroke-width='0.5' stroke='currentColor'/>
	<path id='gpPt0' stroke-width='0.222' stroke='currentColor' d='M-1,0 h2 M0,-1 v2'/>
	<path id='gpPt1' stroke-width='0.222' stroke='currentColor' d='M-1,-1 L1,1 M1,-1 L-1,1'/>
	<path id='gpPt2' stroke-width='0.222' stroke='currentColor' d='M-1,0 L1,0 M0,-1 L0,1 M-1,-1 L1,1 M-1,1 L1,-1'/>
	<rect id='gpPt3' stroke-width='0.222' stroke='currentColor' x='-1' y='-1' width='2' height='2'/>
	<rect id='gpPt4' stroke-width='0.222' stroke='currentColor' fill='currentColor' x='-1' y='-1' width='2' height='2'/>
	<circle id='gpPt5' stroke-width='0.222' stroke='currentColor' cx='0' cy='0' r='1'/>
	<use xlink:href='#gpPt5' id='gpPt6' fill='currentColor' stroke='none'/>
	<path id='gpPt7' stroke-width='0.222' stroke='currentColor' d='M0,-1.33 L-1.33,0.67 L1.33,0.67 z'/>
	<use xlink:href='#gpPt7' id='gpPt8' fill='currentColor' stroke='none'/>
	<use xlink:href='#gpPt7' id='gpPt9' stroke='currentColor' transform='rotate(180)'/>
	<use xlink:href='#gpPt9' id='gpPt10' fill='currentColor' stroke='none'/>
	<use xlink:href='#gpPt3' id='gpPt11' stroke='currentColor' transform='rotate(45)'/>
	<use xlink:href='#gpPt11' id='gpPt12' fill='currentColor' stroke='none'/>
	<path id='gpPt13' stroke-width='0.222' stroke='currentColor' d='M0,1.330 L1.265,0.411 L0.782,-1.067 L-0.782,-1.076 L-1.265,0.411 z'/>
	<use xlink:href='#gpPt13' id='gpPt14' fill='currentColor' stroke='none'/>
	<filter id='textbox' filterUnits='objectBoundingBox' x='0' y='0' height='1' width='1'>
	  <feFlood flood-color='white' flood-opacity='1' result='bgnd'/>
	  <feComposite in='SourceGraphic' in2='bgnd' operator='atop'/>
	</filter>
	<filter id='greybox' filterUnits='objectBoundingBox' x='0' y='0' height='1' width='1'>
	  <feFlood flood-color='lightgrey' flood-opacity='1' result='grey'/>
	  <feComposite in='SourceGraphic' in2='grey' operator='atop'/>
	</filter>
</defs>
<g fill="none" color="white" stroke="currentColor" stroke-width="1.00" stroke-linecap="butt" stroke-linejoin="miter">
</g>
<g fill="none" color="black" stroke="currentColor" stroke-width="1.00" stroke-linecap="butt" stroke-linejoin="miter">
	<path stroke='black'  d='M71.9,662.4 L80.9,662.4  '/>	<g transform="translate(63.6,666.3)" stroke="none" fill="black" font-family="Helvetica" font-size="12.00"  text-anchor="end">
		<text><tspan font-family="Helvetica" > 0</tspan></text>
	</g>
</g>
<g fill="none" color="black" stroke="currentColor" stroke-width="1.00" stroke-linecap="butt" stroke-linejoin="miter">
	<path stroke='black'  d='M71.9,575.5 L80.9,575.5  '/>	<g transform="translate(63.6,579.4)" stroke="none" fill="black" font-family="Helvetica" font-size="12.00"  text-anchor="end">
		<text><tspan font-family="Helvetica" > 0.2</tspan></text>
	</g>
</g>
<g fill="none" color="black" stroke="currentColor" stroke-width="1.00" stroke-linecap="butt" stroke-linejoin="miter">
	<path stroke='black'  d='M71.9,488.6 L80.9,488.6  '/>	<g transform="translate(63.6,492.5)" stroke="none" fill="black" font-family="Helvetica" font-size="12.00"  text-anchor="end">
		<text><tspan font-family="Helvetica" > 0.4</tspan></text>
	</g>
</g>
<g fill="none" color="black" stroke="currentColor" stroke-width="1.00" stroke-linecap="butt" stroke-linejoin="miter">
	<path stroke='black'  d='M71.9,401.7 L80.9,401.7  '/>	<g transform="translate(63.6,405.6)" stroke="none" fill="black" font-family="Helvetica" font-size="12.00"  text-anchor="end">
		<text><tspan font-family="Helvetica" > 0.6</tspan></text>
	</g>
</g>
<g fill="none" color="black" stroke="currentColor" stroke-width="1.00" stroke-linecap="butt" stroke-linejoin="miter">
	<path stroke='black'  d='M71.9,314.8 L80.9,314.8  '/>	<g transform="translate(63.6,318.7)" stroke="none" fill="black" font-family="Helvetica" font-size="12.00"  text-anchor="end">
		<text><tspan font-family="Helvetica" > 0.8</tspan></text>
	</g>
</g>
<g fill="none" color="black" stroke="currentColor" stroke-width="1.00" stroke-linecap="butt" stroke-linejoin="miter">
	<path stroke='black'  d='M71.9,227.9 L80.9,227.9  '/>	<g transform="translate(63.6,231.8)" stroke="none" fill="black" font-family="Helvetica" font-size="12.00"  text-anchor="end">
		<text><tspan font-family="Helvetica" > 1</tspan></text>
	</g>
</g>
<g fill="none" color="black" stroke="currentColor" stroke-width="1.00" stroke-linecap="butt" stroke-linejoin="miter">
	<path stroke='black'  d='M71.9,141.0 L80.9,141.0  '/>	<g transform="translate(63.6,144.9)" stroke="none" fill="black" font-family="Helvetica" font-size="12.00"  text-anchor="end">
		<text><tspan font-family="Helvetica" > 1.2</tspan></text>
	</g>
</g>
<g fill="none" color="black" stroke="currentColor" stroke-width="1.00" stroke-linecap="butt" stroke-linejoin="miter">
	<path stroke='black'  d='M71.9,54.1 L80.9,54.1  '/>	<g transform="translate(63.6,58.0)" stroke="none" fill="black" font-family="Helvetica" font-size="12.00"  text-anchor="end">
		<text><tspan font-family="Helvetica" > 1.4</tspan></text>
	</g>
</g>
<g fill="none" color="black" stroke="currentColor" stroke-width="1.00" stroke-linecap="butt" stroke-linejoin="miter">
	<path stroke='black'  d='M114.2,662.4 L114.2,653.4  '/>	<g transform="translate(114.2,684.3)" stroke="none" fill="black" font-family="Helvetica" font-size="12.00"  text-anchor="middle">
		<text><tspan font-family="Helvetica" > 0</tspan></text>
	</g>
</g>
<g fill="none" color="black" stroke="currentColor" stroke-width="1.00" stroke-linecap="butt" stroke-linejoin="miter">
	<path stroke='black'  d='M236.4,662.4 L236.4,653.4  '/>	<g transform="translate(236.4,684.3)" stroke="none" fill="black" font-family="Helvetica" font-size="12.00"  text-anchor="middle">
		<text><tspan font-family="Helvetica" > 0.5</tspan></text>
	</g>
</g>
<g fill="none" color="black" stroke="currentColor" stroke-width="1.00" stroke-linecap="butt" stroke-linejoin="miter">
	<path stroke='black'  d='M358.5,662.4 L358.5,653.4  '/>	<g transform="translate(358.5,684.3)" stroke="none" fill="black" font-family="Helvetica" font-size="12.00"  text-anchor="middle">
		<text><tspan font-family="Helvetica" > 1</tspan></text>
	</g>
</g>
<g fill="none" color="black" stroke="currentColor" stroke-width="1.00" stroke-linecap="butt" stroke-linejoin="miter">
	<path stroke='black'  d='M480.6,662.4 L480.6,653.4  '/>	<g transform="translate(480.6,684.3)" stroke="none" fill="black" font-family="Helvetica" font-size="12.00"  text-anchor="middle">
		<text><tspan font-family="Helvetica" > 1.5</tspan></text>
	</g>
</g>
<g fill="none" color="black" stroke="currentColor" stroke-width="1.00" stroke-linecap="butt" stroke-linejoin="miter">
	<path stroke='black'  d='M602.7,662.4 L602.7,653.4  '/>	<g transform="translate(602.7,684.3)" stroke="none" fill="black" font-family="Helvetica" font-size="12.00"  text-anchor="middle">
		<text><tspan font-family="Helvetica" > 2</tspan></text>
	</g>
</g>
<g fill="none" color="black" stroke="currentColor" stroke-width="1.00" stroke-linecap="butt" stroke-linejoin="miter">
	<path stroke='black'  d='M724.8,662.4 L724.8,653.4  '/>	<g transform="translate(724.8,684.3)" stroke="none" fill="black" font-family="Helvetica" font-size="12.00"  text-anchor="middle">
		<text><tspan font-family="Helvetica" > 2.5</tspan></text>
	</g>
</g>
<g fill="none" color="black" stroke="currentColor" stroke-width="1.00" stroke-linecap="butt" stroke-linejoin="miter">
	<path stroke='black'  d='M846.9,662.4 L846.9,653.4  '/>	<g transform="translate(846.9,684.3)" stroke="none" fill="black" font-family="Helvetica" font-size="12.00"  text-anchor="middle">
		<text><tspan font-family="Helvetica" > 3</tspan></text>
	</g>
</g>
<g fill="none" color="black" stroke="currentColor" stroke-width="1.00" stroke-linecap="butt" stroke-linejoin="miter">
	<path stroke='black'  d='M969.0,662.4 L969.0,653.4  '/>	<g transform="translate(969.0,684.3)" stroke="none" fill="black" font-family="Helvetica" font-size="12.00"  text-anchor="middle">
		<text><tspan font-family="Helvetica" > 3.5</tspan></text>
	</g>
</g>
<g fill="none" color="black" stroke="currentColor" stroke-width="1.00" stroke-linecap="butt" stroke-linejoin="miter">
</g>
<g fill="none" color="black" stroke="currentColor" stroke-width="1.00" stroke-linecap="butt" stroke-linejoin="miter">
	<path stroke='black'  d='M71.9,54.1 L71.9,662.4 L1013.6,662.4 L1013.6,54.1 L71.9,54.1 Z  '/></g>
<g fill="none" color="black" stroke="currentColor" stroke-width="1.00" stroke-linecap="butt" stroke-linejoin="miter">
	<g transform="translate(16.3,358.3) rotate(270)" stroke="none" fill="black" font-family="Helvetica" font-size="12.00"  text-anchor="middle">
		<text><tspan font-family="Helvetica" >Density (a.u.)</tspan></text>
	</g>
</g>
<g fill="none" color="black" stroke="currentColor" stroke-width="1.00" stroke-linecap="butt" stroke-linejoin="miter">
	<g transform="translate(542.7,711.3)" stroke="none" fill="black" font-family="Helvetica" font-size="12.00"  text-anchor="middle">
		<text><tspan font-family="Helvetica" >Average time (us)</tspan></text>
	</g>
</g>
<g fill="none" color="black" stroke="currentColor" stroke-width="1.00" stroke-linecap="butt" stroke-linejoin="miter">
	<g transform="translate(542.7,31.0)" stroke="none" fill="black" font-family="Helvetica" font-size="12.00"  text-anchor="middle">
		<text><tspan font-family="Helvetica" >snapshot_restore_with_dense/Dense: Entire region + process_vm_writev w/ page size/10: SD</tspan></text>
	</g>
</g>
	<g id="gnuplot_plot_1" ><title>Bootstrap distribution</title>
<g fill="none" color="white" stroke="black" stroke-width="2.00" stroke-linecap="butt" stroke-linejoin="miter">
</g>
<g fill="none" color="black" stroke="currentColor" stroke-width="2.00" stroke-linecap="butt" stroke-linejoin="miter">
	<g transform="translate(1089.0,67.0)" stroke="none" fill="black" font-family="Helvetica" font-size="12.00"  text-anchor="start">
		<text><tspan font-family="Helvetica" >Bootstrap distribution</tspan></text>
	</g>
</g>
<g fill="none" color="black" stroke="currentColor" stroke-width="2.00" stroke-linecap="butt" stroke-linejoin="miter">
	<path stroke='rgb( 31, 120, 180)'  d='M1038.5,63.1 L1080.7,63.1 M71.9,661.2 L73.8,661.0 L75.7,660.7 L77.6,660.4 L79.4,660.0 L81.3,659.5
		L83.2,658.9 L85.1,658.3 L87.0,657.6 L88.9,656.7 L90.8,655.7 L92.7,654.6 L94.5,653.4 L96.4,652.0
		L98.3,650.4 L100.2,648.6 L102.1,646.6 L104.0,644.4 L105.9,642.0 L107.8,639.3 L109.6,636.4 L111.5,633.1
		L113.4,629.7 L115.3,625.9 L117.2,621.8 L119.1,617.5 L121.0,612.9 L122.9,608.0 L124.7,602.8 L126.6,597.3
		L128.5,591.6 L130.4,585.7 L132.3,579.6 L134.2,573.3 L136.1,566.9 L138.0,560.3 L139.8,553.7 L141.7,547.1
		L143.6,540.5 L145.5,533.9 L147.4,527.4 L149.3,521.1 L151.2,515.0 L153.0,509.2 L154.9,503.6 L156.8,498.4
		L158.7,493.5 L160.6,489.0 L162.5,484.9 L164.4,481.3 L166.3,478.1 L168.1,475.3 L170.0,472.9 L171.9,471.0
		L173.8,469.4 L175.7,468.2 L177.6,467.3 L179.5,466.7 L181.4,466.3 L183.2,466.1 L185.1,466.0 L187.0,465.9
		L188.9,465.8 L190.8,465.6 L192.7,465.2 L194.6,464.7 L196.5,464.0 L198.3,462.9 L200.2,461.5 L202.1,459.9
		L204.0,457.8 L205.9,455.4 L207.8,452.7 L209.7,449.6 L211.6,446.2 L213.4,442.6 L215.3,438.8 L217.2,434.9
		L219.1,430.8 L221.0,426.7 L222.9,422.7 L224.8,418.8 L226.6,415.1 L228.5,411.6 L230.4,408.5 L232.3,405.7
		L234.2,403.3 L236.1,401.4 L238.0,400.0 L239.9,399.0 L241.7,398.7 L243.6,398.8 L245.5,399.5 L247.4,400.7
		L249.3,402.4 L251.2,404.6 L253.1,407.3 L255.0,410.4 L256.8,413.9 L258.7,417.7 L260.6,421.8 L262.5,426.3
		L264.4,431.0 L266.3,435.9 L268.2,441.0 L270.1,446.2 L271.9,451.6 L273.8,457.1 L275.7,462.7 L277.6,468.4
		L279.5,474.2 L281.4,479.9 L283.3,485.8 L285.2,491.6 L287.0,497.4 L288.9,503.3 L290.8,509.1 L292.7,514.9
		L294.6,520.7 L296.5,526.5 L298.4,532.2 L300.2,537.8 L302.1,543.3 L304.0,548.8 L305.9,554.2 L307.8,559.5
		L309.7,564.6 L311.6,569.7 L313.5,574.6 L315.3,579.4 L317.2,584.0 L319.1,588.5 L321.0,592.8 L322.9,597.0
		L324.8,601.0 L326.7,604.9 L328.6,608.6 L330.4,612.1 L332.3,615.5 L334.2,618.7 L336.1,621.8 L338.0,624.7
		L339.9,627.4 L341.8,630.0 L343.7,632.5 L345.5,634.8 L347.4,637.0 L349.3,639.0 L351.2,640.9 L353.1,642.7
		L355.0,644.4 L356.9,645.9 L358.8,647.4 L360.6,648.7 L362.5,650.0 L364.4,651.1 L366.3,652.2 L368.2,653.2
		L370.1,654.1 L372.0,654.9 L373.8,655.6 L375.7,656.3 L377.6,657.0 L379.5,657.5 L381.4,658.0 L383.3,658.5
		L385.2,658.9 L387.1,659.3 L388.9,659.7 L390.8,660.0 L392.7,660.3 L394.6,660.5 L396.5,660.7 L398.4,660.9
		L400.3,661.1 L402.2,661.3 L404.0,661.4 L405.9,661.5 L407.8,661.7 L409.7,661.8 L411.6,661.8 L413.5,661.9
		L415.4,662.0 L417.3,662.0 L419.1,662.1 L421.0,662.1 L422.9,662.2 L424.8,662.2 L426.7,662.2 L428.6,662.3
		L430.5,662.3 L432.4,662.3 L434.2,662.3 L436.1,662.3 L438.0,662.3 L439.9,662.3 L441.8,662.4 L443.7,662.4
		L445.6,662.4 L447.4,662.4 L449.3,662.4 L451.2,662.4 L453.1,662.4 L455.0,662.4 L456.9,662.4 L458.8,662.4
		L460.7,662.4 L462.5,662.4 L464.4,662.4 L466.3,662.4 L468.2,662.4 L470.1,662.4 L472.0,662.4 L473.9,662.4
		L475.8,662.3 L477.6,662.3 L479.5,662.3 L481.4,662.3 L483.3,662.2 L485.2,662.2 L487.1,662.1 L489.0,662.0
		L490.9,661.9 L492.7,661.8 L494.6,661.6 L496.5,661.3 L498.4,661.0 L500.3,660.7 L502.2,660.2 L504.1,659.7
		L506.0,659.0 L507.8,658.2 L509.7,657.2 L511.6,656.0 L513.5,654.6 L515.4,652.9 L517.3,650.9 L519.2,648.5
		L521.0,645.7 L522.9,642.5 L524.8,638.7 L526.7,634.3 L528.6,629.3 L530.5,623.6 L532.4,617.1 L534.3,609.8
		L536.1,601.6 L538.0,592.5 L539.9,582.3 L541.8,571.1 L543.7,558.8 L545.6,545.5 L547.5,531.0 L549.4,515.4
		L551.2,498.7 L553.1,481.0 L555.0,462.3 L556.9,442.7 L558.8,422.2 L560.7,401.1 L562.6,379.4 L564.5,357.4
		L566.3,335.1 L568.2,312.8 L570.1,290.6 L572.0,268.8 L573.9,247.7 L575.8,227.4 L577.7,208.1 L579.5,190.1
		L581.4,173.6 L583.3,158.8 L585.2,145.8 L587.1,134.9 L589.0,126.1 L590.9,119.5 L592.8,115.3 L594.6,113.5
		L596.5,114.1 L598.4,117.1 L600.3,122.4 L602.2,130.0 L604.1,139.7 L606.0,151.5 L607.9,165.1 L609.7,180.4
		L611.6,197.3 L613.5,215.5 L615.4,234.8 L617.3,255.0 L619.2,275.9 L621.1,297.2 L623.0,318.8 L624.8,340.5
		L626.7,362.1 L628.6,383.3 L630.5,404.2 L632.4,424.5 L634.3,444.0 L636.2,462.8 L638.1,480.7 L639.9,497.7
		L641.8,513.7 L643.7,528.7 L645.6,542.7 L647.5,555.6 L649.4,567.5 L651.3,578.4 L653.1,588.4 L655.0,597.4
		L656.9,605.6 L658.8,612.9 L660.7,619.5 L662.6,625.3 L664.5,630.5 L666.4,635.0 L668.2,639.0 L670.1,642.4
		L672.0,645.5 L673.9,648.1 L675.8,650.3 L677.7,652.2 L679.6,653.8 L681.5,655.1 L683.3,656.2 L685.2,657.1
		L687.1,657.7 L689.0,658.2 L690.9,658.6 L692.8,658.7 L694.7,658.8 L696.6,658.6 L698.4,658.3 L700.3,657.9
		L702.2,657.2 L704.1,656.4 L706.0,655.4 L707.9,654.1 L709.8,652.5 L711.7,650.7 L713.5,648.6 L715.4,646.1
		L717.3,643.2 L719.2,640.0 L721.1,636.2 L723.0,632.0 L724.9,627.3 L726.7,622.0 L728.6,616.2 L730.5,609.8
		L732.4,602.7 L734.3,595.1 L736.2,586.8 L738.1,578.0 L740.0,568.5 L741.8,558.5 L743.7,548.0 L745.6,537.0
		L747.5,525.6 L749.4,513.9 L751.3,502.0 L753.2,489.9 L755.1,477.9 L756.9,465.9 L758.8,454.2 L760.7,442.8
		L762.6,431.9 L764.5,421.7 L766.4,412.1 L768.3,403.5 L770.2,395.8 L772.0,389.2 L773.9,383.7 L775.8,379.5
		L777.7,376.6 L779.6,375.0 L781.5,374.8 L783.4,376.0 L785.3,378.5 L787.1,382.3 L789.0,387.4 L790.9,393.6
		L792.8,401.0 L794.7,409.3 L796.6,418.5 L798.5,428.5 L800.3,439.1 L802.2,450.3 L804.1,461.8 L806.0,473.6
		L807.9,485.5 L809.8,497.4 L811.7,509.3 L813.6,520.9 L815.4,532.3 L817.3,543.3 L819.2,553.9 L821.1,564.0
		L823.0,573.5 L824.9,582.5 L826.8,590.9 L828.7,598.7 L830.5,605.9 L832.4,612.4 L834.3,618.4 L836.2,623.7
		L838.1,628.5 L840.0,632.8 L841.9,636.5 L843.8,639.8 L845.6,642.5 L847.5,644.9 L849.4,646.8 L851.3,648.3
		L853.2,649.4 L855.1,650.2 L857.0,650.7 L858.9,650.8 L860.7,650.6 L862.6,650.2 L864.5,649.4 L866.4,648.3
		L868.3,647.0 L870.2,645.4 L872.1,643.5 L873.9,641.3 L875.8,638.9 L877.7,636.2 L879.6,633.3 L881.5,630.2
		L883.4,626.8 L885.3,623.2 L887.2,619.5 L889.0,615.6 L890.9,611.6 L892.8,607.5 L894.7,603.3 L896.6,599.1
		L898.5,595.0 L900.4,590.9 L902.3,587.0 L904.1,583.3 L906.0,579.7 L907.9,576.4 L909.8,573.4 L911.7,570.8
		L913.6,568.6 L915.5,566.7 L917.4,565.3 L919.2,564.4 L921.1,564.0 L923.0,564.0 L924.9,564.5 L926.8,565.5
		L928.7,566.9 L930.6,568.8 L932.5,571.0 L934.3,573.7 L936.2,576.7 L938.1,580.0 L940.0,583.6 L941.9,587.3
		L943.8,591.3 L945.7,595.3 L947.5,599.4 L949.4,603.6 L951.3,607.7 L953.2,611.8 L955.1,615.8 L957.0,619.7
		L958.9,623.4 L960.8,626.9 L962.6,630.3 L964.5,633.4 L966.4,636.3 L968.3,639.0 L970.2,641.5 L972.1,643.7
		L974.0,645.7 L975.9,647.5 L977.7,649.0 L979.6,650.3 L981.5,651.4 L983.4,652.3 L985.3,653.0 L987.2,653.5
		L989.1,653.8 L991.0,654.0 L992.8,654.0 L994.7,653.9 L996.6,653.6 L998.5,653.2 L1000.4,652.7 L1002.3,652.1
		L1004.2,651.4 L1006.1,650.7 L1007.9,649.8 L1009.8,649.0 L1011.7,648.1 L1013.6,647.1  '/></g>
	</g>
	<g id="gnuplot_plot_2" ><title>Confidence interval</title>
<g fill="none" color="white" stroke="rgb( 31, 120, 180)" stroke-width="1.00" stroke-linecap="butt" stroke-linejoin="miter">
</g>
<g fill="none" color="black" stroke="currentColor" stroke-width="1.00" stroke-linecap="butt" stroke-linejoin="miter">
	<g transform="translate(1089.0,85.0)" stroke="none" fill="black" font-family="Helvetica" font-size="12.00"  text-anchor="start">
		<text><tspan font-family="Helvetica" >Confidence interval</tspan></text>
	</g>
</g>
<g fill="none" color="black" stroke="currentColor" stroke-width="1.00" stroke-linecap="butt" stroke-linejoin="miter">
	<g stroke='none' shape-rendering='crispEdges'>
		<polygon fill = 'rgb( 31, 120, 180)' fill-opacity = '0.250000' points = '1038.5,85.6 1080.7,85.6 1080.7,76.6 1038.5,76.6 '/>
		<polygon fill = 'rgb( 31, 120, 180)' fill-opacity = '0.250000' points = '158.7,493.5 160.6,489.0 162.5,484.9 164.4,481.3 166.3,478.1 168.1,475.3 170.0,472.9 171.9,471.0 173.8,469.4 175.7,468.2 177.6,467.3 179.5,466.7 181.4,466.3 183.2,466.1 185.1,466.0 187.0,465.9
188.9,465.8 190.8,465.6 192.7,465.2 194.6,464.7 196.5,464.0 198.3,462.9 200.2,461.5 202.1,459.9 204.0,457.8 205.9,455.4 207.8,452.7 209.7,449.6 211.6,446.2 213.4,442.6 215.3,438.8 217.2,434.9
219.1,430.8 221.0,426.7 222.9,422.7 224.8,418.8 226.6,415.1 228.5,411.6 230.4,408.5 232.3,405.7 234.2,403.3 236.1,401.4 238.0,400.0 239.9,399.0 241.7,398.7 243.6,398.8 245.5,399.5 247.4,400.7
249.3,402.4 251.2,404.6 253.1,407.3 255.0,410.4 256.8,413.9 258.7,417.7 260.6,421.8 262.5,426.3 264.4,431.0 266.3,435.9 268.2,441.0 270.1,446.2 271.9,451.6 273.8,457.1 275.7,462.7 277.6,468.4
279.5,474.2 281.4,479.9 283.3,485.8 285.2,491.6 287.0,497.4 288.9,503.3 290.8,509.1 292.7,514.9 294.6,520.7 296.5,526.5 298.4,532.2 300.2,537.8 302.1,543.3 304.0,548.8 305.9,554.2 307.8,559.5
309.7,564.6 311.6,569.7 313.5,574.6 315.3,579.4 317.2,584.0 319.1,588.5 321.0,592.8 322.9,597.0 324.8,601.0 326.7,604.9 328.6,608.6 330.4,612.1 332.3,615.5 334.2,618.7 336.1,621.8 338.0,624.7
339.9,627.4 341.8,630.0 343.7,632.5 345.5,634.8 347.4,637.0 349.3,639.0 351.2,640.9 353.1,642.7 355.0,644.4 356.9,645.9 358.8,647.4 360.6,648.7 362.5,650.0 364.4,651.1 366.3,652.2 368.2,653.2
370.1,654.1 372.0,654.9 373.8,655.6 375.7,656.3 377.6,657.0 379.5,657.5 381.4,658.0 383.3,658.5 385.2,658.9 387.1,659.3 388.9,659.7 390.8,660.0 392.7,660.3 394.6,660.5 396.5,660.7 398.4,660.9
400.3,661.1 402.2,661.3 404.0,661.4 405.9,661.5 407.8,661.7 409.7,661.8 411.6,661.8 413.5,661.9 415.4,662.0 417.3,662.0 419.1,662.1 421.0,662.1 422.9,662.2 424.8,662.2 426.7,662.2 428.6,662.3
430.5,662.3 432.4,662.3 434.2,662.3 436.1,662.3 438.0,662.3 439.9,662.3 441.8,662.4 443.7,662.4 445.6,662.4 447.4,662.4 449.3,662.4 451.2,662.4 453.1,662.4 455.0,662.4 456.9,662.4 458.8,662.4
460.7,662.4 462.5,662.4 464.4,662.4 466.3,662.4 468.2,662.4 470.1,662.4 472.0,662.4 473.9,662.4 475.8,662.3 477.6,662.3 479.5,662.3 481.4,662.3 483.3,662.2 485.2,662.2 487.1,662.1 489.0,662.0
490.9,661.9 492.7,661.8 494.6,661.6 496.5,661.3 498.4,661.0 500.3,660.7 502.2,660.2 504.1,659.7 506.0,659.0 507.8,658.2 509.7,657.2 511.6,656.0 513.5,654.6 515.4,652.9 517.3,650.9 519.2,648.5
521.0,645.7 522.9,642.5 524.8,638.7 526.7,634.3 528.6,629.3 530.5,623.6 532.4,617.1 534.3,609.8 536.1,601.6 538.0,592.5 539.9,582.3 541.8,571.1 543.7,558.8 545.6,545.5 547.5,531.0 549.4,515.4
551.2,498.7 553.1,481.0 555.0,462.3 556.9,442.7 558.8,422.2 560.7,401.1 562.6,379.4 564.5,357.4 566.3,335.1 568.2,312.8 570.1,290.6 572.0,268.8 573.9,247.7 575.8,227.4 577.7,208.1 579.5,190.1
581.4,173.6 583.3,158.8 585.2,145.8 587.1,134.9 589.0,126.1 590.9,119.5 592.8,115.3 594.6,113.5 596.5,114.1 598.4,117.1 600.3,122.4 602.2,130.0 604.1,139.7 606.0,151.5 607.9,165.1 609.7,180.4
611.6,197.3 613.5,215.5 615.4,234.8 617.3,255.0 619.2,275.9 621.1,297.2 623.0,318.8 624.8,340.5 626.7,362.1 628.6,383.3 630.5,404.2 632.4,424.5 634.3,444.0 636.2,462.8 638.1,480.7 639.9,497.7
641.8,513.7 643.7,528.7 645.6,542.7 647.5,555.6 649.4,567.5 651.3,578.4 653.1,588.4 655.0,597.4 656.9,605.6 658.8,612.9 660.7,619.5 662.6,625.3 664.5,630.5 666.4,635.0 668.2,639.0 670.1,642.4
672.0,645.5 673.9,648.1 675.8,650.3 677.7,652.2 679.6,653.8 681.5,655.1 683.3,656.2 685.2,657.1 687.1,657.7 689.0,658.2 690.9,658.6 692.8,658.7 694.7,658.8 696.6,658.6 698.4,658.3 700.3,657.9
702.2,657.2 704.1,656.4 706.0,655.4 707.9,654.1 709.8,652.5 711.7,650.7 713.5,648.6 715.4,646.1 717.3,643.2 719.2,640.0 721.1,636.2 723.0,632.0 724.9,627.3 726.7,622.0 728.6,616.2 730.5,609.8
732.4,602.7 734.3,595.1 736.2,586.8 738.1,578.0 740.0,568.5 741.8,558.5 743.7,548.0 745.6,537.0 747.5,525.6 749.4,513.9 751.3,502.0 753.2,489.9 755.1,477.9 756.9,465.9 758.8,454.2 760.7,442.8
762.6,431.9 764.5,421.7 766.4,412.1 768.3,403.5 770.2,395.8 772.0,389.2 773.9,383.7 775.8,379.5 777.7,376.6 779.6,375.0 781.5,374.8 783.4,376.0 785.3,378.5 787.1,382.3 789.0,387.4 790.9,393.6
792.8,401.0 794.7,409.3 796.6,418.5 798.5,428.5 800.3,439.1 802.2,450.3 804.1,461.8 806.0,473.6 807.9,485.5 809.8,497.4 811.7,509.3 813.6,520.9 815.4,532.3 817.3,543.3 819.2,553.9 821.1,564.0
823.0,573.5 824.9,582.5 826.8,590.9 828.7,598.7 830.5,605.9 832.4,612.4 834.3,618.4 836.2,623.7 838.1,628.5 840.0,632.8 841.9,636.5 843.8,639.8 845.6,642.5 847.5,644.9 849.4,646.8 851.3,648.3
853.2,649.4 855.1,650.2 857.0,650.7 858.9,650.8 860.7,650.6 862.6,650.2 864.5,649.4 866.4,648.3 868.3,647.0 870.2,645.4 872.1,643.5 873.9,641.3 875.8,638.9 877.7,636.2 879.6,633.3 881.5,630.2
883.4,626.8 885.3,623.2 887.2,619.5 889.0,615.6 890.9,611.6 892.8,607.5 894.7,603.3 896.6,599.1 898.5,595.0 900.4,590.9 902.3,587.0 904.1,583.3 906.0,579.7 907.9,576.4 909.8,573.4 911.7,570.8
913.6,568.6 915.5,566.7 917.4,565.3 919.2,564.4 921.1,564.0 923.0,564.0 924.9,564.5 924.9,662.4 923.0,662.4 921.1,662.4 919.2,662.4 917.4,662.4 915.5,662.4 913.6,662.4 911.7,662.4 909.8,662.4
907.9,662.4 906.0,662.4 904.1,662.4 902.3,662.4 900.4,662.4 898.5,662.4 896.6,662.4 894.7,662.4 892.8,662.4 890.9,662.4 889.0,662.4 887.2,662.4 885.3,662.4 883.4,662.4 881.5,662.4 879.6,662.4
877.7,662.4 875.8,662.4 873.9,662.4 872.1,662.4 870.2,662.4 868.3,662.4 866.4,662.4 864.5,662.4 862.6,662.4 860.7,662.4 858.9,662.4 857.0,662.4 855.1,662.4 853.2,662.4 851.3,662.4 849.4,662.4
847.5,662.4 845.6,662.4 843.8,662.4 841.9,662.4 840.0,662.4 838.1,662.4 836.2,662.4 834.3,662.4 832.4,662.4 830.5,662.4 828.7,662.4 826.8,662.4 824.9,662.4 823.0,662.4 821.1,662.4 819.2,662.4
817.3,662.4 815.4,662.4 813.6,662.4 811.7,662.4 809.8,662.4 807.9,662.4 806.0,662.4 804.1,662.4 802.2,662.4 800.3,662.4 798.5,662.4 796.6,662.4 794.7,662.4 792.8,662.4 790.9,662.4 789.0,662.4
787.1,662.4 785.3,662.4 783.4,662.4 781.5,662.4 779.6,662.4 777.7,662.4 775.8,662.4 773.9,662.4 772.0,662.4 770.2,662.4 768.3,662.4 766.4,662.4 764.5,662.4 762.6,662.4 760.7,662.4 758.8,662.4
756.9,662.4 755.1,662.4 753.2,662.4 751.3,662.4 749.4,662.4 747.5,662.4 745.6,662.4 743.7,662.4 741.8,662.4 740.0,662.4 738.1,662.4 736.2,662.4 734.3,662.4 732.4,662.4 730.5,662.4 728.6,662.4
726.7,662.4 724.9,662.4 723.0,662.4 721.1,662.4 719.2,662.4 717.3,662.4 715.4,662.4 713.5,662.4 711.7,662.4 709.8,662.4 707.9,662.4 706.0,662.4 704.1,662.4 702.2,662.4 700.3,662.4 698.4,662.4
696.6,662.4 694.7,662.4 692.8,662.4 690.9,662.4 689.0,662.4 687.1,662.4 685.2,662.4 683.3,662.4 681.5,662.4 679.6,662.4 677.7,662.4 675.8,662.4 673.9,662.4 672.0,662.4 670.1,662.4 668.2,662.4
666.4,662.4 664.5,662.4 662.6,662.4 660.7,662.4 658.8,662.4 656.9,662.4 655.0,662.4 653.1,662.4 651.3,662.4 649.4,662.4 647.5,662.4 645.6,662.4 643.7,662.4 641.8,662.4 639.9,662.4 638.1,662.4
636.2,662.4 634.3,662.4 632.4,662.4 630.5,662.4 628.6,662.4 626.7,662.4 624.8,662.4 623.0,662.4 621.1,662.4 619.2,662.4 617.3,662.4 615.4,662.4 613.5,662.4 611.6,662.4 609.7,662.4 607.9,662.4
606.0,662.4 604.1,662.4 602.2,662.4 600.3,662.4 598.4,662.4 596.5,662.4 594.6,662.4 592.8,662.4 590.9,662.4 589.0,662.4 587.1,662.4 585.2,662.4 583.3,662.4 581.4,662.4 579.5,662.4 577.7,662.4
575.8,662.4 573.9,662.4 572.0,662.4 570.1,662.4 568.2,662.4 566.3,662.4 564.5,662.4 562.6,662.4 560.7,662.4 558.8,662.4 556.9,662.4 555.0,662.4 553.1,662.4 551.2,662.4 549.4,662.4 547.5,662.4
545.6,662.4 543.7,662.4 541.8,662.4 539.9,662.4 538.0,662.4 536.1,662.4 534.3,662.4 532.4,662.4 530.5,662.4 528.6,662.4 526.7,662.4 524.8,662.4 522.9,662.4 521.0,662.4 519.2,662.4 517.3,662.4
515.4,662.4 513.5,662.4 511.6,662.4 509.7,662.4 507.8,662.4 506.0,662.4 504.1,662.4 502.2,662.4 500.3,662.4 498.4,662.4 496.5,662.4 494.6,662.4 492.7,662.4 490.9,662.4 489.0,662.4 487.1,662.4
485.2,662.4 483.3,662.4 481.4,662.4 479.5,662.4 477.6,662.4 475.8,662.4 473.9,662.4 472.0,662.4 470.1,662.4 468.2,662.4 466.3,662.4 464.4,662.4 462.5,662.4 460.7,662.4 458.8,662.4 456.9,662.4
455.0,662.4 453.1,662.4 451.2,662.4 449.3,662.4 447.4,662.4 445.6,662.4 443.7,662.4 441.8,662.4 439.9,662.4 438.0,662.4 436.1,662.4 434.2,662.4 432.4,662.4 430.5,662.4 428.6,662.4 426.7,662.4
424.8,662.4 422.9,662.4 421.0,662.4 419.1,662.4 417.3,662.4 415.4,662.4 413.5,662.4 411.6,662.4 409.7,662.4 407.8,662.4 405.9,662.4 404.0,662.4 402.2,662.4 400.3,662.4 398.4,662.4 396.5,662.4
394.6,662.4 392.7,662.4 390.8,662.4 388.9,662.4 387.1,662.4 385.2,662.4 383.3,662.4 381.4,662.4 379.5,662.4 377.6,662.4 375.7,662.4 373.8,662.4 372.0,662.4 370.1,662.4 368.2,662.4 366.3,662.4
364.4,662.4 362.5,662.4 360.6,662.4 358.8,662.4 356.9,662.4 355.0,662.4 353.1,662.4 351.2,662.4 349.3,662.4 347.4,662.4 345.5,662.4 343.7,662.4 341.8,662.4 339.9,662.4 338.0,662.4 336.1,662.4
334.2,662.4 332.3,662.4 330.4,662.4 328.6,662.4 326.7,662.4 324.8,662.4 322.9,662.4 321.0,662.4 319.1,662.4 317.2,662.4 315.3,662.4 313.5,662.4 311.6,662.4 309.7,662.4 307.8,662.4 305.9,662.4
304.0,662.4 302.1,662.4 300.2,662.4 298.4,662.4 296.5,662.4 294.6,662.4 292.7,662.4 290.8,662.4 288.9,662.4 287.0,662.4 285.2,662.4 283.3,662.4 281.4,662.4 279.5,662.4 277.6,662.4 275.7,662.4
273.8,662.4 271.9,662.4 270.1,662.4 268.2,662.4 266.3,662.4 264.4,662.4 262.5,662.4 260.6,662.4 258.7,662.4 256.8,662.4 255.0,662.4 253.1,662.4 251.2,662.4 249.3,662.4 247.4,662.4 245.5,662.4
243.6,662.4 241.7,662.4 239.9,662.4 238.0,662.4 236.1,662.4 234.2,662.4 232.3,662.4 230.4,662.4 228.5,662.4 226.6,662.4 224.8,662.4 222.9,662.4 221.0,662.4 219.1,662.4 217.2,662.4 215.3,662.4
213.4,662.4 211.6,662.4 209.7,662.4 207.8,662.4 205.9,662.4 204.0,662.4 202.1,662.4 200.2,662.4 198.3,662.4 196.5,662.4 194.6,662.4 192.7,662.4 190.8,662.4 188.9,662.4 187.0,662.4 185.1,662.4
183.2,662.4 181.4,662.4 179.5,662.4 177.6,662.4 175.7,662.4 173.8,662.4 171.9,662.4 170.0,662.4 168.1,662.4 166.3,662.4 164.4,662.4 162.5,662.4 160.6,662.4 158.7,662.4 '/>
	</g>
</g>
	</g>
	<g id="gnuplot_plot_3" ><title>Point estimate</title>
<g fill="none" color="white" stroke="rgb( 31, 120, 180)" stroke-width="2.00" stroke-linecap="butt" stroke-linejoin="miter">
</g>
<g fill="none" color="black" stroke="currentColor" stroke-width="2.00" stroke-linecap="butt" stroke-linejoin="miter">
	<g transform="translate(1089.0,103.0)" stroke="none" fill="black" font-family="Helvetica" font-size="12.00"  text-anchor="start">
		<text><tspan font-family="Helvetica" >Point estimate</tspan></text>
	</g>
</g>
<g fill="none" color="black" stroke="currentColor" stroke-width="2.00" stroke-linecap="butt" stroke-linejoin="miter">
	<path stroke='rgb( 31, 120, 180)'  d='M1038.5,99.1 L1080.7,99.1 M596.1,662.4 L596.1,114.0  '/></g>
	</g>
<g fill="none" color="black" stroke="currentColor" stroke-width="2.00" stroke-linecap="butt" stroke-linejoin="miter">
</g>
<g fill="none" color="black" stroke="black" stroke-width="1.00" stroke-linecap="butt" stroke-linejoin="miter">
</g>
<g fill="none" color="black" stroke="currentColor" stroke-width="1.00" stroke-linecap="butt" stroke-linejoin="miter">
	<path stroke='black'  d='M71.9,54.1 L71.9,662.4 L1013.6,662.4 L1013.6,54.1 L71.9,54.1 Z  '/></g>
<g fill="none" color="black" stroke="currentColor" stroke-width="1.00" stroke-linecap="butt" stroke-linejoin="miter">
</g>
</g>
</svg>

