<?xml version="1.0" encoding="utf-8"  standalone="no"?>
<svg 
 viewBox="0 0 1280 720"
 xmlns="http://www.w3.org/2000/svg"
 xmlns:xlink="http://www.w3.org/1999/xlink"
>

<title>Gnuplot</title>
<desc>Produced by GNUPLOT 5.2 patchlevel 6 </desc>

<g id="gnuplot_canvas">

<rect x="0" y="0" width="1280" height="720" fill="none"/>
<defs>

	<circle id='gpDot' r='0.5' stroke-width='0.5' stroke='currentColor'/>
	<path id='gpPt0' stroke-width='0.222' stroke='currentColor' d='M-1,0 h2 M0,-1 v2'/>
	<path id='gpPt1' stroke-width='0.222' stroke='currentColor' d='M-1,-1 L1,1 M1,-1 L-1,1'/>
	<path id='gpPt2' stroke-width='0.222' stroke='currentColor' d='M-1,0 L1,0 M0,-1 L0,1 M-1,-1 L1,1 M-1,1 L1,-1'/>
	<rect id='gpPt3' stroke-width='0.222' stroke='currentColor' x='-1' y='-1' width='2' height='2'/>
	<rect id='gpPt4' stroke-width='0.222' stroke='currentColor' fill='currentColor' x='-1' y='-1' width='2' height='2'/>
	<circle id='gpPt5' stroke-width='0.222' stroke='currentColor' cx='0' cy='0' r='1'/>
	<use xlink:href='#gpPt5' id='gpPt6' fill='currentColor' stroke='none'/>
	<path id='gpPt7' stroke-width='0.222' stroke='currentColor' d='M0,-1.33 L-1.33,0.67 L1.33,0.67 z'/>
	<use xlink:href='#gpPt7' id='gpPt8' fill='currentColor' stroke='none'/>
	<use xlink:href='#gpPt7' id='gpPt9' stroke='currentColor' transform='rotate(180)'/>
	<use xlink:href='#gpPt9' id='gpPt10' fill='currentColor' stroke='none'/>
	<use xlink:href='#gpPt3' id='gpPt11' stroke='currentColor' transform='rotate(45)'/>
	<use xlink:href='#gpPt11' id='gpPt12' fill='currentColor' stroke='none'/>
	<path id='gpPt13' stroke-width='0.222' stroke='currentColor' d='M0,1.330 L1.265,0.411 L0.782,-1.067 L-0.782,-1.076 L-1.265,0.411 z'/>
	<use xlink:href='#gpPt13' id='gpPt14' fill='currentColor' stroke='none'/>
	<filter id='textbox' filterUnits='objectBoundingBox' x='0' y='0' height='1' width='1'>
	  <feFlood flood-color='white' flood-opacity='1' result='bgnd'/>
	  <feComposite in='SourceGraphic' in2='bgnd' operator='atop'/>
	</filter>
	<filter id='greybox' filterUnits='objectBoundingBox' x='0' y='0' height='1' width='1'>
	  <feFlood flood-color='lightgrey' flood-opacity='1' result='grey'/>
	  <feComposite in='SourceGraphic' in2='grey' operator='atop'/>
	</filter>
</defs>
<g fill="none" color="white" stroke="currentColor" stroke-width="1.00" stroke-linecap="butt" stroke-linejoin="miter">
</g>
<g fill="none" color="black" stroke="currentColor" stroke-width="1.00" stroke-linecap="butt" stroke-linejoin="miter">
	<path stroke='black'  d='M63.6,662.4 L72.6,662.4  '/>	<g transform="translate(55.3,666.3)" stroke="none" fill="black" font-family="Helvetica" font-size="12.00"  text-anchor="end">
		<text><tspan font-family="Helvetica" > 0</tspan></text>
	</g>
</g>
<g fill="none" color="black" stroke="currentColor" stroke-width="1.00" stroke-linecap="butt" stroke-linejoin="miter">
	<path stroke='black'  d='M63.6,561.0 L72.6,561.0  '/>	<g transform="translate(55.3,564.9)" stroke="none" fill="black" font-family="Helvetica" font-size="12.00"  text-anchor="end">
		<text><tspan font-family="Helvetica" > 10</tspan></text>
	</g>
</g>
<g fill="none" color="black" stroke="currentColor" stroke-width="1.00" stroke-linecap="butt" stroke-linejoin="miter">
	<path stroke='black'  d='M63.6,459.6 L72.6,459.6  '/>	<g transform="translate(55.3,463.5)" stroke="none" fill="black" font-family="Helvetica" font-size="12.00"  text-anchor="end">
		<text><tspan font-family="Helvetica" > 20</tspan></text>
	</g>
</g>
<g fill="none" color="black" stroke="currentColor" stroke-width="1.00" stroke-linecap="butt" stroke-linejoin="miter">
	<path stroke='black'  d='M63.6,358.2 L72.6,358.2  '/>	<g transform="translate(55.3,362.1)" stroke="none" fill="black" font-family="Helvetica" font-size="12.00"  text-anchor="end">
		<text><tspan font-family="Helvetica" > 30</tspan></text>
	</g>
</g>
<g fill="none" color="black" stroke="currentColor" stroke-width="1.00" stroke-linecap="butt" stroke-linejoin="miter">
	<path stroke='black'  d='M63.6,256.9 L72.6,256.9  '/>	<g transform="translate(55.3,260.8)" stroke="none" fill="black" font-family="Helvetica" font-size="12.00"  text-anchor="end">
		<text><tspan font-family="Helvetica" > 40</tspan></text>
	</g>
</g>
<g fill="none" color="black" stroke="currentColor" stroke-width="1.00" stroke-linecap="butt" stroke-linejoin="miter">
	<path stroke='black'  d='M63.6,155.5 L72.6,155.5  '/>	<g transform="translate(55.3,159.4)" stroke="none" fill="black" font-family="Helvetica" font-size="12.00"  text-anchor="end">
		<text><tspan font-family="Helvetica" > 50</tspan></text>
	</g>
</g>
<g fill="none" color="black" stroke="currentColor" stroke-width="1.00" stroke-linecap="butt" stroke-linejoin="miter">
	<path stroke='black'  d='M63.6,54.1 L72.6,54.1  '/>	<g transform="translate(55.3,58.0)" stroke="none" fill="black" font-family="Helvetica" font-size="12.00"  text-anchor="end">
		<text><tspan font-family="Helvetica" > 60</tspan></text>
	</g>
</g>
<g fill="none" color="black" stroke="currentColor" stroke-width="1.00" stroke-linecap="butt" stroke-linejoin="miter">
	<path stroke='black'  d='M75.6,662.4 L75.6,653.4  '/>	<g transform="translate(75.6,684.3)" stroke="none" fill="black" font-family="Helvetica" font-size="12.00"  text-anchor="middle">
		<text><tspan font-family="Helvetica" >-4.5</tspan></text>
	</g>
</g>
<g fill="none" color="black" stroke="currentColor" stroke-width="1.00" stroke-linecap="butt" stroke-linejoin="miter">
	<path stroke='black'  d='M185.6,662.4 L185.6,653.4  '/>	<g transform="translate(185.6,684.3)" stroke="none" fill="black" font-family="Helvetica" font-size="12.00"  text-anchor="middle">
		<text><tspan font-family="Helvetica" >-4</tspan></text>
	</g>
</g>
<g fill="none" color="black" stroke="currentColor" stroke-width="1.00" stroke-linecap="butt" stroke-linejoin="miter">
	<path stroke='black'  d='M295.6,662.4 L295.6,653.4  '/>	<g transform="translate(295.6,684.3)" stroke="none" fill="black" font-family="Helvetica" font-size="12.00"  text-anchor="middle">
		<text><tspan font-family="Helvetica" >-3.5</tspan></text>
	</g>
</g>
<g fill="none" color="black" stroke="currentColor" stroke-width="1.00" stroke-linecap="butt" stroke-linejoin="miter">
	<path stroke='black'  d='M405.6,662.4 L405.6,653.4  '/>	<g transform="translate(405.6,684.3)" stroke="none" fill="black" font-family="Helvetica" font-size="12.00"  text-anchor="middle">
		<text><tspan font-family="Helvetica" >-3</tspan></text>
	</g>
</g>
<g fill="none" color="black" stroke="currentColor" stroke-width="1.00" stroke-linecap="butt" stroke-linejoin="miter">
	<path stroke='black'  d='M515.6,662.4 L515.6,653.4  '/>	<g transform="translate(515.6,684.3)" stroke="none" fill="black" font-family="Helvetica" font-size="12.00"  text-anchor="middle">
		<text><tspan font-family="Helvetica" >-2.5</tspan></text>
	</g>
</g>
<g fill="none" color="black" stroke="currentColor" stroke-width="1.00" stroke-linecap="butt" stroke-linejoin="miter">
	<path stroke='black'  d='M625.6,662.4 L625.6,653.4  '/>	<g transform="translate(625.6,684.3)" stroke="none" fill="black" font-family="Helvetica" font-size="12.00"  text-anchor="middle">
		<text><tspan font-family="Helvetica" >-2</tspan></text>
	</g>
</g>
<g fill="none" color="black" stroke="currentColor" stroke-width="1.00" stroke-linecap="butt" stroke-linejoin="miter">
	<path stroke='black'  d='M735.6,662.4 L735.6,653.4  '/>	<g transform="translate(735.6,684.3)" stroke="none" fill="black" font-family="Helvetica" font-size="12.00"  text-anchor="middle">
		<text><tspan font-family="Helvetica" >-1.5</tspan></text>
	</g>
</g>
<g fill="none" color="black" stroke="currentColor" stroke-width="1.00" stroke-linecap="butt" stroke-linejoin="miter">
	<path stroke='black'  d='M845.6,662.4 L845.6,653.4  '/>	<g transform="translate(845.6,684.3)" stroke="none" fill="black" font-family="Helvetica" font-size="12.00"  text-anchor="middle">
		<text><tspan font-family="Helvetica" >-1</tspan></text>
	</g>
</g>
<g fill="none" color="black" stroke="currentColor" stroke-width="1.00" stroke-linecap="butt" stroke-linejoin="miter">
	<path stroke='black'  d='M955.6,662.4 L955.6,653.4  '/>	<g transform="translate(955.6,684.3)" stroke="none" fill="black" font-family="Helvetica" font-size="12.00"  text-anchor="middle">
		<text><tspan font-family="Helvetica" >-0.5</tspan></text>
	</g>
</g>
<g fill="none" color="black" stroke="currentColor" stroke-width="1.00" stroke-linecap="butt" stroke-linejoin="miter">
</g>
<g fill="none" color="black" stroke="currentColor" stroke-width="1.00" stroke-linecap="butt" stroke-linejoin="miter">
	<path stroke='black'  d='M63.6,54.1 L63.6,662.4 L1013.6,662.4 L1013.6,54.1 L63.6,54.1 Z  '/></g>
<g fill="none" color="black" stroke="currentColor" stroke-width="1.00" stroke-linecap="butt" stroke-linejoin="miter">
	<g transform="translate(16.3,358.3) rotate(270)" stroke="none" fill="black" font-family="Helvetica" font-size="12.00"  text-anchor="middle">
		<text><tspan font-family="Helvetica" >Density (a.u.)</tspan></text>
	</g>
</g>
<g fill="none" color="black" stroke="currentColor" stroke-width="1.00" stroke-linecap="butt" stroke-linejoin="miter">
	<g transform="translate(538.6,711.3)" stroke="none" fill="black" font-family="Helvetica" font-size="12.00"  text-anchor="middle">
		<text><tspan font-family="Helvetica" >Relative change (%)</tspan></text>
	</g>
</g>
<g fill="none" color="black" stroke="currentColor" stroke-width="1.00" stroke-linecap="butt" stroke-linejoin="miter">
	<g transform="translate(538.6,31.0)" stroke="none" fill="black" font-family="Helvetica" font-size="12.00"  text-anchor="middle">
		<text><tspan font-family="Helvetica" >snapshot_restore_with_dense/Sparse: Entire region + /proc/pid/mem/5: median</tspan></text>
	</g>
</g>
	<g id="gnuplot_plot_1" ><title>Bootstrap distribution</title>
<g fill="none" color="white" stroke="black" stroke-width="2.00" stroke-linecap="butt" stroke-linejoin="miter">
</g>
<g fill="none" color="black" stroke="currentColor" stroke-width="2.00" stroke-linecap="butt" stroke-linejoin="miter">
	<g transform="translate(1089.0,67.0)" stroke="none" fill="black" font-family="Helvetica" font-size="12.00"  text-anchor="start">
		<text><tspan font-family="Helvetica" >Bootstrap distribution</tspan></text>
	</g>
</g>
<g fill="none" color="black" stroke="currentColor" stroke-width="2.00" stroke-linecap="butt" stroke-linejoin="miter">
	<path stroke='rgb( 31, 120, 180)'  d='M1038.5,63.1 L1080.7,63.1 M63.6,647.3 L65.5,646.9 L67.4,646.4 L69.3,645.9 L71.2,645.3 L73.1,644.7
		L75.0,643.9 L76.9,643.1 L78.8,642.2 L80.7,641.1 L82.6,639.9 L84.5,638.6 L86.4,637.1 L88.3,635.5
		L90.3,633.6 L92.2,631.5 L94.1,629.3 L96.0,626.8 L97.9,624.0 L99.8,621.0 L101.7,617.7 L103.6,614.1
		L105.5,610.2 L107.4,606.0 L109.3,601.5 L111.2,596.6 L113.1,591.4 L115.0,585.9 L116.9,580.0 L118.8,573.8
		L120.7,567.2 L122.6,560.3 L124.5,553.1 L126.4,545.5 L128.3,537.7 L130.2,529.6 L132.1,521.2 L134.0,512.6
		L135.9,503.7 L137.8,494.7 L139.8,485.4 L141.7,476.0 L143.6,466.4 L145.5,456.7 L147.4,446.9 L149.3,436.9
		L151.2,426.9 L153.1,416.8 L155.0,406.6 L156.9,396.3 L158.8,386.0 L160.7,375.6 L162.6,365.2 L164.5,354.6
		L166.4,344.0 L168.3,333.3 L170.2,322.6 L172.1,311.8 L174.0,300.9 L175.9,289.9 L177.8,278.8 L179.7,267.7
		L181.6,256.6 L183.5,245.5 L185.4,234.4 L187.3,223.3 L189.3,212.3 L191.2,201.5 L193.1,190.9 L195.0,180.5
		L196.9,170.5 L198.8,160.9 L200.7,151.8 L202.6,143.3 L204.5,135.4 L206.4,128.3 L208.3,122.0 L210.2,116.5
		L212.1,112.1 L214.0,108.6 L215.9,106.2 L217.8,104.8 L219.7,104.6 L221.6,105.5 L223.5,107.5 L225.4,110.6
		L227.3,114.7 L229.2,119.8 L231.1,125.8 L233.0,132.7 L234.9,140.3 L236.8,148.6 L238.8,157.4 L240.7,166.6
		L242.6,176.2 L244.5,186.0 L246.4,195.8 L248.3,205.7 L250.2,215.4 L252.1,225.0 L254.0,234.2 L255.9,243.1
		L257.8,251.5 L259.7,259.4 L261.6,266.8 L263.5,273.6 L265.4,279.8 L267.3,285.4 L269.2,290.3 L271.1,294.7
		L273.0,298.4 L274.9,301.6 L276.8,304.2 L278.7,306.3 L280.6,308.0 L282.5,309.2 L284.4,310.2 L286.3,310.9
		L288.2,311.4 L290.2,311.8 L292.1,312.2 L294.0,312.6 L295.9,313.2 L297.8,314.0 L299.7,315.1 L301.6,316.7
		L303.5,318.7 L305.4,321.2 L307.3,324.3 L309.2,328.0 L311.1,332.4 L313.0,337.4 L314.9,343.1 L316.8,349.5
		L318.7,356.6 L320.6,364.3 L322.5,372.5 L324.4,381.3 L326.3,390.5 L328.2,400.1 L330.1,410.0 L332.0,420.0
		L333.9,430.1 L335.8,440.2 L337.7,450.2 L339.7,460.0 L341.6,469.4 L343.5,478.4 L345.4,487.0 L347.3,494.9
		L349.2,502.2 L351.1,508.8 L353.0,514.6 L354.9,519.6 L356.8,523.8 L358.7,527.0 L360.6,529.4 L362.5,531.0
		L364.4,531.6 L366.3,531.5 L368.2,530.5 L370.1,528.8 L372.0,526.3 L373.9,523.2 L375.8,519.6 L377.7,515.5
		L379.6,511.0 L381.5,506.1 L383.4,501.1 L385.3,496.0 L387.2,490.9 L389.2,485.9 L391.1,481.1 L393.0,476.6
		L394.9,472.5 L396.8,468.9 L398.7,465.8 L400.6,463.4 L402.5,461.7 L404.4,460.7 L406.3,460.5 L408.2,461.0
		L410.1,462.4 L412.0,464.5 L413.9,467.3 L415.8,470.8 L417.7,474.9 L419.6,479.6 L421.5,484.8 L423.4,490.3
		L425.3,496.2 L427.2,502.1 L429.1,508.2 L431.0,514.2 L432.9,520.0 L434.8,525.5 L436.7,530.5 L438.7,535.1
		L440.6,539.0 L442.5,542.1 L444.4,544.5 L446.3,545.9 L448.2,546.3 L450.1,545.8 L452.0,544.1 L453.9,541.3
		L455.8,537.4 L457.7,532.4 L459.6,526.3 L461.5,519.2 L463.4,511.0 L465.3,502.0 L467.2,492.1 L469.1,481.4
		L471.0,470.2 L472.9,458.4 L474.8,446.4 L476.7,434.1 L478.6,421.9 L480.5,409.8 L482.4,398.1 L484.3,386.8
		L486.2,376.2 L488.1,366.5 L490.1,357.7 L492.0,350.1 L493.9,343.7 L495.8,338.6 L497.7,335.0 L499.6,332.8
		L501.5,332.2 L503.4,333.1 L505.3,335.5 L507.2,339.4 L509.1,344.7 L511.0,351.3 L512.9,359.2 L514.8,368.2
		L516.7,378.1 L518.6,388.8 L520.5,400.2 L522.4,412.0 L524.3,424.2 L526.2,436.5 L528.1,448.7 L530.0,460.7
		L531.9,472.4 L533.8,483.5 L535.7,494.0 L537.6,503.7 L539.6,512.5 L541.5,520.4 L543.4,527.2 L545.3,532.9
		L547.2,537.4 L549.1,540.7 L551.0,542.9 L552.9,543.9 L554.8,543.8 L556.7,542.5 L558.6,540.3 L560.5,537.0
		L562.4,532.9 L564.3,528.0 L566.2,522.4 L568.1,516.3 L570.0,509.7 L571.9,502.9 L573.8,495.8 L575.7,488.8
		L577.6,481.8 L579.5,475.1 L581.4,468.7 L583.3,462.8 L585.2,457.5 L587.1,452.8 L589.1,448.9 L591.0,445.9
		L592.9,443.7 L594.8,442.5 L596.7,442.2 L598.6,442.9 L600.5,444.5 L602.4,447.0 L604.3,450.3 L606.2,454.4
		L608.1,459.2 L610.0,464.6 L611.9,470.5 L613.8,476.7 L615.7,483.1 L617.6,489.6 L619.5,496.1 L621.4,502.3
		L623.3,508.3 L625.2,513.7 L627.1,518.5 L629.0,522.5 L630.9,525.7 L632.8,527.8 L634.7,528.8 L636.6,528.6
		L638.5,527.1 L640.5,524.2 L642.4,519.8 L644.3,514.0 L646.2,506.7 L648.1,497.8 L650.0,487.5 L651.9,475.7
		L653.8,462.4 L655.7,447.8 L657.6,432.0 L659.5,415.1 L661.4,397.1 L663.3,378.3 L665.2,358.7 L667.1,338.7
		L669.0,318.3 L670.9,297.9 L672.8,277.5 L674.7,257.4 L676.6,237.8 L678.5,219.0 L680.4,201.0 L682.3,184.2
		L684.2,168.7 L686.1,154.7 L688.0,142.3 L690.0,131.6 L691.9,122.7 L693.8,115.7 L695.7,110.7 L697.6,107.6
		L699.5,106.6 L701.4,107.4 L703.3,110.2 L705.2,114.7 L707.1,121.0 L709.0,128.9 L710.9,138.2 L712.8,148.9
		L714.7,160.8 L716.6,173.7 L718.5,187.5 L720.4,201.9 L722.3,217.0 L724.2,232.4 L726.1,248.1 L728.0,263.9
		L729.9,279.7 L731.8,295.3 L733.7,310.7 L735.6,325.8 L737.5,340.4 L739.5,354.4 L741.4,367.9 L743.3,380.8
		L745.2,392.9 L747.1,404.3 L749.0,415.0 L750.9,425.0 L752.8,434.1 L754.7,442.6 L756.6,450.2 L758.5,457.2
		L760.4,463.4 L762.3,468.9 L764.2,473.9 L766.1,478.2 L768.0,481.9 L769.9,485.2 L771.8,487.9 L773.7,490.3
		L775.6,492.3 L777.5,494.1 L779.4,495.5 L781.3,496.8 L783.2,497.9 L785.1,498.9 L787.0,499.9 L789.0,500.8
		L790.9,501.7 L792.8,502.7 L794.7,503.7 L796.6,504.7 L798.5,505.8 L800.4,506.9 L802.3,508.1 L804.2,509.3
		L806.1,510.5 L808.0,511.7 L809.9,512.8 L811.8,513.8 L813.7,514.7 L815.6,515.4 L817.5,515.9 L819.4,516.2
		L821.3,516.2 L823.2,515.9 L825.1,515.3 L827.0,514.4 L828.9,513.1 L830.8,511.5 L832.7,509.5 L834.6,507.2
		L836.5,504.5 L838.4,501.6 L840.4,498.3 L842.3,494.8 L844.2,491.1 L846.1,487.2 L848.0,483.2 L849.9,479.1
		L851.8,474.9 L853.7,470.7 L855.6,466.5 L857.5,462.4 L859.4,458.3 L861.3,454.4 L863.2,450.6 L865.1,446.8
		L867.0,443.3 L868.9,439.8 L870.8,436.6 L872.7,433.4 L874.6,430.4 L876.5,427.4 L878.4,424.6 L880.3,421.9
		L882.2,419.2 L884.1,416.6 L886.0,414.1 L887.9,411.6 L889.9,409.2 L891.8,406.9 L893.7,404.6 L895.6,402.5
		L897.5,400.4 L899.4,398.5 L901.3,396.8 L903.2,395.4 L905.1,394.2 L907.0,393.3 L908.9,392.8 L910.8,392.7
		L912.7,393.1 L914.6,394.0 L916.5,395.5 L918.4,397.5 L920.3,400.2 L922.2,403.5 L924.1,407.5 L926.0,412.1
		L927.9,417.3 L929.8,423.2 L931.7,429.7 L933.6,436.8 L935.5,444.4 L937.4,452.5 L939.4,461.0 L941.3,469.9
		L943.2,479.1 L945.1,488.5 L947.0,498.1 L948.9,507.7 L950.8,517.3 L952.7,526.9 L954.6,536.4 L956.5,545.6
		L958.4,554.6 L960.3,563.4 L962.2,571.8 L964.1,579.8 L966.0,587.4 L967.9,594.6 L969.8,601.4 L971.7,607.7
		L973.6,613.6 L975.5,619.0 L977.4,624.0 L979.3,628.5 L981.2,632.6 L983.1,636.4 L985.0,639.7 L986.9,642.7
		L988.9,645.4 L990.8,647.8 L992.7,649.9 L994.6,651.7 L996.5,653.3 L998.4,654.7 L1000.3,655.9 L1002.2,657.0
		L1004.1,657.9 L1006.0,658.6 L1007.9,659.3 L1009.8,659.8 L1011.7,660.3 L1013.6,660.6  '/></g>
	</g>
	<g id="gnuplot_plot_2" ><title>Confidence interval</title>
<g fill="none" color="white" stroke="rgb( 31, 120, 180)" stroke-width="1.00" stroke-linecap="butt" stroke-linejoin="miter">
</g>
<g fill="none" color="black" stroke="currentColor" stroke-width="1.00" stroke-linecap="butt" stroke-linejoin="miter">
	<g transform="translate(1089.0,85.0)" stroke="none" fill="black" font-family="Helvetica" font-size="12.00"  text-anchor="start">
		<text><tspan font-family="Helvetica" >Confidence interval</tspan></text>
	</g>
</g>
<g fill="none" color="black" stroke="currentColor" stroke-width="1.00" stroke-linecap="butt" stroke-linejoin="miter">
	<g stroke='none' shape-rendering='crispEdges'>
		<polygon fill = 'rgb( 31, 120, 180)' fill-opacity = '0.250000' points = '1038.5,85.6 1080.7,85.6 1080.7,76.6 1038.5,76.6 '/>
		<polygon fill = 'rgb( 31, 120, 180)' fill-opacity = '0.250000' points = '151.2,426.9 153.1,416.8 155.0,406.6 156.9,396.3 158.8,386.0 160.7,375.6 162.6,365.2 164.5,354.6 166.4,344.0 168.3,333.3 170.2,322.6 172.1,311.8 174.0,300.9 175.9,289.9 177.8,278.8 179.7,267.7
181.6,256.6 183.5,245.5 185.4,234.4 187.3,223.3 189.3,212.3 191.2,201.5 193.1,190.9 195.0,180.5 196.9,170.5 198.8,160.9 200.7,151.8 202.6,143.3 204.5,135.4 206.4,128.3 208.3,122.0 210.2,116.5
212.1,112.1 214.0,108.6 215.9,106.2 217.8,104.8 219.7,104.6 221.6,105.5 223.5,107.5 225.4,110.6 227.3,114.7 229.2,119.8 231.1,125.8 233.0,132.7 234.9,140.3 236.8,148.6 238.8,157.4 240.7,166.6
242.6,176.2 244.5,186.0 246.4,195.8 248.3,205.7 250.2,215.4 252.1,225.0 254.0,234.2 255.9,243.1 257.8,251.5 259.7,259.4 261.6,266.8 263.5,273.6 265.4,279.8 267.3,285.4 269.2,290.3 271.1,294.7
273.0,298.4 274.9,301.6 276.8,304.2 278.7,306.3 280.6,308.0 282.5,309.2 284.4,310.2 286.3,310.9 288.2,311.4 290.2,311.8 292.1,312.2 294.0,312.6 295.9,313.2 297.8,314.0 299.7,315.1 301.6,316.7
303.5,318.7 305.4,321.2 307.3,324.3 309.2,328.0 311.1,332.4 313.0,337.4 314.9,343.1 316.8,349.5 318.7,356.6 320.6,364.3 322.5,372.5 324.4,381.3 326.3,390.5 328.2,400.1 330.1,410.0 332.0,420.0
333.9,430.1 335.8,440.2 337.7,450.2 339.7,460.0 341.6,469.4 343.5,478.4 345.4,487.0 347.3,494.9 349.2,502.2 351.1,508.8 353.0,514.6 354.9,519.6 356.8,523.8 358.7,527.0 360.6,529.4 362.5,531.0
364.4,531.6 366.3,531.5 368.2,530.5 370.1,528.8 372.0,526.3 373.9,523.2 375.8,519.6 377.7,515.5 379.6,511.0 381.5,506.1 383.4,501.1 385.3,496.0 387.2,490.9 389.2,485.9 391.1,481.1 393.0,476.6
394.9,472.5 396.8,468.9 398.7,465.8 400.6,463.4 402.5,461.7 404.4,460.7 406.3,460.5 408.2,461.0 410.1,462.4 412.0,464.5 413.9,467.3 415.8,470.8 417.7,474.9 419.6,479.6 421.5,484.8 423.4,490.3
425.3,496.2 427.2,502.1 429.1,508.2 431.0,514.2 432.9,520.0 434.8,525.5 436.7,530.5 438.7,535.1 440.6,539.0 442.5,542.1 444.4,544.5 446.3,545.9 448.2,546.3 450.1,545.8 452.0,544.1 453.9,541.3
455.8,537.4 457.7,532.4 459.6,526.3 461.5,519.2 463.4,511.0 465.3,502.0 467.2,492.1 469.1,481.4 471.0,470.2 472.9,458.4 474.8,446.4 476.7,434.1 478.6,421.9 480.5,409.8 482.4,398.1 484.3,386.8
486.2,376.2 488.1,366.5 490.1,357.7 492.0,350.1 493.9,343.7 495.8,338.6 497.7,335.0 499.6,332.8 501.5,332.2 503.4,333.1 505.3,335.5 507.2,339.4 509.1,344.7 511.0,351.3 512.9,359.2 514.8,368.2
516.7,378.1 518.6,388.8 520.5,400.2 522.4,412.0 524.3,424.2 526.2,436.5 528.1,448.7 530.0,460.7 531.9,472.4 533.8,483.5 535.7,494.0 537.6,503.7 539.6,512.5 541.5,520.4 543.4,527.2 545.3,532.9
547.2,537.4 549.1,540.7 551.0,542.9 552.9,543.9 554.8,543.8 556.7,542.5 558.6,540.3 560.5,537.0 562.4,532.9 564.3,528.0 566.2,522.4 568.1,516.3 570.0,509.7 571.9,502.9 573.8,495.8 575.7,488.8
577.6,481.8 579.5,475.1 581.4,468.7 583.3,462.8 585.2,457.5 587.1,452.8 589.1,448.9 591.0,445.9 592.9,443.7 594.8,442.5 596.7,442.2 598.6,442.9 600.5,444.5 602.4,447.0 604.3,450.3 606.2,454.4
608.1,459.2 610.0,464.6 611.9,470.5 613.8,476.7 615.7,483.1 617.6,489.6 619.5,496.1 621.4,502.3 623.3,508.3 625.2,513.7 627.1,518.5 629.0,522.5 630.9,525.7 632.8,527.8 634.7,528.8 636.6,528.6
638.5,527.1 640.5,524.2 642.4,519.8 644.3,514.0 646.2,506.7 648.1,497.8 650.0,487.5 651.9,475.7 653.8,462.4 655.7,447.8 657.6,432.0 659.5,415.1 661.4,397.1 663.3,378.3 665.2,358.7 667.1,338.7
669.0,318.3 670.9,297.9 672.8,277.5 674.7,257.4 676.6,237.8 678.5,219.0 680.4,201.0 682.3,184.2 684.2,168.7 686.1,154.7 688.0,142.3 690.0,131.6 691.9,122.7 693.8,115.7 695.7,110.7 697.6,107.6
699.5,106.6 701.4,107.4 703.3,110.2 705.2,114.7 707.1,121.0 709.0,128.9 710.9,138.2 712.8,148.9 714.7,160.8 716.6,173.7 718.5,187.5 720.4,201.9 722.3,217.0 724.2,232.4 726.1,248.1 728.0,263.9
729.9,279.7 731.8,295.3 733.7,310.7 735.6,325.8 737.5,340.4 739.5,354.4 741.4,367.9 743.3,380.8 745.2,392.9 747.1,404.3 749.0,415.0 750.9,425.0 752.8,434.1 754.7,442.6 756.6,450.2 758.5,457.2
760.4,463.4 762.3,468.9 764.2,473.9 766.1,478.2 768.0,481.9 769.9,485.2 771.8,487.9 773.7,490.3 775.6,492.3 777.5,494.1 779.4,495.5 781.3,496.8 783.2,497.9 785.1,498.9 787.0,499.9 789.0,500.8
790.9,501.7 792.8,502.7 794.7,503.7 796.6,504.7 798.5,505.8 800.4,506.9 802.3,508.1 804.2,509.3 806.1,510.5 808.0,511.7 809.9,512.8 811.8,513.8 813.7,514.7 815.6,515.4 817.5,515.9 819.4,516.2
821.3,516.2 823.2,515.9 825.1,515.3 827.0,514.4 828.9,513.1 830.8,511.5 832.7,509.5 834.6,507.2 836.5,504.5 838.4,501.6 840.4,498.3 842.3,494.8 844.2,491.1 846.1,487.2 848.0,483.2 849.9,479.1
851.8,474.9 853.7,470.7 855.6,466.5 857.5,462.4 859.4,458.3 861.3,454.4 863.2,450.6 865.1,446.8 867.0,443.3 868.9,439.8 870.8,436.6 872.7,433.4 874.6,430.4 876.5,427.4 878.4,424.6 880.3,421.9
882.2,419.2 884.1,416.6 886.0,414.1 887.9,411.6 889.9,409.2 891.8,406.9 893.7,404.6 895.6,402.5 897.5,400.4 899.4,398.5 901.3,396.8 903.2,395.4 905.1,394.2 907.0,393.3 908.9,392.8 910.8,392.7
912.7,393.1 914.6,394.0 916.5,395.5 918.4,397.5 920.3,400.2 922.2,403.5 924.1,407.5 924.1,662.4 922.2,662.4 920.3,662.4 918.4,662.4 916.5,662.4 914.6,662.4 912.7,662.4 910.8,662.4 908.9,662.4
907.0,662.4 905.1,662.4 903.2,662.4 901.3,662.4 899.4,662.4 897.5,662.4 895.6,662.4 893.7,662.4 891.8,662.4 889.9,662.4 887.9,662.4 886.0,662.4 884.1,662.4 882.2,662.4 880.3,662.4 878.4,662.4
876.5,662.4 874.6,662.4 872.7,662.4 870.8,662.4 868.9,662.4 867.0,662.4 865.1,662.4 863.2,662.4 861.3,662.4 859.4,662.4 857.5,662.4 855.6,662.4 853.7,662.4 851.8,662.4 849.9,662.4 848.0,662.4
846.1,662.4 844.2,662.4 842.3,662.4 840.4,662.4 838.4,662.4 836.5,662.4 834.6,662.4 832.7,662.4 830.8,662.4 828.9,662.4 827.0,662.4 825.1,662.4 823.2,662.4 821.3,662.4 819.4,662.4 817.5,662.4
815.6,662.4 813.7,662.4 811.8,662.4 809.9,662.4 808.0,662.4 806.1,662.4 804.2,662.4 802.3,662.4 800.4,662.4 798.5,662.4 796.6,662.4 794.7,662.4 792.8,662.4 790.9,662.4 789.0,662.4 787.0,662.4
785.1,662.4 783.2,662.4 781.3,662.4 779.4,662.4 777.5,662.4 775.6,662.4 773.7,662.4 771.8,662.4 769.9,662.4 768.0,662.4 766.1,662.4 764.2,662.4 762.3,662.4 760.4,662.4 758.5,662.4 756.6,662.4
754.7,662.4 752.8,662.4 750.9,662.4 749.0,662.4 747.1,662.4 745.2,662.4 743.3,662.4 741.4,662.4 739.5,662.4 737.5,662.4 735.6,662.4 733.7,662.4 731.8,662.4 729.9,662.4 728.0,662.4 726.1,662.4
724.2,662.4 722.3,662.4 720.4,662.4 718.5,662.4 716.6,662.4 714.7,662.4 712.8,662.4 710.9,662.4 709.0,662.4 707.1,662.4 705.2,662.4 703.3,662.4 701.4,662.4 699.5,662.4 697.6,662.4 695.7,662.4
693.8,662.4 691.9,662.4 690.0,662.4 688.0,662.4 686.1,662.4 684.2,662.4 682.3,662.4 680.4,662.4 678.5,662.4 676.6,662.4 674.7,662.4 672.8,662.4 670.9,662.4 669.0,662.4 667.1,662.4 665.2,662.4
663.3,662.4 661.4,662.4 659.5,662.4 657.6,662.4 655.7,662.4 653.8,662.4 651.9,662.4 650.0,662.4 648.1,662.4 646.2,662.4 644.3,662.4 642.4,662.4 640.5,662.4 638.5,662.4 636.6,662.4 634.7,662.4
632.8,662.4 630.9,662.4 629.0,662.4 627.1,662.4 625.2,662.4 623.3,662.4 621.4,662.4 619.5,662.4 617.6,662.4 615.7,662.4 613.8,662.4 611.9,662.4 610.0,662.4 608.1,662.4 606.2,662.4 604.3,662.4
602.4,662.4 600.5,662.4 598.6,662.4 596.7,662.4 594.8,662.4 592.9,662.4 591.0,662.4 589.1,662.4 587.1,662.4 585.2,662.4 583.3,662.4 581.4,662.4 579.5,662.4 577.6,662.4 575.7,662.4 573.8,662.4
571.9,662.4 570.0,662.4 568.1,662.4 566.2,662.4 564.3,662.4 562.4,662.4 560.5,662.4 558.6,662.4 556.7,662.4 554.8,662.4 552.9,662.4 551.0,662.4 549.1,662.4 547.2,662.4 545.3,662.4 543.4,662.4
541.5,662.4 539.6,662.4 537.6,662.4 535.7,662.4 533.8,662.4 531.9,662.4 530.0,662.4 528.1,662.4 526.2,662.4 524.3,662.4 522.4,662.4 520.5,662.4 518.6,662.4 516.7,662.4 514.8,662.4 512.9,662.4
511.0,662.4 509.1,662.4 507.2,662.4 505.3,662.4 503.4,662.4 501.5,662.4 499.6,662.4 497.7,662.4 495.8,662.4 493.9,662.4 492.0,662.4 490.1,662.4 488.1,662.4 486.2,662.4 484.3,662.4 482.4,662.4
480.5,662.4 478.6,662.4 476.7,662.4 474.8,662.4 472.9,662.4 471.0,662.4 469.1,662.4 467.2,662.4 465.3,662.4 463.4,662.4 461.5,662.4 459.6,662.4 457.7,662.4 455.8,662.4 453.9,662.4 452.0,662.4
450.1,662.4 448.2,662.4 446.3,662.4 444.4,662.4 442.5,662.4 440.6,662.4 438.7,662.4 436.7,662.4 434.8,662.4 432.9,662.4 431.0,662.4 429.1,662.4 427.2,662.4 425.3,662.4 423.4,662.4 421.5,662.4
419.6,662.4 417.7,662.4 415.8,662.4 413.9,662.4 412.0,662.4 410.1,662.4 408.2,662.4 406.3,662.4 404.4,662.4 402.5,662.4 400.6,662.4 398.7,662.4 396.8,662.4 394.9,662.4 393.0,662.4 391.1,662.4
389.2,662.4 387.2,662.4 385.3,662.4 383.4,662.4 381.5,662.4 379.6,662.4 377.7,662.4 375.8,662.4 373.9,662.4 372.0,662.4 370.1,662.4 368.2,662.4 366.3,662.4 364.4,662.4 362.5,662.4 360.6,662.4
358.7,662.4 356.8,662.4 354.9,662.4 353.0,662.4 351.1,662.4 349.2,662.4 347.3,662.4 345.4,662.4 343.5,662.4 341.6,662.4 339.7,662.4 337.7,662.4 335.8,662.4 333.9,662.4 332.0,662.4 330.1,662.4
328.2,662.4 326.3,662.4 324.4,662.4 322.5,662.4 320.6,662.4 318.7,662.4 316.8,662.4 314.9,662.4 313.0,662.4 311.1,662.4 309.2,662.4 307.3,662.4 305.4,662.4 303.5,662.4 301.6,662.4 299.7,662.4
297.8,662.4 295.9,662.4 294.0,662.4 292.1,662.4 290.2,662.4 288.2,662.4 286.3,662.4 284.4,662.4 282.5,662.4 280.6,662.4 278.7,662.4 276.8,662.4 274.9,662.4 273.0,662.4 271.1,662.4 269.2,662.4
267.3,662.4 265.4,662.4 263.5,662.4 261.6,662.4 259.7,662.4 257.8,662.4 255.9,662.4 254.0,662.4 252.1,662.4 250.2,662.4 248.3,662.4 246.4,662.4 244.5,662.4 242.6,662.4 240.7,662.4 238.8,662.4
236.8,662.4 234.9,662.4 233.0,662.4 231.1,662.4 229.2,662.4 227.3,662.4 225.4,662.4 223.5,662.4 221.6,662.4 219.7,662.4 217.8,662.4 215.9,662.4 214.0,662.4 212.1,662.4 210.2,662.4 208.3,662.4
206.4,662.4 204.5,662.4 202.6,662.4 200.7,662.4 198.8,662.4 196.9,662.4 195.0,662.4 193.1,662.4 191.2,662.4 189.3,662.4 187.3,662.4 185.4,662.4 183.5,662.4 181.6,662.4 179.7,662.4 177.8,662.4
175.9,662.4 174.0,662.4 172.1,662.4 170.2,662.4 168.3,662.4 166.4,662.4 164.5,662.4 162.6,662.4 160.7,662.4 158.8,662.4 156.9,662.4 155.0,662.4 153.1,662.4 151.2,662.4 '/>
	</g>
</g>
	</g>
	<g id="gnuplot_plot_3" ><title>Point estimate</title>
<g fill="none" color="white" stroke="rgb( 31, 120, 180)" stroke-width="2.00" stroke-linecap="butt" stroke-linejoin="miter">
</g>
<g fill="none" color="black" stroke="currentColor" stroke-width="2.00" stroke-linecap="butt" stroke-linejoin="miter">
	<g transform="translate(1089.0,103.0)" stroke="none" fill="black" font-family="Helvetica" font-size="12.00"  text-anchor="start">
		<text><tspan font-family="Helvetica" >Point estimate</tspan></text>
	</g>
</g>
<g fill="none" color="black" stroke="currentColor" stroke-width="2.00" stroke-linecap="butt" stroke-linejoin="miter">
	<path stroke='rgb( 31, 120, 180)'  d='M1038.5,99.1 L1080.7,99.1 M501.0,662.4 L501.0,332.3  '/></g>
	</g>
	<g id="gnuplot_plot_4" ><title>Noise threshold</title>
<g fill="none" color="white" stroke="rgb( 31, 120, 180)" stroke-width="1.00" stroke-linecap="butt" stroke-linejoin="miter">
</g>
<g fill="none" color="black" stroke="currentColor" stroke-width="1.00" stroke-linecap="butt" stroke-linejoin="miter">
	<g transform="translate(1089.0,121.0)" stroke="none" fill="black" font-family="Helvetica" font-size="12.00"  text-anchor="start">
		<text><tspan font-family="Helvetica" >Noise threshold</tspan></text>
	</g>
</g>
<g fill="none" color="black" stroke="currentColor" stroke-width="1.00" stroke-linecap="butt" stroke-linejoin="miter">
	<g stroke='none' shape-rendering='crispEdges'>
		<polygon fill = 'rgb(227,  26,  28)' fill-opacity = '0.100000' points = '1038.5,121.6 1080.7,121.6 1080.7,112.6 1038.5,112.6 '/>
		<polygon fill = 'rgb(227,  26,  28)' fill-opacity = '0.100000' points = '845.6,54.1 1013.6,54.1 1013.6,662.4 845.6,662.4 '/>
	</g>
</g>
	</g>
<g fill="none" color="white" stroke="rgb(227,  26,  28)" stroke-width="2.00" stroke-linecap="butt" stroke-linejoin="miter">
</g>
<g fill="none" color="black" stroke="currentColor" stroke-width="2.00" stroke-linecap="butt" stroke-linejoin="miter">
</g>
<g fill="none" color="black" stroke="black" stroke-width="1.00" stroke-linecap="butt" stroke-linejoin="miter">
</g>
<g fill="none" color="black" stroke="currentColor" stroke-width="1.00" stroke-linecap="butt" stroke-linejoin="miter">
	<path stroke='black'  d='M63.6,54.1 L63.6,662.4 L1013.6,662.4 L1013.6,54.1 L63.6,54.1 Z  '/></g>
<g fill="none" color="black" stroke="currentColor" stroke-width="1.00" stroke-linecap="butt" stroke-linejoin="miter">
</g>
</g>
</svg>

