<?xml version="1.0" encoding="utf-8"  standalone="no"?>
<svg 
 viewBox="0 0 1280 720"
 xmlns="http://www.w3.org/2000/svg"
 xmlns:xlink="http://www.w3.org/1999/xlink"
>

<title>Gnuplot</title>
<desc>Produced by GNUPLOT 5.2 patchlevel 6 </desc>

<g id="gnuplot_canvas">

<rect x="0" y="0" width="1280" height="720" fill="none"/>
<defs>

	<circle id='gpDot' r='0.5' stroke-width='0.5' stroke='currentColor'/>
	<path id='gpPt0' stroke-width='0.222' stroke='currentColor' d='M-1,0 h2 M0,-1 v2'/>
	<path id='gpPt1' stroke-width='0.222' stroke='currentColor' d='M-1,-1 L1,1 M1,-1 L-1,1'/>
	<path id='gpPt2' stroke-width='0.222' stroke='currentColor' d='M-1,0 L1,0 M0,-1 L0,1 M-1,-1 L1,1 M-1,1 L1,-1'/>
	<rect id='gpPt3' stroke-width='0.222' stroke='currentColor' x='-1' y='-1' width='2' height='2'/>
	<rect id='gpPt4' stroke-width='0.222' stroke='currentColor' fill='currentColor' x='-1' y='-1' width='2' height='2'/>
	<circle id='gpPt5' stroke-width='0.222' stroke='currentColor' cx='0' cy='0' r='1'/>
	<use xlink:href='#gpPt5' id='gpPt6' fill='currentColor' stroke='none'/>
	<path id='gpPt7' stroke-width='0.222' stroke='currentColor' d='M0,-1.33 L-1.33,0.67 L1.33,0.67 z'/>
	<use xlink:href='#gpPt7' id='gpPt8' fill='currentColor' stroke='none'/>
	<use xlink:href='#gpPt7' id='gpPt9' stroke='currentColor' transform='rotate(180)'/>
	<use xlink:href='#gpPt9' id='gpPt10' fill='currentColor' stroke='none'/>
	<use xlink:href='#gpPt3' id='gpPt11' stroke='currentColor' transform='rotate(45)'/>
	<use xlink:href='#gpPt11' id='gpPt12' fill='currentColor' stroke='none'/>
	<path id='gpPt13' stroke-width='0.222' stroke='currentColor' d='M0,1.330 L1.265,0.411 L0.782,-1.067 L-0.782,-1.076 L-1.265,0.411 z'/>
	<use xlink:href='#gpPt13' id='gpPt14' fill='currentColor' stroke='none'/>
	<filter id='textbox' filterUnits='objectBoundingBox' x='0' y='0' height='1' width='1'>
	  <feFlood flood-color='white' flood-opacity='1' result='bgnd'/>
	  <feComposite in='SourceGraphic' in2='bgnd' operator='atop'/>
	</filter>
	<filter id='greybox' filterUnits='objectBoundingBox' x='0' y='0' height='1' width='1'>
	  <feFlood flood-color='lightgrey' flood-opacity='1' result='grey'/>
	  <feComposite in='SourceGraphic' in2='grey' operator='atop'/>
	</filter>
</defs>
<g fill="none" color="white" stroke="currentColor" stroke-width="1.00" stroke-linecap="butt" stroke-linejoin="miter">
</g>
<g fill="none" color="black" stroke="currentColor" stroke-width="1.00" stroke-linecap="butt" stroke-linejoin="miter">
	<path stroke='black'  d='M71.9,662.4 L80.9,662.4  '/>	<g transform="translate(63.6,666.3)" stroke="none" fill="black" font-family="Helvetica" font-size="12.00"  text-anchor="end">
		<text><tspan font-family="Helvetica" > 0</tspan></text>
	</g>
</g>
<g fill="none" color="black" stroke="currentColor" stroke-width="1.00" stroke-linecap="butt" stroke-linejoin="miter">
	<path stroke='black'  d='M71.9,561.0 L80.9,561.0  '/>	<g transform="translate(63.6,564.9)" stroke="none" fill="black" font-family="Helvetica" font-size="12.00"  text-anchor="end">
		<text><tspan font-family="Helvetica" > 0.2</tspan></text>
	</g>
</g>
<g fill="none" color="black" stroke="currentColor" stroke-width="1.00" stroke-linecap="butt" stroke-linejoin="miter">
	<path stroke='black'  d='M71.9,459.6 L80.9,459.6  '/>	<g transform="translate(63.6,463.5)" stroke="none" fill="black" font-family="Helvetica" font-size="12.00"  text-anchor="end">
		<text><tspan font-family="Helvetica" > 0.4</tspan></text>
	</g>
</g>
<g fill="none" color="black" stroke="currentColor" stroke-width="1.00" stroke-linecap="butt" stroke-linejoin="miter">
	<path stroke='black'  d='M71.9,358.2 L80.9,358.2  '/>	<g transform="translate(63.6,362.1)" stroke="none" fill="black" font-family="Helvetica" font-size="12.00"  text-anchor="end">
		<text><tspan font-family="Helvetica" > 0.6</tspan></text>
	</g>
</g>
<g fill="none" color="black" stroke="currentColor" stroke-width="1.00" stroke-linecap="butt" stroke-linejoin="miter">
	<path stroke='black'  d='M71.9,256.9 L80.9,256.9  '/>	<g transform="translate(63.6,260.8)" stroke="none" fill="black" font-family="Helvetica" font-size="12.00"  text-anchor="end">
		<text><tspan font-family="Helvetica" > 0.8</tspan></text>
	</g>
</g>
<g fill="none" color="black" stroke="currentColor" stroke-width="1.00" stroke-linecap="butt" stroke-linejoin="miter">
	<path stroke='black'  d='M71.9,155.5 L80.9,155.5  '/>	<g transform="translate(63.6,159.4)" stroke="none" fill="black" font-family="Helvetica" font-size="12.00"  text-anchor="end">
		<text><tspan font-family="Helvetica" > 1</tspan></text>
	</g>
</g>
<g fill="none" color="black" stroke="currentColor" stroke-width="1.00" stroke-linecap="butt" stroke-linejoin="miter">
	<path stroke='black'  d='M71.9,54.1 L80.9,54.1  '/>	<g transform="translate(63.6,58.0)" stroke="none" fill="black" font-family="Helvetica" font-size="12.00"  text-anchor="end">
		<text><tspan font-family="Helvetica" > 1.2</tspan></text>
	</g>
</g>
<g fill="none" color="black" stroke="currentColor" stroke-width="1.00" stroke-linecap="butt" stroke-linejoin="miter">
	<path stroke='black'  d='M88.1,662.4 L88.1,653.4  '/>	<g transform="translate(88.1,684.3)" stroke="none" fill="black" font-family="Helvetica" font-size="12.00"  text-anchor="middle">
		<text><tspan font-family="Helvetica" > 301.4</tspan></text>
	</g>
</g>
<g fill="none" color="black" stroke="currentColor" stroke-width="1.00" stroke-linecap="butt" stroke-linejoin="miter">
	<path stroke='black'  d='M195.6,662.4 L195.6,653.4  '/>	<g transform="translate(195.6,684.3)" stroke="none" fill="black" font-family="Helvetica" font-size="12.00"  text-anchor="middle">
		<text><tspan font-family="Helvetica" > 301.6</tspan></text>
	</g>
</g>
<g fill="none" color="black" stroke="currentColor" stroke-width="1.00" stroke-linecap="butt" stroke-linejoin="miter">
	<path stroke='black'  d='M303.2,662.4 L303.2,653.4  '/>	<g transform="translate(303.2,684.3)" stroke="none" fill="black" font-family="Helvetica" font-size="12.00"  text-anchor="middle">
		<text><tspan font-family="Helvetica" > 301.8</tspan></text>
	</g>
</g>
<g fill="none" color="black" stroke="currentColor" stroke-width="1.00" stroke-linecap="butt" stroke-linejoin="miter">
	<path stroke='black'  d='M410.7,662.4 L410.7,653.4  '/>	<g transform="translate(410.7,684.3)" stroke="none" fill="black" font-family="Helvetica" font-size="12.00"  text-anchor="middle">
		<text><tspan font-family="Helvetica" > 302</tspan></text>
	</g>
</g>
<g fill="none" color="black" stroke="currentColor" stroke-width="1.00" stroke-linecap="butt" stroke-linejoin="miter">
	<path stroke='black'  d='M518.2,662.4 L518.2,653.4  '/>	<g transform="translate(518.2,684.3)" stroke="none" fill="black" font-family="Helvetica" font-size="12.00"  text-anchor="middle">
		<text><tspan font-family="Helvetica" > 302.2</tspan></text>
	</g>
</g>
<g fill="none" color="black" stroke="currentColor" stroke-width="1.00" stroke-linecap="butt" stroke-linejoin="miter">
	<path stroke='black'  d='M625.8,662.4 L625.8,653.4  '/>	<g transform="translate(625.8,684.3)" stroke="none" fill="black" font-family="Helvetica" font-size="12.00"  text-anchor="middle">
		<text><tspan font-family="Helvetica" > 302.4</tspan></text>
	</g>
</g>
<g fill="none" color="black" stroke="currentColor" stroke-width="1.00" stroke-linecap="butt" stroke-linejoin="miter">
	<path stroke='black'  d='M733.3,662.4 L733.3,653.4  '/>	<g transform="translate(733.3,684.3)" stroke="none" fill="black" font-family="Helvetica" font-size="12.00"  text-anchor="middle">
		<text><tspan font-family="Helvetica" > 302.6</tspan></text>
	</g>
</g>
<g fill="none" color="black" stroke="currentColor" stroke-width="1.00" stroke-linecap="butt" stroke-linejoin="miter">
	<path stroke='black'  d='M840.9,662.4 L840.9,653.4  '/>	<g transform="translate(840.9,684.3)" stroke="none" fill="black" font-family="Helvetica" font-size="12.00"  text-anchor="middle">
		<text><tspan font-family="Helvetica" > 302.8</tspan></text>
	</g>
</g>
<g fill="none" color="black" stroke="currentColor" stroke-width="1.00" stroke-linecap="butt" stroke-linejoin="miter">
	<path stroke='black'  d='M948.4,662.4 L948.4,653.4  '/>	<g transform="translate(948.4,684.3)" stroke="none" fill="black" font-family="Helvetica" font-size="12.00"  text-anchor="middle">
		<text><tspan font-family="Helvetica" > 303</tspan></text>
	</g>
</g>
<g fill="none" color="black" stroke="currentColor" stroke-width="1.00" stroke-linecap="butt" stroke-linejoin="miter">
</g>
<g fill="none" color="black" stroke="currentColor" stroke-width="1.00" stroke-linecap="butt" stroke-linejoin="miter">
	<path stroke='black'  d='M71.9,54.1 L71.9,662.4 L1013.6,662.4 L1013.6,54.1 L71.9,54.1 Z  '/></g>
<g fill="none" color="black" stroke="currentColor" stroke-width="1.00" stroke-linecap="butt" stroke-linejoin="miter">
	<g transform="translate(16.3,358.3) rotate(270)" stroke="none" fill="black" font-family="Helvetica" font-size="12.00"  text-anchor="middle">
		<text><tspan font-family="Helvetica" >Density (a.u.)</tspan></text>
	</g>
</g>
<g fill="none" color="black" stroke="currentColor" stroke-width="1.00" stroke-linecap="butt" stroke-linejoin="miter">
	<g transform="translate(542.7,711.3)" stroke="none" fill="black" font-family="Helvetica" font-size="12.00"  text-anchor="middle">
		<text><tspan font-family="Helvetica" >Average time (us)</tspan></text>
	</g>
</g>
<g fill="none" color="black" stroke="currentColor" stroke-width="1.00" stroke-linecap="butt" stroke-linejoin="miter">
	<g transform="translate(542.7,31.0)" stroke="none" fill="black" font-family="Helvetica" font-size="12.00"  text-anchor="middle">
		<text><tspan font-family="Helvetica" >snapshot_restore_with_dense/Sparse: Entire region + process_vm_writev w/ page size/46: mean</tspan></text>
	</g>
</g>
	<g id="gnuplot_plot_1" ><title>Bootstrap distribution</title>
<g fill="none" color="white" stroke="black" stroke-width="2.00" stroke-linecap="butt" stroke-linejoin="miter">
</g>
<g fill="none" color="black" stroke="currentColor" stroke-width="2.00" stroke-linecap="butt" stroke-linejoin="miter">
	<g transform="translate(1089.0,67.0)" stroke="none" fill="black" font-family="Helvetica" font-size="12.00"  text-anchor="start">
		<text><tspan font-family="Helvetica" >Bootstrap distribution</tspan></text>
	</g>
</g>
<g fill="none" color="black" stroke="currentColor" stroke-width="2.00" stroke-linecap="butt" stroke-linejoin="miter">
	<path stroke='rgb( 31, 120, 180)'  d='M1038.5,63.1 L1080.7,63.1 M71.9,643.1 L73.8,641.5 L75.7,639.7 L77.6,637.8 L79.4,635.9 L81.3,633.8
		L83.2,631.7 L85.1,629.4 L87.0,627.1 L88.9,624.7 L90.8,622.2 L92.7,619.7 L94.5,617.0 L96.4,614.3
		L98.3,611.5 L100.2,608.7 L102.1,605.8 L104.0,602.8 L105.9,599.8 L107.8,596.7 L109.6,593.6 L111.5,590.4
		L113.4,587.2 L115.3,584.0 L117.2,580.8 L119.1,577.5 L121.0,574.1 L122.9,570.8 L124.7,567.4 L126.6,564.1
		L128.5,560.7 L130.4,557.2 L132.3,553.8 L134.2,550.4 L136.1,546.9 L138.0,543.5 L139.8,540.0 L141.7,536.5
		L143.6,533.1 L145.5,529.6 L147.4,526.2 L149.3,522.7 L151.2,519.3 L153.0,515.9 L154.9,512.5 L156.8,509.1
		L158.7,505.7 L160.6,502.3 L162.5,498.9 L164.4,495.6 L166.3,492.3 L168.1,488.9 L170.0,485.6 L171.9,482.3
		L173.8,479.1 L175.7,475.8 L177.6,472.5 L179.5,469.3 L181.4,466.0 L183.2,462.8 L185.1,459.6 L187.0,456.3
		L188.9,453.1 L190.8,449.9 L192.7,446.7 L194.6,443.5 L196.5,440.3 L198.3,437.1 L200.2,433.8 L202.1,430.6
		L204.0,427.4 L205.9,424.1 L207.8,420.8 L209.7,417.5 L211.6,414.1 L213.4,410.7 L215.3,407.2 L217.2,403.7
		L219.1,400.1 L221.0,396.4 L222.9,392.7 L224.8,388.9 L226.6,385.0 L228.5,381.0 L230.4,376.9 L232.3,372.8
		L234.2,368.6 L236.1,364.3 L238.0,359.9 L239.9,355.4 L241.7,350.9 L243.6,346.3 L245.5,341.6 L247.4,337.0
		L249.3,332.2 L251.2,327.5 L253.1,322.7 L255.0,318.0 L256.8,313.2 L258.7,308.4 L260.6,303.7 L262.5,299.0
		L264.4,294.3 L266.3,289.6 L268.2,285.0 L270.1,280.5 L271.9,276.0 L273.8,271.6 L275.7,267.2 L277.6,263.0
		L279.5,258.7 L281.4,254.6 L283.3,250.5 L285.2,246.5 L287.0,242.6 L288.9,238.8 L290.8,235.0 L292.7,231.3
		L294.6,227.7 L296.5,224.2 L298.4,220.8 L300.2,217.5 L302.1,214.2 L304.0,211.0 L305.9,208.0 L307.8,205.0
		L309.7,202.1 L311.6,199.3 L313.5,196.5 L315.3,193.9 L317.2,191.3 L319.1,188.9 L321.0,186.4 L322.9,184.1
		L324.8,181.8 L326.7,179.6 L328.6,177.4 L330.4,175.3 L332.3,173.1 L334.2,171.1 L336.1,169.0 L338.0,167.0
		L339.9,165.0 L341.8,163.0 L343.7,161.1 L345.5,159.1 L347.4,157.2 L349.3,155.3 L351.2,153.4 L353.1,151.6
		L355.0,149.8 L356.9,148.0 L358.8,146.2 L360.6,144.5 L362.5,142.8 L364.4,141.2 L366.3,139.6 L368.2,138.1
		L370.1,136.6 L372.0,135.1 L373.8,133.7 L375.7,132.4 L377.6,131.1 L379.5,129.8 L381.4,128.6 L383.3,127.5
		L385.2,126.4 L387.1,125.3 L388.9,124.4 L390.8,123.4 L392.7,122.5 L394.6,121.7 L396.5,120.9 L398.4,120.2
		L400.3,119.5 L402.2,118.9 L404.0,118.3 L405.9,117.8 L407.8,117.3 L409.7,116.9 L411.6,116.6 L413.5,116.3
		L415.4,116.0 L417.3,115.8 L419.1,115.6 L421.0,115.5 L422.9,115.5 L424.8,115.5 L426.7,115.5 L428.6,115.6
		L430.5,115.8 L432.4,116.0 L434.2,116.2 L436.1,116.5 L438.0,116.9 L439.9,117.3 L441.8,117.7 L443.7,118.1
		L445.6,118.7 L447.4,119.2 L449.3,119.8 L451.2,120.4 L453.1,121.1 L455.0,121.8 L456.9,122.5 L458.8,123.3
		L460.7,124.1 L462.5,125.0 L464.4,125.8 L466.3,126.7 L468.2,127.7 L470.1,128.6 L472.0,129.6 L473.9,130.6
		L475.8,131.6 L477.6,132.6 L479.5,133.6 L481.4,134.7 L483.3,135.7 L485.2,136.8 L487.1,137.9 L489.0,138.9
		L490.9,140.0 L492.7,141.1 L494.6,142.2 L496.5,143.4 L498.4,144.6 L500.3,145.8 L502.2,147.0 L504.1,148.3
		L506.0,149.6 L507.8,150.9 L509.7,152.4 L511.6,153.8 L513.5,155.4 L515.4,157.0 L517.3,158.6 L519.2,160.4
		L521.0,162.1 L522.9,164.0 L524.8,165.9 L526.7,167.9 L528.6,169.9 L530.5,171.9 L532.4,174.0 L534.3,176.1
		L536.1,178.2 L538.0,180.4 L539.9,182.5 L541.8,184.7 L543.7,186.9 L545.6,189.0 L547.5,191.2 L549.4,193.3
		L551.2,195.5 L553.1,197.6 L555.0,199.8 L556.9,201.9 L558.8,204.1 L560.7,206.2 L562.6,208.3 L564.5,210.5
		L566.3,212.7 L568.2,214.8 L570.1,217.0 L572.0,219.3 L573.9,221.5 L575.8,223.8 L577.7,226.2 L579.5,228.5
		L581.4,230.9 L583.3,233.4 L585.2,235.9 L587.1,238.4 L589.0,241.0 L590.9,243.6 L592.8,246.2 L594.6,248.8
		L596.5,251.5 L598.4,254.3 L600.3,257.0 L602.2,259.7 L604.1,262.5 L606.0,265.3 L607.9,268.1 L609.7,270.9
		L611.6,273.7 L613.5,276.5 L615.4,279.3 L617.3,282.1 L619.2,284.9 L621.1,287.8 L623.0,290.6 L624.8,293.5
		L626.7,296.3 L628.6,299.2 L630.5,302.0 L632.4,304.9 L634.3,307.8 L636.2,310.7 L638.1,313.6 L639.9,316.5
		L641.8,319.4 L643.7,322.3 L645.6,325.2 L647.5,328.1 L649.4,331.0 L651.3,333.8 L653.1,336.7 L655.0,339.5
		L656.9,342.3 L658.8,345.1 L660.7,347.9 L662.6,350.6 L664.5,353.4 L666.4,356.1 L668.2,358.8 L670.1,361.5
		L672.0,364.1 L673.9,366.8 L675.8,369.4 L677.7,372.0 L679.6,374.6 L681.5,377.1 L683.3,379.6 L685.2,382.1
		L687.1,384.6 L689.0,387.0 L690.9,389.5 L692.8,391.9 L694.7,394.3 L696.6,396.6 L698.4,399.0 L700.3,401.3
		L702.2,403.6 L704.1,405.9 L706.0,408.2 L707.9,410.5 L709.8,412.8 L711.7,415.1 L713.5,417.4 L715.4,419.7
		L717.3,422.0 L719.2,424.3 L721.1,426.7 L723.0,429.0 L724.9,431.4 L726.7,433.7 L728.6,436.1 L730.5,438.5
		L732.4,440.9 L734.3,443.3 L736.2,445.7 L738.1,448.1 L740.0,450.5 L741.8,452.9 L743.7,455.2 L745.6,457.6
		L747.5,459.9 L749.4,462.2 L751.3,464.5 L753.2,466.8 L755.1,469.0 L756.9,471.2 L758.8,473.4 L760.7,475.5
		L762.6,477.6 L764.5,479.7 L766.4,481.7 L768.3,483.7 L770.2,485.6 L772.0,487.6 L773.9,489.5 L775.8,491.3
		L777.7,493.2 L779.6,495.0 L781.5,496.8 L783.4,498.5 L785.3,500.3 L787.1,502.0 L789.0,503.7 L790.9,505.5
		L792.8,507.2 L794.7,508.9 L796.6,510.6 L798.5,512.2 L800.3,513.9 L802.2,515.6 L804.1,517.3 L806.0,519.0
		L807.9,520.7 L809.8,522.3 L811.7,524.0 L813.6,525.7 L815.4,527.4 L817.3,529.1 L819.2,530.8 L821.1,532.5
		L823.0,534.1 L824.9,535.8 L826.8,537.5 L828.7,539.2 L830.5,540.8 L832.4,542.5 L834.3,544.1 L836.2,545.7
		L838.1,547.3 L840.0,548.9 L841.9,550.4 L843.8,552.0 L845.6,553.4 L847.5,554.9 L849.4,556.4 L851.3,557.8
		L853.2,559.2 L855.1,560.5 L857.0,561.9 L858.9,563.2 L860.7,564.5 L862.6,565.7 L864.5,567.0 L866.4,568.2
		L868.3,569.4 L870.2,570.6 L872.1,571.7 L873.9,572.9 L875.8,574.0 L877.7,575.2 L879.6,576.3 L881.5,577.4
		L883.4,578.5 L885.3,579.6 L887.2,580.7 L889.0,581.8 L890.9,582.9 L892.8,584.0 L894.7,585.1 L896.6,586.1
		L898.5,587.2 L900.4,588.3 L902.3,589.3 L904.1,590.4 L906.0,591.4 L907.9,592.5 L909.8,593.5 L911.7,594.6
		L913.6,595.6 L915.5,596.7 L917.4,597.7 L919.2,598.7 L921.1,599.7 L923.0,600.7 L924.9,601.7 L926.8,602.7
		L928.7,603.7 L930.6,604.6 L932.5,605.6 L934.3,606.5 L936.2,607.4 L938.1,608.4 L940.0,609.2 L941.9,610.1
		L943.8,611.0 L945.7,611.8 L947.5,612.6 L949.4,613.5 L951.3,614.2 L953.2,615.0 L955.1,615.8 L957.0,616.5
		L958.9,617.2 L960.8,617.9 L962.6,618.6 L964.5,619.3 L966.4,619.9 L968.3,620.5 L970.2,621.1 L972.1,621.7
		L974.0,622.2 L975.9,622.8 L977.7,623.3 L979.6,623.8 L981.5,624.3 L983.4,624.7 L985.3,625.2 L987.2,625.6
		L989.1,626.0 L991.0,626.4 L992.8,626.8 L994.7,627.2 L996.6,627.5 L998.5,627.9 L1000.4,628.2 L1002.3,628.6
		L1004.2,628.9 L1006.1,629.3 L1007.9,629.7 L1009.8,630.0 L1011.7,630.4 L1013.6,630.8  '/></g>
	</g>
	<g id="gnuplot_plot_2" ><title>Confidence interval</title>
<g fill="none" color="white" stroke="rgb( 31, 120, 180)" stroke-width="1.00" stroke-linecap="butt" stroke-linejoin="miter">
</g>
<g fill="none" color="black" stroke="currentColor" stroke-width="1.00" stroke-linecap="butt" stroke-linejoin="miter">
	<g transform="translate(1089.0,85.0)" stroke="none" fill="black" font-family="Helvetica" font-size="12.00"  text-anchor="start">
		<text><tspan font-family="Helvetica" >Confidence interval</tspan></text>
	</g>
</g>
<g fill="none" color="black" stroke="currentColor" stroke-width="1.00" stroke-linecap="butt" stroke-linejoin="miter">
	<g stroke='none' shape-rendering='crispEdges'>
		<polygon fill = 'rgb( 31, 120, 180)' fill-opacity = '0.250000' points = '1038.5,85.6 1080.7,85.6 1080.7,76.6 1038.5,76.6 '/>
		<polygon fill = 'rgb( 31, 120, 180)' fill-opacity = '0.250000' points = '158.7,505.7 160.6,502.3 162.5,498.9 164.4,495.6 166.3,492.3 168.1,488.9 170.0,485.6 171.9,482.3 173.8,479.1 175.7,475.8 177.6,472.5 179.5,469.3 181.4,466.0 183.2,462.8 185.1,459.6 187.0,456.3
188.9,453.1 190.8,449.9 192.7,446.7 194.6,443.5 196.5,440.3 198.3,437.1 200.2,433.8 202.1,430.6 204.0,427.4 205.9,424.1 207.8,420.8 209.7,417.5 211.6,414.1 213.4,410.7 215.3,407.2 217.2,403.7
219.1,400.1 221.0,396.4 222.9,392.7 224.8,388.9 226.6,385.0 228.5,381.0 230.4,376.9 232.3,372.8 234.2,368.6 236.1,364.3 238.0,359.9 239.9,355.4 241.7,350.9 243.6,346.3 245.5,341.6 247.4,337.0
249.3,332.2 251.2,327.5 253.1,322.7 255.0,318.0 256.8,313.2 258.7,308.4 260.6,303.7 262.5,299.0 264.4,294.3 266.3,289.6 268.2,285.0 270.1,280.5 271.9,276.0 273.8,271.6 275.7,267.2 277.6,263.0
279.5,258.7 281.4,254.6 283.3,250.5 285.2,246.5 287.0,242.6 288.9,238.8 290.8,235.0 292.7,231.3 294.6,227.7 296.5,224.2 298.4,220.8 300.2,217.5 302.1,214.2 304.0,211.0 305.9,208.0 307.8,205.0
309.7,202.1 311.6,199.3 313.5,196.5 315.3,193.9 317.2,191.3 319.1,188.9 321.0,186.4 322.9,184.1 324.8,181.8 326.7,179.6 328.6,177.4 330.4,175.3 332.3,173.1 334.2,171.1 336.1,169.0 338.0,167.0
339.9,165.0 341.8,163.0 343.7,161.1 345.5,159.1 347.4,157.2 349.3,155.3 351.2,153.4 353.1,151.6 355.0,149.8 356.9,148.0 358.8,146.2 360.6,144.5 362.5,142.8 364.4,141.2 366.3,139.6 368.2,138.1
370.1,136.6 372.0,135.1 373.8,133.7 375.7,132.4 377.6,131.1 379.5,129.8 381.4,128.6 383.3,127.5 385.2,126.4 387.1,125.3 388.9,124.4 390.8,123.4 392.7,122.5 394.6,121.7 396.5,120.9 398.4,120.2
400.3,119.5 402.2,118.9 404.0,118.3 405.9,117.8 407.8,117.3 409.7,116.9 411.6,116.6 413.5,116.3 415.4,116.0 417.3,115.8 419.1,115.6 421.0,115.5 422.9,115.5 424.8,115.5 426.7,115.5 428.6,115.6
430.5,115.8 432.4,116.0 434.2,116.2 436.1,116.5 438.0,116.9 439.9,117.3 441.8,117.7 443.7,118.1 445.6,118.7 447.4,119.2 449.3,119.8 451.2,120.4 453.1,121.1 455.0,121.8 456.9,122.5 458.8,123.3
460.7,124.1 462.5,125.0 464.4,125.8 466.3,126.7 468.2,127.7 470.1,128.6 472.0,129.6 473.9,130.6 475.8,131.6 477.6,132.6 479.5,133.6 481.4,134.7 483.3,135.7 485.2,136.8 487.1,137.9 489.0,138.9
490.9,140.0 492.7,141.1 494.6,142.2 496.5,143.4 498.4,144.6 500.3,145.8 502.2,147.0 504.1,148.3 506.0,149.6 507.8,150.9 509.7,152.4 511.6,153.8 513.5,155.4 515.4,157.0 517.3,158.6 519.2,160.4
521.0,162.1 522.9,164.0 524.8,165.9 526.7,167.9 528.6,169.9 530.5,171.9 532.4,174.0 534.3,176.1 536.1,178.2 538.0,180.4 539.9,182.5 541.8,184.7 543.7,186.9 545.6,189.0 547.5,191.2 549.4,193.3
551.2,195.5 553.1,197.6 555.0,199.8 556.9,201.9 558.8,204.1 560.7,206.2 562.6,208.3 564.5,210.5 566.3,212.7 568.2,214.8 570.1,217.0 572.0,219.3 573.9,221.5 575.8,223.8 577.7,226.2 579.5,228.5
581.4,230.9 583.3,233.4 585.2,235.9 587.1,238.4 589.0,241.0 590.9,243.6 592.8,246.2 594.6,248.8 596.5,251.5 598.4,254.3 600.3,257.0 602.2,259.7 604.1,262.5 606.0,265.3 607.9,268.1 609.7,270.9
611.6,273.7 613.5,276.5 615.4,279.3 617.3,282.1 619.2,284.9 621.1,287.8 623.0,290.6 624.8,293.5 626.7,296.3 628.6,299.2 630.5,302.0 632.4,304.9 634.3,307.8 636.2,310.7 638.1,313.6 639.9,316.5
641.8,319.4 643.7,322.3 645.6,325.2 647.5,328.1 649.4,331.0 651.3,333.8 653.1,336.7 655.0,339.5 656.9,342.3 658.8,345.1 660.7,347.9 662.6,350.6 664.5,353.4 666.4,356.1 668.2,358.8 670.1,361.5
672.0,364.1 673.9,366.8 675.8,369.4 677.7,372.0 679.6,374.6 681.5,377.1 683.3,379.6 685.2,382.1 687.1,384.6 689.0,387.0 690.9,389.5 692.8,391.9 694.7,394.3 696.6,396.6 698.4,399.0 700.3,401.3
702.2,403.6 704.1,405.9 706.0,408.2 707.9,410.5 709.8,412.8 711.7,415.1 713.5,417.4 715.4,419.7 717.3,422.0 719.2,424.3 721.1,426.7 723.0,429.0 724.9,431.4 726.7,433.7 728.6,436.1 730.5,438.5
732.4,440.9 734.3,443.3 736.2,445.7 738.1,448.1 740.0,450.5 741.8,452.9 743.7,455.2 745.6,457.6 747.5,459.9 749.4,462.2 751.3,464.5 753.2,466.8 755.1,469.0 756.9,471.2 758.8,473.4 760.7,475.5
762.6,477.6 764.5,479.7 766.4,481.7 768.3,483.7 770.2,485.6 772.0,487.6 773.9,489.5 775.8,491.3 777.7,493.2 779.6,495.0 781.5,496.8 783.4,498.5 785.3,500.3 787.1,502.0 789.0,503.7 790.9,505.5
792.8,507.2 794.7,508.9 796.6,510.6 798.5,512.2 800.3,513.9 802.2,515.6 804.1,517.3 806.0,519.0 807.9,520.7 809.8,522.3 811.7,524.0 813.6,525.7 815.4,527.4 817.3,529.1 819.2,530.8 821.1,532.5
823.0,534.1 824.9,535.8 826.8,537.5 828.7,539.2 830.5,540.8 832.4,542.5 834.3,544.1 836.2,545.7 838.1,547.3 840.0,548.9 841.9,550.4 843.8,552.0 845.6,553.4 847.5,554.9 849.4,556.4 851.3,557.8
853.2,559.2 855.1,560.5 857.0,561.9 858.9,563.2 860.7,564.5 862.6,565.7 864.5,567.0 866.4,568.2 868.3,569.4 870.2,570.6 872.1,571.7 873.9,572.9 875.8,574.0 877.7,575.2 879.6,576.3 881.5,577.4
883.4,578.5 885.3,579.6 887.2,580.7 889.0,581.8 890.9,582.9 892.8,584.0 894.7,585.1 896.6,586.1 898.5,587.2 900.4,588.3 902.3,589.3 904.1,590.4 906.0,591.4 907.9,592.5 909.8,593.5 911.7,594.6
913.6,595.6 915.5,596.7 917.4,597.7 919.2,598.7 921.1,599.7 923.0,600.7 924.9,601.7 924.9,662.4 923.0,662.4 921.1,662.4 919.2,662.4 917.4,662.4 915.5,662.4 913.6,662.4 911.7,662.4 909.8,662.4
907.9,662.4 906.0,662.4 904.1,662.4 902.3,662.4 900.4,662.4 898.5,662.4 896.6,662.4 894.7,662.4 892.8,662.4 890.9,662.4 889.0,662.4 887.2,662.4 885.3,662.4 883.4,662.4 881.5,662.4 879.6,662.4
877.7,662.4 875.8,662.4 873.9,662.4 872.1,662.4 870.2,662.4 868.3,662.4 866.4,662.4 864.5,662.4 862.6,662.4 860.7,662.4 858.9,662.4 857.0,662.4 855.1,662.4 853.2,662.4 851.3,662.4 849.4,662.4
847.5,662.4 845.6,662.4 843.8,662.4 841.9,662.4 840.0,662.4 838.1,662.4 836.2,662.4 834.3,662.4 832.4,662.4 830.5,662.4 828.7,662.4 826.8,662.4 824.9,662.4 823.0,662.4 821.1,662.4 819.2,662.4
817.3,662.4 815.4,662.4 813.6,662.4 811.7,662.4 809.8,662.4 807.9,662.4 806.0,662.4 804.1,662.4 802.2,662.4 800.3,662.4 798.5,662.4 796.6,662.4 794.7,662.4 792.8,662.4 790.9,662.4 789.0,662.4
787.1,662.4 785.3,662.4 783.4,662.4 781.5,662.4 779.6,662.4 777.7,662.4 775.8,662.4 773.9,662.4 772.0,662.4 770.2,662.4 768.3,662.4 766.4,662.4 764.5,662.4 762.6,662.4 760.7,662.4 758.8,662.4
756.9,662.4 755.1,662.4 753.2,662.4 751.3,662.4 749.4,662.4 747.5,662.4 745.6,662.4 743.7,662.4 741.8,662.4 740.0,662.4 738.1,662.4 736.2,662.4 734.3,662.4 732.4,662.4 730.5,662.4 728.6,662.4
726.7,662.4 724.9,662.4 723.0,662.4 721.1,662.4 719.2,662.4 717.3,662.4 715.4,662.4 713.5,662.4 711.7,662.4 709.8,662.4 707.9,662.4 706.0,662.4 704.1,662.4 702.2,662.4 700.3,662.4 698.4,662.4
696.6,662.4 694.7,662.4 692.8,662.4 690.9,662.4 689.0,662.4 687.1,662.4 685.2,662.4 683.3,662.4 681.5,662.4 679.6,662.4 677.7,662.4 675.8,662.4 673.9,662.4 672.0,662.4 670.1,662.4 668.2,662.4
666.4,662.4 664.5,662.4 662.6,662.4 660.7,662.4 658.8,662.4 656.9,662.4 655.0,662.4 653.1,662.4 651.3,662.4 649.4,662.4 647.5,662.4 645.6,662.4 643.7,662.4 641.8,662.4 639.9,662.4 638.1,662.4
636.2,662.4 634.3,662.4 632.4,662.4 630.5,662.4 628.6,662.4 626.7,662.4 624.8,662.4 623.0,662.4 621.1,662.4 619.2,662.4 617.3,662.4 615.4,662.4 613.5,662.4 611.6,662.4 609.7,662.4 607.9,662.4
606.0,662.4 604.1,662.4 602.2,662.4 600.3,662.4 598.4,662.4 596.5,662.4 594.6,662.4 592.8,662.4 590.9,662.4 589.0,662.4 587.1,662.4 585.2,662.4 583.3,662.4 581.4,662.4 579.5,662.4 577.7,662.4
575.8,662.4 573.9,662.4 572.0,662.4 570.1,662.4 568.2,662.4 566.3,662.4 564.5,662.4 562.6,662.4 560.7,662.4 558.8,662.4 556.9,662.4 555.0,662.4 553.1,662.4 551.2,662.4 549.4,662.4 547.5,662.4
545.6,662.4 543.7,662.4 541.8,662.4 539.9,662.4 538.0,662.4 536.1,662.4 534.3,662.4 532.4,662.4 530.5,662.4 528.6,662.4 526.7,662.4 524.8,662.4 522.9,662.4 521.0,662.4 519.2,662.4 517.3,662.4
515.4,662.4 513.5,662.4 511.6,662.4 509.7,662.4 507.8,662.4 506.0,662.4 504.1,662.4 502.2,662.4 500.3,662.4 498.4,662.4 496.5,662.4 494.6,662.4 492.7,662.4 490.9,662.4 489.0,662.4 487.1,662.4
485.2,662.4 483.3,662.4 481.4,662.4 479.5,662.4 477.6,662.4 475.8,662.4 473.9,662.4 472.0,662.4 470.1,662.4 468.2,662.4 466.3,662.4 464.4,662.4 462.5,662.4 460.7,662.4 458.8,662.4 456.9,662.4
455.0,662.4 453.1,662.4 451.2,662.4 449.3,662.4 447.4,662.4 445.6,662.4 443.7,662.4 441.8,662.4 439.9,662.4 438.0,662.4 436.1,662.4 434.2,662.4 432.4,662.4 430.5,662.4 428.6,662.4 426.7,662.4
424.8,662.4 422.9,662.4 421.0,662.4 419.1,662.4 417.3,662.4 415.4,662.4 413.5,662.4 411.6,662.4 409.7,662.4 407.8,662.4 405.9,662.4 404.0,662.4 402.2,662.4 400.3,662.4 398.4,662.4 396.5,662.4
394.6,662.4 392.7,662.4 390.8,662.4 388.9,662.4 387.1,662.4 385.2,662.4 383.3,662.4 381.4,662.4 379.5,662.4 377.6,662.4 375.7,662.4 373.8,662.4 372.0,662.4 370.1,662.4 368.2,662.4 366.3,662.4
364.4,662.4 362.5,662.4 360.6,662.4 358.8,662.4 356.9,662.4 355.0,662.4 353.1,662.4 351.2,662.4 349.3,662.4 347.4,662.4 345.5,662.4 343.7,662.4 341.8,662.4 339.9,662.4 338.0,662.4 336.1,662.4
334.2,662.4 332.3,662.4 330.4,662.4 328.6,662.4 326.7,662.4 324.8,662.4 322.9,662.4 321.0,662.4 319.1,662.4 317.2,662.4 315.3,662.4 313.5,662.4 311.6,662.4 309.7,662.4 307.8,662.4 305.9,662.4
304.0,662.4 302.1,662.4 300.2,662.4 298.4,662.4 296.5,662.4 294.6,662.4 292.7,662.4 290.8,662.4 288.9,662.4 287.0,662.4 285.2,662.4 283.3,662.4 281.4,662.4 279.5,662.4 277.6,662.4 275.7,662.4
273.8,662.4 271.9,662.4 270.1,662.4 268.2,662.4 266.3,662.4 264.4,662.4 262.5,662.4 260.6,662.4 258.7,662.4 256.8,662.4 255.0,662.4 253.1,662.4 251.2,662.4 249.3,662.4 247.4,662.4 245.5,662.4
243.6,662.4 241.7,662.4 239.9,662.4 238.0,662.4 236.1,662.4 234.2,662.4 232.3,662.4 230.4,662.4 228.5,662.4 226.6,662.4 224.8,662.4 222.9,662.4 221.0,662.4 219.1,662.4 217.2,662.4 215.3,662.4
213.4,662.4 211.6,662.4 209.7,662.4 207.8,662.4 205.9,662.4 204.0,662.4 202.1,662.4 200.2,662.4 198.3,662.4 196.5,662.4 194.6,662.4 192.7,662.4 190.8,662.4 188.9,662.4 187.0,662.4 185.1,662.4
183.2,662.4 181.4,662.4 179.5,662.4 177.6,662.4 175.7,662.4 173.8,662.4 171.9,662.4 170.0,662.4 168.1,662.4 166.3,662.4 164.4,662.4 162.5,662.4 160.6,662.4 158.7,662.4 '/>
	</g>
</g>
	</g>
	<g id="gnuplot_plot_3" ><title>Point estimate</title>
<g fill="none" color="white" stroke="rgb( 31, 120, 180)" stroke-width="2.00" stroke-linecap="butt" stroke-linejoin="miter">
</g>
<g fill="none" color="black" stroke="currentColor" stroke-width="2.00" stroke-linecap="butt" stroke-linejoin="miter">
	<g transform="translate(1089.0,103.0)" stroke="none" fill="black" font-family="Helvetica" font-size="12.00"  text-anchor="start">
		<text><tspan font-family="Helvetica" >Point estimate</tspan></text>
	</g>
</g>
<g fill="none" color="black" stroke="currentColor" stroke-width="2.00" stroke-linecap="butt" stroke-linejoin="miter">
	<path stroke='rgb( 31, 120, 180)'  d='M1038.5,99.1 L1080.7,99.1 M487.6,662.4 L487.6,138.2  '/></g>
	</g>
<g fill="none" color="black" stroke="currentColor" stroke-width="2.00" stroke-linecap="butt" stroke-linejoin="miter">
</g>
<g fill="none" color="black" stroke="black" stroke-width="1.00" stroke-linecap="butt" stroke-linejoin="miter">
</g>
<g fill="none" color="black" stroke="currentColor" stroke-width="1.00" stroke-linecap="butt" stroke-linejoin="miter">
	<path stroke='black'  d='M71.9,54.1 L71.9,662.4 L1013.6,662.4 L1013.6,54.1 L71.9,54.1 Z  '/></g>
<g fill="none" color="black" stroke="currentColor" stroke-width="1.00" stroke-linecap="butt" stroke-linejoin="miter">
</g>
</g>
</svg>

