<?xml version="1.0" encoding="utf-8"  standalone="no"?>
<svg 
 viewBox="0 0 1280 720"
 xmlns="http://www.w3.org/2000/svg"
 xmlns:xlink="http://www.w3.org/1999/xlink"
>

<title>Gnuplot</title>
<desc>Produced by GNUPLOT 5.2 patchlevel 6 </desc>

<g id="gnuplot_canvas">

<rect x="0" y="0" width="1280" height="720" fill="none"/>
<defs>

	<circle id='gpDot' r='0.5' stroke-width='0.5' stroke='currentColor'/>
	<path id='gpPt0' stroke-width='0.222' stroke='currentColor' d='M-1,0 h2 M0,-1 v2'/>
	<path id='gpPt1' stroke-width='0.222' stroke='currentColor' d='M-1,-1 L1,1 M1,-1 L-1,1'/>
	<path id='gpPt2' stroke-width='0.222' stroke='currentColor' d='M-1,0 L1,0 M0,-1 L0,1 M-1,-1 L1,1 M-1,1 L1,-1'/>
	<rect id='gpPt3' stroke-width='0.222' stroke='currentColor' x='-1' y='-1' width='2' height='2'/>
	<rect id='gpPt4' stroke-width='0.222' stroke='currentColor' fill='currentColor' x='-1' y='-1' width='2' height='2'/>
	<circle id='gpPt5' stroke-width='0.222' stroke='currentColor' cx='0' cy='0' r='1'/>
	<use xlink:href='#gpPt5' id='gpPt6' fill='currentColor' stroke='none'/>
	<path id='gpPt7' stroke-width='0.222' stroke='currentColor' d='M0,-1.33 L-1.33,0.67 L1.33,0.67 z'/>
	<use xlink:href='#gpPt7' id='gpPt8' fill='currentColor' stroke='none'/>
	<use xlink:href='#gpPt7' id='gpPt9' stroke='currentColor' transform='rotate(180)'/>
	<use xlink:href='#gpPt9' id='gpPt10' fill='currentColor' stroke='none'/>
	<use xlink:href='#gpPt3' id='gpPt11' stroke='currentColor' transform='rotate(45)'/>
	<use xlink:href='#gpPt11' id='gpPt12' fill='currentColor' stroke='none'/>
	<path id='gpPt13' stroke-width='0.222' stroke='currentColor' d='M0,1.330 L1.265,0.411 L0.782,-1.067 L-0.782,-1.076 L-1.265,0.411 z'/>
	<use xlink:href='#gpPt13' id='gpPt14' fill='currentColor' stroke='none'/>
	<filter id='textbox' filterUnits='objectBoundingBox' x='0' y='0' height='1' width='1'>
	  <feFlood flood-color='white' flood-opacity='1' result='bgnd'/>
	  <feComposite in='SourceGraphic' in2='bgnd' operator='atop'/>
	</filter>
	<filter id='greybox' filterUnits='objectBoundingBox' x='0' y='0' height='1' width='1'>
	  <feFlood flood-color='lightgrey' flood-opacity='1' result='grey'/>
	  <feComposite in='SourceGraphic' in2='grey' operator='atop'/>
	</filter>
</defs>
<g fill="none" color="white" stroke="currentColor" stroke-width="1.00" stroke-linecap="butt" stroke-linejoin="miter">
</g>
<g fill="none" color="black" stroke="currentColor" stroke-width="1.00" stroke-linecap="butt" stroke-linejoin="miter">
	<path stroke='black'  d='M63.6,662.4 L72.6,662.4  '/>	<g transform="translate(55.3,666.3)" stroke="none" fill="black" font-family="Helvetica" font-size="12.00"  text-anchor="end">
		<text><tspan font-family="Helvetica" > 0</tspan></text>
	</g>
</g>
<g fill="none" color="black" stroke="currentColor" stroke-width="1.00" stroke-linecap="butt" stroke-linejoin="miter">
	<path stroke='black'  d='M63.6,594.8 L72.6,594.8  '/>	<g transform="translate(55.3,598.7)" stroke="none" fill="black" font-family="Helvetica" font-size="12.00"  text-anchor="end">
		<text><tspan font-family="Helvetica" > 2</tspan></text>
	</g>
</g>
<g fill="none" color="black" stroke="currentColor" stroke-width="1.00" stroke-linecap="butt" stroke-linejoin="miter">
	<path stroke='black'  d='M63.6,527.2 L72.6,527.2  '/>	<g transform="translate(55.3,531.1)" stroke="none" fill="black" font-family="Helvetica" font-size="12.00"  text-anchor="end">
		<text><tspan font-family="Helvetica" > 4</tspan></text>
	</g>
</g>
<g fill="none" color="black" stroke="currentColor" stroke-width="1.00" stroke-linecap="butt" stroke-linejoin="miter">
	<path stroke='black'  d='M63.6,459.6 L72.6,459.6  '/>	<g transform="translate(55.3,463.5)" stroke="none" fill="black" font-family="Helvetica" font-size="12.00"  text-anchor="end">
		<text><tspan font-family="Helvetica" > 6</tspan></text>
	</g>
</g>
<g fill="none" color="black" stroke="currentColor" stroke-width="1.00" stroke-linecap="butt" stroke-linejoin="miter">
	<path stroke='black'  d='M63.6,392.0 L72.6,392.0  '/>	<g transform="translate(55.3,395.9)" stroke="none" fill="black" font-family="Helvetica" font-size="12.00"  text-anchor="end">
		<text><tspan font-family="Helvetica" > 8</tspan></text>
	</g>
</g>
<g fill="none" color="black" stroke="currentColor" stroke-width="1.00" stroke-linecap="butt" stroke-linejoin="miter">
	<path stroke='black'  d='M63.6,324.5 L72.6,324.5  '/>	<g transform="translate(55.3,328.4)" stroke="none" fill="black" font-family="Helvetica" font-size="12.00"  text-anchor="end">
		<text><tspan font-family="Helvetica" > 10</tspan></text>
	</g>
</g>
<g fill="none" color="black" stroke="currentColor" stroke-width="1.00" stroke-linecap="butt" stroke-linejoin="miter">
	<path stroke='black'  d='M63.6,256.9 L72.6,256.9  '/>	<g transform="translate(55.3,260.8)" stroke="none" fill="black" font-family="Helvetica" font-size="12.00"  text-anchor="end">
		<text><tspan font-family="Helvetica" > 12</tspan></text>
	</g>
</g>
<g fill="none" color="black" stroke="currentColor" stroke-width="1.00" stroke-linecap="butt" stroke-linejoin="miter">
	<path stroke='black'  d='M63.6,189.3 L72.6,189.3  '/>	<g transform="translate(55.3,193.2)" stroke="none" fill="black" font-family="Helvetica" font-size="12.00"  text-anchor="end">
		<text><tspan font-family="Helvetica" > 14</tspan></text>
	</g>
</g>
<g fill="none" color="black" stroke="currentColor" stroke-width="1.00" stroke-linecap="butt" stroke-linejoin="miter">
	<path stroke='black'  d='M63.6,121.7 L72.6,121.7  '/>	<g transform="translate(55.3,125.6)" stroke="none" fill="black" font-family="Helvetica" font-size="12.00"  text-anchor="end">
		<text><tspan font-family="Helvetica" > 16</tspan></text>
	</g>
</g>
<g fill="none" color="black" stroke="currentColor" stroke-width="1.00" stroke-linecap="butt" stroke-linejoin="miter">
	<path stroke='black'  d='M63.6,54.1 L72.6,54.1  '/>	<g transform="translate(55.3,58.0)" stroke="none" fill="black" font-family="Helvetica" font-size="12.00"  text-anchor="end">
		<text><tspan font-family="Helvetica" > 18</tspan></text>
	</g>
</g>
<g fill="none" color="black" stroke="currentColor" stroke-width="1.00" stroke-linecap="butt" stroke-linejoin="miter">
	<path stroke='black'  d='M67.0,662.4 L67.0,653.4  '/>	<g transform="translate(67.0,684.3)" stroke="none" fill="black" font-family="Helvetica" font-size="12.00"  text-anchor="middle">
		<text><tspan font-family="Helvetica" > 301.24</tspan></text>
	</g>
</g>
<g fill="none" color="black" stroke="currentColor" stroke-width="1.00" stroke-linecap="butt" stroke-linejoin="miter">
	<path stroke='black'  d='M180.1,662.4 L180.1,653.4  '/>	<g transform="translate(180.1,684.3)" stroke="none" fill="black" font-family="Helvetica" font-size="12.00"  text-anchor="middle">
		<text><tspan font-family="Helvetica" > 301.26</tspan></text>
	</g>
</g>
<g fill="none" color="black" stroke="currentColor" stroke-width="1.00" stroke-linecap="butt" stroke-linejoin="miter">
	<path stroke='black'  d='M293.3,662.4 L293.3,653.4  '/>	<g transform="translate(293.3,684.3)" stroke="none" fill="black" font-family="Helvetica" font-size="12.00"  text-anchor="middle">
		<text><tspan font-family="Helvetica" > 301.28</tspan></text>
	</g>
</g>
<g fill="none" color="black" stroke="currentColor" stroke-width="1.00" stroke-linecap="butt" stroke-linejoin="miter">
	<path stroke='black'  d='M406.5,662.4 L406.5,653.4  '/>	<g transform="translate(406.5,684.3)" stroke="none" fill="black" font-family="Helvetica" font-size="12.00"  text-anchor="middle">
		<text><tspan font-family="Helvetica" > 301.3</tspan></text>
	</g>
</g>
<g fill="none" color="black" stroke="currentColor" stroke-width="1.00" stroke-linecap="butt" stroke-linejoin="miter">
	<path stroke='black'  d='M519.6,662.4 L519.6,653.4  '/>	<g transform="translate(519.6,684.3)" stroke="none" fill="black" font-family="Helvetica" font-size="12.00"  text-anchor="middle">
		<text><tspan font-family="Helvetica" > 301.32</tspan></text>
	</g>
</g>
<g fill="none" color="black" stroke="currentColor" stroke-width="1.00" stroke-linecap="butt" stroke-linejoin="miter">
	<path stroke='black'  d='M632.8,662.4 L632.8,653.4  '/>	<g transform="translate(632.8,684.3)" stroke="none" fill="black" font-family="Helvetica" font-size="12.00"  text-anchor="middle">
		<text><tspan font-family="Helvetica" > 301.34</tspan></text>
	</g>
</g>
<g fill="none" color="black" stroke="currentColor" stroke-width="1.00" stroke-linecap="butt" stroke-linejoin="miter">
	<path stroke='black'  d='M745.9,662.4 L745.9,653.4  '/>	<g transform="translate(745.9,684.3)" stroke="none" fill="black" font-family="Helvetica" font-size="12.00"  text-anchor="middle">
		<text><tspan font-family="Helvetica" > 301.36</tspan></text>
	</g>
</g>
<g fill="none" color="black" stroke="currentColor" stroke-width="1.00" stroke-linecap="butt" stroke-linejoin="miter">
	<path stroke='black'  d='M859.1,662.4 L859.1,653.4  '/>	<g transform="translate(859.1,684.3)" stroke="none" fill="black" font-family="Helvetica" font-size="12.00"  text-anchor="middle">
		<text><tspan font-family="Helvetica" > 301.38</tspan></text>
	</g>
</g>
<g fill="none" color="black" stroke="currentColor" stroke-width="1.00" stroke-linecap="butt" stroke-linejoin="miter">
	<path stroke='black'  d='M972.3,662.4 L972.3,653.4  '/>	<g transform="translate(972.3,684.3)" stroke="none" fill="black" font-family="Helvetica" font-size="12.00"  text-anchor="middle">
		<text><tspan font-family="Helvetica" > 301.4</tspan></text>
	</g>
</g>
<g fill="none" color="black" stroke="currentColor" stroke-width="1.00" stroke-linecap="butt" stroke-linejoin="miter">
</g>
<g fill="none" color="black" stroke="currentColor" stroke-width="1.00" stroke-linecap="butt" stroke-linejoin="miter">
	<path stroke='black'  d='M63.6,54.1 L63.6,662.4 L1013.6,662.4 L1013.6,54.1 L63.6,54.1 Z  '/></g>
<g fill="none" color="black" stroke="currentColor" stroke-width="1.00" stroke-linecap="butt" stroke-linejoin="miter">
	<g transform="translate(16.3,358.3) rotate(270)" stroke="none" fill="black" font-family="Helvetica" font-size="12.00"  text-anchor="middle">
		<text><tspan font-family="Helvetica" >Density (a.u.)</tspan></text>
	</g>
</g>
<g fill="none" color="black" stroke="currentColor" stroke-width="1.00" stroke-linecap="butt" stroke-linejoin="miter">
	<g transform="translate(538.6,711.3)" stroke="none" fill="black" font-family="Helvetica" font-size="12.00"  text-anchor="middle">
		<text><tspan font-family="Helvetica" >Average time (us)</tspan></text>
	</g>
</g>
<g fill="none" color="black" stroke="currentColor" stroke-width="1.00" stroke-linecap="butt" stroke-linejoin="miter">
	<g transform="translate(538.6,31.0)" stroke="none" fill="black" font-family="Helvetica" font-size="12.00"  text-anchor="middle">
		<text><tspan font-family="Helvetica" >snapshot_restore_with_dense/Sparse: Entire region + process_vm_writev w/ page size/46: median</tspan></text>
	</g>
</g>
	<g id="gnuplot_plot_1" ><title>Bootstrap distribution</title>
<g fill="none" color="white" stroke="black" stroke-width="2.00" stroke-linecap="butt" stroke-linejoin="miter">
</g>
<g fill="none" color="black" stroke="currentColor" stroke-width="2.00" stroke-linecap="butt" stroke-linejoin="miter">
	<g transform="translate(1089.0,67.0)" stroke="none" fill="black" font-family="Helvetica" font-size="12.00"  text-anchor="start">
		<text><tspan font-family="Helvetica" >Bootstrap distribution</tspan></text>
	</g>
</g>
<g fill="none" color="black" stroke="currentColor" stroke-width="2.00" stroke-linecap="butt" stroke-linejoin="miter">
	<path stroke='rgb( 31, 120, 180)'  d='M1038.5,63.1 L1080.7,63.1 M63.6,620.6 L65.5,621.4 L67.4,622.5 L69.3,623.8 L71.2,625.3 L73.1,626.9
		L75.0,628.8 L76.9,630.7 L78.8,632.7 L80.7,634.7 L82.6,636.8 L84.5,638.8 L86.4,640.8 L88.3,642.6
		L90.3,644.4 L92.2,646.0 L94.1,647.4 L96.0,648.6 L97.9,649.6 L99.8,650.4 L101.7,651.0 L103.6,651.4
		L105.5,651.6 L107.4,651.5 L109.3,651.2 L111.2,650.7 L113.1,650.0 L115.0,649.1 L116.9,648.1 L118.8,646.9
		L120.7,645.5 L122.6,644.1 L124.5,642.6 L126.4,641.0 L128.3,639.4 L130.2,637.8 L132.1,636.2 L134.0,634.8
		L135.9,633.4 L137.8,632.1 L139.8,631.0 L141.7,630.1 L143.6,629.4 L145.5,628.8 L147.4,628.5 L149.3,628.5
		L151.2,628.7 L153.1,629.0 L155.0,629.6 L156.9,630.4 L158.8,631.4 L160.7,632.5 L162.6,633.7 L164.5,635.1
		L166.4,636.4 L168.3,637.8 L170.2,639.2 L172.1,640.5 L174.0,641.7 L175.9,642.7 L177.8,643.6 L179.7,644.2
		L181.6,644.6 L183.5,644.7 L185.4,644.4 L187.3,643.8 L189.3,642.8 L191.2,641.3 L193.1,639.3 L195.0,636.8
		L196.9,633.8 L198.8,630.2 L200.7,625.9 L202.6,621.1 L204.5,615.6 L206.4,609.4 L208.3,602.6 L210.2,595.1
		L212.1,586.8 L214.0,577.9 L215.9,568.3 L217.8,558.0 L219.7,547.1 L221.6,535.5 L223.5,523.3 L225.4,510.6
		L227.3,497.3 L229.2,483.5 L231.1,469.2 L233.0,454.6 L234.9,439.6 L236.8,424.4 L238.8,409.0 L240.7,393.5
		L242.6,378.0 L244.5,362.6 L246.4,347.5 L248.3,332.7 L250.2,318.3 L252.1,304.5 L254.0,291.5 L255.9,279.4
		L257.8,268.4 L259.7,258.5 L261.6,249.9 L263.5,242.8 L265.4,237.3 L267.3,233.4 L269.2,231.2 L271.1,230.9
		L273.0,232.3 L274.9,235.5 L276.8,240.4 L278.7,246.9 L280.6,255.0 L282.5,264.5 L284.4,275.1 L286.3,286.7
		L288.2,299.0 L290.2,311.9 L292.1,325.0 L294.0,338.1 L295.9,350.9 L297.8,363.2 L299.7,374.9 L301.6,385.7
		L303.5,395.4 L305.4,404.0 L307.3,411.5 L309.2,417.7 L311.1,422.7 L313.0,426.6 L314.9,429.4 L316.8,431.3
		L318.7,432.3 L320.6,432.6 L322.5,432.4 L324.4,431.8 L326.3,430.8 L328.2,429.7 L330.1,428.4 L332.0,427.0
		L333.9,425.5 L335.8,423.9 L337.7,422.0 L339.7,419.7 L341.6,417.0 L343.5,413.6 L345.4,409.3 L347.3,404.1
		L349.2,397.7 L351.1,390.1 L353.0,381.0 L354.9,370.4 L356.8,358.2 L358.7,344.6 L360.6,329.5 L362.5,313.1
		L364.4,295.5 L366.3,277.1 L368.2,258.0 L370.1,238.6 L372.0,219.2 L373.9,200.2 L375.8,181.9 L377.7,164.7
		L379.6,148.8 L381.5,134.6 L383.4,122.2 L385.3,111.9 L387.2,103.7 L389.2,97.8 L391.1,94.2 L393.0,92.8
		L394.9,93.4 L396.8,96.0 L398.7,100.3 L400.6,106.1 L402.5,113.2 L404.4,121.4 L406.3,130.2 L408.2,139.5
		L410.1,149.1 L412.0,158.7 L413.9,168.1 L415.8,177.2 L417.7,185.7 L419.6,193.7 L421.5,201.0 L423.4,207.6
		L425.3,213.4 L427.2,218.5 L429.1,222.9 L431.0,226.7 L432.9,229.9 L434.8,232.7 L436.7,235.2 L438.7,237.4
		L440.6,239.6 L442.5,241.8 L444.4,244.3 L446.3,247.1 L448.2,250.5 L450.1,254.4 L452.0,259.1 L453.9,264.6
		L455.8,271.0 L457.7,278.3 L459.6,286.6 L461.5,295.9 L463.4,306.0 L465.3,316.9 L467.2,328.6 L469.1,340.8
		L471.0,353.4 L472.9,366.3 L474.8,379.2 L476.7,392.0 L478.6,404.4 L480.5,416.4 L482.4,427.6 L484.3,437.9
		L486.2,447.2 L488.1,455.4 L490.1,462.4 L492.0,468.1 L493.9,472.5 L495.8,475.7 L497.7,477.7 L499.6,478.5
		L501.5,478.2 L503.4,477.1 L505.3,475.2 L507.2,472.6 L509.1,469.6 L511.0,466.4 L512.9,463.0 L514.8,459.7
		L516.7,456.5 L518.6,453.7 L520.5,451.3 L522.4,449.4 L524.3,448.1 L526.2,447.4 L528.1,447.3 L530.0,447.8
		L531.9,448.8 L533.8,450.4 L535.7,452.4 L537.6,454.8 L539.6,457.4 L541.5,460.3 L543.4,463.2 L545.3,466.0
		L547.2,468.7 L549.1,471.3 L551.0,473.5 L552.9,475.3 L554.8,476.7 L556.7,477.7 L558.6,478.1 L560.5,478.0
		L562.4,477.4 L564.3,476.2 L566.2,474.5 L568.1,472.4 L570.0,469.7 L571.9,466.6 L573.8,463.1 L575.7,459.2
		L577.6,455.0 L579.5,450.4 L581.4,445.6 L583.3,440.6 L585.2,435.4 L587.1,429.9 L589.1,424.3 L591.0,418.4
		L592.9,412.5 L594.8,406.3 L596.7,400.0 L598.6,393.5 L600.5,386.8 L602.4,380.0 L604.3,373.0 L606.2,365.9
		L608.1,358.7 L610.0,351.3 L611.9,344.0 L613.8,336.6 L615.7,329.3 L617.6,322.2 L619.5,315.2 L621.4,308.6
		L623.3,302.3 L625.2,296.4 L627.1,291.1 L629.0,286.4 L630.9,282.4 L632.8,279.2 L634.7,276.8 L636.6,275.1
		L638.5,274.4 L640.5,274.4 L642.4,275.3 L644.3,277.0 L646.2,279.3 L648.1,282.4 L650.0,285.9 L651.9,290.0
		L653.8,294.4 L655.7,299.1 L657.6,304.0 L659.5,308.9 L661.4,313.8 L663.3,318.6 L665.2,323.2 L667.1,327.6
		L669.0,331.6 L670.9,335.3 L672.8,338.7 L674.7,341.6 L676.6,344.2 L678.5,346.4 L680.4,348.2 L682.3,349.7
		L684.2,350.9 L686.1,351.8 L688.0,352.5 L690.0,353.1 L691.9,353.5 L693.8,353.9 L695.7,354.2 L697.6,354.7
		L699.5,355.2 L701.4,355.9 L703.3,356.9 L705.2,358.1 L707.1,359.6 L709.0,361.4 L710.9,363.7 L712.8,366.3
		L714.7,369.4 L716.6,373.0 L718.5,376.9 L720.4,381.4 L722.3,386.2 L724.2,391.4 L726.1,397.0 L728.0,403.0
		L729.9,409.2 L731.8,415.7 L733.7,422.3 L735.6,429.1 L737.5,436.0 L739.5,442.8 L741.4,449.7 L743.3,456.5
		L745.2,463.1 L747.1,469.5 L749.0,475.8 L750.9,481.8 L752.8,487.5 L754.7,493.0 L756.6,498.1 L758.5,503.0
		L760.4,507.5 L762.3,511.8 L764.2,515.7 L766.1,519.4 L768.0,522.8 L769.9,525.9 L771.8,528.8 L773.7,531.4
		L775.6,533.9 L777.5,536.1 L779.4,538.2 L781.3,540.1 L783.2,541.8 L785.1,543.4 L787.0,544.9 L789.0,546.4
		L790.9,547.7 L792.8,549.1 L794.7,550.4 L796.6,551.8 L798.5,553.2 L800.4,554.7 L802.3,556.2 L804.2,557.9
		L806.1,559.8 L808.0,561.7 L809.9,563.9 L811.8,566.2 L813.7,568.7 L815.6,571.3 L817.5,574.1 L819.4,577.0
		L821.3,580.1 L823.2,583.2 L825.1,586.4 L827.0,589.6 L828.9,592.9 L830.8,596.1 L832.7,599.2 L834.6,602.2
		L836.5,605.1 L838.4,607.8 L840.4,610.3 L842.3,612.6 L844.2,614.7 L846.1,616.5 L848.0,618.1 L849.9,619.5
		L851.8,620.7 L853.7,621.7 L855.6,622.5 L857.5,623.2 L859.4,623.7 L861.3,624.1 L863.2,624.5 L865.1,624.9
		L867.0,625.2 L868.9,625.6 L870.8,626.0 L872.7,626.4 L874.6,626.9 L876.5,627.4 L878.4,628.0 L880.3,628.7
		L882.2,629.4 L884.1,630.1 L886.0,630.8 L887.9,631.5 L889.9,632.2 L891.8,632.8 L893.7,633.4 L895.6,633.8
		L897.5,634.2 L899.4,634.5 L901.3,634.7 L903.2,634.8 L905.1,634.8 L907.0,634.6 L908.9,634.5 L910.8,634.3
		L912.7,634.0 L914.6,633.7 L916.5,633.5 L918.4,633.3 L920.3,633.1 L922.2,633.0 L924.1,633.0 L926.0,633.1
		L927.9,633.3 L929.8,633.5 L931.7,633.9 L933.6,634.3 L935.5,634.9 L937.4,635.4 L939.4,636.1 L941.3,636.7
		L943.2,637.3 L945.1,637.9 L947.0,638.5 L948.9,639.1 L950.8,639.6 L952.7,640.0 L954.6,640.4 L956.5,640.6
		L958.4,640.9 L960.3,641.0 L962.2,641.1 L964.1,641.2 L966.0,641.3 L967.9,641.3 L969.8,641.3 L971.7,641.4
		L973.6,641.5 L975.5,641.6 L977.4,641.7 L979.3,641.9 L981.2,642.1 L983.1,642.3 L985.0,642.5 L986.9,642.8
		L988.9,643.1 L990.8,643.3 L992.7,643.6 L994.6,643.8 L996.5,644.0 L998.4,644.1 L1000.3,644.2 L1002.2,644.2
		L1004.1,644.2 L1006.0,644.1 L1007.9,644.0 L1009.8,643.8 L1011.7,643.6 L1013.6,643.4  '/></g>
	</g>
	<g id="gnuplot_plot_2" ><title>Confidence interval</title>
<g fill="none" color="white" stroke="rgb( 31, 120, 180)" stroke-width="1.00" stroke-linecap="butt" stroke-linejoin="miter">
</g>
<g fill="none" color="black" stroke="currentColor" stroke-width="1.00" stroke-linecap="butt" stroke-linejoin="miter">
	<g transform="translate(1089.0,85.0)" stroke="none" fill="black" font-family="Helvetica" font-size="12.00"  text-anchor="start">
		<text><tspan font-family="Helvetica" >Confidence interval</tspan></text>
	</g>
</g>
<g fill="none" color="black" stroke="currentColor" stroke-width="1.00" stroke-linecap="butt" stroke-linejoin="miter">
	<g stroke='none' shape-rendering='crispEdges'>
		<polygon fill = 'rgb( 31, 120, 180)' fill-opacity = '0.250000' points = '1038.5,85.6 1080.7,85.6 1080.7,76.6 1038.5,76.6 '/>
		<polygon fill = 'rgb( 31, 120, 180)' fill-opacity = '0.250000' points = '151.2,628.7 153.1,629.0 155.0,629.6 156.9,630.4 158.8,631.4 160.7,632.5 162.6,633.7 164.5,635.1 166.4,636.4 168.3,637.8 170.2,639.2 172.1,640.5 174.0,641.7 175.9,642.7 177.8,643.6 179.7,644.2
181.6,644.6 183.5,644.7 185.4,644.4 187.3,643.8 189.3,642.8 191.2,641.3 193.1,639.3 195.0,636.8 196.9,633.8 198.8,630.2 200.7,625.9 202.6,621.1 204.5,615.6 206.4,609.4 208.3,602.6 210.2,595.1
212.1,586.8 214.0,577.9 215.9,568.3 217.8,558.0 219.7,547.1 221.6,535.5 223.5,523.3 225.4,510.6 227.3,497.3 229.2,483.5 231.1,469.2 233.0,454.6 234.9,439.6 236.8,424.4 238.8,409.0 240.7,393.5
242.6,378.0 244.5,362.6 246.4,347.5 248.3,332.7 250.2,318.3 252.1,304.5 254.0,291.5 255.9,279.4 257.8,268.4 259.7,258.5 261.6,249.9 263.5,242.8 265.4,237.3 267.3,233.4 269.2,231.2 271.1,230.9
273.0,232.3 274.9,235.5 276.8,240.4 278.7,246.9 280.6,255.0 282.5,264.5 284.4,275.1 286.3,286.7 288.2,299.0 290.2,311.9 292.1,325.0 294.0,338.1 295.9,350.9 297.8,363.2 299.7,374.9 301.6,385.7
303.5,395.4 305.4,404.0 307.3,411.5 309.2,417.7 311.1,422.7 313.0,426.6 314.9,429.4 316.8,431.3 318.7,432.3 320.6,432.6 322.5,432.4 324.4,431.8 326.3,430.8 328.2,429.7 330.1,428.4 332.0,427.0
333.9,425.5 335.8,423.9 337.7,422.0 339.7,419.7 341.6,417.0 343.5,413.6 345.4,409.3 347.3,404.1 349.2,397.7 351.1,390.1 353.0,381.0 354.9,370.4 356.8,358.2 358.7,344.6 360.6,329.5 362.5,313.1
364.4,295.5 366.3,277.1 368.2,258.0 370.1,238.6 372.0,219.2 373.9,200.2 375.8,181.9 377.7,164.7 379.6,148.8 381.5,134.6 383.4,122.2 385.3,111.9 387.2,103.7 389.2,97.8 391.1,94.2 393.0,92.8
394.9,93.4 396.8,96.0 398.7,100.3 400.6,106.1 402.5,113.2 404.4,121.4 406.3,130.2 408.2,139.5 410.1,149.1 412.0,158.7 413.9,168.1 415.8,177.2 417.7,185.7 419.6,193.7 421.5,201.0 423.4,207.6
425.3,213.4 427.2,218.5 429.1,222.9 431.0,226.7 432.9,229.9 434.8,232.7 436.7,235.2 438.7,237.4 440.6,239.6 442.5,241.8 444.4,244.3 446.3,247.1 448.2,250.5 450.1,254.4 452.0,259.1 453.9,264.6
455.8,271.0 457.7,278.3 459.6,286.6 461.5,295.9 463.4,306.0 465.3,316.9 467.2,328.6 469.1,340.8 471.0,353.4 472.9,366.3 474.8,379.2 476.7,392.0 478.6,404.4 480.5,416.4 482.4,427.6 484.3,437.9
486.2,447.2 488.1,455.4 490.1,462.4 492.0,468.1 493.9,472.5 495.8,475.7 497.7,477.7 499.6,478.5 501.5,478.2 503.4,477.1 505.3,475.2 507.2,472.6 509.1,469.6 511.0,466.4 512.9,463.0 514.8,459.7
516.7,456.5 518.6,453.7 520.5,451.3 522.4,449.4 524.3,448.1 526.2,447.4 528.1,447.3 530.0,447.8 531.9,448.8 533.8,450.4 535.7,452.4 537.6,454.8 539.6,457.4 541.5,460.3 543.4,463.2 545.3,466.0
547.2,468.7 549.1,471.3 551.0,473.5 552.9,475.3 554.8,476.7 556.7,477.7 558.6,478.1 560.5,478.0 562.4,477.4 564.3,476.2 566.2,474.5 568.1,472.4 570.0,469.7 571.9,466.6 573.8,463.1 575.7,459.2
577.6,455.0 579.5,450.4 581.4,445.6 583.3,440.6 585.2,435.4 587.1,429.9 589.1,424.3 591.0,418.4 592.9,412.5 594.8,406.3 596.7,400.0 598.6,393.5 600.5,386.8 602.4,380.0 604.3,373.0 606.2,365.9
608.1,358.7 610.0,351.3 611.9,344.0 613.8,336.6 615.7,329.3 617.6,322.2 619.5,315.2 621.4,308.6 623.3,302.3 625.2,296.4 627.1,291.1 629.0,286.4 630.9,282.4 632.8,279.2 634.7,276.8 636.6,275.1
638.5,274.4 640.5,274.4 642.4,275.3 644.3,277.0 646.2,279.3 648.1,282.4 650.0,285.9 651.9,290.0 653.8,294.4 655.7,299.1 657.6,304.0 659.5,308.9 661.4,313.8 663.3,318.6 665.2,323.2 667.1,327.6
669.0,331.6 670.9,335.3 672.8,338.7 674.7,341.6 676.6,344.2 678.5,346.4 680.4,348.2 682.3,349.7 684.2,350.9 686.1,351.8 688.0,352.5 690.0,353.1 691.9,353.5 693.8,353.9 695.7,354.2 697.6,354.7
699.5,355.2 701.4,355.9 703.3,356.9 705.2,358.1 707.1,359.6 709.0,361.4 710.9,363.7 712.8,366.3 714.7,369.4 716.6,373.0 718.5,376.9 720.4,381.4 722.3,386.2 724.2,391.4 726.1,397.0 728.0,403.0
729.9,409.2 731.8,415.7 733.7,422.3 735.6,429.1 737.5,436.0 739.5,442.8 741.4,449.7 743.3,456.5 745.2,463.1 747.1,469.5 749.0,475.8 750.9,481.8 752.8,487.5 754.7,493.0 756.6,498.1 758.5,503.0
760.4,507.5 762.3,511.8 764.2,515.7 766.1,519.4 768.0,522.8 769.9,525.9 771.8,528.8 773.7,531.4 775.6,533.9 777.5,536.1 779.4,538.2 781.3,540.1 783.2,541.8 785.1,543.4 787.0,544.9 789.0,546.4
790.9,547.7 792.8,549.1 794.7,550.4 796.6,551.8 798.5,553.2 800.4,554.7 802.3,556.2 804.2,557.9 806.1,559.8 808.0,561.7 809.9,563.9 811.8,566.2 813.7,568.7 815.6,571.3 817.5,574.1 819.4,577.0
821.3,580.1 823.2,583.2 825.1,586.4 827.0,589.6 828.9,592.9 830.8,596.1 832.7,599.2 834.6,602.2 836.5,605.1 838.4,607.8 840.4,610.3 842.3,612.6 844.2,614.7 846.1,616.5 848.0,618.1 849.9,619.5
851.8,620.7 853.7,621.7 855.6,622.5 857.5,623.2 859.4,623.7 861.3,624.1 863.2,624.5 865.1,624.9 867.0,625.2 868.9,625.6 870.8,626.0 872.7,626.4 874.6,626.9 876.5,627.4 878.4,628.0 880.3,628.7
882.2,629.4 884.1,630.1 886.0,630.8 887.9,631.5 889.9,632.2 891.8,632.8 893.7,633.4 895.6,633.8 897.5,634.2 899.4,634.5 901.3,634.7 903.2,634.8 905.1,634.8 907.0,634.6 908.9,634.5 910.8,634.3
912.7,634.0 914.6,633.7 916.5,633.5 918.4,633.3 920.3,633.1 922.2,633.0 924.1,633.0 924.1,662.4 922.2,662.4 920.3,662.4 918.4,662.4 916.5,662.4 914.6,662.4 912.7,662.4 910.8,662.4 908.9,662.4
907.0,662.4 905.1,662.4 903.2,662.4 901.3,662.4 899.4,662.4 897.5,662.4 895.6,662.4 893.7,662.4 891.8,662.4 889.9,662.4 887.9,662.4 886.0,662.4 884.1,662.4 882.2,662.4 880.3,662.4 878.4,662.4
876.5,662.4 874.6,662.4 872.7,662.4 870.8,662.4 868.9,662.4 867.0,662.4 865.1,662.4 863.2,662.4 861.3,662.4 859.4,662.4 857.5,662.4 855.6,662.4 853.7,662.4 851.8,662.4 849.9,662.4 848.0,662.4
846.1,662.4 844.2,662.4 842.3,662.4 840.4,662.4 838.4,662.4 836.5,662.4 834.6,662.4 832.7,662.4 830.8,662.4 828.9,662.4 827.0,662.4 825.1,662.4 823.2,662.4 821.3,662.4 819.4,662.4 817.5,662.4
815.6,662.4 813.7,662.4 811.8,662.4 809.9,662.4 808.0,662.4 806.1,662.4 804.2,662.4 802.3,662.4 800.4,662.4 798.5,662.4 796.6,662.4 794.7,662.4 792.8,662.4 790.9,662.4 789.0,662.4 787.0,662.4
785.1,662.4 783.2,662.4 781.3,662.4 779.4,662.4 777.5,662.4 775.6,662.4 773.7,662.4 771.8,662.4 769.9,662.4 768.0,662.4 766.1,662.4 764.2,662.4 762.3,662.4 760.4,662.4 758.5,662.4 756.6,662.4
754.7,662.4 752.8,662.4 750.9,662.4 749.0,662.4 747.1,662.4 745.2,662.4 743.3,662.4 741.4,662.4 739.5,662.4 737.5,662.4 735.6,662.4 733.7,662.4 731.8,662.4 729.9,662.4 728.0,662.4 726.1,662.4
724.2,662.4 722.3,662.4 720.4,662.4 718.5,662.4 716.6,662.4 714.7,662.4 712.8,662.4 710.9,662.4 709.0,662.4 707.1,662.4 705.2,662.4 703.3,662.4 701.4,662.4 699.5,662.4 697.6,662.4 695.7,662.4
693.8,662.4 691.9,662.4 690.0,662.4 688.0,662.4 686.1,662.4 684.2,662.4 682.3,662.4 680.4,662.4 678.5,662.4 676.6,662.4 674.7,662.4 672.8,662.4 670.9,662.4 669.0,662.4 667.1,662.4 665.2,662.4
663.3,662.4 661.4,662.4 659.5,662.4 657.6,662.4 655.7,662.4 653.8,662.4 651.9,662.4 650.0,662.4 648.1,662.4 646.2,662.4 644.3,662.4 642.4,662.4 640.5,662.4 638.5,662.4 636.6,662.4 634.7,662.4
632.8,662.4 630.9,662.4 629.0,662.4 627.1,662.4 625.2,662.4 623.3,662.4 621.4,662.4 619.5,662.4 617.6,662.4 615.7,662.4 613.8,662.4 611.9,662.4 610.0,662.4 608.1,662.4 606.2,662.4 604.3,662.4
602.4,662.4 600.5,662.4 598.6,662.4 596.7,662.4 594.8,662.4 592.9,662.4 591.0,662.4 589.1,662.4 587.1,662.4 585.2,662.4 583.3,662.4 581.4,662.4 579.5,662.4 577.6,662.4 575.7,662.4 573.8,662.4
571.9,662.4 570.0,662.4 568.1,662.4 566.2,662.4 564.3,662.4 562.4,662.4 560.5,662.4 558.6,662.4 556.7,662.4 554.8,662.4 552.9,662.4 551.0,662.4 549.1,662.4 547.2,662.4 545.3,662.4 543.4,662.4
541.5,662.4 539.6,662.4 537.6,662.4 535.7,662.4 533.8,662.4 531.9,662.4 530.0,662.4 528.1,662.4 526.2,662.4 524.3,662.4 522.4,662.4 520.5,662.4 518.6,662.4 516.7,662.4 514.8,662.4 512.9,662.4
511.0,662.4 509.1,662.4 507.2,662.4 505.3,662.4 503.4,662.4 501.5,662.4 499.6,662.4 497.7,662.4 495.8,662.4 493.9,662.4 492.0,662.4 490.1,662.4 488.1,662.4 486.2,662.4 484.3,662.4 482.4,662.4
480.5,662.4 478.6,662.4 476.7,662.4 474.8,662.4 472.9,662.4 471.0,662.4 469.1,662.4 467.2,662.4 465.3,662.4 463.4,662.4 461.5,662.4 459.6,662.4 457.7,662.4 455.8,662.4 453.9,662.4 452.0,662.4
450.1,662.4 448.2,662.4 446.3,662.4 444.4,662.4 442.5,662.4 440.6,662.4 438.7,662.4 436.7,662.4 434.8,662.4 432.9,662.4 431.0,662.4 429.1,662.4 427.2,662.4 425.3,662.4 423.4,662.4 421.5,662.4
419.6,662.4 417.7,662.4 415.8,662.4 413.9,662.4 412.0,662.4 410.1,662.4 408.2,662.4 406.3,662.4 404.4,662.4 402.5,662.4 400.6,662.4 398.7,662.4 396.8,662.4 394.9,662.4 393.0,662.4 391.1,662.4
389.2,662.4 387.2,662.4 385.3,662.4 383.4,662.4 381.5,662.4 379.6,662.4 377.7,662.4 375.8,662.4 373.9,662.4 372.0,662.4 370.1,662.4 368.2,662.4 366.3,662.4 364.4,662.4 362.5,662.4 360.6,662.4
358.7,662.4 356.8,662.4 354.9,662.4 353.0,662.4 351.1,662.4 349.2,662.4 347.3,662.4 345.4,662.4 343.5,662.4 341.6,662.4 339.7,662.4 337.7,662.4 335.8,662.4 333.9,662.4 332.0,662.4 330.1,662.4
328.2,662.4 326.3,662.4 324.4,662.4 322.5,662.4 320.6,662.4 318.7,662.4 316.8,662.4 314.9,662.4 313.0,662.4 311.1,662.4 309.2,662.4 307.3,662.4 305.4,662.4 303.5,662.4 301.6,662.4 299.7,662.4
297.8,662.4 295.9,662.4 294.0,662.4 292.1,662.4 290.2,662.4 288.2,662.4 286.3,662.4 284.4,662.4 282.5,662.4 280.6,662.4 278.7,662.4 276.8,662.4 274.9,662.4 273.0,662.4 271.1,662.4 269.2,662.4
267.3,662.4 265.4,662.4 263.5,662.4 261.6,662.4 259.7,662.4 257.8,662.4 255.9,662.4 254.0,662.4 252.1,662.4 250.2,662.4 248.3,662.4 246.4,662.4 244.5,662.4 242.6,662.4 240.7,662.4 238.8,662.4
236.8,662.4 234.9,662.4 233.0,662.4 231.1,662.4 229.2,662.4 227.3,662.4 225.4,662.4 223.5,662.4 221.6,662.4 219.7,662.4 217.8,662.4 215.9,662.4 214.0,662.4 212.1,662.4 210.2,662.4 208.3,662.4
206.4,662.4 204.5,662.4 202.6,662.4 200.7,662.4 198.8,662.4 196.9,662.4 195.0,662.4 193.1,662.4 191.2,662.4 189.3,662.4 187.3,662.4 185.4,662.4 183.5,662.4 181.6,662.4 179.7,662.4 177.8,662.4
175.9,662.4 174.0,662.4 172.1,662.4 170.2,662.4 168.3,662.4 166.4,662.4 164.5,662.4 162.6,662.4 160.7,662.4 158.8,662.4 156.9,662.4 155.0,662.4 153.1,662.4 151.2,662.4 '/>
	</g>
</g>
	</g>
	<g id="gnuplot_plot_3" ><title>Point estimate</title>
<g fill="none" color="white" stroke="rgb( 31, 120, 180)" stroke-width="2.00" stroke-linecap="butt" stroke-linejoin="miter">
</g>
<g fill="none" color="black" stroke="currentColor" stroke-width="2.00" stroke-linecap="butt" stroke-linejoin="miter">
	<g transform="translate(1089.0,103.0)" stroke="none" fill="black" font-family="Helvetica" font-size="12.00"  text-anchor="start">
		<text><tspan font-family="Helvetica" >Point estimate</tspan></text>
	</g>
</g>
<g fill="none" color="black" stroke="currentColor" stroke-width="2.00" stroke-linecap="butt" stroke-linejoin="miter">
	<path stroke='rgb( 31, 120, 180)'  d='M1038.5,99.1 L1080.7,99.1 M458.2,662.4 L458.2,280.6  '/></g>
	</g>
<g fill="none" color="black" stroke="currentColor" stroke-width="2.00" stroke-linecap="butt" stroke-linejoin="miter">
</g>
<g fill="none" color="black" stroke="black" stroke-width="1.00" stroke-linecap="butt" stroke-linejoin="miter">
</g>
<g fill="none" color="black" stroke="currentColor" stroke-width="1.00" stroke-linecap="butt" stroke-linejoin="miter">
	<path stroke='black'  d='M63.6,54.1 L63.6,662.4 L1013.6,662.4 L1013.6,54.1 L63.6,54.1 Z  '/></g>
<g fill="none" color="black" stroke="currentColor" stroke-width="1.00" stroke-linecap="butt" stroke-linejoin="miter">
</g>
</g>
</svg>

