<?xml version="1.0" encoding="utf-8"  standalone="no"?>
<svg 
 viewBox="0 0 450 300"
 xmlns="http://www.w3.org/2000/svg"
 xmlns:xlink="http://www.w3.org/1999/xlink"
>

<title>Gnuplot</title>
<desc>Produced by GNUPLOT 5.2 patchlevel 6 </desc>

<g id="gnuplot_canvas">

<rect x="0" y="0" width="450" height="300" fill="none"/>
<defs>

	<circle id='gpDot' r='0.5' stroke-width='0.5' stroke='currentColor'/>
	<path id='gpPt0' stroke-width='0.222' stroke='currentColor' d='M-1,0 h2 M0,-1 v2'/>
	<path id='gpPt1' stroke-width='0.222' stroke='currentColor' d='M-1,-1 L1,1 M1,-1 L-1,1'/>
	<path id='gpPt2' stroke-width='0.222' stroke='currentColor' d='M-1,0 L1,0 M0,-1 L0,1 M-1,-1 L1,1 M-1,1 L1,-1'/>
	<rect id='gpPt3' stroke-width='0.222' stroke='currentColor' x='-1' y='-1' width='2' height='2'/>
	<rect id='gpPt4' stroke-width='0.222' stroke='currentColor' fill='currentColor' x='-1' y='-1' width='2' height='2'/>
	<circle id='gpPt5' stroke-width='0.222' stroke='currentColor' cx='0' cy='0' r='1'/>
	<use xlink:href='#gpPt5' id='gpPt6' fill='currentColor' stroke='none'/>
	<path id='gpPt7' stroke-width='0.222' stroke='currentColor' d='M0,-1.33 L-1.33,0.67 L1.33,0.67 z'/>
	<use xlink:href='#gpPt7' id='gpPt8' fill='currentColor' stroke='none'/>
	<use xlink:href='#gpPt7' id='gpPt9' stroke='currentColor' transform='rotate(180)'/>
	<use xlink:href='#gpPt9' id='gpPt10' fill='currentColor' stroke='none'/>
	<use xlink:href='#gpPt3' id='gpPt11' stroke='currentColor' transform='rotate(45)'/>
	<use xlink:href='#gpPt11' id='gpPt12' fill='currentColor' stroke='none'/>
	<path id='gpPt13' stroke-width='0.222' stroke='currentColor' d='M0,1.330 L1.265,0.411 L0.782,-1.067 L-0.782,-1.076 L-1.265,0.411 z'/>
	<use xlink:href='#gpPt13' id='gpPt14' fill='currentColor' stroke='none'/>
	<filter id='textbox' filterUnits='objectBoundingBox' x='0' y='0' height='1' width='1'>
	  <feFlood flood-color='white' flood-opacity='1' result='bgnd'/>
	  <feComposite in='SourceGraphic' in2='bgnd' operator='atop'/>
	</filter>
	<filter id='greybox' filterUnits='objectBoundingBox' x='0' y='0' height='1' width='1'>
	  <feFlood flood-color='lightgrey' flood-opacity='1' result='grey'/>
	  <feComposite in='SourceGraphic' in2='grey' operator='atop'/>
	</filter>
</defs>
<g fill="none" color="white" stroke="currentColor" stroke-width="1.00" stroke-linecap="butt" stroke-linejoin="miter">
</g>
<g fill="none" color="black" stroke="currentColor" stroke-width="1.00" stroke-linecap="butt" stroke-linejoin="miter">
	<path stroke='black'  d='M80.2,242.4 L89.2,242.4  '/>	<g transform="translate(71.9,246.3)" stroke="none" fill="black" font-family="Helvetica" font-size="12.00"  text-anchor="end">
		<text><tspan font-family="Helvetica" > 0</tspan></text>
	</g>
</g>
<g fill="none" color="black" stroke="currentColor" stroke-width="1.00" stroke-linecap="butt" stroke-linejoin="miter">
	<path stroke='black'  d='M80.2,198.2 L89.2,198.2  '/>	<g transform="translate(71.9,202.1)" stroke="none" fill="black" font-family="Helvetica" font-size="12.00"  text-anchor="end">
		<text><tspan font-family="Helvetica" > 0.05</tspan></text>
	</g>
</g>
<g fill="none" color="black" stroke="currentColor" stroke-width="1.00" stroke-linecap="butt" stroke-linejoin="miter">
	<path stroke='black'  d='M80.2,154.1 L89.2,154.1  '/>	<g transform="translate(71.9,158.0)" stroke="none" fill="black" font-family="Helvetica" font-size="12.00"  text-anchor="end">
		<text><tspan font-family="Helvetica" > 0.1</tspan></text>
	</g>
</g>
<g fill="none" color="black" stroke="currentColor" stroke-width="1.00" stroke-linecap="butt" stroke-linejoin="miter">
	<path stroke='black'  d='M80.2,109.9 L89.2,109.9  '/>	<g transform="translate(71.9,113.8)" stroke="none" fill="black" font-family="Helvetica" font-size="12.00"  text-anchor="end">
		<text><tspan font-family="Helvetica" > 0.15</tspan></text>
	</g>
</g>
<g fill="none" color="black" stroke="currentColor" stroke-width="1.00" stroke-linecap="butt" stroke-linejoin="miter">
	<path stroke='black'  d='M80.2,65.7 L89.2,65.7  '/>	<g transform="translate(71.9,69.6)" stroke="none" fill="black" font-family="Helvetica" font-size="12.00"  text-anchor="end">
		<text><tspan font-family="Helvetica" > 0.2</tspan></text>
	</g>
</g>
<g fill="none" color="black" stroke="currentColor" stroke-width="1.00" stroke-linecap="butt" stroke-linejoin="miter">
	<path stroke='black'  d='M80.2,21.6 L89.2,21.6  '/>	<g transform="translate(71.9,25.5)" stroke="none" fill="black" font-family="Helvetica" font-size="12.00"  text-anchor="end">
		<text><tspan font-family="Helvetica" > 0.25</tspan></text>
	</g>
</g>
<g fill="none" color="black" stroke="currentColor" stroke-width="1.00" stroke-linecap="butt" stroke-linejoin="miter">
	<path stroke='black'  d='M115.2,242.4 L115.2,233.4  '/>	<g transform="translate(115.2,264.3)" stroke="none" fill="black" font-family="Helvetica" font-size="12.00"  text-anchor="middle">
		<text><tspan font-family="Helvetica" > 300</tspan></text>
	</g>
</g>
<g fill="none" color="black" stroke="currentColor" stroke-width="1.00" stroke-linecap="butt" stroke-linejoin="miter">
	<path stroke='black'  d='M160.4,242.4 L160.4,233.4  '/>	<g transform="translate(160.4,264.3)" stroke="none" fill="black" font-family="Helvetica" font-size="12.00"  text-anchor="middle">
		<text><tspan font-family="Helvetica" > 305</tspan></text>
	</g>
</g>
<g fill="none" color="black" stroke="currentColor" stroke-width="1.00" stroke-linecap="butt" stroke-linejoin="miter">
	<path stroke='black'  d='M205.5,242.4 L205.5,233.4  '/>	<g transform="translate(205.5,264.3)" stroke="none" fill="black" font-family="Helvetica" font-size="12.00"  text-anchor="middle">
		<text><tspan font-family="Helvetica" > 310</tspan></text>
	</g>
</g>
<g fill="none" color="black" stroke="currentColor" stroke-width="1.00" stroke-linecap="butt" stroke-linejoin="miter">
	<path stroke='black'  d='M250.6,242.4 L250.6,233.4  '/>	<g transform="translate(250.6,264.3)" stroke="none" fill="black" font-family="Helvetica" font-size="12.00"  text-anchor="middle">
		<text><tspan font-family="Helvetica" > 315</tspan></text>
	</g>
</g>
<g fill="none" color="black" stroke="currentColor" stroke-width="1.00" stroke-linecap="butt" stroke-linejoin="miter">
	<path stroke='black'  d='M295.8,242.4 L295.8,233.4  '/>	<g transform="translate(295.8,264.3)" stroke="none" fill="black" font-family="Helvetica" font-size="12.00"  text-anchor="middle">
		<text><tspan font-family="Helvetica" > 320</tspan></text>
	</g>
</g>
<g fill="none" color="black" stroke="currentColor" stroke-width="1.00" stroke-linecap="butt" stroke-linejoin="miter">
	<path stroke='black'  d='M340.9,242.4 L340.9,233.4  '/>	<g transform="translate(340.9,264.3)" stroke="none" fill="black" font-family="Helvetica" font-size="12.00"  text-anchor="middle">
		<text><tspan font-family="Helvetica" > 325</tspan></text>
	</g>
</g>
<g fill="none" color="black" stroke="currentColor" stroke-width="1.00" stroke-linecap="butt" stroke-linejoin="miter">
	<path stroke='black'  d='M386.1,242.4 L386.1,233.4  '/>	<g transform="translate(386.1,264.3)" stroke="none" fill="black" font-family="Helvetica" font-size="12.00"  text-anchor="middle">
		<text><tspan font-family="Helvetica" > 330</tspan></text>
	</g>
</g>
<g fill="none" color="black" stroke="currentColor" stroke-width="1.00" stroke-linecap="butt" stroke-linejoin="miter">
</g>
<g fill="none" color="black" stroke="currentColor" stroke-width="1.00" stroke-linecap="butt" stroke-linejoin="miter">
	<path stroke='black'  d='M80.2,18.1 L80.2,242.4 L425.0,242.4 L425.0,18.1 L80.2,18.1 Z  '/></g>
<g fill="none" color="black" stroke="currentColor" stroke-width="1.00" stroke-linecap="butt" stroke-linejoin="miter">
	<g transform="translate(16.3,130.3) rotate(270)" stroke="none" fill="black" font-family="Helvetica" font-size="12.00"  text-anchor="middle">
		<text><tspan font-family="Helvetica" >Density (a.u.)</tspan></text>
	</g>
</g>
<g fill="none" color="black" stroke="currentColor" stroke-width="1.00" stroke-linecap="butt" stroke-linejoin="miter">
	<g transform="translate(252.6,291.3)" stroke="none" fill="black" font-family="Helvetica" font-size="12.00"  text-anchor="middle">
		<text><tspan font-family="Helvetica" >Average time (us)</tspan></text>
	</g>
</g>
<g fill="none" color="black" stroke="currentColor" stroke-width="1.00" stroke-linecap="butt" stroke-linejoin="miter">
</g>
	<g id="gnuplot_plot_1" ><title>PDF</title>
<g fill="none" color="black" stroke="currentColor" stroke-width="1.00" stroke-linecap="butt" stroke-linejoin="miter">
	<g stroke='none' shape-rendering='crispEdges'>
		<polygon fill = 'rgb( 31, 120, 180)' fill-opacity = '0.250000' points = '80.2,241.3 80.9,241.2 81.6,240.9 82.3,240.7 83.0,240.4 83.7,240.1 84.3,239.8 85.0,239.4 85.7,238.9 86.4,238.4 87.1,237.8 87.8,237.2 88.5,236.5 89.2,235.7 89.9,234.8 90.6,233.8
91.3,232.7 91.9,231.4 92.6,230.1 93.3,228.6 94.0,226.9 94.7,225.2 95.4,223.2 96.1,221.1 96.8,218.8 97.5,216.3 98.2,213.6 98.9,210.7 99.5,207.6 100.2,204.3 100.9,200.8 101.6,197.0
102.3,193.1 103.0,188.9 103.7,184.4 104.4,179.8 105.1,174.9 105.8,169.8 106.5,164.5 107.1,159.0 107.8,153.4 108.5,147.5 109.2,141.5 109.9,135.4 110.6,129.2 111.3,122.8 112.0,116.4 112.7,110.0
113.4,103.5 114.1,97.1 114.7,90.7 115.4,84.4 116.1,78.2 116.8,72.1 117.5,66.2 118.2,60.5 118.9,55.1 119.6,49.9 120.3,45.0 121.0,40.5 121.7,36.3 122.3,32.5 123.0,29.1 123.7,26.1
124.4,23.6 125.1,21.5 125.8,19.9 126.5,18.8 127.2,18.2 127.9,18.1 128.6,18.5 129.3,19.3 130.0,20.7 130.6,22.5 131.3,24.7 132.0,27.5 132.7,30.6 133.4,34.1 134.1,38.0 134.8,42.3
135.5,46.9 136.2,51.8 136.9,57.0 137.6,62.4 138.2,68.0 138.9,73.8 139.6,79.7 140.3,85.7 141.0,91.9 141.7,98.0 142.4,104.2 143.1,110.4 143.8,116.6 144.5,122.7 145.2,128.7 145.8,134.6
146.5,140.5 147.2,146.1 147.9,151.7 148.6,157.0 149.3,162.2 150.0,167.2 150.7,172.0 151.4,176.6 152.1,181.0 152.8,185.2 153.4,189.2 154.1,192.9 154.8,196.5 155.5,199.9 156.2,203.0 156.9,206.0
157.6,208.8 158.3,211.3 159.0,213.8 159.7,216.0 160.4,218.1 161.0,220.0 161.7,221.8 162.4,223.4 163.1,224.9 163.8,226.3 164.5,227.5 165.2,228.7 165.9,229.7 166.6,230.7 167.3,231.6 168.0,232.4
168.6,233.1 169.3,233.7 170.0,234.3 170.7,234.8 171.4,235.3 172.1,235.7 172.8,236.1 173.5,236.4 174.2,236.7 174.9,237.0 175.6,237.3 176.2,237.5 176.9,237.7 177.6,237.8 178.3,238.0 179.0,238.1
179.7,238.2 180.4,238.3 181.1,238.4 181.8,238.5 182.5,238.5 183.2,238.6 183.8,238.6 184.5,238.6 185.2,238.7 185.9,238.7 186.6,238.7 187.3,238.7 188.0,238.7 188.7,238.7 189.4,238.7 190.1,238.7
190.8,238.7 191.4,238.7 192.1,238.6 192.8,238.6 193.5,238.6 194.2,238.6 194.9,238.6 195.6,238.6 196.3,238.5 197.0,238.5 197.7,238.5 198.4,238.5 199.0,238.5 199.7,238.5 200.4,238.4 201.1,238.4
201.8,238.4 202.5,238.4 203.2,238.4 203.9,238.4 204.6,238.4 205.3,238.4 206.0,238.4 206.6,238.5 207.3,238.5 208.0,238.5 208.7,238.5 209.4,238.5 210.1,238.6 210.8,238.6 211.5,238.6 212.2,238.7
212.9,238.7 213.6,238.8 214.3,238.8 214.9,238.9 215.6,239.0 216.3,239.0 217.0,239.1 217.7,239.2 218.4,239.2 219.1,239.3 219.8,239.4 220.5,239.5 221.2,239.6 221.9,239.6 222.5,239.7 223.2,239.8
223.9,239.9 224.6,240.0 225.3,240.1 226.0,240.2 226.7,240.3 227.4,240.4 228.1,240.5 228.8,240.6 229.5,240.7 230.1,240.7 230.8,240.8 231.5,240.9 232.2,241.0 232.9,241.1 233.6,241.2 234.3,241.2
235.0,241.3 235.7,241.4 236.4,241.5 237.1,241.5 237.7,241.6 238.4,241.7 239.1,241.7 239.8,241.8 240.5,241.8 241.2,241.9 241.9,241.9 242.6,242.0 243.3,242.0 244.0,242.0 244.7,242.1 245.3,242.1
246.0,242.1 246.7,242.2 247.4,242.2 248.1,242.2 248.8,242.2 249.5,242.2 250.2,242.3 250.9,242.3 251.6,242.3 252.3,242.3 252.9,242.3 253.6,242.3 254.3,242.3 255.0,242.3 255.7,242.3 256.4,242.4
257.1,242.4 257.8,242.4 258.5,242.4 259.2,242.4 259.9,242.4 260.5,242.4 261.2,242.4 261.9,242.4 262.6,242.4 263.3,242.4 264.0,242.4 264.7,242.4 265.4,242.4 266.1,242.4 266.8,242.4 267.5,242.4
268.1,242.4 268.8,242.4 269.5,242.4 270.2,242.4 270.9,242.4 271.6,242.4 272.3,242.4 273.0,242.4 273.7,242.4 274.4,242.4 275.1,242.4 275.7,242.4 276.4,242.4 277.1,242.4 277.8,242.4 278.5,242.3
279.2,242.3 279.9,242.3 280.6,242.3 281.3,242.3 282.0,242.3 282.7,242.3 283.3,242.3 284.0,242.3 284.7,242.2 285.4,242.2 286.1,242.2 286.8,242.2 287.5,242.2 288.2,242.1 288.9,242.1 289.6,242.1
290.3,242.0 290.9,242.0 291.6,242.0 292.3,241.9 293.0,241.9 293.7,241.8 294.4,241.8 295.1,241.7 295.8,241.7 296.5,241.6 297.2,241.6 297.9,241.5 298.6,241.4 299.2,241.4 299.9,241.3 300.6,241.2
301.3,241.2 302.0,241.1 302.7,241.0 303.4,240.9 304.1,240.9 304.8,240.8 305.5,240.7 306.2,240.7 306.8,240.6 307.5,240.5 308.2,240.5 308.9,240.4 309.6,240.3 310.3,240.3 311.0,240.2 311.7,240.2
312.4,240.1 313.1,240.1 313.8,240.0 314.4,240.0 315.1,240.0 315.8,240.0 316.5,240.0 317.2,239.9 317.9,239.9 318.6,239.9 319.3,239.9 320.0,240.0 320.7,240.0 321.4,240.0 322.0,240.0 322.7,240.1
323.4,240.1 324.1,240.2 324.8,240.2 325.5,240.3 326.2,240.3 326.9,240.4 327.6,240.4 328.3,240.5 329.0,240.6 329.6,240.6 330.3,240.7 331.0,240.8 331.7,240.9 332.4,240.9 333.1,241.0 333.8,241.1
334.5,241.1 335.2,241.2 335.9,241.3 336.6,241.3 337.2,241.4 337.9,241.5 338.6,241.5 339.3,241.6 340.0,241.6 340.7,241.7 341.4,241.7 342.1,241.8 342.8,241.8 343.5,241.8 344.2,241.9 344.8,241.9
345.5,241.9 346.2,242.0 346.9,242.0 347.6,242.0 348.3,242.0 349.0,242.0 349.7,242.0 350.4,242.0 351.1,242.0 351.8,242.0 352.4,242.0 353.1,242.0 353.8,242.0 354.5,241.9 355.2,241.9 355.9,241.9
356.6,241.9 357.3,241.8 358.0,241.8 358.7,241.7 359.4,241.7 360.0,241.6 360.7,241.6 361.4,241.5 362.1,241.5 362.8,241.4 363.5,241.4 364.2,241.3 364.9,241.2 365.6,241.2 366.3,241.1 367.0,241.0
367.6,241.0 368.3,240.9 369.0,240.8 369.7,240.7 370.4,240.7 371.1,240.6 371.8,240.5 372.5,240.5 373.2,240.4 373.9,240.3 374.6,240.3 375.2,240.2 375.9,240.2 376.6,240.1 377.3,240.1 378.0,240.0
378.7,240.0 379.4,240.0 380.1,240.0 380.8,240.0 381.5,239.9 382.2,239.9 382.9,239.9 383.5,239.9 384.2,240.0 384.9,240.0 385.6,240.0 386.3,240.0 387.0,240.1 387.7,240.1 388.4,240.2 389.1,240.2
389.8,240.3 390.5,240.3 391.1,240.4 391.8,240.4 392.5,240.5 393.2,240.6 393.9,240.6 394.6,240.7 395.3,240.8 396.0,240.8 396.7,240.9 397.4,241.0 398.1,241.1 398.7,241.1 399.4,241.2 400.1,241.3
400.8,241.3 401.5,241.4 402.2,241.5 402.9,241.5 403.6,241.6 404.3,241.7 405.0,241.7 405.7,241.8 406.3,241.8 407.0,241.9 407.7,241.9 408.4,241.9 409.1,242.0 409.8,242.0 410.5,242.1 411.2,242.1
411.9,242.1 412.6,242.1 413.3,242.2 413.9,242.2 414.6,242.2 415.3,242.2 416.0,242.3 416.7,242.3 417.4,242.3 418.1,242.3 418.8,242.3 419.5,242.3 420.2,242.3 420.9,242.3 421.5,242.3 422.2,242.4
422.9,242.4 423.6,242.4 424.3,242.4 425.0,242.4 425.0,242.4 424.3,242.4 423.6,242.4 422.9,242.4 422.2,242.4 421.5,242.4 420.9,242.4 420.2,242.4 419.5,242.4 418.8,242.4 418.1,242.4 417.4,242.4
416.7,242.4 416.0,242.4 415.3,242.4 414.6,242.4 413.9,242.4 413.3,242.4 412.6,242.4 411.9,242.4 411.2,242.4 410.5,242.4 409.8,242.4 409.1,242.4 408.4,242.4 407.7,242.4 407.0,242.4 406.3,242.4
405.7,242.4 405.0,242.4 404.3,242.4 403.6,242.4 402.9,242.4 402.2,242.4 401.5,242.4 400.8,242.4 400.1,242.4 399.4,242.4 398.7,242.4 398.1,242.4 397.4,242.4 396.7,242.4 396.0,242.4 395.3,242.4
394.6,242.4 393.9,242.4 393.2,242.4 392.5,242.4 391.8,242.4 391.1,242.4 390.5,242.4 389.8,242.4 389.1,242.4 388.4,242.4 387.7,242.4 387.0,242.4 386.3,242.4 385.6,242.4 384.9,242.4 384.2,242.4
383.5,242.4 382.9,242.4 382.2,242.4 381.5,242.4 380.8,242.4 380.1,242.4 379.4,242.4 378.7,242.4 378.0,242.4 377.3,242.4 376.6,242.4 375.9,242.4 375.2,242.4 374.6,242.4 373.9,242.4 373.2,242.4
372.5,242.4 371.8,242.4 371.1,242.4 370.4,242.4 369.7,242.4 369.0,242.4 368.3,242.4 367.6,242.4 367.0,242.4 366.3,242.4 365.6,242.4 364.9,242.4 364.2,242.4 363.5,242.4 362.8,242.4 362.1,242.4
361.4,242.4 360.7,242.4 360.0,242.4 359.4,242.4 358.7,242.4 358.0,242.4 357.3,242.4 356.6,242.4 355.9,242.4 355.2,242.4 354.5,242.4 353.8,242.4 353.1,242.4 352.4,242.4 351.8,242.4 351.1,242.4
350.4,242.4 349.7,242.4 349.0,242.4 348.3,242.4 347.6,242.4 346.9,242.4 346.2,242.4 345.5,242.4 344.8,242.4 344.2,242.4 343.5,242.4 342.8,242.4 342.1,242.4 341.4,242.4 340.7,242.4 340.0,242.4
339.3,242.4 338.6,242.4 337.9,242.4 337.2,242.4 336.6,242.4 335.9,242.4 335.2,242.4 334.5,242.4 333.8,242.4 333.1,242.4 332.4,242.4 331.7,242.4 331.0,242.4 330.3,242.4 329.6,242.4 329.0,242.4
328.3,242.4 327.6,242.4 326.9,242.4 326.2,242.4 325.5,242.4 324.8,242.4 324.1,242.4 323.4,242.4 322.7,242.4 322.0,242.4 321.4,242.4 320.7,242.4 320.0,242.4 319.3,242.4 318.6,242.4 317.9,242.4
317.2,242.4 316.5,242.4 315.8,242.4 315.1,242.4 314.4,242.4 313.8,242.4 313.1,242.4 312.4,242.4 311.7,242.4 311.0,242.4 310.3,242.4 309.6,242.4 308.9,242.4 308.2,242.4 307.5,242.4 306.8,242.4
306.2,242.4 305.5,242.4 304.8,242.4 304.1,242.4 303.4,242.4 302.7,242.4 302.0,242.4 301.3,242.4 300.6,242.4 299.9,242.4 299.2,242.4 298.6,242.4 297.9,242.4 297.2,242.4 296.5,242.4 295.8,242.4
295.1,242.4 294.4,242.4 293.7,242.4 293.0,242.4 292.3,242.4 291.6,242.4 290.9,242.4 290.3,242.4 289.6,242.4 288.9,242.4 288.2,242.4 287.5,242.4 286.8,242.4 286.1,242.4 285.4,242.4 284.7,242.4
284.0,242.4 283.3,242.4 282.7,242.4 282.0,242.4 281.3,242.4 280.6,242.4 279.9,242.4 279.2,242.4 278.5,242.4 277.8,242.4 277.1,242.4 276.4,242.4 275.7,242.4 275.1,242.4 274.4,242.4 273.7,242.4
273.0,242.4 272.3,242.4 271.6,242.4 270.9,242.4 270.2,242.4 269.5,242.4 268.8,242.4 268.1,242.4 267.5,242.4 266.8,242.4 266.1,242.4 265.4,242.4 264.7,242.4 264.0,242.4 263.3,242.4 262.6,242.4
261.9,242.4 261.2,242.4 260.5,242.4 259.9,242.4 259.2,242.4 258.5,242.4 257.8,242.4 257.1,242.4 256.4,242.4 255.7,242.4 255.0,242.4 254.3,242.4 253.6,242.4 252.9,242.4 252.3,242.4 251.6,242.4
250.9,242.4 250.2,242.4 249.5,242.4 248.8,242.4 248.1,242.4 247.4,242.4 246.7,242.4 246.0,242.4 245.3,242.4 244.7,242.4 244.0,242.4 243.3,242.4 242.6,242.4 241.9,242.4 241.2,242.4 240.5,242.4
239.8,242.4 239.1,242.4 238.4,242.4 237.7,242.4 237.1,242.4 236.4,242.4 235.7,242.4 235.0,242.4 234.3,242.4 233.6,242.4 232.9,242.4 232.2,242.4 231.5,242.4 230.8,242.4 230.1,242.4 229.5,242.4
228.8,242.4 228.1,242.4 227.4,242.4 226.7,242.4 226.0,242.4 225.3,242.4 224.6,242.4 223.9,242.4 223.2,242.4 222.5,242.4 221.9,242.4 221.2,242.4 220.5,242.4 219.8,242.4 219.1,242.4 218.4,242.4
217.7,242.4 217.0,242.4 216.3,242.4 215.6,242.4 214.9,242.4 214.3,242.4 213.6,242.4 212.9,242.4 212.2,242.4 211.5,242.4 210.8,242.4 210.1,242.4 209.4,242.4 208.7,242.4 208.0,242.4 207.3,242.4
206.6,242.4 206.0,242.4 205.3,242.4 204.6,242.4 203.9,242.4 203.2,242.4 202.5,242.4 201.8,242.4 201.1,242.4 200.4,242.4 199.7,242.4 199.0,242.4 198.4,242.4 197.7,242.4 197.0,242.4 196.3,242.4
195.6,242.4 194.9,242.4 194.2,242.4 193.5,242.4 192.8,242.4 192.1,242.4 191.4,242.4 190.8,242.4 190.1,242.4 189.4,242.4 188.7,242.4 188.0,242.4 187.3,242.4 186.6,242.4 185.9,242.4 185.2,242.4
184.5,242.4 183.8,242.4 183.2,242.4 182.5,242.4 181.8,242.4 181.1,242.4 180.4,242.4 179.7,242.4 179.0,242.4 178.3,242.4 177.6,242.4 176.9,242.4 176.2,242.4 175.6,242.4 174.9,242.4 174.2,242.4
173.5,242.4 172.8,242.4 172.1,242.4 171.4,242.4 170.7,242.4 170.0,242.4 169.3,242.4 168.6,242.4 168.0,242.4 167.3,242.4 166.6,242.4 165.9,242.4 165.2,242.4 164.5,242.4 163.8,242.4 163.1,242.4
162.4,242.4 161.7,242.4 161.0,242.4 160.4,242.4 159.7,242.4 159.0,242.4 158.3,242.4 157.6,242.4 156.9,242.4 156.2,242.4 155.5,242.4 154.8,242.4 154.1,242.4 153.4,242.4 152.8,242.4 152.1,242.4
151.4,242.4 150.7,242.4 150.0,242.4 149.3,242.4 148.6,242.4 147.9,242.4 147.2,242.4 146.5,242.4 145.8,242.4 145.2,242.4 144.5,242.4 143.8,242.4 143.1,242.4 142.4,242.4 141.7,242.4 141.0,242.4
140.3,242.4 139.6,242.4 138.9,242.4 138.2,242.4 137.6,242.4 136.9,242.4 136.2,242.4 135.5,242.4 134.8,242.4 134.1,242.4 133.4,242.4 132.7,242.4 132.0,242.4 131.3,242.4 130.6,242.4 130.0,242.4
129.3,242.4 128.6,242.4 127.9,242.4 127.2,242.4 126.5,242.4 125.8,242.4 125.1,242.4 124.4,242.4 123.7,242.4 123.0,242.4 122.3,242.4 121.7,242.4 121.0,242.4 120.3,242.4 119.6,242.4 118.9,242.4
118.2,242.4 117.5,242.4 116.8,242.4 116.1,242.4 115.4,242.4 114.7,242.4 114.1,242.4 113.4,242.4 112.7,242.4 112.0,242.4 111.3,242.4 110.6,242.4 109.9,242.4 109.2,242.4 108.5,242.4 107.8,242.4
107.1,242.4 106.5,242.4 105.8,242.4 105.1,242.4 104.4,242.4 103.7,242.4 103.0,242.4 102.3,242.4 101.6,242.4 100.9,242.4 100.2,242.4 99.5,242.4 98.9,242.4 98.2,242.4 97.5,242.4 96.8,242.4
96.1,242.4 95.4,242.4 94.7,242.4 94.0,242.4 93.3,242.4 92.6,242.4 91.9,242.4 91.3,242.4 90.6,242.4 89.9,242.4 89.2,242.4 88.5,242.4 87.8,242.4 87.1,242.4 86.4,242.4 85.7,242.4
85.0,242.4 84.3,242.4 83.7,242.4 83.0,242.4 82.3,242.4 81.6,242.4 80.9,242.4 80.2,242.4 '/>
	</g>
</g>
	</g>
	<g id="gnuplot_plot_2" ><title>Mean</title>
<g fill="none" color="white" stroke="rgb( 31, 120, 180)" stroke-width="2.00" stroke-linecap="butt" stroke-linejoin="miter">
</g>
<g fill="none" color="black" stroke="currentColor" stroke-width="2.00" stroke-linecap="butt" stroke-linejoin="miter">
	<path stroke='rgb( 31, 120, 180)'  d='M134.6,242.4 L134.6,59.2  '/></g>
	</g>
<g fill="none" color="black" stroke="currentColor" stroke-width="2.00" stroke-linecap="butt" stroke-linejoin="miter">
</g>
<g fill="none" color="black" stroke="black" stroke-width="1.00" stroke-linecap="butt" stroke-linejoin="miter">
</g>
<g fill="none" color="black" stroke="currentColor" stroke-width="1.00" stroke-linecap="butt" stroke-linejoin="miter">
	<path stroke='black'  d='M80.2,18.1 L80.2,242.4 L425.0,242.4 L425.0,18.1 L80.2,18.1 Z  '/></g>
<g fill="none" color="black" stroke="currentColor" stroke-width="1.00" stroke-linecap="butt" stroke-linejoin="miter">
</g>
</g>
</svg>

