group,function,value,throughput_num,throughput_type,sample_measured_value,unit,iteration_count
snapshot_restore_with_dense,Sparse: Dirty pages + /proc/pid/mem,1000,,,3901630.0,ns,1
snapshot_restore_with_dense,Sparse: Dirty pages + /proc/pid/mem,1000,,,8259862.0,ns,2
snapshot_restore_with_dense,Sparse: Dirty pages + /proc/pid/mem,1000,,,11559000.0,ns,3
snapshot_restore_with_dense,Sparse: Dirty pages + /proc/pid/mem,1000,,,16601658.0,ns,4
snapshot_restore_with_dense,Sparse: Dirty pages + /proc/pid/mem,1000,,,19489030.0,ns,5
snapshot_restore_with_dense,Sparse: Dirty pages + /proc/pid/mem,1000,,,22942216.0,ns,6
snapshot_restore_with_dense,Sparse: Dirty pages + /proc/pid/mem,1000,,,26854180.0,ns,7
snapshot_restore_with_dense,Sparse: Dirty pages + /proc/pid/mem,1000,,,30631423.0,ns,8
snapshot_restore_with_dense,Sparse: Dirty pages + /proc/pid/mem,1000,,,34544298.0,ns,9
snapshot_restore_with_dense,Sparse: Dirty pages + /proc/pid/mem,1000,,,38279190.0,ns,10
snapshot_restore_with_dense,Sparse: Dirty pages + /proc/pid/mem,1000,,,41931594.0,ns,11
snapshot_restore_with_dense,Sparse: Dirty pages + /proc/pid/mem,1000,,,45934191.0,ns,12
snapshot_restore_with_dense,Sparse: Dirty pages + /proc/pid/mem,1000,,,50806551.0,ns,13
snapshot_restore_with_dense,Sparse: Dirty pages + /proc/pid/mem,1000,,,53628230.0,ns,14
snapshot_restore_with_dense,Sparse: Dirty pages + /proc/pid/mem,1000,,,57264979.0,ns,15
snapshot_restore_with_dense,Sparse: Dirty pages + /proc/pid/mem,1000,,,61116229.0,ns,16
snapshot_restore_with_dense,Sparse: Dirty pages + /proc/pid/mem,1000,,,64924329.0,ns,17
snapshot_restore_with_dense,Sparse: Dirty pages + /proc/pid/mem,1000,,,68759835.0,ns,18
snapshot_restore_with_dense,Sparse: Dirty pages + /proc/pid/mem,1000,,,72608737.0,ns,19
snapshot_restore_with_dense,Sparse: Dirty pages + /proc/pid/mem,1000,,,76347937.0,ns,20
snapshot_restore_with_dense,Sparse: Dirty pages + /proc/pid/mem,1000,,,80279720.0,ns,21
snapshot_restore_with_dense,Sparse: Dirty pages + /proc/pid/mem,1000,,,84483356.0,ns,22
snapshot_restore_with_dense,Sparse: Dirty pages + /proc/pid/mem,1000,,,87939937.0,ns,23
snapshot_restore_with_dense,Sparse: Dirty pages + /proc/pid/mem,1000,,,91727194.0,ns,24
snapshot_restore_with_dense,Sparse: Dirty pages + /proc/pid/mem,1000,,,95462306.0,ns,25
snapshot_restore_with_dense,Sparse: Dirty pages + /proc/pid/mem,1000,,,99394512.0,ns,26
snapshot_restore_with_dense,Sparse: Dirty pages + /proc/pid/mem,1000,,,102995805.0,ns,27
snapshot_restore_with_dense,Sparse: Dirty pages + /proc/pid/mem,1000,,,106967509.0,ns,28
snapshot_restore_with_dense,Sparse: Dirty pages + /proc/pid/mem,1000,,,110988929.0,ns,29
snapshot_restore_with_dense,Sparse: Dirty pages + /proc/pid/mem,1000,,,114667650.0,ns,30
snapshot_restore_with_dense,Sparse: Dirty pages + /proc/pid/mem,1000,,,118104745.0,ns,31
snapshot_restore_with_dense,Sparse: Dirty pages + /proc/pid/mem,1000,,,127390155.0,ns,32
snapshot_restore_with_dense,Sparse: Dirty pages + /proc/pid/mem,1000,,,126553363.0,ns,33
snapshot_restore_with_dense,Sparse: Dirty pages + /proc/pid/mem,1000,,,129980280.0,ns,34
snapshot_restore_with_dense,Sparse: Dirty pages + /proc/pid/mem,1000,,,133752674.0,ns,35
snapshot_restore_with_dense,Sparse: Dirty pages + /proc/pid/mem,1000,,,137592466.0,ns,36
snapshot_restore_with_dense,Sparse: Dirty pages + /proc/pid/mem,1000,,,141140869.0,ns,37
snapshot_restore_with_dense,Sparse: Dirty pages + /proc/pid/mem,1000,,,145119928.0,ns,38
snapshot_restore_with_dense,Sparse: Dirty pages + /proc/pid/mem,1000,,,149344086.0,ns,39
snapshot_restore_with_dense,Sparse: Dirty pages + /proc/pid/mem,1000,,,152792734.0,ns,40
snapshot_restore_with_dense,Sparse: Dirty pages + /proc/pid/mem,1000,,,156759108.0,ns,41
snapshot_restore_with_dense,Sparse: Dirty pages + /proc/pid/mem,1000,,,160231198.0,ns,42
snapshot_restore_with_dense,Sparse: Dirty pages + /proc/pid/mem,1000,,,164439053.0,ns,43
snapshot_restore_with_dense,Sparse: Dirty pages + /proc/pid/mem,1000,,,168323173.0,ns,44
snapshot_restore_with_dense,Sparse: Dirty pages + /proc/pid/mem,1000,,,172251549.0,ns,45
snapshot_restore_with_dense,Sparse: Dirty pages + /proc/pid/mem,1000,,,176500461.0,ns,46
snapshot_restore_with_dense,Sparse: Dirty pages + /proc/pid/mem,1000,,,179226516.0,ns,47
snapshot_restore_with_dense,Sparse: Dirty pages + /proc/pid/mem,1000,,,183470132.0,ns,48
snapshot_restore_with_dense,Sparse: Dirty pages + /proc/pid/mem,1000,,,187407971.0,ns,49
snapshot_restore_with_dense,Sparse: Dirty pages + /proc/pid/mem,1000,,,190751464.0,ns,50
snapshot_restore_with_dense,Sparse: Dirty pages + /proc/pid/mem,1000,,,195565256.0,ns,51
snapshot_restore_with_dense,Sparse: Dirty pages + /proc/pid/mem,1000,,,198835480.0,ns,52
snapshot_restore_with_dense,Sparse: Dirty pages + /proc/pid/mem,1000,,,202505720.0,ns,53
snapshot_restore_with_dense,Sparse: Dirty pages + /proc/pid/mem,1000,,,206409264.0,ns,54
snapshot_restore_with_dense,Sparse: Dirty pages + /proc/pid/mem,1000,,,210692514.0,ns,55
snapshot_restore_with_dense,Sparse: Dirty pages + /proc/pid/mem,1000,,,219571185.0,ns,56
snapshot_restore_with_dense,Sparse: Dirty pages + /proc/pid/mem,1000,,,218944167.0,ns,57
snapshot_restore_with_dense,Sparse: Dirty pages + /proc/pid/mem,1000,,,222106097.0,ns,58
snapshot_restore_with_dense,Sparse: Dirty pages + /proc/pid/mem,1000,,,226020864.0,ns,59
snapshot_restore_with_dense,Sparse: Dirty pages + /proc/pid/mem,1000,,,230404057.0,ns,60
snapshot_restore_with_dense,Sparse: Dirty pages + /proc/pid/mem,1000,,,233059825.0,ns,61
snapshot_restore_with_dense,Sparse: Dirty pages + /proc/pid/mem,1000,,,237039818.0,ns,62
snapshot_restore_with_dense,Sparse: Dirty pages + /proc/pid/mem,1000,,,241048828.0,ns,63
snapshot_restore_with_dense,Sparse: Dirty pages + /proc/pid/mem,1000,,,245355467.0,ns,64
snapshot_restore_with_dense,Sparse: Dirty pages + /proc/pid/mem,1000,,,249209349.0,ns,65
snapshot_restore_with_dense,Sparse: Dirty pages + /proc/pid/mem,1000,,,252410478.0,ns,66
snapshot_restore_with_dense,Sparse: Dirty pages + /proc/pid/mem,1000,,,257003618.0,ns,67
snapshot_restore_with_dense,Sparse: Dirty pages + /proc/pid/mem,1000,,,260675284.0,ns,68
snapshot_restore_with_dense,Sparse: Dirty pages + /proc/pid/mem,1000,,,264608907.0,ns,69
snapshot_restore_with_dense,Sparse: Dirty pages + /proc/pid/mem,1000,,,268091181.0,ns,70
snapshot_restore_with_dense,Sparse: Dirty pages + /proc/pid/mem,1000,,,271889359.0,ns,71
snapshot_restore_with_dense,Sparse: Dirty pages + /proc/pid/mem,1000,,,275470413.0,ns,72
snapshot_restore_with_dense,Sparse: Dirty pages + /proc/pid/mem,1000,,,279589705.0,ns,73
snapshot_restore_with_dense,Sparse: Dirty pages + /proc/pid/mem,1000,,,283209593.0,ns,74
snapshot_restore_with_dense,Sparse: Dirty pages + /proc/pid/mem,1000,,,285990232.0,ns,75
snapshot_restore_with_dense,Sparse: Dirty pages + /proc/pid/mem,1000,,,291224150.0,ns,76
snapshot_restore_with_dense,Sparse: Dirty pages + /proc/pid/mem,1000,,,293501547.0,ns,77
snapshot_restore_with_dense,Sparse: Dirty pages + /proc/pid/mem,1000,,,297447277.0,ns,78
snapshot_restore_with_dense,Sparse: Dirty pages + /proc/pid/mem,1000,,,301935531.0,ns,79
snapshot_restore_with_dense,Sparse: Dirty pages + /proc/pid/mem,1000,,,305204697.0,ns,80
snapshot_restore_with_dense,Sparse: Dirty pages + /proc/pid/mem,1000,,,309050093.0,ns,81
snapshot_restore_with_dense,Sparse: Dirty pages + /proc/pid/mem,1000,,,313649090.0,ns,82
snapshot_restore_with_dense,Sparse: Dirty pages + /proc/pid/mem,1000,,,317172654.0,ns,83
snapshot_restore_with_dense,Sparse: Dirty pages + /proc/pid/mem,1000,,,321141438.0,ns,84
snapshot_restore_with_dense,Sparse: Dirty pages + /proc/pid/mem,1000,,,324975441.0,ns,85
snapshot_restore_with_dense,Sparse: Dirty pages + /proc/pid/mem,1000,,,328440921.0,ns,86
snapshot_restore_with_dense,Sparse: Dirty pages + /proc/pid/mem,1000,,,331587562.0,ns,87
snapshot_restore_with_dense,Sparse: Dirty pages + /proc/pid/mem,1000,,,336407895.0,ns,88
snapshot_restore_with_dense,Sparse: Dirty pages + /proc/pid/mem,1000,,,340002088.0,ns,89
snapshot_restore_with_dense,Sparse: Dirty pages + /proc/pid/mem,1000,,,343628193.0,ns,90
snapshot_restore_with_dense,Sparse: Dirty pages + /proc/pid/mem,1000,,,347771643.0,ns,91
snapshot_restore_with_dense,Sparse: Dirty pages + /proc/pid/mem,1000,,,358072665.0,ns,92
snapshot_restore_with_dense,Sparse: Dirty pages + /proc/pid/mem,1000,,,355581689.0,ns,93
snapshot_restore_with_dense,Sparse: Dirty pages + /proc/pid/mem,1000,,,361517645.0,ns,94
snapshot_restore_with_dense,Sparse: Dirty pages + /proc/pid/mem,1000,,,363515344.0,ns,95
snapshot_restore_with_dense,Sparse: Dirty pages + /proc/pid/mem,1000,,,367951179.0,ns,96
snapshot_restore_with_dense,Sparse: Dirty pages + /proc/pid/mem,1000,,,370972344.0,ns,97
snapshot_restore_with_dense,Sparse: Dirty pages + /proc/pid/mem,1000,,,375692205.0,ns,98
snapshot_restore_with_dense,Sparse: Dirty pages + /proc/pid/mem,1000,,,379463149.0,ns,99
snapshot_restore_with_dense,Sparse: Dirty pages + /proc/pid/mem,1000,,,382635452.0,ns,100
