<?xml version="1.0" encoding="utf-8"  standalone="no"?>
<svg 
 viewBox="0 0 1280 720"
 xmlns="http://www.w3.org/2000/svg"
 xmlns:xlink="http://www.w3.org/1999/xlink"
>

<title>Gnuplot</title>
<desc>Produced by GNUPLOT 5.2 patchlevel 6 </desc>

<g id="gnuplot_canvas">

<rect x="0" y="0" width="1280" height="720" fill="none"/>
<defs>

	<circle id='gpDot' r='0.5' stroke-width='0.5' stroke='currentColor'/>
	<path id='gpPt0' stroke-width='0.222' stroke='currentColor' d='M-1,0 h2 M0,-1 v2'/>
	<path id='gpPt1' stroke-width='0.222' stroke='currentColor' d='M-1,-1 L1,1 M1,-1 L-1,1'/>
	<path id='gpPt2' stroke-width='0.222' stroke='currentColor' d='M-1,0 L1,0 M0,-1 L0,1 M-1,-1 L1,1 M-1,1 L1,-1'/>
	<rect id='gpPt3' stroke-width='0.222' stroke='currentColor' x='-1' y='-1' width='2' height='2'/>
	<rect id='gpPt4' stroke-width='0.222' stroke='currentColor' fill='currentColor' x='-1' y='-1' width='2' height='2'/>
	<circle id='gpPt5' stroke-width='0.222' stroke='currentColor' cx='0' cy='0' r='1'/>
	<use xlink:href='#gpPt5' id='gpPt6' fill='currentColor' stroke='none'/>
	<path id='gpPt7' stroke-width='0.222' stroke='currentColor' d='M0,-1.33 L-1.33,0.67 L1.33,0.67 z'/>
	<use xlink:href='#gpPt7' id='gpPt8' fill='currentColor' stroke='none'/>
	<use xlink:href='#gpPt7' id='gpPt9' stroke='currentColor' transform='rotate(180)'/>
	<use xlink:href='#gpPt9' id='gpPt10' fill='currentColor' stroke='none'/>
	<use xlink:href='#gpPt3' id='gpPt11' stroke='currentColor' transform='rotate(45)'/>
	<use xlink:href='#gpPt11' id='gpPt12' fill='currentColor' stroke='none'/>
	<path id='gpPt13' stroke-width='0.222' stroke='currentColor' d='M0,1.330 L1.265,0.411 L0.782,-1.067 L-0.782,-1.076 L-1.265,0.411 z'/>
	<use xlink:href='#gpPt13' id='gpPt14' fill='currentColor' stroke='none'/>
	<filter id='textbox' filterUnits='objectBoundingBox' x='0' y='0' height='1' width='1'>
	  <feFlood flood-color='white' flood-opacity='1' result='bgnd'/>
	  <feComposite in='SourceGraphic' in2='bgnd' operator='atop'/>
	</filter>
	<filter id='greybox' filterUnits='objectBoundingBox' x='0' y='0' height='1' width='1'>
	  <feFlood flood-color='lightgrey' flood-opacity='1' result='grey'/>
	  <feComposite in='SourceGraphic' in2='grey' operator='atop'/>
	</filter>
</defs>
<g fill="none" color="white" stroke="currentColor" stroke-width="1.00" stroke-linecap="butt" stroke-linejoin="miter">
</g>
<g fill="none" color="black" stroke="currentColor" stroke-width="1.00" stroke-linecap="butt" stroke-linejoin="miter">
	<path stroke='black'  d='M80.2,662.4 L89.2,662.4  '/>	<g transform="translate(71.9,666.3)" stroke="none" fill="black" font-family="Helvetica" font-size="12.00"  text-anchor="end">
		<text><tspan font-family="Helvetica" > 0</tspan></text>
	</g>
</g>
<g fill="none" color="black" stroke="currentColor" stroke-width="1.00" stroke-linecap="butt" stroke-linejoin="miter">
	<path stroke='black'  d='M80.2,601.6 L89.2,601.6  '/>	<g transform="translate(71.9,605.5)" stroke="none" fill="black" font-family="Helvetica" font-size="12.00"  text-anchor="end">
		<text><tspan font-family="Helvetica" > 200</tspan></text>
	</g>
</g>
<g fill="none" color="black" stroke="currentColor" stroke-width="1.00" stroke-linecap="butt" stroke-linejoin="miter">
	<path stroke='black'  d='M80.2,540.7 L89.2,540.7  '/>	<g transform="translate(71.9,544.6)" stroke="none" fill="black" font-family="Helvetica" font-size="12.00"  text-anchor="end">
		<text><tspan font-family="Helvetica" > 400</tspan></text>
	</g>
</g>
<g fill="none" color="black" stroke="currentColor" stroke-width="1.00" stroke-linecap="butt" stroke-linejoin="miter">
	<path stroke='black'  d='M80.2,479.9 L89.2,479.9  '/>	<g transform="translate(71.9,483.8)" stroke="none" fill="black" font-family="Helvetica" font-size="12.00"  text-anchor="end">
		<text><tspan font-family="Helvetica" > 600</tspan></text>
	</g>
</g>
<g fill="none" color="black" stroke="currentColor" stroke-width="1.00" stroke-linecap="butt" stroke-linejoin="miter">
	<path stroke='black'  d='M80.2,419.1 L89.2,419.1  '/>	<g transform="translate(71.9,423.0)" stroke="none" fill="black" font-family="Helvetica" font-size="12.00"  text-anchor="end">
		<text><tspan font-family="Helvetica" > 800</tspan></text>
	</g>
</g>
<g fill="none" color="black" stroke="currentColor" stroke-width="1.00" stroke-linecap="butt" stroke-linejoin="miter">
	<path stroke='black'  d='M80.2,358.2 L89.2,358.2  '/>	<g transform="translate(71.9,362.1)" stroke="none" fill="black" font-family="Helvetica" font-size="12.00"  text-anchor="end">
		<text><tspan font-family="Helvetica" > 1000</tspan></text>
	</g>
</g>
<g fill="none" color="black" stroke="currentColor" stroke-width="1.00" stroke-linecap="butt" stroke-linejoin="miter">
	<path stroke='black'  d='M80.2,297.4 L89.2,297.4  '/>	<g transform="translate(71.9,301.3)" stroke="none" fill="black" font-family="Helvetica" font-size="12.00"  text-anchor="end">
		<text><tspan font-family="Helvetica" > 1200</tspan></text>
	</g>
</g>
<g fill="none" color="black" stroke="currentColor" stroke-width="1.00" stroke-linecap="butt" stroke-linejoin="miter">
	<path stroke='black'  d='M80.2,236.6 L89.2,236.6  '/>	<g transform="translate(71.9,240.5)" stroke="none" fill="black" font-family="Helvetica" font-size="12.00"  text-anchor="end">
		<text><tspan font-family="Helvetica" > 1400</tspan></text>
	</g>
</g>
<g fill="none" color="black" stroke="currentColor" stroke-width="1.00" stroke-linecap="butt" stroke-linejoin="miter">
	<path stroke='black'  d='M80.2,175.8 L89.2,175.8  '/>	<g transform="translate(71.9,179.7)" stroke="none" fill="black" font-family="Helvetica" font-size="12.00"  text-anchor="end">
		<text><tspan font-family="Helvetica" > 1600</tspan></text>
	</g>
</g>
<g fill="none" color="black" stroke="currentColor" stroke-width="1.00" stroke-linecap="butt" stroke-linejoin="miter">
	<path stroke='black'  d='M80.2,114.9 L89.2,114.9  '/>	<g transform="translate(71.9,118.8)" stroke="none" fill="black" font-family="Helvetica" font-size="12.00"  text-anchor="end">
		<text><tspan font-family="Helvetica" > 1800</tspan></text>
	</g>
</g>
<g fill="none" color="black" stroke="currentColor" stroke-width="1.00" stroke-linecap="butt" stroke-linejoin="miter">
	<path stroke='black'  d='M80.2,54.1 L89.2,54.1  '/>	<g transform="translate(71.9,58.0)" stroke="none" fill="black" font-family="Helvetica" font-size="12.00"  text-anchor="end">
		<text><tspan font-family="Helvetica" > 2000</tspan></text>
	</g>
</g>
<g fill="none" color="black" stroke="currentColor" stroke-width="1.00" stroke-linecap="butt" stroke-linejoin="miter">
	<path stroke='black'  d='M172.8,662.4 L172.8,653.4  '/>	<g transform="translate(172.8,684.3)" stroke="none" fill="black" font-family="Helvetica" font-size="12.00"  text-anchor="middle">
		<text><tspan font-family="Helvetica" >-0.16</tspan></text>
	</g>
</g>
<g fill="none" color="black" stroke="currentColor" stroke-width="1.00" stroke-linecap="butt" stroke-linejoin="miter">
	<path stroke='black'  d='M353.3,662.4 L353.3,653.4  '/>	<g transform="translate(353.3,684.3)" stroke="none" fill="black" font-family="Helvetica" font-size="12.00"  text-anchor="middle">
		<text><tspan font-family="Helvetica" >-0.14</tspan></text>
	</g>
</g>
<g fill="none" color="black" stroke="currentColor" stroke-width="1.00" stroke-linecap="butt" stroke-linejoin="miter">
	<path stroke='black'  d='M533.8,662.4 L533.8,653.4  '/>	<g transform="translate(533.8,684.3)" stroke="none" fill="black" font-family="Helvetica" font-size="12.00"  text-anchor="middle">
		<text><tspan font-family="Helvetica" >-0.12</tspan></text>
	</g>
</g>
<g fill="none" color="black" stroke="currentColor" stroke-width="1.00" stroke-linecap="butt" stroke-linejoin="miter">
	<path stroke='black'  d='M714.4,662.4 L714.4,653.4  '/>	<g transform="translate(714.4,684.3)" stroke="none" fill="black" font-family="Helvetica" font-size="12.00"  text-anchor="middle">
		<text><tspan font-family="Helvetica" >-0.1</tspan></text>
	</g>
</g>
<g fill="none" color="black" stroke="currentColor" stroke-width="1.00" stroke-linecap="butt" stroke-linejoin="miter">
	<path stroke='black'  d='M894.9,662.4 L894.9,653.4  '/>	<g transform="translate(894.9,684.3)" stroke="none" fill="black" font-family="Helvetica" font-size="12.00"  text-anchor="middle">
		<text><tspan font-family="Helvetica" >-0.08</tspan></text>
	</g>
</g>
<g fill="none" color="black" stroke="currentColor" stroke-width="1.00" stroke-linecap="butt" stroke-linejoin="miter">
</g>
<g fill="none" color="black" stroke="currentColor" stroke-width="1.00" stroke-linecap="butt" stroke-linejoin="miter">
	<path stroke='black'  d='M80.2,54.1 L80.2,662.4 L1013.6,662.4 L1013.6,54.1 L80.2,54.1 Z  '/></g>
<g fill="none" color="black" stroke="currentColor" stroke-width="1.00" stroke-linecap="butt" stroke-linejoin="miter">
	<g transform="translate(16.3,358.3) rotate(270)" stroke="none" fill="black" font-family="Helvetica" font-size="12.00"  text-anchor="middle">
		<text><tspan font-family="Helvetica" >Density (a.u.)</tspan></text>
	</g>
</g>
<g fill="none" color="black" stroke="currentColor" stroke-width="1.00" stroke-linecap="butt" stroke-linejoin="miter">
	<g transform="translate(546.9,711.3)" stroke="none" fill="black" font-family="Helvetica" font-size="12.00"  text-anchor="middle">
		<text><tspan font-family="Helvetica" >Relative change (%)</tspan></text>
	</g>
</g>
<g fill="none" color="black" stroke="currentColor" stroke-width="1.00" stroke-linecap="butt" stroke-linejoin="miter">
	<g transform="translate(546.9,31.0)" stroke="none" fill="black" font-family="Helvetica" font-size="12.00"  text-anchor="middle">
		<text><tspan font-family="Helvetica" >snapshot_restore_with_dense/Sparse: Entire region + /proc/pid/mem/10: median</tspan></text>
	</g>
</g>
	<g id="gnuplot_plot_1" ><title>Bootstrap distribution</title>
<g fill="none" color="white" stroke="black" stroke-width="2.00" stroke-linecap="butt" stroke-linejoin="miter">
</g>
<g fill="none" color="black" stroke="currentColor" stroke-width="2.00" stroke-linecap="butt" stroke-linejoin="miter">
	<g transform="translate(1089.0,67.0)" stroke="none" fill="black" font-family="Helvetica" font-size="12.00"  text-anchor="start">
		<text><tspan font-family="Helvetica" >Bootstrap distribution</tspan></text>
	</g>
</g>
<g fill="none" color="black" stroke="currentColor" stroke-width="2.00" stroke-linecap="butt" stroke-linejoin="miter">
	<path stroke='rgb( 31, 120, 180)'  d='M1038.5,63.1 L1080.7,63.1 M80.2,633.0 L82.1,631.9 L83.9,630.8 L85.8,629.6 L87.7,628.4 L89.6,627.2
		L91.4,625.9 L93.3,624.6 L95.2,623.2 L97.0,621.8 L98.9,620.4 L100.8,618.9 L102.6,617.4 L104.5,615.8
		L106.4,614.2 L108.3,612.5 L110.1,610.8 L112.0,609.1 L113.9,607.3 L115.7,605.5 L117.6,603.6 L119.5,601.7
		L121.4,599.8 L123.2,597.8 L125.1,595.8 L127.0,593.7 L128.8,591.6 L130.7,589.5 L132.6,587.3 L134.4,585.1
		L136.3,582.8 L138.2,580.6 L140.1,578.3 L141.9,575.9 L143.8,573.6 L145.7,571.2 L147.5,568.7 L149.4,566.3
		L151.3,563.7 L153.2,561.2 L155.0,558.5 L156.9,555.8 L158.8,553.0 L160.6,550.2 L162.5,547.2 L164.4,544.1
		L166.2,540.9 L168.1,537.5 L170.0,533.9 L171.9,530.2 L173.7,526.3 L175.6,522.2 L177.5,517.8 L179.3,513.3
		L181.2,508.4 L183.1,503.3 L185.0,498.0 L186.8,492.4 L188.7,486.6 L190.6,480.5 L192.4,474.1 L194.3,467.6
		L196.2,460.8 L198.0,453.9 L199.9,446.8 L201.8,439.6 L203.7,432.4 L205.5,425.1 L207.4,417.8 L209.3,410.6
		L211.1,403.4 L213.0,396.4 L214.9,389.5 L216.7,382.9 L218.6,376.5 L220.5,370.4 L222.4,364.6 L224.2,359.2
		L226.1,354.1 L228.0,349.3 L229.8,345.0 L231.7,341.1 L233.6,337.6 L235.5,334.5 L237.3,331.9 L239.2,329.7
		L241.1,327.9 L242.9,326.5 L244.8,325.6 L246.7,325.1 L248.5,325.0 L250.4,325.3 L252.3,325.9 L254.2,327.0
		L256.0,328.4 L257.9,330.1 L259.8,332.1 L261.6,334.3 L263.5,336.8 L265.4,339.5 L267.3,342.4 L269.1,345.4
		L271.0,348.5 L272.9,351.6 L274.7,354.8 L276.6,358.0 L278.5,361.1 L280.3,364.1 L282.2,367.0 L284.1,369.9
		L286.0,372.5 L287.8,375.0 L289.7,377.3 L291.6,379.4 L293.4,381.3 L295.3,382.9 L297.2,384.4 L299.1,385.6
		L300.9,386.6 L302.8,387.4 L304.7,388.0 L306.5,388.4 L308.4,388.5 L310.3,388.4 L312.1,388.1 L314.0,387.6
		L315.9,386.9 L317.8,385.9 L319.6,384.6 L321.5,383.1 L323.4,381.3 L325.2,379.2 L327.1,376.8 L329.0,374.1
		L330.9,371.1 L332.7,367.8 L334.6,364.1 L336.5,360.1 L338.3,355.7 L340.2,351.1 L342.1,346.1 L343.9,340.9
		L345.8,335.4 L347.7,329.7 L349.6,323.9 L351.4,317.8 L353.3,311.7 L355.2,305.4 L357.0,299.2 L358.9,292.9
		L360.8,286.6 L362.7,280.4 L364.5,274.3 L366.4,268.3 L368.3,262.4 L370.1,256.7 L372.0,251.1 L373.9,245.7
		L375.7,240.4 L377.6,235.2 L379.5,230.2 L381.4,225.3 L383.2,220.5 L385.1,215.8 L387.0,211.2 L388.8,206.6
		L390.7,202.1 L392.6,197.6 L394.5,193.1 L396.3,188.6 L398.2,184.1 L400.1,179.5 L401.9,175.0 L403.8,170.4
		L405.7,165.9 L407.5,161.3 L409.4,156.7 L411.3,152.1 L413.2,147.6 L415.0,143.1 L416.9,138.7 L418.8,134.3
		L420.6,130.1 L422.5,126.0 L424.4,122.0 L426.3,118.1 L428.1,114.4 L430.0,110.8 L431.9,107.4 L433.7,104.2
		L435.6,101.1 L437.5,98.2 L439.3,95.4 L441.2,92.8 L443.1,90.3 L445.0,87.9 L446.8,85.7 L448.7,83.7
		L450.6,81.7 L452.4,80.0 L454.3,78.4 L456.2,77.0 L458.0,75.7 L459.9,74.7 L461.8,73.8 L463.7,73.2
		L465.5,72.8 L467.4,72.5 L469.3,72.5 L471.1,72.7 L473.0,73.1 L474.9,73.7 L476.8,74.5 L478.6,75.5
		L480.5,76.7 L482.4,78.0 L484.2,79.4 L486.1,81.0 L488.0,82.7 L489.8,84.6 L491.7,86.5 L493.6,88.6
		L495.5,90.7 L497.3,93.0 L499.2,95.4 L501.1,97.9 L502.9,100.6 L504.8,103.3 L506.7,106.2 L508.6,109.2
		L510.4,112.4 L512.3,115.7 L514.2,119.1 L516.0,122.7 L517.9,126.4 L519.8,130.2 L521.6,134.1 L523.5,138.1
		L525.4,142.2 L527.3,146.4 L529.1,150.6 L531.0,154.8 L532.9,159.0 L534.7,163.2 L536.6,167.3 L538.5,171.3
		L540.4,175.2 L542.2,178.9 L544.1,182.5 L546.0,185.8 L547.8,188.8 L549.7,191.6 L551.6,194.2 L553.4,196.4
		L555.3,198.3 L557.2,199.9 L559.1,201.2 L560.9,202.2 L562.8,202.9 L564.7,203.3 L566.5,203.6 L568.4,203.6
		L570.3,203.4 L572.2,203.1 L574.0,202.8 L575.9,202.3 L577.8,201.9 L579.6,201.4 L581.5,201.0 L583.4,200.7
		L585.2,200.5 L587.1,200.4 L589.0,200.5 L590.9,200.7 L592.7,201.0 L594.6,201.5 L596.5,202.0 L598.3,202.7
		L600.2,203.6 L602.1,204.5 L604.0,205.4 L605.8,206.4 L607.7,207.5 L609.6,208.5 L611.4,209.6 L613.3,210.7
		L615.2,211.7 L617.0,212.7 L618.9,213.7 L620.8,214.7 L622.7,215.7 L624.5,216.6 L626.4,217.6 L628.3,218.5
		L630.1,219.5 L632.0,220.5 L633.9,221.6 L635.8,222.8 L637.6,224.0 L639.5,225.3 L641.4,226.7 L643.2,228.1
		L645.1,229.7 L647.0,231.4 L648.8,233.2 L650.7,235.0 L652.6,237.0 L654.5,239.0 L656.3,241.1 L658.2,243.3
		L660.1,245.6 L661.9,247.9 L663.8,250.3 L665.7,252.7 L667.5,255.2 L669.4,257.7 L671.3,260.4 L673.2,263.0
		L675.0,265.8 L676.9,268.6 L678.8,271.5 L680.6,274.4 L682.5,277.5 L684.4,280.6 L686.3,283.8 L688.1,287.0
		L690.0,290.4 L691.9,293.8 L693.7,297.3 L695.6,300.8 L697.5,304.4 L699.3,308.0 L701.2,311.6 L703.1,315.3
		L705.0,319.0 L706.8,322.6 L708.7,326.3 L710.6,329.9 L712.4,333.5 L714.3,337.1 L716.2,340.7 L718.1,344.2
		L719.9,347.7 L721.8,351.1 L723.7,354.5 L725.5,357.9 L727.4,361.2 L729.3,364.5 L731.1,367.8 L733.0,371.1
		L734.9,374.4 L736.8,377.6 L738.6,380.8 L740.5,384.1 L742.4,387.3 L744.2,390.6 L746.1,393.8 L748.0,397.1
		L749.9,400.4 L751.7,403.6 L753.6,406.9 L755.5,410.2 L757.3,413.4 L759.2,416.7 L761.1,420.0 L762.9,423.2
		L764.8,426.4 L766.7,429.5 L768.6,432.6 L770.4,435.7 L772.3,438.7 L774.2,441.6 L776.0,444.5 L777.9,447.3
		L779.8,450.0 L781.7,452.7 L783.5,455.4 L785.4,457.9 L787.3,460.4 L789.1,462.9 L791.0,465.3 L792.9,467.7
		L794.7,470.1 L796.6,472.5 L798.5,474.8 L800.4,477.2 L802.2,479.5 L804.1,481.8 L806.0,484.2 L807.8,486.5
		L809.7,488.9 L811.6,491.2 L813.5,493.6 L815.3,495.9 L817.2,498.3 L819.1,500.6 L820.9,502.9 L822.8,505.2
		L824.7,507.4 L826.5,509.6 L828.4,511.8 L830.3,513.9 L832.2,516.0 L834.0,517.9 L835.9,519.9 L837.8,521.7
		L839.6,523.5 L841.5,525.2 L843.4,526.9 L845.3,528.5 L847.1,530.1 L849.0,531.6 L850.9,533.1 L852.7,534.5
		L854.6,535.9 L856.5,537.4 L858.3,538.8 L860.2,540.2 L862.1,541.6 L864.0,543.0 L865.8,544.5 L867.7,546.0
		L869.6,547.4 L871.4,548.9 L873.3,550.4 L875.2,551.9 L877.1,553.5 L878.9,555.0 L880.8,556.5 L882.7,558.0
		L884.5,559.5 L886.4,561.0 L888.3,562.5 L890.1,563.9 L892.0,565.3 L893.9,566.7 L895.8,568.1 L897.6,569.4
		L899.5,570.8 L901.4,572.1 L903.2,573.4 L905.1,574.7 L907.0,576.0 L908.8,577.2 L910.7,578.5 L912.6,579.8
		L914.5,581.0 L916.3,582.3 L918.2,583.6 L920.1,584.8 L921.9,586.1 L923.8,587.4 L925.7,588.6 L927.6,589.9
		L929.4,591.1 L931.3,592.3 L933.2,593.5 L935.0,594.7 L936.9,595.9 L938.8,597.0 L940.6,598.1 L942.5,599.2
		L944.4,600.2 L946.3,601.3 L948.1,602.2 L950.0,603.2 L951.9,604.1 L953.7,605.0 L955.6,605.9 L957.5,606.8
		L959.4,607.6 L961.2,608.4 L963.1,609.2 L965.0,609.9 L966.8,610.7 L968.7,611.4 L970.6,612.2 L972.4,612.9
		L974.3,613.6 L976.2,614.4 L978.1,615.1 L979.9,615.9 L981.8,616.6 L983.7,617.3 L985.5,618.1 L987.4,618.9
		L989.3,619.6 L991.2,620.4 L993.0,621.2 L994.9,621.9 L996.8,622.7 L998.6,623.5 L1000.5,624.3 L1002.4,625.0
		L1004.2,625.8 L1006.1,626.6 L1008.0,627.4 L1009.9,628.1 L1011.7,628.9 L1013.6,629.6  '/></g>
	</g>
	<g id="gnuplot_plot_2" ><title>Confidence interval</title>
<g fill="none" color="white" stroke="rgb( 31, 120, 180)" stroke-width="1.00" stroke-linecap="butt" stroke-linejoin="miter">
</g>
<g fill="none" color="black" stroke="currentColor" stroke-width="1.00" stroke-linecap="butt" stroke-linejoin="miter">
	<g transform="translate(1089.0,85.0)" stroke="none" fill="black" font-family="Helvetica" font-size="12.00"  text-anchor="start">
		<text><tspan font-family="Helvetica" >Confidence interval</tspan></text>
	</g>
</g>
<g fill="none" color="black" stroke="currentColor" stroke-width="1.00" stroke-linecap="butt" stroke-linejoin="miter">
	<g stroke='none' shape-rendering='crispEdges'>
		<polygon fill = 'rgb( 31, 120, 180)' fill-opacity = '0.250000' points = '1038.5,85.6 1080.7,85.6 1080.7,76.6 1038.5,76.6 '/>
		<polygon fill = 'rgb( 31, 120, 180)' fill-opacity = '0.250000' points = '166.2,540.9 168.1,537.5 170.0,533.9 171.9,530.2 173.7,526.3 175.6,522.2 177.5,517.8 179.3,513.3 181.2,508.4 183.1,503.3 185.0,498.0 186.8,492.4 188.7,486.6 190.6,480.5 192.4,474.1 194.3,467.6
196.2,460.8 198.0,453.9 199.9,446.8 201.8,439.6 203.7,432.4 205.5,425.1 207.4,417.8 209.3,410.6 211.1,403.4 213.0,396.4 214.9,389.5 216.7,382.9 218.6,376.5 220.5,370.4 222.4,364.6 224.2,359.2
226.1,354.1 228.0,349.3 229.8,345.0 231.7,341.1 233.6,337.6 235.5,334.5 237.3,331.9 239.2,329.7 241.1,327.9 242.9,326.5 244.8,325.6 246.7,325.1 248.5,325.0 250.4,325.3 252.3,325.9 254.2,327.0
256.0,328.4 257.9,330.1 259.8,332.1 261.6,334.3 263.5,336.8 265.4,339.5 267.3,342.4 269.1,345.4 271.0,348.5 272.9,351.6 274.7,354.8 276.6,358.0 278.5,361.1 280.3,364.1 282.2,367.0 284.1,369.9
286.0,372.5 287.8,375.0 289.7,377.3 291.6,379.4 293.4,381.3 295.3,382.9 297.2,384.4 299.1,385.6 300.9,386.6 302.8,387.4 304.7,388.0 306.5,388.4 308.4,388.5 310.3,388.4 312.1,388.1 314.0,387.6
315.9,386.9 317.8,385.9 319.6,384.6 321.5,383.1 323.4,381.3 325.2,379.2 327.1,376.8 329.0,374.1 330.9,371.1 332.7,367.8 334.6,364.1 336.5,360.1 338.3,355.7 340.2,351.1 342.1,346.1 343.9,340.9
345.8,335.4 347.7,329.7 349.6,323.9 351.4,317.8 353.3,311.7 355.2,305.4 357.0,299.2 358.9,292.9 360.8,286.6 362.7,280.4 364.5,274.3 366.4,268.3 368.3,262.4 370.1,256.7 372.0,251.1 373.9,245.7
375.7,240.4 377.6,235.2 379.5,230.2 381.4,225.3 383.2,220.5 385.1,215.8 387.0,211.2 388.8,206.6 390.7,202.1 392.6,197.6 394.5,193.1 396.3,188.6 398.2,184.1 400.1,179.5 401.9,175.0 403.8,170.4
405.7,165.9 407.5,161.3 409.4,156.7 411.3,152.1 413.2,147.6 415.0,143.1 416.9,138.7 418.8,134.3 420.6,130.1 422.5,126.0 424.4,122.0 426.3,118.1 428.1,114.4 430.0,110.8 431.9,107.4 433.7,104.2
435.6,101.1 437.5,98.2 439.3,95.4 441.2,92.8 443.1,90.3 445.0,87.9 446.8,85.7 448.7,83.7 450.6,81.7 452.4,80.0 454.3,78.4 456.2,77.0 458.0,75.7 459.9,74.7 461.8,73.8 463.7,73.2
465.5,72.8 467.4,72.5 469.3,72.5 471.1,72.7 473.0,73.1 474.9,73.7 476.8,74.5 478.6,75.5 480.5,76.7 482.4,78.0 484.2,79.4 486.1,81.0 488.0,82.7 489.8,84.6 491.7,86.5 493.6,88.6
495.5,90.7 497.3,93.0 499.2,95.4 501.1,97.9 502.9,100.6 504.8,103.3 506.7,106.2 508.6,109.2 510.4,112.4 512.3,115.7 514.2,119.1 516.0,122.7 517.9,126.4 519.8,130.2 521.6,134.1 523.5,138.1
525.4,142.2 527.3,146.4 529.1,150.6 531.0,154.8 532.9,159.0 534.7,163.2 536.6,167.3 538.5,171.3 540.4,175.2 542.2,178.9 544.1,182.5 546.0,185.8 547.8,188.8 549.7,191.6 551.6,194.2 553.4,196.4
555.3,198.3 557.2,199.9 559.1,201.2 560.9,202.2 562.8,202.9 564.7,203.3 566.5,203.6 568.4,203.6 570.3,203.4 572.2,203.1 574.0,202.8 575.9,202.3 577.8,201.9 579.6,201.4 581.5,201.0 583.4,200.7
585.2,200.5 587.1,200.4 589.0,200.5 590.9,200.7 592.7,201.0 594.6,201.5 596.5,202.0 598.3,202.7 600.2,203.6 602.1,204.5 604.0,205.4 605.8,206.4 607.7,207.5 609.6,208.5 611.4,209.6 613.3,210.7
615.2,211.7 617.0,212.7 618.9,213.7 620.8,214.7 622.7,215.7 624.5,216.6 626.4,217.6 628.3,218.5 630.1,219.5 632.0,220.5 633.9,221.6 635.8,222.8 637.6,224.0 639.5,225.3 641.4,226.7 643.2,228.1
645.1,229.7 647.0,231.4 648.8,233.2 650.7,235.0 652.6,237.0 654.5,239.0 656.3,241.1 658.2,243.3 660.1,245.6 661.9,247.9 663.8,250.3 665.7,252.7 667.5,255.2 669.4,257.7 671.3,260.4 673.2,263.0
675.0,265.8 676.9,268.6 678.8,271.5 680.6,274.4 682.5,277.5 684.4,280.6 686.3,283.8 688.1,287.0 690.0,290.4 691.9,293.8 693.7,297.3 695.6,300.8 697.5,304.4 699.3,308.0 701.2,311.6 703.1,315.3
705.0,319.0 706.8,322.6 708.7,326.3 710.6,329.9 712.4,333.5 714.3,337.1 716.2,340.7 718.1,344.2 719.9,347.7 721.8,351.1 723.7,354.5 725.5,357.9 727.4,361.2 729.3,364.5 731.1,367.8 733.0,371.1
734.9,374.4 736.8,377.6 738.6,380.8 740.5,384.1 742.4,387.3 744.2,390.6 746.1,393.8 748.0,397.1 749.9,400.4 751.7,403.6 753.6,406.9 755.5,410.2 757.3,413.4 759.2,416.7 761.1,420.0 762.9,423.2
764.8,426.4 766.7,429.5 768.6,432.6 770.4,435.7 772.3,438.7 774.2,441.6 776.0,444.5 777.9,447.3 779.8,450.0 781.7,452.7 783.5,455.4 785.4,457.9 787.3,460.4 789.1,462.9 791.0,465.3 792.9,467.7
794.7,470.1 796.6,472.5 798.5,474.8 800.4,477.2 802.2,479.5 804.1,481.8 806.0,484.2 807.8,486.5 809.7,488.9 811.6,491.2 813.5,493.6 815.3,495.9 817.2,498.3 819.1,500.6 820.9,502.9 822.8,505.2
824.7,507.4 826.5,509.6 828.4,511.8 830.3,513.9 832.2,516.0 834.0,517.9 835.9,519.9 837.8,521.7 839.6,523.5 841.5,525.2 843.4,526.9 845.3,528.5 847.1,530.1 849.0,531.6 850.9,533.1 852.7,534.5
854.6,535.9 856.5,537.4 858.3,538.8 860.2,540.2 862.1,541.6 864.0,543.0 865.8,544.5 867.7,546.0 869.6,547.4 871.4,548.9 873.3,550.4 875.2,551.9 877.1,553.5 878.9,555.0 880.8,556.5 882.7,558.0
884.5,559.5 886.4,561.0 888.3,562.5 890.1,563.9 892.0,565.3 893.9,566.7 895.8,568.1 897.6,569.4 899.5,570.8 901.4,572.1 903.2,573.4 905.1,574.7 907.0,576.0 908.8,577.2 910.7,578.5 912.6,579.8
914.5,581.0 916.3,582.3 918.2,583.6 920.1,584.8 921.9,586.1 923.8,587.4 925.7,588.6 925.7,662.4 923.8,662.4 921.9,662.4 920.1,662.4 918.2,662.4 916.3,662.4 914.5,662.4 912.6,662.4 910.7,662.4
908.8,662.4 907.0,662.4 905.1,662.4 903.2,662.4 901.4,662.4 899.5,662.4 897.6,662.4 895.8,662.4 893.9,662.4 892.0,662.4 890.1,662.4 888.3,662.4 886.4,662.4 884.5,662.4 882.7,662.4 880.8,662.4
878.9,662.4 877.1,662.4 875.2,662.4 873.3,662.4 871.4,662.4 869.6,662.4 867.7,662.4 865.8,662.4 864.0,662.4 862.1,662.4 860.2,662.4 858.3,662.4 856.5,662.4 854.6,662.4 852.7,662.4 850.9,662.4
849.0,662.4 847.1,662.4 845.3,662.4 843.4,662.4 841.5,662.4 839.6,662.4 837.8,662.4 835.9,662.4 834.0,662.4 832.2,662.4 830.3,662.4 828.4,662.4 826.5,662.4 824.7,662.4 822.8,662.4 820.9,662.4
819.1,662.4 817.2,662.4 815.3,662.4 813.5,662.4 811.6,662.4 809.7,662.4 807.8,662.4 806.0,662.4 804.1,662.4 802.2,662.4 800.4,662.4 798.5,662.4 796.6,662.4 794.7,662.4 792.9,662.4 791.0,662.4
789.1,662.4 787.3,662.4 785.4,662.4 783.5,662.4 781.7,662.4 779.8,662.4 777.9,662.4 776.0,662.4 774.2,662.4 772.3,662.4 770.4,662.4 768.6,662.4 766.7,662.4 764.8,662.4 762.9,662.4 761.1,662.4
759.2,662.4 757.3,662.4 755.5,662.4 753.6,662.4 751.7,662.4 749.9,662.4 748.0,662.4 746.1,662.4 744.2,662.4 742.4,662.4 740.5,662.4 738.6,662.4 736.8,662.4 734.9,662.4 733.0,662.4 731.1,662.4
729.3,662.4 727.4,662.4 725.5,662.4 723.7,662.4 721.8,662.4 719.9,662.4 718.1,662.4 716.2,662.4 714.3,662.4 712.4,662.4 710.6,662.4 708.7,662.4 706.8,662.4 705.0,662.4 703.1,662.4 701.2,662.4
699.3,662.4 697.5,662.4 695.6,662.4 693.7,662.4 691.9,662.4 690.0,662.4 688.1,662.4 686.3,662.4 684.4,662.4 682.5,662.4 680.6,662.4 678.8,662.4 676.9,662.4 675.0,662.4 673.2,662.4 671.3,662.4
669.4,662.4 667.5,662.4 665.7,662.4 663.8,662.4 661.9,662.4 660.1,662.4 658.2,662.4 656.3,662.4 654.5,662.4 652.6,662.4 650.7,662.4 648.8,662.4 647.0,662.4 645.1,662.4 643.2,662.4 641.4,662.4
639.5,662.4 637.6,662.4 635.8,662.4 633.9,662.4 632.0,662.4 630.1,662.4 628.3,662.4 626.4,662.4 624.5,662.4 622.7,662.4 620.8,662.4 618.9,662.4 617.0,662.4 615.2,662.4 613.3,662.4 611.4,662.4
609.6,662.4 607.7,662.4 605.8,662.4 604.0,662.4 602.1,662.4 600.2,662.4 598.3,662.4 596.5,662.4 594.6,662.4 592.7,662.4 590.9,662.4 589.0,662.4 587.1,662.4 585.2,662.4 583.4,662.4 581.5,662.4
579.6,662.4 577.8,662.4 575.9,662.4 574.0,662.4 572.2,662.4 570.3,662.4 568.4,662.4 566.5,662.4 564.7,662.4 562.8,662.4 560.9,662.4 559.1,662.4 557.2,662.4 555.3,662.4 553.4,662.4 551.6,662.4
549.7,662.4 547.8,662.4 546.0,662.4 544.1,662.4 542.2,662.4 540.4,662.4 538.5,662.4 536.6,662.4 534.7,662.4 532.9,662.4 531.0,662.4 529.1,662.4 527.3,662.4 525.4,662.4 523.5,662.4 521.6,662.4
519.8,662.4 517.9,662.4 516.0,662.4 514.2,662.4 512.3,662.4 510.4,662.4 508.6,662.4 506.7,662.4 504.8,662.4 502.9,662.4 501.1,662.4 499.2,662.4 497.3,662.4 495.5,662.4 493.6,662.4 491.7,662.4
489.8,662.4 488.0,662.4 486.1,662.4 484.2,662.4 482.4,662.4 480.5,662.4 478.6,662.4 476.8,662.4 474.9,662.4 473.0,662.4 471.1,662.4 469.3,662.4 467.4,662.4 465.5,662.4 463.7,662.4 461.8,662.4
459.9,662.4 458.0,662.4 456.2,662.4 454.3,662.4 452.4,662.4 450.6,662.4 448.7,662.4 446.8,662.4 445.0,662.4 443.1,662.4 441.2,662.4 439.3,662.4 437.5,662.4 435.6,662.4 433.7,662.4 431.9,662.4
430.0,662.4 428.1,662.4 426.3,662.4 424.4,662.4 422.5,662.4 420.6,662.4 418.8,662.4 416.9,662.4 415.0,662.4 413.2,662.4 411.3,662.4 409.4,662.4 407.5,662.4 405.7,662.4 403.8,662.4 401.9,662.4
400.1,662.4 398.2,662.4 396.3,662.4 394.5,662.4 392.6,662.4 390.7,662.4 388.8,662.4 387.0,662.4 385.1,662.4 383.2,662.4 381.4,662.4 379.5,662.4 377.6,662.4 375.7,662.4 373.9,662.4 372.0,662.4
370.1,662.4 368.3,662.4 366.4,662.4 364.5,662.4 362.7,662.4 360.8,662.4 358.9,662.4 357.0,662.4 355.2,662.4 353.3,662.4 351.4,662.4 349.6,662.4 347.7,662.4 345.8,662.4 343.9,662.4 342.1,662.4
340.2,662.4 338.3,662.4 336.5,662.4 334.6,662.4 332.7,662.4 330.9,662.4 329.0,662.4 327.1,662.4 325.2,662.4 323.4,662.4 321.5,662.4 319.6,662.4 317.8,662.4 315.9,662.4 314.0,662.4 312.1,662.4
310.3,662.4 308.4,662.4 306.5,662.4 304.7,662.4 302.8,662.4 300.9,662.4 299.1,662.4 297.2,662.4 295.3,662.4 293.4,662.4 291.6,662.4 289.7,662.4 287.8,662.4 286.0,662.4 284.1,662.4 282.2,662.4
280.3,662.4 278.5,662.4 276.6,662.4 274.7,662.4 272.9,662.4 271.0,662.4 269.1,662.4 267.3,662.4 265.4,662.4 263.5,662.4 261.6,662.4 259.8,662.4 257.9,662.4 256.0,662.4 254.2,662.4 252.3,662.4
250.4,662.4 248.5,662.4 246.7,662.4 244.8,662.4 242.9,662.4 241.1,662.4 239.2,662.4 237.3,662.4 235.5,662.4 233.6,662.4 231.7,662.4 229.8,662.4 228.0,662.4 226.1,662.4 224.2,662.4 222.4,662.4
220.5,662.4 218.6,662.4 216.7,662.4 214.9,662.4 213.0,662.4 211.1,662.4 209.3,662.4 207.4,662.4 205.5,662.4 203.7,662.4 201.8,662.4 199.9,662.4 198.0,662.4 196.2,662.4 194.3,662.4 192.4,662.4
190.6,662.4 188.7,662.4 186.8,662.4 185.0,662.4 183.1,662.4 181.2,662.4 179.3,662.4 177.5,662.4 175.6,662.4 173.7,662.4 171.9,662.4 170.0,662.4 168.1,662.4 166.2,662.4 '/>
	</g>
</g>
	</g>
	<g id="gnuplot_plot_3" ><title>Point estimate</title>
<g fill="none" color="white" stroke="rgb( 31, 120, 180)" stroke-width="2.00" stroke-linecap="butt" stroke-linejoin="miter">
</g>
<g fill="none" color="black" stroke="currentColor" stroke-width="2.00" stroke-linecap="butt" stroke-linejoin="miter">
	<g transform="translate(1089.0,103.0)" stroke="none" fill="black" font-family="Helvetica" font-size="12.00"  text-anchor="start">
		<text><tspan font-family="Helvetica" >Point estimate</tspan></text>
	</g>
</g>
<g fill="none" color="black" stroke="currentColor" stroke-width="2.00" stroke-linecap="butt" stroke-linejoin="miter">
	<path stroke='rgb( 31, 120, 180)'  d='M1038.5,99.1 L1080.7,99.1 M519.2,662.4 L519.2,129.0  '/></g>
	</g>
	<g id="gnuplot_plot_4" ><title>Noise threshold</title>
<g fill="none" color="white" stroke="rgb( 31, 120, 180)" stroke-width="1.00" stroke-linecap="butt" stroke-linejoin="miter">
</g>
<g fill="none" color="black" stroke="currentColor" stroke-width="1.00" stroke-linecap="butt" stroke-linejoin="miter">
	<g transform="translate(1089.0,121.0)" stroke="none" fill="black" font-family="Helvetica" font-size="12.00"  text-anchor="start">
		<text><tspan font-family="Helvetica" >Noise threshold</tspan></text>
	</g>
</g>
<g fill="none" color="black" stroke="currentColor" stroke-width="1.00" stroke-linecap="butt" stroke-linejoin="miter">
	<g stroke='none' shape-rendering='crispEdges'>
		<polygon fill = 'rgb(227,  26,  28)' fill-opacity = '0.100000' points = '1038.5,121.6 1080.7,121.6 1080.7,112.6 1038.5,112.6 '/>
		<polygon fill = 'rgb(227,  26,  28)' fill-opacity = '0.100000' points = '80.2,54.1 1013.6,54.1 1013.6,662.4 80.2,662.4 '/>
	</g>
</g>
	</g>
<g fill="none" color="white" stroke="rgb(227,  26,  28)" stroke-width="2.00" stroke-linecap="butt" stroke-linejoin="miter">
</g>
<g fill="none" color="black" stroke="currentColor" stroke-width="2.00" stroke-linecap="butt" stroke-linejoin="miter">
</g>
<g fill="none" color="black" stroke="black" stroke-width="1.00" stroke-linecap="butt" stroke-linejoin="miter">
</g>
<g fill="none" color="black" stroke="currentColor" stroke-width="1.00" stroke-linecap="butt" stroke-linejoin="miter">
	<path stroke='black'  d='M80.2,54.1 L80.2,662.4 L1013.6,662.4 L1013.6,54.1 L80.2,54.1 Z  '/></g>
<g fill="none" color="black" stroke="currentColor" stroke-width="1.00" stroke-linecap="butt" stroke-linejoin="miter">
</g>
</g>
</svg>

