<?xml version="1.0" encoding="utf-8"  standalone="no"?>
<svg 
 viewBox="0 0 1280 720"
 xmlns="http://www.w3.org/2000/svg"
 xmlns:xlink="http://www.w3.org/1999/xlink"
>

<title>Gnuplot</title>
<desc>Produced by GNUPLOT 5.2 patchlevel 6 </desc>

<g id="gnuplot_canvas">

<rect x="0" y="0" width="1280" height="720" fill="none"/>
<defs>

	<circle id='gpDot' r='0.5' stroke-width='0.5' stroke='currentColor'/>
	<path id='gpPt0' stroke-width='0.222' stroke='currentColor' d='M-1,0 h2 M0,-1 v2'/>
	<path id='gpPt1' stroke-width='0.222' stroke='currentColor' d='M-1,-1 L1,1 M1,-1 L-1,1'/>
	<path id='gpPt2' stroke-width='0.222' stroke='currentColor' d='M-1,0 L1,0 M0,-1 L0,1 M-1,-1 L1,1 M-1,1 L1,-1'/>
	<rect id='gpPt3' stroke-width='0.222' stroke='currentColor' x='-1' y='-1' width='2' height='2'/>
	<rect id='gpPt4' stroke-width='0.222' stroke='currentColor' fill='currentColor' x='-1' y='-1' width='2' height='2'/>
	<circle id='gpPt5' stroke-width='0.222' stroke='currentColor' cx='0' cy='0' r='1'/>
	<use xlink:href='#gpPt5' id='gpPt6' fill='currentColor' stroke='none'/>
	<path id='gpPt7' stroke-width='0.222' stroke='currentColor' d='M0,-1.33 L-1.33,0.67 L1.33,0.67 z'/>
	<use xlink:href='#gpPt7' id='gpPt8' fill='currentColor' stroke='none'/>
	<use xlink:href='#gpPt7' id='gpPt9' stroke='currentColor' transform='rotate(180)'/>
	<use xlink:href='#gpPt9' id='gpPt10' fill='currentColor' stroke='none'/>
	<use xlink:href='#gpPt3' id='gpPt11' stroke='currentColor' transform='rotate(45)'/>
	<use xlink:href='#gpPt11' id='gpPt12' fill='currentColor' stroke='none'/>
	<path id='gpPt13' stroke-width='0.222' stroke='currentColor' d='M0,1.330 L1.265,0.411 L0.782,-1.067 L-0.782,-1.076 L-1.265,0.411 z'/>
	<use xlink:href='#gpPt13' id='gpPt14' fill='currentColor' stroke='none'/>
	<filter id='textbox' filterUnits='objectBoundingBox' x='0' y='0' height='1' width='1'>
	  <feFlood flood-color='white' flood-opacity='1' result='bgnd'/>
	  <feComposite in='SourceGraphic' in2='bgnd' operator='atop'/>
	</filter>
	<filter id='greybox' filterUnits='objectBoundingBox' x='0' y='0' height='1' width='1'>
	  <feFlood flood-color='lightgrey' flood-opacity='1' result='grey'/>
	  <feComposite in='SourceGraphic' in2='grey' operator='atop'/>
	</filter>
</defs>
<g fill="none" color="white" stroke="currentColor" stroke-width="1.00" stroke-linecap="butt" stroke-linejoin="miter">
</g>
<g fill="none" color="black" stroke="currentColor" stroke-width="1.00" stroke-linecap="butt" stroke-linejoin="miter">
	<path stroke='black'  d='M80.2,662.4 L89.2,662.4  '/>	<g transform="translate(71.9,666.3)" stroke="none" fill="black" font-family="Helvetica" font-size="12.00"  text-anchor="end">
		<text><tspan font-family="Helvetica" > 0</tspan></text>
	</g>
</g>
<g fill="none" color="black" stroke="currentColor" stroke-width="1.00" stroke-linecap="butt" stroke-linejoin="miter">
	<path stroke='black'  d='M80.2,540.7 L89.2,540.7  '/>	<g transform="translate(71.9,544.6)" stroke="none" fill="black" font-family="Helvetica" font-size="12.00"  text-anchor="end">
		<text><tspan font-family="Helvetica" > 500</tspan></text>
	</g>
</g>
<g fill="none" color="black" stroke="currentColor" stroke-width="1.00" stroke-linecap="butt" stroke-linejoin="miter">
	<path stroke='black'  d='M80.2,419.1 L89.2,419.1  '/>	<g transform="translate(71.9,423.0)" stroke="none" fill="black" font-family="Helvetica" font-size="12.00"  text-anchor="end">
		<text><tspan font-family="Helvetica" > 1000</tspan></text>
	</g>
</g>
<g fill="none" color="black" stroke="currentColor" stroke-width="1.00" stroke-linecap="butt" stroke-linejoin="miter">
	<path stroke='black'  d='M80.2,297.4 L89.2,297.4  '/>	<g transform="translate(71.9,301.3)" stroke="none" fill="black" font-family="Helvetica" font-size="12.00"  text-anchor="end">
		<text><tspan font-family="Helvetica" > 1500</tspan></text>
	</g>
</g>
<g fill="none" color="black" stroke="currentColor" stroke-width="1.00" stroke-linecap="butt" stroke-linejoin="miter">
	<path stroke='black'  d='M80.2,175.8 L89.2,175.8  '/>	<g transform="translate(71.9,179.7)" stroke="none" fill="black" font-family="Helvetica" font-size="12.00"  text-anchor="end">
		<text><tspan font-family="Helvetica" > 2000</tspan></text>
	</g>
</g>
<g fill="none" color="black" stroke="currentColor" stroke-width="1.00" stroke-linecap="butt" stroke-linejoin="miter">
	<path stroke='black'  d='M80.2,54.1 L89.2,54.1  '/>	<g transform="translate(71.9,58.0)" stroke="none" fill="black" font-family="Helvetica" font-size="12.00"  text-anchor="end">
		<text><tspan font-family="Helvetica" > 2500</tspan></text>
	</g>
</g>
<g fill="none" color="black" stroke="currentColor" stroke-width="1.00" stroke-linecap="butt" stroke-linejoin="miter">
	<path stroke='black'  d='M109.4,662.4 L109.4,653.4  '/>	<g transform="translate(109.4,684.3)" stroke="none" fill="black" font-family="Helvetica" font-size="12.00"  text-anchor="middle">
		<text><tspan font-family="Helvetica" > 0.22</tspan></text>
	</g>
</g>
<g fill="none" color="black" stroke="currentColor" stroke-width="1.00" stroke-linecap="butt" stroke-linejoin="miter">
	<path stroke='black'  d='M260.3,662.4 L260.3,653.4  '/>	<g transform="translate(260.3,684.3)" stroke="none" fill="black" font-family="Helvetica" font-size="12.00"  text-anchor="middle">
		<text><tspan font-family="Helvetica" > 0.24</tspan></text>
	</g>
</g>
<g fill="none" color="black" stroke="currentColor" stroke-width="1.00" stroke-linecap="butt" stroke-linejoin="miter">
	<path stroke='black'  d='M411.2,662.4 L411.2,653.4  '/>	<g transform="translate(411.2,684.3)" stroke="none" fill="black" font-family="Helvetica" font-size="12.00"  text-anchor="middle">
		<text><tspan font-family="Helvetica" > 0.26</tspan></text>
	</g>
</g>
<g fill="none" color="black" stroke="currentColor" stroke-width="1.00" stroke-linecap="butt" stroke-linejoin="miter">
	<path stroke='black'  d='M562.2,662.4 L562.2,653.4  '/>	<g transform="translate(562.2,684.3)" stroke="none" fill="black" font-family="Helvetica" font-size="12.00"  text-anchor="middle">
		<text><tspan font-family="Helvetica" > 0.28</tspan></text>
	</g>
</g>
<g fill="none" color="black" stroke="currentColor" stroke-width="1.00" stroke-linecap="butt" stroke-linejoin="miter">
	<path stroke='black'  d='M713.1,662.4 L713.1,653.4  '/>	<g transform="translate(713.1,684.3)" stroke="none" fill="black" font-family="Helvetica" font-size="12.00"  text-anchor="middle">
		<text><tspan font-family="Helvetica" > 0.3</tspan></text>
	</g>
</g>
<g fill="none" color="black" stroke="currentColor" stroke-width="1.00" stroke-linecap="butt" stroke-linejoin="miter">
	<path stroke='black'  d='M864.0,662.4 L864.0,653.4  '/>	<g transform="translate(864.0,684.3)" stroke="none" fill="black" font-family="Helvetica" font-size="12.00"  text-anchor="middle">
		<text><tspan font-family="Helvetica" > 0.32</tspan></text>
	</g>
</g>
<g fill="none" color="black" stroke="currentColor" stroke-width="1.00" stroke-linecap="butt" stroke-linejoin="miter">
</g>
<g fill="none" color="black" stroke="currentColor" stroke-width="1.00" stroke-linecap="butt" stroke-linejoin="miter">
	<path stroke='black'  d='M80.2,54.1 L80.2,662.4 L1013.6,662.4 L1013.6,54.1 L80.2,54.1 Z  '/></g>
<g fill="none" color="black" stroke="currentColor" stroke-width="1.00" stroke-linecap="butt" stroke-linejoin="miter">
	<g transform="translate(16.3,358.3) rotate(270)" stroke="none" fill="black" font-family="Helvetica" font-size="12.00"  text-anchor="middle">
		<text><tspan font-family="Helvetica" >Density (a.u.)</tspan></text>
	</g>
</g>
<g fill="none" color="black" stroke="currentColor" stroke-width="1.00" stroke-linecap="butt" stroke-linejoin="miter">
	<g transform="translate(546.9,711.3)" stroke="none" fill="black" font-family="Helvetica" font-size="12.00"  text-anchor="middle">
		<text><tspan font-family="Helvetica" >Relative change (%)</tspan></text>
	</g>
</g>
<g fill="none" color="black" stroke="currentColor" stroke-width="1.00" stroke-linecap="butt" stroke-linejoin="miter">
	<g transform="translate(546.9,31.0)" stroke="none" fill="black" font-family="Helvetica" font-size="12.00"  text-anchor="middle">
		<text><tspan font-family="Helvetica" >snapshot_restore_with_dense/Sparse: Entire region + process_vm_writev/100: median</tspan></text>
	</g>
</g>
	<g id="gnuplot_plot_1" ><title>Bootstrap distribution</title>
<g fill="none" color="white" stroke="black" stroke-width="2.00" stroke-linecap="butt" stroke-linejoin="miter">
</g>
<g fill="none" color="black" stroke="currentColor" stroke-width="2.00" stroke-linecap="butt" stroke-linejoin="miter">
	<g transform="translate(1089.0,67.0)" stroke="none" fill="black" font-family="Helvetica" font-size="12.00"  text-anchor="start">
		<text><tspan font-family="Helvetica" >Bootstrap distribution</tspan></text>
	</g>
</g>
<g fill="none" color="black" stroke="currentColor" stroke-width="2.00" stroke-linecap="butt" stroke-linejoin="miter">
	<path stroke='rgb( 31, 120, 180)'  d='M1038.5,63.1 L1080.7,63.1 M80.2,649.8 L82.1,649.0 L83.9,648.2 L85.8,647.3 L87.7,646.3 L89.6,645.3
		L91.4,644.2 L93.3,643.1 L95.2,641.9 L97.0,640.6 L98.9,639.2 L100.8,637.8 L102.6,636.3 L104.5,634.8
		L106.4,633.2 L108.3,631.5 L110.1,629.8 L112.0,628.0 L113.9,626.2 L115.7,624.3 L117.6,622.4 L119.5,620.4
		L121.4,618.5 L123.2,616.5 L125.1,614.5 L127.0,612.5 L128.8,610.5 L130.7,608.5 L132.6,606.5 L134.4,604.5
		L136.3,602.6 L138.2,600.7 L140.1,598.9 L141.9,597.2 L143.8,595.4 L145.7,593.8 L147.5,592.2 L149.4,590.7
		L151.3,589.3 L153.2,587.9 L155.0,586.6 L156.9,585.3 L158.8,584.1 L160.6,583.0 L162.5,581.9 L164.4,580.9
		L166.2,579.9 L168.1,579.0 L170.0,578.1 L171.9,577.2 L173.7,576.3 L175.6,575.4 L177.5,574.5 L179.3,573.6
		L181.2,572.7 L183.1,571.8 L185.0,570.8 L186.8,569.8 L188.7,568.7 L190.6,567.6 L192.4,566.4 L194.3,565.2
		L196.2,563.9 L198.0,562.5 L199.9,561.1 L201.8,559.5 L203.7,557.9 L205.5,556.1 L207.4,554.3 L209.3,552.4
		L211.1,550.4 L213.0,548.3 L214.9,546.1 L216.7,543.8 L218.6,541.3 L220.5,538.9 L222.4,536.3 L224.2,533.6
		L226.1,530.8 L228.0,527.9 L229.8,525.0 L231.7,521.9 L233.6,518.8 L235.5,515.6 L237.3,512.2 L239.2,508.8
		L241.1,505.3 L242.9,501.6 L244.8,497.9 L246.7,494.1 L248.5,490.1 L250.4,486.1 L252.3,482.0 L254.2,477.7
		L256.0,473.4 L257.9,469.0 L259.8,464.5 L261.6,460.0 L263.5,455.4 L265.4,450.8 L267.3,446.1 L269.1,441.5
		L271.0,436.8 L272.9,432.2 L274.7,427.7 L276.6,423.1 L278.5,418.7 L280.3,414.3 L282.2,410.0 L284.1,405.8
		L286.0,401.7 L287.8,397.7 L289.7,393.8 L291.6,389.9 L293.4,386.1 L295.3,382.3 L297.2,378.6 L299.1,374.8
		L300.9,371.0 L302.8,367.2 L304.7,363.3 L306.5,359.3 L308.4,355.1 L310.3,350.8 L312.1,346.3 L314.0,341.6
		L315.9,336.7 L317.8,331.6 L319.6,326.3 L321.5,320.7 L323.4,314.9 L325.2,308.9 L327.1,302.8 L329.0,296.4
		L330.9,289.8 L332.7,283.1 L334.6,276.3 L336.5,269.3 L338.3,262.3 L340.2,255.2 L342.1,248.1 L343.9,241.0
		L345.8,233.8 L347.7,226.7 L349.6,219.7 L351.4,212.7 L353.3,205.8 L355.2,199.1 L357.0,192.5 L358.9,186.2
		L360.8,180.0 L362.7,174.1 L364.5,168.6 L366.4,163.3 L368.3,158.6 L370.1,154.2 L372.0,150.4 L373.9,147.2
		L375.7,144.6 L377.6,142.7 L379.5,141.5 L381.4,141.2 L383.2,141.6 L385.1,142.8 L387.0,144.9 L388.8,147.8
		L390.7,151.6 L392.6,156.1 L394.5,161.4 L396.3,167.3 L398.2,173.9 L400.1,181.0 L401.9,188.4 L403.8,196.2
		L405.7,204.2 L407.5,212.3 L409.4,220.3 L411.3,228.1 L413.2,235.7 L415.0,243.0 L416.9,249.8 L418.8,256.1
		L420.6,261.9 L422.5,267.1 L424.4,271.7 L426.3,275.6 L428.1,279.0 L430.0,281.9 L431.9,284.2 L433.7,286.1
		L435.6,287.7 L437.5,289.0 L439.3,290.1 L441.2,291.1 L443.1,292.1 L445.0,293.2 L446.8,294.5 L448.7,296.0
		L450.6,297.8 L452.4,300.0 L454.3,302.5 L456.2,305.5 L458.0,308.8 L459.9,312.6 L461.8,316.7 L463.7,321.1
		L465.5,325.8 L467.4,330.7 L469.3,335.8 L471.1,340.9 L473.0,346.0 L474.9,350.9 L476.8,355.8 L478.6,360.4
		L480.5,364.6 L482.4,368.6 L484.2,372.1 L486.1,375.2 L488.0,377.7 L489.8,379.8 L491.7,381.5 L493.6,382.6
		L495.5,383.2 L497.3,383.3 L499.2,383.1 L501.1,382.4 L502.9,381.4 L504.8,380.0 L506.7,378.4 L508.6,376.5
		L510.4,374.5 L512.3,372.4 L514.2,370.1 L516.0,367.9 L517.9,365.6 L519.8,363.4 L521.6,361.3 L523.5,359.2
		L525.4,357.3 L527.3,355.5 L529.1,353.9 L531.0,352.4 L532.9,351.1 L534.7,349.9 L536.6,348.9 L538.5,348.0
		L540.4,347.3 L542.2,346.6 L544.1,346.0 L546.0,345.6 L547.8,345.1 L549.7,344.8 L551.6,344.5 L553.4,344.2
		L555.3,344.0 L557.2,343.8 L559.1,343.7 L560.9,343.7 L562.8,343.7 L564.7,343.9 L566.5,344.1 L568.4,344.5
		L570.3,345.0 L572.2,345.7 L574.0,346.5 L575.9,347.6 L577.8,348.8 L579.6,350.3 L581.5,352.0 L583.4,353.9
		L585.2,356.0 L587.1,358.3 L589.0,360.8 L590.9,363.5 L592.7,366.4 L594.6,369.4 L596.5,372.5 L598.3,375.8
		L600.2,379.1 L602.1,382.4 L604.0,385.8 L605.8,389.1 L607.7,392.5 L609.6,395.7 L611.4,399.0 L613.3,402.1
		L615.2,405.1 L617.0,408.0 L618.9,410.8 L620.8,413.6 L622.7,416.2 L624.5,418.7 L626.4,421.1 L628.3,423.4
		L630.1,425.7 L632.0,428.0 L633.9,430.2 L635.8,432.4 L637.6,434.6 L639.5,436.9 L641.4,439.2 L643.2,441.6
		L645.1,444.0 L647.0,446.4 L648.8,449.0 L650.7,451.6 L652.6,454.2 L654.5,456.9 L656.3,459.6 L658.2,462.4
		L660.1,465.1 L661.9,467.7 L663.8,470.4 L665.7,472.9 L667.5,475.4 L669.4,477.7 L671.3,479.9 L673.2,482.0
		L675.0,483.9 L676.9,485.7 L678.8,487.4 L680.6,488.9 L682.5,490.3 L684.4,491.6 L686.3,492.8 L688.1,494.0
		L690.0,495.0 L691.9,496.1 L693.7,497.2 L695.6,498.2 L697.5,499.3 L699.3,500.5 L701.2,501.7 L703.1,503.0
		L705.0,504.4 L706.8,505.9 L708.7,507.4 L710.6,509.0 L712.4,510.7 L714.3,512.4 L716.2,514.2 L718.1,515.9
		L719.9,517.7 L721.8,519.4 L723.7,521.0 L725.5,522.5 L727.4,524.0 L729.3,525.3 L731.1,526.5 L733.0,527.5
		L734.9,528.4 L736.8,529.1 L738.6,529.6 L740.5,530.0 L742.4,530.3 L744.2,530.4 L746.1,530.5 L748.0,530.4
		L749.9,530.3 L751.7,530.1 L753.6,529.9 L755.5,529.7 L757.3,529.6 L759.2,529.5 L761.1,529.5 L762.9,529.6
		L764.8,529.8 L766.7,530.1 L768.6,530.6 L770.4,531.3 L772.3,532.1 L774.2,533.2 L776.0,534.3 L777.9,535.7
		L779.8,537.2 L781.7,538.8 L783.5,540.7 L785.4,542.6 L787.3,544.6 L789.1,546.8 L791.0,549.0 L792.9,551.3
		L794.7,553.7 L796.6,556.0 L798.5,558.3 L800.4,560.7 L802.2,563.0 L804.1,565.2 L806.0,567.3 L807.8,569.4
		L809.7,571.3 L811.6,573.1 L813.5,574.9 L815.3,576.4 L817.2,577.9 L819.1,579.2 L820.9,580.5 L822.8,581.6
		L824.7,582.6 L826.5,583.5 L828.4,584.3 L830.3,585.1 L832.2,585.8 L834.0,586.6 L835.9,587.3 L837.8,588.0
		L839.6,588.7 L841.5,589.4 L843.4,590.2 L845.3,591.0 L847.1,591.9 L849.0,592.8 L850.9,593.8 L852.7,594.8
		L854.6,595.9 L856.5,597.0 L858.3,598.1 L860.2,599.2 L862.1,600.4 L864.0,601.5 L865.8,602.6 L867.7,603.7
		L869.6,604.7 L871.4,605.6 L873.3,606.5 L875.2,607.3 L877.1,607.9 L878.9,608.5 L880.8,609.0 L882.7,609.3
		L884.5,609.6 L886.4,609.7 L888.3,609.7 L890.1,609.6 L892.0,609.5 L893.9,609.2 L895.8,608.9 L897.6,608.5
		L899.5,608.1 L901.4,607.7 L903.2,607.2 L905.1,606.8 L907.0,606.3 L908.8,605.9 L910.7,605.6 L912.6,605.4
		L914.5,605.2 L916.3,605.1 L918.2,605.1 L920.1,605.2 L921.9,605.4 L923.8,605.8 L925.7,606.2 L927.6,606.8
		L929.4,607.4 L931.3,608.2 L933.2,609.0 L935.0,609.9 L936.9,610.9 L938.8,611.9 L940.6,612.9 L942.5,614.0
		L944.4,615.0 L946.3,616.1 L948.1,617.1 L950.0,618.1 L951.9,619.1 L953.7,620.0 L955.6,620.9 L957.5,621.8
		L959.4,622.5 L961.2,623.2 L963.1,623.9 L965.0,624.5 L966.8,625.0 L968.7,625.5 L970.6,626.0 L972.4,626.4
		L974.3,626.8 L976.2,627.2 L978.1,627.5 L979.9,627.9 L981.8,628.2 L983.7,628.6 L985.5,629.0 L987.4,629.4
		L989.3,629.9 L991.2,630.3 L993.0,630.8 L994.9,631.4 L996.8,631.9 L998.6,632.6 L1000.5,633.2 L1002.4,633.9
		L1004.2,634.6 L1006.1,635.4 L1008.0,636.2 L1009.9,636.9 L1011.7,637.7 L1013.6,638.6  '/></g>
	</g>
	<g id="gnuplot_plot_2" ><title>Confidence interval</title>
<g fill="none" color="white" stroke="rgb( 31, 120, 180)" stroke-width="1.00" stroke-linecap="butt" stroke-linejoin="miter">
</g>
<g fill="none" color="black" stroke="currentColor" stroke-width="1.00" stroke-linecap="butt" stroke-linejoin="miter">
	<g transform="translate(1089.0,85.0)" stroke="none" fill="black" font-family="Helvetica" font-size="12.00"  text-anchor="start">
		<text><tspan font-family="Helvetica" >Confidence interval</tspan></text>
	</g>
</g>
<g fill="none" color="black" stroke="currentColor" stroke-width="1.00" stroke-linecap="butt" stroke-linejoin="miter">
	<g stroke='none' shape-rendering='crispEdges'>
		<polygon fill = 'rgb( 31, 120, 180)' fill-opacity = '0.250000' points = '1038.5,85.6 1080.7,85.6 1080.7,76.6 1038.5,76.6 '/>
		<polygon fill = 'rgb( 31, 120, 180)' fill-opacity = '0.250000' points = '166.2,579.9 168.1,579.0 170.0,578.1 171.9,577.2 173.7,576.3 175.6,575.4 177.5,574.5 179.3,573.6 181.2,572.7 183.1,571.8 185.0,570.8 186.8,569.8 188.7,568.7 190.6,567.6 192.4,566.4 194.3,565.2
196.2,563.9 198.0,562.5 199.9,561.1 201.8,559.5 203.7,557.9 205.5,556.1 207.4,554.3 209.3,552.4 211.1,550.4 213.0,548.3 214.9,546.1 216.7,543.8 218.6,541.3 220.5,538.9 222.4,536.3 224.2,533.6
226.1,530.8 228.0,527.9 229.8,525.0 231.7,521.9 233.6,518.8 235.5,515.6 237.3,512.2 239.2,508.8 241.1,505.3 242.9,501.6 244.8,497.9 246.7,494.1 248.5,490.1 250.4,486.1 252.3,482.0 254.2,477.7
256.0,473.4 257.9,469.0 259.8,464.5 261.6,460.0 263.5,455.4 265.4,450.8 267.3,446.1 269.1,441.5 271.0,436.8 272.9,432.2 274.7,427.7 276.6,423.1 278.5,418.7 280.3,414.3 282.2,410.0 284.1,405.8
286.0,401.7 287.8,397.7 289.7,393.8 291.6,389.9 293.4,386.1 295.3,382.3 297.2,378.6 299.1,374.8 300.9,371.0 302.8,367.2 304.7,363.3 306.5,359.3 308.4,355.1 310.3,350.8 312.1,346.3 314.0,341.6
315.9,336.7 317.8,331.6 319.6,326.3 321.5,320.7 323.4,314.9 325.2,308.9 327.1,302.8 329.0,296.4 330.9,289.8 332.7,283.1 334.6,276.3 336.5,269.3 338.3,262.3 340.2,255.2 342.1,248.1 343.9,241.0
345.8,233.8 347.7,226.7 349.6,219.7 351.4,212.7 353.3,205.8 355.2,199.1 357.0,192.5 358.9,186.2 360.8,180.0 362.7,174.1 364.5,168.6 366.4,163.3 368.3,158.6 370.1,154.2 372.0,150.4 373.9,147.2
375.7,144.6 377.6,142.7 379.5,141.5 381.4,141.2 383.2,141.6 385.1,142.8 387.0,144.9 388.8,147.8 390.7,151.6 392.6,156.1 394.5,161.4 396.3,167.3 398.2,173.9 400.1,181.0 401.9,188.4 403.8,196.2
405.7,204.2 407.5,212.3 409.4,220.3 411.3,228.1 413.2,235.7 415.0,243.0 416.9,249.8 418.8,256.1 420.6,261.9 422.5,267.1 424.4,271.7 426.3,275.6 428.1,279.0 430.0,281.9 431.9,284.2 433.7,286.1
435.6,287.7 437.5,289.0 439.3,290.1 441.2,291.1 443.1,292.1 445.0,293.2 446.8,294.5 448.7,296.0 450.6,297.8 452.4,300.0 454.3,302.5 456.2,305.5 458.0,308.8 459.9,312.6 461.8,316.7 463.7,321.1
465.5,325.8 467.4,330.7 469.3,335.8 471.1,340.9 473.0,346.0 474.9,350.9 476.8,355.8 478.6,360.4 480.5,364.6 482.4,368.6 484.2,372.1 486.1,375.2 488.0,377.7 489.8,379.8 491.7,381.5 493.6,382.6
495.5,383.2 497.3,383.3 499.2,383.1 501.1,382.4 502.9,381.4 504.8,380.0 506.7,378.4 508.6,376.5 510.4,374.5 512.3,372.4 514.2,370.1 516.0,367.9 517.9,365.6 519.8,363.4 521.6,361.3 523.5,359.2
525.4,357.3 527.3,355.5 529.1,353.9 531.0,352.4 532.9,351.1 534.7,349.9 536.6,348.9 538.5,348.0 540.4,347.3 542.2,346.6 544.1,346.0 546.0,345.6 547.8,345.1 549.7,344.8 551.6,344.5 553.4,344.2
555.3,344.0 557.2,343.8 559.1,343.7 560.9,343.7 562.8,343.7 564.7,343.9 566.5,344.1 568.4,344.5 570.3,345.0 572.2,345.7 574.0,346.5 575.9,347.6 577.8,348.8 579.6,350.3 581.5,352.0 583.4,353.9
585.2,356.0 587.1,358.3 589.0,360.8 590.9,363.5 592.7,366.4 594.6,369.4 596.5,372.5 598.3,375.8 600.2,379.1 602.1,382.4 604.0,385.8 605.8,389.1 607.7,392.5 609.6,395.7 611.4,399.0 613.3,402.1
615.2,405.1 617.0,408.0 618.9,410.8 620.8,413.6 622.7,416.2 624.5,418.7 626.4,421.1 628.3,423.4 630.1,425.7 632.0,428.0 633.9,430.2 635.8,432.4 637.6,434.6 639.5,436.9 641.4,439.2 643.2,441.6
645.1,444.0 647.0,446.4 648.8,449.0 650.7,451.6 652.6,454.2 654.5,456.9 656.3,459.6 658.2,462.4 660.1,465.1 661.9,467.7 663.8,470.4 665.7,472.9 667.5,475.4 669.4,477.7 671.3,479.9 673.2,482.0
675.0,483.9 676.9,485.7 678.8,487.4 680.6,488.9 682.5,490.3 684.4,491.6 686.3,492.8 688.1,494.0 690.0,495.0 691.9,496.1 693.7,497.2 695.6,498.2 697.5,499.3 699.3,500.5 701.2,501.7 703.1,503.0
705.0,504.4 706.8,505.9 708.7,507.4 710.6,509.0 712.4,510.7 714.3,512.4 716.2,514.2 718.1,515.9 719.9,517.7 721.8,519.4 723.7,521.0 725.5,522.5 727.4,524.0 729.3,525.3 731.1,526.5 733.0,527.5
734.9,528.4 736.8,529.1 738.6,529.6 740.5,530.0 742.4,530.3 744.2,530.4 746.1,530.5 748.0,530.4 749.9,530.3 751.7,530.1 753.6,529.9 755.5,529.7 757.3,529.6 759.2,529.5 761.1,529.5 762.9,529.6
764.8,529.8 766.7,530.1 768.6,530.6 770.4,531.3 772.3,532.1 774.2,533.2 776.0,534.3 777.9,535.7 779.8,537.2 781.7,538.8 783.5,540.7 785.4,542.6 787.3,544.6 789.1,546.8 791.0,549.0 792.9,551.3
794.7,553.7 796.6,556.0 798.5,558.3 800.4,560.7 802.2,563.0 804.1,565.2 806.0,567.3 807.8,569.4 809.7,571.3 811.6,573.1 813.5,574.9 815.3,576.4 817.2,577.9 819.1,579.2 820.9,580.5 822.8,581.6
824.7,582.6 826.5,583.5 828.4,584.3 830.3,585.1 832.2,585.8 834.0,586.6 835.9,587.3 837.8,588.0 839.6,588.7 841.5,589.4 843.4,590.2 845.3,591.0 847.1,591.9 849.0,592.8 850.9,593.8 852.7,594.8
854.6,595.9 856.5,597.0 858.3,598.1 860.2,599.2 862.1,600.4 864.0,601.5 865.8,602.6 867.7,603.7 869.6,604.7 871.4,605.6 873.3,606.5 875.2,607.3 877.1,607.9 878.9,608.5 880.8,609.0 882.7,609.3
884.5,609.6 886.4,609.7 888.3,609.7 890.1,609.6 892.0,609.5 893.9,609.2 895.8,608.9 897.6,608.5 899.5,608.1 901.4,607.7 903.2,607.2 905.1,606.8 907.0,606.3 908.8,605.9 910.7,605.6 912.6,605.4
914.5,605.2 916.3,605.1 918.2,605.1 920.1,605.2 921.9,605.4 923.8,605.8 925.7,606.2 925.7,662.4 923.8,662.4 921.9,662.4 920.1,662.4 918.2,662.4 916.3,662.4 914.5,662.4 912.6,662.4 910.7,662.4
908.8,662.4 907.0,662.4 905.1,662.4 903.2,662.4 901.4,662.4 899.5,662.4 897.6,662.4 895.8,662.4 893.9,662.4 892.0,662.4 890.1,662.4 888.3,662.4 886.4,662.4 884.5,662.4 882.7,662.4 880.8,662.4
878.9,662.4 877.1,662.4 875.2,662.4 873.3,662.4 871.4,662.4 869.6,662.4 867.7,662.4 865.8,662.4 864.0,662.4 862.1,662.4 860.2,662.4 858.3,662.4 856.5,662.4 854.6,662.4 852.7,662.4 850.9,662.4
849.0,662.4 847.1,662.4 845.3,662.4 843.4,662.4 841.5,662.4 839.6,662.4 837.8,662.4 835.9,662.4 834.0,662.4 832.2,662.4 830.3,662.4 828.4,662.4 826.5,662.4 824.7,662.4 822.8,662.4 820.9,662.4
819.1,662.4 817.2,662.4 815.3,662.4 813.5,662.4 811.6,662.4 809.7,662.4 807.8,662.4 806.0,662.4 804.1,662.4 802.2,662.4 800.4,662.4 798.5,662.4 796.6,662.4 794.7,662.4 792.9,662.4 791.0,662.4
789.1,662.4 787.3,662.4 785.4,662.4 783.5,662.4 781.7,662.4 779.8,662.4 777.9,662.4 776.0,662.4 774.2,662.4 772.3,662.4 770.4,662.4 768.6,662.4 766.7,662.4 764.8,662.4 762.9,662.4 761.1,662.4
759.2,662.4 757.3,662.4 755.5,662.4 753.6,662.4 751.7,662.4 749.9,662.4 748.0,662.4 746.1,662.4 744.2,662.4 742.4,662.4 740.5,662.4 738.6,662.4 736.8,662.4 734.9,662.4 733.0,662.4 731.1,662.4
729.3,662.4 727.4,662.4 725.5,662.4 723.7,662.4 721.8,662.4 719.9,662.4 718.1,662.4 716.2,662.4 714.3,662.4 712.4,662.4 710.6,662.4 708.7,662.4 706.8,662.4 705.0,662.4 703.1,662.4 701.2,662.4
699.3,662.4 697.5,662.4 695.6,662.4 693.7,662.4 691.9,662.4 690.0,662.4 688.1,662.4 686.3,662.4 684.4,662.4 682.5,662.4 680.6,662.4 678.8,662.4 676.9,662.4 675.0,662.4 673.2,662.4 671.3,662.4
669.4,662.4 667.5,662.4 665.7,662.4 663.8,662.4 661.9,662.4 660.1,662.4 658.2,662.4 656.3,662.4 654.5,662.4 652.6,662.4 650.7,662.4 648.8,662.4 647.0,662.4 645.1,662.4 643.2,662.4 641.4,662.4
639.5,662.4 637.6,662.4 635.8,662.4 633.9,662.4 632.0,662.4 630.1,662.4 628.3,662.4 626.4,662.4 624.5,662.4 622.7,662.4 620.8,662.4 618.9,662.4 617.0,662.4 615.2,662.4 613.3,662.4 611.4,662.4
609.6,662.4 607.7,662.4 605.8,662.4 604.0,662.4 602.1,662.4 600.2,662.4 598.3,662.4 596.5,662.4 594.6,662.4 592.7,662.4 590.9,662.4 589.0,662.4 587.1,662.4 585.2,662.4 583.4,662.4 581.5,662.4
579.6,662.4 577.8,662.4 575.9,662.4 574.0,662.4 572.2,662.4 570.3,662.4 568.4,662.4 566.5,662.4 564.7,662.4 562.8,662.4 560.9,662.4 559.1,662.4 557.2,662.4 555.3,662.4 553.4,662.4 551.6,662.4
549.7,662.4 547.8,662.4 546.0,662.4 544.1,662.4 542.2,662.4 540.4,662.4 538.5,662.4 536.6,662.4 534.7,662.4 532.9,662.4 531.0,662.4 529.1,662.4 527.3,662.4 525.4,662.4 523.5,662.4 521.6,662.4
519.8,662.4 517.9,662.4 516.0,662.4 514.2,662.4 512.3,662.4 510.4,662.4 508.6,662.4 506.7,662.4 504.8,662.4 502.9,662.4 501.1,662.4 499.2,662.4 497.3,662.4 495.5,662.4 493.6,662.4 491.7,662.4
489.8,662.4 488.0,662.4 486.1,662.4 484.2,662.4 482.4,662.4 480.5,662.4 478.6,662.4 476.8,662.4 474.9,662.4 473.0,662.4 471.1,662.4 469.3,662.4 467.4,662.4 465.5,662.4 463.7,662.4 461.8,662.4
459.9,662.4 458.0,662.4 456.2,662.4 454.3,662.4 452.4,662.4 450.6,662.4 448.7,662.4 446.8,662.4 445.0,662.4 443.1,662.4 441.2,662.4 439.3,662.4 437.5,662.4 435.6,662.4 433.7,662.4 431.9,662.4
430.0,662.4 428.1,662.4 426.3,662.4 424.4,662.4 422.5,662.4 420.6,662.4 418.8,662.4 416.9,662.4 415.0,662.4 413.2,662.4 411.3,662.4 409.4,662.4 407.5,662.4 405.7,662.4 403.8,662.4 401.9,662.4
400.1,662.4 398.2,662.4 396.3,662.4 394.5,662.4 392.6,662.4 390.7,662.4 388.8,662.4 387.0,662.4 385.1,662.4 383.2,662.4 381.4,662.4 379.5,662.4 377.6,662.4 375.7,662.4 373.9,662.4 372.0,662.4
370.1,662.4 368.3,662.4 366.4,662.4 364.5,662.4 362.7,662.4 360.8,662.4 358.9,662.4 357.0,662.4 355.2,662.4 353.3,662.4 351.4,662.4 349.6,662.4 347.7,662.4 345.8,662.4 343.9,662.4 342.1,662.4
340.2,662.4 338.3,662.4 336.5,662.4 334.6,662.4 332.7,662.4 330.9,662.4 329.0,662.4 327.1,662.4 325.2,662.4 323.4,662.4 321.5,662.4 319.6,662.4 317.8,662.4 315.9,662.4 314.0,662.4 312.1,662.4
310.3,662.4 308.4,662.4 306.5,662.4 304.7,662.4 302.8,662.4 300.9,662.4 299.1,662.4 297.2,662.4 295.3,662.4 293.4,662.4 291.6,662.4 289.7,662.4 287.8,662.4 286.0,662.4 284.1,662.4 282.2,662.4
280.3,662.4 278.5,662.4 276.6,662.4 274.7,662.4 272.9,662.4 271.0,662.4 269.1,662.4 267.3,662.4 265.4,662.4 263.5,662.4 261.6,662.4 259.8,662.4 257.9,662.4 256.0,662.4 254.2,662.4 252.3,662.4
250.4,662.4 248.5,662.4 246.7,662.4 244.8,662.4 242.9,662.4 241.1,662.4 239.2,662.4 237.3,662.4 235.5,662.4 233.6,662.4 231.7,662.4 229.8,662.4 228.0,662.4 226.1,662.4 224.2,662.4 222.4,662.4
220.5,662.4 218.6,662.4 216.7,662.4 214.9,662.4 213.0,662.4 211.1,662.4 209.3,662.4 207.4,662.4 205.5,662.4 203.7,662.4 201.8,662.4 199.9,662.4 198.0,662.4 196.2,662.4 194.3,662.4 192.4,662.4
190.6,662.4 188.7,662.4 186.8,662.4 185.0,662.4 183.1,662.4 181.2,662.4 179.3,662.4 177.5,662.4 175.6,662.4 173.7,662.4 171.9,662.4 170.0,662.4 168.1,662.4 166.2,662.4 '/>
	</g>
</g>
	</g>
	<g id="gnuplot_plot_3" ><title>Point estimate</title>
<g fill="none" color="white" stroke="rgb( 31, 120, 180)" stroke-width="2.00" stroke-linecap="butt" stroke-linejoin="miter">
</g>
<g fill="none" color="black" stroke="currentColor" stroke-width="2.00" stroke-linecap="butt" stroke-linejoin="miter">
	<g transform="translate(1089.0,103.0)" stroke="none" fill="black" font-family="Helvetica" font-size="12.00"  text-anchor="start">
		<text><tspan font-family="Helvetica" >Point estimate</tspan></text>
	</g>
</g>
<g fill="none" color="black" stroke="currentColor" stroke-width="2.00" stroke-linecap="butt" stroke-linejoin="miter">
	<path stroke='rgb( 31, 120, 180)'  d='M1038.5,99.1 L1080.7,99.1 M401.5,662.4 L401.5,186.8  '/></g>
	</g>
	<g id="gnuplot_plot_4" ><title>Noise threshold</title>
<g fill="none" color="white" stroke="rgb( 31, 120, 180)" stroke-width="1.00" stroke-linecap="butt" stroke-linejoin="miter">
</g>
<g fill="none" color="black" stroke="currentColor" stroke-width="1.00" stroke-linecap="butt" stroke-linejoin="miter">
	<g transform="translate(1089.0,121.0)" stroke="none" fill="black" font-family="Helvetica" font-size="12.00"  text-anchor="start">
		<text><tspan font-family="Helvetica" >Noise threshold</tspan></text>
	</g>
</g>
<g fill="none" color="black" stroke="currentColor" stroke-width="1.00" stroke-linecap="butt" stroke-linejoin="miter">
	<g stroke='none' shape-rendering='crispEdges'>
		<polygon fill = 'rgb(227,  26,  28)' fill-opacity = '0.100000' points = '1038.5,121.6 1080.7,121.6 1080.7,112.6 1038.5,112.6 '/>
		<polygon fill = 'rgb(227,  26,  28)' fill-opacity = '0.100000' points = '80.2,54.1 1013.6,54.1 1013.6,662.4 80.2,662.4 '/>
	</g>
</g>
	</g>
<g fill="none" color="white" stroke="rgb(227,  26,  28)" stroke-width="2.00" stroke-linecap="butt" stroke-linejoin="miter">
</g>
<g fill="none" color="black" stroke="currentColor" stroke-width="2.00" stroke-linecap="butt" stroke-linejoin="miter">
</g>
<g fill="none" color="black" stroke="black" stroke-width="1.00" stroke-linecap="butt" stroke-linejoin="miter">
</g>
<g fill="none" color="black" stroke="currentColor" stroke-width="1.00" stroke-linecap="butt" stroke-linejoin="miter">
	<path stroke='black'  d='M80.2,54.1 L80.2,662.4 L1013.6,662.4 L1013.6,54.1 L80.2,54.1 Z  '/></g>
<g fill="none" color="black" stroke="currentColor" stroke-width="1.00" stroke-linecap="butt" stroke-linejoin="miter">
</g>
</g>
</svg>

