<?xml version="1.0" encoding="utf-8"  standalone="no"?>
<svg 
 viewBox="0 0 1280 720"
 xmlns="http://www.w3.org/2000/svg"
 xmlns:xlink="http://www.w3.org/1999/xlink"
>

<title>Gnuplot</title>
<desc>Produced by GNUPLOT 5.2 patchlevel 6 </desc>

<g id="gnuplot_canvas">

<rect x="0" y="0" width="1280" height="720" fill="none"/>
<defs>

	<circle id='gpDot' r='0.5' stroke-width='0.5' stroke='currentColor'/>
	<path id='gpPt0' stroke-width='0.222' stroke='currentColor' d='M-1,0 h2 M0,-1 v2'/>
	<path id='gpPt1' stroke-width='0.222' stroke='currentColor' d='M-1,-1 L1,1 M1,-1 L-1,1'/>
	<path id='gpPt2' stroke-width='0.222' stroke='currentColor' d='M-1,0 L1,0 M0,-1 L0,1 M-1,-1 L1,1 M-1,1 L1,-1'/>
	<rect id='gpPt3' stroke-width='0.222' stroke='currentColor' x='-1' y='-1' width='2' height='2'/>
	<rect id='gpPt4' stroke-width='0.222' stroke='currentColor' fill='currentColor' x='-1' y='-1' width='2' height='2'/>
	<circle id='gpPt5' stroke-width='0.222' stroke='currentColor' cx='0' cy='0' r='1'/>
	<use xlink:href='#gpPt5' id='gpPt6' fill='currentColor' stroke='none'/>
	<path id='gpPt7' stroke-width='0.222' stroke='currentColor' d='M0,-1.33 L-1.33,0.67 L1.33,0.67 z'/>
	<use xlink:href='#gpPt7' id='gpPt8' fill='currentColor' stroke='none'/>
	<use xlink:href='#gpPt7' id='gpPt9' stroke='currentColor' transform='rotate(180)'/>
	<use xlink:href='#gpPt9' id='gpPt10' fill='currentColor' stroke='none'/>
	<use xlink:href='#gpPt3' id='gpPt11' stroke='currentColor' transform='rotate(45)'/>
	<use xlink:href='#gpPt11' id='gpPt12' fill='currentColor' stroke='none'/>
	<path id='gpPt13' stroke-width='0.222' stroke='currentColor' d='M0,1.330 L1.265,0.411 L0.782,-1.067 L-0.782,-1.076 L-1.265,0.411 z'/>
	<use xlink:href='#gpPt13' id='gpPt14' fill='currentColor' stroke='none'/>
	<filter id='textbox' filterUnits='objectBoundingBox' x='0' y='0' height='1' width='1'>
	  <feFlood flood-color='white' flood-opacity='1' result='bgnd'/>
	  <feComposite in='SourceGraphic' in2='bgnd' operator='atop'/>
	</filter>
	<filter id='greybox' filterUnits='objectBoundingBox' x='0' y='0' height='1' width='1'>
	  <feFlood flood-color='lightgrey' flood-opacity='1' result='grey'/>
	  <feComposite in='SourceGraphic' in2='grey' operator='atop'/>
	</filter>
</defs>
<g fill="none" color="white" stroke="currentColor" stroke-width="1.00" stroke-linecap="butt" stroke-linejoin="miter">
</g>
<g fill="none" color="black" stroke="currentColor" stroke-width="1.00" stroke-linecap="butt" stroke-linejoin="miter">
	<path stroke='black'  d='M71.9,662.4 L80.9,662.4  '/>	<g transform="translate(63.6,666.3)" stroke="none" fill="black" font-family="Helvetica" font-size="12.00"  text-anchor="end">
		<text><tspan font-family="Helvetica" > 0</tspan></text>
	</g>
</g>
<g fill="none" color="black" stroke="currentColor" stroke-width="1.00" stroke-linecap="butt" stroke-linejoin="miter">
	<path stroke='black'  d='M71.9,540.7 L80.9,540.7  '/>	<g transform="translate(63.6,544.6)" stroke="none" fill="black" font-family="Helvetica" font-size="12.00"  text-anchor="end">
		<text><tspan font-family="Helvetica" > 0.5</tspan></text>
	</g>
</g>
<g fill="none" color="black" stroke="currentColor" stroke-width="1.00" stroke-linecap="butt" stroke-linejoin="miter">
	<path stroke='black'  d='M71.9,419.1 L80.9,419.1  '/>	<g transform="translate(63.6,423.0)" stroke="none" fill="black" font-family="Helvetica" font-size="12.00"  text-anchor="end">
		<text><tspan font-family="Helvetica" > 1</tspan></text>
	</g>
</g>
<g fill="none" color="black" stroke="currentColor" stroke-width="1.00" stroke-linecap="butt" stroke-linejoin="miter">
	<path stroke='black'  d='M71.9,297.4 L80.9,297.4  '/>	<g transform="translate(63.6,301.3)" stroke="none" fill="black" font-family="Helvetica" font-size="12.00"  text-anchor="end">
		<text><tspan font-family="Helvetica" > 1.5</tspan></text>
	</g>
</g>
<g fill="none" color="black" stroke="currentColor" stroke-width="1.00" stroke-linecap="butt" stroke-linejoin="miter">
	<path stroke='black'  d='M71.9,175.8 L80.9,175.8  '/>	<g transform="translate(63.6,179.7)" stroke="none" fill="black" font-family="Helvetica" font-size="12.00"  text-anchor="end">
		<text><tspan font-family="Helvetica" > 2</tspan></text>
	</g>
</g>
<g fill="none" color="black" stroke="currentColor" stroke-width="1.00" stroke-linecap="butt" stroke-linejoin="miter">
	<path stroke='black'  d='M71.9,54.1 L80.9,54.1  '/>	<g transform="translate(63.6,58.0)" stroke="none" fill="black" font-family="Helvetica" font-size="12.00"  text-anchor="end">
		<text><tspan font-family="Helvetica" > 2.5</tspan></text>
	</g>
</g>
<g fill="none" color="black" stroke="currentColor" stroke-width="1.00" stroke-linecap="butt" stroke-linejoin="miter">
	<path stroke='black'  d='M162.6,662.4 L162.6,653.4  '/>	<g transform="translate(162.6,684.3)" stroke="none" fill="black" font-family="Helvetica" font-size="12.00"  text-anchor="middle">
		<text><tspan font-family="Helvetica" > 85.5</tspan></text>
	</g>
</g>
<g fill="none" color="black" stroke="currentColor" stroke-width="1.00" stroke-linecap="butt" stroke-linejoin="miter">
	<path stroke='black'  d='M263.2,662.4 L263.2,653.4  '/>	<g transform="translate(263.2,684.3)" stroke="none" fill="black" font-family="Helvetica" font-size="12.00"  text-anchor="middle">
		<text><tspan font-family="Helvetica" > 85.6</tspan></text>
	</g>
</g>
<g fill="none" color="black" stroke="currentColor" stroke-width="1.00" stroke-linecap="butt" stroke-linejoin="miter">
	<path stroke='black'  d='M363.8,662.4 L363.8,653.4  '/>	<g transform="translate(363.8,684.3)" stroke="none" fill="black" font-family="Helvetica" font-size="12.00"  text-anchor="middle">
		<text><tspan font-family="Helvetica" > 85.7</tspan></text>
	</g>
</g>
<g fill="none" color="black" stroke="currentColor" stroke-width="1.00" stroke-linecap="butt" stroke-linejoin="miter">
	<path stroke='black'  d='M464.4,662.4 L464.4,653.4  '/>	<g transform="translate(464.4,684.3)" stroke="none" fill="black" font-family="Helvetica" font-size="12.00"  text-anchor="middle">
		<text><tspan font-family="Helvetica" > 85.8</tspan></text>
	</g>
</g>
<g fill="none" color="black" stroke="currentColor" stroke-width="1.00" stroke-linecap="butt" stroke-linejoin="miter">
	<path stroke='black'  d='M564.9,662.4 L564.9,653.4  '/>	<g transform="translate(564.9,684.3)" stroke="none" fill="black" font-family="Helvetica" font-size="12.00"  text-anchor="middle">
		<text><tspan font-family="Helvetica" > 85.9</tspan></text>
	</g>
</g>
<g fill="none" color="black" stroke="currentColor" stroke-width="1.00" stroke-linecap="butt" stroke-linejoin="miter">
	<path stroke='black'  d='M665.5,662.4 L665.5,653.4  '/>	<g transform="translate(665.5,684.3)" stroke="none" fill="black" font-family="Helvetica" font-size="12.00"  text-anchor="middle">
		<text><tspan font-family="Helvetica" > 86</tspan></text>
	</g>
</g>
<g fill="none" color="black" stroke="currentColor" stroke-width="1.00" stroke-linecap="butt" stroke-linejoin="miter">
	<path stroke='black'  d='M766.1,662.4 L766.1,653.4  '/>	<g transform="translate(766.1,684.3)" stroke="none" fill="black" font-family="Helvetica" font-size="12.00"  text-anchor="middle">
		<text><tspan font-family="Helvetica" > 86.1</tspan></text>
	</g>
</g>
<g fill="none" color="black" stroke="currentColor" stroke-width="1.00" stroke-linecap="butt" stroke-linejoin="miter">
	<path stroke='black'  d='M866.7,662.4 L866.7,653.4  '/>	<g transform="translate(866.7,684.3)" stroke="none" fill="black" font-family="Helvetica" font-size="12.00"  text-anchor="middle">
		<text><tspan font-family="Helvetica" > 86.2</tspan></text>
	</g>
</g>
<g fill="none" color="black" stroke="currentColor" stroke-width="1.00" stroke-linecap="butt" stroke-linejoin="miter">
	<path stroke='black'  d='M967.2,662.4 L967.2,653.4  '/>	<g transform="translate(967.2,684.3)" stroke="none" fill="black" font-family="Helvetica" font-size="12.00"  text-anchor="middle">
		<text><tspan font-family="Helvetica" > 86.3</tspan></text>
	</g>
</g>
<g fill="none" color="black" stroke="currentColor" stroke-width="1.00" stroke-linecap="butt" stroke-linejoin="miter">
</g>
<g fill="none" color="black" stroke="currentColor" stroke-width="1.00" stroke-linecap="butt" stroke-linejoin="miter">
	<path stroke='black'  d='M71.9,54.1 L71.9,662.4 L1013.6,662.4 L1013.6,54.1 L71.9,54.1 Z  '/></g>
<g fill="none" color="black" stroke="currentColor" stroke-width="1.00" stroke-linecap="butt" stroke-linejoin="miter">
	<g transform="translate(16.3,358.3) rotate(270)" stroke="none" fill="black" font-family="Helvetica" font-size="12.00"  text-anchor="middle">
		<text><tspan font-family="Helvetica" >Density (a.u.)</tspan></text>
	</g>
</g>
<g fill="none" color="black" stroke="currentColor" stroke-width="1.00" stroke-linecap="butt" stroke-linejoin="miter">
	<g transform="translate(542.7,711.3)" stroke="none" fill="black" font-family="Helvetica" font-size="12.00"  text-anchor="middle">
		<text><tspan font-family="Helvetica" >Average time (us)</tspan></text>
	</g>
</g>
<g fill="none" color="black" stroke="currentColor" stroke-width="1.00" stroke-linecap="butt" stroke-linejoin="miter">
	<g transform="translate(542.7,31.0)" stroke="none" fill="black" font-family="Helvetica" font-size="12.00"  text-anchor="middle">
		<text><tspan font-family="Helvetica" >snapshot_restore_with_dense/Dense: Entire region + /proc/pid/mem/100: mean</tspan></text>
	</g>
</g>
	<g id="gnuplot_plot_1" ><title>Bootstrap distribution</title>
<g fill="none" color="white" stroke="black" stroke-width="2.00" stroke-linecap="butt" stroke-linejoin="miter">
</g>
<g fill="none" color="black" stroke="currentColor" stroke-width="2.00" stroke-linecap="butt" stroke-linejoin="miter">
	<g transform="translate(1089.0,67.0)" stroke="none" fill="black" font-family="Helvetica" font-size="12.00"  text-anchor="start">
		<text><tspan font-family="Helvetica" >Bootstrap distribution</tspan></text>
	</g>
</g>
<g fill="none" color="black" stroke="currentColor" stroke-width="2.00" stroke-linecap="butt" stroke-linejoin="miter">
	<path stroke='rgb( 31, 120, 180)'  d='M1038.5,63.1 L1080.7,63.1 M71.9,633.4 L73.8,632.3 L75.7,631.3 L77.6,630.2 L79.4,629.2 L81.3,628.1
		L83.2,626.9 L85.1,625.8 L87.0,624.6 L88.9,623.4 L90.8,622.2 L92.7,620.9 L94.5,619.6 L96.4,618.3
		L98.3,617.0 L100.2,615.6 L102.1,614.2 L104.0,612.8 L105.9,611.3 L107.8,609.8 L109.6,608.3 L111.5,606.8
		L113.4,605.2 L115.3,603.5 L117.2,601.9 L119.1,600.1 L121.0,598.4 L122.9,596.6 L124.7,594.8 L126.6,593.0
		L128.5,591.1 L130.4,589.1 L132.3,587.1 L134.2,585.1 L136.1,583.1 L138.0,581.0 L139.8,578.8 L141.7,576.6
		L143.6,574.4 L145.5,572.2 L147.4,569.9 L149.3,567.6 L151.2,565.3 L153.0,562.9 L154.9,560.5 L156.8,558.1
		L158.7,555.6 L160.6,553.1 L162.5,550.6 L164.4,548.1 L166.3,545.6 L168.1,543.0 L170.0,540.4 L171.9,537.8
		L173.8,535.2 L175.7,532.5 L177.6,529.9 L179.5,527.2 L181.4,524.4 L183.2,521.7 L185.1,518.9 L187.0,516.1
		L188.9,513.3 L190.8,510.5 L192.7,507.6 L194.6,504.7 L196.5,501.9 L198.3,499.0 L200.2,496.0 L202.1,493.1
		L204.0,490.1 L205.9,487.2 L207.8,484.2 L209.7,481.2 L211.6,478.1 L213.4,475.1 L215.3,472.0 L217.2,468.9
		L219.1,465.7 L221.0,462.6 L222.9,459.4 L224.8,456.1 L226.6,452.8 L228.5,449.5 L230.4,446.2 L232.3,442.8
		L234.2,439.4 L236.1,436.0 L238.0,432.5 L239.9,429.0 L241.7,425.5 L243.6,422.0 L245.5,418.5 L247.4,415.0
		L249.3,411.5 L251.2,408.0 L253.1,404.5 L255.0,401.0 L256.8,397.5 L258.7,394.1 L260.6,390.7 L262.5,387.4
		L264.4,384.1 L266.3,380.8 L268.2,377.6 L270.1,374.4 L271.9,371.3 L273.8,368.2 L275.7,365.1 L277.6,362.1
		L279.5,359.1 L281.4,356.2 L283.3,353.3 L285.2,350.4 L287.0,347.5 L288.9,344.7 L290.8,341.8 L292.7,339.0
		L294.6,336.2 L296.5,333.4 L298.4,330.6 L300.2,327.8 L302.1,325.0 L304.0,322.2 L305.9,319.4 L307.8,316.6
		L309.7,313.8 L311.6,311.0 L313.5,308.3 L315.3,305.6 L317.2,302.8 L319.1,300.1 L321.0,297.4 L322.9,294.7
		L324.8,292.1 L326.7,289.4 L328.6,286.8 L330.4,284.1 L332.3,281.4 L334.2,278.8 L336.1,276.1 L338.0,273.4
		L339.9,270.7 L341.8,268.0 L343.7,265.2 L345.5,262.4 L347.4,259.6 L349.3,256.8 L351.2,254.0 L353.1,251.1
		L355.0,248.3 L356.9,245.4 L358.8,242.6 L360.6,239.7 L362.5,236.9 L364.4,234.1 L366.3,231.4 L368.2,228.7
		L370.1,226.0 L372.0,223.4 L373.8,220.9 L375.7,218.4 L377.6,216.0 L379.5,213.6 L381.4,211.3 L383.3,209.1
		L385.2,207.0 L387.1,204.9 L388.9,202.9 L390.8,201.0 L392.7,199.1 L394.6,197.3 L396.5,195.5 L398.4,193.8
		L400.3,192.1 L402.2,190.5 L404.0,189.0 L405.9,187.4 L407.8,186.0 L409.7,184.5 L411.6,183.1 L413.5,181.8
		L415.4,180.5 L417.3,179.2 L419.1,177.9 L421.0,176.7 L422.9,175.6 L424.8,174.5 L426.7,173.4 L428.6,172.4
		L430.5,171.4 L432.4,170.5 L434.2,169.6 L436.1,168.8 L438.0,168.1 L439.9,167.4 L441.8,166.7 L443.7,166.1
		L445.6,165.6 L447.4,165.1 L449.3,164.6 L451.2,164.2 L453.1,163.9 L455.0,163.6 L456.9,163.3 L458.8,163.0
		L460.7,162.8 L462.5,162.7 L464.4,162.5 L466.3,162.4 L468.2,162.4 L470.1,162.3 L472.0,162.3 L473.9,162.4
		L475.8,162.5 L477.6,162.6 L479.5,162.8 L481.4,163.0 L483.3,163.3 L485.2,163.7 L487.1,164.1 L489.0,164.6
		L490.9,165.2 L492.7,165.8 L494.6,166.5 L496.5,167.3 L498.4,168.2 L500.3,169.1 L502.2,170.1 L504.1,171.2
		L506.0,172.4 L507.8,173.6 L509.7,174.8 L511.6,176.1 L513.5,177.5 L515.4,178.9 L517.3,180.4 L519.2,181.8
		L521.0,183.4 L522.9,184.9 L524.8,186.5 L526.7,188.1 L528.6,189.8 L530.5,191.4 L532.4,193.1 L534.3,194.8
		L536.1,196.5 L538.0,198.2 L539.9,200.0 L541.8,201.7 L543.7,203.5 L545.6,205.4 L547.5,207.2 L549.4,209.1
		L551.2,211.0 L553.1,212.9 L555.0,214.9 L556.9,216.9 L558.8,218.9 L560.7,221.0 L562.6,223.1 L564.5,225.2
		L566.3,227.4 L568.2,229.6 L570.1,231.8 L572.0,234.0 L573.9,236.3 L575.8,238.6 L577.7,241.0 L579.5,243.3
		L581.4,245.6 L583.3,248.0 L585.2,250.4 L587.1,252.7 L589.0,255.1 L590.9,257.4 L592.8,259.7 L594.6,262.1
		L596.5,264.4 L598.4,266.7 L600.3,269.0 L602.2,271.3 L604.1,273.6 L606.0,275.8 L607.9,278.1 L609.7,280.4
		L611.6,282.7 L613.5,285.0 L615.4,287.3 L617.3,289.7 L619.2,292.0 L621.1,294.4 L623.0,296.8 L624.8,299.2
		L626.7,301.7 L628.6,304.1 L630.5,306.6 L632.4,309.1 L634.3,311.6 L636.2,314.1 L638.1,316.6 L639.9,319.2
		L641.8,321.7 L643.7,324.3 L645.6,326.9 L647.5,329.4 L649.4,332.0 L651.3,334.5 L653.1,337.0 L655.0,339.6
		L656.9,342.1 L658.8,344.6 L660.7,347.0 L662.6,349.5 L664.5,351.9 L666.4,354.3 L668.2,356.7 L670.1,359.0
		L672.0,361.3 L673.9,363.6 L675.8,365.9 L677.7,368.2 L679.6,370.4 L681.5,372.6 L683.3,374.9 L685.2,377.1
		L687.1,379.3 L689.0,381.4 L690.9,383.6 L692.8,385.8 L694.7,388.0 L696.6,390.2 L698.4,392.4 L700.3,394.7
		L702.2,396.9 L704.1,399.2 L706.0,401.4 L707.9,403.7 L709.8,406.0 L711.7,408.4 L713.5,410.7 L715.4,413.1
		L717.3,415.5 L719.2,417.9 L721.1,420.3 L723.0,422.8 L724.9,425.2 L726.7,427.7 L728.6,430.2 L730.5,432.6
		L732.4,435.1 L734.3,437.6 L736.2,440.0 L738.1,442.5 L740.0,444.9 L741.8,447.3 L743.7,449.7 L745.6,452.0
		L747.5,454.4 L749.4,456.7 L751.3,458.9 L753.2,461.2 L755.1,463.4 L756.9,465.5 L758.8,467.6 L760.7,469.7
		L762.6,471.8 L764.5,473.8 L766.4,475.8 L768.3,477.8 L770.2,479.7 L772.0,481.6 L773.9,483.5 L775.8,485.4
		L777.7,487.3 L779.6,489.2 L781.5,491.1 L783.4,493.0 L785.3,494.9 L787.1,496.7 L789.0,498.6 L790.9,500.5
		L792.8,502.5 L794.7,504.4 L796.6,506.3 L798.5,508.2 L800.3,510.2 L802.2,512.2 L804.1,514.1 L806.0,516.1
		L807.9,518.1 L809.8,520.1 L811.7,522.0 L813.6,524.0 L815.4,526.0 L817.3,527.9 L819.2,529.9 L821.1,531.8
		L823.0,533.7 L824.9,535.6 L826.8,537.5 L828.7,539.3 L830.5,541.1 L832.4,542.9 L834.3,544.7 L836.2,546.5
		L838.1,548.2 L840.0,549.8 L841.9,551.5 L843.8,553.1 L845.6,554.7 L847.5,556.2 L849.4,557.7 L851.3,559.2
		L853.2,560.7 L855.1,562.1 L857.0,563.4 L858.9,564.7 L860.7,566.0 L862.6,567.3 L864.5,568.5 L866.4,569.7
		L868.3,570.9 L870.2,572.1 L872.1,573.2 L873.9,574.3 L875.8,575.4 L877.7,576.5 L879.6,577.6 L881.5,578.6
		L883.4,579.7 L885.3,580.7 L887.2,581.7 L889.0,582.7 L890.9,583.7 L892.8,584.6 L894.7,585.6 L896.6,586.6
		L898.5,587.5 L900.4,588.4 L902.3,589.4 L904.1,590.3 L906.0,591.2 L907.9,592.1 L909.8,593.0 L911.7,593.9
		L913.6,594.8 L915.5,595.7 L917.4,596.6 L919.2,597.5 L921.1,598.4 L923.0,599.4 L924.9,600.3 L926.8,601.3
		L928.7,602.2 L930.6,603.2 L932.5,604.1 L934.3,605.1 L936.2,606.1 L938.1,607.1 L940.0,608.0 L941.9,609.0
		L943.8,610.0 L945.7,610.9 L947.5,611.9 L949.4,612.8 L951.3,613.7 L953.2,614.6 L955.1,615.5 L957.0,616.4
		L958.9,617.2 L960.8,618.0 L962.6,618.8 L964.5,619.6 L966.4,620.4 L968.3,621.2 L970.2,621.9 L972.1,622.6
		L974.0,623.3 L975.9,624.0 L977.7,624.7 L979.6,625.4 L981.5,626.1 L983.4,626.7 L985.3,627.4 L987.2,628.0
		L989.1,628.7 L991.0,629.3 L992.8,629.9 L994.7,630.5 L996.6,631.1 L998.5,631.7 L1000.4,632.2 L1002.3,632.8
		L1004.2,633.3 L1006.1,633.9 L1007.9,634.4 L1009.8,634.9 L1011.7,635.4 L1013.6,635.8  '/></g>
	</g>
	<g id="gnuplot_plot_2" ><title>Confidence interval</title>
<g fill="none" color="white" stroke="rgb( 31, 120, 180)" stroke-width="1.00" stroke-linecap="butt" stroke-linejoin="miter">
</g>
<g fill="none" color="black" stroke="currentColor" stroke-width="1.00" stroke-linecap="butt" stroke-linejoin="miter">
	<g transform="translate(1089.0,85.0)" stroke="none" fill="black" font-family="Helvetica" font-size="12.00"  text-anchor="start">
		<text><tspan font-family="Helvetica" >Confidence interval</tspan></text>
	</g>
</g>
<g fill="none" color="black" stroke="currentColor" stroke-width="1.00" stroke-linecap="butt" stroke-linejoin="miter">
	<g stroke='none' shape-rendering='crispEdges'>
		<polygon fill = 'rgb( 31, 120, 180)' fill-opacity = '0.250000' points = '1038.5,85.6 1080.7,85.6 1080.7,76.6 1038.5,76.6 '/>
		<polygon fill = 'rgb( 31, 120, 180)' fill-opacity = '0.250000' points = '158.7,555.6 160.6,553.1 162.5,550.6 164.4,548.1 166.3,545.6 168.1,543.0 170.0,540.4 171.9,537.8 173.8,535.2 175.7,532.5 177.6,529.9 179.5,527.2 181.4,524.4 183.2,521.7 185.1,518.9 187.0,516.1
188.9,513.3 190.8,510.5 192.7,507.6 194.6,504.7 196.5,501.9 198.3,499.0 200.2,496.0 202.1,493.1 204.0,490.1 205.9,487.2 207.8,484.2 209.7,481.2 211.6,478.1 213.4,475.1 215.3,472.0 217.2,468.9
219.1,465.7 221.0,462.6 222.9,459.4 224.8,456.1 226.6,452.8 228.5,449.5 230.4,446.2 232.3,442.8 234.2,439.4 236.1,436.0 238.0,432.5 239.9,429.0 241.7,425.5 243.6,422.0 245.5,418.5 247.4,415.0
249.3,411.5 251.2,408.0 253.1,404.5 255.0,401.0 256.8,397.5 258.7,394.1 260.6,390.7 262.5,387.4 264.4,384.1 266.3,380.8 268.2,377.6 270.1,374.4 271.9,371.3 273.8,368.2 275.7,365.1 277.6,362.1
279.5,359.1 281.4,356.2 283.3,353.3 285.2,350.4 287.0,347.5 288.9,344.7 290.8,341.8 292.7,339.0 294.6,336.2 296.5,333.4 298.4,330.6 300.2,327.8 302.1,325.0 304.0,322.2 305.9,319.4 307.8,316.6
309.7,313.8 311.6,311.0 313.5,308.3 315.3,305.6 317.2,302.8 319.1,300.1 321.0,297.4 322.9,294.7 324.8,292.1 326.7,289.4 328.6,286.8 330.4,284.1 332.3,281.4 334.2,278.8 336.1,276.1 338.0,273.4
339.9,270.7 341.8,268.0 343.7,265.2 345.5,262.4 347.4,259.6 349.3,256.8 351.2,254.0 353.1,251.1 355.0,248.3 356.9,245.4 358.8,242.6 360.6,239.7 362.5,236.9 364.4,234.1 366.3,231.4 368.2,228.7
370.1,226.0 372.0,223.4 373.8,220.9 375.7,218.4 377.6,216.0 379.5,213.6 381.4,211.3 383.3,209.1 385.2,207.0 387.1,204.9 388.9,202.9 390.8,201.0 392.7,199.1 394.6,197.3 396.5,195.5 398.4,193.8
400.3,192.1 402.2,190.5 404.0,189.0 405.9,187.4 407.8,186.0 409.7,184.5 411.6,183.1 413.5,181.8 415.4,180.5 417.3,179.2 419.1,177.9 421.0,176.7 422.9,175.6 424.8,174.5 426.7,173.4 428.6,172.4
430.5,171.4 432.4,170.5 434.2,169.6 436.1,168.8 438.0,168.1 439.9,167.4 441.8,166.7 443.7,166.1 445.6,165.6 447.4,165.1 449.3,164.6 451.2,164.2 453.1,163.9 455.0,163.6 456.9,163.3 458.8,163.0
460.7,162.8 462.5,162.7 464.4,162.5 466.3,162.4 468.2,162.4 470.1,162.3 472.0,162.3 473.9,162.4 475.8,162.5 477.6,162.6 479.5,162.8 481.4,163.0 483.3,163.3 485.2,163.7 487.1,164.1 489.0,164.6
490.9,165.2 492.7,165.8 494.6,166.5 496.5,167.3 498.4,168.2 500.3,169.1 502.2,170.1 504.1,171.2 506.0,172.4 507.8,173.6 509.7,174.8 511.6,176.1 513.5,177.5 515.4,178.9 517.3,180.4 519.2,181.8
521.0,183.4 522.9,184.9 524.8,186.5 526.7,188.1 528.6,189.8 530.5,191.4 532.4,193.1 534.3,194.8 536.1,196.5 538.0,198.2 539.9,200.0 541.8,201.7 543.7,203.5 545.6,205.4 547.5,207.2 549.4,209.1
551.2,211.0 553.1,212.9 555.0,214.9 556.9,216.9 558.8,218.9 560.7,221.0 562.6,223.1 564.5,225.2 566.3,227.4 568.2,229.6 570.1,231.8 572.0,234.0 573.9,236.3 575.8,238.6 577.7,241.0 579.5,243.3
581.4,245.6 583.3,248.0 585.2,250.4 587.1,252.7 589.0,255.1 590.9,257.4 592.8,259.7 594.6,262.1 596.5,264.4 598.4,266.7 600.3,269.0 602.2,271.3 604.1,273.6 606.0,275.8 607.9,278.1 609.7,280.4
611.6,282.7 613.5,285.0 615.4,287.3 617.3,289.7 619.2,292.0 621.1,294.4 623.0,296.8 624.8,299.2 626.7,301.7 628.6,304.1 630.5,306.6 632.4,309.1 634.3,311.6 636.2,314.1 638.1,316.6 639.9,319.2
641.8,321.7 643.7,324.3 645.6,326.9 647.5,329.4 649.4,332.0 651.3,334.5 653.1,337.0 655.0,339.6 656.9,342.1 658.8,344.6 660.7,347.0 662.6,349.5 664.5,351.9 666.4,354.3 668.2,356.7 670.1,359.0
672.0,361.3 673.9,363.6 675.8,365.9 677.7,368.2 679.6,370.4 681.5,372.6 683.3,374.9 685.2,377.1 687.1,379.3 689.0,381.4 690.9,383.6 692.8,385.8 694.7,388.0 696.6,390.2 698.4,392.4 700.3,394.7
702.2,396.9 704.1,399.2 706.0,401.4 707.9,403.7 709.8,406.0 711.7,408.4 713.5,410.7 715.4,413.1 717.3,415.5 719.2,417.9 721.1,420.3 723.0,422.8 724.9,425.2 726.7,427.7 728.6,430.2 730.5,432.6
732.4,435.1 734.3,437.6 736.2,440.0 738.1,442.5 740.0,444.9 741.8,447.3 743.7,449.7 745.6,452.0 747.5,454.4 749.4,456.7 751.3,458.9 753.2,461.2 755.1,463.4 756.9,465.5 758.8,467.6 760.7,469.7
762.6,471.8 764.5,473.8 766.4,475.8 768.3,477.8 770.2,479.7 772.0,481.6 773.9,483.5 775.8,485.4 777.7,487.3 779.6,489.2 781.5,491.1 783.4,493.0 785.3,494.9 787.1,496.7 789.0,498.6 790.9,500.5
792.8,502.5 794.7,504.4 796.6,506.3 798.5,508.2 800.3,510.2 802.2,512.2 804.1,514.1 806.0,516.1 807.9,518.1 809.8,520.1 811.7,522.0 813.6,524.0 815.4,526.0 817.3,527.9 819.2,529.9 821.1,531.8
823.0,533.7 824.9,535.6 826.8,537.5 828.7,539.3 830.5,541.1 832.4,542.9 834.3,544.7 836.2,546.5 838.1,548.2 840.0,549.8 841.9,551.5 843.8,553.1 845.6,554.7 847.5,556.2 849.4,557.7 851.3,559.2
853.2,560.7 855.1,562.1 857.0,563.4 858.9,564.7 860.7,566.0 862.6,567.3 864.5,568.5 866.4,569.7 868.3,570.9 870.2,572.1 872.1,573.2 873.9,574.3 875.8,575.4 877.7,576.5 879.6,577.6 881.5,578.6
883.4,579.7 885.3,580.7 887.2,581.7 889.0,582.7 890.9,583.7 892.8,584.6 894.7,585.6 896.6,586.6 898.5,587.5 900.4,588.4 902.3,589.4 904.1,590.3 906.0,591.2 907.9,592.1 909.8,593.0 911.7,593.9
913.6,594.8 915.5,595.7 917.4,596.6 919.2,597.5 921.1,598.4 923.0,599.4 924.9,600.3 924.9,662.4 923.0,662.4 921.1,662.4 919.2,662.4 917.4,662.4 915.5,662.4 913.6,662.4 911.7,662.4 909.8,662.4
907.9,662.4 906.0,662.4 904.1,662.4 902.3,662.4 900.4,662.4 898.5,662.4 896.6,662.4 894.7,662.4 892.8,662.4 890.9,662.4 889.0,662.4 887.2,662.4 885.3,662.4 883.4,662.4 881.5,662.4 879.6,662.4
877.7,662.4 875.8,662.4 873.9,662.4 872.1,662.4 870.2,662.4 868.3,662.4 866.4,662.4 864.5,662.4 862.6,662.4 860.7,662.4 858.9,662.4 857.0,662.4 855.1,662.4 853.2,662.4 851.3,662.4 849.4,662.4
847.5,662.4 845.6,662.4 843.8,662.4 841.9,662.4 840.0,662.4 838.1,662.4 836.2,662.4 834.3,662.4 832.4,662.4 830.5,662.4 828.7,662.4 826.8,662.4 824.9,662.4 823.0,662.4 821.1,662.4 819.2,662.4
817.3,662.4 815.4,662.4 813.6,662.4 811.7,662.4 809.8,662.4 807.9,662.4 806.0,662.4 804.1,662.4 802.2,662.4 800.3,662.4 798.5,662.4 796.6,662.4 794.7,662.4 792.8,662.4 790.9,662.4 789.0,662.4
787.1,662.4 785.3,662.4 783.4,662.4 781.5,662.4 779.6,662.4 777.7,662.4 775.8,662.4 773.9,662.4 772.0,662.4 770.2,662.4 768.3,662.4 766.4,662.4 764.5,662.4 762.6,662.4 760.7,662.4 758.8,662.4
756.9,662.4 755.1,662.4 753.2,662.4 751.3,662.4 749.4,662.4 747.5,662.4 745.6,662.4 743.7,662.4 741.8,662.4 740.0,662.4 738.1,662.4 736.2,662.4 734.3,662.4 732.4,662.4 730.5,662.4 728.6,662.4
726.7,662.4 724.9,662.4 723.0,662.4 721.1,662.4 719.2,662.4 717.3,662.4 715.4,662.4 713.5,662.4 711.7,662.4 709.8,662.4 707.9,662.4 706.0,662.4 704.1,662.4 702.2,662.4 700.3,662.4 698.4,662.4
696.6,662.4 694.7,662.4 692.8,662.4 690.9,662.4 689.0,662.4 687.1,662.4 685.2,662.4 683.3,662.4 681.5,662.4 679.6,662.4 677.7,662.4 675.8,662.4 673.9,662.4 672.0,662.4 670.1,662.4 668.2,662.4
666.4,662.4 664.5,662.4 662.6,662.4 660.7,662.4 658.8,662.4 656.9,662.4 655.0,662.4 653.1,662.4 651.3,662.4 649.4,662.4 647.5,662.4 645.6,662.4 643.7,662.4 641.8,662.4 639.9,662.4 638.1,662.4
636.2,662.4 634.3,662.4 632.4,662.4 630.5,662.4 628.6,662.4 626.7,662.4 624.8,662.4 623.0,662.4 621.1,662.4 619.2,662.4 617.3,662.4 615.4,662.4 613.5,662.4 611.6,662.4 609.7,662.4 607.9,662.4
606.0,662.4 604.1,662.4 602.2,662.4 600.3,662.4 598.4,662.4 596.5,662.4 594.6,662.4 592.8,662.4 590.9,662.4 589.0,662.4 587.1,662.4 585.2,662.4 583.3,662.4 581.4,662.4 579.5,662.4 577.7,662.4
575.8,662.4 573.9,662.4 572.0,662.4 570.1,662.4 568.2,662.4 566.3,662.4 564.5,662.4 562.6,662.4 560.7,662.4 558.8,662.4 556.9,662.4 555.0,662.4 553.1,662.4 551.2,662.4 549.4,662.4 547.5,662.4
545.6,662.4 543.7,662.4 541.8,662.4 539.9,662.4 538.0,662.4 536.1,662.4 534.3,662.4 532.4,662.4 530.5,662.4 528.6,662.4 526.7,662.4 524.8,662.4 522.9,662.4 521.0,662.4 519.2,662.4 517.3,662.4
515.4,662.4 513.5,662.4 511.6,662.4 509.7,662.4 507.8,662.4 506.0,662.4 504.1,662.4 502.2,662.4 500.3,662.4 498.4,662.4 496.5,662.4 494.6,662.4 492.7,662.4 490.9,662.4 489.0,662.4 487.1,662.4
485.2,662.4 483.3,662.4 481.4,662.4 479.5,662.4 477.6,662.4 475.8,662.4 473.9,662.4 472.0,662.4 470.1,662.4 468.2,662.4 466.3,662.4 464.4,662.4 462.5,662.4 460.7,662.4 458.8,662.4 456.9,662.4
455.0,662.4 453.1,662.4 451.2,662.4 449.3,662.4 447.4,662.4 445.6,662.4 443.7,662.4 441.8,662.4 439.9,662.4 438.0,662.4 436.1,662.4 434.2,662.4 432.4,662.4 430.5,662.4 428.6,662.4 426.7,662.4
424.8,662.4 422.9,662.4 421.0,662.4 419.1,662.4 417.3,662.4 415.4,662.4 413.5,662.4 411.6,662.4 409.7,662.4 407.8,662.4 405.9,662.4 404.0,662.4 402.2,662.4 400.3,662.4 398.4,662.4 396.5,662.4
394.6,662.4 392.7,662.4 390.8,662.4 388.9,662.4 387.1,662.4 385.2,662.4 383.3,662.4 381.4,662.4 379.5,662.4 377.6,662.4 375.7,662.4 373.8,662.4 372.0,662.4 370.1,662.4 368.2,662.4 366.3,662.4
364.4,662.4 362.5,662.4 360.6,662.4 358.8,662.4 356.9,662.4 355.0,662.4 353.1,662.4 351.2,662.4 349.3,662.4 347.4,662.4 345.5,662.4 343.7,662.4 341.8,662.4 339.9,662.4 338.0,662.4 336.1,662.4
334.2,662.4 332.3,662.4 330.4,662.4 328.6,662.4 326.7,662.4 324.8,662.4 322.9,662.4 321.0,662.4 319.1,662.4 317.2,662.4 315.3,662.4 313.5,662.4 311.6,662.4 309.7,662.4 307.8,662.4 305.9,662.4
304.0,662.4 302.1,662.4 300.2,662.4 298.4,662.4 296.5,662.4 294.6,662.4 292.7,662.4 290.8,662.4 288.9,662.4 287.0,662.4 285.2,662.4 283.3,662.4 281.4,662.4 279.5,662.4 277.6,662.4 275.7,662.4
273.8,662.4 271.9,662.4 270.1,662.4 268.2,662.4 266.3,662.4 264.4,662.4 262.5,662.4 260.6,662.4 258.7,662.4 256.8,662.4 255.0,662.4 253.1,662.4 251.2,662.4 249.3,662.4 247.4,662.4 245.5,662.4
243.6,662.4 241.7,662.4 239.9,662.4 238.0,662.4 236.1,662.4 234.2,662.4 232.3,662.4 230.4,662.4 228.5,662.4 226.6,662.4 224.8,662.4 222.9,662.4 221.0,662.4 219.1,662.4 217.2,662.4 215.3,662.4
213.4,662.4 211.6,662.4 209.7,662.4 207.8,662.4 205.9,662.4 204.0,662.4 202.1,662.4 200.2,662.4 198.3,662.4 196.5,662.4 194.6,662.4 192.7,662.4 190.8,662.4 188.9,662.4 187.0,662.4 185.1,662.4
183.2,662.4 181.4,662.4 179.5,662.4 177.6,662.4 175.7,662.4 173.8,662.4 171.9,662.4 170.0,662.4 168.1,662.4 166.3,662.4 164.4,662.4 162.5,662.4 160.6,662.4 158.7,662.4 '/>
	</g>
</g>
	</g>
	<g id="gnuplot_plot_3" ><title>Point estimate</title>
<g fill="none" color="white" stroke="rgb( 31, 120, 180)" stroke-width="2.00" stroke-linecap="butt" stroke-linejoin="miter">
</g>
<g fill="none" color="black" stroke="currentColor" stroke-width="2.00" stroke-linecap="butt" stroke-linejoin="miter">
	<g transform="translate(1089.0,103.0)" stroke="none" fill="black" font-family="Helvetica" font-size="12.00"  text-anchor="start">
		<text><tspan font-family="Helvetica" >Point estimate</tspan></text>
	</g>
</g>
<g fill="none" color="black" stroke="currentColor" stroke-width="2.00" stroke-linecap="butt" stroke-linejoin="miter">
	<path stroke='rgb( 31, 120, 180)'  d='M1038.5,99.1 L1080.7,99.1 M503.4,662.4 L503.4,170.9  '/></g>
	</g>
<g fill="none" color="black" stroke="currentColor" stroke-width="2.00" stroke-linecap="butt" stroke-linejoin="miter">
</g>
<g fill="none" color="black" stroke="black" stroke-width="1.00" stroke-linecap="butt" stroke-linejoin="miter">
</g>
<g fill="none" color="black" stroke="currentColor" stroke-width="1.00" stroke-linecap="butt" stroke-linejoin="miter">
	<path stroke='black'  d='M71.9,54.1 L71.9,662.4 L1013.6,662.4 L1013.6,54.1 L71.9,54.1 Z  '/></g>
<g fill="none" color="black" stroke="currentColor" stroke-width="1.00" stroke-linecap="butt" stroke-linejoin="miter">
</g>
</g>
</svg>

