<?xml version="1.0" encoding="utf-8"  standalone="no"?>
<svg 
 viewBox="0 0 1280 720"
 xmlns="http://www.w3.org/2000/svg"
 xmlns:xlink="http://www.w3.org/1999/xlink"
>

<title>Gnuplot</title>
<desc>Produced by GNUPLOT 5.2 patchlevel 6 </desc>

<g id="gnuplot_canvas">

<rect x="0" y="0" width="1280" height="720" fill="none"/>
<defs>

	<circle id='gpDot' r='0.5' stroke-width='0.5' stroke='currentColor'/>
	<path id='gpPt0' stroke-width='0.222' stroke='currentColor' d='M-1,0 h2 M0,-1 v2'/>
	<path id='gpPt1' stroke-width='0.222' stroke='currentColor' d='M-1,-1 L1,1 M1,-1 L-1,1'/>
	<path id='gpPt2' stroke-width='0.222' stroke='currentColor' d='M-1,0 L1,0 M0,-1 L0,1 M-1,-1 L1,1 M-1,1 L1,-1'/>
	<rect id='gpPt3' stroke-width='0.222' stroke='currentColor' x='-1' y='-1' width='2' height='2'/>
	<rect id='gpPt4' stroke-width='0.222' stroke='currentColor' fill='currentColor' x='-1' y='-1' width='2' height='2'/>
	<circle id='gpPt5' stroke-width='0.222' stroke='currentColor' cx='0' cy='0' r='1'/>
	<use xlink:href='#gpPt5' id='gpPt6' fill='currentColor' stroke='none'/>
	<path id='gpPt7' stroke-width='0.222' stroke='currentColor' d='M0,-1.33 L-1.33,0.67 L1.33,0.67 z'/>
	<use xlink:href='#gpPt7' id='gpPt8' fill='currentColor' stroke='none'/>
	<use xlink:href='#gpPt7' id='gpPt9' stroke='currentColor' transform='rotate(180)'/>
	<use xlink:href='#gpPt9' id='gpPt10' fill='currentColor' stroke='none'/>
	<use xlink:href='#gpPt3' id='gpPt11' stroke='currentColor' transform='rotate(45)'/>
	<use xlink:href='#gpPt11' id='gpPt12' fill='currentColor' stroke='none'/>
	<path id='gpPt13' stroke-width='0.222' stroke='currentColor' d='M0,1.330 L1.265,0.411 L0.782,-1.067 L-0.782,-1.076 L-1.265,0.411 z'/>
	<use xlink:href='#gpPt13' id='gpPt14' fill='currentColor' stroke='none'/>
	<filter id='textbox' filterUnits='objectBoundingBox' x='0' y='0' height='1' width='1'>
	  <feFlood flood-color='white' flood-opacity='1' result='bgnd'/>
	  <feComposite in='SourceGraphic' in2='bgnd' operator='atop'/>
	</filter>
	<filter id='greybox' filterUnits='objectBoundingBox' x='0' y='0' height='1' width='1'>
	  <feFlood flood-color='lightgrey' flood-opacity='1' result='grey'/>
	  <feComposite in='SourceGraphic' in2='grey' operator='atop'/>
	</filter>
</defs>
<g fill="none" color="white" stroke="currentColor" stroke-width="1.00" stroke-linecap="butt" stroke-linejoin="miter">
</g>
<g fill="none" color="black" stroke="currentColor" stroke-width="1.00" stroke-linecap="butt" stroke-linejoin="miter">
	<path stroke='black'  d='M71.9,662.4 L80.9,662.4  '/>	<g transform="translate(63.6,666.3)" stroke="none" fill="black" font-family="Helvetica" font-size="12.00"  text-anchor="end">
		<text><tspan font-family="Helvetica" > 0</tspan></text>
	</g>
</g>
<g fill="none" color="black" stroke="currentColor" stroke-width="1.00" stroke-linecap="butt" stroke-linejoin="miter">
	<path stroke='black'  d='M71.9,601.6 L80.9,601.6  '/>	<g transform="translate(63.6,605.5)" stroke="none" fill="black" font-family="Helvetica" font-size="12.00"  text-anchor="end">
		<text><tspan font-family="Helvetica" > 0.1</tspan></text>
	</g>
</g>
<g fill="none" color="black" stroke="currentColor" stroke-width="1.00" stroke-linecap="butt" stroke-linejoin="miter">
	<path stroke='black'  d='M71.9,540.7 L80.9,540.7  '/>	<g transform="translate(63.6,544.6)" stroke="none" fill="black" font-family="Helvetica" font-size="12.00"  text-anchor="end">
		<text><tspan font-family="Helvetica" > 0.2</tspan></text>
	</g>
</g>
<g fill="none" color="black" stroke="currentColor" stroke-width="1.00" stroke-linecap="butt" stroke-linejoin="miter">
	<path stroke='black'  d='M71.9,479.9 L80.9,479.9  '/>	<g transform="translate(63.6,483.8)" stroke="none" fill="black" font-family="Helvetica" font-size="12.00"  text-anchor="end">
		<text><tspan font-family="Helvetica" > 0.3</tspan></text>
	</g>
</g>
<g fill="none" color="black" stroke="currentColor" stroke-width="1.00" stroke-linecap="butt" stroke-linejoin="miter">
	<path stroke='black'  d='M71.9,419.1 L80.9,419.1  '/>	<g transform="translate(63.6,423.0)" stroke="none" fill="black" font-family="Helvetica" font-size="12.00"  text-anchor="end">
		<text><tspan font-family="Helvetica" > 0.4</tspan></text>
	</g>
</g>
<g fill="none" color="black" stroke="currentColor" stroke-width="1.00" stroke-linecap="butt" stroke-linejoin="miter">
	<path stroke='black'  d='M71.9,358.2 L80.9,358.2  '/>	<g transform="translate(63.6,362.1)" stroke="none" fill="black" font-family="Helvetica" font-size="12.00"  text-anchor="end">
		<text><tspan font-family="Helvetica" > 0.5</tspan></text>
	</g>
</g>
<g fill="none" color="black" stroke="currentColor" stroke-width="1.00" stroke-linecap="butt" stroke-linejoin="miter">
	<path stroke='black'  d='M71.9,297.4 L80.9,297.4  '/>	<g transform="translate(63.6,301.3)" stroke="none" fill="black" font-family="Helvetica" font-size="12.00"  text-anchor="end">
		<text><tspan font-family="Helvetica" > 0.6</tspan></text>
	</g>
</g>
<g fill="none" color="black" stroke="currentColor" stroke-width="1.00" stroke-linecap="butt" stroke-linejoin="miter">
	<path stroke='black'  d='M71.9,236.6 L80.9,236.6  '/>	<g transform="translate(63.6,240.5)" stroke="none" fill="black" font-family="Helvetica" font-size="12.00"  text-anchor="end">
		<text><tspan font-family="Helvetica" > 0.7</tspan></text>
	</g>
</g>
<g fill="none" color="black" stroke="currentColor" stroke-width="1.00" stroke-linecap="butt" stroke-linejoin="miter">
	<path stroke='black'  d='M71.9,175.8 L80.9,175.8  '/>	<g transform="translate(63.6,179.7)" stroke="none" fill="black" font-family="Helvetica" font-size="12.00"  text-anchor="end">
		<text><tspan font-family="Helvetica" > 0.8</tspan></text>
	</g>
</g>
<g fill="none" color="black" stroke="currentColor" stroke-width="1.00" stroke-linecap="butt" stroke-linejoin="miter">
	<path stroke='black'  d='M71.9,114.9 L80.9,114.9  '/>	<g transform="translate(63.6,118.8)" stroke="none" fill="black" font-family="Helvetica" font-size="12.00"  text-anchor="end">
		<text><tspan font-family="Helvetica" > 0.9</tspan></text>
	</g>
</g>
<g fill="none" color="black" stroke="currentColor" stroke-width="1.00" stroke-linecap="butt" stroke-linejoin="miter">
	<path stroke='black'  d='M71.9,54.1 L80.9,54.1  '/>	<g transform="translate(63.6,58.0)" stroke="none" fill="black" font-family="Helvetica" font-size="12.00"  text-anchor="end">
		<text><tspan font-family="Helvetica" > 1</tspan></text>
	</g>
</g>
<g fill="none" color="black" stroke="currentColor" stroke-width="1.00" stroke-linecap="butt" stroke-linejoin="miter">
	<path stroke='black'  d='M155.3,662.4 L155.3,653.4  '/>	<g transform="translate(155.3,684.3)" stroke="none" fill="black" font-family="Helvetica" font-size="12.00"  text-anchor="middle">
		<text><tspan font-family="Helvetica" > 1</tspan></text>
	</g>
</g>
<g fill="none" color="black" stroke="currentColor" stroke-width="1.00" stroke-linecap="butt" stroke-linejoin="miter">
	<path stroke='black'  d='M379.6,662.4 L379.6,653.4  '/>	<g transform="translate(379.6,684.3)" stroke="none" fill="black" font-family="Helvetica" font-size="12.00"  text-anchor="middle">
		<text><tspan font-family="Helvetica" > 1.5</tspan></text>
	</g>
</g>
<g fill="none" color="black" stroke="currentColor" stroke-width="1.00" stroke-linecap="butt" stroke-linejoin="miter">
	<path stroke='black'  d='M603.9,662.4 L603.9,653.4  '/>	<g transform="translate(603.9,684.3)" stroke="none" fill="black" font-family="Helvetica" font-size="12.00"  text-anchor="middle">
		<text><tspan font-family="Helvetica" > 2</tspan></text>
	</g>
</g>
<g fill="none" color="black" stroke="currentColor" stroke-width="1.00" stroke-linecap="butt" stroke-linejoin="miter">
	<path stroke='black'  d='M828.1,662.4 L828.1,653.4  '/>	<g transform="translate(828.1,684.3)" stroke="none" fill="black" font-family="Helvetica" font-size="12.00"  text-anchor="middle">
		<text><tspan font-family="Helvetica" > 2.5</tspan></text>
	</g>
</g>
<g fill="none" color="black" stroke="currentColor" stroke-width="1.00" stroke-linecap="butt" stroke-linejoin="miter">
</g>
<g fill="none" color="black" stroke="currentColor" stroke-width="1.00" stroke-linecap="butt" stroke-linejoin="miter">
	<path stroke='black'  d='M71.9,54.1 L71.9,662.4 L1013.6,662.4 L1013.6,54.1 L71.9,54.1 Z  '/></g>
<g fill="none" color="black" stroke="currentColor" stroke-width="1.00" stroke-linecap="butt" stroke-linejoin="miter">
	<g transform="translate(16.3,358.3) rotate(270)" stroke="none" fill="black" font-family="Helvetica" font-size="12.00"  text-anchor="middle">
		<text><tspan font-family="Helvetica" >Density (a.u.)</tspan></text>
	</g>
</g>
<g fill="none" color="black" stroke="currentColor" stroke-width="1.00" stroke-linecap="butt" stroke-linejoin="miter">
	<g transform="translate(542.7,711.3)" stroke="none" fill="black" font-family="Helvetica" font-size="12.00"  text-anchor="middle">
		<text><tspan font-family="Helvetica" >Average time (us)</tspan></text>
	</g>
</g>
<g fill="none" color="black" stroke="currentColor" stroke-width="1.00" stroke-linecap="butt" stroke-linejoin="miter">
	<g transform="translate(542.7,31.0)" stroke="none" fill="black" font-family="Helvetica" font-size="12.00"  text-anchor="middle">
		<text><tspan font-family="Helvetica" >snapshot_restore_with_dense/Dense: Entire region + /proc/pid/mem/100: SD</tspan></text>
	</g>
</g>
	<g id="gnuplot_plot_1" ><title>Bootstrap distribution</title>
<g fill="none" color="white" stroke="black" stroke-width="2.00" stroke-linecap="butt" stroke-linejoin="miter">
</g>
<g fill="none" color="black" stroke="currentColor" stroke-width="2.00" stroke-linecap="butt" stroke-linejoin="miter">
	<g transform="translate(1089.0,67.0)" stroke="none" fill="black" font-family="Helvetica" font-size="12.00"  text-anchor="start">
		<text><tspan font-family="Helvetica" >Bootstrap distribution</tspan></text>
	</g>
</g>
<g fill="none" color="black" stroke="currentColor" stroke-width="2.00" stroke-linecap="butt" stroke-linejoin="miter">
	<path stroke='rgb( 31, 120, 180)'  d='M1038.5,63.1 L1080.7,63.1 M71.9,627.8 L73.8,627.4 L75.7,627.0 L77.6,626.7 L79.4,626.3 L81.3,626.0
		L83.2,625.7 L85.1,625.3 L87.0,625.0 L88.9,624.6 L90.8,624.2 L92.7,623.7 L94.5,623.2 L96.4,622.6
		L98.3,622.0 L100.2,621.3 L102.1,620.5 L104.0,619.6 L105.9,618.7 L107.8,617.7 L109.6,616.7 L111.5,615.6
		L113.4,614.4 L115.3,613.2 L117.2,611.9 L119.1,610.7 L121.0,609.4 L122.9,608.1 L124.7,606.8 L126.6,605.6
		L128.5,604.3 L130.4,603.1 L132.3,601.9 L134.2,600.7 L136.1,599.6 L138.0,598.5 L139.8,597.5 L141.7,596.5
		L143.6,595.6 L145.5,594.7 L147.4,593.8 L149.3,593.0 L151.2,592.2 L153.0,591.4 L154.9,590.6 L156.8,589.8
		L158.7,589.0 L160.6,588.1 L162.5,587.3 L164.4,586.4 L166.3,585.5 L168.1,584.6 L170.0,583.6 L171.9,582.6
		L173.8,581.6 L175.7,580.5 L177.6,579.5 L179.5,578.4 L181.4,577.3 L183.2,576.2 L185.1,575.0 L187.0,573.9
		L188.9,572.7 L190.8,571.6 L192.7,570.4 L194.6,569.2 L196.5,568.0 L198.3,566.8 L200.2,565.6 L202.1,564.3
		L204.0,563.0 L205.9,561.6 L207.8,560.2 L209.7,558.8 L211.6,557.2 L213.4,555.7 L215.3,554.0 L217.2,552.3
		L219.1,550.5 L221.0,548.6 L222.9,546.7 L224.8,544.7 L226.6,542.7 L228.5,540.6 L230.4,538.6 L232.3,536.4
		L234.2,534.3 L236.1,532.2 L238.0,530.1 L239.9,528.0 L241.7,526.0 L243.6,524.0 L245.5,522.0 L247.4,520.0
		L249.3,518.0 L251.2,516.1 L253.1,514.2 L255.0,512.2 L256.8,510.3 L258.7,508.3 L260.6,506.3 L262.5,504.3
		L264.4,502.2 L266.3,500.1 L268.2,497.8 L270.1,495.6 L271.9,493.2 L273.8,490.8 L275.7,488.4 L277.6,485.9
		L279.5,483.3 L281.4,480.7 L283.3,478.1 L285.2,475.4 L287.0,472.8 L288.9,470.1 L290.8,467.4 L292.7,464.7
		L294.6,462.1 L296.5,459.4 L298.4,456.7 L300.2,454.0 L302.1,451.3 L304.0,448.6 L305.9,445.9 L307.8,443.1
		L309.7,440.4 L311.6,437.6 L313.5,434.7 L315.3,431.9 L317.2,429.0 L319.1,426.1 L321.0,423.2 L322.9,420.2
		L324.8,417.3 L326.7,414.4 L328.6,411.4 L330.4,408.5 L332.3,405.6 L334.2,402.7 L336.1,399.8 L338.0,397.0
		L339.9,394.1 L341.8,391.3 L343.7,388.4 L345.5,385.6 L347.4,382.8 L349.3,380.0 L351.2,377.1 L353.1,374.2
		L355.0,371.4 L356.9,368.5 L358.8,365.6 L360.6,362.7 L362.5,359.8 L364.4,356.9 L366.3,354.0 L368.2,351.1
		L370.1,348.2 L372.0,345.3 L373.8,342.4 L375.7,339.5 L377.6,336.7 L379.5,333.8 L381.4,330.9 L383.3,328.0
		L385.2,325.1 L387.1,322.1 L388.9,319.2 L390.8,316.1 L392.7,313.1 L394.6,310.0 L396.5,306.8 L398.4,303.6
		L400.3,300.4 L402.2,297.1 L404.0,293.8 L405.9,290.5 L407.8,287.2 L409.7,283.9 L411.6,280.5 L413.5,277.2
		L415.4,273.9 L417.3,270.6 L419.1,267.3 L421.0,264.1 L422.9,260.8 L424.8,257.6 L426.7,254.4 L428.6,251.3
		L430.5,248.2 L432.4,245.1 L434.2,242.0 L436.1,239.0 L438.0,236.0 L439.9,233.0 L441.8,230.1 L443.7,227.2
		L445.6,224.3 L447.4,221.5 L449.3,218.7 L451.2,215.9 L453.1,213.1 L455.0,210.4 L456.9,207.7 L458.8,205.0
		L460.7,202.4 L462.5,199.7 L464.4,197.1 L466.3,194.5 L468.2,191.9 L470.1,189.4 L472.0,186.8 L473.9,184.3
		L475.8,181.9 L477.6,179.4 L479.5,177.0 L481.4,174.7 L483.3,172.4 L485.2,170.1 L487.1,167.9 L489.0,165.7
		L490.9,163.5 L492.7,161.4 L494.6,159.3 L496.5,157.2 L498.4,155.1 L500.3,153.1 L502.2,151.1 L504.1,149.2
		L506.0,147.2 L507.8,145.3 L509.7,143.5 L511.6,141.7 L513.5,139.9 L515.4,138.1 L517.3,136.4 L519.2,134.8
		L521.0,133.2 L522.9,131.7 L524.8,130.2 L526.7,128.7 L528.6,127.3 L530.5,126.0 L532.4,124.7 L534.3,123.5
		L536.1,122.3 L538.0,121.1 L539.9,120.0 L541.8,118.9 L543.7,117.9 L545.6,116.9 L547.5,116.0 L549.4,115.1
		L551.2,114.3 L553.1,113.5 L555.0,112.7 L556.9,112.0 L558.8,111.3 L560.7,110.6 L562.6,110.0 L564.5,109.4
		L566.3,108.8 L568.2,108.3 L570.1,107.8 L572.0,107.3 L573.9,106.8 L575.8,106.4 L577.7,106.0 L579.5,105.7
		L581.4,105.3 L583.3,105.0 L585.2,104.8 L587.1,104.5 L589.0,104.3 L590.9,104.2 L592.8,104.1 L594.6,104.1
		L596.5,104.1 L598.4,104.2 L600.3,104.3 L602.2,104.6 L604.1,104.9 L606.0,105.3 L607.9,105.8 L609.7,106.4
		L611.6,107.1 L613.5,107.9 L615.4,108.8 L617.3,109.8 L619.2,110.9 L621.1,112.1 L623.0,113.4 L624.8,114.7
		L626.7,116.1 L628.6,117.5 L630.5,119.0 L632.4,120.5 L634.3,122.1 L636.2,123.7 L638.1,125.3 L639.9,126.9
		L641.8,128.5 L643.7,130.1 L645.6,131.8 L647.5,133.4 L649.4,135.0 L651.3,136.6 L653.1,138.3 L655.0,139.9
		L656.9,141.5 L658.8,143.2 L660.7,144.8 L662.6,146.5 L664.5,148.2 L666.4,150.0 L668.2,151.7 L670.1,153.5
		L672.0,155.4 L673.9,157.3 L675.8,159.3 L677.7,161.4 L679.6,163.5 L681.5,165.8 L683.3,168.1 L685.2,170.5
		L687.1,173.1 L689.0,175.7 L690.9,178.4 L692.8,181.2 L694.7,184.2 L696.6,187.2 L698.4,190.3 L700.3,193.4
		L702.2,196.7 L704.1,199.9 L706.0,203.3 L707.9,206.6 L709.8,210.0 L711.7,213.4 L713.5,216.8 L715.4,220.2
		L717.3,223.6 L719.2,227.0 L721.1,230.3 L723.0,233.6 L724.9,236.9 L726.7,240.2 L728.6,243.4 L730.5,246.6
		L732.4,249.8 L734.3,253.0 L736.2,256.2 L738.1,259.4 L740.0,262.5 L741.8,265.7 L743.7,268.9 L745.6,272.2
		L747.5,275.5 L749.4,278.8 L751.3,282.1 L753.2,285.5 L755.1,288.9 L756.9,292.4 L758.8,295.9 L760.7,299.5
		L762.6,303.0 L764.5,306.6 L766.4,310.2 L768.3,313.8 L770.2,317.4 L772.0,321.0 L773.9,324.6 L775.8,328.1
		L777.7,331.7 L779.6,335.2 L781.5,338.7 L783.4,342.1 L785.3,345.6 L787.1,349.0 L789.0,352.4 L790.9,355.7
		L792.8,359.1 L794.7,362.5 L796.6,365.8 L798.5,369.2 L800.3,372.5 L802.2,375.9 L804.1,379.3 L806.0,382.7
		L807.9,386.2 L809.8,389.6 L811.7,393.1 L813.6,396.6 L815.4,400.1 L817.3,403.6 L819.2,407.2 L821.1,410.7
		L823.0,414.2 L824.9,417.8 L826.8,421.3 L828.7,424.8 L830.5,428.3 L832.4,431.8 L834.3,435.2 L836.2,438.7
		L838.1,442.0 L840.0,445.4 L841.9,448.7 L843.8,451.9 L845.6,455.2 L847.5,458.3 L849.4,461.5 L851.3,464.6
		L853.2,467.6 L855.1,470.7 L857.0,473.7 L858.9,476.6 L860.7,479.6 L862.6,482.5 L864.5,485.4 L866.4,488.2
		L868.3,491.1 L870.2,493.9 L872.1,496.7 L873.9,499.4 L875.8,502.2 L877.7,504.9 L879.6,507.6 L881.5,510.3
		L883.4,512.9 L885.3,515.5 L887.2,518.1 L889.0,520.6 L890.9,523.1 L892.8,525.6 L894.7,528.0 L896.6,530.4
		L898.5,532.8 L900.4,535.1 L902.3,537.4 L904.1,539.7 L906.0,541.9 L907.9,544.1 L909.8,546.3 L911.7,548.4
		L913.6,550.6 L915.5,552.7 L917.4,554.7 L919.2,556.8 L921.1,558.8 L923.0,560.7 L924.9,562.7 L926.8,564.6
		L928.7,566.6 L930.6,568.4 L932.5,570.3 L934.3,572.2 L936.2,574.0 L938.1,575.8 L940.0,577.6 L941.9,579.4
		L943.8,581.1 L945.7,582.9 L947.5,584.6 L949.4,586.3 L951.3,588.0 L953.2,589.7 L955.1,591.4 L957.0,593.1
		L958.9,594.7 L960.8,596.3 L962.6,598.0 L964.5,599.6 L966.4,601.1 L968.3,602.7 L970.2,604.2 L972.1,605.7
		L974.0,607.2 L975.9,608.7 L977.7,610.1 L979.6,611.5 L981.5,612.9 L983.4,614.2 L985.3,615.5 L987.2,616.7
		L989.1,618.0 L991.0,619.2 L992.8,620.3 L994.7,621.4 L996.6,622.5 L998.5,623.6 L1000.4,624.6 L1002.3,625.6
		L1004.2,626.5 L1006.1,627.5 L1007.9,628.4 L1009.8,629.3 L1011.7,630.1 L1013.6,630.9  '/></g>
	</g>
	<g id="gnuplot_plot_2" ><title>Confidence interval</title>
<g fill="none" color="white" stroke="rgb( 31, 120, 180)" stroke-width="1.00" stroke-linecap="butt" stroke-linejoin="miter">
</g>
<g fill="none" color="black" stroke="currentColor" stroke-width="1.00" stroke-linecap="butt" stroke-linejoin="miter">
	<g transform="translate(1089.0,85.0)" stroke="none" fill="black" font-family="Helvetica" font-size="12.00"  text-anchor="start">
		<text><tspan font-family="Helvetica" >Confidence interval</tspan></text>
	</g>
</g>
<g fill="none" color="black" stroke="currentColor" stroke-width="1.00" stroke-linecap="butt" stroke-linejoin="miter">
	<g stroke='none' shape-rendering='crispEdges'>
		<polygon fill = 'rgb( 31, 120, 180)' fill-opacity = '0.250000' points = '1038.5,85.6 1080.7,85.6 1080.7,76.6 1038.5,76.6 '/>
		<polygon fill = 'rgb( 31, 120, 180)' fill-opacity = '0.250000' points = '158.7,589.0 160.6,588.1 162.5,587.3 164.4,586.4 166.3,585.5 168.1,584.6 170.0,583.6 171.9,582.6 173.8,581.6 175.7,580.5 177.6,579.5 179.5,578.4 181.4,577.3 183.2,576.2 185.1,575.0 187.0,573.9
188.9,572.7 190.8,571.6 192.7,570.4 194.6,569.2 196.5,568.0 198.3,566.8 200.2,565.6 202.1,564.3 204.0,563.0 205.9,561.6 207.8,560.2 209.7,558.8 211.6,557.2 213.4,555.7 215.3,554.0 217.2,552.3
219.1,550.5 221.0,548.6 222.9,546.7 224.8,544.7 226.6,542.7 228.5,540.6 230.4,538.6 232.3,536.4 234.2,534.3 236.1,532.2 238.0,530.1 239.9,528.0 241.7,526.0 243.6,524.0 245.5,522.0 247.4,520.0
249.3,518.0 251.2,516.1 253.1,514.2 255.0,512.2 256.8,510.3 258.7,508.3 260.6,506.3 262.5,504.3 264.4,502.2 266.3,500.1 268.2,497.8 270.1,495.6 271.9,493.2 273.8,490.8 275.7,488.4 277.6,485.9
279.5,483.3 281.4,480.7 283.3,478.1 285.2,475.4 287.0,472.8 288.9,470.1 290.8,467.4 292.7,464.7 294.6,462.1 296.5,459.4 298.4,456.7 300.2,454.0 302.1,451.3 304.0,448.6 305.9,445.9 307.8,443.1
309.7,440.4 311.6,437.6 313.5,434.7 315.3,431.9 317.2,429.0 319.1,426.1 321.0,423.2 322.9,420.2 324.8,417.3 326.7,414.4 328.6,411.4 330.4,408.5 332.3,405.6 334.2,402.7 336.1,399.8 338.0,397.0
339.9,394.1 341.8,391.3 343.7,388.4 345.5,385.6 347.4,382.8 349.3,380.0 351.2,377.1 353.1,374.2 355.0,371.4 356.9,368.5 358.8,365.6 360.6,362.7 362.5,359.8 364.4,356.9 366.3,354.0 368.2,351.1
370.1,348.2 372.0,345.3 373.8,342.4 375.7,339.5 377.6,336.7 379.5,333.8 381.4,330.9 383.3,328.0 385.2,325.1 387.1,322.1 388.9,319.2 390.8,316.1 392.7,313.1 394.6,310.0 396.5,306.8 398.4,303.6
400.3,300.4 402.2,297.1 404.0,293.8 405.9,290.5 407.8,287.2 409.7,283.9 411.6,280.5 413.5,277.2 415.4,273.9 417.3,270.6 419.1,267.3 421.0,264.1 422.9,260.8 424.8,257.6 426.7,254.4 428.6,251.3
430.5,248.2 432.4,245.1 434.2,242.0 436.1,239.0 438.0,236.0 439.9,233.0 441.8,230.1 443.7,227.2 445.6,224.3 447.4,221.5 449.3,218.7 451.2,215.9 453.1,213.1 455.0,210.4 456.9,207.7 458.8,205.0
460.7,202.4 462.5,199.7 464.4,197.1 466.3,194.5 468.2,191.9 470.1,189.4 472.0,186.8 473.9,184.3 475.8,181.9 477.6,179.4 479.5,177.0 481.4,174.7 483.3,172.4 485.2,170.1 487.1,167.9 489.0,165.7
490.9,163.5 492.7,161.4 494.6,159.3 496.5,157.2 498.4,155.1 500.3,153.1 502.2,151.1 504.1,149.2 506.0,147.2 507.8,145.3 509.7,143.5 511.6,141.7 513.5,139.9 515.4,138.1 517.3,136.4 519.2,134.8
521.0,133.2 522.9,131.7 524.8,130.2 526.7,128.7 528.6,127.3 530.5,126.0 532.4,124.7 534.3,123.5 536.1,122.3 538.0,121.1 539.9,120.0 541.8,118.9 543.7,117.9 545.6,116.9 547.5,116.0 549.4,115.1
551.2,114.3 553.1,113.5 555.0,112.7 556.9,112.0 558.8,111.3 560.7,110.6 562.6,110.0 564.5,109.4 566.3,108.8 568.2,108.3 570.1,107.8 572.0,107.3 573.9,106.8 575.8,106.4 577.7,106.0 579.5,105.7
581.4,105.3 583.3,105.0 585.2,104.8 587.1,104.5 589.0,104.3 590.9,104.2 592.8,104.1 594.6,104.1 596.5,104.1 598.4,104.2 600.3,104.3 602.2,104.6 604.1,104.9 606.0,105.3 607.9,105.8 609.7,106.4
611.6,107.1 613.5,107.9 615.4,108.8 617.3,109.8 619.2,110.9 621.1,112.1 623.0,113.4 624.8,114.7 626.7,116.1 628.6,117.5 630.5,119.0 632.4,120.5 634.3,122.1 636.2,123.7 638.1,125.3 639.9,126.9
641.8,128.5 643.7,130.1 645.6,131.8 647.5,133.4 649.4,135.0 651.3,136.6 653.1,138.3 655.0,139.9 656.9,141.5 658.8,143.2 660.7,144.8 662.6,146.5 664.5,148.2 666.4,150.0 668.2,151.7 670.1,153.5
672.0,155.4 673.9,157.3 675.8,159.3 677.7,161.4 679.6,163.5 681.5,165.8 683.3,168.1 685.2,170.5 687.1,173.1 689.0,175.7 690.9,178.4 692.8,181.2 694.7,184.2 696.6,187.2 698.4,190.3 700.3,193.4
702.2,196.7 704.1,199.9 706.0,203.3 707.9,206.6 709.8,210.0 711.7,213.4 713.5,216.8 715.4,220.2 717.3,223.6 719.2,227.0 721.1,230.3 723.0,233.6 724.9,236.9 726.7,240.2 728.6,243.4 730.5,246.6
732.4,249.8 734.3,253.0 736.2,256.2 738.1,259.4 740.0,262.5 741.8,265.7 743.7,268.9 745.6,272.2 747.5,275.5 749.4,278.8 751.3,282.1 753.2,285.5 755.1,288.9 756.9,292.4 758.8,295.9 760.7,299.5
762.6,303.0 764.5,306.6 766.4,310.2 768.3,313.8 770.2,317.4 772.0,321.0 773.9,324.6 775.8,328.1 777.7,331.7 779.6,335.2 781.5,338.7 783.4,342.1 785.3,345.6 787.1,349.0 789.0,352.4 790.9,355.7
792.8,359.1 794.7,362.5 796.6,365.8 798.5,369.2 800.3,372.5 802.2,375.9 804.1,379.3 806.0,382.7 807.9,386.2 809.8,389.6 811.7,393.1 813.6,396.6 815.4,400.1 817.3,403.6 819.2,407.2 821.1,410.7
823.0,414.2 824.9,417.8 826.8,421.3 828.7,424.8 830.5,428.3 832.4,431.8 834.3,435.2 836.2,438.7 838.1,442.0 840.0,445.4 841.9,448.7 843.8,451.9 845.6,455.2 847.5,458.3 849.4,461.5 851.3,464.6
853.2,467.6 855.1,470.7 857.0,473.7 858.9,476.6 860.7,479.6 862.6,482.5 864.5,485.4 866.4,488.2 868.3,491.1 870.2,493.9 872.1,496.7 873.9,499.4 875.8,502.2 877.7,504.9 879.6,507.6 881.5,510.3
883.4,512.9 885.3,515.5 887.2,518.1 889.0,520.6 890.9,523.1 892.8,525.6 894.7,528.0 896.6,530.4 898.5,532.8 900.4,535.1 902.3,537.4 904.1,539.7 906.0,541.9 907.9,544.1 909.8,546.3 911.7,548.4
913.6,550.6 915.5,552.7 917.4,554.7 919.2,556.8 921.1,558.8 923.0,560.7 924.9,562.7 924.9,662.4 923.0,662.4 921.1,662.4 919.2,662.4 917.4,662.4 915.5,662.4 913.6,662.4 911.7,662.4 909.8,662.4
907.9,662.4 906.0,662.4 904.1,662.4 902.3,662.4 900.4,662.4 898.5,662.4 896.6,662.4 894.7,662.4 892.8,662.4 890.9,662.4 889.0,662.4 887.2,662.4 885.3,662.4 883.4,662.4 881.5,662.4 879.6,662.4
877.7,662.4 875.8,662.4 873.9,662.4 872.1,662.4 870.2,662.4 868.3,662.4 866.4,662.4 864.5,662.4 862.6,662.4 860.7,662.4 858.9,662.4 857.0,662.4 855.1,662.4 853.2,662.4 851.3,662.4 849.4,662.4
847.5,662.4 845.6,662.4 843.8,662.4 841.9,662.4 840.0,662.4 838.1,662.4 836.2,662.4 834.3,662.4 832.4,662.4 830.5,662.4 828.7,662.4 826.8,662.4 824.9,662.4 823.0,662.4 821.1,662.4 819.2,662.4
817.3,662.4 815.4,662.4 813.6,662.4 811.7,662.4 809.8,662.4 807.9,662.4 806.0,662.4 804.1,662.4 802.2,662.4 800.3,662.4 798.5,662.4 796.6,662.4 794.7,662.4 792.8,662.4 790.9,662.4 789.0,662.4
787.1,662.4 785.3,662.4 783.4,662.4 781.5,662.4 779.6,662.4 777.7,662.4 775.8,662.4 773.9,662.4 772.0,662.4 770.2,662.4 768.3,662.4 766.4,662.4 764.5,662.4 762.6,662.4 760.7,662.4 758.8,662.4
756.9,662.4 755.1,662.4 753.2,662.4 751.3,662.4 749.4,662.4 747.5,662.4 745.6,662.4 743.7,662.4 741.8,662.4 740.0,662.4 738.1,662.4 736.2,662.4 734.3,662.4 732.4,662.4 730.5,662.4 728.6,662.4
726.7,662.4 724.9,662.4 723.0,662.4 721.1,662.4 719.2,662.4 717.3,662.4 715.4,662.4 713.5,662.4 711.7,662.4 709.8,662.4 707.9,662.4 706.0,662.4 704.1,662.4 702.2,662.4 700.3,662.4 698.4,662.4
696.6,662.4 694.7,662.4 692.8,662.4 690.9,662.4 689.0,662.4 687.1,662.4 685.2,662.4 683.3,662.4 681.5,662.4 679.6,662.4 677.7,662.4 675.8,662.4 673.9,662.4 672.0,662.4 670.1,662.4 668.2,662.4
666.4,662.4 664.5,662.4 662.6,662.4 660.7,662.4 658.8,662.4 656.9,662.4 655.0,662.4 653.1,662.4 651.3,662.4 649.4,662.4 647.5,662.4 645.6,662.4 643.7,662.4 641.8,662.4 639.9,662.4 638.1,662.4
636.2,662.4 634.3,662.4 632.4,662.4 630.5,662.4 628.6,662.4 626.7,662.4 624.8,662.4 623.0,662.4 621.1,662.4 619.2,662.4 617.3,662.4 615.4,662.4 613.5,662.4 611.6,662.4 609.7,662.4 607.9,662.4
606.0,662.4 604.1,662.4 602.2,662.4 600.3,662.4 598.4,662.4 596.5,662.4 594.6,662.4 592.8,662.4 590.9,662.4 589.0,662.4 587.1,662.4 585.2,662.4 583.3,662.4 581.4,662.4 579.5,662.4 577.7,662.4
575.8,662.4 573.9,662.4 572.0,662.4 570.1,662.4 568.2,662.4 566.3,662.4 564.5,662.4 562.6,662.4 560.7,662.4 558.8,662.4 556.9,662.4 555.0,662.4 553.1,662.4 551.2,662.4 549.4,662.4 547.5,662.4
545.6,662.4 543.7,662.4 541.8,662.4 539.9,662.4 538.0,662.4 536.1,662.4 534.3,662.4 532.4,662.4 530.5,662.4 528.6,662.4 526.7,662.4 524.8,662.4 522.9,662.4 521.0,662.4 519.2,662.4 517.3,662.4
515.4,662.4 513.5,662.4 511.6,662.4 509.7,662.4 507.8,662.4 506.0,662.4 504.1,662.4 502.2,662.4 500.3,662.4 498.4,662.4 496.5,662.4 494.6,662.4 492.7,662.4 490.9,662.4 489.0,662.4 487.1,662.4
485.2,662.4 483.3,662.4 481.4,662.4 479.5,662.4 477.6,662.4 475.8,662.4 473.9,662.4 472.0,662.4 470.1,662.4 468.2,662.4 466.3,662.4 464.4,662.4 462.5,662.4 460.7,662.4 458.8,662.4 456.9,662.4
455.0,662.4 453.1,662.4 451.2,662.4 449.3,662.4 447.4,662.4 445.6,662.4 443.7,662.4 441.8,662.4 439.9,662.4 438.0,662.4 436.1,662.4 434.2,662.4 432.4,662.4 430.5,662.4 428.6,662.4 426.7,662.4
424.8,662.4 422.9,662.4 421.0,662.4 419.1,662.4 417.3,662.4 415.4,662.4 413.5,662.4 411.6,662.4 409.7,662.4 407.8,662.4 405.9,662.4 404.0,662.4 402.2,662.4 400.3,662.4 398.4,662.4 396.5,662.4
394.6,662.4 392.7,662.4 390.8,662.4 388.9,662.4 387.1,662.4 385.2,662.4 383.3,662.4 381.4,662.4 379.5,662.4 377.6,662.4 375.7,662.4 373.8,662.4 372.0,662.4 370.1,662.4 368.2,662.4 366.3,662.4
364.4,662.4 362.5,662.4 360.6,662.4 358.8,662.4 356.9,662.4 355.0,662.4 353.1,662.4 351.2,662.4 349.3,662.4 347.4,662.4 345.5,662.4 343.7,662.4 341.8,662.4 339.9,662.4 338.0,662.4 336.1,662.4
334.2,662.4 332.3,662.4 330.4,662.4 328.6,662.4 326.7,662.4 324.8,662.4 322.9,662.4 321.0,662.4 319.1,662.4 317.2,662.4 315.3,662.4 313.5,662.4 311.6,662.4 309.7,662.4 307.8,662.4 305.9,662.4
304.0,662.4 302.1,662.4 300.2,662.4 298.4,662.4 296.5,662.4 294.6,662.4 292.7,662.4 290.8,662.4 288.9,662.4 287.0,662.4 285.2,662.4 283.3,662.4 281.4,662.4 279.5,662.4 277.6,662.4 275.7,662.4
273.8,662.4 271.9,662.4 270.1,662.4 268.2,662.4 266.3,662.4 264.4,662.4 262.5,662.4 260.6,662.4 258.7,662.4 256.8,662.4 255.0,662.4 253.1,662.4 251.2,662.4 249.3,662.4 247.4,662.4 245.5,662.4
243.6,662.4 241.7,662.4 239.9,662.4 238.0,662.4 236.1,662.4 234.2,662.4 232.3,662.4 230.4,662.4 228.5,662.4 226.6,662.4 224.8,662.4 222.9,662.4 221.0,662.4 219.1,662.4 217.2,662.4 215.3,662.4
213.4,662.4 211.6,662.4 209.7,662.4 207.8,662.4 205.9,662.4 204.0,662.4 202.1,662.4 200.2,662.4 198.3,662.4 196.5,662.4 194.6,662.4 192.7,662.4 190.8,662.4 188.9,662.4 187.0,662.4 185.1,662.4
183.2,662.4 181.4,662.4 179.5,662.4 177.6,662.4 175.7,662.4 173.8,662.4 171.9,662.4 170.0,662.4 168.1,662.4 166.3,662.4 164.4,662.4 162.5,662.4 160.6,662.4 158.7,662.4 '/>
	</g>
</g>
	</g>
	<g id="gnuplot_plot_3" ><title>Point estimate</title>
<g fill="none" color="white" stroke="rgb( 31, 120, 180)" stroke-width="2.00" stroke-linecap="butt" stroke-linejoin="miter">
</g>
<g fill="none" color="black" stroke="currentColor" stroke-width="2.00" stroke-linecap="butt" stroke-linejoin="miter">
	<g transform="translate(1089.0,103.0)" stroke="none" fill="black" font-family="Helvetica" font-size="12.00"  text-anchor="start">
		<text><tspan font-family="Helvetica" >Point estimate</tspan></text>
	</g>
</g>
<g fill="none" color="black" stroke="currentColor" stroke-width="2.00" stroke-linecap="butt" stroke-linejoin="miter">
	<path stroke='rgb( 31, 120, 180)'  d='M1038.5,99.1 L1080.7,99.1 M591.3,662.4 L591.3,104.2  '/></g>
	</g>
<g fill="none" color="black" stroke="currentColor" stroke-width="2.00" stroke-linecap="butt" stroke-linejoin="miter">
</g>
<g fill="none" color="black" stroke="black" stroke-width="1.00" stroke-linecap="butt" stroke-linejoin="miter">
</g>
<g fill="none" color="black" stroke="currentColor" stroke-width="1.00" stroke-linecap="butt" stroke-linejoin="miter">
	<path stroke='black'  d='M71.9,54.1 L71.9,662.4 L1013.6,662.4 L1013.6,54.1 L71.9,54.1 Z  '/></g>
<g fill="none" color="black" stroke="currentColor" stroke-width="1.00" stroke-linecap="butt" stroke-linejoin="miter">
</g>
</g>
</svg>

