<?xml version="1.0" encoding="utf-8"  standalone="no"?>
<svg 
 viewBox="0 0 1280 720"
 xmlns="http://www.w3.org/2000/svg"
 xmlns:xlink="http://www.w3.org/1999/xlink"
>

<title>Gnuplot</title>
<desc>Produced by GNUPLOT 5.2 patchlevel 6 </desc>

<g id="gnuplot_canvas">

<rect x="0" y="0" width="1280" height="720" fill="none"/>
<defs>

	<circle id='gpDot' r='0.5' stroke-width='0.5' stroke='currentColor'/>
	<path id='gpPt0' stroke-width='0.222' stroke='currentColor' d='M-1,0 h2 M0,-1 v2'/>
	<path id='gpPt1' stroke-width='0.222' stroke='currentColor' d='M-1,-1 L1,1 M1,-1 L-1,1'/>
	<path id='gpPt2' stroke-width='0.222' stroke='currentColor' d='M-1,0 L1,0 M0,-1 L0,1 M-1,-1 L1,1 M-1,1 L1,-1'/>
	<rect id='gpPt3' stroke-width='0.222' stroke='currentColor' x='-1' y='-1' width='2' height='2'/>
	<rect id='gpPt4' stroke-width='0.222' stroke='currentColor' fill='currentColor' x='-1' y='-1' width='2' height='2'/>
	<circle id='gpPt5' stroke-width='0.222' stroke='currentColor' cx='0' cy='0' r='1'/>
	<use xlink:href='#gpPt5' id='gpPt6' fill='currentColor' stroke='none'/>
	<path id='gpPt7' stroke-width='0.222' stroke='currentColor' d='M0,-1.33 L-1.33,0.67 L1.33,0.67 z'/>
	<use xlink:href='#gpPt7' id='gpPt8' fill='currentColor' stroke='none'/>
	<use xlink:href='#gpPt7' id='gpPt9' stroke='currentColor' transform='rotate(180)'/>
	<use xlink:href='#gpPt9' id='gpPt10' fill='currentColor' stroke='none'/>
	<use xlink:href='#gpPt3' id='gpPt11' stroke='currentColor' transform='rotate(45)'/>
	<use xlink:href='#gpPt11' id='gpPt12' fill='currentColor' stroke='none'/>
	<path id='gpPt13' stroke-width='0.222' stroke='currentColor' d='M0,1.330 L1.265,0.411 L0.782,-1.067 L-0.782,-1.076 L-1.265,0.411 z'/>
	<use xlink:href='#gpPt13' id='gpPt14' fill='currentColor' stroke='none'/>
	<filter id='textbox' filterUnits='objectBoundingBox' x='0' y='0' height='1' width='1'>
	  <feFlood flood-color='white' flood-opacity='1' result='bgnd'/>
	  <feComposite in='SourceGraphic' in2='bgnd' operator='atop'/>
	</filter>
	<filter id='greybox' filterUnits='objectBoundingBox' x='0' y='0' height='1' width='1'>
	  <feFlood flood-color='lightgrey' flood-opacity='1' result='grey'/>
	  <feComposite in='SourceGraphic' in2='grey' operator='atop'/>
	</filter>
</defs>
<g fill="none" color="white" stroke="currentColor" stroke-width="1.00" stroke-linecap="butt" stroke-linejoin="miter">
</g>
<g fill="none" color="black" stroke="currentColor" stroke-width="1.00" stroke-linecap="butt" stroke-linejoin="miter">
	<path stroke='black'  d='M71.9,662.4 L80.9,662.4  '/>	<g transform="translate(63.6,666.3)" stroke="none" fill="black" font-family="Helvetica" font-size="12.00"  text-anchor="end">
		<text><tspan font-family="Helvetica" > 0</tspan></text>
	</g>
</g>
<g fill="none" color="black" stroke="currentColor" stroke-width="1.00" stroke-linecap="butt" stroke-linejoin="miter">
	<path stroke='black'  d='M71.9,601.6 L80.9,601.6  '/>	<g transform="translate(63.6,605.5)" stroke="none" fill="black" font-family="Helvetica" font-size="12.00"  text-anchor="end">
		<text><tspan font-family="Helvetica" > 0.2</tspan></text>
	</g>
</g>
<g fill="none" color="black" stroke="currentColor" stroke-width="1.00" stroke-linecap="butt" stroke-linejoin="miter">
	<path stroke='black'  d='M71.9,540.7 L80.9,540.7  '/>	<g transform="translate(63.6,544.6)" stroke="none" fill="black" font-family="Helvetica" font-size="12.00"  text-anchor="end">
		<text><tspan font-family="Helvetica" > 0.4</tspan></text>
	</g>
</g>
<g fill="none" color="black" stroke="currentColor" stroke-width="1.00" stroke-linecap="butt" stroke-linejoin="miter">
	<path stroke='black'  d='M71.9,479.9 L80.9,479.9  '/>	<g transform="translate(63.6,483.8)" stroke="none" fill="black" font-family="Helvetica" font-size="12.00"  text-anchor="end">
		<text><tspan font-family="Helvetica" > 0.6</tspan></text>
	</g>
</g>
<g fill="none" color="black" stroke="currentColor" stroke-width="1.00" stroke-linecap="butt" stroke-linejoin="miter">
	<path stroke='black'  d='M71.9,419.1 L80.9,419.1  '/>	<g transform="translate(63.6,423.0)" stroke="none" fill="black" font-family="Helvetica" font-size="12.00"  text-anchor="end">
		<text><tspan font-family="Helvetica" > 0.8</tspan></text>
	</g>
</g>
<g fill="none" color="black" stroke="currentColor" stroke-width="1.00" stroke-linecap="butt" stroke-linejoin="miter">
	<path stroke='black'  d='M71.9,358.2 L80.9,358.2  '/>	<g transform="translate(63.6,362.1)" stroke="none" fill="black" font-family="Helvetica" font-size="12.00"  text-anchor="end">
		<text><tspan font-family="Helvetica" > 1</tspan></text>
	</g>
</g>
<g fill="none" color="black" stroke="currentColor" stroke-width="1.00" stroke-linecap="butt" stroke-linejoin="miter">
	<path stroke='black'  d='M71.9,297.4 L80.9,297.4  '/>	<g transform="translate(63.6,301.3)" stroke="none" fill="black" font-family="Helvetica" font-size="12.00"  text-anchor="end">
		<text><tspan font-family="Helvetica" > 1.2</tspan></text>
	</g>
</g>
<g fill="none" color="black" stroke="currentColor" stroke-width="1.00" stroke-linecap="butt" stroke-linejoin="miter">
	<path stroke='black'  d='M71.9,236.6 L80.9,236.6  '/>	<g transform="translate(63.6,240.5)" stroke="none" fill="black" font-family="Helvetica" font-size="12.00"  text-anchor="end">
		<text><tspan font-family="Helvetica" > 1.4</tspan></text>
	</g>
</g>
<g fill="none" color="black" stroke="currentColor" stroke-width="1.00" stroke-linecap="butt" stroke-linejoin="miter">
	<path stroke='black'  d='M71.9,175.8 L80.9,175.8  '/>	<g transform="translate(63.6,179.7)" stroke="none" fill="black" font-family="Helvetica" font-size="12.00"  text-anchor="end">
		<text><tspan font-family="Helvetica" > 1.6</tspan></text>
	</g>
</g>
<g fill="none" color="black" stroke="currentColor" stroke-width="1.00" stroke-linecap="butt" stroke-linejoin="miter">
	<path stroke='black'  d='M71.9,114.9 L80.9,114.9  '/>	<g transform="translate(63.6,118.8)" stroke="none" fill="black" font-family="Helvetica" font-size="12.00"  text-anchor="end">
		<text><tspan font-family="Helvetica" > 1.8</tspan></text>
	</g>
</g>
<g fill="none" color="black" stroke="currentColor" stroke-width="1.00" stroke-linecap="butt" stroke-linejoin="miter">
	<path stroke='black'  d='M71.9,54.1 L80.9,54.1  '/>	<g transform="translate(63.6,58.0)" stroke="none" fill="black" font-family="Helvetica" font-size="12.00"  text-anchor="end">
		<text><tspan font-family="Helvetica" > 2</tspan></text>
	</g>
</g>
<g fill="none" color="black" stroke="currentColor" stroke-width="1.00" stroke-linecap="butt" stroke-linejoin="miter">
	<path stroke='black'  d='M90.6,662.4 L90.6,653.4  '/>	<g transform="translate(90.6,684.3)" stroke="none" fill="black" font-family="Helvetica" font-size="12.00"  text-anchor="middle">
		<text><tspan font-family="Helvetica" > 85.2</tspan></text>
	</g>
</g>
<g fill="none" color="black" stroke="currentColor" stroke-width="1.00" stroke-linecap="butt" stroke-linejoin="miter">
	<path stroke='black'  d='M268.5,662.4 L268.5,653.4  '/>	<g transform="translate(268.5,684.3)" stroke="none" fill="black" font-family="Helvetica" font-size="12.00"  text-anchor="middle">
		<text><tspan font-family="Helvetica" > 85.4</tspan></text>
	</g>
</g>
<g fill="none" color="black" stroke="currentColor" stroke-width="1.00" stroke-linecap="butt" stroke-linejoin="miter">
	<path stroke='black'  d='M446.5,662.4 L446.5,653.4  '/>	<g transform="translate(446.5,684.3)" stroke="none" fill="black" font-family="Helvetica" font-size="12.00"  text-anchor="middle">
		<text><tspan font-family="Helvetica" > 85.6</tspan></text>
	</g>
</g>
<g fill="none" color="black" stroke="currentColor" stroke-width="1.00" stroke-linecap="butt" stroke-linejoin="miter">
	<path stroke='black'  d='M624.4,662.4 L624.4,653.4  '/>	<g transform="translate(624.4,684.3)" stroke="none" fill="black" font-family="Helvetica" font-size="12.00"  text-anchor="middle">
		<text><tspan font-family="Helvetica" > 85.8</tspan></text>
	</g>
</g>
<g fill="none" color="black" stroke="currentColor" stroke-width="1.00" stroke-linecap="butt" stroke-linejoin="miter">
	<path stroke='black'  d='M802.4,662.4 L802.4,653.4  '/>	<g transform="translate(802.4,684.3)" stroke="none" fill="black" font-family="Helvetica" font-size="12.00"  text-anchor="middle">
		<text><tspan font-family="Helvetica" > 86</tspan></text>
	</g>
</g>
<g fill="none" color="black" stroke="currentColor" stroke-width="1.00" stroke-linecap="butt" stroke-linejoin="miter">
	<path stroke='black'  d='M980.3,662.4 L980.3,653.4  '/>	<g transform="translate(980.3,684.3)" stroke="none" fill="black" font-family="Helvetica" font-size="12.00"  text-anchor="middle">
		<text><tspan font-family="Helvetica" > 86.2</tspan></text>
	</g>
</g>
<g fill="none" color="black" stroke="currentColor" stroke-width="1.00" stroke-linecap="butt" stroke-linejoin="miter">
</g>
<g fill="none" color="black" stroke="currentColor" stroke-width="1.00" stroke-linecap="butt" stroke-linejoin="miter">
	<path stroke='black'  d='M71.9,54.1 L71.9,662.4 L1013.6,662.4 L1013.6,54.1 L71.9,54.1 Z  '/></g>
<g fill="none" color="black" stroke="currentColor" stroke-width="1.00" stroke-linecap="butt" stroke-linejoin="miter">
	<g transform="translate(16.3,358.3) rotate(270)" stroke="none" fill="black" font-family="Helvetica" font-size="12.00"  text-anchor="middle">
		<text><tspan font-family="Helvetica" >Density (a.u.)</tspan></text>
	</g>
</g>
<g fill="none" color="black" stroke="currentColor" stroke-width="1.00" stroke-linecap="butt" stroke-linejoin="miter">
	<g transform="translate(542.7,711.3)" stroke="none" fill="black" font-family="Helvetica" font-size="12.00"  text-anchor="middle">
		<text><tspan font-family="Helvetica" >Average time (us)</tspan></text>
	</g>
</g>
<g fill="none" color="black" stroke="currentColor" stroke-width="1.00" stroke-linecap="butt" stroke-linejoin="miter">
	<g transform="translate(542.7,31.0)" stroke="none" fill="black" font-family="Helvetica" font-size="12.00"  text-anchor="middle">
		<text><tspan font-family="Helvetica" >snapshot_restore_with_dense/Dense: Entire region + /proc/pid/mem/100: slope</tspan></text>
	</g>
</g>
	<g id="gnuplot_plot_1" ><title>Bootstrap distribution</title>
<g fill="none" color="white" stroke="black" stroke-width="2.00" stroke-linecap="butt" stroke-linejoin="miter">
</g>
<g fill="none" color="black" stroke="currentColor" stroke-width="2.00" stroke-linecap="butt" stroke-linejoin="miter">
	<g transform="translate(1089.0,67.0)" stroke="none" fill="black" font-family="Helvetica" font-size="12.00"  text-anchor="start">
		<text><tspan font-family="Helvetica" >Bootstrap distribution</tspan></text>
	</g>
</g>
<g fill="none" color="black" stroke="currentColor" stroke-width="2.00" stroke-linecap="butt" stroke-linejoin="miter">
	<path stroke='rgb( 31, 120, 180)'  d='M1038.5,63.1 L1080.7,63.1 M71.9,661.5 L73.8,661.2 L75.7,660.9 L77.6,660.5 L79.4,660.1 L81.3,659.5
		L83.2,658.8 L85.1,657.9 L87.0,657.0 L88.9,655.8 L90.8,654.4 L92.7,652.7 L94.5,650.9 L96.4,648.7
		L98.3,646.2 L100.2,643.3 L102.1,640.1 L104.0,636.5 L105.9,632.5 L107.8,628.0 L109.6,623.1 L111.5,617.8
		L113.4,612.0 L115.3,605.7 L117.2,599.1 L119.1,592.0 L121.0,584.6 L122.9,576.9 L124.7,568.9 L126.6,560.7
		L128.5,552.3 L130.4,543.9 L132.3,535.6 L134.2,527.4 L136.1,519.4 L138.0,511.7 L139.8,504.4 L141.7,497.7
		L143.6,491.5 L145.5,486.0 L147.4,481.2 L149.3,477.3 L151.2,474.2 L153.0,472.0 L154.9,470.8 L156.8,470.4
		L158.7,471.0 L160.6,472.5 L162.5,474.9 L164.4,478.1 L166.3,482.1 L168.1,486.7 L170.0,492.0 L171.9,497.7
		L173.8,503.8 L175.7,510.3 L177.6,516.9 L179.5,523.6 L181.4,530.2 L183.2,536.7 L185.1,542.8 L187.0,548.6
		L188.9,553.9 L190.8,558.6 L192.7,562.6 L194.6,565.9 L196.5,568.3 L198.3,569.8 L200.2,570.3 L202.1,569.8
		L204.0,568.3 L205.9,565.6 L207.8,561.8 L209.7,557.0 L211.6,551.0 L213.4,543.9 L215.3,535.7 L217.2,526.5
		L219.1,516.3 L221.0,505.2 L222.9,493.3 L224.8,480.5 L226.6,467.1 L228.5,453.2 L230.4,438.7 L232.3,423.9
		L234.2,408.8 L236.1,393.7 L238.0,378.5 L239.9,363.5 L241.7,348.8 L243.6,334.5 L245.5,320.6 L247.4,307.4
		L249.3,294.9 L251.2,283.2 L253.1,272.3 L255.0,262.5 L256.8,253.6 L258.7,245.8 L260.6,239.1 L262.5,233.5
		L264.4,229.0 L266.3,225.6 L268.2,223.3 L270.1,222.0 L271.9,221.7 L273.8,222.3 L275.7,223.8 L277.6,226.1
		L279.5,229.1 L281.4,232.8 L283.3,237.0 L285.2,241.6 L287.0,246.6 L288.9,251.9 L290.8,257.3 L292.7,262.7
		L294.6,268.2 L296.5,273.5 L298.4,278.6 L300.2,283.4 L302.1,287.9 L304.0,291.9 L305.9,295.5 L307.8,298.5
		L309.7,301.0 L311.6,302.8 L313.5,303.9 L315.3,304.4 L317.2,304.2 L319.1,303.2 L321.0,301.6 L322.9,299.3
		L324.8,296.2 L326.7,292.5 L328.6,288.2 L330.4,283.3 L332.3,277.8 L334.2,271.8 L336.1,265.3 L338.0,258.4
		L339.9,251.2 L341.8,243.6 L343.7,235.8 L345.5,227.9 L347.4,219.8 L349.3,211.8 L351.2,203.7 L353.1,195.7
		L355.0,187.8 L356.9,180.1 L358.8,172.6 L360.6,165.5 L362.5,158.6 L364.4,152.1 L366.3,146.0 L368.2,140.2
		L370.1,134.9 L372.0,130.0 L373.8,125.6 L375.7,121.6 L377.6,118.0 L379.5,114.9 L381.4,112.2 L383.3,110.0
		L385.2,108.1 L387.1,106.7 L388.9,105.6 L390.8,104.8 L392.7,104.4 L394.6,104.4 L396.5,104.6 L398.4,105.0
		L400.3,105.7 L402.2,106.7 L404.0,107.8 L405.9,109.1 L407.8,110.5 L409.7,112.1 L411.6,113.7 L413.5,115.4
		L415.4,117.2 L417.3,119.0 L419.1,120.8 L421.0,122.5 L422.9,124.3 L424.8,125.9 L426.7,127.5 L428.6,129.0
		L430.5,130.4 L432.4,131.7 L434.2,132.8 L436.1,133.8 L438.0,134.7 L439.9,135.5 L441.8,136.1 L443.7,136.6
		L445.6,136.9 L447.4,137.1 L449.3,137.2 L451.2,137.1 L453.1,137.0 L455.0,136.7 L456.9,136.3 L458.8,135.8
		L460.7,135.3 L462.5,134.7 L464.4,134.0 L466.3,133.3 L468.2,132.5 L470.1,131.7 L472.0,131.0 L473.9,130.2
		L475.8,129.5 L477.6,128.8 L479.5,128.2 L481.4,127.6 L483.3,127.1 L485.2,126.7 L487.1,126.4 L489.0,126.2
		L490.9,126.1 L492.7,126.1 L494.6,126.2 L496.5,126.4 L498.4,126.8 L500.3,127.3 L502.2,127.8 L504.1,128.5
		L506.0,129.3 L507.8,130.2 L509.7,131.2 L511.6,132.4 L513.5,133.6 L515.4,134.8 L517.3,136.2 L519.2,137.7
		L521.0,139.2 L522.9,140.8 L524.8,142.5 L526.7,144.2 L528.6,146.0 L530.5,147.8 L532.4,149.6 L534.3,151.5
		L536.1,153.4 L538.0,155.3 L539.9,157.3 L541.8,159.3 L543.7,161.2 L545.6,163.2 L547.5,165.2 L549.4,167.2
		L551.2,169.2 L553.1,171.2 L555.0,173.3 L556.9,175.3 L558.8,177.4 L560.7,179.4 L562.6,181.5 L564.5,183.7
		L566.3,185.8 L568.2,188.0 L570.1,190.2 L572.0,192.4 L573.9,194.7 L575.8,197.0 L577.7,199.4 L579.5,201.7
		L581.4,204.1 L583.3,206.5 L585.2,209.0 L587.1,211.4 L589.0,213.9 L590.9,216.4 L592.8,218.9 L594.6,221.4
		L596.5,223.8 L598.4,226.3 L600.3,228.8 L602.2,231.3 L604.1,233.8 L606.0,236.3 L607.9,238.8 L609.7,241.3
		L611.6,243.8 L613.5,246.3 L615.4,248.8 L617.3,251.4 L619.2,254.0 L621.1,256.6 L623.0,259.3 L624.8,261.9
		L626.7,264.7 L628.6,267.4 L630.5,270.2 L632.4,273.0 L634.3,275.9 L636.2,278.8 L638.1,281.7 L639.9,284.7
		L641.8,287.6 L643.7,290.6 L645.6,293.6 L647.5,296.6 L649.4,299.6 L651.3,302.6 L653.1,305.6 L655.0,308.6
		L656.9,311.6 L658.8,314.5 L660.7,317.5 L662.6,320.4 L664.5,323.4 L666.4,326.3 L668.2,329.2 L670.1,332.2
		L672.0,335.1 L673.9,338.0 L675.8,340.9 L677.7,343.7 L679.6,346.6 L681.5,349.5 L683.3,352.3 L685.2,355.2
		L687.1,358.0 L689.0,360.8 L690.9,363.5 L692.8,366.3 L694.7,369.0 L696.6,371.7 L698.4,374.4 L700.3,377.0
		L702.2,379.6 L704.1,382.2 L706.0,384.8 L707.9,387.3 L709.8,389.8 L711.7,392.3 L713.5,394.7 L715.4,397.2
		L717.3,399.6 L719.2,402.0 L721.1,404.4 L723.0,406.8 L724.9,409.1 L726.7,411.5 L728.6,413.8 L730.5,416.2
		L732.4,418.5 L734.3,420.8 L736.2,423.2 L738.1,425.5 L740.0,427.9 L741.8,430.2 L743.7,432.6 L745.6,434.9
		L747.5,437.3 L749.4,439.6 L751.3,442.0 L753.2,444.4 L755.1,446.8 L756.9,449.2 L758.8,451.5 L760.7,453.9
		L762.6,456.3 L764.5,458.7 L766.4,461.1 L768.3,463.4 L770.2,465.8 L772.0,468.1 L773.9,470.4 L775.8,472.7
		L777.7,475.0 L779.6,477.2 L781.5,479.5 L783.4,481.6 L785.3,483.8 L787.1,485.9 L789.0,488.0 L790.9,490.0
		L792.8,492.0 L794.7,494.0 L796.6,496.0 L798.5,497.9 L800.3,499.8 L802.2,501.7 L804.1,503.6 L806.0,505.5
		L807.9,507.4 L809.8,509.2 L811.7,511.1 L813.6,512.9 L815.4,514.8 L817.3,516.6 L819.2,518.5 L821.1,520.4
		L823.0,522.2 L824.9,524.1 L826.8,525.9 L828.7,527.8 L830.5,529.6 L832.4,531.5 L834.3,533.3 L836.2,535.1
		L838.1,536.9 L840.0,538.7 L841.9,540.5 L843.8,542.2 L845.6,544.0 L847.5,545.7 L849.4,547.4 L851.3,549.1
		L853.2,550.8 L855.1,552.5 L857.0,554.1 L858.9,555.7 L860.7,557.3 L862.6,558.9 L864.5,560.5 L866.4,562.0
		L868.3,563.5 L870.2,565.0 L872.1,566.4 L873.9,567.8 L875.8,569.2 L877.7,570.6 L879.6,571.9 L881.5,573.2
		L883.4,574.4 L885.3,575.6 L887.2,576.8 L889.0,577.9 L890.9,579.1 L892.8,580.1 L894.7,581.2 L896.6,582.3
		L898.5,583.3 L900.4,584.3 L902.3,585.3 L904.1,586.3 L906.0,587.2 L907.9,588.2 L909.8,589.2 L911.7,590.2
		L913.6,591.1 L915.5,592.1 L917.4,593.1 L919.2,594.1 L921.1,595.1 L923.0,596.1 L924.9,597.1 L926.8,598.1
		L928.7,599.1 L930.6,600.1 L932.5,601.1 L934.3,602.1 L936.2,603.1 L938.1,604.1 L940.0,605.1 L941.9,606.1
		L943.8,607.0 L945.7,607.9 L947.5,608.9 L949.4,609.8 L951.3,610.7 L953.2,611.5 L955.1,612.4 L957.0,613.2
		L958.9,614.0 L960.8,614.8 L962.6,615.6 L964.5,616.4 L966.4,617.1 L968.3,617.9 L970.2,618.6 L972.1,619.3
		L974.0,620.0 L975.9,620.7 L977.7,621.4 L979.6,622.1 L981.5,622.7 L983.4,623.4 L985.3,624.0 L987.2,624.7
		L989.1,625.3 L991.0,625.9 L992.8,626.5 L994.7,627.1 L996.6,627.7 L998.5,628.3 L1000.4,628.8 L1002.3,629.4
		L1004.2,629.9 L1006.1,630.4 L1007.9,631.0 L1009.8,631.5 L1011.7,632.0 L1013.6,632.5  '/></g>
	</g>
	<g id="gnuplot_plot_2" ><title>Confidence interval</title>
<g fill="none" color="white" stroke="rgb( 31, 120, 180)" stroke-width="1.00" stroke-linecap="butt" stroke-linejoin="miter">
</g>
<g fill="none" color="black" stroke="currentColor" stroke-width="1.00" stroke-linecap="butt" stroke-linejoin="miter">
	<g transform="translate(1089.0,85.0)" stroke="none" fill="black" font-family="Helvetica" font-size="12.00"  text-anchor="start">
		<text><tspan font-family="Helvetica" >Confidence interval</tspan></text>
	</g>
</g>
<g fill="none" color="black" stroke="currentColor" stroke-width="1.00" stroke-linecap="butt" stroke-linejoin="miter">
	<g stroke='none' shape-rendering='crispEdges'>
		<polygon fill = 'rgb( 31, 120, 180)' fill-opacity = '0.250000' points = '1038.5,85.6 1080.7,85.6 1080.7,76.6 1038.5,76.6 '/>
		<polygon fill = 'rgb( 31, 120, 180)' fill-opacity = '0.250000' points = '158.7,471.0 160.6,472.5 162.5,474.9 164.4,478.1 166.3,482.1 168.1,486.7 170.0,492.0 171.9,497.7 173.8,503.8 175.7,510.3 177.6,516.9 179.5,523.6 181.4,530.2 183.2,536.7 185.1,542.8 187.0,548.6
188.9,553.9 190.8,558.6 192.7,562.6 194.6,565.9 196.5,568.3 198.3,569.8 200.2,570.3 202.1,569.8 204.0,568.3 205.9,565.6 207.8,561.8 209.7,557.0 211.6,551.0 213.4,543.9 215.3,535.7 217.2,526.5
219.1,516.3 221.0,505.2 222.9,493.3 224.8,480.5 226.6,467.1 228.5,453.2 230.4,438.7 232.3,423.9 234.2,408.8 236.1,393.7 238.0,378.5 239.9,363.5 241.7,348.8 243.6,334.5 245.5,320.6 247.4,307.4
249.3,294.9 251.2,283.2 253.1,272.3 255.0,262.5 256.8,253.6 258.7,245.8 260.6,239.1 262.5,233.5 264.4,229.0 266.3,225.6 268.2,223.3 270.1,222.0 271.9,221.7 273.8,222.3 275.7,223.8 277.6,226.1
279.5,229.1 281.4,232.8 283.3,237.0 285.2,241.6 287.0,246.6 288.9,251.9 290.8,257.3 292.7,262.7 294.6,268.2 296.5,273.5 298.4,278.6 300.2,283.4 302.1,287.9 304.0,291.9 305.9,295.5 307.8,298.5
309.7,301.0 311.6,302.8 313.5,303.9 315.3,304.4 317.2,304.2 319.1,303.2 321.0,301.6 322.9,299.3 324.8,296.2 326.7,292.5 328.6,288.2 330.4,283.3 332.3,277.8 334.2,271.8 336.1,265.3 338.0,258.4
339.9,251.2 341.8,243.6 343.7,235.8 345.5,227.9 347.4,219.8 349.3,211.8 351.2,203.7 353.1,195.7 355.0,187.8 356.9,180.1 358.8,172.6 360.6,165.5 362.5,158.6 364.4,152.1 366.3,146.0 368.2,140.2
370.1,134.9 372.0,130.0 373.8,125.6 375.7,121.6 377.6,118.0 379.5,114.9 381.4,112.2 383.3,110.0 385.2,108.1 387.1,106.7 388.9,105.6 390.8,104.8 392.7,104.4 394.6,104.4 396.5,104.6 398.4,105.0
400.3,105.7 402.2,106.7 404.0,107.8 405.9,109.1 407.8,110.5 409.7,112.1 411.6,113.7 413.5,115.4 415.4,117.2 417.3,119.0 419.1,120.8 421.0,122.5 422.9,124.3 424.8,125.9 426.7,127.5 428.6,129.0
430.5,130.4 432.4,131.7 434.2,132.8 436.1,133.8 438.0,134.7 439.9,135.5 441.8,136.1 443.7,136.6 445.6,136.9 447.4,137.1 449.3,137.2 451.2,137.1 453.1,137.0 455.0,136.7 456.9,136.3 458.8,135.8
460.7,135.3 462.5,134.7 464.4,134.0 466.3,133.3 468.2,132.5 470.1,131.7 472.0,131.0 473.9,130.2 475.8,129.5 477.6,128.8 479.5,128.2 481.4,127.6 483.3,127.1 485.2,126.7 487.1,126.4 489.0,126.2
490.9,126.1 492.7,126.1 494.6,126.2 496.5,126.4 498.4,126.8 500.3,127.3 502.2,127.8 504.1,128.5 506.0,129.3 507.8,130.2 509.7,131.2 511.6,132.4 513.5,133.6 515.4,134.8 517.3,136.2 519.2,137.7
521.0,139.2 522.9,140.8 524.8,142.5 526.7,144.2 528.6,146.0 530.5,147.8 532.4,149.6 534.3,151.5 536.1,153.4 538.0,155.3 539.9,157.3 541.8,159.3 543.7,161.2 545.6,163.2 547.5,165.2 549.4,167.2
551.2,169.2 553.1,171.2 555.0,173.3 556.9,175.3 558.8,177.4 560.7,179.4 562.6,181.5 564.5,183.7 566.3,185.8 568.2,188.0 570.1,190.2 572.0,192.4 573.9,194.7 575.8,197.0 577.7,199.4 579.5,201.7
581.4,204.1 583.3,206.5 585.2,209.0 587.1,211.4 589.0,213.9 590.9,216.4 592.8,218.9 594.6,221.4 596.5,223.8 598.4,226.3 600.3,228.8 602.2,231.3 604.1,233.8 606.0,236.3 607.9,238.8 609.7,241.3
611.6,243.8 613.5,246.3 615.4,248.8 617.3,251.4 619.2,254.0 621.1,256.6 623.0,259.3 624.8,261.9 626.7,264.7 628.6,267.4 630.5,270.2 632.4,273.0 634.3,275.9 636.2,278.8 638.1,281.7 639.9,284.7
641.8,287.6 643.7,290.6 645.6,293.6 647.5,296.6 649.4,299.6 651.3,302.6 653.1,305.6 655.0,308.6 656.9,311.6 658.8,314.5 660.7,317.5 662.6,320.4 664.5,323.4 666.4,326.3 668.2,329.2 670.1,332.2
672.0,335.1 673.9,338.0 675.8,340.9 677.7,343.7 679.6,346.6 681.5,349.5 683.3,352.3 685.2,355.2 687.1,358.0 689.0,360.8 690.9,363.5 692.8,366.3 694.7,369.0 696.6,371.7 698.4,374.4 700.3,377.0
702.2,379.6 704.1,382.2 706.0,384.8 707.9,387.3 709.8,389.8 711.7,392.3 713.5,394.7 715.4,397.2 717.3,399.6 719.2,402.0 721.1,404.4 723.0,406.8 724.9,409.1 726.7,411.5 728.6,413.8 730.5,416.2
732.4,418.5 734.3,420.8 736.2,423.2 738.1,425.5 740.0,427.9 741.8,430.2 743.7,432.6 745.6,434.9 747.5,437.3 749.4,439.6 751.3,442.0 753.2,444.4 755.1,446.8 756.9,449.2 758.8,451.5 760.7,453.9
762.6,456.3 764.5,458.7 766.4,461.1 768.3,463.4 770.2,465.8 772.0,468.1 773.9,470.4 775.8,472.7 777.7,475.0 779.6,477.2 781.5,479.5 783.4,481.6 785.3,483.8 787.1,485.9 789.0,488.0 790.9,490.0
792.8,492.0 794.7,494.0 796.6,496.0 798.5,497.9 800.3,499.8 802.2,501.7 804.1,503.6 806.0,505.5 807.9,507.4 809.8,509.2 811.7,511.1 813.6,512.9 815.4,514.8 817.3,516.6 819.2,518.5 821.1,520.4
823.0,522.2 824.9,524.1 826.8,525.9 828.7,527.8 830.5,529.6 832.4,531.5 834.3,533.3 836.2,535.1 838.1,536.9 840.0,538.7 841.9,540.5 843.8,542.2 845.6,544.0 847.5,545.7 849.4,547.4 851.3,549.1
853.2,550.8 855.1,552.5 857.0,554.1 858.9,555.7 860.7,557.3 862.6,558.9 864.5,560.5 866.4,562.0 868.3,563.5 870.2,565.0 872.1,566.4 873.9,567.8 875.8,569.2 877.7,570.6 879.6,571.9 881.5,573.2
883.4,574.4 885.3,575.6 887.2,576.8 889.0,577.9 890.9,579.1 892.8,580.1 894.7,581.2 896.6,582.3 898.5,583.3 900.4,584.3 902.3,585.3 904.1,586.3 906.0,587.2 907.9,588.2 909.8,589.2 911.7,590.2
913.6,591.1 915.5,592.1 917.4,593.1 919.2,594.1 921.1,595.1 923.0,596.1 924.9,597.1 924.9,662.4 923.0,662.4 921.1,662.4 919.2,662.4 917.4,662.4 915.5,662.4 913.6,662.4 911.7,662.4 909.8,662.4
907.9,662.4 906.0,662.4 904.1,662.4 902.3,662.4 900.4,662.4 898.5,662.4 896.6,662.4 894.7,662.4 892.8,662.4 890.9,662.4 889.0,662.4 887.2,662.4 885.3,662.4 883.4,662.4 881.5,662.4 879.6,662.4
877.7,662.4 875.8,662.4 873.9,662.4 872.1,662.4 870.2,662.4 868.3,662.4 866.4,662.4 864.5,662.4 862.6,662.4 860.7,662.4 858.9,662.4 857.0,662.4 855.1,662.4 853.2,662.4 851.3,662.4 849.4,662.4
847.5,662.4 845.6,662.4 843.8,662.4 841.9,662.4 840.0,662.4 838.1,662.4 836.2,662.4 834.3,662.4 832.4,662.4 830.5,662.4 828.7,662.4 826.8,662.4 824.9,662.4 823.0,662.4 821.1,662.4 819.2,662.4
817.3,662.4 815.4,662.4 813.6,662.4 811.7,662.4 809.8,662.4 807.9,662.4 806.0,662.4 804.1,662.4 802.2,662.4 800.3,662.4 798.5,662.4 796.6,662.4 794.7,662.4 792.8,662.4 790.9,662.4 789.0,662.4
787.1,662.4 785.3,662.4 783.4,662.4 781.5,662.4 779.6,662.4 777.7,662.4 775.8,662.4 773.9,662.4 772.0,662.4 770.2,662.4 768.3,662.4 766.4,662.4 764.5,662.4 762.6,662.4 760.7,662.4 758.8,662.4
756.9,662.4 755.1,662.4 753.2,662.4 751.3,662.4 749.4,662.4 747.5,662.4 745.6,662.4 743.7,662.4 741.8,662.4 740.0,662.4 738.1,662.4 736.2,662.4 734.3,662.4 732.4,662.4 730.5,662.4 728.6,662.4
726.7,662.4 724.9,662.4 723.0,662.4 721.1,662.4 719.2,662.4 717.3,662.4 715.4,662.4 713.5,662.4 711.7,662.4 709.8,662.4 707.9,662.4 706.0,662.4 704.1,662.4 702.2,662.4 700.3,662.4 698.4,662.4
696.6,662.4 694.7,662.4 692.8,662.4 690.9,662.4 689.0,662.4 687.1,662.4 685.2,662.4 683.3,662.4 681.5,662.4 679.6,662.4 677.7,662.4 675.8,662.4 673.9,662.4 672.0,662.4 670.1,662.4 668.2,662.4
666.4,662.4 664.5,662.4 662.6,662.4 660.7,662.4 658.8,662.4 656.9,662.4 655.0,662.4 653.1,662.4 651.3,662.4 649.4,662.4 647.5,662.4 645.6,662.4 643.7,662.4 641.8,662.4 639.9,662.4 638.1,662.4
636.2,662.4 634.3,662.4 632.4,662.4 630.5,662.4 628.6,662.4 626.7,662.4 624.8,662.4 623.0,662.4 621.1,662.4 619.2,662.4 617.3,662.4 615.4,662.4 613.5,662.4 611.6,662.4 609.7,662.4 607.9,662.4
606.0,662.4 604.1,662.4 602.2,662.4 600.3,662.4 598.4,662.4 596.5,662.4 594.6,662.4 592.8,662.4 590.9,662.4 589.0,662.4 587.1,662.4 585.2,662.4 583.3,662.4 581.4,662.4 579.5,662.4 577.7,662.4
575.8,662.4 573.9,662.4 572.0,662.4 570.1,662.4 568.2,662.4 566.3,662.4 564.5,662.4 562.6,662.4 560.7,662.4 558.8,662.4 556.9,662.4 555.0,662.4 553.1,662.4 551.2,662.4 549.4,662.4 547.5,662.4
545.6,662.4 543.7,662.4 541.8,662.4 539.9,662.4 538.0,662.4 536.1,662.4 534.3,662.4 532.4,662.4 530.5,662.4 528.6,662.4 526.7,662.4 524.8,662.4 522.9,662.4 521.0,662.4 519.2,662.4 517.3,662.4
515.4,662.4 513.5,662.4 511.6,662.4 509.7,662.4 507.8,662.4 506.0,662.4 504.1,662.4 502.2,662.4 500.3,662.4 498.4,662.4 496.5,662.4 494.6,662.4 492.7,662.4 490.9,662.4 489.0,662.4 487.1,662.4
485.2,662.4 483.3,662.4 481.4,662.4 479.5,662.4 477.6,662.4 475.8,662.4 473.9,662.4 472.0,662.4 470.1,662.4 468.2,662.4 466.3,662.4 464.4,662.4 462.5,662.4 460.7,662.4 458.8,662.4 456.9,662.4
455.0,662.4 453.1,662.4 451.2,662.4 449.3,662.4 447.4,662.4 445.6,662.4 443.7,662.4 441.8,662.4 439.9,662.4 438.0,662.4 436.1,662.4 434.2,662.4 432.4,662.4 430.5,662.4 428.6,662.4 426.7,662.4
424.8,662.4 422.9,662.4 421.0,662.4 419.1,662.4 417.3,662.4 415.4,662.4 413.5,662.4 411.6,662.4 409.7,662.4 407.8,662.4 405.9,662.4 404.0,662.4 402.2,662.4 400.3,662.4 398.4,662.4 396.5,662.4
394.6,662.4 392.7,662.4 390.8,662.4 388.9,662.4 387.1,662.4 385.2,662.4 383.3,662.4 381.4,662.4 379.5,662.4 377.6,662.4 375.7,662.4 373.8,662.4 372.0,662.4 370.1,662.4 368.2,662.4 366.3,662.4
364.4,662.4 362.5,662.4 360.6,662.4 358.8,662.4 356.9,662.4 355.0,662.4 353.1,662.4 351.2,662.4 349.3,662.4 347.4,662.4 345.5,662.4 343.7,662.4 341.8,662.4 339.9,662.4 338.0,662.4 336.1,662.4
334.2,662.4 332.3,662.4 330.4,662.4 328.6,662.4 326.7,662.4 324.8,662.4 322.9,662.4 321.0,662.4 319.1,662.4 317.2,662.4 315.3,662.4 313.5,662.4 311.6,662.4 309.7,662.4 307.8,662.4 305.9,662.4
304.0,662.4 302.1,662.4 300.2,662.4 298.4,662.4 296.5,662.4 294.6,662.4 292.7,662.4 290.8,662.4 288.9,662.4 287.0,662.4 285.2,662.4 283.3,662.4 281.4,662.4 279.5,662.4 277.6,662.4 275.7,662.4
273.8,662.4 271.9,662.4 270.1,662.4 268.2,662.4 266.3,662.4 264.4,662.4 262.5,662.4 260.6,662.4 258.7,662.4 256.8,662.4 255.0,662.4 253.1,662.4 251.2,662.4 249.3,662.4 247.4,662.4 245.5,662.4
243.6,662.4 241.7,662.4 239.9,662.4 238.0,662.4 236.1,662.4 234.2,662.4 232.3,662.4 230.4,662.4 228.5,662.4 226.6,662.4 224.8,662.4 222.9,662.4 221.0,662.4 219.1,662.4 217.2,662.4 215.3,662.4
213.4,662.4 211.6,662.4 209.7,662.4 207.8,662.4 205.9,662.4 204.0,662.4 202.1,662.4 200.2,662.4 198.3,662.4 196.5,662.4 194.6,662.4 192.7,662.4 190.8,662.4 188.9,662.4 187.0,662.4 185.1,662.4
183.2,662.4 181.4,662.4 179.5,662.4 177.6,662.4 175.7,662.4 173.8,662.4 171.9,662.4 170.0,662.4 168.1,662.4 166.3,662.4 164.4,662.4 162.5,662.4 160.6,662.4 158.7,662.4 '/>
	</g>
</g>
	</g>
	<g id="gnuplot_plot_3" ><title>Point estimate</title>
<g fill="none" color="white" stroke="rgb( 31, 120, 180)" stroke-width="2.00" stroke-linecap="butt" stroke-linejoin="miter">
</g>
<g fill="none" color="black" stroke="currentColor" stroke-width="2.00" stroke-linecap="butt" stroke-linejoin="miter">
	<g transform="translate(1089.0,103.0)" stroke="none" fill="black" font-family="Helvetica" font-size="12.00"  text-anchor="start">
		<text><tspan font-family="Helvetica" >Point estimate</tspan></text>
	</g>
</g>
<g fill="none" color="black" stroke="currentColor" stroke-width="2.00" stroke-linecap="butt" stroke-linejoin="miter">
	<path stroke='rgb( 31, 120, 180)'  d='M1038.5,99.1 L1080.7,99.1 M503.4,662.4 L503.4,128.3  '/></g>
	</g>
<g fill="none" color="black" stroke="currentColor" stroke-width="2.00" stroke-linecap="butt" stroke-linejoin="miter">
</g>
<g fill="none" color="black" stroke="black" stroke-width="1.00" stroke-linecap="butt" stroke-linejoin="miter">
</g>
<g fill="none" color="black" stroke="currentColor" stroke-width="1.00" stroke-linecap="butt" stroke-linejoin="miter">
	<path stroke='black'  d='M71.9,54.1 L71.9,662.4 L1013.6,662.4 L1013.6,54.1 L71.9,54.1 Z  '/></g>
<g fill="none" color="black" stroke="currentColor" stroke-width="1.00" stroke-linecap="butt" stroke-linejoin="miter">
</g>
</g>
</svg>

