<?xml version="1.0" encoding="utf-8"  standalone="no"?>
<svg 
 viewBox="0 0 1280 720"
 xmlns="http://www.w3.org/2000/svg"
 xmlns:xlink="http://www.w3.org/1999/xlink"
>

<title>Gnuplot</title>
<desc>Produced by GNUPLOT 5.2 patchlevel 6 </desc>

<g id="gnuplot_canvas">

<rect x="0" y="0" width="1280" height="720" fill="none"/>
<defs>

	<circle id='gpDot' r='0.5' stroke-width='0.5' stroke='currentColor'/>
	<path id='gpPt0' stroke-width='0.222' stroke='currentColor' d='M-1,0 h2 M0,-1 v2'/>
	<path id='gpPt1' stroke-width='0.222' stroke='currentColor' d='M-1,-1 L1,1 M1,-1 L-1,1'/>
	<path id='gpPt2' stroke-width='0.222' stroke='currentColor' d='M-1,0 L1,0 M0,-1 L0,1 M-1,-1 L1,1 M-1,1 L1,-1'/>
	<rect id='gpPt3' stroke-width='0.222' stroke='currentColor' x='-1' y='-1' width='2' height='2'/>
	<rect id='gpPt4' stroke-width='0.222' stroke='currentColor' fill='currentColor' x='-1' y='-1' width='2' height='2'/>
	<circle id='gpPt5' stroke-width='0.222' stroke='currentColor' cx='0' cy='0' r='1'/>
	<use xlink:href='#gpPt5' id='gpPt6' fill='currentColor' stroke='none'/>
	<path id='gpPt7' stroke-width='0.222' stroke='currentColor' d='M0,-1.33 L-1.33,0.67 L1.33,0.67 z'/>
	<use xlink:href='#gpPt7' id='gpPt8' fill='currentColor' stroke='none'/>
	<use xlink:href='#gpPt7' id='gpPt9' stroke='currentColor' transform='rotate(180)'/>
	<use xlink:href='#gpPt9' id='gpPt10' fill='currentColor' stroke='none'/>
	<use xlink:href='#gpPt3' id='gpPt11' stroke='currentColor' transform='rotate(45)'/>
	<use xlink:href='#gpPt11' id='gpPt12' fill='currentColor' stroke='none'/>
	<path id='gpPt13' stroke-width='0.222' stroke='currentColor' d='M0,1.330 L1.265,0.411 L0.782,-1.067 L-0.782,-1.076 L-1.265,0.411 z'/>
	<use xlink:href='#gpPt13' id='gpPt14' fill='currentColor' stroke='none'/>
	<filter id='textbox' filterUnits='objectBoundingBox' x='0' y='0' height='1' width='1'>
	  <feFlood flood-color='white' flood-opacity='1' result='bgnd'/>
	  <feComposite in='SourceGraphic' in2='bgnd' operator='atop'/>
	</filter>
	<filter id='greybox' filterUnits='objectBoundingBox' x='0' y='0' height='1' width='1'>
	  <feFlood flood-color='lightgrey' flood-opacity='1' result='grey'/>
	  <feComposite in='SourceGraphic' in2='grey' operator='atop'/>
	</filter>
</defs>
<g fill="none" color="white" stroke="currentColor" stroke-width="1.00" stroke-linecap="butt" stroke-linejoin="miter">
</g>
<g fill="none" color="black" stroke="currentColor" stroke-width="1.00" stroke-linecap="butt" stroke-linejoin="miter">
	<path stroke='black'  d='M80.2,662.4 L89.2,662.4  '/>	<g transform="translate(71.9,666.3)" stroke="none" fill="black" font-family="Helvetica" font-size="12.00"  text-anchor="end">
		<text><tspan font-family="Helvetica" > 0</tspan></text>
	</g>
</g>
<g fill="none" color="black" stroke="currentColor" stroke-width="1.00" stroke-linecap="butt" stroke-linejoin="miter">
	<path stroke='black'  d='M80.2,601.6 L89.2,601.6  '/>	<g transform="translate(71.9,605.5)" stroke="none" fill="black" font-family="Helvetica" font-size="12.00"  text-anchor="end">
		<text><tspan font-family="Helvetica" > 100</tspan></text>
	</g>
</g>
<g fill="none" color="black" stroke="currentColor" stroke-width="1.00" stroke-linecap="butt" stroke-linejoin="miter">
	<path stroke='black'  d='M80.2,540.7 L89.2,540.7  '/>	<g transform="translate(71.9,544.6)" stroke="none" fill="black" font-family="Helvetica" font-size="12.00"  text-anchor="end">
		<text><tspan font-family="Helvetica" > 200</tspan></text>
	</g>
</g>
<g fill="none" color="black" stroke="currentColor" stroke-width="1.00" stroke-linecap="butt" stroke-linejoin="miter">
	<path stroke='black'  d='M80.2,479.9 L89.2,479.9  '/>	<g transform="translate(71.9,483.8)" stroke="none" fill="black" font-family="Helvetica" font-size="12.00"  text-anchor="end">
		<text><tspan font-family="Helvetica" > 300</tspan></text>
	</g>
</g>
<g fill="none" color="black" stroke="currentColor" stroke-width="1.00" stroke-linecap="butt" stroke-linejoin="miter">
	<path stroke='black'  d='M80.2,419.1 L89.2,419.1  '/>	<g transform="translate(71.9,423.0)" stroke="none" fill="black" font-family="Helvetica" font-size="12.00"  text-anchor="end">
		<text><tspan font-family="Helvetica" > 400</tspan></text>
	</g>
</g>
<g fill="none" color="black" stroke="currentColor" stroke-width="1.00" stroke-linecap="butt" stroke-linejoin="miter">
	<path stroke='black'  d='M80.2,358.2 L89.2,358.2  '/>	<g transform="translate(71.9,362.1)" stroke="none" fill="black" font-family="Helvetica" font-size="12.00"  text-anchor="end">
		<text><tspan font-family="Helvetica" > 500</tspan></text>
	</g>
</g>
<g fill="none" color="black" stroke="currentColor" stroke-width="1.00" stroke-linecap="butt" stroke-linejoin="miter">
	<path stroke='black'  d='M80.2,297.4 L89.2,297.4  '/>	<g transform="translate(71.9,301.3)" stroke="none" fill="black" font-family="Helvetica" font-size="12.00"  text-anchor="end">
		<text><tspan font-family="Helvetica" > 600</tspan></text>
	</g>
</g>
<g fill="none" color="black" stroke="currentColor" stroke-width="1.00" stroke-linecap="butt" stroke-linejoin="miter">
	<path stroke='black'  d='M80.2,236.6 L89.2,236.6  '/>	<g transform="translate(71.9,240.5)" stroke="none" fill="black" font-family="Helvetica" font-size="12.00"  text-anchor="end">
		<text><tspan font-family="Helvetica" > 700</tspan></text>
	</g>
</g>
<g fill="none" color="black" stroke="currentColor" stroke-width="1.00" stroke-linecap="butt" stroke-linejoin="miter">
	<path stroke='black'  d='M80.2,175.8 L89.2,175.8  '/>	<g transform="translate(71.9,179.7)" stroke="none" fill="black" font-family="Helvetica" font-size="12.00"  text-anchor="end">
		<text><tspan font-family="Helvetica" > 800</tspan></text>
	</g>
</g>
<g fill="none" color="black" stroke="currentColor" stroke-width="1.00" stroke-linecap="butt" stroke-linejoin="miter">
	<path stroke='black'  d='M80.2,114.9 L89.2,114.9  '/>	<g transform="translate(71.9,118.8)" stroke="none" fill="black" font-family="Helvetica" font-size="12.00"  text-anchor="end">
		<text><tspan font-family="Helvetica" > 900</tspan></text>
	</g>
</g>
<g fill="none" color="black" stroke="currentColor" stroke-width="1.00" stroke-linecap="butt" stroke-linejoin="miter">
	<path stroke='black'  d='M80.2,54.1 L89.2,54.1  '/>	<g transform="translate(71.9,58.0)" stroke="none" fill="black" font-family="Helvetica" font-size="12.00"  text-anchor="end">
		<text><tspan font-family="Helvetica" > 1000</tspan></text>
	</g>
</g>
<g fill="none" color="black" stroke="currentColor" stroke-width="1.00" stroke-linecap="butt" stroke-linejoin="miter">
	<path stroke='black'  d='M93.4,662.4 L93.4,653.4  '/>	<g transform="translate(93.4,684.3)" stroke="none" fill="black" font-family="Helvetica" font-size="12.00"  text-anchor="middle">
		<text><tspan font-family="Helvetica" >-0.2</tspan></text>
	</g>
</g>
<g fill="none" color="black" stroke="currentColor" stroke-width="1.00" stroke-linecap="butt" stroke-linejoin="miter">
	<path stroke='black'  d='M207.0,662.4 L207.0,653.4  '/>	<g transform="translate(207.0,684.3)" stroke="none" fill="black" font-family="Helvetica" font-size="12.00"  text-anchor="middle">
		<text><tspan font-family="Helvetica" >-0.15</tspan></text>
	</g>
</g>
<g fill="none" color="black" stroke="currentColor" stroke-width="1.00" stroke-linecap="butt" stroke-linejoin="miter">
	<path stroke='black'  d='M320.6,662.4 L320.6,653.4  '/>	<g transform="translate(320.6,684.3)" stroke="none" fill="black" font-family="Helvetica" font-size="12.00"  text-anchor="middle">
		<text><tspan font-family="Helvetica" >-0.1</tspan></text>
	</g>
</g>
<g fill="none" color="black" stroke="currentColor" stroke-width="1.00" stroke-linecap="butt" stroke-linejoin="miter">
	<path stroke='black'  d='M434.2,662.4 L434.2,653.4  '/>	<g transform="translate(434.2,684.3)" stroke="none" fill="black" font-family="Helvetica" font-size="12.00"  text-anchor="middle">
		<text><tspan font-family="Helvetica" >-0.05</tspan></text>
	</g>
</g>
<g fill="none" color="black" stroke="currentColor" stroke-width="1.00" stroke-linecap="butt" stroke-linejoin="miter">
	<path stroke='black'  d='M547.8,662.4 L547.8,653.4  '/>	<g transform="translate(547.8,684.3)" stroke="none" fill="black" font-family="Helvetica" font-size="12.00"  text-anchor="middle">
		<text><tspan font-family="Helvetica" > 0</tspan></text>
	</g>
</g>
<g fill="none" color="black" stroke="currentColor" stroke-width="1.00" stroke-linecap="butt" stroke-linejoin="miter">
	<path stroke='black'  d='M661.4,662.4 L661.4,653.4  '/>	<g transform="translate(661.4,684.3)" stroke="none" fill="black" font-family="Helvetica" font-size="12.00"  text-anchor="middle">
		<text><tspan font-family="Helvetica" > 0.05</tspan></text>
	</g>
</g>
<g fill="none" color="black" stroke="currentColor" stroke-width="1.00" stroke-linecap="butt" stroke-linejoin="miter">
	<path stroke='black'  d='M775.1,662.4 L775.1,653.4  '/>	<g transform="translate(775.1,684.3)" stroke="none" fill="black" font-family="Helvetica" font-size="12.00"  text-anchor="middle">
		<text><tspan font-family="Helvetica" > 0.1</tspan></text>
	</g>
</g>
<g fill="none" color="black" stroke="currentColor" stroke-width="1.00" stroke-linecap="butt" stroke-linejoin="miter">
	<path stroke='black'  d='M888.7,662.4 L888.7,653.4  '/>	<g transform="translate(888.7,684.3)" stroke="none" fill="black" font-family="Helvetica" font-size="12.00"  text-anchor="middle">
		<text><tspan font-family="Helvetica" > 0.15</tspan></text>
	</g>
</g>
<g fill="none" color="black" stroke="currentColor" stroke-width="1.00" stroke-linecap="butt" stroke-linejoin="miter">
	<path stroke='black'  d='M1002.3,662.4 L1002.3,653.4  '/>	<g transform="translate(1002.3,684.3)" stroke="none" fill="black" font-family="Helvetica" font-size="12.00"  text-anchor="middle">
		<text><tspan font-family="Helvetica" > 0.2</tspan></text>
	</g>
</g>
<g fill="none" color="black" stroke="currentColor" stroke-width="1.00" stroke-linecap="butt" stroke-linejoin="miter">
</g>
<g fill="none" color="black" stroke="currentColor" stroke-width="1.00" stroke-linecap="butt" stroke-linejoin="miter">
	<path stroke='black'  d='M80.2,54.1 L80.2,662.4 L1013.6,662.4 L1013.6,54.1 L80.2,54.1 Z  '/></g>
<g fill="none" color="black" stroke="currentColor" stroke-width="1.00" stroke-linecap="butt" stroke-linejoin="miter">
	<g transform="translate(16.3,358.3) rotate(270)" stroke="none" fill="black" font-family="Helvetica" font-size="12.00"  text-anchor="middle">
		<text><tspan font-family="Helvetica" >Density (a.u.)</tspan></text>
	</g>
</g>
<g fill="none" color="black" stroke="currentColor" stroke-width="1.00" stroke-linecap="butt" stroke-linejoin="miter">
	<g transform="translate(546.9,711.3)" stroke="none" fill="black" font-family="Helvetica" font-size="12.00"  text-anchor="middle">
		<text><tspan font-family="Helvetica" >Relative change (%)</tspan></text>
	</g>
</g>
<g fill="none" color="black" stroke="currentColor" stroke-width="1.00" stroke-linecap="butt" stroke-linejoin="miter">
	<g transform="translate(546.9,31.0)" stroke="none" fill="black" font-family="Helvetica" font-size="12.00"  text-anchor="middle">
		<text><tspan font-family="Helvetica" >snapshot_restore_with_dense/Sparse: Entire region + process_vm_writev w/ page size/10: median</tspan></text>
	</g>
</g>
	<g id="gnuplot_plot_1" ><title>Bootstrap distribution</title>
<g fill="none" color="white" stroke="black" stroke-width="2.00" stroke-linecap="butt" stroke-linejoin="miter">
</g>
<g fill="none" color="black" stroke="currentColor" stroke-width="2.00" stroke-linecap="butt" stroke-linejoin="miter">
	<g transform="translate(1089.0,67.0)" stroke="none" fill="black" font-family="Helvetica" font-size="12.00"  text-anchor="start">
		<text><tspan font-family="Helvetica" >Bootstrap distribution</tspan></text>
	</g>
</g>
<g fill="none" color="black" stroke="currentColor" stroke-width="2.00" stroke-linecap="butt" stroke-linejoin="miter">
	<path stroke='rgb( 31, 120, 180)'  d='M1038.5,63.1 L1080.7,63.1 M80.2,641.3 L82.1,640.8 L83.9,640.3 L85.8,639.9 L87.7,639.4 L89.6,639.0
		L91.4,638.7 L93.3,638.3 L95.2,638.0 L97.0,637.8 L98.9,637.5 L100.8,637.3 L102.6,637.2 L104.5,637.1
		L106.4,637.0 L108.3,636.9 L110.1,636.9 L112.0,636.8 L113.9,636.8 L115.7,636.8 L117.6,636.9 L119.5,636.9
		L121.4,636.9 L123.2,636.9 L125.1,637.0 L127.0,637.0 L128.8,637.0 L130.7,637.1 L132.6,637.1 L134.4,637.1
		L136.3,637.2 L138.2,637.2 L140.1,637.3 L141.9,637.4 L143.8,637.4 L145.7,637.5 L147.5,637.6 L149.4,637.7
		L151.3,637.8 L153.2,637.9 L155.0,638.0 L156.9,638.1 L158.8,638.3 L160.6,638.4 L162.5,638.5 L164.4,638.6
		L166.2,638.8 L168.1,638.9 L170.0,639.1 L171.9,639.2 L173.7,639.4 L175.6,639.5 L177.5,639.6 L179.3,639.8
		L181.2,639.9 L183.1,640.0 L185.0,640.1 L186.8,640.1 L188.7,640.2 L190.6,640.2 L192.4,640.1 L194.3,640.1
		L196.2,639.9 L198.0,639.8 L199.9,639.6 L201.8,639.3 L203.7,639.0 L205.5,638.7 L207.4,638.2 L209.3,637.8
		L211.1,637.3 L213.0,636.8 L214.9,636.2 L216.7,635.6 L218.6,634.9 L220.5,634.2 L222.4,633.6 L224.2,632.8
		L226.1,632.1 L228.0,631.4 L229.8,630.7 L231.7,629.9 L233.6,629.2 L235.5,628.4 L237.3,627.7 L239.2,626.9
		L241.1,626.2 L242.9,625.4 L244.8,624.6 L246.7,623.8 L248.5,622.9 L250.4,621.9 L252.3,620.9 L254.2,619.9
		L256.0,618.7 L257.9,617.5 L259.8,616.2 L261.6,614.8 L263.5,613.3 L265.4,611.8 L267.3,610.1 L269.1,608.4
		L271.0,606.6 L272.9,604.7 L274.7,602.7 L276.6,600.7 L278.5,598.7 L280.3,596.6 L282.2,594.4 L284.1,592.2
		L286.0,590.1 L287.8,587.9 L289.7,585.7 L291.6,583.7 L293.4,581.6 L295.3,579.7 L297.2,577.9 L299.1,576.3
		L300.9,574.8 L302.8,573.5 L304.7,572.4 L306.5,571.5 L308.4,570.8 L310.3,570.4 L312.1,570.2 L314.0,570.3
		L315.9,570.6 L317.8,571.1 L319.6,571.8 L321.5,572.7 L323.4,573.8 L325.2,575.0 L327.1,576.4 L329.0,577.8
		L330.9,579.4 L332.7,581.0 L334.6,582.6 L336.5,584.3 L338.3,586.0 L340.2,587.7 L342.1,589.3 L343.9,590.9
		L345.8,592.4 L347.7,593.8 L349.6,595.2 L351.4,596.5 L353.3,597.6 L355.2,598.6 L357.0,599.5 L358.9,600.3
		L360.8,600.9 L362.7,601.4 L364.5,601.7 L366.4,601.9 L368.3,601.9 L370.1,601.8 L372.0,601.5 L373.9,601.2
		L375.7,600.7 L377.6,600.1 L379.5,599.4 L381.4,598.7 L383.2,597.9 L385.1,597.1 L387.0,596.2 L388.8,595.3
		L390.7,594.4 L392.6,593.6 L394.5,592.8 L396.3,592.0 L398.2,591.3 L400.1,590.7 L401.9,590.1 L403.8,589.6
		L405.7,589.1 L407.5,588.7 L409.4,588.3 L411.3,588.0 L413.2,587.6 L415.0,587.3 L416.9,587.0 L418.8,586.6
		L420.6,586.1 L422.5,585.6 L424.4,585.1 L426.3,584.4 L428.1,583.6 L430.0,582.7 L431.9,581.7 L433.7,580.6
		L435.6,579.5 L437.5,578.2 L439.3,576.8 L441.2,575.4 L443.1,573.9 L445.0,572.4 L446.8,570.9 L448.7,569.3
		L450.6,567.8 L452.4,566.2 L454.3,564.7 L456.2,563.2 L458.0,561.6 L459.9,560.1 L461.8,558.6 L463.7,557.1
		L465.5,555.6 L467.4,554.1 L469.3,552.5 L471.1,550.9 L473.0,549.3 L474.9,547.6 L476.8,545.9 L478.6,544.1
		L480.5,542.2 L482.4,540.3 L484.2,538.2 L486.1,536.0 L488.0,533.7 L489.8,531.3 L491.7,528.7 L493.6,526.0
		L495.5,523.2 L497.3,520.2 L499.2,517.1 L501.1,513.9 L502.9,510.6 L504.8,507.2 L506.7,503.7 L508.6,500.2
		L510.4,496.6 L512.3,493.0 L514.2,489.3 L516.0,485.5 L517.9,481.7 L519.8,477.7 L521.6,473.7 L523.5,469.5
		L525.4,465.2 L527.3,460.7 L529.1,456.1 L531.0,451.3 L532.9,446.3 L534.7,441.2 L536.6,435.8 L538.5,430.4
		L540.4,424.8 L542.2,419.1 L544.1,413.2 L546.0,407.3 L547.8,401.2 L549.7,395.1 L551.6,388.8 L553.4,382.5
		L555.3,376.0 L557.2,369.4 L559.1,362.8 L560.9,356.0 L562.8,349.1 L564.7,342.2 L566.5,335.2 L568.4,328.3
		L570.3,321.3 L572.2,314.5 L574.0,307.7 L575.9,301.2 L577.8,294.8 L579.6,288.8 L581.5,283.0 L583.4,277.6
		L585.2,272.5 L587.1,267.7 L589.0,263.2 L590.9,259.0 L592.7,255.0 L594.6,251.1 L596.5,247.4 L598.3,243.7
		L600.2,239.9 L602.1,236.1 L604.0,232.1 L605.8,227.9 L607.7,223.5 L609.6,218.8 L611.4,213.8 L613.3,208.7
		L615.2,203.2 L617.0,197.6 L618.9,191.7 L620.8,185.8 L622.7,179.7 L624.5,173.5 L626.4,167.4 L628.3,161.2
		L630.1,155.1 L632.0,149.1 L633.9,143.2 L635.8,137.5 L637.6,131.9 L639.5,126.7 L641.4,121.7 L643.2,117.1
		L645.1,112.9 L647.0,109.3 L648.8,106.4 L650.7,104.1 L652.6,102.7 L654.5,102.3 L656.3,102.8 L658.2,104.5
		L660.1,107.3 L661.9,111.4 L663.8,116.6 L665.7,123.2 L667.5,130.9 L669.4,139.7 L671.3,149.7 L673.2,160.6
		L675.0,172.4 L676.9,184.9 L678.8,198.1 L680.6,211.7 L682.5,225.7 L684.4,239.8 L686.3,254.1 L688.1,268.3
		L690.0,282.4 L691.9,296.3 L693.7,309.9 L695.6,323.1 L697.5,335.9 L699.3,348.3 L701.2,360.1 L703.1,371.3
		L705.0,382.0 L706.8,392.1 L708.7,401.6 L710.6,410.5 L712.4,418.7 L714.3,426.3 L716.2,433.3 L718.1,439.8
		L719.9,445.6 L721.8,450.9 L723.7,455.7 L725.5,459.9 L727.4,463.8 L729.3,467.2 L731.1,470.2 L733.0,472.9
		L734.9,475.3 L736.8,477.4 L738.6,479.2 L740.5,480.8 L742.4,482.2 L744.2,483.5 L746.1,484.6 L748.0,485.5
		L749.9,486.4 L751.7,487.1 L753.6,487.8 L755.5,488.5 L757.3,489.0 L759.2,489.6 L761.1,490.1 L762.9,490.5
		L764.8,491.0 L766.7,491.4 L768.6,491.8 L770.4,492.2 L772.3,492.5 L774.2,492.8 L776.0,493.0 L777.9,493.1
		L779.8,493.2 L781.7,493.2 L783.5,493.2 L785.4,493.1 L787.3,492.9 L789.1,492.7 L791.0,492.5 L792.9,492.2
		L794.7,492.0 L796.6,491.7 L798.5,491.5 L800.4,491.4 L802.2,491.3 L804.1,491.4 L806.0,491.6 L807.8,491.9
		L809.7,492.4 L811.6,493.1 L813.5,494.0 L815.3,495.1 L817.2,496.5 L819.1,498.1 L820.9,500.0 L822.8,502.2
		L824.7,504.7 L826.5,507.5 L828.4,510.5 L830.3,513.8 L832.2,517.4 L834.0,521.3 L835.9,525.3 L837.8,529.5
		L839.6,533.8 L841.5,538.3 L843.4,542.7 L845.3,547.2 L847.1,551.6 L849.0,555.9 L850.9,560.0 L852.7,563.9
		L854.6,567.6 L856.5,571.0 L858.3,574.1 L860.2,576.8 L862.1,579.2 L864.0,581.3 L865.8,583.1 L867.7,584.5
		L869.6,585.6 L871.4,586.5 L873.3,587.1 L875.2,587.5 L877.1,587.7 L878.9,587.8 L880.8,587.7 L882.7,587.6
		L884.5,587.4 L886.4,587.2 L888.3,587.0 L890.1,586.8 L892.0,586.6 L893.9,586.4 L895.8,586.2 L897.6,586.0
		L899.5,585.9 L901.4,585.7 L903.2,585.5 L905.1,585.4 L907.0,585.2 L908.8,585.0 L910.7,584.8 L912.6,584.5
		L914.5,584.3 L916.3,584.0 L918.2,583.7 L920.1,583.5 L921.9,583.2 L923.8,583.1 L925.7,583.0 L927.6,583.0
		L929.4,583.2 L931.3,583.5 L933.2,584.0 L935.0,584.7 L936.9,585.7 L938.8,586.8 L940.6,588.2 L942.5,589.8
		L944.4,591.6 L946.3,593.7 L948.1,595.9 L950.0,598.3 L951.9,600.9 L953.7,603.6 L955.6,606.4 L957.5,609.3
		L959.4,612.2 L961.2,615.2 L963.1,618.2 L965.0,621.1 L966.8,624.0 L968.7,626.8 L970.6,629.5 L972.4,632.1
		L974.3,634.6 L976.2,636.9 L978.1,639.2 L979.9,641.3 L981.8,643.2 L983.7,645.0 L985.5,646.7 L987.4,648.2
		L989.3,649.6 L991.2,650.9 L993.0,652.0 L994.9,653.0 L996.8,653.9 L998.6,654.7 L1000.5,655.4 L1002.4,656.0
		L1004.2,656.6 L1006.1,657.0 L1008.0,657.4 L1009.9,657.8 L1011.7,658.1 L1013.6,658.3  '/></g>
	</g>
	<g id="gnuplot_plot_2" ><title>Confidence interval</title>
<g fill="none" color="white" stroke="rgb( 31, 120, 180)" stroke-width="1.00" stroke-linecap="butt" stroke-linejoin="miter">
</g>
<g fill="none" color="black" stroke="currentColor" stroke-width="1.00" stroke-linecap="butt" stroke-linejoin="miter">
	<g transform="translate(1089.0,85.0)" stroke="none" fill="black" font-family="Helvetica" font-size="12.00"  text-anchor="start">
		<text><tspan font-family="Helvetica" >Confidence interval</tspan></text>
	</g>
</g>
<g fill="none" color="black" stroke="currentColor" stroke-width="1.00" stroke-linecap="butt" stroke-linejoin="miter">
	<g stroke='none' shape-rendering='crispEdges'>
		<polygon fill = 'rgb( 31, 120, 180)' fill-opacity = '0.250000' points = '1038.5,85.6 1080.7,85.6 1080.7,76.6 1038.5,76.6 '/>
		<polygon fill = 'rgb( 31, 120, 180)' fill-opacity = '0.250000' points = '166.2,638.8 168.1,638.9 170.0,639.1 171.9,639.2 173.7,639.4 175.6,639.5 177.5,639.6 179.3,639.8 181.2,639.9 183.1,640.0 185.0,640.1 186.8,640.1 188.7,640.2 190.6,640.2 192.4,640.1 194.3,640.1
196.2,639.9 198.0,639.8 199.9,639.6 201.8,639.3 203.7,639.0 205.5,638.7 207.4,638.2 209.3,637.8 211.1,637.3 213.0,636.8 214.9,636.2 216.7,635.6 218.6,634.9 220.5,634.2 222.4,633.6 224.2,632.8
226.1,632.1 228.0,631.4 229.8,630.7 231.7,629.9 233.6,629.2 235.5,628.4 237.3,627.7 239.2,626.9 241.1,626.2 242.9,625.4 244.8,624.6 246.7,623.8 248.5,622.9 250.4,621.9 252.3,620.9 254.2,619.9
256.0,618.7 257.9,617.5 259.8,616.2 261.6,614.8 263.5,613.3 265.4,611.8 267.3,610.1 269.1,608.4 271.0,606.6 272.9,604.7 274.7,602.7 276.6,600.7 278.5,598.7 280.3,596.6 282.2,594.4 284.1,592.2
286.0,590.1 287.8,587.9 289.7,585.7 291.6,583.7 293.4,581.6 295.3,579.7 297.2,577.9 299.1,576.3 300.9,574.8 302.8,573.5 304.7,572.4 306.5,571.5 308.4,570.8 310.3,570.4 312.1,570.2 314.0,570.3
315.9,570.6 317.8,571.1 319.6,571.8 321.5,572.7 323.4,573.8 325.2,575.0 327.1,576.4 329.0,577.8 330.9,579.4 332.7,581.0 334.6,582.6 336.5,584.3 338.3,586.0 340.2,587.7 342.1,589.3 343.9,590.9
345.8,592.4 347.7,593.8 349.6,595.2 351.4,596.5 353.3,597.6 355.2,598.6 357.0,599.5 358.9,600.3 360.8,600.9 362.7,601.4 364.5,601.7 366.4,601.9 368.3,601.9 370.1,601.8 372.0,601.5 373.9,601.2
375.7,600.7 377.6,600.1 379.5,599.4 381.4,598.7 383.2,597.9 385.1,597.1 387.0,596.2 388.8,595.3 390.7,594.4 392.6,593.6 394.5,592.8 396.3,592.0 398.2,591.3 400.1,590.7 401.9,590.1 403.8,589.6
405.7,589.1 407.5,588.7 409.4,588.3 411.3,588.0 413.2,587.6 415.0,587.3 416.9,587.0 418.8,586.6 420.6,586.1 422.5,585.6 424.4,585.1 426.3,584.4 428.1,583.6 430.0,582.7 431.9,581.7 433.7,580.6
435.6,579.5 437.5,578.2 439.3,576.8 441.2,575.4 443.1,573.9 445.0,572.4 446.8,570.9 448.7,569.3 450.6,567.8 452.4,566.2 454.3,564.7 456.2,563.2 458.0,561.6 459.9,560.1 461.8,558.6 463.7,557.1
465.5,555.6 467.4,554.1 469.3,552.5 471.1,550.9 473.0,549.3 474.9,547.6 476.8,545.9 478.6,544.1 480.5,542.2 482.4,540.3 484.2,538.2 486.1,536.0 488.0,533.7 489.8,531.3 491.7,528.7 493.6,526.0
495.5,523.2 497.3,520.2 499.2,517.1 501.1,513.9 502.9,510.6 504.8,507.2 506.7,503.7 508.6,500.2 510.4,496.6 512.3,493.0 514.2,489.3 516.0,485.5 517.9,481.7 519.8,477.7 521.6,473.7 523.5,469.5
525.4,465.2 527.3,460.7 529.1,456.1 531.0,451.3 532.9,446.3 534.7,441.2 536.6,435.8 538.5,430.4 540.4,424.8 542.2,419.1 544.1,413.2 546.0,407.3 547.8,401.2 549.7,395.1 551.6,388.8 553.4,382.5
555.3,376.0 557.2,369.4 559.1,362.8 560.9,356.0 562.8,349.1 564.7,342.2 566.5,335.2 568.4,328.3 570.3,321.3 572.2,314.5 574.0,307.7 575.9,301.2 577.8,294.8 579.6,288.8 581.5,283.0 583.4,277.6
585.2,272.5 587.1,267.7 589.0,263.2 590.9,259.0 592.7,255.0 594.6,251.1 596.5,247.4 598.3,243.7 600.2,239.9 602.1,236.1 604.0,232.1 605.8,227.9 607.7,223.5 609.6,218.8 611.4,213.8 613.3,208.7
615.2,203.2 617.0,197.6 618.9,191.7 620.8,185.8 622.7,179.7 624.5,173.5 626.4,167.4 628.3,161.2 630.1,155.1 632.0,149.1 633.9,143.2 635.8,137.5 637.6,131.9 639.5,126.7 641.4,121.7 643.2,117.1
645.1,112.9 647.0,109.3 648.8,106.4 650.7,104.1 652.6,102.7 654.5,102.3 656.3,102.8 658.2,104.5 660.1,107.3 661.9,111.4 663.8,116.6 665.7,123.2 667.5,130.9 669.4,139.7 671.3,149.7 673.2,160.6
675.0,172.4 676.9,184.9 678.8,198.1 680.6,211.7 682.5,225.7 684.4,239.8 686.3,254.1 688.1,268.3 690.0,282.4 691.9,296.3 693.7,309.9 695.6,323.1 697.5,335.9 699.3,348.3 701.2,360.1 703.1,371.3
705.0,382.0 706.8,392.1 708.7,401.6 710.6,410.5 712.4,418.7 714.3,426.3 716.2,433.3 718.1,439.8 719.9,445.6 721.8,450.9 723.7,455.7 725.5,459.9 727.4,463.8 729.3,467.2 731.1,470.2 733.0,472.9
734.9,475.3 736.8,477.4 738.6,479.2 740.5,480.8 742.4,482.2 744.2,483.5 746.1,484.6 748.0,485.5 749.9,486.4 751.7,487.1 753.6,487.8 755.5,488.5 757.3,489.0 759.2,489.6 761.1,490.1 762.9,490.5
764.8,491.0 766.7,491.4 768.6,491.8 770.4,492.2 772.3,492.5 774.2,492.8 776.0,493.0 777.9,493.1 779.8,493.2 781.7,493.2 783.5,493.2 785.4,493.1 787.3,492.9 789.1,492.7 791.0,492.5 792.9,492.2
794.7,492.0 796.6,491.7 798.5,491.5 800.4,491.4 802.2,491.3 804.1,491.4 806.0,491.6 807.8,491.9 809.7,492.4 811.6,493.1 813.5,494.0 815.3,495.1 817.2,496.5 819.1,498.1 820.9,500.0 822.8,502.2
824.7,504.7 826.5,507.5 828.4,510.5 830.3,513.8 832.2,517.4 834.0,521.3 835.9,525.3 837.8,529.5 839.6,533.8 841.5,538.3 843.4,542.7 845.3,547.2 847.1,551.6 849.0,555.9 850.9,560.0 852.7,563.9
854.6,567.6 856.5,571.0 858.3,574.1 860.2,576.8 862.1,579.2 864.0,581.3 865.8,583.1 867.7,584.5 869.6,585.6 871.4,586.5 873.3,587.1 875.2,587.5 877.1,587.7 878.9,587.8 880.8,587.7 882.7,587.6
884.5,587.4 886.4,587.2 888.3,587.0 890.1,586.8 892.0,586.6 893.9,586.4 895.8,586.2 897.6,586.0 899.5,585.9 901.4,585.7 903.2,585.5 905.1,585.4 907.0,585.2 908.8,585.0 910.7,584.8 912.6,584.5
914.5,584.3 916.3,584.0 918.2,583.7 920.1,583.5 921.9,583.2 923.8,583.1 925.7,583.0 925.7,662.4 923.8,662.4 921.9,662.4 920.1,662.4 918.2,662.4 916.3,662.4 914.5,662.4 912.6,662.4 910.7,662.4
908.8,662.4 907.0,662.4 905.1,662.4 903.2,662.4 901.4,662.4 899.5,662.4 897.6,662.4 895.8,662.4 893.9,662.4 892.0,662.4 890.1,662.4 888.3,662.4 886.4,662.4 884.5,662.4 882.7,662.4 880.8,662.4
878.9,662.4 877.1,662.4 875.2,662.4 873.3,662.4 871.4,662.4 869.6,662.4 867.7,662.4 865.8,662.4 864.0,662.4 862.1,662.4 860.2,662.4 858.3,662.4 856.5,662.4 854.6,662.4 852.7,662.4 850.9,662.4
849.0,662.4 847.1,662.4 845.3,662.4 843.4,662.4 841.5,662.4 839.6,662.4 837.8,662.4 835.9,662.4 834.0,662.4 832.2,662.4 830.3,662.4 828.4,662.4 826.5,662.4 824.7,662.4 822.8,662.4 820.9,662.4
819.1,662.4 817.2,662.4 815.3,662.4 813.5,662.4 811.6,662.4 809.7,662.4 807.8,662.4 806.0,662.4 804.1,662.4 802.2,662.4 800.4,662.4 798.5,662.4 796.6,662.4 794.7,662.4 792.9,662.4 791.0,662.4
789.1,662.4 787.3,662.4 785.4,662.4 783.5,662.4 781.7,662.4 779.8,662.4 777.9,662.4 776.0,662.4 774.2,662.4 772.3,662.4 770.4,662.4 768.6,662.4 766.7,662.4 764.8,662.4 762.9,662.4 761.1,662.4
759.2,662.4 757.3,662.4 755.5,662.4 753.6,662.4 751.7,662.4 749.9,662.4 748.0,662.4 746.1,662.4 744.2,662.4 742.4,662.4 740.5,662.4 738.6,662.4 736.8,662.4 734.9,662.4 733.0,662.4 731.1,662.4
729.3,662.4 727.4,662.4 725.5,662.4 723.7,662.4 721.8,662.4 719.9,662.4 718.1,662.4 716.2,662.4 714.3,662.4 712.4,662.4 710.6,662.4 708.7,662.4 706.8,662.4 705.0,662.4 703.1,662.4 701.2,662.4
699.3,662.4 697.5,662.4 695.6,662.4 693.7,662.4 691.9,662.4 690.0,662.4 688.1,662.4 686.3,662.4 684.4,662.4 682.5,662.4 680.6,662.4 678.8,662.4 676.9,662.4 675.0,662.4 673.2,662.4 671.3,662.4
669.4,662.4 667.5,662.4 665.7,662.4 663.8,662.4 661.9,662.4 660.1,662.4 658.2,662.4 656.3,662.4 654.5,662.4 652.6,662.4 650.7,662.4 648.8,662.4 647.0,662.4 645.1,662.4 643.2,662.4 641.4,662.4
639.5,662.4 637.6,662.4 635.8,662.4 633.9,662.4 632.0,662.4 630.1,662.4 628.3,662.4 626.4,662.4 624.5,662.4 622.7,662.4 620.8,662.4 618.9,662.4 617.0,662.4 615.2,662.4 613.3,662.4 611.4,662.4
609.6,662.4 607.7,662.4 605.8,662.4 604.0,662.4 602.1,662.4 600.2,662.4 598.3,662.4 596.5,662.4 594.6,662.4 592.7,662.4 590.9,662.4 589.0,662.4 587.1,662.4 585.2,662.4 583.4,662.4 581.5,662.4
579.6,662.4 577.8,662.4 575.9,662.4 574.0,662.4 572.2,662.4 570.3,662.4 568.4,662.4 566.5,662.4 564.7,662.4 562.8,662.4 560.9,662.4 559.1,662.4 557.2,662.4 555.3,662.4 553.4,662.4 551.6,662.4
549.7,662.4 547.8,662.4 546.0,662.4 544.1,662.4 542.2,662.4 540.4,662.4 538.5,662.4 536.6,662.4 534.7,662.4 532.9,662.4 531.0,662.4 529.1,662.4 527.3,662.4 525.4,662.4 523.5,662.4 521.6,662.4
519.8,662.4 517.9,662.4 516.0,662.4 514.2,662.4 512.3,662.4 510.4,662.4 508.6,662.4 506.7,662.4 504.8,662.4 502.9,662.4 501.1,662.4 499.2,662.4 497.3,662.4 495.5,662.4 493.6,662.4 491.7,662.4
489.8,662.4 488.0,662.4 486.1,662.4 484.2,662.4 482.4,662.4 480.5,662.4 478.6,662.4 476.8,662.4 474.9,662.4 473.0,662.4 471.1,662.4 469.3,662.4 467.4,662.4 465.5,662.4 463.7,662.4 461.8,662.4
459.9,662.4 458.0,662.4 456.2,662.4 454.3,662.4 452.4,662.4 450.6,662.4 448.7,662.4 446.8,662.4 445.0,662.4 443.1,662.4 441.2,662.4 439.3,662.4 437.5,662.4 435.6,662.4 433.7,662.4 431.9,662.4
430.0,662.4 428.1,662.4 426.3,662.4 424.4,662.4 422.5,662.4 420.6,662.4 418.8,662.4 416.9,662.4 415.0,662.4 413.2,662.4 411.3,662.4 409.4,662.4 407.5,662.4 405.7,662.4 403.8,662.4 401.9,662.4
400.1,662.4 398.2,662.4 396.3,662.4 394.5,662.4 392.6,662.4 390.7,662.4 388.8,662.4 387.0,662.4 385.1,662.4 383.2,662.4 381.4,662.4 379.5,662.4 377.6,662.4 375.7,662.4 373.9,662.4 372.0,662.4
370.1,662.4 368.3,662.4 366.4,662.4 364.5,662.4 362.7,662.4 360.8,662.4 358.9,662.4 357.0,662.4 355.2,662.4 353.3,662.4 351.4,662.4 349.6,662.4 347.7,662.4 345.8,662.4 343.9,662.4 342.1,662.4
340.2,662.4 338.3,662.4 336.5,662.4 334.6,662.4 332.7,662.4 330.9,662.4 329.0,662.4 327.1,662.4 325.2,662.4 323.4,662.4 321.5,662.4 319.6,662.4 317.8,662.4 315.9,662.4 314.0,662.4 312.1,662.4
310.3,662.4 308.4,662.4 306.5,662.4 304.7,662.4 302.8,662.4 300.9,662.4 299.1,662.4 297.2,662.4 295.3,662.4 293.4,662.4 291.6,662.4 289.7,662.4 287.8,662.4 286.0,662.4 284.1,662.4 282.2,662.4
280.3,662.4 278.5,662.4 276.6,662.4 274.7,662.4 272.9,662.4 271.0,662.4 269.1,662.4 267.3,662.4 265.4,662.4 263.5,662.4 261.6,662.4 259.8,662.4 257.9,662.4 256.0,662.4 254.2,662.4 252.3,662.4
250.4,662.4 248.5,662.4 246.7,662.4 244.8,662.4 242.9,662.4 241.1,662.4 239.2,662.4 237.3,662.4 235.5,662.4 233.6,662.4 231.7,662.4 229.8,662.4 228.0,662.4 226.1,662.4 224.2,662.4 222.4,662.4
220.5,662.4 218.6,662.4 216.7,662.4 214.9,662.4 213.0,662.4 211.1,662.4 209.3,662.4 207.4,662.4 205.5,662.4 203.7,662.4 201.8,662.4 199.9,662.4 198.0,662.4 196.2,662.4 194.3,662.4 192.4,662.4
190.6,662.4 188.7,662.4 186.8,662.4 185.0,662.4 183.1,662.4 181.2,662.4 179.3,662.4 177.5,662.4 175.6,662.4 173.7,662.4 171.9,662.4 170.0,662.4 168.1,662.4 166.2,662.4 '/>
	</g>
</g>
	</g>
	<g id="gnuplot_plot_3" ><title>Point estimate</title>
<g fill="none" color="white" stroke="rgb( 31, 120, 180)" stroke-width="2.00" stroke-linecap="butt" stroke-linejoin="miter">
</g>
<g fill="none" color="black" stroke="currentColor" stroke-width="2.00" stroke-linecap="butt" stroke-linejoin="miter">
	<g transform="translate(1089.0,103.0)" stroke="none" fill="black" font-family="Helvetica" font-size="12.00"  text-anchor="start">
		<text><tspan font-family="Helvetica" >Point estimate</tspan></text>
	</g>
</g>
<g fill="none" color="black" stroke="currentColor" stroke-width="2.00" stroke-linecap="butt" stroke-linejoin="miter">
	<path stroke='rgb( 31, 120, 180)'  d='M1038.5,99.1 L1080.7,99.1 M648.5,662.4 L648.5,107.0  '/></g>
	</g>
	<g id="gnuplot_plot_4" ><title>Noise threshold</title>
<g fill="none" color="white" stroke="rgb( 31, 120, 180)" stroke-width="1.00" stroke-linecap="butt" stroke-linejoin="miter">
</g>
<g fill="none" color="black" stroke="currentColor" stroke-width="1.00" stroke-linecap="butt" stroke-linejoin="miter">
	<g transform="translate(1089.0,121.0)" stroke="none" fill="black" font-family="Helvetica" font-size="12.00"  text-anchor="start">
		<text><tspan font-family="Helvetica" >Noise threshold</tspan></text>
	</g>
</g>
<g fill="none" color="black" stroke="currentColor" stroke-width="1.00" stroke-linecap="butt" stroke-linejoin="miter">
	<g stroke='none' shape-rendering='crispEdges'>
		<polygon fill = 'rgb(227,  26,  28)' fill-opacity = '0.100000' points = '1038.5,121.6 1080.7,121.6 1080.7,112.6 1038.5,112.6 '/>
		<polygon fill = 'rgb(227,  26,  28)' fill-opacity = '0.100000' points = '80.2,54.1 1013.6,54.1 1013.6,662.4 80.2,662.4 '/>
	</g>
</g>
	</g>
<g fill="none" color="white" stroke="rgb(227,  26,  28)" stroke-width="2.00" stroke-linecap="butt" stroke-linejoin="miter">
</g>
<g fill="none" color="black" stroke="currentColor" stroke-width="2.00" stroke-linecap="butt" stroke-linejoin="miter">
</g>
<g fill="none" color="black" stroke="black" stroke-width="1.00" stroke-linecap="butt" stroke-linejoin="miter">
</g>
<g fill="none" color="black" stroke="currentColor" stroke-width="1.00" stroke-linecap="butt" stroke-linejoin="miter">
	<path stroke='black'  d='M80.2,54.1 L80.2,662.4 L1013.6,662.4 L1013.6,54.1 L80.2,54.1 Z  '/></g>
<g fill="none" color="black" stroke="currentColor" stroke-width="1.00" stroke-linecap="butt" stroke-linejoin="miter">
</g>
</g>
</svg>

