group,function,value,throughput_num,throughput_type,sample_measured_value,unit,iteration_count
snapshot_restore_with_dense,Dense: Entire region + process_vm_writev,5,,,1048192.0,ns,37
snapshot_restore_with_dense,Dense: Entire region + process_vm_writev,5,,,1998800.0,ns,74
snapshot_restore_with_dense,Dense: Entire region + process_vm_writev,5,,,2984354.0,ns,111
snapshot_restore_with_dense,Dense: Entire region + process_vm_writev,5,,,3973835.0,ns,148
snapshot_restore_with_dense,Dense: Entire region + process_vm_writev,5,,,5577355.0,ns,185
snapshot_restore_with_dense,Dense: Entire region + process_vm_writev,5,,,5929099.0,ns,222
snapshot_restore_with_dense,Dense: Entire region + process_vm_writev,5,,,8297215.0,ns,259
snapshot_restore_with_dense,Dense: Entire region + process_vm_writev,5,,,8404228.0,ns,296
snapshot_restore_with_dense,Dense: Entire region + process_vm_writev,5,,,9501796.0,ns,333
snapshot_restore_with_dense,Dense: Entire region + process_vm_writev,5,,,10096428.0,ns,370
snapshot_restore_with_dense,Dense: Entire region + process_vm_writev,5,,,10879799.0,ns,407
snapshot_restore_with_dense,Dense: Entire region + process_vm_writev,5,,,11854713.0,ns,444
snapshot_restore_with_dense,Dense: Entire region + process_vm_writev,5,,,12877480.0,ns,481
snapshot_restore_with_dense,Dense: Entire region + process_vm_writev,5,,,13853473.0,ns,518
snapshot_restore_with_dense,Dense: Entire region + process_vm_writev,5,,,15155241.0,ns,555
snapshot_restore_with_dense,Dense: Entire region + process_vm_writev,5,,,15842313.0,ns,592
snapshot_restore_with_dense,Dense: Entire region + process_vm_writev,5,,,16879383.0,ns,629
snapshot_restore_with_dense,Dense: Entire region + process_vm_writev,5,,,17827259.0,ns,666
snapshot_restore_with_dense,Dense: Entire region + process_vm_writev,5,,,18783905.0,ns,703
snapshot_restore_with_dense,Dense: Entire region + process_vm_writev,5,,,19817164.0,ns,740
snapshot_restore_with_dense,Dense: Entire region + process_vm_writev,5,,,20779969.0,ns,777
snapshot_restore_with_dense,Dense: Entire region + process_vm_writev,5,,,21830791.0,ns,814
snapshot_restore_with_dense,Dense: Entire region + process_vm_writev,5,,,22746230.0,ns,851
snapshot_restore_with_dense,Dense: Entire region + process_vm_writev,5,,,23726357.0,ns,888
snapshot_restore_with_dense,Dense: Entire region + process_vm_writev,5,,,24744199.0,ns,925
snapshot_restore_with_dense,Dense: Entire region + process_vm_writev,5,,,25675445.0,ns,962
snapshot_restore_with_dense,Dense: Entire region + process_vm_writev,5,,,26786370.0,ns,999
snapshot_restore_with_dense,Dense: Entire region + process_vm_writev,5,,,27692279.0,ns,1036
snapshot_restore_with_dense,Dense: Entire region + process_vm_writev,5,,,28636100.0,ns,1073
snapshot_restore_with_dense,Dense: Entire region + process_vm_writev,5,,,29680013.0,ns,1110
snapshot_restore_with_dense,Dense: Entire region + process_vm_writev,5,,,30696722.0,ns,1147
snapshot_restore_with_dense,Dense: Entire region + process_vm_writev,5,,,31621830.0,ns,1184
snapshot_restore_with_dense,Dense: Entire region + process_vm_writev,5,,,32586830.0,ns,1221
snapshot_restore_with_dense,Dense: Entire region + process_vm_writev,5,,,33692010.0,ns,1258
snapshot_restore_with_dense,Dense: Entire region + process_vm_writev,5,,,34665184.0,ns,1295
snapshot_restore_with_dense,Dense: Entire region + process_vm_writev,5,,,35644578.0,ns,1332
snapshot_restore_with_dense,Dense: Entire region + process_vm_writev,5,,,36654295.0,ns,1369
snapshot_restore_with_dense,Dense: Entire region + process_vm_writev,5,,,37494866.0,ns,1406
snapshot_restore_with_dense,Dense: Entire region + process_vm_writev,5,,,38642858.0,ns,1443
snapshot_restore_with_dense,Dense: Entire region + process_vm_writev,5,,,39524841.0,ns,1480
snapshot_restore_with_dense,Dense: Entire region + process_vm_writev,5,,,40506254.0,ns,1517
snapshot_restore_with_dense,Dense: Entire region + process_vm_writev,5,,,42727655.0,ns,1554
snapshot_restore_with_dense,Dense: Entire region + process_vm_writev,5,,,44275131.0,ns,1591
snapshot_restore_with_dense,Dense: Entire region + process_vm_writev,5,,,43594642.0,ns,1628
snapshot_restore_with_dense,Dense: Entire region + process_vm_writev,5,,,44606433.0,ns,1665
snapshot_restore_with_dense,Dense: Entire region + process_vm_writev,5,,,45561309.0,ns,1702
snapshot_restore_with_dense,Dense: Entire region + process_vm_writev,5,,,46426680.0,ns,1739
snapshot_restore_with_dense,Dense: Entire region + process_vm_writev,5,,,47479040.0,ns,1776
snapshot_restore_with_dense,Dense: Entire region + process_vm_writev,5,,,48485785.0,ns,1813
snapshot_restore_with_dense,Dense: Entire region + process_vm_writev,5,,,49428515.0,ns,1850
snapshot_restore_with_dense,Dense: Entire region + process_vm_writev,5,,,50663888.0,ns,1887
snapshot_restore_with_dense,Dense: Entire region + process_vm_writev,5,,,51418254.0,ns,1924
snapshot_restore_with_dense,Dense: Entire region + process_vm_writev,5,,,52446552.0,ns,1961
snapshot_restore_with_dense,Dense: Entire region + process_vm_writev,5,,,53449007.0,ns,1998
snapshot_restore_with_dense,Dense: Entire region + process_vm_writev,5,,,54492699.0,ns,2035
snapshot_restore_with_dense,Dense: Entire region + process_vm_writev,5,,,55481225.0,ns,2072
snapshot_restore_with_dense,Dense: Entire region + process_vm_writev,5,,,56711500.0,ns,2109
snapshot_restore_with_dense,Dense: Entire region + process_vm_writev,5,,,57443839.0,ns,2146
snapshot_restore_with_dense,Dense: Entire region + process_vm_writev,5,,,58370355.0,ns,2183
snapshot_restore_with_dense,Dense: Entire region + process_vm_writev,5,,,59389734.0,ns,2220
snapshot_restore_with_dense,Dense: Entire region + process_vm_writev,5,,,60315709.0,ns,2257
snapshot_restore_with_dense,Dense: Entire region + process_vm_writev,5,,,61446423.0,ns,2294
snapshot_restore_with_dense,Dense: Entire region + process_vm_writev,5,,,62583854.0,ns,2331
snapshot_restore_with_dense,Dense: Entire region + process_vm_writev,5,,,63568147.0,ns,2368
snapshot_restore_with_dense,Dense: Entire region + process_vm_writev,5,,,64297121.0,ns,2405
snapshot_restore_with_dense,Dense: Entire region + process_vm_writev,5,,,65416104.0,ns,2442
snapshot_restore_with_dense,Dense: Entire region + process_vm_writev,5,,,66342870.0,ns,2479
snapshot_restore_with_dense,Dense: Entire region + process_vm_writev,5,,,67210176.0,ns,2516
snapshot_restore_with_dense,Dense: Entire region + process_vm_writev,5,,,68271013.0,ns,2553
snapshot_restore_with_dense,Dense: Entire region + process_vm_writev,5,,,69300044.0,ns,2590
snapshot_restore_with_dense,Dense: Entire region + process_vm_writev,5,,,70268377.0,ns,2627
snapshot_restore_with_dense,Dense: Entire region + process_vm_writev,5,,,71224034.0,ns,2664
snapshot_restore_with_dense,Dense: Entire region + process_vm_writev,5,,,72250477.0,ns,2701
snapshot_restore_with_dense,Dense: Entire region + process_vm_writev,5,,,73266110.0,ns,2738
snapshot_restore_with_dense,Dense: Entire region + process_vm_writev,5,,,74199916.0,ns,2775
snapshot_restore_with_dense,Dense: Entire region + process_vm_writev,5,,,75117280.0,ns,2812
snapshot_restore_with_dense,Dense: Entire region + process_vm_writev,5,,,77777917.0,ns,2849
snapshot_restore_with_dense,Dense: Entire region + process_vm_writev,5,,,77242329.0,ns,2886
snapshot_restore_with_dense,Dense: Entire region + process_vm_writev,5,,,78160812.0,ns,2923
snapshot_restore_with_dense,Dense: Entire region + process_vm_writev,5,,,79179923.0,ns,2960
snapshot_restore_with_dense,Dense: Entire region + process_vm_writev,5,,,80103186.0,ns,2997
snapshot_restore_with_dense,Dense: Entire region + process_vm_writev,5,,,81156915.0,ns,3034
snapshot_restore_with_dense,Dense: Entire region + process_vm_writev,5,,,82076970.0,ns,3071
snapshot_restore_with_dense,Dense: Entire region + process_vm_writev,5,,,83082354.0,ns,3108
snapshot_restore_with_dense,Dense: Entire region + process_vm_writev,5,,,84009049.0,ns,3145
snapshot_restore_with_dense,Dense: Entire region + process_vm_writev,5,,,85085370.0,ns,3182
snapshot_restore_with_dense,Dense: Entire region + process_vm_writev,5,,,92115111.0,ns,3219
snapshot_restore_with_dense,Dense: Entire region + process_vm_writev,5,,,92923042.0,ns,3256
snapshot_restore_with_dense,Dense: Entire region + process_vm_writev,5,,,93234916.0,ns,3293
snapshot_restore_with_dense,Dense: Entire region + process_vm_writev,5,,,89446401.0,ns,3330
snapshot_restore_with_dense,Dense: Entire region + process_vm_writev,5,,,91633323.0,ns,3367
snapshot_restore_with_dense,Dense: Entire region + process_vm_writev,5,,,91185765.0,ns,3404
snapshot_restore_with_dense,Dense: Entire region + process_vm_writev,5,,,92162187.0,ns,3441
snapshot_restore_with_dense,Dense: Entire region + process_vm_writev,5,,,93486044.0,ns,3478
snapshot_restore_with_dense,Dense: Entire region + process_vm_writev,5,,,95728679.0,ns,3515
snapshot_restore_with_dense,Dense: Entire region + process_vm_writev,5,,,96531660.0,ns,3552
snapshot_restore_with_dense,Dense: Entire region + process_vm_writev,5,,,96628283.0,ns,3589
snapshot_restore_with_dense,Dense: Entire region + process_vm_writev,5,,,97287555.0,ns,3626
snapshot_restore_with_dense,Dense: Entire region + process_vm_writev,5,,,105743289.0,ns,3663
snapshot_restore_with_dense,Dense: Entire region + process_vm_writev,5,,,99603897.0,ns,3700
