group,function,value,throughput_num,throughput_type,sample_measured_value,unit,iteration_count
snapshot_restore_with_dense,Sparse: Dirty pages + process_vm_writev,46,,,1043110.0,ns,11
snapshot_restore_with_dense,Sparse: Dirty pages + process_vm_writev,46,,,1990368.0,ns,22
snapshot_restore_with_dense,Sparse: Dirty pages + process_vm_writev,46,,,2997090.0,ns,33
snapshot_restore_with_dense,Sparse: Dirty pages + process_vm_writev,46,,,3968992.0,ns,44
snapshot_restore_with_dense,Sparse: Dirty pages + process_vm_writev,46,,,5056509.0,ns,55
snapshot_restore_with_dense,Sparse: Dirty pages + process_vm_writev,46,,,6147882.0,ns,66
snapshot_restore_with_dense,Sparse: Dirty pages + process_vm_writev,46,,,7118473.0,ns,77
snapshot_restore_with_dense,Sparse: Dirty pages + process_vm_writev,46,,,8384766.0,ns,88
snapshot_restore_with_dense,Sparse: Dirty pages + process_vm_writev,46,,,9397456.0,ns,99
snapshot_restore_with_dense,Sparse: Dirty pages + process_vm_writev,46,,,9928450.0,ns,110
snapshot_restore_with_dense,Sparse: Dirty pages + process_vm_writev,46,,,10852009.0,ns,121
snapshot_restore_with_dense,Sparse: Dirty pages + process_vm_writev,46,,,11900822.0,ns,132
snapshot_restore_with_dense,Sparse: Dirty pages + process_vm_writev,46,,,12889913.0,ns,143
snapshot_restore_with_dense,Sparse: Dirty pages + process_vm_writev,46,,,13871899.0,ns,154
snapshot_restore_with_dense,Sparse: Dirty pages + process_vm_writev,46,,,14872094.0,ns,165
snapshot_restore_with_dense,Sparse: Dirty pages + process_vm_writev,46,,,15906157.0,ns,176
snapshot_restore_with_dense,Sparse: Dirty pages + process_vm_writev,46,,,16824353.0,ns,187
snapshot_restore_with_dense,Sparse: Dirty pages + process_vm_writev,46,,,17788963.0,ns,198
snapshot_restore_with_dense,Sparse: Dirty pages + process_vm_writev,46,,,18830369.0,ns,209
snapshot_restore_with_dense,Sparse: Dirty pages + process_vm_writev,46,,,19775522.0,ns,220
snapshot_restore_with_dense,Sparse: Dirty pages + process_vm_writev,46,,,20731150.0,ns,231
snapshot_restore_with_dense,Sparse: Dirty pages + process_vm_writev,46,,,21748123.0,ns,242
snapshot_restore_with_dense,Sparse: Dirty pages + process_vm_writev,46,,,22706619.0,ns,253
snapshot_restore_with_dense,Sparse: Dirty pages + process_vm_writev,46,,,23835016.0,ns,264
snapshot_restore_with_dense,Sparse: Dirty pages + process_vm_writev,46,,,24712998.0,ns,275
snapshot_restore_with_dense,Sparse: Dirty pages + process_vm_writev,46,,,25752446.0,ns,286
snapshot_restore_with_dense,Sparse: Dirty pages + process_vm_writev,46,,,26658574.0,ns,297
snapshot_restore_with_dense,Sparse: Dirty pages + process_vm_writev,46,,,27823361.0,ns,308
snapshot_restore_with_dense,Sparse: Dirty pages + process_vm_writev,46,,,28692614.0,ns,319
snapshot_restore_with_dense,Sparse: Dirty pages + process_vm_writev,46,,,29648468.0,ns,330
snapshot_restore_with_dense,Sparse: Dirty pages + process_vm_writev,46,,,30652413.0,ns,341
snapshot_restore_with_dense,Sparse: Dirty pages + process_vm_writev,46,,,31624845.0,ns,352
snapshot_restore_with_dense,Sparse: Dirty pages + process_vm_writev,46,,,32641369.0,ns,363
snapshot_restore_with_dense,Sparse: Dirty pages + process_vm_writev,46,,,33700416.0,ns,374
snapshot_restore_with_dense,Sparse: Dirty pages + process_vm_writev,46,,,34607627.0,ns,385
snapshot_restore_with_dense,Sparse: Dirty pages + process_vm_writev,46,,,35642011.0,ns,396
snapshot_restore_with_dense,Sparse: Dirty pages + process_vm_writev,46,,,36621576.0,ns,407
snapshot_restore_with_dense,Sparse: Dirty pages + process_vm_writev,46,,,37652862.0,ns,418
snapshot_restore_with_dense,Sparse: Dirty pages + process_vm_writev,46,,,38618569.0,ns,429
snapshot_restore_with_dense,Sparse: Dirty pages + process_vm_writev,46,,,39737570.0,ns,440
snapshot_restore_with_dense,Sparse: Dirty pages + process_vm_writev,46,,,40722231.0,ns,451
snapshot_restore_with_dense,Sparse: Dirty pages + process_vm_writev,46,,,41644157.0,ns,462
snapshot_restore_with_dense,Sparse: Dirty pages + process_vm_writev,46,,,42579317.0,ns,473
snapshot_restore_with_dense,Sparse: Dirty pages + process_vm_writev,46,,,43628191.0,ns,484
snapshot_restore_with_dense,Sparse: Dirty pages + process_vm_writev,46,,,44558179.0,ns,495
snapshot_restore_with_dense,Sparse: Dirty pages + process_vm_writev,46,,,45554665.0,ns,506
snapshot_restore_with_dense,Sparse: Dirty pages + process_vm_writev,46,,,46585712.0,ns,517
snapshot_restore_with_dense,Sparse: Dirty pages + process_vm_writev,46,,,47633332.0,ns,528
snapshot_restore_with_dense,Sparse: Dirty pages + process_vm_writev,46,,,48678393.0,ns,539
snapshot_restore_with_dense,Sparse: Dirty pages + process_vm_writev,46,,,49477907.0,ns,550
snapshot_restore_with_dense,Sparse: Dirty pages + process_vm_writev,46,,,50493419.0,ns,561
snapshot_restore_with_dense,Sparse: Dirty pages + process_vm_writev,46,,,51469663.0,ns,572
snapshot_restore_with_dense,Sparse: Dirty pages + process_vm_writev,46,,,52589092.0,ns,583
snapshot_restore_with_dense,Sparse: Dirty pages + process_vm_writev,46,,,53564057.0,ns,594
snapshot_restore_with_dense,Sparse: Dirty pages + process_vm_writev,46,,,54525315.0,ns,605
snapshot_restore_with_dense,Sparse: Dirty pages + process_vm_writev,46,,,55267052.0,ns,616
snapshot_restore_with_dense,Sparse: Dirty pages + process_vm_writev,46,,,56407867.0,ns,627
snapshot_restore_with_dense,Sparse: Dirty pages + process_vm_writev,46,,,57566081.0,ns,638
snapshot_restore_with_dense,Sparse: Dirty pages + process_vm_writev,46,,,58536756.0,ns,649
snapshot_restore_with_dense,Sparse: Dirty pages + process_vm_writev,46,,,59435718.0,ns,660
snapshot_restore_with_dense,Sparse: Dirty pages + process_vm_writev,46,,,60500225.0,ns,671
snapshot_restore_with_dense,Sparse: Dirty pages + process_vm_writev,46,,,61417562.0,ns,682
snapshot_restore_with_dense,Sparse: Dirty pages + process_vm_writev,46,,,62403672.0,ns,693
snapshot_restore_with_dense,Sparse: Dirty pages + process_vm_writev,46,,,63553531.0,ns,704
snapshot_restore_with_dense,Sparse: Dirty pages + process_vm_writev,46,,,64283197.0,ns,715
snapshot_restore_with_dense,Sparse: Dirty pages + process_vm_writev,46,,,65372510.0,ns,726
snapshot_restore_with_dense,Sparse: Dirty pages + process_vm_writev,46,,,66409994.0,ns,737
snapshot_restore_with_dense,Sparse: Dirty pages + process_vm_writev,46,,,67237049.0,ns,748
snapshot_restore_with_dense,Sparse: Dirty pages + process_vm_writev,46,,,68365676.0,ns,759
snapshot_restore_with_dense,Sparse: Dirty pages + process_vm_writev,46,,,69236046.0,ns,770
snapshot_restore_with_dense,Sparse: Dirty pages + process_vm_writev,46,,,70374582.0,ns,781
snapshot_restore_with_dense,Sparse: Dirty pages + process_vm_writev,46,,,71458732.0,ns,792
snapshot_restore_with_dense,Sparse: Dirty pages + process_vm_writev,46,,,72351058.0,ns,803
snapshot_restore_with_dense,Sparse: Dirty pages + process_vm_writev,46,,,73130173.0,ns,814
snapshot_restore_with_dense,Sparse: Dirty pages + process_vm_writev,46,,,74346000.0,ns,825
snapshot_restore_with_dense,Sparse: Dirty pages + process_vm_writev,46,,,75590229.0,ns,836
snapshot_restore_with_dense,Sparse: Dirty pages + process_vm_writev,46,,,76485661.0,ns,847
snapshot_restore_with_dense,Sparse: Dirty pages + process_vm_writev,46,,,77285650.0,ns,858
snapshot_restore_with_dense,Sparse: Dirty pages + process_vm_writev,46,,,78217741.0,ns,869
snapshot_restore_with_dense,Sparse: Dirty pages + process_vm_writev,46,,,79264055.0,ns,880
snapshot_restore_with_dense,Sparse: Dirty pages + process_vm_writev,46,,,80265884.0,ns,891
snapshot_restore_with_dense,Sparse: Dirty pages + process_vm_writev,46,,,81335316.0,ns,902
snapshot_restore_with_dense,Sparse: Dirty pages + process_vm_writev,46,,,82012054.0,ns,913
snapshot_restore_with_dense,Sparse: Dirty pages + process_vm_writev,46,,,83108214.0,ns,924
snapshot_restore_with_dense,Sparse: Dirty pages + process_vm_writev,46,,,84214091.0,ns,935
snapshot_restore_with_dense,Sparse: Dirty pages + process_vm_writev,46,,,85110113.0,ns,946
snapshot_restore_with_dense,Sparse: Dirty pages + process_vm_writev,46,,,86222621.0,ns,957
snapshot_restore_with_dense,Sparse: Dirty pages + process_vm_writev,46,,,87143969.0,ns,968
snapshot_restore_with_dense,Sparse: Dirty pages + process_vm_writev,46,,,88043590.0,ns,979
snapshot_restore_with_dense,Sparse: Dirty pages + process_vm_writev,46,,,89102181.0,ns,990
snapshot_restore_with_dense,Sparse: Dirty pages + process_vm_writev,46,,,90234598.0,ns,1001
snapshot_restore_with_dense,Sparse: Dirty pages + process_vm_writev,46,,,91141626.0,ns,1012
snapshot_restore_with_dense,Sparse: Dirty pages + process_vm_writev,46,,,92346165.0,ns,1023
snapshot_restore_with_dense,Sparse: Dirty pages + process_vm_writev,46,,,93060786.0,ns,1034
snapshot_restore_with_dense,Sparse: Dirty pages + process_vm_writev,46,,,94048907.0,ns,1045
snapshot_restore_with_dense,Sparse: Dirty pages + process_vm_writev,46,,,94970714.0,ns,1056
snapshot_restore_with_dense,Sparse: Dirty pages + process_vm_writev,46,,,96126818.0,ns,1067
snapshot_restore_with_dense,Sparse: Dirty pages + process_vm_writev,46,,,96869664.0,ns,1078
snapshot_restore_with_dense,Sparse: Dirty pages + process_vm_writev,46,,,97999613.0,ns,1089
snapshot_restore_with_dense,Sparse: Dirty pages + process_vm_writev,46,,,98865269.0,ns,1100
