<?xml version="1.0" encoding="utf-8"  standalone="no"?>
<svg 
 viewBox="0 0 450 300"
 xmlns="http://www.w3.org/2000/svg"
 xmlns:xlink="http://www.w3.org/1999/xlink"
>

<title>Gnuplot</title>
<desc>Produced by GNUPLOT 5.2 patchlevel 6 </desc>

<g id="gnuplot_canvas">

<rect x="0" y="0" width="450" height="300" fill="none"/>
<defs>

	<circle id='gpDot' r='0.5' stroke-width='0.5' stroke='currentColor'/>
	<path id='gpPt0' stroke-width='0.222' stroke='currentColor' d='M-1,0 h2 M0,-1 v2'/>
	<path id='gpPt1' stroke-width='0.222' stroke='currentColor' d='M-1,-1 L1,1 M1,-1 L-1,1'/>
	<path id='gpPt2' stroke-width='0.222' stroke='currentColor' d='M-1,0 L1,0 M0,-1 L0,1 M-1,-1 L1,1 M-1,1 L1,-1'/>
	<rect id='gpPt3' stroke-width='0.222' stroke='currentColor' x='-1' y='-1' width='2' height='2'/>
	<rect id='gpPt4' stroke-width='0.222' stroke='currentColor' fill='currentColor' x='-1' y='-1' width='2' height='2'/>
	<circle id='gpPt5' stroke-width='0.222' stroke='currentColor' cx='0' cy='0' r='1'/>
	<use xlink:href='#gpPt5' id='gpPt6' fill='currentColor' stroke='none'/>
	<path id='gpPt7' stroke-width='0.222' stroke='currentColor' d='M0,-1.33 L-1.33,0.67 L1.33,0.67 z'/>
	<use xlink:href='#gpPt7' id='gpPt8' fill='currentColor' stroke='none'/>
	<use xlink:href='#gpPt7' id='gpPt9' stroke='currentColor' transform='rotate(180)'/>
	<use xlink:href='#gpPt9' id='gpPt10' fill='currentColor' stroke='none'/>
	<use xlink:href='#gpPt3' id='gpPt11' stroke='currentColor' transform='rotate(45)'/>
	<use xlink:href='#gpPt11' id='gpPt12' fill='currentColor' stroke='none'/>
	<path id='gpPt13' stroke-width='0.222' stroke='currentColor' d='M0,1.330 L1.265,0.411 L0.782,-1.067 L-0.782,-1.076 L-1.265,0.411 z'/>
	<use xlink:href='#gpPt13' id='gpPt14' fill='currentColor' stroke='none'/>
	<filter id='textbox' filterUnits='objectBoundingBox' x='0' y='0' height='1' width='1'>
	  <feFlood flood-color='white' flood-opacity='1' result='bgnd'/>
	  <feComposite in='SourceGraphic' in2='bgnd' operator='atop'/>
	</filter>
	<filter id='greybox' filterUnits='objectBoundingBox' x='0' y='0' height='1' width='1'>
	  <feFlood flood-color='lightgrey' flood-opacity='1' result='grey'/>
	  <feComposite in='SourceGraphic' in2='grey' operator='atop'/>
	</filter>
</defs>
<g fill="none" color="white" stroke="currentColor" stroke-width="1.00" stroke-linecap="butt" stroke-linejoin="miter">
</g>
<g fill="none" color="black" stroke="currentColor" stroke-width="1.00" stroke-linecap="butt" stroke-linejoin="miter">
	<path stroke='black'  d='M63.6,242.4 L72.6,242.4  '/>	<g transform="translate(55.3,246.3)" stroke="none" fill="black" font-family="Helvetica" font-size="12.00"  text-anchor="end">
		<text><tspan font-family="Helvetica" > 0</tspan></text>
	</g>
</g>
<g fill="none" color="black" stroke="currentColor" stroke-width="1.00" stroke-linecap="butt" stroke-linejoin="miter">
	<path stroke='black'  d='M63.6,213.8 L72.6,213.8  '/>	<g transform="translate(55.3,217.7)" stroke="none" fill="black" font-family="Helvetica" font-size="12.00"  text-anchor="end">
		<text><tspan font-family="Helvetica" > 5</tspan></text>
	</g>
</g>
<g fill="none" color="black" stroke="currentColor" stroke-width="1.00" stroke-linecap="butt" stroke-linejoin="miter">
	<path stroke='black'  d='M63.6,185.1 L72.6,185.1  '/>	<g transform="translate(55.3,189.0)" stroke="none" fill="black" font-family="Helvetica" font-size="12.00"  text-anchor="end">
		<text><tspan font-family="Helvetica" > 10</tspan></text>
	</g>
</g>
<g fill="none" color="black" stroke="currentColor" stroke-width="1.00" stroke-linecap="butt" stroke-linejoin="miter">
	<path stroke='black'  d='M63.6,156.5 L72.6,156.5  '/>	<g transform="translate(55.3,160.4)" stroke="none" fill="black" font-family="Helvetica" font-size="12.00"  text-anchor="end">
		<text><tspan font-family="Helvetica" > 15</tspan></text>
	</g>
</g>
<g fill="none" color="black" stroke="currentColor" stroke-width="1.00" stroke-linecap="butt" stroke-linejoin="miter">
	<path stroke='black'  d='M63.6,127.8 L72.6,127.8  '/>	<g transform="translate(55.3,131.7)" stroke="none" fill="black" font-family="Helvetica" font-size="12.00"  text-anchor="end">
		<text><tspan font-family="Helvetica" > 20</tspan></text>
	</g>
</g>
<g fill="none" color="black" stroke="currentColor" stroke-width="1.00" stroke-linecap="butt" stroke-linejoin="miter">
	<path stroke='black'  d='M63.6,99.2 L72.6,99.2  '/>	<g transform="translate(55.3,103.1)" stroke="none" fill="black" font-family="Helvetica" font-size="12.00"  text-anchor="end">
		<text><tspan font-family="Helvetica" > 25</tspan></text>
	</g>
</g>
<g fill="none" color="black" stroke="currentColor" stroke-width="1.00" stroke-linecap="butt" stroke-linejoin="miter">
	<path stroke='black'  d='M63.6,70.5 L72.6,70.5  '/>	<g transform="translate(55.3,74.4)" stroke="none" fill="black" font-family="Helvetica" font-size="12.00"  text-anchor="end">
		<text><tspan font-family="Helvetica" > 30</tspan></text>
	</g>
</g>
<g fill="none" color="black" stroke="currentColor" stroke-width="1.00" stroke-linecap="butt" stroke-linejoin="miter">
	<path stroke='black'  d='M63.6,41.9 L72.6,41.9  '/>	<g transform="translate(55.3,45.8)" stroke="none" fill="black" font-family="Helvetica" font-size="12.00"  text-anchor="end">
		<text><tspan font-family="Helvetica" > 35</tspan></text>
	</g>
</g>
<g fill="none" color="black" stroke="currentColor" stroke-width="1.00" stroke-linecap="butt" stroke-linejoin="miter">
	<path stroke='black'  d='M67.0,242.4 L67.0,233.4  '/>	<g transform="translate(67.0,264.3)" stroke="none" fill="black" font-family="Helvetica" font-size="12.00"  text-anchor="middle">
		<text><tspan font-family="Helvetica" > 1.25</tspan></text>
	</g>
</g>
<g fill="none" color="black" stroke="currentColor" stroke-width="1.00" stroke-linecap="butt" stroke-linejoin="miter">
	<path stroke='black'  d='M143.9,242.4 L143.9,233.4  '/>	<g transform="translate(143.9,264.3)" stroke="none" fill="black" font-family="Helvetica" font-size="12.00"  text-anchor="middle">
		<text><tspan font-family="Helvetica" > 1.3</tspan></text>
	</g>
</g>
<g fill="none" color="black" stroke="currentColor" stroke-width="1.00" stroke-linecap="butt" stroke-linejoin="miter">
	<path stroke='black'  d='M220.8,242.4 L220.8,233.4  '/>	<g transform="translate(220.8,264.3)" stroke="none" fill="black" font-family="Helvetica" font-size="12.00"  text-anchor="middle">
		<text><tspan font-family="Helvetica" > 1.35</tspan></text>
	</g>
</g>
<g fill="none" color="black" stroke="currentColor" stroke-width="1.00" stroke-linecap="butt" stroke-linejoin="miter">
	<path stroke='black'  d='M297.7,242.4 L297.7,233.4  '/>	<g transform="translate(297.7,264.3)" stroke="none" fill="black" font-family="Helvetica" font-size="12.00"  text-anchor="middle">
		<text><tspan font-family="Helvetica" > 1.4</tspan></text>
	</g>
</g>
<g fill="none" color="black" stroke="currentColor" stroke-width="1.00" stroke-linecap="butt" stroke-linejoin="miter">
	<path stroke='black'  d='M374.6,242.4 L374.6,233.4  '/>	<g transform="translate(374.6,264.3)" stroke="none" fill="black" font-family="Helvetica" font-size="12.00"  text-anchor="middle">
		<text><tspan font-family="Helvetica" > 1.45</tspan></text>
	</g>
</g>
<g fill="none" color="black" stroke="currentColor" stroke-width="1.00" stroke-linecap="butt" stroke-linejoin="miter">
</g>
<g fill="none" color="black" stroke="currentColor" stroke-width="1.00" stroke-linecap="butt" stroke-linejoin="miter">
	<path stroke='black'  d='M63.6,18.1 L63.6,242.4 L425.0,242.4 L425.0,18.1 L63.6,18.1 Z  '/></g>
<g fill="none" color="black" stroke="currentColor" stroke-width="1.00" stroke-linecap="butt" stroke-linejoin="miter">
	<g transform="translate(16.3,130.3) rotate(270)" stroke="none" fill="black" font-family="Helvetica" font-size="12.00"  text-anchor="middle">
		<text><tspan font-family="Helvetica" >Density (a.u.)</tspan></text>
	</g>
</g>
<g fill="none" color="black" stroke="currentColor" stroke-width="1.00" stroke-linecap="butt" stroke-linejoin="miter">
	<g transform="translate(244.3,291.3)" stroke="none" fill="black" font-family="Helvetica" font-size="12.00"  text-anchor="middle">
		<text><tspan font-family="Helvetica" >Average time (ms)</tspan></text>
	</g>
</g>
<g fill="none" color="black" stroke="currentColor" stroke-width="1.00" stroke-linecap="butt" stroke-linejoin="miter">
</g>
	<g id="gnuplot_plot_1" ><title>PDF</title>
<g fill="none" color="black" stroke="currentColor" stroke-width="1.00" stroke-linecap="butt" stroke-linejoin="miter">
	<g stroke='none' shape-rendering='crispEdges'>
		<polygon fill = 'rgb( 31, 120, 180)' fill-opacity = '0.250000' points = '63.6,241.7 64.3,241.6 65.0,241.5 65.8,241.3 66.5,241.1 67.2,240.9 67.9,240.7 68.7,240.4 69.4,240.1 70.1,239.8 70.8,239.4 71.6,239.0 72.3,238.5 73.0,238.0 73.7,237.4 74.5,236.8
75.2,236.0 75.9,235.2 76.6,234.3 77.4,233.3 78.1,232.2 78.8,231.0 79.5,229.6 80.3,228.2 81.0,226.6 81.7,224.8 82.4,223.0 83.2,220.9 83.9,218.7 84.6,216.3 85.3,213.8 86.1,211.0
86.8,208.1 87.5,205.0 88.2,201.6 88.9,198.1 89.7,194.3 90.4,190.4 91.1,186.2 91.8,181.9 92.6,177.3 93.3,172.6 94.0,167.6 94.7,162.5 95.5,157.1 96.2,151.7 96.9,146.0 97.6,140.3
98.4,134.4 99.1,128.4 99.8,122.3 100.5,116.2 101.3,110.0 102.0,103.8 102.7,97.7 103.4,91.5 104.2,85.5 104.9,79.5 105.6,73.7 106.3,68.0 107.1,62.4 107.8,57.1 108.5,52.1 109.2,47.2
110.0,42.7 110.7,38.5 111.4,34.7 112.1,31.2 112.8,28.0 113.6,25.3 114.3,23.0 115.0,21.1 115.7,19.7 116.5,18.7 117.2,18.2 117.9,18.1 118.6,18.5 119.4,19.3 120.1,20.6 120.8,22.3
121.5,24.4 122.3,27.0 123.0,29.9 123.7,33.2 124.4,36.9 125.2,40.9 125.9,45.3 126.6,49.9 127.3,54.8 128.1,59.9 128.8,65.2 129.5,70.7 130.2,76.3 131.0,82.1 131.7,88.0 132.4,93.9
133.1,99.9 133.9,105.9 134.6,111.9 135.3,117.9 136.0,123.8 136.7,129.6 137.5,135.3 138.2,141.0 138.9,146.5 139.6,151.8 140.4,157.1 141.1,162.1 141.8,167.0 142.5,171.7 143.3,176.2 144.0,180.6
144.7,184.7 145.4,188.7 146.2,192.4 146.9,196.0 147.6,199.4 148.3,202.6 149.1,205.6 149.8,208.4 150.5,211.1 151.2,213.6 152.0,215.9 152.7,218.1 153.4,220.1 154.1,222.0 154.9,223.7 155.6,225.4
156.3,226.8 157.0,228.2 157.8,229.5 158.5,230.7 159.2,231.7 159.9,232.7 160.6,233.6 161.4,234.5 162.1,235.2 162.8,235.9 163.5,236.5 164.3,237.1 165.0,237.6 165.7,238.1 166.4,238.5 167.2,238.9
167.9,239.3 168.6,239.6 169.3,239.9 170.1,240.1 170.8,240.4 171.5,240.6 172.2,240.8 173.0,240.9 173.7,241.1 174.4,241.2 175.1,241.3 175.9,241.4 176.6,241.5 177.3,241.6 178.0,241.7 178.8,241.7
179.5,241.8 180.2,241.8 180.9,241.8 181.7,241.8 182.4,241.9 183.1,241.9 183.8,241.9 184.5,241.9 185.3,241.8 186.0,241.8 186.7,241.8 187.4,241.7 188.2,241.7 188.9,241.7 189.6,241.6 190.3,241.5
191.1,241.5 191.8,241.4 192.5,241.3 193.2,241.2 194.0,241.1 194.7,241.0 195.4,240.9 196.1,240.8 196.9,240.6 197.6,240.5 198.3,240.3 199.0,240.2 199.8,240.0 200.5,239.9 201.2,239.7 201.9,239.5
202.7,239.3 203.4,239.1 204.1,238.9 204.8,238.7 205.6,238.5 206.3,238.3 207.0,238.0 207.7,237.8 208.4,237.6 209.2,237.4 209.9,237.1 210.6,236.9 211.3,236.7 212.1,236.4 212.8,236.2 213.5,236.0
214.2,235.8 215.0,235.5 215.7,235.3 216.4,235.1 217.1,234.9 217.9,234.7 218.6,234.6 219.3,234.4 220.0,234.2 220.8,234.1 221.5,233.9 222.2,233.8 222.9,233.7 223.7,233.6 224.4,233.5 225.1,233.5
225.8,233.4 226.6,233.4 227.3,233.4 228.0,233.4 228.7,233.4 229.5,233.4 230.2,233.5 230.9,233.5 231.6,233.6 232.3,233.7 233.1,233.8 233.8,233.9 234.5,234.0 235.2,234.2 236.0,234.3 236.7,234.5
237.4,234.6 238.1,234.8 238.9,235.0 239.6,235.2 240.3,235.4 241.0,235.6 241.8,235.8 242.5,236.0 243.2,236.2 243.9,236.4 244.7,236.6 245.4,236.8 246.1,237.0 246.8,237.2 247.6,237.4 248.3,237.6
249.0,237.8 249.7,238.0 250.5,238.2 251.2,238.3 251.9,238.5 252.6,238.6 253.4,238.8 254.1,238.9 254.8,239.1 255.5,239.2 256.3,239.3 257.0,239.4 257.7,239.5 258.4,239.5 259.1,239.6 259.9,239.7
260.6,239.7 261.3,239.8 262.0,239.8 262.8,239.9 263.5,239.9 264.2,239.9 264.9,239.9 265.7,239.9 266.4,239.9 267.1,239.9 267.8,239.9 268.6,239.9 269.3,239.9 270.0,239.9 270.7,239.9 271.5,239.9
272.2,239.9 272.9,239.8 273.6,239.8 274.4,239.8 275.1,239.8 275.8,239.8 276.5,239.8 277.3,239.8 278.0,239.8 278.7,239.8 279.4,239.8 280.2,239.9 280.9,239.9 281.6,239.9 282.3,239.9 283.0,240.0
283.8,240.0 284.5,240.0 285.2,240.1 285.9,240.1 286.7,240.2 287.4,240.2 288.1,240.3 288.8,240.3 289.6,240.4 290.3,240.5 291.0,240.5 291.7,240.6 292.5,240.7 293.2,240.7 293.9,240.8 294.6,240.9
295.4,240.9 296.1,241.0 296.8,241.1 297.5,241.1 298.3,241.2 299.0,241.3 299.7,241.3 300.4,241.4 301.2,241.5 301.9,241.5 302.6,241.6 303.3,241.6 304.1,241.7 304.8,241.7 305.5,241.8 306.2,241.8
306.9,241.9 307.7,241.9 308.4,242.0 309.1,242.0 309.8,242.0 310.6,242.1 311.3,242.1 312.0,242.1 312.7,242.1 313.5,242.2 314.2,242.2 314.9,242.2 315.6,242.2 316.4,242.2 317.1,242.3 317.8,242.3
318.5,242.3 319.3,242.3 320.0,242.3 320.7,242.3 321.4,242.3 322.2,242.3 322.9,242.3 323.6,242.3 324.3,242.4 325.1,242.4 325.8,242.4 326.5,242.4 327.2,242.4 328.0,242.4 328.7,242.4 329.4,242.4
330.1,242.4 330.8,242.4 331.6,242.4 332.3,242.4 333.0,242.4 333.7,242.3 334.5,242.3 335.2,242.3 335.9,242.3 336.6,242.3 337.4,242.3 338.1,242.3 338.8,242.3 339.5,242.3 340.3,242.3 341.0,242.2
341.7,242.2 342.4,242.2 343.2,242.2 343.9,242.2 344.6,242.1 345.3,242.1 346.1,242.1 346.8,242.1 347.5,242.0 348.2,242.0 349.0,242.0 349.7,241.9 350.4,241.9 351.1,241.8 351.9,241.8 352.6,241.7
353.3,241.7 354.0,241.6 354.7,241.6 355.5,241.5 356.2,241.5 356.9,241.4 357.6,241.3 358.4,241.3 359.1,241.2 359.8,241.1 360.5,241.1 361.3,241.0 362.0,240.9 362.7,240.9 363.4,240.8 364.2,240.7
364.9,240.7 365.6,240.6 366.3,240.5 367.1,240.5 367.8,240.4 368.5,240.3 369.2,240.3 370.0,240.2 370.7,240.2 371.4,240.1 372.1,240.1 372.9,240.1 373.6,240.0 374.3,240.0 375.0,240.0 375.8,240.0
376.5,239.9 377.2,239.9 377.9,239.9 378.6,239.9 379.4,239.9 380.1,240.0 380.8,240.0 381.5,240.0 382.3,240.0 383.0,240.1 383.7,240.1 384.4,240.1 385.2,240.2 385.9,240.2 386.6,240.3 387.3,240.3
388.1,240.4 388.8,240.5 389.5,240.5 390.2,240.6 391.0,240.6 391.7,240.7 392.4,240.8 393.1,240.9 393.9,240.9 394.6,241.0 395.3,241.1 396.0,241.1 396.8,241.2 397.5,241.3 398.2,241.3 398.9,241.4
399.7,241.4 400.4,241.5 401.1,241.6 401.8,241.6 402.5,241.7 403.3,241.7 404.0,241.8 404.7,241.8 405.4,241.9 406.2,241.9 406.9,241.9 407.6,242.0 408.3,242.0 409.1,242.1 409.8,242.1 410.5,242.1
411.2,242.1 412.0,242.2 412.7,242.2 413.4,242.2 414.1,242.2 414.9,242.2 415.6,242.3 416.3,242.3 417.0,242.3 417.8,242.3 418.5,242.3 419.2,242.3 419.9,242.3 420.7,242.3 421.4,242.3 422.1,242.4
422.8,242.4 423.6,242.4 424.3,242.4 425.0,242.4 425.0,242.4 424.3,242.4 423.6,242.4 422.8,242.4 422.1,242.4 421.4,242.4 420.7,242.4 419.9,242.4 419.2,242.4 418.5,242.4 417.8,242.4 417.0,242.4
416.3,242.4 415.6,242.4 414.9,242.4 414.1,242.4 413.4,242.4 412.7,242.4 412.0,242.4 411.2,242.4 410.5,242.4 409.8,242.4 409.1,242.4 408.3,242.4 407.6,242.4 406.9,242.4 406.2,242.4 405.4,242.4
404.7,242.4 404.0,242.4 403.3,242.4 402.5,242.4 401.8,242.4 401.1,242.4 400.4,242.4 399.7,242.4 398.9,242.4 398.2,242.4 397.5,242.4 396.8,242.4 396.0,242.4 395.3,242.4 394.6,242.4 393.9,242.4
393.1,242.4 392.4,242.4 391.7,242.4 391.0,242.4 390.2,242.4 389.5,242.4 388.8,242.4 388.1,242.4 387.3,242.4 386.6,242.4 385.9,242.4 385.2,242.4 384.4,242.4 383.7,242.4 383.0,242.4 382.3,242.4
381.5,242.4 380.8,242.4 380.1,242.4 379.4,242.4 378.6,242.4 377.9,242.4 377.2,242.4 376.5,242.4 375.8,242.4 375.0,242.4 374.3,242.4 373.6,242.4 372.9,242.4 372.1,242.4 371.4,242.4 370.7,242.4
370.0,242.4 369.2,242.4 368.5,242.4 367.8,242.4 367.1,242.4 366.3,242.4 365.6,242.4 364.9,242.4 364.2,242.4 363.4,242.4 362.7,242.4 362.0,242.4 361.3,242.4 360.5,242.4 359.8,242.4 359.1,242.4
358.4,242.4 357.6,242.4 356.9,242.4 356.2,242.4 355.5,242.4 354.7,242.4 354.0,242.4 353.3,242.4 352.6,242.4 351.9,242.4 351.1,242.4 350.4,242.4 349.7,242.4 349.0,242.4 348.2,242.4 347.5,242.4
346.8,242.4 346.1,242.4 345.3,242.4 344.6,242.4 343.9,242.4 343.2,242.4 342.4,242.4 341.7,242.4 341.0,242.4 340.3,242.4 339.5,242.4 338.8,242.4 338.1,242.4 337.4,242.4 336.6,242.4 335.9,242.4
335.2,242.4 334.5,242.4 333.7,242.4 333.0,242.4 332.3,242.4 331.6,242.4 330.8,242.4 330.1,242.4 329.4,242.4 328.7,242.4 328.0,242.4 327.2,242.4 326.5,242.4 325.8,242.4 325.1,242.4 324.3,242.4
323.6,242.4 322.9,242.4 322.2,242.4 321.4,242.4 320.7,242.4 320.0,242.4 319.3,242.4 318.5,242.4 317.8,242.4 317.1,242.4 316.4,242.4 315.6,242.4 314.9,242.4 314.2,242.4 313.5,242.4 312.7,242.4
312.0,242.4 311.3,242.4 310.6,242.4 309.8,242.4 309.1,242.4 308.4,242.4 307.7,242.4 306.9,242.4 306.2,242.4 305.5,242.4 304.8,242.4 304.1,242.4 303.3,242.4 302.6,242.4 301.9,242.4 301.2,242.4
300.4,242.4 299.7,242.4 299.0,242.4 298.3,242.4 297.5,242.4 296.8,242.4 296.1,242.4 295.4,242.4 294.6,242.4 293.9,242.4 293.2,242.4 292.5,242.4 291.7,242.4 291.0,242.4 290.3,242.4 289.6,242.4
288.8,242.4 288.1,242.4 287.4,242.4 286.7,242.4 285.9,242.4 285.2,242.4 284.5,242.4 283.8,242.4 283.0,242.4 282.3,242.4 281.6,242.4 280.9,242.4 280.2,242.4 279.4,242.4 278.7,242.4 278.0,242.4
277.3,242.4 276.5,242.4 275.8,242.4 275.1,242.4 274.4,242.4 273.6,242.4 272.9,242.4 272.2,242.4 271.5,242.4 270.7,242.4 270.0,242.4 269.3,242.4 268.6,242.4 267.8,242.4 267.1,242.4 266.4,242.4
265.7,242.4 264.9,242.4 264.2,242.4 263.5,242.4 262.8,242.4 262.0,242.4 261.3,242.4 260.6,242.4 259.9,242.4 259.1,242.4 258.4,242.4 257.7,242.4 257.0,242.4 256.3,242.4 255.5,242.4 254.8,242.4
254.1,242.4 253.4,242.4 252.6,242.4 251.9,242.4 251.2,242.4 250.5,242.4 249.7,242.4 249.0,242.4 248.3,242.4 247.6,242.4 246.8,242.4 246.1,242.4 245.4,242.4 244.7,242.4 243.9,242.4 243.2,242.4
242.5,242.4 241.8,242.4 241.0,242.4 240.3,242.4 239.6,242.4 238.9,242.4 238.1,242.4 237.4,242.4 236.7,242.4 236.0,242.4 235.2,242.4 234.5,242.4 233.8,242.4 233.1,242.4 232.3,242.4 231.6,242.4
230.9,242.4 230.2,242.4 229.5,242.4 228.7,242.4 228.0,242.4 227.3,242.4 226.6,242.4 225.8,242.4 225.1,242.4 224.4,242.4 223.7,242.4 222.9,242.4 222.2,242.4 221.5,242.4 220.8,242.4 220.0,242.4
219.3,242.4 218.6,242.4 217.9,242.4 217.1,242.4 216.4,242.4 215.7,242.4 215.0,242.4 214.2,242.4 213.5,242.4 212.8,242.4 212.1,242.4 211.3,242.4 210.6,242.4 209.9,242.4 209.2,242.4 208.4,242.4
207.7,242.4 207.0,242.4 206.3,242.4 205.6,242.4 204.8,242.4 204.1,242.4 203.4,242.4 202.7,242.4 201.9,242.4 201.2,242.4 200.5,242.4 199.8,242.4 199.0,242.4 198.3,242.4 197.6,242.4 196.9,242.4
196.1,242.4 195.4,242.4 194.7,242.4 194.0,242.4 193.2,242.4 192.5,242.4 191.8,242.4 191.1,242.4 190.3,242.4 189.6,242.4 188.9,242.4 188.2,242.4 187.4,242.4 186.7,242.4 186.0,242.4 185.3,242.4
184.5,242.4 183.8,242.4 183.1,242.4 182.4,242.4 181.7,242.4 180.9,242.4 180.2,242.4 179.5,242.4 178.8,242.4 178.0,242.4 177.3,242.4 176.6,242.4 175.9,242.4 175.1,242.4 174.4,242.4 173.7,242.4
173.0,242.4 172.2,242.4 171.5,242.4 170.8,242.4 170.1,242.4 169.3,242.4 168.6,242.4 167.9,242.4 167.2,242.4 166.4,242.4 165.7,242.4 165.0,242.4 164.3,242.4 163.5,242.4 162.8,242.4 162.1,242.4
161.4,242.4 160.6,242.4 159.9,242.4 159.2,242.4 158.5,242.4 157.8,242.4 157.0,242.4 156.3,242.4 155.6,242.4 154.9,242.4 154.1,242.4 153.4,242.4 152.7,242.4 152.0,242.4 151.2,242.4 150.5,242.4
149.8,242.4 149.1,242.4 148.3,242.4 147.6,242.4 146.9,242.4 146.2,242.4 145.4,242.4 144.7,242.4 144.0,242.4 143.3,242.4 142.5,242.4 141.8,242.4 141.1,242.4 140.4,242.4 139.6,242.4 138.9,242.4
138.2,242.4 137.5,242.4 136.7,242.4 136.0,242.4 135.3,242.4 134.6,242.4 133.9,242.4 133.1,242.4 132.4,242.4 131.7,242.4 131.0,242.4 130.2,242.4 129.5,242.4 128.8,242.4 128.1,242.4 127.3,242.4
126.6,242.4 125.9,242.4 125.2,242.4 124.4,242.4 123.7,242.4 123.0,242.4 122.3,242.4 121.5,242.4 120.8,242.4 120.1,242.4 119.4,242.4 118.6,242.4 117.9,242.4 117.2,242.4 116.5,242.4 115.7,242.4
115.0,242.4 114.3,242.4 113.6,242.4 112.8,242.4 112.1,242.4 111.4,242.4 110.7,242.4 110.0,242.4 109.2,242.4 108.5,242.4 107.8,242.4 107.1,242.4 106.3,242.4 105.6,242.4 104.9,242.4 104.2,242.4
103.4,242.4 102.7,242.4 102.0,242.4 101.3,242.4 100.5,242.4 99.8,242.4 99.1,242.4 98.4,242.4 97.6,242.4 96.9,242.4 96.2,242.4 95.5,242.4 94.7,242.4 94.0,242.4 93.3,242.4 92.6,242.4
91.8,242.4 91.1,242.4 90.4,242.4 89.7,242.4 88.9,242.4 88.2,242.4 87.5,242.4 86.8,242.4 86.1,242.4 85.3,242.4 84.6,242.4 83.9,242.4 83.2,242.4 82.4,242.4 81.7,242.4 81.0,242.4
80.3,242.4 79.5,242.4 78.8,242.4 78.1,242.4 77.4,242.4 76.6,242.4 75.9,242.4 75.2,242.4 74.5,242.4 73.7,242.4 73.0,242.4 72.3,242.4 71.6,242.4 70.8,242.4 70.1,242.4 69.4,242.4
68.7,242.4 67.9,242.4 67.2,242.4 66.5,242.4 65.8,242.4 65.0,242.4 64.3,242.4 63.6,242.4 '/>
	</g>
</g>
	</g>
	<g id="gnuplot_plot_2" ><title>Mean</title>
<g fill="none" color="white" stroke="rgb( 31, 120, 180)" stroke-width="2.00" stroke-linecap="butt" stroke-linejoin="miter">
</g>
<g fill="none" color="black" stroke="currentColor" stroke-width="2.00" stroke-linecap="butt" stroke-linejoin="miter">
	<path stroke='rgb( 31, 120, 180)'  d='M126.8,242.4 L126.8,68.4  '/></g>
	</g>
<g fill="none" color="black" stroke="currentColor" stroke-width="2.00" stroke-linecap="butt" stroke-linejoin="miter">
</g>
<g fill="none" color="black" stroke="black" stroke-width="1.00" stroke-linecap="butt" stroke-linejoin="miter">
</g>
<g fill="none" color="black" stroke="currentColor" stroke-width="1.00" stroke-linecap="butt" stroke-linejoin="miter">
	<path stroke='black'  d='M63.6,18.1 L63.6,242.4 L425.0,242.4 L425.0,18.1 L63.6,18.1 Z  '/></g>
<g fill="none" color="black" stroke="currentColor" stroke-width="1.00" stroke-linecap="butt" stroke-linejoin="miter">
</g>
</g>
</svg>

