<?xml version="1.0" encoding="utf-8"  standalone="no"?>
<svg 
 viewBox="0 0 1280 720"
 xmlns="http://www.w3.org/2000/svg"
 xmlns:xlink="http://www.w3.org/1999/xlink"
>

<title>Gnuplot</title>
<desc>Produced by GNUPLOT 5.2 patchlevel 6 </desc>

<g id="gnuplot_canvas">

<rect x="0" y="0" width="1280" height="720" fill="none"/>
<defs>

	<circle id='gpDot' r='0.5' stroke-width='0.5' stroke='currentColor'/>
	<path id='gpPt0' stroke-width='0.222' stroke='currentColor' d='M-1,0 h2 M0,-1 v2'/>
	<path id='gpPt1' stroke-width='0.222' stroke='currentColor' d='M-1,-1 L1,1 M1,-1 L-1,1'/>
	<path id='gpPt2' stroke-width='0.222' stroke='currentColor' d='M-1,0 L1,0 M0,-1 L0,1 M-1,-1 L1,1 M-1,1 L1,-1'/>
	<rect id='gpPt3' stroke-width='0.222' stroke='currentColor' x='-1' y='-1' width='2' height='2'/>
	<rect id='gpPt4' stroke-width='0.222' stroke='currentColor' fill='currentColor' x='-1' y='-1' width='2' height='2'/>
	<circle id='gpPt5' stroke-width='0.222' stroke='currentColor' cx='0' cy='0' r='1'/>
	<use xlink:href='#gpPt5' id='gpPt6' fill='currentColor' stroke='none'/>
	<path id='gpPt7' stroke-width='0.222' stroke='currentColor' d='M0,-1.33 L-1.33,0.67 L1.33,0.67 z'/>
	<use xlink:href='#gpPt7' id='gpPt8' fill='currentColor' stroke='none'/>
	<use xlink:href='#gpPt7' id='gpPt9' stroke='currentColor' transform='rotate(180)'/>
	<use xlink:href='#gpPt9' id='gpPt10' fill='currentColor' stroke='none'/>
	<use xlink:href='#gpPt3' id='gpPt11' stroke='currentColor' transform='rotate(45)'/>
	<use xlink:href='#gpPt11' id='gpPt12' fill='currentColor' stroke='none'/>
	<path id='gpPt13' stroke-width='0.222' stroke='currentColor' d='M0,1.330 L1.265,0.411 L0.782,-1.067 L-0.782,-1.076 L-1.265,0.411 z'/>
	<use xlink:href='#gpPt13' id='gpPt14' fill='currentColor' stroke='none'/>
	<filter id='textbox' filterUnits='objectBoundingBox' x='0' y='0' height='1' width='1'>
	  <feFlood flood-color='white' flood-opacity='1' result='bgnd'/>
	  <feComposite in='SourceGraphic' in2='bgnd' operator='atop'/>
	</filter>
	<filter id='greybox' filterUnits='objectBoundingBox' x='0' y='0' height='1' width='1'>
	  <feFlood flood-color='lightgrey' flood-opacity='1' result='grey'/>
	  <feComposite in='SourceGraphic' in2='grey' operator='atop'/>
	</filter>
</defs>
<g fill="none" color="white" stroke="currentColor" stroke-width="1.00" stroke-linecap="butt" stroke-linejoin="miter">
</g>
<g fill="none" color="black" stroke="currentColor" stroke-width="1.00" stroke-linecap="butt" stroke-linejoin="miter">
	<path stroke='black'  d='M80.2,662.4 L89.2,662.4  '/>	<g transform="translate(71.9,666.3)" stroke="none" fill="black" font-family="Helvetica" font-size="12.00"  text-anchor="end">
		<text><tspan font-family="Helvetica" > 0</tspan></text>
	</g>
</g>
<g fill="none" color="black" stroke="currentColor" stroke-width="1.00" stroke-linecap="butt" stroke-linejoin="miter">
	<path stroke='black'  d='M80.2,575.5 L89.2,575.5  '/>	<g transform="translate(71.9,579.4)" stroke="none" fill="black" font-family="Helvetica" font-size="12.00"  text-anchor="end">
		<text><tspan font-family="Helvetica" > 0.01</tspan></text>
	</g>
</g>
<g fill="none" color="black" stroke="currentColor" stroke-width="1.00" stroke-linecap="butt" stroke-linejoin="miter">
	<path stroke='black'  d='M80.2,488.6 L89.2,488.6  '/>	<g transform="translate(71.9,492.5)" stroke="none" fill="black" font-family="Helvetica" font-size="12.00"  text-anchor="end">
		<text><tspan font-family="Helvetica" > 0.02</tspan></text>
	</g>
</g>
<g fill="none" color="black" stroke="currentColor" stroke-width="1.00" stroke-linecap="butt" stroke-linejoin="miter">
	<path stroke='black'  d='M80.2,401.7 L89.2,401.7  '/>	<g transform="translate(71.9,405.6)" stroke="none" fill="black" font-family="Helvetica" font-size="12.00"  text-anchor="end">
		<text><tspan font-family="Helvetica" > 0.03</tspan></text>
	</g>
</g>
<g fill="none" color="black" stroke="currentColor" stroke-width="1.00" stroke-linecap="butt" stroke-linejoin="miter">
	<path stroke='black'  d='M80.2,314.8 L89.2,314.8  '/>	<g transform="translate(71.9,318.7)" stroke="none" fill="black" font-family="Helvetica" font-size="12.00"  text-anchor="end">
		<text><tspan font-family="Helvetica" > 0.04</tspan></text>
	</g>
</g>
<g fill="none" color="black" stroke="currentColor" stroke-width="1.00" stroke-linecap="butt" stroke-linejoin="miter">
	<path stroke='black'  d='M80.2,227.9 L89.2,227.9  '/>	<g transform="translate(71.9,231.8)" stroke="none" fill="black" font-family="Helvetica" font-size="12.00"  text-anchor="end">
		<text><tspan font-family="Helvetica" > 0.05</tspan></text>
	</g>
</g>
<g fill="none" color="black" stroke="currentColor" stroke-width="1.00" stroke-linecap="butt" stroke-linejoin="miter">
	<path stroke='black'  d='M80.2,141.0 L89.2,141.0  '/>	<g transform="translate(71.9,144.9)" stroke="none" fill="black" font-family="Helvetica" font-size="12.00"  text-anchor="end">
		<text><tspan font-family="Helvetica" > 0.06</tspan></text>
	</g>
</g>
<g fill="none" color="black" stroke="currentColor" stroke-width="1.00" stroke-linecap="butt" stroke-linejoin="miter">
	<path stroke='black'  d='M80.2,54.1 L89.2,54.1  '/>	<g transform="translate(71.9,58.0)" stroke="none" fill="black" font-family="Helvetica" font-size="12.00"  text-anchor="end">
		<text><tspan font-family="Helvetica" > 0.07</tspan></text>
	</g>
</g>
<g fill="none" color="black" stroke="currentColor" stroke-width="1.00" stroke-linecap="butt" stroke-linejoin="miter">
	<path stroke='black'  d='M139.3,662.4 L139.3,653.4  '/>	<g transform="translate(139.3,684.3)" stroke="none" fill="black" font-family="Helvetica" font-size="12.00"  text-anchor="middle">
		<text><tspan font-family="Helvetica" > 10</tspan></text>
	</g>
</g>
<g fill="none" color="black" stroke="currentColor" stroke-width="1.00" stroke-linecap="butt" stroke-linejoin="miter">
	<path stroke='black'  d='M296.6,662.4 L296.6,653.4  '/>	<g transform="translate(296.6,684.3)" stroke="none" fill="black" font-family="Helvetica" font-size="12.00"  text-anchor="middle">
		<text><tspan font-family="Helvetica" > 15</tspan></text>
	</g>
</g>
<g fill="none" color="black" stroke="currentColor" stroke-width="1.00" stroke-linecap="butt" stroke-linejoin="miter">
	<path stroke='black'  d='M453.8,662.4 L453.8,653.4  '/>	<g transform="translate(453.8,684.3)" stroke="none" fill="black" font-family="Helvetica" font-size="12.00"  text-anchor="middle">
		<text><tspan font-family="Helvetica" > 20</tspan></text>
	</g>
</g>
<g fill="none" color="black" stroke="currentColor" stroke-width="1.00" stroke-linecap="butt" stroke-linejoin="miter">
	<path stroke='black'  d='M611.0,662.4 L611.0,653.4  '/>	<g transform="translate(611.0,684.3)" stroke="none" fill="black" font-family="Helvetica" font-size="12.00"  text-anchor="middle">
		<text><tspan font-family="Helvetica" > 25</tspan></text>
	</g>
</g>
<g fill="none" color="black" stroke="currentColor" stroke-width="1.00" stroke-linecap="butt" stroke-linejoin="miter">
	<path stroke='black'  d='M768.3,662.4 L768.3,653.4  '/>	<g transform="translate(768.3,684.3)" stroke="none" fill="black" font-family="Helvetica" font-size="12.00"  text-anchor="middle">
		<text><tspan font-family="Helvetica" > 30</tspan></text>
	</g>
</g>
<g fill="none" color="black" stroke="currentColor" stroke-width="1.00" stroke-linecap="butt" stroke-linejoin="miter">
	<path stroke='black'  d='M925.5,662.4 L925.5,653.4  '/>	<g transform="translate(925.5,684.3)" stroke="none" fill="black" font-family="Helvetica" font-size="12.00"  text-anchor="middle">
		<text><tspan font-family="Helvetica" > 35</tspan></text>
	</g>
</g>
<g fill="none" color="black" stroke="currentColor" stroke-width="1.00" stroke-linecap="butt" stroke-linejoin="miter">
</g>
<g fill="none" color="black" stroke="currentColor" stroke-width="1.00" stroke-linecap="butt" stroke-linejoin="miter">
	<path stroke='black'  d='M80.2,54.1 L80.2,662.4 L1013.6,662.4 L1013.6,54.1 L80.2,54.1 Z  '/></g>
<g fill="none" color="black" stroke="currentColor" stroke-width="1.00" stroke-linecap="butt" stroke-linejoin="miter">
	<g transform="translate(16.3,358.3) rotate(270)" stroke="none" fill="black" font-family="Helvetica" font-size="12.00"  text-anchor="middle">
		<text><tspan font-family="Helvetica" >Density (a.u.)</tspan></text>
	</g>
</g>
<g fill="none" color="black" stroke="currentColor" stroke-width="1.00" stroke-linecap="butt" stroke-linejoin="miter">
	<g transform="translate(546.9,711.3)" stroke="none" fill="black" font-family="Helvetica" font-size="12.00"  text-anchor="middle">
		<text><tspan font-family="Helvetica" >Average time (us)</tspan></text>
	</g>
</g>
<g fill="none" color="black" stroke="currentColor" stroke-width="1.00" stroke-linecap="butt" stroke-linejoin="miter">
	<g transform="translate(546.9,31.0)" stroke="none" fill="black" font-family="Helvetica" font-size="12.00"  text-anchor="middle">
		<text><tspan font-family="Helvetica" >snapshot_restore_with_dense/Sparse: Entire region + process_vm_writev w/ page size/215: SD</tspan></text>
	</g>
</g>
	<g id="gnuplot_plot_1" ><title>Bootstrap distribution</title>
<g fill="none" color="white" stroke="black" stroke-width="2.00" stroke-linecap="butt" stroke-linejoin="miter">
</g>
<g fill="none" color="black" stroke="currentColor" stroke-width="2.00" stroke-linecap="butt" stroke-linejoin="miter">
	<g transform="translate(1089.0,67.0)" stroke="none" fill="black" font-family="Helvetica" font-size="12.00"  text-anchor="start">
		<text><tspan font-family="Helvetica" >Bootstrap distribution</tspan></text>
	</g>
</g>
<g fill="none" color="black" stroke="currentColor" stroke-width="2.00" stroke-linecap="butt" stroke-linejoin="miter">
	<path stroke='rgb( 31, 120, 180)'  d='M1038.5,63.1 L1080.7,63.1 M80.2,628.5 L82.1,629.4 L83.9,630.4 L85.8,631.5 L87.7,632.6 L89.6,633.7
		L91.4,634.7 L93.3,635.6 L95.2,636.5 L97.0,637.2 L98.9,637.7 L100.8,638.1 L102.6,638.3 L104.5,638.2
		L106.4,637.9 L108.3,637.3 L110.1,636.4 L112.0,635.2 L113.9,633.7 L115.7,631.9 L117.6,629.9 L119.5,627.5
		L121.4,624.9 L123.2,622.0 L125.1,618.9 L127.0,615.7 L128.8,612.2 L130.7,608.7 L132.6,605.1 L134.4,601.4
		L136.3,597.8 L138.2,594.2 L140.1,590.7 L141.9,587.4 L143.8,584.3 L145.7,581.4 L147.5,578.7 L149.4,576.4
		L151.3,574.4 L153.2,572.7 L155.0,571.4 L156.9,570.3 L158.8,569.7 L160.6,569.3 L162.5,569.2 L164.4,569.3
		L166.2,569.7 L168.1,570.1 L170.0,570.7 L171.9,571.3 L173.7,571.9 L175.6,572.3 L177.5,572.6 L179.3,572.7
		L181.2,572.4 L183.1,571.9 L185.0,570.9 L186.8,569.5 L188.7,567.7 L190.6,565.5 L192.4,562.7 L194.3,559.6
		L196.2,556.0 L198.0,552.0 L199.9,547.7 L201.8,543.2 L203.7,538.4 L205.5,533.4 L207.4,528.5 L209.3,523.5
		L211.1,518.6 L213.0,513.9 L214.9,509.4 L216.7,505.3 L218.6,501.5 L220.5,498.0 L222.4,495.1 L224.2,492.5
		L226.1,490.4 L228.0,488.7 L229.8,487.4 L231.7,486.4 L233.6,485.7 L235.5,485.3 L237.3,485.0 L239.2,484.7
		L241.1,484.4 L242.9,484.1 L244.8,483.5 L246.7,482.7 L248.5,481.6 L250.4,480.1 L252.3,478.2 L254.2,475.9
		L256.0,473.2 L257.9,470.0 L259.8,466.5 L261.6,462.6 L263.5,458.5 L265.4,454.1 L267.3,449.6 L269.1,445.0
		L271.0,440.4 L272.9,436.0 L274.7,431.7 L276.6,427.6 L278.5,423.9 L280.3,420.5 L282.2,417.4 L284.1,414.8
		L286.0,412.5 L287.8,410.6 L289.7,409.0 L291.6,407.7 L293.4,406.6 L295.3,405.7 L297.2,404.8 L299.1,404.0
		L300.9,403.2 L302.8,402.2 L304.7,401.1 L306.5,399.8 L308.4,398.2 L310.3,396.4 L312.1,394.3 L314.0,391.9
		L315.9,389.3 L317.8,386.4 L319.6,383.4 L321.5,380.3 L323.4,377.0 L325.2,373.7 L327.1,370.5 L329.0,367.3
		L330.9,364.3 L332.7,361.4 L334.6,358.7 L336.5,356.2 L338.3,353.9 L340.2,351.7 L342.1,349.8 L343.9,348.0
		L345.8,346.4 L347.7,344.8 L349.6,343.4 L351.4,341.9 L353.3,340.4 L355.2,338.8 L357.0,337.2 L358.9,335.4
		L360.8,333.6 L362.7,331.6 L364.5,329.5 L366.4,327.3 L368.3,325.0 L370.1,322.6 L372.0,320.1 L373.9,317.7
		L375.7,315.2 L377.6,312.7 L379.5,310.3 L381.4,308.0 L383.2,305.7 L385.1,303.5 L387.0,301.5 L388.8,299.5
		L390.7,297.6 L392.6,295.8 L394.5,294.1 L396.3,292.5 L398.2,290.9 L400.1,289.3 L401.9,287.7 L403.8,286.1
		L405.7,284.5 L407.5,282.8 L409.4,281.1 L411.3,279.3 L413.2,277.4 L415.0,275.4 L416.9,273.3 L418.8,271.1
		L420.6,268.8 L422.5,266.4 L424.4,263.9 L426.3,261.4 L428.1,258.7 L430.0,256.0 L431.9,253.2 L433.7,250.5
		L435.6,247.6 L437.5,244.8 L439.3,242.0 L441.2,239.2 L443.1,236.3 L445.0,233.5 L446.8,230.8 L448.7,228.0
		L450.6,225.2 L452.4,222.4 L454.3,219.6 L456.2,216.7 L458.0,213.8 L459.9,210.9 L461.8,207.9 L463.7,204.9
		L465.5,201.8 L467.4,198.7 L469.3,195.5 L471.1,192.2 L473.0,189.0 L474.9,185.7 L476.8,182.3 L478.6,179.0
		L480.5,175.7 L482.4,172.4 L484.2,169.1 L486.1,165.8 L488.0,162.6 L489.8,159.4 L491.7,156.2 L493.6,153.0
		L495.5,149.9 L497.3,146.7 L499.2,143.6 L501.1,140.6 L502.9,137.6 L504.8,134.6 L506.7,131.7 L508.6,128.9
		L510.4,126.1 L512.3,123.5 L514.2,121.1 L516.0,118.8 L517.9,116.6 L519.8,114.7 L521.6,113.0 L523.5,111.4
		L525.4,110.1 L527.3,108.9 L529.1,107.9 L531.0,107.1 L532.9,106.5 L534.7,106.0 L536.6,105.6 L538.5,105.4
		L540.4,105.2 L542.2,105.1 L544.1,105.1 L546.0,105.2 L547.8,105.3 L549.7,105.5 L551.6,105.7 L553.4,106.0
		L555.3,106.3 L557.2,106.7 L559.1,107.1 L560.9,107.6 L562.8,108.1 L564.7,108.6 L566.5,109.3 L568.4,109.9
		L570.3,110.6 L572.2,111.3 L574.0,112.1 L575.9,112.9 L577.8,113.8 L579.6,114.7 L581.5,115.7 L583.4,116.7
		L585.2,117.8 L587.1,118.9 L589.0,120.1 L590.9,121.3 L592.7,122.6 L594.6,124.0 L596.5,125.4 L598.3,126.9
		L600.2,128.4 L602.1,130.0 L604.0,131.6 L605.8,133.3 L607.7,135.0 L609.6,136.7 L611.4,138.4 L613.3,140.2
		L615.2,141.9 L617.0,143.7 L618.9,145.5 L620.8,147.2 L622.7,149.0 L624.5,150.7 L626.4,152.5 L628.3,154.2
		L630.1,156.0 L632.0,157.7 L633.9,159.5 L635.8,161.2 L637.6,162.9 L639.5,164.6 L641.4,166.2 L643.2,167.9
		L645.1,169.5 L647.0,171.1 L648.8,172.7 L650.7,174.3 L652.6,175.8 L654.5,177.3 L656.3,178.8 L658.2,180.3
		L660.1,181.7 L661.9,183.1 L663.8,184.5 L665.7,185.9 L667.5,187.3 L669.4,188.7 L671.3,190.0 L673.2,191.4
		L675.0,192.8 L676.9,194.2 L678.8,195.6 L680.6,197.1 L682.5,198.6 L684.4,200.2 L686.3,201.8 L688.1,203.6
		L690.0,205.4 L691.9,207.2 L693.7,209.2 L695.6,211.3 L697.5,213.5 L699.3,215.8 L701.2,218.2 L703.1,220.8
		L705.0,223.4 L706.8,226.1 L708.7,229.0 L710.6,231.9 L712.4,234.9 L714.3,238.0 L716.2,241.2 L718.1,244.4
		L719.9,247.8 L721.8,251.1 L723.7,254.5 L725.5,258.0 L727.4,261.5 L729.3,265.0 L731.1,268.6 L733.0,272.2
		L734.9,275.8 L736.8,279.4 L738.6,283.1 L740.5,286.7 L742.4,290.4 L744.2,294.1 L746.1,297.7 L748.0,301.4
		L749.9,305.1 L751.7,308.9 L753.6,312.6 L755.5,316.3 L757.3,320.1 L759.2,323.8 L761.1,327.6 L762.9,331.4
		L764.8,335.2 L766.7,338.9 L768.6,342.7 L770.4,346.5 L772.3,350.3 L774.2,354.0 L776.0,357.8 L777.9,361.5
		L779.8,365.2 L781.7,368.9 L783.5,372.5 L785.4,376.1 L787.3,379.6 L789.1,383.1 L791.0,386.5 L792.9,389.9
		L794.7,393.2 L796.6,396.4 L798.5,399.6 L800.4,402.7 L802.2,405.7 L804.1,408.7 L806.0,411.6 L807.8,414.4
		L809.7,417.2 L811.6,419.9 L813.5,422.6 L815.3,425.2 L817.2,427.8 L819.1,430.4 L820.9,432.9 L822.8,435.4
		L824.7,437.9 L826.5,440.3 L828.4,442.8 L830.3,445.2 L832.2,447.7 L834.0,450.1 L835.9,452.6 L837.8,455.1
		L839.6,457.6 L841.5,460.1 L843.4,462.7 L845.3,465.3 L847.1,467.8 L849.0,470.5 L850.9,473.1 L852.7,475.8
		L854.6,478.5 L856.5,481.2 L858.3,483.9 L860.2,486.6 L862.1,489.3 L864.0,492.0 L865.8,494.7 L867.7,497.4
		L869.6,500.1 L871.4,502.7 L873.3,505.4 L875.2,508.0 L877.1,510.7 L878.9,513.2 L880.8,515.8 L882.7,518.4
		L884.5,520.9 L886.4,523.4 L888.3,525.9 L890.1,528.4 L892.0,530.9 L893.9,533.3 L895.8,535.8 L897.6,538.2
		L899.5,540.6 L901.4,542.9 L903.2,545.3 L905.1,547.6 L907.0,549.9 L908.8,552.2 L910.7,554.4 L912.6,556.7
		L914.5,558.9 L916.3,561.0 L918.2,563.1 L920.1,565.2 L921.9,567.2 L923.8,569.2 L925.7,571.2 L927.6,573.1
		L929.4,575.0 L931.3,576.8 L933.2,578.6 L935.0,580.3 L936.9,582.0 L938.8,583.7 L940.6,585.3 L942.5,586.8
		L944.4,588.3 L946.3,589.8 L948.1,591.2 L950.0,592.6 L951.9,594.0 L953.7,595.3 L955.6,596.7 L957.5,597.9
		L959.4,599.2 L961.2,600.4 L963.1,601.6 L965.0,602.7 L966.8,603.9 L968.7,605.0 L970.6,606.1 L972.4,607.2
		L974.3,608.3 L976.2,609.3 L978.1,610.4 L979.9,611.4 L981.8,612.4 L983.7,613.4 L985.5,614.4 L987.4,615.4
		L989.3,616.4 L991.2,617.3 L993.0,618.3 L994.9,619.3 L996.8,620.2 L998.6,621.2 L1000.5,622.1 L1002.4,623.1
		L1004.2,624.0 L1006.1,625.0 L1008.0,625.9 L1009.9,626.8 L1011.7,627.8 L1013.6,628.7  '/></g>
	</g>
	<g id="gnuplot_plot_2" ><title>Confidence interval</title>
<g fill="none" color="white" stroke="rgb( 31, 120, 180)" stroke-width="1.00" stroke-linecap="butt" stroke-linejoin="miter">
</g>
<g fill="none" color="black" stroke="currentColor" stroke-width="1.00" stroke-linecap="butt" stroke-linejoin="miter">
	<g transform="translate(1089.0,85.0)" stroke="none" fill="black" font-family="Helvetica" font-size="12.00"  text-anchor="start">
		<text><tspan font-family="Helvetica" >Confidence interval</tspan></text>
	</g>
</g>
<g fill="none" color="black" stroke="currentColor" stroke-width="1.00" stroke-linecap="butt" stroke-linejoin="miter">
	<g stroke='none' shape-rendering='crispEdges'>
		<polygon fill = 'rgb( 31, 120, 180)' fill-opacity = '0.250000' points = '1038.5,85.6 1080.7,85.6 1080.7,76.6 1038.5,76.6 '/>
		<polygon fill = 'rgb( 31, 120, 180)' fill-opacity = '0.250000' points = '166.2,569.7 168.1,570.1 170.0,570.7 171.9,571.3 173.7,571.9 175.6,572.3 177.5,572.6 179.3,572.7 181.2,572.4 183.1,571.9 185.0,570.9 186.8,569.5 188.7,567.7 190.6,565.5 192.4,562.7 194.3,559.6
196.2,556.0 198.0,552.0 199.9,547.7 201.8,543.2 203.7,538.4 205.5,533.4 207.4,528.5 209.3,523.5 211.1,518.6 213.0,513.9 214.9,509.4 216.7,505.3 218.6,501.5 220.5,498.0 222.4,495.1 224.2,492.5
226.1,490.4 228.0,488.7 229.8,487.4 231.7,486.4 233.6,485.7 235.5,485.3 237.3,485.0 239.2,484.7 241.1,484.4 242.9,484.1 244.8,483.5 246.7,482.7 248.5,481.6 250.4,480.1 252.3,478.2 254.2,475.9
256.0,473.2 257.9,470.0 259.8,466.5 261.6,462.6 263.5,458.5 265.4,454.1 267.3,449.6 269.1,445.0 271.0,440.4 272.9,436.0 274.7,431.7 276.6,427.6 278.5,423.9 280.3,420.5 282.2,417.4 284.1,414.8
286.0,412.5 287.8,410.6 289.7,409.0 291.6,407.7 293.4,406.6 295.3,405.7 297.2,404.8 299.1,404.0 300.9,403.2 302.8,402.2 304.7,401.1 306.5,399.8 308.4,398.2 310.3,396.4 312.1,394.3 314.0,391.9
315.9,389.3 317.8,386.4 319.6,383.4 321.5,380.3 323.4,377.0 325.2,373.7 327.1,370.5 329.0,367.3 330.9,364.3 332.7,361.4 334.6,358.7 336.5,356.2 338.3,353.9 340.2,351.7 342.1,349.8 343.9,348.0
345.8,346.4 347.7,344.8 349.6,343.4 351.4,341.9 353.3,340.4 355.2,338.8 357.0,337.2 358.9,335.4 360.8,333.6 362.7,331.6 364.5,329.5 366.4,327.3 368.3,325.0 370.1,322.6 372.0,320.1 373.9,317.7
375.7,315.2 377.6,312.7 379.5,310.3 381.4,308.0 383.2,305.7 385.1,303.5 387.0,301.5 388.8,299.5 390.7,297.6 392.6,295.8 394.5,294.1 396.3,292.5 398.2,290.9 400.1,289.3 401.9,287.7 403.8,286.1
405.7,284.5 407.5,282.8 409.4,281.1 411.3,279.3 413.2,277.4 415.0,275.4 416.9,273.3 418.8,271.1 420.6,268.8 422.5,266.4 424.4,263.9 426.3,261.4 428.1,258.7 430.0,256.0 431.9,253.2 433.7,250.5
435.6,247.6 437.5,244.8 439.3,242.0 441.2,239.2 443.1,236.3 445.0,233.5 446.8,230.8 448.7,228.0 450.6,225.2 452.4,222.4 454.3,219.6 456.2,216.7 458.0,213.8 459.9,210.9 461.8,207.9 463.7,204.9
465.5,201.8 467.4,198.7 469.3,195.5 471.1,192.2 473.0,189.0 474.9,185.7 476.8,182.3 478.6,179.0 480.5,175.7 482.4,172.4 484.2,169.1 486.1,165.8 488.0,162.6 489.8,159.4 491.7,156.2 493.6,153.0
495.5,149.9 497.3,146.7 499.2,143.6 501.1,140.6 502.9,137.6 504.8,134.6 506.7,131.7 508.6,128.9 510.4,126.1 512.3,123.5 514.2,121.1 516.0,118.8 517.9,116.6 519.8,114.7 521.6,113.0 523.5,111.4
525.4,110.1 527.3,108.9 529.1,107.9 531.0,107.1 532.9,106.5 534.7,106.0 536.6,105.6 538.5,105.4 540.4,105.2 542.2,105.1 544.1,105.1 546.0,105.2 547.8,105.3 549.7,105.5 551.6,105.7 553.4,106.0
555.3,106.3 557.2,106.7 559.1,107.1 560.9,107.6 562.8,108.1 564.7,108.6 566.5,109.3 568.4,109.9 570.3,110.6 572.2,111.3 574.0,112.1 575.9,112.9 577.8,113.8 579.6,114.7 581.5,115.7 583.4,116.7
585.2,117.8 587.1,118.9 589.0,120.1 590.9,121.3 592.7,122.6 594.6,124.0 596.5,125.4 598.3,126.9 600.2,128.4 602.1,130.0 604.0,131.6 605.8,133.3 607.7,135.0 609.6,136.7 611.4,138.4 613.3,140.2
615.2,141.9 617.0,143.7 618.9,145.5 620.8,147.2 622.7,149.0 624.5,150.7 626.4,152.5 628.3,154.2 630.1,156.0 632.0,157.7 633.9,159.5 635.8,161.2 637.6,162.9 639.5,164.6 641.4,166.2 643.2,167.9
645.1,169.5 647.0,171.1 648.8,172.7 650.7,174.3 652.6,175.8 654.5,177.3 656.3,178.8 658.2,180.3 660.1,181.7 661.9,183.1 663.8,184.5 665.7,185.9 667.5,187.3 669.4,188.7 671.3,190.0 673.2,191.4
675.0,192.8 676.9,194.2 678.8,195.6 680.6,197.1 682.5,198.6 684.4,200.2 686.3,201.8 688.1,203.6 690.0,205.4 691.9,207.2 693.7,209.2 695.6,211.3 697.5,213.5 699.3,215.8 701.2,218.2 703.1,220.8
705.0,223.4 706.8,226.1 708.7,229.0 710.6,231.9 712.4,234.9 714.3,238.0 716.2,241.2 718.1,244.4 719.9,247.8 721.8,251.1 723.7,254.5 725.5,258.0 727.4,261.5 729.3,265.0 731.1,268.6 733.0,272.2
734.9,275.8 736.8,279.4 738.6,283.1 740.5,286.7 742.4,290.4 744.2,294.1 746.1,297.7 748.0,301.4 749.9,305.1 751.7,308.9 753.6,312.6 755.5,316.3 757.3,320.1 759.2,323.8 761.1,327.6 762.9,331.4
764.8,335.2 766.7,338.9 768.6,342.7 770.4,346.5 772.3,350.3 774.2,354.0 776.0,357.8 777.9,361.5 779.8,365.2 781.7,368.9 783.5,372.5 785.4,376.1 787.3,379.6 789.1,383.1 791.0,386.5 792.9,389.9
794.7,393.2 796.6,396.4 798.5,399.6 800.4,402.7 802.2,405.7 804.1,408.7 806.0,411.6 807.8,414.4 809.7,417.2 811.6,419.9 813.5,422.6 815.3,425.2 817.2,427.8 819.1,430.4 820.9,432.9 822.8,435.4
824.7,437.9 826.5,440.3 828.4,442.8 830.3,445.2 832.2,447.7 834.0,450.1 835.9,452.6 837.8,455.1 839.6,457.6 841.5,460.1 843.4,462.7 845.3,465.3 847.1,467.8 849.0,470.5 850.9,473.1 852.7,475.8
854.6,478.5 856.5,481.2 858.3,483.9 860.2,486.6 862.1,489.3 864.0,492.0 865.8,494.7 867.7,497.4 869.6,500.1 871.4,502.7 873.3,505.4 875.2,508.0 877.1,510.7 878.9,513.2 880.8,515.8 882.7,518.4
884.5,520.9 886.4,523.4 888.3,525.9 890.1,528.4 892.0,530.9 893.9,533.3 895.8,535.8 897.6,538.2 899.5,540.6 901.4,542.9 903.2,545.3 905.1,547.6 907.0,549.9 908.8,552.2 910.7,554.4 912.6,556.7
914.5,558.9 916.3,561.0 918.2,563.1 920.1,565.2 921.9,567.2 923.8,569.2 925.7,571.2 925.7,662.4 923.8,662.4 921.9,662.4 920.1,662.4 918.2,662.4 916.3,662.4 914.5,662.4 912.6,662.4 910.7,662.4
908.8,662.4 907.0,662.4 905.1,662.4 903.2,662.4 901.4,662.4 899.5,662.4 897.6,662.4 895.8,662.4 893.9,662.4 892.0,662.4 890.1,662.4 888.3,662.4 886.4,662.4 884.5,662.4 882.7,662.4 880.8,662.4
878.9,662.4 877.1,662.4 875.2,662.4 873.3,662.4 871.4,662.4 869.6,662.4 867.7,662.4 865.8,662.4 864.0,662.4 862.1,662.4 860.2,662.4 858.3,662.4 856.5,662.4 854.6,662.4 852.7,662.4 850.9,662.4
849.0,662.4 847.1,662.4 845.3,662.4 843.4,662.4 841.5,662.4 839.6,662.4 837.8,662.4 835.9,662.4 834.0,662.4 832.2,662.4 830.3,662.4 828.4,662.4 826.5,662.4 824.7,662.4 822.8,662.4 820.9,662.4
819.1,662.4 817.2,662.4 815.3,662.4 813.5,662.4 811.6,662.4 809.7,662.4 807.8,662.4 806.0,662.4 804.1,662.4 802.2,662.4 800.4,662.4 798.5,662.4 796.6,662.4 794.7,662.4 792.9,662.4 791.0,662.4
789.1,662.4 787.3,662.4 785.4,662.4 783.5,662.4 781.7,662.4 779.8,662.4 777.9,662.4 776.0,662.4 774.2,662.4 772.3,662.4 770.4,662.4 768.6,662.4 766.7,662.4 764.8,662.4 762.9,662.4 761.1,662.4
759.2,662.4 757.3,662.4 755.5,662.4 753.6,662.4 751.7,662.4 749.9,662.4 748.0,662.4 746.1,662.4 744.2,662.4 742.4,662.4 740.5,662.4 738.6,662.4 736.8,662.4 734.9,662.4 733.0,662.4 731.1,662.4
729.3,662.4 727.4,662.4 725.5,662.4 723.7,662.4 721.8,662.4 719.9,662.4 718.1,662.4 716.2,662.4 714.3,662.4 712.4,662.4 710.6,662.4 708.7,662.4 706.8,662.4 705.0,662.4 703.1,662.4 701.2,662.4
699.3,662.4 697.5,662.4 695.6,662.4 693.7,662.4 691.9,662.4 690.0,662.4 688.1,662.4 686.3,662.4 684.4,662.4 682.5,662.4 680.6,662.4 678.8,662.4 676.9,662.4 675.0,662.4 673.2,662.4 671.3,662.4
669.4,662.4 667.5,662.4 665.7,662.4 663.8,662.4 661.9,662.4 660.1,662.4 658.2,662.4 656.3,662.4 654.5,662.4 652.6,662.4 650.7,662.4 648.8,662.4 647.0,662.4 645.1,662.4 643.2,662.4 641.4,662.4
639.5,662.4 637.6,662.4 635.8,662.4 633.9,662.4 632.0,662.4 630.1,662.4 628.3,662.4 626.4,662.4 624.5,662.4 622.7,662.4 620.8,662.4 618.9,662.4 617.0,662.4 615.2,662.4 613.3,662.4 611.4,662.4
609.6,662.4 607.7,662.4 605.8,662.4 604.0,662.4 602.1,662.4 600.2,662.4 598.3,662.4 596.5,662.4 594.6,662.4 592.7,662.4 590.9,662.4 589.0,662.4 587.1,662.4 585.2,662.4 583.4,662.4 581.5,662.4
579.6,662.4 577.8,662.4 575.9,662.4 574.0,662.4 572.2,662.4 570.3,662.4 568.4,662.4 566.5,662.4 564.7,662.4 562.8,662.4 560.9,662.4 559.1,662.4 557.2,662.4 555.3,662.4 553.4,662.4 551.6,662.4
549.7,662.4 547.8,662.4 546.0,662.4 544.1,662.4 542.2,662.4 540.4,662.4 538.5,662.4 536.6,662.4 534.7,662.4 532.9,662.4 531.0,662.4 529.1,662.4 527.3,662.4 525.4,662.4 523.5,662.4 521.6,662.4
519.8,662.4 517.9,662.4 516.0,662.4 514.2,662.4 512.3,662.4 510.4,662.4 508.6,662.4 506.7,662.4 504.8,662.4 502.9,662.4 501.1,662.4 499.2,662.4 497.3,662.4 495.5,662.4 493.6,662.4 491.7,662.4
489.8,662.4 488.0,662.4 486.1,662.4 484.2,662.4 482.4,662.4 480.5,662.4 478.6,662.4 476.8,662.4 474.9,662.4 473.0,662.4 471.1,662.4 469.3,662.4 467.4,662.4 465.5,662.4 463.7,662.4 461.8,662.4
459.9,662.4 458.0,662.4 456.2,662.4 454.3,662.4 452.4,662.4 450.6,662.4 448.7,662.4 446.8,662.4 445.0,662.4 443.1,662.4 441.2,662.4 439.3,662.4 437.5,662.4 435.6,662.4 433.7,662.4 431.9,662.4
430.0,662.4 428.1,662.4 426.3,662.4 424.4,662.4 422.5,662.4 420.6,662.4 418.8,662.4 416.9,662.4 415.0,662.4 413.2,662.4 411.3,662.4 409.4,662.4 407.5,662.4 405.7,662.4 403.8,662.4 401.9,662.4
400.1,662.4 398.2,662.4 396.3,662.4 394.5,662.4 392.6,662.4 390.7,662.4 388.8,662.4 387.0,662.4 385.1,662.4 383.2,662.4 381.4,662.4 379.5,662.4 377.6,662.4 375.7,662.4 373.9,662.4 372.0,662.4
370.1,662.4 368.3,662.4 366.4,662.4 364.5,662.4 362.7,662.4 360.8,662.4 358.9,662.4 357.0,662.4 355.2,662.4 353.3,662.4 351.4,662.4 349.6,662.4 347.7,662.4 345.8,662.4 343.9,662.4 342.1,662.4
340.2,662.4 338.3,662.4 336.5,662.4 334.6,662.4 332.7,662.4 330.9,662.4 329.0,662.4 327.1,662.4 325.2,662.4 323.4,662.4 321.5,662.4 319.6,662.4 317.8,662.4 315.9,662.4 314.0,662.4 312.1,662.4
310.3,662.4 308.4,662.4 306.5,662.4 304.7,662.4 302.8,662.4 300.9,662.4 299.1,662.4 297.2,662.4 295.3,662.4 293.4,662.4 291.6,662.4 289.7,662.4 287.8,662.4 286.0,662.4 284.1,662.4 282.2,662.4
280.3,662.4 278.5,662.4 276.6,662.4 274.7,662.4 272.9,662.4 271.0,662.4 269.1,662.4 267.3,662.4 265.4,662.4 263.5,662.4 261.6,662.4 259.8,662.4 257.9,662.4 256.0,662.4 254.2,662.4 252.3,662.4
250.4,662.4 248.5,662.4 246.7,662.4 244.8,662.4 242.9,662.4 241.1,662.4 239.2,662.4 237.3,662.4 235.5,662.4 233.6,662.4 231.7,662.4 229.8,662.4 228.0,662.4 226.1,662.4 224.2,662.4 222.4,662.4
220.5,662.4 218.6,662.4 216.7,662.4 214.9,662.4 213.0,662.4 211.1,662.4 209.3,662.4 207.4,662.4 205.5,662.4 203.7,662.4 201.8,662.4 199.9,662.4 198.0,662.4 196.2,662.4 194.3,662.4 192.4,662.4
190.6,662.4 188.7,662.4 186.8,662.4 185.0,662.4 183.1,662.4 181.2,662.4 179.3,662.4 177.5,662.4 175.6,662.4 173.7,662.4 171.9,662.4 170.0,662.4 168.1,662.4 166.2,662.4 '/>
	</g>
</g>
	</g>
	<g id="gnuplot_plot_3" ><title>Point estimate</title>
<g fill="none" color="white" stroke="rgb( 31, 120, 180)" stroke-width="2.00" stroke-linecap="butt" stroke-linejoin="miter">
</g>
<g fill="none" color="black" stroke="currentColor" stroke-width="2.00" stroke-linecap="butt" stroke-linejoin="miter">
	<g transform="translate(1089.0,103.0)" stroke="none" fill="black" font-family="Helvetica" font-size="12.00"  text-anchor="start">
		<text><tspan font-family="Helvetica" >Point estimate</tspan></text>
	</g>
</g>
<g fill="none" color="black" stroke="currentColor" stroke-width="2.00" stroke-linecap="butt" stroke-linejoin="miter">
	<path stroke='rgb( 31, 120, 180)'  d='M1038.5,99.1 L1080.7,99.1 M584.1,662.4 L584.1,117.1  '/></g>
	</g>
<g fill="none" color="black" stroke="currentColor" stroke-width="2.00" stroke-linecap="butt" stroke-linejoin="miter">
</g>
<g fill="none" color="black" stroke="black" stroke-width="1.00" stroke-linecap="butt" stroke-linejoin="miter">
</g>
<g fill="none" color="black" stroke="currentColor" stroke-width="1.00" stroke-linecap="butt" stroke-linejoin="miter">
	<path stroke='black'  d='M80.2,54.1 L80.2,662.4 L1013.6,662.4 L1013.6,54.1 L80.2,54.1 Z  '/></g>
<g fill="none" color="black" stroke="currentColor" stroke-width="1.00" stroke-linecap="butt" stroke-linejoin="miter">
</g>
</g>
</svg>

