<?xml version="1.0" encoding="utf-8"  standalone="no"?>
<svg 
 viewBox="0 0 1280 720"
 xmlns="http://www.w3.org/2000/svg"
 xmlns:xlink="http://www.w3.org/1999/xlink"
>

<title>Gnuplot</title>
<desc>Produced by GNUPLOT 5.2 patchlevel 6 </desc>

<g id="gnuplot_canvas">

<rect x="0" y="0" width="1280" height="720" fill="none"/>
<defs>

	<circle id='gpDot' r='0.5' stroke-width='0.5' stroke='currentColor'/>
	<path id='gpPt0' stroke-width='0.222' stroke='currentColor' d='M-1,0 h2 M0,-1 v2'/>
	<path id='gpPt1' stroke-width='0.222' stroke='currentColor' d='M-1,-1 L1,1 M1,-1 L-1,1'/>
	<path id='gpPt2' stroke-width='0.222' stroke='currentColor' d='M-1,0 L1,0 M0,-1 L0,1 M-1,-1 L1,1 M-1,1 L1,-1'/>
	<rect id='gpPt3' stroke-width='0.222' stroke='currentColor' x='-1' y='-1' width='2' height='2'/>
	<rect id='gpPt4' stroke-width='0.222' stroke='currentColor' fill='currentColor' x='-1' y='-1' width='2' height='2'/>
	<circle id='gpPt5' stroke-width='0.222' stroke='currentColor' cx='0' cy='0' r='1'/>
	<use xlink:href='#gpPt5' id='gpPt6' fill='currentColor' stroke='none'/>
	<path id='gpPt7' stroke-width='0.222' stroke='currentColor' d='M0,-1.33 L-1.33,0.67 L1.33,0.67 z'/>
	<use xlink:href='#gpPt7' id='gpPt8' fill='currentColor' stroke='none'/>
	<use xlink:href='#gpPt7' id='gpPt9' stroke='currentColor' transform='rotate(180)'/>
	<use xlink:href='#gpPt9' id='gpPt10' fill='currentColor' stroke='none'/>
	<use xlink:href='#gpPt3' id='gpPt11' stroke='currentColor' transform='rotate(45)'/>
	<use xlink:href='#gpPt11' id='gpPt12' fill='currentColor' stroke='none'/>
	<path id='gpPt13' stroke-width='0.222' stroke='currentColor' d='M0,1.330 L1.265,0.411 L0.782,-1.067 L-0.782,-1.076 L-1.265,0.411 z'/>
	<use xlink:href='#gpPt13' id='gpPt14' fill='currentColor' stroke='none'/>
	<filter id='textbox' filterUnits='objectBoundingBox' x='0' y='0' height='1' width='1'>
	  <feFlood flood-color='white' flood-opacity='1' result='bgnd'/>
	  <feComposite in='SourceGraphic' in2='bgnd' operator='atop'/>
	</filter>
	<filter id='greybox' filterUnits='objectBoundingBox' x='0' y='0' height='1' width='1'>
	  <feFlood flood-color='lightgrey' flood-opacity='1' result='grey'/>
	  <feComposite in='SourceGraphic' in2='grey' operator='atop'/>
	</filter>
</defs>
<g fill="none" color="white" stroke="currentColor" stroke-width="1.00" stroke-linecap="butt" stroke-linejoin="miter">
</g>
<g fill="none" color="black" stroke="currentColor" stroke-width="1.00" stroke-linecap="butt" stroke-linejoin="miter">
	<path stroke='black'  d='M63.6,662.4 L72.6,662.4  '/>	<g transform="translate(55.3,666.3)" stroke="none" fill="black" font-family="Helvetica" font-size="12.00"  text-anchor="end">
		<text><tspan font-family="Helvetica" > 0</tspan></text>
	</g>
</g>
<g fill="none" color="black" stroke="currentColor" stroke-width="1.00" stroke-linecap="butt" stroke-linejoin="miter">
	<path stroke='black'  d='M63.6,594.8 L72.6,594.8  '/>	<g transform="translate(55.3,598.7)" stroke="none" fill="black" font-family="Helvetica" font-size="12.00"  text-anchor="end">
		<text><tspan font-family="Helvetica" > 10</tspan></text>
	</g>
</g>
<g fill="none" color="black" stroke="currentColor" stroke-width="1.00" stroke-linecap="butt" stroke-linejoin="miter">
	<path stroke='black'  d='M63.6,527.2 L72.6,527.2  '/>	<g transform="translate(55.3,531.1)" stroke="none" fill="black" font-family="Helvetica" font-size="12.00"  text-anchor="end">
		<text><tspan font-family="Helvetica" > 20</tspan></text>
	</g>
</g>
<g fill="none" color="black" stroke="currentColor" stroke-width="1.00" stroke-linecap="butt" stroke-linejoin="miter">
	<path stroke='black'  d='M63.6,459.6 L72.6,459.6  '/>	<g transform="translate(55.3,463.5)" stroke="none" fill="black" font-family="Helvetica" font-size="12.00"  text-anchor="end">
		<text><tspan font-family="Helvetica" > 30</tspan></text>
	</g>
</g>
<g fill="none" color="black" stroke="currentColor" stroke-width="1.00" stroke-linecap="butt" stroke-linejoin="miter">
	<path stroke='black'  d='M63.6,392.0 L72.6,392.0  '/>	<g transform="translate(55.3,395.9)" stroke="none" fill="black" font-family="Helvetica" font-size="12.00"  text-anchor="end">
		<text><tspan font-family="Helvetica" > 40</tspan></text>
	</g>
</g>
<g fill="none" color="black" stroke="currentColor" stroke-width="1.00" stroke-linecap="butt" stroke-linejoin="miter">
	<path stroke='black'  d='M63.6,324.5 L72.6,324.5  '/>	<g transform="translate(55.3,328.4)" stroke="none" fill="black" font-family="Helvetica" font-size="12.00"  text-anchor="end">
		<text><tspan font-family="Helvetica" > 50</tspan></text>
	</g>
</g>
<g fill="none" color="black" stroke="currentColor" stroke-width="1.00" stroke-linecap="butt" stroke-linejoin="miter">
	<path stroke='black'  d='M63.6,256.9 L72.6,256.9  '/>	<g transform="translate(55.3,260.8)" stroke="none" fill="black" font-family="Helvetica" font-size="12.00"  text-anchor="end">
		<text><tspan font-family="Helvetica" > 60</tspan></text>
	</g>
</g>
<g fill="none" color="black" stroke="currentColor" stroke-width="1.00" stroke-linecap="butt" stroke-linejoin="miter">
	<path stroke='black'  d='M63.6,189.3 L72.6,189.3  '/>	<g transform="translate(55.3,193.2)" stroke="none" fill="black" font-family="Helvetica" font-size="12.00"  text-anchor="end">
		<text><tspan font-family="Helvetica" > 70</tspan></text>
	</g>
</g>
<g fill="none" color="black" stroke="currentColor" stroke-width="1.00" stroke-linecap="butt" stroke-linejoin="miter">
	<path stroke='black'  d='M63.6,121.7 L72.6,121.7  '/>	<g transform="translate(55.3,125.6)" stroke="none" fill="black" font-family="Helvetica" font-size="12.00"  text-anchor="end">
		<text><tspan font-family="Helvetica" > 80</tspan></text>
	</g>
</g>
<g fill="none" color="black" stroke="currentColor" stroke-width="1.00" stroke-linecap="butt" stroke-linejoin="miter">
	<path stroke='black'  d='M63.6,54.1 L72.6,54.1  '/>	<g transform="translate(55.3,58.0)" stroke="none" fill="black" font-family="Helvetica" font-size="12.00"  text-anchor="end">
		<text><tspan font-family="Helvetica" > 90</tspan></text>
	</g>
</g>
<g fill="none" color="black" stroke="currentColor" stroke-width="1.00" stroke-linecap="butt" stroke-linejoin="miter">
	<path stroke='black'  d='M66.4,662.4 L66.4,653.4  '/>	<g transform="translate(66.4,684.3)" stroke="none" fill="black" font-family="Helvetica" font-size="12.00"  text-anchor="middle">
		<text><tspan font-family="Helvetica" > 31.72</tspan></text>
	</g>
</g>
<g fill="none" color="black" stroke="currentColor" stroke-width="1.00" stroke-linecap="butt" stroke-linejoin="miter">
	<path stroke='black'  d='M178.8,662.4 L178.8,653.4  '/>	<g transform="translate(178.8,684.3)" stroke="none" fill="black" font-family="Helvetica" font-size="12.00"  text-anchor="middle">
		<text><tspan font-family="Helvetica" > 31.725</tspan></text>
	</g>
</g>
<g fill="none" color="black" stroke="currentColor" stroke-width="1.00" stroke-linecap="butt" stroke-linejoin="miter">
	<path stroke='black'  d='M291.1,662.4 L291.1,653.4  '/>	<g transform="translate(291.1,684.3)" stroke="none" fill="black" font-family="Helvetica" font-size="12.00"  text-anchor="middle">
		<text><tspan font-family="Helvetica" > 31.73</tspan></text>
	</g>
</g>
<g fill="none" color="black" stroke="currentColor" stroke-width="1.00" stroke-linecap="butt" stroke-linejoin="miter">
	<path stroke='black'  d='M403.5,662.4 L403.5,653.4  '/>	<g transform="translate(403.5,684.3)" stroke="none" fill="black" font-family="Helvetica" font-size="12.00"  text-anchor="middle">
		<text><tspan font-family="Helvetica" > 31.735</tspan></text>
	</g>
</g>
<g fill="none" color="black" stroke="currentColor" stroke-width="1.00" stroke-linecap="butt" stroke-linejoin="miter">
	<path stroke='black'  d='M515.9,662.4 L515.9,653.4  '/>	<g transform="translate(515.9,684.3)" stroke="none" fill="black" font-family="Helvetica" font-size="12.00"  text-anchor="middle">
		<text><tspan font-family="Helvetica" > 31.74</tspan></text>
	</g>
</g>
<g fill="none" color="black" stroke="currentColor" stroke-width="1.00" stroke-linecap="butt" stroke-linejoin="miter">
	<path stroke='black'  d='M628.2,662.4 L628.2,653.4  '/>	<g transform="translate(628.2,684.3)" stroke="none" fill="black" font-family="Helvetica" font-size="12.00"  text-anchor="middle">
		<text><tspan font-family="Helvetica" > 31.745</tspan></text>
	</g>
</g>
<g fill="none" color="black" stroke="currentColor" stroke-width="1.00" stroke-linecap="butt" stroke-linejoin="miter">
	<path stroke='black'  d='M740.6,662.4 L740.6,653.4  '/>	<g transform="translate(740.6,684.3)" stroke="none" fill="black" font-family="Helvetica" font-size="12.00"  text-anchor="middle">
		<text><tspan font-family="Helvetica" > 31.75</tspan></text>
	</g>
</g>
<g fill="none" color="black" stroke="currentColor" stroke-width="1.00" stroke-linecap="butt" stroke-linejoin="miter">
	<path stroke='black'  d='M852.9,662.4 L852.9,653.4  '/>	<g transform="translate(852.9,684.3)" stroke="none" fill="black" font-family="Helvetica" font-size="12.00"  text-anchor="middle">
		<text><tspan font-family="Helvetica" > 31.755</tspan></text>
	</g>
</g>
<g fill="none" color="black" stroke="currentColor" stroke-width="1.00" stroke-linecap="butt" stroke-linejoin="miter">
	<path stroke='black'  d='M965.3,662.4 L965.3,653.4  '/>	<g transform="translate(965.3,684.3)" stroke="none" fill="black" font-family="Helvetica" font-size="12.00"  text-anchor="middle">
		<text><tspan font-family="Helvetica" > 31.76</tspan></text>
	</g>
</g>
<g fill="none" color="black" stroke="currentColor" stroke-width="1.00" stroke-linecap="butt" stroke-linejoin="miter">
</g>
<g fill="none" color="black" stroke="currentColor" stroke-width="1.00" stroke-linecap="butt" stroke-linejoin="miter">
	<path stroke='black'  d='M63.6,54.1 L63.6,662.4 L1013.6,662.4 L1013.6,54.1 L63.6,54.1 Z  '/></g>
<g fill="none" color="black" stroke="currentColor" stroke-width="1.00" stroke-linecap="butt" stroke-linejoin="miter">
	<g transform="translate(16.3,358.3) rotate(270)" stroke="none" fill="black" font-family="Helvetica" font-size="12.00"  text-anchor="middle">
		<text><tspan font-family="Helvetica" >Density (a.u.)</tspan></text>
	</g>
</g>
<g fill="none" color="black" stroke="currentColor" stroke-width="1.00" stroke-linecap="butt" stroke-linejoin="miter">
	<g transform="translate(538.6,711.3)" stroke="none" fill="black" font-family="Helvetica" font-size="12.00"  text-anchor="middle">
		<text><tspan font-family="Helvetica" >Average time (us)</tspan></text>
	</g>
</g>
<g fill="none" color="black" stroke="currentColor" stroke-width="1.00" stroke-linecap="butt" stroke-linejoin="miter">
	<g transform="translate(538.6,31.0)" stroke="none" fill="black" font-family="Helvetica" font-size="12.00"  text-anchor="middle">
		<text><tspan font-family="Helvetica" >snapshot_restore_with_dense/Dense: Entire region + process_vm_writev w/ page size/1: median</tspan></text>
	</g>
</g>
	<g id="gnuplot_plot_1" ><title>Bootstrap distribution</title>
<g fill="none" color="white" stroke="black" stroke-width="2.00" stroke-linecap="butt" stroke-linejoin="miter">
</g>
<g fill="none" color="black" stroke="currentColor" stroke-width="2.00" stroke-linecap="butt" stroke-linejoin="miter">
	<g transform="translate(1089.0,67.0)" stroke="none" fill="black" font-family="Helvetica" font-size="12.00"  text-anchor="start">
		<text><tspan font-family="Helvetica" >Bootstrap distribution</tspan></text>
	</g>
</g>
<g fill="none" color="black" stroke="currentColor" stroke-width="2.00" stroke-linecap="butt" stroke-linejoin="miter">
	<path stroke='rgb( 31, 120, 180)'  d='M1038.5,63.1 L1080.7,63.1 M63.6,627.1 L65.5,626.2 L67.4,625.5 L69.3,625.1 L71.2,624.9 L73.1,624.8
		L75.0,625.0 L76.9,625.4 L78.8,626.0 L80.7,626.7 L82.6,627.6 L84.5,628.5 L86.4,629.4 L88.3,630.4
		L90.3,631.3 L92.2,632.3 L94.1,633.1 L96.0,633.9 L97.9,634.5 L99.8,635.1 L101.7,635.6 L103.6,636.0
		L105.5,636.3 L107.4,636.5 L109.3,636.7 L111.2,636.8 L113.1,636.8 L115.0,636.8 L116.9,636.7 L118.8,636.6
		L120.7,636.4 L122.6,636.2 L124.5,635.9 L126.4,635.6 L128.3,635.1 L130.2,634.7 L132.1,634.2 L134.0,633.6
		L135.9,633.0 L137.8,632.4 L139.8,631.8 L141.7,631.2 L143.6,630.7 L145.5,630.2 L147.4,629.8 L149.3,629.5
		L151.2,629.2 L153.1,629.0 L155.0,628.9 L156.9,628.8 L158.8,628.8 L160.7,628.8 L162.6,628.9 L164.5,628.9
		L166.4,628.9 L168.3,628.9 L170.2,628.8 L172.1,628.7 L174.0,628.5 L175.9,628.2 L177.8,627.9 L179.7,627.5
		L181.6,627.1 L183.5,626.6 L185.4,626.1 L187.3,625.5 L189.3,624.9 L191.2,624.3 L193.1,623.6 L195.0,622.9
		L196.9,622.1 L198.8,621.3 L200.7,620.4 L202.6,619.5 L204.5,618.5 L206.4,617.4 L208.3,616.2 L210.2,615.0
		L212.1,613.6 L214.0,612.3 L215.9,610.8 L217.8,609.4 L219.7,607.8 L221.6,606.3 L223.5,604.8 L225.4,603.3
		L227.3,601.8 L229.2,600.3 L231.1,598.9 L233.0,597.6 L234.9,596.4 L236.8,595.2 L238.8,594.2 L240.7,593.2
		L242.6,592.4 L244.5,591.7 L246.4,591.1 L248.3,590.6 L250.2,590.2 L252.1,589.9 L254.0,589.7 L255.9,589.6
		L257.8,589.6 L259.7,589.7 L261.6,589.8 L263.5,589.9 L265.4,590.1 L267.3,590.2 L269.2,590.4 L271.1,590.6
		L273.0,590.7 L274.9,590.8 L276.8,590.9 L278.7,590.9 L280.6,590.9 L282.5,590.8 L284.4,590.7 L286.3,590.5
		L288.2,590.2 L290.2,589.9 L292.1,589.4 L294.0,588.9 L295.9,588.3 L297.8,587.6 L299.7,586.8 L301.6,585.8
		L303.5,584.8 L305.4,583.6 L307.3,582.3 L309.2,581.0 L311.1,579.6 L313.0,578.1 L314.9,576.7 L316.8,575.2
		L318.7,573.8 L320.6,572.4 L322.5,571.2 L324.4,570.0 L326.3,568.9 L328.2,568.0 L330.1,567.1 L332.0,566.3
		L333.9,565.5 L335.8,564.8 L337.7,564.0 L339.7,563.2 L341.6,562.3 L343.5,561.4 L345.4,560.2 L347.3,559.0
		L349.2,557.5 L351.1,555.9 L353.0,554.1 L354.9,552.0 L356.8,549.7 L358.7,547.1 L360.6,544.3 L362.5,541.0
		L364.4,537.4 L366.3,533.4 L368.2,528.8 L370.1,523.6 L372.0,517.7 L373.9,511.0 L375.8,503.5 L377.7,495.0
		L379.6,485.4 L381.5,474.7 L383.4,462.8 L385.3,449.7 L387.2,435.3 L389.2,419.6 L391.1,402.7 L393.0,384.7
		L394.9,365.6 L396.8,345.7 L398.7,325.1 L400.6,304.0 L402.5,282.8 L404.4,261.8 L406.3,241.3 L408.2,221.7
		L410.1,203.2 L412.0,186.3 L413.9,171.3 L415.8,158.5 L417.7,148.0 L419.6,140.1 L421.5,134.8 L423.4,132.2
		L425.3,132.1 L427.2,134.6 L429.1,139.3 L431.0,146.0 L432.9,154.4 L434.8,164.1 L436.7,174.8 L438.7,186.1
		L440.6,197.6 L442.5,209.1 L444.4,220.1 L446.3,230.5 L448.2,240.0 L450.1,248.4 L452.0,255.6 L453.9,261.4
		L455.8,265.9 L457.7,268.9 L459.6,270.4 L461.5,270.4 L463.4,269.0 L465.3,266.2 L467.2,261.9 L469.1,256.4
		L471.0,249.7 L472.9,241.8 L474.8,232.9 L476.7,223.2 L478.6,212.8 L480.5,201.9 L482.4,190.6 L484.3,179.2
		L486.2,167.9 L488.1,156.9 L490.1,146.5 L492.0,136.7 L493.9,127.8 L495.8,119.9 L497.7,113.1 L499.6,107.5
		L501.5,103.2 L503.4,100.2 L505.3,98.3 L507.2,97.6 L509.1,98.0 L511.0,99.3 L512.9,101.4 L514.8,104.0
		L516.7,107.2 L518.6,110.6 L520.5,114.2 L522.4,117.8 L524.3,121.4 L526.2,124.8 L528.1,128.0 L530.0,131.1
		L531.9,134.0 L533.8,136.9 L535.7,139.7 L537.6,142.8 L539.6,146.1 L541.5,149.8 L543.4,154.1 L545.3,159.1
		L547.2,164.9 L549.1,171.7 L551.0,179.5 L552.9,188.4 L554.8,198.4 L556.7,209.5 L558.6,221.7 L560.5,234.9
		L562.4,249.1 L564.3,264.0 L566.2,279.8 L568.1,296.1 L570.0,312.9 L571.9,330.0 L573.8,347.3 L575.7,364.8
		L577.6,382.2 L579.5,399.4 L581.4,416.4 L583.3,433.0 L585.2,449.1 L587.1,464.6 L589.1,479.4 L591.0,493.4
		L592.9,506.5 L594.8,518.7 L596.7,529.8 L598.6,539.8 L600.5,548.5 L602.4,556.1 L604.3,562.3 L606.2,567.3
		L608.1,571.0 L610.0,573.3 L611.9,574.5 L613.8,574.4 L615.7,573.2 L617.6,571.0 L619.5,567.8 L621.4,563.9
		L623.3,559.4 L625.2,554.4 L627.1,549.0 L629.0,543.6 L630.9,538.1 L632.8,532.9 L634.7,528.0 L636.6,523.7
		L638.5,520.0 L640.5,517.1 L642.4,515.0 L644.3,513.9 L646.2,513.8 L648.1,514.6 L650.0,516.5 L651.9,519.2
		L653.8,522.9 L655.7,527.3 L657.6,532.3 L659.5,537.9 L661.4,543.8 L663.3,549.9 L665.2,556.1 L667.1,562.2
		L669.0,568.0 L670.9,573.4 L672.8,578.2 L674.7,582.3 L676.6,585.7 L678.5,588.2 L680.4,589.7 L682.3,590.3
		L684.2,589.8 L686.1,588.3 L688.0,585.8 L690.0,582.3 L691.9,577.8 L693.8,572.5 L695.7,566.5 L697.6,559.8
		L699.5,552.7 L701.4,545.1 L703.3,537.3 L705.2,529.4 L707.1,521.6 L709.0,514.0 L710.9,506.8 L712.8,500.0
		L714.7,493.8 L716.6,488.3 L718.5,483.5 L720.4,479.5 L722.3,476.3 L724.2,473.9 L726.1,472.2 L728.0,471.3
		L729.9,471.1 L731.8,471.5 L733.7,472.4 L735.6,473.8 L737.5,475.5 L739.5,477.5 L741.4,479.7 L743.3,482.0
		L745.2,484.4 L747.1,486.8 L749.0,489.2 L750.9,491.4 L752.8,493.5 L754.7,495.5 L756.6,497.4 L758.5,499.1
		L760.4,500.6 L762.3,502.1 L764.2,503.4 L766.1,504.6 L768.0,505.8 L769.9,507.0 L771.8,508.2 L773.7,509.6
		L775.6,511.1 L777.5,512.8 L779.4,514.9 L781.3,517.2 L783.2,519.9 L785.1,523.1 L787.0,526.6 L789.0,530.6
		L790.9,534.9 L792.8,539.6 L794.7,544.6 L796.6,549.9 L798.5,555.3 L800.4,560.7 L802.3,566.1 L804.2,571.5
		L806.1,576.5 L808.0,581.3 L809.9,585.7 L811.8,589.7 L813.7,593.2 L815.6,596.2 L817.5,598.7 L819.4,600.6
		L821.3,602.1 L823.2,603.1 L825.1,603.7 L827.0,604.1 L828.9,604.1 L830.8,604.0 L832.7,603.9 L834.6,603.6
		L836.5,603.5 L838.4,603.4 L840.4,603.4 L842.3,603.6 L844.2,604.1 L846.1,604.7 L848.0,605.4 L849.9,606.4
		L851.8,607.5 L853.7,608.7 L855.6,610.0 L857.5,611.2 L859.4,612.5 L861.3,613.7 L863.2,614.8 L865.1,615.7
		L867.0,616.4 L868.9,617.0 L870.8,617.3 L872.7,617.5 L874.6,617.4 L876.5,617.1 L878.4,616.6 L880.3,616.0
		L882.2,615.1 L884.1,614.2 L886.0,613.1 L887.9,611.9 L889.9,610.7 L891.8,609.5 L893.7,608.2 L895.6,606.9
		L897.5,605.7 L899.4,604.4 L901.3,603.3 L903.2,602.2 L905.1,601.2 L907.0,600.3 L908.9,599.5 L910.8,598.9
		L912.7,598.4 L914.6,598.0 L916.5,597.9 L918.4,597.9 L920.3,598.2 L922.2,598.7 L924.1,599.4 L926.0,600.3
		L927.9,601.4 L929.8,602.7 L931.7,604.3 L933.6,606.0 L935.5,607.8 L937.4,609.7 L939.4,611.8 L941.3,613.8
		L943.2,615.9 L945.1,618.0 L947.0,620.1 L948.9,622.1 L950.8,624.0 L952.7,625.8 L954.6,627.5 L956.5,629.0
		L958.4,630.5 L960.3,631.8 L962.2,633.1 L964.1,634.2 L966.0,635.2 L967.9,636.1 L969.8,636.9 L971.7,637.6
		L973.6,638.2 L975.5,638.8 L977.4,639.3 L979.3,639.8 L981.2,640.2 L983.1,640.6 L985.0,640.9 L986.9,641.3
		L988.9,641.6 L990.8,642.0 L992.7,642.4 L994.6,642.8 L996.5,643.3 L998.4,643.8 L1000.3,644.3 L1002.2,645.0
		L1004.1,645.6 L1006.0,646.4 L1007.9,647.1 L1009.8,647.9 L1011.7,648.7 L1013.6,649.6  '/></g>
	</g>
	<g id="gnuplot_plot_2" ><title>Confidence interval</title>
<g fill="none" color="white" stroke="rgb( 31, 120, 180)" stroke-width="1.00" stroke-linecap="butt" stroke-linejoin="miter">
</g>
<g fill="none" color="black" stroke="currentColor" stroke-width="1.00" stroke-linecap="butt" stroke-linejoin="miter">
	<g transform="translate(1089.0,85.0)" stroke="none" fill="black" font-family="Helvetica" font-size="12.00"  text-anchor="start">
		<text><tspan font-family="Helvetica" >Confidence interval</tspan></text>
	</g>
</g>
<g fill="none" color="black" stroke="currentColor" stroke-width="1.00" stroke-linecap="butt" stroke-linejoin="miter">
	<g stroke='none' shape-rendering='crispEdges'>
		<polygon fill = 'rgb( 31, 120, 180)' fill-opacity = '0.250000' points = '1038.5,85.6 1080.7,85.6 1080.7,76.6 1038.5,76.6 '/>
		<polygon fill = 'rgb( 31, 120, 180)' fill-opacity = '0.250000' points = '151.2,629.2 153.1,629.0 155.0,628.9 156.9,628.8 158.8,628.8 160.7,628.8 162.6,628.9 164.5,628.9 166.4,628.9 168.3,628.9 170.2,628.8 172.1,628.7 174.0,628.5 175.9,628.2 177.8,627.9 179.7,627.5
181.6,627.1 183.5,626.6 185.4,626.1 187.3,625.5 189.3,624.9 191.2,624.3 193.1,623.6 195.0,622.9 196.9,622.1 198.8,621.3 200.7,620.4 202.6,619.5 204.5,618.5 206.4,617.4 208.3,616.2 210.2,615.0
212.1,613.6 214.0,612.3 215.9,610.8 217.8,609.4 219.7,607.8 221.6,606.3 223.5,604.8 225.4,603.3 227.3,601.8 229.2,600.3 231.1,598.9 233.0,597.6 234.9,596.4 236.8,595.2 238.8,594.2 240.7,593.2
242.6,592.4 244.5,591.7 246.4,591.1 248.3,590.6 250.2,590.2 252.1,589.9 254.0,589.7 255.9,589.6 257.8,589.6 259.7,589.7 261.6,589.8 263.5,589.9 265.4,590.1 267.3,590.2 269.2,590.4 271.1,590.6
273.0,590.7 274.9,590.8 276.8,590.9 278.7,590.9 280.6,590.9 282.5,590.8 284.4,590.7 286.3,590.5 288.2,590.2 290.2,589.9 292.1,589.4 294.0,588.9 295.9,588.3 297.8,587.6 299.7,586.8 301.6,585.8
303.5,584.8 305.4,583.6 307.3,582.3 309.2,581.0 311.1,579.6 313.0,578.1 314.9,576.7 316.8,575.2 318.7,573.8 320.6,572.4 322.5,571.2 324.4,570.0 326.3,568.9 328.2,568.0 330.1,567.1 332.0,566.3
333.9,565.5 335.8,564.8 337.7,564.0 339.7,563.2 341.6,562.3 343.5,561.4 345.4,560.2 347.3,559.0 349.2,557.5 351.1,555.9 353.0,554.1 354.9,552.0 356.8,549.7 358.7,547.1 360.6,544.3 362.5,541.0
364.4,537.4 366.3,533.4 368.2,528.8 370.1,523.6 372.0,517.7 373.9,511.0 375.8,503.5 377.7,495.0 379.6,485.4 381.5,474.7 383.4,462.8 385.3,449.7 387.2,435.3 389.2,419.6 391.1,402.7 393.0,384.7
394.9,365.6 396.8,345.7 398.7,325.1 400.6,304.0 402.5,282.8 404.4,261.8 406.3,241.3 408.2,221.7 410.1,203.2 412.0,186.3 413.9,171.3 415.8,158.5 417.7,148.0 419.6,140.1 421.5,134.8 423.4,132.2
425.3,132.1 427.2,134.6 429.1,139.3 431.0,146.0 432.9,154.4 434.8,164.1 436.7,174.8 438.7,186.1 440.6,197.6 442.5,209.1 444.4,220.1 446.3,230.5 448.2,240.0 450.1,248.4 452.0,255.6 453.9,261.4
455.8,265.9 457.7,268.9 459.6,270.4 461.5,270.4 463.4,269.0 465.3,266.2 467.2,261.9 469.1,256.4 471.0,249.7 472.9,241.8 474.8,232.9 476.7,223.2 478.6,212.8 480.5,201.9 482.4,190.6 484.3,179.2
486.2,167.9 488.1,156.9 490.1,146.5 492.0,136.7 493.9,127.8 495.8,119.9 497.7,113.1 499.6,107.5 501.5,103.2 503.4,100.2 505.3,98.3 507.2,97.6 509.1,98.0 511.0,99.3 512.9,101.4 514.8,104.0
516.7,107.2 518.6,110.6 520.5,114.2 522.4,117.8 524.3,121.4 526.2,124.8 528.1,128.0 530.0,131.1 531.9,134.0 533.8,136.9 535.7,139.7 537.6,142.8 539.6,146.1 541.5,149.8 543.4,154.1 545.3,159.1
547.2,164.9 549.1,171.7 551.0,179.5 552.9,188.4 554.8,198.4 556.7,209.5 558.6,221.7 560.5,234.9 562.4,249.1 564.3,264.0 566.2,279.8 568.1,296.1 570.0,312.9 571.9,330.0 573.8,347.3 575.7,364.8
577.6,382.2 579.5,399.4 581.4,416.4 583.3,433.0 585.2,449.1 587.1,464.6 589.1,479.4 591.0,493.4 592.9,506.5 594.8,518.7 596.7,529.8 598.6,539.8 600.5,548.5 602.4,556.1 604.3,562.3 606.2,567.3
608.1,571.0 610.0,573.3 611.9,574.5 613.8,574.4 615.7,573.2 617.6,571.0 619.5,567.8 621.4,563.9 623.3,559.4 625.2,554.4 627.1,549.0 629.0,543.6 630.9,538.1 632.8,532.9 634.7,528.0 636.6,523.7
638.5,520.0 640.5,517.1 642.4,515.0 644.3,513.9 646.2,513.8 648.1,514.6 650.0,516.5 651.9,519.2 653.8,522.9 655.7,527.3 657.6,532.3 659.5,537.9 661.4,543.8 663.3,549.9 665.2,556.1 667.1,562.2
669.0,568.0 670.9,573.4 672.8,578.2 674.7,582.3 676.6,585.7 678.5,588.2 680.4,589.7 682.3,590.3 684.2,589.8 686.1,588.3 688.0,585.8 690.0,582.3 691.9,577.8 693.8,572.5 695.7,566.5 697.6,559.8
699.5,552.7 701.4,545.1 703.3,537.3 705.2,529.4 707.1,521.6 709.0,514.0 710.9,506.8 712.8,500.0 714.7,493.8 716.6,488.3 718.5,483.5 720.4,479.5 722.3,476.3 724.2,473.9 726.1,472.2 728.0,471.3
729.9,471.1 731.8,471.5 733.7,472.4 735.6,473.8 737.5,475.5 739.5,477.5 741.4,479.7 743.3,482.0 745.2,484.4 747.1,486.8 749.0,489.2 750.9,491.4 752.8,493.5 754.7,495.5 756.6,497.4 758.5,499.1
760.4,500.6 762.3,502.1 764.2,503.4 766.1,504.6 768.0,505.8 769.9,507.0 771.8,508.2 773.7,509.6 775.6,511.1 777.5,512.8 779.4,514.9 781.3,517.2 783.2,519.9 785.1,523.1 787.0,526.6 789.0,530.6
790.9,534.9 792.8,539.6 794.7,544.6 796.6,549.9 798.5,555.3 800.4,560.7 802.3,566.1 804.2,571.5 806.1,576.5 808.0,581.3 809.9,585.7 811.8,589.7 813.7,593.2 815.6,596.2 817.5,598.7 819.4,600.6
821.3,602.1 823.2,603.1 825.1,603.7 827.0,604.1 828.9,604.1 830.8,604.0 832.7,603.9 834.6,603.6 836.5,603.5 838.4,603.4 840.4,603.4 842.3,603.6 844.2,604.1 846.1,604.7 848.0,605.4 849.9,606.4
851.8,607.5 853.7,608.7 855.6,610.0 857.5,611.2 859.4,612.5 861.3,613.7 863.2,614.8 865.1,615.7 867.0,616.4 868.9,617.0 870.8,617.3 872.7,617.5 874.6,617.4 876.5,617.1 878.4,616.6 880.3,616.0
882.2,615.1 884.1,614.2 886.0,613.1 887.9,611.9 889.9,610.7 891.8,609.5 893.7,608.2 895.6,606.9 897.5,605.7 899.4,604.4 901.3,603.3 903.2,602.2 905.1,601.2 907.0,600.3 908.9,599.5 910.8,598.9
912.7,598.4 914.6,598.0 916.5,597.9 918.4,597.9 920.3,598.2 922.2,598.7 924.1,599.4 924.1,662.4 922.2,662.4 920.3,662.4 918.4,662.4 916.5,662.4 914.6,662.4 912.7,662.4 910.8,662.4 908.9,662.4
907.0,662.4 905.1,662.4 903.2,662.4 901.3,662.4 899.4,662.4 897.5,662.4 895.6,662.4 893.7,662.4 891.8,662.4 889.9,662.4 887.9,662.4 886.0,662.4 884.1,662.4 882.2,662.4 880.3,662.4 878.4,662.4
876.5,662.4 874.6,662.4 872.7,662.4 870.8,662.4 868.9,662.4 867.0,662.4 865.1,662.4 863.2,662.4 861.3,662.4 859.4,662.4 857.5,662.4 855.6,662.4 853.7,662.4 851.8,662.4 849.9,662.4 848.0,662.4
846.1,662.4 844.2,662.4 842.3,662.4 840.4,662.4 838.4,662.4 836.5,662.4 834.6,662.4 832.7,662.4 830.8,662.4 828.9,662.4 827.0,662.4 825.1,662.4 823.2,662.4 821.3,662.4 819.4,662.4 817.5,662.4
815.6,662.4 813.7,662.4 811.8,662.4 809.9,662.4 808.0,662.4 806.1,662.4 804.2,662.4 802.3,662.4 800.4,662.4 798.5,662.4 796.6,662.4 794.7,662.4 792.8,662.4 790.9,662.4 789.0,662.4 787.0,662.4
785.1,662.4 783.2,662.4 781.3,662.4 779.4,662.4 777.5,662.4 775.6,662.4 773.7,662.4 771.8,662.4 769.9,662.4 768.0,662.4 766.1,662.4 764.2,662.4 762.3,662.4 760.4,662.4 758.5,662.4 756.6,662.4
754.7,662.4 752.8,662.4 750.9,662.4 749.0,662.4 747.1,662.4 745.2,662.4 743.3,662.4 741.4,662.4 739.5,662.4 737.5,662.4 735.6,662.4 733.7,662.4 731.8,662.4 729.9,662.4 728.0,662.4 726.1,662.4
724.2,662.4 722.3,662.4 720.4,662.4 718.5,662.4 716.6,662.4 714.7,662.4 712.8,662.4 710.9,662.4 709.0,662.4 707.1,662.4 705.2,662.4 703.3,662.4 701.4,662.4 699.5,662.4 697.6,662.4 695.7,662.4
693.8,662.4 691.9,662.4 690.0,662.4 688.0,662.4 686.1,662.4 684.2,662.4 682.3,662.4 680.4,662.4 678.5,662.4 676.6,662.4 674.7,662.4 672.8,662.4 670.9,662.4 669.0,662.4 667.1,662.4 665.2,662.4
663.3,662.4 661.4,662.4 659.5,662.4 657.6,662.4 655.7,662.4 653.8,662.4 651.9,662.4 650.0,662.4 648.1,662.4 646.2,662.4 644.3,662.4 642.4,662.4 640.5,662.4 638.5,662.4 636.6,662.4 634.7,662.4
632.8,662.4 630.9,662.4 629.0,662.4 627.1,662.4 625.2,662.4 623.3,662.4 621.4,662.4 619.5,662.4 617.6,662.4 615.7,662.4 613.8,662.4 611.9,662.4 610.0,662.4 608.1,662.4 606.2,662.4 604.3,662.4
602.4,662.4 600.5,662.4 598.6,662.4 596.7,662.4 594.8,662.4 592.9,662.4 591.0,662.4 589.1,662.4 587.1,662.4 585.2,662.4 583.3,662.4 581.4,662.4 579.5,662.4 577.6,662.4 575.7,662.4 573.8,662.4
571.9,662.4 570.0,662.4 568.1,662.4 566.2,662.4 564.3,662.4 562.4,662.4 560.5,662.4 558.6,662.4 556.7,662.4 554.8,662.4 552.9,662.4 551.0,662.4 549.1,662.4 547.2,662.4 545.3,662.4 543.4,662.4
541.5,662.4 539.6,662.4 537.6,662.4 535.7,662.4 533.8,662.4 531.9,662.4 530.0,662.4 528.1,662.4 526.2,662.4 524.3,662.4 522.4,662.4 520.5,662.4 518.6,662.4 516.7,662.4 514.8,662.4 512.9,662.4
511.0,662.4 509.1,662.4 507.2,662.4 505.3,662.4 503.4,662.4 501.5,662.4 499.6,662.4 497.7,662.4 495.8,662.4 493.9,662.4 492.0,662.4 490.1,662.4 488.1,662.4 486.2,662.4 484.3,662.4 482.4,662.4
480.5,662.4 478.6,662.4 476.7,662.4 474.8,662.4 472.9,662.4 471.0,662.4 469.1,662.4 467.2,662.4 465.3,662.4 463.4,662.4 461.5,662.4 459.6,662.4 457.7,662.4 455.8,662.4 453.9,662.4 452.0,662.4
450.1,662.4 448.2,662.4 446.3,662.4 444.4,662.4 442.5,662.4 440.6,662.4 438.7,662.4 436.7,662.4 434.8,662.4 432.9,662.4 431.0,662.4 429.1,662.4 427.2,662.4 425.3,662.4 423.4,662.4 421.5,662.4
419.6,662.4 417.7,662.4 415.8,662.4 413.9,662.4 412.0,662.4 410.1,662.4 408.2,662.4 406.3,662.4 404.4,662.4 402.5,662.4 400.6,662.4 398.7,662.4 396.8,662.4 394.9,662.4 393.0,662.4 391.1,662.4
389.2,662.4 387.2,662.4 385.3,662.4 383.4,662.4 381.5,662.4 379.6,662.4 377.7,662.4 375.8,662.4 373.9,662.4 372.0,662.4 370.1,662.4 368.2,662.4 366.3,662.4 364.4,662.4 362.5,662.4 360.6,662.4
358.7,662.4 356.8,662.4 354.9,662.4 353.0,662.4 351.1,662.4 349.2,662.4 347.3,662.4 345.4,662.4 343.5,662.4 341.6,662.4 339.7,662.4 337.7,662.4 335.8,662.4 333.9,662.4 332.0,662.4 330.1,662.4
328.2,662.4 326.3,662.4 324.4,662.4 322.5,662.4 320.6,662.4 318.7,662.4 316.8,662.4 314.9,662.4 313.0,662.4 311.1,662.4 309.2,662.4 307.3,662.4 305.4,662.4 303.5,662.4 301.6,662.4 299.7,662.4
297.8,662.4 295.9,662.4 294.0,662.4 292.1,662.4 290.2,662.4 288.2,662.4 286.3,662.4 284.4,662.4 282.5,662.4 280.6,662.4 278.7,662.4 276.8,662.4 274.9,662.4 273.0,662.4 271.1,662.4 269.2,662.4
267.3,662.4 265.4,662.4 263.5,662.4 261.6,662.4 259.7,662.4 257.8,662.4 255.9,662.4 254.0,662.4 252.1,662.4 250.2,662.4 248.3,662.4 246.4,662.4 244.5,662.4 242.6,662.4 240.7,662.4 238.8,662.4
236.8,662.4 234.9,662.4 233.0,662.4 231.1,662.4 229.2,662.4 227.3,662.4 225.4,662.4 223.5,662.4 221.6,662.4 219.7,662.4 217.8,662.4 215.9,662.4 214.0,662.4 212.1,662.4 210.2,662.4 208.3,662.4
206.4,662.4 204.5,662.4 202.6,662.4 200.7,662.4 198.8,662.4 196.9,662.4 195.0,662.4 193.1,662.4 191.2,662.4 189.3,662.4 187.3,662.4 185.4,662.4 183.5,662.4 181.6,662.4 179.7,662.4 177.8,662.4
175.9,662.4 174.0,662.4 172.1,662.4 170.2,662.4 168.3,662.4 166.4,662.4 164.5,662.4 162.6,662.4 160.7,662.4 158.8,662.4 156.9,662.4 155.0,662.4 153.1,662.4 151.2,662.4 '/>
	</g>
</g>
	</g>
	<g id="gnuplot_plot_3" ><title>Point estimate</title>
<g fill="none" color="white" stroke="rgb( 31, 120, 180)" stroke-width="2.00" stroke-linecap="butt" stroke-linejoin="miter">
</g>
<g fill="none" color="black" stroke="currentColor" stroke-width="2.00" stroke-linecap="butt" stroke-linejoin="miter">
	<g transform="translate(1089.0,103.0)" stroke="none" fill="black" font-family="Helvetica" font-size="12.00"  text-anchor="start">
		<text><tspan font-family="Helvetica" >Point estimate</tspan></text>
	</g>
</g>
<g fill="none" color="black" stroke="currentColor" stroke-width="2.00" stroke-linecap="butt" stroke-linejoin="miter">
	<path stroke='rgb( 31, 120, 180)'  d='M1038.5,99.1 L1080.7,99.1 M505.3,662.4 L505.3,98.3  '/></g>
	</g>
<g fill="none" color="black" stroke="currentColor" stroke-width="2.00" stroke-linecap="butt" stroke-linejoin="miter">
</g>
<g fill="none" color="black" stroke="black" stroke-width="1.00" stroke-linecap="butt" stroke-linejoin="miter">
</g>
<g fill="none" color="black" stroke="currentColor" stroke-width="1.00" stroke-linecap="butt" stroke-linejoin="miter">
	<path stroke='black'  d='M63.6,54.1 L63.6,662.4 L1013.6,662.4 L1013.6,54.1 L63.6,54.1 Z  '/></g>
<g fill="none" color="black" stroke="currentColor" stroke-width="1.00" stroke-linecap="butt" stroke-linejoin="miter">
</g>
</g>
</svg>

