<?xml version="1.0" encoding="utf-8"  standalone="no"?>
<svg 
 viewBox="0 0 1280 720"
 xmlns="http://www.w3.org/2000/svg"
 xmlns:xlink="http://www.w3.org/1999/xlink"
>

<title>Gnuplot</title>
<desc>Produced by GNUPLOT 5.2 patchlevel 6 </desc>

<g id="gnuplot_canvas">

<rect x="0" y="0" width="1280" height="720" fill="none"/>
<defs>

	<circle id='gpDot' r='0.5' stroke-width='0.5' stroke='currentColor'/>
	<path id='gpPt0' stroke-width='0.222' stroke='currentColor' d='M-1,0 h2 M0,-1 v2'/>
	<path id='gpPt1' stroke-width='0.222' stroke='currentColor' d='M-1,-1 L1,1 M1,-1 L-1,1'/>
	<path id='gpPt2' stroke-width='0.222' stroke='currentColor' d='M-1,0 L1,0 M0,-1 L0,1 M-1,-1 L1,1 M-1,1 L1,-1'/>
	<rect id='gpPt3' stroke-width='0.222' stroke='currentColor' x='-1' y='-1' width='2' height='2'/>
	<rect id='gpPt4' stroke-width='0.222' stroke='currentColor' fill='currentColor' x='-1' y='-1' width='2' height='2'/>
	<circle id='gpPt5' stroke-width='0.222' stroke='currentColor' cx='0' cy='0' r='1'/>
	<use xlink:href='#gpPt5' id='gpPt6' fill='currentColor' stroke='none'/>
	<path id='gpPt7' stroke-width='0.222' stroke='currentColor' d='M0,-1.33 L-1.33,0.67 L1.33,0.67 z'/>
	<use xlink:href='#gpPt7' id='gpPt8' fill='currentColor' stroke='none'/>
	<use xlink:href='#gpPt7' id='gpPt9' stroke='currentColor' transform='rotate(180)'/>
	<use xlink:href='#gpPt9' id='gpPt10' fill='currentColor' stroke='none'/>
	<use xlink:href='#gpPt3' id='gpPt11' stroke='currentColor' transform='rotate(45)'/>
	<use xlink:href='#gpPt11' id='gpPt12' fill='currentColor' stroke='none'/>
	<path id='gpPt13' stroke-width='0.222' stroke='currentColor' d='M0,1.330 L1.265,0.411 L0.782,-1.067 L-0.782,-1.076 L-1.265,0.411 z'/>
	<use xlink:href='#gpPt13' id='gpPt14' fill='currentColor' stroke='none'/>
	<filter id='textbox' filterUnits='objectBoundingBox' x='0' y='0' height='1' width='1'>
	  <feFlood flood-color='white' flood-opacity='1' result='bgnd'/>
	  <feComposite in='SourceGraphic' in2='bgnd' operator='atop'/>
	</filter>
	<filter id='greybox' filterUnits='objectBoundingBox' x='0' y='0' height='1' width='1'>
	  <feFlood flood-color='lightgrey' flood-opacity='1' result='grey'/>
	  <feComposite in='SourceGraphic' in2='grey' operator='atop'/>
	</filter>
</defs>
<g fill="none" color="white" stroke="currentColor" stroke-width="1.00" stroke-linecap="butt" stroke-linejoin="miter">
</g>
<g fill="none" color="black" stroke="currentColor" stroke-width="1.00" stroke-linecap="butt" stroke-linejoin="miter">
	<path stroke='black'  d='M63.6,662.4 L72.6,662.4  '/>	<g transform="translate(55.3,666.3)" stroke="none" fill="black" font-family="Helvetica" font-size="12.00"  text-anchor="end">
		<text><tspan font-family="Helvetica" > 0</tspan></text>
	</g>
</g>
<g fill="none" color="black" stroke="currentColor" stroke-width="1.00" stroke-linecap="butt" stroke-linejoin="miter">
	<path stroke='black'  d='M63.6,561.0 L72.6,561.0  '/>	<g transform="translate(55.3,564.9)" stroke="none" fill="black" font-family="Helvetica" font-size="12.00"  text-anchor="end">
		<text><tspan font-family="Helvetica" > 10</tspan></text>
	</g>
</g>
<g fill="none" color="black" stroke="currentColor" stroke-width="1.00" stroke-linecap="butt" stroke-linejoin="miter">
	<path stroke='black'  d='M63.6,459.6 L72.6,459.6  '/>	<g transform="translate(55.3,463.5)" stroke="none" fill="black" font-family="Helvetica" font-size="12.00"  text-anchor="end">
		<text><tspan font-family="Helvetica" > 20</tspan></text>
	</g>
</g>
<g fill="none" color="black" stroke="currentColor" stroke-width="1.00" stroke-linecap="butt" stroke-linejoin="miter">
	<path stroke='black'  d='M63.6,358.2 L72.6,358.2  '/>	<g transform="translate(55.3,362.1)" stroke="none" fill="black" font-family="Helvetica" font-size="12.00"  text-anchor="end">
		<text><tspan font-family="Helvetica" > 30</tspan></text>
	</g>
</g>
<g fill="none" color="black" stroke="currentColor" stroke-width="1.00" stroke-linecap="butt" stroke-linejoin="miter">
	<path stroke='black'  d='M63.6,256.9 L72.6,256.9  '/>	<g transform="translate(55.3,260.8)" stroke="none" fill="black" font-family="Helvetica" font-size="12.00"  text-anchor="end">
		<text><tspan font-family="Helvetica" > 40</tspan></text>
	</g>
</g>
<g fill="none" color="black" stroke="currentColor" stroke-width="1.00" stroke-linecap="butt" stroke-linejoin="miter">
	<path stroke='black'  d='M63.6,155.5 L72.6,155.5  '/>	<g transform="translate(55.3,159.4)" stroke="none" fill="black" font-family="Helvetica" font-size="12.00"  text-anchor="end">
		<text><tspan font-family="Helvetica" > 50</tspan></text>
	</g>
</g>
<g fill="none" color="black" stroke="currentColor" stroke-width="1.00" stroke-linecap="butt" stroke-linejoin="miter">
	<path stroke='black'  d='M63.6,54.1 L72.6,54.1  '/>	<g transform="translate(55.3,58.0)" stroke="none" fill="black" font-family="Helvetica" font-size="12.00"  text-anchor="end">
		<text><tspan font-family="Helvetica" > 60</tspan></text>
	</g>
</g>
<g fill="none" color="black" stroke="currentColor" stroke-width="1.00" stroke-linecap="butt" stroke-linejoin="miter">
	<path stroke='black'  d='M143.2,662.4 L143.2,653.4  '/>	<g transform="translate(143.2,684.3)" stroke="none" fill="black" font-family="Helvetica" font-size="12.00"  text-anchor="middle">
		<text><tspan font-family="Helvetica" > 31.725</tspan></text>
	</g>
</g>
<g fill="none" color="black" stroke="currentColor" stroke-width="1.00" stroke-linecap="butt" stroke-linejoin="miter">
	<path stroke='black'  d='M287.4,662.4 L287.4,653.4  '/>	<g transform="translate(287.4,684.3)" stroke="none" fill="black" font-family="Helvetica" font-size="12.00"  text-anchor="middle">
		<text><tspan font-family="Helvetica" > 31.73</tspan></text>
	</g>
</g>
<g fill="none" color="black" stroke="currentColor" stroke-width="1.00" stroke-linecap="butt" stroke-linejoin="miter">
	<path stroke='black'  d='M431.7,662.4 L431.7,653.4  '/>	<g transform="translate(431.7,684.3)" stroke="none" fill="black" font-family="Helvetica" font-size="12.00"  text-anchor="middle">
		<text><tspan font-family="Helvetica" > 31.735</tspan></text>
	</g>
</g>
<g fill="none" color="black" stroke="currentColor" stroke-width="1.00" stroke-linecap="butt" stroke-linejoin="miter">
	<path stroke='black'  d='M575.9,662.4 L575.9,653.4  '/>	<g transform="translate(575.9,684.3)" stroke="none" fill="black" font-family="Helvetica" font-size="12.00"  text-anchor="middle">
		<text><tspan font-family="Helvetica" > 31.74</tspan></text>
	</g>
</g>
<g fill="none" color="black" stroke="currentColor" stroke-width="1.00" stroke-linecap="butt" stroke-linejoin="miter">
	<path stroke='black'  d='M720.1,662.4 L720.1,653.4  '/>	<g transform="translate(720.1,684.3)" stroke="none" fill="black" font-family="Helvetica" font-size="12.00"  text-anchor="middle">
		<text><tspan font-family="Helvetica" > 31.745</tspan></text>
	</g>
</g>
<g fill="none" color="black" stroke="currentColor" stroke-width="1.00" stroke-linecap="butt" stroke-linejoin="miter">
	<path stroke='black'  d='M864.4,662.4 L864.4,653.4  '/>	<g transform="translate(864.4,684.3)" stroke="none" fill="black" font-family="Helvetica" font-size="12.00"  text-anchor="middle">
		<text><tspan font-family="Helvetica" > 31.75</tspan></text>
	</g>
</g>
<g fill="none" color="black" stroke="currentColor" stroke-width="1.00" stroke-linecap="butt" stroke-linejoin="miter">
	<path stroke='black'  d='M1008.6,662.4 L1008.6,653.4  '/>	<g transform="translate(1008.6,684.3)" stroke="none" fill="black" font-family="Helvetica" font-size="12.00"  text-anchor="middle">
		<text><tspan font-family="Helvetica" > 31.755</tspan></text>
	</g>
</g>
<g fill="none" color="black" stroke="currentColor" stroke-width="1.00" stroke-linecap="butt" stroke-linejoin="miter">
</g>
<g fill="none" color="black" stroke="currentColor" stroke-width="1.00" stroke-linecap="butt" stroke-linejoin="miter">
	<path stroke='black'  d='M63.6,54.1 L63.6,662.4 L1013.6,662.4 L1013.6,54.1 L63.6,54.1 Z  '/></g>
<g fill="none" color="black" stroke="currentColor" stroke-width="1.00" stroke-linecap="butt" stroke-linejoin="miter">
	<g transform="translate(16.3,358.3) rotate(270)" stroke="none" fill="black" font-family="Helvetica" font-size="12.00"  text-anchor="middle">
		<text><tspan font-family="Helvetica" >Density (a.u.)</tspan></text>
	</g>
</g>
<g fill="none" color="black" stroke="currentColor" stroke-width="1.00" stroke-linecap="butt" stroke-linejoin="miter">
	<g transform="translate(538.6,711.3)" stroke="none" fill="black" font-family="Helvetica" font-size="12.00"  text-anchor="middle">
		<text><tspan font-family="Helvetica" >Average time (us)</tspan></text>
	</g>
</g>
<g fill="none" color="black" stroke="currentColor" stroke-width="1.00" stroke-linecap="butt" stroke-linejoin="miter">
	<g transform="translate(538.6,31.0)" stroke="none" fill="black" font-family="Helvetica" font-size="12.00"  text-anchor="middle">
		<text><tspan font-family="Helvetica" >snapshot_restore_with_dense/Dense: Entire region + process_vm_writev w/ page size/1: slope</tspan></text>
	</g>
</g>
	<g id="gnuplot_plot_1" ><title>Bootstrap distribution</title>
<g fill="none" color="white" stroke="black" stroke-width="2.00" stroke-linecap="butt" stroke-linejoin="miter">
</g>
<g fill="none" color="black" stroke="currentColor" stroke-width="2.00" stroke-linecap="butt" stroke-linejoin="miter">
	<g transform="translate(1089.0,67.0)" stroke="none" fill="black" font-family="Helvetica" font-size="12.00"  text-anchor="start">
		<text><tspan font-family="Helvetica" >Bootstrap distribution</tspan></text>
	</g>
</g>
<g fill="none" color="black" stroke="currentColor" stroke-width="2.00" stroke-linecap="butt" stroke-linejoin="miter">
	<path stroke='rgb( 31, 120, 180)'  d='M1038.5,63.1 L1080.7,63.1 M63.6,629.4 L65.5,628.3 L67.4,627.2 L69.3,626.1 L71.2,625.0 L73.1,623.8
		L75.0,622.6 L76.9,621.3 L78.8,620.1 L80.7,618.7 L82.6,617.4 L84.5,616.0 L86.4,614.5 L88.3,613.0
		L90.3,611.5 L92.2,609.9 L94.1,608.2 L96.0,606.4 L97.9,604.6 L99.8,602.8 L101.7,600.9 L103.6,598.9
		L105.5,596.8 L107.4,594.7 L109.3,592.5 L111.2,590.2 L113.1,587.9 L115.0,585.5 L116.9,583.1 L118.8,580.6
		L120.7,578.1 L122.6,575.5 L124.5,572.9 L126.4,570.2 L128.3,567.5 L130.2,564.8 L132.1,562.0 L134.0,559.2
		L135.9,556.4 L137.8,553.5 L139.8,550.6 L141.7,547.7 L143.6,544.7 L145.5,541.7 L147.4,538.7 L149.3,535.7
		L151.2,532.7 L153.1,529.6 L155.0,526.5 L156.9,523.4 L158.8,520.3 L160.7,517.1 L162.6,513.9 L164.5,510.6
		L166.4,507.4 L168.3,504.0 L170.2,500.7 L172.1,497.3 L174.0,493.9 L175.9,490.5 L177.8,487.0 L179.7,483.5
		L181.6,479.9 L183.5,476.4 L185.4,472.8 L187.3,469.2 L189.3,465.6 L191.2,462.0 L193.1,458.3 L195.0,454.7
		L196.9,451.0 L198.8,447.4 L200.7,443.7 L202.6,440.0 L204.5,436.3 L206.4,432.6 L208.3,428.9 L210.2,425.2
		L212.1,421.4 L214.0,417.6 L215.9,413.8 L217.8,409.9 L219.7,406.0 L221.6,402.1 L223.5,398.1 L225.4,394.0
		L227.3,389.9 L229.2,385.8 L231.1,381.6 L233.0,377.3 L234.9,373.0 L236.8,368.7 L238.8,364.3 L240.7,359.9
		L242.6,355.4 L244.5,350.9 L246.4,346.4 L248.3,341.9 L250.2,337.4 L252.1,332.8 L254.0,328.2 L255.9,323.7
		L257.8,319.1 L259.7,314.5 L261.6,309.9 L263.5,305.4 L265.4,300.8 L267.3,296.3 L269.2,291.7 L271.1,287.2
		L273.0,282.7 L274.9,278.3 L276.8,273.9 L278.7,269.5 L280.6,265.1 L282.5,260.8 L284.4,256.5 L286.3,252.3
		L288.2,248.1 L290.2,243.9 L292.1,239.8 L294.0,235.7 L295.9,231.7 L297.8,227.7 L299.7,223.8 L301.6,219.8
		L303.5,216.0 L305.4,212.1 L307.3,208.3 L309.2,204.6 L311.1,200.8 L313.0,197.1 L314.9,193.4 L316.8,189.8
		L318.7,186.1 L320.6,182.5 L322.5,178.9 L324.4,175.2 L326.3,171.7 L328.2,168.1 L330.1,164.5 L332.0,160.9
		L333.9,157.4 L335.8,153.9 L337.7,150.4 L339.7,146.9 L341.6,143.5 L343.5,140.1 L345.4,136.7 L347.3,133.4
		L349.2,130.1 L351.1,126.9 L353.0,123.8 L354.9,120.7 L356.8,117.8 L358.7,114.9 L360.6,112.1 L362.5,109.4
		L364.4,106.7 L366.3,104.2 L368.2,101.8 L370.1,99.5 L372.0,97.3 L373.9,95.1 L375.8,93.1 L377.7,91.2
		L379.6,89.3 L381.5,87.6 L383.4,85.9 L385.3,84.3 L387.2,82.7 L389.2,81.2 L391.1,79.8 L393.0,78.5
		L394.9,77.2 L396.8,75.9 L398.7,74.7 L400.6,73.6 L402.5,72.5 L404.4,71.5 L406.3,70.5 L408.2,69.6
		L410.1,68.8 L412.0,68.0 L413.9,67.3 L415.8,66.7 L417.7,66.1 L419.6,65.7 L421.5,65.3 L423.4,65.0
		L425.3,64.7 L427.2,64.6 L429.1,64.5 L431.0,64.4 L432.9,64.4 L434.8,64.5 L436.7,64.6 L438.7,64.7
		L440.6,64.9 L442.5,65.0 L444.4,65.2 L446.3,65.4 L448.2,65.6 L450.1,65.8 L452.0,66.0 L453.9,66.1
		L455.8,66.3 L457.7,66.5 L459.6,66.7 L461.5,66.9 L463.4,67.2 L465.3,67.4 L467.2,67.7 L469.1,68.0
		L471.0,68.3 L472.9,68.7 L474.8,69.1 L476.7,69.6 L478.6,70.2 L480.5,70.8 L482.4,71.4 L484.3,72.2
		L486.2,73.0 L488.1,73.9 L490.1,74.9 L492.0,76.0 L493.9,77.2 L495.8,78.5 L497.7,79.9 L499.6,81.4
		L501.5,83.0 L503.4,84.7 L505.3,86.5 L507.2,88.4 L509.1,90.4 L511.0,92.5 L512.9,94.6 L514.8,96.9
		L516.7,99.2 L518.6,101.6 L520.5,104.1 L522.4,106.6 L524.3,109.2 L526.2,111.7 L528.1,114.3 L530.0,117.0
		L531.9,119.6 L533.8,122.2 L535.7,124.9 L537.6,127.5 L539.6,130.1 L541.5,132.7 L543.4,135.3 L545.3,137.9
		L547.2,140.4 L549.1,143.0 L551.0,145.5 L552.9,147.9 L554.8,150.4 L556.7,152.8 L558.6,155.2 L560.5,157.5
		L562.4,159.8 L564.3,162.1 L566.2,164.4 L568.1,166.7 L570.0,168.9 L571.9,171.1 L573.8,173.4 L575.7,175.6
		L577.6,177.8 L579.5,180.0 L581.4,182.3 L583.3,184.6 L585.2,186.9 L587.1,189.3 L589.1,191.7 L591.0,194.1
		L592.9,196.7 L594.8,199.3 L596.7,201.9 L598.6,204.7 L600.5,207.5 L602.4,210.5 L604.3,213.5 L606.2,216.6
		L608.1,219.8 L610.0,223.1 L611.9,226.4 L613.8,229.9 L615.7,233.4 L617.6,237.0 L619.5,240.7 L621.4,244.5
		L623.3,248.3 L625.2,252.1 L627.1,256.0 L629.0,259.8 L630.9,263.7 L632.8,267.6 L634.7,271.5 L636.6,275.4
		L638.5,279.2 L640.5,283.0 L642.4,286.7 L644.3,290.4 L646.2,294.0 L648.1,297.5 L650.0,301.0 L651.9,304.4
		L653.8,307.7 L655.7,310.9 L657.6,314.0 L659.5,317.1 L661.4,320.1 L663.3,323.0 L665.2,325.9 L667.1,328.7
		L669.0,331.4 L670.9,334.1 L672.8,336.8 L674.7,339.4 L676.6,342.0 L678.5,344.6 L680.4,347.2 L682.3,349.8
		L684.2,352.4 L686.1,354.9 L688.0,357.5 L690.0,360.1 L691.9,362.7 L693.8,365.3 L695.7,368.0 L697.6,370.6
		L699.5,373.3 L701.4,375.9 L703.3,378.6 L705.2,381.4 L707.1,384.1 L709.0,386.8 L710.9,389.6 L712.8,392.4
		L714.7,395.2 L716.6,398.0 L718.5,400.8 L720.4,403.6 L722.3,406.4 L724.2,409.2 L726.1,411.9 L728.0,414.7
		L729.9,417.5 L731.8,420.2 L733.7,422.9 L735.6,425.6 L737.5,428.2 L739.5,430.8 L741.4,433.4 L743.3,436.0
		L745.2,438.5 L747.1,441.0 L749.0,443.5 L750.9,446.0 L752.8,448.4 L754.7,450.8 L756.6,453.3 L758.5,455.6
		L760.4,458.0 L762.3,460.4 L764.2,462.7 L766.1,465.1 L768.0,467.4 L769.9,469.7 L771.8,471.9 L773.7,474.2
		L775.6,476.4 L777.5,478.6 L779.4,480.7 L781.3,482.8 L783.2,484.9 L785.1,486.9 L787.0,488.9 L789.0,490.8
		L790.9,492.8 L792.8,494.7 L794.7,496.5 L796.6,498.4 L798.5,500.2 L800.4,502.1 L802.3,503.9 L804.2,505.7
		L806.1,507.5 L808.0,509.4 L809.9,511.2 L811.8,513.0 L813.7,514.9 L815.6,516.7 L817.5,518.6 L819.4,520.4
		L821.3,522.3 L823.2,524.2 L825.1,526.0 L827.0,527.9 L828.9,529.7 L830.8,531.6 L832.7,533.4 L834.6,535.2
		L836.5,537.0 L838.4,538.8 L840.4,540.6 L842.3,542.3 L844.2,544.1 L846.1,545.8 L848.0,547.5 L849.9,549.1
		L851.8,550.8 L853.7,552.4 L855.6,554.0 L857.5,555.6 L859.4,557.1 L861.3,558.7 L863.2,560.2 L865.1,561.7
		L867.0,563.1 L868.9,564.5 L870.8,565.9 L872.7,567.3 L874.6,568.6 L876.5,570.0 L878.4,571.2 L880.3,572.5
		L882.2,573.7 L884.1,574.9 L886.0,576.0 L887.9,577.2 L889.9,578.3 L891.8,579.4 L893.7,580.5 L895.6,581.5
		L897.5,582.6 L899.4,583.6 L901.3,584.6 L903.2,585.7 L905.1,586.7 L907.0,587.7 L908.9,588.7 L910.8,589.8
		L912.7,590.8 L914.6,591.8 L916.5,592.9 L918.4,593.9 L920.3,595.0 L922.2,596.0 L924.1,597.1 L926.0,598.1
		L927.9,599.1 L929.8,600.2 L931.7,601.2 L933.6,602.2 L935.5,603.2 L937.4,604.1 L939.4,605.1 L941.3,606.0
		L943.2,607.0 L945.1,607.8 L947.0,608.7 L948.9,609.6 L950.8,610.4 L952.7,611.2 L954.6,612.0 L956.5,612.8
		L958.4,613.5 L960.3,614.2 L962.2,615.0 L964.1,615.7 L966.0,616.3 L967.9,617.0 L969.8,617.7 L971.7,618.3
		L973.6,619.0 L975.5,619.6 L977.4,620.2 L979.3,620.8 L981.2,621.5 L983.1,622.1 L985.0,622.7 L986.9,623.2
		L988.9,623.8 L990.8,624.4 L992.7,625.0 L994.6,625.5 L996.5,626.1 L998.4,626.6 L1000.3,627.2 L1002.2,627.7
		L1004.1,628.2 L1006.0,628.7 L1007.9,629.2 L1009.8,629.7 L1011.7,630.2 L1013.6,630.7  '/></g>
	</g>
	<g id="gnuplot_plot_2" ><title>Confidence interval</title>
<g fill="none" color="white" stroke="rgb( 31, 120, 180)" stroke-width="1.00" stroke-linecap="butt" stroke-linejoin="miter">
</g>
<g fill="none" color="black" stroke="currentColor" stroke-width="1.00" stroke-linecap="butt" stroke-linejoin="miter">
	<g transform="translate(1089.0,85.0)" stroke="none" fill="black" font-family="Helvetica" font-size="12.00"  text-anchor="start">
		<text><tspan font-family="Helvetica" >Confidence interval</tspan></text>
	</g>
</g>
<g fill="none" color="black" stroke="currentColor" stroke-width="1.00" stroke-linecap="butt" stroke-linejoin="miter">
	<g stroke='none' shape-rendering='crispEdges'>
		<polygon fill = 'rgb( 31, 120, 180)' fill-opacity = '0.250000' points = '1038.5,85.6 1080.7,85.6 1080.7,76.6 1038.5,76.6 '/>
		<polygon fill = 'rgb( 31, 120, 180)' fill-opacity = '0.250000' points = '151.2,532.7 153.1,529.6 155.0,526.5 156.9,523.4 158.8,520.3 160.7,517.1 162.6,513.9 164.5,510.6 166.4,507.4 168.3,504.0 170.2,500.7 172.1,497.3 174.0,493.9 175.9,490.5 177.8,487.0 179.7,483.5
181.6,479.9 183.5,476.4 185.4,472.8 187.3,469.2 189.3,465.6 191.2,462.0 193.1,458.3 195.0,454.7 196.9,451.0 198.8,447.4 200.7,443.7 202.6,440.0 204.5,436.3 206.4,432.6 208.3,428.9 210.2,425.2
212.1,421.4 214.0,417.6 215.9,413.8 217.8,409.9 219.7,406.0 221.6,402.1 223.5,398.1 225.4,394.0 227.3,389.9 229.2,385.8 231.1,381.6 233.0,377.3 234.9,373.0 236.8,368.7 238.8,364.3 240.7,359.9
242.6,355.4 244.5,350.9 246.4,346.4 248.3,341.9 250.2,337.4 252.1,332.8 254.0,328.2 255.9,323.7 257.8,319.1 259.7,314.5 261.6,309.9 263.5,305.4 265.4,300.8 267.3,296.3 269.2,291.7 271.1,287.2
273.0,282.7 274.9,278.3 276.8,273.9 278.7,269.5 280.6,265.1 282.5,260.8 284.4,256.5 286.3,252.3 288.2,248.1 290.2,243.9 292.1,239.8 294.0,235.7 295.9,231.7 297.8,227.7 299.7,223.8 301.6,219.8
303.5,216.0 305.4,212.1 307.3,208.3 309.2,204.6 311.1,200.8 313.0,197.1 314.9,193.4 316.8,189.8 318.7,186.1 320.6,182.5 322.5,178.9 324.4,175.2 326.3,171.7 328.2,168.1 330.1,164.5 332.0,160.9
333.9,157.4 335.8,153.9 337.7,150.4 339.7,146.9 341.6,143.5 343.5,140.1 345.4,136.7 347.3,133.4 349.2,130.1 351.1,126.9 353.0,123.8 354.9,120.7 356.8,117.8 358.7,114.9 360.6,112.1 362.5,109.4
364.4,106.7 366.3,104.2 368.2,101.8 370.1,99.5 372.0,97.3 373.9,95.1 375.8,93.1 377.7,91.2 379.6,89.3 381.5,87.6 383.4,85.9 385.3,84.3 387.2,82.7 389.2,81.2 391.1,79.8 393.0,78.5
394.9,77.2 396.8,75.9 398.7,74.7 400.6,73.6 402.5,72.5 404.4,71.5 406.3,70.5 408.2,69.6 410.1,68.8 412.0,68.0 413.9,67.3 415.8,66.7 417.7,66.1 419.6,65.7 421.5,65.3 423.4,65.0
425.3,64.7 427.2,64.6 429.1,64.5 431.0,64.4 432.9,64.4 434.8,64.5 436.7,64.6 438.7,64.7 440.6,64.9 442.5,65.0 444.4,65.2 446.3,65.4 448.2,65.6 450.1,65.8 452.0,66.0 453.9,66.1
455.8,66.3 457.7,66.5 459.6,66.7 461.5,66.9 463.4,67.2 465.3,67.4 467.2,67.7 469.1,68.0 471.0,68.3 472.9,68.7 474.8,69.1 476.7,69.6 478.6,70.2 480.5,70.8 482.4,71.4 484.3,72.2
486.2,73.0 488.1,73.9 490.1,74.9 492.0,76.0 493.9,77.2 495.8,78.5 497.7,79.9 499.6,81.4 501.5,83.0 503.4,84.7 505.3,86.5 507.2,88.4 509.1,90.4 511.0,92.5 512.9,94.6 514.8,96.9
516.7,99.2 518.6,101.6 520.5,104.1 522.4,106.6 524.3,109.2 526.2,111.7 528.1,114.3 530.0,117.0 531.9,119.6 533.8,122.2 535.7,124.9 537.6,127.5 539.6,130.1 541.5,132.7 543.4,135.3 545.3,137.9
547.2,140.4 549.1,143.0 551.0,145.5 552.9,147.9 554.8,150.4 556.7,152.8 558.6,155.2 560.5,157.5 562.4,159.8 564.3,162.1 566.2,164.4 568.1,166.7 570.0,168.9 571.9,171.1 573.8,173.4 575.7,175.6
577.6,177.8 579.5,180.0 581.4,182.3 583.3,184.6 585.2,186.9 587.1,189.3 589.1,191.7 591.0,194.1 592.9,196.7 594.8,199.3 596.7,201.9 598.6,204.7 600.5,207.5 602.4,210.5 604.3,213.5 606.2,216.6
608.1,219.8 610.0,223.1 611.9,226.4 613.8,229.9 615.7,233.4 617.6,237.0 619.5,240.7 621.4,244.5 623.3,248.3 625.2,252.1 627.1,256.0 629.0,259.8 630.9,263.7 632.8,267.6 634.7,271.5 636.6,275.4
638.5,279.2 640.5,283.0 642.4,286.7 644.3,290.4 646.2,294.0 648.1,297.5 650.0,301.0 651.9,304.4 653.8,307.7 655.7,310.9 657.6,314.0 659.5,317.1 661.4,320.1 663.3,323.0 665.2,325.9 667.1,328.7
669.0,331.4 670.9,334.1 672.8,336.8 674.7,339.4 676.6,342.0 678.5,344.6 680.4,347.2 682.3,349.8 684.2,352.4 686.1,354.9 688.0,357.5 690.0,360.1 691.9,362.7 693.8,365.3 695.7,368.0 697.6,370.6
699.5,373.3 701.4,375.9 703.3,378.6 705.2,381.4 707.1,384.1 709.0,386.8 710.9,389.6 712.8,392.4 714.7,395.2 716.6,398.0 718.5,400.8 720.4,403.6 722.3,406.4 724.2,409.2 726.1,411.9 728.0,414.7
729.9,417.5 731.8,420.2 733.7,422.9 735.6,425.6 737.5,428.2 739.5,430.8 741.4,433.4 743.3,436.0 745.2,438.5 747.1,441.0 749.0,443.5 750.9,446.0 752.8,448.4 754.7,450.8 756.6,453.3 758.5,455.6
760.4,458.0 762.3,460.4 764.2,462.7 766.1,465.1 768.0,467.4 769.9,469.7 771.8,471.9 773.7,474.2 775.6,476.4 777.5,478.6 779.4,480.7 781.3,482.8 783.2,484.9 785.1,486.9 787.0,488.9 789.0,490.8
790.9,492.8 792.8,494.7 794.7,496.5 796.6,498.4 798.5,500.2 800.4,502.1 802.3,503.9 804.2,505.7 806.1,507.5 808.0,509.4 809.9,511.2 811.8,513.0 813.7,514.9 815.6,516.7 817.5,518.6 819.4,520.4
821.3,522.3 823.2,524.2 825.1,526.0 827.0,527.9 828.9,529.7 830.8,531.6 832.7,533.4 834.6,535.2 836.5,537.0 838.4,538.8 840.4,540.6 842.3,542.3 844.2,544.1 846.1,545.8 848.0,547.5 849.9,549.1
851.8,550.8 853.7,552.4 855.6,554.0 857.5,555.6 859.4,557.1 861.3,558.7 863.2,560.2 865.1,561.7 867.0,563.1 868.9,564.5 870.8,565.9 872.7,567.3 874.6,568.6 876.5,570.0 878.4,571.2 880.3,572.5
882.2,573.7 884.1,574.9 886.0,576.0 887.9,577.2 889.9,578.3 891.8,579.4 893.7,580.5 895.6,581.5 897.5,582.6 899.4,583.6 901.3,584.6 903.2,585.7 905.1,586.7 907.0,587.7 908.9,588.7 910.8,589.8
912.7,590.8 914.6,591.8 916.5,592.9 918.4,593.9 920.3,595.0 922.2,596.0 924.1,597.1 924.1,662.4 922.2,662.4 920.3,662.4 918.4,662.4 916.5,662.4 914.6,662.4 912.7,662.4 910.8,662.4 908.9,662.4
907.0,662.4 905.1,662.4 903.2,662.4 901.3,662.4 899.4,662.4 897.5,662.4 895.6,662.4 893.7,662.4 891.8,662.4 889.9,662.4 887.9,662.4 886.0,662.4 884.1,662.4 882.2,662.4 880.3,662.4 878.4,662.4
876.5,662.4 874.6,662.4 872.7,662.4 870.8,662.4 868.9,662.4 867.0,662.4 865.1,662.4 863.2,662.4 861.3,662.4 859.4,662.4 857.5,662.4 855.6,662.4 853.7,662.4 851.8,662.4 849.9,662.4 848.0,662.4
846.1,662.4 844.2,662.4 842.3,662.4 840.4,662.4 838.4,662.4 836.5,662.4 834.6,662.4 832.7,662.4 830.8,662.4 828.9,662.4 827.0,662.4 825.1,662.4 823.2,662.4 821.3,662.4 819.4,662.4 817.5,662.4
815.6,662.4 813.7,662.4 811.8,662.4 809.9,662.4 808.0,662.4 806.1,662.4 804.2,662.4 802.3,662.4 800.4,662.4 798.5,662.4 796.6,662.4 794.7,662.4 792.8,662.4 790.9,662.4 789.0,662.4 787.0,662.4
785.1,662.4 783.2,662.4 781.3,662.4 779.4,662.4 777.5,662.4 775.6,662.4 773.7,662.4 771.8,662.4 769.9,662.4 768.0,662.4 766.1,662.4 764.2,662.4 762.3,662.4 760.4,662.4 758.5,662.4 756.6,662.4
754.7,662.4 752.8,662.4 750.9,662.4 749.0,662.4 747.1,662.4 745.2,662.4 743.3,662.4 741.4,662.4 739.5,662.4 737.5,662.4 735.6,662.4 733.7,662.4 731.8,662.4 729.9,662.4 728.0,662.4 726.1,662.4
724.2,662.4 722.3,662.4 720.4,662.4 718.5,662.4 716.6,662.4 714.7,662.4 712.8,662.4 710.9,662.4 709.0,662.4 707.1,662.4 705.2,662.4 703.3,662.4 701.4,662.4 699.5,662.4 697.6,662.4 695.7,662.4
693.8,662.4 691.9,662.4 690.0,662.4 688.0,662.4 686.1,662.4 684.2,662.4 682.3,662.4 680.4,662.4 678.5,662.4 676.6,662.4 674.7,662.4 672.8,662.4 670.9,662.4 669.0,662.4 667.1,662.4 665.2,662.4
663.3,662.4 661.4,662.4 659.5,662.4 657.6,662.4 655.7,662.4 653.8,662.4 651.9,662.4 650.0,662.4 648.1,662.4 646.2,662.4 644.3,662.4 642.4,662.4 640.5,662.4 638.5,662.4 636.6,662.4 634.7,662.4
632.8,662.4 630.9,662.4 629.0,662.4 627.1,662.4 625.2,662.4 623.3,662.4 621.4,662.4 619.5,662.4 617.6,662.4 615.7,662.4 613.8,662.4 611.9,662.4 610.0,662.4 608.1,662.4 606.2,662.4 604.3,662.4
602.4,662.4 600.5,662.4 598.6,662.4 596.7,662.4 594.8,662.4 592.9,662.4 591.0,662.4 589.1,662.4 587.1,662.4 585.2,662.4 583.3,662.4 581.4,662.4 579.5,662.4 577.6,662.4 575.7,662.4 573.8,662.4
571.9,662.4 570.0,662.4 568.1,662.4 566.2,662.4 564.3,662.4 562.4,662.4 560.5,662.4 558.6,662.4 556.7,662.4 554.8,662.4 552.9,662.4 551.0,662.4 549.1,662.4 547.2,662.4 545.3,662.4 543.4,662.4
541.5,662.4 539.6,662.4 537.6,662.4 535.7,662.4 533.8,662.4 531.9,662.4 530.0,662.4 528.1,662.4 526.2,662.4 524.3,662.4 522.4,662.4 520.5,662.4 518.6,662.4 516.7,662.4 514.8,662.4 512.9,662.4
511.0,662.4 509.1,662.4 507.2,662.4 505.3,662.4 503.4,662.4 501.5,662.4 499.6,662.4 497.7,662.4 495.8,662.4 493.9,662.4 492.0,662.4 490.1,662.4 488.1,662.4 486.2,662.4 484.3,662.4 482.4,662.4
480.5,662.4 478.6,662.4 476.7,662.4 474.8,662.4 472.9,662.4 471.0,662.4 469.1,662.4 467.2,662.4 465.3,662.4 463.4,662.4 461.5,662.4 459.6,662.4 457.7,662.4 455.8,662.4 453.9,662.4 452.0,662.4
450.1,662.4 448.2,662.4 446.3,662.4 444.4,662.4 442.5,662.4 440.6,662.4 438.7,662.4 436.7,662.4 434.8,662.4 432.9,662.4 431.0,662.4 429.1,662.4 427.2,662.4 425.3,662.4 423.4,662.4 421.5,662.4
419.6,662.4 417.7,662.4 415.8,662.4 413.9,662.4 412.0,662.4 410.1,662.4 408.2,662.4 406.3,662.4 404.4,662.4 402.5,662.4 400.6,662.4 398.7,662.4 396.8,662.4 394.9,662.4 393.0,662.4 391.1,662.4
389.2,662.4 387.2,662.4 385.3,662.4 383.4,662.4 381.5,662.4 379.6,662.4 377.7,662.4 375.8,662.4 373.9,662.4 372.0,662.4 370.1,662.4 368.2,662.4 366.3,662.4 364.4,662.4 362.5,662.4 360.6,662.4
358.7,662.4 356.8,662.4 354.9,662.4 353.0,662.4 351.1,662.4 349.2,662.4 347.3,662.4 345.4,662.4 343.5,662.4 341.6,662.4 339.7,662.4 337.7,662.4 335.8,662.4 333.9,662.4 332.0,662.4 330.1,662.4
328.2,662.4 326.3,662.4 324.4,662.4 322.5,662.4 320.6,662.4 318.7,662.4 316.8,662.4 314.9,662.4 313.0,662.4 311.1,662.4 309.2,662.4 307.3,662.4 305.4,662.4 303.5,662.4 301.6,662.4 299.7,662.4
297.8,662.4 295.9,662.4 294.0,662.4 292.1,662.4 290.2,662.4 288.2,662.4 286.3,662.4 284.4,662.4 282.5,662.4 280.6,662.4 278.7,662.4 276.8,662.4 274.9,662.4 273.0,662.4 271.1,662.4 269.2,662.4
267.3,662.4 265.4,662.4 263.5,662.4 261.6,662.4 259.7,662.4 257.8,662.4 255.9,662.4 254.0,662.4 252.1,662.4 250.2,662.4 248.3,662.4 246.4,662.4 244.5,662.4 242.6,662.4 240.7,662.4 238.8,662.4
236.8,662.4 234.9,662.4 233.0,662.4 231.1,662.4 229.2,662.4 227.3,662.4 225.4,662.4 223.5,662.4 221.6,662.4 219.7,662.4 217.8,662.4 215.9,662.4 214.0,662.4 212.1,662.4 210.2,662.4 208.3,662.4
206.4,662.4 204.5,662.4 202.6,662.4 200.7,662.4 198.8,662.4 196.9,662.4 195.0,662.4 193.1,662.4 191.2,662.4 189.3,662.4 187.3,662.4 185.4,662.4 183.5,662.4 181.6,662.4 179.7,662.4 177.8,662.4
175.9,662.4 174.0,662.4 172.1,662.4 170.2,662.4 168.3,662.4 166.4,662.4 164.5,662.4 162.6,662.4 160.7,662.4 158.8,662.4 156.9,662.4 155.0,662.4 153.1,662.4 151.2,662.4 '/>
	</g>
</g>
	</g>
	<g id="gnuplot_plot_3" ><title>Point estimate</title>
<g fill="none" color="white" stroke="rgb( 31, 120, 180)" stroke-width="2.00" stroke-linecap="butt" stroke-linejoin="miter">
</g>
<g fill="none" color="black" stroke="currentColor" stroke-width="2.00" stroke-linecap="butt" stroke-linejoin="miter">
	<g transform="translate(1089.0,103.0)" stroke="none" fill="black" font-family="Helvetica" font-size="12.00"  text-anchor="start">
		<text><tspan font-family="Helvetica" >Point estimate</tspan></text>
	</g>
</g>
<g fill="none" color="black" stroke="currentColor" stroke-width="2.00" stroke-linecap="butt" stroke-linejoin="miter">
	<path stroke='rgb( 31, 120, 180)'  d='M1038.5,99.1 L1080.7,99.1 M482.2,662.4 L482.2,71.3  '/></g>
	</g>
<g fill="none" color="black" stroke="currentColor" stroke-width="2.00" stroke-linecap="butt" stroke-linejoin="miter">
</g>
<g fill="none" color="black" stroke="black" stroke-width="1.00" stroke-linecap="butt" stroke-linejoin="miter">
</g>
<g fill="none" color="black" stroke="currentColor" stroke-width="1.00" stroke-linecap="butt" stroke-linejoin="miter">
	<path stroke='black'  d='M63.6,54.1 L63.6,662.4 L1013.6,662.4 L1013.6,54.1 L63.6,54.1 Z  '/></g>
<g fill="none" color="black" stroke="currentColor" stroke-width="1.00" stroke-linecap="butt" stroke-linejoin="miter">
</g>
</g>
</svg>

