group,function,value,throughput_num,throughput_type,sample_measured_value,unit,iteration_count
snapshot_restore_with_dense,Sparse: Entire region + process_vm_writev,5,,,1137804.0,ns,37
snapshot_restore_with_dense,Sparse: Entire region + process_vm_writev,5,,,1967490.0,ns,74
snapshot_restore_with_dense,Sparse: Entire region + process_vm_writev,5,,,2958503.0,ns,111
snapshot_restore_with_dense,Sparse: Entire region + process_vm_writev,5,,,3982818.0,ns,148
snapshot_restore_with_dense,Sparse: Entire region + process_vm_writev,5,,,5102892.0,ns,185
snapshot_restore_with_dense,Sparse: Entire region + process_vm_writev,5,,,5945877.0,ns,222
snapshot_restore_with_dense,Sparse: Entire region + process_vm_writev,5,,,7353359.0,ns,259
snapshot_restore_with_dense,Sparse: Entire region + process_vm_writev,5,,,8399109.0,ns,296
snapshot_restore_with_dense,Sparse: Entire region + process_vm_writev,5,,,9183261.0,ns,333
snapshot_restore_with_dense,Sparse: Entire region + process_vm_writev,5,,,9967367.0,ns,370
snapshot_restore_with_dense,Sparse: Entire region + process_vm_writev,5,,,10955285.0,ns,407
snapshot_restore_with_dense,Sparse: Entire region + process_vm_writev,5,,,11839468.0,ns,444
snapshot_restore_with_dense,Sparse: Entire region + process_vm_writev,5,,,12826924.0,ns,481
snapshot_restore_with_dense,Sparse: Entire region + process_vm_writev,5,,,18832702.0,ns,518
snapshot_restore_with_dense,Sparse: Entire region + process_vm_writev,5,,,15143870.0,ns,555
snapshot_restore_with_dense,Sparse: Entire region + process_vm_writev,5,,,16190207.0,ns,592
snapshot_restore_with_dense,Sparse: Entire region + process_vm_writev,5,,,16823312.0,ns,629
snapshot_restore_with_dense,Sparse: Entire region + process_vm_writev,5,,,17801980.0,ns,666
snapshot_restore_with_dense,Sparse: Entire region + process_vm_writev,5,,,18785117.0,ns,703
snapshot_restore_with_dense,Sparse: Entire region + process_vm_writev,5,,,19750274.0,ns,740
snapshot_restore_with_dense,Sparse: Entire region + process_vm_writev,5,,,20810064.0,ns,777
snapshot_restore_with_dense,Sparse: Entire region + process_vm_writev,5,,,21746933.0,ns,814
snapshot_restore_with_dense,Sparse: Entire region + process_vm_writev,5,,,22743251.0,ns,851
snapshot_restore_with_dense,Sparse: Entire region + process_vm_writev,5,,,23739933.0,ns,888
snapshot_restore_with_dense,Sparse: Entire region + process_vm_writev,5,,,24786122.0,ns,925
snapshot_restore_with_dense,Sparse: Entire region + process_vm_writev,5,,,25711569.0,ns,962
snapshot_restore_with_dense,Sparse: Entire region + process_vm_writev,5,,,26671218.0,ns,999
snapshot_restore_with_dense,Sparse: Entire region + process_vm_writev,5,,,27662815.0,ns,1036
snapshot_restore_with_dense,Sparse: Entire region + process_vm_writev,5,,,28744623.0,ns,1073
snapshot_restore_with_dense,Sparse: Entire region + process_vm_writev,5,,,29735404.0,ns,1110
snapshot_restore_with_dense,Sparse: Entire region + process_vm_writev,5,,,30665537.0,ns,1147
snapshot_restore_with_dense,Sparse: Entire region + process_vm_writev,5,,,31660052.0,ns,1184
snapshot_restore_with_dense,Sparse: Entire region + process_vm_writev,5,,,32667124.0,ns,1221
snapshot_restore_with_dense,Sparse: Entire region + process_vm_writev,5,,,33651074.0,ns,1258
snapshot_restore_with_dense,Sparse: Entire region + process_vm_writev,5,,,34659190.0,ns,1295
snapshot_restore_with_dense,Sparse: Entire region + process_vm_writev,5,,,35588282.0,ns,1332
snapshot_restore_with_dense,Sparse: Entire region + process_vm_writev,5,,,36572636.0,ns,1369
snapshot_restore_with_dense,Sparse: Entire region + process_vm_writev,5,,,37658470.0,ns,1406
snapshot_restore_with_dense,Sparse: Entire region + process_vm_writev,5,,,38543643.0,ns,1443
snapshot_restore_with_dense,Sparse: Entire region + process_vm_writev,5,,,39540886.0,ns,1480
snapshot_restore_with_dense,Sparse: Entire region + process_vm_writev,5,,,40565290.0,ns,1517
snapshot_restore_with_dense,Sparse: Entire region + process_vm_writev,5,,,41483899.0,ns,1554
snapshot_restore_with_dense,Sparse: Entire region + process_vm_writev,5,,,42578382.0,ns,1591
snapshot_restore_with_dense,Sparse: Entire region + process_vm_writev,5,,,43487287.0,ns,1628
snapshot_restore_with_dense,Sparse: Entire region + process_vm_writev,5,,,44477841.0,ns,1665
snapshot_restore_with_dense,Sparse: Entire region + process_vm_writev,5,,,45523933.0,ns,1702
snapshot_restore_with_dense,Sparse: Entire region + process_vm_writev,5,,,46670415.0,ns,1739
snapshot_restore_with_dense,Sparse: Entire region + process_vm_writev,5,,,47641195.0,ns,1776
snapshot_restore_with_dense,Sparse: Entire region + process_vm_writev,5,,,48678348.0,ns,1813
snapshot_restore_with_dense,Sparse: Entire region + process_vm_writev,5,,,49644092.0,ns,1850
snapshot_restore_with_dense,Sparse: Entire region + process_vm_writev,5,,,50442010.0,ns,1887
snapshot_restore_with_dense,Sparse: Entire region + process_vm_writev,5,,,51429360.0,ns,1924
snapshot_restore_with_dense,Sparse: Entire region + process_vm_writev,5,,,52450828.0,ns,1961
snapshot_restore_with_dense,Sparse: Entire region + process_vm_writev,5,,,53497991.0,ns,1998
snapshot_restore_with_dense,Sparse: Entire region + process_vm_writev,5,,,54337785.0,ns,2035
snapshot_restore_with_dense,Sparse: Entire region + process_vm_writev,5,,,55432272.0,ns,2072
snapshot_restore_with_dense,Sparse: Entire region + process_vm_writev,5,,,56404191.0,ns,2109
snapshot_restore_with_dense,Sparse: Entire region + process_vm_writev,5,,,57411948.0,ns,2146
snapshot_restore_with_dense,Sparse: Entire region + process_vm_writev,5,,,58292622.0,ns,2183
snapshot_restore_with_dense,Sparse: Entire region + process_vm_writev,5,,,59327668.0,ns,2220
snapshot_restore_with_dense,Sparse: Entire region + process_vm_writev,5,,,60352702.0,ns,2257
snapshot_restore_with_dense,Sparse: Entire region + process_vm_writev,5,,,61326110.0,ns,2294
snapshot_restore_with_dense,Sparse: Entire region + process_vm_writev,5,,,62362767.0,ns,2331
snapshot_restore_with_dense,Sparse: Entire region + process_vm_writev,5,,,63410580.0,ns,2368
snapshot_restore_with_dense,Sparse: Entire region + process_vm_writev,5,,,71658707.0,ns,2405
snapshot_restore_with_dense,Sparse: Entire region + process_vm_writev,5,,,67268447.0,ns,2442
snapshot_restore_with_dense,Sparse: Entire region + process_vm_writev,5,,,66306604.0,ns,2479
snapshot_restore_with_dense,Sparse: Entire region + process_vm_writev,5,,,67272630.0,ns,2516
snapshot_restore_with_dense,Sparse: Entire region + process_vm_writev,5,,,68276695.0,ns,2553
snapshot_restore_with_dense,Sparse: Entire region + process_vm_writev,5,,,69227845.0,ns,2590
snapshot_restore_with_dense,Sparse: Entire region + process_vm_writev,5,,,70229830.0,ns,2627
snapshot_restore_with_dense,Sparse: Entire region + process_vm_writev,5,,,71213649.0,ns,2664
snapshot_restore_with_dense,Sparse: Entire region + process_vm_writev,5,,,72179044.0,ns,2701
snapshot_restore_with_dense,Sparse: Entire region + process_vm_writev,5,,,73079501.0,ns,2738
snapshot_restore_with_dense,Sparse: Entire region + process_vm_writev,5,,,74168086.0,ns,2775
snapshot_restore_with_dense,Sparse: Entire region + process_vm_writev,5,,,75155356.0,ns,2812
snapshot_restore_with_dense,Sparse: Entire region + process_vm_writev,5,,,76094913.0,ns,2849
snapshot_restore_with_dense,Sparse: Entire region + process_vm_writev,5,,,77054222.0,ns,2886
snapshot_restore_with_dense,Sparse: Entire region + process_vm_writev,5,,,78327638.0,ns,2923
snapshot_restore_with_dense,Sparse: Entire region + process_vm_writev,5,,,79089947.0,ns,2960
snapshot_restore_with_dense,Sparse: Entire region + process_vm_writev,5,,,80119223.0,ns,2997
snapshot_restore_with_dense,Sparse: Entire region + process_vm_writev,5,,,81051005.0,ns,3034
snapshot_restore_with_dense,Sparse: Entire region + process_vm_writev,5,,,82647940.0,ns,3071
snapshot_restore_with_dense,Sparse: Entire region + process_vm_writev,5,,,83409380.0,ns,3108
snapshot_restore_with_dense,Sparse: Entire region + process_vm_writev,5,,,84028685.0,ns,3145
snapshot_restore_with_dense,Sparse: Entire region + process_vm_writev,5,,,84970336.0,ns,3182
snapshot_restore_with_dense,Sparse: Entire region + process_vm_writev,5,,,85959103.0,ns,3219
snapshot_restore_with_dense,Sparse: Entire region + process_vm_writev,5,,,87031659.0,ns,3256
snapshot_restore_with_dense,Sparse: Entire region + process_vm_writev,5,,,97284520.0,ns,3293
snapshot_restore_with_dense,Sparse: Entire region + process_vm_writev,5,,,89616770.0,ns,3330
snapshot_restore_with_dense,Sparse: Entire region + process_vm_writev,5,,,90504196.0,ns,3367
snapshot_restore_with_dense,Sparse: Entire region + process_vm_writev,5,,,91400592.0,ns,3404
snapshot_restore_with_dense,Sparse: Entire region + process_vm_writev,5,,,92424097.0,ns,3441
snapshot_restore_with_dense,Sparse: Entire region + process_vm_writev,5,,,93178838.0,ns,3478
snapshot_restore_with_dense,Sparse: Entire region + process_vm_writev,5,,,93936282.0,ns,3515
snapshot_restore_with_dense,Sparse: Entire region + process_vm_writev,5,,,95142645.0,ns,3552
snapshot_restore_with_dense,Sparse: Entire region + process_vm_writev,5,,,96000218.0,ns,3589
snapshot_restore_with_dense,Sparse: Entire region + process_vm_writev,5,,,96883012.0,ns,3626
snapshot_restore_with_dense,Sparse: Entire region + process_vm_writev,5,,,97864754.0,ns,3663
snapshot_restore_with_dense,Sparse: Entire region + process_vm_writev,5,,,98825713.0,ns,3700
