<?xml version="1.0" encoding="utf-8"  standalone="no"?>
<svg 
 viewBox="0 0 1280 720"
 xmlns="http://www.w3.org/2000/svg"
 xmlns:xlink="http://www.w3.org/1999/xlink"
>

<title>Gnuplot</title>
<desc>Produced by GNUPLOT 5.2 patchlevel 6 </desc>

<g id="gnuplot_canvas">

<rect x="0" y="0" width="1280" height="720" fill="none"/>
<defs>

	<circle id='gpDot' r='0.5' stroke-width='0.5' stroke='currentColor'/>
	<path id='gpPt0' stroke-width='0.222' stroke='currentColor' d='M-1,0 h2 M0,-1 v2'/>
	<path id='gpPt1' stroke-width='0.222' stroke='currentColor' d='M-1,-1 L1,1 M1,-1 L-1,1'/>
	<path id='gpPt2' stroke-width='0.222' stroke='currentColor' d='M-1,0 L1,0 M0,-1 L0,1 M-1,-1 L1,1 M-1,1 L1,-1'/>
	<rect id='gpPt3' stroke-width='0.222' stroke='currentColor' x='-1' y='-1' width='2' height='2'/>
	<rect id='gpPt4' stroke-width='0.222' stroke='currentColor' fill='currentColor' x='-1' y='-1' width='2' height='2'/>
	<circle id='gpPt5' stroke-width='0.222' stroke='currentColor' cx='0' cy='0' r='1'/>
	<use xlink:href='#gpPt5' id='gpPt6' fill='currentColor' stroke='none'/>
	<path id='gpPt7' stroke-width='0.222' stroke='currentColor' d='M0,-1.33 L-1.33,0.67 L1.33,0.67 z'/>
	<use xlink:href='#gpPt7' id='gpPt8' fill='currentColor' stroke='none'/>
	<use xlink:href='#gpPt7' id='gpPt9' stroke='currentColor' transform='rotate(180)'/>
	<use xlink:href='#gpPt9' id='gpPt10' fill='currentColor' stroke='none'/>
	<use xlink:href='#gpPt3' id='gpPt11' stroke='currentColor' transform='rotate(45)'/>
	<use xlink:href='#gpPt11' id='gpPt12' fill='currentColor' stroke='none'/>
	<path id='gpPt13' stroke-width='0.222' stroke='currentColor' d='M0,1.330 L1.265,0.411 L0.782,-1.067 L-0.782,-1.076 L-1.265,0.411 z'/>
	<use xlink:href='#gpPt13' id='gpPt14' fill='currentColor' stroke='none'/>
	<filter id='textbox' filterUnits='objectBoundingBox' x='0' y='0' height='1' width='1'>
	  <feFlood flood-color='white' flood-opacity='1' result='bgnd'/>
	  <feComposite in='SourceGraphic' in2='bgnd' operator='atop'/>
	</filter>
	<filter id='greybox' filterUnits='objectBoundingBox' x='0' y='0' height='1' width='1'>
	  <feFlood flood-color='lightgrey' flood-opacity='1' result='grey'/>
	  <feComposite in='SourceGraphic' in2='grey' operator='atop'/>
	</filter>
</defs>
<g fill="none" color="white" stroke="currentColor" stroke-width="1.00" stroke-linecap="butt" stroke-linejoin="miter">
</g>
<g fill="none" color="black" stroke="currentColor" stroke-width="1.00" stroke-linecap="butt" stroke-linejoin="miter">
	<path stroke='black'  d='M71.9,662.4 L80.9,662.4  '/>	<g transform="translate(63.6,666.3)" stroke="none" fill="black" font-family="Helvetica" font-size="12.00"  text-anchor="end">
		<text><tspan font-family="Helvetica" > 0</tspan></text>
	</g>
</g>
<g fill="none" color="black" stroke="currentColor" stroke-width="1.00" stroke-linecap="butt" stroke-linejoin="miter">
	<path stroke='black'  d='M71.9,575.5 L80.9,575.5  '/>	<g transform="translate(63.6,579.4)" stroke="none" fill="black" font-family="Helvetica" font-size="12.00"  text-anchor="end">
		<text><tspan font-family="Helvetica" > 20</tspan></text>
	</g>
</g>
<g fill="none" color="black" stroke="currentColor" stroke-width="1.00" stroke-linecap="butt" stroke-linejoin="miter">
	<path stroke='black'  d='M71.9,488.6 L80.9,488.6  '/>	<g transform="translate(63.6,492.5)" stroke="none" fill="black" font-family="Helvetica" font-size="12.00"  text-anchor="end">
		<text><tspan font-family="Helvetica" > 40</tspan></text>
	</g>
</g>
<g fill="none" color="black" stroke="currentColor" stroke-width="1.00" stroke-linecap="butt" stroke-linejoin="miter">
	<path stroke='black'  d='M71.9,401.7 L80.9,401.7  '/>	<g transform="translate(63.6,405.6)" stroke="none" fill="black" font-family="Helvetica" font-size="12.00"  text-anchor="end">
		<text><tspan font-family="Helvetica" > 60</tspan></text>
	</g>
</g>
<g fill="none" color="black" stroke="currentColor" stroke-width="1.00" stroke-linecap="butt" stroke-linejoin="miter">
	<path stroke='black'  d='M71.9,314.8 L80.9,314.8  '/>	<g transform="translate(63.6,318.7)" stroke="none" fill="black" font-family="Helvetica" font-size="12.00"  text-anchor="end">
		<text><tspan font-family="Helvetica" > 80</tspan></text>
	</g>
</g>
<g fill="none" color="black" stroke="currentColor" stroke-width="1.00" stroke-linecap="butt" stroke-linejoin="miter">
	<path stroke='black'  d='M71.9,227.9 L80.9,227.9  '/>	<g transform="translate(63.6,231.8)" stroke="none" fill="black" font-family="Helvetica" font-size="12.00"  text-anchor="end">
		<text><tspan font-family="Helvetica" > 100</tspan></text>
	</g>
</g>
<g fill="none" color="black" stroke="currentColor" stroke-width="1.00" stroke-linecap="butt" stroke-linejoin="miter">
	<path stroke='black'  d='M71.9,141.0 L80.9,141.0  '/>	<g transform="translate(63.6,144.9)" stroke="none" fill="black" font-family="Helvetica" font-size="12.00"  text-anchor="end">
		<text><tspan font-family="Helvetica" > 120</tspan></text>
	</g>
</g>
<g fill="none" color="black" stroke="currentColor" stroke-width="1.00" stroke-linecap="butt" stroke-linejoin="miter">
	<path stroke='black'  d='M71.9,54.1 L80.9,54.1  '/>	<g transform="translate(63.6,58.0)" stroke="none" fill="black" font-family="Helvetica" font-size="12.00"  text-anchor="end">
		<text><tspan font-family="Helvetica" > 140</tspan></text>
	</g>
</g>
<g fill="none" color="black" stroke="currentColor" stroke-width="1.00" stroke-linecap="butt" stroke-linejoin="miter">
	<path stroke='black'  d='M161.0,662.4 L161.0,653.4  '/>	<g transform="translate(161.0,684.3)" stroke="none" fill="black" font-family="Helvetica" font-size="12.00"  text-anchor="middle">
		<text><tspan font-family="Helvetica" > 42.64</tspan></text>
	</g>
</g>
<g fill="none" color="black" stroke="currentColor" stroke-width="1.00" stroke-linecap="butt" stroke-linejoin="miter">
	<path stroke='black'  d='M325.7,662.4 L325.7,653.4  '/>	<g transform="translate(325.7,684.3)" stroke="none" fill="black" font-family="Helvetica" font-size="12.00"  text-anchor="middle">
		<text><tspan font-family="Helvetica" > 42.645</tspan></text>
	</g>
</g>
<g fill="none" color="black" stroke="currentColor" stroke-width="1.00" stroke-linecap="butt" stroke-linejoin="miter">
	<path stroke='black'  d='M490.5,662.4 L490.5,653.4  '/>	<g transform="translate(490.5,684.3)" stroke="none" fill="black" font-family="Helvetica" font-size="12.00"  text-anchor="middle">
		<text><tspan font-family="Helvetica" > 42.65</tspan></text>
	</g>
</g>
<g fill="none" color="black" stroke="currentColor" stroke-width="1.00" stroke-linecap="butt" stroke-linejoin="miter">
	<path stroke='black'  d='M655.2,662.4 L655.2,653.4  '/>	<g transform="translate(655.2,684.3)" stroke="none" fill="black" font-family="Helvetica" font-size="12.00"  text-anchor="middle">
		<text><tspan font-family="Helvetica" > 42.655</tspan></text>
	</g>
</g>
<g fill="none" color="black" stroke="currentColor" stroke-width="1.00" stroke-linecap="butt" stroke-linejoin="miter">
	<path stroke='black'  d='M819.9,662.4 L819.9,653.4  '/>	<g transform="translate(819.9,684.3)" stroke="none" fill="black" font-family="Helvetica" font-size="12.00"  text-anchor="middle">
		<text><tspan font-family="Helvetica" > 42.66</tspan></text>
	</g>
</g>
<g fill="none" color="black" stroke="currentColor" stroke-width="1.00" stroke-linecap="butt" stroke-linejoin="miter">
	<path stroke='black'  d='M984.7,662.4 L984.7,653.4  '/>	<g transform="translate(984.7,684.3)" stroke="none" fill="black" font-family="Helvetica" font-size="12.00"  text-anchor="middle">
		<text><tspan font-family="Helvetica" > 42.665</tspan></text>
	</g>
</g>
<g fill="none" color="black" stroke="currentColor" stroke-width="1.00" stroke-linecap="butt" stroke-linejoin="miter">
</g>
<g fill="none" color="black" stroke="currentColor" stroke-width="1.00" stroke-linecap="butt" stroke-linejoin="miter">
	<path stroke='black'  d='M71.9,54.1 L71.9,662.4 L1013.6,662.4 L1013.6,54.1 L71.9,54.1 Z  '/></g>
<g fill="none" color="black" stroke="currentColor" stroke-width="1.00" stroke-linecap="butt" stroke-linejoin="miter">
	<g transform="translate(16.3,358.3) rotate(270)" stroke="none" fill="black" font-family="Helvetica" font-size="12.00"  text-anchor="middle">
		<text><tspan font-family="Helvetica" >Density (a.u.)</tspan></text>
	</g>
</g>
<g fill="none" color="black" stroke="currentColor" stroke-width="1.00" stroke-linecap="butt" stroke-linejoin="miter">
	<g transform="translate(542.7,711.3)" stroke="none" fill="black" font-family="Helvetica" font-size="12.00"  text-anchor="middle">
		<text><tspan font-family="Helvetica" >Average time (us)</tspan></text>
	</g>
</g>
<g fill="none" color="black" stroke="currentColor" stroke-width="1.00" stroke-linecap="butt" stroke-linejoin="miter">
	<g transform="translate(542.7,31.0)" stroke="none" fill="black" font-family="Helvetica" font-size="12.00"  text-anchor="middle">
		<text><tspan font-family="Helvetica" >snapshot_restore_with_dense/Dense: Entire region + /proc/pid/mem/2: median</tspan></text>
	</g>
</g>
	<g id="gnuplot_plot_1" ><title>Bootstrap distribution</title>
<g fill="none" color="white" stroke="black" stroke-width="2.00" stroke-linecap="butt" stroke-linejoin="miter">
</g>
<g fill="none" color="black" stroke="currentColor" stroke-width="2.00" stroke-linecap="butt" stroke-linejoin="miter">
	<g transform="translate(1089.0,67.0)" stroke="none" fill="black" font-family="Helvetica" font-size="12.00"  text-anchor="start">
		<text><tspan font-family="Helvetica" >Bootstrap distribution</tspan></text>
	</g>
</g>
<g fill="none" color="black" stroke="currentColor" stroke-width="2.00" stroke-linecap="butt" stroke-linejoin="miter">
	<path stroke='rgb( 31, 120, 180)'  d='M1038.5,63.1 L1080.7,63.1 M71.9,645.6 L73.8,645.3 L75.7,644.9 L77.6,644.7 L79.4,644.4 L81.3,644.1
		L83.2,643.9 L85.1,643.7 L87.0,643.5 L88.9,643.3 L90.8,643.0 L92.7,642.8 L94.5,642.5 L96.4,642.3
		L98.3,641.9 L100.2,641.6 L102.1,641.2 L104.0,640.7 L105.9,640.2 L107.8,639.6 L109.6,639.0 L111.5,638.2
		L113.4,637.5 L115.3,636.6 L117.2,635.6 L119.1,634.6 L121.0,633.4 L122.9,632.2 L124.7,630.9 L126.6,629.5
		L128.5,628.0 L130.4,626.4 L132.3,624.7 L134.2,623.0 L136.1,621.1 L138.0,619.2 L139.8,617.2 L141.7,615.1
		L143.6,613.0 L145.5,610.8 L147.4,608.6 L149.3,606.3 L151.2,604.0 L153.0,601.6 L154.9,599.2 L156.8,596.8
		L158.7,594.4 L160.6,591.9 L162.5,589.3 L164.4,586.8 L166.3,584.2 L168.1,581.5 L170.0,578.8 L171.9,576.0
		L173.8,573.1 L175.7,570.2 L177.6,567.2 L179.5,564.2 L181.4,561.1 L183.2,557.9 L185.1,554.6 L187.0,551.3
		L188.9,547.9 L190.8,544.4 L192.7,540.9 L194.6,537.4 L196.5,533.9 L198.3,530.3 L200.2,526.8 L202.1,523.2
		L204.0,519.7 L205.9,516.3 L207.8,512.8 L209.7,509.5 L211.6,506.2 L213.4,503.1 L215.3,500.0 L217.2,497.0
		L219.1,494.2 L221.0,491.5 L222.9,489.0 L224.8,486.6 L226.6,484.3 L228.5,482.3 L230.4,480.4 L232.3,478.7
		L234.2,477.1 L236.1,475.8 L238.0,474.6 L239.9,473.6 L241.7,472.8 L243.6,472.1 L245.5,471.5 L247.4,471.1
		L249.3,470.8 L251.2,470.5 L253.1,470.3 L255.0,470.2 L256.8,470.0 L258.7,469.8 L260.6,469.5 L262.5,469.1
		L264.4,468.5 L266.3,467.8 L268.2,466.9 L270.1,465.7 L271.9,464.2 L273.8,462.5 L275.7,460.4 L277.6,457.9
		L279.5,455.1 L281.4,451.9 L283.3,448.2 L285.2,444.1 L287.0,439.6 L288.9,434.6 L290.8,429.2 L292.7,423.4
		L294.6,417.1 L296.5,410.4 L298.4,403.3 L300.2,395.8 L302.1,387.8 L304.0,379.5 L305.9,370.8 L307.8,361.8
		L309.7,352.4 L311.6,342.7 L313.5,332.6 L315.3,322.2 L317.2,311.4 L319.1,300.4 L321.0,289.0 L322.9,277.3
		L324.8,265.4 L326.7,253.1 L328.6,240.6 L330.4,227.8 L332.3,214.9 L334.2,201.8 L336.1,188.6 L338.0,175.4
		L339.9,162.3 L341.8,149.5 L343.7,136.9 L345.5,124.7 L347.4,113.2 L349.3,102.4 L351.2,92.5 L353.1,83.6
		L355.0,76.0 L356.9,69.7 L358.8,65.0 L360.6,62.0 L362.5,60.7 L364.4,61.4 L366.3,64.0 L368.2,68.7
		L370.1,75.4 L372.0,84.2 L373.8,95.0 L375.7,107.8 L377.6,122.5 L379.5,139.0 L381.4,157.1 L383.3,176.6
		L385.2,197.5 L387.1,219.4 L388.9,242.1 L390.8,265.5 L392.7,289.3 L394.6,313.4 L396.5,337.4 L398.4,361.2
		L400.3,384.5 L402.2,407.3 L404.0,429.4 L405.9,450.6 L407.8,470.8 L409.7,489.9 L411.6,507.8 L413.5,524.6
		L415.4,540.1 L417.3,554.3 L419.1,567.3 L421.0,579.0 L422.9,589.5 L424.8,598.9 L426.7,607.1 L428.6,614.2
		L430.5,620.3 L432.4,625.5 L434.2,629.7 L436.1,633.1 L438.0,635.6 L439.9,637.4 L441.8,638.4 L443.7,638.8
		L445.6,638.5 L447.4,637.5 L449.3,636.0 L451.2,633.9 L453.1,631.1 L455.0,627.9 L456.9,624.1 L458.8,619.7
		L460.7,614.9 L462.5,609.6 L464.4,603.9 L466.3,597.7 L468.2,591.2 L470.1,584.4 L472.0,577.3 L473.9,570.0
		L475.8,562.6 L477.6,555.2 L479.5,547.9 L481.4,540.6 L483.3,533.6 L485.2,526.9 L487.1,520.7 L489.0,514.9
		L490.9,509.7 L492.7,505.2 L494.6,501.4 L496.5,498.3 L498.4,496.2 L500.3,494.8 L502.2,494.4 L504.1,494.9
		L506.0,496.2 L507.8,498.4 L509.7,501.4 L511.6,505.2 L513.5,509.7 L515.4,514.8 L517.3,520.6 L519.2,526.8
		L521.0,533.4 L522.9,540.3 L524.8,547.4 L526.7,554.7 L528.6,562.0 L530.5,569.3 L532.4,576.5 L534.3,583.5
		L536.1,590.2 L538.0,596.7 L539.9,602.8 L541.8,608.5 L543.7,613.8 L545.6,618.6 L547.5,622.9 L549.4,626.8
		L551.2,630.1 L553.1,632.9 L555.0,635.2 L556.9,636.9 L558.8,638.1 L560.7,638.7 L562.6,638.7 L564.5,638.2
		L566.3,637.1 L568.2,635.4 L570.1,633.1 L572.0,630.1 L573.9,626.6 L575.8,622.4 L577.7,617.5 L579.5,612.0
		L581.4,605.8 L583.3,599.0 L585.2,591.4 L587.1,583.2 L589.0,574.3 L590.9,564.7 L592.8,554.5 L594.6,543.6
		L596.5,532.1 L598.4,520.1 L600.3,507.5 L602.2,494.4 L604.1,480.9 L606.0,467.0 L607.9,452.9 L609.7,438.5
		L611.6,423.9 L613.5,409.3 L615.4,394.8 L617.3,380.4 L619.2,366.3 L621.1,352.6 L623.0,339.5 L624.8,326.9
		L626.7,315.2 L628.6,304.4 L630.5,294.6 L632.4,286.0 L634.3,278.6 L636.2,272.6 L638.1,268.1 L639.9,265.2
		L641.8,263.9 L643.7,264.2 L645.6,266.3 L647.5,270.0 L649.4,275.3 L651.3,282.3 L653.1,290.9 L655.0,300.8
		L656.9,312.1 L658.8,324.7 L660.7,338.3 L662.6,352.7 L664.5,367.9 L666.4,383.7 L668.2,399.8 L670.1,416.1
		L672.0,432.4 L673.9,448.6 L675.8,464.4 L677.7,479.7 L679.6,494.4 L681.5,508.3 L683.3,521.4 L685.2,533.6
		L687.1,544.7 L689.0,554.8 L690.9,563.7 L692.8,571.6 L694.7,578.3 L696.6,583.9 L698.4,588.4 L700.3,591.9
		L702.2,594.3 L704.1,595.9 L706.0,596.5 L707.9,596.3 L709.8,595.4 L711.7,593.9 L713.5,591.8 L715.4,589.3
		L717.3,586.4 L719.2,583.3 L721.1,580.0 L723.0,576.6 L724.9,573.3 L726.7,570.1 L728.6,567.0 L730.5,564.3
		L732.4,561.9 L734.3,559.8 L736.2,558.3 L738.1,557.2 L740.0,556.6 L741.8,556.5 L743.7,557.0 L745.6,558.0
		L747.5,559.5 L749.4,561.5 L751.3,563.9 L753.2,566.7 L755.1,569.9 L756.9,573.3 L758.8,576.9 L760.7,580.7
		L762.6,584.5 L764.5,588.3 L766.4,592.0 L768.3,595.5 L770.2,598.8 L772.0,601.8 L773.9,604.4 L775.8,606.7
		L777.7,608.4 L779.6,609.6 L781.5,610.3 L783.4,610.4 L785.3,609.9 L787.1,608.8 L789.0,607.1 L790.9,604.7
		L792.8,601.7 L794.7,598.1 L796.6,594.0 L798.5,589.2 L800.3,583.9 L802.2,578.2 L804.1,572.0 L806.0,565.4
		L807.9,558.6 L809.8,551.4 L811.7,544.1 L813.6,536.6 L815.4,529.2 L817.3,521.7 L819.2,514.4 L821.1,507.4
		L823.0,500.6 L824.9,494.2 L826.8,488.2 L828.7,482.8 L830.5,478.0 L832.4,473.9 L834.3,470.5 L836.2,467.8
		L838.1,466.0 L840.0,465.0 L841.9,464.9 L843.8,465.5 L845.6,467.1 L847.5,469.4 L849.4,472.5 L851.3,476.3
		L853.2,480.7 L855.1,485.8 L857.0,491.3 L858.9,497.3 L860.7,503.7 L862.6,510.3 L864.5,517.1 L866.4,524.0
		L868.3,530.9 L870.2,537.7 L872.1,544.5 L873.9,551.0 L875.8,557.3 L877.7,563.3 L879.6,569.0 L881.5,574.4
		L883.4,579.4 L885.3,584.1 L887.2,588.4 L889.0,592.3 L890.9,595.9 L892.8,599.2 L894.7,602.1 L896.6,604.8
		L898.5,607.2 L900.4,609.3 L902.3,611.2 L904.1,612.9 L906.0,614.4 L907.9,615.7 L909.8,616.9 L911.7,618.0
		L913.6,618.9 L915.5,619.8 L917.4,620.6 L919.2,621.3 L921.1,621.9 L923.0,622.5 L924.9,623.0 L926.8,623.5
		L928.7,624.0 L930.6,624.5 L932.5,624.9 L934.3,625.4 L936.2,625.9 L938.1,626.3 L940.0,626.8 L941.9,627.3
		L943.8,627.8 L945.7,628.3 L947.5,628.8 L949.4,629.4 L951.3,629.9 L953.2,630.5 L955.1,631.1 L957.0,631.7
		L958.9,632.4 L960.8,633.0 L962.6,633.6 L964.5,634.2 L966.4,634.8 L968.3,635.4 L970.2,636.0 L972.1,636.6
		L974.0,637.2 L975.9,637.7 L977.7,638.3 L979.6,638.8 L981.5,639.3 L983.4,639.7 L985.3,640.2 L987.2,640.6
		L989.1,640.9 L991.0,641.3 L992.8,641.6 L994.7,641.9 L996.6,642.2 L998.5,642.4 L1000.4,642.6 L1002.3,642.8
		L1004.2,643.0 L1006.1,643.2 L1007.9,643.3 L1009.8,643.4 L1011.7,643.5 L1013.6,643.6  '/></g>
	</g>
	<g id="gnuplot_plot_2" ><title>Confidence interval</title>
<g fill="none" color="white" stroke="rgb( 31, 120, 180)" stroke-width="1.00" stroke-linecap="butt" stroke-linejoin="miter">
</g>
<g fill="none" color="black" stroke="currentColor" stroke-width="1.00" stroke-linecap="butt" stroke-linejoin="miter">
	<g transform="translate(1089.0,85.0)" stroke="none" fill="black" font-family="Helvetica" font-size="12.00"  text-anchor="start">
		<text><tspan font-family="Helvetica" >Confidence interval</tspan></text>
	</g>
</g>
<g fill="none" color="black" stroke="currentColor" stroke-width="1.00" stroke-linecap="butt" stroke-linejoin="miter">
	<g stroke='none' shape-rendering='crispEdges'>
		<polygon fill = 'rgb( 31, 120, 180)' fill-opacity = '0.250000' points = '1038.5,85.6 1080.7,85.6 1080.7,76.6 1038.5,76.6 '/>
		<polygon fill = 'rgb( 31, 120, 180)' fill-opacity = '0.250000' points = '158.7,594.4 160.6,591.9 162.5,589.3 164.4,586.8 166.3,584.2 168.1,581.5 170.0,578.8 171.9,576.0 173.8,573.1 175.7,570.2 177.6,567.2 179.5,564.2 181.4,561.1 183.2,557.9 185.1,554.6 187.0,551.3
188.9,547.9 190.8,544.4 192.7,540.9 194.6,537.4 196.5,533.9 198.3,530.3 200.2,526.8 202.1,523.2 204.0,519.7 205.9,516.3 207.8,512.8 209.7,509.5 211.6,506.2 213.4,503.1 215.3,500.0 217.2,497.0
219.1,494.2 221.0,491.5 222.9,489.0 224.8,486.6 226.6,484.3 228.5,482.3 230.4,480.4 232.3,478.7 234.2,477.1 236.1,475.8 238.0,474.6 239.9,473.6 241.7,472.8 243.6,472.1 245.5,471.5 247.4,471.1
249.3,470.8 251.2,470.5 253.1,470.3 255.0,470.2 256.8,470.0 258.7,469.8 260.6,469.5 262.5,469.1 264.4,468.5 266.3,467.8 268.2,466.9 270.1,465.7 271.9,464.2 273.8,462.5 275.7,460.4 277.6,457.9
279.5,455.1 281.4,451.9 283.3,448.2 285.2,444.1 287.0,439.6 288.9,434.6 290.8,429.2 292.7,423.4 294.6,417.1 296.5,410.4 298.4,403.3 300.2,395.8 302.1,387.8 304.0,379.5 305.9,370.8 307.8,361.8
309.7,352.4 311.6,342.7 313.5,332.6 315.3,322.2 317.2,311.4 319.1,300.4 321.0,289.0 322.9,277.3 324.8,265.4 326.7,253.1 328.6,240.6 330.4,227.8 332.3,214.9 334.2,201.8 336.1,188.6 338.0,175.4
339.9,162.3 341.8,149.5 343.7,136.9 345.5,124.7 347.4,113.2 349.3,102.4 351.2,92.5 353.1,83.6 355.0,76.0 356.9,69.7 358.8,65.0 360.6,62.0 362.5,60.7 364.4,61.4 366.3,64.0 368.2,68.7
370.1,75.4 372.0,84.2 373.8,95.0 375.7,107.8 377.6,122.5 379.5,139.0 381.4,157.1 383.3,176.6 385.2,197.5 387.1,219.4 388.9,242.1 390.8,265.5 392.7,289.3 394.6,313.4 396.5,337.4 398.4,361.2
400.3,384.5 402.2,407.3 404.0,429.4 405.9,450.6 407.8,470.8 409.7,489.9 411.6,507.8 413.5,524.6 415.4,540.1 417.3,554.3 419.1,567.3 421.0,579.0 422.9,589.5 424.8,598.9 426.7,607.1 428.6,614.2
430.5,620.3 432.4,625.5 434.2,629.7 436.1,633.1 438.0,635.6 439.9,637.4 441.8,638.4 443.7,638.8 445.6,638.5 447.4,637.5 449.3,636.0 451.2,633.9 453.1,631.1 455.0,627.9 456.9,624.1 458.8,619.7
460.7,614.9 462.5,609.6 464.4,603.9 466.3,597.7 468.2,591.2 470.1,584.4 472.0,577.3 473.9,570.0 475.8,562.6 477.6,555.2 479.5,547.9 481.4,540.6 483.3,533.6 485.2,526.9 487.1,520.7 489.0,514.9
490.9,509.7 492.7,505.2 494.6,501.4 496.5,498.3 498.4,496.2 500.3,494.8 502.2,494.4 504.1,494.9 506.0,496.2 507.8,498.4 509.7,501.4 511.6,505.2 513.5,509.7 515.4,514.8 517.3,520.6 519.2,526.8
521.0,533.4 522.9,540.3 524.8,547.4 526.7,554.7 528.6,562.0 530.5,569.3 532.4,576.5 534.3,583.5 536.1,590.2 538.0,596.7 539.9,602.8 541.8,608.5 543.7,613.8 545.6,618.6 547.5,622.9 549.4,626.8
551.2,630.1 553.1,632.9 555.0,635.2 556.9,636.9 558.8,638.1 560.7,638.7 562.6,638.7 564.5,638.2 566.3,637.1 568.2,635.4 570.1,633.1 572.0,630.1 573.9,626.6 575.8,622.4 577.7,617.5 579.5,612.0
581.4,605.8 583.3,599.0 585.2,591.4 587.1,583.2 589.0,574.3 590.9,564.7 592.8,554.5 594.6,543.6 596.5,532.1 598.4,520.1 600.3,507.5 602.2,494.4 604.1,480.9 606.0,467.0 607.9,452.9 609.7,438.5
611.6,423.9 613.5,409.3 615.4,394.8 617.3,380.4 619.2,366.3 621.1,352.6 623.0,339.5 624.8,326.9 626.7,315.2 628.6,304.4 630.5,294.6 632.4,286.0 634.3,278.6 636.2,272.6 638.1,268.1 639.9,265.2
641.8,263.9 643.7,264.2 645.6,266.3 647.5,270.0 649.4,275.3 651.3,282.3 653.1,290.9 655.0,300.8 656.9,312.1 658.8,324.7 660.7,338.3 662.6,352.7 664.5,367.9 666.4,383.7 668.2,399.8 670.1,416.1
672.0,432.4 673.9,448.6 675.8,464.4 677.7,479.7 679.6,494.4 681.5,508.3 683.3,521.4 685.2,533.6 687.1,544.7 689.0,554.8 690.9,563.7 692.8,571.6 694.7,578.3 696.6,583.9 698.4,588.4 700.3,591.9
702.2,594.3 704.1,595.9 706.0,596.5 707.9,596.3 709.8,595.4 711.7,593.9 713.5,591.8 715.4,589.3 717.3,586.4 719.2,583.3 721.1,580.0 723.0,576.6 724.9,573.3 726.7,570.1 728.6,567.0 730.5,564.3
732.4,561.9 734.3,559.8 736.2,558.3 738.1,557.2 740.0,556.6 741.8,556.5 743.7,557.0 745.6,558.0 747.5,559.5 749.4,561.5 751.3,563.9 753.2,566.7 755.1,569.9 756.9,573.3 758.8,576.9 760.7,580.7
762.6,584.5 764.5,588.3 766.4,592.0 768.3,595.5 770.2,598.8 772.0,601.8 773.9,604.4 775.8,606.7 777.7,608.4 779.6,609.6 781.5,610.3 783.4,610.4 785.3,609.9 787.1,608.8 789.0,607.1 790.9,604.7
792.8,601.7 794.7,598.1 796.6,594.0 798.5,589.2 800.3,583.9 802.2,578.2 804.1,572.0 806.0,565.4 807.9,558.6 809.8,551.4 811.7,544.1 813.6,536.6 815.4,529.2 817.3,521.7 819.2,514.4 821.1,507.4
823.0,500.6 824.9,494.2 826.8,488.2 828.7,482.8 830.5,478.0 832.4,473.9 834.3,470.5 836.2,467.8 838.1,466.0 840.0,465.0 841.9,464.9 843.8,465.5 845.6,467.1 847.5,469.4 849.4,472.5 851.3,476.3
853.2,480.7 855.1,485.8 857.0,491.3 858.9,497.3 860.7,503.7 862.6,510.3 864.5,517.1 866.4,524.0 868.3,530.9 870.2,537.7 872.1,544.5 873.9,551.0 875.8,557.3 877.7,563.3 879.6,569.0 881.5,574.4
883.4,579.4 885.3,584.1 887.2,588.4 889.0,592.3 890.9,595.9 892.8,599.2 894.7,602.1 896.6,604.8 898.5,607.2 900.4,609.3 902.3,611.2 904.1,612.9 906.0,614.4 907.9,615.7 909.8,616.9 911.7,618.0
913.6,618.9 915.5,619.8 917.4,620.6 919.2,621.3 921.1,621.9 923.0,622.5 924.9,623.0 924.9,662.4 923.0,662.4 921.1,662.4 919.2,662.4 917.4,662.4 915.5,662.4 913.6,662.4 911.7,662.4 909.8,662.4
907.9,662.4 906.0,662.4 904.1,662.4 902.3,662.4 900.4,662.4 898.5,662.4 896.6,662.4 894.7,662.4 892.8,662.4 890.9,662.4 889.0,662.4 887.2,662.4 885.3,662.4 883.4,662.4 881.5,662.4 879.6,662.4
877.7,662.4 875.8,662.4 873.9,662.4 872.1,662.4 870.2,662.4 868.3,662.4 866.4,662.4 864.5,662.4 862.6,662.4 860.7,662.4 858.9,662.4 857.0,662.4 855.1,662.4 853.2,662.4 851.3,662.4 849.4,662.4
847.5,662.4 845.6,662.4 843.8,662.4 841.9,662.4 840.0,662.4 838.1,662.4 836.2,662.4 834.3,662.4 832.4,662.4 830.5,662.4 828.7,662.4 826.8,662.4 824.9,662.4 823.0,662.4 821.1,662.4 819.2,662.4
817.3,662.4 815.4,662.4 813.6,662.4 811.7,662.4 809.8,662.4 807.9,662.4 806.0,662.4 804.1,662.4 802.2,662.4 800.3,662.4 798.5,662.4 796.6,662.4 794.7,662.4 792.8,662.4 790.9,662.4 789.0,662.4
787.1,662.4 785.3,662.4 783.4,662.4 781.5,662.4 779.6,662.4 777.7,662.4 775.8,662.4 773.9,662.4 772.0,662.4 770.2,662.4 768.3,662.4 766.4,662.4 764.5,662.4 762.6,662.4 760.7,662.4 758.8,662.4
756.9,662.4 755.1,662.4 753.2,662.4 751.3,662.4 749.4,662.4 747.5,662.4 745.6,662.4 743.7,662.4 741.8,662.4 740.0,662.4 738.1,662.4 736.2,662.4 734.3,662.4 732.4,662.4 730.5,662.4 728.6,662.4
726.7,662.4 724.9,662.4 723.0,662.4 721.1,662.4 719.2,662.4 717.3,662.4 715.4,662.4 713.5,662.4 711.7,662.4 709.8,662.4 707.9,662.4 706.0,662.4 704.1,662.4 702.2,662.4 700.3,662.4 698.4,662.4
696.6,662.4 694.7,662.4 692.8,662.4 690.9,662.4 689.0,662.4 687.1,662.4 685.2,662.4 683.3,662.4 681.5,662.4 679.6,662.4 677.7,662.4 675.8,662.4 673.9,662.4 672.0,662.4 670.1,662.4 668.2,662.4
666.4,662.4 664.5,662.4 662.6,662.4 660.7,662.4 658.8,662.4 656.9,662.4 655.0,662.4 653.1,662.4 651.3,662.4 649.4,662.4 647.5,662.4 645.6,662.4 643.7,662.4 641.8,662.4 639.9,662.4 638.1,662.4
636.2,662.4 634.3,662.4 632.4,662.4 630.5,662.4 628.6,662.4 626.7,662.4 624.8,662.4 623.0,662.4 621.1,662.4 619.2,662.4 617.3,662.4 615.4,662.4 613.5,662.4 611.6,662.4 609.7,662.4 607.9,662.4
606.0,662.4 604.1,662.4 602.2,662.4 600.3,662.4 598.4,662.4 596.5,662.4 594.6,662.4 592.8,662.4 590.9,662.4 589.0,662.4 587.1,662.4 585.2,662.4 583.3,662.4 581.4,662.4 579.5,662.4 577.7,662.4
575.8,662.4 573.9,662.4 572.0,662.4 570.1,662.4 568.2,662.4 566.3,662.4 564.5,662.4 562.6,662.4 560.7,662.4 558.8,662.4 556.9,662.4 555.0,662.4 553.1,662.4 551.2,662.4 549.4,662.4 547.5,662.4
545.6,662.4 543.7,662.4 541.8,662.4 539.9,662.4 538.0,662.4 536.1,662.4 534.3,662.4 532.4,662.4 530.5,662.4 528.6,662.4 526.7,662.4 524.8,662.4 522.9,662.4 521.0,662.4 519.2,662.4 517.3,662.4
515.4,662.4 513.5,662.4 511.6,662.4 509.7,662.4 507.8,662.4 506.0,662.4 504.1,662.4 502.2,662.4 500.3,662.4 498.4,662.4 496.5,662.4 494.6,662.4 492.7,662.4 490.9,662.4 489.0,662.4 487.1,662.4
485.2,662.4 483.3,662.4 481.4,662.4 479.5,662.4 477.6,662.4 475.8,662.4 473.9,662.4 472.0,662.4 470.1,662.4 468.2,662.4 466.3,662.4 464.4,662.4 462.5,662.4 460.7,662.4 458.8,662.4 456.9,662.4
455.0,662.4 453.1,662.4 451.2,662.4 449.3,662.4 447.4,662.4 445.6,662.4 443.7,662.4 441.8,662.4 439.9,662.4 438.0,662.4 436.1,662.4 434.2,662.4 432.4,662.4 430.5,662.4 428.6,662.4 426.7,662.4
424.8,662.4 422.9,662.4 421.0,662.4 419.1,662.4 417.3,662.4 415.4,662.4 413.5,662.4 411.6,662.4 409.7,662.4 407.8,662.4 405.9,662.4 404.0,662.4 402.2,662.4 400.3,662.4 398.4,662.4 396.5,662.4
394.6,662.4 392.7,662.4 390.8,662.4 388.9,662.4 387.1,662.4 385.2,662.4 383.3,662.4 381.4,662.4 379.5,662.4 377.6,662.4 375.7,662.4 373.8,662.4 372.0,662.4 370.1,662.4 368.2,662.4 366.3,662.4
364.4,662.4 362.5,662.4 360.6,662.4 358.8,662.4 356.9,662.4 355.0,662.4 353.1,662.4 351.2,662.4 349.3,662.4 347.4,662.4 345.5,662.4 343.7,662.4 341.8,662.4 339.9,662.4 338.0,662.4 336.1,662.4
334.2,662.4 332.3,662.4 330.4,662.4 328.6,662.4 326.7,662.4 324.8,662.4 322.9,662.4 321.0,662.4 319.1,662.4 317.2,662.4 315.3,662.4 313.5,662.4 311.6,662.4 309.7,662.4 307.8,662.4 305.9,662.4
304.0,662.4 302.1,662.4 300.2,662.4 298.4,662.4 296.5,662.4 294.6,662.4 292.7,662.4 290.8,662.4 288.9,662.4 287.0,662.4 285.2,662.4 283.3,662.4 281.4,662.4 279.5,662.4 277.6,662.4 275.7,662.4
273.8,662.4 271.9,662.4 270.1,662.4 268.2,662.4 266.3,662.4 264.4,662.4 262.5,662.4 260.6,662.4 258.7,662.4 256.8,662.4 255.0,662.4 253.1,662.4 251.2,662.4 249.3,662.4 247.4,662.4 245.5,662.4
243.6,662.4 241.7,662.4 239.9,662.4 238.0,662.4 236.1,662.4 234.2,662.4 232.3,662.4 230.4,662.4 228.5,662.4 226.6,662.4 224.8,662.4 222.9,662.4 221.0,662.4 219.1,662.4 217.2,662.4 215.3,662.4
213.4,662.4 211.6,662.4 209.7,662.4 207.8,662.4 205.9,662.4 204.0,662.4 202.1,662.4 200.2,662.4 198.3,662.4 196.5,662.4 194.6,662.4 192.7,662.4 190.8,662.4 188.9,662.4 187.0,662.4 185.1,662.4
183.2,662.4 181.4,662.4 179.5,662.4 177.6,662.4 175.7,662.4 173.8,662.4 171.9,662.4 170.0,662.4 168.1,662.4 166.3,662.4 164.4,662.4 162.5,662.4 160.6,662.4 158.7,662.4 '/>
	</g>
</g>
	</g>
	<g id="gnuplot_plot_3" ><title>Point estimate</title>
<g fill="none" color="white" stroke="rgb( 31, 120, 180)" stroke-width="2.00" stroke-linecap="butt" stroke-linejoin="miter">
</g>
<g fill="none" color="black" stroke="currentColor" stroke-width="2.00" stroke-linecap="butt" stroke-linejoin="miter">
	<g transform="translate(1089.0,103.0)" stroke="none" fill="black" font-family="Helvetica" font-size="12.00"  text-anchor="start">
		<text><tspan font-family="Helvetica" >Point estimate</tspan></text>
	</g>
</g>
<g fill="none" color="black" stroke="currentColor" stroke-width="2.00" stroke-linecap="butt" stroke-linejoin="miter">
	<path stroke='rgb( 31, 120, 180)'  d='M1038.5,99.1 L1080.7,99.1 M382.3,662.4 L382.3,166.2  '/></g>
	</g>
<g fill="none" color="black" stroke="currentColor" stroke-width="2.00" stroke-linecap="butt" stroke-linejoin="miter">
</g>
<g fill="none" color="black" stroke="black" stroke-width="1.00" stroke-linecap="butt" stroke-linejoin="miter">
</g>
<g fill="none" color="black" stroke="currentColor" stroke-width="1.00" stroke-linecap="butt" stroke-linejoin="miter">
	<path stroke='black'  d='M71.9,54.1 L71.9,662.4 L1013.6,662.4 L1013.6,54.1 L71.9,54.1 Z  '/></g>
<g fill="none" color="black" stroke="currentColor" stroke-width="1.00" stroke-linecap="butt" stroke-linejoin="miter">
</g>
</g>
</svg>

