<?xml version="1.0" encoding="utf-8"  standalone="no"?>
<svg 
 viewBox="0 0 1280 720"
 xmlns="http://www.w3.org/2000/svg"
 xmlns:xlink="http://www.w3.org/1999/xlink"
>

<title>Gnuplot</title>
<desc>Produced by GNUPLOT 5.2 patchlevel 6 </desc>

<g id="gnuplot_canvas">

<rect x="0" y="0" width="1280" height="720" fill="none"/>
<defs>

	<circle id='gpDot' r='0.5' stroke-width='0.5' stroke='currentColor'/>
	<path id='gpPt0' stroke-width='0.222' stroke='currentColor' d='M-1,0 h2 M0,-1 v2'/>
	<path id='gpPt1' stroke-width='0.222' stroke='currentColor' d='M-1,-1 L1,1 M1,-1 L-1,1'/>
	<path id='gpPt2' stroke-width='0.222' stroke='currentColor' d='M-1,0 L1,0 M0,-1 L0,1 M-1,-1 L1,1 M-1,1 L1,-1'/>
	<rect id='gpPt3' stroke-width='0.222' stroke='currentColor' x='-1' y='-1' width='2' height='2'/>
	<rect id='gpPt4' stroke-width='0.222' stroke='currentColor' fill='currentColor' x='-1' y='-1' width='2' height='2'/>
	<circle id='gpPt5' stroke-width='0.222' stroke='currentColor' cx='0' cy='0' r='1'/>
	<use xlink:href='#gpPt5' id='gpPt6' fill='currentColor' stroke='none'/>
	<path id='gpPt7' stroke-width='0.222' stroke='currentColor' d='M0,-1.33 L-1.33,0.67 L1.33,0.67 z'/>
	<use xlink:href='#gpPt7' id='gpPt8' fill='currentColor' stroke='none'/>
	<use xlink:href='#gpPt7' id='gpPt9' stroke='currentColor' transform='rotate(180)'/>
	<use xlink:href='#gpPt9' id='gpPt10' fill='currentColor' stroke='none'/>
	<use xlink:href='#gpPt3' id='gpPt11' stroke='currentColor' transform='rotate(45)'/>
	<use xlink:href='#gpPt11' id='gpPt12' fill='currentColor' stroke='none'/>
	<path id='gpPt13' stroke-width='0.222' stroke='currentColor' d='M0,1.330 L1.265,0.411 L0.782,-1.067 L-0.782,-1.076 L-1.265,0.411 z'/>
	<use xlink:href='#gpPt13' id='gpPt14' fill='currentColor' stroke='none'/>
	<filter id='textbox' filterUnits='objectBoundingBox' x='0' y='0' height='1' width='1'>
	  <feFlood flood-color='white' flood-opacity='1' result='bgnd'/>
	  <feComposite in='SourceGraphic' in2='bgnd' operator='atop'/>
	</filter>
	<filter id='greybox' filterUnits='objectBoundingBox' x='0' y='0' height='1' width='1'>
	  <feFlood flood-color='lightgrey' flood-opacity='1' result='grey'/>
	  <feComposite in='SourceGraphic' in2='grey' operator='atop'/>
	</filter>
</defs>
<g fill="none" color="white" stroke="currentColor" stroke-width="1.00" stroke-linecap="butt" stroke-linejoin="miter">
</g>
<g fill="none" color="black" stroke="currentColor" stroke-width="1.00" stroke-linecap="butt" stroke-linejoin="miter">
	<path stroke='black'  d='M71.9,662.4 L80.9,662.4  '/>	<g transform="translate(63.6,666.3)" stroke="none" fill="black" font-family="Helvetica" font-size="12.00"  text-anchor="end">
		<text><tspan font-family="Helvetica" > 0</tspan></text>
	</g>
</g>
<g fill="none" color="black" stroke="currentColor" stroke-width="1.00" stroke-linecap="butt" stroke-linejoin="miter">
	<path stroke='black'  d='M71.9,575.5 L80.9,575.5  '/>	<g transform="translate(63.6,579.4)" stroke="none" fill="black" font-family="Helvetica" font-size="12.00"  text-anchor="end">
		<text><tspan font-family="Helvetica" > 0.5</tspan></text>
	</g>
</g>
<g fill="none" color="black" stroke="currentColor" stroke-width="1.00" stroke-linecap="butt" stroke-linejoin="miter">
	<path stroke='black'  d='M71.9,488.6 L80.9,488.6  '/>	<g transform="translate(63.6,492.5)" stroke="none" fill="black" font-family="Helvetica" font-size="12.00"  text-anchor="end">
		<text><tspan font-family="Helvetica" > 1</tspan></text>
	</g>
</g>
<g fill="none" color="black" stroke="currentColor" stroke-width="1.00" stroke-linecap="butt" stroke-linejoin="miter">
	<path stroke='black'  d='M71.9,401.7 L80.9,401.7  '/>	<g transform="translate(63.6,405.6)" stroke="none" fill="black" font-family="Helvetica" font-size="12.00"  text-anchor="end">
		<text><tspan font-family="Helvetica" > 1.5</tspan></text>
	</g>
</g>
<g fill="none" color="black" stroke="currentColor" stroke-width="1.00" stroke-linecap="butt" stroke-linejoin="miter">
	<path stroke='black'  d='M71.9,314.8 L80.9,314.8  '/>	<g transform="translate(63.6,318.7)" stroke="none" fill="black" font-family="Helvetica" font-size="12.00"  text-anchor="end">
		<text><tspan font-family="Helvetica" > 2</tspan></text>
	</g>
</g>
<g fill="none" color="black" stroke="currentColor" stroke-width="1.00" stroke-linecap="butt" stroke-linejoin="miter">
	<path stroke='black'  d='M71.9,227.9 L80.9,227.9  '/>	<g transform="translate(63.6,231.8)" stroke="none" fill="black" font-family="Helvetica" font-size="12.00"  text-anchor="end">
		<text><tspan font-family="Helvetica" > 2.5</tspan></text>
	</g>
</g>
<g fill="none" color="black" stroke="currentColor" stroke-width="1.00" stroke-linecap="butt" stroke-linejoin="miter">
	<path stroke='black'  d='M71.9,141.0 L80.9,141.0  '/>	<g transform="translate(63.6,144.9)" stroke="none" fill="black" font-family="Helvetica" font-size="12.00"  text-anchor="end">
		<text><tspan font-family="Helvetica" > 3</tspan></text>
	</g>
</g>
<g fill="none" color="black" stroke="currentColor" stroke-width="1.00" stroke-linecap="butt" stroke-linejoin="miter">
	<path stroke='black'  d='M71.9,54.1 L80.9,54.1  '/>	<g transform="translate(63.6,58.0)" stroke="none" fill="black" font-family="Helvetica" font-size="12.00"  text-anchor="end">
		<text><tspan font-family="Helvetica" > 3.5</tspan></text>
	</g>
</g>
<g fill="none" color="black" stroke="currentColor" stroke-width="1.00" stroke-linecap="butt" stroke-linejoin="miter">
	<path stroke='black'  d='M168.5,662.4 L168.5,653.4  '/>	<g transform="translate(168.5,684.3)" stroke="none" fill="black" font-family="Helvetica" font-size="12.00"  text-anchor="middle">
		<text><tspan font-family="Helvetica" > 42.7</tspan></text>
	</g>
</g>
<g fill="none" color="black" stroke="currentColor" stroke-width="1.00" stroke-linecap="butt" stroke-linejoin="miter">
	<path stroke='black'  d='M342.7,662.4 L342.7,653.4  '/>	<g transform="translate(342.7,684.3)" stroke="none" fill="black" font-family="Helvetica" font-size="12.00"  text-anchor="middle">
		<text><tspan font-family="Helvetica" > 42.8</tspan></text>
	</g>
</g>
<g fill="none" color="black" stroke="currentColor" stroke-width="1.00" stroke-linecap="butt" stroke-linejoin="miter">
	<path stroke='black'  d='M516.9,662.4 L516.9,653.4  '/>	<g transform="translate(516.9,684.3)" stroke="none" fill="black" font-family="Helvetica" font-size="12.00"  text-anchor="middle">
		<text><tspan font-family="Helvetica" > 42.9</tspan></text>
	</g>
</g>
<g fill="none" color="black" stroke="currentColor" stroke-width="1.00" stroke-linecap="butt" stroke-linejoin="miter">
	<path stroke='black'  d='M691.1,662.4 L691.1,653.4  '/>	<g transform="translate(691.1,684.3)" stroke="none" fill="black" font-family="Helvetica" font-size="12.00"  text-anchor="middle">
		<text><tspan font-family="Helvetica" > 43</tspan></text>
	</g>
</g>
<g fill="none" color="black" stroke="currentColor" stroke-width="1.00" stroke-linecap="butt" stroke-linejoin="miter">
	<path stroke='black'  d='M865.3,662.4 L865.3,653.4  '/>	<g transform="translate(865.3,684.3)" stroke="none" fill="black" font-family="Helvetica" font-size="12.00"  text-anchor="middle">
		<text><tspan font-family="Helvetica" > 43.1</tspan></text>
	</g>
</g>
<g fill="none" color="black" stroke="currentColor" stroke-width="1.00" stroke-linecap="butt" stroke-linejoin="miter">
</g>
<g fill="none" color="black" stroke="currentColor" stroke-width="1.00" stroke-linecap="butt" stroke-linejoin="miter">
	<path stroke='black'  d='M71.9,54.1 L71.9,662.4 L1013.6,662.4 L1013.6,54.1 L71.9,54.1 Z  '/></g>
<g fill="none" color="black" stroke="currentColor" stroke-width="1.00" stroke-linecap="butt" stroke-linejoin="miter">
	<g transform="translate(16.3,358.3) rotate(270)" stroke="none" fill="black" font-family="Helvetica" font-size="12.00"  text-anchor="middle">
		<text><tspan font-family="Helvetica" >Density (a.u.)</tspan></text>
	</g>
</g>
<g fill="none" color="black" stroke="currentColor" stroke-width="1.00" stroke-linecap="butt" stroke-linejoin="miter">
	<g transform="translate(542.7,711.3)" stroke="none" fill="black" font-family="Helvetica" font-size="12.00"  text-anchor="middle">
		<text><tspan font-family="Helvetica" >Average time (us)</tspan></text>
	</g>
</g>
<g fill="none" color="black" stroke="currentColor" stroke-width="1.00" stroke-linecap="butt" stroke-linejoin="miter">
	<g transform="translate(542.7,31.0)" stroke="none" fill="black" font-family="Helvetica" font-size="12.00"  text-anchor="middle">
		<text><tspan font-family="Helvetica" >snapshot_restore_with_dense/Dense: Entire region + /proc/pid/mem/5: mean</tspan></text>
	</g>
</g>
	<g id="gnuplot_plot_1" ><title>Bootstrap distribution</title>
<g fill="none" color="white" stroke="black" stroke-width="2.00" stroke-linecap="butt" stroke-linejoin="miter">
</g>
<g fill="none" color="black" stroke="currentColor" stroke-width="2.00" stroke-linecap="butt" stroke-linejoin="miter">
	<g transform="translate(1089.0,67.0)" stroke="none" fill="black" font-family="Helvetica" font-size="12.00"  text-anchor="start">
		<text><tspan font-family="Helvetica" >Bootstrap distribution</tspan></text>
	</g>
</g>
<g fill="none" color="black" stroke="currentColor" stroke-width="2.00" stroke-linecap="butt" stroke-linejoin="miter">
	<path stroke='rgb( 31, 120, 180)'  d='M1038.5,63.1 L1080.7,63.1 M71.9,636.1 L73.8,634.3 L75.7,632.4 L77.6,630.5 L79.4,628.4 L81.3,626.4
		L83.2,624.2 L85.1,622.0 L87.0,619.7 L88.9,617.4 L90.8,615.0 L92.7,612.5 L94.5,610.0 L96.4,607.5
		L98.3,604.9 L100.2,602.2 L102.1,599.5 L104.0,596.7 L105.9,593.9 L107.8,591.0 L109.6,588.1 L111.5,585.1
		L113.4,582.0 L115.3,578.9 L117.2,575.8 L119.1,572.6 L121.0,569.3 L122.9,566.0 L124.7,562.6 L126.6,559.1
		L128.5,555.6 L130.4,552.1 L132.3,548.5 L134.2,544.8 L136.1,541.1 L138.0,537.3 L139.8,533.5 L141.7,529.6
		L143.6,525.7 L145.5,521.8 L147.4,517.8 L149.3,513.8 L151.2,509.8 L153.0,505.7 L154.9,501.6 L156.8,497.5
		L158.7,493.4 L160.6,489.2 L162.5,485.0 L164.4,480.8 L166.3,476.6 L168.1,472.4 L170.0,468.1 L171.9,463.9
		L173.8,459.6 L175.7,455.3 L177.6,451.0 L179.5,446.7 L181.4,442.4 L183.2,438.0 L185.1,433.6 L187.0,429.3
		L188.9,424.9 L190.8,420.5 L192.7,416.1 L194.6,411.7 L196.5,407.2 L198.3,402.8 L200.2,398.3 L202.1,393.9
		L204.0,389.4 L205.9,385.0 L207.8,380.5 L209.7,376.1 L211.6,371.7 L213.4,367.2 L215.3,362.8 L217.2,358.3
		L219.1,353.9 L221.0,349.5 L222.9,345.1 L224.8,340.6 L226.6,336.2 L228.5,331.8 L230.4,327.4 L232.3,323.0
		L234.2,318.6 L236.1,314.3 L238.0,309.9 L239.9,305.5 L241.7,301.2 L243.6,296.8 L245.5,292.5 L247.4,288.2
		L249.3,283.9 L251.2,279.6 L253.1,275.3 L255.0,271.1 L256.8,266.9 L258.7,262.6 L260.6,258.4 L262.5,254.3
		L264.4,250.1 L266.3,245.9 L268.2,241.8 L270.1,237.6 L271.9,233.5 L273.8,229.3 L275.7,225.2 L277.6,221.0
		L279.5,216.8 L281.4,212.6 L283.3,208.5 L285.2,204.3 L287.0,200.0 L288.9,195.8 L290.8,191.6 L292.7,187.4
		L294.6,183.2 L296.5,179.0 L298.4,174.8 L300.2,170.6 L302.1,166.5 L304.0,162.4 L305.9,158.4 L307.8,154.4
		L309.7,150.5 L311.6,146.7 L313.5,142.9 L315.3,139.2 L317.2,135.5 L319.1,132.0 L321.0,128.5 L322.9,125.2
		L324.8,121.9 L326.7,118.7 L328.6,115.6 L330.4,112.5 L332.3,109.6 L334.2,106.7 L336.1,103.9 L338.0,101.2
		L339.9,98.5 L341.8,95.9 L343.7,93.4 L345.5,91.0 L347.4,88.7 L349.3,86.4 L351.2,84.2 L353.1,82.1
		L355.0,80.1 L356.9,78.1 L358.8,76.2 L360.6,74.5 L362.5,72.8 L364.4,71.2 L366.3,69.7 L368.2,68.4
		L370.1,67.1 L372.0,65.9 L373.8,64.8 L375.7,63.8 L377.6,63.0 L379.5,62.2 L381.4,61.5 L383.3,60.9
		L385.2,60.4 L387.1,60.0 L388.9,59.7 L390.8,59.4 L392.7,59.2 L394.6,59.1 L396.5,59.1 L398.4,59.0
		L400.3,59.1 L402.2,59.1 L404.0,59.2 L405.9,59.3 L407.8,59.3 L409.7,59.4 L411.6,59.5 L413.5,59.5
		L415.4,59.5 L417.3,59.5 L419.1,59.4 L421.0,59.3 L422.9,59.2 L424.8,59.0 L426.7,58.8 L428.6,58.5
		L430.5,58.2 L432.4,57.9 L434.2,57.6 L436.1,57.2 L438.0,56.8 L439.9,56.5 L441.8,56.1 L443.7,55.7
		L445.6,55.4 L447.4,55.1 L449.3,54.9 L451.2,54.7 L453.1,54.5 L455.0,54.4 L456.9,54.4 L458.8,54.4
		L460.7,54.5 L462.5,54.6 L464.4,54.8 L466.3,55.1 L468.2,55.4 L470.1,55.9 L472.0,56.4 L473.9,57.0
		L475.8,57.7 L477.6,58.5 L479.5,59.4 L481.4,60.4 L483.3,61.5 L485.2,62.7 L487.1,64.1 L489.0,65.6
		L490.9,67.2 L492.7,68.9 L494.6,70.7 L496.5,72.7 L498.4,74.8 L500.3,77.0 L502.2,79.3 L504.1,81.6
		L506.0,84.1 L507.8,86.6 L509.7,89.2 L511.6,91.9 L513.5,94.6 L515.4,97.3 L517.3,100.1 L519.2,102.9
		L521.0,105.6 L522.9,108.4 L524.8,111.2 L526.7,114.0 L528.6,116.7 L530.5,119.5 L532.4,122.3 L534.3,125.1
		L536.1,127.8 L538.0,130.6 L539.9,133.5 L541.8,136.3 L543.7,139.2 L545.6,142.0 L547.5,145.0 L549.4,147.9
		L551.2,150.9 L553.1,153.9 L555.0,156.9 L556.9,159.9 L558.8,163.0 L560.7,166.0 L562.6,169.1 L564.5,172.1
		L566.3,175.1 L568.2,178.1 L570.1,181.0 L572.0,184.0 L573.9,186.9 L575.8,189.7 L577.7,192.5 L579.5,195.3
		L581.4,198.0 L583.3,200.8 L585.2,203.5 L587.1,206.1 L589.0,208.8 L590.9,211.5 L592.8,214.2 L594.6,216.9
		L596.5,219.6 L598.4,222.4 L600.3,225.2 L602.2,228.0 L604.1,230.9 L606.0,233.7 L607.9,236.7 L609.7,239.7
		L611.6,242.7 L613.5,245.7 L615.4,248.8 L617.3,251.9 L619.2,255.0 L621.1,258.1 L623.0,261.3 L624.8,264.4
		L626.7,267.6 L628.6,270.8 L630.5,274.0 L632.4,277.2 L634.3,280.4 L636.2,283.6 L638.1,286.8 L639.9,290.0
		L641.8,293.1 L643.7,296.3 L645.6,299.5 L647.5,302.6 L649.4,305.7 L651.3,308.8 L653.1,311.8 L655.0,314.9
		L656.9,317.9 L658.8,320.8 L660.7,323.8 L662.6,326.7 L664.5,329.6 L666.4,332.4 L668.2,335.3 L670.1,338.1
		L672.0,340.9 L673.9,343.6 L675.8,346.4 L677.7,349.1 L679.6,351.9 L681.5,354.6 L683.3,357.3 L685.2,360.0
		L687.1,362.6 L689.0,365.3 L690.9,368.0 L692.8,370.6 L694.7,373.3 L696.6,375.9 L698.4,378.5 L700.3,381.1
		L702.2,383.7 L704.1,386.2 L706.0,388.7 L707.9,391.2 L709.8,393.7 L711.7,396.2 L713.5,398.6 L715.4,401.1
		L717.3,403.5 L719.2,405.9 L721.1,408.2 L723.0,410.6 L724.9,412.9 L726.7,415.2 L728.6,417.5 L730.5,419.8
		L732.4,422.1 L734.3,424.4 L736.2,426.7 L738.1,428.9 L740.0,431.2 L741.8,433.4 L743.7,435.7 L745.6,437.9
		L747.5,440.1 L749.4,442.3 L751.3,444.5 L753.2,446.8 L755.1,449.0 L756.9,451.2 L758.8,453.4 L760.7,455.6
		L762.6,457.8 L764.5,460.0 L766.4,462.2 L768.3,464.4 L770.2,466.6 L772.0,468.8 L773.9,471.0 L775.8,473.1
		L777.7,475.3 L779.6,477.5 L781.5,479.6 L783.4,481.7 L785.3,483.9 L787.1,485.9 L789.0,488.0 L790.9,490.0
		L792.8,492.0 L794.7,494.0 L796.6,496.0 L798.5,497.9 L800.3,499.8 L802.2,501.7 L804.1,503.6 L806.0,505.5
		L807.9,507.3 L809.8,509.1 L811.7,510.9 L813.6,512.7 L815.4,514.5 L817.3,516.3 L819.2,518.1 L821.1,519.8
		L823.0,521.6 L824.9,523.3 L826.8,525.1 L828.7,526.8 L830.5,528.5 L832.4,530.3 L834.3,532.0 L836.2,533.6
		L838.1,535.3 L840.0,537.0 L841.9,538.6 L843.8,540.3 L845.6,541.9 L847.5,543.5 L849.4,545.0 L851.3,546.6
		L853.2,548.1 L855.1,549.7 L857.0,551.2 L858.9,552.7 L860.7,554.2 L862.6,555.7 L864.5,557.1 L866.4,558.6
		L868.3,560.0 L870.2,561.4 L872.1,562.8 L873.9,564.2 L875.8,565.5 L877.7,566.9 L879.6,568.2 L881.5,569.4
		L883.4,570.7 L885.3,571.9 L887.2,573.1 L889.0,574.2 L890.9,575.4 L892.8,576.5 L894.7,577.5 L896.6,578.6
		L898.5,579.6 L900.4,580.6 L902.3,581.6 L904.1,582.5 L906.0,583.5 L907.9,584.4 L909.8,585.4 L911.7,586.3
		L913.6,587.2 L915.5,588.2 L917.4,589.1 L919.2,590.0 L921.1,591.0 L923.0,591.9 L924.9,592.9 L926.8,593.9
		L928.7,594.8 L930.6,595.8 L932.5,596.8 L934.3,597.8 L936.2,598.8 L938.1,599.8 L940.0,600.8 L941.9,601.8
		L943.8,602.8 L945.7,603.8 L947.5,604.8 L949.4,605.8 L951.3,606.7 L953.2,607.7 L955.1,608.6 L957.0,609.6
		L958.9,610.5 L960.8,611.4 L962.6,612.2 L964.5,613.1 L966.4,613.9 L968.3,614.8 L970.2,615.6 L972.1,616.3
		L974.0,617.1 L975.9,617.8 L977.7,618.6 L979.6,619.3 L981.5,620.0 L983.4,620.7 L985.3,621.3 L987.2,622.0
		L989.1,622.6 L991.0,623.3 L992.8,623.9 L994.7,624.5 L996.6,625.1 L998.5,625.7 L1000.4,626.3 L1002.3,626.8
		L1004.2,627.4 L1006.1,627.9 L1007.9,628.4 L1009.8,629.0 L1011.7,629.5 L1013.6,629.9  '/></g>
	</g>
	<g id="gnuplot_plot_2" ><title>Confidence interval</title>
<g fill="none" color="white" stroke="rgb( 31, 120, 180)" stroke-width="1.00" stroke-linecap="butt" stroke-linejoin="miter">
</g>
<g fill="none" color="black" stroke="currentColor" stroke-width="1.00" stroke-linecap="butt" stroke-linejoin="miter">
	<g transform="translate(1089.0,85.0)" stroke="none" fill="black" font-family="Helvetica" font-size="12.00"  text-anchor="start">
		<text><tspan font-family="Helvetica" >Confidence interval</tspan></text>
	</g>
</g>
<g fill="none" color="black" stroke="currentColor" stroke-width="1.00" stroke-linecap="butt" stroke-linejoin="miter">
	<g stroke='none' shape-rendering='crispEdges'>
		<polygon fill = 'rgb( 31, 120, 180)' fill-opacity = '0.250000' points = '1038.5,85.6 1080.7,85.6 1080.7,76.6 1038.5,76.6 '/>
		<polygon fill = 'rgb( 31, 120, 180)' fill-opacity = '0.250000' points = '158.7,493.4 160.6,489.2 162.5,485.0 164.4,480.8 166.3,476.6 168.1,472.4 170.0,468.1 171.9,463.9 173.8,459.6 175.7,455.3 177.6,451.0 179.5,446.7 181.4,442.4 183.2,438.0 185.1,433.6 187.0,429.3
188.9,424.9 190.8,420.5 192.7,416.1 194.6,411.7 196.5,407.2 198.3,402.8 200.2,398.3 202.1,393.9 204.0,389.4 205.9,385.0 207.8,380.5 209.7,376.1 211.6,371.7 213.4,367.2 215.3,362.8 217.2,358.3
219.1,353.9 221.0,349.5 222.9,345.1 224.8,340.6 226.6,336.2 228.5,331.8 230.4,327.4 232.3,323.0 234.2,318.6 236.1,314.3 238.0,309.9 239.9,305.5 241.7,301.2 243.6,296.8 245.5,292.5 247.4,288.2
249.3,283.9 251.2,279.6 253.1,275.3 255.0,271.1 256.8,266.9 258.7,262.6 260.6,258.4 262.5,254.3 264.4,250.1 266.3,245.9 268.2,241.8 270.1,237.6 271.9,233.5 273.8,229.3 275.7,225.2 277.6,221.0
279.5,216.8 281.4,212.6 283.3,208.5 285.2,204.3 287.0,200.0 288.9,195.8 290.8,191.6 292.7,187.4 294.6,183.2 296.5,179.0 298.4,174.8 300.2,170.6 302.1,166.5 304.0,162.4 305.9,158.4 307.8,154.4
309.7,150.5 311.6,146.7 313.5,142.9 315.3,139.2 317.2,135.5 319.1,132.0 321.0,128.5 322.9,125.2 324.8,121.9 326.7,118.7 328.6,115.6 330.4,112.5 332.3,109.6 334.2,106.7 336.1,103.9 338.0,101.2
339.9,98.5 341.8,95.9 343.7,93.4 345.5,91.0 347.4,88.7 349.3,86.4 351.2,84.2 353.1,82.1 355.0,80.1 356.9,78.1 358.8,76.2 360.6,74.5 362.5,72.8 364.4,71.2 366.3,69.7 368.2,68.4
370.1,67.1 372.0,65.9 373.8,64.8 375.7,63.8 377.6,63.0 379.5,62.2 381.4,61.5 383.3,60.9 385.2,60.4 387.1,60.0 388.9,59.7 390.8,59.4 392.7,59.2 394.6,59.1 396.5,59.1 398.4,59.0
400.3,59.1 402.2,59.1 404.0,59.2 405.9,59.3 407.8,59.3 409.7,59.4 411.6,59.5 413.5,59.5 415.4,59.5 417.3,59.5 419.1,59.4 421.0,59.3 422.9,59.2 424.8,59.0 426.7,58.8 428.6,58.5
430.5,58.2 432.4,57.9 434.2,57.6 436.1,57.2 438.0,56.8 439.9,56.5 441.8,56.1 443.7,55.7 445.6,55.4 447.4,55.1 449.3,54.9 451.2,54.7 453.1,54.5 455.0,54.4 456.9,54.4 458.8,54.4
460.7,54.5 462.5,54.6 464.4,54.8 466.3,55.1 468.2,55.4 470.1,55.9 472.0,56.4 473.9,57.0 475.8,57.7 477.6,58.5 479.5,59.4 481.4,60.4 483.3,61.5 485.2,62.7 487.1,64.1 489.0,65.6
490.9,67.2 492.7,68.9 494.6,70.7 496.5,72.7 498.4,74.8 500.3,77.0 502.2,79.3 504.1,81.6 506.0,84.1 507.8,86.6 509.7,89.2 511.6,91.9 513.5,94.6 515.4,97.3 517.3,100.1 519.2,102.9
521.0,105.6 522.9,108.4 524.8,111.2 526.7,114.0 528.6,116.7 530.5,119.5 532.4,122.3 534.3,125.1 536.1,127.8 538.0,130.6 539.9,133.5 541.8,136.3 543.7,139.2 545.6,142.0 547.5,145.0 549.4,147.9
551.2,150.9 553.1,153.9 555.0,156.9 556.9,159.9 558.8,163.0 560.7,166.0 562.6,169.1 564.5,172.1 566.3,175.1 568.2,178.1 570.1,181.0 572.0,184.0 573.9,186.9 575.8,189.7 577.7,192.5 579.5,195.3
581.4,198.0 583.3,200.8 585.2,203.5 587.1,206.1 589.0,208.8 590.9,211.5 592.8,214.2 594.6,216.9 596.5,219.6 598.4,222.4 600.3,225.2 602.2,228.0 604.1,230.9 606.0,233.7 607.9,236.7 609.7,239.7
611.6,242.7 613.5,245.7 615.4,248.8 617.3,251.9 619.2,255.0 621.1,258.1 623.0,261.3 624.8,264.4 626.7,267.6 628.6,270.8 630.5,274.0 632.4,277.2 634.3,280.4 636.2,283.6 638.1,286.8 639.9,290.0
641.8,293.1 643.7,296.3 645.6,299.5 647.5,302.6 649.4,305.7 651.3,308.8 653.1,311.8 655.0,314.9 656.9,317.9 658.8,320.8 660.7,323.8 662.6,326.7 664.5,329.6 666.4,332.4 668.2,335.3 670.1,338.1
672.0,340.9 673.9,343.6 675.8,346.4 677.7,349.1 679.6,351.9 681.5,354.6 683.3,357.3 685.2,360.0 687.1,362.6 689.0,365.3 690.9,368.0 692.8,370.6 694.7,373.3 696.6,375.9 698.4,378.5 700.3,381.1
702.2,383.7 704.1,386.2 706.0,388.7 707.9,391.2 709.8,393.7 711.7,396.2 713.5,398.6 715.4,401.1 717.3,403.5 719.2,405.9 721.1,408.2 723.0,410.6 724.9,412.9 726.7,415.2 728.6,417.5 730.5,419.8
732.4,422.1 734.3,424.4 736.2,426.7 738.1,428.9 740.0,431.2 741.8,433.4 743.7,435.7 745.6,437.9 747.5,440.1 749.4,442.3 751.3,444.5 753.2,446.8 755.1,449.0 756.9,451.2 758.8,453.4 760.7,455.6
762.6,457.8 764.5,460.0 766.4,462.2 768.3,464.4 770.2,466.6 772.0,468.8 773.9,471.0 775.8,473.1 777.7,475.3 779.6,477.5 781.5,479.6 783.4,481.7 785.3,483.9 787.1,485.9 789.0,488.0 790.9,490.0
792.8,492.0 794.7,494.0 796.6,496.0 798.5,497.9 800.3,499.8 802.2,501.7 804.1,503.6 806.0,505.5 807.9,507.3 809.8,509.1 811.7,510.9 813.6,512.7 815.4,514.5 817.3,516.3 819.2,518.1 821.1,519.8
823.0,521.6 824.9,523.3 826.8,525.1 828.7,526.8 830.5,528.5 832.4,530.3 834.3,532.0 836.2,533.6 838.1,535.3 840.0,537.0 841.9,538.6 843.8,540.3 845.6,541.9 847.5,543.5 849.4,545.0 851.3,546.6
853.2,548.1 855.1,549.7 857.0,551.2 858.9,552.7 860.7,554.2 862.6,555.7 864.5,557.1 866.4,558.6 868.3,560.0 870.2,561.4 872.1,562.8 873.9,564.2 875.8,565.5 877.7,566.9 879.6,568.2 881.5,569.4
883.4,570.7 885.3,571.9 887.2,573.1 889.0,574.2 890.9,575.4 892.8,576.5 894.7,577.5 896.6,578.6 898.5,579.6 900.4,580.6 902.3,581.6 904.1,582.5 906.0,583.5 907.9,584.4 909.8,585.4 911.7,586.3
913.6,587.2 915.5,588.2 917.4,589.1 919.2,590.0 921.1,591.0 923.0,591.9 924.9,592.9 924.9,662.4 923.0,662.4 921.1,662.4 919.2,662.4 917.4,662.4 915.5,662.4 913.6,662.4 911.7,662.4 909.8,662.4
907.9,662.4 906.0,662.4 904.1,662.4 902.3,662.4 900.4,662.4 898.5,662.4 896.6,662.4 894.7,662.4 892.8,662.4 890.9,662.4 889.0,662.4 887.2,662.4 885.3,662.4 883.4,662.4 881.5,662.4 879.6,662.4
877.7,662.4 875.8,662.4 873.9,662.4 872.1,662.4 870.2,662.4 868.3,662.4 866.4,662.4 864.5,662.4 862.6,662.4 860.7,662.4 858.9,662.4 857.0,662.4 855.1,662.4 853.2,662.4 851.3,662.4 849.4,662.4
847.5,662.4 845.6,662.4 843.8,662.4 841.9,662.4 840.0,662.4 838.1,662.4 836.2,662.4 834.3,662.4 832.4,662.4 830.5,662.4 828.7,662.4 826.8,662.4 824.9,662.4 823.0,662.4 821.1,662.4 819.2,662.4
817.3,662.4 815.4,662.4 813.6,662.4 811.7,662.4 809.8,662.4 807.9,662.4 806.0,662.4 804.1,662.4 802.2,662.4 800.3,662.4 798.5,662.4 796.6,662.4 794.7,662.4 792.8,662.4 790.9,662.4 789.0,662.4
787.1,662.4 785.3,662.4 783.4,662.4 781.5,662.4 779.6,662.4 777.7,662.4 775.8,662.4 773.9,662.4 772.0,662.4 770.2,662.4 768.3,662.4 766.4,662.4 764.5,662.4 762.6,662.4 760.7,662.4 758.8,662.4
756.9,662.4 755.1,662.4 753.2,662.4 751.3,662.4 749.4,662.4 747.5,662.4 745.6,662.4 743.7,662.4 741.8,662.4 740.0,662.4 738.1,662.4 736.2,662.4 734.3,662.4 732.4,662.4 730.5,662.4 728.6,662.4
726.7,662.4 724.9,662.4 723.0,662.4 721.1,662.4 719.2,662.4 717.3,662.4 715.4,662.4 713.5,662.4 711.7,662.4 709.8,662.4 707.9,662.4 706.0,662.4 704.1,662.4 702.2,662.4 700.3,662.4 698.4,662.4
696.6,662.4 694.7,662.4 692.8,662.4 690.9,662.4 689.0,662.4 687.1,662.4 685.2,662.4 683.3,662.4 681.5,662.4 679.6,662.4 677.7,662.4 675.8,662.4 673.9,662.4 672.0,662.4 670.1,662.4 668.2,662.4
666.4,662.4 664.5,662.4 662.6,662.4 660.7,662.4 658.8,662.4 656.9,662.4 655.0,662.4 653.1,662.4 651.3,662.4 649.4,662.4 647.5,662.4 645.6,662.4 643.7,662.4 641.8,662.4 639.9,662.4 638.1,662.4
636.2,662.4 634.3,662.4 632.4,662.4 630.5,662.4 628.6,662.4 626.7,662.4 624.8,662.4 623.0,662.4 621.1,662.4 619.2,662.4 617.3,662.4 615.4,662.4 613.5,662.4 611.6,662.4 609.7,662.4 607.9,662.4
606.0,662.4 604.1,662.4 602.2,662.4 600.3,662.4 598.4,662.4 596.5,662.4 594.6,662.4 592.8,662.4 590.9,662.4 589.0,662.4 587.1,662.4 585.2,662.4 583.3,662.4 581.4,662.4 579.5,662.4 577.7,662.4
575.8,662.4 573.9,662.4 572.0,662.4 570.1,662.4 568.2,662.4 566.3,662.4 564.5,662.4 562.6,662.4 560.7,662.4 558.8,662.4 556.9,662.4 555.0,662.4 553.1,662.4 551.2,662.4 549.4,662.4 547.5,662.4
545.6,662.4 543.7,662.4 541.8,662.4 539.9,662.4 538.0,662.4 536.1,662.4 534.3,662.4 532.4,662.4 530.5,662.4 528.6,662.4 526.7,662.4 524.8,662.4 522.9,662.4 521.0,662.4 519.2,662.4 517.3,662.4
515.4,662.4 513.5,662.4 511.6,662.4 509.7,662.4 507.8,662.4 506.0,662.4 504.1,662.4 502.2,662.4 500.3,662.4 498.4,662.4 496.5,662.4 494.6,662.4 492.7,662.4 490.9,662.4 489.0,662.4 487.1,662.4
485.2,662.4 483.3,662.4 481.4,662.4 479.5,662.4 477.6,662.4 475.8,662.4 473.9,662.4 472.0,662.4 470.1,662.4 468.2,662.4 466.3,662.4 464.4,662.4 462.5,662.4 460.7,662.4 458.8,662.4 456.9,662.4
455.0,662.4 453.1,662.4 451.2,662.4 449.3,662.4 447.4,662.4 445.6,662.4 443.7,662.4 441.8,662.4 439.9,662.4 438.0,662.4 436.1,662.4 434.2,662.4 432.4,662.4 430.5,662.4 428.6,662.4 426.7,662.4
424.8,662.4 422.9,662.4 421.0,662.4 419.1,662.4 417.3,662.4 415.4,662.4 413.5,662.4 411.6,662.4 409.7,662.4 407.8,662.4 405.9,662.4 404.0,662.4 402.2,662.4 400.3,662.4 398.4,662.4 396.5,662.4
394.6,662.4 392.7,662.4 390.8,662.4 388.9,662.4 387.1,662.4 385.2,662.4 383.3,662.4 381.4,662.4 379.5,662.4 377.6,662.4 375.7,662.4 373.8,662.4 372.0,662.4 370.1,662.4 368.2,662.4 366.3,662.4
364.4,662.4 362.5,662.4 360.6,662.4 358.8,662.4 356.9,662.4 355.0,662.4 353.1,662.4 351.2,662.4 349.3,662.4 347.4,662.4 345.5,662.4 343.7,662.4 341.8,662.4 339.9,662.4 338.0,662.4 336.1,662.4
334.2,662.4 332.3,662.4 330.4,662.4 328.6,662.4 326.7,662.4 324.8,662.4 322.9,662.4 321.0,662.4 319.1,662.4 317.2,662.4 315.3,662.4 313.5,662.4 311.6,662.4 309.7,662.4 307.8,662.4 305.9,662.4
304.0,662.4 302.1,662.4 300.2,662.4 298.4,662.4 296.5,662.4 294.6,662.4 292.7,662.4 290.8,662.4 288.9,662.4 287.0,662.4 285.2,662.4 283.3,662.4 281.4,662.4 279.5,662.4 277.6,662.4 275.7,662.4
273.8,662.4 271.9,662.4 270.1,662.4 268.2,662.4 266.3,662.4 264.4,662.4 262.5,662.4 260.6,662.4 258.7,662.4 256.8,662.4 255.0,662.4 253.1,662.4 251.2,662.4 249.3,662.4 247.4,662.4 245.5,662.4
243.6,662.4 241.7,662.4 239.9,662.4 238.0,662.4 236.1,662.4 234.2,662.4 232.3,662.4 230.4,662.4 228.5,662.4 226.6,662.4 224.8,662.4 222.9,662.4 221.0,662.4 219.1,662.4 217.2,662.4 215.3,662.4
213.4,662.4 211.6,662.4 209.7,662.4 207.8,662.4 205.9,662.4 204.0,662.4 202.1,662.4 200.2,662.4 198.3,662.4 196.5,662.4 194.6,662.4 192.7,662.4 190.8,662.4 188.9,662.4 187.0,662.4 185.1,662.4
183.2,662.4 181.4,662.4 179.5,662.4 177.6,662.4 175.7,662.4 173.8,662.4 171.9,662.4 170.0,662.4 168.1,662.4 166.3,662.4 164.4,662.4 162.5,662.4 160.6,662.4 158.7,662.4 '/>
	</g>
</g>
	</g>
	<g id="gnuplot_plot_3" ><title>Point estimate</title>
<g fill="none" color="white" stroke="rgb( 31, 120, 180)" stroke-width="2.00" stroke-linecap="butt" stroke-linejoin="miter">
</g>
<g fill="none" color="black" stroke="currentColor" stroke-width="2.00" stroke-linecap="butt" stroke-linejoin="miter">
	<g transform="translate(1089.0,103.0)" stroke="none" fill="black" font-family="Helvetica" font-size="12.00"  text-anchor="start">
		<text><tspan font-family="Helvetica" >Point estimate</tspan></text>
	</g>
</g>
<g fill="none" color="black" stroke="currentColor" stroke-width="2.00" stroke-linecap="butt" stroke-linejoin="miter">
	<path stroke='rgb( 31, 120, 180)'  d='M1038.5,99.1 L1080.7,99.1 M484.5,662.4 L484.5,62.3  '/></g>
	</g>
<g fill="none" color="black" stroke="currentColor" stroke-width="2.00" stroke-linecap="butt" stroke-linejoin="miter">
</g>
<g fill="none" color="black" stroke="black" stroke-width="1.00" stroke-linecap="butt" stroke-linejoin="miter">
</g>
<g fill="none" color="black" stroke="currentColor" stroke-width="1.00" stroke-linecap="butt" stroke-linejoin="miter">
	<path stroke='black'  d='M71.9,54.1 L71.9,662.4 L1013.6,662.4 L1013.6,54.1 L71.9,54.1 Z  '/></g>
<g fill="none" color="black" stroke="currentColor" stroke-width="1.00" stroke-linecap="butt" stroke-linejoin="miter">
</g>
</g>
</svg>

