<?xml version="1.0" encoding="utf-8"  standalone="no"?>
<svg 
 viewBox="0 0 1280 720"
 xmlns="http://www.w3.org/2000/svg"
 xmlns:xlink="http://www.w3.org/1999/xlink"
>

<title>Gnuplot</title>
<desc>Produced by GNUPLOT 5.2 patchlevel 6 </desc>

<g id="gnuplot_canvas">

<rect x="0" y="0" width="1280" height="720" fill="none"/>
<defs>

	<circle id='gpDot' r='0.5' stroke-width='0.5' stroke='currentColor'/>
	<path id='gpPt0' stroke-width='0.222' stroke='currentColor' d='M-1,0 h2 M0,-1 v2'/>
	<path id='gpPt1' stroke-width='0.222' stroke='currentColor' d='M-1,-1 L1,1 M1,-1 L-1,1'/>
	<path id='gpPt2' stroke-width='0.222' stroke='currentColor' d='M-1,0 L1,0 M0,-1 L0,1 M-1,-1 L1,1 M-1,1 L1,-1'/>
	<rect id='gpPt3' stroke-width='0.222' stroke='currentColor' x='-1' y='-1' width='2' height='2'/>
	<rect id='gpPt4' stroke-width='0.222' stroke='currentColor' fill='currentColor' x='-1' y='-1' width='2' height='2'/>
	<circle id='gpPt5' stroke-width='0.222' stroke='currentColor' cx='0' cy='0' r='1'/>
	<use xlink:href='#gpPt5' id='gpPt6' fill='currentColor' stroke='none'/>
	<path id='gpPt7' stroke-width='0.222' stroke='currentColor' d='M0,-1.33 L-1.33,0.67 L1.33,0.67 z'/>
	<use xlink:href='#gpPt7' id='gpPt8' fill='currentColor' stroke='none'/>
	<use xlink:href='#gpPt7' id='gpPt9' stroke='currentColor' transform='rotate(180)'/>
	<use xlink:href='#gpPt9' id='gpPt10' fill='currentColor' stroke='none'/>
	<use xlink:href='#gpPt3' id='gpPt11' stroke='currentColor' transform='rotate(45)'/>
	<use xlink:href='#gpPt11' id='gpPt12' fill='currentColor' stroke='none'/>
	<path id='gpPt13' stroke-width='0.222' stroke='currentColor' d='M0,1.330 L1.265,0.411 L0.782,-1.067 L-0.782,-1.076 L-1.265,0.411 z'/>
	<use xlink:href='#gpPt13' id='gpPt14' fill='currentColor' stroke='none'/>
	<filter id='textbox' filterUnits='objectBoundingBox' x='0' y='0' height='1' width='1'>
	  <feFlood flood-color='white' flood-opacity='1' result='bgnd'/>
	  <feComposite in='SourceGraphic' in2='bgnd' operator='atop'/>
	</filter>
	<filter id='greybox' filterUnits='objectBoundingBox' x='0' y='0' height='1' width='1'>
	  <feFlood flood-color='lightgrey' flood-opacity='1' result='grey'/>
	  <feComposite in='SourceGraphic' in2='grey' operator='atop'/>
	</filter>
</defs>
<g fill="none" color="white" stroke="currentColor" stroke-width="1.00" stroke-linecap="butt" stroke-linejoin="miter">
</g>
<g fill="none" color="black" stroke="currentColor" stroke-width="1.00" stroke-linecap="butt" stroke-linejoin="miter">
	<path stroke='black'  d='M71.9,662.4 L80.9,662.4  '/>	<g transform="translate(63.6,666.3)" stroke="none" fill="black" font-family="Helvetica" font-size="12.00"  text-anchor="end">
		<text><tspan font-family="Helvetica" > 0</tspan></text>
	</g>
</g>
<g fill="none" color="black" stroke="currentColor" stroke-width="1.00" stroke-linecap="butt" stroke-linejoin="miter">
	<path stroke='black'  d='M71.9,575.5 L80.9,575.5  '/>	<g transform="translate(63.6,579.4)" stroke="none" fill="black" font-family="Helvetica" font-size="12.00"  text-anchor="end">
		<text><tspan font-family="Helvetica" > 0.2</tspan></text>
	</g>
</g>
<g fill="none" color="black" stroke="currentColor" stroke-width="1.00" stroke-linecap="butt" stroke-linejoin="miter">
	<path stroke='black'  d='M71.9,488.6 L80.9,488.6  '/>	<g transform="translate(63.6,492.5)" stroke="none" fill="black" font-family="Helvetica" font-size="12.00"  text-anchor="end">
		<text><tspan font-family="Helvetica" > 0.4</tspan></text>
	</g>
</g>
<g fill="none" color="black" stroke="currentColor" stroke-width="1.00" stroke-linecap="butt" stroke-linejoin="miter">
	<path stroke='black'  d='M71.9,401.7 L80.9,401.7  '/>	<g transform="translate(63.6,405.6)" stroke="none" fill="black" font-family="Helvetica" font-size="12.00"  text-anchor="end">
		<text><tspan font-family="Helvetica" > 0.6</tspan></text>
	</g>
</g>
<g fill="none" color="black" stroke="currentColor" stroke-width="1.00" stroke-linecap="butt" stroke-linejoin="miter">
	<path stroke='black'  d='M71.9,314.8 L80.9,314.8  '/>	<g transform="translate(63.6,318.7)" stroke="none" fill="black" font-family="Helvetica" font-size="12.00"  text-anchor="end">
		<text><tspan font-family="Helvetica" > 0.8</tspan></text>
	</g>
</g>
<g fill="none" color="black" stroke="currentColor" stroke-width="1.00" stroke-linecap="butt" stroke-linejoin="miter">
	<path stroke='black'  d='M71.9,227.9 L80.9,227.9  '/>	<g transform="translate(63.6,231.8)" stroke="none" fill="black" font-family="Helvetica" font-size="12.00"  text-anchor="end">
		<text><tspan font-family="Helvetica" > 1</tspan></text>
	</g>
</g>
<g fill="none" color="black" stroke="currentColor" stroke-width="1.00" stroke-linecap="butt" stroke-linejoin="miter">
	<path stroke='black'  d='M71.9,141.0 L80.9,141.0  '/>	<g transform="translate(63.6,144.9)" stroke="none" fill="black" font-family="Helvetica" font-size="12.00"  text-anchor="end">
		<text><tspan font-family="Helvetica" > 1.2</tspan></text>
	</g>
</g>
<g fill="none" color="black" stroke="currentColor" stroke-width="1.00" stroke-linecap="butt" stroke-linejoin="miter">
	<path stroke='black'  d='M71.9,54.1 L80.9,54.1  '/>	<g transform="translate(63.6,58.0)" stroke="none" fill="black" font-family="Helvetica" font-size="12.00"  text-anchor="end">
		<text><tspan font-family="Helvetica" > 1.4</tspan></text>
	</g>
</g>
<g fill="none" color="black" stroke="currentColor" stroke-width="1.00" stroke-linecap="butt" stroke-linejoin="miter">
	<path stroke='black'  d='M74.7,662.4 L74.7,653.4  '/>	<g transform="translate(74.7,684.3)" stroke="none" fill="black" font-family="Helvetica" font-size="12.00"  text-anchor="middle">
		<text><tspan font-family="Helvetica" > 0.2</tspan></text>
	</g>
</g>
<g fill="none" color="black" stroke="currentColor" stroke-width="1.00" stroke-linecap="butt" stroke-linejoin="miter">
	<path stroke='black'  d='M182.5,662.4 L182.5,653.4  '/>	<g transform="translate(182.5,684.3)" stroke="none" fill="black" font-family="Helvetica" font-size="12.00"  text-anchor="middle">
		<text><tspan font-family="Helvetica" > 0.4</tspan></text>
	</g>
</g>
<g fill="none" color="black" stroke="currentColor" stroke-width="1.00" stroke-linecap="butt" stroke-linejoin="miter">
	<path stroke='black'  d='M290.3,662.4 L290.3,653.4  '/>	<g transform="translate(290.3,684.3)" stroke="none" fill="black" font-family="Helvetica" font-size="12.00"  text-anchor="middle">
		<text><tspan font-family="Helvetica" > 0.6</tspan></text>
	</g>
</g>
<g fill="none" color="black" stroke="currentColor" stroke-width="1.00" stroke-linecap="butt" stroke-linejoin="miter">
	<path stroke='black'  d='M398.0,662.4 L398.0,653.4  '/>	<g transform="translate(398.0,684.3)" stroke="none" fill="black" font-family="Helvetica" font-size="12.00"  text-anchor="middle">
		<text><tspan font-family="Helvetica" > 0.8</tspan></text>
	</g>
</g>
<g fill="none" color="black" stroke="currentColor" stroke-width="1.00" stroke-linecap="butt" stroke-linejoin="miter">
	<path stroke='black'  d='M505.8,662.4 L505.8,653.4  '/>	<g transform="translate(505.8,684.3)" stroke="none" fill="black" font-family="Helvetica" font-size="12.00"  text-anchor="middle">
		<text><tspan font-family="Helvetica" > 1</tspan></text>
	</g>
</g>
<g fill="none" color="black" stroke="currentColor" stroke-width="1.00" stroke-linecap="butt" stroke-linejoin="miter">
	<path stroke='black'  d='M613.6,662.4 L613.6,653.4  '/>	<g transform="translate(613.6,684.3)" stroke="none" fill="black" font-family="Helvetica" font-size="12.00"  text-anchor="middle">
		<text><tspan font-family="Helvetica" > 1.2</tspan></text>
	</g>
</g>
<g fill="none" color="black" stroke="currentColor" stroke-width="1.00" stroke-linecap="butt" stroke-linejoin="miter">
	<path stroke='black'  d='M721.4,662.4 L721.4,653.4  '/>	<g transform="translate(721.4,684.3)" stroke="none" fill="black" font-family="Helvetica" font-size="12.00"  text-anchor="middle">
		<text><tspan font-family="Helvetica" > 1.4</tspan></text>
	</g>
</g>
<g fill="none" color="black" stroke="currentColor" stroke-width="1.00" stroke-linecap="butt" stroke-linejoin="miter">
	<path stroke='black'  d='M829.2,662.4 L829.2,653.4  '/>	<g transform="translate(829.2,684.3)" stroke="none" fill="black" font-family="Helvetica" font-size="12.00"  text-anchor="middle">
		<text><tspan font-family="Helvetica" > 1.6</tspan></text>
	</g>
</g>
<g fill="none" color="black" stroke="currentColor" stroke-width="1.00" stroke-linecap="butt" stroke-linejoin="miter">
	<path stroke='black'  d='M937.0,662.4 L937.0,653.4  '/>	<g transform="translate(937.0,684.3)" stroke="none" fill="black" font-family="Helvetica" font-size="12.00"  text-anchor="middle">
		<text><tspan font-family="Helvetica" > 1.8</tspan></text>
	</g>
</g>
<g fill="none" color="black" stroke="currentColor" stroke-width="1.00" stroke-linecap="butt" stroke-linejoin="miter">
</g>
<g fill="none" color="black" stroke="currentColor" stroke-width="1.00" stroke-linecap="butt" stroke-linejoin="miter">
	<path stroke='black'  d='M71.9,54.1 L71.9,662.4 L1013.6,662.4 L1013.6,54.1 L71.9,54.1 Z  '/></g>
<g fill="none" color="black" stroke="currentColor" stroke-width="1.00" stroke-linecap="butt" stroke-linejoin="miter">
	<g transform="translate(16.3,358.3) rotate(270)" stroke="none" fill="black" font-family="Helvetica" font-size="12.00"  text-anchor="middle">
		<text><tspan font-family="Helvetica" >Density (a.u.)</tspan></text>
	</g>
</g>
<g fill="none" color="black" stroke="currentColor" stroke-width="1.00" stroke-linecap="butt" stroke-linejoin="miter">
	<g transform="translate(542.7,711.3)" stroke="none" fill="black" font-family="Helvetica" font-size="12.00"  text-anchor="middle">
		<text><tspan font-family="Helvetica" >Average time (us)</tspan></text>
	</g>
</g>
<g fill="none" color="black" stroke="currentColor" stroke-width="1.00" stroke-linecap="butt" stroke-linejoin="miter">
	<g transform="translate(542.7,31.0)" stroke="none" fill="black" font-family="Helvetica" font-size="12.00"  text-anchor="middle">
		<text><tspan font-family="Helvetica" >snapshot_restore_with_dense/Dense: Entire region + /proc/pid/mem/5: SD</tspan></text>
	</g>
</g>
	<g id="gnuplot_plot_1" ><title>Bootstrap distribution</title>
<g fill="none" color="white" stroke="black" stroke-width="2.00" stroke-linecap="butt" stroke-linejoin="miter">
</g>
<g fill="none" color="black" stroke="currentColor" stroke-width="2.00" stroke-linecap="butt" stroke-linejoin="miter">
	<g transform="translate(1089.0,67.0)" stroke="none" fill="black" font-family="Helvetica" font-size="12.00"  text-anchor="start">
		<text><tspan font-family="Helvetica" >Bootstrap distribution</tspan></text>
	</g>
</g>
<g fill="none" color="black" stroke="currentColor" stroke-width="2.00" stroke-linecap="butt" stroke-linejoin="miter">
	<path stroke='rgb( 31, 120, 180)'  d='M1038.5,63.1 L1080.7,63.1 M71.9,644.5 L73.8,643.4 L75.7,642.2 L77.6,640.9 L79.4,639.5 L81.3,638.0
		L83.2,636.5 L85.1,634.9 L87.0,633.2 L88.9,631.5 L90.8,629.7 L92.7,627.8 L94.5,625.8 L96.4,623.8
		L98.3,621.7 L100.2,619.5 L102.1,617.2 L104.0,614.9 L105.9,612.5 L107.8,610.0 L109.6,607.5 L111.5,604.9
		L113.4,602.2 L115.3,599.4 L117.2,596.5 L119.1,593.6 L121.0,590.6 L122.9,587.5 L124.7,584.4 L126.6,581.2
		L128.5,577.9 L130.4,574.5 L132.3,571.1 L134.2,567.5 L136.1,564.0 L138.0,560.4 L139.8,556.7 L141.7,553.0
		L143.6,549.2 L145.5,545.4 L147.4,541.6 L149.3,537.7 L151.2,533.9 L153.0,530.0 L154.9,526.2 L156.8,522.4
		L158.7,518.6 L160.6,514.8 L162.5,511.1 L164.4,507.4 L166.3,503.8 L168.1,500.2 L170.0,496.7 L171.9,493.3
		L173.8,490.0 L175.7,486.7 L177.6,483.6 L179.5,480.5 L181.4,477.6 L183.2,474.8 L185.1,472.1 L187.0,469.5
		L188.9,467.1 L190.8,464.8 L192.7,462.7 L194.6,460.8 L196.5,459.0 L198.3,457.4 L200.2,456.0 L202.1,454.8
		L204.0,453.8 L205.9,453.1 L207.8,452.5 L209.7,452.2 L211.6,452.1 L213.4,452.3 L215.3,452.7 L217.2,453.4
		L219.1,454.4 L221.0,455.5 L222.9,457.0 L224.8,458.6 L226.6,460.5 L228.5,462.7 L230.4,465.0 L232.3,467.6
		L234.2,470.4 L236.1,473.4 L238.0,476.5 L239.9,479.8 L241.7,483.2 L243.6,486.8 L245.5,490.5 L247.4,494.2
		L249.3,498.0 L251.2,501.8 L253.1,505.7 L255.0,509.6 L256.8,513.4 L258.7,517.2 L260.6,520.8 L262.5,524.4
		L264.4,527.9 L266.3,531.2 L268.2,534.3 L270.1,537.2 L271.9,539.9 L273.8,542.2 L275.7,544.3 L277.6,546.1
		L279.5,547.5 L281.4,548.5 L283.3,549.1 L285.2,549.3 L287.0,549.0 L288.9,548.3 L290.8,547.0 L292.7,545.3
		L294.6,543.0 L296.5,540.1 L298.4,536.8 L300.2,532.8 L302.1,528.4 L304.0,523.3 L305.9,517.8 L307.8,511.7
		L309.7,505.2 L311.6,498.1 L313.5,490.7 L315.3,482.8 L317.2,474.5 L319.1,466.0 L321.0,457.1 L322.9,448.1
		L324.8,438.9 L326.7,429.6 L328.6,420.3 L330.4,411.0 L332.3,401.8 L334.2,392.7 L336.1,383.9 L338.0,375.4
		L339.9,367.3 L341.8,359.6 L343.7,352.4 L345.5,345.8 L347.4,339.7 L349.3,334.3 L351.2,329.6 L353.1,325.6
		L355.0,322.3 L356.9,319.9 L358.8,318.2 L360.6,317.4 L362.5,317.3 L364.4,318.1 L366.3,319.6 L368.2,322.0
		L370.1,325.1 L372.0,328.9 L373.8,333.4 L375.7,338.6 L377.6,344.3 L379.5,350.7 L381.4,357.5 L383.3,364.8
		L385.2,372.4 L387.1,380.4 L388.9,388.7 L390.8,397.1 L392.7,405.6 L394.6,414.2 L396.5,422.8 L398.4,431.2
		L400.3,439.4 L402.2,447.4 L404.0,455.0 L405.9,462.2 L407.8,468.8 L409.7,474.9 L411.6,480.4 L413.5,485.1
		L415.4,489.0 L417.3,492.1 L419.1,494.3 L421.0,495.5 L422.9,495.6 L424.8,494.8 L426.7,492.8 L428.6,489.8
		L430.5,485.6 L432.4,480.3 L434.2,473.8 L436.1,466.2 L438.0,457.5 L439.9,447.7 L441.8,436.8 L443.7,425.0
		L445.6,412.1 L447.4,398.4 L449.3,383.9 L451.2,368.6 L453.1,352.6 L455.0,336.2 L456.9,319.3 L458.8,302.0
		L460.7,284.6 L462.5,267.1 L464.4,249.7 L466.3,232.5 L468.2,215.6 L470.1,199.2 L472.0,183.5 L473.9,168.5
		L475.8,154.5 L477.6,141.5 L479.5,129.6 L481.4,119.0 L483.3,109.8 L485.2,102.0 L487.1,95.7 L489.0,91.1
		L490.9,88.0 L492.7,86.5 L494.6,86.7 L496.5,88.5 L498.4,91.8 L500.3,96.5 L502.2,102.7 L504.1,110.1
		L506.0,118.7 L507.8,128.3 L509.7,138.7 L511.6,149.8 L513.5,161.5 L515.4,173.4 L517.3,185.4 L519.2,197.4
		L521.0,209.1 L522.9,220.4 L524.8,231.0 L526.7,240.9 L528.6,249.7 L530.5,257.5 L532.4,264.1 L534.3,269.3
		L536.1,273.1 L538.0,275.4 L539.9,276.2 L541.8,275.5 L543.7,273.3 L545.6,269.6 L547.5,264.6 L549.4,258.3
		L551.2,250.8 L553.1,242.4 L555.0,233.1 L556.9,223.1 L558.8,212.7 L560.7,202.1 L562.6,191.4 L564.5,180.9
		L566.3,170.9 L568.2,161.5 L570.1,152.9 L572.0,145.4 L573.9,139.1 L575.8,134.1 L577.7,130.6 L579.5,128.7
		L581.4,128.5 L583.3,129.9 L585.2,132.9 L587.1,137.7 L589.0,144.0 L590.9,151.8 L592.8,160.9 L594.6,171.3
		L596.5,182.7 L598.4,194.9 L600.3,207.8 L602.2,221.1 L604.1,234.6 L606.0,248.1 L607.9,261.2 L609.7,273.9
		L611.6,285.9 L613.5,297.0 L615.4,307.0 L617.3,315.7 L619.2,323.1 L621.1,329.0 L623.0,333.4 L624.8,336.1
		L626.7,337.2 L628.6,336.7 L630.5,334.6 L632.4,331.0 L634.3,326.0 L636.2,319.7 L638.1,312.2 L639.9,303.8
		L641.8,294.5 L643.7,284.6 L645.6,274.3 L647.5,263.8 L649.4,253.3 L651.3,242.9 L653.1,233.0 L655.0,223.7
		L656.9,215.1 L658.8,207.4 L660.7,200.8 L662.6,195.3 L664.5,191.2 L666.4,188.3 L668.2,186.8 L670.1,186.7
		L672.0,188.0 L673.9,190.5 L675.8,194.3 L677.7,199.3 L679.6,205.2 L681.5,212.1 L683.3,219.7 L685.2,227.9
		L687.1,236.6 L689.0,245.4 L690.9,254.3 L692.8,263.0 L694.7,271.5 L696.6,279.6 L698.4,287.0 L700.3,293.8
		L702.2,299.8 L704.1,304.9 L706.0,309.1 L707.9,312.3 L709.8,314.7 L711.7,316.1 L713.5,316.8 L715.4,316.7
		L717.3,316.0 L719.2,314.7 L721.1,313.1 L723.0,311.3 L724.9,309.4 L726.7,307.6 L728.6,306.0 L730.5,304.8
		L732.4,304.2 L734.3,304.1 L736.2,304.8 L738.1,306.3 L740.0,308.6 L741.8,311.8 L743.7,315.9 L745.6,320.8
		L747.5,326.4 L749.4,332.8 L751.3,339.7 L753.2,347.1 L755.1,354.8 L756.9,362.8 L758.8,370.8 L760.7,378.7
		L762.6,386.5 L764.5,393.8 L766.4,400.7 L768.3,407.0 L770.2,412.7 L772.0,417.6 L773.9,421.8 L775.8,425.3
		L777.7,427.9 L779.6,429.8 L781.5,431.0 L783.4,431.6 L785.3,431.7 L787.1,431.3 L789.0,430.5 L790.9,429.5
		L792.8,428.4 L794.7,427.2 L796.6,426.1 L798.5,425.3 L800.3,424.6 L802.2,424.4 L804.1,424.5 L806.0,425.1
		L807.9,426.2 L809.8,427.7 L811.7,429.8 L813.6,432.3 L815.4,435.3 L817.3,438.6 L819.2,442.3 L821.1,446.3
		L823.0,450.5 L824.9,454.8 L826.8,459.2 L828.7,463.6 L830.5,467.9 L832.4,472.0 L834.3,476.0 L836.2,479.8
		L838.1,483.3 L840.0,486.5 L841.9,489.4 L843.8,492.0 L845.6,494.4 L847.5,496.5 L849.4,498.4 L851.3,500.1
		L853.2,501.7 L855.1,503.2 L857.0,504.7 L858.9,506.2 L860.7,507.7 L862.6,509.4 L864.5,511.2 L866.4,513.2
		L868.3,515.3 L870.2,517.7 L872.1,520.2 L873.9,522.9 L875.8,525.9 L877.7,528.9 L879.6,532.1 L881.5,535.3
		L883.4,538.6 L885.3,541.9 L887.2,545.1 L889.0,548.3 L890.9,551.3 L892.8,554.2 L894.7,556.8 L896.6,559.3
		L898.5,561.6 L900.4,563.7 L902.3,565.5 L904.1,567.2 L906.0,568.7 L907.9,570.0 L909.8,571.2 L911.7,572.2
		L913.6,573.2 L915.5,574.2 L917.4,575.1 L919.2,576.0 L921.1,577.0 L923.0,578.0 L924.9,579.1 L926.8,580.2
		L928.7,581.5 L930.6,582.8 L932.5,584.2 L934.3,585.7 L936.2,587.2 L938.1,588.8 L940.0,590.4 L941.9,592.0
		L943.8,593.6 L945.7,595.2 L947.5,596.8 L949.4,598.3 L951.3,599.7 L953.2,601.1 L955.1,602.5 L957.0,603.7
		L958.9,604.9 L960.8,606.1 L962.6,607.2 L964.5,608.3 L966.4,609.3 L968.3,610.3 L970.2,611.3 L972.1,612.3
		L974.0,613.3 L975.9,614.3 L977.7,615.4 L979.6,616.5 L981.5,617.6 L983.4,618.7 L985.3,619.9 L987.2,621.0
		L989.1,622.2 L991.0,623.4 L992.8,624.6 L994.7,625.8 L996.6,627.0 L998.5,628.1 L1000.4,629.2 L1002.3,630.2
		L1004.2,631.2 L1006.1,632.2 L1007.9,633.0 L1009.8,633.9 L1011.7,634.7 L1013.6,635.4  '/></g>
	</g>
	<g id="gnuplot_plot_2" ><title>Confidence interval</title>
<g fill="none" color="white" stroke="rgb( 31, 120, 180)" stroke-width="1.00" stroke-linecap="butt" stroke-linejoin="miter">
</g>
<g fill="none" color="black" stroke="currentColor" stroke-width="1.00" stroke-linecap="butt" stroke-linejoin="miter">
	<g transform="translate(1089.0,85.0)" stroke="none" fill="black" font-family="Helvetica" font-size="12.00"  text-anchor="start">
		<text><tspan font-family="Helvetica" >Confidence interval</tspan></text>
	</g>
</g>
<g fill="none" color="black" stroke="currentColor" stroke-width="1.00" stroke-linecap="butt" stroke-linejoin="miter">
	<g stroke='none' shape-rendering='crispEdges'>
		<polygon fill = 'rgb( 31, 120, 180)' fill-opacity = '0.250000' points = '1038.5,85.6 1080.7,85.6 1080.7,76.6 1038.5,76.6 '/>
		<polygon fill = 'rgb( 31, 120, 180)' fill-opacity = '0.250000' points = '158.7,518.6 160.6,514.8 162.5,511.1 164.4,507.4 166.3,503.8 168.1,500.2 170.0,496.7 171.9,493.3 173.8,490.0 175.7,486.7 177.6,483.6 179.5,480.5 181.4,477.6 183.2,474.8 185.1,472.1 187.0,469.5
188.9,467.1 190.8,464.8 192.7,462.7 194.6,460.8 196.5,459.0 198.3,457.4 200.2,456.0 202.1,454.8 204.0,453.8 205.9,453.1 207.8,452.5 209.7,452.2 211.6,452.1 213.4,452.3 215.3,452.7 217.2,453.4
219.1,454.4 221.0,455.5 222.9,457.0 224.8,458.6 226.6,460.5 228.5,462.7 230.4,465.0 232.3,467.6 234.2,470.4 236.1,473.4 238.0,476.5 239.9,479.8 241.7,483.2 243.6,486.8 245.5,490.5 247.4,494.2
249.3,498.0 251.2,501.8 253.1,505.7 255.0,509.6 256.8,513.4 258.7,517.2 260.6,520.8 262.5,524.4 264.4,527.9 266.3,531.2 268.2,534.3 270.1,537.2 271.9,539.9 273.8,542.2 275.7,544.3 277.6,546.1
279.5,547.5 281.4,548.5 283.3,549.1 285.2,549.3 287.0,549.0 288.9,548.3 290.8,547.0 292.7,545.3 294.6,543.0 296.5,540.1 298.4,536.8 300.2,532.8 302.1,528.4 304.0,523.3 305.9,517.8 307.8,511.7
309.7,505.2 311.6,498.1 313.5,490.7 315.3,482.8 317.2,474.5 319.1,466.0 321.0,457.1 322.9,448.1 324.8,438.9 326.7,429.6 328.6,420.3 330.4,411.0 332.3,401.8 334.2,392.7 336.1,383.9 338.0,375.4
339.9,367.3 341.8,359.6 343.7,352.4 345.5,345.8 347.4,339.7 349.3,334.3 351.2,329.6 353.1,325.6 355.0,322.3 356.9,319.9 358.8,318.2 360.6,317.4 362.5,317.3 364.4,318.1 366.3,319.6 368.2,322.0
370.1,325.1 372.0,328.9 373.8,333.4 375.7,338.6 377.6,344.3 379.5,350.7 381.4,357.5 383.3,364.8 385.2,372.4 387.1,380.4 388.9,388.7 390.8,397.1 392.7,405.6 394.6,414.2 396.5,422.8 398.4,431.2
400.3,439.4 402.2,447.4 404.0,455.0 405.9,462.2 407.8,468.8 409.7,474.9 411.6,480.4 413.5,485.1 415.4,489.0 417.3,492.1 419.1,494.3 421.0,495.5 422.9,495.6 424.8,494.8 426.7,492.8 428.6,489.8
430.5,485.6 432.4,480.3 434.2,473.8 436.1,466.2 438.0,457.5 439.9,447.7 441.8,436.8 443.7,425.0 445.6,412.1 447.4,398.4 449.3,383.9 451.2,368.6 453.1,352.6 455.0,336.2 456.9,319.3 458.8,302.0
460.7,284.6 462.5,267.1 464.4,249.7 466.3,232.5 468.2,215.6 470.1,199.2 472.0,183.5 473.9,168.5 475.8,154.5 477.6,141.5 479.5,129.6 481.4,119.0 483.3,109.8 485.2,102.0 487.1,95.7 489.0,91.1
490.9,88.0 492.7,86.5 494.6,86.7 496.5,88.5 498.4,91.8 500.3,96.5 502.2,102.7 504.1,110.1 506.0,118.7 507.8,128.3 509.7,138.7 511.6,149.8 513.5,161.5 515.4,173.4 517.3,185.4 519.2,197.4
521.0,209.1 522.9,220.4 524.8,231.0 526.7,240.9 528.6,249.7 530.5,257.5 532.4,264.1 534.3,269.3 536.1,273.1 538.0,275.4 539.9,276.2 541.8,275.5 543.7,273.3 545.6,269.6 547.5,264.6 549.4,258.3
551.2,250.8 553.1,242.4 555.0,233.1 556.9,223.1 558.8,212.7 560.7,202.1 562.6,191.4 564.5,180.9 566.3,170.9 568.2,161.5 570.1,152.9 572.0,145.4 573.9,139.1 575.8,134.1 577.7,130.6 579.5,128.7
581.4,128.5 583.3,129.9 585.2,132.9 587.1,137.7 589.0,144.0 590.9,151.8 592.8,160.9 594.6,171.3 596.5,182.7 598.4,194.9 600.3,207.8 602.2,221.1 604.1,234.6 606.0,248.1 607.9,261.2 609.7,273.9
611.6,285.9 613.5,297.0 615.4,307.0 617.3,315.7 619.2,323.1 621.1,329.0 623.0,333.4 624.8,336.1 626.7,337.2 628.6,336.7 630.5,334.6 632.4,331.0 634.3,326.0 636.2,319.7 638.1,312.2 639.9,303.8
641.8,294.5 643.7,284.6 645.6,274.3 647.5,263.8 649.4,253.3 651.3,242.9 653.1,233.0 655.0,223.7 656.9,215.1 658.8,207.4 660.7,200.8 662.6,195.3 664.5,191.2 666.4,188.3 668.2,186.8 670.1,186.7
672.0,188.0 673.9,190.5 675.8,194.3 677.7,199.3 679.6,205.2 681.5,212.1 683.3,219.7 685.2,227.9 687.1,236.6 689.0,245.4 690.9,254.3 692.8,263.0 694.7,271.5 696.6,279.6 698.4,287.0 700.3,293.8
702.2,299.8 704.1,304.9 706.0,309.1 707.9,312.3 709.8,314.7 711.7,316.1 713.5,316.8 715.4,316.7 717.3,316.0 719.2,314.7 721.1,313.1 723.0,311.3 724.9,309.4 726.7,307.6 728.6,306.0 730.5,304.8
732.4,304.2 734.3,304.1 736.2,304.8 738.1,306.3 740.0,308.6 741.8,311.8 743.7,315.9 745.6,320.8 747.5,326.4 749.4,332.8 751.3,339.7 753.2,347.1 755.1,354.8 756.9,362.8 758.8,370.8 760.7,378.7
762.6,386.5 764.5,393.8 766.4,400.7 768.3,407.0 770.2,412.7 772.0,417.6 773.9,421.8 775.8,425.3 777.7,427.9 779.6,429.8 781.5,431.0 783.4,431.6 785.3,431.7 787.1,431.3 789.0,430.5 790.9,429.5
792.8,428.4 794.7,427.2 796.6,426.1 798.5,425.3 800.3,424.6 802.2,424.4 804.1,424.5 806.0,425.1 807.9,426.2 809.8,427.7 811.7,429.8 813.6,432.3 815.4,435.3 817.3,438.6 819.2,442.3 821.1,446.3
823.0,450.5 824.9,454.8 826.8,459.2 828.7,463.6 830.5,467.9 832.4,472.0 834.3,476.0 836.2,479.8 838.1,483.3 840.0,486.5 841.9,489.4 843.8,492.0 845.6,494.4 847.5,496.5 849.4,498.4 851.3,500.1
853.2,501.7 855.1,503.2 857.0,504.7 858.9,506.2 860.7,507.7 862.6,509.4 864.5,511.2 866.4,513.2 868.3,515.3 870.2,517.7 872.1,520.2 873.9,522.9 875.8,525.9 877.7,528.9 879.6,532.1 881.5,535.3
883.4,538.6 885.3,541.9 887.2,545.1 889.0,548.3 890.9,551.3 892.8,554.2 894.7,556.8 896.6,559.3 898.5,561.6 900.4,563.7 902.3,565.5 904.1,567.2 906.0,568.7 907.9,570.0 909.8,571.2 911.7,572.2
913.6,573.2 915.5,574.2 917.4,575.1 919.2,576.0 921.1,577.0 923.0,578.0 924.9,579.1 924.9,662.4 923.0,662.4 921.1,662.4 919.2,662.4 917.4,662.4 915.5,662.4 913.6,662.4 911.7,662.4 909.8,662.4
907.9,662.4 906.0,662.4 904.1,662.4 902.3,662.4 900.4,662.4 898.5,662.4 896.6,662.4 894.7,662.4 892.8,662.4 890.9,662.4 889.0,662.4 887.2,662.4 885.3,662.4 883.4,662.4 881.5,662.4 879.6,662.4
877.7,662.4 875.8,662.4 873.9,662.4 872.1,662.4 870.2,662.4 868.3,662.4 866.4,662.4 864.5,662.4 862.6,662.4 860.7,662.4 858.9,662.4 857.0,662.4 855.1,662.4 853.2,662.4 851.3,662.4 849.4,662.4
847.5,662.4 845.6,662.4 843.8,662.4 841.9,662.4 840.0,662.4 838.1,662.4 836.2,662.4 834.3,662.4 832.4,662.4 830.5,662.4 828.7,662.4 826.8,662.4 824.9,662.4 823.0,662.4 821.1,662.4 819.2,662.4
817.3,662.4 815.4,662.4 813.6,662.4 811.7,662.4 809.8,662.4 807.9,662.4 806.0,662.4 804.1,662.4 802.2,662.4 800.3,662.4 798.5,662.4 796.6,662.4 794.7,662.4 792.8,662.4 790.9,662.4 789.0,662.4
787.1,662.4 785.3,662.4 783.4,662.4 781.5,662.4 779.6,662.4 777.7,662.4 775.8,662.4 773.9,662.4 772.0,662.4 770.2,662.4 768.3,662.4 766.4,662.4 764.5,662.4 762.6,662.4 760.7,662.4 758.8,662.4
756.9,662.4 755.1,662.4 753.2,662.4 751.3,662.4 749.4,662.4 747.5,662.4 745.6,662.4 743.7,662.4 741.8,662.4 740.0,662.4 738.1,662.4 736.2,662.4 734.3,662.4 732.4,662.4 730.5,662.4 728.6,662.4
726.7,662.4 724.9,662.4 723.0,662.4 721.1,662.4 719.2,662.4 717.3,662.4 715.4,662.4 713.5,662.4 711.7,662.4 709.8,662.4 707.9,662.4 706.0,662.4 704.1,662.4 702.2,662.4 700.3,662.4 698.4,662.4
696.6,662.4 694.7,662.4 692.8,662.4 690.9,662.4 689.0,662.4 687.1,662.4 685.2,662.4 683.3,662.4 681.5,662.4 679.6,662.4 677.7,662.4 675.8,662.4 673.9,662.4 672.0,662.4 670.1,662.4 668.2,662.4
666.4,662.4 664.5,662.4 662.6,662.4 660.7,662.4 658.8,662.4 656.9,662.4 655.0,662.4 653.1,662.4 651.3,662.4 649.4,662.4 647.5,662.4 645.6,662.4 643.7,662.4 641.8,662.4 639.9,662.4 638.1,662.4
636.2,662.4 634.3,662.4 632.4,662.4 630.5,662.4 628.6,662.4 626.7,662.4 624.8,662.4 623.0,662.4 621.1,662.4 619.2,662.4 617.3,662.4 615.4,662.4 613.5,662.4 611.6,662.4 609.7,662.4 607.9,662.4
606.0,662.4 604.1,662.4 602.2,662.4 600.3,662.4 598.4,662.4 596.5,662.4 594.6,662.4 592.8,662.4 590.9,662.4 589.0,662.4 587.1,662.4 585.2,662.4 583.3,662.4 581.4,662.4 579.5,662.4 577.7,662.4
575.8,662.4 573.9,662.4 572.0,662.4 570.1,662.4 568.2,662.4 566.3,662.4 564.5,662.4 562.6,662.4 560.7,662.4 558.8,662.4 556.9,662.4 555.0,662.4 553.1,662.4 551.2,662.4 549.4,662.4 547.5,662.4
545.6,662.4 543.7,662.4 541.8,662.4 539.9,662.4 538.0,662.4 536.1,662.4 534.3,662.4 532.4,662.4 530.5,662.4 528.6,662.4 526.7,662.4 524.8,662.4 522.9,662.4 521.0,662.4 519.2,662.4 517.3,662.4
515.4,662.4 513.5,662.4 511.6,662.4 509.7,662.4 507.8,662.4 506.0,662.4 504.1,662.4 502.2,662.4 500.3,662.4 498.4,662.4 496.5,662.4 494.6,662.4 492.7,662.4 490.9,662.4 489.0,662.4 487.1,662.4
485.2,662.4 483.3,662.4 481.4,662.4 479.5,662.4 477.6,662.4 475.8,662.4 473.9,662.4 472.0,662.4 470.1,662.4 468.2,662.4 466.3,662.4 464.4,662.4 462.5,662.4 460.7,662.4 458.8,662.4 456.9,662.4
455.0,662.4 453.1,662.4 451.2,662.4 449.3,662.4 447.4,662.4 445.6,662.4 443.7,662.4 441.8,662.4 439.9,662.4 438.0,662.4 436.1,662.4 434.2,662.4 432.4,662.4 430.5,662.4 428.6,662.4 426.7,662.4
424.8,662.4 422.9,662.4 421.0,662.4 419.1,662.4 417.3,662.4 415.4,662.4 413.5,662.4 411.6,662.4 409.7,662.4 407.8,662.4 405.9,662.4 404.0,662.4 402.2,662.4 400.3,662.4 398.4,662.4 396.5,662.4
394.6,662.4 392.7,662.4 390.8,662.4 388.9,662.4 387.1,662.4 385.2,662.4 383.3,662.4 381.4,662.4 379.5,662.4 377.6,662.4 375.7,662.4 373.8,662.4 372.0,662.4 370.1,662.4 368.2,662.4 366.3,662.4
364.4,662.4 362.5,662.4 360.6,662.4 358.8,662.4 356.9,662.4 355.0,662.4 353.1,662.4 351.2,662.4 349.3,662.4 347.4,662.4 345.5,662.4 343.7,662.4 341.8,662.4 339.9,662.4 338.0,662.4 336.1,662.4
334.2,662.4 332.3,662.4 330.4,662.4 328.6,662.4 326.7,662.4 324.8,662.4 322.9,662.4 321.0,662.4 319.1,662.4 317.2,662.4 315.3,662.4 313.5,662.4 311.6,662.4 309.7,662.4 307.8,662.4 305.9,662.4
304.0,662.4 302.1,662.4 300.2,662.4 298.4,662.4 296.5,662.4 294.6,662.4 292.7,662.4 290.8,662.4 288.9,662.4 287.0,662.4 285.2,662.4 283.3,662.4 281.4,662.4 279.5,662.4 277.6,662.4 275.7,662.4
273.8,662.4 271.9,662.4 270.1,662.4 268.2,662.4 266.3,662.4 264.4,662.4 262.5,662.4 260.6,662.4 258.7,662.4 256.8,662.4 255.0,662.4 253.1,662.4 251.2,662.4 249.3,662.4 247.4,662.4 245.5,662.4
243.6,662.4 241.7,662.4 239.9,662.4 238.0,662.4 236.1,662.4 234.2,662.4 232.3,662.4 230.4,662.4 228.5,662.4 226.6,662.4 224.8,662.4 222.9,662.4 221.0,662.4 219.1,662.4 217.2,662.4 215.3,662.4
213.4,662.4 211.6,662.4 209.7,662.4 207.8,662.4 205.9,662.4 204.0,662.4 202.1,662.4 200.2,662.4 198.3,662.4 196.5,662.4 194.6,662.4 192.7,662.4 190.8,662.4 188.9,662.4 187.0,662.4 185.1,662.4
183.2,662.4 181.4,662.4 179.5,662.4 177.6,662.4 175.7,662.4 173.8,662.4 171.9,662.4 170.0,662.4 168.1,662.4 166.3,662.4 164.4,662.4 162.5,662.4 160.6,662.4 158.7,662.4 '/>
	</g>
</g>
	</g>
	<g id="gnuplot_plot_3" ><title>Point estimate</title>
<g fill="none" color="white" stroke="rgb( 31, 120, 180)" stroke-width="2.00" stroke-linecap="butt" stroke-linejoin="miter">
</g>
<g fill="none" color="black" stroke="currentColor" stroke-width="2.00" stroke-linecap="butt" stroke-linejoin="miter">
	<g transform="translate(1089.0,103.0)" stroke="none" fill="black" font-family="Helvetica" font-size="12.00"  text-anchor="start">
		<text><tspan font-family="Helvetica" >Point estimate</tspan></text>
	</g>
</g>
<g fill="none" color="black" stroke="currentColor" stroke-width="2.00" stroke-linecap="butt" stroke-linejoin="miter">
	<path stroke='rgb( 31, 120, 180)'  d='M1038.5,99.1 L1080.7,99.1 M586.9,662.4 L586.9,137.1  '/></g>
	</g>
<g fill="none" color="black" stroke="currentColor" stroke-width="2.00" stroke-linecap="butt" stroke-linejoin="miter">
</g>
<g fill="none" color="black" stroke="black" stroke-width="1.00" stroke-linecap="butt" stroke-linejoin="miter">
</g>
<g fill="none" color="black" stroke="currentColor" stroke-width="1.00" stroke-linecap="butt" stroke-linejoin="miter">
	<path stroke='black'  d='M71.9,54.1 L71.9,662.4 L1013.6,662.4 L1013.6,54.1 L71.9,54.1 Z  '/></g>
<g fill="none" color="black" stroke="currentColor" stroke-width="1.00" stroke-linecap="butt" stroke-linejoin="miter">
</g>
</g>
</svg>

