<?xml version="1.0" encoding="utf-8"  standalone="no"?>
<svg 
 viewBox="0 0 450 300"
 xmlns="http://www.w3.org/2000/svg"
 xmlns:xlink="http://www.w3.org/1999/xlink"
>

<title>Gnuplot</title>
<desc>Produced by GNUPLOT 5.2 patchlevel 6 </desc>

<g id="gnuplot_canvas">

<rect x="0" y="0" width="450" height="300" fill="none"/>
<defs>

	<circle id='gpDot' r='0.5' stroke-width='0.5' stroke='currentColor'/>
	<path id='gpPt0' stroke-width='0.222' stroke='currentColor' d='M-1,0 h2 M0,-1 v2'/>
	<path id='gpPt1' stroke-width='0.222' stroke='currentColor' d='M-1,-1 L1,1 M1,-1 L-1,1'/>
	<path id='gpPt2' stroke-width='0.222' stroke='currentColor' d='M-1,0 L1,0 M0,-1 L0,1 M-1,-1 L1,1 M-1,1 L1,-1'/>
	<rect id='gpPt3' stroke-width='0.222' stroke='currentColor' x='-1' y='-1' width='2' height='2'/>
	<rect id='gpPt4' stroke-width='0.222' stroke='currentColor' fill='currentColor' x='-1' y='-1' width='2' height='2'/>
	<circle id='gpPt5' stroke-width='0.222' stroke='currentColor' cx='0' cy='0' r='1'/>
	<use xlink:href='#gpPt5' id='gpPt6' fill='currentColor' stroke='none'/>
	<path id='gpPt7' stroke-width='0.222' stroke='currentColor' d='M0,-1.33 L-1.33,0.67 L1.33,0.67 z'/>
	<use xlink:href='#gpPt7' id='gpPt8' fill='currentColor' stroke='none'/>
	<use xlink:href='#gpPt7' id='gpPt9' stroke='currentColor' transform='rotate(180)'/>
	<use xlink:href='#gpPt9' id='gpPt10' fill='currentColor' stroke='none'/>
	<use xlink:href='#gpPt3' id='gpPt11' stroke='currentColor' transform='rotate(45)'/>
	<use xlink:href='#gpPt11' id='gpPt12' fill='currentColor' stroke='none'/>
	<path id='gpPt13' stroke-width='0.222' stroke='currentColor' d='M0,1.330 L1.265,0.411 L0.782,-1.067 L-0.782,-1.076 L-1.265,0.411 z'/>
	<use xlink:href='#gpPt13' id='gpPt14' fill='currentColor' stroke='none'/>
	<filter id='textbox' filterUnits='objectBoundingBox' x='0' y='0' height='1' width='1'>
	  <feFlood flood-color='white' flood-opacity='1' result='bgnd'/>
	  <feComposite in='SourceGraphic' in2='bgnd' operator='atop'/>
	</filter>
	<filter id='greybox' filterUnits='objectBoundingBox' x='0' y='0' height='1' width='1'>
	  <feFlood flood-color='lightgrey' flood-opacity='1' result='grey'/>
	  <feComposite in='SourceGraphic' in2='grey' operator='atop'/>
	</filter>
</defs>
<g fill="none" color="white" stroke="currentColor" stroke-width="1.00" stroke-linecap="butt" stroke-linejoin="miter">
</g>
<g fill="none" color="black" stroke="currentColor" stroke-width="1.00" stroke-linecap="butt" stroke-linejoin="miter">
	<path stroke='black'  d='M80.2,242.4 L89.2,242.4  '/>	<g transform="translate(71.9,246.3)" stroke="none" fill="black" font-family="Helvetica" font-size="12.00"  text-anchor="end">
		<text><tspan font-family="Helvetica" > 0</tspan></text>
	</g>
</g>
<g fill="none" color="black" stroke="currentColor" stroke-width="1.00" stroke-linecap="butt" stroke-linejoin="miter">
	<path stroke='black'  d='M80.2,215.2 L89.2,215.2  '/>	<g transform="translate(71.9,219.1)" stroke="none" fill="black" font-family="Helvetica" font-size="12.00"  text-anchor="end">
		<text><tspan font-family="Helvetica" > 0.01</tspan></text>
	</g>
</g>
<g fill="none" color="black" stroke="currentColor" stroke-width="1.00" stroke-linecap="butt" stroke-linejoin="miter">
	<path stroke='black'  d='M80.2,188.1 L89.2,188.1  '/>	<g transform="translate(71.9,192.0)" stroke="none" fill="black" font-family="Helvetica" font-size="12.00"  text-anchor="end">
		<text><tspan font-family="Helvetica" > 0.02</tspan></text>
	</g>
</g>
<g fill="none" color="black" stroke="currentColor" stroke-width="1.00" stroke-linecap="butt" stroke-linejoin="miter">
	<path stroke='black'  d='M80.2,160.9 L89.2,160.9  '/>	<g transform="translate(71.9,164.8)" stroke="none" fill="black" font-family="Helvetica" font-size="12.00"  text-anchor="end">
		<text><tspan font-family="Helvetica" > 0.03</tspan></text>
	</g>
</g>
<g fill="none" color="black" stroke="currentColor" stroke-width="1.00" stroke-linecap="butt" stroke-linejoin="miter">
	<path stroke='black'  d='M80.2,133.8 L89.2,133.8  '/>	<g transform="translate(71.9,137.7)" stroke="none" fill="black" font-family="Helvetica" font-size="12.00"  text-anchor="end">
		<text><tspan font-family="Helvetica" > 0.04</tspan></text>
	</g>
</g>
<g fill="none" color="black" stroke="currentColor" stroke-width="1.00" stroke-linecap="butt" stroke-linejoin="miter">
	<path stroke='black'  d='M80.2,106.6 L89.2,106.6  '/>	<g transform="translate(71.9,110.5)" stroke="none" fill="black" font-family="Helvetica" font-size="12.00"  text-anchor="end">
		<text><tspan font-family="Helvetica" > 0.05</tspan></text>
	</g>
</g>
<g fill="none" color="black" stroke="currentColor" stroke-width="1.00" stroke-linecap="butt" stroke-linejoin="miter">
	<path stroke='black'  d='M80.2,79.5 L89.2,79.5  '/>	<g transform="translate(71.9,83.4)" stroke="none" fill="black" font-family="Helvetica" font-size="12.00"  text-anchor="end">
		<text><tspan font-family="Helvetica" > 0.06</tspan></text>
	</g>
</g>
<g fill="none" color="black" stroke="currentColor" stroke-width="1.00" stroke-linecap="butt" stroke-linejoin="miter">
	<path stroke='black'  d='M80.2,52.3 L89.2,52.3  '/>	<g transform="translate(71.9,56.2)" stroke="none" fill="black" font-family="Helvetica" font-size="12.00"  text-anchor="end">
		<text><tspan font-family="Helvetica" > 0.07</tspan></text>
	</g>
</g>
<g fill="none" color="black" stroke="currentColor" stroke-width="1.00" stroke-linecap="butt" stroke-linejoin="miter">
	<path stroke='black'  d='M80.2,25.1 L89.2,25.1  '/>	<g transform="translate(71.9,29.0)" stroke="none" fill="black" font-family="Helvetica" font-size="12.00"  text-anchor="end">
		<text><tspan font-family="Helvetica" > 0.08</tspan></text>
	</g>
</g>
<g fill="none" color="black" stroke="currentColor" stroke-width="1.00" stroke-linecap="butt" stroke-linejoin="miter">
	<path stroke='black'  d='M111.8,242.4 L111.8,233.4  '/>	<g transform="translate(111.8,264.3)" stroke="none" fill="black" font-family="Helvetica" font-size="12.00"  text-anchor="middle">
		<text><tspan font-family="Helvetica" > 400</tspan></text>
	</g>
</g>
<g fill="none" color="black" stroke="currentColor" stroke-width="1.00" stroke-linecap="butt" stroke-linejoin="miter">
	<path stroke='black'  d='M175.7,242.4 L175.7,233.4  '/>	<g transform="translate(175.7,264.3)" stroke="none" fill="black" font-family="Helvetica" font-size="12.00"  text-anchor="middle">
		<text><tspan font-family="Helvetica" > 420</tspan></text>
	</g>
</g>
<g fill="none" color="black" stroke="currentColor" stroke-width="1.00" stroke-linecap="butt" stroke-linejoin="miter">
	<path stroke='black'  d='M239.6,242.4 L239.6,233.4  '/>	<g transform="translate(239.6,264.3)" stroke="none" fill="black" font-family="Helvetica" font-size="12.00"  text-anchor="middle">
		<text><tspan font-family="Helvetica" > 440</tspan></text>
	</g>
</g>
<g fill="none" color="black" stroke="currentColor" stroke-width="1.00" stroke-linecap="butt" stroke-linejoin="miter">
	<path stroke='black'  d='M303.4,242.4 L303.4,233.4  '/>	<g transform="translate(303.4,264.3)" stroke="none" fill="black" font-family="Helvetica" font-size="12.00"  text-anchor="middle">
		<text><tspan font-family="Helvetica" > 460</tspan></text>
	</g>
</g>
<g fill="none" color="black" stroke="currentColor" stroke-width="1.00" stroke-linecap="butt" stroke-linejoin="miter">
	<path stroke='black'  d='M367.3,242.4 L367.3,233.4  '/>	<g transform="translate(367.3,264.3)" stroke="none" fill="black" font-family="Helvetica" font-size="12.00"  text-anchor="middle">
		<text><tspan font-family="Helvetica" > 480</tspan></text>
	</g>
</g>
<g fill="none" color="black" stroke="currentColor" stroke-width="1.00" stroke-linecap="butt" stroke-linejoin="miter">
</g>
<g fill="none" color="black" stroke="currentColor" stroke-width="1.00" stroke-linecap="butt" stroke-linejoin="miter">
	<path stroke='black'  d='M80.2,18.1 L80.2,242.4 L425.0,242.4 L425.0,18.1 L80.2,18.1 Z  '/></g>
<g fill="none" color="black" stroke="currentColor" stroke-width="1.00" stroke-linecap="butt" stroke-linejoin="miter">
	<g transform="translate(16.3,130.3) rotate(270)" stroke="none" fill="black" font-family="Helvetica" font-size="12.00"  text-anchor="middle">
		<text><tspan font-family="Helvetica" >Density (a.u.)</tspan></text>
	</g>
</g>
<g fill="none" color="black" stroke="currentColor" stroke-width="1.00" stroke-linecap="butt" stroke-linejoin="miter">
	<g transform="translate(252.6,291.3)" stroke="none" fill="black" font-family="Helvetica" font-size="12.00"  text-anchor="middle">
		<text><tspan font-family="Helvetica" >Average time (us)</tspan></text>
	</g>
</g>
<g fill="none" color="black" stroke="currentColor" stroke-width="1.00" stroke-linecap="butt" stroke-linejoin="miter">
</g>
	<g id="gnuplot_plot_1" ><title>PDF</title>
<g fill="none" color="black" stroke="currentColor" stroke-width="1.00" stroke-linecap="butt" stroke-linejoin="miter">
	<g stroke='none' shape-rendering='crispEdges'>
		<polygon fill = 'rgb( 31, 120, 180)' fill-opacity = '0.250000' points = '80.2,241.4 80.9,241.2 81.6,241.0 82.3,240.8 83.0,240.6 83.7,240.3 84.3,240.0 85.0,239.7 85.7,239.3 86.4,238.9 87.1,238.5 87.8,237.9 88.5,237.4 89.2,236.7 89.9,236.0 90.6,235.2
91.3,234.3 91.9,233.4 92.6,232.3 93.3,231.2 94.0,229.9 94.7,228.5 95.4,227.0 96.1,225.4 96.8,223.6 97.5,221.7 98.2,219.7 98.9,217.4 99.5,215.1 100.2,212.5 100.9,209.8 101.6,206.9
102.3,203.8 103.0,200.5 103.7,197.1 104.4,193.4 105.1,189.6 105.8,185.5 106.5,181.3 107.1,176.9 107.8,172.3 108.5,167.5 109.2,162.5 109.9,157.4 110.6,152.1 111.3,146.7 112.0,141.2 112.7,135.5
113.4,129.8 114.1,124.0 114.7,118.1 115.4,112.1 116.1,106.2 116.8,100.2 117.5,94.3 118.2,88.4 118.9,82.6 119.6,76.9 120.3,71.4 121.0,65.9 121.7,60.7 122.3,55.6 123.0,50.8 123.7,46.2
124.4,41.9 125.1,37.9 125.8,34.3 126.5,30.9 127.2,27.9 127.9,25.3 128.6,23.1 129.3,21.3 130.0,19.9 130.6,18.8 131.3,18.3 132.0,18.1 132.7,18.4 133.4,19.0 134.1,20.2 134.8,21.7
135.5,23.6 136.2,25.9 136.9,28.6 137.6,31.6 138.2,35.0 138.9,38.7 139.6,42.7 140.3,47.0 141.0,51.6 141.7,56.4 142.4,61.4 143.1,66.6 143.8,72.0 144.5,77.5 145.2,83.1 145.8,88.8
146.5,94.6 147.2,100.4 147.9,106.2 148.6,112.0 149.3,117.8 150.0,123.5 150.7,129.2 151.4,134.8 152.1,140.3 152.8,145.7 153.4,150.9 154.1,156.0 154.8,161.0 155.5,165.8 156.2,170.4 156.9,174.9
157.6,179.1 158.3,183.3 159.0,187.2 159.7,190.9 160.4,194.4 161.0,197.8 161.7,201.0 162.4,204.0 163.1,206.8 163.8,209.5 164.5,212.0 165.2,214.3 165.9,216.5 166.6,218.5 167.3,220.4 168.0,222.1
168.6,223.7 169.3,225.2 170.0,226.6 170.7,227.8 171.4,229.0 172.1,230.0 172.8,231.0 173.5,231.9 174.2,232.7 174.9,233.4 175.6,234.0 176.2,234.6 176.9,235.2 177.6,235.7 178.3,236.1 179.0,236.5
179.7,236.8 180.4,237.2 181.1,237.4 181.8,237.7 182.5,237.9 183.2,238.2 183.8,238.3 184.5,238.5 185.2,238.7 185.9,238.8 186.6,238.9 187.3,239.1 188.0,239.2 188.7,239.3 189.4,239.4 190.1,239.5
190.8,239.6 191.4,239.7 192.1,239.7 192.8,239.8 193.5,239.9 194.2,240.0 194.9,240.0 195.6,240.1 196.3,240.2 197.0,240.2 197.7,240.3 198.4,240.3 199.0,240.4 199.7,240.4 200.4,240.5 201.1,240.5
201.8,240.6 202.5,240.6 203.2,240.7 203.9,240.7 204.6,240.7 205.3,240.7 206.0,240.8 206.6,240.8 207.3,240.8 208.0,240.8 208.7,240.8 209.4,240.8 210.1,240.8 210.8,240.8 211.5,240.8 212.2,240.8
212.9,240.8 213.6,240.7 214.3,240.7 214.9,240.7 215.6,240.6 216.3,240.6 217.0,240.6 217.7,240.5 218.4,240.5 219.1,240.4 219.8,240.4 220.5,240.3 221.2,240.3 221.9,240.2 222.5,240.2 223.2,240.1
223.9,240.1 224.6,240.0 225.3,240.0 226.0,239.9 226.7,239.9 227.4,239.8 228.1,239.8 228.8,239.7 229.5,239.7 230.1,239.7 230.8,239.6 231.5,239.6 232.2,239.5 232.9,239.5 233.6,239.5 234.3,239.5
235.0,239.4 235.7,239.4 236.4,239.4 237.1,239.4 237.7,239.4 238.4,239.3 239.1,239.3 239.8,239.3 240.5,239.3 241.2,239.3 241.9,239.3 242.6,239.2 243.3,239.2 244.0,239.2 244.7,239.2 245.3,239.2
246.0,239.1 246.7,239.1 247.4,239.1 248.1,239.1 248.8,239.0 249.5,239.0 250.2,239.0 250.9,238.9 251.6,238.9 252.3,238.9 252.9,238.8 253.6,238.8 254.3,238.7 255.0,238.7 255.7,238.6 256.4,238.6
257.1,238.5 257.8,238.5 258.5,238.4 259.2,238.4 259.9,238.3 260.5,238.2 261.2,238.2 261.9,238.1 262.6,238.1 263.3,238.0 264.0,237.9 264.7,237.9 265.4,237.8 266.1,237.8 266.8,237.7 267.5,237.7
268.1,237.6 268.8,237.5 269.5,237.5 270.2,237.4 270.9,237.4 271.6,237.3 272.3,237.3 273.0,237.3 273.7,237.2 274.4,237.2 275.1,237.2 275.7,237.1 276.4,237.1 277.1,237.1 277.8,237.1 278.5,237.1
279.2,237.0 279.9,237.0 280.6,237.0 281.3,237.0 282.0,237.0 282.7,237.1 283.3,237.1 284.0,237.1 284.7,237.1 285.4,237.1 286.1,237.2 286.8,237.2 287.5,237.3 288.2,237.3 288.9,237.4 289.6,237.4
290.3,237.5 290.9,237.6 291.6,237.6 292.3,237.7 293.0,237.8 293.7,237.9 294.4,238.0 295.1,238.1 295.8,238.1 296.5,238.2 297.2,238.4 297.9,238.5 298.6,238.6 299.2,238.7 299.9,238.8 300.6,238.9
301.3,239.0 302.0,239.1 302.7,239.2 303.4,239.4 304.1,239.5 304.8,239.6 305.5,239.7 306.2,239.8 306.8,239.9 307.5,240.1 308.2,240.2 308.9,240.3 309.6,240.4 310.3,240.5 311.0,240.6 311.7,240.7
312.4,240.8 313.1,240.9 313.8,241.0 314.4,241.1 315.1,241.1 315.8,241.2 316.5,241.3 317.2,241.4 317.9,241.5 318.6,241.5 319.3,241.6 320.0,241.6 320.7,241.7 321.4,241.8 322.0,241.8 322.7,241.9
323.4,241.9 324.1,241.9 324.8,242.0 325.5,242.0 326.2,242.0 326.9,242.1 327.6,242.1 328.3,242.1 329.0,242.2 329.6,242.2 330.3,242.2 331.0,242.2 331.7,242.2 332.4,242.2 333.1,242.2 333.8,242.3
334.5,242.3 335.2,242.3 335.9,242.3 336.6,242.3 337.2,242.3 337.9,242.3 338.6,242.3 339.3,242.3 340.0,242.3 340.7,242.2 341.4,242.2 342.1,242.2 342.8,242.2 343.5,242.2 344.2,242.2 344.8,242.2
345.5,242.1 346.2,242.1 346.9,242.1 347.6,242.1 348.3,242.0 349.0,242.0 349.7,242.0 350.4,241.9 351.1,241.9 351.8,241.8 352.4,241.8 353.1,241.8 353.8,241.7 354.5,241.7 355.2,241.6 355.9,241.6
356.6,241.5 357.3,241.4 358.0,241.4 358.7,241.3 359.4,241.3 360.0,241.2 360.7,241.1 361.4,241.1 362.1,241.0 362.8,240.9 363.5,240.9 364.2,240.8 364.9,240.7 365.6,240.7 366.3,240.6 367.0,240.5
367.6,240.5 368.3,240.4 369.0,240.4 369.7,240.3 370.4,240.3 371.1,240.2 371.8,240.2 372.5,240.1 373.2,240.1 373.9,240.1 374.6,240.0 375.2,240.0 375.9,240.0 376.6,240.0 377.3,240.0 378.0,239.9
378.7,239.9 379.4,239.9 380.1,240.0 380.8,240.0 381.5,240.0 382.2,240.0 382.9,240.0 383.5,240.1 384.2,240.1 384.9,240.1 385.6,240.2 386.3,240.2 387.0,240.3 387.7,240.3 388.4,240.4 389.1,240.5
389.8,240.5 390.5,240.6 391.1,240.6 391.8,240.7 392.5,240.8 393.2,240.8 393.9,240.9 394.6,241.0 395.3,241.0 396.0,241.1 396.7,241.2 397.4,241.2 398.1,241.3 398.7,241.4 399.4,241.4 400.1,241.5
400.8,241.5 401.5,241.6 402.2,241.6 402.9,241.7 403.6,241.7 404.3,241.8 405.0,241.8 405.7,241.9 406.3,241.9 407.0,241.9 407.7,242.0 408.4,242.0 409.1,242.0 409.8,242.1 410.5,242.1 411.2,242.1
411.9,242.2 412.6,242.2 413.3,242.2 413.9,242.2 414.6,242.2 415.3,242.3 416.0,242.3 416.7,242.3 417.4,242.3 418.1,242.3 418.8,242.3 419.5,242.3 420.2,242.3 420.9,242.3 421.5,242.3 422.2,242.4
422.9,242.4 423.6,242.4 424.3,242.4 425.0,242.4 425.0,242.4 424.3,242.4 423.6,242.4 422.9,242.4 422.2,242.4 421.5,242.4 420.9,242.4 420.2,242.4 419.5,242.4 418.8,242.4 418.1,242.4 417.4,242.4
416.7,242.4 416.0,242.4 415.3,242.4 414.6,242.4 413.9,242.4 413.3,242.4 412.6,242.4 411.9,242.4 411.2,242.4 410.5,242.4 409.8,242.4 409.1,242.4 408.4,242.4 407.7,242.4 407.0,242.4 406.3,242.4
405.7,242.4 405.0,242.4 404.3,242.4 403.6,242.4 402.9,242.4 402.2,242.4 401.5,242.4 400.8,242.4 400.1,242.4 399.4,242.4 398.7,242.4 398.1,242.4 397.4,242.4 396.7,242.4 396.0,242.4 395.3,242.4
394.6,242.4 393.9,242.4 393.2,242.4 392.5,242.4 391.8,242.4 391.1,242.4 390.5,242.4 389.8,242.4 389.1,242.4 388.4,242.4 387.7,242.4 387.0,242.4 386.3,242.4 385.6,242.4 384.9,242.4 384.2,242.4
383.5,242.4 382.9,242.4 382.2,242.4 381.5,242.4 380.8,242.4 380.1,242.4 379.4,242.4 378.7,242.4 378.0,242.4 377.3,242.4 376.6,242.4 375.9,242.4 375.2,242.4 374.6,242.4 373.9,242.4 373.2,242.4
372.5,242.4 371.8,242.4 371.1,242.4 370.4,242.4 369.7,242.4 369.0,242.4 368.3,242.4 367.6,242.4 367.0,242.4 366.3,242.4 365.6,242.4 364.9,242.4 364.2,242.4 363.5,242.4 362.8,242.4 362.1,242.4
361.4,242.4 360.7,242.4 360.0,242.4 359.4,242.4 358.7,242.4 358.0,242.4 357.3,242.4 356.6,242.4 355.9,242.4 355.2,242.4 354.5,242.4 353.8,242.4 353.1,242.4 352.4,242.4 351.8,242.4 351.1,242.4
350.4,242.4 349.7,242.4 349.0,242.4 348.3,242.4 347.6,242.4 346.9,242.4 346.2,242.4 345.5,242.4 344.8,242.4 344.2,242.4 343.5,242.4 342.8,242.4 342.1,242.4 341.4,242.4 340.7,242.4 340.0,242.4
339.3,242.4 338.6,242.4 337.9,242.4 337.2,242.4 336.6,242.4 335.9,242.4 335.2,242.4 334.5,242.4 333.8,242.4 333.1,242.4 332.4,242.4 331.7,242.4 331.0,242.4 330.3,242.4 329.6,242.4 329.0,242.4
328.3,242.4 327.6,242.4 326.9,242.4 326.2,242.4 325.5,242.4 324.8,242.4 324.1,242.4 323.4,242.4 322.7,242.4 322.0,242.4 321.4,242.4 320.7,242.4 320.0,242.4 319.3,242.4 318.6,242.4 317.9,242.4
317.2,242.4 316.5,242.4 315.8,242.4 315.1,242.4 314.4,242.4 313.8,242.4 313.1,242.4 312.4,242.4 311.7,242.4 311.0,242.4 310.3,242.4 309.6,242.4 308.9,242.4 308.2,242.4 307.5,242.4 306.8,242.4
306.2,242.4 305.5,242.4 304.8,242.4 304.1,242.4 303.4,242.4 302.7,242.4 302.0,242.4 301.3,242.4 300.6,242.4 299.9,242.4 299.2,242.4 298.6,242.4 297.9,242.4 297.2,242.4 296.5,242.4 295.8,242.4
295.1,242.4 294.4,242.4 293.7,242.4 293.0,242.4 292.3,242.4 291.6,242.4 290.9,242.4 290.3,242.4 289.6,242.4 288.9,242.4 288.2,242.4 287.5,242.4 286.8,242.4 286.1,242.4 285.4,242.4 284.7,242.4
284.0,242.4 283.3,242.4 282.7,242.4 282.0,242.4 281.3,242.4 280.6,242.4 279.9,242.4 279.2,242.4 278.5,242.4 277.8,242.4 277.1,242.4 276.4,242.4 275.7,242.4 275.1,242.4 274.4,242.4 273.7,242.4
273.0,242.4 272.3,242.4 271.6,242.4 270.9,242.4 270.2,242.4 269.5,242.4 268.8,242.4 268.1,242.4 267.5,242.4 266.8,242.4 266.1,242.4 265.4,242.4 264.7,242.4 264.0,242.4 263.3,242.4 262.6,242.4
261.9,242.4 261.2,242.4 260.5,242.4 259.9,242.4 259.2,242.4 258.5,242.4 257.8,242.4 257.1,242.4 256.4,242.4 255.7,242.4 255.0,242.4 254.3,242.4 253.6,242.4 252.9,242.4 252.3,242.4 251.6,242.4
250.9,242.4 250.2,242.4 249.5,242.4 248.8,242.4 248.1,242.4 247.4,242.4 246.7,242.4 246.0,242.4 245.3,242.4 244.7,242.4 244.0,242.4 243.3,242.4 242.6,242.4 241.9,242.4 241.2,242.4 240.5,242.4
239.8,242.4 239.1,242.4 238.4,242.4 237.7,242.4 237.1,242.4 236.4,242.4 235.7,242.4 235.0,242.4 234.3,242.4 233.6,242.4 232.9,242.4 232.2,242.4 231.5,242.4 230.8,242.4 230.1,242.4 229.5,242.4
228.8,242.4 228.1,242.4 227.4,242.4 226.7,242.4 226.0,242.4 225.3,242.4 224.6,242.4 223.9,242.4 223.2,242.4 222.5,242.4 221.9,242.4 221.2,242.4 220.5,242.4 219.8,242.4 219.1,242.4 218.4,242.4
217.7,242.4 217.0,242.4 216.3,242.4 215.6,242.4 214.9,242.4 214.3,242.4 213.6,242.4 212.9,242.4 212.2,242.4 211.5,242.4 210.8,242.4 210.1,242.4 209.4,242.4 208.7,242.4 208.0,242.4 207.3,242.4
206.6,242.4 206.0,242.4 205.3,242.4 204.6,242.4 203.9,242.4 203.2,242.4 202.5,242.4 201.8,242.4 201.1,242.4 200.4,242.4 199.7,242.4 199.0,242.4 198.4,242.4 197.7,242.4 197.0,242.4 196.3,242.4
195.6,242.4 194.9,242.4 194.2,242.4 193.5,242.4 192.8,242.4 192.1,242.4 191.4,242.4 190.8,242.4 190.1,242.4 189.4,242.4 188.7,242.4 188.0,242.4 187.3,242.4 186.6,242.4 185.9,242.4 185.2,242.4
184.5,242.4 183.8,242.4 183.2,242.4 182.5,242.4 181.8,242.4 181.1,242.4 180.4,242.4 179.7,242.4 179.0,242.4 178.3,242.4 177.6,242.4 176.9,242.4 176.2,242.4 175.6,242.4 174.9,242.4 174.2,242.4
173.5,242.4 172.8,242.4 172.1,242.4 171.4,242.4 170.7,242.4 170.0,242.4 169.3,242.4 168.6,242.4 168.0,242.4 167.3,242.4 166.6,242.4 165.9,242.4 165.2,242.4 164.5,242.4 163.8,242.4 163.1,242.4
162.4,242.4 161.7,242.4 161.0,242.4 160.4,242.4 159.7,242.4 159.0,242.4 158.3,242.4 157.6,242.4 156.9,242.4 156.2,242.4 155.5,242.4 154.8,242.4 154.1,242.4 153.4,242.4 152.8,242.4 152.1,242.4
151.4,242.4 150.7,242.4 150.0,242.4 149.3,242.4 148.6,242.4 147.9,242.4 147.2,242.4 146.5,242.4 145.8,242.4 145.2,242.4 144.5,242.4 143.8,242.4 143.1,242.4 142.4,242.4 141.7,242.4 141.0,242.4
140.3,242.4 139.6,242.4 138.9,242.4 138.2,242.4 137.6,242.4 136.9,242.4 136.2,242.4 135.5,242.4 134.8,242.4 134.1,242.4 133.4,242.4 132.7,242.4 132.0,242.4 131.3,242.4 130.6,242.4 130.0,242.4
129.3,242.4 128.6,242.4 127.9,242.4 127.2,242.4 126.5,242.4 125.8,242.4 125.1,242.4 124.4,242.4 123.7,242.4 123.0,242.4 122.3,242.4 121.7,242.4 121.0,242.4 120.3,242.4 119.6,242.4 118.9,242.4
118.2,242.4 117.5,242.4 116.8,242.4 116.1,242.4 115.4,242.4 114.7,242.4 114.1,242.4 113.4,242.4 112.7,242.4 112.0,242.4 111.3,242.4 110.6,242.4 109.9,242.4 109.2,242.4 108.5,242.4 107.8,242.4
107.1,242.4 106.5,242.4 105.8,242.4 105.1,242.4 104.4,242.4 103.7,242.4 103.0,242.4 102.3,242.4 101.6,242.4 100.9,242.4 100.2,242.4 99.5,242.4 98.9,242.4 98.2,242.4 97.5,242.4 96.8,242.4
96.1,242.4 95.4,242.4 94.7,242.4 94.0,242.4 93.3,242.4 92.6,242.4 91.9,242.4 91.3,242.4 90.6,242.4 89.9,242.4 89.2,242.4 88.5,242.4 87.8,242.4 87.1,242.4 86.4,242.4 85.7,242.4
85.0,242.4 84.3,242.4 83.7,242.4 83.0,242.4 82.3,242.4 81.6,242.4 80.9,242.4 80.2,242.4 '/>
	</g>
</g>
	</g>
	<g id="gnuplot_plot_2" ><title>Mean</title>
<g fill="none" color="white" stroke="rgb( 31, 120, 180)" stroke-width="2.00" stroke-linecap="butt" stroke-linejoin="miter">
</g>
<g fill="none" color="black" stroke="currentColor" stroke-width="2.00" stroke-linecap="butt" stroke-linejoin="miter">
	<path stroke='rgb( 31, 120, 180)'  d='M140.6,242.4 L140.6,66.7  '/></g>
	</g>
<g fill="none" color="black" stroke="currentColor" stroke-width="2.00" stroke-linecap="butt" stroke-linejoin="miter">
</g>
<g fill="none" color="black" stroke="black" stroke-width="1.00" stroke-linecap="butt" stroke-linejoin="miter">
</g>
<g fill="none" color="black" stroke="currentColor" stroke-width="1.00" stroke-linecap="butt" stroke-linejoin="miter">
	<path stroke='black'  d='M80.2,18.1 L80.2,242.4 L425.0,242.4 L425.0,18.1 L80.2,18.1 Z  '/></g>
<g fill="none" color="black" stroke="currentColor" stroke-width="1.00" stroke-linecap="butt" stroke-linejoin="miter">
</g>
</g>
</svg>

