<?xml version="1.0" encoding="utf-8"  standalone="no"?>
<svg 
 viewBox="0 0 1280 720"
 xmlns="http://www.w3.org/2000/svg"
 xmlns:xlink="http://www.w3.org/1999/xlink"
>

<title>Gnuplot</title>
<desc>Produced by GNUPLOT 5.2 patchlevel 6 </desc>

<g id="gnuplot_canvas">

<rect x="0" y="0" width="1280" height="720" fill="none"/>
<defs>

	<circle id='gpDot' r='0.5' stroke-width='0.5' stroke='currentColor'/>
	<path id='gpPt0' stroke-width='0.222' stroke='currentColor' d='M-1,0 h2 M0,-1 v2'/>
	<path id='gpPt1' stroke-width='0.222' stroke='currentColor' d='M-1,-1 L1,1 M1,-1 L-1,1'/>
	<path id='gpPt2' stroke-width='0.222' stroke='currentColor' d='M-1,0 L1,0 M0,-1 L0,1 M-1,-1 L1,1 M-1,1 L1,-1'/>
	<rect id='gpPt3' stroke-width='0.222' stroke='currentColor' x='-1' y='-1' width='2' height='2'/>
	<rect id='gpPt4' stroke-width='0.222' stroke='currentColor' fill='currentColor' x='-1' y='-1' width='2' height='2'/>
	<circle id='gpPt5' stroke-width='0.222' stroke='currentColor' cx='0' cy='0' r='1'/>
	<use xlink:href='#gpPt5' id='gpPt6' fill='currentColor' stroke='none'/>
	<path id='gpPt7' stroke-width='0.222' stroke='currentColor' d='M0,-1.33 L-1.33,0.67 L1.33,0.67 z'/>
	<use xlink:href='#gpPt7' id='gpPt8' fill='currentColor' stroke='none'/>
	<use xlink:href='#gpPt7' id='gpPt9' stroke='currentColor' transform='rotate(180)'/>
	<use xlink:href='#gpPt9' id='gpPt10' fill='currentColor' stroke='none'/>
	<use xlink:href='#gpPt3' id='gpPt11' stroke='currentColor' transform='rotate(45)'/>
	<use xlink:href='#gpPt11' id='gpPt12' fill='currentColor' stroke='none'/>
	<path id='gpPt13' stroke-width='0.222' stroke='currentColor' d='M0,1.330 L1.265,0.411 L0.782,-1.067 L-0.782,-1.076 L-1.265,0.411 z'/>
	<use xlink:href='#gpPt13' id='gpPt14' fill='currentColor' stroke='none'/>
	<filter id='textbox' filterUnits='objectBoundingBox' x='0' y='0' height='1' width='1'>
	  <feFlood flood-color='white' flood-opacity='1' result='bgnd'/>
	  <feComposite in='SourceGraphic' in2='bgnd' operator='atop'/>
	</filter>
	<filter id='greybox' filterUnits='objectBoundingBox' x='0' y='0' height='1' width='1'>
	  <feFlood flood-color='lightgrey' flood-opacity='1' result='grey'/>
	  <feComposite in='SourceGraphic' in2='grey' operator='atop'/>
	</filter>
</defs>
<g fill="none" color="white" stroke="currentColor" stroke-width="1.00" stroke-linecap="butt" stroke-linejoin="miter">
</g>
<g fill="none" color="black" stroke="currentColor" stroke-width="1.00" stroke-linecap="butt" stroke-linejoin="miter">
	<path stroke='black'  d='M80.2,662.4 L89.2,662.4  '/>	<g transform="translate(71.9,666.3)" stroke="none" fill="black" font-family="Helvetica" font-size="12.00"  text-anchor="end">
		<text><tspan font-family="Helvetica" > 0</tspan></text>
	</g>
</g>
<g fill="none" color="black" stroke="currentColor" stroke-width="1.00" stroke-linecap="butt" stroke-linejoin="miter">
	<path stroke='black'  d='M80.2,594.8 L89.2,594.8  '/>	<g transform="translate(71.9,598.7)" stroke="none" fill="black" font-family="Helvetica" font-size="12.00"  text-anchor="end">
		<text><tspan font-family="Helvetica" > 0.05</tspan></text>
	</g>
</g>
<g fill="none" color="black" stroke="currentColor" stroke-width="1.00" stroke-linecap="butt" stroke-linejoin="miter">
	<path stroke='black'  d='M80.2,527.2 L89.2,527.2  '/>	<g transform="translate(71.9,531.1)" stroke="none" fill="black" font-family="Helvetica" font-size="12.00"  text-anchor="end">
		<text><tspan font-family="Helvetica" > 0.1</tspan></text>
	</g>
</g>
<g fill="none" color="black" stroke="currentColor" stroke-width="1.00" stroke-linecap="butt" stroke-linejoin="miter">
	<path stroke='black'  d='M80.2,459.6 L89.2,459.6  '/>	<g transform="translate(71.9,463.5)" stroke="none" fill="black" font-family="Helvetica" font-size="12.00"  text-anchor="end">
		<text><tspan font-family="Helvetica" > 0.15</tspan></text>
	</g>
</g>
<g fill="none" color="black" stroke="currentColor" stroke-width="1.00" stroke-linecap="butt" stroke-linejoin="miter">
	<path stroke='black'  d='M80.2,392.0 L89.2,392.0  '/>	<g transform="translate(71.9,395.9)" stroke="none" fill="black" font-family="Helvetica" font-size="12.00"  text-anchor="end">
		<text><tspan font-family="Helvetica" > 0.2</tspan></text>
	</g>
</g>
<g fill="none" color="black" stroke="currentColor" stroke-width="1.00" stroke-linecap="butt" stroke-linejoin="miter">
	<path stroke='black'  d='M80.2,324.5 L89.2,324.5  '/>	<g transform="translate(71.9,328.4)" stroke="none" fill="black" font-family="Helvetica" font-size="12.00"  text-anchor="end">
		<text><tspan font-family="Helvetica" > 0.25</tspan></text>
	</g>
</g>
<g fill="none" color="black" stroke="currentColor" stroke-width="1.00" stroke-linecap="butt" stroke-linejoin="miter">
	<path stroke='black'  d='M80.2,256.9 L89.2,256.9  '/>	<g transform="translate(71.9,260.8)" stroke="none" fill="black" font-family="Helvetica" font-size="12.00"  text-anchor="end">
		<text><tspan font-family="Helvetica" > 0.3</tspan></text>
	</g>
</g>
<g fill="none" color="black" stroke="currentColor" stroke-width="1.00" stroke-linecap="butt" stroke-linejoin="miter">
	<path stroke='black'  d='M80.2,189.3 L89.2,189.3  '/>	<g transform="translate(71.9,193.2)" stroke="none" fill="black" font-family="Helvetica" font-size="12.00"  text-anchor="end">
		<text><tspan font-family="Helvetica" > 0.35</tspan></text>
	</g>
</g>
<g fill="none" color="black" stroke="currentColor" stroke-width="1.00" stroke-linecap="butt" stroke-linejoin="miter">
	<path stroke='black'  d='M80.2,121.7 L89.2,121.7  '/>	<g transform="translate(71.9,125.6)" stroke="none" fill="black" font-family="Helvetica" font-size="12.00"  text-anchor="end">
		<text><tspan font-family="Helvetica" > 0.4</tspan></text>
	</g>
</g>
<g fill="none" color="black" stroke="currentColor" stroke-width="1.00" stroke-linecap="butt" stroke-linejoin="miter">
	<path stroke='black'  d='M80.2,54.1 L89.2,54.1  '/>	<g transform="translate(71.9,58.0)" stroke="none" fill="black" font-family="Helvetica" font-size="12.00"  text-anchor="end">
		<text><tspan font-family="Helvetica" > 0.45</tspan></text>
	</g>
</g>
<g fill="none" color="black" stroke="currentColor" stroke-width="1.00" stroke-linecap="butt" stroke-linejoin="miter">
	<path stroke='black'  d='M80.2,662.4 L80.2,653.4  '/>	<g transform="translate(80.2,684.3)" stroke="none" fill="black" font-family="Helvetica" font-size="12.00"  text-anchor="middle">
		<text><tspan font-family="Helvetica" > 25</tspan></text>
	</g>
</g>
<g fill="none" color="black" stroke="currentColor" stroke-width="1.00" stroke-linecap="butt" stroke-linejoin="miter">
	<path stroke='black'  d='M229.0,662.4 L229.0,653.4  '/>	<g transform="translate(229.0,684.3)" stroke="none" fill="black" font-family="Helvetica" font-size="12.00"  text-anchor="middle">
		<text><tspan font-family="Helvetica" > 30</tspan></text>
	</g>
</g>
<g fill="none" color="black" stroke="currentColor" stroke-width="1.00" stroke-linecap="butt" stroke-linejoin="miter">
	<path stroke='black'  d='M377.7,662.4 L377.7,653.4  '/>	<g transform="translate(377.7,684.3)" stroke="none" fill="black" font-family="Helvetica" font-size="12.00"  text-anchor="middle">
		<text><tspan font-family="Helvetica" > 35</tspan></text>
	</g>
</g>
<g fill="none" color="black" stroke="currentColor" stroke-width="1.00" stroke-linecap="butt" stroke-linejoin="miter">
	<path stroke='black'  d='M526.5,662.4 L526.5,653.4  '/>	<g transform="translate(526.5,684.3)" stroke="none" fill="black" font-family="Helvetica" font-size="12.00"  text-anchor="middle">
		<text><tspan font-family="Helvetica" > 40</tspan></text>
	</g>
</g>
<g fill="none" color="black" stroke="currentColor" stroke-width="1.00" stroke-linecap="butt" stroke-linejoin="miter">
	<path stroke='black'  d='M675.2,662.4 L675.2,653.4  '/>	<g transform="translate(675.2,684.3)" stroke="none" fill="black" font-family="Helvetica" font-size="12.00"  text-anchor="middle">
		<text><tspan font-family="Helvetica" > 45</tspan></text>
	</g>
</g>
<g fill="none" color="black" stroke="currentColor" stroke-width="1.00" stroke-linecap="butt" stroke-linejoin="miter">
	<path stroke='black'  d='M824.0,662.4 L824.0,653.4  '/>	<g transform="translate(824.0,684.3)" stroke="none" fill="black" font-family="Helvetica" font-size="12.00"  text-anchor="middle">
		<text><tspan font-family="Helvetica" > 50</tspan></text>
	</g>
</g>
<g fill="none" color="black" stroke="currentColor" stroke-width="1.00" stroke-linecap="butt" stroke-linejoin="miter">
	<path stroke='black'  d='M972.7,662.4 L972.7,653.4  '/>	<g transform="translate(972.7,684.3)" stroke="none" fill="black" font-family="Helvetica" font-size="12.00"  text-anchor="middle">
		<text><tspan font-family="Helvetica" > 55</tspan></text>
	</g>
</g>
<g fill="none" color="black" stroke="currentColor" stroke-width="1.00" stroke-linecap="butt" stroke-linejoin="miter">
	<path stroke='black'  d='M1121.5,662.4 L1121.5,653.4  '/>	<g transform="translate(1121.5,684.3)" stroke="none" fill="black" font-family="Helvetica" font-size="12.00"  text-anchor="middle">
		<text><tspan font-family="Helvetica" > 60</tspan></text>
	</g>
</g>
<g fill="none" color="black" stroke="currentColor" stroke-width="1.00" stroke-linecap="butt" stroke-linejoin="miter">
</g>
<g fill="none" color="black" stroke="currentColor" stroke-width="1.00" stroke-linecap="butt" stroke-linejoin="miter">
	<path stroke='black'  d='M80.2,54.1 L80.2,662.4 L1121.5,662.4 L1121.5,54.1 L80.2,54.1 Z  '/></g>
<g fill="none" color="black" stroke="currentColor" stroke-width="1.00" stroke-linecap="butt" stroke-linejoin="miter">
	<g transform="translate(16.3,358.3) rotate(270)" stroke="none" fill="black" font-family="Helvetica" font-size="12.00"  text-anchor="middle">
		<text><tspan font-family="Helvetica" >Density (a.u.)</tspan></text>
	</g>
</g>
<g fill="none" color="black" stroke="currentColor" stroke-width="1.00" stroke-linecap="butt" stroke-linejoin="miter">
	<g transform="translate(600.8,711.3)" stroke="none" fill="black" font-family="Helvetica" font-size="12.00"  text-anchor="middle">
		<text><tspan font-family="Helvetica" >Average time (us)</tspan></text>
	</g>
</g>
<g fill="none" color="black" stroke="currentColor" stroke-width="1.00" stroke-linecap="butt" stroke-linejoin="miter">
	<g transform="translate(600.8,31.0)" stroke="none" fill="black" font-family="Helvetica" font-size="12.00"  text-anchor="middle">
		<text><tspan font-family="Helvetica" >snapshot_restore_with_dense/Dense: Entire region + process_vm_writev w/ page size/2</tspan></text>
	</g>
</g>
	<g id="gnuplot_plot_1" ><title>Base PDF</title>
<g fill="none" color="black" stroke="currentColor" stroke-width="1.00" stroke-linecap="butt" stroke-linejoin="miter">
	<g transform="translate(1196.9,67.0)" stroke="none" fill="black" font-family="Helvetica" font-size="12.00"  text-anchor="start">
		<text><tspan font-family="Helvetica" >Base PDF</tspan></text>
	</g>
</g>
<g fill="none" color="black" stroke="currentColor" stroke-width="1.00" stroke-linecap="butt" stroke-linejoin="miter">
	<g stroke='none' shape-rendering='crispEdges'>
		<polygon fill = 'rgb(227,  26,  28)' fill-opacity = '0.500000' points = '1146.4,67.6 1188.6,67.6 1188.6,58.6 1146.4,58.6 '/>
		<polygon fill = 'rgb(227,  26,  28)' fill-opacity = '0.500000' points = '162.9,659.6 164.6,659.2 166.3,658.8 168.0,658.2 169.7,657.7 171.4,657.0 173.1,656.3 174.8,655.5 176.5,654.6 178.2,653.6 179.9,652.4 181.6,651.2 183.3,649.8 185.0,648.3 186.7,646.7 188.4,644.8
190.1,642.8 191.8,640.7 193.5,638.3 195.2,635.7 196.9,632.9 198.6,629.9 200.3,626.6 202.0,623.1 203.7,619.3 205.4,615.3 207.1,611.0 208.8,606.3 210.5,601.4 212.2,596.2 213.9,590.7 215.6,584.9
217.3,578.7 219.0,572.3 220.7,565.5 222.4,558.5 224.1,551.1 225.8,543.5 227.5,535.6 229.2,527.4 230.9,518.9 232.6,510.2 234.3,501.4 236.0,492.3 237.7,483.0 239.3,473.6 241.0,464.1 242.7,454.6
244.4,445.0 246.1,435.3 247.8,425.7 249.5,416.2 251.2,406.7 252.9,397.5 254.6,388.3 256.3,379.5 258.0,370.8 259.7,362.5 261.4,354.6 263.1,347.0 264.8,339.8 266.5,333.1 268.2,326.9 269.9,321.2
271.6,316.0 273.3,311.4 275.0,307.4 276.7,304.1 278.4,301.3 280.1,299.2 281.8,297.8 283.5,297.0 285.2,296.9 286.9,297.4 288.6,298.6 290.3,300.4 292.0,302.8 293.7,305.9 295.4,309.6 297.1,313.8
298.8,318.5 300.5,323.8 302.2,329.6 303.9,335.8 305.6,342.5 307.3,349.5 309.0,356.8 310.7,364.5 312.4,372.5 314.1,380.6 315.8,389.0 317.5,397.5 319.2,406.1 320.9,414.9 322.6,423.6 324.3,432.4
326.0,441.1 327.7,449.8 329.4,458.4 331.1,466.9 332.8,475.3 334.5,483.5 336.2,491.5 337.9,499.4 339.6,507.0 341.3,514.4 343.0,521.5 344.7,528.4 346.4,535.0 348.1,541.4 349.8,547.5 351.5,553.3
353.2,558.9 354.9,564.1 356.6,569.1 358.3,573.9 360.0,578.4 361.6,582.6 363.3,586.6 365.0,590.3 366.7,593.9 368.4,597.2 370.1,600.3 371.8,603.1 373.5,605.8 375.2,608.4 376.9,610.7 378.6,612.9
380.3,615.0 382.0,616.9 383.7,618.7 385.4,620.3 387.1,621.9 388.8,623.4 390.5,624.7 392.2,626.0 393.9,627.3 395.6,628.4 397.3,629.6 399.0,630.6 400.7,631.6 402.4,632.6 404.1,633.5 405.8,634.5
407.5,635.3 409.2,636.2 410.9,637.0 412.6,637.9 414.3,638.7 416.0,639.5 417.7,640.3 419.4,641.1 421.1,641.8 422.8,642.6 424.5,643.3 426.2,644.1 427.9,644.8 429.6,645.5 431.3,646.2 433.0,646.9
434.7,647.6 436.4,648.3 438.1,649.0 439.8,649.6 441.5,650.3 443.2,650.9 444.9,651.5 446.6,652.1 448.3,652.7 450.0,653.2 451.7,653.8 453.4,654.3 455.1,654.8 456.8,655.2 458.5,655.7 460.2,656.1
461.9,656.5 463.6,656.9 465.3,657.3 467.0,657.6 468.7,658.0 470.4,658.3 472.1,658.6 473.8,658.8 475.5,659.1 477.2,659.3 478.9,659.5 480.6,659.7 482.2,659.8 483.9,660.0 485.6,660.1 487.3,660.2
489.0,660.3 490.7,660.4 492.4,660.5 494.1,660.5 495.8,660.6 497.5,660.6 499.2,660.6 500.9,660.6 502.6,660.6 504.3,660.6 506.0,660.6 507.7,660.5 509.4,660.5 511.1,660.4 512.8,660.4 514.5,660.3
516.2,660.2 517.9,660.1 519.6,660.0 521.3,659.9 523.0,659.9 524.7,659.8 526.4,659.7 528.1,659.6 529.8,659.5 531.5,659.4 533.2,659.3 534.9,659.2 536.6,659.1 538.3,659.0 540.0,658.9 541.7,658.8
543.4,658.7 545.1,658.6 546.8,658.5 548.5,658.5 550.2,658.4 551.9,658.4 553.6,658.3 555.3,658.3 557.0,658.2 558.7,658.2 560.4,658.2 562.1,658.2 563.8,658.2 565.5,658.2 567.2,658.2 568.9,658.2
570.6,658.3 572.3,658.3 574.0,658.4 575.7,658.4 577.4,658.5 579.1,658.5 580.8,658.6 582.5,658.7 584.2,658.8 585.9,658.9 587.6,659.0 589.3,659.1 591.0,659.2 592.7,659.3 594.4,659.4 596.1,659.5
597.8,659.6 599.5,659.7 601.2,659.8 602.9,660.0 604.5,660.1 606.2,660.2 607.9,660.3 609.6,660.4 611.3,660.5 613.0,660.6 614.7,660.7 616.4,660.8 618.1,660.9 619.8,661.0 621.5,661.1 623.2,661.2
624.9,661.3 626.6,661.3 628.3,661.4 630.0,661.5 631.7,661.6 633.4,661.6 635.1,661.7 636.8,661.8 638.5,661.8 640.2,661.9 641.9,661.9 643.6,661.9 645.3,662.0 647.0,662.0 648.7,662.1 650.4,662.1
652.1,662.1 653.8,662.2 655.5,662.2 657.2,662.2 658.9,662.2 660.6,662.2 662.3,662.3 664.0,662.3 665.7,662.3 667.4,662.3 669.1,662.3 670.8,662.3 672.5,662.3 674.2,662.3 675.9,662.3 677.6,662.4
679.3,662.4 681.0,662.4 682.7,662.4 684.4,662.4 686.1,662.4 687.8,662.4 689.5,662.4 691.2,662.4 692.9,662.4 694.6,662.4 696.3,662.4 698.0,662.4 699.7,662.4 701.4,662.4 703.1,662.4 704.8,662.4
706.5,662.4 708.2,662.4 709.9,662.4 711.6,662.4 713.3,662.4 715.0,662.4 716.7,662.4 718.4,662.4 720.1,662.4 721.8,662.4 723.5,662.4 725.2,662.4 726.8,662.4 728.5,662.4 730.2,662.4 731.9,662.4
733.6,662.4 735.3,662.3 737.0,662.3 738.7,662.3 740.4,662.3 742.1,662.3 743.8,662.3 745.5,662.3 747.2,662.3 748.9,662.3 750.6,662.2 752.3,662.2 754.0,662.2 755.7,662.2 757.4,662.2 759.1,662.1
760.8,662.1 762.5,662.1 764.2,662.0 765.9,662.0 767.6,661.9 769.3,661.9 771.0,661.9 772.7,661.8 774.4,661.7 776.1,661.7 777.8,661.6 779.5,661.6 781.2,661.5 782.9,661.4 784.6,661.3 786.3,661.2
788.0,661.1 789.7,661.0 791.4,660.9 793.1,660.8 794.8,660.7 796.5,660.6 798.2,660.5 799.9,660.4 801.6,660.2 803.3,660.1 805.0,660.0 806.7,659.8 808.4,659.7 810.1,659.6 811.8,659.4 813.5,659.3
815.2,659.1 816.9,658.9 818.6,658.8 820.3,658.6 822.0,658.5 823.7,658.3 825.4,658.2 827.1,658.0 828.8,657.8 830.5,657.7 832.2,657.5 833.9,657.4 835.6,657.2 837.3,657.1 839.0,657.0 840.7,656.8
842.4,656.7 844.1,656.6 845.8,656.5 847.4,656.3 849.1,656.2 850.8,656.1 852.5,656.0 854.2,655.9 855.9,655.9 857.6,655.8 859.3,655.7 861.0,655.7 862.7,655.6 864.4,655.6 866.1,655.5 867.8,655.5
869.5,655.5 871.2,655.5 872.9,655.5 874.6,655.5 876.3,655.5 878.0,655.5 879.7,655.5 881.4,655.6 883.1,655.6 884.8,655.7 886.5,655.8 888.2,655.8 889.9,655.9 891.6,656.0 893.3,656.1 895.0,656.2
896.7,656.3 898.4,656.4 900.1,656.5 901.8,656.6 903.5,656.8 905.2,656.9 906.9,657.0 908.6,657.2 910.3,657.3 912.0,657.5 913.7,657.6 915.4,657.8 917.1,657.9 918.8,658.1 920.5,658.2 922.2,658.4
923.9,658.6 925.6,658.7 927.3,658.9 929.0,659.0 930.7,659.2 932.4,659.3 934.1,659.5 935.8,659.6 937.5,659.8 939.2,659.9 940.9,660.1 942.6,660.2 944.3,660.3 946.0,660.4 947.7,660.6 949.4,660.7
951.1,660.8 952.8,660.9 954.5,661.0 956.2,661.1 957.9,661.2 959.6,661.3 961.3,661.4 963.0,661.4 964.7,661.5 966.4,661.6 968.1,661.7 969.7,661.7 971.4,661.8 973.1,661.8 974.8,661.9 976.5,661.9
978.2,662.0 979.9,662.0 981.6,662.0 983.3,662.1 985.0,662.1 986.7,662.1 988.4,662.2 990.1,662.2 991.8,662.2 993.5,662.2 995.2,662.3 996.9,662.3 998.6,662.3 1000.3,662.3 1002.0,662.3 1003.7,662.3
1005.4,662.3 1007.1,662.3 1008.8,662.3 1010.5,662.4 1010.5,662.4 1008.8,662.4 1007.1,662.4 1005.4,662.4 1003.7,662.4 1002.0,662.4 1000.3,662.4 998.6,662.4 996.9,662.4 995.2,662.4 993.5,662.4 991.8,662.4
990.1,662.4 988.4,662.4 986.7,662.4 985.0,662.4 983.3,662.4 981.6,662.4 979.9,662.4 978.2,662.4 976.5,662.4 974.8,662.4 973.1,662.4 971.4,662.4 969.7,662.4 968.1,662.4 966.4,662.4 964.7,662.4
963.0,662.4 961.3,662.4 959.6,662.4 957.9,662.4 956.2,662.4 954.5,662.4 952.8,662.4 951.1,662.4 949.4,662.4 947.7,662.4 946.0,662.4 944.3,662.4 942.6,662.4 940.9,662.4 939.2,662.4 937.5,662.4
935.8,662.4 934.1,662.4 932.4,662.4 930.7,662.4 929.0,662.4 927.3,662.4 925.6,662.4 923.9,662.4 922.2,662.4 920.5,662.4 918.8,662.4 917.1,662.4 915.4,662.4 913.7,662.4 912.0,662.4 910.3,662.4
908.6,662.4 906.9,662.4 905.2,662.4 903.5,662.4 901.8,662.4 900.1,662.4 898.4,662.4 896.7,662.4 895.0,662.4 893.3,662.4 891.6,662.4 889.9,662.4 888.2,662.4 886.5,662.4 884.8,662.4 883.1,662.4
881.4,662.4 879.7,662.4 878.0,662.4 876.3,662.4 874.6,662.4 872.9,662.4 871.2,662.4 869.5,662.4 867.8,662.4 866.1,662.4 864.4,662.4 862.7,662.4 861.0,662.4 859.3,662.4 857.6,662.4 855.9,662.4
854.2,662.4 852.5,662.4 850.8,662.4 849.1,662.4 847.4,662.4 845.8,662.4 844.1,662.4 842.4,662.4 840.7,662.4 839.0,662.4 837.3,662.4 835.6,662.4 833.9,662.4 832.2,662.4 830.5,662.4 828.8,662.4
827.1,662.4 825.4,662.4 823.7,662.4 822.0,662.4 820.3,662.4 818.6,662.4 816.9,662.4 815.2,662.4 813.5,662.4 811.8,662.4 810.1,662.4 808.4,662.4 806.7,662.4 805.0,662.4 803.3,662.4 801.6,662.4
799.9,662.4 798.2,662.4 796.5,662.4 794.8,662.4 793.1,662.4 791.4,662.4 789.7,662.4 788.0,662.4 786.3,662.4 784.6,662.4 782.9,662.4 781.2,662.4 779.5,662.4 777.8,662.4 776.1,662.4 774.4,662.4
772.7,662.4 771.0,662.4 769.3,662.4 767.6,662.4 765.9,662.4 764.2,662.4 762.5,662.4 760.8,662.4 759.1,662.4 757.4,662.4 755.7,662.4 754.0,662.4 752.3,662.4 750.6,662.4 748.9,662.4 747.2,662.4
745.5,662.4 743.8,662.4 742.1,662.4 740.4,662.4 738.7,662.4 737.0,662.4 735.3,662.4 733.6,662.4 731.9,662.4 730.2,662.4 728.5,662.4 726.8,662.4 725.2,662.4 723.5,662.4 721.8,662.4 720.1,662.4
718.4,662.4 716.7,662.4 715.0,662.4 713.3,662.4 711.6,662.4 709.9,662.4 708.2,662.4 706.5,662.4 704.8,662.4 703.1,662.4 701.4,662.4 699.7,662.4 698.0,662.4 696.3,662.4 694.6,662.4 692.9,662.4
691.2,662.4 689.5,662.4 687.8,662.4 686.1,662.4 684.4,662.4 682.7,662.4 681.0,662.4 679.3,662.4 677.6,662.4 675.9,662.4 674.2,662.4 672.5,662.4 670.8,662.4 669.1,662.4 667.4,662.4 665.7,662.4
664.0,662.4 662.3,662.4 660.6,662.4 658.9,662.4 657.2,662.4 655.5,662.4 653.8,662.4 652.1,662.4 650.4,662.4 648.7,662.4 647.0,662.4 645.3,662.4 643.6,662.4 641.9,662.4 640.2,662.4 638.5,662.4
636.8,662.4 635.1,662.4 633.4,662.4 631.7,662.4 630.0,662.4 628.3,662.4 626.6,662.4 624.9,662.4 623.2,662.4 621.5,662.4 619.8,662.4 618.1,662.4 616.4,662.4 614.7,662.4 613.0,662.4 611.3,662.4
609.6,662.4 607.9,662.4 606.2,662.4 604.5,662.4 602.9,662.4 601.2,662.4 599.5,662.4 597.8,662.4 596.1,662.4 594.4,662.4 592.7,662.4 591.0,662.4 589.3,662.4 587.6,662.4 585.9,662.4 584.2,662.4
582.5,662.4 580.8,662.4 579.1,662.4 577.4,662.4 575.7,662.4 574.0,662.4 572.3,662.4 570.6,662.4 568.9,662.4 567.2,662.4 565.5,662.4 563.8,662.4 562.1,662.4 560.4,662.4 558.7,662.4 557.0,662.4
555.3,662.4 553.6,662.4 551.9,662.4 550.2,662.4 548.5,662.4 546.8,662.4 545.1,662.4 543.4,662.4 541.7,662.4 540.0,662.4 538.3,662.4 536.6,662.4 534.9,662.4 533.2,662.4 531.5,662.4 529.8,662.4
528.1,662.4 526.4,662.4 524.7,662.4 523.0,662.4 521.3,662.4 519.6,662.4 517.9,662.4 516.2,662.4 514.5,662.4 512.8,662.4 511.1,662.4 509.4,662.4 507.7,662.4 506.0,662.4 504.3,662.4 502.6,662.4
500.9,662.4 499.2,662.4 497.5,662.4 495.8,662.4 494.1,662.4 492.4,662.4 490.7,662.4 489.0,662.4 487.3,662.4 485.6,662.4 483.9,662.4 482.2,662.4 480.6,662.4 478.9,662.4 477.2,662.4 475.5,662.4
473.8,662.4 472.1,662.4 470.4,662.4 468.7,662.4 467.0,662.4 465.3,662.4 463.6,662.4 461.9,662.4 460.2,662.4 458.5,662.4 456.8,662.4 455.1,662.4 453.4,662.4 451.7,662.4 450.0,662.4 448.3,662.4
446.6,662.4 444.9,662.4 443.2,662.4 441.5,662.4 439.8,662.4 438.1,662.4 436.4,662.4 434.7,662.4 433.0,662.4 431.3,662.4 429.6,662.4 427.9,662.4 426.2,662.4 424.5,662.4 422.8,662.4 421.1,662.4
419.4,662.4 417.7,662.4 416.0,662.4 414.3,662.4 412.6,662.4 410.9,662.4 409.2,662.4 407.5,662.4 405.8,662.4 404.1,662.4 402.4,662.4 400.7,662.4 399.0,662.4 397.3,662.4 395.6,662.4 393.9,662.4
392.2,662.4 390.5,662.4 388.8,662.4 387.1,662.4 385.4,662.4 383.7,662.4 382.0,662.4 380.3,662.4 378.6,662.4 376.9,662.4 375.2,662.4 373.5,662.4 371.8,662.4 370.1,662.4 368.4,662.4 366.7,662.4
365.0,662.4 363.3,662.4 361.6,662.4 360.0,662.4 358.3,662.4 356.6,662.4 354.9,662.4 353.2,662.4 351.5,662.4 349.8,662.4 348.1,662.4 346.4,662.4 344.7,662.4 343.0,662.4 341.3,662.4 339.6,662.4
337.9,662.4 336.2,662.4 334.5,662.4 332.8,662.4 331.1,662.4 329.4,662.4 327.7,662.4 326.0,662.4 324.3,662.4 322.6,662.4 320.9,662.4 319.2,662.4 317.5,662.4 315.8,662.4 314.1,662.4 312.4,662.4
310.7,662.4 309.0,662.4 307.3,662.4 305.6,662.4 303.9,662.4 302.2,662.4 300.5,662.4 298.8,662.4 297.1,662.4 295.4,662.4 293.7,662.4 292.0,662.4 290.3,662.4 288.6,662.4 286.9,662.4 285.2,662.4
283.5,662.4 281.8,662.4 280.1,662.4 278.4,662.4 276.7,662.4 275.0,662.4 273.3,662.4 271.6,662.4 269.9,662.4 268.2,662.4 266.5,662.4 264.8,662.4 263.1,662.4 261.4,662.4 259.7,662.4 258.0,662.4
256.3,662.4 254.6,662.4 252.9,662.4 251.2,662.4 249.5,662.4 247.8,662.4 246.1,662.4 244.4,662.4 242.7,662.4 241.0,662.4 239.3,662.4 237.7,662.4 236.0,662.4 234.3,662.4 232.6,662.4 230.9,662.4
229.2,662.4 227.5,662.4 225.8,662.4 224.1,662.4 222.4,662.4 220.7,662.4 219.0,662.4 217.3,662.4 215.6,662.4 213.9,662.4 212.2,662.4 210.5,662.4 208.8,662.4 207.1,662.4 205.4,662.4 203.7,662.4
202.0,662.4 200.3,662.4 198.6,662.4 196.9,662.4 195.2,662.4 193.5,662.4 191.8,662.4 190.1,662.4 188.4,662.4 186.7,662.4 185.0,662.4 183.3,662.4 181.6,662.4 179.9,662.4 178.2,662.4 176.5,662.4
174.8,662.4 173.1,662.4 171.4,662.4 169.7,662.4 168.0,662.4 166.3,662.4 164.6,662.4 162.9,662.4 '/>
	</g>
</g>
	</g>
	<g id="gnuplot_plot_2" ><title>Base Mean</title>
<g fill="none" color="white" stroke="rgb(227,  26,  28)" stroke-width="2.00" stroke-linecap="butt" stroke-linejoin="miter">
</g>
<g fill="none" color="black" stroke="currentColor" stroke-width="2.00" stroke-linecap="butt" stroke-linejoin="miter">
	<g transform="translate(1196.9,85.0)" stroke="none" fill="black" font-family="Helvetica" font-size="12.00"  text-anchor="start">
		<text><tspan font-family="Helvetica" >Base Mean</tspan></text>
	</g>
</g>
<g fill="none" color="black" stroke="currentColor" stroke-width="2.00" stroke-linecap="butt" stroke-linejoin="miter">
	<path stroke='rgb(227,  26,  28)'  d='M1146.4,81.1 L1188.6,81.1 M306.9,662.4 L306.9,347.9  '/></g>
	</g>
	<g id="gnuplot_plot_3" ><title>New PDF</title>
<g fill="none" color="white" stroke="rgb(227,  26,  28)" stroke-width="1.00" stroke-linecap="butt" stroke-linejoin="miter">
</g>
<g fill="none" color="black" stroke="currentColor" stroke-width="1.00" stroke-linecap="butt" stroke-linejoin="miter">
	<g transform="translate(1196.9,103.0)" stroke="none" fill="black" font-family="Helvetica" font-size="12.00"  text-anchor="start">
		<text><tspan font-family="Helvetica" >New PDF</tspan></text>
	</g>
</g>
<g fill="none" color="black" stroke="currentColor" stroke-width="1.00" stroke-linecap="butt" stroke-linejoin="miter">
	<g stroke='none' shape-rendering='crispEdges'>
		<polygon fill = 'rgb( 31, 120, 180)' fill-opacity = '0.500000' points = '1146.4,103.6 1188.6,103.6 1188.6,94.6 1146.4,94.6 '/>
		<polygon fill = 'rgb( 31, 120, 180)' fill-opacity = '0.500000' points = '201.5,658.4 202.9,657.6 204.4,656.7 205.8,655.6 207.2,654.4 208.6,653.0 210.0,651.3 211.5,649.5 212.9,647.3 214.3,644.8 215.7,642.0 217.2,638.8 218.6,635.3 220.0,631.2 221.4,626.7 222.8,621.6
224.3,616.0 225.7,609.8 227.1,602.9 228.5,595.4 230.0,587.1 231.4,578.1 232.8,568.3 234.2,557.7 235.6,546.3 237.1,534.1 238.5,521.0 239.9,507.0 241.3,492.3 242.8,476.7 244.2,460.3 245.6,443.2
247.0,425.4 248.4,407.0 249.9,388.0 251.3,368.5 252.7,348.7 254.1,328.6 255.6,308.3 257.0,287.9 258.4,267.7 259.8,247.6 261.2,227.9 262.7,208.7 264.1,190.2 265.5,172.5 266.9,155.7 268.4,139.9
269.8,125.4 271.2,112.2 272.6,100.5 274.0,90.3 275.5,81.7 276.9,74.9 278.3,69.8 279.7,66.5 281.2,65.1 282.6,65.6 284.0,67.8 285.4,72.0 286.8,77.9 288.3,85.5 289.7,94.7 291.1,105.6
292.5,117.8 294.0,131.5 295.4,146.3 296.8,162.3 298.2,179.2 299.6,196.9 301.1,215.3 302.5,234.2 303.9,253.5 305.3,273.1 306.8,292.8 308.2,312.5 309.6,332.0 311.0,351.4 312.4,370.4 313.9,388.9
315.3,406.9 316.7,424.4 318.1,441.2 319.6,457.3 321.0,472.7 322.4,487.3 323.8,501.1 325.2,514.2 326.7,526.4 328.1,537.8 329.5,548.5 330.9,558.3 332.4,567.4 333.8,575.8 335.2,583.5 336.6,590.6
338.0,597.0 339.5,602.8 340.9,608.0 342.3,612.8 343.7,617.0 345.2,620.8 346.6,624.2 348.0,627.3 349.4,629.9 350.8,632.3 352.3,634.4 353.7,636.2 355.1,637.8 356.5,639.3 358.0,640.5 359.4,641.6
360.8,642.5 362.2,643.3 363.6,644.0 365.1,644.7 366.5,645.2 367.9,645.7 369.3,646.1 370.8,646.5 372.2,646.9 373.6,647.2 375.0,647.5 376.4,647.8 377.9,648.1 379.3,648.4 380.7,648.7 382.1,649.0
383.6,649.3 385.0,649.5 386.4,649.8 387.8,650.1 389.2,650.4 390.7,650.7 392.1,651.0 393.5,651.3 394.9,651.7 396.4,652.0 397.8,652.3 399.2,652.6 400.6,652.9 402.0,653.2 403.5,653.4 404.9,653.7
406.3,654.0 407.7,654.2 409.2,654.5 410.6,654.7 412.0,654.9 413.4,655.0 414.8,655.2 416.3,655.3 417.7,655.5 419.1,655.6 420.5,655.7 422.0,655.7 423.4,655.8 424.8,655.8 426.2,655.8 427.6,655.8
429.1,655.8 430.5,655.8 431.9,655.8 433.3,655.7 434.8,655.7 436.2,655.7 437.6,655.6 439.0,655.6 440.4,655.6 441.9,655.6 443.3,655.6 444.7,655.6 446.1,655.6 447.6,655.6 449.0,655.6 450.4,655.7
451.8,655.8 453.2,655.8 454.7,655.9 456.1,656.1 457.5,656.2 458.9,656.3 460.4,656.5 461.8,656.6 463.2,656.8 464.6,657.0 466.0,657.2 467.5,657.4 468.9,657.6 470.3,657.8 471.7,658.1 473.2,658.3
474.6,658.5 476.0,658.7 477.4,659.0 478.8,659.2 480.3,659.4 481.7,659.6 483.1,659.8 484.5,660.0 486.0,660.2 487.4,660.4 488.8,660.5 490.2,660.7 491.6,660.8 493.1,661.0 494.5,661.1 495.9,661.3
497.3,661.4 498.8,661.5 500.2,661.6 501.6,661.7 503.0,661.7 504.4,661.8 505.9,661.9 507.3,662.0 508.7,662.0 510.1,662.1 511.6,662.1 513.0,662.1 514.4,662.2 515.8,662.2 517.2,662.2 518.7,662.3
520.1,662.3 521.5,662.3 522.9,662.3 524.4,662.3 525.8,662.3 527.2,662.3 528.6,662.4 530.0,662.4 531.5,662.4 532.9,662.4 534.3,662.4 535.7,662.4 537.2,662.4 538.6,662.4 540.0,662.4 541.4,662.4
542.8,662.4 544.3,662.4 545.7,662.4 547.1,662.4 548.5,662.4 550.0,662.4 551.4,662.4 552.8,662.4 554.2,662.4 555.6,662.4 557.1,662.4 558.5,662.4 559.9,662.4 561.3,662.4 562.8,662.4 564.2,662.4
565.6,662.4 567.0,662.4 568.4,662.4 569.9,662.4 571.3,662.4 572.7,662.4 574.1,662.4 575.6,662.4 577.0,662.4 578.4,662.4 579.8,662.4 581.2,662.4 582.7,662.4 584.1,662.4 585.5,662.4 586.9,662.4
588.4,662.4 589.8,662.4 591.2,662.4 592.6,662.4 594.0,662.4 595.5,662.4 596.9,662.4 598.3,662.4 599.7,662.4 601.2,662.4 602.6,662.4 604.0,662.4 605.4,662.4 606.8,662.4 608.3,662.4 609.7,662.4
611.1,662.4 612.5,662.4 614.0,662.4 615.4,662.4 616.8,662.4 618.2,662.4 619.6,662.4 621.1,662.4 622.5,662.4 623.9,662.4 625.3,662.4 626.8,662.4 628.2,662.4 629.6,662.4 631.0,662.4 632.4,662.4
633.9,662.4 635.3,662.4 636.7,662.4 638.1,662.4 639.6,662.4 641.0,662.4 642.4,662.4 643.8,662.4 645.2,662.4 646.7,662.4 648.1,662.4 649.5,662.4 650.9,662.4 652.4,662.4 653.8,662.4 655.2,662.4
656.6,662.4 658.0,662.4 659.5,662.4 660.9,662.4 662.3,662.4 663.7,662.4 665.2,662.4 666.6,662.4 668.0,662.4 669.4,662.4 670.8,662.4 672.3,662.4 673.7,662.4 675.1,662.4 676.5,662.4 678.0,662.4
679.4,662.4 680.8,662.4 682.2,662.4 683.6,662.4 685.1,662.4 686.5,662.4 687.9,662.4 689.3,662.4 690.8,662.4 692.2,662.4 693.6,662.4 695.0,662.4 696.4,662.4 697.9,662.4 699.3,662.4 700.7,662.4
702.1,662.4 703.6,662.4 705.0,662.4 706.4,662.4 707.8,662.4 709.2,662.4 710.7,662.4 712.1,662.4 713.5,662.4 714.9,662.4 716.4,662.4 717.8,662.4 719.2,662.4 720.6,662.4 722.0,662.4 723.5,662.4
724.9,662.4 726.3,662.4 727.7,662.4 729.2,662.4 730.6,662.4 732.0,662.4 733.4,662.4 734.8,662.4 736.3,662.4 737.7,662.4 739.1,662.4 740.5,662.4 742.0,662.4 743.4,662.4 744.8,662.4 746.2,662.4
747.6,662.4 749.1,662.4 750.5,662.4 751.9,662.4 753.3,662.4 754.8,662.4 756.2,662.4 757.6,662.4 759.0,662.3 760.4,662.3 761.9,662.3 763.3,662.3 764.7,662.3 766.1,662.3 767.6,662.2 769.0,662.2
770.4,662.2 771.8,662.2 773.2,662.1 774.7,662.1 776.1,662.0 777.5,662.0 778.9,661.9 780.4,661.9 781.8,661.8 783.2,661.7 784.6,661.6 786.0,661.5 787.5,661.4 788.9,661.3 790.3,661.2 791.7,661.1
793.2,660.9 794.6,660.8 796.0,660.6 797.4,660.4 798.8,660.3 800.3,660.1 801.7,659.9 803.1,659.7 804.5,659.5 806.0,659.3 807.4,659.1 808.8,658.8 810.2,658.6 811.6,658.4 813.1,658.2 814.5,658.0
815.9,657.8 817.3,657.5 818.8,657.3 820.2,657.2 821.6,657.0 823.0,656.8 824.5,656.6 825.9,656.5 827.3,656.4 828.7,656.3 830.1,656.2 831.6,656.1 833.0,656.0 834.4,656.0 835.8,656.0 837.3,656.0
838.7,656.0 840.1,656.1 841.5,656.2 842.9,656.2 844.4,656.3 845.8,656.5 847.2,656.6 848.6,656.8 850.1,656.9 851.5,657.1 852.9,657.3 854.3,657.5 855.7,657.7 857.2,657.9 858.6,658.1 860.0,658.4
861.4,658.6 862.9,658.8 864.3,659.0 865.7,659.2 867.1,659.4 868.5,659.6 870.0,659.8 871.4,660.0 872.8,660.2 874.2,660.4 875.7,660.6 877.1,660.7 878.5,660.9 879.9,661.0 881.3,661.2 882.8,661.3
884.2,661.4 885.6,661.5 887.0,661.6 888.5,661.7 889.9,661.8 891.3,661.8 892.7,661.9 894.1,662.0 895.6,662.0 897.0,662.1 898.4,662.1 899.8,662.1 901.3,662.2 902.7,662.2 904.1,662.2 905.5,662.3
906.9,662.3 908.4,662.3 909.8,662.3 911.2,662.3 911.2,662.4 909.8,662.4 908.4,662.4 906.9,662.4 905.5,662.4 904.1,662.4 902.7,662.4 901.3,662.4 899.8,662.4 898.4,662.4 897.0,662.4 895.6,662.4
894.1,662.4 892.7,662.4 891.3,662.4 889.9,662.4 888.5,662.4 887.0,662.4 885.6,662.4 884.2,662.4 882.8,662.4 881.3,662.4 879.9,662.4 878.5,662.4 877.1,662.4 875.7,662.4 874.2,662.4 872.8,662.4
871.4,662.4 870.0,662.4 868.5,662.4 867.1,662.4 865.7,662.4 864.3,662.4 862.9,662.4 861.4,662.4 860.0,662.4 858.6,662.4 857.2,662.4 855.7,662.4 854.3,662.4 852.9,662.4 851.5,662.4 850.1,662.4
848.6,662.4 847.2,662.4 845.8,662.4 844.4,662.4 842.9,662.4 841.5,662.4 840.1,662.4 838.7,662.4 837.3,662.4 835.8,662.4 834.4,662.4 833.0,662.4 831.6,662.4 830.1,662.4 828.7,662.4 827.3,662.4
825.9,662.4 824.5,662.4 823.0,662.4 821.6,662.4 820.2,662.4 818.8,662.4 817.3,662.4 815.9,662.4 814.5,662.4 813.1,662.4 811.6,662.4 810.2,662.4 808.8,662.4 807.4,662.4 806.0,662.4 804.5,662.4
803.1,662.4 801.7,662.4 800.3,662.4 798.8,662.4 797.4,662.4 796.0,662.4 794.6,662.4 793.2,662.4 791.7,662.4 790.3,662.4 788.9,662.4 787.5,662.4 786.0,662.4 784.6,662.4 783.2,662.4 781.8,662.4
780.4,662.4 778.9,662.4 777.5,662.4 776.1,662.4 774.7,662.4 773.2,662.4 771.8,662.4 770.4,662.4 769.0,662.4 767.6,662.4 766.1,662.4 764.7,662.4 763.3,662.4 761.9,662.4 760.4,662.4 759.0,662.4
757.6,662.4 756.2,662.4 754.8,662.4 753.3,662.4 751.9,662.4 750.5,662.4 749.1,662.4 747.6,662.4 746.2,662.4 744.8,662.4 743.4,662.4 742.0,662.4 740.5,662.4 739.1,662.4 737.7,662.4 736.3,662.4
734.8,662.4 733.4,662.4 732.0,662.4 730.6,662.4 729.2,662.4 727.7,662.4 726.3,662.4 724.9,662.4 723.5,662.4 722.0,662.4 720.6,662.4 719.2,662.4 717.8,662.4 716.4,662.4 714.9,662.4 713.5,662.4
712.1,662.4 710.7,662.4 709.2,662.4 707.8,662.4 706.4,662.4 705.0,662.4 703.6,662.4 702.1,662.4 700.7,662.4 699.3,662.4 697.9,662.4 696.4,662.4 695.0,662.4 693.6,662.4 692.2,662.4 690.8,662.4
689.3,662.4 687.9,662.4 686.5,662.4 685.1,662.4 683.6,662.4 682.2,662.4 680.8,662.4 679.4,662.4 678.0,662.4 676.5,662.4 675.1,662.4 673.7,662.4 672.3,662.4 670.8,662.4 669.4,662.4 668.0,662.4
666.6,662.4 665.2,662.4 663.7,662.4 662.3,662.4 660.9,662.4 659.5,662.4 658.0,662.4 656.6,662.4 655.2,662.4 653.8,662.4 652.4,662.4 650.9,662.4 649.5,662.4 648.1,662.4 646.7,662.4 645.2,662.4
643.8,662.4 642.4,662.4 641.0,662.4 639.6,662.4 638.1,662.4 636.7,662.4 635.3,662.4 633.9,662.4 632.4,662.4 631.0,662.4 629.6,662.4 628.2,662.4 626.8,662.4 625.3,662.4 623.9,662.4 622.5,662.4
621.1,662.4 619.6,662.4 618.2,662.4 616.8,662.4 615.4,662.4 614.0,662.4 612.5,662.4 611.1,662.4 609.7,662.4 608.3,662.4 606.8,662.4 605.4,662.4 604.0,662.4 602.6,662.4 601.2,662.4 599.7,662.4
598.3,662.4 596.9,662.4 595.5,662.4 594.0,662.4 592.6,662.4 591.2,662.4 589.8,662.4 588.4,662.4 586.9,662.4 585.5,662.4 584.1,662.4 582.7,662.4 581.2,662.4 579.8,662.4 578.4,662.4 577.0,662.4
575.6,662.4 574.1,662.4 572.7,662.4 571.3,662.4 569.9,662.4 568.4,662.4 567.0,662.4 565.6,662.4 564.2,662.4 562.8,662.4 561.3,662.4 559.9,662.4 558.5,662.4 557.1,662.4 555.6,662.4 554.2,662.4
552.8,662.4 551.4,662.4 550.0,662.4 548.5,662.4 547.1,662.4 545.7,662.4 544.3,662.4 542.8,662.4 541.4,662.4 540.0,662.4 538.6,662.4 537.2,662.4 535.7,662.4 534.3,662.4 532.9,662.4 531.5,662.4
530.0,662.4 528.6,662.4 527.2,662.4 525.8,662.4 524.4,662.4 522.9,662.4 521.5,662.4 520.1,662.4 518.7,662.4 517.2,662.4 515.8,662.4 514.4,662.4 513.0,662.4 511.6,662.4 510.1,662.4 508.7,662.4
507.3,662.4 505.9,662.4 504.4,662.4 503.0,662.4 501.6,662.4 500.2,662.4 498.8,662.4 497.3,662.4 495.9,662.4 494.5,662.4 493.1,662.4 491.6,662.4 490.2,662.4 488.8,662.4 487.4,662.4 486.0,662.4
484.5,662.4 483.1,662.4 481.7,662.4 480.3,662.4 478.8,662.4 477.4,662.4 476.0,662.4 474.6,662.4 473.2,662.4 471.7,662.4 470.3,662.4 468.9,662.4 467.5,662.4 466.0,662.4 464.6,662.4 463.2,662.4
461.8,662.4 460.4,662.4 458.9,662.4 457.5,662.4 456.1,662.4 454.7,662.4 453.2,662.4 451.8,662.4 450.4,662.4 449.0,662.4 447.6,662.4 446.1,662.4 444.7,662.4 443.3,662.4 441.9,662.4 440.4,662.4
439.0,662.4 437.6,662.4 436.2,662.4 434.8,662.4 433.3,662.4 431.9,662.4 430.5,662.4 429.1,662.4 427.6,662.4 426.2,662.4 424.8,662.4 423.4,662.4 422.0,662.4 420.5,662.4 419.1,662.4 417.7,662.4
416.3,662.4 414.8,662.4 413.4,662.4 412.0,662.4 410.6,662.4 409.2,662.4 407.7,662.4 406.3,662.4 404.9,662.4 403.5,662.4 402.0,662.4 400.6,662.4 399.2,662.4 397.8,662.4 396.4,662.4 394.9,662.4
393.5,662.4 392.1,662.4 390.7,662.4 389.2,662.4 387.8,662.4 386.4,662.4 385.0,662.4 383.6,662.4 382.1,662.4 380.7,662.4 379.3,662.4 377.9,662.4 376.4,662.4 375.0,662.4 373.6,662.4 372.2,662.4
370.8,662.4 369.3,662.4 367.9,662.4 366.5,662.4 365.1,662.4 363.6,662.4 362.2,662.4 360.8,662.4 359.4,662.4 358.0,662.4 356.5,662.4 355.1,662.4 353.7,662.4 352.3,662.4 350.8,662.4 349.4,662.4
348.0,662.4 346.6,662.4 345.2,662.4 343.7,662.4 342.3,662.4 340.9,662.4 339.5,662.4 338.0,662.4 336.6,662.4 335.2,662.4 333.8,662.4 332.4,662.4 330.9,662.4 329.5,662.4 328.1,662.4 326.7,662.4
325.2,662.4 323.8,662.4 322.4,662.4 321.0,662.4 319.6,662.4 318.1,662.4 316.7,662.4 315.3,662.4 313.9,662.4 312.4,662.4 311.0,662.4 309.6,662.4 308.2,662.4 306.8,662.4 305.3,662.4 303.9,662.4
302.5,662.4 301.1,662.4 299.6,662.4 298.2,662.4 296.8,662.4 295.4,662.4 294.0,662.4 292.5,662.4 291.1,662.4 289.7,662.4 288.3,662.4 286.8,662.4 285.4,662.4 284.0,662.4 282.6,662.4 281.2,662.4
279.7,662.4 278.3,662.4 276.9,662.4 275.5,662.4 274.0,662.4 272.6,662.4 271.2,662.4 269.8,662.4 268.4,662.4 266.9,662.4 265.5,662.4 264.1,662.4 262.7,662.4 261.2,662.4 259.8,662.4 258.4,662.4
257.0,662.4 255.6,662.4 254.1,662.4 252.7,662.4 251.3,662.4 249.9,662.4 248.4,662.4 247.0,662.4 245.6,662.4 244.2,662.4 242.8,662.4 241.3,662.4 239.9,662.4 238.5,662.4 237.1,662.4 235.6,662.4
234.2,662.4 232.8,662.4 231.4,662.4 230.0,662.4 228.5,662.4 227.1,662.4 225.7,662.4 224.3,662.4 222.8,662.4 221.4,662.4 220.0,662.4 218.6,662.4 217.2,662.4 215.7,662.4 214.3,662.4 212.9,662.4
211.5,662.4 210.0,662.4 208.6,662.4 207.2,662.4 205.8,662.4 204.4,662.4 202.9,662.4 201.5,662.4 '/>
	</g>
</g>
	</g>
	<g id="gnuplot_plot_4" ><title>New Mean</title>
<g fill="none" color="white" stroke="rgb( 31, 120, 180)" stroke-width="2.00" stroke-linecap="butt" stroke-linejoin="miter">
</g>
<g fill="none" color="black" stroke="currentColor" stroke-width="2.00" stroke-linecap="butt" stroke-linejoin="miter">
	<g transform="translate(1196.9,121.0)" stroke="none" fill="black" font-family="Helvetica" font-size="12.00"  text-anchor="start">
		<text><tspan font-family="Helvetica" >New Mean</tspan></text>
	</g>
</g>
<g fill="none" color="black" stroke="currentColor" stroke-width="2.00" stroke-linecap="butt" stroke-linejoin="miter">
	<path stroke='rgb( 31, 120, 180)'  d='M1146.4,117.1 L1188.6,117.1 M291.5,662.4 L291.5,109.2  '/></g>
	</g>
<g fill="none" color="black" stroke="currentColor" stroke-width="2.00" stroke-linecap="butt" stroke-linejoin="miter">
</g>
<g fill="none" color="black" stroke="black" stroke-width="1.00" stroke-linecap="butt" stroke-linejoin="miter">
</g>
<g fill="none" color="black" stroke="currentColor" stroke-width="1.00" stroke-linecap="butt" stroke-linejoin="miter">
	<path stroke='black'  d='M80.2,54.1 L80.2,662.4 L1121.5,662.4 L1121.5,54.1 L80.2,54.1 Z  '/></g>
<g fill="none" color="black" stroke="currentColor" stroke-width="1.00" stroke-linecap="butt" stroke-linejoin="miter">
</g>
</g>
</svg>

