<?xml version="1.0" encoding="utf-8"  standalone="no"?>
<svg 
 viewBox="0 0 450 300"
 xmlns="http://www.w3.org/2000/svg"
 xmlns:xlink="http://www.w3.org/1999/xlink"
>

<title>Gnuplot</title>
<desc>Produced by GNUPLOT 5.2 patchlevel 6 </desc>

<g id="gnuplot_canvas">

<rect x="0" y="0" width="450" height="300" fill="none"/>
<defs>

	<circle id='gpDot' r='0.5' stroke-width='0.5' stroke='currentColor'/>
	<path id='gpPt0' stroke-width='0.222' stroke='currentColor' d='M-1,0 h2 M0,-1 v2'/>
	<path id='gpPt1' stroke-width='0.222' stroke='currentColor' d='M-1,-1 L1,1 M1,-1 L-1,1'/>
	<path id='gpPt2' stroke-width='0.222' stroke='currentColor' d='M-1,0 L1,0 M0,-1 L0,1 M-1,-1 L1,1 M-1,1 L1,-1'/>
	<rect id='gpPt3' stroke-width='0.222' stroke='currentColor' x='-1' y='-1' width='2' height='2'/>
	<rect id='gpPt4' stroke-width='0.222' stroke='currentColor' fill='currentColor' x='-1' y='-1' width='2' height='2'/>
	<circle id='gpPt5' stroke-width='0.222' stroke='currentColor' cx='0' cy='0' r='1'/>
	<use xlink:href='#gpPt5' id='gpPt6' fill='currentColor' stroke='none'/>
	<path id='gpPt7' stroke-width='0.222' stroke='currentColor' d='M0,-1.33 L-1.33,0.67 L1.33,0.67 z'/>
	<use xlink:href='#gpPt7' id='gpPt8' fill='currentColor' stroke='none'/>
	<use xlink:href='#gpPt7' id='gpPt9' stroke='currentColor' transform='rotate(180)'/>
	<use xlink:href='#gpPt9' id='gpPt10' fill='currentColor' stroke='none'/>
	<use xlink:href='#gpPt3' id='gpPt11' stroke='currentColor' transform='rotate(45)'/>
	<use xlink:href='#gpPt11' id='gpPt12' fill='currentColor' stroke='none'/>
	<path id='gpPt13' stroke-width='0.222' stroke='currentColor' d='M0,1.330 L1.265,0.411 L0.782,-1.067 L-0.782,-1.076 L-1.265,0.411 z'/>
	<use xlink:href='#gpPt13' id='gpPt14' fill='currentColor' stroke='none'/>
	<filter id='textbox' filterUnits='objectBoundingBox' x='0' y='0' height='1' width='1'>
	  <feFlood flood-color='white' flood-opacity='1' result='bgnd'/>
	  <feComposite in='SourceGraphic' in2='bgnd' operator='atop'/>
	</filter>
	<filter id='greybox' filterUnits='objectBoundingBox' x='0' y='0' height='1' width='1'>
	  <feFlood flood-color='lightgrey' flood-opacity='1' result='grey'/>
	  <feComposite in='SourceGraphic' in2='grey' operator='atop'/>
	</filter>
</defs>
<g fill="none" color="white" stroke="currentColor" stroke-width="1.00" stroke-linecap="butt" stroke-linejoin="miter">
</g>
<g fill="none" color="black" stroke="currentColor" stroke-width="1.00" stroke-linecap="butt" stroke-linejoin="miter">
	<path stroke='black'  d='M71.9,242.4 L80.9,242.4  '/>	<g transform="translate(63.6,246.3)" stroke="none" fill="black" font-family="Helvetica" font-size="12.00"  text-anchor="end">
		<text><tspan font-family="Helvetica" > 0</tspan></text>
	</g>
</g>
<g fill="none" color="black" stroke="currentColor" stroke-width="1.00" stroke-linecap="butt" stroke-linejoin="miter">
	<path stroke='black'  d='M71.9,210.4 L80.9,210.4  '/>	<g transform="translate(63.6,214.3)" stroke="none" fill="black" font-family="Helvetica" font-size="12.00"  text-anchor="end">
		<text><tspan font-family="Helvetica" > 0.2</tspan></text>
	</g>
</g>
<g fill="none" color="black" stroke="currentColor" stroke-width="1.00" stroke-linecap="butt" stroke-linejoin="miter">
	<path stroke='black'  d='M71.9,178.3 L80.9,178.3  '/>	<g transform="translate(63.6,182.2)" stroke="none" fill="black" font-family="Helvetica" font-size="12.00"  text-anchor="end">
		<text><tspan font-family="Helvetica" > 0.4</tspan></text>
	</g>
</g>
<g fill="none" color="black" stroke="currentColor" stroke-width="1.00" stroke-linecap="butt" stroke-linejoin="miter">
	<path stroke='black'  d='M71.9,146.3 L80.9,146.3  '/>	<g transform="translate(63.6,150.2)" stroke="none" fill="black" font-family="Helvetica" font-size="12.00"  text-anchor="end">
		<text><tspan font-family="Helvetica" > 0.6</tspan></text>
	</g>
</g>
<g fill="none" color="black" stroke="currentColor" stroke-width="1.00" stroke-linecap="butt" stroke-linejoin="miter">
	<path stroke='black'  d='M71.9,114.2 L80.9,114.2  '/>	<g transform="translate(63.6,118.1)" stroke="none" fill="black" font-family="Helvetica" font-size="12.00"  text-anchor="end">
		<text><tspan font-family="Helvetica" > 0.8</tspan></text>
	</g>
</g>
<g fill="none" color="black" stroke="currentColor" stroke-width="1.00" stroke-linecap="butt" stroke-linejoin="miter">
	<path stroke='black'  d='M71.9,82.2 L80.9,82.2  '/>	<g transform="translate(63.6,86.1)" stroke="none" fill="black" font-family="Helvetica" font-size="12.00"  text-anchor="end">
		<text><tspan font-family="Helvetica" > 1</tspan></text>
	</g>
</g>
<g fill="none" color="black" stroke="currentColor" stroke-width="1.00" stroke-linecap="butt" stroke-linejoin="miter">
	<path stroke='black'  d='M71.9,50.1 L80.9,50.1  '/>	<g transform="translate(63.6,54.0)" stroke="none" fill="black" font-family="Helvetica" font-size="12.00"  text-anchor="end">
		<text><tspan font-family="Helvetica" > 1.2</tspan></text>
	</g>
</g>
<g fill="none" color="black" stroke="currentColor" stroke-width="1.00" stroke-linecap="butt" stroke-linejoin="miter">
	<path stroke='black'  d='M71.9,18.1 L80.9,18.1  '/>	<g transform="translate(63.6,22.0)" stroke="none" fill="black" font-family="Helvetica" font-size="12.00"  text-anchor="end">
		<text><tspan font-family="Helvetica" > 1.4</tspan></text>
	</g>
</g>
<g fill="none" color="black" stroke="currentColor" stroke-width="1.00" stroke-linecap="butt" stroke-linejoin="miter">
	<path stroke='black'  d='M71.9,242.4 L71.9,233.4  '/>	<g transform="translate(71.9,264.3)" stroke="none" fill="black" font-family="Helvetica" font-size="12.00"  text-anchor="middle">
		<text><tspan font-family="Helvetica" > 40</tspan></text>
	</g>
</g>
<g fill="none" color="black" stroke="currentColor" stroke-width="1.00" stroke-linecap="butt" stroke-linejoin="miter">
	<path stroke='black'  d='M122.3,242.4 L122.3,233.4  '/>	<g transform="translate(122.3,264.3)" stroke="none" fill="black" font-family="Helvetica" font-size="12.00"  text-anchor="middle">
		<text><tspan font-family="Helvetica" > 45</tspan></text>
	</g>
</g>
<g fill="none" color="black" stroke="currentColor" stroke-width="1.00" stroke-linecap="butt" stroke-linejoin="miter">
	<path stroke='black'  d='M172.8,242.4 L172.8,233.4  '/>	<g transform="translate(172.8,264.3)" stroke="none" fill="black" font-family="Helvetica" font-size="12.00"  text-anchor="middle">
		<text><tspan font-family="Helvetica" > 50</tspan></text>
	</g>
</g>
<g fill="none" color="black" stroke="currentColor" stroke-width="1.00" stroke-linecap="butt" stroke-linejoin="miter">
	<path stroke='black'  d='M223.2,242.4 L223.2,233.4  '/>	<g transform="translate(223.2,264.3)" stroke="none" fill="black" font-family="Helvetica" font-size="12.00"  text-anchor="middle">
		<text><tspan font-family="Helvetica" > 55</tspan></text>
	</g>
</g>
<g fill="none" color="black" stroke="currentColor" stroke-width="1.00" stroke-linecap="butt" stroke-linejoin="miter">
	<path stroke='black'  d='M273.7,242.4 L273.7,233.4  '/>	<g transform="translate(273.7,264.3)" stroke="none" fill="black" font-family="Helvetica" font-size="12.00"  text-anchor="middle">
		<text><tspan font-family="Helvetica" > 60</tspan></text>
	</g>
</g>
<g fill="none" color="black" stroke="currentColor" stroke-width="1.00" stroke-linecap="butt" stroke-linejoin="miter">
	<path stroke='black'  d='M324.1,242.4 L324.1,233.4  '/>	<g transform="translate(324.1,264.3)" stroke="none" fill="black" font-family="Helvetica" font-size="12.00"  text-anchor="middle">
		<text><tspan font-family="Helvetica" > 65</tspan></text>
	</g>
</g>
<g fill="none" color="black" stroke="currentColor" stroke-width="1.00" stroke-linecap="butt" stroke-linejoin="miter">
	<path stroke='black'  d='M374.6,242.4 L374.6,233.4  '/>	<g transform="translate(374.6,264.3)" stroke="none" fill="black" font-family="Helvetica" font-size="12.00"  text-anchor="middle">
		<text><tspan font-family="Helvetica" > 70</tspan></text>
	</g>
</g>
<g fill="none" color="black" stroke="currentColor" stroke-width="1.00" stroke-linecap="butt" stroke-linejoin="miter">
	<path stroke='black'  d='M425.0,242.4 L425.0,233.4  '/>	<g transform="translate(425.0,264.3)" stroke="none" fill="black" font-family="Helvetica" font-size="12.00"  text-anchor="middle">
		<text><tspan font-family="Helvetica" > 75</tspan></text>
	</g>
</g>
<g fill="none" color="black" stroke="currentColor" stroke-width="1.00" stroke-linecap="butt" stroke-linejoin="miter">
</g>
<g fill="none" color="black" stroke="currentColor" stroke-width="1.00" stroke-linecap="butt" stroke-linejoin="miter">
	<path stroke='black'  d='M71.9,18.1 L71.9,242.4 L425.0,242.4 L425.0,18.1 L71.9,18.1 Z  '/></g>
<g fill="none" color="black" stroke="currentColor" stroke-width="1.00" stroke-linecap="butt" stroke-linejoin="miter">
	<g transform="translate(16.3,130.3) rotate(270)" stroke="none" fill="black" font-family="Helvetica" font-size="12.00"  text-anchor="middle">
		<text><tspan font-family="Helvetica" >Density (a.u.)</tspan></text>
	</g>
</g>
<g fill="none" color="black" stroke="currentColor" stroke-width="1.00" stroke-linecap="butt" stroke-linejoin="miter">
	<g transform="translate(248.4,291.3)" stroke="none" fill="black" font-family="Helvetica" font-size="12.00"  text-anchor="middle">
		<text><tspan font-family="Helvetica" >Average time (us)</tspan></text>
	</g>
</g>
<g fill="none" color="black" stroke="currentColor" stroke-width="1.00" stroke-linecap="butt" stroke-linejoin="miter">
</g>
	<g id="gnuplot_plot_1" ><title>Base PDF</title>
<g fill="none" color="black" stroke="currentColor" stroke-width="1.00" stroke-linecap="butt" stroke-linejoin="miter">
	<g stroke='none' shape-rendering='crispEdges'>
		<polygon fill = 'rgb(227,  26,  28)' fill-opacity = '0.500000' points = '135.4,242.4 135.9,242.4 136.5,242.4 137.1,242.4 137.6,242.3 138.2,242.3 138.8,242.3 139.3,242.3 139.9,242.3 140.5,242.3 141.1,242.3 141.6,242.3 142.2,242.3 142.8,242.3 143.3,242.3 143.9,242.3
144.5,242.3 145.0,242.3 145.6,242.2 146.2,242.2 146.7,242.2 147.3,242.2 147.9,242.2 148.4,242.2 149.0,242.2 149.6,242.1 150.2,242.1 150.7,242.1 151.3,242.1 151.9,242.1 152.4,242.0 153.0,242.0
153.6,242.0 154.1,241.9 154.7,241.9 155.3,241.9 155.8,241.9 156.4,241.8 157.0,241.8 157.5,241.8 158.1,241.7 158.7,241.7 159.3,241.6 159.8,241.6 160.4,241.5 161.0,241.5 161.5,241.4 162.1,241.4
162.7,241.3 163.2,241.3 163.8,241.2 164.4,241.2 164.9,241.1 165.5,241.0 166.1,241.0 166.6,240.9 167.2,240.8 167.8,240.8 168.4,240.7 168.9,240.6 169.5,240.5 170.1,240.5 170.6,240.4 171.2,240.3
171.8,240.2 172.3,240.1 172.9,240.1 173.5,240.0 174.0,239.9 174.6,239.8 175.2,239.7 175.7,239.6 176.3,239.5 176.9,239.4 177.4,239.3 178.0,239.2 178.6,239.1 179.2,239.0 179.7,238.9 180.3,238.8
180.9,238.7 181.4,238.6 182.0,238.5 182.6,238.4 183.1,238.3 183.7,238.2 184.3,238.1 184.8,238.0 185.4,238.0 186.0,237.9 186.5,237.8 187.1,237.7 187.7,237.6 188.3,237.5 188.8,237.4 189.4,237.3
190.0,237.3 190.5,237.2 191.1,237.1 191.7,237.0 192.2,237.0 192.8,236.9 193.4,236.8 193.9,236.8 194.5,236.7 195.1,236.7 195.6,236.6 196.2,236.6 196.8,236.5 197.4,236.5 197.9,236.4 198.5,236.4
199.1,236.4 199.6,236.3 200.2,236.3 200.8,236.3 201.3,236.3 201.9,236.3 202.5,236.2 203.0,236.2 203.6,236.2 204.2,236.2 204.7,236.2 205.3,236.2 205.9,236.2 206.5,236.3 207.0,236.3 207.6,236.3
208.2,236.3 208.7,236.3 209.3,236.4 209.9,236.4 210.4,236.4 211.0,236.5 211.6,236.5 212.1,236.5 212.7,236.6 213.3,236.6 213.8,236.7 214.4,236.7 215.0,236.8 215.5,236.8 216.1,236.9 216.7,236.9
217.3,237.0 217.8,237.0 218.4,237.1 219.0,237.2 219.5,237.2 220.1,237.3 220.7,237.3 221.2,237.4 221.8,237.5 222.4,237.5 222.9,237.6 223.5,237.7 224.1,237.7 224.6,237.8 225.2,237.8 225.8,237.9
226.4,238.0 226.9,238.0 227.5,238.1 228.1,238.1 228.6,238.2 229.2,238.2 229.8,238.3 230.3,238.4 230.9,238.4 231.5,238.5 232.0,238.5 232.6,238.6 233.2,238.6 233.7,238.7 234.3,238.7 234.9,238.8
235.5,238.8 236.0,238.9 236.6,238.9 237.2,238.9 237.7,239.0 238.3,239.0 238.9,239.0 239.4,239.1 240.0,239.1 240.6,239.1 241.1,239.2 241.7,239.2 242.3,239.2 242.8,239.3 243.4,239.3 244.0,239.3
244.5,239.3 245.1,239.3 245.7,239.4 246.3,239.4 246.8,239.4 247.4,239.4 248.0,239.4 248.5,239.4 249.1,239.4 249.7,239.4 250.2,239.4 250.8,239.4 251.4,239.4 251.9,239.4 252.5,239.4 253.1,239.4
253.6,239.4 254.2,239.4 254.8,239.3 255.4,239.3 255.9,239.3 256.5,239.3 257.1,239.2 257.6,239.2 258.2,239.2 258.8,239.1 259.3,239.1 259.9,239.0 260.5,239.0 261.0,238.9 261.6,238.9 262.2,238.8
262.7,238.8 263.3,238.7 263.9,238.6 264.5,238.5 265.0,238.4 265.6,238.4 266.2,238.3 266.7,238.2 267.3,238.1 267.9,238.0 268.4,237.8 269.0,237.7 269.6,237.6 270.1,237.5 270.7,237.3 271.3,237.2
271.8,237.0 272.4,236.9 273.0,236.7 273.6,236.5 274.1,236.3 274.7,236.2 275.3,236.0 275.8,235.8 276.4,235.6 277.0,235.4 277.5,235.1 278.1,234.9 278.7,234.7 279.2,234.5 279.8,234.2 280.4,234.0
280.9,233.7 281.5,233.4 282.1,233.2 282.6,232.9 283.2,232.6 283.8,232.4 284.4,232.1 284.9,231.8 285.5,231.5 286.1,231.2 286.6,230.9 287.2,230.6 287.8,230.3 288.3,230.0 288.9,229.7 289.5,229.4
290.0,229.1 290.6,228.8 291.2,228.4 291.7,228.1 292.3,227.8 292.9,227.5 293.5,227.2 294.0,226.9 294.6,226.6 295.2,226.3 295.7,226.1 296.3,225.8 296.9,225.5 297.4,225.2 298.0,225.0 298.6,224.7
299.1,224.5 299.7,224.2 300.3,224.0 300.8,223.8 301.4,223.6 302.0,223.4 302.6,223.2 303.1,223.0 303.7,222.9 304.3,222.7 304.8,222.6 305.4,222.4 306.0,222.3 306.5,222.2 307.1,222.1 307.7,222.0
308.2,222.0 308.8,221.9 309.4,221.9 309.9,221.8 310.5,221.8 311.1,221.8 311.7,221.8 312.2,221.9 312.8,221.9 313.4,222.0 313.9,222.0 314.5,222.1 315.1,222.2 315.6,222.3 316.2,222.4 316.8,222.6
317.3,222.7 317.9,222.9 318.5,223.0 319.0,223.2 319.6,223.4 320.2,223.6 320.7,223.8 321.3,224.0 321.9,224.2 322.5,224.4 323.0,224.7 323.6,224.9 324.2,225.2 324.7,225.4 325.3,225.7 325.9,225.9
326.4,226.2 327.0,226.5 327.6,226.8 328.1,227.0 328.7,227.3 329.3,227.6 329.8,227.9 330.4,228.2 331.0,228.5 331.6,228.8 332.1,229.1 332.7,229.4 333.3,229.7 333.8,230.0 334.4,230.3 335.0,230.5
335.5,230.8 336.1,231.1 336.7,231.4 337.2,231.7 337.8,232.0 338.4,232.2 338.9,232.5 339.5,232.8 340.1,233.0 340.7,233.3 341.2,233.6 341.8,233.8 342.4,234.1 342.9,234.3 343.5,234.5 344.1,234.8
344.6,235.0 345.2,235.2 345.8,235.5 346.3,235.7 346.9,235.9 347.5,236.1 348.0,236.3 348.6,236.5 349.2,236.7 349.8,236.9 350.3,237.0 350.9,237.2 351.5,237.4 352.0,237.6 352.6,237.7 353.2,237.9
353.7,238.0 354.3,238.2 354.9,238.3 355.4,238.5 356.0,238.6 356.6,238.8 357.1,238.9 357.7,239.0 358.3,239.1 358.8,239.3 359.4,239.4 360.0,239.5 360.6,239.6 361.1,239.7 361.7,239.8 362.3,239.9
362.8,240.0 363.4,240.1 364.0,240.2 364.5,240.3 365.1,240.3 365.7,240.4 366.2,240.5 366.8,240.6 367.4,240.6 367.9,240.7 368.5,240.8 369.1,240.8 369.7,240.9 370.2,241.0 370.8,241.0 371.4,241.1
371.9,241.1 372.5,241.2 373.1,241.2 373.6,241.3 374.2,241.3 374.8,241.4 375.3,241.4 375.9,241.5 376.5,241.5 377.0,241.6 377.6,241.6 378.2,241.6 378.8,241.7 379.3,241.7 379.9,241.7 380.5,241.8
381.0,241.8 381.6,241.8 382.2,241.8 382.7,241.9 383.3,241.9 383.9,241.9 384.4,241.9 385.0,242.0 385.6,242.0 386.1,242.0 386.7,242.0 387.3,242.1 387.8,242.1 388.4,242.1 389.0,242.1 389.6,242.1
390.1,242.1 390.7,242.1 391.3,242.2 391.8,242.2 392.4,242.2 393.0,242.2 393.5,242.2 394.1,242.2 394.7,242.2 395.2,242.2 395.8,242.3 396.4,242.3 396.9,242.3 397.5,242.3 398.1,242.3 398.7,242.3
399.2,242.3 399.8,242.3 400.4,242.3 400.9,242.3 401.5,242.3 402.1,242.3 402.6,242.3 403.2,242.3 403.8,242.3 404.3,242.3 404.9,242.3 405.5,242.4 406.0,242.4 406.6,242.4 407.2,242.4 407.8,242.4
408.3,242.4 408.9,242.4 409.5,242.4 410.0,242.4 410.6,242.4 411.2,242.4 411.7,242.4 412.3,242.4 412.9,242.4 413.4,242.4 414.0,242.4 414.6,242.4 415.1,242.4 415.7,242.4 416.3,242.4 416.9,242.4
417.4,242.4 418.0,242.4 418.6,242.4 419.1,242.4 419.1,242.4 418.6,242.4 418.0,242.4 417.4,242.4 416.9,242.4 416.3,242.4 415.7,242.4 415.1,242.4 414.6,242.4 414.0,242.4 413.4,242.4 412.9,242.4
412.3,242.4 411.7,242.4 411.2,242.4 410.6,242.4 410.0,242.4 409.5,242.4 408.9,242.4 408.3,242.4 407.8,242.4 407.2,242.4 406.6,242.4 406.0,242.4 405.5,242.4 404.9,242.4 404.3,242.4 403.8,242.4
403.2,242.4 402.6,242.4 402.1,242.4 401.5,242.4 400.9,242.4 400.4,242.4 399.8,242.4 399.2,242.4 398.7,242.4 398.1,242.4 397.5,242.4 396.9,242.4 396.4,242.4 395.8,242.4 395.2,242.4 394.7,242.4
394.1,242.4 393.5,242.4 393.0,242.4 392.4,242.4 391.8,242.4 391.3,242.4 390.7,242.4 390.1,242.4 389.6,242.4 389.0,242.4 388.4,242.4 387.8,242.4 387.3,242.4 386.7,242.4 386.1,242.4 385.6,242.4
385.0,242.4 384.4,242.4 383.9,242.4 383.3,242.4 382.7,242.4 382.2,242.4 381.6,242.4 381.0,242.4 380.5,242.4 379.9,242.4 379.3,242.4 378.8,242.4 378.2,242.4 377.6,242.4 377.0,242.4 376.5,242.4
375.9,242.4 375.3,242.4 374.8,242.4 374.2,242.4 373.6,242.4 373.1,242.4 372.5,242.4 371.9,242.4 371.4,242.4 370.8,242.4 370.2,242.4 369.7,242.4 369.1,242.4 368.5,242.4 367.9,242.4 367.4,242.4
366.8,242.4 366.2,242.4 365.7,242.4 365.1,242.4 364.5,242.4 364.0,242.4 363.4,242.4 362.8,242.4 362.3,242.4 361.7,242.4 361.1,242.4 360.6,242.4 360.0,242.4 359.4,242.4 358.8,242.4 358.3,242.4
357.7,242.4 357.1,242.4 356.6,242.4 356.0,242.4 355.4,242.4 354.9,242.4 354.3,242.4 353.7,242.4 353.2,242.4 352.6,242.4 352.0,242.4 351.5,242.4 350.9,242.4 350.3,242.4 349.8,242.4 349.2,242.4
348.6,242.4 348.0,242.4 347.5,242.4 346.9,242.4 346.3,242.4 345.8,242.4 345.2,242.4 344.6,242.4 344.1,242.4 343.5,242.4 342.9,242.4 342.4,242.4 341.8,242.4 341.2,242.4 340.7,242.4 340.1,242.4
339.5,242.4 338.9,242.4 338.4,242.4 337.8,242.4 337.2,242.4 336.7,242.4 336.1,242.4 335.5,242.4 335.0,242.4 334.4,242.4 333.8,242.4 333.3,242.4 332.7,242.4 332.1,242.4 331.6,242.4 331.0,242.4
330.4,242.4 329.8,242.4 329.3,242.4 328.7,242.4 328.1,242.4 327.6,242.4 327.0,242.4 326.4,242.4 325.9,242.4 325.3,242.4 324.7,242.4 324.2,242.4 323.6,242.4 323.0,242.4 322.5,242.4 321.9,242.4
321.3,242.4 320.7,242.4 320.2,242.4 319.6,242.4 319.0,242.4 318.5,242.4 317.9,242.4 317.3,242.4 316.8,242.4 316.2,242.4 315.6,242.4 315.1,242.4 314.5,242.4 313.9,242.4 313.4,242.4 312.8,242.4
312.2,242.4 311.7,242.4 311.1,242.4 310.5,242.4 309.9,242.4 309.4,242.4 308.8,242.4 308.2,242.4 307.7,242.4 307.1,242.4 306.5,242.4 306.0,242.4 305.4,242.4 304.8,242.4 304.3,242.4 303.7,242.4
303.1,242.4 302.6,242.4 302.0,242.4 301.4,242.4 300.8,242.4 300.3,242.4 299.7,242.4 299.1,242.4 298.6,242.4 298.0,242.4 297.4,242.4 296.9,242.4 296.3,242.4 295.7,242.4 295.2,242.4 294.6,242.4
294.0,242.4 293.5,242.4 292.9,242.4 292.3,242.4 291.7,242.4 291.2,242.4 290.6,242.4 290.0,242.4 289.5,242.4 288.9,242.4 288.3,242.4 287.8,242.4 287.2,242.4 286.6,242.4 286.1,242.4 285.5,242.4
284.9,242.4 284.4,242.4 283.8,242.4 283.2,242.4 282.6,242.4 282.1,242.4 281.5,242.4 280.9,242.4 280.4,242.4 279.8,242.4 279.2,242.4 278.7,242.4 278.1,242.4 277.5,242.4 277.0,242.4 276.4,242.4
275.8,242.4 275.3,242.4 274.7,242.4 274.1,242.4 273.6,242.4 273.0,242.4 272.4,242.4 271.8,242.4 271.3,242.4 270.7,242.4 270.1,242.4 269.6,242.4 269.0,242.4 268.4,242.4 267.9,242.4 267.3,242.4
266.7,242.4 266.2,242.4 265.6,242.4 265.0,242.4 264.5,242.4 263.9,242.4 263.3,242.4 262.7,242.4 262.2,242.4 261.6,242.4 261.0,242.4 260.5,242.4 259.9,242.4 259.3,242.4 258.8,242.4 258.2,242.4
257.6,242.4 257.1,242.4 256.5,242.4 255.9,242.4 255.4,242.4 254.8,242.4 254.2,242.4 253.6,242.4 253.1,242.4 252.5,242.4 251.9,242.4 251.4,242.4 250.8,242.4 250.2,242.4 249.7,242.4 249.1,242.4
248.5,242.4 248.0,242.4 247.4,242.4 246.8,242.4 246.3,242.4 245.7,242.4 245.1,242.4 244.5,242.4 244.0,242.4 243.4,242.4 242.8,242.4 242.3,242.4 241.7,242.4 241.1,242.4 240.6,242.4 240.0,242.4
239.4,242.4 238.9,242.4 238.3,242.4 237.7,242.4 237.2,242.4 236.6,242.4 236.0,242.4 235.5,242.4 234.9,242.4 234.3,242.4 233.7,242.4 233.2,242.4 232.6,242.4 232.0,242.4 231.5,242.4 230.9,242.4
230.3,242.4 229.8,242.4 229.2,242.4 228.6,242.4 228.1,242.4 227.5,242.4 226.9,242.4 226.4,242.4 225.8,242.4 225.2,242.4 224.6,242.4 224.1,242.4 223.5,242.4 222.9,242.4 222.4,242.4 221.8,242.4
221.2,242.4 220.7,242.4 220.1,242.4 219.5,242.4 219.0,242.4 218.4,242.4 217.8,242.4 217.3,242.4 216.7,242.4 216.1,242.4 215.5,242.4 215.0,242.4 214.4,242.4 213.8,242.4 213.3,242.4 212.7,242.4
212.1,242.4 211.6,242.4 211.0,242.4 210.4,242.4 209.9,242.4 209.3,242.4 208.7,242.4 208.2,242.4 207.6,242.4 207.0,242.4 206.5,242.4 205.9,242.4 205.3,242.4 204.7,242.4 204.2,242.4 203.6,242.4
203.0,242.4 202.5,242.4 201.9,242.4 201.3,242.4 200.8,242.4 200.2,242.4 199.6,242.4 199.1,242.4 198.5,242.4 197.9,242.4 197.4,242.4 196.8,242.4 196.2,242.4 195.6,242.4 195.1,242.4 194.5,242.4
193.9,242.4 193.4,242.4 192.8,242.4 192.2,242.4 191.7,242.4 191.1,242.4 190.5,242.4 190.0,242.4 189.4,242.4 188.8,242.4 188.3,242.4 187.7,242.4 187.1,242.4 186.5,242.4 186.0,242.4 185.4,242.4
184.8,242.4 184.3,242.4 183.7,242.4 183.1,242.4 182.6,242.4 182.0,242.4 181.4,242.4 180.9,242.4 180.3,242.4 179.7,242.4 179.2,242.4 178.6,242.4 178.0,242.4 177.4,242.4 176.9,242.4 176.3,242.4
175.7,242.4 175.2,242.4 174.6,242.4 174.0,242.4 173.5,242.4 172.9,242.4 172.3,242.4 171.8,242.4 171.2,242.4 170.6,242.4 170.1,242.4 169.5,242.4 168.9,242.4 168.4,242.4 167.8,242.4 167.2,242.4
166.6,242.4 166.1,242.4 165.5,242.4 164.9,242.4 164.4,242.4 163.8,242.4 163.2,242.4 162.7,242.4 162.1,242.4 161.5,242.4 161.0,242.4 160.4,242.4 159.8,242.4 159.3,242.4 158.7,242.4 158.1,242.4
157.5,242.4 157.0,242.4 156.4,242.4 155.8,242.4 155.3,242.4 154.7,242.4 154.1,242.4 153.6,242.4 153.0,242.4 152.4,242.4 151.9,242.4 151.3,242.4 150.7,242.4 150.2,242.4 149.6,242.4 149.0,242.4
148.4,242.4 147.9,242.4 147.3,242.4 146.7,242.4 146.2,242.4 145.6,242.4 145.0,242.4 144.5,242.4 143.9,242.4 143.3,242.4 142.8,242.4 142.2,242.4 141.6,242.4 141.1,242.4 140.5,242.4 139.9,242.4
139.3,242.4 138.8,242.4 138.2,242.4 137.6,242.4 137.1,242.4 136.5,242.4 135.9,242.4 135.4,242.4 '/>
	</g>
</g>
	</g>
	<g id="gnuplot_plot_2" ><title>Base Mean</title>
<g fill="none" color="white" stroke="rgb(227,  26,  28)" stroke-width="2.00" stroke-linecap="butt" stroke-linejoin="miter">
</g>
<g fill="none" color="black" stroke="currentColor" stroke-width="2.00" stroke-linecap="butt" stroke-linejoin="miter">
	<path stroke='rgb(227,  26,  28)'  d='M286.7,242.4 L286.7,230.9  '/></g>
	</g>
	<g id="gnuplot_plot_3" ><title>New PDF</title>
<g fill="none" color="white" stroke="rgb(227,  26,  28)" stroke-width="1.00" stroke-linecap="butt" stroke-linejoin="miter">
</g>
<g fill="none" color="black" stroke="currentColor" stroke-width="1.00" stroke-linecap="butt" stroke-linejoin="miter">
	<g stroke='none' shape-rendering='crispEdges'>
		<polygon fill = 'rgb( 31, 120, 180)' fill-opacity = '0.500000' points = '104.9,242.1 105.0,242.0 105.1,242.0 105.2,241.9 105.3,241.8 105.4,241.7 105.5,241.6 105.6,241.5 105.7,241.4 105.8,241.3 105.9,241.1 106.0,240.9 106.1,240.8 106.2,240.5 106.3,240.3 106.4,240.1
106.5,239.8 106.6,239.4 106.7,239.1 106.9,238.7 107.0,238.3 107.1,237.8 107.2,237.3 107.3,236.7 107.4,236.1 107.5,235.4 107.6,234.6 107.7,233.8 107.8,232.9 107.9,232.0 108.0,230.9 108.1,229.8
108.2,228.6 108.3,227.3 108.4,225.9 108.5,224.4 108.6,222.8 108.7,221.0 108.8,219.2 108.9,217.2 109.0,215.1 109.1,212.9 109.2,210.6 109.4,208.1 109.5,205.5 109.6,202.7 109.7,199.9 109.8,196.8
109.9,193.7 110.0,190.3 110.1,186.9 110.2,183.3 110.3,179.6 110.4,175.7 110.5,171.7 110.6,167.6 110.7,163.4 110.8,159.0 110.9,154.6 111.0,150.1 111.1,145.4 111.2,140.7 111.3,136.0 111.4,131.1
111.5,126.3 111.6,121.4 111.7,116.5 111.9,111.6 112.0,106.7 112.1,101.8 112.2,97.0 112.3,92.3 112.4,87.6 112.5,83.0 112.6,78.6 112.7,74.3 112.8,70.1 112.9,66.0 113.0,62.2 113.1,58.5
113.2,55.1 113.3,51.9 113.4,48.9 113.5,46.1 113.6,43.6 113.7,41.4 113.8,39.4 113.9,37.8 114.0,36.4 114.1,35.3 114.2,34.5 114.4,34.0 114.5,33.8 114.6,33.9 114.7,34.3 114.8,35.0
114.9,36.0 115.0,37.3 115.1,38.8 115.2,40.7 115.3,42.8 115.4,45.1 115.5,47.7 115.6,50.5 115.7,53.5 115.8,56.7 115.9,60.1 116.0,63.6 116.1,67.3 116.2,71.2 116.3,75.2 116.4,79.3
116.5,83.5 116.6,87.7 116.7,92.0 116.9,96.4 117.0,100.8 117.1,105.2 117.2,109.6 117.3,114.0 117.4,118.4 117.5,122.8 117.6,127.1 117.7,131.3 117.8,135.5 117.9,139.6 118.0,143.6 118.1,147.6
118.2,151.4 118.3,155.2 118.4,158.8 118.5,162.3 118.6,165.7 118.7,169.0 118.8,172.2 118.9,175.2 119.0,178.2 119.1,181.0 119.2,183.7 119.4,186.3 119.5,188.7 119.6,191.1 119.7,193.3 119.8,195.4
119.9,197.4 120.0,199.4 120.1,201.2 120.2,202.9 120.3,204.5 120.4,206.1 120.5,207.5 120.6,208.9 120.7,210.2 120.8,211.5 120.9,212.6 121.0,213.7 121.1,214.7 121.2,215.7 121.3,216.6 121.4,217.5
121.5,218.4 121.6,219.1 121.7,219.9 121.9,220.6 122.0,221.3 122.1,221.9 122.2,222.5 122.3,223.1 122.4,223.6 122.5,224.2 122.6,224.7 122.7,225.2 122.8,225.6 122.9,226.1 123.0,226.5 123.1,226.9
123.2,227.3 123.3,227.7 123.4,228.1 123.5,228.5 123.6,228.8 123.7,229.2 123.8,229.5 123.9,229.8 124.0,230.2 124.1,230.5 124.2,230.8 124.4,231.1 124.5,231.4 124.6,231.7 124.7,231.9 124.8,232.2
124.9,232.5 125.0,232.8 125.1,233.0 125.2,233.3 125.3,233.5 125.4,233.8 125.5,234.0 125.6,234.2 125.7,234.5 125.8,234.7 125.9,234.9 126.0,235.1 126.1,235.3 126.2,235.5 126.3,235.8 126.4,236.0
126.5,236.2 126.6,236.3 126.7,236.5 126.9,236.7 127.0,236.9 127.1,237.1 127.2,237.3 127.3,237.4 127.4,237.6 127.5,237.8 127.6,237.9 127.7,238.1 127.8,238.2 127.9,238.4 128.0,238.5 128.1,238.7
128.2,238.8 128.3,238.9 128.4,239.0 128.5,239.2 128.6,239.3 128.7,239.4 128.8,239.5 128.9,239.6 129.0,239.7 129.1,239.8 129.2,239.9 129.4,239.9 129.5,240.0 129.6,240.1 129.7,240.1 129.8,240.2
129.9,240.3 130.0,240.3 130.1,240.3 130.2,240.4 130.3,240.4 130.4,240.4 130.5,240.5 130.6,240.5 130.7,240.5 130.8,240.5 130.9,240.5 131.0,240.5 131.1,240.5 131.2,240.5 131.3,240.4 131.4,240.4
131.5,240.4 131.6,240.4 131.7,240.3 131.9,240.3 132.0,240.3 132.1,240.2 132.2,240.2 132.3,240.2 132.4,240.1 132.5,240.1 132.6,240.0 132.7,240.0 132.8,240.0 132.9,239.9 133.0,239.9 133.1,239.8
133.2,239.8 133.3,239.8 133.4,239.7 133.5,239.7 133.6,239.7 133.7,239.6 133.8,239.6 133.9,239.6 134.0,239.5 134.1,239.5 134.2,239.5 134.4,239.5 134.5,239.5 134.6,239.5 134.7,239.4 134.8,239.4
134.9,239.4 135.0,239.4 135.1,239.4 135.2,239.4 135.3,239.4 135.4,239.4 135.5,239.4 135.6,239.4 135.7,239.4 135.8,239.4 135.9,239.4 136.0,239.4 136.1,239.4 136.2,239.4 136.3,239.4 136.4,239.4
136.5,239.4 136.6,239.4 136.7,239.4 136.9,239.4 137.0,239.4 137.1,239.4 137.2,239.4 137.3,239.4 137.4,239.4 137.5,239.4 137.6,239.4 137.7,239.4 137.8,239.4 137.9,239.4 138.0,239.4 138.1,239.4
138.2,239.4 138.3,239.4 138.4,239.4 138.5,239.4 138.6,239.4 138.7,239.4 138.8,239.4 138.9,239.5 139.0,239.5 139.1,239.5 139.2,239.5 139.4,239.5 139.5,239.5 139.6,239.6 139.7,239.6 139.8,239.6
139.9,239.7 140.0,239.7 140.1,239.7 140.2,239.8 140.3,239.8 140.4,239.8 140.5,239.9 140.6,239.9 140.7,240.0 140.8,240.0 140.9,240.1 141.0,240.1 141.1,240.2 141.2,240.2 141.3,240.3 141.4,240.3
141.5,240.4 141.6,240.4 141.7,240.4 141.9,240.5 142.0,240.5 142.1,240.6 142.2,240.6 142.3,240.6 142.4,240.7 142.5,240.7 142.6,240.7 142.7,240.7 142.8,240.7 142.9,240.7 143.0,240.7 143.1,240.7
143.2,240.7 143.3,240.7 143.4,240.7 143.5,240.7 143.6,240.7 143.7,240.6 143.8,240.6 143.9,240.5 144.0,240.5 144.1,240.4 144.2,240.4 144.4,240.3 144.5,240.3 144.6,240.2 144.7,240.1 144.8,240.1
144.9,240.0 145.0,239.9 145.1,239.8 145.2,239.7 145.3,239.6 145.4,239.5 145.5,239.4 145.6,239.3 145.7,239.2 145.8,239.1 145.9,239.0 146.0,238.9 146.1,238.9 146.2,238.8 146.3,238.7 146.4,238.6
146.5,238.5 146.6,238.4 146.7,238.3 146.8,238.2 147.0,238.2 147.1,238.1 147.2,238.0 147.3,238.0 147.4,237.9 147.5,237.8 147.6,237.8 147.7,237.8 147.8,237.7 147.9,237.7 148.0,237.7 148.1,237.7
148.2,237.7 148.3,237.7 148.4,237.7 148.5,237.7 148.6,237.7 148.7,237.7 148.8,237.8 148.9,237.8 149.0,237.8 149.1,237.9 149.2,238.0 149.3,238.0 149.5,238.1 149.6,238.2 149.7,238.2 149.8,238.3
149.9,238.4 150.0,238.5 150.1,238.6 150.2,238.7 150.3,238.8 150.4,238.9 150.5,239.0 150.6,239.1 150.7,239.2 150.8,239.3 150.9,239.4 151.0,239.5 151.1,239.6 151.2,239.8 151.3,239.9 151.4,240.0
151.5,240.1 151.6,240.2 151.7,240.3 151.8,240.4 152.0,240.5 152.1,240.6 152.2,240.7 152.3,240.8 152.4,240.9 152.5,241.0 152.6,241.0 152.7,241.1 152.8,241.2 152.9,241.3 153.0,241.3 153.1,241.4
153.2,241.5 153.3,241.5 153.4,241.6 153.5,241.7 153.6,241.7 153.7,241.8 153.8,241.8 153.9,241.9 154.0,241.9 154.1,241.9 154.2,242.0 154.3,242.0 154.5,242.0 154.6,242.1 154.7,242.1 154.8,242.1
154.9,242.2 155.0,242.2 155.1,242.2 155.2,242.2 155.3,242.2 155.4,242.2 155.5,242.3 155.6,242.3 155.7,242.3 155.8,242.3 155.9,242.3 156.0,242.3 156.1,242.3 156.2,242.3 156.3,242.3 156.4,242.4
156.5,242.4 156.6,242.4 156.7,242.4 156.8,242.4 156.8,242.4 156.7,242.4 156.6,242.4 156.5,242.4 156.4,242.4 156.3,242.4 156.2,242.4 156.1,242.4 156.0,242.4 155.9,242.4 155.8,242.4 155.7,242.4
155.6,242.4 155.5,242.4 155.4,242.4 155.3,242.4 155.2,242.4 155.1,242.4 155.0,242.4 154.9,242.4 154.8,242.4 154.7,242.4 154.6,242.4 154.5,242.4 154.3,242.4 154.2,242.4 154.1,242.4 154.0,242.4
153.9,242.4 153.8,242.4 153.7,242.4 153.6,242.4 153.5,242.4 153.4,242.4 153.3,242.4 153.2,242.4 153.1,242.4 153.0,242.4 152.9,242.4 152.8,242.4 152.7,242.4 152.6,242.4 152.5,242.4 152.4,242.4
152.3,242.4 152.2,242.4 152.1,242.4 152.0,242.4 151.8,242.4 151.7,242.4 151.6,242.4 151.5,242.4 151.4,242.4 151.3,242.4 151.2,242.4 151.1,242.4 151.0,242.4 150.9,242.4 150.8,242.4 150.7,242.4
150.6,242.4 150.5,242.4 150.4,242.4 150.3,242.4 150.2,242.4 150.1,242.4 150.0,242.4 149.9,242.4 149.8,242.4 149.7,242.4 149.6,242.4 149.5,242.4 149.3,242.4 149.2,242.4 149.1,242.4 149.0,242.4
148.9,242.4 148.8,242.4 148.7,242.4 148.6,242.4 148.5,242.4 148.4,242.4 148.3,242.4 148.2,242.4 148.1,242.4 148.0,242.4 147.9,242.4 147.8,242.4 147.7,242.4 147.6,242.4 147.5,242.4 147.4,242.4
147.3,242.4 147.2,242.4 147.1,242.4 147.0,242.4 146.8,242.4 146.7,242.4 146.6,242.4 146.5,242.4 146.4,242.4 146.3,242.4 146.2,242.4 146.1,242.4 146.0,242.4 145.9,242.4 145.8,242.4 145.7,242.4
145.6,242.4 145.5,242.4 145.4,242.4 145.3,242.4 145.2,242.4 145.1,242.4 145.0,242.4 144.9,242.4 144.8,242.4 144.7,242.4 144.6,242.4 144.5,242.4 144.4,242.4 144.2,242.4 144.1,242.4 144.0,242.4
143.9,242.4 143.8,242.4 143.7,242.4 143.6,242.4 143.5,242.4 143.4,242.4 143.3,242.4 143.2,242.4 143.1,242.4 143.0,242.4 142.9,242.4 142.8,242.4 142.7,242.4 142.6,242.4 142.5,242.4 142.4,242.4
142.3,242.4 142.2,242.4 142.1,242.4 142.0,242.4 141.9,242.4 141.7,242.4 141.6,242.4 141.5,242.4 141.4,242.4 141.3,242.4 141.2,242.4 141.1,242.4 141.0,242.4 140.9,242.4 140.8,242.4 140.7,242.4
140.6,242.4 140.5,242.4 140.4,242.4 140.3,242.4 140.2,242.4 140.1,242.4 140.0,242.4 139.9,242.4 139.8,242.4 139.7,242.4 139.6,242.4 139.5,242.4 139.4,242.4 139.2,242.4 139.1,242.4 139.0,242.4
138.9,242.4 138.8,242.4 138.7,242.4 138.6,242.4 138.5,242.4 138.4,242.4 138.3,242.4 138.2,242.4 138.1,242.4 138.0,242.4 137.9,242.4 137.8,242.4 137.7,242.4 137.6,242.4 137.5,242.4 137.4,242.4
137.3,242.4 137.2,242.4 137.1,242.4 137.0,242.4 136.9,242.4 136.7,242.4 136.6,242.4 136.5,242.4 136.4,242.4 136.3,242.4 136.2,242.4 136.1,242.4 136.0,242.4 135.9,242.4 135.8,242.4 135.7,242.4
135.6,242.4 135.5,242.4 135.4,242.4 135.3,242.4 135.2,242.4 135.1,242.4 135.0,242.4 134.9,242.4 134.8,242.4 134.7,242.4 134.6,242.4 134.5,242.4 134.4,242.4 134.2,242.4 134.1,242.4 134.0,242.4
133.9,242.4 133.8,242.4 133.7,242.4 133.6,242.4 133.5,242.4 133.4,242.4 133.3,242.4 133.2,242.4 133.1,242.4 133.0,242.4 132.9,242.4 132.8,242.4 132.7,242.4 132.6,242.4 132.5,242.4 132.4,242.4
132.3,242.4 132.2,242.4 132.1,242.4 132.0,242.4 131.9,242.4 131.7,242.4 131.6,242.4 131.5,242.4 131.4,242.4 131.3,242.4 131.2,242.4 131.1,242.4 131.0,242.4 130.9,242.4 130.8,242.4 130.7,242.4
130.6,242.4 130.5,242.4 130.4,242.4 130.3,242.4 130.2,242.4 130.1,242.4 130.0,242.4 129.9,242.4 129.8,242.4 129.7,242.4 129.6,242.4 129.5,242.4 129.4,242.4 129.2,242.4 129.1,242.4 129.0,242.4
128.9,242.4 128.8,242.4 128.7,242.4 128.6,242.4 128.5,242.4 128.4,242.4 128.3,242.4 128.2,242.4 128.1,242.4 128.0,242.4 127.9,242.4 127.8,242.4 127.7,242.4 127.6,242.4 127.5,242.4 127.4,242.4
127.3,242.4 127.2,242.4 127.1,242.4 127.0,242.4 126.9,242.4 126.7,242.4 126.6,242.4 126.5,242.4 126.4,242.4 126.3,242.4 126.2,242.4 126.1,242.4 126.0,242.4 125.9,242.4 125.8,242.4 125.7,242.4
125.6,242.4 125.5,242.4 125.4,242.4 125.3,242.4 125.2,242.4 125.1,242.4 125.0,242.4 124.9,242.4 124.8,242.4 124.7,242.4 124.6,242.4 124.5,242.4 124.4,242.4 124.2,242.4 124.1,242.4 124.0,242.4
123.9,242.4 123.8,242.4 123.7,242.4 123.6,242.4 123.5,242.4 123.4,242.4 123.3,242.4 123.2,242.4 123.1,242.4 123.0,242.4 122.9,242.4 122.8,242.4 122.7,242.4 122.6,242.4 122.5,242.4 122.4,242.4
122.3,242.4 122.2,242.4 122.1,242.4 122.0,242.4 121.9,242.4 121.7,242.4 121.6,242.4 121.5,242.4 121.4,242.4 121.3,242.4 121.2,242.4 121.1,242.4 121.0,242.4 120.9,242.4 120.8,242.4 120.7,242.4
120.6,242.4 120.5,242.4 120.4,242.4 120.3,242.4 120.2,242.4 120.1,242.4 120.0,242.4 119.9,242.4 119.8,242.4 119.7,242.4 119.6,242.4 119.5,242.4 119.4,242.4 119.2,242.4 119.1,242.4 119.0,242.4
118.9,242.4 118.8,242.4 118.7,242.4 118.6,242.4 118.5,242.4 118.4,242.4 118.3,242.4 118.2,242.4 118.1,242.4 118.0,242.4 117.9,242.4 117.8,242.4 117.7,242.4 117.6,242.4 117.5,242.4 117.4,242.4
117.3,242.4 117.2,242.4 117.1,242.4 117.0,242.4 116.9,242.4 116.7,242.4 116.6,242.4 116.5,242.4 116.4,242.4 116.3,242.4 116.2,242.4 116.1,242.4 116.0,242.4 115.9,242.4 115.8,242.4 115.7,242.4
115.6,242.4 115.5,242.4 115.4,242.4 115.3,242.4 115.2,242.4 115.1,242.4 115.0,242.4 114.9,242.4 114.8,242.4 114.7,242.4 114.6,242.4 114.5,242.4 114.4,242.4 114.2,242.4 114.1,242.4 114.0,242.4
113.9,242.4 113.8,242.4 113.7,242.4 113.6,242.4 113.5,242.4 113.4,242.4 113.3,242.4 113.2,242.4 113.1,242.4 113.0,242.4 112.9,242.4 112.8,242.4 112.7,242.4 112.6,242.4 112.5,242.4 112.4,242.4
112.3,242.4 112.2,242.4 112.1,242.4 112.0,242.4 111.9,242.4 111.7,242.4 111.6,242.4 111.5,242.4 111.4,242.4 111.3,242.4 111.2,242.4 111.1,242.4 111.0,242.4 110.9,242.4 110.8,242.4 110.7,242.4
110.6,242.4 110.5,242.4 110.4,242.4 110.3,242.4 110.2,242.4 110.1,242.4 110.0,242.4 109.9,242.4 109.8,242.4 109.7,242.4 109.6,242.4 109.5,242.4 109.4,242.4 109.2,242.4 109.1,242.4 109.0,242.4
108.9,242.4 108.8,242.4 108.7,242.4 108.6,242.4 108.5,242.4 108.4,242.4 108.3,242.4 108.2,242.4 108.1,242.4 108.0,242.4 107.9,242.4 107.8,242.4 107.7,242.4 107.6,242.4 107.5,242.4 107.4,242.4
107.3,242.4 107.2,242.4 107.1,242.4 107.0,242.4 106.9,242.4 106.7,242.4 106.6,242.4 106.5,242.4 106.4,242.4 106.3,242.4 106.2,242.4 106.1,242.4 106.0,242.4 105.9,242.4 105.8,242.4 105.7,242.4
105.6,242.4 105.5,242.4 105.4,242.4 105.3,242.4 105.2,242.4 105.1,242.4 105.0,242.4 104.9,242.4 '/>
	</g>
</g>
	</g>
	<g id="gnuplot_plot_4" ><title>New Mean</title>
<g fill="none" color="white" stroke="rgb( 31, 120, 180)" stroke-width="2.00" stroke-linecap="butt" stroke-linejoin="miter">
</g>
<g fill="none" color="black" stroke="currentColor" stroke-width="2.00" stroke-linecap="butt" stroke-linejoin="miter">
	<path stroke='rgb( 31, 120, 180)'  d='M116.3,242.4 L116.3,72.3  '/></g>
	</g>
<g fill="none" color="black" stroke="currentColor" stroke-width="2.00" stroke-linecap="butt" stroke-linejoin="miter">
</g>
<g fill="none" color="black" stroke="black" stroke-width="1.00" stroke-linecap="butt" stroke-linejoin="miter">
</g>
<g fill="none" color="black" stroke="currentColor" stroke-width="1.00" stroke-linecap="butt" stroke-linejoin="miter">
	<path stroke='black'  d='M71.9,18.1 L71.9,242.4 L425.0,242.4 L425.0,18.1 L71.9,18.1 Z  '/></g>
<g fill="none" color="black" stroke="currentColor" stroke-width="1.00" stroke-linecap="butt" stroke-linejoin="miter">
</g>
</g>
</svg>

