<?xml version="1.0" encoding="utf-8"  standalone="no"?>
<svg 
 viewBox="0 0 1280 720"
 xmlns="http://www.w3.org/2000/svg"
 xmlns:xlink="http://www.w3.org/1999/xlink"
>

<title>Gnuplot</title>
<desc>Produced by GNUPLOT 5.2 patchlevel 6 </desc>

<g id="gnuplot_canvas">

<rect x="0" y="0" width="1280" height="720" fill="none"/>
<defs>

	<circle id='gpDot' r='0.5' stroke-width='0.5' stroke='currentColor'/>
	<path id='gpPt0' stroke-width='0.222' stroke='currentColor' d='M-1,0 h2 M0,-1 v2'/>
	<path id='gpPt1' stroke-width='0.222' stroke='currentColor' d='M-1,-1 L1,1 M1,-1 L-1,1'/>
	<path id='gpPt2' stroke-width='0.222' stroke='currentColor' d='M-1,0 L1,0 M0,-1 L0,1 M-1,-1 L1,1 M-1,1 L1,-1'/>
	<rect id='gpPt3' stroke-width='0.222' stroke='currentColor' x='-1' y='-1' width='2' height='2'/>
	<rect id='gpPt4' stroke-width='0.222' stroke='currentColor' fill='currentColor' x='-1' y='-1' width='2' height='2'/>
	<circle id='gpPt5' stroke-width='0.222' stroke='currentColor' cx='0' cy='0' r='1'/>
	<use xlink:href='#gpPt5' id='gpPt6' fill='currentColor' stroke='none'/>
	<path id='gpPt7' stroke-width='0.222' stroke='currentColor' d='M0,-1.33 L-1.33,0.67 L1.33,0.67 z'/>
	<use xlink:href='#gpPt7' id='gpPt8' fill='currentColor' stroke='none'/>
	<use xlink:href='#gpPt7' id='gpPt9' stroke='currentColor' transform='rotate(180)'/>
	<use xlink:href='#gpPt9' id='gpPt10' fill='currentColor' stroke='none'/>
	<use xlink:href='#gpPt3' id='gpPt11' stroke='currentColor' transform='rotate(45)'/>
	<use xlink:href='#gpPt11' id='gpPt12' fill='currentColor' stroke='none'/>
	<path id='gpPt13' stroke-width='0.222' stroke='currentColor' d='M0,1.330 L1.265,0.411 L0.782,-1.067 L-0.782,-1.076 L-1.265,0.411 z'/>
	<use xlink:href='#gpPt13' id='gpPt14' fill='currentColor' stroke='none'/>
	<filter id='textbox' filterUnits='objectBoundingBox' x='0' y='0' height='1' width='1'>
	  <feFlood flood-color='white' flood-opacity='1' result='bgnd'/>
	  <feComposite in='SourceGraphic' in2='bgnd' operator='atop'/>
	</filter>
	<filter id='greybox' filterUnits='objectBoundingBox' x='0' y='0' height='1' width='1'>
	  <feFlood flood-color='lightgrey' flood-opacity='1' result='grey'/>
	  <feComposite in='SourceGraphic' in2='grey' operator='atop'/>
	</filter>
</defs>
<g fill="none" color="white" stroke="currentColor" stroke-width="1.00" stroke-linecap="butt" stroke-linejoin="miter">
</g>
<g fill="none" color="black" stroke="currentColor" stroke-width="1.00" stroke-linecap="butt" stroke-linejoin="miter">
	<path stroke='black'  d='M55.3,662.4 L64.3,662.4  '/>	<g transform="translate(47.0,666.3)" stroke="none" fill="black" font-family="Helvetica" font-size="12.00"  text-anchor="end">
		<text><tspan font-family="Helvetica" > 0</tspan></text>
	</g>
</g>
<g fill="none" color="black" stroke="currentColor" stroke-width="1.00" stroke-linecap="butt" stroke-linejoin="miter">
	<path stroke='black'  d='M55.3,561.0 L64.3,561.0  '/>	<g transform="translate(47.0,564.9)" stroke="none" fill="black" font-family="Helvetica" font-size="12.00"  text-anchor="end">
		<text><tspan font-family="Helvetica" > 1</tspan></text>
	</g>
</g>
<g fill="none" color="black" stroke="currentColor" stroke-width="1.00" stroke-linecap="butt" stroke-linejoin="miter">
	<path stroke='black'  d='M55.3,459.6 L64.3,459.6  '/>	<g transform="translate(47.0,463.5)" stroke="none" fill="black" font-family="Helvetica" font-size="12.00"  text-anchor="end">
		<text><tspan font-family="Helvetica" > 2</tspan></text>
	</g>
</g>
<g fill="none" color="black" stroke="currentColor" stroke-width="1.00" stroke-linecap="butt" stroke-linejoin="miter">
	<path stroke='black'  d='M55.3,358.2 L64.3,358.2  '/>	<g transform="translate(47.0,362.1)" stroke="none" fill="black" font-family="Helvetica" font-size="12.00"  text-anchor="end">
		<text><tspan font-family="Helvetica" > 3</tspan></text>
	</g>
</g>
<g fill="none" color="black" stroke="currentColor" stroke-width="1.00" stroke-linecap="butt" stroke-linejoin="miter">
	<path stroke='black'  d='M55.3,256.9 L64.3,256.9  '/>	<g transform="translate(47.0,260.8)" stroke="none" fill="black" font-family="Helvetica" font-size="12.00"  text-anchor="end">
		<text><tspan font-family="Helvetica" > 4</tspan></text>
	</g>
</g>
<g fill="none" color="black" stroke="currentColor" stroke-width="1.00" stroke-linecap="butt" stroke-linejoin="miter">
	<path stroke='black'  d='M55.3,155.5 L64.3,155.5  '/>	<g transform="translate(47.0,159.4)" stroke="none" fill="black" font-family="Helvetica" font-size="12.00"  text-anchor="end">
		<text><tspan font-family="Helvetica" > 5</tspan></text>
	</g>
</g>
<g fill="none" color="black" stroke="currentColor" stroke-width="1.00" stroke-linecap="butt" stroke-linejoin="miter">
	<path stroke='black'  d='M55.3,54.1 L64.3,54.1  '/>	<g transform="translate(47.0,58.0)" stroke="none" fill="black" font-family="Helvetica" font-size="12.00"  text-anchor="end">
		<text><tspan font-family="Helvetica" > 6</tspan></text>
	</g>
</g>
<g fill="none" color="black" stroke="currentColor" stroke-width="1.00" stroke-linecap="butt" stroke-linejoin="miter">
	<path stroke='black'  d='M108.4,662.4 L108.4,653.4  '/>	<g transform="translate(108.4,684.3)" stroke="none" fill="black" font-family="Helvetica" font-size="12.00"  text-anchor="middle">
		<text><tspan font-family="Helvetica" > 31.95</tspan></text>
	</g>
</g>
<g fill="none" color="black" stroke="currentColor" stroke-width="1.00" stroke-linecap="butt" stroke-linejoin="miter">
	<path stroke='black'  d='M239.9,662.4 L239.9,653.4  '/>	<g transform="translate(239.9,684.3)" stroke="none" fill="black" font-family="Helvetica" font-size="12.00"  text-anchor="middle">
		<text><tspan font-family="Helvetica" > 32</tspan></text>
	</g>
</g>
<g fill="none" color="black" stroke="currentColor" stroke-width="1.00" stroke-linecap="butt" stroke-linejoin="miter">
	<path stroke='black'  d='M371.4,662.4 L371.4,653.4  '/>	<g transform="translate(371.4,684.3)" stroke="none" fill="black" font-family="Helvetica" font-size="12.00"  text-anchor="middle">
		<text><tspan font-family="Helvetica" > 32.05</tspan></text>
	</g>
</g>
<g fill="none" color="black" stroke="currentColor" stroke-width="1.00" stroke-linecap="butt" stroke-linejoin="miter">
	<path stroke='black'  d='M502.8,662.4 L502.8,653.4  '/>	<g transform="translate(502.8,684.3)" stroke="none" fill="black" font-family="Helvetica" font-size="12.00"  text-anchor="middle">
		<text><tspan font-family="Helvetica" > 32.1</tspan></text>
	</g>
</g>
<g fill="none" color="black" stroke="currentColor" stroke-width="1.00" stroke-linecap="butt" stroke-linejoin="miter">
	<path stroke='black'  d='M634.3,662.4 L634.3,653.4  '/>	<g transform="translate(634.3,684.3)" stroke="none" fill="black" font-family="Helvetica" font-size="12.00"  text-anchor="middle">
		<text><tspan font-family="Helvetica" > 32.15</tspan></text>
	</g>
</g>
<g fill="none" color="black" stroke="currentColor" stroke-width="1.00" stroke-linecap="butt" stroke-linejoin="miter">
	<path stroke='black'  d='M765.8,662.4 L765.8,653.4  '/>	<g transform="translate(765.8,684.3)" stroke="none" fill="black" font-family="Helvetica" font-size="12.00"  text-anchor="middle">
		<text><tspan font-family="Helvetica" > 32.2</tspan></text>
	</g>
</g>
<g fill="none" color="black" stroke="currentColor" stroke-width="1.00" stroke-linecap="butt" stroke-linejoin="miter">
	<path stroke='black'  d='M897.3,662.4 L897.3,653.4  '/>	<g transform="translate(897.3,684.3)" stroke="none" fill="black" font-family="Helvetica" font-size="12.00"  text-anchor="middle">
		<text><tspan font-family="Helvetica" > 32.25</tspan></text>
	</g>
</g>
<g fill="none" color="black" stroke="currentColor" stroke-width="1.00" stroke-linecap="butt" stroke-linejoin="miter">
</g>
<g fill="none" color="black" stroke="currentColor" stroke-width="1.00" stroke-linecap="butt" stroke-linejoin="miter">
	<path stroke='black'  d='M55.3,54.1 L55.3,662.4 L1013.6,662.4 L1013.6,54.1 L55.3,54.1 Z  '/></g>
<g fill="none" color="black" stroke="currentColor" stroke-width="1.00" stroke-linecap="butt" stroke-linejoin="miter">
	<g transform="translate(16.3,358.3) rotate(270)" stroke="none" fill="black" font-family="Helvetica" font-size="12.00"  text-anchor="middle">
		<text><tspan font-family="Helvetica" >Density (a.u.)</tspan></text>
	</g>
</g>
<g fill="none" color="black" stroke="currentColor" stroke-width="1.00" stroke-linecap="butt" stroke-linejoin="miter">
	<g transform="translate(534.4,711.3)" stroke="none" fill="black" font-family="Helvetica" font-size="12.00"  text-anchor="middle">
		<text><tspan font-family="Helvetica" >Average time (us)</tspan></text>
	</g>
</g>
<g fill="none" color="black" stroke="currentColor" stroke-width="1.00" stroke-linecap="butt" stroke-linejoin="miter">
	<g transform="translate(534.4,31.0)" stroke="none" fill="black" font-family="Helvetica" font-size="12.00"  text-anchor="middle">
		<text><tspan font-family="Helvetica" >snapshot_restore_with_dense/Sparse: Entire region + process_vm_writev w/ page size/1: mean</tspan></text>
	</g>
</g>
	<g id="gnuplot_plot_1" ><title>Bootstrap distribution</title>
<g fill="none" color="white" stroke="black" stroke-width="2.00" stroke-linecap="butt" stroke-linejoin="miter">
</g>
<g fill="none" color="black" stroke="currentColor" stroke-width="2.00" stroke-linecap="butt" stroke-linejoin="miter">
	<g transform="translate(1089.0,67.0)" stroke="none" fill="black" font-family="Helvetica" font-size="12.00"  text-anchor="start">
		<text><tspan font-family="Helvetica" >Bootstrap distribution</tspan></text>
	</g>
</g>
<g fill="none" color="black" stroke="currentColor" stroke-width="2.00" stroke-linecap="butt" stroke-linejoin="miter">
	<path stroke='rgb( 31, 120, 180)'  d='M1038.5,63.1 L1080.7,63.1 M55.3,633.9 L57.2,632.7 L59.1,631.5 L61.1,630.3 L63.0,629.0 L64.9,627.6
		L66.8,626.3 L68.7,624.9 L70.7,623.5 L72.6,622.0 L74.5,620.5 L76.4,619.0 L78.3,617.5 L80.3,615.9
		L82.2,614.3 L84.1,612.7 L86.0,611.1 L87.9,609.4 L89.9,607.7 L91.8,606.0 L93.7,604.3 L95.6,602.5
		L97.5,600.7 L99.5,598.9 L101.4,597.0 L103.3,595.2 L105.2,593.3 L107.2,591.4 L109.1,589.5 L111.0,587.5
		L112.9,585.6 L114.8,583.6 L116.8,581.6 L118.7,579.6 L120.6,577.6 L122.5,575.5 L124.4,573.5 L126.4,571.4
		L128.3,569.3 L130.2,567.2 L132.1,565.0 L134.0,562.9 L136.0,560.7 L137.9,558.4 L139.8,556.1 L141.7,553.8
		L143.6,551.4 L145.6,549.0 L147.5,546.5 L149.4,544.0 L151.3,541.4 L153.2,538.8 L155.2,536.1 L157.1,533.4
		L159.0,530.6 L160.9,527.8 L162.8,524.9 L164.8,522.0 L166.7,519.0 L168.6,516.0 L170.5,512.9 L172.4,509.8
		L174.4,506.7 L176.3,503.6 L178.2,500.4 L180.1,497.2 L182.0,494.0 L184.0,490.8 L185.9,487.5 L187.8,484.3
		L189.7,481.0 L191.7,477.8 L193.6,474.5 L195.5,471.3 L197.4,468.1 L199.3,464.9 L201.3,461.7 L203.2,458.5
		L205.1,455.3 L207.0,452.2 L208.9,449.0 L210.9,445.9 L212.8,442.8 L214.7,439.8 L216.6,436.7 L218.5,433.7
		L220.5,430.6 L222.4,427.6 L224.3,424.6 L226.2,421.5 L228.1,418.5 L230.1,415.4 L232.0,412.3 L233.9,409.2
		L235.8,406.0 L237.7,402.8 L239.7,399.6 L241.6,396.3 L243.5,393.0 L245.4,389.6 L247.3,386.1 L249.3,382.6
		L251.2,379.0 L253.1,375.4 L255.0,371.7 L256.9,367.9 L258.9,364.1 L260.8,360.2 L262.7,356.3 L264.6,352.4
		L266.5,348.4 L268.5,344.4 L270.4,340.4 L272.3,336.4 L274.2,332.4 L276.2,328.4 L278.1,324.4 L280.0,320.5
		L281.9,316.5 L283.8,312.6 L285.8,308.7 L287.7,304.9 L289.6,301.1 L291.5,297.3 L293.4,293.6 L295.4,289.9
		L297.3,286.3 L299.2,282.7 L301.1,279.2 L303.0,275.6 L305.0,272.2 L306.9,268.7 L308.8,265.3 L310.7,262.0
		L312.6,258.7 L314.6,255.4 L316.5,252.2 L318.4,249.1 L320.3,246.0 L322.2,243.0 L324.2,240.0 L326.1,237.1
		L328.0,234.3 L329.9,231.5 L331.8,228.8 L333.8,226.1 L335.7,223.5 L337.6,221.0 L339.5,218.5 L341.4,216.1
		L343.4,213.7 L345.3,211.4 L347.2,209.1 L349.1,206.8 L351.0,204.6 L353.0,202.4 L354.9,200.2 L356.8,198.1
		L358.7,196.0 L360.7,193.9 L362.6,191.8 L364.5,189.8 L366.4,187.8 L368.3,185.8 L370.3,183.9 L372.2,182.0
		L374.1,180.1 L376.0,178.3 L377.9,176.5 L379.9,174.8 L381.8,173.2 L383.7,171.6 L385.6,170.1 L387.5,168.6
		L389.5,167.2 L391.4,165.8 L393.3,164.5 L395.2,163.3 L397.1,162.1 L399.1,160.9 L401.0,159.8 L402.9,158.8
		L404.8,157.8 L406.7,156.8 L408.7,155.8 L410.6,154.8 L412.5,153.9 L414.4,153.0 L416.3,152.1 L418.3,151.2
		L420.2,150.2 L422.1,149.3 L424.0,148.4 L425.9,147.4 L427.9,146.4 L429.8,145.4 L431.7,144.4 L433.6,143.4
		L435.5,142.4 L437.5,141.3 L439.4,140.2 L441.3,139.2 L443.2,138.1 L445.1,137.1 L447.1,136.1 L449.0,135.1
		L450.9,134.1 L452.8,133.2 L454.8,132.4 L456.7,131.6 L458.6,130.9 L460.5,130.3 L462.4,129.8 L464.4,129.3
		L466.3,129.0 L468.2,128.8 L470.1,128.7 L472.0,128.6 L474.0,128.7 L475.9,128.9 L477.8,129.2 L479.7,129.6
		L481.6,130.1 L483.6,130.7 L485.5,131.4 L487.4,132.2 L489.3,133.0 L491.2,133.9 L493.2,134.9 L495.1,136.0
		L497.0,137.2 L498.9,138.4 L500.8,139.7 L502.8,141.0 L504.7,142.4 L506.6,143.9 L508.5,145.5 L510.4,147.1
		L512.4,148.8 L514.3,150.5 L516.2,152.3 L518.1,154.2 L520.0,156.1 L522.0,158.1 L523.9,160.1 L525.8,162.2
		L527.7,164.3 L529.6,166.4 L531.6,168.6 L533.5,170.8 L535.4,173.0 L537.3,175.2 L539.3,177.4 L541.2,179.6
		L543.1,181.8 L545.0,184.0 L546.9,186.1 L548.9,188.2 L550.8,190.3 L552.7,192.3 L554.6,194.3 L556.5,196.2
		L558.5,198.2 L560.4,200.1 L562.3,202.0 L564.2,203.8 L566.1,205.7 L568.1,207.5 L570.0,209.3 L571.9,211.2
		L573.8,213.0 L575.7,214.8 L577.7,216.6 L579.6,218.5 L581.5,220.3 L583.4,222.2 L585.3,224.1 L587.3,226.0
		L589.2,228.0 L591.1,229.9 L593.0,231.9 L594.9,234.0 L596.9,236.0 L598.8,238.2 L600.7,240.3 L602.6,242.5
		L604.5,244.8 L606.5,247.1 L608.4,249.4 L610.3,251.8 L612.2,254.3 L614.1,256.9 L616.1,259.5 L618.0,262.1
		L619.9,264.8 L621.8,267.6 L623.8,270.4 L625.7,273.3 L627.6,276.2 L629.5,279.1 L631.4,282.1 L633.4,285.1
		L635.3,288.0 L637.2,291.0 L639.1,294.0 L641.0,297.0 L643.0,300.0 L644.9,303.0 L646.8,305.9 L648.7,308.8
		L650.6,311.7 L652.6,314.5 L654.5,317.3 L656.4,320.1 L658.3,322.9 L660.2,325.6 L662.2,328.2 L664.1,330.9
		L666.0,333.5 L667.9,336.1 L669.8,338.6 L671.8,341.1 L673.7,343.6 L675.6,346.1 L677.5,348.5 L679.4,350.9
		L681.4,353.4 L683.3,355.8 L685.2,358.2 L687.1,360.6 L689.0,363.0 L691.0,365.5 L692.9,367.9 L694.8,370.4
		L696.7,372.9 L698.6,375.5 L700.6,378.0 L702.5,380.6 L704.4,383.3 L706.3,385.9 L708.2,388.6 L710.2,391.3
		L712.1,394.0 L714.0,396.8 L715.9,399.5 L717.9,402.3 L719.8,405.0 L721.7,407.8 L723.6,410.5 L725.5,413.2
		L727.5,415.9 L729.4,418.6 L731.3,421.3 L733.2,423.9 L735.1,426.5 L737.1,429.1 L739.0,431.7 L740.9,434.2
		L742.8,436.7 L744.7,439.2 L746.7,441.7 L748.6,444.2 L750.5,446.6 L752.4,449.1 L754.3,451.5 L756.3,453.9
		L758.2,456.2 L760.1,458.5 L762.0,460.9 L763.9,463.1 L765.9,465.4 L767.8,467.6 L769.7,469.8 L771.6,472.0
		L773.5,474.1 L775.5,476.2 L777.4,478.3 L779.3,480.4 L781.2,482.4 L783.1,484.4 L785.1,486.4 L787.0,488.4
		L788.9,490.4 L790.8,492.3 L792.7,494.3 L794.7,496.3 L796.6,498.2 L798.5,500.2 L800.4,502.2 L802.4,504.1
		L804.3,506.1 L806.2,508.1 L808.1,510.1 L810.0,512.1 L812.0,514.1 L813.9,516.1 L815.8,518.1 L817.7,520.0
		L819.6,522.0 L821.6,523.9 L823.5,525.8 L825.4,527.7 L827.3,529.6 L829.2,531.4 L831.2,533.2 L833.1,534.9
		L835.0,536.6 L836.9,538.3 L838.8,539.9 L840.8,541.5 L842.7,543.0 L844.6,544.5 L846.5,546.0 L848.4,547.5
		L850.4,548.9 L852.3,550.3 L854.2,551.7 L856.1,553.1 L858.0,554.4 L860.0,555.8 L861.9,557.1 L863.8,558.5
		L865.7,559.8 L867.6,561.1 L869.6,562.4 L871.5,563.8 L873.4,565.1 L875.3,566.4 L877.2,567.7 L879.2,569.0
		L881.1,570.3 L883.0,571.6 L884.9,572.9 L886.9,574.2 L888.8,575.4 L890.7,576.7 L892.6,577.9 L894.5,579.1
		L896.5,580.3 L898.4,581.5 L900.3,582.7 L902.2,583.9 L904.1,585.1 L906.1,586.2 L908.0,587.4 L909.9,588.5
		L911.8,589.6 L913.7,590.8 L915.7,591.9 L917.6,593.0 L919.5,594.1 L921.4,595.3 L923.3,596.4 L925.3,597.5
		L927.2,598.6 L929.1,599.6 L931.0,600.7 L932.9,601.8 L934.9,602.8 L936.8,603.8 L938.7,604.8 L940.6,605.8
		L942.5,606.8 L944.5,607.8 L946.4,608.7 L948.3,609.6 L950.2,610.5 L952.1,611.4 L954.1,612.2 L956.0,613.0
		L957.9,613.8 L959.8,614.6 L961.7,615.4 L963.7,616.2 L965.6,616.9 L967.5,617.7 L969.4,618.4 L971.4,619.1
		L973.3,619.8 L975.2,620.5 L977.1,621.2 L979.0,621.9 L981.0,622.6 L982.9,623.3 L984.8,623.9 L986.7,624.6
		L988.6,625.2 L990.6,625.9 L992.5,626.5 L994.4,627.1 L996.3,627.8 L998.2,628.4 L1000.2,629.0 L1002.1,629.6
		L1004.0,630.1 L1005.9,630.7 L1007.8,631.2 L1009.8,631.8 L1011.7,632.3 L1013.6,632.8  '/></g>
	</g>
	<g id="gnuplot_plot_2" ><title>Confidence interval</title>
<g fill="none" color="white" stroke="rgb( 31, 120, 180)" stroke-width="1.00" stroke-linecap="butt" stroke-linejoin="miter">
</g>
<g fill="none" color="black" stroke="currentColor" stroke-width="1.00" stroke-linecap="butt" stroke-linejoin="miter">
	<g transform="translate(1089.0,85.0)" stroke="none" fill="black" font-family="Helvetica" font-size="12.00"  text-anchor="start">
		<text><tspan font-family="Helvetica" >Confidence interval</tspan></text>
	</g>
</g>
<g fill="none" color="black" stroke="currentColor" stroke-width="1.00" stroke-linecap="butt" stroke-linejoin="miter">
	<g stroke='none' shape-rendering='crispEdges'>
		<polygon fill = 'rgb( 31, 120, 180)' fill-opacity = '0.250000' points = '1038.5,85.6 1080.7,85.6 1080.7,76.6 1038.5,76.6 '/>
		<polygon fill = 'rgb( 31, 120, 180)' fill-opacity = '0.250000' points = '143.6,551.4 145.6,549.0 147.5,546.5 149.4,544.0 151.3,541.4 153.2,538.8 155.2,536.1 157.1,533.4 159.0,530.6 160.9,527.8 162.8,524.9 164.8,522.0 166.7,519.0 168.6,516.0 170.5,512.9 172.4,509.8
174.4,506.7 176.3,503.6 178.2,500.4 180.1,497.2 182.0,494.0 184.0,490.8 185.9,487.5 187.8,484.3 189.7,481.0 191.7,477.8 193.6,474.5 195.5,471.3 197.4,468.1 199.3,464.9 201.3,461.7 203.2,458.5
205.1,455.3 207.0,452.2 208.9,449.0 210.9,445.9 212.8,442.8 214.7,439.8 216.6,436.7 218.5,433.7 220.5,430.6 222.4,427.6 224.3,424.6 226.2,421.5 228.1,418.5 230.1,415.4 232.0,412.3 233.9,409.2
235.8,406.0 237.7,402.8 239.7,399.6 241.6,396.3 243.5,393.0 245.4,389.6 247.3,386.1 249.3,382.6 251.2,379.0 253.1,375.4 255.0,371.7 256.9,367.9 258.9,364.1 260.8,360.2 262.7,356.3 264.6,352.4
266.5,348.4 268.5,344.4 270.4,340.4 272.3,336.4 274.2,332.4 276.2,328.4 278.1,324.4 280.0,320.5 281.9,316.5 283.8,312.6 285.8,308.7 287.7,304.9 289.6,301.1 291.5,297.3 293.4,293.6 295.4,289.9
297.3,286.3 299.2,282.7 301.1,279.2 303.0,275.6 305.0,272.2 306.9,268.7 308.8,265.3 310.7,262.0 312.6,258.7 314.6,255.4 316.5,252.2 318.4,249.1 320.3,246.0 322.2,243.0 324.2,240.0 326.1,237.1
328.0,234.3 329.9,231.5 331.8,228.8 333.8,226.1 335.7,223.5 337.6,221.0 339.5,218.5 341.4,216.1 343.4,213.7 345.3,211.4 347.2,209.1 349.1,206.8 351.0,204.6 353.0,202.4 354.9,200.2 356.8,198.1
358.7,196.0 360.7,193.9 362.6,191.8 364.5,189.8 366.4,187.8 368.3,185.8 370.3,183.9 372.2,182.0 374.1,180.1 376.0,178.3 377.9,176.5 379.9,174.8 381.8,173.2 383.7,171.6 385.6,170.1 387.5,168.6
389.5,167.2 391.4,165.8 393.3,164.5 395.2,163.3 397.1,162.1 399.1,160.9 401.0,159.8 402.9,158.8 404.8,157.8 406.7,156.8 408.7,155.8 410.6,154.8 412.5,153.9 414.4,153.0 416.3,152.1 418.3,151.2
420.2,150.2 422.1,149.3 424.0,148.4 425.9,147.4 427.9,146.4 429.8,145.4 431.7,144.4 433.6,143.4 435.5,142.4 437.5,141.3 439.4,140.2 441.3,139.2 443.2,138.1 445.1,137.1 447.1,136.1 449.0,135.1
450.9,134.1 452.8,133.2 454.8,132.4 456.7,131.6 458.6,130.9 460.5,130.3 462.4,129.8 464.4,129.3 466.3,129.0 468.2,128.8 470.1,128.7 472.0,128.6 474.0,128.7 475.9,128.9 477.8,129.2 479.7,129.6
481.6,130.1 483.6,130.7 485.5,131.4 487.4,132.2 489.3,133.0 491.2,133.9 493.2,134.9 495.1,136.0 497.0,137.2 498.9,138.4 500.8,139.7 502.8,141.0 504.7,142.4 506.6,143.9 508.5,145.5 510.4,147.1
512.4,148.8 514.3,150.5 516.2,152.3 518.1,154.2 520.0,156.1 522.0,158.1 523.9,160.1 525.8,162.2 527.7,164.3 529.6,166.4 531.6,168.6 533.5,170.8 535.4,173.0 537.3,175.2 539.3,177.4 541.2,179.6
543.1,181.8 545.0,184.0 546.9,186.1 548.9,188.2 550.8,190.3 552.7,192.3 554.6,194.3 556.5,196.2 558.5,198.2 560.4,200.1 562.3,202.0 564.2,203.8 566.1,205.7 568.1,207.5 570.0,209.3 571.9,211.2
573.8,213.0 575.7,214.8 577.7,216.6 579.6,218.5 581.5,220.3 583.4,222.2 585.3,224.1 587.3,226.0 589.2,228.0 591.1,229.9 593.0,231.9 594.9,234.0 596.9,236.0 598.8,238.2 600.7,240.3 602.6,242.5
604.5,244.8 606.5,247.1 608.4,249.4 610.3,251.8 612.2,254.3 614.1,256.9 616.1,259.5 618.0,262.1 619.9,264.8 621.8,267.6 623.8,270.4 625.7,273.3 627.6,276.2 629.5,279.1 631.4,282.1 633.4,285.1
635.3,288.0 637.2,291.0 639.1,294.0 641.0,297.0 643.0,300.0 644.9,303.0 646.8,305.9 648.7,308.8 650.6,311.7 652.6,314.5 654.5,317.3 656.4,320.1 658.3,322.9 660.2,325.6 662.2,328.2 664.1,330.9
666.0,333.5 667.9,336.1 669.8,338.6 671.8,341.1 673.7,343.6 675.6,346.1 677.5,348.5 679.4,350.9 681.4,353.4 683.3,355.8 685.2,358.2 687.1,360.6 689.0,363.0 691.0,365.5 692.9,367.9 694.8,370.4
696.7,372.9 698.6,375.5 700.6,378.0 702.5,380.6 704.4,383.3 706.3,385.9 708.2,388.6 710.2,391.3 712.1,394.0 714.0,396.8 715.9,399.5 717.9,402.3 719.8,405.0 721.7,407.8 723.6,410.5 725.5,413.2
727.5,415.9 729.4,418.6 731.3,421.3 733.2,423.9 735.1,426.5 737.1,429.1 739.0,431.7 740.9,434.2 742.8,436.7 744.7,439.2 746.7,441.7 748.6,444.2 750.5,446.6 752.4,449.1 754.3,451.5 756.3,453.9
758.2,456.2 760.1,458.5 762.0,460.9 763.9,463.1 765.9,465.4 767.8,467.6 769.7,469.8 771.6,472.0 773.5,474.1 775.5,476.2 777.4,478.3 779.3,480.4 781.2,482.4 783.1,484.4 785.1,486.4 787.0,488.4
788.9,490.4 790.8,492.3 792.7,494.3 794.7,496.3 796.6,498.2 798.5,500.2 800.4,502.2 802.4,504.1 804.3,506.1 806.2,508.1 808.1,510.1 810.0,512.1 812.0,514.1 813.9,516.1 815.8,518.1 817.7,520.0
819.6,522.0 821.6,523.9 823.5,525.8 825.4,527.7 827.3,529.6 829.2,531.4 831.2,533.2 833.1,534.9 835.0,536.6 836.9,538.3 838.8,539.9 840.8,541.5 842.7,543.0 844.6,544.5 846.5,546.0 848.4,547.5
850.4,548.9 852.3,550.3 854.2,551.7 856.1,553.1 858.0,554.4 860.0,555.8 861.9,557.1 863.8,558.5 865.7,559.8 867.6,561.1 869.6,562.4 871.5,563.8 873.4,565.1 875.3,566.4 877.2,567.7 879.2,569.0
881.1,570.3 883.0,571.6 884.9,572.9 886.9,574.2 888.8,575.4 890.7,576.7 892.6,577.9 894.5,579.1 896.5,580.3 898.4,581.5 900.3,582.7 902.2,583.9 904.1,585.1 906.1,586.2 908.0,587.4 909.9,588.5
911.8,589.6 913.7,590.8 915.7,591.9 917.6,593.0 919.5,594.1 921.4,595.3 923.3,596.4 923.3,662.4 921.4,662.4 919.5,662.4 917.6,662.4 915.7,662.4 913.7,662.4 911.8,662.4 909.9,662.4 908.0,662.4
906.1,662.4 904.1,662.4 902.2,662.4 900.3,662.4 898.4,662.4 896.5,662.4 894.5,662.4 892.6,662.4 890.7,662.4 888.8,662.4 886.9,662.4 884.9,662.4 883.0,662.4 881.1,662.4 879.2,662.4 877.2,662.4
875.3,662.4 873.4,662.4 871.5,662.4 869.6,662.4 867.6,662.4 865.7,662.4 863.8,662.4 861.9,662.4 860.0,662.4 858.0,662.4 856.1,662.4 854.2,662.4 852.3,662.4 850.4,662.4 848.4,662.4 846.5,662.4
844.6,662.4 842.7,662.4 840.8,662.4 838.8,662.4 836.9,662.4 835.0,662.4 833.1,662.4 831.2,662.4 829.2,662.4 827.3,662.4 825.4,662.4 823.5,662.4 821.6,662.4 819.6,662.4 817.7,662.4 815.8,662.4
813.9,662.4 812.0,662.4 810.0,662.4 808.1,662.4 806.2,662.4 804.3,662.4 802.4,662.4 800.4,662.4 798.5,662.4 796.6,662.4 794.7,662.4 792.7,662.4 790.8,662.4 788.9,662.4 787.0,662.4 785.1,662.4
783.1,662.4 781.2,662.4 779.3,662.4 777.4,662.4 775.5,662.4 773.5,662.4 771.6,662.4 769.7,662.4 767.8,662.4 765.9,662.4 763.9,662.4 762.0,662.4 760.1,662.4 758.2,662.4 756.3,662.4 754.3,662.4
752.4,662.4 750.5,662.4 748.6,662.4 746.7,662.4 744.7,662.4 742.8,662.4 740.9,662.4 739.0,662.4 737.1,662.4 735.1,662.4 733.2,662.4 731.3,662.4 729.4,662.4 727.5,662.4 725.5,662.4 723.6,662.4
721.7,662.4 719.8,662.4 717.9,662.4 715.9,662.4 714.0,662.4 712.1,662.4 710.2,662.4 708.2,662.4 706.3,662.4 704.4,662.4 702.5,662.4 700.6,662.4 698.6,662.4 696.7,662.4 694.8,662.4 692.9,662.4
691.0,662.4 689.0,662.4 687.1,662.4 685.2,662.4 683.3,662.4 681.4,662.4 679.4,662.4 677.5,662.4 675.6,662.4 673.7,662.4 671.8,662.4 669.8,662.4 667.9,662.4 666.0,662.4 664.1,662.4 662.2,662.4
660.2,662.4 658.3,662.4 656.4,662.4 654.5,662.4 652.6,662.4 650.6,662.4 648.7,662.4 646.8,662.4 644.9,662.4 643.0,662.4 641.0,662.4 639.1,662.4 637.2,662.4 635.3,662.4 633.4,662.4 631.4,662.4
629.5,662.4 627.6,662.4 625.7,662.4 623.8,662.4 621.8,662.4 619.9,662.4 618.0,662.4 616.1,662.4 614.1,662.4 612.2,662.4 610.3,662.4 608.4,662.4 606.5,662.4 604.5,662.4 602.6,662.4 600.7,662.4
598.8,662.4 596.9,662.4 594.9,662.4 593.0,662.4 591.1,662.4 589.2,662.4 587.3,662.4 585.3,662.4 583.4,662.4 581.5,662.4 579.6,662.4 577.7,662.4 575.7,662.4 573.8,662.4 571.9,662.4 570.0,662.4
568.1,662.4 566.1,662.4 564.2,662.4 562.3,662.4 560.4,662.4 558.5,662.4 556.5,662.4 554.6,662.4 552.7,662.4 550.8,662.4 548.9,662.4 546.9,662.4 545.0,662.4 543.1,662.4 541.2,662.4 539.3,662.4
537.3,662.4 535.4,662.4 533.5,662.4 531.6,662.4 529.6,662.4 527.7,662.4 525.8,662.4 523.9,662.4 522.0,662.4 520.0,662.4 518.1,662.4 516.2,662.4 514.3,662.4 512.4,662.4 510.4,662.4 508.5,662.4
506.6,662.4 504.7,662.4 502.8,662.4 500.8,662.4 498.9,662.4 497.0,662.4 495.1,662.4 493.2,662.4 491.2,662.4 489.3,662.4 487.4,662.4 485.5,662.4 483.6,662.4 481.6,662.4 479.7,662.4 477.8,662.4
475.9,662.4 474.0,662.4 472.0,662.4 470.1,662.4 468.2,662.4 466.3,662.4 464.4,662.4 462.4,662.4 460.5,662.4 458.6,662.4 456.7,662.4 454.8,662.4 452.8,662.4 450.9,662.4 449.0,662.4 447.1,662.4
445.1,662.4 443.2,662.4 441.3,662.4 439.4,662.4 437.5,662.4 435.5,662.4 433.6,662.4 431.7,662.4 429.8,662.4 427.9,662.4 425.9,662.4 424.0,662.4 422.1,662.4 420.2,662.4 418.3,662.4 416.3,662.4
414.4,662.4 412.5,662.4 410.6,662.4 408.7,662.4 406.7,662.4 404.8,662.4 402.9,662.4 401.0,662.4 399.1,662.4 397.1,662.4 395.2,662.4 393.3,662.4 391.4,662.4 389.5,662.4 387.5,662.4 385.6,662.4
383.7,662.4 381.8,662.4 379.9,662.4 377.9,662.4 376.0,662.4 374.1,662.4 372.2,662.4 370.3,662.4 368.3,662.4 366.4,662.4 364.5,662.4 362.6,662.4 360.7,662.4 358.7,662.4 356.8,662.4 354.9,662.4
353.0,662.4 351.0,662.4 349.1,662.4 347.2,662.4 345.3,662.4 343.4,662.4 341.4,662.4 339.5,662.4 337.6,662.4 335.7,662.4 333.8,662.4 331.8,662.4 329.9,662.4 328.0,662.4 326.1,662.4 324.2,662.4
322.2,662.4 320.3,662.4 318.4,662.4 316.5,662.4 314.6,662.4 312.6,662.4 310.7,662.4 308.8,662.4 306.9,662.4 305.0,662.4 303.0,662.4 301.1,662.4 299.2,662.4 297.3,662.4 295.4,662.4 293.4,662.4
291.5,662.4 289.6,662.4 287.7,662.4 285.8,662.4 283.8,662.4 281.9,662.4 280.0,662.4 278.1,662.4 276.2,662.4 274.2,662.4 272.3,662.4 270.4,662.4 268.5,662.4 266.5,662.4 264.6,662.4 262.7,662.4
260.8,662.4 258.9,662.4 256.9,662.4 255.0,662.4 253.1,662.4 251.2,662.4 249.3,662.4 247.3,662.4 245.4,662.4 243.5,662.4 241.6,662.4 239.7,662.4 237.7,662.4 235.8,662.4 233.9,662.4 232.0,662.4
230.1,662.4 228.1,662.4 226.2,662.4 224.3,662.4 222.4,662.4 220.5,662.4 218.5,662.4 216.6,662.4 214.7,662.4 212.8,662.4 210.9,662.4 208.9,662.4 207.0,662.4 205.1,662.4 203.2,662.4 201.3,662.4
199.3,662.4 197.4,662.4 195.5,662.4 193.6,662.4 191.7,662.4 189.7,662.4 187.8,662.4 185.9,662.4 184.0,662.4 182.0,662.4 180.1,662.4 178.2,662.4 176.3,662.4 174.4,662.4 172.4,662.4 170.5,662.4
168.6,662.4 166.7,662.4 164.8,662.4 162.8,662.4 160.9,662.4 159.0,662.4 157.1,662.4 155.2,662.4 153.2,662.4 151.3,662.4 149.4,662.4 147.5,662.4 145.6,662.4 143.6,662.4 '/>
	</g>
</g>
	</g>
	<g id="gnuplot_plot_3" ><title>Point estimate</title>
<g fill="none" color="white" stroke="rgb( 31, 120, 180)" stroke-width="2.00" stroke-linecap="butt" stroke-linejoin="miter">
</g>
<g fill="none" color="black" stroke="currentColor" stroke-width="2.00" stroke-linecap="butt" stroke-linejoin="miter">
	<g transform="translate(1089.0,103.0)" stroke="none" fill="black" font-family="Helvetica" font-size="12.00"  text-anchor="start">
		<text><tspan font-family="Helvetica" >Point estimate</tspan></text>
	</g>
</g>
<g fill="none" color="black" stroke="currentColor" stroke-width="2.00" stroke-linecap="butt" stroke-linejoin="miter">
	<path stroke='rgb( 31, 120, 180)'  d='M1038.5,99.1 L1080.7,99.1 M496.9,662.4 L496.9,137.1  '/></g>
	</g>
<g fill="none" color="black" stroke="currentColor" stroke-width="2.00" stroke-linecap="butt" stroke-linejoin="miter">
</g>
<g fill="none" color="black" stroke="black" stroke-width="1.00" stroke-linecap="butt" stroke-linejoin="miter">
</g>
<g fill="none" color="black" stroke="currentColor" stroke-width="1.00" stroke-linecap="butt" stroke-linejoin="miter">
	<path stroke='black'  d='M55.3,54.1 L55.3,662.4 L1013.6,662.4 L1013.6,54.1 L55.3,54.1 Z  '/></g>
<g fill="none" color="black" stroke="currentColor" stroke-width="1.00" stroke-linecap="butt" stroke-linejoin="miter">
</g>
</g>
</svg>

