<?xml version="1.0" encoding="utf-8"  standalone="no"?>
<svg 
 viewBox="0 0 1280 720"
 xmlns="http://www.w3.org/2000/svg"
 xmlns:xlink="http://www.w3.org/1999/xlink"
>

<title>Gnuplot</title>
<desc>Produced by GNUPLOT 5.2 patchlevel 6 </desc>

<g id="gnuplot_canvas">

<rect x="0" y="0" width="1280" height="720" fill="none"/>
<defs>

	<circle id='gpDot' r='0.5' stroke-width='0.5' stroke='currentColor'/>
	<path id='gpPt0' stroke-width='0.222' stroke='currentColor' d='M-1,0 h2 M0,-1 v2'/>
	<path id='gpPt1' stroke-width='0.222' stroke='currentColor' d='M-1,-1 L1,1 M1,-1 L-1,1'/>
	<path id='gpPt2' stroke-width='0.222' stroke='currentColor' d='M-1,0 L1,0 M0,-1 L0,1 M-1,-1 L1,1 M-1,1 L1,-1'/>
	<rect id='gpPt3' stroke-width='0.222' stroke='currentColor' x='-1' y='-1' width='2' height='2'/>
	<rect id='gpPt4' stroke-width='0.222' stroke='currentColor' fill='currentColor' x='-1' y='-1' width='2' height='2'/>
	<circle id='gpPt5' stroke-width='0.222' stroke='currentColor' cx='0' cy='0' r='1'/>
	<use xlink:href='#gpPt5' id='gpPt6' fill='currentColor' stroke='none'/>
	<path id='gpPt7' stroke-width='0.222' stroke='currentColor' d='M0,-1.33 L-1.33,0.67 L1.33,0.67 z'/>
	<use xlink:href='#gpPt7' id='gpPt8' fill='currentColor' stroke='none'/>
	<use xlink:href='#gpPt7' id='gpPt9' stroke='currentColor' transform='rotate(180)'/>
	<use xlink:href='#gpPt9' id='gpPt10' fill='currentColor' stroke='none'/>
	<use xlink:href='#gpPt3' id='gpPt11' stroke='currentColor' transform='rotate(45)'/>
	<use xlink:href='#gpPt11' id='gpPt12' fill='currentColor' stroke='none'/>
	<path id='gpPt13' stroke-width='0.222' stroke='currentColor' d='M0,1.330 L1.265,0.411 L0.782,-1.067 L-0.782,-1.076 L-1.265,0.411 z'/>
	<use xlink:href='#gpPt13' id='gpPt14' fill='currentColor' stroke='none'/>
	<filter id='textbox' filterUnits='objectBoundingBox' x='0' y='0' height='1' width='1'>
	  <feFlood flood-color='white' flood-opacity='1' result='bgnd'/>
	  <feComposite in='SourceGraphic' in2='bgnd' operator='atop'/>
	</filter>
	<filter id='greybox' filterUnits='objectBoundingBox' x='0' y='0' height='1' width='1'>
	  <feFlood flood-color='lightgrey' flood-opacity='1' result='grey'/>
	  <feComposite in='SourceGraphic' in2='grey' operator='atop'/>
	</filter>
</defs>
<g fill="none" color="white" stroke="currentColor" stroke-width="1.00" stroke-linecap="butt" stroke-linejoin="miter">
</g>
<g fill="none" color="black" stroke="currentColor" stroke-width="1.00" stroke-linecap="butt" stroke-linejoin="miter">
	<path stroke='black'  d='M63.6,662.4 L72.6,662.4  '/>	<g transform="translate(55.3,666.3)" stroke="none" fill="black" font-family="Helvetica" font-size="12.00"  text-anchor="end">
		<text><tspan font-family="Helvetica" > 0</tspan></text>
	</g>
</g>
<g fill="none" color="black" stroke="currentColor" stroke-width="1.00" stroke-linecap="butt" stroke-linejoin="miter">
	<path stroke='black'  d='M63.6,594.8 L72.6,594.8  '/>	<g transform="translate(55.3,598.7)" stroke="none" fill="black" font-family="Helvetica" font-size="12.00"  text-anchor="end">
		<text><tspan font-family="Helvetica" > 10</tspan></text>
	</g>
</g>
<g fill="none" color="black" stroke="currentColor" stroke-width="1.00" stroke-linecap="butt" stroke-linejoin="miter">
	<path stroke='black'  d='M63.6,527.2 L72.6,527.2  '/>	<g transform="translate(55.3,531.1)" stroke="none" fill="black" font-family="Helvetica" font-size="12.00"  text-anchor="end">
		<text><tspan font-family="Helvetica" > 20</tspan></text>
	</g>
</g>
<g fill="none" color="black" stroke="currentColor" stroke-width="1.00" stroke-linecap="butt" stroke-linejoin="miter">
	<path stroke='black'  d='M63.6,459.6 L72.6,459.6  '/>	<g transform="translate(55.3,463.5)" stroke="none" fill="black" font-family="Helvetica" font-size="12.00"  text-anchor="end">
		<text><tspan font-family="Helvetica" > 30</tspan></text>
	</g>
</g>
<g fill="none" color="black" stroke="currentColor" stroke-width="1.00" stroke-linecap="butt" stroke-linejoin="miter">
	<path stroke='black'  d='M63.6,392.0 L72.6,392.0  '/>	<g transform="translate(55.3,395.9)" stroke="none" fill="black" font-family="Helvetica" font-size="12.00"  text-anchor="end">
		<text><tspan font-family="Helvetica" > 40</tspan></text>
	</g>
</g>
<g fill="none" color="black" stroke="currentColor" stroke-width="1.00" stroke-linecap="butt" stroke-linejoin="miter">
	<path stroke='black'  d='M63.6,324.5 L72.6,324.5  '/>	<g transform="translate(55.3,328.4)" stroke="none" fill="black" font-family="Helvetica" font-size="12.00"  text-anchor="end">
		<text><tspan font-family="Helvetica" > 50</tspan></text>
	</g>
</g>
<g fill="none" color="black" stroke="currentColor" stroke-width="1.00" stroke-linecap="butt" stroke-linejoin="miter">
	<path stroke='black'  d='M63.6,256.9 L72.6,256.9  '/>	<g transform="translate(55.3,260.8)" stroke="none" fill="black" font-family="Helvetica" font-size="12.00"  text-anchor="end">
		<text><tspan font-family="Helvetica" > 60</tspan></text>
	</g>
</g>
<g fill="none" color="black" stroke="currentColor" stroke-width="1.00" stroke-linecap="butt" stroke-linejoin="miter">
	<path stroke='black'  d='M63.6,189.3 L72.6,189.3  '/>	<g transform="translate(55.3,193.2)" stroke="none" fill="black" font-family="Helvetica" font-size="12.00"  text-anchor="end">
		<text><tspan font-family="Helvetica" > 70</tspan></text>
	</g>
</g>
<g fill="none" color="black" stroke="currentColor" stroke-width="1.00" stroke-linecap="butt" stroke-linejoin="miter">
	<path stroke='black'  d='M63.6,121.7 L72.6,121.7  '/>	<g transform="translate(55.3,125.6)" stroke="none" fill="black" font-family="Helvetica" font-size="12.00"  text-anchor="end">
		<text><tspan font-family="Helvetica" > 80</tspan></text>
	</g>
</g>
<g fill="none" color="black" stroke="currentColor" stroke-width="1.00" stroke-linecap="butt" stroke-linejoin="miter">
	<path stroke='black'  d='M63.6,54.1 L72.6,54.1  '/>	<g transform="translate(55.3,58.0)" stroke="none" fill="black" font-family="Helvetica" font-size="12.00"  text-anchor="end">
		<text><tspan font-family="Helvetica" > 90</tspan></text>
	</g>
</g>
<g fill="none" color="black" stroke="currentColor" stroke-width="1.00" stroke-linecap="butt" stroke-linejoin="miter">
	<path stroke='black'  d='M76.6,662.4 L76.6,653.4  '/>	<g transform="translate(76.6,684.3)" stroke="none" fill="black" font-family="Helvetica" font-size="12.00"  text-anchor="middle">
		<text><tspan font-family="Helvetica" > 31.85</tspan></text>
	</g>
</g>
<g fill="none" color="black" stroke="currentColor" stroke-width="1.00" stroke-linecap="butt" stroke-linejoin="miter">
	<path stroke='black'  d='M252.2,662.4 L252.2,653.4  '/>	<g transform="translate(252.2,684.3)" stroke="none" fill="black" font-family="Helvetica" font-size="12.00"  text-anchor="middle">
		<text><tspan font-family="Helvetica" > 31.855</tspan></text>
	</g>
</g>
<g fill="none" color="black" stroke="currentColor" stroke-width="1.00" stroke-linecap="butt" stroke-linejoin="miter">
	<path stroke='black'  d='M427.8,662.4 L427.8,653.4  '/>	<g transform="translate(427.8,684.3)" stroke="none" fill="black" font-family="Helvetica" font-size="12.00"  text-anchor="middle">
		<text><tspan font-family="Helvetica" > 31.86</tspan></text>
	</g>
</g>
<g fill="none" color="black" stroke="currentColor" stroke-width="1.00" stroke-linecap="butt" stroke-linejoin="miter">
	<path stroke='black'  d='M603.4,662.4 L603.4,653.4  '/>	<g transform="translate(603.4,684.3)" stroke="none" fill="black" font-family="Helvetica" font-size="12.00"  text-anchor="middle">
		<text><tspan font-family="Helvetica" > 31.865</tspan></text>
	</g>
</g>
<g fill="none" color="black" stroke="currentColor" stroke-width="1.00" stroke-linecap="butt" stroke-linejoin="miter">
	<path stroke='black'  d='M779.0,662.4 L779.0,653.4  '/>	<g transform="translate(779.0,684.3)" stroke="none" fill="black" font-family="Helvetica" font-size="12.00"  text-anchor="middle">
		<text><tspan font-family="Helvetica" > 31.87</tspan></text>
	</g>
</g>
<g fill="none" color="black" stroke="currentColor" stroke-width="1.00" stroke-linecap="butt" stroke-linejoin="miter">
	<path stroke='black'  d='M954.5,662.4 L954.5,653.4  '/>	<g transform="translate(954.5,684.3)" stroke="none" fill="black" font-family="Helvetica" font-size="12.00"  text-anchor="middle">
		<text><tspan font-family="Helvetica" > 31.875</tspan></text>
	</g>
</g>
<g fill="none" color="black" stroke="currentColor" stroke-width="1.00" stroke-linecap="butt" stroke-linejoin="miter">
</g>
<g fill="none" color="black" stroke="currentColor" stroke-width="1.00" stroke-linecap="butt" stroke-linejoin="miter">
	<path stroke='black'  d='M63.6,54.1 L63.6,662.4 L1013.6,662.4 L1013.6,54.1 L63.6,54.1 Z  '/></g>
<g fill="none" color="black" stroke="currentColor" stroke-width="1.00" stroke-linecap="butt" stroke-linejoin="miter">
	<g transform="translate(16.3,358.3) rotate(270)" stroke="none" fill="black" font-family="Helvetica" font-size="12.00"  text-anchor="middle">
		<text><tspan font-family="Helvetica" >Density (a.u.)</tspan></text>
	</g>
</g>
<g fill="none" color="black" stroke="currentColor" stroke-width="1.00" stroke-linecap="butt" stroke-linejoin="miter">
	<g transform="translate(538.6,711.3)" stroke="none" fill="black" font-family="Helvetica" font-size="12.00"  text-anchor="middle">
		<text><tspan font-family="Helvetica" >Average time (us)</tspan></text>
	</g>
</g>
<g fill="none" color="black" stroke="currentColor" stroke-width="1.00" stroke-linecap="butt" stroke-linejoin="miter">
	<g transform="translate(538.6,31.0)" stroke="none" fill="black" font-family="Helvetica" font-size="12.00"  text-anchor="middle">
		<text><tspan font-family="Helvetica" >snapshot_restore_with_dense/Sparse: Entire region + process_vm_writev w/ page size/1: median</tspan></text>
	</g>
</g>
	<g id="gnuplot_plot_1" ><title>Bootstrap distribution</title>
<g fill="none" color="white" stroke="black" stroke-width="2.00" stroke-linecap="butt" stroke-linejoin="miter">
</g>
<g fill="none" color="black" stroke="currentColor" stroke-width="2.00" stroke-linecap="butt" stroke-linejoin="miter">
	<g transform="translate(1089.0,67.0)" stroke="none" fill="black" font-family="Helvetica" font-size="12.00"  text-anchor="start">
		<text><tspan font-family="Helvetica" >Bootstrap distribution</tspan></text>
	</g>
</g>
<g fill="none" color="black" stroke="currentColor" stroke-width="2.00" stroke-linecap="butt" stroke-linejoin="miter">
	<path stroke='rgb( 31, 120, 180)'  d='M1038.5,63.1 L1080.7,63.1 M63.6,649.4 L65.5,649.0 L67.4,648.5 L69.3,647.9 L71.2,647.3 L73.1,646.6
		L75.0,645.8 L76.9,644.8 L78.8,643.8 L80.7,642.6 L82.6,641.3 L84.5,639.9 L86.4,638.3 L88.3,636.5
		L90.3,634.6 L92.2,632.5 L94.1,630.3 L96.0,627.9 L97.9,625.3 L99.8,622.6 L101.7,619.8 L103.6,616.8
		L105.5,613.6 L107.4,610.3 L109.3,606.9 L111.2,603.4 L113.1,599.8 L115.0,596.0 L116.9,592.1 L118.8,588.2
		L120.7,584.2 L122.6,580.1 L124.5,575.9 L126.4,571.7 L128.3,567.6 L130.2,563.5 L132.1,559.4 L134.0,555.5
		L135.9,551.7 L137.8,548.1 L139.8,544.7 L141.7,541.7 L143.6,538.9 L145.5,536.6 L147.4,534.6 L149.3,533.2
		L151.2,532.1 L153.1,531.6 L155.0,531.5 L156.9,532.0 L158.8,532.9 L160.7,534.2 L162.6,535.9 L164.5,537.9
		L166.4,540.2 L168.3,542.7 L170.2,545.4 L172.1,548.1 L174.0,550.7 L175.9,553.3 L177.8,555.8 L179.7,558.0
		L181.6,560.0 L183.5,561.7 L185.4,563.0 L187.3,564.1 L189.3,564.8 L191.2,565.2 L193.1,565.3 L195.0,565.2
		L196.9,564.8 L198.8,564.2 L200.7,563.5 L202.6,562.6 L204.5,561.6 L206.4,560.5 L208.3,559.3 L210.2,557.9
		L212.1,556.5 L214.0,554.8 L215.9,552.9 L217.8,550.8 L219.7,548.2 L221.6,545.2 L223.5,541.6 L225.4,537.3
		L227.3,532.3 L229.2,526.4 L231.1,519.5 L233.0,511.6 L234.9,502.6 L236.8,492.4 L238.8,481.1 L240.7,468.5
		L242.6,454.8 L244.5,439.9 L246.4,424.1 L248.3,407.3 L250.2,389.7 L252.1,371.5 L254.0,353.0 L255.9,334.3
		L257.8,315.8 L259.7,297.7 L261.6,280.2 L263.5,263.7 L265.4,248.5 L267.3,234.9 L269.2,223.2 L271.1,213.5
		L273.0,206.1 L274.9,201.2 L276.8,198.8 L278.7,199.2 L280.6,202.2 L282.5,207.9 L284.4,216.1 L286.3,226.8
		L288.2,239.6 L290.2,254.4 L292.1,270.9 L294.0,288.7 L295.9,307.6 L297.8,327.1 L299.7,346.8 L301.6,366.5
		L303.5,385.8 L305.4,404.3 L307.3,421.7 L309.2,437.8 L311.1,452.4 L313.0,465.3 L314.9,476.3 L316.8,485.4
		L318.7,492.5 L320.6,497.7 L322.5,500.9 L324.4,502.4 L326.3,502.2 L328.2,500.5 L330.1,497.6 L332.0,493.6
		L333.9,488.7 L335.8,483.3 L337.7,477.6 L339.7,471.7 L341.6,466.0 L343.5,460.7 L345.4,455.9 L347.3,451.8
		L349.2,448.6 L351.1,446.3 L353.0,445.0 L354.9,444.7 L356.8,445.5 L358.7,447.2 L360.6,449.7 L362.5,453.0
		L364.4,457.0 L366.3,461.3 L368.2,465.9 L370.1,470.6 L372.0,475.1 L373.9,479.3 L375.8,483.0 L377.7,485.9
		L379.6,488.0 L381.5,489.1 L383.4,489.0 L385.3,487.7 L387.2,485.2 L389.2,481.2 L391.1,476.0 L393.0,469.4
		L394.9,461.6 L396.8,452.6 L398.7,442.5 L400.6,431.5 L402.5,419.7 L404.4,407.2 L406.3,394.3 L408.2,381.2
		L410.1,368.0 L412.0,354.8 L413.9,342.0 L415.8,329.5 L417.7,317.7 L419.6,306.5 L421.5,296.2 L423.4,286.6
		L425.3,278.0 L427.2,270.3 L429.1,263.5 L431.0,257.6 L432.9,252.5 L434.8,248.0 L436.7,244.2 L438.7,240.9
		L440.6,238.0 L442.5,235.3 L444.4,232.7 L446.3,230.2 L448.2,227.5 L450.1,224.6 L452.0,221.5 L453.9,217.9
		L455.8,213.8 L457.7,209.2 L459.6,204.2 L461.5,198.5 L463.4,192.4 L465.3,185.7 L467.2,178.7 L469.1,171.3
		L471.0,163.7 L472.9,155.9 L474.8,148.2 L476.7,140.8 L478.6,133.6 L480.5,127.1 L482.4,121.2 L484.3,116.2
		L486.2,112.3 L488.1,109.5 L490.1,108.1 L492.0,108.0 L493.9,109.4 L495.8,112.2 L497.7,116.5 L499.6,122.2
		L501.5,129.2 L503.4,137.3 L505.3,146.5 L507.2,156.6 L509.1,167.4 L511.0,178.8 L512.9,190.4 L514.8,202.3
		L516.7,214.1 L518.6,225.8 L520.5,237.2 L522.4,248.1 L524.3,258.5 L526.2,268.3 L528.1,277.4 L530.0,285.8
		L531.9,293.5 L533.8,300.4 L535.7,306.5 L537.6,311.9 L539.6,316.6 L541.5,320.6 L543.4,324.0 L545.3,326.8
		L547.2,329.1 L549.1,330.9 L551.0,332.4 L552.9,333.5 L554.8,334.3 L556.7,335.0 L558.6,335.5 L560.5,336.0
		L562.4,336.4 L564.3,336.8 L566.2,337.3 L568.1,337.8 L570.0,338.4 L571.9,339.1 L573.8,339.7 L575.7,340.4
		L577.6,341.1 L579.5,341.7 L581.4,342.2 L583.3,342.5 L585.2,342.7 L587.1,342.7 L589.1,342.5 L591.0,341.9
		L592.9,341.1 L594.8,339.9 L596.7,338.3 L598.6,336.2 L600.5,333.7 L602.4,330.7 L604.3,327.2 L606.2,323.0
		L608.1,318.2 L610.0,312.7 L611.9,306.5 L613.8,299.6 L615.7,291.9 L617.6,283.5 L619.5,274.3 L621.4,264.6
		L623.3,254.2 L625.2,243.4 L627.1,232.3 L629.0,220.9 L630.9,209.6 L632.8,198.3 L634.7,187.4 L636.6,176.9
		L638.5,167.1 L640.5,158.1 L642.4,150.0 L644.3,143.0 L646.2,137.1 L648.1,132.5 L650.0,129.0 L651.9,126.7
		L653.8,125.6 L655.7,125.6 L657.6,126.7 L659.5,128.6 L661.4,131.4 L663.3,134.9 L665.2,138.9 L667.1,143.4
		L669.0,148.2 L670.9,153.2 L672.8,158.3 L674.7,163.5 L676.6,168.7 L678.5,173.8 L680.4,178.9 L682.3,183.8
		L684.2,188.6 L686.1,193.3 L688.0,198.0 L690.0,202.5 L691.9,207.1 L693.8,211.7 L695.7,216.3 L697.6,221.0
		L699.5,225.8 L701.4,230.7 L703.3,235.7 L705.2,240.8 L707.1,246.0 L709.0,251.3 L710.9,256.7 L712.8,262.1
		L714.7,267.5 L716.6,272.8 L718.5,278.0 L720.4,283.1 L722.3,287.9 L724.2,292.6 L726.1,297.0 L728.0,301.1
		L729.9,304.9 L731.8,308.4 L733.7,311.6 L735.6,314.5 L737.5,317.2 L739.5,319.6 L741.4,322.0 L743.3,324.2
		L745.2,326.5 L747.1,328.8 L749.0,331.4 L750.9,334.1 L752.8,337.3 L754.7,340.9 L756.6,345.0 L758.5,349.6
		L760.4,354.9 L762.3,360.8 L764.2,367.4 L766.1,374.5 L768.0,382.3 L769.9,390.6 L771.8,399.4 L773.7,408.6
		L775.6,418.0 L777.5,427.5 L779.4,437.1 L781.3,446.6 L783.2,456.0 L785.1,464.9 L787.0,473.5 L789.0,481.6
		L790.9,489.1 L792.8,496.0 L794.7,502.3 L796.6,507.9 L798.5,513.0 L800.4,517.4 L802.3,521.3 L804.2,524.6
		L806.1,527.6 L808.0,530.2 L809.9,532.5 L811.8,534.6 L813.7,536.5 L815.6,538.4 L817.5,540.1 L819.4,541.9
		L821.3,543.6 L823.2,545.3 L825.1,547.1 L827.0,548.9 L828.9,550.7 L830.8,552.4 L832.7,554.1 L834.6,555.7
		L836.5,557.2 L838.4,558.5 L840.4,559.7 L842.3,560.7 L844.2,561.5 L846.1,562.1 L848.0,562.4 L849.9,562.5
		L851.8,562.4 L853.7,562.1 L855.6,561.5 L857.5,560.8 L859.4,559.8 L861.3,558.7 L863.2,557.5 L865.1,556.1
		L867.0,554.6 L868.9,553.0 L870.8,551.4 L872.7,549.7 L874.6,547.9 L876.5,546.2 L878.4,544.4 L880.3,542.7
		L882.2,541.0 L884.1,539.4 L886.0,537.9 L887.9,536.5 L889.9,535.2 L891.8,534.1 L893.7,533.1 L895.6,532.4
		L897.5,531.9 L899.4,531.6 L901.3,531.5 L903.2,531.8 L905.1,532.3 L907.0,533.2 L908.9,534.3 L910.8,535.8
		L912.7,537.5 L914.6,539.5 L916.5,541.8 L918.4,544.3 L920.3,547.1 L922.2,550.0 L924.1,553.1 L926.0,556.4
		L927.9,559.8 L929.8,563.2 L931.7,566.7 L933.6,570.2 L935.5,573.7 L937.4,577.2 L939.4,580.7 L941.3,584.0
		L943.2,587.3 L945.1,590.5 L947.0,593.6 L948.9,596.6 L950.8,599.5 L952.7,602.2 L954.6,604.9 L956.5,607.4
		L958.4,609.8 L960.3,612.1 L962.2,614.4 L964.1,616.5 L966.0,618.5 L967.9,620.4 L969.8,622.3 L971.7,624.1
		L973.6,625.8 L975.5,627.4 L977.4,629.0 L979.3,630.5 L981.2,632.0 L983.1,633.4 L985.0,634.8 L986.9,636.1
		L988.9,637.4 L990.8,638.6 L992.7,639.8 L994.6,640.9 L996.5,642.1 L998.4,643.1 L1000.3,644.2 L1002.2,645.1
		L1004.1,646.1 L1006.0,647.0 L1007.9,647.8 L1009.8,648.6 L1011.7,649.4 L1013.6,650.0  '/></g>
	</g>
	<g id="gnuplot_plot_2" ><title>Confidence interval</title>
<g fill="none" color="white" stroke="rgb( 31, 120, 180)" stroke-width="1.00" stroke-linecap="butt" stroke-linejoin="miter">
</g>
<g fill="none" color="black" stroke="currentColor" stroke-width="1.00" stroke-linecap="butt" stroke-linejoin="miter">
	<g transform="translate(1089.0,85.0)" stroke="none" fill="black" font-family="Helvetica" font-size="12.00"  text-anchor="start">
		<text><tspan font-family="Helvetica" >Confidence interval</tspan></text>
	</g>
</g>
<g fill="none" color="black" stroke="currentColor" stroke-width="1.00" stroke-linecap="butt" stroke-linejoin="miter">
	<g stroke='none' shape-rendering='crispEdges'>
		<polygon fill = 'rgb( 31, 120, 180)' fill-opacity = '0.250000' points = '1038.5,85.6 1080.7,85.6 1080.7,76.6 1038.5,76.6 '/>
		<polygon fill = 'rgb( 31, 120, 180)' fill-opacity = '0.250000' points = '151.2,532.1 153.1,531.6 155.0,531.5 156.9,532.0 158.8,532.9 160.7,534.2 162.6,535.9 164.5,537.9 166.4,540.2 168.3,542.7 170.2,545.4 172.1,548.1 174.0,550.7 175.9,553.3 177.8,555.8 179.7,558.0
181.6,560.0 183.5,561.7 185.4,563.0 187.3,564.1 189.3,564.8 191.2,565.2 193.1,565.3 195.0,565.2 196.9,564.8 198.8,564.2 200.7,563.5 202.6,562.6 204.5,561.6 206.4,560.5 208.3,559.3 210.2,557.9
212.1,556.5 214.0,554.8 215.9,552.9 217.8,550.8 219.7,548.2 221.6,545.2 223.5,541.6 225.4,537.3 227.3,532.3 229.2,526.4 231.1,519.5 233.0,511.6 234.9,502.6 236.8,492.4 238.8,481.1 240.7,468.5
242.6,454.8 244.5,439.9 246.4,424.1 248.3,407.3 250.2,389.7 252.1,371.5 254.0,353.0 255.9,334.3 257.8,315.8 259.7,297.7 261.6,280.2 263.5,263.7 265.4,248.5 267.3,234.9 269.2,223.2 271.1,213.5
273.0,206.1 274.9,201.2 276.8,198.8 278.7,199.2 280.6,202.2 282.5,207.9 284.4,216.1 286.3,226.8 288.2,239.6 290.2,254.4 292.1,270.9 294.0,288.7 295.9,307.6 297.8,327.1 299.7,346.8 301.6,366.5
303.5,385.8 305.4,404.3 307.3,421.7 309.2,437.8 311.1,452.4 313.0,465.3 314.9,476.3 316.8,485.4 318.7,492.5 320.6,497.7 322.5,500.9 324.4,502.4 326.3,502.2 328.2,500.5 330.1,497.6 332.0,493.6
333.9,488.7 335.8,483.3 337.7,477.6 339.7,471.7 341.6,466.0 343.5,460.7 345.4,455.9 347.3,451.8 349.2,448.6 351.1,446.3 353.0,445.0 354.9,444.7 356.8,445.5 358.7,447.2 360.6,449.7 362.5,453.0
364.4,457.0 366.3,461.3 368.2,465.9 370.1,470.6 372.0,475.1 373.9,479.3 375.8,483.0 377.7,485.9 379.6,488.0 381.5,489.1 383.4,489.0 385.3,487.7 387.2,485.2 389.2,481.2 391.1,476.0 393.0,469.4
394.9,461.6 396.8,452.6 398.7,442.5 400.6,431.5 402.5,419.7 404.4,407.2 406.3,394.3 408.2,381.2 410.1,368.0 412.0,354.8 413.9,342.0 415.8,329.5 417.7,317.7 419.6,306.5 421.5,296.2 423.4,286.6
425.3,278.0 427.2,270.3 429.1,263.5 431.0,257.6 432.9,252.5 434.8,248.0 436.7,244.2 438.7,240.9 440.6,238.0 442.5,235.3 444.4,232.7 446.3,230.2 448.2,227.5 450.1,224.6 452.0,221.5 453.9,217.9
455.8,213.8 457.7,209.2 459.6,204.2 461.5,198.5 463.4,192.4 465.3,185.7 467.2,178.7 469.1,171.3 471.0,163.7 472.9,155.9 474.8,148.2 476.7,140.8 478.6,133.6 480.5,127.1 482.4,121.2 484.3,116.2
486.2,112.3 488.1,109.5 490.1,108.1 492.0,108.0 493.9,109.4 495.8,112.2 497.7,116.5 499.6,122.2 501.5,129.2 503.4,137.3 505.3,146.5 507.2,156.6 509.1,167.4 511.0,178.8 512.9,190.4 514.8,202.3
516.7,214.1 518.6,225.8 520.5,237.2 522.4,248.1 524.3,258.5 526.2,268.3 528.1,277.4 530.0,285.8 531.9,293.5 533.8,300.4 535.7,306.5 537.6,311.9 539.6,316.6 541.5,320.6 543.4,324.0 545.3,326.8
547.2,329.1 549.1,330.9 551.0,332.4 552.9,333.5 554.8,334.3 556.7,335.0 558.6,335.5 560.5,336.0 562.4,336.4 564.3,336.8 566.2,337.3 568.1,337.8 570.0,338.4 571.9,339.1 573.8,339.7 575.7,340.4
577.6,341.1 579.5,341.7 581.4,342.2 583.3,342.5 585.2,342.7 587.1,342.7 589.1,342.5 591.0,341.9 592.9,341.1 594.8,339.9 596.7,338.3 598.6,336.2 600.5,333.7 602.4,330.7 604.3,327.2 606.2,323.0
608.1,318.2 610.0,312.7 611.9,306.5 613.8,299.6 615.7,291.9 617.6,283.5 619.5,274.3 621.4,264.6 623.3,254.2 625.2,243.4 627.1,232.3 629.0,220.9 630.9,209.6 632.8,198.3 634.7,187.4 636.6,176.9
638.5,167.1 640.5,158.1 642.4,150.0 644.3,143.0 646.2,137.1 648.1,132.5 650.0,129.0 651.9,126.7 653.8,125.6 655.7,125.6 657.6,126.7 659.5,128.6 661.4,131.4 663.3,134.9 665.2,138.9 667.1,143.4
669.0,148.2 670.9,153.2 672.8,158.3 674.7,163.5 676.6,168.7 678.5,173.8 680.4,178.9 682.3,183.8 684.2,188.6 686.1,193.3 688.0,198.0 690.0,202.5 691.9,207.1 693.8,211.7 695.7,216.3 697.6,221.0
699.5,225.8 701.4,230.7 703.3,235.7 705.2,240.8 707.1,246.0 709.0,251.3 710.9,256.7 712.8,262.1 714.7,267.5 716.6,272.8 718.5,278.0 720.4,283.1 722.3,287.9 724.2,292.6 726.1,297.0 728.0,301.1
729.9,304.9 731.8,308.4 733.7,311.6 735.6,314.5 737.5,317.2 739.5,319.6 741.4,322.0 743.3,324.2 745.2,326.5 747.1,328.8 749.0,331.4 750.9,334.1 752.8,337.3 754.7,340.9 756.6,345.0 758.5,349.6
760.4,354.9 762.3,360.8 764.2,367.4 766.1,374.5 768.0,382.3 769.9,390.6 771.8,399.4 773.7,408.6 775.6,418.0 777.5,427.5 779.4,437.1 781.3,446.6 783.2,456.0 785.1,464.9 787.0,473.5 789.0,481.6
790.9,489.1 792.8,496.0 794.7,502.3 796.6,507.9 798.5,513.0 800.4,517.4 802.3,521.3 804.2,524.6 806.1,527.6 808.0,530.2 809.9,532.5 811.8,534.6 813.7,536.5 815.6,538.4 817.5,540.1 819.4,541.9
821.3,543.6 823.2,545.3 825.1,547.1 827.0,548.9 828.9,550.7 830.8,552.4 832.7,554.1 834.6,555.7 836.5,557.2 838.4,558.5 840.4,559.7 842.3,560.7 844.2,561.5 846.1,562.1 848.0,562.4 849.9,562.5
851.8,562.4 853.7,562.1 855.6,561.5 857.5,560.8 859.4,559.8 861.3,558.7 863.2,557.5 865.1,556.1 867.0,554.6 868.9,553.0 870.8,551.4 872.7,549.7 874.6,547.9 876.5,546.2 878.4,544.4 880.3,542.7
882.2,541.0 884.1,539.4 886.0,537.9 887.9,536.5 889.9,535.2 891.8,534.1 893.7,533.1 895.6,532.4 897.5,531.9 899.4,531.6 901.3,531.5 903.2,531.8 905.1,532.3 907.0,533.2 908.9,534.3 910.8,535.8
912.7,537.5 914.6,539.5 916.5,541.8 918.4,544.3 920.3,547.1 922.2,550.0 924.1,553.1 924.1,662.4 922.2,662.4 920.3,662.4 918.4,662.4 916.5,662.4 914.6,662.4 912.7,662.4 910.8,662.4 908.9,662.4
907.0,662.4 905.1,662.4 903.2,662.4 901.3,662.4 899.4,662.4 897.5,662.4 895.6,662.4 893.7,662.4 891.8,662.4 889.9,662.4 887.9,662.4 886.0,662.4 884.1,662.4 882.2,662.4 880.3,662.4 878.4,662.4
876.5,662.4 874.6,662.4 872.7,662.4 870.8,662.4 868.9,662.4 867.0,662.4 865.1,662.4 863.2,662.4 861.3,662.4 859.4,662.4 857.5,662.4 855.6,662.4 853.7,662.4 851.8,662.4 849.9,662.4 848.0,662.4
846.1,662.4 844.2,662.4 842.3,662.4 840.4,662.4 838.4,662.4 836.5,662.4 834.6,662.4 832.7,662.4 830.8,662.4 828.9,662.4 827.0,662.4 825.1,662.4 823.2,662.4 821.3,662.4 819.4,662.4 817.5,662.4
815.6,662.4 813.7,662.4 811.8,662.4 809.9,662.4 808.0,662.4 806.1,662.4 804.2,662.4 802.3,662.4 800.4,662.4 798.5,662.4 796.6,662.4 794.7,662.4 792.8,662.4 790.9,662.4 789.0,662.4 787.0,662.4
785.1,662.4 783.2,662.4 781.3,662.4 779.4,662.4 777.5,662.4 775.6,662.4 773.7,662.4 771.8,662.4 769.9,662.4 768.0,662.4 766.1,662.4 764.2,662.4 762.3,662.4 760.4,662.4 758.5,662.4 756.6,662.4
754.7,662.4 752.8,662.4 750.9,662.4 749.0,662.4 747.1,662.4 745.2,662.4 743.3,662.4 741.4,662.4 739.5,662.4 737.5,662.4 735.6,662.4 733.7,662.4 731.8,662.4 729.9,662.4 728.0,662.4 726.1,662.4
724.2,662.4 722.3,662.4 720.4,662.4 718.5,662.4 716.6,662.4 714.7,662.4 712.8,662.4 710.9,662.4 709.0,662.4 707.1,662.4 705.2,662.4 703.3,662.4 701.4,662.4 699.5,662.4 697.6,662.4 695.7,662.4
693.8,662.4 691.9,662.4 690.0,662.4 688.0,662.4 686.1,662.4 684.2,662.4 682.3,662.4 680.4,662.4 678.5,662.4 676.6,662.4 674.7,662.4 672.8,662.4 670.9,662.4 669.0,662.4 667.1,662.4 665.2,662.4
663.3,662.4 661.4,662.4 659.5,662.4 657.6,662.4 655.7,662.4 653.8,662.4 651.9,662.4 650.0,662.4 648.1,662.4 646.2,662.4 644.3,662.4 642.4,662.4 640.5,662.4 638.5,662.4 636.6,662.4 634.7,662.4
632.8,662.4 630.9,662.4 629.0,662.4 627.1,662.4 625.2,662.4 623.3,662.4 621.4,662.4 619.5,662.4 617.6,662.4 615.7,662.4 613.8,662.4 611.9,662.4 610.0,662.4 608.1,662.4 606.2,662.4 604.3,662.4
602.4,662.4 600.5,662.4 598.6,662.4 596.7,662.4 594.8,662.4 592.9,662.4 591.0,662.4 589.1,662.4 587.1,662.4 585.2,662.4 583.3,662.4 581.4,662.4 579.5,662.4 577.6,662.4 575.7,662.4 573.8,662.4
571.9,662.4 570.0,662.4 568.1,662.4 566.2,662.4 564.3,662.4 562.4,662.4 560.5,662.4 558.6,662.4 556.7,662.4 554.8,662.4 552.9,662.4 551.0,662.4 549.1,662.4 547.2,662.4 545.3,662.4 543.4,662.4
541.5,662.4 539.6,662.4 537.6,662.4 535.7,662.4 533.8,662.4 531.9,662.4 530.0,662.4 528.1,662.4 526.2,662.4 524.3,662.4 522.4,662.4 520.5,662.4 518.6,662.4 516.7,662.4 514.8,662.4 512.9,662.4
511.0,662.4 509.1,662.4 507.2,662.4 505.3,662.4 503.4,662.4 501.5,662.4 499.6,662.4 497.7,662.4 495.8,662.4 493.9,662.4 492.0,662.4 490.1,662.4 488.1,662.4 486.2,662.4 484.3,662.4 482.4,662.4
480.5,662.4 478.6,662.4 476.7,662.4 474.8,662.4 472.9,662.4 471.0,662.4 469.1,662.4 467.2,662.4 465.3,662.4 463.4,662.4 461.5,662.4 459.6,662.4 457.7,662.4 455.8,662.4 453.9,662.4 452.0,662.4
450.1,662.4 448.2,662.4 446.3,662.4 444.4,662.4 442.5,662.4 440.6,662.4 438.7,662.4 436.7,662.4 434.8,662.4 432.9,662.4 431.0,662.4 429.1,662.4 427.2,662.4 425.3,662.4 423.4,662.4 421.5,662.4
419.6,662.4 417.7,662.4 415.8,662.4 413.9,662.4 412.0,662.4 410.1,662.4 408.2,662.4 406.3,662.4 404.4,662.4 402.5,662.4 400.6,662.4 398.7,662.4 396.8,662.4 394.9,662.4 393.0,662.4 391.1,662.4
389.2,662.4 387.2,662.4 385.3,662.4 383.4,662.4 381.5,662.4 379.6,662.4 377.7,662.4 375.8,662.4 373.9,662.4 372.0,662.4 370.1,662.4 368.2,662.4 366.3,662.4 364.4,662.4 362.5,662.4 360.6,662.4
358.7,662.4 356.8,662.4 354.9,662.4 353.0,662.4 351.1,662.4 349.2,662.4 347.3,662.4 345.4,662.4 343.5,662.4 341.6,662.4 339.7,662.4 337.7,662.4 335.8,662.4 333.9,662.4 332.0,662.4 330.1,662.4
328.2,662.4 326.3,662.4 324.4,662.4 322.5,662.4 320.6,662.4 318.7,662.4 316.8,662.4 314.9,662.4 313.0,662.4 311.1,662.4 309.2,662.4 307.3,662.4 305.4,662.4 303.5,662.4 301.6,662.4 299.7,662.4
297.8,662.4 295.9,662.4 294.0,662.4 292.1,662.4 290.2,662.4 288.2,662.4 286.3,662.4 284.4,662.4 282.5,662.4 280.6,662.4 278.7,662.4 276.8,662.4 274.9,662.4 273.0,662.4 271.1,662.4 269.2,662.4
267.3,662.4 265.4,662.4 263.5,662.4 261.6,662.4 259.7,662.4 257.8,662.4 255.9,662.4 254.0,662.4 252.1,662.4 250.2,662.4 248.3,662.4 246.4,662.4 244.5,662.4 242.6,662.4 240.7,662.4 238.8,662.4
236.8,662.4 234.9,662.4 233.0,662.4 231.1,662.4 229.2,662.4 227.3,662.4 225.4,662.4 223.5,662.4 221.6,662.4 219.7,662.4 217.8,662.4 215.9,662.4 214.0,662.4 212.1,662.4 210.2,662.4 208.3,662.4
206.4,662.4 204.5,662.4 202.6,662.4 200.7,662.4 198.8,662.4 196.9,662.4 195.0,662.4 193.1,662.4 191.2,662.4 189.3,662.4 187.3,662.4 185.4,662.4 183.5,662.4 181.6,662.4 179.7,662.4 177.8,662.4
175.9,662.4 174.0,662.4 172.1,662.4 170.2,662.4 168.3,662.4 166.4,662.4 164.5,662.4 162.6,662.4 160.7,662.4 158.8,662.4 156.9,662.4 155.0,662.4 153.1,662.4 151.2,662.4 '/>
	</g>
</g>
	</g>
	<g id="gnuplot_plot_3" ><title>Point estimate</title>
<g fill="none" color="white" stroke="rgb( 31, 120, 180)" stroke-width="2.00" stroke-linecap="butt" stroke-linejoin="miter">
</g>
<g fill="none" color="black" stroke="currentColor" stroke-width="2.00" stroke-linecap="butt" stroke-linejoin="miter">
	<g transform="translate(1089.0,103.0)" stroke="none" fill="black" font-family="Helvetica" font-size="12.00"  text-anchor="start">
		<text><tspan font-family="Helvetica" >Point estimate</tspan></text>
	</g>
</g>
<g fill="none" color="black" stroke="currentColor" stroke-width="2.00" stroke-linecap="butt" stroke-linejoin="miter">
	<path stroke='rgb( 31, 120, 180)'  d='M1038.5,99.1 L1080.7,99.1 M530.4,662.4 L530.4,287.4  '/></g>
	</g>
<g fill="none" color="black" stroke="currentColor" stroke-width="2.00" stroke-linecap="butt" stroke-linejoin="miter">
</g>
<g fill="none" color="black" stroke="black" stroke-width="1.00" stroke-linecap="butt" stroke-linejoin="miter">
</g>
<g fill="none" color="black" stroke="currentColor" stroke-width="1.00" stroke-linecap="butt" stroke-linejoin="miter">
	<path stroke='black'  d='M63.6,54.1 L63.6,662.4 L1013.6,662.4 L1013.6,54.1 L63.6,54.1 Z  '/></g>
<g fill="none" color="black" stroke="currentColor" stroke-width="1.00" stroke-linecap="butt" stroke-linejoin="miter">
</g>
</g>
</svg>

