<?xml version="1.0" encoding="utf-8"  standalone="no"?>
<svg 
 viewBox="0 0 450 300"
 xmlns="http://www.w3.org/2000/svg"
 xmlns:xlink="http://www.w3.org/1999/xlink"
>

<title>Gnuplot</title>
<desc>Produced by GNUPLOT 5.2 patchlevel 6 </desc>

<g id="gnuplot_canvas">

<rect x="0" y="0" width="450" height="300" fill="none"/>
<defs>

	<circle id='gpDot' r='0.5' stroke-width='0.5' stroke='currentColor'/>
	<path id='gpPt0' stroke-width='0.222' stroke='currentColor' d='M-1,0 h2 M0,-1 v2'/>
	<path id='gpPt1' stroke-width='0.222' stroke='currentColor' d='M-1,-1 L1,1 M1,-1 L-1,1'/>
	<path id='gpPt2' stroke-width='0.222' stroke='currentColor' d='M-1,0 L1,0 M0,-1 L0,1 M-1,-1 L1,1 M-1,1 L1,-1'/>
	<rect id='gpPt3' stroke-width='0.222' stroke='currentColor' x='-1' y='-1' width='2' height='2'/>
	<rect id='gpPt4' stroke-width='0.222' stroke='currentColor' fill='currentColor' x='-1' y='-1' width='2' height='2'/>
	<circle id='gpPt5' stroke-width='0.222' stroke='currentColor' cx='0' cy='0' r='1'/>
	<use xlink:href='#gpPt5' id='gpPt6' fill='currentColor' stroke='none'/>
	<path id='gpPt7' stroke-width='0.222' stroke='currentColor' d='M0,-1.33 L-1.33,0.67 L1.33,0.67 z'/>
	<use xlink:href='#gpPt7' id='gpPt8' fill='currentColor' stroke='none'/>
	<use xlink:href='#gpPt7' id='gpPt9' stroke='currentColor' transform='rotate(180)'/>
	<use xlink:href='#gpPt9' id='gpPt10' fill='currentColor' stroke='none'/>
	<use xlink:href='#gpPt3' id='gpPt11' stroke='currentColor' transform='rotate(45)'/>
	<use xlink:href='#gpPt11' id='gpPt12' fill='currentColor' stroke='none'/>
	<path id='gpPt13' stroke-width='0.222' stroke='currentColor' d='M0,1.330 L1.265,0.411 L0.782,-1.067 L-0.782,-1.076 L-1.265,0.411 z'/>
	<use xlink:href='#gpPt13' id='gpPt14' fill='currentColor' stroke='none'/>
	<filter id='textbox' filterUnits='objectBoundingBox' x='0' y='0' height='1' width='1'>
	  <feFlood flood-color='white' flood-opacity='1' result='bgnd'/>
	  <feComposite in='SourceGraphic' in2='bgnd' operator='atop'/>
	</filter>
	<filter id='greybox' filterUnits='objectBoundingBox' x='0' y='0' height='1' width='1'>
	  <feFlood flood-color='lightgrey' flood-opacity='1' result='grey'/>
	  <feComposite in='SourceGraphic' in2='grey' operator='atop'/>
	</filter>
</defs>
<g fill="none" color="white" stroke="currentColor" stroke-width="1.00" stroke-linecap="butt" stroke-linejoin="miter">
</g>
<g fill="none" color="black" stroke="currentColor" stroke-width="1.00" stroke-linecap="butt" stroke-linejoin="miter">
	<path stroke='black'  d='M71.9,242.4 L80.9,242.4  '/>	<g transform="translate(63.6,246.3)" stroke="none" fill="black" font-family="Helvetica" font-size="12.00"  text-anchor="end">
		<text><tspan font-family="Helvetica" > 0</tspan></text>
	</g>
</g>
<g fill="none" color="black" stroke="currentColor" stroke-width="1.00" stroke-linecap="butt" stroke-linejoin="miter">
	<path stroke='black'  d='M71.9,205.0 L80.9,205.0  '/>	<g transform="translate(63.6,208.9)" stroke="none" fill="black" font-family="Helvetica" font-size="12.00"  text-anchor="end">
		<text><tspan font-family="Helvetica" > 0.2</tspan></text>
	</g>
</g>
<g fill="none" color="black" stroke="currentColor" stroke-width="1.00" stroke-linecap="butt" stroke-linejoin="miter">
	<path stroke='black'  d='M71.9,167.6 L80.9,167.6  '/>	<g transform="translate(63.6,171.5)" stroke="none" fill="black" font-family="Helvetica" font-size="12.00"  text-anchor="end">
		<text><tspan font-family="Helvetica" > 0.4</tspan></text>
	</g>
</g>
<g fill="none" color="black" stroke="currentColor" stroke-width="1.00" stroke-linecap="butt" stroke-linejoin="miter">
	<path stroke='black'  d='M71.9,130.2 L80.9,130.2  '/>	<g transform="translate(63.6,134.1)" stroke="none" fill="black" font-family="Helvetica" font-size="12.00"  text-anchor="end">
		<text><tspan font-family="Helvetica" > 0.6</tspan></text>
	</g>
</g>
<g fill="none" color="black" stroke="currentColor" stroke-width="1.00" stroke-linecap="butt" stroke-linejoin="miter">
	<path stroke='black'  d='M71.9,92.9 L80.9,92.9  '/>	<g transform="translate(63.6,96.8)" stroke="none" fill="black" font-family="Helvetica" font-size="12.00"  text-anchor="end">
		<text><tspan font-family="Helvetica" > 0.8</tspan></text>
	</g>
</g>
<g fill="none" color="black" stroke="currentColor" stroke-width="1.00" stroke-linecap="butt" stroke-linejoin="miter">
	<path stroke='black'  d='M71.9,55.5 L80.9,55.5  '/>	<g transform="translate(63.6,59.4)" stroke="none" fill="black" font-family="Helvetica" font-size="12.00"  text-anchor="end">
		<text><tspan font-family="Helvetica" > 1</tspan></text>
	</g>
</g>
<g fill="none" color="black" stroke="currentColor" stroke-width="1.00" stroke-linecap="butt" stroke-linejoin="miter">
	<path stroke='black'  d='M71.9,18.1 L80.9,18.1  '/>	<g transform="translate(63.6,22.0)" stroke="none" fill="black" font-family="Helvetica" font-size="12.00"  text-anchor="end">
		<text><tspan font-family="Helvetica" > 1.2</tspan></text>
	</g>
</g>
<g fill="none" color="black" stroke="currentColor" stroke-width="1.00" stroke-linecap="butt" stroke-linejoin="miter">
	<path stroke='black'  d='M71.9,242.4 L71.9,233.4  '/>	<g transform="translate(71.9,264.3)" stroke="none" fill="black" font-family="Helvetica" font-size="12.00"  text-anchor="middle">
		<text><tspan font-family="Helvetica" > 25</tspan></text>
	</g>
</g>
<g fill="none" color="black" stroke="currentColor" stroke-width="1.00" stroke-linecap="butt" stroke-linejoin="miter">
	<path stroke='black'  d='M130.8,242.4 L130.8,233.4  '/>	<g transform="translate(130.8,264.3)" stroke="none" fill="black" font-family="Helvetica" font-size="12.00"  text-anchor="middle">
		<text><tspan font-family="Helvetica" > 30</tspan></text>
	</g>
</g>
<g fill="none" color="black" stroke="currentColor" stroke-width="1.00" stroke-linecap="butt" stroke-linejoin="miter">
	<path stroke='black'  d='M189.6,242.4 L189.6,233.4  '/>	<g transform="translate(189.6,264.3)" stroke="none" fill="black" font-family="Helvetica" font-size="12.00"  text-anchor="middle">
		<text><tspan font-family="Helvetica" > 35</tspan></text>
	</g>
</g>
<g fill="none" color="black" stroke="currentColor" stroke-width="1.00" stroke-linecap="butt" stroke-linejoin="miter">
	<path stroke='black'  d='M248.5,242.4 L248.5,233.4  '/>	<g transform="translate(248.5,264.3)" stroke="none" fill="black" font-family="Helvetica" font-size="12.00"  text-anchor="middle">
		<text><tspan font-family="Helvetica" > 40</tspan></text>
	</g>
</g>
<g fill="none" color="black" stroke="currentColor" stroke-width="1.00" stroke-linecap="butt" stroke-linejoin="miter">
	<path stroke='black'  d='M307.3,242.4 L307.3,233.4  '/>	<g transform="translate(307.3,264.3)" stroke="none" fill="black" font-family="Helvetica" font-size="12.00"  text-anchor="middle">
		<text><tspan font-family="Helvetica" > 45</tspan></text>
	</g>
</g>
<g fill="none" color="black" stroke="currentColor" stroke-width="1.00" stroke-linecap="butt" stroke-linejoin="miter">
	<path stroke='black'  d='M366.2,242.4 L366.2,233.4  '/>	<g transform="translate(366.2,264.3)" stroke="none" fill="black" font-family="Helvetica" font-size="12.00"  text-anchor="middle">
		<text><tspan font-family="Helvetica" > 50</tspan></text>
	</g>
</g>
<g fill="none" color="black" stroke="currentColor" stroke-width="1.00" stroke-linecap="butt" stroke-linejoin="miter">
	<path stroke='black'  d='M425.0,242.4 L425.0,233.4  '/>	<g transform="translate(425.0,264.3)" stroke="none" fill="black" font-family="Helvetica" font-size="12.00"  text-anchor="middle">
		<text><tspan font-family="Helvetica" > 55</tspan></text>
	</g>
</g>
<g fill="none" color="black" stroke="currentColor" stroke-width="1.00" stroke-linecap="butt" stroke-linejoin="miter">
</g>
<g fill="none" color="black" stroke="currentColor" stroke-width="1.00" stroke-linecap="butt" stroke-linejoin="miter">
	<path stroke='black'  d='M71.9,18.1 L71.9,242.4 L425.0,242.4 L425.0,18.1 L71.9,18.1 Z  '/></g>
<g fill="none" color="black" stroke="currentColor" stroke-width="1.00" stroke-linecap="butt" stroke-linejoin="miter">
	<g transform="translate(16.3,130.3) rotate(270)" stroke="none" fill="black" font-family="Helvetica" font-size="12.00"  text-anchor="middle">
		<text><tspan font-family="Helvetica" >Density (a.u.)</tspan></text>
	</g>
</g>
<g fill="none" color="black" stroke="currentColor" stroke-width="1.00" stroke-linecap="butt" stroke-linejoin="miter">
	<g transform="translate(248.4,291.3)" stroke="none" fill="black" font-family="Helvetica" font-size="12.00"  text-anchor="middle">
		<text><tspan font-family="Helvetica" >Average time (us)</tspan></text>
	</g>
</g>
<g fill="none" color="black" stroke="currentColor" stroke-width="1.00" stroke-linecap="butt" stroke-linejoin="miter">
</g>
	<g id="gnuplot_plot_1" ><title>Base PDF</title>
<g fill="none" color="black" stroke="currentColor" stroke-width="1.00" stroke-linecap="butt" stroke-linejoin="miter">
	<g stroke='none' shape-rendering='crispEdges'>
		<polygon fill = 'rgb(227,  26,  28)' fill-opacity = '0.500000' points = '117.4,241.7 117.9,241.6 118.5,241.4 119.1,241.3 119.7,241.0 120.3,240.8 120.8,240.5 121.4,240.2 122.0,239.8 122.6,239.4 123.2,238.9 123.8,238.4 124.3,237.8 124.9,237.1 125.5,236.3 126.1,235.4
126.7,234.5 127.2,233.4 127.8,232.3 128.4,231.0 129.0,229.6 129.6,228.1 130.2,226.5 130.7,224.7 131.3,222.9 131.9,220.9 132.5,218.7 133.1,216.5 133.6,214.1 134.2,211.6 134.8,209.0 135.4,206.4
136.0,203.6 136.6,200.8 137.1,197.9 137.7,194.9 138.3,192.0 138.9,189.0 139.5,186.1 140.0,183.2 140.6,180.4 141.2,177.6 141.8,175.0 142.4,172.5 143.0,170.1 143.5,167.9 144.1,165.9 144.7,164.1
145.3,162.6 145.9,161.2 146.4,160.2 147.0,159.4 147.6,158.8 148.2,158.6 148.8,158.6 149.4,158.9 149.9,159.5 150.5,160.3 151.1,161.4 151.7,162.8 152.3,164.4 152.8,166.2 153.4,168.2 154.0,170.3
154.6,172.7 155.2,175.2 155.8,177.8 156.3,180.5 156.9,183.2 157.5,186.0 158.1,188.9 158.7,191.7 159.2,194.6 159.8,197.4 160.4,200.2 161.0,202.9 161.6,205.5 162.2,208.1 162.7,210.6 163.3,212.9
163.9,215.2 164.5,217.3 165.1,219.4 165.6,221.3 166.2,223.1 166.8,224.7 167.4,226.3 168.0,227.7 168.6,229.1 169.1,230.3 169.7,231.4 170.3,232.4 170.9,233.3 171.5,234.2 172.0,234.9 172.6,235.6
173.2,236.2 173.8,236.8 174.4,237.3 175.0,237.7 175.5,238.1 176.1,238.5 176.7,238.8 177.3,239.0 177.9,239.3 178.4,239.5 179.0,239.7 179.6,239.9 180.2,240.0 180.8,240.1 181.4,240.2 181.9,240.4
182.5,240.4 183.1,240.5 183.7,240.6 184.3,240.7 184.8,240.7 185.4,240.8 186.0,240.8 186.6,240.9 187.2,240.9 187.8,241.0 188.3,241.0 188.9,241.1 189.5,241.1 190.1,241.2 190.7,241.2 191.2,241.2
191.8,241.3 192.4,241.3 193.0,241.4 193.6,241.4 194.2,241.4 194.7,241.5 195.3,241.5 195.9,241.6 196.5,241.6 197.1,241.7 197.6,241.7 198.2,241.7 198.8,241.8 199.4,241.8 200.0,241.9 200.6,241.9
201.1,241.9 201.7,242.0 202.3,242.0 202.9,242.0 203.5,242.1 204.0,242.1 204.6,242.1 205.2,242.1 205.8,242.2 206.4,242.2 207.0,242.2 207.5,242.2 208.1,242.2 208.7,242.3 209.3,242.3 209.9,242.3
210.4,242.3 211.0,242.3 211.6,242.3 212.2,242.3 212.8,242.3 213.4,242.4 213.9,242.4 214.5,242.4 215.1,242.4 215.7,242.4 216.3,242.4 216.8,242.4 217.4,242.4 218.0,242.4 218.6,242.4 219.2,242.4
219.8,242.4 220.3,242.4 220.9,242.4 221.5,242.4 222.1,242.4 222.7,242.4 223.2,242.4 223.8,242.4 224.4,242.4 225.0,242.4 225.6,242.4 226.2,242.4 226.7,242.4 227.3,242.4 227.9,242.4 228.5,242.4
229.1,242.4 229.6,242.4 230.2,242.4 230.8,242.4 231.4,242.4 232.0,242.4 232.6,242.4 233.1,242.4 233.7,242.4 234.3,242.4 234.9,242.4 235.5,242.4 236.0,242.4 236.6,242.4 237.2,242.4 237.8,242.4
238.4,242.4 239.0,242.4 239.5,242.4 240.1,242.4 240.7,242.4 241.3,242.4 241.9,242.4 242.4,242.4 243.0,242.4 243.6,242.4 244.2,242.4 244.8,242.4 245.3,242.4 245.9,242.4 246.5,242.4 247.1,242.4
247.7,242.4 248.3,242.4 248.8,242.4 249.4,242.4 250.0,242.4 250.6,242.4 251.2,242.4 251.7,242.4 252.3,242.4 252.9,242.4 253.5,242.4 254.1,242.4 254.7,242.4 255.2,242.4 255.8,242.4 256.4,242.4
257.0,242.4 257.6,242.4 258.1,242.4 258.7,242.4 259.3,242.4 259.9,242.4 260.5,242.4 261.1,242.4 261.6,242.4 262.2,242.4 262.8,242.4 263.4,242.4 264.0,242.4 264.5,242.4 265.1,242.4 265.7,242.4
266.3,242.4 266.9,242.4 267.5,242.4 268.0,242.4 268.6,242.4 269.2,242.4 269.8,242.4 270.4,242.4 270.9,242.4 271.5,242.4 272.1,242.4 272.7,242.4 273.3,242.4 273.9,242.4 274.4,242.4 275.0,242.4
275.6,242.4 276.2,242.4 276.8,242.4 277.3,242.4 277.9,242.4 278.5,242.4 279.1,242.4 279.7,242.4 280.3,242.4 280.8,242.4 281.4,242.4 282.0,242.4 282.6,242.4 283.2,242.4 283.7,242.4 284.3,242.4
284.9,242.4 285.5,242.4 286.1,242.4 286.7,242.4 287.2,242.4 287.8,242.4 288.4,242.4 289.0,242.4 289.6,242.4 290.1,242.4 290.7,242.4 291.3,242.4 291.9,242.4 292.5,242.4 293.1,242.4 293.6,242.4
294.2,242.4 294.8,242.4 295.4,242.4 296.0,242.4 296.5,242.4 297.1,242.4 297.7,242.4 298.3,242.4 298.9,242.4 299.5,242.4 300.0,242.4 300.6,242.4 301.2,242.4 301.8,242.4 302.4,242.4 302.9,242.4
303.5,242.4 304.1,242.4 304.7,242.4 305.3,242.4 305.9,242.4 306.4,242.4 307.0,242.4 307.6,242.4 308.2,242.4 308.8,242.4 309.3,242.4 309.9,242.4 310.5,242.4 311.1,242.4 311.7,242.4 312.3,242.4
312.8,242.4 313.4,242.4 314.0,242.4 314.6,242.4 315.2,242.4 315.7,242.4 316.3,242.4 316.9,242.4 317.5,242.4 318.1,242.4 318.7,242.4 319.2,242.4 319.8,242.4 320.4,242.4 321.0,242.4 321.6,242.4
322.1,242.4 322.7,242.4 323.3,242.4 323.9,242.4 324.5,242.4 325.1,242.4 325.6,242.4 326.2,242.4 326.8,242.4 327.4,242.4 328.0,242.4 328.5,242.4 329.1,242.4 329.7,242.4 330.3,242.4 330.9,242.4
331.5,242.4 332.0,242.4 332.6,242.4 333.2,242.4 333.8,242.4 334.4,242.4 334.9,242.4 335.5,242.4 336.1,242.4 336.7,242.4 337.3,242.4 337.9,242.4 338.4,242.4 339.0,242.4 339.6,242.4 340.2,242.4
340.8,242.4 341.3,242.4 341.9,242.4 342.5,242.4 343.1,242.4 343.7,242.4 344.3,242.4 344.8,242.4 345.4,242.4 346.0,242.4 346.6,242.4 347.2,242.4 347.7,242.4 348.3,242.4 348.9,242.4 349.5,242.4
350.1,242.4 350.7,242.4 351.2,242.4 351.8,242.4 352.4,242.4 353.0,242.4 353.6,242.4 354.1,242.4 354.7,242.3 355.3,242.3 355.9,242.3 356.5,242.3 357.1,242.3 357.6,242.3 358.2,242.3 358.8,242.3
359.4,242.2 360.0,242.2 360.5,242.2 361.1,242.2 361.7,242.2 362.3,242.1 362.9,242.1 363.5,242.1 364.0,242.1 364.6,242.0 365.2,242.0 365.8,242.0 366.4,242.0 366.9,241.9 367.5,241.9 368.1,241.9
368.7,241.8 369.3,241.8 369.9,241.8 370.4,241.7 371.0,241.7 371.6,241.7 372.2,241.7 372.8,241.6 373.3,241.6 373.9,241.6 374.5,241.6 375.1,241.6 375.7,241.5 376.3,241.5 376.8,241.5 377.4,241.5
378.0,241.5 378.6,241.5 379.2,241.5 379.7,241.5 380.3,241.5 380.9,241.6 381.5,241.6 382.1,241.6 382.7,241.6 383.2,241.6 383.8,241.7 384.4,241.7 385.0,241.7 385.6,241.7 386.1,241.8 386.7,241.8
387.3,241.8 387.9,241.9 388.5,241.9 389.1,241.9 389.6,242.0 390.2,242.0 390.8,242.0 391.4,242.0 392.0,242.1 392.5,242.1 393.1,242.1 393.7,242.2 394.3,242.2 394.9,242.2 395.4,242.2 396.0,242.2
396.6,242.3 397.2,242.3 397.8,242.3 398.4,242.3 398.9,242.3 399.5,242.3 400.1,242.3 400.7,242.3 401.3,242.3 401.8,242.4 402.4,242.4 403.0,242.4 403.6,242.4 404.2,242.4 404.8,242.4 405.3,242.4
405.9,242.4 406.5,242.4 407.1,242.4 407.7,242.4 407.7,242.4 407.1,242.4 406.5,242.4 405.9,242.4 405.3,242.4 404.8,242.4 404.2,242.4 403.6,242.4 403.0,242.4 402.4,242.4 401.8,242.4 401.3,242.4
400.7,242.4 400.1,242.4 399.5,242.4 398.9,242.4 398.4,242.4 397.8,242.4 397.2,242.4 396.6,242.4 396.0,242.4 395.4,242.4 394.9,242.4 394.3,242.4 393.7,242.4 393.1,242.4 392.5,242.4 392.0,242.4
391.4,242.4 390.8,242.4 390.2,242.4 389.6,242.4 389.1,242.4 388.5,242.4 387.9,242.4 387.3,242.4 386.7,242.4 386.1,242.4 385.6,242.4 385.0,242.4 384.4,242.4 383.8,242.4 383.2,242.4 382.7,242.4
382.1,242.4 381.5,242.4 380.9,242.4 380.3,242.4 379.7,242.4 379.2,242.4 378.6,242.4 378.0,242.4 377.4,242.4 376.8,242.4 376.3,242.4 375.7,242.4 375.1,242.4 374.5,242.4 373.9,242.4 373.3,242.4
372.8,242.4 372.2,242.4 371.6,242.4 371.0,242.4 370.4,242.4 369.9,242.4 369.3,242.4 368.7,242.4 368.1,242.4 367.5,242.4 366.9,242.4 366.4,242.4 365.8,242.4 365.2,242.4 364.6,242.4 364.0,242.4
363.5,242.4 362.9,242.4 362.3,242.4 361.7,242.4 361.1,242.4 360.5,242.4 360.0,242.4 359.4,242.4 358.8,242.4 358.2,242.4 357.6,242.4 357.1,242.4 356.5,242.4 355.9,242.4 355.3,242.4 354.7,242.4
354.1,242.4 353.6,242.4 353.0,242.4 352.4,242.4 351.8,242.4 351.2,242.4 350.7,242.4 350.1,242.4 349.5,242.4 348.9,242.4 348.3,242.4 347.7,242.4 347.2,242.4 346.6,242.4 346.0,242.4 345.4,242.4
344.8,242.4 344.3,242.4 343.7,242.4 343.1,242.4 342.5,242.4 341.9,242.4 341.3,242.4 340.8,242.4 340.2,242.4 339.6,242.4 339.0,242.4 338.4,242.4 337.9,242.4 337.3,242.4 336.7,242.4 336.1,242.4
335.5,242.4 334.9,242.4 334.4,242.4 333.8,242.4 333.2,242.4 332.6,242.4 332.0,242.4 331.5,242.4 330.9,242.4 330.3,242.4 329.7,242.4 329.1,242.4 328.5,242.4 328.0,242.4 327.4,242.4 326.8,242.4
326.2,242.4 325.6,242.4 325.1,242.4 324.5,242.4 323.9,242.4 323.3,242.4 322.7,242.4 322.1,242.4 321.6,242.4 321.0,242.4 320.4,242.4 319.8,242.4 319.2,242.4 318.7,242.4 318.1,242.4 317.5,242.4
316.9,242.4 316.3,242.4 315.7,242.4 315.2,242.4 314.6,242.4 314.0,242.4 313.4,242.4 312.8,242.4 312.3,242.4 311.7,242.4 311.1,242.4 310.5,242.4 309.9,242.4 309.3,242.4 308.8,242.4 308.2,242.4
307.6,242.4 307.0,242.4 306.4,242.4 305.9,242.4 305.3,242.4 304.7,242.4 304.1,242.4 303.5,242.4 302.9,242.4 302.4,242.4 301.8,242.4 301.2,242.4 300.6,242.4 300.0,242.4 299.5,242.4 298.9,242.4
298.3,242.4 297.7,242.4 297.1,242.4 296.5,242.4 296.0,242.4 295.4,242.4 294.8,242.4 294.2,242.4 293.6,242.4 293.1,242.4 292.5,242.4 291.9,242.4 291.3,242.4 290.7,242.4 290.1,242.4 289.6,242.4
289.0,242.4 288.4,242.4 287.8,242.4 287.2,242.4 286.7,242.4 286.1,242.4 285.5,242.4 284.9,242.4 284.3,242.4 283.7,242.4 283.2,242.4 282.6,242.4 282.0,242.4 281.4,242.4 280.8,242.4 280.3,242.4
279.7,242.4 279.1,242.4 278.5,242.4 277.9,242.4 277.3,242.4 276.8,242.4 276.2,242.4 275.6,242.4 275.0,242.4 274.4,242.4 273.9,242.4 273.3,242.4 272.7,242.4 272.1,242.4 271.5,242.4 270.9,242.4
270.4,242.4 269.8,242.4 269.2,242.4 268.6,242.4 268.0,242.4 267.5,242.4 266.9,242.4 266.3,242.4 265.7,242.4 265.1,242.4 264.5,242.4 264.0,242.4 263.4,242.4 262.8,242.4 262.2,242.4 261.6,242.4
261.1,242.4 260.5,242.4 259.9,242.4 259.3,242.4 258.7,242.4 258.1,242.4 257.6,242.4 257.0,242.4 256.4,242.4 255.8,242.4 255.2,242.4 254.7,242.4 254.1,242.4 253.5,242.4 252.9,242.4 252.3,242.4
251.7,242.4 251.2,242.4 250.6,242.4 250.0,242.4 249.4,242.4 248.8,242.4 248.3,242.4 247.7,242.4 247.1,242.4 246.5,242.4 245.9,242.4 245.3,242.4 244.8,242.4 244.2,242.4 243.6,242.4 243.0,242.4
242.4,242.4 241.9,242.4 241.3,242.4 240.7,242.4 240.1,242.4 239.5,242.4 239.0,242.4 238.4,242.4 237.8,242.4 237.2,242.4 236.6,242.4 236.0,242.4 235.5,242.4 234.9,242.4 234.3,242.4 233.7,242.4
233.1,242.4 232.6,242.4 232.0,242.4 231.4,242.4 230.8,242.4 230.2,242.4 229.6,242.4 229.1,242.4 228.5,242.4 227.9,242.4 227.3,242.4 226.7,242.4 226.2,242.4 225.6,242.4 225.0,242.4 224.4,242.4
223.8,242.4 223.2,242.4 222.7,242.4 222.1,242.4 221.5,242.4 220.9,242.4 220.3,242.4 219.8,242.4 219.2,242.4 218.6,242.4 218.0,242.4 217.4,242.4 216.8,242.4 216.3,242.4 215.7,242.4 215.1,242.4
214.5,242.4 213.9,242.4 213.4,242.4 212.8,242.4 212.2,242.4 211.6,242.4 211.0,242.4 210.4,242.4 209.9,242.4 209.3,242.4 208.7,242.4 208.1,242.4 207.5,242.4 207.0,242.4 206.4,242.4 205.8,242.4
205.2,242.4 204.6,242.4 204.0,242.4 203.5,242.4 202.9,242.4 202.3,242.4 201.7,242.4 201.1,242.4 200.6,242.4 200.0,242.4 199.4,242.4 198.8,242.4 198.2,242.4 197.6,242.4 197.1,242.4 196.5,242.4
195.9,242.4 195.3,242.4 194.7,242.4 194.2,242.4 193.6,242.4 193.0,242.4 192.4,242.4 191.8,242.4 191.2,242.4 190.7,242.4 190.1,242.4 189.5,242.4 188.9,242.4 188.3,242.4 187.8,242.4 187.2,242.4
186.6,242.4 186.0,242.4 185.4,242.4 184.8,242.4 184.3,242.4 183.7,242.4 183.1,242.4 182.5,242.4 181.9,242.4 181.4,242.4 180.8,242.4 180.2,242.4 179.6,242.4 179.0,242.4 178.4,242.4 177.9,242.4
177.3,242.4 176.7,242.4 176.1,242.4 175.5,242.4 175.0,242.4 174.4,242.4 173.8,242.4 173.2,242.4 172.6,242.4 172.0,242.4 171.5,242.4 170.9,242.4 170.3,242.4 169.7,242.4 169.1,242.4 168.6,242.4
168.0,242.4 167.4,242.4 166.8,242.4 166.2,242.4 165.6,242.4 165.1,242.4 164.5,242.4 163.9,242.4 163.3,242.4 162.7,242.4 162.2,242.4 161.6,242.4 161.0,242.4 160.4,242.4 159.8,242.4 159.2,242.4
158.7,242.4 158.1,242.4 157.5,242.4 156.9,242.4 156.3,242.4 155.8,242.4 155.2,242.4 154.6,242.4 154.0,242.4 153.4,242.4 152.8,242.4 152.3,242.4 151.7,242.4 151.1,242.4 150.5,242.4 149.9,242.4
149.4,242.4 148.8,242.4 148.2,242.4 147.6,242.4 147.0,242.4 146.4,242.4 145.9,242.4 145.3,242.4 144.7,242.4 144.1,242.4 143.5,242.4 143.0,242.4 142.4,242.4 141.8,242.4 141.2,242.4 140.6,242.4
140.0,242.4 139.5,242.4 138.9,242.4 138.3,242.4 137.7,242.4 137.1,242.4 136.6,242.4 136.0,242.4 135.4,242.4 134.8,242.4 134.2,242.4 133.6,242.4 133.1,242.4 132.5,242.4 131.9,242.4 131.3,242.4
130.7,242.4 130.2,242.4 129.6,242.4 129.0,242.4 128.4,242.4 127.8,242.4 127.2,242.4 126.7,242.4 126.1,242.4 125.5,242.4 124.9,242.4 124.3,242.4 123.8,242.4 123.2,242.4 122.6,242.4 122.0,242.4
121.4,242.4 120.8,242.4 120.3,242.4 119.7,242.4 119.1,242.4 118.5,242.4 117.9,242.4 117.4,242.4 '/>
	</g>
</g>
	</g>
	<g id="gnuplot_plot_2" ><title>Base Mean</title>
<g fill="none" color="white" stroke="rgb(227,  26,  28)" stroke-width="2.00" stroke-linecap="butt" stroke-linejoin="miter">
</g>
<g fill="none" color="black" stroke="currentColor" stroke-width="2.00" stroke-linecap="butt" stroke-linejoin="miter">
	<path stroke='rgb(227,  26,  28)'  d='M151.7,242.4 L151.7,162.7  '/></g>
	</g>
	<g id="gnuplot_plot_3" ><title>New PDF</title>
<g fill="none" color="white" stroke="rgb(227,  26,  28)" stroke-width="1.00" stroke-linecap="butt" stroke-linejoin="miter">
</g>
<g fill="none" color="black" stroke="currentColor" stroke-width="1.00" stroke-linecap="butt" stroke-linejoin="miter">
	<g stroke='none' shape-rendering='crispEdges'>
		<polygon fill = 'rgb( 31, 120, 180)' fill-opacity = '0.500000' points = '139.6,241.8 139.7,241.7 139.9,241.6 140.1,241.5 140.2,241.3 140.4,241.2 140.5,241.0 140.7,240.8 140.9,240.6 141.0,240.3 141.2,240.0 141.4,239.7 141.5,239.4 141.7,239.0 141.8,238.6 142.0,238.1
142.2,237.6 142.3,237.0 142.5,236.3 142.7,235.6 142.8,234.9 143.0,234.0 143.1,233.1 143.3,232.1 143.5,231.0 143.6,229.8 143.8,228.6 143.9,227.2 144.1,225.7 144.3,224.1 144.4,222.3 144.6,220.5
144.8,218.5 144.9,216.4 145.1,214.1 145.2,211.7 145.4,209.2 145.6,206.5 145.7,203.6 145.9,200.6 146.0,197.5 146.2,194.2 146.4,190.7 146.5,187.1 146.7,183.3 146.9,179.4 147.0,175.4 147.2,171.2
147.3,166.9 147.5,162.5 147.7,157.9 147.8,153.3 148.0,148.6 148.2,143.7 148.3,138.9 148.5,133.9 148.6,128.9 148.8,123.9 149.0,118.9 149.1,113.9 149.3,109.0 149.4,104.1 149.6,99.2 149.8,94.4
149.9,89.8 150.1,85.2 150.3,80.8 150.4,76.6 150.6,72.5 150.7,68.7 150.9,65.0 151.1,61.6 151.2,58.5 151.4,55.6 151.5,53.0 151.7,50.6 151.9,48.6 152.0,46.8 152.2,45.4 152.4,44.3
152.5,43.6 152.7,43.1 152.8,43.0 153.0,43.3 153.2,43.8 153.3,44.7 153.5,45.9 153.6,47.4 153.8,49.2 154.0,51.3 154.1,53.7 154.3,56.4 154.5,59.3 154.6,62.4 154.8,65.8 154.9,69.4
155.1,73.1 155.3,77.1 155.4,81.2 155.6,85.4 155.8,89.8 155.9,94.2 156.1,98.8 156.2,103.4 156.4,108.0 156.6,112.7 156.7,117.4 156.9,122.0 157.0,126.7 157.2,131.4 157.4,135.9 157.5,140.5
157.7,144.9 157.9,149.3 158.0,153.6 158.2,157.8 158.3,161.9 158.5,165.9 158.7,169.8 158.8,173.5 159.0,177.1 159.1,180.6 159.3,184.0 159.5,187.2 159.6,190.3 159.8,193.2 160.0,196.0 160.1,198.7
160.3,201.3 160.4,203.7 160.6,206.1 160.8,208.2 160.9,210.3 161.1,212.3 161.3,214.1 161.4,215.9 161.6,217.5 161.7,219.1 161.9,220.5 162.1,221.9 162.2,223.1 162.4,224.3 162.5,225.4 162.7,226.5
162.9,227.4 163.0,228.3 163.2,229.2 163.4,229.9 163.5,230.7 163.7,231.3 163.8,232.0 164.0,232.5 164.2,233.1 164.3,233.6 164.5,234.0 164.6,234.4 164.8,234.8 165.0,235.2 165.1,235.5 165.3,235.8
165.5,236.1 165.6,236.4 165.8,236.6 165.9,236.8 166.1,237.0 166.3,237.2 166.4,237.3 166.6,237.5 166.8,237.6 166.9,237.7 167.1,237.8 167.2,237.9 167.4,237.9 167.6,238.0 167.7,238.0 167.9,238.1
168.0,238.1 168.2,238.1 168.4,238.1 168.5,238.1 168.7,238.1 168.9,238.1 169.0,238.0 169.2,238.0 169.3,237.9 169.5,237.9 169.7,237.8 169.8,237.7 170.0,237.6 170.1,237.5 170.3,237.4 170.5,237.3
170.6,237.1 170.8,237.0 171.0,236.8 171.1,236.7 171.3,236.5 171.4,236.4 171.6,236.2 171.8,236.0 171.9,235.9 172.1,235.7 172.3,235.5 172.4,235.3 172.6,235.1 172.7,235.0 172.9,234.8 173.1,234.6
173.2,234.4 173.4,234.2 173.5,234.1 173.7,233.9 173.9,233.7 174.0,233.6 174.2,233.4 174.4,233.3 174.5,233.2 174.7,233.1 174.8,232.9 175.0,232.9 175.2,232.8 175.3,232.7 175.5,232.6 175.6,232.6
175.8,232.5 176.0,232.5 176.1,232.5 176.3,232.5 176.5,232.5 176.6,232.5 176.8,232.6 176.9,232.6 177.1,232.7 177.3,232.7 177.4,232.8 177.6,232.9 177.8,233.0 177.9,233.1 178.1,233.3 178.2,233.4
178.4,233.5 178.6,233.7 178.7,233.8 178.9,234.0 179.0,234.2 179.2,234.3 179.4,234.5 179.5,234.7 179.7,234.9 179.9,235.1 180.0,235.3 180.2,235.4 180.3,235.6 180.5,235.8 180.7,236.0 180.8,236.2
181.0,236.4 181.1,236.6 181.3,236.8 181.5,236.9 181.6,237.1 181.8,237.3 182.0,237.5 182.1,237.7 182.3,237.8 182.4,238.0 182.6,238.2 182.8,238.3 182.9,238.5 183.1,238.6 183.2,238.8 183.4,238.9
183.6,239.1 183.7,239.2 183.9,239.4 184.1,239.5 184.2,239.6 184.4,239.8 184.5,239.9 184.7,240.0 184.9,240.1 185.0,240.2 185.2,240.4 185.4,240.5 185.5,240.6 185.7,240.7 185.8,240.8 186.0,240.9
186.2,240.9 186.3,241.0 186.5,241.1 186.6,241.2 186.8,241.3 187.0,241.3 187.1,241.4 187.3,241.5 187.5,241.5 187.6,241.6 187.8,241.6 187.9,241.7 188.1,241.7 188.3,241.8 188.4,241.8 188.6,241.9
188.7,241.9 188.9,241.9 189.1,242.0 189.2,242.0 189.4,242.0 189.6,242.1 189.7,242.1 189.9,242.1 190.0,242.1 190.2,242.1 190.4,242.1 190.5,242.1 190.7,242.2 190.9,242.2 191.0,242.2 191.2,242.2
191.3,242.2 191.5,242.2 191.7,242.2 191.8,242.1 192.0,242.1 192.1,242.1 192.3,242.1 192.5,242.1 192.6,242.1 192.8,242.1 193.0,242.0 193.1,242.0 193.3,242.0 193.4,241.9 193.6,241.9 193.8,241.9
193.9,241.8 194.1,241.8 194.2,241.8 194.4,241.7 194.6,241.7 194.7,241.6 194.9,241.6 195.1,241.5 195.2,241.5 195.4,241.4 195.5,241.4 195.7,241.3 195.9,241.3 196.0,241.2 196.2,241.2 196.4,241.1
196.5,241.0 196.7,241.0 196.8,240.9 197.0,240.8 197.2,240.8 197.3,240.7 197.5,240.7 197.6,240.6 197.8,240.6 198.0,240.5 198.1,240.4 198.3,240.4 198.5,240.3 198.6,240.3 198.8,240.2 198.9,240.2
199.1,240.1 199.3,240.1 199.4,240.1 199.6,240.0 199.7,240.0 199.9,240.0 200.1,239.9 200.2,239.9 200.4,239.9 200.6,239.9 200.7,239.9 200.9,239.9 201.0,239.8 201.2,239.8 201.4,239.8 201.5,239.8
201.7,239.8 201.9,239.8 202.0,239.8 202.2,239.8 202.3,239.8 202.5,239.8 202.7,239.8 202.8,239.8 203.0,239.8 203.1,239.9 203.3,239.9 203.5,239.9 203.6,239.9 203.8,239.9 204.0,239.9 204.1,239.9
204.3,239.9 204.4,239.9 204.6,239.9 204.8,239.9 204.9,239.9 205.1,239.9 205.2,239.9 205.4,239.9 205.6,239.9 205.7,239.9 205.9,239.9 206.1,239.9 206.2,239.8 206.4,239.8 206.5,239.8 206.7,239.8
206.9,239.8 207.0,239.8 207.2,239.8 207.3,239.8 207.5,239.8 207.7,239.8 207.8,239.8 208.0,239.8 208.2,239.8 208.3,239.8 208.5,239.9 208.6,239.9 208.8,239.9 209.0,239.9 209.1,239.9 209.3,240.0
209.5,240.0 209.6,240.0 209.8,240.1 209.9,240.1 210.1,240.1 210.3,240.2 210.4,240.2 210.6,240.3 210.7,240.3 210.9,240.4 211.1,240.4 211.2,240.5 211.4,240.5 211.6,240.6 211.7,240.6 211.9,240.7
212.0,240.8 212.2,240.8 212.4,240.9 212.5,240.9 212.7,241.0 212.8,241.1 213.0,241.1 213.2,241.2 213.3,241.2 213.5,241.3 213.7,241.4 213.8,241.4 214.0,241.5 214.1,241.5 214.3,241.6 214.5,241.6
214.6,241.7 214.8,241.7 215.0,241.8 215.1,241.8 215.3,241.8 215.4,241.9 215.6,241.9 215.8,242.0 215.9,242.0 216.1,242.0 216.2,242.1 216.4,242.1 216.6,242.1 216.7,242.1 216.9,242.2 217.1,242.2
217.2,242.2 217.4,242.2 217.5,242.2 217.7,242.2 217.9,242.3 218.0,242.3 218.2,242.3 218.3,242.3 218.5,242.3 218.7,242.3 218.8,242.3 219.0,242.3 219.2,242.3 219.3,242.3 219.5,242.4 219.6,242.4
219.8,242.4 220.0,242.4 220.1,242.4 220.3,242.4 220.3,242.4 220.1,242.4 220.0,242.4 219.8,242.4 219.6,242.4 219.5,242.4 219.3,242.4 219.2,242.4 219.0,242.4 218.8,242.4 218.7,242.4 218.5,242.4
218.3,242.4 218.2,242.4 218.0,242.4 217.9,242.4 217.7,242.4 217.5,242.4 217.4,242.4 217.2,242.4 217.1,242.4 216.9,242.4 216.7,242.4 216.6,242.4 216.4,242.4 216.2,242.4 216.1,242.4 215.9,242.4
215.8,242.4 215.6,242.4 215.4,242.4 215.3,242.4 215.1,242.4 215.0,242.4 214.8,242.4 214.6,242.4 214.5,242.4 214.3,242.4 214.1,242.4 214.0,242.4 213.8,242.4 213.7,242.4 213.5,242.4 213.3,242.4
213.2,242.4 213.0,242.4 212.8,242.4 212.7,242.4 212.5,242.4 212.4,242.4 212.2,242.4 212.0,242.4 211.9,242.4 211.7,242.4 211.6,242.4 211.4,242.4 211.2,242.4 211.1,242.4 210.9,242.4 210.7,242.4
210.6,242.4 210.4,242.4 210.3,242.4 210.1,242.4 209.9,242.4 209.8,242.4 209.6,242.4 209.5,242.4 209.3,242.4 209.1,242.4 209.0,242.4 208.8,242.4 208.6,242.4 208.5,242.4 208.3,242.4 208.2,242.4
208.0,242.4 207.8,242.4 207.7,242.4 207.5,242.4 207.3,242.4 207.2,242.4 207.0,242.4 206.9,242.4 206.7,242.4 206.5,242.4 206.4,242.4 206.2,242.4 206.1,242.4 205.9,242.4 205.7,242.4 205.6,242.4
205.4,242.4 205.2,242.4 205.1,242.4 204.9,242.4 204.8,242.4 204.6,242.4 204.4,242.4 204.3,242.4 204.1,242.4 204.0,242.4 203.8,242.4 203.6,242.4 203.5,242.4 203.3,242.4 203.1,242.4 203.0,242.4
202.8,242.4 202.7,242.4 202.5,242.4 202.3,242.4 202.2,242.4 202.0,242.4 201.9,242.4 201.7,242.4 201.5,242.4 201.4,242.4 201.2,242.4 201.0,242.4 200.9,242.4 200.7,242.4 200.6,242.4 200.4,242.4
200.2,242.4 200.1,242.4 199.9,242.4 199.7,242.4 199.6,242.4 199.4,242.4 199.3,242.4 199.1,242.4 198.9,242.4 198.8,242.4 198.6,242.4 198.5,242.4 198.3,242.4 198.1,242.4 198.0,242.4 197.8,242.4
197.6,242.4 197.5,242.4 197.3,242.4 197.2,242.4 197.0,242.4 196.8,242.4 196.7,242.4 196.5,242.4 196.4,242.4 196.2,242.4 196.0,242.4 195.9,242.4 195.7,242.4 195.5,242.4 195.4,242.4 195.2,242.4
195.1,242.4 194.9,242.4 194.7,242.4 194.6,242.4 194.4,242.4 194.2,242.4 194.1,242.4 193.9,242.4 193.8,242.4 193.6,242.4 193.4,242.4 193.3,242.4 193.1,242.4 193.0,242.4 192.8,242.4 192.6,242.4
192.5,242.4 192.3,242.4 192.1,242.4 192.0,242.4 191.8,242.4 191.7,242.4 191.5,242.4 191.3,242.4 191.2,242.4 191.0,242.4 190.9,242.4 190.7,242.4 190.5,242.4 190.4,242.4 190.2,242.4 190.0,242.4
189.9,242.4 189.7,242.4 189.6,242.4 189.4,242.4 189.2,242.4 189.1,242.4 188.9,242.4 188.7,242.4 188.6,242.4 188.4,242.4 188.3,242.4 188.1,242.4 187.9,242.4 187.8,242.4 187.6,242.4 187.5,242.4
187.3,242.4 187.1,242.4 187.0,242.4 186.8,242.4 186.6,242.4 186.5,242.4 186.3,242.4 186.2,242.4 186.0,242.4 185.8,242.4 185.7,242.4 185.5,242.4 185.4,242.4 185.2,242.4 185.0,242.4 184.9,242.4
184.7,242.4 184.5,242.4 184.4,242.4 184.2,242.4 184.1,242.4 183.9,242.4 183.7,242.4 183.6,242.4 183.4,242.4 183.2,242.4 183.1,242.4 182.9,242.4 182.8,242.4 182.6,242.4 182.4,242.4 182.3,242.4
182.1,242.4 182.0,242.4 181.8,242.4 181.6,242.4 181.5,242.4 181.3,242.4 181.1,242.4 181.0,242.4 180.8,242.4 180.7,242.4 180.5,242.4 180.3,242.4 180.2,242.4 180.0,242.4 179.9,242.4 179.7,242.4
179.5,242.4 179.4,242.4 179.2,242.4 179.0,242.4 178.9,242.4 178.7,242.4 178.6,242.4 178.4,242.4 178.2,242.4 178.1,242.4 177.9,242.4 177.8,242.4 177.6,242.4 177.4,242.4 177.3,242.4 177.1,242.4
176.9,242.4 176.8,242.4 176.6,242.4 176.5,242.4 176.3,242.4 176.1,242.4 176.0,242.4 175.8,242.4 175.6,242.4 175.5,242.4 175.3,242.4 175.2,242.4 175.0,242.4 174.8,242.4 174.7,242.4 174.5,242.4
174.4,242.4 174.2,242.4 174.0,242.4 173.9,242.4 173.7,242.4 173.5,242.4 173.4,242.4 173.2,242.4 173.1,242.4 172.9,242.4 172.7,242.4 172.6,242.4 172.4,242.4 172.3,242.4 172.1,242.4 171.9,242.4
171.8,242.4 171.6,242.4 171.4,242.4 171.3,242.4 171.1,242.4 171.0,242.4 170.8,242.4 170.6,242.4 170.5,242.4 170.3,242.4 170.1,242.4 170.0,242.4 169.8,242.4 169.7,242.4 169.5,242.4 169.3,242.4
169.2,242.4 169.0,242.4 168.9,242.4 168.7,242.4 168.5,242.4 168.4,242.4 168.2,242.4 168.0,242.4 167.9,242.4 167.7,242.4 167.6,242.4 167.4,242.4 167.2,242.4 167.1,242.4 166.9,242.4 166.8,242.4
166.6,242.4 166.4,242.4 166.3,242.4 166.1,242.4 165.9,242.4 165.8,242.4 165.6,242.4 165.5,242.4 165.3,242.4 165.1,242.4 165.0,242.4 164.8,242.4 164.6,242.4 164.5,242.4 164.3,242.4 164.2,242.4
164.0,242.4 163.8,242.4 163.7,242.4 163.5,242.4 163.4,242.4 163.2,242.4 163.0,242.4 162.9,242.4 162.7,242.4 162.5,242.4 162.4,242.4 162.2,242.4 162.1,242.4 161.9,242.4 161.7,242.4 161.6,242.4
161.4,242.4 161.3,242.4 161.1,242.4 160.9,242.4 160.8,242.4 160.6,242.4 160.4,242.4 160.3,242.4 160.1,242.4 160.0,242.4 159.8,242.4 159.6,242.4 159.5,242.4 159.3,242.4 159.1,242.4 159.0,242.4
158.8,242.4 158.7,242.4 158.5,242.4 158.3,242.4 158.2,242.4 158.0,242.4 157.9,242.4 157.7,242.4 157.5,242.4 157.4,242.4 157.2,242.4 157.0,242.4 156.9,242.4 156.7,242.4 156.6,242.4 156.4,242.4
156.2,242.4 156.1,242.4 155.9,242.4 155.8,242.4 155.6,242.4 155.4,242.4 155.3,242.4 155.1,242.4 154.9,242.4 154.8,242.4 154.6,242.4 154.5,242.4 154.3,242.4 154.1,242.4 154.0,242.4 153.8,242.4
153.6,242.4 153.5,242.4 153.3,242.4 153.2,242.4 153.0,242.4 152.8,242.4 152.7,242.4 152.5,242.4 152.4,242.4 152.2,242.4 152.0,242.4 151.9,242.4 151.7,242.4 151.5,242.4 151.4,242.4 151.2,242.4
151.1,242.4 150.9,242.4 150.7,242.4 150.6,242.4 150.4,242.4 150.3,242.4 150.1,242.4 149.9,242.4 149.8,242.4 149.6,242.4 149.4,242.4 149.3,242.4 149.1,242.4 149.0,242.4 148.8,242.4 148.6,242.4
148.5,242.4 148.3,242.4 148.2,242.4 148.0,242.4 147.8,242.4 147.7,242.4 147.5,242.4 147.3,242.4 147.2,242.4 147.0,242.4 146.9,242.4 146.7,242.4 146.5,242.4 146.4,242.4 146.2,242.4 146.0,242.4
145.9,242.4 145.7,242.4 145.6,242.4 145.4,242.4 145.2,242.4 145.1,242.4 144.9,242.4 144.8,242.4 144.6,242.4 144.4,242.4 144.3,242.4 144.1,242.4 143.9,242.4 143.8,242.4 143.6,242.4 143.5,242.4
143.3,242.4 143.1,242.4 143.0,242.4 142.8,242.4 142.7,242.4 142.5,242.4 142.3,242.4 142.2,242.4 142.0,242.4 141.8,242.4 141.7,242.4 141.5,242.4 141.4,242.4 141.2,242.4 141.0,242.4 140.9,242.4
140.7,242.4 140.5,242.4 140.4,242.4 140.2,242.4 140.1,242.4 139.9,242.4 139.7,242.4 139.6,242.4 '/>
	</g>
</g>
	</g>
	<g id="gnuplot_plot_4" ><title>New Mean</title>
<g fill="none" color="white" stroke="rgb( 31, 120, 180)" stroke-width="2.00" stroke-linecap="butt" stroke-linejoin="miter">
</g>
<g fill="none" color="black" stroke="currentColor" stroke-width="2.00" stroke-linecap="butt" stroke-linejoin="miter">
	<path stroke='rgb( 31, 120, 180)'  d='M155.4,242.4 L155.4,81.5  '/></g>
	</g>
<g fill="none" color="black" stroke="currentColor" stroke-width="2.00" stroke-linecap="butt" stroke-linejoin="miter">
</g>
<g fill="none" color="black" stroke="black" stroke-width="1.00" stroke-linecap="butt" stroke-linejoin="miter">
</g>
<g fill="none" color="black" stroke="currentColor" stroke-width="1.00" stroke-linecap="butt" stroke-linejoin="miter">
	<path stroke='black'  d='M71.9,18.1 L71.9,242.4 L425.0,242.4 L425.0,18.1 L71.9,18.1 Z  '/></g>
<g fill="none" color="black" stroke="currentColor" stroke-width="1.00" stroke-linecap="butt" stroke-linejoin="miter">
</g>
</g>
</svg>

