<?xml version="1.0" encoding="utf-8"  standalone="no"?>
<svg 
 viewBox="0 0 1280 720"
 xmlns="http://www.w3.org/2000/svg"
 xmlns:xlink="http://www.w3.org/1999/xlink"
>

<title>Gnuplot</title>
<desc>Produced by GNUPLOT 5.2 patchlevel 6 </desc>

<g id="gnuplot_canvas">

<rect x="0" y="0" width="1280" height="720" fill="none"/>
<defs>

	<circle id='gpDot' r='0.5' stroke-width='0.5' stroke='currentColor'/>
	<path id='gpPt0' stroke-width='0.222' stroke='currentColor' d='M-1,0 h2 M0,-1 v2'/>
	<path id='gpPt1' stroke-width='0.222' stroke='currentColor' d='M-1,-1 L1,1 M1,-1 L-1,1'/>
	<path id='gpPt2' stroke-width='0.222' stroke='currentColor' d='M-1,0 L1,0 M0,-1 L0,1 M-1,-1 L1,1 M-1,1 L1,-1'/>
	<rect id='gpPt3' stroke-width='0.222' stroke='currentColor' x='-1' y='-1' width='2' height='2'/>
	<rect id='gpPt4' stroke-width='0.222' stroke='currentColor' fill='currentColor' x='-1' y='-1' width='2' height='2'/>
	<circle id='gpPt5' stroke-width='0.222' stroke='currentColor' cx='0' cy='0' r='1'/>
	<use xlink:href='#gpPt5' id='gpPt6' fill='currentColor' stroke='none'/>
	<path id='gpPt7' stroke-width='0.222' stroke='currentColor' d='M0,-1.33 L-1.33,0.67 L1.33,0.67 z'/>
	<use xlink:href='#gpPt7' id='gpPt8' fill='currentColor' stroke='none'/>
	<use xlink:href='#gpPt7' id='gpPt9' stroke='currentColor' transform='rotate(180)'/>
	<use xlink:href='#gpPt9' id='gpPt10' fill='currentColor' stroke='none'/>
	<use xlink:href='#gpPt3' id='gpPt11' stroke='currentColor' transform='rotate(45)'/>
	<use xlink:href='#gpPt11' id='gpPt12' fill='currentColor' stroke='none'/>
	<path id='gpPt13' stroke-width='0.222' stroke='currentColor' d='M0,1.330 L1.265,0.411 L0.782,-1.067 L-0.782,-1.076 L-1.265,0.411 z'/>
	<use xlink:href='#gpPt13' id='gpPt14' fill='currentColor' stroke='none'/>
	<filter id='textbox' filterUnits='objectBoundingBox' x='0' y='0' height='1' width='1'>
	  <feFlood flood-color='white' flood-opacity='1' result='bgnd'/>
	  <feComposite in='SourceGraphic' in2='bgnd' operator='atop'/>
	</filter>
	<filter id='greybox' filterUnits='objectBoundingBox' x='0' y='0' height='1' width='1'>
	  <feFlood flood-color='lightgrey' flood-opacity='1' result='grey'/>
	  <feComposite in='SourceGraphic' in2='grey' operator='atop'/>
	</filter>
</defs>
<g fill="none" color="white" stroke="currentColor" stroke-width="1.00" stroke-linecap="butt" stroke-linejoin="miter">
</g>
<g fill="none" color="black" stroke="currentColor" stroke-width="1.00" stroke-linecap="butt" stroke-linejoin="miter">
	<path stroke='black'  d='M71.9,662.4 L80.9,662.4  '/>	<g transform="translate(63.6,666.3)" stroke="none" fill="black" font-family="Helvetica" font-size="12.00"  text-anchor="end">
		<text><tspan font-family="Helvetica" > 0</tspan></text>
	</g>
</g>
<g fill="none" color="black" stroke="currentColor" stroke-width="1.00" stroke-linecap="butt" stroke-linejoin="miter">
	<path stroke='black'  d='M71.9,561.0 L80.9,561.0  '/>	<g transform="translate(63.6,564.9)" stroke="none" fill="black" font-family="Helvetica" font-size="12.00"  text-anchor="end">
		<text><tspan font-family="Helvetica" > 0.2</tspan></text>
	</g>
</g>
<g fill="none" color="black" stroke="currentColor" stroke-width="1.00" stroke-linecap="butt" stroke-linejoin="miter">
	<path stroke='black'  d='M71.9,459.6 L80.9,459.6  '/>	<g transform="translate(63.6,463.5)" stroke="none" fill="black" font-family="Helvetica" font-size="12.00"  text-anchor="end">
		<text><tspan font-family="Helvetica" > 0.4</tspan></text>
	</g>
</g>
<g fill="none" color="black" stroke="currentColor" stroke-width="1.00" stroke-linecap="butt" stroke-linejoin="miter">
	<path stroke='black'  d='M71.9,358.2 L80.9,358.2  '/>	<g transform="translate(63.6,362.1)" stroke="none" fill="black" font-family="Helvetica" font-size="12.00"  text-anchor="end">
		<text><tspan font-family="Helvetica" > 0.6</tspan></text>
	</g>
</g>
<g fill="none" color="black" stroke="currentColor" stroke-width="1.00" stroke-linecap="butt" stroke-linejoin="miter">
	<path stroke='black'  d='M71.9,256.9 L80.9,256.9  '/>	<g transform="translate(63.6,260.8)" stroke="none" fill="black" font-family="Helvetica" font-size="12.00"  text-anchor="end">
		<text><tspan font-family="Helvetica" > 0.8</tspan></text>
	</g>
</g>
<g fill="none" color="black" stroke="currentColor" stroke-width="1.00" stroke-linecap="butt" stroke-linejoin="miter">
	<path stroke='black'  d='M71.9,155.5 L80.9,155.5  '/>	<g transform="translate(63.6,159.4)" stroke="none" fill="black" font-family="Helvetica" font-size="12.00"  text-anchor="end">
		<text><tspan font-family="Helvetica" > 1</tspan></text>
	</g>
</g>
<g fill="none" color="black" stroke="currentColor" stroke-width="1.00" stroke-linecap="butt" stroke-linejoin="miter">
	<path stroke='black'  d='M71.9,54.1 L80.9,54.1  '/>	<g transform="translate(63.6,58.0)" stroke="none" fill="black" font-family="Helvetica" font-size="12.00"  text-anchor="end">
		<text><tspan font-family="Helvetica" > 1.2</tspan></text>
	</g>
</g>
<g fill="none" color="black" stroke="currentColor" stroke-width="1.00" stroke-linecap="butt" stroke-linejoin="miter">
	<path stroke='black'  d='M76.0,662.4 L76.0,653.4  '/>	<g transform="translate(76.0,684.3)" stroke="none" fill="black" font-family="Helvetica" font-size="12.00"  text-anchor="middle">
		<text><tspan font-family="Helvetica" > 80</tspan></text>
	</g>
</g>
<g fill="none" color="black" stroke="currentColor" stroke-width="1.00" stroke-linecap="butt" stroke-linejoin="miter">
	<path stroke='black'  d='M263.4,662.4 L263.4,653.4  '/>	<g transform="translate(263.4,684.3)" stroke="none" fill="black" font-family="Helvetica" font-size="12.00"  text-anchor="middle">
		<text><tspan font-family="Helvetica" > 85</tspan></text>
	</g>
</g>
<g fill="none" color="black" stroke="currentColor" stroke-width="1.00" stroke-linecap="butt" stroke-linejoin="miter">
	<path stroke='black'  d='M450.8,662.4 L450.8,653.4  '/>	<g transform="translate(450.8,684.3)" stroke="none" fill="black" font-family="Helvetica" font-size="12.00"  text-anchor="middle">
		<text><tspan font-family="Helvetica" > 90</tspan></text>
	</g>
</g>
<g fill="none" color="black" stroke="currentColor" stroke-width="1.00" stroke-linecap="butt" stroke-linejoin="miter">
	<path stroke='black'  d='M638.2,662.4 L638.2,653.4  '/>	<g transform="translate(638.2,684.3)" stroke="none" fill="black" font-family="Helvetica" font-size="12.00"  text-anchor="middle">
		<text><tspan font-family="Helvetica" > 95</tspan></text>
	</g>
</g>
<g fill="none" color="black" stroke="currentColor" stroke-width="1.00" stroke-linecap="butt" stroke-linejoin="miter">
	<path stroke='black'  d='M825.7,662.4 L825.7,653.4  '/>	<g transform="translate(825.7,684.3)" stroke="none" fill="black" font-family="Helvetica" font-size="12.00"  text-anchor="middle">
		<text><tspan font-family="Helvetica" > 100</tspan></text>
	</g>
</g>
<g fill="none" color="black" stroke="currentColor" stroke-width="1.00" stroke-linecap="butt" stroke-linejoin="miter">
	<path stroke='black'  d='M995.6,662.4 L986.6,662.4  '/>	<g transform="translate(1003.9,666.3)" stroke="none" fill="black" font-family="Helvetica" font-size="12.00"  text-anchor="start">
		<text><tspan font-family="Helvetica" > 0</tspan></text>
	</g>
</g>
<g fill="none" color="black" stroke="currentColor" stroke-width="1.00" stroke-linecap="butt" stroke-linejoin="miter">
	<path stroke='black'  d='M995.6,586.4 L986.6,586.4  '/>	<g transform="translate(1003.9,590.3)" stroke="none" fill="black" font-family="Helvetica" font-size="12.00"  text-anchor="start">
		<text><tspan font-family="Helvetica" > 0.05</tspan></text>
	</g>
</g>
<g fill="none" color="black" stroke="currentColor" stroke-width="1.00" stroke-linecap="butt" stroke-linejoin="miter">
	<path stroke='black'  d='M995.6,510.3 L986.6,510.3  '/>	<g transform="translate(1003.9,514.2)" stroke="none" fill="black" font-family="Helvetica" font-size="12.00"  text-anchor="start">
		<text><tspan font-family="Helvetica" > 0.1</tspan></text>
	</g>
</g>
<g fill="none" color="black" stroke="currentColor" stroke-width="1.00" stroke-linecap="butt" stroke-linejoin="miter">
	<path stroke='black'  d='M995.6,434.3 L986.6,434.3  '/>	<g transform="translate(1003.9,438.2)" stroke="none" fill="black" font-family="Helvetica" font-size="12.00"  text-anchor="start">
		<text><tspan font-family="Helvetica" > 0.15</tspan></text>
	</g>
</g>
<g fill="none" color="black" stroke="currentColor" stroke-width="1.00" stroke-linecap="butt" stroke-linejoin="miter">
	<path stroke='black'  d='M995.6,358.2 L986.6,358.2  '/>	<g transform="translate(1003.9,362.1)" stroke="none" fill="black" font-family="Helvetica" font-size="12.00"  text-anchor="start">
		<text><tspan font-family="Helvetica" > 0.2</tspan></text>
	</g>
</g>
<g fill="none" color="black" stroke="currentColor" stroke-width="1.00" stroke-linecap="butt" stroke-linejoin="miter">
	<path stroke='black'  d='M995.6,282.2 L986.6,282.2  '/>	<g transform="translate(1003.9,286.1)" stroke="none" fill="black" font-family="Helvetica" font-size="12.00"  text-anchor="start">
		<text><tspan font-family="Helvetica" > 0.25</tspan></text>
	</g>
</g>
<g fill="none" color="black" stroke="currentColor" stroke-width="1.00" stroke-linecap="butt" stroke-linejoin="miter">
	<path stroke='black'  d='M995.6,206.2 L986.6,206.2  '/>	<g transform="translate(1003.9,210.1)" stroke="none" fill="black" font-family="Helvetica" font-size="12.00"  text-anchor="start">
		<text><tspan font-family="Helvetica" > 0.3</tspan></text>
	</g>
</g>
<g fill="none" color="black" stroke="currentColor" stroke-width="1.00" stroke-linecap="butt" stroke-linejoin="miter">
	<path stroke='black'  d='M995.6,130.1 L986.6,130.1  '/>	<g transform="translate(1003.9,134.0)" stroke="none" fill="black" font-family="Helvetica" font-size="12.00"  text-anchor="start">
		<text><tspan font-family="Helvetica" > 0.35</tspan></text>
	</g>
</g>
<g fill="none" color="black" stroke="currentColor" stroke-width="1.00" stroke-linecap="butt" stroke-linejoin="miter">
	<path stroke='black'  d='M995.6,54.1 L986.6,54.1  '/>	<g transform="translate(1003.9,58.0)" stroke="none" fill="black" font-family="Helvetica" font-size="12.00"  text-anchor="start">
		<text><tspan font-family="Helvetica" > 0.4</tspan></text>
	</g>
</g>
<g fill="none" color="black" stroke="currentColor" stroke-width="1.00" stroke-linecap="butt" stroke-linejoin="miter">
</g>
<g fill="none" color="black" stroke="currentColor" stroke-width="1.00" stroke-linecap="butt" stroke-linejoin="miter">
	<path stroke='black'  d='M71.9,54.1 L71.9,662.4 L995.6,662.4 L995.6,54.1 L71.9,54.1 Z  '/></g>
<g fill="none" color="black" stroke="currentColor" stroke-width="1.00" stroke-linecap="butt" stroke-linejoin="miter">
	<g transform="translate(16.3,358.3) rotate(270)" stroke="none" fill="black" font-family="Helvetica" font-size="12.00"  text-anchor="middle">
		<text><tspan font-family="Helvetica" >Iterations (x 10</tspan><tspan font-family="Helvetica"  font-size="9.6" dy="-6.00px">3</tspan><tspan font-family="Helvetica"  font-size="12.0" dy="6.00px">)</tspan></text>
	</g>
</g>
<g fill="none" color="black" stroke="currentColor" stroke-width="1.00" stroke-linecap="butt" stroke-linejoin="miter">
	<g transform="translate(1074.2,358.3) rotate(270)" stroke="none" fill="black" font-family="Helvetica" font-size="12.00"  text-anchor="middle">
		<text><tspan font-family="Helvetica" >Density (a.u.)</tspan></text>
	</g>
</g>
<g fill="none" color="black" stroke="currentColor" stroke-width="1.00" stroke-linecap="butt" stroke-linejoin="miter">
	<g transform="translate(533.7,711.3)" stroke="none" fill="black" font-family="Helvetica" font-size="12.00"  text-anchor="middle">
		<text><tspan font-family="Helvetica" >Average time (us)</tspan></text>
	</g>
</g>
<g fill="none" color="black" stroke="currentColor" stroke-width="1.00" stroke-linecap="butt" stroke-linejoin="miter">
	<g transform="translate(533.7,31.0)" stroke="none" fill="black" font-family="Helvetica" font-size="12.00"  text-anchor="middle">
		<text><tspan font-family="Helvetica" >snapshot_restore_with_dense/Dense: Dirty pages + process_vm_writev/463</tspan></text>
	</g>
</g>
	<g id="gnuplot_plot_1" ><title>PDF</title>
<g fill="none" color="black" stroke="currentColor" stroke-width="1.00" stroke-linecap="butt" stroke-linejoin="miter">
	<g transform="translate(1147.1,67.0)" stroke="none" fill="black" font-family="Helvetica" font-size="12.00"  text-anchor="start">
		<text><tspan font-family="Helvetica" >PDF</tspan></text>
	</g>
</g>
<g fill="none" color="black" stroke="currentColor" stroke-width="1.00" stroke-linecap="butt" stroke-linejoin="miter">
	<g stroke='none' shape-rendering='crispEdges'>
		<polygon fill = 'rgb( 31, 120, 180)' fill-opacity = '0.250000' points = '1096.6,67.6 1138.8,67.6 1138.8,58.6 1096.6,58.6 '/>
		<polygon fill = 'rgb( 31, 120, 180)' fill-opacity = '0.250000' points = '71.9,661.1 73.8,660.9 75.6,660.6 77.5,660.3 79.3,660.0 81.2,659.5 83.0,659.1 84.9,658.5 86.7,657.9 88.6,657.2 90.4,656.4 92.3,655.6 94.1,654.5 96.0,653.4 97.8,652.1 99.7,650.6
101.5,649.0 103.4,647.2 105.2,645.2 107.1,642.9 108.9,640.5 110.8,637.7 112.6,634.7 114.5,631.3 116.3,627.7 118.2,623.6 120.0,619.3 121.9,614.5 123.7,609.3 125.6,603.7 127.4,597.6 129.3,591.1
131.1,584.1 133.0,576.6 134.8,568.6 136.7,560.1 138.5,551.0 140.4,541.4 142.2,531.3 144.1,520.6 145.9,509.5 147.8,497.8 149.6,485.6 151.5,472.9 153.3,459.8 155.2,446.2 157.1,432.2 158.9,417.9
160.8,403.3 162.6,388.4 164.5,373.3 166.3,358.0 168.2,342.6 170.0,327.3 171.9,311.9 173.7,296.7 175.6,281.6 177.4,266.8 179.3,252.3 181.1,238.3 183.0,224.7 184.8,211.7 186.7,199.3 188.5,187.6
190.4,176.8 192.2,166.7 194.1,157.6 195.9,149.5 197.8,142.3 199.6,136.2 201.5,131.3 203.3,127.4 205.2,124.7 207.0,123.2 208.9,122.9 210.7,123.7 212.6,125.7 214.4,128.9 216.3,133.2 218.1,138.7
220.0,145.2 221.8,152.7 223.7,161.2 225.5,170.7 227.4,181.0 229.2,192.1 231.1,203.9 232.9,216.5 234.8,229.6 236.6,243.2 238.5,257.3 240.4,271.7 242.2,286.5 244.1,301.4 245.9,316.5 247.8,331.7
249.6,346.9 251.5,362.0 253.3,377.0 255.2,391.8 257.0,406.4 258.9,420.7 260.7,434.7 262.6,448.3 264.4,461.5 266.3,474.3 268.1,486.7 270.0,498.5 271.8,509.9 273.7,520.7 275.5,531.1 277.4,540.9
279.2,550.2 281.1,559.0 282.9,567.3 284.8,575.1 286.6,582.4 288.5,589.2 290.3,595.5 292.2,601.4 294.0,606.8 295.9,611.8 297.7,616.4 299.6,620.6 301.4,624.5 303.3,628.0 305.1,631.2 307.0,634.1
308.8,636.7 310.7,639.1 312.5,641.2 314.4,643.0 316.2,644.7 318.1,646.1 319.9,647.3 321.8,648.4 323.6,649.4 325.5,650.1 327.4,650.8 329.2,651.3 331.1,651.7 332.9,652.0 334.8,652.3 336.6,652.4
338.5,652.5 340.3,652.5 342.2,652.4 344.0,652.3 345.9,652.2 347.7,652.0 349.6,651.8 351.4,651.6 353.3,651.3 355.1,651.0 357.0,650.7 358.8,650.4 360.7,650.1 362.5,649.8 364.4,649.4 366.2,649.1
368.1,648.8 369.9,648.5 371.8,648.3 373.6,648.0 375.5,647.7 377.3,647.5 379.2,647.3 381.0,647.1 382.9,646.9 384.7,646.8 386.6,646.7 388.4,646.6 390.3,646.6 392.1,646.5 394.0,646.5 395.8,646.5
397.7,646.6 399.5,646.7 401.4,646.8 403.2,646.9 405.1,647.1 406.9,647.3 408.8,647.5 410.7,647.7 412.5,648.0 414.4,648.3 416.2,648.5 418.1,648.9 419.9,649.2 421.8,649.5 423.6,649.9 425.5,650.3
427.3,650.6 429.2,651.0 431.0,651.4 432.9,651.8 434.7,652.2 436.6,652.6 438.4,653.0 440.3,653.4 442.1,653.8 444.0,654.2 445.8,654.6 447.7,655.0 449.5,655.4 451.4,655.7 453.2,656.1 455.1,656.4
456.9,656.8 458.8,657.1 460.6,657.4 462.5,657.7 464.3,658.0 466.2,658.3 468.0,658.5 469.9,658.8 471.7,659.0 473.6,659.2 475.4,659.4 477.3,659.6 479.1,659.7 481.0,659.9 482.8,660.0 484.7,660.1
486.5,660.2 488.4,660.3 490.2,660.4 492.1,660.4 494.0,660.5 495.8,660.5 497.7,660.5 499.5,660.5 501.4,660.5 503.2,660.5 505.1,660.4 506.9,660.4 508.8,660.3 510.6,660.2 512.5,660.1 514.3,660.0
516.2,659.9 518.0,659.8 519.9,659.7 521.7,659.5 523.6,659.4 525.4,659.2 527.3,659.0 529.1,658.9 531.0,658.7 532.8,658.5 534.7,658.3 536.5,658.2 538.4,658.0 540.2,657.8 542.1,657.6 543.9,657.4
545.8,657.2 547.6,657.0 549.5,656.8 551.3,656.6 553.2,656.4 555.0,656.3 556.9,656.1 558.7,655.9 560.6,655.8 562.4,655.6 564.3,655.5 566.1,655.3 568.0,655.2 569.8,655.0 571.7,654.9 573.5,654.8
575.4,654.7 577.3,654.6 579.1,654.5 581.0,654.4 582.8,654.3 584.7,654.3 586.5,654.2 588.4,654.2 590.2,654.1 592.1,654.1 593.9,654.0 595.8,654.0 597.6,654.0 599.5,654.0 601.3,654.0 603.2,654.0
605.0,654.0 606.9,654.0 608.7,654.0 610.6,654.0 612.4,654.1 614.3,654.1 616.1,654.1 618.0,654.2 619.8,654.3 621.7,654.3 623.5,654.4 625.4,654.5 627.2,654.6 629.1,654.7 630.9,654.8 632.8,654.9
634.6,655.0 636.5,655.1 638.3,655.3 640.2,655.4 642.0,655.5 643.9,655.7 645.7,655.9 647.6,656.0 649.4,656.2 651.3,656.4 653.1,656.6 655.0,656.8 656.8,656.9 658.7,657.1 660.6,657.3 662.4,657.5
664.3,657.7 666.1,657.9 668.0,658.1 669.8,658.3 671.7,658.5 673.5,658.7 675.4,658.9 677.2,659.1 679.1,659.3 680.9,659.5 682.8,659.6 684.6,659.8 686.5,660.0 688.3,660.1 690.2,660.3 692.0,660.4
693.9,660.6 695.7,660.7 697.6,660.8 699.4,661.0 701.3,661.1 703.1,661.2 705.0,661.3 706.8,661.4 708.7,661.5 710.5,661.6 712.4,661.6 714.2,661.7 716.1,661.8 717.9,661.8 719.8,661.9 721.6,661.9
723.5,662.0 725.3,662.0 727.2,662.1 729.0,662.1 730.9,662.1 732.7,662.2 734.6,662.2 736.4,662.2 738.3,662.2 740.1,662.3 742.0,662.3 743.9,662.3 745.7,662.3 747.6,662.3 749.4,662.3 751.3,662.3
753.1,662.3 755.0,662.3 756.8,662.3 758.7,662.3 760.5,662.3 762.4,662.3 764.2,662.3 766.1,662.3 767.9,662.3 769.8,662.3 771.6,662.3 773.5,662.3 775.3,662.2 777.2,662.2 779.0,662.2 780.9,662.2
782.7,662.1 784.6,662.1 786.4,662.1 788.3,662.0 790.1,662.0 792.0,661.9 793.8,661.9 795.7,661.8 797.5,661.8 799.4,661.7 801.2,661.6 803.1,661.6 804.9,661.5 806.8,661.4 808.6,661.3 810.5,661.2
812.3,661.1 814.2,661.0 816.0,660.9 817.9,660.7 819.7,660.6 821.6,660.5 823.4,660.3 825.3,660.2 827.1,660.1 829.0,659.9 830.9,659.7 832.7,659.6 834.6,659.4 836.4,659.2 838.3,659.1 840.1,658.9
842.0,658.7 843.8,658.6 845.7,658.4 847.5,658.2 849.4,658.1 851.2,657.9 853.1,657.7 854.9,657.6 856.8,657.5 858.6,657.3 860.5,657.2 862.3,657.1 864.2,657.0 866.0,656.9 867.9,656.8 869.7,656.7
871.6,656.6 873.4,656.6 875.3,656.6 877.1,656.5 879.0,656.5 880.8,656.5 882.7,656.5 884.5,656.6 886.4,656.6 888.2,656.7 890.1,656.7 891.9,656.8 893.8,656.9 895.6,657.0 897.5,657.1 899.3,657.2
901.2,657.4 903.0,657.5 904.9,657.7 906.7,657.8 908.6,658.0 910.4,658.1 912.3,658.3 914.2,658.5 916.0,658.6 917.9,658.8 919.7,659.0 921.6,659.1 923.4,659.3 925.3,659.5 927.1,659.6 929.0,659.8
930.8,660.0 932.7,660.1 934.5,660.3 936.4,660.4 938.2,660.5 940.1,660.7 941.9,660.8 943.8,660.9 945.6,661.0 947.5,661.1 949.3,661.2 951.2,661.3 953.0,661.4 954.9,661.5 956.7,661.6 958.6,661.7
960.4,661.7 962.3,661.8 964.1,661.9 966.0,661.9 967.8,662.0 969.7,662.0 971.5,662.1 973.4,662.1 975.2,662.1 977.1,662.2 978.9,662.2 980.8,662.2 982.6,662.2 984.5,662.3 986.3,662.3 988.2,662.3
990.0,662.3 991.9,662.3 993.7,662.3 995.6,662.3 995.6,662.4 993.7,662.4 991.9,662.4 990.0,662.4 988.2,662.4 986.3,662.4 984.5,662.4 982.6,662.4 980.8,662.4 978.9,662.4 977.1,662.4 975.2,662.4
973.4,662.4 971.5,662.4 969.7,662.4 967.8,662.4 966.0,662.4 964.1,662.4 962.3,662.4 960.4,662.4 958.6,662.4 956.7,662.4 954.9,662.4 953.0,662.4 951.2,662.4 949.3,662.4 947.5,662.4 945.6,662.4
943.8,662.4 941.9,662.4 940.1,662.4 938.2,662.4 936.4,662.4 934.5,662.4 932.7,662.4 930.8,662.4 929.0,662.4 927.1,662.4 925.3,662.4 923.4,662.4 921.6,662.4 919.7,662.4 917.9,662.4 916.0,662.4
914.2,662.4 912.3,662.4 910.4,662.4 908.6,662.4 906.7,662.4 904.9,662.4 903.0,662.4 901.2,662.4 899.3,662.4 897.5,662.4 895.6,662.4 893.8,662.4 891.9,662.4 890.1,662.4 888.2,662.4 886.4,662.4
884.5,662.4 882.7,662.4 880.8,662.4 879.0,662.4 877.1,662.4 875.3,662.4 873.4,662.4 871.6,662.4 869.7,662.4 867.9,662.4 866.0,662.4 864.2,662.4 862.3,662.4 860.5,662.4 858.6,662.4 856.8,662.4
854.9,662.4 853.1,662.4 851.2,662.4 849.4,662.4 847.5,662.4 845.7,662.4 843.8,662.4 842.0,662.4 840.1,662.4 838.3,662.4 836.4,662.4 834.6,662.4 832.7,662.4 830.9,662.4 829.0,662.4 827.1,662.4
825.3,662.4 823.4,662.4 821.6,662.4 819.7,662.4 817.9,662.4 816.0,662.4 814.2,662.4 812.3,662.4 810.5,662.4 808.6,662.4 806.8,662.4 804.9,662.4 803.1,662.4 801.2,662.4 799.4,662.4 797.5,662.4
795.7,662.4 793.8,662.4 792.0,662.4 790.1,662.4 788.3,662.4 786.4,662.4 784.6,662.4 782.7,662.4 780.9,662.4 779.0,662.4 777.2,662.4 775.3,662.4 773.5,662.4 771.6,662.4 769.8,662.4 767.9,662.4
766.1,662.4 764.2,662.4 762.4,662.4 760.5,662.4 758.7,662.4 756.8,662.4 755.0,662.4 753.1,662.4 751.3,662.4 749.4,662.4 747.6,662.4 745.7,662.4 743.9,662.4 742.0,662.4 740.1,662.4 738.3,662.4
736.4,662.4 734.6,662.4 732.7,662.4 730.9,662.4 729.0,662.4 727.2,662.4 725.3,662.4 723.5,662.4 721.6,662.4 719.8,662.4 717.9,662.4 716.1,662.4 714.2,662.4 712.4,662.4 710.5,662.4 708.7,662.4
706.8,662.4 705.0,662.4 703.1,662.4 701.3,662.4 699.4,662.4 697.6,662.4 695.7,662.4 693.9,662.4 692.0,662.4 690.2,662.4 688.3,662.4 686.5,662.4 684.6,662.4 682.8,662.4 680.9,662.4 679.1,662.4
677.2,662.4 675.4,662.4 673.5,662.4 671.7,662.4 669.8,662.4 668.0,662.4 666.1,662.4 664.3,662.4 662.4,662.4 660.6,662.4 658.7,662.4 656.8,662.4 655.0,662.4 653.1,662.4 651.3,662.4 649.4,662.4
647.6,662.4 645.7,662.4 643.9,662.4 642.0,662.4 640.2,662.4 638.3,662.4 636.5,662.4 634.6,662.4 632.8,662.4 630.9,662.4 629.1,662.4 627.2,662.4 625.4,662.4 623.5,662.4 621.7,662.4 619.8,662.4
618.0,662.4 616.1,662.4 614.3,662.4 612.4,662.4 610.6,662.4 608.7,662.4 606.9,662.4 605.0,662.4 603.2,662.4 601.3,662.4 599.5,662.4 597.6,662.4 595.8,662.4 593.9,662.4 592.1,662.4 590.2,662.4
588.4,662.4 586.5,662.4 584.7,662.4 582.8,662.4 581.0,662.4 579.1,662.4 577.3,662.4 575.4,662.4 573.5,662.4 571.7,662.4 569.8,662.4 568.0,662.4 566.1,662.4 564.3,662.4 562.4,662.4 560.6,662.4
558.7,662.4 556.9,662.4 555.0,662.4 553.2,662.4 551.3,662.4 549.5,662.4 547.6,662.4 545.8,662.4 543.9,662.4 542.1,662.4 540.2,662.4 538.4,662.4 536.5,662.4 534.7,662.4 532.8,662.4 531.0,662.4
529.1,662.4 527.3,662.4 525.4,662.4 523.6,662.4 521.7,662.4 519.9,662.4 518.0,662.4 516.2,662.4 514.3,662.4 512.5,662.4 510.6,662.4 508.8,662.4 506.9,662.4 505.1,662.4 503.2,662.4 501.4,662.4
499.5,662.4 497.7,662.4 495.8,662.4 494.0,662.4 492.1,662.4 490.2,662.4 488.4,662.4 486.5,662.4 484.7,662.4 482.8,662.4 481.0,662.4 479.1,662.4 477.3,662.4 475.4,662.4 473.6,662.4 471.7,662.4
469.9,662.4 468.0,662.4 466.2,662.4 464.3,662.4 462.5,662.4 460.6,662.4 458.8,662.4 456.9,662.4 455.1,662.4 453.2,662.4 451.4,662.4 449.5,662.4 447.7,662.4 445.8,662.4 444.0,662.4 442.1,662.4
440.3,662.4 438.4,662.4 436.6,662.4 434.7,662.4 432.9,662.4 431.0,662.4 429.2,662.4 427.3,662.4 425.5,662.4 423.6,662.4 421.8,662.4 419.9,662.4 418.1,662.4 416.2,662.4 414.4,662.4 412.5,662.4
410.7,662.4 408.8,662.4 406.9,662.4 405.1,662.4 403.2,662.4 401.4,662.4 399.5,662.4 397.7,662.4 395.8,662.4 394.0,662.4 392.1,662.4 390.3,662.4 388.4,662.4 386.6,662.4 384.7,662.4 382.9,662.4
381.0,662.4 379.2,662.4 377.3,662.4 375.5,662.4 373.6,662.4 371.8,662.4 369.9,662.4 368.1,662.4 366.2,662.4 364.4,662.4 362.5,662.4 360.7,662.4 358.8,662.4 357.0,662.4 355.1,662.4 353.3,662.4
351.4,662.4 349.6,662.4 347.7,662.4 345.9,662.4 344.0,662.4 342.2,662.4 340.3,662.4 338.5,662.4 336.6,662.4 334.8,662.4 332.9,662.4 331.1,662.4 329.2,662.4 327.4,662.4 325.5,662.4 323.6,662.4
321.8,662.4 319.9,662.4 318.1,662.4 316.2,662.4 314.4,662.4 312.5,662.4 310.7,662.4 308.8,662.4 307.0,662.4 305.1,662.4 303.3,662.4 301.4,662.4 299.6,662.4 297.7,662.4 295.9,662.4 294.0,662.4
292.2,662.4 290.3,662.4 288.5,662.4 286.6,662.4 284.8,662.4 282.9,662.4 281.1,662.4 279.2,662.4 277.4,662.4 275.5,662.4 273.7,662.4 271.8,662.4 270.0,662.4 268.1,662.4 266.3,662.4 264.4,662.4
262.6,662.4 260.7,662.4 258.9,662.4 257.0,662.4 255.2,662.4 253.3,662.4 251.5,662.4 249.6,662.4 247.8,662.4 245.9,662.4 244.1,662.4 242.2,662.4 240.4,662.4 238.5,662.4 236.6,662.4 234.8,662.4
232.9,662.4 231.1,662.4 229.2,662.4 227.4,662.4 225.5,662.4 223.7,662.4 221.8,662.4 220.0,662.4 218.1,662.4 216.3,662.4 214.4,662.4 212.6,662.4 210.7,662.4 208.9,662.4 207.0,662.4 205.2,662.4
203.3,662.4 201.5,662.4 199.6,662.4 197.8,662.4 195.9,662.4 194.1,662.4 192.2,662.4 190.4,662.4 188.5,662.4 186.7,662.4 184.8,662.4 183.0,662.4 181.1,662.4 179.3,662.4 177.4,662.4 175.6,662.4
173.7,662.4 171.9,662.4 170.0,662.4 168.2,662.4 166.3,662.4 164.5,662.4 162.6,662.4 160.8,662.4 158.9,662.4 157.1,662.4 155.2,662.4 153.3,662.4 151.5,662.4 149.6,662.4 147.8,662.4 145.9,662.4
144.1,662.4 142.2,662.4 140.4,662.4 138.5,662.4 136.7,662.4 134.8,662.4 133.0,662.4 131.1,662.4 129.3,662.4 127.4,662.4 125.6,662.4 123.7,662.4 121.9,662.4 120.0,662.4 118.2,662.4 116.3,662.4
114.5,662.4 112.6,662.4 110.8,662.4 108.9,662.4 107.1,662.4 105.2,662.4 103.4,662.4 101.5,662.4 99.7,662.4 97.8,662.4 96.0,662.4 94.1,662.4 92.3,662.4 90.4,662.4 88.6,662.4 86.7,662.4
84.9,662.4 83.0,662.4 81.2,662.4 79.3,662.4 77.5,662.4 75.6,662.4 73.8,662.4 71.9,662.4 '/>
	</g>
</g>
	</g>
	<g id="gnuplot_plot_2" ><title>Mean</title>
<g fill="none" color="white" stroke="rgb( 31, 120, 180)" stroke-width="2.00" stroke-linecap="butt" stroke-linejoin="miter">
</g>
<g fill="none" color="black" stroke="currentColor" stroke-width="2.00" stroke-linecap="butt" stroke-linejoin="miter">
	<g transform="translate(1147.1,85.0)" stroke="none" fill="black" font-family="Helvetica" font-size="12.00"  text-anchor="start">
		<text><tspan font-family="Helvetica" >Mean</tspan></text>
	</g>
</g>
<g fill="none" color="black" stroke="currentColor" stroke-width="2.00" stroke-linecap="butt" stroke-linejoin="miter">
	<path stroke='rgb( 31, 120, 180)'  d='M1096.6,81.1 L1138.8,81.1 M229.1,662.4 L229.1,54.1  '/></g>
	</g>
	<g id="gnuplot_plot_3" ><title>"Clean" sample</title>
<g fill="none" color="white" stroke="rgb( 31, 120, 180)" stroke-width="1.00" stroke-linecap="butt" stroke-linejoin="miter">
</g>
<g fill="none" color="black" stroke="currentColor" stroke-width="1.00" stroke-linecap="butt" stroke-linejoin="miter">
	<g transform="translate(1147.1,103.0)" stroke="none" fill="black" font-family="Helvetica" font-size="12.00"  text-anchor="start">
		<text><tspan font-family="Helvetica" >"Clean" sample</tspan></text>
	</g>
</g>
<g fill="none" color="black" stroke="currentColor" stroke-width="1.00" stroke-linecap="butt" stroke-linejoin="miter">
	<use xlink:href='#gpPt6' transform='translate(217.2,644.2) scale(3.38)' color='rgb( 31, 120, 180)'/>
	<use xlink:href='#gpPt6' transform='translate(200.2,638.1) scale(3.38)' color='rgb( 31, 120, 180)'/>
	<use xlink:href='#gpPt6' transform='translate(200.7,625.9) scale(3.38)' color='rgb( 31, 120, 180)'/>
	<use xlink:href='#gpPt6' transform='translate(219.8,601.6) scale(3.38)' color='rgb( 31, 120, 180)'/>
	<use xlink:href='#gpPt6' transform='translate(212.4,595.5) scale(3.38)' color='rgb( 31, 120, 180)'/>
	<use xlink:href='#gpPt6' transform='translate(196.5,577.2) scale(3.38)' color='rgb( 31, 120, 180)'/>
	<use xlink:href='#gpPt6' transform='translate(205.3,571.2) scale(3.38)' color='rgb( 31, 120, 180)'/>
	<use xlink:href='#gpPt6' transform='translate(205.9,559.0) scale(3.38)' color='rgb( 31, 120, 180)'/>
	<use xlink:href='#gpPt6' transform='translate(205.6,546.8) scale(3.38)' color='rgb( 31, 120, 180)'/>
	<use xlink:href='#gpPt6' transform='translate(212.6,540.7) scale(3.38)' color='rgb( 31, 120, 180)'/>
	<use xlink:href='#gpPt6' transform='translate(210.6,534.7) scale(3.38)' color='rgb( 31, 120, 180)'/>
	<use xlink:href='#gpPt6' transform='translate(211.6,528.6) scale(3.38)' color='rgb( 31, 120, 180)'/>
	<use xlink:href='#gpPt6' transform='translate(208.2,522.5) scale(3.38)' color='rgb( 31, 120, 180)'/>
	<use xlink:href='#gpPt6' transform='translate(202.7,516.4) scale(3.38)' color='rgb( 31, 120, 180)'/>
	<use xlink:href='#gpPt6' transform='translate(213.2,510.3) scale(3.38)' color='rgb( 31, 120, 180)'/>
	<use xlink:href='#gpPt6' transform='translate(211.7,504.2) scale(3.38)' color='rgb( 31, 120, 180)'/>
	<use xlink:href='#gpPt6' transform='translate(216.5,498.2) scale(3.38)' color='rgb( 31, 120, 180)'/>
	<use xlink:href='#gpPt6' transform='translate(214.7,492.1) scale(3.38)' color='rgb( 31, 120, 180)'/>
	<use xlink:href='#gpPt6' transform='translate(209.5,479.9) scale(3.38)' color='rgb( 31, 120, 180)'/>
	<use xlink:href='#gpPt6' transform='translate(203.3,473.8) scale(3.38)' color='rgb( 31, 120, 180)'/>
	<use xlink:href='#gpPt6' transform='translate(211.8,467.7) scale(3.38)' color='rgb( 31, 120, 180)'/>
	<use xlink:href='#gpPt6' transform='translate(211.9,461.7) scale(3.38)' color='rgb( 31, 120, 180)'/>
	<use xlink:href='#gpPt6' transform='translate(201.4,455.6) scale(3.38)' color='rgb( 31, 120, 180)'/>
	<use xlink:href='#gpPt6' transform='translate(209.1,449.5) scale(3.38)' color='rgb( 31, 120, 180)'/>
	<use xlink:href='#gpPt6' transform='translate(215.4,443.4) scale(3.38)' color='rgb( 31, 120, 180)'/>
	<use xlink:href='#gpPt6' transform='translate(213.5,437.3) scale(3.38)' color='rgb( 31, 120, 180)'/>
	<use xlink:href='#gpPt6' transform='translate(211.9,431.2) scale(3.38)' color='rgb( 31, 120, 180)'/>
	<use xlink:href='#gpPt6' transform='translate(209.2,425.2) scale(3.38)' color='rgb( 31, 120, 180)'/>
	<use xlink:href='#gpPt6' transform='translate(198.7,419.1) scale(3.38)' color='rgb( 31, 120, 180)'/>
	<use xlink:href='#gpPt6' transform='translate(203.3,413.0) scale(3.38)' color='rgb( 31, 120, 180)'/>
	<use xlink:href='#gpPt6' transform='translate(210.7,406.9) scale(3.38)' color='rgb( 31, 120, 180)'/>
	<use xlink:href='#gpPt6' transform='translate(208.8,400.8) scale(3.38)' color='rgb( 31, 120, 180)'/>
	<use xlink:href='#gpPt6' transform='translate(207.4,394.7) scale(3.38)' color='rgb( 31, 120, 180)'/>
	<use xlink:href='#gpPt6' transform='translate(205.0,388.7) scale(3.38)' color='rgb( 31, 120, 180)'/>
	<use xlink:href='#gpPt6' transform='translate(218.8,382.6) scale(3.38)' color='rgb( 31, 120, 180)'/>
	<use xlink:href='#gpPt6' transform='translate(202.2,376.5) scale(3.38)' color='rgb( 31, 120, 180)'/>
	<use xlink:href='#gpPt6' transform='translate(213.1,370.4) scale(3.38)' color='rgb( 31, 120, 180)'/>
	<use xlink:href='#gpPt6' transform='translate(207.2,364.3) scale(3.38)' color='rgb( 31, 120, 180)'/>
	<use xlink:href='#gpPt6' transform='translate(213.5,358.2) scale(3.38)' color='rgb( 31, 120, 180)'/>
	<use xlink:href='#gpPt6' transform='translate(210.9,352.2) scale(3.38)' color='rgb( 31, 120, 180)'/>
	<use xlink:href='#gpPt6' transform='translate(205.3,340.0) scale(3.38)' color='rgb( 31, 120, 180)'/>
	<use xlink:href='#gpPt6' transform='translate(207.6,333.9) scale(3.38)' color='rgb( 31, 120, 180)'/>
	<use xlink:href='#gpPt6' transform='translate(203.7,327.8) scale(3.38)' color='rgb( 31, 120, 180)'/>
	<use xlink:href='#gpPt6' transform='translate(207.6,321.8) scale(3.38)' color='rgb( 31, 120, 180)'/>
	<use xlink:href='#gpPt6' transform='translate(198.8,315.7) scale(3.38)' color='rgb( 31, 120, 180)'/>
	<use xlink:href='#gpPt6' transform='translate(206.4,309.6) scale(3.38)' color='rgb( 31, 120, 180)'/>
	<use xlink:href='#gpPt6' transform='translate(205.7,303.5) scale(3.38)' color='rgb( 31, 120, 180)'/>
	<use xlink:href='#gpPt6' transform='translate(206.8,297.4) scale(3.38)' color='rgb( 31, 120, 180)'/>
	<use xlink:href='#gpPt6' transform='translate(205.8,291.3) scale(3.38)' color='rgb( 31, 120, 180)'/>
	<use xlink:href='#gpPt6' transform='translate(206.9,285.3) scale(3.38)' color='rgb( 31, 120, 180)'/>
	<use xlink:href='#gpPt6' transform='translate(204.6,279.2) scale(3.38)' color='rgb( 31, 120, 180)'/>
	<use xlink:href='#gpPt6' transform='translate(207.7,273.1) scale(3.38)' color='rgb( 31, 120, 180)'/>
	<use xlink:href='#gpPt6' transform='translate(202.4,267.0) scale(3.38)' color='rgb( 31, 120, 180)'/>
	<use xlink:href='#gpPt6' transform='translate(206.6,260.9) scale(3.38)' color='rgb( 31, 120, 180)'/>
	<use xlink:href='#gpPt6' transform='translate(204.5,254.8) scale(3.38)' color='rgb( 31, 120, 180)'/>
	<use xlink:href='#gpPt6' transform='translate(207.6,248.8) scale(3.38)' color='rgb( 31, 120, 180)'/>
	<use xlink:href='#gpPt6' transform='translate(219.7,230.5) scale(3.38)' color='rgb( 31, 120, 180)'/>
	<use xlink:href='#gpPt6' transform='translate(207.0,224.4) scale(3.38)' color='rgb( 31, 120, 180)'/>
	<use xlink:href='#gpPt6' transform='translate(209.3,218.3) scale(3.38)' color='rgb( 31, 120, 180)'/>
	<use xlink:href='#gpPt6' transform='translate(205.3,212.3) scale(3.38)' color='rgb( 31, 120, 180)'/>
	<use xlink:href='#gpPt6' transform='translate(207.9,206.2) scale(3.38)' color='rgb( 31, 120, 180)'/>
	<use xlink:href='#gpPt6' transform='translate(203.2,200.1) scale(3.38)' color='rgb( 31, 120, 180)'/>
	<use xlink:href='#gpPt6' transform='translate(206.6,194.0) scale(3.38)' color='rgb( 31, 120, 180)'/>
	<use xlink:href='#gpPt6' transform='translate(209.7,187.9) scale(3.38)' color='rgb( 31, 120, 180)'/>
	<use xlink:href='#gpPt6' transform='translate(202.8,181.8) scale(3.38)' color='rgb( 31, 120, 180)'/>
	<use xlink:href='#gpPt6' transform='translate(208.7,175.8) scale(3.38)' color='rgb( 31, 120, 180)'/>
	<use xlink:href='#gpPt6' transform='translate(204.9,169.7) scale(3.38)' color='rgb( 31, 120, 180)'/>
	<use xlink:href='#gpPt6' transform='translate(203.9,163.6) scale(3.38)' color='rgb( 31, 120, 180)'/>
	<use xlink:href='#gpPt6' transform='translate(210.4,157.5) scale(3.38)' color='rgb( 31, 120, 180)'/>
	<use xlink:href='#gpPt6' transform='translate(205.0,151.4) scale(3.38)' color='rgb( 31, 120, 180)'/>
	<use xlink:href='#gpPt6' transform='translate(204.2,145.3) scale(3.38)' color='rgb( 31, 120, 180)'/>
	<use xlink:href='#gpPt6' transform='translate(209.9,139.3) scale(3.38)' color='rgb( 31, 120, 180)'/>
	<use xlink:href='#gpPt6' transform='translate(206.4,133.2) scale(3.38)' color='rgb( 31, 120, 180)'/>
	<use xlink:href='#gpPt6' transform='translate(203.8,127.1) scale(3.38)' color='rgb( 31, 120, 180)'/>
	<use xlink:href='#gpPt6' transform='translate(202.9,121.0) scale(3.38)' color='rgb( 31, 120, 180)'/>
	<use xlink:href='#gpPt6' transform='translate(211.2,114.9) scale(3.38)' color='rgb( 31, 120, 180)'/>
	<use xlink:href='#gpPt6' transform='translate(210.1,108.8) scale(3.38)' color='rgb( 31, 120, 180)'/>
	<use xlink:href='#gpPt6' transform='translate(206.5,102.8) scale(3.38)' color='rgb( 31, 120, 180)'/>
	<use xlink:href='#gpPt6' transform='translate(207.5,96.7) scale(3.38)' color='rgb( 31, 120, 180)'/>
	<use xlink:href='#gpPt6' transform='translate(210.3,90.6) scale(3.38)' color='rgb( 31, 120, 180)'/>
	<use xlink:href='#gpPt6' transform='translate(209.6,84.5) scale(3.38)' color='rgb( 31, 120, 180)'/>
	<use xlink:href='#gpPt6' transform='translate(208.4,78.4) scale(3.38)' color='rgb( 31, 120, 180)'/>
	<use xlink:href='#gpPt6' transform='translate(204.1,72.3) scale(3.38)' color='rgb( 31, 120, 180)'/>
	<use xlink:href='#gpPt6' transform='translate(204.9,66.3) scale(3.38)' color='rgb( 31, 120, 180)'/>
	<use xlink:href='#gpPt6' transform='translate(209.6,60.2) scale(3.38)' color='rgb( 31, 120, 180)'/>
	<use xlink:href='#gpPt6' transform='translate(207.9,54.1) scale(3.38)' color='rgb( 31, 120, 180)'/>
	<use xlink:href='#gpPt6' transform='translate(1117.7,99.1) scale(3.38)' color='rgb( 31, 120, 180)'/>
</g>
	</g>
	<g id="gnuplot_plot_4" ><title>Mild outliers</title>
<g fill="none" color="black" stroke="currentColor" stroke-width="1.00" stroke-linecap="butt" stroke-linejoin="miter">
	<g transform="translate(1147.1,121.0)" stroke="none" fill="black" font-family="Helvetica" font-size="12.00"  text-anchor="start">
		<text><tspan font-family="Helvetica" >Mild outliers</tspan></text>
	</g>
</g>
<g fill="none" color="black" stroke="currentColor" stroke-width="1.00" stroke-linecap="butt" stroke-linejoin="miter">
	<use xlink:href='#gpPt6' transform='translate(188.0,650.2) scale(3.38)' color='rgb(255, 127,   0)'/>
	<use xlink:href='#gpPt6' transform='translate(193.1,589.4) scale(3.38)' color='rgb(255, 127,   0)'/>
	<use xlink:href='#gpPt6' transform='translate(194.1,583.3) scale(3.38)' color='rgb(255, 127,   0)'/>
	<use xlink:href='#gpPt6' transform='translate(226.0,552.9) scale(3.38)' color='rgb(255, 127,   0)'/>
	<use xlink:href='#gpPt6' transform='translate(232.8,236.6) scale(3.38)' color='rgb(255, 127,   0)'/>
	<use xlink:href='#gpPt6' transform='translate(1117.7,117.1) scale(3.38)' color='rgb(255, 127,   0)'/>
</g>
	</g>
	<g id="gnuplot_plot_5" ><title>Severe outliers</title>
<g fill="none" color="black" stroke="currentColor" stroke-width="1.00" stroke-linecap="butt" stroke-linejoin="miter">
	<g transform="translate(1147.1,139.0)" stroke="none" fill="black" font-family="Helvetica" font-size="12.00"  text-anchor="start">
		<text><tspan font-family="Helvetica" >Severe outliers</tspan></text>
	</g>
</g>
<g fill="none" color="black" stroke="currentColor" stroke-width="1.00" stroke-linecap="butt" stroke-linejoin="miter">
	<use xlink:href='#gpPt6' transform='translate(376.5,656.3) scale(3.38)' color='rgb(227,  26,  28)'/>
	<use xlink:href='#gpPt6' transform='translate(571.1,632.0) scale(3.38)' color='rgb(227,  26,  28)'/>
	<use xlink:href='#gpPt6' transform='translate(634.2,619.8) scale(3.38)' color='rgb(227,  26,  28)'/>
	<use xlink:href='#gpPt6' transform='translate(419.3,613.7) scale(3.38)' color='rgb(227,  26,  28)'/>
	<use xlink:href='#gpPt6' transform='translate(388.1,607.7) scale(3.38)' color='rgb(227,  26,  28)'/>
	<use xlink:href='#gpPt6' transform='translate(248.8,565.1) scale(3.38)' color='rgb(227,  26,  28)'/>
	<use xlink:href='#gpPt6' transform='translate(233.2,486.0) scale(3.38)' color='rgb(227,  26,  28)'/>
	<use xlink:href='#gpPt6' transform='translate(250.6,346.1) scale(3.38)' color='rgb(227,  26,  28)'/>
	<use xlink:href='#gpPt6' transform='translate(879.5,242.7) scale(3.38)' color='rgb(227,  26,  28)'/>
	<use xlink:href='#gpPt6' transform='translate(1117.7,135.1) scale(3.38)' color='rgb(227,  26,  28)'/>
</g>
	</g>
	<g id="gnuplot_plot_6" ><title>gnuplot_plot_6</title>
<g fill="none" color="white" stroke="rgb(227,  26,  28)" stroke-width="2.00" stroke-linecap="butt" stroke-linejoin="miter">
</g>
<g fill="none" color="black" stroke="currentColor" stroke-width="2.00" stroke-linecap="butt" stroke-linejoin="miter">
	<path stroke='rgb(255, 127,   0)'  d='M194.4,662.4 L194.4,54.1  '/></g>
	</g>
	<g id="gnuplot_plot_7" ><title>gnuplot_plot_7</title>
<g fill="none" color="black" stroke="currentColor" stroke-width="2.00" stroke-linecap="butt" stroke-linejoin="miter">
	<path stroke='rgb(255, 127,   0)'  d='M222.4,662.4 L222.4,54.1  '/></g>
	</g>
	<g id="gnuplot_plot_8" ><title>gnuplot_plot_8</title>
<g fill="none" color="black" stroke="currentColor" stroke-width="2.00" stroke-linecap="butt" stroke-linejoin="miter">
	<path stroke='rgb(227,  26,  28)'  d='M183.9,662.4 L183.9,54.1  '/></g>
	</g>
	<g id="gnuplot_plot_9" ><title>gnuplot_plot_9</title>
<g fill="none" color="black" stroke="currentColor" stroke-width="2.00" stroke-linecap="butt" stroke-linejoin="miter">
	<path stroke='rgb(227,  26,  28)'  d='M233.0,662.4 L233.0,54.1  '/></g>
	</g>
<g fill="none" color="black" stroke="currentColor" stroke-width="2.00" stroke-linecap="butt" stroke-linejoin="miter">
</g>
<g fill="none" color="black" stroke="black" stroke-width="1.00" stroke-linecap="butt" stroke-linejoin="miter">
</g>
<g fill="none" color="black" stroke="currentColor" stroke-width="1.00" stroke-linecap="butt" stroke-linejoin="miter">
	<path stroke='black'  d='M71.9,54.1 L71.9,662.4 L995.6,662.4 L995.6,54.1 L71.9,54.1 Z  '/></g>
<g fill="none" color="black" stroke="currentColor" stroke-width="1.00" stroke-linecap="butt" stroke-linejoin="miter">
</g>
</g>
</svg>

