<?xml version="1.0" encoding="utf-8"  standalone="no"?>
<svg 
 viewBox="0 0 1280 720"
 xmlns="http://www.w3.org/2000/svg"
 xmlns:xlink="http://www.w3.org/1999/xlink"
>

<title>Gnuplot</title>
<desc>Produced by GNUPLOT 5.2 patchlevel 6 </desc>

<g id="gnuplot_canvas">

<rect x="0" y="0" width="1280" height="720" fill="none"/>
<defs>

	<circle id='gpDot' r='0.5' stroke-width='0.5' stroke='currentColor'/>
	<path id='gpPt0' stroke-width='0.222' stroke='currentColor' d='M-1,0 h2 M0,-1 v2'/>
	<path id='gpPt1' stroke-width='0.222' stroke='currentColor' d='M-1,-1 L1,1 M1,-1 L-1,1'/>
	<path id='gpPt2' stroke-width='0.222' stroke='currentColor' d='M-1,0 L1,0 M0,-1 L0,1 M-1,-1 L1,1 M-1,1 L1,-1'/>
	<rect id='gpPt3' stroke-width='0.222' stroke='currentColor' x='-1' y='-1' width='2' height='2'/>
	<rect id='gpPt4' stroke-width='0.222' stroke='currentColor' fill='currentColor' x='-1' y='-1' width='2' height='2'/>
	<circle id='gpPt5' stroke-width='0.222' stroke='currentColor' cx='0' cy='0' r='1'/>
	<use xlink:href='#gpPt5' id='gpPt6' fill='currentColor' stroke='none'/>
	<path id='gpPt7' stroke-width='0.222' stroke='currentColor' d='M0,-1.33 L-1.33,0.67 L1.33,0.67 z'/>
	<use xlink:href='#gpPt7' id='gpPt8' fill='currentColor' stroke='none'/>
	<use xlink:href='#gpPt7' id='gpPt9' stroke='currentColor' transform='rotate(180)'/>
	<use xlink:href='#gpPt9' id='gpPt10' fill='currentColor' stroke='none'/>
	<use xlink:href='#gpPt3' id='gpPt11' stroke='currentColor' transform='rotate(45)'/>
	<use xlink:href='#gpPt11' id='gpPt12' fill='currentColor' stroke='none'/>
	<path id='gpPt13' stroke-width='0.222' stroke='currentColor' d='M0,1.330 L1.265,0.411 L0.782,-1.067 L-0.782,-1.076 L-1.265,0.411 z'/>
	<use xlink:href='#gpPt13' id='gpPt14' fill='currentColor' stroke='none'/>
	<filter id='textbox' filterUnits='objectBoundingBox' x='0' y='0' height='1' width='1'>
	  <feFlood flood-color='white' flood-opacity='1' result='bgnd'/>
	  <feComposite in='SourceGraphic' in2='bgnd' operator='atop'/>
	</filter>
	<filter id='greybox' filterUnits='objectBoundingBox' x='0' y='0' height='1' width='1'>
	  <feFlood flood-color='lightgrey' flood-opacity='1' result='grey'/>
	  <feComposite in='SourceGraphic' in2='grey' operator='atop'/>
	</filter>
</defs>
<g fill="none" color="white" stroke="currentColor" stroke-width="1.00" stroke-linecap="butt" stroke-linejoin="miter">
</g>
<g fill="none" color="black" stroke="currentColor" stroke-width="1.00" stroke-linecap="butt" stroke-linejoin="miter">
	<path stroke='black'  d='M71.9,662.4 L80.9,662.4  '/>	<g transform="translate(63.6,666.3)" stroke="none" fill="black" font-family="Helvetica" font-size="12.00"  text-anchor="end">
		<text><tspan font-family="Helvetica" > 0</tspan></text>
	</g>
</g>
<g fill="none" color="black" stroke="currentColor" stroke-width="1.00" stroke-linecap="butt" stroke-linejoin="miter">
	<path stroke='black'  d='M71.9,586.4 L80.9,586.4  '/>	<g transform="translate(63.6,590.3)" stroke="none" fill="black" font-family="Helvetica" font-size="12.00"  text-anchor="end">
		<text><tspan font-family="Helvetica" > 100</tspan></text>
	</g>
</g>
<g fill="none" color="black" stroke="currentColor" stroke-width="1.00" stroke-linecap="butt" stroke-linejoin="miter">
	<path stroke='black'  d='M71.9,510.3 L80.9,510.3  '/>	<g transform="translate(63.6,514.2)" stroke="none" fill="black" font-family="Helvetica" font-size="12.00"  text-anchor="end">
		<text><tspan font-family="Helvetica" > 200</tspan></text>
	</g>
</g>
<g fill="none" color="black" stroke="currentColor" stroke-width="1.00" stroke-linecap="butt" stroke-linejoin="miter">
	<path stroke='black'  d='M71.9,434.3 L80.9,434.3  '/>	<g transform="translate(63.6,438.2)" stroke="none" fill="black" font-family="Helvetica" font-size="12.00"  text-anchor="end">
		<text><tspan font-family="Helvetica" > 300</tspan></text>
	</g>
</g>
<g fill="none" color="black" stroke="currentColor" stroke-width="1.00" stroke-linecap="butt" stroke-linejoin="miter">
	<path stroke='black'  d='M71.9,358.2 L80.9,358.2  '/>	<g transform="translate(63.6,362.1)" stroke="none" fill="black" font-family="Helvetica" font-size="12.00"  text-anchor="end">
		<text><tspan font-family="Helvetica" > 400</tspan></text>
	</g>
</g>
<g fill="none" color="black" stroke="currentColor" stroke-width="1.00" stroke-linecap="butt" stroke-linejoin="miter">
	<path stroke='black'  d='M71.9,282.2 L80.9,282.2  '/>	<g transform="translate(63.6,286.1)" stroke="none" fill="black" font-family="Helvetica" font-size="12.00"  text-anchor="end">
		<text><tspan font-family="Helvetica" > 500</tspan></text>
	</g>
</g>
<g fill="none" color="black" stroke="currentColor" stroke-width="1.00" stroke-linecap="butt" stroke-linejoin="miter">
	<path stroke='black'  d='M71.9,206.2 L80.9,206.2  '/>	<g transform="translate(63.6,210.1)" stroke="none" fill="black" font-family="Helvetica" font-size="12.00"  text-anchor="end">
		<text><tspan font-family="Helvetica" > 600</tspan></text>
	</g>
</g>
<g fill="none" color="black" stroke="currentColor" stroke-width="1.00" stroke-linecap="butt" stroke-linejoin="miter">
	<path stroke='black'  d='M71.9,130.1 L80.9,130.1  '/>	<g transform="translate(63.6,134.0)" stroke="none" fill="black" font-family="Helvetica" font-size="12.00"  text-anchor="end">
		<text><tspan font-family="Helvetica" > 700</tspan></text>
	</g>
</g>
<g fill="none" color="black" stroke="currentColor" stroke-width="1.00" stroke-linecap="butt" stroke-linejoin="miter">
	<path stroke='black'  d='M71.9,54.1 L80.9,54.1  '/>	<g transform="translate(63.6,58.0)" stroke="none" fill="black" font-family="Helvetica" font-size="12.00"  text-anchor="end">
		<text><tspan font-family="Helvetica" > 800</tspan></text>
	</g>
</g>
<g fill="none" color="black" stroke="currentColor" stroke-width="1.00" stroke-linecap="butt" stroke-linejoin="miter">
	<path stroke='black'  d='M156.4,662.4 L156.4,653.4  '/>	<g transform="translate(156.4,684.3)" stroke="none" fill="black" font-family="Helvetica" font-size="12.00"  text-anchor="middle">
		<text><tspan font-family="Helvetica" > 0.3</tspan></text>
	</g>
</g>
<g fill="none" color="black" stroke="currentColor" stroke-width="1.00" stroke-linecap="butt" stroke-linejoin="miter">
	<path stroke='black'  d='M359.6,662.4 L359.6,653.4  '/>	<g transform="translate(359.6,684.3)" stroke="none" fill="black" font-family="Helvetica" font-size="12.00"  text-anchor="middle">
		<text><tspan font-family="Helvetica" > 0.35</tspan></text>
	</g>
</g>
<g fill="none" color="black" stroke="currentColor" stroke-width="1.00" stroke-linecap="butt" stroke-linejoin="miter">
	<path stroke='black'  d='M562.8,662.4 L562.8,653.4  '/>	<g transform="translate(562.8,684.3)" stroke="none" fill="black" font-family="Helvetica" font-size="12.00"  text-anchor="middle">
		<text><tspan font-family="Helvetica" > 0.4</tspan></text>
	</g>
</g>
<g fill="none" color="black" stroke="currentColor" stroke-width="1.00" stroke-linecap="butt" stroke-linejoin="miter">
	<path stroke='black'  d='M766.0,662.4 L766.0,653.4  '/>	<g transform="translate(766.0,684.3)" stroke="none" fill="black" font-family="Helvetica" font-size="12.00"  text-anchor="middle">
		<text><tspan font-family="Helvetica" > 0.45</tspan></text>
	</g>
</g>
<g fill="none" color="black" stroke="currentColor" stroke-width="1.00" stroke-linecap="butt" stroke-linejoin="miter">
	<path stroke='black'  d='M969.2,662.4 L969.2,653.4  '/>	<g transform="translate(969.2,684.3)" stroke="none" fill="black" font-family="Helvetica" font-size="12.00"  text-anchor="middle">
		<text><tspan font-family="Helvetica" > 0.5</tspan></text>
	</g>
</g>
<g fill="none" color="black" stroke="currentColor" stroke-width="1.00" stroke-linecap="butt" stroke-linejoin="miter">
</g>
<g fill="none" color="black" stroke="currentColor" stroke-width="1.00" stroke-linecap="butt" stroke-linejoin="miter">
	<path stroke='black'  d='M71.9,54.1 L71.9,662.4 L1013.6,662.4 L1013.6,54.1 L71.9,54.1 Z  '/></g>
<g fill="none" color="black" stroke="currentColor" stroke-width="1.00" stroke-linecap="butt" stroke-linejoin="miter">
	<g transform="translate(16.3,358.3) rotate(270)" stroke="none" fill="black" font-family="Helvetica" font-size="12.00"  text-anchor="middle">
		<text><tspan font-family="Helvetica" >Density (a.u.)</tspan></text>
	</g>
</g>
<g fill="none" color="black" stroke="currentColor" stroke-width="1.00" stroke-linecap="butt" stroke-linejoin="miter">
	<g transform="translate(542.7,711.3)" stroke="none" fill="black" font-family="Helvetica" font-size="12.00"  text-anchor="middle">
		<text><tspan font-family="Helvetica" >Relative change (%)</tspan></text>
	</g>
</g>
<g fill="none" color="black" stroke="currentColor" stroke-width="1.00" stroke-linecap="butt" stroke-linejoin="miter">
	<g transform="translate(542.7,31.0)" stroke="none" fill="black" font-family="Helvetica" font-size="12.00"  text-anchor="middle">
		<text><tspan font-family="Helvetica" >snapshot_restore_with_dense/Sparse: Entire region + /proc/pid/mem/2: median</tspan></text>
	</g>
</g>
	<g id="gnuplot_plot_1" ><title>Bootstrap distribution</title>
<g fill="none" color="white" stroke="black" stroke-width="2.00" stroke-linecap="butt" stroke-linejoin="miter">
</g>
<g fill="none" color="black" stroke="currentColor" stroke-width="2.00" stroke-linecap="butt" stroke-linejoin="miter">
	<g transform="translate(1089.0,67.0)" stroke="none" fill="black" font-family="Helvetica" font-size="12.00"  text-anchor="start">
		<text><tspan font-family="Helvetica" >Bootstrap distribution</tspan></text>
	</g>
</g>
<g fill="none" color="black" stroke="currentColor" stroke-width="2.00" stroke-linecap="butt" stroke-linejoin="miter">
	<path stroke='rgb( 31, 120, 180)'  d='M1038.5,63.1 L1080.7,63.1 M71.9,635.4 L73.8,634.4 L75.7,633.3 L77.6,632.1 L79.4,630.8 L81.3,629.5
		L83.2,628.1 L85.1,626.6 L87.0,625.0 L88.9,623.3 L90.8,621.5 L92.7,619.7 L94.5,617.7 L96.4,615.7
		L98.3,613.5 L100.2,611.3 L102.1,609.0 L104.0,606.5 L105.9,604.0 L107.8,601.4 L109.6,598.8 L111.5,596.0
		L113.4,593.2 L115.3,590.3 L117.2,587.4 L119.1,584.4 L121.0,581.4 L122.9,578.4 L124.7,575.3 L126.6,572.2
		L128.5,569.1 L130.4,565.9 L132.3,562.8 L134.2,559.7 L136.1,556.5 L138.0,553.3 L139.8,550.2 L141.7,547.0
		L143.6,543.8 L145.5,540.6 L147.4,537.3 L149.3,534.0 L151.2,530.6 L153.0,527.1 L154.9,523.6 L156.8,520.0
		L158.7,516.2 L160.6,512.4 L162.5,508.5 L164.4,504.5 L166.3,500.3 L168.1,496.1 L170.0,491.7 L171.9,487.3
		L173.8,482.9 L175.7,478.4 L177.6,473.8 L179.5,469.3 L181.4,464.8 L183.2,460.3 L185.1,456.0 L187.0,451.7
		L188.9,447.6 L190.8,443.6 L192.7,439.7 L194.6,436.1 L196.5,432.6 L198.3,429.4 L200.2,426.4 L202.1,423.6
		L204.0,421.0 L205.9,418.6 L207.8,416.3 L209.7,414.3 L211.6,412.4 L213.4,410.7 L215.3,409.1 L217.2,407.6
		L219.1,406.1 L221.0,404.7 L222.9,403.4 L224.8,402.0 L226.6,400.6 L228.5,399.2 L230.4,397.8 L232.3,396.3
		L234.2,394.7 L236.1,393.0 L238.0,391.2 L239.9,389.4 L241.7,387.4 L243.6,385.3 L245.5,383.1 L247.4,380.7
		L249.3,378.2 L251.2,375.6 L253.1,372.9 L255.0,369.9 L256.8,366.9 L258.7,363.6 L260.6,360.2 L262.5,356.5
		L264.4,352.7 L266.3,348.7 L268.2,344.4 L270.1,339.9 L271.9,335.2 L273.8,330.3 L275.7,325.2 L277.6,319.8
		L279.5,314.3 L281.4,308.6 L283.3,302.7 L285.2,296.8 L287.0,290.8 L288.9,284.7 L290.8,278.7 L292.7,272.8
		L294.6,267.1 L296.5,261.5 L298.4,256.2 L300.2,251.1 L302.1,246.4 L304.0,242.1 L305.9,238.1 L307.8,234.6
		L309.7,231.5 L311.6,228.8 L313.5,226.5 L315.3,224.6 L317.2,223.0 L319.1,221.7 L321.0,220.7 L322.9,220.0
		L324.8,219.4 L326.7,218.9 L328.6,218.5 L330.4,218.1 L332.3,217.7 L334.2,217.2 L336.1,216.7 L338.0,216.1
		L339.9,215.3 L341.8,214.5 L343.7,213.5 L345.5,212.4 L347.4,211.3 L349.3,210.1 L351.2,208.9 L353.1,207.7
		L355.0,206.6 L356.9,205.6 L358.8,204.8 L360.6,204.1 L362.5,203.7 L364.4,203.6 L366.3,203.9 L368.2,204.5
		L370.1,205.4 L372.0,206.8 L373.8,208.6 L375.7,210.9 L377.6,213.5 L379.5,216.6 L381.4,220.1 L383.3,223.9
		L385.2,228.1 L387.1,232.5 L388.9,237.3 L390.8,242.2 L392.7,247.3 L394.6,252.5 L396.5,257.7 L398.4,263.0
		L400.3,268.1 L402.2,273.2 L404.0,278.2 L405.9,282.9 L407.8,287.5 L409.7,291.7 L411.6,295.8 L413.5,299.5
		L415.4,302.9 L417.3,306.1 L419.1,308.9 L421.0,311.4 L422.9,313.6 L424.8,315.5 L426.7,317.0 L428.6,318.3
		L430.5,319.3 L432.4,320.0 L434.2,320.4 L436.1,320.6 L438.0,320.5 L439.9,320.2 L441.8,319.6 L443.7,318.8
		L445.6,317.8 L447.4,316.6 L449.3,315.2 L451.2,313.6 L453.1,311.9 L455.0,310.1 L456.9,308.1 L458.8,306.1
		L460.7,304.0 L462.5,301.8 L464.4,299.7 L466.3,297.5 L468.2,295.3 L470.1,293.1 L472.0,290.9 L473.9,288.8
		L475.8,286.6 L477.6,284.5 L479.5,282.5 L481.4,280.4 L483.3,278.3 L485.2,276.3 L487.1,274.2 L489.0,272.1
		L490.9,270.0 L492.7,267.8 L494.6,265.6 L496.5,263.4 L498.4,261.1 L500.3,258.7 L502.2,256.3 L504.1,253.8
		L506.0,251.3 L507.8,248.6 L509.7,245.9 L511.6,243.1 L513.5,240.2 L515.4,237.1 L517.3,234.0 L519.2,230.7
		L521.0,227.3 L522.9,223.7 L524.8,219.9 L526.7,216.0 L528.6,211.8 L530.5,207.5 L532.4,202.9 L534.3,198.2
		L536.1,193.2 L538.0,188.1 L539.9,182.9 L541.8,177.5 L543.7,171.9 L545.6,166.4 L547.5,160.8 L549.4,155.2
		L551.2,149.7 L553.1,144.2 L555.0,138.9 L556.9,133.8 L558.8,128.9 L560.7,124.3 L562.6,119.9 L564.5,115.8
		L566.3,112.0 L568.2,108.5 L570.1,105.3 L572.0,102.4 L573.9,99.8 L575.8,97.4 L577.7,95.3 L579.5,93.5
		L581.4,91.8 L583.3,90.3 L585.2,88.9 L587.1,87.7 L589.0,86.6 L590.9,85.6 L592.8,84.6 L594.6,83.8
		L596.5,83.0 L598.4,82.3 L600.3,81.7 L602.2,81.1 L604.1,80.7 L606.0,80.3 L607.9,80.1 L609.7,80.1
		L611.6,80.2 L613.5,80.4 L615.4,80.8 L617.3,81.4 L619.2,82.1 L621.1,83.0 L623.0,84.1 L624.8,85.3
		L626.7,86.6 L628.6,88.0 L630.5,89.4 L632.4,90.9 L634.3,92.3 L636.2,93.7 L638.1,95.0 L639.9,96.3
		L641.8,97.3 L643.7,98.3 L645.6,99.1 L647.5,99.7 L649.4,100.1 L651.3,100.4 L653.1,100.5 L655.0,100.4
		L656.9,100.3 L658.8,100.1 L660.7,99.8 L662.6,99.5 L664.5,99.2 L666.4,98.9 L668.2,98.7 L670.1,98.5
		L672.0,98.5 L673.9,98.5 L675.8,98.7 L677.7,98.9 L679.6,99.3 L681.5,99.7 L683.3,100.2 L685.2,100.6
		L687.1,101.1 L689.0,101.5 L690.9,101.9 L692.8,102.1 L694.7,102.2 L696.6,102.2 L698.4,101.9 L700.3,101.5
		L702.2,100.9 L704.1,100.1 L706.0,99.2 L707.9,98.2 L709.8,97.1 L711.7,96.0 L713.5,95.0 L715.4,94.0
		L717.3,93.3 L719.2,92.8 L721.1,92.7 L723.0,92.9 L724.9,93.7 L726.7,94.9 L728.6,96.8 L730.5,99.2
		L732.4,102.3 L734.3,106.0 L736.2,110.3 L738.1,115.3 L740.0,120.8 L741.8,126.8 L743.7,133.3 L745.6,140.2
		L747.5,147.4 L749.4,154.9 L751.3,162.5 L753.2,170.3 L755.1,178.0 L756.9,185.8 L758.8,193.5 L760.7,201.1
		L762.6,208.5 L764.5,215.8 L766.4,222.9 L768.3,229.9 L770.2,236.7 L772.0,243.5 L773.9,250.2 L775.8,256.9
		L777.7,263.7 L779.6,270.5 L781.5,277.5 L783.4,284.7 L785.3,292.2 L787.1,299.8 L789.0,307.8 L790.9,316.1
		L792.8,324.6 L794.7,333.5 L796.6,342.5 L798.5,351.8 L800.3,361.3 L802.2,370.8 L804.1,380.4 L806.0,390.0
		L807.9,399.5 L809.8,408.9 L811.7,418.1 L813.6,427.0 L815.4,435.6 L817.3,443.9 L819.2,451.7 L821.1,459.1
		L823.0,466.1 L824.9,472.6 L826.8,478.7 L828.7,484.3 L830.5,489.4 L832.4,494.2 L834.3,498.5 L836.2,502.4
		L838.1,506.0 L840.0,509.3 L841.9,512.3 L843.8,515.0 L845.6,517.6 L847.5,519.9 L849.4,522.0 L851.3,524.0
		L853.2,525.8 L855.1,527.6 L857.0,529.2 L858.9,530.8 L860.7,532.2 L862.6,533.7 L864.5,535.0 L866.4,536.3
		L868.3,537.5 L870.2,538.7 L872.1,539.8 L873.9,540.9 L875.8,542.0 L877.7,543.0 L879.6,543.9 L881.5,544.9
		L883.4,545.8 L885.3,546.7 L887.2,547.5 L889.0,548.3 L890.9,549.1 L892.8,549.9 L894.7,550.7 L896.6,551.4
		L898.5,552.1 L900.4,552.8 L902.3,553.5 L904.1,554.2 L906.0,554.8 L907.9,555.5 L909.8,556.2 L911.7,556.8
		L913.6,557.5 L915.5,558.2 L917.4,558.9 L919.2,559.6 L921.1,560.3 L923.0,561.1 L924.9,561.9 L926.8,562.8
		L928.7,563.7 L930.6,564.6 L932.5,565.7 L934.3,566.8 L936.2,567.9 L938.1,569.2 L940.0,570.5 L941.9,571.8
		L943.8,573.3 L945.7,574.8 L947.5,576.3 L949.4,577.9 L951.3,579.6 L953.2,581.3 L955.1,583.1 L957.0,584.9
		L958.9,586.7 L960.8,588.5 L962.6,590.3 L964.5,592.2 L966.4,594.0 L968.3,595.8 L970.2,597.6 L972.1,599.4
		L974.0,601.1 L975.9,602.9 L977.7,604.5 L979.6,606.2 L981.5,607.8 L983.4,609.3 L985.3,610.9 L987.2,612.4
		L989.1,613.8 L991.0,615.2 L992.8,616.6 L994.7,617.9 L996.6,619.2 L998.5,620.4 L1000.4,621.6 L1002.3,622.8
		L1004.2,623.9 L1006.1,625.0 L1007.9,626.1 L1009.8,627.1 L1011.7,628.1 L1013.6,629.0  '/></g>
	</g>
	<g id="gnuplot_plot_2" ><title>Confidence interval</title>
<g fill="none" color="white" stroke="rgb( 31, 120, 180)" stroke-width="1.00" stroke-linecap="butt" stroke-linejoin="miter">
</g>
<g fill="none" color="black" stroke="currentColor" stroke-width="1.00" stroke-linecap="butt" stroke-linejoin="miter">
	<g transform="translate(1089.0,85.0)" stroke="none" fill="black" font-family="Helvetica" font-size="12.00"  text-anchor="start">
		<text><tspan font-family="Helvetica" >Confidence interval</tspan></text>
	</g>
</g>
<g fill="none" color="black" stroke="currentColor" stroke-width="1.00" stroke-linecap="butt" stroke-linejoin="miter">
	<g stroke='none' shape-rendering='crispEdges'>
		<polygon fill = 'rgb( 31, 120, 180)' fill-opacity = '0.250000' points = '1038.5,85.6 1080.7,85.6 1080.7,76.6 1038.5,76.6 '/>
		<polygon fill = 'rgb( 31, 120, 180)' fill-opacity = '0.250000' points = '158.7,516.2 160.6,512.4 162.5,508.5 164.4,504.5 166.3,500.3 168.1,496.1 170.0,491.7 171.9,487.3 173.8,482.9 175.7,478.4 177.6,473.8 179.5,469.3 181.4,464.8 183.2,460.3 185.1,456.0 187.0,451.7
188.9,447.6 190.8,443.6 192.7,439.7 194.6,436.1 196.5,432.6 198.3,429.4 200.2,426.4 202.1,423.6 204.0,421.0 205.9,418.6 207.8,416.3 209.7,414.3 211.6,412.4 213.4,410.7 215.3,409.1 217.2,407.6
219.1,406.1 221.0,404.7 222.9,403.4 224.8,402.0 226.6,400.6 228.5,399.2 230.4,397.8 232.3,396.3 234.2,394.7 236.1,393.0 238.0,391.2 239.9,389.4 241.7,387.4 243.6,385.3 245.5,383.1 247.4,380.7
249.3,378.2 251.2,375.6 253.1,372.9 255.0,369.9 256.8,366.9 258.7,363.6 260.6,360.2 262.5,356.5 264.4,352.7 266.3,348.7 268.2,344.4 270.1,339.9 271.9,335.2 273.8,330.3 275.7,325.2 277.6,319.8
279.5,314.3 281.4,308.6 283.3,302.7 285.2,296.8 287.0,290.8 288.9,284.7 290.8,278.7 292.7,272.8 294.6,267.1 296.5,261.5 298.4,256.2 300.2,251.1 302.1,246.4 304.0,242.1 305.9,238.1 307.8,234.6
309.7,231.5 311.6,228.8 313.5,226.5 315.3,224.6 317.2,223.0 319.1,221.7 321.0,220.7 322.9,220.0 324.8,219.4 326.7,218.9 328.6,218.5 330.4,218.1 332.3,217.7 334.2,217.2 336.1,216.7 338.0,216.1
339.9,215.3 341.8,214.5 343.7,213.5 345.5,212.4 347.4,211.3 349.3,210.1 351.2,208.9 353.1,207.7 355.0,206.6 356.9,205.6 358.8,204.8 360.6,204.1 362.5,203.7 364.4,203.6 366.3,203.9 368.2,204.5
370.1,205.4 372.0,206.8 373.8,208.6 375.7,210.9 377.6,213.5 379.5,216.6 381.4,220.1 383.3,223.9 385.2,228.1 387.1,232.5 388.9,237.3 390.8,242.2 392.7,247.3 394.6,252.5 396.5,257.7 398.4,263.0
400.3,268.1 402.2,273.2 404.0,278.2 405.9,282.9 407.8,287.5 409.7,291.7 411.6,295.8 413.5,299.5 415.4,302.9 417.3,306.1 419.1,308.9 421.0,311.4 422.9,313.6 424.8,315.5 426.7,317.0 428.6,318.3
430.5,319.3 432.4,320.0 434.2,320.4 436.1,320.6 438.0,320.5 439.9,320.2 441.8,319.6 443.7,318.8 445.6,317.8 447.4,316.6 449.3,315.2 451.2,313.6 453.1,311.9 455.0,310.1 456.9,308.1 458.8,306.1
460.7,304.0 462.5,301.8 464.4,299.7 466.3,297.5 468.2,295.3 470.1,293.1 472.0,290.9 473.9,288.8 475.8,286.6 477.6,284.5 479.5,282.5 481.4,280.4 483.3,278.3 485.2,276.3 487.1,274.2 489.0,272.1
490.9,270.0 492.7,267.8 494.6,265.6 496.5,263.4 498.4,261.1 500.3,258.7 502.2,256.3 504.1,253.8 506.0,251.3 507.8,248.6 509.7,245.9 511.6,243.1 513.5,240.2 515.4,237.1 517.3,234.0 519.2,230.7
521.0,227.3 522.9,223.7 524.8,219.9 526.7,216.0 528.6,211.8 530.5,207.5 532.4,202.9 534.3,198.2 536.1,193.2 538.0,188.1 539.9,182.9 541.8,177.5 543.7,171.9 545.6,166.4 547.5,160.8 549.4,155.2
551.2,149.7 553.1,144.2 555.0,138.9 556.9,133.8 558.8,128.9 560.7,124.3 562.6,119.9 564.5,115.8 566.3,112.0 568.2,108.5 570.1,105.3 572.0,102.4 573.9,99.8 575.8,97.4 577.7,95.3 579.5,93.5
581.4,91.8 583.3,90.3 585.2,88.9 587.1,87.7 589.0,86.6 590.9,85.6 592.8,84.6 594.6,83.8 596.5,83.0 598.4,82.3 600.3,81.7 602.2,81.1 604.1,80.7 606.0,80.3 607.9,80.1 609.7,80.1
611.6,80.2 613.5,80.4 615.4,80.8 617.3,81.4 619.2,82.1 621.1,83.0 623.0,84.1 624.8,85.3 626.7,86.6 628.6,88.0 630.5,89.4 632.4,90.9 634.3,92.3 636.2,93.7 638.1,95.0 639.9,96.3
641.8,97.3 643.7,98.3 645.6,99.1 647.5,99.7 649.4,100.1 651.3,100.4 653.1,100.5 655.0,100.4 656.9,100.3 658.8,100.1 660.7,99.8 662.6,99.5 664.5,99.2 666.4,98.9 668.2,98.7 670.1,98.5
672.0,98.5 673.9,98.5 675.8,98.7 677.7,98.9 679.6,99.3 681.5,99.7 683.3,100.2 685.2,100.6 687.1,101.1 689.0,101.5 690.9,101.9 692.8,102.1 694.7,102.2 696.6,102.2 698.4,101.9 700.3,101.5
702.2,100.9 704.1,100.1 706.0,99.2 707.9,98.2 709.8,97.1 711.7,96.0 713.5,95.0 715.4,94.0 717.3,93.3 719.2,92.8 721.1,92.7 723.0,92.9 724.9,93.7 726.7,94.9 728.6,96.8 730.5,99.2
732.4,102.3 734.3,106.0 736.2,110.3 738.1,115.3 740.0,120.8 741.8,126.8 743.7,133.3 745.6,140.2 747.5,147.4 749.4,154.9 751.3,162.5 753.2,170.3 755.1,178.0 756.9,185.8 758.8,193.5 760.7,201.1
762.6,208.5 764.5,215.8 766.4,222.9 768.3,229.9 770.2,236.7 772.0,243.5 773.9,250.2 775.8,256.9 777.7,263.7 779.6,270.5 781.5,277.5 783.4,284.7 785.3,292.2 787.1,299.8 789.0,307.8 790.9,316.1
792.8,324.6 794.7,333.5 796.6,342.5 798.5,351.8 800.3,361.3 802.2,370.8 804.1,380.4 806.0,390.0 807.9,399.5 809.8,408.9 811.7,418.1 813.6,427.0 815.4,435.6 817.3,443.9 819.2,451.7 821.1,459.1
823.0,466.1 824.9,472.6 826.8,478.7 828.7,484.3 830.5,489.4 832.4,494.2 834.3,498.5 836.2,502.4 838.1,506.0 840.0,509.3 841.9,512.3 843.8,515.0 845.6,517.6 847.5,519.9 849.4,522.0 851.3,524.0
853.2,525.8 855.1,527.6 857.0,529.2 858.9,530.8 860.7,532.2 862.6,533.7 864.5,535.0 866.4,536.3 868.3,537.5 870.2,538.7 872.1,539.8 873.9,540.9 875.8,542.0 877.7,543.0 879.6,543.9 881.5,544.9
883.4,545.8 885.3,546.7 887.2,547.5 889.0,548.3 890.9,549.1 892.8,549.9 894.7,550.7 896.6,551.4 898.5,552.1 900.4,552.8 902.3,553.5 904.1,554.2 906.0,554.8 907.9,555.5 909.8,556.2 911.7,556.8
913.6,557.5 915.5,558.2 917.4,558.9 919.2,559.6 921.1,560.3 923.0,561.1 924.9,561.9 924.9,662.4 923.0,662.4 921.1,662.4 919.2,662.4 917.4,662.4 915.5,662.4 913.6,662.4 911.7,662.4 909.8,662.4
907.9,662.4 906.0,662.4 904.1,662.4 902.3,662.4 900.4,662.4 898.5,662.4 896.6,662.4 894.7,662.4 892.8,662.4 890.9,662.4 889.0,662.4 887.2,662.4 885.3,662.4 883.4,662.4 881.5,662.4 879.6,662.4
877.7,662.4 875.8,662.4 873.9,662.4 872.1,662.4 870.2,662.4 868.3,662.4 866.4,662.4 864.5,662.4 862.6,662.4 860.7,662.4 858.9,662.4 857.0,662.4 855.1,662.4 853.2,662.4 851.3,662.4 849.4,662.4
847.5,662.4 845.6,662.4 843.8,662.4 841.9,662.4 840.0,662.4 838.1,662.4 836.2,662.4 834.3,662.4 832.4,662.4 830.5,662.4 828.7,662.4 826.8,662.4 824.9,662.4 823.0,662.4 821.1,662.4 819.2,662.4
817.3,662.4 815.4,662.4 813.6,662.4 811.7,662.4 809.8,662.4 807.9,662.4 806.0,662.4 804.1,662.4 802.2,662.4 800.3,662.4 798.5,662.4 796.6,662.4 794.7,662.4 792.8,662.4 790.9,662.4 789.0,662.4
787.1,662.4 785.3,662.4 783.4,662.4 781.5,662.4 779.6,662.4 777.7,662.4 775.8,662.4 773.9,662.4 772.0,662.4 770.2,662.4 768.3,662.4 766.4,662.4 764.5,662.4 762.6,662.4 760.7,662.4 758.8,662.4
756.9,662.4 755.1,662.4 753.2,662.4 751.3,662.4 749.4,662.4 747.5,662.4 745.6,662.4 743.7,662.4 741.8,662.4 740.0,662.4 738.1,662.4 736.2,662.4 734.3,662.4 732.4,662.4 730.5,662.4 728.6,662.4
726.7,662.4 724.9,662.4 723.0,662.4 721.1,662.4 719.2,662.4 717.3,662.4 715.4,662.4 713.5,662.4 711.7,662.4 709.8,662.4 707.9,662.4 706.0,662.4 704.1,662.4 702.2,662.4 700.3,662.4 698.4,662.4
696.6,662.4 694.7,662.4 692.8,662.4 690.9,662.4 689.0,662.4 687.1,662.4 685.2,662.4 683.3,662.4 681.5,662.4 679.6,662.4 677.7,662.4 675.8,662.4 673.9,662.4 672.0,662.4 670.1,662.4 668.2,662.4
666.4,662.4 664.5,662.4 662.6,662.4 660.7,662.4 658.8,662.4 656.9,662.4 655.0,662.4 653.1,662.4 651.3,662.4 649.4,662.4 647.5,662.4 645.6,662.4 643.7,662.4 641.8,662.4 639.9,662.4 638.1,662.4
636.2,662.4 634.3,662.4 632.4,662.4 630.5,662.4 628.6,662.4 626.7,662.4 624.8,662.4 623.0,662.4 621.1,662.4 619.2,662.4 617.3,662.4 615.4,662.4 613.5,662.4 611.6,662.4 609.7,662.4 607.9,662.4
606.0,662.4 604.1,662.4 602.2,662.4 600.3,662.4 598.4,662.4 596.5,662.4 594.6,662.4 592.8,662.4 590.9,662.4 589.0,662.4 587.1,662.4 585.2,662.4 583.3,662.4 581.4,662.4 579.5,662.4 577.7,662.4
575.8,662.4 573.9,662.4 572.0,662.4 570.1,662.4 568.2,662.4 566.3,662.4 564.5,662.4 562.6,662.4 560.7,662.4 558.8,662.4 556.9,662.4 555.0,662.4 553.1,662.4 551.2,662.4 549.4,662.4 547.5,662.4
545.6,662.4 543.7,662.4 541.8,662.4 539.9,662.4 538.0,662.4 536.1,662.4 534.3,662.4 532.4,662.4 530.5,662.4 528.6,662.4 526.7,662.4 524.8,662.4 522.9,662.4 521.0,662.4 519.2,662.4 517.3,662.4
515.4,662.4 513.5,662.4 511.6,662.4 509.7,662.4 507.8,662.4 506.0,662.4 504.1,662.4 502.2,662.4 500.3,662.4 498.4,662.4 496.5,662.4 494.6,662.4 492.7,662.4 490.9,662.4 489.0,662.4 487.1,662.4
485.2,662.4 483.3,662.4 481.4,662.4 479.5,662.4 477.6,662.4 475.8,662.4 473.9,662.4 472.0,662.4 470.1,662.4 468.2,662.4 466.3,662.4 464.4,662.4 462.5,662.4 460.7,662.4 458.8,662.4 456.9,662.4
455.0,662.4 453.1,662.4 451.2,662.4 449.3,662.4 447.4,662.4 445.6,662.4 443.7,662.4 441.8,662.4 439.9,662.4 438.0,662.4 436.1,662.4 434.2,662.4 432.4,662.4 430.5,662.4 428.6,662.4 426.7,662.4
424.8,662.4 422.9,662.4 421.0,662.4 419.1,662.4 417.3,662.4 415.4,662.4 413.5,662.4 411.6,662.4 409.7,662.4 407.8,662.4 405.9,662.4 404.0,662.4 402.2,662.4 400.3,662.4 398.4,662.4 396.5,662.4
394.6,662.4 392.7,662.4 390.8,662.4 388.9,662.4 387.1,662.4 385.2,662.4 383.3,662.4 381.4,662.4 379.5,662.4 377.6,662.4 375.7,662.4 373.8,662.4 372.0,662.4 370.1,662.4 368.2,662.4 366.3,662.4
364.4,662.4 362.5,662.4 360.6,662.4 358.8,662.4 356.9,662.4 355.0,662.4 353.1,662.4 351.2,662.4 349.3,662.4 347.4,662.4 345.5,662.4 343.7,662.4 341.8,662.4 339.9,662.4 338.0,662.4 336.1,662.4
334.2,662.4 332.3,662.4 330.4,662.4 328.6,662.4 326.7,662.4 324.8,662.4 322.9,662.4 321.0,662.4 319.1,662.4 317.2,662.4 315.3,662.4 313.5,662.4 311.6,662.4 309.7,662.4 307.8,662.4 305.9,662.4
304.0,662.4 302.1,662.4 300.2,662.4 298.4,662.4 296.5,662.4 294.6,662.4 292.7,662.4 290.8,662.4 288.9,662.4 287.0,662.4 285.2,662.4 283.3,662.4 281.4,662.4 279.5,662.4 277.6,662.4 275.7,662.4
273.8,662.4 271.9,662.4 270.1,662.4 268.2,662.4 266.3,662.4 264.4,662.4 262.5,662.4 260.6,662.4 258.7,662.4 256.8,662.4 255.0,662.4 253.1,662.4 251.2,662.4 249.3,662.4 247.4,662.4 245.5,662.4
243.6,662.4 241.7,662.4 239.9,662.4 238.0,662.4 236.1,662.4 234.2,662.4 232.3,662.4 230.4,662.4 228.5,662.4 226.6,662.4 224.8,662.4 222.9,662.4 221.0,662.4 219.1,662.4 217.2,662.4 215.3,662.4
213.4,662.4 211.6,662.4 209.7,662.4 207.8,662.4 205.9,662.4 204.0,662.4 202.1,662.4 200.2,662.4 198.3,662.4 196.5,662.4 194.6,662.4 192.7,662.4 190.8,662.4 188.9,662.4 187.0,662.4 185.1,662.4
183.2,662.4 181.4,662.4 179.5,662.4 177.6,662.4 175.7,662.4 173.8,662.4 171.9,662.4 170.0,662.4 168.1,662.4 166.3,662.4 164.4,662.4 162.5,662.4 160.6,662.4 158.7,662.4 '/>
	</g>
</g>
	</g>
	<g id="gnuplot_plot_3" ><title>Point estimate</title>
<g fill="none" color="white" stroke="rgb( 31, 120, 180)" stroke-width="2.00" stroke-linecap="butt" stroke-linejoin="miter">
</g>
<g fill="none" color="black" stroke="currentColor" stroke-width="2.00" stroke-linecap="butt" stroke-linejoin="miter">
	<g transform="translate(1089.0,103.0)" stroke="none" fill="black" font-family="Helvetica" font-size="12.00"  text-anchor="start">
		<text><tspan font-family="Helvetica" >Point estimate</tspan></text>
	</g>
</g>
<g fill="none" color="black" stroke="currentColor" stroke-width="2.00" stroke-linecap="butt" stroke-linejoin="miter">
	<path stroke='rgb( 31, 120, 180)'  d='M1038.5,99.1 L1080.7,99.1 M584.3,662.4 L584.3,89.6  '/></g>
	</g>
	<g id="gnuplot_plot_4" ><title>Noise threshold</title>
<g fill="none" color="white" stroke="rgb( 31, 120, 180)" stroke-width="1.00" stroke-linecap="butt" stroke-linejoin="miter">
</g>
<g fill="none" color="black" stroke="currentColor" stroke-width="1.00" stroke-linecap="butt" stroke-linejoin="miter">
	<g transform="translate(1089.0,121.0)" stroke="none" fill="black" font-family="Helvetica" font-size="12.00"  text-anchor="start">
		<text><tspan font-family="Helvetica" >Noise threshold</tspan></text>
	</g>
</g>
<g fill="none" color="black" stroke="currentColor" stroke-width="1.00" stroke-linecap="butt" stroke-linejoin="miter">
	<g stroke='none' shape-rendering='crispEdges'>
		<polygon fill = 'rgb(227,  26,  28)' fill-opacity = '0.100000' points = '1038.5,121.6 1080.7,121.6 1080.7,112.6 1038.5,112.6 '/>
		<polygon fill = 'rgb(227,  26,  28)' fill-opacity = '0.100000' points = '71.9,54.1 1013.6,54.1 1013.6,662.4 71.9,662.4 '/>
	</g>
</g>
	</g>
<g fill="none" color="white" stroke="rgb(227,  26,  28)" stroke-width="2.00" stroke-linecap="butt" stroke-linejoin="miter">
</g>
<g fill="none" color="black" stroke="currentColor" stroke-width="2.00" stroke-linecap="butt" stroke-linejoin="miter">
</g>
<g fill="none" color="black" stroke="black" stroke-width="1.00" stroke-linecap="butt" stroke-linejoin="miter">
</g>
<g fill="none" color="black" stroke="currentColor" stroke-width="1.00" stroke-linecap="butt" stroke-linejoin="miter">
	<path stroke='black'  d='M71.9,54.1 L71.9,662.4 L1013.6,662.4 L1013.6,54.1 L71.9,54.1 Z  '/></g>
<g fill="none" color="black" stroke="currentColor" stroke-width="1.00" stroke-linecap="butt" stroke-linejoin="miter">
</g>
</g>
</svg>

