<?xml version="1.0" encoding="utf-8"  standalone="no"?>
<svg 
 viewBox="0 0 1280 720"
 xmlns="http://www.w3.org/2000/svg"
 xmlns:xlink="http://www.w3.org/1999/xlink"
>

<title>Gnuplot</title>
<desc>Produced by GNUPLOT 5.2 patchlevel 6 </desc>

<g id="gnuplot_canvas">

<rect x="0" y="0" width="1280" height="720" fill="none"/>
<defs>

	<circle id='gpDot' r='0.5' stroke-width='0.5' stroke='currentColor'/>
	<path id='gpPt0' stroke-width='0.222' stroke='currentColor' d='M-1,0 h2 M0,-1 v2'/>
	<path id='gpPt1' stroke-width='0.222' stroke='currentColor' d='M-1,-1 L1,1 M1,-1 L-1,1'/>
	<path id='gpPt2' stroke-width='0.222' stroke='currentColor' d='M-1,0 L1,0 M0,-1 L0,1 M-1,-1 L1,1 M-1,1 L1,-1'/>
	<rect id='gpPt3' stroke-width='0.222' stroke='currentColor' x='-1' y='-1' width='2' height='2'/>
	<rect id='gpPt4' stroke-width='0.222' stroke='currentColor' fill='currentColor' x='-1' y='-1' width='2' height='2'/>
	<circle id='gpPt5' stroke-width='0.222' stroke='currentColor' cx='0' cy='0' r='1'/>
	<use xlink:href='#gpPt5' id='gpPt6' fill='currentColor' stroke='none'/>
	<path id='gpPt7' stroke-width='0.222' stroke='currentColor' d='M0,-1.33 L-1.33,0.67 L1.33,0.67 z'/>
	<use xlink:href='#gpPt7' id='gpPt8' fill='currentColor' stroke='none'/>
	<use xlink:href='#gpPt7' id='gpPt9' stroke='currentColor' transform='rotate(180)'/>
	<use xlink:href='#gpPt9' id='gpPt10' fill='currentColor' stroke='none'/>
	<use xlink:href='#gpPt3' id='gpPt11' stroke='currentColor' transform='rotate(45)'/>
	<use xlink:href='#gpPt11' id='gpPt12' fill='currentColor' stroke='none'/>
	<path id='gpPt13' stroke-width='0.222' stroke='currentColor' d='M0,1.330 L1.265,0.411 L0.782,-1.067 L-0.782,-1.076 L-1.265,0.411 z'/>
	<use xlink:href='#gpPt13' id='gpPt14' fill='currentColor' stroke='none'/>
	<filter id='textbox' filterUnits='objectBoundingBox' x='0' y='0' height='1' width='1'>
	  <feFlood flood-color='white' flood-opacity='1' result='bgnd'/>
	  <feComposite in='SourceGraphic' in2='bgnd' operator='atop'/>
	</filter>
	<filter id='greybox' filterUnits='objectBoundingBox' x='0' y='0' height='1' width='1'>
	  <feFlood flood-color='lightgrey' flood-opacity='1' result='grey'/>
	  <feComposite in='SourceGraphic' in2='grey' operator='atop'/>
	</filter>
</defs>
<g fill="none" color="white" stroke="currentColor" stroke-width="1.00" stroke-linecap="butt" stroke-linejoin="miter">
</g>
<g fill="none" color="black" stroke="currentColor" stroke-width="1.00" stroke-linecap="butt" stroke-linejoin="miter">
	<path stroke='black'  d='M71.9,662.4 L80.9,662.4  '/>	<g transform="translate(63.6,666.3)" stroke="none" fill="black" font-family="Helvetica" font-size="12.00"  text-anchor="end">
		<text><tspan font-family="Helvetica" > 0</tspan></text>
	</g>
</g>
<g fill="none" color="black" stroke="currentColor" stroke-width="1.00" stroke-linecap="butt" stroke-linejoin="miter">
	<path stroke='black'  d='M71.9,586.4 L80.9,586.4  '/>	<g transform="translate(63.6,590.3)" stroke="none" fill="black" font-family="Helvetica" font-size="12.00"  text-anchor="end">
		<text><tspan font-family="Helvetica" > 0.5</tspan></text>
	</g>
</g>
<g fill="none" color="black" stroke="currentColor" stroke-width="1.00" stroke-linecap="butt" stroke-linejoin="miter">
	<path stroke='black'  d='M71.9,510.3 L80.9,510.3  '/>	<g transform="translate(63.6,514.2)" stroke="none" fill="black" font-family="Helvetica" font-size="12.00"  text-anchor="end">
		<text><tspan font-family="Helvetica" > 1</tspan></text>
	</g>
</g>
<g fill="none" color="black" stroke="currentColor" stroke-width="1.00" stroke-linecap="butt" stroke-linejoin="miter">
	<path stroke='black'  d='M71.9,434.3 L80.9,434.3  '/>	<g transform="translate(63.6,438.2)" stroke="none" fill="black" font-family="Helvetica" font-size="12.00"  text-anchor="end">
		<text><tspan font-family="Helvetica" > 1.5</tspan></text>
	</g>
</g>
<g fill="none" color="black" stroke="currentColor" stroke-width="1.00" stroke-linecap="butt" stroke-linejoin="miter">
	<path stroke='black'  d='M71.9,358.2 L80.9,358.2  '/>	<g transform="translate(63.6,362.1)" stroke="none" fill="black" font-family="Helvetica" font-size="12.00"  text-anchor="end">
		<text><tspan font-family="Helvetica" > 2</tspan></text>
	</g>
</g>
<g fill="none" color="black" stroke="currentColor" stroke-width="1.00" stroke-linecap="butt" stroke-linejoin="miter">
	<path stroke='black'  d='M71.9,282.2 L80.9,282.2  '/>	<g transform="translate(63.6,286.1)" stroke="none" fill="black" font-family="Helvetica" font-size="12.00"  text-anchor="end">
		<text><tspan font-family="Helvetica" > 2.5</tspan></text>
	</g>
</g>
<g fill="none" color="black" stroke="currentColor" stroke-width="1.00" stroke-linecap="butt" stroke-linejoin="miter">
	<path stroke='black'  d='M71.9,206.2 L80.9,206.2  '/>	<g transform="translate(63.6,210.1)" stroke="none" fill="black" font-family="Helvetica" font-size="12.00"  text-anchor="end">
		<text><tspan font-family="Helvetica" > 3</tspan></text>
	</g>
</g>
<g fill="none" color="black" stroke="currentColor" stroke-width="1.00" stroke-linecap="butt" stroke-linejoin="miter">
	<path stroke='black'  d='M71.9,130.1 L80.9,130.1  '/>	<g transform="translate(63.6,134.0)" stroke="none" fill="black" font-family="Helvetica" font-size="12.00"  text-anchor="end">
		<text><tspan font-family="Helvetica" > 3.5</tspan></text>
	</g>
</g>
<g fill="none" color="black" stroke="currentColor" stroke-width="1.00" stroke-linecap="butt" stroke-linejoin="miter">
	<path stroke='black'  d='M71.9,54.1 L80.9,54.1  '/>	<g transform="translate(63.6,58.0)" stroke="none" fill="black" font-family="Helvetica" font-size="12.00"  text-anchor="end">
		<text><tspan font-family="Helvetica" > 4</tspan></text>
	</g>
</g>
<g fill="none" color="black" stroke="currentColor" stroke-width="1.00" stroke-linecap="butt" stroke-linejoin="miter">
	<path stroke='black'  d='M142.8,662.4 L142.8,653.4  '/>	<g transform="translate(142.8,684.3)" stroke="none" fill="black" font-family="Helvetica" font-size="12.00"  text-anchor="middle">
		<text><tspan font-family="Helvetica" > 864.5</tspan></text>
	</g>
</g>
<g fill="none" color="black" stroke="currentColor" stroke-width="1.00" stroke-linecap="butt" stroke-linejoin="miter">
	<path stroke='black'  d='M265.0,662.4 L265.0,653.4  '/>	<g transform="translate(265.0,684.3)" stroke="none" fill="black" font-family="Helvetica" font-size="12.00"  text-anchor="middle">
		<text><tspan font-family="Helvetica" > 864.6</tspan></text>
	</g>
</g>
<g fill="none" color="black" stroke="currentColor" stroke-width="1.00" stroke-linecap="butt" stroke-linejoin="miter">
	<path stroke='black'  d='M387.1,662.4 L387.1,653.4  '/>	<g transform="translate(387.1,684.3)" stroke="none" fill="black" font-family="Helvetica" font-size="12.00"  text-anchor="middle">
		<text><tspan font-family="Helvetica" > 864.7</tspan></text>
	</g>
</g>
<g fill="none" color="black" stroke="currentColor" stroke-width="1.00" stroke-linecap="butt" stroke-linejoin="miter">
	<path stroke='black'  d='M509.3,662.4 L509.3,653.4  '/>	<g transform="translate(509.3,684.3)" stroke="none" fill="black" font-family="Helvetica" font-size="12.00"  text-anchor="middle">
		<text><tspan font-family="Helvetica" > 864.8</tspan></text>
	</g>
</g>
<g fill="none" color="black" stroke="currentColor" stroke-width="1.00" stroke-linecap="butt" stroke-linejoin="miter">
	<path stroke='black'  d='M631.5,662.4 L631.5,653.4  '/>	<g transform="translate(631.5,684.3)" stroke="none" fill="black" font-family="Helvetica" font-size="12.00"  text-anchor="middle">
		<text><tspan font-family="Helvetica" > 864.9</tspan></text>
	</g>
</g>
<g fill="none" color="black" stroke="currentColor" stroke-width="1.00" stroke-linecap="butt" stroke-linejoin="miter">
	<path stroke='black'  d='M753.7,662.4 L753.7,653.4  '/>	<g transform="translate(753.7,684.3)" stroke="none" fill="black" font-family="Helvetica" font-size="12.00"  text-anchor="middle">
		<text><tspan font-family="Helvetica" > 865</tspan></text>
	</g>
</g>
<g fill="none" color="black" stroke="currentColor" stroke-width="1.00" stroke-linecap="butt" stroke-linejoin="miter">
	<path stroke='black'  d='M875.8,662.4 L875.8,653.4  '/>	<g transform="translate(875.8,684.3)" stroke="none" fill="black" font-family="Helvetica" font-size="12.00"  text-anchor="middle">
		<text><tspan font-family="Helvetica" > 865.1</tspan></text>
	</g>
</g>
<g fill="none" color="black" stroke="currentColor" stroke-width="1.00" stroke-linecap="butt" stroke-linejoin="miter">
	<path stroke='black'  d='M998.0,662.4 L998.0,653.4  '/>	<g transform="translate(998.0,684.3)" stroke="none" fill="black" font-family="Helvetica" font-size="12.00"  text-anchor="middle">
		<text><tspan font-family="Helvetica" > 865.2</tspan></text>
	</g>
</g>
<g fill="none" color="black" stroke="currentColor" stroke-width="1.00" stroke-linecap="butt" stroke-linejoin="miter">
</g>
<g fill="none" color="black" stroke="currentColor" stroke-width="1.00" stroke-linecap="butt" stroke-linejoin="miter">
	<path stroke='black'  d='M71.9,54.1 L71.9,662.4 L1013.6,662.4 L1013.6,54.1 L71.9,54.1 Z  '/></g>
<g fill="none" color="black" stroke="currentColor" stroke-width="1.00" stroke-linecap="butt" stroke-linejoin="miter">
	<g transform="translate(16.3,358.3) rotate(270)" stroke="none" fill="black" font-family="Helvetica" font-size="12.00"  text-anchor="middle">
		<text><tspan font-family="Helvetica" >Density (a.u.)</tspan></text>
	</g>
</g>
<g fill="none" color="black" stroke="currentColor" stroke-width="1.00" stroke-linecap="butt" stroke-linejoin="miter">
	<g transform="translate(542.7,711.3)" stroke="none" fill="black" font-family="Helvetica" font-size="12.00"  text-anchor="middle">
		<text><tspan font-family="Helvetica" >Average time (us)</tspan></text>
	</g>
</g>
<g fill="none" color="black" stroke="currentColor" stroke-width="1.00" stroke-linecap="butt" stroke-linejoin="miter">
	<g transform="translate(542.7,31.0)" stroke="none" fill="black" font-family="Helvetica" font-size="12.00"  text-anchor="middle">
		<text><tspan font-family="Helvetica" >snapshot_restore_with_dense/Sparse: Dirty pages + process_vm_writev/463: median</tspan></text>
	</g>
</g>
	<g id="gnuplot_plot_1" ><title>Bootstrap distribution</title>
<g fill="none" color="white" stroke="black" stroke-width="2.00" stroke-linecap="butt" stroke-linejoin="miter">
</g>
<g fill="none" color="black" stroke="currentColor" stroke-width="2.00" stroke-linecap="butt" stroke-linejoin="miter">
	<g transform="translate(1089.0,67.0)" stroke="none" fill="black" font-family="Helvetica" font-size="12.00"  text-anchor="start">
		<text><tspan font-family="Helvetica" >Bootstrap distribution</tspan></text>
	</g>
</g>
<g fill="none" color="black" stroke="currentColor" stroke-width="2.00" stroke-linecap="butt" stroke-linejoin="miter">
	<path stroke='rgb( 31, 120, 180)'  d='M1038.5,63.1 L1080.7,63.1 M71.9,645.2 L73.8,646.1 L75.7,647.0 L77.6,647.9 L79.4,648.9 L81.3,649.8
		L83.2,650.7 L85.1,651.6 L87.0,652.4 L88.9,653.1 L90.8,653.8 L92.7,654.3 L94.5,654.7 L96.4,655.0
		L98.3,655.1 L100.2,655.1 L102.1,654.8 L104.0,654.4 L105.9,653.7 L107.8,652.8 L109.6,651.7 L111.5,650.2
		L113.4,648.5 L115.3,646.4 L117.2,644.1 L119.1,641.4 L121.0,638.3 L122.9,634.9 L124.7,631.1 L126.6,627.0
		L128.5,622.5 L130.4,617.7 L132.3,612.7 L134.2,607.4 L136.1,601.9 L138.0,596.2 L139.8,590.5 L141.7,584.7
		L143.6,578.9 L145.5,573.2 L147.4,567.7 L149.3,562.4 L151.2,557.3 L153.0,552.6 L154.9,548.3 L156.8,544.3
		L158.7,540.8 L160.6,537.7 L162.5,535.1 L164.4,532.9 L166.3,531.1 L168.1,529.7 L170.0,528.7 L171.9,528.1
		L173.8,527.7 L175.7,527.6 L177.6,527.7 L179.5,527.9 L181.4,528.3 L183.2,528.7 L185.1,529.1 L187.0,529.5
		L188.9,529.8 L190.8,530.1 L192.7,530.2 L194.6,530.2 L196.5,530.1 L198.3,529.9 L200.2,529.5 L202.1,528.9
		L204.0,528.2 L205.9,527.3 L207.8,526.2 L209.7,525.0 L211.6,523.6 L213.4,522.1 L215.3,520.4 L217.2,518.5
		L219.1,516.4 L221.0,514.2 L222.9,511.8 L224.8,509.2 L226.6,506.4 L228.5,503.4 L230.4,500.2 L232.3,496.7
		L234.2,493.0 L236.1,489.0 L238.0,484.8 L239.9,480.2 L241.7,475.4 L243.6,470.2 L245.5,464.6 L247.4,458.6
		L249.3,452.2 L251.2,445.3 L253.1,437.9 L255.0,430.0 L256.8,421.6 L258.7,412.5 L260.6,402.9 L262.5,392.6
		L264.4,381.6 L266.3,370.0 L268.2,357.7 L270.1,344.8 L271.9,331.2 L273.8,317.1 L275.7,302.5 L277.6,287.5
		L279.5,272.2 L281.4,256.7 L283.3,241.1 L285.2,225.7 L287.0,210.6 L288.9,196.0 L290.8,182.1 L292.7,169.1
		L294.6,157.2 L296.5,146.7 L298.4,137.7 L300.2,130.5 L302.1,125.1 L304.0,121.7 L305.9,120.4 L307.8,121.2
		L309.7,124.3 L311.6,129.4 L313.5,136.5 L315.3,145.6 L317.2,156.5 L319.1,168.9 L321.0,182.7 L322.9,197.5
		L324.8,213.2 L326.7,229.4 L328.6,245.9 L330.4,262.3 L332.3,278.5 L334.2,294.1 L336.1,309.1 L338.0,323.1
		L339.9,336.2 L341.8,348.0 L343.7,358.7 L345.5,368.2 L347.4,376.4 L349.3,383.5 L351.2,389.4 L353.1,394.3
		L355.0,398.2 L356.9,401.3 L358.8,403.7 L360.6,405.4 L362.5,406.6 L364.4,407.4 L366.3,407.9 L368.2,408.1
		L370.1,408.0 L372.0,407.9 L373.8,407.6 L375.7,407.1 L377.6,406.6 L379.5,405.9 L381.4,405.2 L383.3,404.3
		L385.2,403.2 L387.1,402.0 L388.9,400.5 L390.8,398.8 L392.7,396.8 L394.6,394.5 L396.5,391.8 L398.4,388.8
		L400.3,385.4 L402.2,381.5 L404.0,377.0 L405.9,372.1 L407.8,366.6 L409.7,360.5 L411.6,353.8 L413.5,346.5
		L415.4,338.5 L417.3,329.9 L419.1,320.7 L421.0,310.9 L422.9,300.5 L424.8,289.7 L426.7,278.5 L428.6,266.9
		L430.5,255.2 L432.4,243.5 L434.2,231.9 L436.1,220.5 L438.0,209.5 L439.9,199.1 L441.8,189.5 L443.7,180.7
		L445.6,173.0 L447.4,166.5 L449.3,161.3 L451.2,157.4 L453.1,155.0 L455.0,154.1 L456.9,154.7 L458.8,156.7
		L460.7,160.2 L462.5,165.0 L464.4,171.1 L466.3,178.3 L468.2,186.5 L470.1,195.6 L472.0,205.3 L473.9,215.6
		L475.8,226.3 L477.6,237.3 L479.5,248.3 L481.4,259.4 L483.3,270.3 L485.2,281.0 L487.1,291.4 L489.0,301.5
		L490.9,311.1 L492.7,320.3 L494.6,329.0 L496.5,337.2 L498.4,345.0 L500.3,352.2 L502.2,359.0 L504.1,365.3
		L506.0,371.2 L507.8,376.6 L509.7,381.6 L511.6,386.2 L513.5,390.5 L515.4,394.4 L517.3,397.9 L519.2,401.1
		L521.0,404.0 L522.9,406.7 L524.8,409.0 L526.7,411.1 L528.6,412.9 L530.5,414.5 L532.4,415.8 L534.3,417.0
		L536.1,417.9 L538.0,418.7 L539.9,419.3 L541.8,419.8 L543.7,420.1 L545.6,420.4 L547.5,420.5 L549.4,420.6
		L551.2,420.6 L553.1,420.6 L555.0,420.6 L556.9,420.6 L558.8,420.6 L560.7,420.6 L562.6,420.6 L564.5,420.7
		L566.3,420.8 L568.2,420.9 L570.1,421.0 L572.0,421.1 L573.9,421.2 L575.8,421.3 L577.7,421.3 L579.5,421.2
		L581.4,421.1 L583.3,420.8 L585.2,420.5 L587.1,420.1 L589.0,419.5 L590.9,418.8 L592.8,418.1 L594.6,417.2
		L596.5,416.3 L598.4,415.3 L600.3,414.2 L602.2,413.2 L604.1,412.2 L606.0,411.3 L607.9,410.4 L609.7,409.7
		L611.6,409.2 L613.5,408.8 L615.4,408.6 L617.3,408.7 L619.2,409.1 L621.1,409.8 L623.0,410.7 L624.8,412.0
		L626.7,413.7 L628.6,415.7 L630.5,418.0 L632.4,420.7 L634.3,423.6 L636.2,427.0 L638.1,430.6 L639.9,434.4
		L641.8,438.5 L643.7,442.8 L645.6,447.3 L647.5,451.9 L649.4,456.5 L651.3,461.2 L653.1,465.9 L655.0,470.5
		L656.9,475.1 L658.8,479.5 L660.7,483.7 L662.6,487.7 L664.5,491.5 L666.4,495.1 L668.2,498.4 L670.1,501.5
		L672.0,504.3 L673.9,506.8 L675.8,509.1 L677.7,511.2 L679.6,513.0 L681.5,514.6 L683.3,516.1 L685.2,517.3
		L687.1,518.4 L689.0,519.4 L690.9,520.2 L692.8,520.9 L694.7,521.5 L696.6,522.0 L698.4,522.4 L700.3,522.7
		L702.2,522.9 L704.1,523.1 L706.0,523.2 L707.9,523.2 L709.8,523.2 L711.7,523.2 L713.5,523.1 L715.4,523.1
		L717.3,523.0 L719.2,523.0 L721.1,523.1 L723.0,523.2 L724.9,523.3 L726.7,523.5 L728.6,523.7 L730.5,524.0
		L732.4,524.3 L734.3,524.6 L736.2,525.0 L738.1,525.3 L740.0,525.7 L741.8,526.0 L743.7,526.2 L745.6,526.4
		L747.5,526.5 L749.4,526.5 L751.3,526.4 L753.2,526.2 L755.1,525.9 L756.9,525.5 L758.8,525.0 L760.7,524.5
		L762.6,523.8 L764.5,523.1 L766.4,522.3 L768.3,521.5 L770.2,520.7 L772.0,520.0 L773.9,519.2 L775.8,518.5
		L777.7,517.9 L779.6,517.4 L781.5,517.0 L783.4,516.7 L785.3,516.6 L787.1,516.7 L789.0,516.9 L790.9,517.3
		L792.8,518.0 L794.7,518.8 L796.6,519.8 L798.5,521.1 L800.3,522.5 L802.2,524.1 L804.1,526.0 L806.0,528.0
		L807.9,530.2 L809.8,532.5 L811.7,535.0 L813.6,537.6 L815.4,540.4 L817.3,543.2 L819.2,546.2 L821.1,549.2
		L823.0,552.3 L824.9,555.4 L826.8,558.6 L828.7,561.8 L830.5,565.0 L832.4,568.1 L834.3,571.3 L836.2,574.4
		L838.1,577.4 L840.0,580.4 L841.9,583.2 L843.8,586.0 L845.6,588.6 L847.5,591.1 L849.4,593.4 L851.3,595.7
		L853.2,597.7 L855.1,599.6 L857.0,601.3 L858.9,602.9 L860.7,604.3 L862.6,605.6 L864.5,606.8 L866.4,607.8
		L868.3,608.7 L870.2,609.5 L872.1,610.3 L873.9,610.9 L875.8,611.6 L877.7,612.2 L879.6,612.8 L881.5,613.4
		L883.4,613.9 L885.3,614.5 L887.2,615.1 L889.0,615.6 L890.9,616.2 L892.8,616.7 L894.7,617.2 L896.6,617.7
		L898.5,618.1 L900.4,618.4 L902.3,618.6 L904.1,618.7 L906.0,618.8 L907.9,618.7 L909.8,618.5 L911.7,618.3
		L913.6,617.9 L915.5,617.5 L917.4,617.1 L919.2,616.6 L921.1,616.1 L923.0,615.6 L924.9,615.2 L926.8,614.9
		L928.7,614.7 L930.6,614.5 L932.5,614.6 L934.3,614.7 L936.2,615.0 L938.1,615.5 L940.0,616.1 L941.9,616.9
		L943.8,617.8 L945.7,618.8 L947.5,619.9 L949.4,621.1 L951.3,622.4 L953.2,623.7 L955.1,625.1 L957.0,626.4
		L958.9,627.8 L960.8,629.1 L962.6,630.4 L964.5,631.6 L966.4,632.8 L968.3,633.9 L970.2,635.0 L972.1,636.0
		L974.0,637.0 L975.9,637.9 L977.7,638.7 L979.6,639.5 L981.5,640.3 L983.4,641.0 L985.3,641.7 L987.2,642.3
		L989.1,642.9 L991.0,643.4 L992.8,643.9 L994.7,644.4 L996.6,644.9 L998.5,645.3 L1000.4,645.7 L1002.3,646.0
		L1004.2,646.4 L1006.1,646.7 L1007.9,646.9 L1009.8,647.2 L1011.7,647.5 L1013.6,647.7  '/></g>
	</g>
	<g id="gnuplot_plot_2" ><title>Confidence interval</title>
<g fill="none" color="white" stroke="rgb( 31, 120, 180)" stroke-width="1.00" stroke-linecap="butt" stroke-linejoin="miter">
</g>
<g fill="none" color="black" stroke="currentColor" stroke-width="1.00" stroke-linecap="butt" stroke-linejoin="miter">
	<g transform="translate(1089.0,85.0)" stroke="none" fill="black" font-family="Helvetica" font-size="12.00"  text-anchor="start">
		<text><tspan font-family="Helvetica" >Confidence interval</tspan></text>
	</g>
</g>
<g fill="none" color="black" stroke="currentColor" stroke-width="1.00" stroke-linecap="butt" stroke-linejoin="miter">
	<g stroke='none' shape-rendering='crispEdges'>
		<polygon fill = 'rgb( 31, 120, 180)' fill-opacity = '0.250000' points = '1038.5,85.6 1080.7,85.6 1080.7,76.6 1038.5,76.6 '/>
		<polygon fill = 'rgb( 31, 120, 180)' fill-opacity = '0.250000' points = '158.7,540.8 160.6,537.7 162.5,535.1 164.4,532.9 166.3,531.1 168.1,529.7 170.0,528.7 171.9,528.1 173.8,527.7 175.7,527.6 177.6,527.7 179.5,527.9 181.4,528.3 183.2,528.7 185.1,529.1 187.0,529.5
188.9,529.8 190.8,530.1 192.7,530.2 194.6,530.2 196.5,530.1 198.3,529.9 200.2,529.5 202.1,528.9 204.0,528.2 205.9,527.3 207.8,526.2 209.7,525.0 211.6,523.6 213.4,522.1 215.3,520.4 217.2,518.5
219.1,516.4 221.0,514.2 222.9,511.8 224.8,509.2 226.6,506.4 228.5,503.4 230.4,500.2 232.3,496.7 234.2,493.0 236.1,489.0 238.0,484.8 239.9,480.2 241.7,475.4 243.6,470.2 245.5,464.6 247.4,458.6
249.3,452.2 251.2,445.3 253.1,437.9 255.0,430.0 256.8,421.6 258.7,412.5 260.6,402.9 262.5,392.6 264.4,381.6 266.3,370.0 268.2,357.7 270.1,344.8 271.9,331.2 273.8,317.1 275.7,302.5 277.6,287.5
279.5,272.2 281.4,256.7 283.3,241.1 285.2,225.7 287.0,210.6 288.9,196.0 290.8,182.1 292.7,169.1 294.6,157.2 296.5,146.7 298.4,137.7 300.2,130.5 302.1,125.1 304.0,121.7 305.9,120.4 307.8,121.2
309.7,124.3 311.6,129.4 313.5,136.5 315.3,145.6 317.2,156.5 319.1,168.9 321.0,182.7 322.9,197.5 324.8,213.2 326.7,229.4 328.6,245.9 330.4,262.3 332.3,278.5 334.2,294.1 336.1,309.1 338.0,323.1
339.9,336.2 341.8,348.0 343.7,358.7 345.5,368.2 347.4,376.4 349.3,383.5 351.2,389.4 353.1,394.3 355.0,398.2 356.9,401.3 358.8,403.7 360.6,405.4 362.5,406.6 364.4,407.4 366.3,407.9 368.2,408.1
370.1,408.0 372.0,407.9 373.8,407.6 375.7,407.1 377.6,406.6 379.5,405.9 381.4,405.2 383.3,404.3 385.2,403.2 387.1,402.0 388.9,400.5 390.8,398.8 392.7,396.8 394.6,394.5 396.5,391.8 398.4,388.8
400.3,385.4 402.2,381.5 404.0,377.0 405.9,372.1 407.8,366.6 409.7,360.5 411.6,353.8 413.5,346.5 415.4,338.5 417.3,329.9 419.1,320.7 421.0,310.9 422.9,300.5 424.8,289.7 426.7,278.5 428.6,266.9
430.5,255.2 432.4,243.5 434.2,231.9 436.1,220.5 438.0,209.5 439.9,199.1 441.8,189.5 443.7,180.7 445.6,173.0 447.4,166.5 449.3,161.3 451.2,157.4 453.1,155.0 455.0,154.1 456.9,154.7 458.8,156.7
460.7,160.2 462.5,165.0 464.4,171.1 466.3,178.3 468.2,186.5 470.1,195.6 472.0,205.3 473.9,215.6 475.8,226.3 477.6,237.3 479.5,248.3 481.4,259.4 483.3,270.3 485.2,281.0 487.1,291.4 489.0,301.5
490.9,311.1 492.7,320.3 494.6,329.0 496.5,337.2 498.4,345.0 500.3,352.2 502.2,359.0 504.1,365.3 506.0,371.2 507.8,376.6 509.7,381.6 511.6,386.2 513.5,390.5 515.4,394.4 517.3,397.9 519.2,401.1
521.0,404.0 522.9,406.7 524.8,409.0 526.7,411.1 528.6,412.9 530.5,414.5 532.4,415.8 534.3,417.0 536.1,417.9 538.0,418.7 539.9,419.3 541.8,419.8 543.7,420.1 545.6,420.4 547.5,420.5 549.4,420.6
551.2,420.6 553.1,420.6 555.0,420.6 556.9,420.6 558.8,420.6 560.7,420.6 562.6,420.6 564.5,420.7 566.3,420.8 568.2,420.9 570.1,421.0 572.0,421.1 573.9,421.2 575.8,421.3 577.7,421.3 579.5,421.2
581.4,421.1 583.3,420.8 585.2,420.5 587.1,420.1 589.0,419.5 590.9,418.8 592.8,418.1 594.6,417.2 596.5,416.3 598.4,415.3 600.3,414.2 602.2,413.2 604.1,412.2 606.0,411.3 607.9,410.4 609.7,409.7
611.6,409.2 613.5,408.8 615.4,408.6 617.3,408.7 619.2,409.1 621.1,409.8 623.0,410.7 624.8,412.0 626.7,413.7 628.6,415.7 630.5,418.0 632.4,420.7 634.3,423.6 636.2,427.0 638.1,430.6 639.9,434.4
641.8,438.5 643.7,442.8 645.6,447.3 647.5,451.9 649.4,456.5 651.3,461.2 653.1,465.9 655.0,470.5 656.9,475.1 658.8,479.5 660.7,483.7 662.6,487.7 664.5,491.5 666.4,495.1 668.2,498.4 670.1,501.5
672.0,504.3 673.9,506.8 675.8,509.1 677.7,511.2 679.6,513.0 681.5,514.6 683.3,516.1 685.2,517.3 687.1,518.4 689.0,519.4 690.9,520.2 692.8,520.9 694.7,521.5 696.6,522.0 698.4,522.4 700.3,522.7
702.2,522.9 704.1,523.1 706.0,523.2 707.9,523.2 709.8,523.2 711.7,523.2 713.5,523.1 715.4,523.1 717.3,523.0 719.2,523.0 721.1,523.1 723.0,523.2 724.9,523.3 726.7,523.5 728.6,523.7 730.5,524.0
732.4,524.3 734.3,524.6 736.2,525.0 738.1,525.3 740.0,525.7 741.8,526.0 743.7,526.2 745.6,526.4 747.5,526.5 749.4,526.5 751.3,526.4 753.2,526.2 755.1,525.9 756.9,525.5 758.8,525.0 760.7,524.5
762.6,523.8 764.5,523.1 766.4,522.3 768.3,521.5 770.2,520.7 772.0,520.0 773.9,519.2 775.8,518.5 777.7,517.9 779.6,517.4 781.5,517.0 783.4,516.7 785.3,516.6 787.1,516.7 789.0,516.9 790.9,517.3
792.8,518.0 794.7,518.8 796.6,519.8 798.5,521.1 800.3,522.5 802.2,524.1 804.1,526.0 806.0,528.0 807.9,530.2 809.8,532.5 811.7,535.0 813.6,537.6 815.4,540.4 817.3,543.2 819.2,546.2 821.1,549.2
823.0,552.3 824.9,555.4 826.8,558.6 828.7,561.8 830.5,565.0 832.4,568.1 834.3,571.3 836.2,574.4 838.1,577.4 840.0,580.4 841.9,583.2 843.8,586.0 845.6,588.6 847.5,591.1 849.4,593.4 851.3,595.7
853.2,597.7 855.1,599.6 857.0,601.3 858.9,602.9 860.7,604.3 862.6,605.6 864.5,606.8 866.4,607.8 868.3,608.7 870.2,609.5 872.1,610.3 873.9,610.9 875.8,611.6 877.7,612.2 879.6,612.8 881.5,613.4
883.4,613.9 885.3,614.5 887.2,615.1 889.0,615.6 890.9,616.2 892.8,616.7 894.7,617.2 896.6,617.7 898.5,618.1 900.4,618.4 902.3,618.6 904.1,618.7 906.0,618.8 907.9,618.7 909.8,618.5 911.7,618.3
913.6,617.9 915.5,617.5 917.4,617.1 919.2,616.6 921.1,616.1 923.0,615.6 924.9,615.2 924.9,662.4 923.0,662.4 921.1,662.4 919.2,662.4 917.4,662.4 915.5,662.4 913.6,662.4 911.7,662.4 909.8,662.4
907.9,662.4 906.0,662.4 904.1,662.4 902.3,662.4 900.4,662.4 898.5,662.4 896.6,662.4 894.7,662.4 892.8,662.4 890.9,662.4 889.0,662.4 887.2,662.4 885.3,662.4 883.4,662.4 881.5,662.4 879.6,662.4
877.7,662.4 875.8,662.4 873.9,662.4 872.1,662.4 870.2,662.4 868.3,662.4 866.4,662.4 864.5,662.4 862.6,662.4 860.7,662.4 858.9,662.4 857.0,662.4 855.1,662.4 853.2,662.4 851.3,662.4 849.4,662.4
847.5,662.4 845.6,662.4 843.8,662.4 841.9,662.4 840.0,662.4 838.1,662.4 836.2,662.4 834.3,662.4 832.4,662.4 830.5,662.4 828.7,662.4 826.8,662.4 824.9,662.4 823.0,662.4 821.1,662.4 819.2,662.4
817.3,662.4 815.4,662.4 813.6,662.4 811.7,662.4 809.8,662.4 807.9,662.4 806.0,662.4 804.1,662.4 802.2,662.4 800.3,662.4 798.5,662.4 796.6,662.4 794.7,662.4 792.8,662.4 790.9,662.4 789.0,662.4
787.1,662.4 785.3,662.4 783.4,662.4 781.5,662.4 779.6,662.4 777.7,662.4 775.8,662.4 773.9,662.4 772.0,662.4 770.2,662.4 768.3,662.4 766.4,662.4 764.5,662.4 762.6,662.4 760.7,662.4 758.8,662.4
756.9,662.4 755.1,662.4 753.2,662.4 751.3,662.4 749.4,662.4 747.5,662.4 745.6,662.4 743.7,662.4 741.8,662.4 740.0,662.4 738.1,662.4 736.2,662.4 734.3,662.4 732.4,662.4 730.5,662.4 728.6,662.4
726.7,662.4 724.9,662.4 723.0,662.4 721.1,662.4 719.2,662.4 717.3,662.4 715.4,662.4 713.5,662.4 711.7,662.4 709.8,662.4 707.9,662.4 706.0,662.4 704.1,662.4 702.2,662.4 700.3,662.4 698.4,662.4
696.6,662.4 694.7,662.4 692.8,662.4 690.9,662.4 689.0,662.4 687.1,662.4 685.2,662.4 683.3,662.4 681.5,662.4 679.6,662.4 677.7,662.4 675.8,662.4 673.9,662.4 672.0,662.4 670.1,662.4 668.2,662.4
666.4,662.4 664.5,662.4 662.6,662.4 660.7,662.4 658.8,662.4 656.9,662.4 655.0,662.4 653.1,662.4 651.3,662.4 649.4,662.4 647.5,662.4 645.6,662.4 643.7,662.4 641.8,662.4 639.9,662.4 638.1,662.4
636.2,662.4 634.3,662.4 632.4,662.4 630.5,662.4 628.6,662.4 626.7,662.4 624.8,662.4 623.0,662.4 621.1,662.4 619.2,662.4 617.3,662.4 615.4,662.4 613.5,662.4 611.6,662.4 609.7,662.4 607.9,662.4
606.0,662.4 604.1,662.4 602.2,662.4 600.3,662.4 598.4,662.4 596.5,662.4 594.6,662.4 592.8,662.4 590.9,662.4 589.0,662.4 587.1,662.4 585.2,662.4 583.3,662.4 581.4,662.4 579.5,662.4 577.7,662.4
575.8,662.4 573.9,662.4 572.0,662.4 570.1,662.4 568.2,662.4 566.3,662.4 564.5,662.4 562.6,662.4 560.7,662.4 558.8,662.4 556.9,662.4 555.0,662.4 553.1,662.4 551.2,662.4 549.4,662.4 547.5,662.4
545.6,662.4 543.7,662.4 541.8,662.4 539.9,662.4 538.0,662.4 536.1,662.4 534.3,662.4 532.4,662.4 530.5,662.4 528.6,662.4 526.7,662.4 524.8,662.4 522.9,662.4 521.0,662.4 519.2,662.4 517.3,662.4
515.4,662.4 513.5,662.4 511.6,662.4 509.7,662.4 507.8,662.4 506.0,662.4 504.1,662.4 502.2,662.4 500.3,662.4 498.4,662.4 496.5,662.4 494.6,662.4 492.7,662.4 490.9,662.4 489.0,662.4 487.1,662.4
485.2,662.4 483.3,662.4 481.4,662.4 479.5,662.4 477.6,662.4 475.8,662.4 473.9,662.4 472.0,662.4 470.1,662.4 468.2,662.4 466.3,662.4 464.4,662.4 462.5,662.4 460.7,662.4 458.8,662.4 456.9,662.4
455.0,662.4 453.1,662.4 451.2,662.4 449.3,662.4 447.4,662.4 445.6,662.4 443.7,662.4 441.8,662.4 439.9,662.4 438.0,662.4 436.1,662.4 434.2,662.4 432.4,662.4 430.5,662.4 428.6,662.4 426.7,662.4
424.8,662.4 422.9,662.4 421.0,662.4 419.1,662.4 417.3,662.4 415.4,662.4 413.5,662.4 411.6,662.4 409.7,662.4 407.8,662.4 405.9,662.4 404.0,662.4 402.2,662.4 400.3,662.4 398.4,662.4 396.5,662.4
394.6,662.4 392.7,662.4 390.8,662.4 388.9,662.4 387.1,662.4 385.2,662.4 383.3,662.4 381.4,662.4 379.5,662.4 377.6,662.4 375.7,662.4 373.8,662.4 372.0,662.4 370.1,662.4 368.2,662.4 366.3,662.4
364.4,662.4 362.5,662.4 360.6,662.4 358.8,662.4 356.9,662.4 355.0,662.4 353.1,662.4 351.2,662.4 349.3,662.4 347.4,662.4 345.5,662.4 343.7,662.4 341.8,662.4 339.9,662.4 338.0,662.4 336.1,662.4
334.2,662.4 332.3,662.4 330.4,662.4 328.6,662.4 326.7,662.4 324.8,662.4 322.9,662.4 321.0,662.4 319.1,662.4 317.2,662.4 315.3,662.4 313.5,662.4 311.6,662.4 309.7,662.4 307.8,662.4 305.9,662.4
304.0,662.4 302.1,662.4 300.2,662.4 298.4,662.4 296.5,662.4 294.6,662.4 292.7,662.4 290.8,662.4 288.9,662.4 287.0,662.4 285.2,662.4 283.3,662.4 281.4,662.4 279.5,662.4 277.6,662.4 275.7,662.4
273.8,662.4 271.9,662.4 270.1,662.4 268.2,662.4 266.3,662.4 264.4,662.4 262.5,662.4 260.6,662.4 258.7,662.4 256.8,662.4 255.0,662.4 253.1,662.4 251.2,662.4 249.3,662.4 247.4,662.4 245.5,662.4
243.6,662.4 241.7,662.4 239.9,662.4 238.0,662.4 236.1,662.4 234.2,662.4 232.3,662.4 230.4,662.4 228.5,662.4 226.6,662.4 224.8,662.4 222.9,662.4 221.0,662.4 219.1,662.4 217.2,662.4 215.3,662.4
213.4,662.4 211.6,662.4 209.7,662.4 207.8,662.4 205.9,662.4 204.0,662.4 202.1,662.4 200.2,662.4 198.3,662.4 196.5,662.4 194.6,662.4 192.7,662.4 190.8,662.4 188.9,662.4 187.0,662.4 185.1,662.4
183.2,662.4 181.4,662.4 179.5,662.4 177.6,662.4 175.7,662.4 173.8,662.4 171.9,662.4 170.0,662.4 168.1,662.4 166.3,662.4 164.4,662.4 162.5,662.4 160.6,662.4 158.7,662.4 '/>
	</g>
</g>
	</g>
	<g id="gnuplot_plot_3" ><title>Point estimate</title>
<g fill="none" color="white" stroke="rgb( 31, 120, 180)" stroke-width="2.00" stroke-linecap="butt" stroke-linejoin="miter">
</g>
<g fill="none" color="black" stroke="currentColor" stroke-width="2.00" stroke-linecap="butt" stroke-linejoin="miter">
	<g transform="translate(1089.0,103.0)" stroke="none" fill="black" font-family="Helvetica" font-size="12.00"  text-anchor="start">
		<text><tspan font-family="Helvetica" >Point estimate</tspan></text>
	</g>
</g>
<g fill="none" color="black" stroke="currentColor" stroke-width="2.00" stroke-linecap="butt" stroke-linejoin="miter">
	<path stroke='rgb( 31, 120, 180)'  d='M1038.5,99.1 L1080.7,99.1 M453.8,662.4 L453.8,154.7  '/></g>
	</g>
<g fill="none" color="black" stroke="currentColor" stroke-width="2.00" stroke-linecap="butt" stroke-linejoin="miter">
</g>
<g fill="none" color="black" stroke="black" stroke-width="1.00" stroke-linecap="butt" stroke-linejoin="miter">
</g>
<g fill="none" color="black" stroke="currentColor" stroke-width="1.00" stroke-linecap="butt" stroke-linejoin="miter">
	<path stroke='black'  d='M71.9,54.1 L71.9,662.4 L1013.6,662.4 L1013.6,54.1 L71.9,54.1 Z  '/></g>
<g fill="none" color="black" stroke="currentColor" stroke-width="1.00" stroke-linecap="butt" stroke-linejoin="miter">
</g>
</g>
</svg>

