<?xml version="1.0" encoding="utf-8"  standalone="no"?>
<svg 
 viewBox="0 0 450 300"
 xmlns="http://www.w3.org/2000/svg"
 xmlns:xlink="http://www.w3.org/1999/xlink"
>

<title>Gnuplot</title>
<desc>Produced by GNUPLOT 5.2 patchlevel 6 </desc>

<g id="gnuplot_canvas">

<rect x="0" y="0" width="450" height="300" fill="none"/>
<defs>

	<circle id='gpDot' r='0.5' stroke-width='0.5' stroke='currentColor'/>
	<path id='gpPt0' stroke-width='0.222' stroke='currentColor' d='M-1,0 h2 M0,-1 v2'/>
	<path id='gpPt1' stroke-width='0.222' stroke='currentColor' d='M-1,-1 L1,1 M1,-1 L-1,1'/>
	<path id='gpPt2' stroke-width='0.222' stroke='currentColor' d='M-1,0 L1,0 M0,-1 L0,1 M-1,-1 L1,1 M-1,1 L1,-1'/>
	<rect id='gpPt3' stroke-width='0.222' stroke='currentColor' x='-1' y='-1' width='2' height='2'/>
	<rect id='gpPt4' stroke-width='0.222' stroke='currentColor' fill='currentColor' x='-1' y='-1' width='2' height='2'/>
	<circle id='gpPt5' stroke-width='0.222' stroke='currentColor' cx='0' cy='0' r='1'/>
	<use xlink:href='#gpPt5' id='gpPt6' fill='currentColor' stroke='none'/>
	<path id='gpPt7' stroke-width='0.222' stroke='currentColor' d='M0,-1.33 L-1.33,0.67 L1.33,0.67 z'/>
	<use xlink:href='#gpPt7' id='gpPt8' fill='currentColor' stroke='none'/>
	<use xlink:href='#gpPt7' id='gpPt9' stroke='currentColor' transform='rotate(180)'/>
	<use xlink:href='#gpPt9' id='gpPt10' fill='currentColor' stroke='none'/>
	<use xlink:href='#gpPt3' id='gpPt11' stroke='currentColor' transform='rotate(45)'/>
	<use xlink:href='#gpPt11' id='gpPt12' fill='currentColor' stroke='none'/>
	<path id='gpPt13' stroke-width='0.222' stroke='currentColor' d='M0,1.330 L1.265,0.411 L0.782,-1.067 L-0.782,-1.076 L-1.265,0.411 z'/>
	<use xlink:href='#gpPt13' id='gpPt14' fill='currentColor' stroke='none'/>
	<filter id='textbox' filterUnits='objectBoundingBox' x='0' y='0' height='1' width='1'>
	  <feFlood flood-color='white' flood-opacity='1' result='bgnd'/>
	  <feComposite in='SourceGraphic' in2='bgnd' operator='atop'/>
	</filter>
	<filter id='greybox' filterUnits='objectBoundingBox' x='0' y='0' height='1' width='1'>
	  <feFlood flood-color='lightgrey' flood-opacity='1' result='grey'/>
	  <feComposite in='SourceGraphic' in2='grey' operator='atop'/>
	</filter>
</defs>
<g fill="none" color="white" stroke="currentColor" stroke-width="1.00" stroke-linecap="butt" stroke-linejoin="miter">
</g>
<g fill="none" color="black" stroke="currentColor" stroke-width="1.00" stroke-linecap="butt" stroke-linejoin="miter">
	<path stroke='black'  d='M80.2,242.4 L89.2,242.4  '/>	<g transform="translate(71.9,246.3)" stroke="none" fill="black" font-family="Helvetica" font-size="12.00"  text-anchor="end">
		<text><tspan font-family="Helvetica" > 0</tspan></text>
	</g>
</g>
<g fill="none" color="black" stroke="currentColor" stroke-width="1.00" stroke-linecap="butt" stroke-linejoin="miter">
	<path stroke='black'  d='M80.2,207.3 L89.2,207.3  '/>	<g transform="translate(71.9,211.2)" stroke="none" fill="black" font-family="Helvetica" font-size="12.00"  text-anchor="end">
		<text><tspan font-family="Helvetica" > 0.01</tspan></text>
	</g>
</g>
<g fill="none" color="black" stroke="currentColor" stroke-width="1.00" stroke-linecap="butt" stroke-linejoin="miter">
	<path stroke='black'  d='M80.2,172.2 L89.2,172.2  '/>	<g transform="translate(71.9,176.1)" stroke="none" fill="black" font-family="Helvetica" font-size="12.00"  text-anchor="end">
		<text><tspan font-family="Helvetica" > 0.02</tspan></text>
	</g>
</g>
<g fill="none" color="black" stroke="currentColor" stroke-width="1.00" stroke-linecap="butt" stroke-linejoin="miter">
	<path stroke='black'  d='M80.2,137.1 L89.2,137.1  '/>	<g transform="translate(71.9,141.0)" stroke="none" fill="black" font-family="Helvetica" font-size="12.00"  text-anchor="end">
		<text><tspan font-family="Helvetica" > 0.03</tspan></text>
	</g>
</g>
<g fill="none" color="black" stroke="currentColor" stroke-width="1.00" stroke-linecap="butt" stroke-linejoin="miter">
	<path stroke='black'  d='M80.2,102.0 L89.2,102.0  '/>	<g transform="translate(71.9,105.9)" stroke="none" fill="black" font-family="Helvetica" font-size="12.00"  text-anchor="end">
		<text><tspan font-family="Helvetica" > 0.04</tspan></text>
	</g>
</g>
<g fill="none" color="black" stroke="currentColor" stroke-width="1.00" stroke-linecap="butt" stroke-linejoin="miter">
	<path stroke='black'  d='M80.2,66.9 L89.2,66.9  '/>	<g transform="translate(71.9,70.8)" stroke="none" fill="black" font-family="Helvetica" font-size="12.00"  text-anchor="end">
		<text><tspan font-family="Helvetica" > 0.05</tspan></text>
	</g>
</g>
<g fill="none" color="black" stroke="currentColor" stroke-width="1.00" stroke-linecap="butt" stroke-linejoin="miter">
	<path stroke='black'  d='M80.2,31.8 L89.2,31.8  '/>	<g transform="translate(71.9,35.7)" stroke="none" fill="black" font-family="Helvetica" font-size="12.00"  text-anchor="end">
		<text><tspan font-family="Helvetica" > 0.06</tspan></text>
	</g>
</g>
<g fill="none" color="black" stroke="currentColor" stroke-width="1.00" stroke-linecap="butt" stroke-linejoin="miter">
	<path stroke='black'  d='M129.7,242.4 L129.7,233.4  '/>	<g transform="translate(129.7,264.3)" stroke="none" fill="black" font-family="Helvetica" font-size="12.00"  text-anchor="middle">
		<text><tspan font-family="Helvetica" > 860</tspan></text>
	</g>
</g>
<g fill="none" color="black" stroke="currentColor" stroke-width="1.00" stroke-linecap="butt" stroke-linejoin="miter">
	<path stroke='black'  d='M190.4,242.4 L190.4,233.4  '/>	<g transform="translate(190.4,264.3)" stroke="none" fill="black" font-family="Helvetica" font-size="12.00"  text-anchor="middle">
		<text><tspan font-family="Helvetica" > 880</tspan></text>
	</g>
</g>
<g fill="none" color="black" stroke="currentColor" stroke-width="1.00" stroke-linecap="butt" stroke-linejoin="miter">
	<path stroke='black'  d='M251.2,242.4 L251.2,233.4  '/>	<g transform="translate(251.2,264.3)" stroke="none" fill="black" font-family="Helvetica" font-size="12.00"  text-anchor="middle">
		<text><tspan font-family="Helvetica" > 900</tspan></text>
	</g>
</g>
<g fill="none" color="black" stroke="currentColor" stroke-width="1.00" stroke-linecap="butt" stroke-linejoin="miter">
	<path stroke='black'  d='M312.0,242.4 L312.0,233.4  '/>	<g transform="translate(312.0,264.3)" stroke="none" fill="black" font-family="Helvetica" font-size="12.00"  text-anchor="middle">
		<text><tspan font-family="Helvetica" > 920</tspan></text>
	</g>
</g>
<g fill="none" color="black" stroke="currentColor" stroke-width="1.00" stroke-linecap="butt" stroke-linejoin="miter">
	<path stroke='black'  d='M372.8,242.4 L372.8,233.4  '/>	<g transform="translate(372.8,264.3)" stroke="none" fill="black" font-family="Helvetica" font-size="12.00"  text-anchor="middle">
		<text><tspan font-family="Helvetica" > 940</tspan></text>
	</g>
</g>
<g fill="none" color="black" stroke="currentColor" stroke-width="1.00" stroke-linecap="butt" stroke-linejoin="miter">
</g>
<g fill="none" color="black" stroke="currentColor" stroke-width="1.00" stroke-linecap="butt" stroke-linejoin="miter">
	<path stroke='black'  d='M80.2,18.1 L80.2,242.4 L425.0,242.4 L425.0,18.1 L80.2,18.1 Z  '/></g>
<g fill="none" color="black" stroke="currentColor" stroke-width="1.00" stroke-linecap="butt" stroke-linejoin="miter">
	<g transform="translate(16.3,130.3) rotate(270)" stroke="none" fill="black" font-family="Helvetica" font-size="12.00"  text-anchor="middle">
		<text><tspan font-family="Helvetica" >Density (a.u.)</tspan></text>
	</g>
</g>
<g fill="none" color="black" stroke="currentColor" stroke-width="1.00" stroke-linecap="butt" stroke-linejoin="miter">
	<g transform="translate(252.6,291.3)" stroke="none" fill="black" font-family="Helvetica" font-size="12.00"  text-anchor="middle">
		<text><tspan font-family="Helvetica" >Average time (us)</tspan></text>
	</g>
</g>
<g fill="none" color="black" stroke="currentColor" stroke-width="1.00" stroke-linecap="butt" stroke-linejoin="miter">
</g>
	<g id="gnuplot_plot_1" ><title>PDF</title>
<g fill="none" color="black" stroke="currentColor" stroke-width="1.00" stroke-linecap="butt" stroke-linejoin="miter">
	<g stroke='none' shape-rendering='crispEdges'>
		<polygon fill = 'rgb( 31, 120, 180)' fill-opacity = '0.250000' points = '80.2,241.9 80.9,241.8 81.6,241.8 82.3,241.7 83.0,241.6 83.7,241.5 84.3,241.3 85.0,241.2 85.7,241.0 86.4,240.9 87.1,240.7 87.8,240.5 88.5,240.2 89.2,240.0 89.9,239.7 90.6,239.3
91.3,239.0 91.9,238.6 92.6,238.2 93.3,237.7 94.0,237.2 94.7,236.6 95.4,236.0 96.1,235.3 96.8,234.5 97.5,233.7 98.2,232.8 98.9,231.9 99.5,230.9 100.2,229.7 100.9,228.5 101.6,227.2
102.3,225.9 103.0,224.4 103.7,222.8 104.4,221.1 105.1,219.3 105.8,217.3 106.5,215.3 107.1,213.1 107.8,210.8 108.5,208.3 109.2,205.7 109.9,203.0 110.6,200.1 111.3,197.1 112.0,194.0 112.7,190.7
113.4,187.2 114.1,183.7 114.7,179.9 115.4,176.1 116.1,172.1 116.8,167.9 117.5,163.7 118.2,159.3 118.9,154.8 119.6,150.2 120.3,145.4 121.0,140.6 121.7,135.7 122.3,130.8 123.0,125.7 123.7,120.7
124.4,115.5 125.1,110.4 125.8,105.2 126.5,100.1 127.2,95.0 127.9,89.9 128.6,84.8 129.3,79.8 130.0,74.9 130.6,70.2 131.3,65.5 132.0,60.9 132.7,56.6 133.4,52.3 134.1,48.3 134.8,44.5
135.5,40.8 136.2,37.4 136.9,34.3 137.6,31.4 138.2,28.7 138.9,26.3 139.6,24.3 140.3,22.5 141.0,21.0 141.7,19.8 142.4,18.9 143.1,18.3 143.8,18.1 144.5,18.2 145.2,18.5 145.8,19.2
146.5,20.2 147.2,21.6 147.9,23.2 148.6,25.1 149.3,27.2 150.0,29.7 150.7,32.4 151.4,35.3 152.1,38.5 152.8,42.0 153.4,45.6 154.1,49.4 154.8,53.4 155.5,57.6 156.2,61.9 156.9,66.3
157.6,70.9 158.3,75.5 159.0,80.3 159.7,85.1 160.4,89.9 161.0,94.8 161.7,99.7 162.4,104.6 163.1,109.5 163.8,114.4 164.5,119.3 165.2,124.1 165.9,128.8 166.6,133.5 167.3,138.1 168.0,142.5
168.6,146.9 169.3,151.2 170.0,155.4 170.7,159.5 171.4,163.4 172.1,167.2 172.8,170.9 173.5,174.5 174.2,177.9 174.9,181.1 175.6,184.3 176.2,187.3 176.9,190.1 177.6,192.9 178.3,195.5 179.0,197.9
179.7,200.2 180.4,202.4 181.1,204.5 181.8,206.4 182.5,208.3 183.2,210.0 183.8,211.6 184.5,213.1 185.2,214.5 185.9,215.8 186.6,217.0 187.3,218.1 188.0,219.1 188.7,220.1 189.4,220.9 190.1,221.7
190.8,222.5 191.4,223.1 192.1,223.8 192.8,224.3 193.5,224.8 194.2,225.3 194.9,225.7 195.6,226.0 196.3,226.4 197.0,226.7 197.7,226.9 198.4,227.2 199.0,227.4 199.7,227.6 200.4,227.8 201.1,227.9
201.8,228.0 202.5,228.2 203.2,228.3 203.9,228.4 204.6,228.5 205.3,228.6 206.0,228.7 206.6,228.8 207.3,228.8 208.0,228.9 208.7,229.0 209.4,229.1 210.1,229.2 210.8,229.3 211.5,229.3 212.2,229.4
212.9,229.5 213.6,229.6 214.3,229.7 214.9,229.8 215.6,230.0 216.3,230.1 217.0,230.2 217.7,230.3 218.4,230.4 219.1,230.6 219.8,230.7 220.5,230.8 221.2,231.0 221.9,231.1 222.5,231.3 223.2,231.4
223.9,231.5 224.6,231.7 225.3,231.8 226.0,232.0 226.7,232.1 227.4,232.3 228.1,232.4 228.8,232.6 229.5,232.7 230.1,232.8 230.8,233.0 231.5,233.1 232.2,233.2 232.9,233.4 233.6,233.5 234.3,233.6
235.0,233.7 235.7,233.9 236.4,234.0 237.1,234.1 237.7,234.2 238.4,234.3 239.1,234.4 239.8,234.5 240.5,234.6 241.2,234.7 241.9,234.8 242.6,234.9 243.3,235.0 244.0,235.1 244.7,235.2 245.3,235.3
246.0,235.4 246.7,235.5 247.4,235.6 248.1,235.7 248.8,235.8 249.5,235.9 250.2,236.0 250.9,236.1 251.6,236.2 252.3,236.3 252.9,236.4 253.6,236.5 254.3,236.6 255.0,236.8 255.7,236.9 256.4,237.0
257.1,237.1 257.8,237.2 258.5,237.3 259.2,237.4 259.9,237.5 260.5,237.6 261.2,237.8 261.9,237.9 262.6,238.0 263.3,238.1 264.0,238.2 264.7,238.3 265.4,238.4 266.1,238.5 266.8,238.6 267.5,238.7
268.1,238.8 268.8,238.9 269.5,238.9 270.2,239.0 270.9,239.1 271.6,239.2 272.3,239.2 273.0,239.3 273.7,239.3 274.4,239.4 275.1,239.4 275.7,239.5 276.4,239.5 277.1,239.5 277.8,239.5 278.5,239.6
279.2,239.6 279.9,239.6 280.6,239.6 281.3,239.6 282.0,239.6 282.7,239.5 283.3,239.5 284.0,239.5 284.7,239.5 285.4,239.5 286.1,239.4 286.8,239.4 287.5,239.3 288.2,239.3 288.9,239.3 289.6,239.2
290.3,239.2 290.9,239.1 291.6,239.0 292.3,239.0 293.0,238.9 293.7,238.9 294.4,238.8 295.1,238.8 295.8,238.7 296.5,238.6 297.2,238.6 297.9,238.5 298.6,238.5 299.2,238.4 299.9,238.3 300.6,238.3
301.3,238.2 302.0,238.2 302.7,238.1 303.4,238.0 304.1,238.0 304.8,237.9 305.5,237.9 306.2,237.8 306.8,237.8 307.5,237.7 308.2,237.7 308.9,237.6 309.6,237.6 310.3,237.5 311.0,237.5 311.7,237.5
312.4,237.4 313.1,237.4 313.8,237.3 314.4,237.3 315.1,237.3 315.8,237.2 316.5,237.2 317.2,237.2 317.9,237.1 318.6,237.1 319.3,237.1 320.0,237.1 320.7,237.0 321.4,237.0 322.0,237.0 322.7,237.0
323.4,237.0 324.1,237.0 324.8,237.0 325.5,237.0 326.2,237.0 326.9,236.9 327.6,237.0 328.3,237.0 329.0,237.0 329.6,237.0 330.3,237.0 331.0,237.0 331.7,237.0 332.4,237.0 333.1,237.1 333.8,237.1
334.5,237.1 335.2,237.1 335.9,237.2 336.6,237.2 337.2,237.2 337.9,237.3 338.6,237.3 339.3,237.3 340.0,237.4 340.7,237.4 341.4,237.5 342.1,237.5 342.8,237.5 343.5,237.6 344.2,237.6 344.8,237.7
345.5,237.7 346.2,237.8 346.9,237.8 347.6,237.9 348.3,237.9 349.0,238.0 349.7,238.0 350.4,238.0 351.1,238.1 351.8,238.1 352.4,238.2 353.1,238.2 353.8,238.2 354.5,238.3 355.2,238.3 355.9,238.4
356.6,238.4 357.3,238.4 358.0,238.5 358.7,238.5 359.4,238.5 360.0,238.6 360.7,238.6 361.4,238.6 362.1,238.7 362.8,238.7 363.5,238.7 364.2,238.8 364.9,238.8 365.6,238.8 366.3,238.9 367.0,238.9
367.6,238.9 368.3,239.0 369.0,239.0 369.7,239.0 370.4,239.1 371.1,239.1 371.8,239.2 372.5,239.2 373.2,239.3 373.9,239.3 374.6,239.3 375.2,239.4 375.9,239.5 376.6,239.5 377.3,239.6 378.0,239.6
378.7,239.7 379.4,239.7 380.1,239.8 380.8,239.9 381.5,239.9 382.2,240.0 382.9,240.1 383.5,240.1 384.2,240.2 384.9,240.3 385.6,240.3 386.3,240.4 387.0,240.5 387.7,240.6 388.4,240.6 389.1,240.7
389.8,240.8 390.5,240.8 391.1,240.9 391.8,241.0 392.5,241.0 393.2,241.1 393.9,241.2 394.6,241.2 395.3,241.3 396.0,241.3 396.7,241.4 397.4,241.5 398.1,241.5 398.7,241.6 399.4,241.6 400.1,241.7
400.8,241.7 401.5,241.7 402.2,241.8 402.9,241.8 403.6,241.9 404.3,241.9 405.0,241.9 405.7,242.0 406.3,242.0 407.0,242.0 407.7,242.1 408.4,242.1 409.1,242.1 409.8,242.1 410.5,242.2 411.2,242.2
411.9,242.2 412.6,242.2 413.3,242.2 413.9,242.2 414.6,242.3 415.3,242.3 416.0,242.3 416.7,242.3 417.4,242.3 418.1,242.3 418.8,242.3 419.5,242.3 420.2,242.3 420.9,242.3 421.5,242.3 422.2,242.4
422.9,242.4 423.6,242.4 424.3,242.4 425.0,242.4 425.0,242.4 424.3,242.4 423.6,242.4 422.9,242.4 422.2,242.4 421.5,242.4 420.9,242.4 420.2,242.4 419.5,242.4 418.8,242.4 418.1,242.4 417.4,242.4
416.7,242.4 416.0,242.4 415.3,242.4 414.6,242.4 413.9,242.4 413.3,242.4 412.6,242.4 411.9,242.4 411.2,242.4 410.5,242.4 409.8,242.4 409.1,242.4 408.4,242.4 407.7,242.4 407.0,242.4 406.3,242.4
405.7,242.4 405.0,242.4 404.3,242.4 403.6,242.4 402.9,242.4 402.2,242.4 401.5,242.4 400.8,242.4 400.1,242.4 399.4,242.4 398.7,242.4 398.1,242.4 397.4,242.4 396.7,242.4 396.0,242.4 395.3,242.4
394.6,242.4 393.9,242.4 393.2,242.4 392.5,242.4 391.8,242.4 391.1,242.4 390.5,242.4 389.8,242.4 389.1,242.4 388.4,242.4 387.7,242.4 387.0,242.4 386.3,242.4 385.6,242.4 384.9,242.4 384.2,242.4
383.5,242.4 382.9,242.4 382.2,242.4 381.5,242.4 380.8,242.4 380.1,242.4 379.4,242.4 378.7,242.4 378.0,242.4 377.3,242.4 376.6,242.4 375.9,242.4 375.2,242.4 374.6,242.4 373.9,242.4 373.2,242.4
372.5,242.4 371.8,242.4 371.1,242.4 370.4,242.4 369.7,242.4 369.0,242.4 368.3,242.4 367.6,242.4 367.0,242.4 366.3,242.4 365.6,242.4 364.9,242.4 364.2,242.4 363.5,242.4 362.8,242.4 362.1,242.4
361.4,242.4 360.7,242.4 360.0,242.4 359.4,242.4 358.7,242.4 358.0,242.4 357.3,242.4 356.6,242.4 355.9,242.4 355.2,242.4 354.5,242.4 353.8,242.4 353.1,242.4 352.4,242.4 351.8,242.4 351.1,242.4
350.4,242.4 349.7,242.4 349.0,242.4 348.3,242.4 347.6,242.4 346.9,242.4 346.2,242.4 345.5,242.4 344.8,242.4 344.2,242.4 343.5,242.4 342.8,242.4 342.1,242.4 341.4,242.4 340.7,242.4 340.0,242.4
339.3,242.4 338.6,242.4 337.9,242.4 337.2,242.4 336.6,242.4 335.9,242.4 335.2,242.4 334.5,242.4 333.8,242.4 333.1,242.4 332.4,242.4 331.7,242.4 331.0,242.4 330.3,242.4 329.6,242.4 329.0,242.4
328.3,242.4 327.6,242.4 326.9,242.4 326.2,242.4 325.5,242.4 324.8,242.4 324.1,242.4 323.4,242.4 322.7,242.4 322.0,242.4 321.4,242.4 320.7,242.4 320.0,242.4 319.3,242.4 318.6,242.4 317.9,242.4
317.2,242.4 316.5,242.4 315.8,242.4 315.1,242.4 314.4,242.4 313.8,242.4 313.1,242.4 312.4,242.4 311.7,242.4 311.0,242.4 310.3,242.4 309.6,242.4 308.9,242.4 308.2,242.4 307.5,242.4 306.8,242.4
306.2,242.4 305.5,242.4 304.8,242.4 304.1,242.4 303.4,242.4 302.7,242.4 302.0,242.4 301.3,242.4 300.6,242.4 299.9,242.4 299.2,242.4 298.6,242.4 297.9,242.4 297.2,242.4 296.5,242.4 295.8,242.4
295.1,242.4 294.4,242.4 293.7,242.4 293.0,242.4 292.3,242.4 291.6,242.4 290.9,242.4 290.3,242.4 289.6,242.4 288.9,242.4 288.2,242.4 287.5,242.4 286.8,242.4 286.1,242.4 285.4,242.4 284.7,242.4
284.0,242.4 283.3,242.4 282.7,242.4 282.0,242.4 281.3,242.4 280.6,242.4 279.9,242.4 279.2,242.4 278.5,242.4 277.8,242.4 277.1,242.4 276.4,242.4 275.7,242.4 275.1,242.4 274.4,242.4 273.7,242.4
273.0,242.4 272.3,242.4 271.6,242.4 270.9,242.4 270.2,242.4 269.5,242.4 268.8,242.4 268.1,242.4 267.5,242.4 266.8,242.4 266.1,242.4 265.4,242.4 264.7,242.4 264.0,242.4 263.3,242.4 262.6,242.4
261.9,242.4 261.2,242.4 260.5,242.4 259.9,242.4 259.2,242.4 258.5,242.4 257.8,242.4 257.1,242.4 256.4,242.4 255.7,242.4 255.0,242.4 254.3,242.4 253.6,242.4 252.9,242.4 252.3,242.4 251.6,242.4
250.9,242.4 250.2,242.4 249.5,242.4 248.8,242.4 248.1,242.4 247.4,242.4 246.7,242.4 246.0,242.4 245.3,242.4 244.7,242.4 244.0,242.4 243.3,242.4 242.6,242.4 241.9,242.4 241.2,242.4 240.5,242.4
239.8,242.4 239.1,242.4 238.4,242.4 237.7,242.4 237.1,242.4 236.4,242.4 235.7,242.4 235.0,242.4 234.3,242.4 233.6,242.4 232.9,242.4 232.2,242.4 231.5,242.4 230.8,242.4 230.1,242.4 229.5,242.4
228.8,242.4 228.1,242.4 227.4,242.4 226.7,242.4 226.0,242.4 225.3,242.4 224.6,242.4 223.9,242.4 223.2,242.4 222.5,242.4 221.9,242.4 221.2,242.4 220.5,242.4 219.8,242.4 219.1,242.4 218.4,242.4
217.7,242.4 217.0,242.4 216.3,242.4 215.6,242.4 214.9,242.4 214.3,242.4 213.6,242.4 212.9,242.4 212.2,242.4 211.5,242.4 210.8,242.4 210.1,242.4 209.4,242.4 208.7,242.4 208.0,242.4 207.3,242.4
206.6,242.4 206.0,242.4 205.3,242.4 204.6,242.4 203.9,242.4 203.2,242.4 202.5,242.4 201.8,242.4 201.1,242.4 200.4,242.4 199.7,242.4 199.0,242.4 198.4,242.4 197.7,242.4 197.0,242.4 196.3,242.4
195.6,242.4 194.9,242.4 194.2,242.4 193.5,242.4 192.8,242.4 192.1,242.4 191.4,242.4 190.8,242.4 190.1,242.4 189.4,242.4 188.7,242.4 188.0,242.4 187.3,242.4 186.6,242.4 185.9,242.4 185.2,242.4
184.5,242.4 183.8,242.4 183.2,242.4 182.5,242.4 181.8,242.4 181.1,242.4 180.4,242.4 179.7,242.4 179.0,242.4 178.3,242.4 177.6,242.4 176.9,242.4 176.2,242.4 175.6,242.4 174.9,242.4 174.2,242.4
173.5,242.4 172.8,242.4 172.1,242.4 171.4,242.4 170.7,242.4 170.0,242.4 169.3,242.4 168.6,242.4 168.0,242.4 167.3,242.4 166.6,242.4 165.9,242.4 165.2,242.4 164.5,242.4 163.8,242.4 163.1,242.4
162.4,242.4 161.7,242.4 161.0,242.4 160.4,242.4 159.7,242.4 159.0,242.4 158.3,242.4 157.6,242.4 156.9,242.4 156.2,242.4 155.5,242.4 154.8,242.4 154.1,242.4 153.4,242.4 152.8,242.4 152.1,242.4
151.4,242.4 150.7,242.4 150.0,242.4 149.3,242.4 148.6,242.4 147.9,242.4 147.2,242.4 146.5,242.4 145.8,242.4 145.2,242.4 144.5,242.4 143.8,242.4 143.1,242.4 142.4,242.4 141.7,242.4 141.0,242.4
140.3,242.4 139.6,242.4 138.9,242.4 138.2,242.4 137.6,242.4 136.9,242.4 136.2,242.4 135.5,242.4 134.8,242.4 134.1,242.4 133.4,242.4 132.7,242.4 132.0,242.4 131.3,242.4 130.6,242.4 130.0,242.4
129.3,242.4 128.6,242.4 127.9,242.4 127.2,242.4 126.5,242.4 125.8,242.4 125.1,242.4 124.4,242.4 123.7,242.4 123.0,242.4 122.3,242.4 121.7,242.4 121.0,242.4 120.3,242.4 119.6,242.4 118.9,242.4
118.2,242.4 117.5,242.4 116.8,242.4 116.1,242.4 115.4,242.4 114.7,242.4 114.1,242.4 113.4,242.4 112.7,242.4 112.0,242.4 111.3,242.4 110.6,242.4 109.9,242.4 109.2,242.4 108.5,242.4 107.8,242.4
107.1,242.4 106.5,242.4 105.8,242.4 105.1,242.4 104.4,242.4 103.7,242.4 103.0,242.4 102.3,242.4 101.6,242.4 100.9,242.4 100.2,242.4 99.5,242.4 98.9,242.4 98.2,242.4 97.5,242.4 96.8,242.4
96.1,242.4 95.4,242.4 94.7,242.4 94.0,242.4 93.3,242.4 92.6,242.4 91.9,242.4 91.3,242.4 90.6,242.4 89.9,242.4 89.2,242.4 88.5,242.4 87.8,242.4 87.1,242.4 86.4,242.4 85.7,242.4
85.0,242.4 84.3,242.4 83.7,242.4 83.0,242.4 82.3,242.4 81.6,242.4 80.9,242.4 80.2,242.4 '/>
	</g>
</g>
	</g>
	<g id="gnuplot_plot_2" ><title>Mean</title>
<g fill="none" color="white" stroke="rgb( 31, 120, 180)" stroke-width="2.00" stroke-linecap="butt" stroke-linejoin="miter">
</g>
<g fill="none" color="black" stroke="currentColor" stroke-width="2.00" stroke-linecap="butt" stroke-linejoin="miter">
	<path stroke='rgb( 31, 120, 180)'  d='M157.4,242.4 L157.4,85.3  '/></g>
	</g>
<g fill="none" color="black" stroke="currentColor" stroke-width="2.00" stroke-linecap="butt" stroke-linejoin="miter">
</g>
<g fill="none" color="black" stroke="black" stroke-width="1.00" stroke-linecap="butt" stroke-linejoin="miter">
</g>
<g fill="none" color="black" stroke="currentColor" stroke-width="1.00" stroke-linecap="butt" stroke-linejoin="miter">
	<path stroke='black'  d='M80.2,18.1 L80.2,242.4 L425.0,242.4 L425.0,18.1 L80.2,18.1 Z  '/></g>
<g fill="none" color="black" stroke="currentColor" stroke-width="1.00" stroke-linecap="butt" stroke-linejoin="miter">
</g>
</g>
</svg>

