<?xml version="1.0" encoding="utf-8"  standalone="no"?>
<svg 
 viewBox="0 0 1280 720"
 xmlns="http://www.w3.org/2000/svg"
 xmlns:xlink="http://www.w3.org/1999/xlink"
>

<title>Gnuplot</title>
<desc>Produced by GNUPLOT 5.2 patchlevel 6 </desc>

<g id="gnuplot_canvas">

<rect x="0" y="0" width="1280" height="720" fill="none"/>
<defs>

	<circle id='gpDot' r='0.5' stroke-width='0.5' stroke='currentColor'/>
	<path id='gpPt0' stroke-width='0.222' stroke='currentColor' d='M-1,0 h2 M0,-1 v2'/>
	<path id='gpPt1' stroke-width='0.222' stroke='currentColor' d='M-1,-1 L1,1 M1,-1 L-1,1'/>
	<path id='gpPt2' stroke-width='0.222' stroke='currentColor' d='M-1,0 L1,0 M0,-1 L0,1 M-1,-1 L1,1 M-1,1 L1,-1'/>
	<rect id='gpPt3' stroke-width='0.222' stroke='currentColor' x='-1' y='-1' width='2' height='2'/>
	<rect id='gpPt4' stroke-width='0.222' stroke='currentColor' fill='currentColor' x='-1' y='-1' width='2' height='2'/>
	<circle id='gpPt5' stroke-width='0.222' stroke='currentColor' cx='0' cy='0' r='1'/>
	<use xlink:href='#gpPt5' id='gpPt6' fill='currentColor' stroke='none'/>
	<path id='gpPt7' stroke-width='0.222' stroke='currentColor' d='M0,-1.33 L-1.33,0.67 L1.33,0.67 z'/>
	<use xlink:href='#gpPt7' id='gpPt8' fill='currentColor' stroke='none'/>
	<use xlink:href='#gpPt7' id='gpPt9' stroke='currentColor' transform='rotate(180)'/>
	<use xlink:href='#gpPt9' id='gpPt10' fill='currentColor' stroke='none'/>
	<use xlink:href='#gpPt3' id='gpPt11' stroke='currentColor' transform='rotate(45)'/>
	<use xlink:href='#gpPt11' id='gpPt12' fill='currentColor' stroke='none'/>
	<path id='gpPt13' stroke-width='0.222' stroke='currentColor' d='M0,1.330 L1.265,0.411 L0.782,-1.067 L-0.782,-1.076 L-1.265,0.411 z'/>
	<use xlink:href='#gpPt13' id='gpPt14' fill='currentColor' stroke='none'/>
	<filter id='textbox' filterUnits='objectBoundingBox' x='0' y='0' height='1' width='1'>
	  <feFlood flood-color='white' flood-opacity='1' result='bgnd'/>
	  <feComposite in='SourceGraphic' in2='bgnd' operator='atop'/>
	</filter>
	<filter id='greybox' filterUnits='objectBoundingBox' x='0' y='0' height='1' width='1'>
	  <feFlood flood-color='lightgrey' flood-opacity='1' result='grey'/>
	  <feComposite in='SourceGraphic' in2='grey' operator='atop'/>
	</filter>
</defs>
<g fill="none" color="white" stroke="currentColor" stroke-width="1.00" stroke-linecap="butt" stroke-linejoin="miter">
</g>
<g fill="none" color="black" stroke="currentColor" stroke-width="1.00" stroke-linecap="butt" stroke-linejoin="miter">
	<path stroke='black'  d='M80.2,662.4 L89.2,662.4  '/>	<g transform="translate(71.9,666.3)" stroke="none" fill="black" font-family="Helvetica" font-size="12.00"  text-anchor="end">
		<text><tspan font-family="Helvetica" > 0</tspan></text>
	</g>
</g>
<g fill="none" color="black" stroke="currentColor" stroke-width="1.00" stroke-linecap="butt" stroke-linejoin="miter">
	<path stroke='black'  d='M80.2,586.4 L89.2,586.4  '/>	<g transform="translate(71.9,590.3)" stroke="none" fill="black" font-family="Helvetica" font-size="12.00"  text-anchor="end">
		<text><tspan font-family="Helvetica" > 0.02</tspan></text>
	</g>
</g>
<g fill="none" color="black" stroke="currentColor" stroke-width="1.00" stroke-linecap="butt" stroke-linejoin="miter">
	<path stroke='black'  d='M80.2,510.3 L89.2,510.3  '/>	<g transform="translate(71.9,514.2)" stroke="none" fill="black" font-family="Helvetica" font-size="12.00"  text-anchor="end">
		<text><tspan font-family="Helvetica" > 0.04</tspan></text>
	</g>
</g>
<g fill="none" color="black" stroke="currentColor" stroke-width="1.00" stroke-linecap="butt" stroke-linejoin="miter">
	<path stroke='black'  d='M80.2,434.3 L89.2,434.3  '/>	<g transform="translate(71.9,438.2)" stroke="none" fill="black" font-family="Helvetica" font-size="12.00"  text-anchor="end">
		<text><tspan font-family="Helvetica" > 0.06</tspan></text>
	</g>
</g>
<g fill="none" color="black" stroke="currentColor" stroke-width="1.00" stroke-linecap="butt" stroke-linejoin="miter">
	<path stroke='black'  d='M80.2,358.2 L89.2,358.2  '/>	<g transform="translate(71.9,362.1)" stroke="none" fill="black" font-family="Helvetica" font-size="12.00"  text-anchor="end">
		<text><tspan font-family="Helvetica" > 0.08</tspan></text>
	</g>
</g>
<g fill="none" color="black" stroke="currentColor" stroke-width="1.00" stroke-linecap="butt" stroke-linejoin="miter">
	<path stroke='black'  d='M80.2,282.2 L89.2,282.2  '/>	<g transform="translate(71.9,286.1)" stroke="none" fill="black" font-family="Helvetica" font-size="12.00"  text-anchor="end">
		<text><tspan font-family="Helvetica" > 0.1</tspan></text>
	</g>
</g>
<g fill="none" color="black" stroke="currentColor" stroke-width="1.00" stroke-linecap="butt" stroke-linejoin="miter">
	<path stroke='black'  d='M80.2,206.2 L89.2,206.2  '/>	<g transform="translate(71.9,210.1)" stroke="none" fill="black" font-family="Helvetica" font-size="12.00"  text-anchor="end">
		<text><tspan font-family="Helvetica" > 0.12</tspan></text>
	</g>
</g>
<g fill="none" color="black" stroke="currentColor" stroke-width="1.00" stroke-linecap="butt" stroke-linejoin="miter">
	<path stroke='black'  d='M80.2,130.1 L89.2,130.1  '/>	<g transform="translate(71.9,134.0)" stroke="none" fill="black" font-family="Helvetica" font-size="12.00"  text-anchor="end">
		<text><tspan font-family="Helvetica" > 0.14</tspan></text>
	</g>
</g>
<g fill="none" color="black" stroke="currentColor" stroke-width="1.00" stroke-linecap="butt" stroke-linejoin="miter">
	<path stroke='black'  d='M80.2,54.1 L89.2,54.1  '/>	<g transform="translate(71.9,58.0)" stroke="none" fill="black" font-family="Helvetica" font-size="12.00"  text-anchor="end">
		<text><tspan font-family="Helvetica" > 0.16</tspan></text>
	</g>
</g>
<g fill="none" color="black" stroke="currentColor" stroke-width="1.00" stroke-linecap="butt" stroke-linejoin="miter">
	<path stroke='black'  d='M161.1,662.4 L161.1,653.4  '/>	<g transform="translate(161.1,684.3)" stroke="none" fill="black" font-family="Helvetica" font-size="12.00"  text-anchor="middle">
		<text><tspan font-family="Helvetica" > 8</tspan></text>
	</g>
</g>
<g fill="none" color="black" stroke="currentColor" stroke-width="1.00" stroke-linecap="butt" stroke-linejoin="miter">
	<path stroke='black'  d='M307.9,662.4 L307.9,653.4  '/>	<g transform="translate(307.9,684.3)" stroke="none" fill="black" font-family="Helvetica" font-size="12.00"  text-anchor="middle">
		<text><tspan font-family="Helvetica" > 10</tspan></text>
	</g>
</g>
<g fill="none" color="black" stroke="currentColor" stroke-width="1.00" stroke-linecap="butt" stroke-linejoin="miter">
	<path stroke='black'  d='M454.6,662.4 L454.6,653.4  '/>	<g transform="translate(454.6,684.3)" stroke="none" fill="black" font-family="Helvetica" font-size="12.00"  text-anchor="middle">
		<text><tspan font-family="Helvetica" > 12</tspan></text>
	</g>
</g>
<g fill="none" color="black" stroke="currentColor" stroke-width="1.00" stroke-linecap="butt" stroke-linejoin="miter">
	<path stroke='black'  d='M601.4,662.4 L601.4,653.4  '/>	<g transform="translate(601.4,684.3)" stroke="none" fill="black" font-family="Helvetica" font-size="12.00"  text-anchor="middle">
		<text><tspan font-family="Helvetica" > 14</tspan></text>
	</g>
</g>
<g fill="none" color="black" stroke="currentColor" stroke-width="1.00" stroke-linecap="butt" stroke-linejoin="miter">
	<path stroke='black'  d='M748.2,662.4 L748.2,653.4  '/>	<g transform="translate(748.2,684.3)" stroke="none" fill="black" font-family="Helvetica" font-size="12.00"  text-anchor="middle">
		<text><tspan font-family="Helvetica" > 16</tspan></text>
	</g>
</g>
<g fill="none" color="black" stroke="currentColor" stroke-width="1.00" stroke-linecap="butt" stroke-linejoin="miter">
	<path stroke='black'  d='M894.9,662.4 L894.9,653.4  '/>	<g transform="translate(894.9,684.3)" stroke="none" fill="black" font-family="Helvetica" font-size="12.00"  text-anchor="middle">
		<text><tspan font-family="Helvetica" > 18</tspan></text>
	</g>
</g>
<g fill="none" color="black" stroke="currentColor" stroke-width="1.00" stroke-linecap="butt" stroke-linejoin="miter">
</g>
<g fill="none" color="black" stroke="currentColor" stroke-width="1.00" stroke-linecap="butt" stroke-linejoin="miter">
	<path stroke='black'  d='M80.2,54.1 L80.2,662.4 L1013.6,662.4 L1013.6,54.1 L80.2,54.1 Z  '/></g>
<g fill="none" color="black" stroke="currentColor" stroke-width="1.00" stroke-linecap="butt" stroke-linejoin="miter">
	<g transform="translate(16.3,358.3) rotate(270)" stroke="none" fill="black" font-family="Helvetica" font-size="12.00"  text-anchor="middle">
		<text><tspan font-family="Helvetica" >Density (a.u.)</tspan></text>
	</g>
</g>
<g fill="none" color="black" stroke="currentColor" stroke-width="1.00" stroke-linecap="butt" stroke-linejoin="miter">
	<g transform="translate(546.9,711.3)" stroke="none" fill="black" font-family="Helvetica" font-size="12.00"  text-anchor="middle">
		<text><tspan font-family="Helvetica" >Average time (us)</tspan></text>
	</g>
</g>
<g fill="none" color="black" stroke="currentColor" stroke-width="1.00" stroke-linecap="butt" stroke-linejoin="miter">
	<g transform="translate(546.9,31.0)" stroke="none" fill="black" font-family="Helvetica" font-size="12.00"  text-anchor="middle">
		<text><tspan font-family="Helvetica" >snapshot_restore_with_dense/Sparse: Dirty pages + process_vm_writev/463: SD</tspan></text>
	</g>
</g>
	<g id="gnuplot_plot_1" ><title>Bootstrap distribution</title>
<g fill="none" color="white" stroke="black" stroke-width="2.00" stroke-linecap="butt" stroke-linejoin="miter">
</g>
<g fill="none" color="black" stroke="currentColor" stroke-width="2.00" stroke-linecap="butt" stroke-linejoin="miter">
	<g transform="translate(1089.0,67.0)" stroke="none" fill="black" font-family="Helvetica" font-size="12.00"  text-anchor="start">
		<text><tspan font-family="Helvetica" >Bootstrap distribution</tspan></text>
	</g>
</g>
<g fill="none" color="black" stroke="currentColor" stroke-width="2.00" stroke-linecap="butt" stroke-linejoin="miter">
	<path stroke='rgb( 31, 120, 180)'  d='M1038.5,63.1 L1080.7,63.1 M80.2,629.3 L82.1,628.6 L83.9,627.9 L85.8,627.3 L87.7,626.6 L89.6,625.9
		L91.4,625.2 L93.3,624.5 L95.2,623.7 L97.0,623.0 L98.9,622.3 L100.8,621.6 L102.6,620.8 L104.5,620.1
		L106.4,619.4 L108.3,618.6 L110.1,617.8 L112.0,617.1 L113.9,616.3 L115.7,615.5 L117.6,614.7 L119.5,613.9
		L121.4,613.1 L123.2,612.2 L125.1,611.4 L127.0,610.5 L128.8,609.6 L130.7,608.7 L132.6,607.8 L134.4,606.8
		L136.3,605.9 L138.2,604.9 L140.1,603.9 L141.9,602.8 L143.8,601.8 L145.7,600.7 L147.5,599.6 L149.4,598.5
		L151.3,597.4 L153.2,596.2 L155.0,595.1 L156.9,593.9 L158.8,592.7 L160.6,591.5 L162.5,590.2 L164.4,588.9
		L166.2,587.7 L168.1,586.4 L170.0,585.0 L171.9,583.7 L173.7,582.3 L175.6,580.9 L177.5,579.5 L179.3,578.1
		L181.2,576.6 L183.1,575.1 L185.0,573.6 L186.8,572.0 L188.7,570.5 L190.6,568.9 L192.4,567.2 L194.3,565.6
		L196.2,564.0 L198.0,562.3 L199.9,560.6 L201.8,558.9 L203.7,557.2 L205.5,555.5 L207.4,553.8 L209.3,552.0
		L211.1,550.3 L213.0,548.5 L214.9,546.8 L216.7,545.0 L218.6,543.2 L220.5,541.4 L222.4,539.6 L224.2,537.8
		L226.1,536.0 L228.0,534.1 L229.8,532.2 L231.7,530.3 L233.6,528.4 L235.5,526.5 L237.3,524.5 L239.2,522.5
		L241.1,520.5 L242.9,518.5 L244.8,516.4 L246.7,514.4 L248.5,512.3 L250.4,510.2 L252.3,508.1 L254.2,505.9
		L256.0,503.8 L257.9,501.6 L259.8,499.4 L261.6,497.3 L263.5,495.1 L265.4,492.9 L267.3,490.7 L269.1,488.5
		L271.0,486.3 L272.9,484.0 L274.7,481.8 L276.6,479.5 L278.5,477.3 L280.3,475.0 L282.2,472.7 L284.1,470.3
		L286.0,468.0 L287.8,465.6 L289.7,463.1 L291.6,460.7 L293.4,458.2 L295.3,455.7 L297.2,453.2 L299.1,450.6
		L300.9,448.0 L302.8,445.5 L304.7,442.9 L306.5,440.2 L308.4,437.6 L310.3,435.0 L312.1,432.4 L314.0,429.8
		L315.9,427.2 L317.8,424.5 L319.6,421.9 L321.5,419.3 L323.4,416.7 L325.2,414.1 L327.1,411.4 L329.0,408.8
		L330.9,406.1 L332.7,403.4 L334.6,400.7 L336.5,398.0 L338.3,395.2 L340.2,392.4 L342.1,389.6 L343.9,386.7
		L345.8,383.8 L347.7,380.9 L349.6,377.9 L351.4,374.8 L353.3,371.7 L355.2,368.6 L357.0,365.5 L358.9,362.3
		L360.8,359.0 L362.7,355.8 L364.5,352.5 L366.4,349.1 L368.3,345.8 L370.1,342.4 L372.0,339.0 L373.9,335.6
		L375.7,332.1 L377.6,328.7 L379.5,325.2 L381.4,321.7 L383.2,318.2 L385.1,314.7 L387.0,311.2 L388.8,307.7
		L390.7,304.3 L392.6,300.8 L394.5,297.3 L396.3,293.8 L398.2,290.4 L400.1,287.0 L401.9,283.6 L403.8,280.3
		L405.7,277.0 L407.5,273.8 L409.4,270.5 L411.3,267.4 L413.2,264.3 L415.0,261.2 L416.9,258.2 L418.8,255.2
		L420.6,252.3 L422.5,249.4 L424.4,246.6 L426.3,243.8 L428.1,241.0 L430.0,238.2 L431.9,235.4 L433.7,232.7
		L435.6,229.9 L437.5,227.2 L439.3,224.5 L441.2,221.7 L443.1,219.0 L445.0,216.2 L446.8,213.5 L448.7,210.7
		L450.6,207.9 L452.4,205.2 L454.3,202.4 L456.2,199.7 L458.0,196.9 L459.9,194.2 L461.8,191.5 L463.7,188.8
		L465.5,186.2 L467.4,183.5 L469.3,180.9 L471.1,178.4 L473.0,175.8 L474.9,173.3 L476.8,170.9 L478.6,168.4
		L480.5,166.0 L482.4,163.6 L484.2,161.3 L486.1,158.9 L488.0,156.6 L489.8,154.4 L491.7,152.1 L493.6,149.9
		L495.5,147.6 L497.3,145.4 L499.2,143.2 L501.1,141.1 L502.9,138.9 L504.8,136.8 L506.7,134.7 L508.6,132.6
		L510.4,130.5 L512.3,128.4 L514.2,126.4 L516.0,124.4 L517.9,122.4 L519.8,120.5 L521.6,118.6 L523.5,116.8
		L525.4,115.0 L527.3,113.2 L529.1,111.6 L531.0,109.9 L532.9,108.4 L534.7,106.9 L536.6,105.5 L538.5,104.1
		L540.4,102.8 L542.2,101.6 L544.1,100.5 L546.0,99.5 L547.8,98.5 L549.7,97.6 L551.6,96.8 L553.4,96.1
		L555.3,95.4 L557.2,94.9 L559.1,94.4 L560.9,93.9 L562.8,93.6 L564.7,93.3 L566.5,93.0 L568.4,92.8
		L570.3,92.7 L572.2,92.6 L574.0,92.6 L575.9,92.6 L577.8,92.6 L579.6,92.7 L581.5,92.8 L583.4,92.9
		L585.2,93.1 L587.1,93.3 L589.0,93.5 L590.9,93.8 L592.7,94.0 L594.6,94.3 L596.5,94.6 L598.3,95.0
		L600.2,95.4 L602.1,95.8 L604.0,96.2 L605.8,96.7 L607.7,97.2 L609.6,97.7 L611.4,98.3 L613.3,98.9
		L615.2,99.6 L617.0,100.3 L618.9,101.0 L620.8,101.8 L622.7,102.6 L624.5,103.4 L626.4,104.3 L628.3,105.2
		L630.1,106.2 L632.0,107.2 L633.9,108.2 L635.8,109.3 L637.6,110.4 L639.5,111.5 L641.4,112.7 L643.2,113.9
		L645.1,115.1 L647.0,116.4 L648.8,117.7 L650.7,119.1 L652.6,120.5 L654.5,122.0 L656.3,123.5 L658.2,125.2
		L660.1,126.9 L661.9,128.7 L663.8,130.6 L665.7,132.6 L667.5,134.8 L669.4,137.0 L671.3,139.4 L673.2,141.8
		L675.0,144.4 L676.9,147.1 L678.8,149.9 L680.6,152.8 L682.5,155.7 L684.4,158.8 L686.3,161.9 L688.1,165.1
		L690.0,168.3 L691.9,171.6 L693.7,174.9 L695.6,178.2 L697.5,181.5 L699.3,184.8 L701.2,188.1 L703.1,191.3
		L705.0,194.6 L706.8,197.8 L708.7,201.0 L710.6,204.2 L712.4,207.3 L714.3,210.4 L716.2,213.5 L718.1,216.6
		L719.9,219.7 L721.8,222.7 L723.7,225.7 L725.5,228.8 L727.4,231.8 L729.3,234.9 L731.1,237.9 L733.0,241.0
		L734.9,244.1 L736.8,247.2 L738.6,250.3 L740.5,253.5 L742.4,256.6 L744.2,259.8 L746.1,263.0 L748.0,266.2
		L749.9,269.4 L751.7,272.7 L753.6,275.9 L755.5,279.2 L757.3,282.4 L759.2,285.7 L761.1,289.0 L762.9,292.3
		L764.8,295.6 L766.7,299.0 L768.6,302.4 L770.4,305.7 L772.3,309.2 L774.2,312.6 L776.0,316.2 L777.9,319.7
		L779.8,323.3 L781.7,327.0 L783.5,330.7 L785.4,334.5 L787.3,338.4 L789.1,342.3 L791.0,346.2 L792.9,350.2
		L794.7,354.3 L796.6,358.3 L798.5,362.4 L800.4,366.6 L802.2,370.7 L804.1,374.8 L806.0,378.9 L807.8,383.0
		L809.7,387.0 L811.6,391.0 L813.5,394.9 L815.3,398.8 L817.2,402.6 L819.1,406.3 L820.9,409.9 L822.8,413.5
		L824.7,417.0 L826.5,420.4 L828.4,423.7 L830.3,427.0 L832.2,430.2 L834.0,433.4 L835.9,436.5 L837.8,439.5
		L839.6,442.5 L841.5,445.5 L843.4,448.5 L845.3,451.5 L847.1,454.5 L849.0,457.4 L850.9,460.4 L852.7,463.3
		L854.6,466.3 L856.5,469.2 L858.3,472.2 L860.2,475.1 L862.1,478.1 L864.0,481.0 L865.8,484.0 L867.7,486.9
		L869.6,489.8 L871.4,492.8 L873.3,495.7 L875.2,498.6 L877.1,501.4 L878.9,504.3 L880.8,507.1 L882.7,509.9
		L884.5,512.7 L886.4,515.5 L888.3,518.2 L890.1,520.9 L892.0,523.5 L893.9,526.1 L895.8,528.7 L897.6,531.3
		L899.5,533.7 L901.4,536.2 L903.2,538.6 L905.1,541.0 L907.0,543.3 L908.8,545.6 L910.7,547.8 L912.6,550.0
		L914.5,552.1 L916.3,554.2 L918.2,556.2 L920.1,558.2 L921.9,560.1 L923.8,562.0 L925.7,563.9 L927.6,565.7
		L929.4,567.5 L931.3,569.3 L933.2,571.0 L935.0,572.7 L936.9,574.4 L938.8,576.0 L940.6,577.7 L942.5,579.3
		L944.4,580.8 L946.3,582.4 L948.1,583.9 L950.0,585.5 L951.9,587.0 L953.7,588.5 L955.6,589.9 L957.5,591.4
		L959.4,592.9 L961.2,594.3 L963.1,595.8 L965.0,597.2 L966.8,598.7 L968.7,600.1 L970.6,601.5 L972.4,602.9
		L974.3,604.3 L976.2,605.7 L978.1,607.1 L979.9,608.5 L981.8,609.9 L983.7,611.2 L985.5,612.6 L987.4,613.9
		L989.3,615.2 L991.2,616.5 L993.0,617.8 L994.9,619.0 L996.8,620.2 L998.6,621.4 L1000.5,622.6 L1002.4,623.7
		L1004.2,624.8 L1006.1,625.9 L1008.0,626.9 L1009.9,627.9 L1011.7,628.9 L1013.6,629.8  '/></g>
	</g>
	<g id="gnuplot_plot_2" ><title>Confidence interval</title>
<g fill="none" color="white" stroke="rgb( 31, 120, 180)" stroke-width="1.00" stroke-linecap="butt" stroke-linejoin="miter">
</g>
<g fill="none" color="black" stroke="currentColor" stroke-width="1.00" stroke-linecap="butt" stroke-linejoin="miter">
	<g transform="translate(1089.0,85.0)" stroke="none" fill="black" font-family="Helvetica" font-size="12.00"  text-anchor="start">
		<text><tspan font-family="Helvetica" >Confidence interval</tspan></text>
	</g>
</g>
<g fill="none" color="black" stroke="currentColor" stroke-width="1.00" stroke-linecap="butt" stroke-linejoin="miter">
	<g stroke='none' shape-rendering='crispEdges'>
		<polygon fill = 'rgb( 31, 120, 180)' fill-opacity = '0.250000' points = '1038.5,85.6 1080.7,85.6 1080.7,76.6 1038.5,76.6 '/>
		<polygon fill = 'rgb( 31, 120, 180)' fill-opacity = '0.250000' points = '166.2,587.7 168.1,586.4 170.0,585.0 171.9,583.7 173.7,582.3 175.6,580.9 177.5,579.5 179.3,578.1 181.2,576.6 183.1,575.1 185.0,573.6 186.8,572.0 188.7,570.5 190.6,568.9 192.4,567.2 194.3,565.6
196.2,564.0 198.0,562.3 199.9,560.6 201.8,558.9 203.7,557.2 205.5,555.5 207.4,553.8 209.3,552.0 211.1,550.3 213.0,548.5 214.9,546.8 216.7,545.0 218.6,543.2 220.5,541.4 222.4,539.6 224.2,537.8
226.1,536.0 228.0,534.1 229.8,532.2 231.7,530.3 233.6,528.4 235.5,526.5 237.3,524.5 239.2,522.5 241.1,520.5 242.9,518.5 244.8,516.4 246.7,514.4 248.5,512.3 250.4,510.2 252.3,508.1 254.2,505.9
256.0,503.8 257.9,501.6 259.8,499.4 261.6,497.3 263.5,495.1 265.4,492.9 267.3,490.7 269.1,488.5 271.0,486.3 272.9,484.0 274.7,481.8 276.6,479.5 278.5,477.3 280.3,475.0 282.2,472.7 284.1,470.3
286.0,468.0 287.8,465.6 289.7,463.1 291.6,460.7 293.4,458.2 295.3,455.7 297.2,453.2 299.1,450.6 300.9,448.0 302.8,445.5 304.7,442.9 306.5,440.2 308.4,437.6 310.3,435.0 312.1,432.4 314.0,429.8
315.9,427.2 317.8,424.5 319.6,421.9 321.5,419.3 323.4,416.7 325.2,414.1 327.1,411.4 329.0,408.8 330.9,406.1 332.7,403.4 334.6,400.7 336.5,398.0 338.3,395.2 340.2,392.4 342.1,389.6 343.9,386.7
345.8,383.8 347.7,380.9 349.6,377.9 351.4,374.8 353.3,371.7 355.2,368.6 357.0,365.5 358.9,362.3 360.8,359.0 362.7,355.8 364.5,352.5 366.4,349.1 368.3,345.8 370.1,342.4 372.0,339.0 373.9,335.6
375.7,332.1 377.6,328.7 379.5,325.2 381.4,321.7 383.2,318.2 385.1,314.7 387.0,311.2 388.8,307.7 390.7,304.3 392.6,300.8 394.5,297.3 396.3,293.8 398.2,290.4 400.1,287.0 401.9,283.6 403.8,280.3
405.7,277.0 407.5,273.8 409.4,270.5 411.3,267.4 413.2,264.3 415.0,261.2 416.9,258.2 418.8,255.2 420.6,252.3 422.5,249.4 424.4,246.6 426.3,243.8 428.1,241.0 430.0,238.2 431.9,235.4 433.7,232.7
435.6,229.9 437.5,227.2 439.3,224.5 441.2,221.7 443.1,219.0 445.0,216.2 446.8,213.5 448.7,210.7 450.6,207.9 452.4,205.2 454.3,202.4 456.2,199.7 458.0,196.9 459.9,194.2 461.8,191.5 463.7,188.8
465.5,186.2 467.4,183.5 469.3,180.9 471.1,178.4 473.0,175.8 474.9,173.3 476.8,170.9 478.6,168.4 480.5,166.0 482.4,163.6 484.2,161.3 486.1,158.9 488.0,156.6 489.8,154.4 491.7,152.1 493.6,149.9
495.5,147.6 497.3,145.4 499.2,143.2 501.1,141.1 502.9,138.9 504.8,136.8 506.7,134.7 508.6,132.6 510.4,130.5 512.3,128.4 514.2,126.4 516.0,124.4 517.9,122.4 519.8,120.5 521.6,118.6 523.5,116.8
525.4,115.0 527.3,113.2 529.1,111.6 531.0,109.9 532.9,108.4 534.7,106.9 536.6,105.5 538.5,104.1 540.4,102.8 542.2,101.6 544.1,100.5 546.0,99.5 547.8,98.5 549.7,97.6 551.6,96.8 553.4,96.1
555.3,95.4 557.2,94.9 559.1,94.4 560.9,93.9 562.8,93.6 564.7,93.3 566.5,93.0 568.4,92.8 570.3,92.7 572.2,92.6 574.0,92.6 575.9,92.6 577.8,92.6 579.6,92.7 581.5,92.8 583.4,92.9
585.2,93.1 587.1,93.3 589.0,93.5 590.9,93.8 592.7,94.0 594.6,94.3 596.5,94.6 598.3,95.0 600.2,95.4 602.1,95.8 604.0,96.2 605.8,96.7 607.7,97.2 609.6,97.7 611.4,98.3 613.3,98.9
615.2,99.6 617.0,100.3 618.9,101.0 620.8,101.8 622.7,102.6 624.5,103.4 626.4,104.3 628.3,105.2 630.1,106.2 632.0,107.2 633.9,108.2 635.8,109.3 637.6,110.4 639.5,111.5 641.4,112.7 643.2,113.9
645.1,115.1 647.0,116.4 648.8,117.7 650.7,119.1 652.6,120.5 654.5,122.0 656.3,123.5 658.2,125.2 660.1,126.9 661.9,128.7 663.8,130.6 665.7,132.6 667.5,134.8 669.4,137.0 671.3,139.4 673.2,141.8
675.0,144.4 676.9,147.1 678.8,149.9 680.6,152.8 682.5,155.7 684.4,158.8 686.3,161.9 688.1,165.1 690.0,168.3 691.9,171.6 693.7,174.9 695.6,178.2 697.5,181.5 699.3,184.8 701.2,188.1 703.1,191.3
705.0,194.6 706.8,197.8 708.7,201.0 710.6,204.2 712.4,207.3 714.3,210.4 716.2,213.5 718.1,216.6 719.9,219.7 721.8,222.7 723.7,225.7 725.5,228.8 727.4,231.8 729.3,234.9 731.1,237.9 733.0,241.0
734.9,244.1 736.8,247.2 738.6,250.3 740.5,253.5 742.4,256.6 744.2,259.8 746.1,263.0 748.0,266.2 749.9,269.4 751.7,272.7 753.6,275.9 755.5,279.2 757.3,282.4 759.2,285.7 761.1,289.0 762.9,292.3
764.8,295.6 766.7,299.0 768.6,302.4 770.4,305.7 772.3,309.2 774.2,312.6 776.0,316.2 777.9,319.7 779.8,323.3 781.7,327.0 783.5,330.7 785.4,334.5 787.3,338.4 789.1,342.3 791.0,346.2 792.9,350.2
794.7,354.3 796.6,358.3 798.5,362.4 800.4,366.6 802.2,370.7 804.1,374.8 806.0,378.9 807.8,383.0 809.7,387.0 811.6,391.0 813.5,394.9 815.3,398.8 817.2,402.6 819.1,406.3 820.9,409.9 822.8,413.5
824.7,417.0 826.5,420.4 828.4,423.7 830.3,427.0 832.2,430.2 834.0,433.4 835.9,436.5 837.8,439.5 839.6,442.5 841.5,445.5 843.4,448.5 845.3,451.5 847.1,454.5 849.0,457.4 850.9,460.4 852.7,463.3
854.6,466.3 856.5,469.2 858.3,472.2 860.2,475.1 862.1,478.1 864.0,481.0 865.8,484.0 867.7,486.9 869.6,489.8 871.4,492.8 873.3,495.7 875.2,498.6 877.1,501.4 878.9,504.3 880.8,507.1 882.7,509.9
884.5,512.7 886.4,515.5 888.3,518.2 890.1,520.9 892.0,523.5 893.9,526.1 895.8,528.7 897.6,531.3 899.5,533.7 901.4,536.2 903.2,538.6 905.1,541.0 907.0,543.3 908.8,545.6 910.7,547.8 912.6,550.0
914.5,552.1 916.3,554.2 918.2,556.2 920.1,558.2 921.9,560.1 923.8,562.0 925.7,563.9 925.7,662.4 923.8,662.4 921.9,662.4 920.1,662.4 918.2,662.4 916.3,662.4 914.5,662.4 912.6,662.4 910.7,662.4
908.8,662.4 907.0,662.4 905.1,662.4 903.2,662.4 901.4,662.4 899.5,662.4 897.6,662.4 895.8,662.4 893.9,662.4 892.0,662.4 890.1,662.4 888.3,662.4 886.4,662.4 884.5,662.4 882.7,662.4 880.8,662.4
878.9,662.4 877.1,662.4 875.2,662.4 873.3,662.4 871.4,662.4 869.6,662.4 867.7,662.4 865.8,662.4 864.0,662.4 862.1,662.4 860.2,662.4 858.3,662.4 856.5,662.4 854.6,662.4 852.7,662.4 850.9,662.4
849.0,662.4 847.1,662.4 845.3,662.4 843.4,662.4 841.5,662.4 839.6,662.4 837.8,662.4 835.9,662.4 834.0,662.4 832.2,662.4 830.3,662.4 828.4,662.4 826.5,662.4 824.7,662.4 822.8,662.4 820.9,662.4
819.1,662.4 817.2,662.4 815.3,662.4 813.5,662.4 811.6,662.4 809.7,662.4 807.8,662.4 806.0,662.4 804.1,662.4 802.2,662.4 800.4,662.4 798.5,662.4 796.6,662.4 794.7,662.4 792.9,662.4 791.0,662.4
789.1,662.4 787.3,662.4 785.4,662.4 783.5,662.4 781.7,662.4 779.8,662.4 777.9,662.4 776.0,662.4 774.2,662.4 772.3,662.4 770.4,662.4 768.6,662.4 766.7,662.4 764.8,662.4 762.9,662.4 761.1,662.4
759.2,662.4 757.3,662.4 755.5,662.4 753.6,662.4 751.7,662.4 749.9,662.4 748.0,662.4 746.1,662.4 744.2,662.4 742.4,662.4 740.5,662.4 738.6,662.4 736.8,662.4 734.9,662.4 733.0,662.4 731.1,662.4
729.3,662.4 727.4,662.4 725.5,662.4 723.7,662.4 721.8,662.4 719.9,662.4 718.1,662.4 716.2,662.4 714.3,662.4 712.4,662.4 710.6,662.4 708.7,662.4 706.8,662.4 705.0,662.4 703.1,662.4 701.2,662.4
699.3,662.4 697.5,662.4 695.6,662.4 693.7,662.4 691.9,662.4 690.0,662.4 688.1,662.4 686.3,662.4 684.4,662.4 682.5,662.4 680.6,662.4 678.8,662.4 676.9,662.4 675.0,662.4 673.2,662.4 671.3,662.4
669.4,662.4 667.5,662.4 665.7,662.4 663.8,662.4 661.9,662.4 660.1,662.4 658.2,662.4 656.3,662.4 654.5,662.4 652.6,662.4 650.7,662.4 648.8,662.4 647.0,662.4 645.1,662.4 643.2,662.4 641.4,662.4
639.5,662.4 637.6,662.4 635.8,662.4 633.9,662.4 632.0,662.4 630.1,662.4 628.3,662.4 626.4,662.4 624.5,662.4 622.7,662.4 620.8,662.4 618.9,662.4 617.0,662.4 615.2,662.4 613.3,662.4 611.4,662.4
609.6,662.4 607.7,662.4 605.8,662.4 604.0,662.4 602.1,662.4 600.2,662.4 598.3,662.4 596.5,662.4 594.6,662.4 592.7,662.4 590.9,662.4 589.0,662.4 587.1,662.4 585.2,662.4 583.4,662.4 581.5,662.4
579.6,662.4 577.8,662.4 575.9,662.4 574.0,662.4 572.2,662.4 570.3,662.4 568.4,662.4 566.5,662.4 564.7,662.4 562.8,662.4 560.9,662.4 559.1,662.4 557.2,662.4 555.3,662.4 553.4,662.4 551.6,662.4
549.7,662.4 547.8,662.4 546.0,662.4 544.1,662.4 542.2,662.4 540.4,662.4 538.5,662.4 536.6,662.4 534.7,662.4 532.9,662.4 531.0,662.4 529.1,662.4 527.3,662.4 525.4,662.4 523.5,662.4 521.6,662.4
519.8,662.4 517.9,662.4 516.0,662.4 514.2,662.4 512.3,662.4 510.4,662.4 508.6,662.4 506.7,662.4 504.8,662.4 502.9,662.4 501.1,662.4 499.2,662.4 497.3,662.4 495.5,662.4 493.6,662.4 491.7,662.4
489.8,662.4 488.0,662.4 486.1,662.4 484.2,662.4 482.4,662.4 480.5,662.4 478.6,662.4 476.8,662.4 474.9,662.4 473.0,662.4 471.1,662.4 469.3,662.4 467.4,662.4 465.5,662.4 463.7,662.4 461.8,662.4
459.9,662.4 458.0,662.4 456.2,662.4 454.3,662.4 452.4,662.4 450.6,662.4 448.7,662.4 446.8,662.4 445.0,662.4 443.1,662.4 441.2,662.4 439.3,662.4 437.5,662.4 435.6,662.4 433.7,662.4 431.9,662.4
430.0,662.4 428.1,662.4 426.3,662.4 424.4,662.4 422.5,662.4 420.6,662.4 418.8,662.4 416.9,662.4 415.0,662.4 413.2,662.4 411.3,662.4 409.4,662.4 407.5,662.4 405.7,662.4 403.8,662.4 401.9,662.4
400.1,662.4 398.2,662.4 396.3,662.4 394.5,662.4 392.6,662.4 390.7,662.4 388.8,662.4 387.0,662.4 385.1,662.4 383.2,662.4 381.4,662.4 379.5,662.4 377.6,662.4 375.7,662.4 373.9,662.4 372.0,662.4
370.1,662.4 368.3,662.4 366.4,662.4 364.5,662.4 362.7,662.4 360.8,662.4 358.9,662.4 357.0,662.4 355.2,662.4 353.3,662.4 351.4,662.4 349.6,662.4 347.7,662.4 345.8,662.4 343.9,662.4 342.1,662.4
340.2,662.4 338.3,662.4 336.5,662.4 334.6,662.4 332.7,662.4 330.9,662.4 329.0,662.4 327.1,662.4 325.2,662.4 323.4,662.4 321.5,662.4 319.6,662.4 317.8,662.4 315.9,662.4 314.0,662.4 312.1,662.4
310.3,662.4 308.4,662.4 306.5,662.4 304.7,662.4 302.8,662.4 300.9,662.4 299.1,662.4 297.2,662.4 295.3,662.4 293.4,662.4 291.6,662.4 289.7,662.4 287.8,662.4 286.0,662.4 284.1,662.4 282.2,662.4
280.3,662.4 278.5,662.4 276.6,662.4 274.7,662.4 272.9,662.4 271.0,662.4 269.1,662.4 267.3,662.4 265.4,662.4 263.5,662.4 261.6,662.4 259.8,662.4 257.9,662.4 256.0,662.4 254.2,662.4 252.3,662.4
250.4,662.4 248.5,662.4 246.7,662.4 244.8,662.4 242.9,662.4 241.1,662.4 239.2,662.4 237.3,662.4 235.5,662.4 233.6,662.4 231.7,662.4 229.8,662.4 228.0,662.4 226.1,662.4 224.2,662.4 222.4,662.4
220.5,662.4 218.6,662.4 216.7,662.4 214.9,662.4 213.0,662.4 211.1,662.4 209.3,662.4 207.4,662.4 205.5,662.4 203.7,662.4 201.8,662.4 199.9,662.4 198.0,662.4 196.2,662.4 194.3,662.4 192.4,662.4
190.6,662.4 188.7,662.4 186.8,662.4 185.0,662.4 183.1,662.4 181.2,662.4 179.3,662.4 177.5,662.4 175.6,662.4 173.7,662.4 171.9,662.4 170.0,662.4 168.1,662.4 166.2,662.4 '/>
	</g>
</g>
	</g>
	<g id="gnuplot_plot_3" ><title>Point estimate</title>
<g fill="none" color="white" stroke="rgb( 31, 120, 180)" stroke-width="2.00" stroke-linecap="butt" stroke-linejoin="miter">
</g>
<g fill="none" color="black" stroke="currentColor" stroke-width="2.00" stroke-linecap="butt" stroke-linejoin="miter">
	<g transform="translate(1089.0,103.0)" stroke="none" fill="black" font-family="Helvetica" font-size="12.00"  text-anchor="start">
		<text><tspan font-family="Helvetica" >Point estimate</tspan></text>
	</g>
</g>
<g fill="none" color="black" stroke="currentColor" stroke-width="2.00" stroke-linecap="butt" stroke-linejoin="miter">
	<path stroke='rgb( 31, 120, 180)'  d='M1038.5,99.1 L1080.7,99.1 M589.4,662.4 L589.4,93.6  '/></g>
	</g>
<g fill="none" color="black" stroke="currentColor" stroke-width="2.00" stroke-linecap="butt" stroke-linejoin="miter">
</g>
<g fill="none" color="black" stroke="black" stroke-width="1.00" stroke-linecap="butt" stroke-linejoin="miter">
</g>
<g fill="none" color="black" stroke="currentColor" stroke-width="1.00" stroke-linecap="butt" stroke-linejoin="miter">
	<path stroke='black'  d='M80.2,54.1 L80.2,662.4 L1013.6,662.4 L1013.6,54.1 L80.2,54.1 Z  '/></g>
<g fill="none" color="black" stroke="currentColor" stroke-width="1.00" stroke-linecap="butt" stroke-linejoin="miter">
</g>
</g>
</svg>

