<?xml version="1.0" encoding="utf-8"  standalone="no"?>
<svg 
 viewBox="0 0 1280 720"
 xmlns="http://www.w3.org/2000/svg"
 xmlns:xlink="http://www.w3.org/1999/xlink"
>

<title>Gnuplot</title>
<desc>Produced by GNUPLOT 5.2 patchlevel 6 </desc>

<g id="gnuplot_canvas">

<rect x="0" y="0" width="1280" height="720" fill="none"/>
<defs>

	<circle id='gpDot' r='0.5' stroke-width='0.5' stroke='currentColor'/>
	<path id='gpPt0' stroke-width='0.222' stroke='currentColor' d='M-1,0 h2 M0,-1 v2'/>
	<path id='gpPt1' stroke-width='0.222' stroke='currentColor' d='M-1,-1 L1,1 M1,-1 L-1,1'/>
	<path id='gpPt2' stroke-width='0.222' stroke='currentColor' d='M-1,0 L1,0 M0,-1 L0,1 M-1,-1 L1,1 M-1,1 L1,-1'/>
	<rect id='gpPt3' stroke-width='0.222' stroke='currentColor' x='-1' y='-1' width='2' height='2'/>
	<rect id='gpPt4' stroke-width='0.222' stroke='currentColor' fill='currentColor' x='-1' y='-1' width='2' height='2'/>
	<circle id='gpPt5' stroke-width='0.222' stroke='currentColor' cx='0' cy='0' r='1'/>
	<use xlink:href='#gpPt5' id='gpPt6' fill='currentColor' stroke='none'/>
	<path id='gpPt7' stroke-width='0.222' stroke='currentColor' d='M0,-1.33 L-1.33,0.67 L1.33,0.67 z'/>
	<use xlink:href='#gpPt7' id='gpPt8' fill='currentColor' stroke='none'/>
	<use xlink:href='#gpPt7' id='gpPt9' stroke='currentColor' transform='rotate(180)'/>
	<use xlink:href='#gpPt9' id='gpPt10' fill='currentColor' stroke='none'/>
	<use xlink:href='#gpPt3' id='gpPt11' stroke='currentColor' transform='rotate(45)'/>
	<use xlink:href='#gpPt11' id='gpPt12' fill='currentColor' stroke='none'/>
	<path id='gpPt13' stroke-width='0.222' stroke='currentColor' d='M0,1.330 L1.265,0.411 L0.782,-1.067 L-0.782,-1.076 L-1.265,0.411 z'/>
	<use xlink:href='#gpPt13' id='gpPt14' fill='currentColor' stroke='none'/>
	<filter id='textbox' filterUnits='objectBoundingBox' x='0' y='0' height='1' width='1'>
	  <feFlood flood-color='white' flood-opacity='1' result='bgnd'/>
	  <feComposite in='SourceGraphic' in2='bgnd' operator='atop'/>
	</filter>
	<filter id='greybox' filterUnits='objectBoundingBox' x='0' y='0' height='1' width='1'>
	  <feFlood flood-color='lightgrey' flood-opacity='1' result='grey'/>
	  <feComposite in='SourceGraphic' in2='grey' operator='atop'/>
	</filter>
</defs>
<g fill="none" color="white" stroke="currentColor" stroke-width="1.00" stroke-linecap="butt" stroke-linejoin="miter">
</g>
<g fill="none" color="black" stroke="currentColor" stroke-width="1.00" stroke-linecap="butt" stroke-linejoin="miter">
	<path stroke='black'  d='M71.9,662.4 L80.9,662.4  '/>	<g transform="translate(63.6,666.3)" stroke="none" fill="black" font-family="Helvetica" font-size="12.00"  text-anchor="end">
		<text><tspan font-family="Helvetica" > 0</tspan></text>
	</g>
</g>
<g fill="none" color="black" stroke="currentColor" stroke-width="1.00" stroke-linecap="butt" stroke-linejoin="miter">
	<path stroke='black'  d='M71.9,586.4 L80.9,586.4  '/>	<g transform="translate(63.6,590.3)" stroke="none" fill="black" font-family="Helvetica" font-size="12.00"  text-anchor="end">
		<text><tspan font-family="Helvetica" > 0.1</tspan></text>
	</g>
</g>
<g fill="none" color="black" stroke="currentColor" stroke-width="1.00" stroke-linecap="butt" stroke-linejoin="miter">
	<path stroke='black'  d='M71.9,510.3 L80.9,510.3  '/>	<g transform="translate(63.6,514.2)" stroke="none" fill="black" font-family="Helvetica" font-size="12.00"  text-anchor="end">
		<text><tspan font-family="Helvetica" > 0.2</tspan></text>
	</g>
</g>
<g fill="none" color="black" stroke="currentColor" stroke-width="1.00" stroke-linecap="butt" stroke-linejoin="miter">
	<path stroke='black'  d='M71.9,434.3 L80.9,434.3  '/>	<g transform="translate(63.6,438.2)" stroke="none" fill="black" font-family="Helvetica" font-size="12.00"  text-anchor="end">
		<text><tspan font-family="Helvetica" > 0.3</tspan></text>
	</g>
</g>
<g fill="none" color="black" stroke="currentColor" stroke-width="1.00" stroke-linecap="butt" stroke-linejoin="miter">
	<path stroke='black'  d='M71.9,358.2 L80.9,358.2  '/>	<g transform="translate(63.6,362.1)" stroke="none" fill="black" font-family="Helvetica" font-size="12.00"  text-anchor="end">
		<text><tspan font-family="Helvetica" > 0.4</tspan></text>
	</g>
</g>
<g fill="none" color="black" stroke="currentColor" stroke-width="1.00" stroke-linecap="butt" stroke-linejoin="miter">
	<path stroke='black'  d='M71.9,282.2 L80.9,282.2  '/>	<g transform="translate(63.6,286.1)" stroke="none" fill="black" font-family="Helvetica" font-size="12.00"  text-anchor="end">
		<text><tspan font-family="Helvetica" > 0.5</tspan></text>
	</g>
</g>
<g fill="none" color="black" stroke="currentColor" stroke-width="1.00" stroke-linecap="butt" stroke-linejoin="miter">
	<path stroke='black'  d='M71.9,206.2 L80.9,206.2  '/>	<g transform="translate(63.6,210.1)" stroke="none" fill="black" font-family="Helvetica" font-size="12.00"  text-anchor="end">
		<text><tspan font-family="Helvetica" > 0.6</tspan></text>
	</g>
</g>
<g fill="none" color="black" stroke="currentColor" stroke-width="1.00" stroke-linecap="butt" stroke-linejoin="miter">
	<path stroke='black'  d='M71.9,130.1 L80.9,130.1  '/>	<g transform="translate(63.6,134.0)" stroke="none" fill="black" font-family="Helvetica" font-size="12.00"  text-anchor="end">
		<text><tspan font-family="Helvetica" > 0.7</tspan></text>
	</g>
</g>
<g fill="none" color="black" stroke="currentColor" stroke-width="1.00" stroke-linecap="butt" stroke-linejoin="miter">
	<path stroke='black'  d='M71.9,54.1 L80.9,54.1  '/>	<g transform="translate(63.6,58.0)" stroke="none" fill="black" font-family="Helvetica" font-size="12.00"  text-anchor="end">
		<text><tspan font-family="Helvetica" > 0.8</tspan></text>
	</g>
</g>
<g fill="none" color="black" stroke="currentColor" stroke-width="1.00" stroke-linecap="butt" stroke-linejoin="miter">
	<path stroke='black'  d='M71.9,662.4 L71.9,653.4  '/>	<g transform="translate(71.9,684.3)" stroke="none" fill="black" font-family="Helvetica" font-size="12.00"  text-anchor="middle">
		<text><tspan font-family="Helvetica" > 35</tspan></text>
	</g>
</g>
<g fill="none" color="black" stroke="currentColor" stroke-width="1.00" stroke-linecap="butt" stroke-linejoin="miter">
	<path stroke='black'  d='M176.9,662.4 L176.9,653.4  '/>	<g transform="translate(176.9,684.3)" stroke="none" fill="black" font-family="Helvetica" font-size="12.00"  text-anchor="middle">
		<text><tspan font-family="Helvetica" > 40</tspan></text>
	</g>
</g>
<g fill="none" color="black" stroke="currentColor" stroke-width="1.00" stroke-linecap="butt" stroke-linejoin="miter">
	<path stroke='black'  d='M281.8,662.4 L281.8,653.4  '/>	<g transform="translate(281.8,684.3)" stroke="none" fill="black" font-family="Helvetica" font-size="12.00"  text-anchor="middle">
		<text><tspan font-family="Helvetica" > 45</tspan></text>
	</g>
</g>
<g fill="none" color="black" stroke="currentColor" stroke-width="1.00" stroke-linecap="butt" stroke-linejoin="miter">
	<path stroke='black'  d='M386.8,662.4 L386.8,653.4  '/>	<g transform="translate(386.8,684.3)" stroke="none" fill="black" font-family="Helvetica" font-size="12.00"  text-anchor="middle">
		<text><tspan font-family="Helvetica" > 50</tspan></text>
	</g>
</g>
<g fill="none" color="black" stroke="currentColor" stroke-width="1.00" stroke-linecap="butt" stroke-linejoin="miter">
	<path stroke='black'  d='M491.7,662.4 L491.7,653.4  '/>	<g transform="translate(491.7,684.3)" stroke="none" fill="black" font-family="Helvetica" font-size="12.00"  text-anchor="middle">
		<text><tspan font-family="Helvetica" > 55</tspan></text>
	</g>
</g>
<g fill="none" color="black" stroke="currentColor" stroke-width="1.00" stroke-linecap="butt" stroke-linejoin="miter">
	<path stroke='black'  d='M596.7,662.4 L596.7,653.4  '/>	<g transform="translate(596.7,684.3)" stroke="none" fill="black" font-family="Helvetica" font-size="12.00"  text-anchor="middle">
		<text><tspan font-family="Helvetica" > 60</tspan></text>
	</g>
</g>
<g fill="none" color="black" stroke="currentColor" stroke-width="1.00" stroke-linecap="butt" stroke-linejoin="miter">
	<path stroke='black'  d='M701.7,662.4 L701.7,653.4  '/>	<g transform="translate(701.7,684.3)" stroke="none" fill="black" font-family="Helvetica" font-size="12.00"  text-anchor="middle">
		<text><tspan font-family="Helvetica" > 65</tspan></text>
	</g>
</g>
<g fill="none" color="black" stroke="currentColor" stroke-width="1.00" stroke-linecap="butt" stroke-linejoin="miter">
	<path stroke='black'  d='M806.6,662.4 L806.6,653.4  '/>	<g transform="translate(806.6,684.3)" stroke="none" fill="black" font-family="Helvetica" font-size="12.00"  text-anchor="middle">
		<text><tspan font-family="Helvetica" > 70</tspan></text>
	</g>
</g>
<g fill="none" color="black" stroke="currentColor" stroke-width="1.00" stroke-linecap="butt" stroke-linejoin="miter">
	<path stroke='black'  d='M911.6,662.4 L911.6,653.4  '/>	<g transform="translate(911.6,684.3)" stroke="none" fill="black" font-family="Helvetica" font-size="12.00"  text-anchor="middle">
		<text><tspan font-family="Helvetica" > 75</tspan></text>
	</g>
</g>
<g fill="none" color="black" stroke="currentColor" stroke-width="1.00" stroke-linecap="butt" stroke-linejoin="miter">
	<path stroke='black'  d='M1016.5,662.4 L1016.5,653.4  '/>	<g transform="translate(1016.5,684.3)" stroke="none" fill="black" font-family="Helvetica" font-size="12.00"  text-anchor="middle">
		<text><tspan font-family="Helvetica" > 80</tspan></text>
	</g>
</g>
<g fill="none" color="black" stroke="currentColor" stroke-width="1.00" stroke-linecap="butt" stroke-linejoin="miter">
	<path stroke='black'  d='M1121.5,662.4 L1121.5,653.4  '/>	<g transform="translate(1121.5,684.3)" stroke="none" fill="black" font-family="Helvetica" font-size="12.00"  text-anchor="middle">
		<text><tspan font-family="Helvetica" > 85</tspan></text>
	</g>
</g>
<g fill="none" color="black" stroke="currentColor" stroke-width="1.00" stroke-linecap="butt" stroke-linejoin="miter">
</g>
<g fill="none" color="black" stroke="currentColor" stroke-width="1.00" stroke-linecap="butt" stroke-linejoin="miter">
	<path stroke='black'  d='M71.9,54.1 L71.9,662.4 L1121.5,662.4 L1121.5,54.1 L71.9,54.1 Z  '/></g>
<g fill="none" color="black" stroke="currentColor" stroke-width="1.00" stroke-linecap="butt" stroke-linejoin="miter">
	<g transform="translate(16.3,358.3) rotate(270)" stroke="none" fill="black" font-family="Helvetica" font-size="12.00"  text-anchor="middle">
		<text><tspan font-family="Helvetica" >Density (a.u.)</tspan></text>
	</g>
</g>
<g fill="none" color="black" stroke="currentColor" stroke-width="1.00" stroke-linecap="butt" stroke-linejoin="miter">
	<g transform="translate(596.7,711.3)" stroke="none" fill="black" font-family="Helvetica" font-size="12.00"  text-anchor="middle">
		<text><tspan font-family="Helvetica" >Average time (us)</tspan></text>
	</g>
</g>
<g fill="none" color="black" stroke="currentColor" stroke-width="1.00" stroke-linecap="butt" stroke-linejoin="miter">
	<g transform="translate(596.7,31.0)" stroke="none" fill="black" font-family="Helvetica" font-size="12.00"  text-anchor="middle">
		<text><tspan font-family="Helvetica" >snapshot_restore_with_dense/Dense: Entire region + /proc/pid/mem/5</tspan></text>
	</g>
</g>
	<g id="gnuplot_plot_1" ><title>Base PDF</title>
<g fill="none" color="black" stroke="currentColor" stroke-width="1.00" stroke-linecap="butt" stroke-linejoin="miter">
	<g transform="translate(1196.9,67.0)" stroke="none" fill="black" font-family="Helvetica" font-size="12.00"  text-anchor="start">
		<text><tspan font-family="Helvetica" >Base PDF</tspan></text>
	</g>
</g>
<g fill="none" color="black" stroke="currentColor" stroke-width="1.00" stroke-linecap="butt" stroke-linejoin="miter">
	<g stroke='none' shape-rendering='crispEdges'>
		<polygon fill = 'rgb(227,  26,  28)' fill-opacity = '0.500000' points = '1146.4,67.6 1188.6,67.6 1188.6,58.6 1146.4,58.6 '/>
		<polygon fill = 'rgb(227,  26,  28)' fill-opacity = '0.500000' points = '88.8,661.9 90.7,661.8 92.6,661.7 94.4,661.6 96.3,661.5 98.2,661.4 100.1,661.3 102.0,661.1 103.9,661.0 105.8,660.8 107.6,660.6 109.5,660.4 111.4,660.2 113.3,659.9 115.2,659.6 117.1,659.3
118.9,659.0 120.8,658.6 122.7,658.3 124.6,657.8 126.5,657.4 128.4,656.9 130.3,656.3 132.1,655.7 134.0,655.1 135.9,654.4 137.8,653.7 139.7,652.9 141.6,652.1 143.5,651.2 145.3,650.3 147.2,649.3
149.1,648.2 151.0,647.1 152.9,645.9 154.8,644.7 156.7,643.4 158.5,642.0 160.4,640.5 162.3,639.0 164.2,637.4 166.1,635.8 168.0,634.1 169.9,632.3 171.7,630.4 173.6,628.5 175.5,626.5 177.4,624.5
179.3,622.4 181.2,620.3 183.0,618.1 184.9,615.9 186.8,613.6 188.7,611.3 190.6,609.0 192.5,606.6 194.4,604.3 196.2,601.9 198.1,599.5 200.0,597.1 201.9,594.7 203.8,592.4 205.7,590.0 207.6,587.7
209.4,585.5 211.3,583.2 213.2,581.1 215.1,579.0 217.0,576.9 218.9,574.9 220.8,573.0 222.6,571.2 224.5,569.5 226.4,567.9 228.3,566.4 230.2,565.0 232.1,563.7 233.9,562.5 235.8,561.5 237.7,560.6
239.6,559.8 241.5,559.1 243.4,558.6 245.3,558.2 247.1,557.9 249.0,557.8 250.9,557.8 252.8,557.9 254.7,558.2 256.6,558.6 258.5,559.1 260.3,559.7 262.2,560.4 264.1,561.3 266.0,562.3 267.9,563.3
269.8,564.5 271.7,565.7 273.5,567.1 275.4,568.5 277.3,570.0 279.2,571.6 281.1,573.2 283.0,574.9 284.9,576.6 286.7,578.4 288.6,580.2 290.5,582.1 292.4,584.0 294.3,585.8 296.2,587.8 298.0,589.7
299.9,591.6 301.8,593.5 303.7,595.4 305.6,597.3 307.5,599.2 309.4,601.1 311.2,603.0 313.1,604.8 315.0,606.6 316.9,608.4 318.8,610.1 320.7,611.8 322.6,613.5 324.4,615.2 326.3,616.8 328.2,618.3
330.1,619.8 332.0,621.3 333.9,622.8 335.8,624.2 337.6,625.5 339.5,626.9 341.4,628.1 343.3,629.4 345.2,630.6 347.1,631.7 348.9,632.8 350.8,633.9 352.7,635.0 354.6,636.0 356.5,636.9 358.4,637.9
360.3,638.8 362.1,639.6 364.0,640.5 365.9,641.3 367.8,642.0 369.7,642.8 371.6,643.5 373.5,644.2 375.3,644.8 377.2,645.4 379.1,646.0 381.0,646.6 382.9,647.2 384.8,647.7 386.7,648.2 388.5,648.7
390.4,649.1 392.3,649.6 394.2,650.0 396.1,650.4 398.0,650.8 399.9,651.2 401.7,651.5 403.6,651.8 405.5,652.1 407.4,652.4 409.3,652.7 411.2,653.0 413.0,653.3 414.9,653.5 416.8,653.7 418.7,654.0
420.6,654.2 422.5,654.4 424.4,654.6 426.2,654.8 428.1,654.9 430.0,655.1 431.9,655.3 433.8,655.4 435.7,655.6 437.6,655.7 439.4,655.8 441.3,655.9 443.2,656.1 445.1,656.2 447.0,656.3 448.9,656.4
450.8,656.5 452.6,656.6 454.5,656.7 456.4,656.8 458.3,656.9 460.2,656.9 462.1,657.0 463.9,657.1 465.8,657.2 467.7,657.3 469.6,657.3 471.5,657.4 473.4,657.5 475.3,657.5 477.1,657.6 479.0,657.7
480.9,657.7 482.8,657.8 484.7,657.9 486.6,657.9 488.5,658.0 490.3,658.0 492.2,658.1 494.1,658.2 496.0,658.2 497.9,658.3 499.8,658.3 501.7,658.4 503.5,658.5 505.4,658.5 507.3,658.6 509.2,658.6
511.1,658.7 513.0,658.8 514.9,658.8 516.7,658.9 518.6,659.0 520.5,659.0 522.4,659.1 524.3,659.2 526.2,659.2 528.0,659.3 529.9,659.4 531.8,659.4 533.7,659.5 535.6,659.6 537.5,659.6 539.4,659.7
541.2,659.8 543.1,659.9 545.0,659.9 546.9,660.0 548.8,660.1 550.7,660.1 552.6,660.2 554.4,660.3 556.3,660.4 558.2,660.4 560.1,660.5 562.0,660.6 563.9,660.6 565.8,660.7 567.6,660.8 569.5,660.8
571.4,660.9 573.3,661.0 575.2,661.0 577.1,661.1 578.9,661.2 580.8,661.2 582.7,661.3 584.6,661.3 586.5,661.4 588.4,661.5 590.3,661.5 592.1,661.6 594.0,661.6 595.9,661.6 597.8,661.7 599.7,661.7
601.6,661.8 603.5,661.8 605.3,661.8 607.2,661.9 609.1,661.9 611.0,661.9 612.9,662.0 614.8,662.0 616.7,662.0 618.5,662.1 620.4,662.1 622.3,662.1 624.2,662.1 626.1,662.1 628.0,662.1 629.9,662.2
631.7,662.2 633.6,662.2 635.5,662.2 637.4,662.2 639.3,662.2 641.2,662.2 643.0,662.2 644.9,662.2 646.8,662.2 648.7,662.2 650.6,662.2 652.5,662.2 654.4,662.2 656.2,662.2 658.1,662.2 660.0,662.2
661.9,662.2 663.8,662.2 665.7,662.2 667.6,662.1 669.4,662.1 671.3,662.1 673.2,662.1 675.1,662.1 677.0,662.1 678.9,662.0 680.8,662.0 682.6,662.0 684.5,662.0 686.4,661.9 688.3,661.9 690.2,661.9
692.1,661.8 693.9,661.8 695.8,661.8 697.7,661.8 699.6,661.7 701.5,661.7 703.4,661.7 705.3,661.6 707.1,661.6 709.0,661.6 710.9,661.5 712.8,661.5 714.7,661.4 716.6,661.4 718.5,661.4 720.3,661.3
722.2,661.3 724.1,661.3 726.0,661.2 727.9,661.2 729.8,661.2 731.7,661.1 733.5,661.1 735.4,661.1 737.3,661.0 739.2,661.0 741.1,661.0 743.0,660.9 744.9,660.9 746.7,660.9 748.6,660.9 750.5,660.8
752.4,660.8 754.3,660.8 756.2,660.8 758.0,660.8 759.9,660.7 761.8,660.7 763.7,660.7 765.6,660.7 767.5,660.7 769.4,660.7 771.2,660.6 773.1,660.6 775.0,660.6 776.9,660.6 778.8,660.6 780.7,660.6
782.6,660.6 784.4,660.5 786.3,660.5 788.2,660.5 790.1,660.5 792.0,660.5 793.9,660.5 795.8,660.4 797.6,660.4 799.5,660.4 801.4,660.4 803.3,660.4 805.2,660.4 807.1,660.3 808.9,660.3 810.8,660.3
812.7,660.3 814.6,660.3 816.5,660.2 818.4,660.2 820.3,660.2 822.1,660.2 824.0,660.1 825.9,660.1 827.8,660.1 829.7,660.1 831.6,660.1 833.5,660.0 835.3,660.0 837.2,660.0 839.1,660.0 841.0,660.0
842.9,659.9 844.8,659.9 846.7,659.9 848.5,659.9 850.4,659.9 852.3,659.9 854.2,659.9 856.1,659.9 858.0,659.9 859.9,659.9 861.7,659.9 863.6,659.9 865.5,659.9 867.4,659.9 869.3,659.9 871.2,659.9
873.0,659.9 874.9,660.0 876.8,660.0 878.7,660.0 880.6,660.0 882.5,660.1 884.4,660.1 886.2,660.1 888.1,660.2 890.0,660.2 891.9,660.2 893.8,660.3 895.7,660.3 897.6,660.4 899.4,660.4 901.3,660.5
903.2,660.5 905.1,660.6 907.0,660.6 908.9,660.7 910.8,660.7 912.6,660.8 914.5,660.8 916.4,660.9 918.3,660.9 920.2,661.0 922.1,661.0 923.9,661.1 925.8,661.1 927.7,661.2 929.6,661.2 931.5,661.3
933.4,661.3 935.3,661.4 937.1,661.4 939.0,661.5 940.9,661.5 942.8,661.6 944.7,661.6 946.6,661.7 948.5,661.7 950.3,661.7 952.2,661.8 954.1,661.8 956.0,661.8 957.9,661.9 959.8,661.9 961.7,661.9
963.5,662.0 965.4,662.0 967.3,662.0 969.2,662.1 971.1,662.1 973.0,662.1 974.9,662.1 976.7,662.1 978.6,662.2 980.5,662.2 982.4,662.2 984.3,662.2 986.2,662.2 988.0,662.2 989.9,662.3 991.8,662.3
993.7,662.3 995.6,662.3 997.5,662.3 999.4,662.3 1001.2,662.3 1003.1,662.3 1005.0,662.3 1006.9,662.3 1008.8,662.3 1010.7,662.4 1012.6,662.4 1014.4,662.4 1016.3,662.4 1018.2,662.4 1020.1,662.4 1022.0,662.4
1023.9,662.4 1025.8,662.4 1027.6,662.4 1029.5,662.4 1029.5,662.4 1027.6,662.4 1025.8,662.4 1023.9,662.4 1022.0,662.4 1020.1,662.4 1018.2,662.4 1016.3,662.4 1014.4,662.4 1012.6,662.4 1010.7,662.4 1008.8,662.4
1006.9,662.4 1005.0,662.4 1003.1,662.4 1001.2,662.4 999.4,662.4 997.5,662.4 995.6,662.4 993.7,662.4 991.8,662.4 989.9,662.4 988.0,662.4 986.2,662.4 984.3,662.4 982.4,662.4 980.5,662.4 978.6,662.4
976.7,662.4 974.9,662.4 973.0,662.4 971.1,662.4 969.2,662.4 967.3,662.4 965.4,662.4 963.5,662.4 961.7,662.4 959.8,662.4 957.9,662.4 956.0,662.4 954.1,662.4 952.2,662.4 950.3,662.4 948.5,662.4
946.6,662.4 944.7,662.4 942.8,662.4 940.9,662.4 939.0,662.4 937.1,662.4 935.3,662.4 933.4,662.4 931.5,662.4 929.6,662.4 927.7,662.4 925.8,662.4 923.9,662.4 922.1,662.4 920.2,662.4 918.3,662.4
916.4,662.4 914.5,662.4 912.6,662.4 910.8,662.4 908.9,662.4 907.0,662.4 905.1,662.4 903.2,662.4 901.3,662.4 899.4,662.4 897.6,662.4 895.7,662.4 893.8,662.4 891.9,662.4 890.0,662.4 888.1,662.4
886.2,662.4 884.4,662.4 882.5,662.4 880.6,662.4 878.7,662.4 876.8,662.4 874.9,662.4 873.0,662.4 871.2,662.4 869.3,662.4 867.4,662.4 865.5,662.4 863.6,662.4 861.7,662.4 859.9,662.4 858.0,662.4
856.1,662.4 854.2,662.4 852.3,662.4 850.4,662.4 848.5,662.4 846.7,662.4 844.8,662.4 842.9,662.4 841.0,662.4 839.1,662.4 837.2,662.4 835.3,662.4 833.5,662.4 831.6,662.4 829.7,662.4 827.8,662.4
825.9,662.4 824.0,662.4 822.1,662.4 820.3,662.4 818.4,662.4 816.5,662.4 814.6,662.4 812.7,662.4 810.8,662.4 808.9,662.4 807.1,662.4 805.2,662.4 803.3,662.4 801.4,662.4 799.5,662.4 797.6,662.4
795.8,662.4 793.9,662.4 792.0,662.4 790.1,662.4 788.2,662.4 786.3,662.4 784.4,662.4 782.6,662.4 780.7,662.4 778.8,662.4 776.9,662.4 775.0,662.4 773.1,662.4 771.2,662.4 769.4,662.4 767.5,662.4
765.6,662.4 763.7,662.4 761.8,662.4 759.9,662.4 758.0,662.4 756.2,662.4 754.3,662.4 752.4,662.4 750.5,662.4 748.6,662.4 746.7,662.4 744.9,662.4 743.0,662.4 741.1,662.4 739.2,662.4 737.3,662.4
735.4,662.4 733.5,662.4 731.7,662.4 729.8,662.4 727.9,662.4 726.0,662.4 724.1,662.4 722.2,662.4 720.3,662.4 718.5,662.4 716.6,662.4 714.7,662.4 712.8,662.4 710.9,662.4 709.0,662.4 707.1,662.4
705.3,662.4 703.4,662.4 701.5,662.4 699.6,662.4 697.7,662.4 695.8,662.4 693.9,662.4 692.1,662.4 690.2,662.4 688.3,662.4 686.4,662.4 684.5,662.4 682.6,662.4 680.8,662.4 678.9,662.4 677.0,662.4
675.1,662.4 673.2,662.4 671.3,662.4 669.4,662.4 667.6,662.4 665.7,662.4 663.8,662.4 661.9,662.4 660.0,662.4 658.1,662.4 656.2,662.4 654.4,662.4 652.5,662.4 650.6,662.4 648.7,662.4 646.8,662.4
644.9,662.4 643.0,662.4 641.2,662.4 639.3,662.4 637.4,662.4 635.5,662.4 633.6,662.4 631.7,662.4 629.9,662.4 628.0,662.4 626.1,662.4 624.2,662.4 622.3,662.4 620.4,662.4 618.5,662.4 616.7,662.4
614.8,662.4 612.9,662.4 611.0,662.4 609.1,662.4 607.2,662.4 605.3,662.4 603.5,662.4 601.6,662.4 599.7,662.4 597.8,662.4 595.9,662.4 594.0,662.4 592.1,662.4 590.3,662.4 588.4,662.4 586.5,662.4
584.6,662.4 582.7,662.4 580.8,662.4 578.9,662.4 577.1,662.4 575.2,662.4 573.3,662.4 571.4,662.4 569.5,662.4 567.6,662.4 565.8,662.4 563.9,662.4 562.0,662.4 560.1,662.4 558.2,662.4 556.3,662.4
554.4,662.4 552.6,662.4 550.7,662.4 548.8,662.4 546.9,662.4 545.0,662.4 543.1,662.4 541.2,662.4 539.4,662.4 537.5,662.4 535.6,662.4 533.7,662.4 531.8,662.4 529.9,662.4 528.0,662.4 526.2,662.4
524.3,662.4 522.4,662.4 520.5,662.4 518.6,662.4 516.7,662.4 514.9,662.4 513.0,662.4 511.1,662.4 509.2,662.4 507.3,662.4 505.4,662.4 503.5,662.4 501.7,662.4 499.8,662.4 497.9,662.4 496.0,662.4
494.1,662.4 492.2,662.4 490.3,662.4 488.5,662.4 486.6,662.4 484.7,662.4 482.8,662.4 480.9,662.4 479.0,662.4 477.1,662.4 475.3,662.4 473.4,662.4 471.5,662.4 469.6,662.4 467.7,662.4 465.8,662.4
463.9,662.4 462.1,662.4 460.2,662.4 458.3,662.4 456.4,662.4 454.5,662.4 452.6,662.4 450.8,662.4 448.9,662.4 447.0,662.4 445.1,662.4 443.2,662.4 441.3,662.4 439.4,662.4 437.6,662.4 435.7,662.4
433.8,662.4 431.9,662.4 430.0,662.4 428.1,662.4 426.2,662.4 424.4,662.4 422.5,662.4 420.6,662.4 418.7,662.4 416.8,662.4 414.9,662.4 413.0,662.4 411.2,662.4 409.3,662.4 407.4,662.4 405.5,662.4
403.6,662.4 401.7,662.4 399.9,662.4 398.0,662.4 396.1,662.4 394.2,662.4 392.3,662.4 390.4,662.4 388.5,662.4 386.7,662.4 384.8,662.4 382.9,662.4 381.0,662.4 379.1,662.4 377.2,662.4 375.3,662.4
373.5,662.4 371.6,662.4 369.7,662.4 367.8,662.4 365.9,662.4 364.0,662.4 362.1,662.4 360.3,662.4 358.4,662.4 356.5,662.4 354.6,662.4 352.7,662.4 350.8,662.4 348.9,662.4 347.1,662.4 345.2,662.4
343.3,662.4 341.4,662.4 339.5,662.4 337.6,662.4 335.8,662.4 333.9,662.4 332.0,662.4 330.1,662.4 328.2,662.4 326.3,662.4 324.4,662.4 322.6,662.4 320.7,662.4 318.8,662.4 316.9,662.4 315.0,662.4
313.1,662.4 311.2,662.4 309.4,662.4 307.5,662.4 305.6,662.4 303.7,662.4 301.8,662.4 299.9,662.4 298.0,662.4 296.2,662.4 294.3,662.4 292.4,662.4 290.5,662.4 288.6,662.4 286.7,662.4 284.9,662.4
283.0,662.4 281.1,662.4 279.2,662.4 277.3,662.4 275.4,662.4 273.5,662.4 271.7,662.4 269.8,662.4 267.9,662.4 266.0,662.4 264.1,662.4 262.2,662.4 260.3,662.4 258.5,662.4 256.6,662.4 254.7,662.4
252.8,662.4 250.9,662.4 249.0,662.4 247.1,662.4 245.3,662.4 243.4,662.4 241.5,662.4 239.6,662.4 237.7,662.4 235.8,662.4 233.9,662.4 232.1,662.4 230.2,662.4 228.3,662.4 226.4,662.4 224.5,662.4
222.6,662.4 220.8,662.4 218.9,662.4 217.0,662.4 215.1,662.4 213.2,662.4 211.3,662.4 209.4,662.4 207.6,662.4 205.7,662.4 203.8,662.4 201.9,662.4 200.0,662.4 198.1,662.4 196.2,662.4 194.4,662.4
192.5,662.4 190.6,662.4 188.7,662.4 186.8,662.4 184.9,662.4 183.0,662.4 181.2,662.4 179.3,662.4 177.4,662.4 175.5,662.4 173.6,662.4 171.7,662.4 169.9,662.4 168.0,662.4 166.1,662.4 164.2,662.4
162.3,662.4 160.4,662.4 158.5,662.4 156.7,662.4 154.8,662.4 152.9,662.4 151.0,662.4 149.1,662.4 147.2,662.4 145.3,662.4 143.5,662.4 141.6,662.4 139.7,662.4 137.8,662.4 135.9,662.4 134.0,662.4
132.1,662.4 130.3,662.4 128.4,662.4 126.5,662.4 124.6,662.4 122.7,662.4 120.8,662.4 118.9,662.4 117.1,662.4 115.2,662.4 113.3,662.4 111.4,662.4 109.5,662.4 107.6,662.4 105.8,662.4 103.9,662.4
102.0,662.4 100.1,662.4 98.2,662.4 96.3,662.4 94.4,662.4 92.6,662.4 90.7,662.4 88.8,662.4 '/>
	</g>
</g>
	</g>
	<g id="gnuplot_plot_2" ><title>Base Mean</title>
<g fill="none" color="white" stroke="rgb(227,  26,  28)" stroke-width="2.00" stroke-linecap="butt" stroke-linejoin="miter">
</g>
<g fill="none" color="black" stroke="currentColor" stroke-width="2.00" stroke-linecap="butt" stroke-linejoin="miter">
	<g transform="translate(1196.9,85.0)" stroke="none" fill="black" font-family="Helvetica" font-size="12.00"  text-anchor="start">
		<text><tspan font-family="Helvetica" >Base Mean</tspan></text>
	</g>
</g>
<g fill="none" color="black" stroke="currentColor" stroke-width="2.00" stroke-linecap="butt" stroke-linejoin="miter">
	<path stroke='rgb(227,  26,  28)'  d='M1146.4,81.1 L1188.6,81.1 M287.3,662.4 L287.3,578.9  '/></g>
	</g>
	<g id="gnuplot_plot_3" ><title>New PDF</title>
<g fill="none" color="white" stroke="rgb(227,  26,  28)" stroke-width="1.00" stroke-linecap="butt" stroke-linejoin="miter">
</g>
<g fill="none" color="black" stroke="currentColor" stroke-width="1.00" stroke-linecap="butt" stroke-linejoin="miter">
	<g transform="translate(1196.9,103.0)" stroke="none" fill="black" font-family="Helvetica" font-size="12.00"  text-anchor="start">
		<text><tspan font-family="Helvetica" >New PDF</tspan></text>
	</g>
</g>
<g fill="none" color="black" stroke="currentColor" stroke-width="1.00" stroke-linecap="butt" stroke-linejoin="miter">
	<g stroke='none' shape-rendering='crispEdges'>
		<polygon fill = 'rgb( 31, 120, 180)' fill-opacity = '0.500000' points = '1146.4,103.6 1188.6,103.6 1188.6,94.6 1146.4,94.6 '/>
		<polygon fill = 'rgb( 31, 120, 180)' fill-opacity = '0.500000' points = '199.6,658.4 200.1,657.8 200.6,657.0 201.1,656.1 201.6,655.1 202.1,654.0 202.6,652.8 203.1,651.3 203.6,649.7 204.2,647.9 204.7,645.8 205.2,643.5 205.7,641.0 206.2,638.1 206.7,635.0 207.2,631.5
207.7,627.7 208.2,623.4 208.7,618.8 209.2,613.7 209.7,608.2 210.2,602.2 210.7,595.7 211.2,588.6 211.7,581.0 212.2,572.9 212.7,564.1 213.2,554.8 213.7,544.9 214.2,534.3 214.7,523.2 215.2,511.5
215.7,499.1 216.2,486.2 216.7,472.7 217.2,458.6 217.7,444.1 218.3,429.0 218.8,413.6 219.3,397.7 219.8,381.5 220.3,365.0 220.8,348.4 221.3,331.5 221.8,314.6 222.3,297.8 222.8,281.0 223.3,264.4
223.8,248.1 224.3,232.1 224.8,216.6 225.3,201.6 225.8,187.3 226.3,173.6 226.8,160.8 227.3,148.9 227.8,137.9 228.3,128.0 228.8,119.2 229.3,111.5 229.8,105.1 230.3,99.9 230.8,96.0 231.3,93.4
231.8,92.1 232.3,92.2 232.9,93.6 233.4,96.3 233.9,100.4 234.4,105.7 234.9,112.2 235.4,120.0 235.9,128.8 236.4,138.7 236.9,149.6 237.4,161.5 237.9,174.1 238.4,187.6 238.9,201.7 239.4,216.4
239.9,231.5 240.4,247.1 240.9,263.0 241.4,279.2 241.9,295.5 242.4,311.8 242.9,328.2 243.4,344.4 243.9,360.5 244.4,376.4 244.9,392.0 245.4,407.2 245.9,422.1 246.4,436.5 246.9,450.5 247.5,464.0
248.0,476.9 248.5,489.3 249.0,501.2 249.5,512.5 250.0,523.2 250.5,533.3 251.0,542.8 251.5,551.8 252.0,560.2 252.5,568.0 253.0,575.4 253.5,582.2 254.0,588.5 254.5,594.3 255.0,599.6 255.5,604.5
256.0,609.0 256.5,613.1 257.0,616.9 257.5,620.2 258.0,623.3 258.5,626.0 259.0,628.5 259.5,630.6 260.0,632.6 260.5,634.3 261.0,635.8 261.6,637.1 262.1,638.2 262.6,639.1 263.1,640.0 263.6,640.6
264.1,641.2 264.6,641.6 265.1,642.0 265.6,642.2 266.1,642.4 266.6,642.5 267.1,642.6 267.6,642.6 268.1,642.6 268.6,642.5 269.1,642.4 269.6,642.3 270.1,642.1 270.6,642.0 271.1,641.8 271.6,641.6
272.1,641.5 272.6,641.3 273.1,641.2 273.6,641.1 274.1,641.0 274.6,640.9 275.1,640.8 275.6,640.8 276.2,640.7 276.7,640.7 277.2,640.8 277.7,640.8 278.2,640.9 278.7,641.1 279.2,641.2 279.7,641.4
280.2,641.6 280.7,641.9 281.2,642.2 281.7,642.5 282.2,642.8 282.7,643.1 283.2,643.5 283.7,643.9 284.2,644.3 284.7,644.8 285.2,645.3 285.7,645.7 286.2,646.2 286.7,646.7 287.2,647.2 287.7,647.8
288.2,648.3 288.7,648.8 289.2,649.4 289.7,649.9 290.3,650.4 290.8,651.0 291.3,651.5 291.8,652.0 292.3,652.5 292.8,653.0 293.3,653.5 293.8,654.0 294.3,654.5 294.8,654.9 295.3,655.4 295.8,655.8
296.3,656.2 296.8,656.6 297.3,657.0 297.8,657.4 298.3,657.7 298.8,658.1 299.3,658.4 299.8,658.7 300.3,659.0 300.8,659.3 301.3,659.5 301.8,659.7 302.3,660.0 302.8,660.2 303.3,660.4 303.8,660.6
304.3,660.7 304.9,660.9 305.4,661.0 305.9,661.2 306.4,661.3 306.9,661.4 307.4,661.5 307.9,661.6 308.4,661.7 308.9,661.8 309.4,661.8 309.9,661.9 310.4,662.0 310.9,662.0 311.4,662.1 311.9,662.1
312.4,662.1 312.9,662.2 313.4,662.2 313.9,662.2 314.4,662.2 314.9,662.3 315.4,662.3 315.9,662.3 316.4,662.3 316.9,662.3 317.4,662.3 317.9,662.3 318.4,662.4 319.0,662.4 319.5,662.4 320.0,662.4
320.5,662.4 321.0,662.4 321.5,662.4 322.0,662.4 322.5,662.4 323.0,662.4 323.5,662.4 324.0,662.4 324.5,662.4 325.0,662.4 325.5,662.4 326.0,662.3 326.5,662.3 327.0,662.3 327.5,662.3 328.0,662.3
328.5,662.3 329.0,662.3 329.5,662.3 330.0,662.2 330.5,662.2 331.0,662.2 331.5,662.2 332.0,662.1 332.5,662.1 333.0,662.1 333.6,662.0 334.1,662.0 334.6,661.9 335.1,661.9 335.6,661.8 336.1,661.8
336.6,661.7 337.1,661.6 337.6,661.5 338.1,661.4 338.6,661.3 339.1,661.2 339.6,661.1 340.1,661.0 340.6,660.9 341.1,660.8 341.6,660.6 342.1,660.5 342.6,660.3 343.1,660.2 343.6,660.0 344.1,659.9
344.6,659.7 345.1,659.5 345.6,659.3 346.1,659.2 346.6,659.0 347.1,658.8 347.6,658.6 348.2,658.4 348.7,658.2 349.2,658.0 349.7,657.9 350.2,657.7 350.7,657.5 351.2,657.3 351.7,657.2 352.2,657.0
352.7,656.9 353.2,656.8 353.7,656.6 354.2,656.5 354.7,656.4 355.2,656.3 355.7,656.3 356.2,656.2 356.7,656.2 357.2,656.2 357.7,656.1 358.2,656.2 358.7,656.2 359.2,656.2 359.7,656.3 360.2,656.3
360.7,656.4 361.2,656.5 361.7,656.6 362.3,656.7 362.8,656.8 363.3,657.0 363.8,657.1 364.3,657.3 364.8,657.5 365.3,657.6 365.8,657.8 366.3,658.0 366.8,658.2 367.3,658.3 367.8,658.5 368.3,658.7
368.8,658.9 369.3,659.1 369.8,659.3 370.3,659.5 370.8,659.6 371.3,659.8 371.8,660.0 372.3,660.1 372.8,660.3 373.3,660.4 373.8,660.6 374.3,660.7 374.8,660.9 375.3,661.0 375.8,661.1 376.3,661.2
376.9,661.3 377.4,661.4 377.9,661.5 378.4,661.6 378.9,661.7 379.4,661.7 379.9,661.8 380.4,661.9 380.9,661.9 381.4,662.0 381.9,662.0 382.4,662.1 382.9,662.1 383.4,662.1 383.9,662.2 384.4,662.2
384.9,662.2 385.4,662.2 385.9,662.2 386.4,662.3 386.9,662.3 387.4,662.3 387.9,662.3 388.4,662.3 388.9,662.3 389.4,662.3 389.9,662.3 390.4,662.3 391.0,662.3 391.5,662.3 392.0,662.2 392.5,662.2
393.0,662.2 393.5,662.2 394.0,662.2 394.5,662.1 395.0,662.1 395.5,662.1 396.0,662.0 396.5,662.0 397.0,661.9 397.5,661.9 398.0,661.8 398.5,661.8 399.0,661.7 399.5,661.6 400.0,661.5 400.5,661.5
401.0,661.4 401.5,661.3 402.0,661.2 402.5,661.0 403.0,660.9 403.5,660.8 404.0,660.7 404.5,660.5 405.0,660.4 405.6,660.2 406.1,660.1 406.6,659.9 407.1,659.7 407.6,659.5 408.1,659.4 408.6,659.2
409.1,659.0 409.6,658.8 410.1,658.6 410.6,658.4 411.1,658.3 411.6,658.1 412.1,657.9 412.6,657.7 413.1,657.5 413.6,657.4 414.1,657.2 414.6,657.1 415.1,656.9 415.6,656.8 416.1,656.7 416.6,656.5
417.1,656.4 417.6,656.4 418.1,656.3 418.6,656.2 419.1,656.2 419.6,656.2 420.2,656.1 420.7,656.2 421.2,656.2 421.7,656.2 422.2,656.2 422.7,656.3 423.2,656.4 423.7,656.5 424.2,656.6 424.7,656.7
425.2,656.8 425.7,657.0 426.2,657.1 426.7,657.3 427.2,657.4 427.7,657.6 428.2,657.8 428.7,657.9 429.2,658.1 429.7,658.3 430.2,658.5 430.7,658.7 431.2,658.9 431.7,659.1 432.2,659.2 432.7,659.4
433.2,659.6 433.7,659.8 434.3,659.9 434.8,660.1 435.3,660.3 435.8,660.4 436.3,660.6 436.8,660.7 437.3,660.8 437.8,661.0 438.3,661.1 438.8,661.2 439.3,661.3 439.8,661.4 440.3,661.5 440.8,661.6
441.3,661.7 441.8,661.7 442.3,661.8 442.8,661.9 443.3,661.9 443.8,662.0 444.3,662.0 444.8,662.1 445.3,662.1 445.8,662.1 446.3,662.2 446.8,662.2 447.3,662.2 447.8,662.2 448.3,662.3 448.9,662.3
449.4,662.3 449.9,662.3 450.4,662.3 450.9,662.3 450.9,662.4 450.4,662.4 449.9,662.4 449.4,662.4 448.9,662.4 448.3,662.4 447.8,662.4 447.3,662.4 446.8,662.4 446.3,662.4 445.8,662.4 445.3,662.4
444.8,662.4 444.3,662.4 443.8,662.4 443.3,662.4 442.8,662.4 442.3,662.4 441.8,662.4 441.3,662.4 440.8,662.4 440.3,662.4 439.8,662.4 439.3,662.4 438.8,662.4 438.3,662.4 437.8,662.4 437.3,662.4
436.8,662.4 436.3,662.4 435.8,662.4 435.3,662.4 434.8,662.4 434.3,662.4 433.7,662.4 433.2,662.4 432.7,662.4 432.2,662.4 431.7,662.4 431.2,662.4 430.7,662.4 430.2,662.4 429.7,662.4 429.2,662.4
428.7,662.4 428.2,662.4 427.7,662.4 427.2,662.4 426.7,662.4 426.2,662.4 425.7,662.4 425.2,662.4 424.7,662.4 424.2,662.4 423.7,662.4 423.2,662.4 422.7,662.4 422.2,662.4 421.7,662.4 421.2,662.4
420.7,662.4 420.2,662.4 419.6,662.4 419.1,662.4 418.6,662.4 418.1,662.4 417.6,662.4 417.1,662.4 416.6,662.4 416.1,662.4 415.6,662.4 415.1,662.4 414.6,662.4 414.1,662.4 413.6,662.4 413.1,662.4
412.6,662.4 412.1,662.4 411.6,662.4 411.1,662.4 410.6,662.4 410.1,662.4 409.6,662.4 409.1,662.4 408.6,662.4 408.1,662.4 407.6,662.4 407.1,662.4 406.6,662.4 406.1,662.4 405.6,662.4 405.0,662.4
404.5,662.4 404.0,662.4 403.5,662.4 403.0,662.4 402.5,662.4 402.0,662.4 401.5,662.4 401.0,662.4 400.5,662.4 400.0,662.4 399.5,662.4 399.0,662.4 398.5,662.4 398.0,662.4 397.5,662.4 397.0,662.4
396.5,662.4 396.0,662.4 395.5,662.4 395.0,662.4 394.5,662.4 394.0,662.4 393.5,662.4 393.0,662.4 392.5,662.4 392.0,662.4 391.5,662.4 391.0,662.4 390.4,662.4 389.9,662.4 389.4,662.4 388.9,662.4
388.4,662.4 387.9,662.4 387.4,662.4 386.9,662.4 386.4,662.4 385.9,662.4 385.4,662.4 384.9,662.4 384.4,662.4 383.9,662.4 383.4,662.4 382.9,662.4 382.4,662.4 381.9,662.4 381.4,662.4 380.9,662.4
380.4,662.4 379.9,662.4 379.4,662.4 378.9,662.4 378.4,662.4 377.9,662.4 377.4,662.4 376.9,662.4 376.3,662.4 375.8,662.4 375.3,662.4 374.8,662.4 374.3,662.4 373.8,662.4 373.3,662.4 372.8,662.4
372.3,662.4 371.8,662.4 371.3,662.4 370.8,662.4 370.3,662.4 369.8,662.4 369.3,662.4 368.8,662.4 368.3,662.4 367.8,662.4 367.3,662.4 366.8,662.4 366.3,662.4 365.8,662.4 365.3,662.4 364.8,662.4
364.3,662.4 363.8,662.4 363.3,662.4 362.8,662.4 362.3,662.4 361.7,662.4 361.2,662.4 360.7,662.4 360.2,662.4 359.7,662.4 359.2,662.4 358.7,662.4 358.2,662.4 357.7,662.4 357.2,662.4 356.7,662.4
356.2,662.4 355.7,662.4 355.2,662.4 354.7,662.4 354.2,662.4 353.7,662.4 353.2,662.4 352.7,662.4 352.2,662.4 351.7,662.4 351.2,662.4 350.7,662.4 350.2,662.4 349.7,662.4 349.2,662.4 348.7,662.4
348.2,662.4 347.6,662.4 347.1,662.4 346.6,662.4 346.1,662.4 345.6,662.4 345.1,662.4 344.6,662.4 344.1,662.4 343.6,662.4 343.1,662.4 342.6,662.4 342.1,662.4 341.6,662.4 341.1,662.4 340.6,662.4
340.1,662.4 339.6,662.4 339.1,662.4 338.6,662.4 338.1,662.4 337.6,662.4 337.1,662.4 336.6,662.4 336.1,662.4 335.6,662.4 335.1,662.4 334.6,662.4 334.1,662.4 333.6,662.4 333.0,662.4 332.5,662.4
332.0,662.4 331.5,662.4 331.0,662.4 330.5,662.4 330.0,662.4 329.5,662.4 329.0,662.4 328.5,662.4 328.0,662.4 327.5,662.4 327.0,662.4 326.5,662.4 326.0,662.4 325.5,662.4 325.0,662.4 324.5,662.4
324.0,662.4 323.5,662.4 323.0,662.4 322.5,662.4 322.0,662.4 321.5,662.4 321.0,662.4 320.5,662.4 320.0,662.4 319.5,662.4 319.0,662.4 318.4,662.4 317.9,662.4 317.4,662.4 316.9,662.4 316.4,662.4
315.9,662.4 315.4,662.4 314.9,662.4 314.4,662.4 313.9,662.4 313.4,662.4 312.9,662.4 312.4,662.4 311.9,662.4 311.4,662.4 310.9,662.4 310.4,662.4 309.9,662.4 309.4,662.4 308.9,662.4 308.4,662.4
307.9,662.4 307.4,662.4 306.9,662.4 306.4,662.4 305.9,662.4 305.4,662.4 304.9,662.4 304.3,662.4 303.8,662.4 303.3,662.4 302.8,662.4 302.3,662.4 301.8,662.4 301.3,662.4 300.8,662.4 300.3,662.4
299.8,662.4 299.3,662.4 298.8,662.4 298.3,662.4 297.8,662.4 297.3,662.4 296.8,662.4 296.3,662.4 295.8,662.4 295.3,662.4 294.8,662.4 294.3,662.4 293.8,662.4 293.3,662.4 292.8,662.4 292.3,662.4
291.8,662.4 291.3,662.4 290.8,662.4 290.3,662.4 289.7,662.4 289.2,662.4 288.7,662.4 288.2,662.4 287.7,662.4 287.2,662.4 286.7,662.4 286.2,662.4 285.7,662.4 285.2,662.4 284.7,662.4 284.2,662.4
283.7,662.4 283.2,662.4 282.7,662.4 282.2,662.4 281.7,662.4 281.2,662.4 280.7,662.4 280.2,662.4 279.7,662.4 279.2,662.4 278.7,662.4 278.2,662.4 277.7,662.4 277.2,662.4 276.7,662.4 276.2,662.4
275.6,662.4 275.1,662.4 274.6,662.4 274.1,662.4 273.6,662.4 273.1,662.4 272.6,662.4 272.1,662.4 271.6,662.4 271.1,662.4 270.6,662.4 270.1,662.4 269.6,662.4 269.1,662.4 268.6,662.4 268.1,662.4
267.6,662.4 267.1,662.4 266.6,662.4 266.1,662.4 265.6,662.4 265.1,662.4 264.6,662.4 264.1,662.4 263.6,662.4 263.1,662.4 262.6,662.4 262.1,662.4 261.6,662.4 261.0,662.4 260.5,662.4 260.0,662.4
259.5,662.4 259.0,662.4 258.5,662.4 258.0,662.4 257.5,662.4 257.0,662.4 256.5,662.4 256.0,662.4 255.5,662.4 255.0,662.4 254.5,662.4 254.0,662.4 253.5,662.4 253.0,662.4 252.5,662.4 252.0,662.4
251.5,662.4 251.0,662.4 250.5,662.4 250.0,662.4 249.5,662.4 249.0,662.4 248.5,662.4 248.0,662.4 247.5,662.4 246.9,662.4 246.4,662.4 245.9,662.4 245.4,662.4 244.9,662.4 244.4,662.4 243.9,662.4
243.4,662.4 242.9,662.4 242.4,662.4 241.9,662.4 241.4,662.4 240.9,662.4 240.4,662.4 239.9,662.4 239.4,662.4 238.9,662.4 238.4,662.4 237.9,662.4 237.4,662.4 236.9,662.4 236.4,662.4 235.9,662.4
235.4,662.4 234.9,662.4 234.4,662.4 233.9,662.4 233.4,662.4 232.9,662.4 232.3,662.4 231.8,662.4 231.3,662.4 230.8,662.4 230.3,662.4 229.8,662.4 229.3,662.4 228.8,662.4 228.3,662.4 227.8,662.4
227.3,662.4 226.8,662.4 226.3,662.4 225.8,662.4 225.3,662.4 224.8,662.4 224.3,662.4 223.8,662.4 223.3,662.4 222.8,662.4 222.3,662.4 221.8,662.4 221.3,662.4 220.8,662.4 220.3,662.4 219.8,662.4
219.3,662.4 218.8,662.4 218.3,662.4 217.7,662.4 217.2,662.4 216.7,662.4 216.2,662.4 215.7,662.4 215.2,662.4 214.7,662.4 214.2,662.4 213.7,662.4 213.2,662.4 212.7,662.4 212.2,662.4 211.7,662.4
211.2,662.4 210.7,662.4 210.2,662.4 209.7,662.4 209.2,662.4 208.7,662.4 208.2,662.4 207.7,662.4 207.2,662.4 206.7,662.4 206.2,662.4 205.7,662.4 205.2,662.4 204.7,662.4 204.2,662.4 203.6,662.4
203.1,662.4 202.6,662.4 202.1,662.4 201.6,662.4 201.1,662.4 200.6,662.4 200.1,662.4 199.6,662.4 '/>
	</g>
</g>
	</g>
	<g id="gnuplot_plot_4" ><title>New Mean</title>
<g fill="none" color="white" stroke="rgb( 31, 120, 180)" stroke-width="2.00" stroke-linecap="butt" stroke-linejoin="miter">
</g>
<g fill="none" color="black" stroke="currentColor" stroke-width="2.00" stroke-linecap="butt" stroke-linejoin="miter">
	<g transform="translate(1196.9,121.0)" stroke="none" fill="black" font-family="Helvetica" font-size="12.00"  text-anchor="start">
		<text><tspan font-family="Helvetica" >New Mean</tspan></text>
	</g>
</g>
<g fill="none" color="black" stroke="currentColor" stroke-width="2.00" stroke-linecap="butt" stroke-linejoin="miter">
	<path stroke='rgb( 31, 120, 180)'  d='M1146.4,117.1 L1188.6,117.1 M237.3,662.4 L237.3,160.6  '/></g>
	</g>
<g fill="none" color="black" stroke="currentColor" stroke-width="2.00" stroke-linecap="butt" stroke-linejoin="miter">
</g>
<g fill="none" color="black" stroke="black" stroke-width="1.00" stroke-linecap="butt" stroke-linejoin="miter">
</g>
<g fill="none" color="black" stroke="currentColor" stroke-width="1.00" stroke-linecap="butt" stroke-linejoin="miter">
	<path stroke='black'  d='M71.9,54.1 L71.9,662.4 L1121.5,662.4 L1121.5,54.1 L71.9,54.1 Z  '/></g>
<g fill="none" color="black" stroke="currentColor" stroke-width="1.00" stroke-linecap="butt" stroke-linejoin="miter">
</g>
</g>
</svg>

