<?xml version="1.0" encoding="utf-8"  standalone="no"?>
<svg 
 viewBox="0 0 450 300"
 xmlns="http://www.w3.org/2000/svg"
 xmlns:xlink="http://www.w3.org/1999/xlink"
>

<title>Gnuplot</title>
<desc>Produced by GNUPLOT 5.2 patchlevel 6 </desc>

<g id="gnuplot_canvas">

<rect x="0" y="0" width="450" height="300" fill="none"/>
<defs>

	<circle id='gpDot' r='0.5' stroke-width='0.5' stroke='currentColor'/>
	<path id='gpPt0' stroke-width='0.222' stroke='currentColor' d='M-1,0 h2 M0,-1 v2'/>
	<path id='gpPt1' stroke-width='0.222' stroke='currentColor' d='M-1,-1 L1,1 M1,-1 L-1,1'/>
	<path id='gpPt2' stroke-width='0.222' stroke='currentColor' d='M-1,0 L1,0 M0,-1 L0,1 M-1,-1 L1,1 M-1,1 L1,-1'/>
	<rect id='gpPt3' stroke-width='0.222' stroke='currentColor' x='-1' y='-1' width='2' height='2'/>
	<rect id='gpPt4' stroke-width='0.222' stroke='currentColor' fill='currentColor' x='-1' y='-1' width='2' height='2'/>
	<circle id='gpPt5' stroke-width='0.222' stroke='currentColor' cx='0' cy='0' r='1'/>
	<use xlink:href='#gpPt5' id='gpPt6' fill='currentColor' stroke='none'/>
	<path id='gpPt7' stroke-width='0.222' stroke='currentColor' d='M0,-1.33 L-1.33,0.67 L1.33,0.67 z'/>
	<use xlink:href='#gpPt7' id='gpPt8' fill='currentColor' stroke='none'/>
	<use xlink:href='#gpPt7' id='gpPt9' stroke='currentColor' transform='rotate(180)'/>
	<use xlink:href='#gpPt9' id='gpPt10' fill='currentColor' stroke='none'/>
	<use xlink:href='#gpPt3' id='gpPt11' stroke='currentColor' transform='rotate(45)'/>
	<use xlink:href='#gpPt11' id='gpPt12' fill='currentColor' stroke='none'/>
	<path id='gpPt13' stroke-width='0.222' stroke='currentColor' d='M0,1.330 L1.265,0.411 L0.782,-1.067 L-0.782,-1.076 L-1.265,0.411 z'/>
	<use xlink:href='#gpPt13' id='gpPt14' fill='currentColor' stroke='none'/>
	<filter id='textbox' filterUnits='objectBoundingBox' x='0' y='0' height='1' width='1'>
	  <feFlood flood-color='white' flood-opacity='1' result='bgnd'/>
	  <feComposite in='SourceGraphic' in2='bgnd' operator='atop'/>
	</filter>
	<filter id='greybox' filterUnits='objectBoundingBox' x='0' y='0' height='1' width='1'>
	  <feFlood flood-color='lightgrey' flood-opacity='1' result='grey'/>
	  <feComposite in='SourceGraphic' in2='grey' operator='atop'/>
	</filter>
</defs>
<g fill="none" color="white" stroke="currentColor" stroke-width="1.00" stroke-linecap="butt" stroke-linejoin="miter">
</g>
<g fill="none" color="black" stroke="currentColor" stroke-width="1.00" stroke-linecap="butt" stroke-linejoin="miter">
	<path stroke='black'  d='M71.9,242.4 L80.9,242.4  '/>	<g transform="translate(63.6,246.3)" stroke="none" fill="black" font-family="Helvetica" font-size="12.00"  text-anchor="end">
		<text><tspan font-family="Helvetica" > 0</tspan></text>
	</g>
</g>
<g fill="none" color="black" stroke="currentColor" stroke-width="1.00" stroke-linecap="butt" stroke-linejoin="miter">
	<path stroke='black'  d='M71.9,205.0 L80.9,205.0  '/>	<g transform="translate(63.6,208.9)" stroke="none" fill="black" font-family="Helvetica" font-size="12.00"  text-anchor="end">
		<text><tspan font-family="Helvetica" > 0.2</tspan></text>
	</g>
</g>
<g fill="none" color="black" stroke="currentColor" stroke-width="1.00" stroke-linecap="butt" stroke-linejoin="miter">
	<path stroke='black'  d='M71.9,167.6 L80.9,167.6  '/>	<g transform="translate(63.6,171.5)" stroke="none" fill="black" font-family="Helvetica" font-size="12.00"  text-anchor="end">
		<text><tspan font-family="Helvetica" > 0.4</tspan></text>
	</g>
</g>
<g fill="none" color="black" stroke="currentColor" stroke-width="1.00" stroke-linecap="butt" stroke-linejoin="miter">
	<path stroke='black'  d='M71.9,130.2 L80.9,130.2  '/>	<g transform="translate(63.6,134.1)" stroke="none" fill="black" font-family="Helvetica" font-size="12.00"  text-anchor="end">
		<text><tspan font-family="Helvetica" > 0.6</tspan></text>
	</g>
</g>
<g fill="none" color="black" stroke="currentColor" stroke-width="1.00" stroke-linecap="butt" stroke-linejoin="miter">
	<path stroke='black'  d='M71.9,92.9 L80.9,92.9  '/>	<g transform="translate(63.6,96.8)" stroke="none" fill="black" font-family="Helvetica" font-size="12.00"  text-anchor="end">
		<text><tspan font-family="Helvetica" > 0.8</tspan></text>
	</g>
</g>
<g fill="none" color="black" stroke="currentColor" stroke-width="1.00" stroke-linecap="butt" stroke-linejoin="miter">
	<path stroke='black'  d='M71.9,55.5 L80.9,55.5  '/>	<g transform="translate(63.6,59.4)" stroke="none" fill="black" font-family="Helvetica" font-size="12.00"  text-anchor="end">
		<text><tspan font-family="Helvetica" > 1</tspan></text>
	</g>
</g>
<g fill="none" color="black" stroke="currentColor" stroke-width="1.00" stroke-linecap="butt" stroke-linejoin="miter">
	<path stroke='black'  d='M71.9,18.1 L80.9,18.1  '/>	<g transform="translate(63.6,22.0)" stroke="none" fill="black" font-family="Helvetica" font-size="12.00"  text-anchor="end">
		<text><tspan font-family="Helvetica" > 1.2</tspan></text>
	</g>
</g>
<g fill="none" color="black" stroke="currentColor" stroke-width="1.00" stroke-linecap="butt" stroke-linejoin="miter">
	<path stroke='black'  d='M71.9,242.4 L71.9,233.4  '/>	<g transform="translate(71.9,264.3)" stroke="none" fill="black" font-family="Helvetica" font-size="12.00"  text-anchor="middle">
		<text><tspan font-family="Helvetica" > 41</tspan></text>
	</g>
</g>
<g fill="none" color="black" stroke="currentColor" stroke-width="1.00" stroke-linecap="butt" stroke-linejoin="miter">
	<path stroke='black'  d='M111.1,242.4 L111.1,233.4  '/>	<g transform="translate(111.1,264.3)" stroke="none" fill="black" font-family="Helvetica" font-size="12.00"  text-anchor="middle">
		<text><tspan font-family="Helvetica" > 42</tspan></text>
	</g>
</g>
<g fill="none" color="black" stroke="currentColor" stroke-width="1.00" stroke-linecap="butt" stroke-linejoin="miter">
	<path stroke='black'  d='M150.4,242.4 L150.4,233.4  '/>	<g transform="translate(150.4,264.3)" stroke="none" fill="black" font-family="Helvetica" font-size="12.00"  text-anchor="middle">
		<text><tspan font-family="Helvetica" > 43</tspan></text>
	</g>
</g>
<g fill="none" color="black" stroke="currentColor" stroke-width="1.00" stroke-linecap="butt" stroke-linejoin="miter">
	<path stroke='black'  d='M189.6,242.4 L189.6,233.4  '/>	<g transform="translate(189.6,264.3)" stroke="none" fill="black" font-family="Helvetica" font-size="12.00"  text-anchor="middle">
		<text><tspan font-family="Helvetica" > 44</tspan></text>
	</g>
</g>
<g fill="none" color="black" stroke="currentColor" stroke-width="1.00" stroke-linecap="butt" stroke-linejoin="miter">
	<path stroke='black'  d='M228.8,242.4 L228.8,233.4  '/>	<g transform="translate(228.8,264.3)" stroke="none" fill="black" font-family="Helvetica" font-size="12.00"  text-anchor="middle">
		<text><tspan font-family="Helvetica" > 45</tspan></text>
	</g>
</g>
<g fill="none" color="black" stroke="currentColor" stroke-width="1.00" stroke-linecap="butt" stroke-linejoin="miter">
	<path stroke='black'  d='M268.1,242.4 L268.1,233.4  '/>	<g transform="translate(268.1,264.3)" stroke="none" fill="black" font-family="Helvetica" font-size="12.00"  text-anchor="middle">
		<text><tspan font-family="Helvetica" > 46</tspan></text>
	</g>
</g>
<g fill="none" color="black" stroke="currentColor" stroke-width="1.00" stroke-linecap="butt" stroke-linejoin="miter">
	<path stroke='black'  d='M307.3,242.4 L307.3,233.4  '/>	<g transform="translate(307.3,264.3)" stroke="none" fill="black" font-family="Helvetica" font-size="12.00"  text-anchor="middle">
		<text><tspan font-family="Helvetica" > 47</tspan></text>
	</g>
</g>
<g fill="none" color="black" stroke="currentColor" stroke-width="1.00" stroke-linecap="butt" stroke-linejoin="miter">
	<path stroke='black'  d='M346.5,242.4 L346.5,233.4  '/>	<g transform="translate(346.5,264.3)" stroke="none" fill="black" font-family="Helvetica" font-size="12.00"  text-anchor="middle">
		<text><tspan font-family="Helvetica" > 48</tspan></text>
	</g>
</g>
<g fill="none" color="black" stroke="currentColor" stroke-width="1.00" stroke-linecap="butt" stroke-linejoin="miter">
	<path stroke='black'  d='M385.8,242.4 L385.8,233.4  '/>	<g transform="translate(385.8,264.3)" stroke="none" fill="black" font-family="Helvetica" font-size="12.00"  text-anchor="middle">
		<text><tspan font-family="Helvetica" > 49</tspan></text>
	</g>
</g>
<g fill="none" color="black" stroke="currentColor" stroke-width="1.00" stroke-linecap="butt" stroke-linejoin="miter">
	<path stroke='black'  d='M425.0,242.4 L425.0,233.4  '/>	<g transform="translate(425.0,264.3)" stroke="none" fill="black" font-family="Helvetica" font-size="12.00"  text-anchor="middle">
		<text><tspan font-family="Helvetica" > 50</tspan></text>
	</g>
</g>
<g fill="none" color="black" stroke="currentColor" stroke-width="1.00" stroke-linecap="butt" stroke-linejoin="miter">
</g>
<g fill="none" color="black" stroke="currentColor" stroke-width="1.00" stroke-linecap="butt" stroke-linejoin="miter">
	<path stroke='black'  d='M71.9,18.1 L71.9,242.4 L425.0,242.4 L425.0,18.1 L71.9,18.1 Z  '/></g>
<g fill="none" color="black" stroke="currentColor" stroke-width="1.00" stroke-linecap="butt" stroke-linejoin="miter">
	<g transform="translate(16.3,130.3) rotate(270)" stroke="none" fill="black" font-family="Helvetica" font-size="12.00"  text-anchor="middle">
		<text><tspan font-family="Helvetica" >Density (a.u.)</tspan></text>
	</g>
</g>
<g fill="none" color="black" stroke="currentColor" stroke-width="1.00" stroke-linecap="butt" stroke-linejoin="miter">
	<g transform="translate(248.4,291.3)" stroke="none" fill="black" font-family="Helvetica" font-size="12.00"  text-anchor="middle">
		<text><tspan font-family="Helvetica" >Average time (us)</tspan></text>
	</g>
</g>
<g fill="none" color="black" stroke="currentColor" stroke-width="1.00" stroke-linecap="butt" stroke-linejoin="miter">
</g>
	<g id="gnuplot_plot_1" ><title>Base PDF</title>
<g fill="none" color="black" stroke="currentColor" stroke-width="1.00" stroke-linecap="butt" stroke-linejoin="miter">
	<g stroke='none' shape-rendering='crispEdges'>
		<polygon fill = 'rgb(227,  26,  28)' fill-opacity = '0.500000' points = '73.5,241.9 74.2,241.8 74.9,241.7 75.6,241.6 76.3,241.4 77.0,241.3 77.6,241.1 78.3,241.0 79.0,240.8 79.7,240.5 80.4,240.3 81.1,240.0 81.8,239.7 82.5,239.4 83.2,239.0 83.9,238.6
84.5,238.1 85.2,237.6 85.9,237.0 86.6,236.4 87.3,235.7 88.0,235.0 88.7,234.1 89.4,233.3 90.1,232.3 90.8,231.2 91.5,230.1 92.1,228.9 92.8,227.6 93.5,226.1 94.2,224.6 94.9,223.0
95.6,221.2 96.3,219.4 97.0,217.4 97.7,215.3 98.4,213.1 99.0,210.7 99.7,208.3 100.4,205.6 101.1,202.9 101.8,200.1 102.5,197.1 103.2,194.0 103.9,190.7 104.6,187.4 105.3,183.9 105.9,180.4
106.6,176.7 107.3,173.0 108.0,169.1 108.7,165.2 109.4,161.2 110.1,157.2 110.8,153.1 111.5,149.0 112.2,144.9 112.8,140.8 113.5,136.6 114.2,132.6 114.9,128.5 115.6,124.5 116.3,120.6 117.0,116.8
117.7,113.1 118.4,109.5 119.1,106.1 119.7,102.8 120.4,99.7 121.1,96.8 121.8,94.0 122.5,91.5 123.2,89.2 123.9,87.1 124.6,85.3 125.3,83.8 126.0,82.4 126.6,81.4 127.3,80.6 128.0,80.1
128.7,79.9 129.4,80.0 130.1,80.3 130.8,80.9 131.5,81.8 132.2,82.9 132.9,84.4 133.5,86.0 134.2,87.9 134.9,90.0 135.6,92.4 136.3,94.9 137.0,97.7 137.7,100.6 138.4,103.7 139.1,106.9
139.8,110.3 140.4,113.8 141.1,117.4 141.8,121.1 142.5,124.9 143.2,128.7 143.9,132.6 144.6,136.5 145.3,140.4 146.0,144.4 146.7,148.3 147.3,152.2 148.0,156.0 148.7,159.9 149.4,163.6 150.1,167.3
150.8,170.9 151.5,174.5 152.2,177.9 152.9,181.2 153.6,184.5 154.2,187.6 154.9,190.7 155.6,193.6 156.3,196.4 157.0,199.1 157.7,201.7 158.4,204.2 159.1,206.5 159.8,208.7 160.5,210.9 161.1,212.9
161.8,214.8 162.5,216.6 163.2,218.3 163.9,219.8 164.6,221.3 165.3,222.7 166.0,224.0 166.7,225.3 167.4,226.4 168.0,227.4 168.7,228.4 169.4,229.3 170.1,230.2 170.8,230.9 171.5,231.6 172.2,232.3
172.9,232.9 173.6,233.4 174.3,233.9 174.9,234.4 175.6,234.8 176.3,235.2 177.0,235.5 177.7,235.8 178.4,236.1 179.1,236.3 179.8,236.5 180.5,236.7 181.2,236.9 181.8,237.0 182.5,237.2 183.2,237.3
183.9,237.4 184.6,237.5 185.3,237.6 186.0,237.6 186.7,237.7 187.4,237.8 188.1,237.8 188.7,237.8 189.4,237.9 190.1,237.9 190.8,238.0 191.5,238.0 192.2,238.0 192.9,238.1 193.6,238.1 194.3,238.1
195.0,238.2 195.6,238.2 196.3,238.3 197.0,238.3 197.7,238.4 198.4,238.4 199.1,238.4 199.8,238.5 200.5,238.6 201.2,238.6 201.9,238.7 202.5,238.7 203.2,238.8 203.9,238.8 204.6,238.9 205.3,239.0
206.0,239.0 206.7,239.1 207.4,239.1 208.1,239.2 208.8,239.2 209.5,239.3 210.1,239.3 210.8,239.4 211.5,239.5 212.2,239.5 212.9,239.5 213.6,239.6 214.3,239.6 215.0,239.7 215.7,239.7 216.4,239.8
217.0,239.8 217.7,239.8 218.4,239.9 219.1,239.9 219.8,239.9 220.5,239.9 221.2,240.0 221.9,240.0 222.6,240.0 223.3,240.0 223.9,240.1 224.6,240.1 225.3,240.1 226.0,240.1 226.7,240.2 227.4,240.2
228.1,240.2 228.8,240.2 229.5,240.3 230.2,240.3 230.8,240.3 231.5,240.4 232.2,240.4 232.9,240.4 233.6,240.5 234.3,240.5 235.0,240.6 235.7,240.6 236.4,240.6 237.1,240.7 237.7,240.7 238.4,240.8
239.1,240.8 239.8,240.9 240.5,240.9 241.2,241.0 241.9,241.0 242.6,241.1 243.3,241.1 244.0,241.2 244.6,241.2 245.3,241.3 246.0,241.3 246.7,241.4 247.4,241.4 248.1,241.5 248.8,241.5 249.5,241.6
250.2,241.6 250.9,241.7 251.5,241.7 252.2,241.8 252.9,241.8 253.6,241.8 254.3,241.9 255.0,241.9 255.7,241.9 256.4,242.0 257.1,242.0 257.8,242.0 258.4,242.1 259.1,242.1 259.8,242.1 260.5,242.1
261.2,242.1 261.9,242.2 262.6,242.2 263.3,242.2 264.0,242.2 264.7,242.2 265.3,242.2 266.0,242.2 266.7,242.2 267.4,242.2 268.1,242.2 268.8,242.2 269.5,242.2 270.2,242.2 270.9,242.2 271.6,242.2
272.2,242.2 272.9,242.2 273.6,242.2 274.3,242.2 275.0,242.1 275.7,242.1 276.4,242.1 277.1,242.1 277.8,242.0 278.5,242.0 279.1,242.0 279.8,241.9 280.5,241.9 281.2,241.9 281.9,241.8 282.6,241.8
283.3,241.7 284.0,241.7 284.7,241.6 285.4,241.6 286.0,241.5 286.7,241.4 287.4,241.4 288.1,241.3 288.8,241.2 289.5,241.2 290.2,241.1 290.9,241.0 291.6,240.9 292.3,240.9 292.9,240.8 293.6,240.7
294.3,240.6 295.0,240.5 295.7,240.4 296.4,240.3 297.1,240.3 297.8,240.2 298.5,240.1 299.2,240.0 299.8,239.9 300.5,239.8 301.2,239.7 301.9,239.7 302.6,239.6 303.3,239.5 304.0,239.4 304.7,239.4
305.4,239.3 306.1,239.2 306.7,239.2 307.4,239.1 308.1,239.1 308.8,239.0 309.5,239.0 310.2,239.0 310.9,238.9 311.6,238.9 312.3,238.9 313.0,238.9 313.6,238.9 314.3,238.9 315.0,238.9 315.7,238.9
316.4,238.9 317.1,239.0 317.8,239.0 318.5,239.0 319.2,239.1 319.9,239.1 320.6,239.2 321.2,239.2 321.9,239.3 322.6,239.3 323.3,239.4 324.0,239.5 324.7,239.5 325.4,239.6 326.1,239.7 326.8,239.8
327.5,239.9 328.1,239.9 328.8,240.0 329.5,240.1 330.2,240.2 330.9,240.3 331.6,240.3 332.3,240.4 333.0,240.5 333.7,240.6 334.4,240.6 335.0,240.7 335.7,240.8 336.4,240.8 337.1,240.9 337.8,240.9
338.5,241.0 339.2,241.0 339.9,241.1 340.6,241.1 341.3,241.2 341.9,241.2 342.6,241.2 343.3,241.2 344.0,241.3 344.7,241.3 345.4,241.3 346.1,241.3 346.8,241.3 347.5,241.3 348.2,241.3 348.8,241.3
349.5,241.3 350.2,241.3 350.9,241.2 351.6,241.2 352.3,241.2 353.0,241.2 353.7,241.1 354.4,241.1 355.1,241.1 355.7,241.0 356.4,241.0 357.1,241.0 357.8,240.9 358.5,240.9 359.2,240.9 359.9,240.8
360.6,240.8 361.3,240.8 362.0,240.7 362.6,240.7 363.3,240.7 364.0,240.7 364.7,240.6 365.4,240.6 366.1,240.6 366.8,240.6 367.5,240.6 368.2,240.6 368.9,240.6 369.5,240.5 370.2,240.5 370.9,240.6
371.6,240.6 372.3,240.6 373.0,240.6 373.7,240.6 374.4,240.6 375.1,240.6 375.8,240.7 376.4,240.7 377.1,240.7 377.8,240.8 378.5,240.8 379.2,240.8 379.9,240.9 380.6,240.9 381.3,241.0 382.0,241.0
382.7,241.0 383.3,241.1 384.0,241.1 384.7,241.2 385.4,241.2 386.1,241.3 386.8,241.3 387.5,241.4 388.2,241.4 388.9,241.5 389.6,241.5 390.2,241.6 390.9,241.6 391.6,241.7 392.3,241.7 393.0,241.7
393.7,241.8 394.4,241.8 395.1,241.9 395.8,241.9 396.5,241.9 397.1,242.0 397.8,242.0 398.5,242.0 399.2,242.1 399.9,242.1 400.6,242.1 401.3,242.1 402.0,242.2 402.7,242.2 403.4,242.2 404.0,242.2
404.7,242.2 405.4,242.2 406.1,242.3 406.8,242.3 407.5,242.3 408.2,242.3 408.9,242.3 409.6,242.3 410.3,242.3 410.9,242.3 411.6,242.3 412.3,242.3 413.0,242.4 413.7,242.4 414.4,242.4 415.1,242.4
415.8,242.4 416.5,242.4 417.2,242.4 417.8,242.4 417.8,242.4 417.2,242.4 416.5,242.4 415.8,242.4 415.1,242.4 414.4,242.4 413.7,242.4 413.0,242.4 412.3,242.4 411.6,242.4 410.9,242.4 410.3,242.4
409.6,242.4 408.9,242.4 408.2,242.4 407.5,242.4 406.8,242.4 406.1,242.4 405.4,242.4 404.7,242.4 404.0,242.4 403.4,242.4 402.7,242.4 402.0,242.4 401.3,242.4 400.6,242.4 399.9,242.4 399.2,242.4
398.5,242.4 397.8,242.4 397.1,242.4 396.5,242.4 395.8,242.4 395.1,242.4 394.4,242.4 393.7,242.4 393.0,242.4 392.3,242.4 391.6,242.4 390.9,242.4 390.2,242.4 389.6,242.4 388.9,242.4 388.2,242.4
387.5,242.4 386.8,242.4 386.1,242.4 385.4,242.4 384.7,242.4 384.0,242.4 383.3,242.4 382.7,242.4 382.0,242.4 381.3,242.4 380.6,242.4 379.9,242.4 379.2,242.4 378.5,242.4 377.8,242.4 377.1,242.4
376.4,242.4 375.8,242.4 375.1,242.4 374.4,242.4 373.7,242.4 373.0,242.4 372.3,242.4 371.6,242.4 370.9,242.4 370.2,242.4 369.5,242.4 368.9,242.4 368.2,242.4 367.5,242.4 366.8,242.4 366.1,242.4
365.4,242.4 364.7,242.4 364.0,242.4 363.3,242.4 362.6,242.4 362.0,242.4 361.3,242.4 360.6,242.4 359.9,242.4 359.2,242.4 358.5,242.4 357.8,242.4 357.1,242.4 356.4,242.4 355.7,242.4 355.1,242.4
354.4,242.4 353.7,242.4 353.0,242.4 352.3,242.4 351.6,242.4 350.9,242.4 350.2,242.4 349.5,242.4 348.8,242.4 348.2,242.4 347.5,242.4 346.8,242.4 346.1,242.4 345.4,242.4 344.7,242.4 344.0,242.4
343.3,242.4 342.6,242.4 341.9,242.4 341.3,242.4 340.6,242.4 339.9,242.4 339.2,242.4 338.5,242.4 337.8,242.4 337.1,242.4 336.4,242.4 335.7,242.4 335.0,242.4 334.4,242.4 333.7,242.4 333.0,242.4
332.3,242.4 331.6,242.4 330.9,242.4 330.2,242.4 329.5,242.4 328.8,242.4 328.1,242.4 327.5,242.4 326.8,242.4 326.1,242.4 325.4,242.4 324.7,242.4 324.0,242.4 323.3,242.4 322.6,242.4 321.9,242.4
321.2,242.4 320.6,242.4 319.9,242.4 319.2,242.4 318.5,242.4 317.8,242.4 317.1,242.4 316.4,242.4 315.7,242.4 315.0,242.4 314.3,242.4 313.6,242.4 313.0,242.4 312.3,242.4 311.6,242.4 310.9,242.4
310.2,242.4 309.5,242.4 308.8,242.4 308.1,242.4 307.4,242.4 306.7,242.4 306.1,242.4 305.4,242.4 304.7,242.4 304.0,242.4 303.3,242.4 302.6,242.4 301.9,242.4 301.2,242.4 300.5,242.4 299.8,242.4
299.2,242.4 298.5,242.4 297.8,242.4 297.1,242.4 296.4,242.4 295.7,242.4 295.0,242.4 294.3,242.4 293.6,242.4 292.9,242.4 292.3,242.4 291.6,242.4 290.9,242.4 290.2,242.4 289.5,242.4 288.8,242.4
288.1,242.4 287.4,242.4 286.7,242.4 286.0,242.4 285.4,242.4 284.7,242.4 284.0,242.4 283.3,242.4 282.6,242.4 281.9,242.4 281.2,242.4 280.5,242.4 279.8,242.4 279.1,242.4 278.5,242.4 277.8,242.4
277.1,242.4 276.4,242.4 275.7,242.4 275.0,242.4 274.3,242.4 273.6,242.4 272.9,242.4 272.2,242.4 271.6,242.4 270.9,242.4 270.2,242.4 269.5,242.4 268.8,242.4 268.1,242.4 267.4,242.4 266.7,242.4
266.0,242.4 265.3,242.4 264.7,242.4 264.0,242.4 263.3,242.4 262.6,242.4 261.9,242.4 261.2,242.4 260.5,242.4 259.8,242.4 259.1,242.4 258.4,242.4 257.8,242.4 257.1,242.4 256.4,242.4 255.7,242.4
255.0,242.4 254.3,242.4 253.6,242.4 252.9,242.4 252.2,242.4 251.5,242.4 250.9,242.4 250.2,242.4 249.5,242.4 248.8,242.4 248.1,242.4 247.4,242.4 246.7,242.4 246.0,242.4 245.3,242.4 244.6,242.4
244.0,242.4 243.3,242.4 242.6,242.4 241.9,242.4 241.2,242.4 240.5,242.4 239.8,242.4 239.1,242.4 238.4,242.4 237.7,242.4 237.1,242.4 236.4,242.4 235.7,242.4 235.0,242.4 234.3,242.4 233.6,242.4
232.9,242.4 232.2,242.4 231.5,242.4 230.8,242.4 230.2,242.4 229.5,242.4 228.8,242.4 228.1,242.4 227.4,242.4 226.7,242.4 226.0,242.4 225.3,242.4 224.6,242.4 223.9,242.4 223.3,242.4 222.6,242.4
221.9,242.4 221.2,242.4 220.5,242.4 219.8,242.4 219.1,242.4 218.4,242.4 217.7,242.4 217.0,242.4 216.4,242.4 215.7,242.4 215.0,242.4 214.3,242.4 213.6,242.4 212.9,242.4 212.2,242.4 211.5,242.4
210.8,242.4 210.1,242.4 209.5,242.4 208.8,242.4 208.1,242.4 207.4,242.4 206.7,242.4 206.0,242.4 205.3,242.4 204.6,242.4 203.9,242.4 203.2,242.4 202.5,242.4 201.9,242.4 201.2,242.4 200.5,242.4
199.8,242.4 199.1,242.4 198.4,242.4 197.7,242.4 197.0,242.4 196.3,242.4 195.6,242.4 195.0,242.4 194.3,242.4 193.6,242.4 192.9,242.4 192.2,242.4 191.5,242.4 190.8,242.4 190.1,242.4 189.4,242.4
188.7,242.4 188.1,242.4 187.4,242.4 186.7,242.4 186.0,242.4 185.3,242.4 184.6,242.4 183.9,242.4 183.2,242.4 182.5,242.4 181.8,242.4 181.2,242.4 180.5,242.4 179.8,242.4 179.1,242.4 178.4,242.4
177.7,242.4 177.0,242.4 176.3,242.4 175.6,242.4 174.9,242.4 174.3,242.4 173.6,242.4 172.9,242.4 172.2,242.4 171.5,242.4 170.8,242.4 170.1,242.4 169.4,242.4 168.7,242.4 168.0,242.4 167.4,242.4
166.7,242.4 166.0,242.4 165.3,242.4 164.6,242.4 163.9,242.4 163.2,242.4 162.5,242.4 161.8,242.4 161.1,242.4 160.5,242.4 159.8,242.4 159.1,242.4 158.4,242.4 157.7,242.4 157.0,242.4 156.3,242.4
155.6,242.4 154.9,242.4 154.2,242.4 153.6,242.4 152.9,242.4 152.2,242.4 151.5,242.4 150.8,242.4 150.1,242.4 149.4,242.4 148.7,242.4 148.0,242.4 147.3,242.4 146.7,242.4 146.0,242.4 145.3,242.4
144.6,242.4 143.9,242.4 143.2,242.4 142.5,242.4 141.8,242.4 141.1,242.4 140.4,242.4 139.8,242.4 139.1,242.4 138.4,242.4 137.7,242.4 137.0,242.4 136.3,242.4 135.6,242.4 134.9,242.4 134.2,242.4
133.5,242.4 132.9,242.4 132.2,242.4 131.5,242.4 130.8,242.4 130.1,242.4 129.4,242.4 128.7,242.4 128.0,242.4 127.3,242.4 126.6,242.4 126.0,242.4 125.3,242.4 124.6,242.4 123.9,242.4 123.2,242.4
122.5,242.4 121.8,242.4 121.1,242.4 120.4,242.4 119.7,242.4 119.1,242.4 118.4,242.4 117.7,242.4 117.0,242.4 116.3,242.4 115.6,242.4 114.9,242.4 114.2,242.4 113.5,242.4 112.8,242.4 112.2,242.4
111.5,242.4 110.8,242.4 110.1,242.4 109.4,242.4 108.7,242.4 108.0,242.4 107.3,242.4 106.6,242.4 105.9,242.4 105.3,242.4 104.6,242.4 103.9,242.4 103.2,242.4 102.5,242.4 101.8,242.4 101.1,242.4
100.4,242.4 99.7,242.4 99.0,242.4 98.4,242.4 97.7,242.4 97.0,242.4 96.3,242.4 95.6,242.4 94.9,242.4 94.2,242.4 93.5,242.4 92.8,242.4 92.1,242.4 91.5,242.4 90.8,242.4 90.1,242.4
89.4,242.4 88.7,242.4 88.0,242.4 87.3,242.4 86.6,242.4 85.9,242.4 85.2,242.4 84.5,242.4 83.9,242.4 83.2,242.4 82.5,242.4 81.8,242.4 81.1,242.4 80.4,242.4 79.7,242.4 79.0,242.4
78.3,242.4 77.6,242.4 77.0,242.4 76.3,242.4 75.6,242.4 74.9,242.4 74.2,242.4 73.5,242.4 '/>
	</g>
</g>
	</g>
	<g id="gnuplot_plot_2" ><title>Base Mean</title>
<g fill="none" color="white" stroke="rgb(227,  26,  28)" stroke-width="2.00" stroke-linecap="butt" stroke-linejoin="miter">
</g>
<g fill="none" color="black" stroke="currentColor" stroke-width="2.00" stroke-linecap="butt" stroke-linejoin="miter">
	<path stroke='rgb(227,  26,  28)'  d='M138.0,242.4 L138.0,102.2  '/></g>
	</g>
	<g id="gnuplot_plot_3" ><title>New PDF</title>
<g fill="none" color="white" stroke="rgb(227,  26,  28)" stroke-width="1.00" stroke-linecap="butt" stroke-linejoin="miter">
</g>
<g fill="none" color="black" stroke="currentColor" stroke-width="1.00" stroke-linecap="butt" stroke-linejoin="miter">
	<g stroke='none' shape-rendering='crispEdges'>
		<polygon fill = 'rgb( 31, 120, 180)' fill-opacity = '0.500000' points = '89.1,241.7 89.8,241.6 90.4,241.5 91.0,241.3 91.6,241.1 92.2,241.0 92.8,240.7 93.4,240.5 94.0,240.2 94.6,239.9 95.2,239.6 95.8,239.2 96.5,238.8 97.1,238.3 97.7,237.8 98.3,237.2
98.9,236.6 99.5,235.8 100.1,235.1 100.7,234.2 101.3,233.2 101.9,232.2 102.6,231.0 103.2,229.8 103.8,228.5 104.4,227.0 105.0,225.4 105.6,223.7 106.2,221.9 106.8,219.9 107.4,217.7 108.0,215.5
108.6,213.0 109.3,210.4 109.9,207.7 110.5,204.8 111.1,201.7 111.7,198.5 112.3,195.1 112.9,191.5 113.5,187.8 114.1,183.9 114.7,179.8 115.3,175.6 116.0,171.2 116.6,166.7 117.2,162.1 117.8,157.4
118.4,152.5 119.0,147.6 119.6,142.5 120.2,137.5 120.8,132.3 121.4,127.1 122.1,122.0 122.7,116.8 123.3,111.6 123.9,106.5 124.5,101.5 125.1,96.6 125.7,91.8 126.3,87.1 126.9,82.6 127.5,78.2
128.1,74.1 128.8,70.1 129.4,66.5 130.0,63.0 130.6,59.9 131.2,57.0 131.8,54.5 132.4,52.3 133.0,50.4 133.6,48.9 134.2,47.7 134.8,46.9 135.5,46.4 136.1,46.3 136.7,46.6 137.3,47.2
137.9,48.2 138.5,49.5 139.1,51.2 139.7,53.3 140.3,55.6 140.9,58.3 141.6,61.2 142.2,64.4 142.8,67.9 143.4,71.6 144.0,75.6 144.6,79.8 145.2,84.1 145.8,88.6 146.4,93.2 147.0,98.0
147.6,102.9 148.3,107.8 148.9,112.8 149.5,117.8 150.1,122.9 150.7,127.9 151.3,132.9 151.9,137.9 152.5,142.9 153.1,147.7 153.7,152.5 154.3,157.2 155.0,161.8 155.6,166.2 156.2,170.6 156.8,174.8
157.4,178.9 158.0,182.8 158.6,186.6 159.2,190.2 159.8,193.7 160.4,197.0 161.1,200.1 161.7,203.1 162.3,206.0 162.9,208.7 163.5,211.2 164.1,213.6 164.7,215.9 165.3,218.0 165.9,220.0 166.5,221.9
167.1,223.6 167.8,225.2 168.4,226.7 169.0,228.1 169.6,229.4 170.2,230.6 170.8,231.7 171.4,232.7 172.0,233.6 172.6,234.5 173.2,235.2 173.8,236.0 174.5,236.6 175.1,237.2 175.7,237.7 176.3,238.2
176.9,238.7 177.5,239.0 178.1,239.4 178.7,239.7 179.3,240.0 179.9,240.3 180.6,240.5 181.2,240.7 181.8,240.9 182.4,241.0 183.0,241.2 183.6,241.3 184.2,241.4 184.8,241.5 185.4,241.6 186.0,241.6
186.6,241.7 187.3,241.7 187.9,241.8 188.5,241.8 189.1,241.8 189.7,241.8 190.3,241.8 190.9,241.8 191.5,241.8 192.1,241.7 192.7,241.7 193.3,241.7 194.0,241.6 194.6,241.6 195.2,241.5 195.8,241.5
196.4,241.4 197.0,241.3 197.6,241.2 198.2,241.2 198.8,241.1 199.4,241.0 200.0,240.9 200.7,240.8 201.3,240.7 201.9,240.6 202.5,240.5 203.1,240.4 203.7,240.3 204.3,240.1 204.9,240.0 205.5,239.9
206.1,239.8 206.8,239.6 207.4,239.5 208.0,239.4 208.6,239.2 209.2,239.1 209.8,239.0 210.4,238.8 211.0,238.7 211.6,238.6 212.2,238.5 212.8,238.4 213.5,238.2 214.1,238.1 214.7,238.0 215.3,237.9
215.9,237.8 216.5,237.7 217.1,237.6 217.7,237.5 218.3,237.5 218.9,237.4 219.5,237.3 220.2,237.3 220.8,237.2 221.4,237.2 222.0,237.1 222.6,237.1 223.2,237.1 223.8,237.1 224.4,237.1 225.0,237.1
225.6,237.1 226.3,237.1 226.9,237.1 227.5,237.1 228.1,237.2 228.7,237.2 229.3,237.2 229.9,237.3 230.5,237.3 231.1,237.4 231.7,237.5 232.3,237.6 233.0,237.6 233.6,237.7 234.2,237.8 234.8,237.9
235.4,238.0 236.0,238.1 236.6,238.2 237.2,238.3 237.8,238.4 238.4,238.5 239.0,238.6 239.7,238.7 240.3,238.8 240.9,238.9 241.5,239.0 242.1,239.1 242.7,239.2 243.3,239.3 243.9,239.5 244.5,239.6
245.1,239.7 245.8,239.8 246.4,239.9 247.0,240.0 247.6,240.1 248.2,240.2 248.8,240.3 249.4,240.4 250.0,240.5 250.6,240.6 251.2,240.7 251.8,240.8 252.5,240.9 253.1,241.0 253.7,241.0 254.3,241.1
254.9,241.2 255.5,241.3 256.1,241.3 256.7,241.4 257.3,241.5 257.9,241.5 258.5,241.6 259.2,241.7 259.8,241.7 260.4,241.8 261.0,241.8 261.6,241.9 262.2,241.9 262.8,241.9 263.4,242.0 264.0,242.0
264.6,242.0 265.3,242.1 265.9,242.1 266.5,242.1 267.1,242.2 267.7,242.2 268.3,242.2 268.9,242.2 269.5,242.2 270.1,242.3 270.7,242.3 271.3,242.3 272.0,242.3 272.6,242.3 273.2,242.3 273.8,242.3
274.4,242.3 275.0,242.3 275.6,242.3 276.2,242.3 276.8,242.4 277.4,242.4 278.0,242.4 278.7,242.4 279.3,242.4 279.9,242.4 280.5,242.4 281.1,242.4 281.7,242.4 282.3,242.4 282.9,242.4 283.5,242.4
284.1,242.4 284.8,242.4 285.4,242.4 286.0,242.4 286.6,242.4 287.2,242.3 287.8,242.3 288.4,242.3 289.0,242.3 289.6,242.3 290.2,242.3 290.8,242.3 291.5,242.3 292.1,242.3 292.7,242.3 293.3,242.2
293.9,242.2 294.5,242.2 295.1,242.2 295.7,242.2 296.3,242.2 296.9,242.1 297.5,242.1 298.2,242.1 298.8,242.0 299.4,242.0 300.0,242.0 300.6,241.9 301.2,241.9 301.8,241.9 302.4,241.8 303.0,241.8
303.6,241.7 304.3,241.7 304.9,241.6 305.5,241.6 306.1,241.5 306.7,241.5 307.3,241.4 307.9,241.4 308.5,241.3 309.1,241.3 309.7,241.2 310.3,241.1 311.0,241.1 311.6,241.0 312.2,241.0 312.8,240.9
313.4,240.8 314.0,240.8 314.6,240.7 315.2,240.7 315.8,240.6 316.4,240.5 317.0,240.5 317.7,240.4 318.3,240.4 318.9,240.3 319.5,240.3 320.1,240.2 320.7,240.2 321.3,240.2 321.9,240.1 322.5,240.1
323.1,240.1 323.8,240.0 324.4,240.0 325.0,240.0 325.6,239.9 326.2,239.9 326.8,239.9 327.4,239.9 328.0,239.9 328.6,239.9 329.2,239.9 329.8,239.8 330.5,239.8 331.1,239.8 331.7,239.8 332.3,239.8
332.9,239.8 333.5,239.8 334.1,239.8 334.7,239.8 335.3,239.8 335.9,239.8 336.5,239.8 337.2,239.8 337.8,239.8 338.4,239.8 339.0,239.8 339.6,239.8 340.2,239.8 340.8,239.8 341.4,239.8 342.0,239.8
342.6,239.8 343.3,239.8 343.9,239.8 344.5,239.8 345.1,239.8 345.7,239.8 346.3,239.8 346.9,239.8 347.5,239.9 348.1,239.9 348.7,239.9 349.3,239.9 350.0,239.9 350.6,239.9 351.2,239.9 351.8,240.0
352.4,240.0 353.0,240.0 353.6,240.0 354.2,240.1 354.8,240.1 355.4,240.1 356.0,240.2 356.7,240.2 357.3,240.3 357.9,240.3 358.5,240.4 359.1,240.4 359.7,240.5 360.3,240.5 360.9,240.6 361.5,240.6
362.1,240.7 362.8,240.8 363.4,240.8 364.0,240.9 364.6,240.9 365.2,241.0 365.8,241.1 366.4,241.1 367.0,241.2 367.6,241.2 368.2,241.3 368.8,241.4 369.5,241.4 370.1,241.5 370.7,241.5 371.3,241.6
371.9,241.6 372.5,241.7 373.1,241.7 373.7,241.8 374.3,241.8 374.9,241.9 375.5,241.9 376.2,241.9 376.8,242.0 377.4,242.0 378.0,242.0 378.6,242.1 379.2,242.1 379.8,242.1 380.4,242.1 381.0,242.2
381.6,242.2 382.3,242.2 382.9,242.2 383.5,242.2 384.1,242.3 384.7,242.3 385.3,242.3 385.9,242.3 386.5,242.3 387.1,242.3 387.7,242.3 388.3,242.3 389.0,242.3 389.6,242.3 390.2,242.4 390.8,242.4
391.4,242.4 392.0,242.4 392.6,242.4 393.2,242.4 393.2,242.4 392.6,242.4 392.0,242.4 391.4,242.4 390.8,242.4 390.2,242.4 389.6,242.4 389.0,242.4 388.3,242.4 387.7,242.4 387.1,242.4 386.5,242.4
385.9,242.4 385.3,242.4 384.7,242.4 384.1,242.4 383.5,242.4 382.9,242.4 382.3,242.4 381.6,242.4 381.0,242.4 380.4,242.4 379.8,242.4 379.2,242.4 378.6,242.4 378.0,242.4 377.4,242.4 376.8,242.4
376.2,242.4 375.5,242.4 374.9,242.4 374.3,242.4 373.7,242.4 373.1,242.4 372.5,242.4 371.9,242.4 371.3,242.4 370.7,242.4 370.1,242.4 369.5,242.4 368.8,242.4 368.2,242.4 367.6,242.4 367.0,242.4
366.4,242.4 365.8,242.4 365.2,242.4 364.6,242.4 364.0,242.4 363.4,242.4 362.8,242.4 362.1,242.4 361.5,242.4 360.9,242.4 360.3,242.4 359.7,242.4 359.1,242.4 358.5,242.4 357.9,242.4 357.3,242.4
356.7,242.4 356.0,242.4 355.4,242.4 354.8,242.4 354.2,242.4 353.6,242.4 353.0,242.4 352.4,242.4 351.8,242.4 351.2,242.4 350.6,242.4 350.0,242.4 349.3,242.4 348.7,242.4 348.1,242.4 347.5,242.4
346.9,242.4 346.3,242.4 345.7,242.4 345.1,242.4 344.5,242.4 343.9,242.4 343.3,242.4 342.6,242.4 342.0,242.4 341.4,242.4 340.8,242.4 340.2,242.4 339.6,242.4 339.0,242.4 338.4,242.4 337.8,242.4
337.2,242.4 336.5,242.4 335.9,242.4 335.3,242.4 334.7,242.4 334.1,242.4 333.5,242.4 332.9,242.4 332.3,242.4 331.7,242.4 331.1,242.4 330.5,242.4 329.8,242.4 329.2,242.4 328.6,242.4 328.0,242.4
327.4,242.4 326.8,242.4 326.2,242.4 325.6,242.4 325.0,242.4 324.4,242.4 323.8,242.4 323.1,242.4 322.5,242.4 321.9,242.4 321.3,242.4 320.7,242.4 320.1,242.4 319.5,242.4 318.9,242.4 318.3,242.4
317.7,242.4 317.0,242.4 316.4,242.4 315.8,242.4 315.2,242.4 314.6,242.4 314.0,242.4 313.4,242.4 312.8,242.4 312.2,242.4 311.6,242.4 311.0,242.4 310.3,242.4 309.7,242.4 309.1,242.4 308.5,242.4
307.9,242.4 307.3,242.4 306.7,242.4 306.1,242.4 305.5,242.4 304.9,242.4 304.3,242.4 303.6,242.4 303.0,242.4 302.4,242.4 301.8,242.4 301.2,242.4 300.6,242.4 300.0,242.4 299.4,242.4 298.8,242.4
298.2,242.4 297.5,242.4 296.9,242.4 296.3,242.4 295.7,242.4 295.1,242.4 294.5,242.4 293.9,242.4 293.3,242.4 292.7,242.4 292.1,242.4 291.5,242.4 290.8,242.4 290.2,242.4 289.6,242.4 289.0,242.4
288.4,242.4 287.8,242.4 287.2,242.4 286.6,242.4 286.0,242.4 285.4,242.4 284.8,242.4 284.1,242.4 283.5,242.4 282.9,242.4 282.3,242.4 281.7,242.4 281.1,242.4 280.5,242.4 279.9,242.4 279.3,242.4
278.7,242.4 278.0,242.4 277.4,242.4 276.8,242.4 276.2,242.4 275.6,242.4 275.0,242.4 274.4,242.4 273.8,242.4 273.2,242.4 272.6,242.4 272.0,242.4 271.3,242.4 270.7,242.4 270.1,242.4 269.5,242.4
268.9,242.4 268.3,242.4 267.7,242.4 267.1,242.4 266.5,242.4 265.9,242.4 265.3,242.4 264.6,242.4 264.0,242.4 263.4,242.4 262.8,242.4 262.2,242.4 261.6,242.4 261.0,242.4 260.4,242.4 259.8,242.4
259.2,242.4 258.5,242.4 257.9,242.4 257.3,242.4 256.7,242.4 256.1,242.4 255.5,242.4 254.9,242.4 254.3,242.4 253.7,242.4 253.1,242.4 252.5,242.4 251.8,242.4 251.2,242.4 250.6,242.4 250.0,242.4
249.4,242.4 248.8,242.4 248.2,242.4 247.6,242.4 247.0,242.4 246.4,242.4 245.8,242.4 245.1,242.4 244.5,242.4 243.9,242.4 243.3,242.4 242.7,242.4 242.1,242.4 241.5,242.4 240.9,242.4 240.3,242.4
239.7,242.4 239.0,242.4 238.4,242.4 237.8,242.4 237.2,242.4 236.6,242.4 236.0,242.4 235.4,242.4 234.8,242.4 234.2,242.4 233.6,242.4 233.0,242.4 232.3,242.4 231.7,242.4 231.1,242.4 230.5,242.4
229.9,242.4 229.3,242.4 228.7,242.4 228.1,242.4 227.5,242.4 226.9,242.4 226.3,242.4 225.6,242.4 225.0,242.4 224.4,242.4 223.8,242.4 223.2,242.4 222.6,242.4 222.0,242.4 221.4,242.4 220.8,242.4
220.2,242.4 219.5,242.4 218.9,242.4 218.3,242.4 217.7,242.4 217.1,242.4 216.5,242.4 215.9,242.4 215.3,242.4 214.7,242.4 214.1,242.4 213.5,242.4 212.8,242.4 212.2,242.4 211.6,242.4 211.0,242.4
210.4,242.4 209.8,242.4 209.2,242.4 208.6,242.4 208.0,242.4 207.4,242.4 206.8,242.4 206.1,242.4 205.5,242.4 204.9,242.4 204.3,242.4 203.7,242.4 203.1,242.4 202.5,242.4 201.9,242.4 201.3,242.4
200.7,242.4 200.0,242.4 199.4,242.4 198.8,242.4 198.2,242.4 197.6,242.4 197.0,242.4 196.4,242.4 195.8,242.4 195.2,242.4 194.6,242.4 194.0,242.4 193.3,242.4 192.7,242.4 192.1,242.4 191.5,242.4
190.9,242.4 190.3,242.4 189.7,242.4 189.1,242.4 188.5,242.4 187.9,242.4 187.3,242.4 186.6,242.4 186.0,242.4 185.4,242.4 184.8,242.4 184.2,242.4 183.6,242.4 183.0,242.4 182.4,242.4 181.8,242.4
181.2,242.4 180.6,242.4 179.9,242.4 179.3,242.4 178.7,242.4 178.1,242.4 177.5,242.4 176.9,242.4 176.3,242.4 175.7,242.4 175.1,242.4 174.5,242.4 173.8,242.4 173.2,242.4 172.6,242.4 172.0,242.4
171.4,242.4 170.8,242.4 170.2,242.4 169.6,242.4 169.0,242.4 168.4,242.4 167.8,242.4 167.1,242.4 166.5,242.4 165.9,242.4 165.3,242.4 164.7,242.4 164.1,242.4 163.5,242.4 162.9,242.4 162.3,242.4
161.7,242.4 161.1,242.4 160.4,242.4 159.8,242.4 159.2,242.4 158.6,242.4 158.0,242.4 157.4,242.4 156.8,242.4 156.2,242.4 155.6,242.4 155.0,242.4 154.3,242.4 153.7,242.4 153.1,242.4 152.5,242.4
151.9,242.4 151.3,242.4 150.7,242.4 150.1,242.4 149.5,242.4 148.9,242.4 148.3,242.4 147.6,242.4 147.0,242.4 146.4,242.4 145.8,242.4 145.2,242.4 144.6,242.4 144.0,242.4 143.4,242.4 142.8,242.4
142.2,242.4 141.6,242.4 140.9,242.4 140.3,242.4 139.7,242.4 139.1,242.4 138.5,242.4 137.9,242.4 137.3,242.4 136.7,242.4 136.1,242.4 135.5,242.4 134.8,242.4 134.2,242.4 133.6,242.4 133.0,242.4
132.4,242.4 131.8,242.4 131.2,242.4 130.6,242.4 130.0,242.4 129.4,242.4 128.8,242.4 128.1,242.4 127.5,242.4 126.9,242.4 126.3,242.4 125.7,242.4 125.1,242.4 124.5,242.4 123.9,242.4 123.3,242.4
122.7,242.4 122.1,242.4 121.4,242.4 120.8,242.4 120.2,242.4 119.6,242.4 119.0,242.4 118.4,242.4 117.8,242.4 117.2,242.4 116.6,242.4 116.0,242.4 115.3,242.4 114.7,242.4 114.1,242.4 113.5,242.4
112.9,242.4 112.3,242.4 111.7,242.4 111.1,242.4 110.5,242.4 109.9,242.4 109.3,242.4 108.6,242.4 108.0,242.4 107.4,242.4 106.8,242.4 106.2,242.4 105.6,242.4 105.0,242.4 104.4,242.4 103.8,242.4
103.2,242.4 102.6,242.4 101.9,242.4 101.3,242.4 100.7,242.4 100.1,242.4 99.5,242.4 98.9,242.4 98.3,242.4 97.7,242.4 97.1,242.4 96.5,242.4 95.8,242.4 95.2,242.4 94.6,242.4 94.0,242.4
93.4,242.4 92.8,242.4 92.2,242.4 91.6,242.4 91.0,242.4 90.4,242.4 89.8,242.4 89.1,242.4 '/>
	</g>
</g>
	</g>
	<g id="gnuplot_plot_4" ><title>New Mean</title>
<g fill="none" color="white" stroke="rgb( 31, 120, 180)" stroke-width="2.00" stroke-linecap="butt" stroke-linejoin="miter">
</g>
<g fill="none" color="black" stroke="currentColor" stroke-width="2.00" stroke-linecap="butt" stroke-linejoin="miter">
	<path stroke='rgb( 31, 120, 180)'  d='M143.0,242.4 L143.0,69.1  '/></g>
	</g>
<g fill="none" color="black" stroke="currentColor" stroke-width="2.00" stroke-linecap="butt" stroke-linejoin="miter">
</g>
<g fill="none" color="black" stroke="black" stroke-width="1.00" stroke-linecap="butt" stroke-linejoin="miter">
</g>
<g fill="none" color="black" stroke="currentColor" stroke-width="1.00" stroke-linecap="butt" stroke-linejoin="miter">
	<path stroke='black'  d='M71.9,18.1 L71.9,242.4 L425.0,242.4 L425.0,18.1 L71.9,18.1 Z  '/></g>
<g fill="none" color="black" stroke="currentColor" stroke-width="1.00" stroke-linecap="butt" stroke-linejoin="miter">
</g>
</g>
</svg>

