<?xml version="1.0" encoding="utf-8"  standalone="no"?>
<svg 
 viewBox="0 0 1280 720"
 xmlns="http://www.w3.org/2000/svg"
 xmlns:xlink="http://www.w3.org/1999/xlink"
>

<title>Gnuplot</title>
<desc>Produced by GNUPLOT 5.2 patchlevel 6 </desc>

<g id="gnuplot_canvas">

<rect x="0" y="0" width="1280" height="720" fill="none"/>
<defs>

	<circle id='gpDot' r='0.5' stroke-width='0.5' stroke='currentColor'/>
	<path id='gpPt0' stroke-width='0.222' stroke='currentColor' d='M-1,0 h2 M0,-1 v2'/>
	<path id='gpPt1' stroke-width='0.222' stroke='currentColor' d='M-1,-1 L1,1 M1,-1 L-1,1'/>
	<path id='gpPt2' stroke-width='0.222' stroke='currentColor' d='M-1,0 L1,0 M0,-1 L0,1 M-1,-1 L1,1 M-1,1 L1,-1'/>
	<rect id='gpPt3' stroke-width='0.222' stroke='currentColor' x='-1' y='-1' width='2' height='2'/>
	<rect id='gpPt4' stroke-width='0.222' stroke='currentColor' fill='currentColor' x='-1' y='-1' width='2' height='2'/>
	<circle id='gpPt5' stroke-width='0.222' stroke='currentColor' cx='0' cy='0' r='1'/>
	<use xlink:href='#gpPt5' id='gpPt6' fill='currentColor' stroke='none'/>
	<path id='gpPt7' stroke-width='0.222' stroke='currentColor' d='M0,-1.33 L-1.33,0.67 L1.33,0.67 z'/>
	<use xlink:href='#gpPt7' id='gpPt8' fill='currentColor' stroke='none'/>
	<use xlink:href='#gpPt7' id='gpPt9' stroke='currentColor' transform='rotate(180)'/>
	<use xlink:href='#gpPt9' id='gpPt10' fill='currentColor' stroke='none'/>
	<use xlink:href='#gpPt3' id='gpPt11' stroke='currentColor' transform='rotate(45)'/>
	<use xlink:href='#gpPt11' id='gpPt12' fill='currentColor' stroke='none'/>
	<path id='gpPt13' stroke-width='0.222' stroke='currentColor' d='M0,1.330 L1.265,0.411 L0.782,-1.067 L-0.782,-1.076 L-1.265,0.411 z'/>
	<use xlink:href='#gpPt13' id='gpPt14' fill='currentColor' stroke='none'/>
	<filter id='textbox' filterUnits='objectBoundingBox' x='0' y='0' height='1' width='1'>
	  <feFlood flood-color='white' flood-opacity='1' result='bgnd'/>
	  <feComposite in='SourceGraphic' in2='bgnd' operator='atop'/>
	</filter>
	<filter id='greybox' filterUnits='objectBoundingBox' x='0' y='0' height='1' width='1'>
	  <feFlood flood-color='lightgrey' flood-opacity='1' result='grey'/>
	  <feComposite in='SourceGraphic' in2='grey' operator='atop'/>
	</filter>
</defs>
<g fill="none" color="white" stroke="currentColor" stroke-width="1.00" stroke-linecap="butt" stroke-linejoin="miter">
</g>
<g fill="none" color="black" stroke="currentColor" stroke-width="1.00" stroke-linecap="butt" stroke-linejoin="miter">
	<path stroke='black'  d='M71.9,662.4 L80.9,662.4  '/>	<g transform="translate(63.6,666.3)" stroke="none" fill="black" font-family="Helvetica" font-size="12.00"  text-anchor="end">
		<text><tspan font-family="Helvetica" > 0</tspan></text>
	</g>
</g>
<g fill="none" color="black" stroke="currentColor" stroke-width="1.00" stroke-linecap="butt" stroke-linejoin="miter">
	<path stroke='black'  d='M71.9,601.6 L80.9,601.6  '/>	<g transform="translate(63.6,605.5)" stroke="none" fill="black" font-family="Helvetica" font-size="12.00"  text-anchor="end">
		<text><tspan font-family="Helvetica" > 0.2</tspan></text>
	</g>
</g>
<g fill="none" color="black" stroke="currentColor" stroke-width="1.00" stroke-linecap="butt" stroke-linejoin="miter">
	<path stroke='black'  d='M71.9,540.7 L80.9,540.7  '/>	<g transform="translate(63.6,544.6)" stroke="none" fill="black" font-family="Helvetica" font-size="12.00"  text-anchor="end">
		<text><tspan font-family="Helvetica" > 0.4</tspan></text>
	</g>
</g>
<g fill="none" color="black" stroke="currentColor" stroke-width="1.00" stroke-linecap="butt" stroke-linejoin="miter">
	<path stroke='black'  d='M71.9,479.9 L80.9,479.9  '/>	<g transform="translate(63.6,483.8)" stroke="none" fill="black" font-family="Helvetica" font-size="12.00"  text-anchor="end">
		<text><tspan font-family="Helvetica" > 0.6</tspan></text>
	</g>
</g>
<g fill="none" color="black" stroke="currentColor" stroke-width="1.00" stroke-linecap="butt" stroke-linejoin="miter">
	<path stroke='black'  d='M71.9,419.1 L80.9,419.1  '/>	<g transform="translate(63.6,423.0)" stroke="none" fill="black" font-family="Helvetica" font-size="12.00"  text-anchor="end">
		<text><tspan font-family="Helvetica" > 0.8</tspan></text>
	</g>
</g>
<g fill="none" color="black" stroke="currentColor" stroke-width="1.00" stroke-linecap="butt" stroke-linejoin="miter">
	<path stroke='black'  d='M71.9,358.2 L80.9,358.2  '/>	<g transform="translate(63.6,362.1)" stroke="none" fill="black" font-family="Helvetica" font-size="12.00"  text-anchor="end">
		<text><tspan font-family="Helvetica" > 1</tspan></text>
	</g>
</g>
<g fill="none" color="black" stroke="currentColor" stroke-width="1.00" stroke-linecap="butt" stroke-linejoin="miter">
	<path stroke='black'  d='M71.9,297.4 L80.9,297.4  '/>	<g transform="translate(63.6,301.3)" stroke="none" fill="black" font-family="Helvetica" font-size="12.00"  text-anchor="end">
		<text><tspan font-family="Helvetica" > 1.2</tspan></text>
	</g>
</g>
<g fill="none" color="black" stroke="currentColor" stroke-width="1.00" stroke-linecap="butt" stroke-linejoin="miter">
	<path stroke='black'  d='M71.9,236.6 L80.9,236.6  '/>	<g transform="translate(63.6,240.5)" stroke="none" fill="black" font-family="Helvetica" font-size="12.00"  text-anchor="end">
		<text><tspan font-family="Helvetica" > 1.4</tspan></text>
	</g>
</g>
<g fill="none" color="black" stroke="currentColor" stroke-width="1.00" stroke-linecap="butt" stroke-linejoin="miter">
	<path stroke='black'  d='M71.9,175.8 L80.9,175.8  '/>	<g transform="translate(63.6,179.7)" stroke="none" fill="black" font-family="Helvetica" font-size="12.00"  text-anchor="end">
		<text><tspan font-family="Helvetica" > 1.6</tspan></text>
	</g>
</g>
<g fill="none" color="black" stroke="currentColor" stroke-width="1.00" stroke-linecap="butt" stroke-linejoin="miter">
	<path stroke='black'  d='M71.9,114.9 L80.9,114.9  '/>	<g transform="translate(63.6,118.8)" stroke="none" fill="black" font-family="Helvetica" font-size="12.00"  text-anchor="end">
		<text><tspan font-family="Helvetica" > 1.8</tspan></text>
	</g>
</g>
<g fill="none" color="black" stroke="currentColor" stroke-width="1.00" stroke-linecap="butt" stroke-linejoin="miter">
	<path stroke='black'  d='M71.9,54.1 L80.9,54.1  '/>	<g transform="translate(63.6,58.0)" stroke="none" fill="black" font-family="Helvetica" font-size="12.00"  text-anchor="end">
		<text><tspan font-family="Helvetica" > 2</tspan></text>
	</g>
</g>
<g fill="none" color="black" stroke="currentColor" stroke-width="1.00" stroke-linecap="butt" stroke-linejoin="miter">
	<path stroke='black'  d='M234.7,662.4 L234.7,653.4  '/>	<g transform="translate(234.7,684.3)" stroke="none" fill="black" font-family="Helvetica" font-size="12.00"  text-anchor="middle">
		<text><tspan font-family="Helvetica" > 0.4</tspan></text>
	</g>
</g>
<g fill="none" color="black" stroke="currentColor" stroke-width="1.00" stroke-linecap="butt" stroke-linejoin="miter">
	<path stroke='black'  d='M406.1,662.4 L406.1,653.4  '/>	<g transform="translate(406.1,684.3)" stroke="none" fill="black" font-family="Helvetica" font-size="12.00"  text-anchor="middle">
		<text><tspan font-family="Helvetica" > 0.6</tspan></text>
	</g>
</g>
<g fill="none" color="black" stroke="currentColor" stroke-width="1.00" stroke-linecap="butt" stroke-linejoin="miter">
	<path stroke='black'  d='M577.5,662.4 L577.5,653.4  '/>	<g transform="translate(577.5,684.3)" stroke="none" fill="black" font-family="Helvetica" font-size="12.00"  text-anchor="middle">
		<text><tspan font-family="Helvetica" > 0.8</tspan></text>
	</g>
</g>
<g fill="none" color="black" stroke="currentColor" stroke-width="1.00" stroke-linecap="butt" stroke-linejoin="miter">
	<path stroke='black'  d='M748.9,662.4 L748.9,653.4  '/>	<g transform="translate(748.9,684.3)" stroke="none" fill="black" font-family="Helvetica" font-size="12.00"  text-anchor="middle">
		<text><tspan font-family="Helvetica" > 1</tspan></text>
	</g>
</g>
<g fill="none" color="black" stroke="currentColor" stroke-width="1.00" stroke-linecap="butt" stroke-linejoin="miter">
	<path stroke='black'  d='M920.3,662.4 L920.3,653.4  '/>	<g transform="translate(920.3,684.3)" stroke="none" fill="black" font-family="Helvetica" font-size="12.00"  text-anchor="middle">
		<text><tspan font-family="Helvetica" > 1.2</tspan></text>
	</g>
</g>
<g fill="none" color="black" stroke="currentColor" stroke-width="1.00" stroke-linecap="butt" stroke-linejoin="miter">
</g>
<g fill="none" color="black" stroke="currentColor" stroke-width="1.00" stroke-linecap="butt" stroke-linejoin="miter">
	<path stroke='black'  d='M71.9,54.1 L71.9,662.4 L1013.6,662.4 L1013.6,54.1 L71.9,54.1 Z  '/></g>
<g fill="none" color="black" stroke="currentColor" stroke-width="1.00" stroke-linecap="butt" stroke-linejoin="miter">
	<g transform="translate(16.3,358.3) rotate(270)" stroke="none" fill="black" font-family="Helvetica" font-size="12.00"  text-anchor="middle">
		<text><tspan font-family="Helvetica" >Density (a.u.)</tspan></text>
	</g>
</g>
<g fill="none" color="black" stroke="currentColor" stroke-width="1.00" stroke-linecap="butt" stroke-linejoin="miter">
	<g transform="translate(542.7,711.3)" stroke="none" fill="black" font-family="Helvetica" font-size="12.00"  text-anchor="middle">
		<text><tspan font-family="Helvetica" >Average time (us)</tspan></text>
	</g>
</g>
<g fill="none" color="black" stroke="currentColor" stroke-width="1.00" stroke-linecap="butt" stroke-linejoin="miter">
	<g transform="translate(542.7,31.0)" stroke="none" fill="black" font-family="Helvetica" font-size="12.00"  text-anchor="middle">
		<text><tspan font-family="Helvetica" >snapshot_restore_with_dense/Sparse: Entire region + /proc/pid/mem/2: SD</tspan></text>
	</g>
</g>
	<g id="gnuplot_plot_1" ><title>Bootstrap distribution</title>
<g fill="none" color="white" stroke="black" stroke-width="2.00" stroke-linecap="butt" stroke-linejoin="miter">
</g>
<g fill="none" color="black" stroke="currentColor" stroke-width="2.00" stroke-linecap="butt" stroke-linejoin="miter">
	<g transform="translate(1089.0,67.0)" stroke="none" fill="black" font-family="Helvetica" font-size="12.00"  text-anchor="start">
		<text><tspan font-family="Helvetica" >Bootstrap distribution</tspan></text>
	</g>
</g>
<g fill="none" color="black" stroke="currentColor" stroke-width="2.00" stroke-linecap="butt" stroke-linejoin="miter">
	<path stroke='rgb( 31, 120, 180)'  d='M1038.5,63.1 L1080.7,63.1 M71.9,628.0 L73.8,624.7 L75.7,621.4 L77.6,618.1 L79.4,614.9 L81.3,611.8
		L83.2,608.9 L85.1,606.1 L87.0,603.6 L88.9,601.4 L90.8,599.5 L92.7,597.8 L94.5,596.5 L96.4,595.5
		L98.3,594.9 L100.2,594.5 L102.1,594.4 L104.0,594.6 L105.9,594.9 L107.8,595.4 L109.6,596.1 L111.5,596.8
		L113.4,597.6 L115.3,598.3 L117.2,599.0 L119.1,599.6 L121.0,600.1 L122.9,600.4 L124.7,600.5 L126.6,600.5
		L128.5,600.1 L130.4,599.6 L132.3,598.8 L134.2,597.7 L136.1,596.4 L138.0,594.9 L139.8,593.1 L141.7,591.1
		L143.6,588.9 L145.5,586.6 L147.4,584.1 L149.3,581.4 L151.2,578.7 L153.0,575.9 L154.9,573.0 L156.8,570.2
		L158.7,567.3 L160.6,564.6 L162.5,561.8 L164.4,559.2 L166.3,556.7 L168.1,554.3 L170.0,552.1 L171.9,550.0
		L173.8,548.0 L175.7,546.2 L177.6,544.6 L179.5,543.1 L181.4,541.7 L183.2,540.5 L185.1,539.3 L187.0,538.3
		L188.9,537.3 L190.8,536.5 L192.7,535.7 L194.6,534.9 L196.5,534.2 L198.3,533.5 L200.2,532.9 L202.1,532.2
		L204.0,531.5 L205.9,530.9 L207.8,530.2 L209.7,529.5 L211.6,528.7 L213.4,528.0 L215.3,527.2 L217.2,526.5
		L219.1,525.7 L221.0,524.9 L222.9,524.1 L224.8,523.3 L226.6,522.6 L228.5,521.9 L230.4,521.2 L232.3,520.5
		L234.2,520.0 L236.1,519.4 L238.0,519.0 L239.9,518.6 L241.7,518.3 L243.6,518.1 L245.5,517.9 L247.4,517.9
		L249.3,517.9 L251.2,517.9 L253.1,518.0 L255.0,518.2 L256.8,518.4 L258.7,518.6 L260.6,518.9 L262.5,519.1
		L264.4,519.4 L266.3,519.6 L268.2,519.8 L270.1,520.0 L271.9,520.1 L273.8,520.1 L275.7,520.1 L277.6,520.0
		L279.5,519.9 L281.4,519.6 L283.3,519.3 L285.2,519.0 L287.0,518.5 L288.9,518.0 L290.8,517.5 L292.7,516.9
		L294.6,516.2 L296.5,515.6 L298.4,514.9 L300.2,514.2 L302.1,513.5 L304.0,512.7 L305.9,511.9 L307.8,511.1
		L309.7,510.2 L311.6,509.3 L313.5,508.2 L315.3,507.1 L317.2,505.8 L319.1,504.3 L321.0,502.6 L322.9,500.8
		L324.8,498.6 L326.7,496.3 L328.6,493.6 L330.4,490.7 L332.3,487.6 L334.2,484.1 L336.1,480.4 L338.0,476.5
		L339.9,472.4 L341.8,468.0 L343.7,463.5 L345.5,458.9 L347.4,454.1 L349.3,449.3 L351.2,444.3 L353.1,439.3
		L355.0,434.3 L356.9,429.2 L358.8,424.0 L360.6,418.8 L362.5,413.6 L364.4,408.3 L366.3,403.0 L368.2,397.5
		L370.1,392.0 L372.0,386.4 L373.8,380.6 L375.7,374.7 L377.6,368.8 L379.5,362.6 L381.4,356.4 L383.3,350.1
		L385.2,343.7 L387.1,337.2 L388.9,330.6 L390.8,324.0 L392.7,317.5 L394.6,310.9 L396.5,304.4 L398.4,298.0
		L400.3,291.8 L402.2,285.6 L404.0,279.6 L405.9,273.8 L407.8,268.1 L409.7,262.7 L411.6,257.5 L413.5,252.5
		L415.4,247.7 L417.3,243.1 L419.1,238.7 L421.0,234.6 L422.9,230.7 L424.8,227.0 L426.7,223.6 L428.6,220.4
		L430.5,217.4 L432.4,214.7 L434.2,212.2 L436.1,210.0 L438.0,208.1 L439.9,206.4 L441.8,205.0 L443.7,203.9
		L445.6,203.1 L447.4,202.5 L449.3,202.3 L451.2,202.3 L453.1,202.6 L455.0,203.1 L456.9,203.9 L458.8,204.9
		L460.7,206.2 L462.5,207.6 L464.4,209.2 L466.3,211.0 L468.2,212.9 L470.1,215.0 L472.0,217.1 L473.9,219.3
		L475.8,221.5 L477.6,223.8 L479.5,226.0 L481.4,228.2 L483.3,230.4 L485.2,232.4 L487.1,234.3 L489.0,236.1
		L490.9,237.8 L492.7,239.2 L494.6,240.5 L496.5,241.6 L498.4,242.4 L500.3,243.0 L502.2,243.4 L504.1,243.5
		L506.0,243.4 L507.8,243.0 L509.7,242.3 L511.6,241.3 L513.5,240.1 L515.4,238.5 L517.3,236.7 L519.2,234.5
		L521.0,232.1 L522.9,229.3 L524.8,226.2 L526.7,222.8 L528.6,219.1 L530.5,215.2 L532.4,210.9 L534.3,206.4
		L536.1,201.7 L538.0,196.7 L539.9,191.6 L541.8,186.2 L543.7,180.8 L545.6,175.2 L547.5,169.6 L549.4,164.0
		L551.2,158.3 L553.1,152.7 L555.0,147.1 L556.9,141.6 L558.8,136.3 L560.7,131.1 L562.6,126.0 L564.5,121.2
		L566.3,116.6 L568.2,112.3 L570.1,108.2 L572.0,104.4 L573.9,101.0 L575.8,97.8 L577.7,95.1 L579.5,92.6
		L581.4,90.6 L583.3,88.9 L585.2,87.6 L587.1,86.7 L589.0,86.2 L590.9,86.1 L592.8,86.4 L594.6,87.0
		L596.5,88.0 L598.4,89.4 L600.3,91.1 L602.2,93.2 L604.1,95.5 L606.0,98.2 L607.9,101.1 L609.7,104.2
		L611.6,107.6 L613.5,111.1 L615.4,114.8 L617.3,118.6 L619.2,122.6 L621.1,126.6 L623.0,130.7 L624.8,134.9
		L626.7,139.0 L628.6,143.1 L630.5,147.2 L632.4,151.2 L634.3,155.2 L636.2,159.0 L638.1,162.7 L639.9,166.3
		L641.8,169.7 L643.7,172.9 L645.6,176.0 L647.5,178.8 L649.4,181.5 L651.3,184.0 L653.1,186.2 L655.0,188.3
		L656.9,190.1 L658.8,191.7 L660.7,193.1 L662.6,194.4 L664.5,195.4 L666.4,196.3 L668.2,197.0 L670.1,197.6
		L672.0,198.0 L673.9,198.3 L675.8,198.5 L677.7,198.7 L679.6,198.7 L681.5,198.7 L683.3,198.6 L685.2,198.5
		L687.1,198.4 L689.0,198.3 L690.9,198.3 L692.8,198.3 L694.7,198.4 L696.6,198.6 L698.4,198.9 L700.3,199.3
		L702.2,199.8 L704.1,200.6 L706.0,201.5 L707.9,202.6 L709.8,203.9 L711.7,205.4 L713.5,207.2 L715.4,209.2
		L717.3,211.5 L719.2,213.9 L721.1,216.7 L723.0,219.7 L724.9,222.9 L726.7,226.4 L728.6,230.1 L730.5,234.0
		L732.4,238.1 L734.3,242.4 L736.2,246.9 L738.1,251.5 L740.0,256.2 L741.8,261.0 L743.7,265.9 L745.6,270.9
		L747.5,275.9 L749.4,280.9 L751.3,285.9 L753.2,290.9 L755.1,295.8 L756.9,300.7 L758.8,305.5 L760.7,310.2
		L762.6,314.8 L764.5,319.3 L766.4,323.7 L768.3,328.0 L770.2,332.2 L772.0,336.2 L773.9,340.1 L775.8,343.8
		L777.7,347.5 L779.6,351.0 L781.5,354.4 L783.4,357.6 L785.3,360.8 L787.1,363.8 L789.0,366.8 L790.9,369.6
		L792.8,372.3 L794.7,375.0 L796.6,377.6 L798.5,380.1 L800.3,382.6 L802.2,385.0 L804.1,387.5 L806.0,389.8
		L807.9,392.2 L809.8,394.6 L811.7,397.0 L813.6,399.4 L815.4,401.8 L817.3,404.3 L819.2,406.9 L821.1,409.5
		L823.0,412.1 L824.9,414.9 L826.8,417.7 L828.7,420.6 L830.5,423.6 L832.4,426.6 L834.3,429.7 L836.2,432.9
		L838.1,436.2 L840.0,439.5 L841.9,442.9 L843.8,446.3 L845.6,449.8 L847.5,453.3 L849.4,456.8 L851.3,460.3
		L853.2,463.8 L855.1,467.3 L857.0,470.8 L858.9,474.3 L860.7,477.7 L862.6,481.1 L864.5,484.5 L866.4,487.8
		L868.3,491.0 L870.2,494.2 L872.1,497.3 L873.9,500.4 L875.8,503.4 L877.7,506.4 L879.6,509.3 L881.5,512.1
		L883.4,514.9 L885.3,517.6 L887.2,520.3 L889.0,522.9 L890.9,525.4 L892.8,528.0 L894.7,530.4 L896.6,532.9
		L898.5,535.3 L900.4,537.7 L902.3,540.0 L904.1,542.3 L906.0,544.6 L907.9,546.8 L909.8,549.0 L911.7,551.2
		L913.6,553.4 L915.5,555.5 L917.4,557.6 L919.2,559.7 L921.1,561.8 L923.0,563.9 L924.9,565.9 L926.8,567.9
		L928.7,569.9 L930.6,571.8 L932.5,573.7 L934.3,575.6 L936.2,577.5 L938.1,579.4 L940.0,581.2 L941.9,583.0
		L943.8,584.8 L945.7,586.5 L947.5,588.2 L949.4,589.9 L951.3,591.6 L953.2,593.2 L955.1,594.8 L957.0,596.4
		L958.9,598.0 L960.8,599.6 L962.6,601.1 L964.5,602.6 L966.4,604.1 L968.3,605.5 L970.2,607.0 L972.1,608.4
		L974.0,609.8 L975.9,611.2 L977.7,612.5 L979.6,613.8 L981.5,615.1 L983.4,616.4 L985.3,617.6 L987.2,618.8
		L989.1,620.0 L991.0,621.2 L992.8,622.3 L994.7,623.3 L996.6,624.4 L998.5,625.4 L1000.4,626.4 L1002.3,627.3
		L1004.2,628.2 L1006.1,629.1 L1007.9,630.0 L1009.8,630.8 L1011.7,631.6 L1013.6,632.4  '/></g>
	</g>
	<g id="gnuplot_plot_2" ><title>Confidence interval</title>
<g fill="none" color="white" stroke="rgb( 31, 120, 180)" stroke-width="1.00" stroke-linecap="butt" stroke-linejoin="miter">
</g>
<g fill="none" color="black" stroke="currentColor" stroke-width="1.00" stroke-linecap="butt" stroke-linejoin="miter">
	<g transform="translate(1089.0,85.0)" stroke="none" fill="black" font-family="Helvetica" font-size="12.00"  text-anchor="start">
		<text><tspan font-family="Helvetica" >Confidence interval</tspan></text>
	</g>
</g>
<g fill="none" color="black" stroke="currentColor" stroke-width="1.00" stroke-linecap="butt" stroke-linejoin="miter">
	<g stroke='none' shape-rendering='crispEdges'>
		<polygon fill = 'rgb( 31, 120, 180)' fill-opacity = '0.250000' points = '1038.5,85.6 1080.7,85.6 1080.7,76.6 1038.5,76.6 '/>
		<polygon fill = 'rgb( 31, 120, 180)' fill-opacity = '0.250000' points = '158.7,567.3 160.6,564.6 162.5,561.8 164.4,559.2 166.3,556.7 168.1,554.3 170.0,552.1 171.9,550.0 173.8,548.0 175.7,546.2 177.6,544.6 179.5,543.1 181.4,541.7 183.2,540.5 185.1,539.3 187.0,538.3
188.9,537.3 190.8,536.5 192.7,535.7 194.6,534.9 196.5,534.2 198.3,533.5 200.2,532.9 202.1,532.2 204.0,531.5 205.9,530.9 207.8,530.2 209.7,529.5 211.6,528.7 213.4,528.0 215.3,527.2 217.2,526.5
219.1,525.7 221.0,524.9 222.9,524.1 224.8,523.3 226.6,522.6 228.5,521.9 230.4,521.2 232.3,520.5 234.2,520.0 236.1,519.4 238.0,519.0 239.9,518.6 241.7,518.3 243.6,518.1 245.5,517.9 247.4,517.9
249.3,517.9 251.2,517.9 253.1,518.0 255.0,518.2 256.8,518.4 258.7,518.6 260.6,518.9 262.5,519.1 264.4,519.4 266.3,519.6 268.2,519.8 270.1,520.0 271.9,520.1 273.8,520.1 275.7,520.1 277.6,520.0
279.5,519.9 281.4,519.6 283.3,519.3 285.2,519.0 287.0,518.5 288.9,518.0 290.8,517.5 292.7,516.9 294.6,516.2 296.5,515.6 298.4,514.9 300.2,514.2 302.1,513.5 304.0,512.7 305.9,511.9 307.8,511.1
309.7,510.2 311.6,509.3 313.5,508.2 315.3,507.1 317.2,505.8 319.1,504.3 321.0,502.6 322.9,500.8 324.8,498.6 326.7,496.3 328.6,493.6 330.4,490.7 332.3,487.6 334.2,484.1 336.1,480.4 338.0,476.5
339.9,472.4 341.8,468.0 343.7,463.5 345.5,458.9 347.4,454.1 349.3,449.3 351.2,444.3 353.1,439.3 355.0,434.3 356.9,429.2 358.8,424.0 360.6,418.8 362.5,413.6 364.4,408.3 366.3,403.0 368.2,397.5
370.1,392.0 372.0,386.4 373.8,380.6 375.7,374.7 377.6,368.8 379.5,362.6 381.4,356.4 383.3,350.1 385.2,343.7 387.1,337.2 388.9,330.6 390.8,324.0 392.7,317.5 394.6,310.9 396.5,304.4 398.4,298.0
400.3,291.8 402.2,285.6 404.0,279.6 405.9,273.8 407.8,268.1 409.7,262.7 411.6,257.5 413.5,252.5 415.4,247.7 417.3,243.1 419.1,238.7 421.0,234.6 422.9,230.7 424.8,227.0 426.7,223.6 428.6,220.4
430.5,217.4 432.4,214.7 434.2,212.2 436.1,210.0 438.0,208.1 439.9,206.4 441.8,205.0 443.7,203.9 445.6,203.1 447.4,202.5 449.3,202.3 451.2,202.3 453.1,202.6 455.0,203.1 456.9,203.9 458.8,204.9
460.7,206.2 462.5,207.6 464.4,209.2 466.3,211.0 468.2,212.9 470.1,215.0 472.0,217.1 473.9,219.3 475.8,221.5 477.6,223.8 479.5,226.0 481.4,228.2 483.3,230.4 485.2,232.4 487.1,234.3 489.0,236.1
490.9,237.8 492.7,239.2 494.6,240.5 496.5,241.6 498.4,242.4 500.3,243.0 502.2,243.4 504.1,243.5 506.0,243.4 507.8,243.0 509.7,242.3 511.6,241.3 513.5,240.1 515.4,238.5 517.3,236.7 519.2,234.5
521.0,232.1 522.9,229.3 524.8,226.2 526.7,222.8 528.6,219.1 530.5,215.2 532.4,210.9 534.3,206.4 536.1,201.7 538.0,196.7 539.9,191.6 541.8,186.2 543.7,180.8 545.6,175.2 547.5,169.6 549.4,164.0
551.2,158.3 553.1,152.7 555.0,147.1 556.9,141.6 558.8,136.3 560.7,131.1 562.6,126.0 564.5,121.2 566.3,116.6 568.2,112.3 570.1,108.2 572.0,104.4 573.9,101.0 575.8,97.8 577.7,95.1 579.5,92.6
581.4,90.6 583.3,88.9 585.2,87.6 587.1,86.7 589.0,86.2 590.9,86.1 592.8,86.4 594.6,87.0 596.5,88.0 598.4,89.4 600.3,91.1 602.2,93.2 604.1,95.5 606.0,98.2 607.9,101.1 609.7,104.2
611.6,107.6 613.5,111.1 615.4,114.8 617.3,118.6 619.2,122.6 621.1,126.6 623.0,130.7 624.8,134.9 626.7,139.0 628.6,143.1 630.5,147.2 632.4,151.2 634.3,155.2 636.2,159.0 638.1,162.7 639.9,166.3
641.8,169.7 643.7,172.9 645.6,176.0 647.5,178.8 649.4,181.5 651.3,184.0 653.1,186.2 655.0,188.3 656.9,190.1 658.8,191.7 660.7,193.1 662.6,194.4 664.5,195.4 666.4,196.3 668.2,197.0 670.1,197.6
672.0,198.0 673.9,198.3 675.8,198.5 677.7,198.7 679.6,198.7 681.5,198.7 683.3,198.6 685.2,198.5 687.1,198.4 689.0,198.3 690.9,198.3 692.8,198.3 694.7,198.4 696.6,198.6 698.4,198.9 700.3,199.3
702.2,199.8 704.1,200.6 706.0,201.5 707.9,202.6 709.8,203.9 711.7,205.4 713.5,207.2 715.4,209.2 717.3,211.5 719.2,213.9 721.1,216.7 723.0,219.7 724.9,222.9 726.7,226.4 728.6,230.1 730.5,234.0
732.4,238.1 734.3,242.4 736.2,246.9 738.1,251.5 740.0,256.2 741.8,261.0 743.7,265.9 745.6,270.9 747.5,275.9 749.4,280.9 751.3,285.9 753.2,290.9 755.1,295.8 756.9,300.7 758.8,305.5 760.7,310.2
762.6,314.8 764.5,319.3 766.4,323.7 768.3,328.0 770.2,332.2 772.0,336.2 773.9,340.1 775.8,343.8 777.7,347.5 779.6,351.0 781.5,354.4 783.4,357.6 785.3,360.8 787.1,363.8 789.0,366.8 790.9,369.6
792.8,372.3 794.7,375.0 796.6,377.6 798.5,380.1 800.3,382.6 802.2,385.0 804.1,387.5 806.0,389.8 807.9,392.2 809.8,394.6 811.7,397.0 813.6,399.4 815.4,401.8 817.3,404.3 819.2,406.9 821.1,409.5
823.0,412.1 824.9,414.9 826.8,417.7 828.7,420.6 830.5,423.6 832.4,426.6 834.3,429.7 836.2,432.9 838.1,436.2 840.0,439.5 841.9,442.9 843.8,446.3 845.6,449.8 847.5,453.3 849.4,456.8 851.3,460.3
853.2,463.8 855.1,467.3 857.0,470.8 858.9,474.3 860.7,477.7 862.6,481.1 864.5,484.5 866.4,487.8 868.3,491.0 870.2,494.2 872.1,497.3 873.9,500.4 875.8,503.4 877.7,506.4 879.6,509.3 881.5,512.1
883.4,514.9 885.3,517.6 887.2,520.3 889.0,522.9 890.9,525.4 892.8,528.0 894.7,530.4 896.6,532.9 898.5,535.3 900.4,537.7 902.3,540.0 904.1,542.3 906.0,544.6 907.9,546.8 909.8,549.0 911.7,551.2
913.6,553.4 915.5,555.5 917.4,557.6 919.2,559.7 921.1,561.8 923.0,563.9 924.9,565.9 924.9,662.4 923.0,662.4 921.1,662.4 919.2,662.4 917.4,662.4 915.5,662.4 913.6,662.4 911.7,662.4 909.8,662.4
907.9,662.4 906.0,662.4 904.1,662.4 902.3,662.4 900.4,662.4 898.5,662.4 896.6,662.4 894.7,662.4 892.8,662.4 890.9,662.4 889.0,662.4 887.2,662.4 885.3,662.4 883.4,662.4 881.5,662.4 879.6,662.4
877.7,662.4 875.8,662.4 873.9,662.4 872.1,662.4 870.2,662.4 868.3,662.4 866.4,662.4 864.5,662.4 862.6,662.4 860.7,662.4 858.9,662.4 857.0,662.4 855.1,662.4 853.2,662.4 851.3,662.4 849.4,662.4
847.5,662.4 845.6,662.4 843.8,662.4 841.9,662.4 840.0,662.4 838.1,662.4 836.2,662.4 834.3,662.4 832.4,662.4 830.5,662.4 828.7,662.4 826.8,662.4 824.9,662.4 823.0,662.4 821.1,662.4 819.2,662.4
817.3,662.4 815.4,662.4 813.6,662.4 811.7,662.4 809.8,662.4 807.9,662.4 806.0,662.4 804.1,662.4 802.2,662.4 800.3,662.4 798.5,662.4 796.6,662.4 794.7,662.4 792.8,662.4 790.9,662.4 789.0,662.4
787.1,662.4 785.3,662.4 783.4,662.4 781.5,662.4 779.6,662.4 777.7,662.4 775.8,662.4 773.9,662.4 772.0,662.4 770.2,662.4 768.3,662.4 766.4,662.4 764.5,662.4 762.6,662.4 760.7,662.4 758.8,662.4
756.9,662.4 755.1,662.4 753.2,662.4 751.3,662.4 749.4,662.4 747.5,662.4 745.6,662.4 743.7,662.4 741.8,662.4 740.0,662.4 738.1,662.4 736.2,662.4 734.3,662.4 732.4,662.4 730.5,662.4 728.6,662.4
726.7,662.4 724.9,662.4 723.0,662.4 721.1,662.4 719.2,662.4 717.3,662.4 715.4,662.4 713.5,662.4 711.7,662.4 709.8,662.4 707.9,662.4 706.0,662.4 704.1,662.4 702.2,662.4 700.3,662.4 698.4,662.4
696.6,662.4 694.7,662.4 692.8,662.4 690.9,662.4 689.0,662.4 687.1,662.4 685.2,662.4 683.3,662.4 681.5,662.4 679.6,662.4 677.7,662.4 675.8,662.4 673.9,662.4 672.0,662.4 670.1,662.4 668.2,662.4
666.4,662.4 664.5,662.4 662.6,662.4 660.7,662.4 658.8,662.4 656.9,662.4 655.0,662.4 653.1,662.4 651.3,662.4 649.4,662.4 647.5,662.4 645.6,662.4 643.7,662.4 641.8,662.4 639.9,662.4 638.1,662.4
636.2,662.4 634.3,662.4 632.4,662.4 630.5,662.4 628.6,662.4 626.7,662.4 624.8,662.4 623.0,662.4 621.1,662.4 619.2,662.4 617.3,662.4 615.4,662.4 613.5,662.4 611.6,662.4 609.7,662.4 607.9,662.4
606.0,662.4 604.1,662.4 602.2,662.4 600.3,662.4 598.4,662.4 596.5,662.4 594.6,662.4 592.8,662.4 590.9,662.4 589.0,662.4 587.1,662.4 585.2,662.4 583.3,662.4 581.4,662.4 579.5,662.4 577.7,662.4
575.8,662.4 573.9,662.4 572.0,662.4 570.1,662.4 568.2,662.4 566.3,662.4 564.5,662.4 562.6,662.4 560.7,662.4 558.8,662.4 556.9,662.4 555.0,662.4 553.1,662.4 551.2,662.4 549.4,662.4 547.5,662.4
545.6,662.4 543.7,662.4 541.8,662.4 539.9,662.4 538.0,662.4 536.1,662.4 534.3,662.4 532.4,662.4 530.5,662.4 528.6,662.4 526.7,662.4 524.8,662.4 522.9,662.4 521.0,662.4 519.2,662.4 517.3,662.4
515.4,662.4 513.5,662.4 511.6,662.4 509.7,662.4 507.8,662.4 506.0,662.4 504.1,662.4 502.2,662.4 500.3,662.4 498.4,662.4 496.5,662.4 494.6,662.4 492.7,662.4 490.9,662.4 489.0,662.4 487.1,662.4
485.2,662.4 483.3,662.4 481.4,662.4 479.5,662.4 477.6,662.4 475.8,662.4 473.9,662.4 472.0,662.4 470.1,662.4 468.2,662.4 466.3,662.4 464.4,662.4 462.5,662.4 460.7,662.4 458.8,662.4 456.9,662.4
455.0,662.4 453.1,662.4 451.2,662.4 449.3,662.4 447.4,662.4 445.6,662.4 443.7,662.4 441.8,662.4 439.9,662.4 438.0,662.4 436.1,662.4 434.2,662.4 432.4,662.4 430.5,662.4 428.6,662.4 426.7,662.4
424.8,662.4 422.9,662.4 421.0,662.4 419.1,662.4 417.3,662.4 415.4,662.4 413.5,662.4 411.6,662.4 409.7,662.4 407.8,662.4 405.9,662.4 404.0,662.4 402.2,662.4 400.3,662.4 398.4,662.4 396.5,662.4
394.6,662.4 392.7,662.4 390.8,662.4 388.9,662.4 387.1,662.4 385.2,662.4 383.3,662.4 381.4,662.4 379.5,662.4 377.6,662.4 375.7,662.4 373.8,662.4 372.0,662.4 370.1,662.4 368.2,662.4 366.3,662.4
364.4,662.4 362.5,662.4 360.6,662.4 358.8,662.4 356.9,662.4 355.0,662.4 353.1,662.4 351.2,662.4 349.3,662.4 347.4,662.4 345.5,662.4 343.7,662.4 341.8,662.4 339.9,662.4 338.0,662.4 336.1,662.4
334.2,662.4 332.3,662.4 330.4,662.4 328.6,662.4 326.7,662.4 324.8,662.4 322.9,662.4 321.0,662.4 319.1,662.4 317.2,662.4 315.3,662.4 313.5,662.4 311.6,662.4 309.7,662.4 307.8,662.4 305.9,662.4
304.0,662.4 302.1,662.4 300.2,662.4 298.4,662.4 296.5,662.4 294.6,662.4 292.7,662.4 290.8,662.4 288.9,662.4 287.0,662.4 285.2,662.4 283.3,662.4 281.4,662.4 279.5,662.4 277.6,662.4 275.7,662.4
273.8,662.4 271.9,662.4 270.1,662.4 268.2,662.4 266.3,662.4 264.4,662.4 262.5,662.4 260.6,662.4 258.7,662.4 256.8,662.4 255.0,662.4 253.1,662.4 251.2,662.4 249.3,662.4 247.4,662.4 245.5,662.4
243.6,662.4 241.7,662.4 239.9,662.4 238.0,662.4 236.1,662.4 234.2,662.4 232.3,662.4 230.4,662.4 228.5,662.4 226.6,662.4 224.8,662.4 222.9,662.4 221.0,662.4 219.1,662.4 217.2,662.4 215.3,662.4
213.4,662.4 211.6,662.4 209.7,662.4 207.8,662.4 205.9,662.4 204.0,662.4 202.1,662.4 200.2,662.4 198.3,662.4 196.5,662.4 194.6,662.4 192.7,662.4 190.8,662.4 188.9,662.4 187.0,662.4 185.1,662.4
183.2,662.4 181.4,662.4 179.5,662.4 177.6,662.4 175.7,662.4 173.8,662.4 171.9,662.4 170.0,662.4 168.1,662.4 166.3,662.4 164.4,662.4 162.5,662.4 160.6,662.4 158.7,662.4 '/>
	</g>
</g>
	</g>
	<g id="gnuplot_plot_3" ><title>Point estimate</title>
<g fill="none" color="white" stroke="rgb( 31, 120, 180)" stroke-width="2.00" stroke-linecap="butt" stroke-linejoin="miter">
</g>
<g fill="none" color="black" stroke="currentColor" stroke-width="2.00" stroke-linecap="butt" stroke-linejoin="miter">
	<g transform="translate(1089.0,103.0)" stroke="none" fill="black" font-family="Helvetica" font-size="12.00"  text-anchor="start">
		<text><tspan font-family="Helvetica" >Point estimate</tspan></text>
	</g>
</g>
<g fill="none" color="black" stroke="currentColor" stroke-width="2.00" stroke-linecap="butt" stroke-linejoin="miter">
	<path stroke='rgb( 31, 120, 180)'  d='M1038.5,99.1 L1080.7,99.1 M599.0,662.4 L599.0,89.9  '/></g>
	</g>
<g fill="none" color="black" stroke="currentColor" stroke-width="2.00" stroke-linecap="butt" stroke-linejoin="miter">
</g>
<g fill="none" color="black" stroke="black" stroke-width="1.00" stroke-linecap="butt" stroke-linejoin="miter">
</g>
<g fill="none" color="black" stroke="currentColor" stroke-width="1.00" stroke-linecap="butt" stroke-linejoin="miter">
	<path stroke='black'  d='M71.9,54.1 L71.9,662.4 L1013.6,662.4 L1013.6,54.1 L71.9,54.1 Z  '/></g>
<g fill="none" color="black" stroke="currentColor" stroke-width="1.00" stroke-linecap="butt" stroke-linejoin="miter">
</g>
</g>
</svg>

