group,function,value,throughput_num,throughput_type,sample_measured_value,unit,iteration_count
snapshot_restore_with_dense,Dense: Entire region + /proc/pid/mem,22,,,1069203.0,ns,24
snapshot_restore_with_dense,Dense: Entire region + /proc/pid/mem,22,,,2046465.0,ns,48
snapshot_restore_with_dense,Dense: Entire region + /proc/pid/mem,22,,,3085437.0,ns,72
snapshot_restore_with_dense,Dense: Entire region + /proc/pid/mem,22,,,4169575.0,ns,96
snapshot_restore_with_dense,Dense: Entire region + /proc/pid/mem,22,,,5212517.0,ns,120
snapshot_restore_with_dense,Dense: Entire region + /proc/pid/mem,22,,,6189486.0,ns,144
snapshot_restore_with_dense,Dense: Entire region + /proc/pid/mem,22,,,8961237.0,ns,168
snapshot_restore_with_dense,Dense: Entire region + /proc/pid/mem,22,,,12631829.0,ns,192
snapshot_restore_with_dense,Dense: Entire region + /proc/pid/mem,22,,,9332329.0,ns,216
snapshot_restore_with_dense,Dense: Entire region + /proc/pid/mem,22,,,10297345.0,ns,240
snapshot_restore_with_dense,Dense: Entire region + /proc/pid/mem,22,,,11250307.0,ns,264
snapshot_restore_with_dense,Dense: Entire region + /proc/pid/mem,22,,,12249612.0,ns,288
snapshot_restore_with_dense,Dense: Entire region + /proc/pid/mem,22,,,13357104.0,ns,312
snapshot_restore_with_dense,Dense: Entire region + /proc/pid/mem,22,,,14328204.0,ns,336
snapshot_restore_with_dense,Dense: Entire region + /proc/pid/mem,22,,,15342998.0,ns,360
snapshot_restore_with_dense,Dense: Entire region + /proc/pid/mem,22,,,16530615.0,ns,384
snapshot_restore_with_dense,Dense: Entire region + /proc/pid/mem,22,,,17388680.0,ns,408
snapshot_restore_with_dense,Dense: Entire region + /proc/pid/mem,22,,,18402290.0,ns,432
snapshot_restore_with_dense,Dense: Entire region + /proc/pid/mem,22,,,19463572.0,ns,456
snapshot_restore_with_dense,Dense: Entire region + /proc/pid/mem,22,,,20462024.0,ns,480
snapshot_restore_with_dense,Dense: Entire region + /proc/pid/mem,22,,,21448150.0,ns,504
snapshot_restore_with_dense,Dense: Entire region + /proc/pid/mem,22,,,22559090.0,ns,528
snapshot_restore_with_dense,Dense: Entire region + /proc/pid/mem,22,,,23508682.0,ns,552
snapshot_restore_with_dense,Dense: Entire region + /proc/pid/mem,22,,,24743463.0,ns,576
snapshot_restore_with_dense,Dense: Entire region + /proc/pid/mem,22,,,26029455.0,ns,600
snapshot_restore_with_dense,Dense: Entire region + /proc/pid/mem,22,,,26581499.0,ns,624
snapshot_restore_with_dense,Dense: Entire region + /proc/pid/mem,22,,,27610673.0,ns,648
snapshot_restore_with_dense,Dense: Entire region + /proc/pid/mem,22,,,28701608.0,ns,672
snapshot_restore_with_dense,Dense: Entire region + /proc/pid/mem,22,,,29682707.0,ns,696
snapshot_restore_with_dense,Dense: Entire region + /proc/pid/mem,22,,,30662420.0,ns,720
snapshot_restore_with_dense,Dense: Entire region + /proc/pid/mem,22,,,31766062.0,ns,744
snapshot_restore_with_dense,Dense: Entire region + /proc/pid/mem,22,,,32801667.0,ns,768
snapshot_restore_with_dense,Dense: Entire region + /proc/pid/mem,22,,,33804138.0,ns,792
snapshot_restore_with_dense,Dense: Entire region + /proc/pid/mem,22,,,34884247.0,ns,816
snapshot_restore_with_dense,Dense: Entire region + /proc/pid/mem,22,,,35811428.0,ns,840
snapshot_restore_with_dense,Dense: Entire region + /proc/pid/mem,22,,,36781284.0,ns,864
snapshot_restore_with_dense,Dense: Entire region + /proc/pid/mem,22,,,37909422.0,ns,888
snapshot_restore_with_dense,Dense: Entire region + /proc/pid/mem,22,,,38874730.0,ns,912
snapshot_restore_with_dense,Dense: Entire region + /proc/pid/mem,22,,,39880879.0,ns,936
snapshot_restore_with_dense,Dense: Entire region + /proc/pid/mem,22,,,40971918.0,ns,960
snapshot_restore_with_dense,Dense: Entire region + /proc/pid/mem,22,,,41886463.0,ns,984
snapshot_restore_with_dense,Dense: Entire region + /proc/pid/mem,22,,,43105004.0,ns,1008
snapshot_restore_with_dense,Dense: Entire region + /proc/pid/mem,22,,,43956899.0,ns,1032
snapshot_restore_with_dense,Dense: Entire region + /proc/pid/mem,22,,,45051018.0,ns,1056
snapshot_restore_with_dense,Dense: Entire region + /proc/pid/mem,22,,,46063682.0,ns,1080
snapshot_restore_with_dense,Dense: Entire region + /proc/pid/mem,22,,,47033588.0,ns,1104
snapshot_restore_with_dense,Dense: Entire region + /proc/pid/mem,22,,,48098779.0,ns,1128
snapshot_restore_with_dense,Dense: Entire region + /proc/pid/mem,22,,,49038834.0,ns,1152
snapshot_restore_with_dense,Dense: Entire region + /proc/pid/mem,22,,,50201773.0,ns,1176
snapshot_restore_with_dense,Dense: Entire region + /proc/pid/mem,22,,,56196389.0,ns,1200
snapshot_restore_with_dense,Dense: Entire region + /proc/pid/mem,22,,,52401634.0,ns,1224
snapshot_restore_with_dense,Dense: Entire region + /proc/pid/mem,22,,,53156248.0,ns,1248
snapshot_restore_with_dense,Dense: Entire region + /proc/pid/mem,22,,,54301675.0,ns,1272
snapshot_restore_with_dense,Dense: Entire region + /proc/pid/mem,22,,,55259670.0,ns,1296
snapshot_restore_with_dense,Dense: Entire region + /proc/pid/mem,22,,,56272381.0,ns,1320
snapshot_restore_with_dense,Dense: Entire region + /proc/pid/mem,22,,,57324908.0,ns,1344
snapshot_restore_with_dense,Dense: Entire region + /proc/pid/mem,22,,,58295645.0,ns,1368
snapshot_restore_with_dense,Dense: Entire region + /proc/pid/mem,22,,,59355518.0,ns,1392
snapshot_restore_with_dense,Dense: Entire region + /proc/pid/mem,22,,,60297239.0,ns,1416
snapshot_restore_with_dense,Dense: Entire region + /proc/pid/mem,22,,,61356748.0,ns,1440
snapshot_restore_with_dense,Dense: Entire region + /proc/pid/mem,22,,,62413220.0,ns,1464
snapshot_restore_with_dense,Dense: Entire region + /proc/pid/mem,22,,,63390197.0,ns,1488
snapshot_restore_with_dense,Dense: Entire region + /proc/pid/mem,22,,,64531499.0,ns,1512
snapshot_restore_with_dense,Dense: Entire region + /proc/pid/mem,22,,,65471093.0,ns,1536
snapshot_restore_with_dense,Dense: Entire region + /proc/pid/mem,22,,,66491473.0,ns,1560
snapshot_restore_with_dense,Dense: Entire region + /proc/pid/mem,22,,,67526185.0,ns,1584
snapshot_restore_with_dense,Dense: Entire region + /proc/pid/mem,22,,,68720928.0,ns,1608
snapshot_restore_with_dense,Dense: Entire region + /proc/pid/mem,22,,,69595288.0,ns,1632
snapshot_restore_with_dense,Dense: Entire region + /proc/pid/mem,22,,,70564855.0,ns,1656
snapshot_restore_with_dense,Dense: Entire region + /proc/pid/mem,22,,,71620197.0,ns,1680
snapshot_restore_with_dense,Dense: Entire region + /proc/pid/mem,22,,,72676939.0,ns,1704
snapshot_restore_with_dense,Dense: Entire region + /proc/pid/mem,22,,,73916153.0,ns,1728
snapshot_restore_with_dense,Dense: Entire region + /proc/pid/mem,22,,,74722460.0,ns,1752
snapshot_restore_with_dense,Dense: Entire region + /proc/pid/mem,22,,,75668548.0,ns,1776
snapshot_restore_with_dense,Dense: Entire region + /proc/pid/mem,22,,,76788690.0,ns,1800
snapshot_restore_with_dense,Dense: Entire region + /proc/pid/mem,22,,,77719416.0,ns,1824
snapshot_restore_with_dense,Dense: Entire region + /proc/pid/mem,22,,,78798452.0,ns,1848
snapshot_restore_with_dense,Dense: Entire region + /proc/pid/mem,22,,,79709445.0,ns,1872
snapshot_restore_with_dense,Dense: Entire region + /proc/pid/mem,22,,,80815098.0,ns,1896
snapshot_restore_with_dense,Dense: Entire region + /proc/pid/mem,22,,,82044123.0,ns,1920
snapshot_restore_with_dense,Dense: Entire region + /proc/pid/mem,22,,,83320693.0,ns,1944
snapshot_restore_with_dense,Dense: Entire region + /proc/pid/mem,22,,,83894249.0,ns,1968
snapshot_restore_with_dense,Dense: Entire region + /proc/pid/mem,22,,,84973125.0,ns,1992
snapshot_restore_with_dense,Dense: Entire region + /proc/pid/mem,22,,,85896423.0,ns,2016
snapshot_restore_with_dense,Dense: Entire region + /proc/pid/mem,22,,,86991499.0,ns,2040
snapshot_restore_with_dense,Dense: Entire region + /proc/pid/mem,22,,,87984911.0,ns,2064
snapshot_restore_with_dense,Dense: Entire region + /proc/pid/mem,22,,,89002581.0,ns,2088
snapshot_restore_with_dense,Dense: Entire region + /proc/pid/mem,22,,,90021792.0,ns,2112
snapshot_restore_with_dense,Dense: Entire region + /proc/pid/mem,22,,,91044451.0,ns,2136
snapshot_restore_with_dense,Dense: Entire region + /proc/pid/mem,22,,,92058736.0,ns,2160
snapshot_restore_with_dense,Dense: Entire region + /proc/pid/mem,22,,,93084839.0,ns,2184
snapshot_restore_with_dense,Dense: Entire region + /proc/pid/mem,22,,,94245525.0,ns,2208
snapshot_restore_with_dense,Dense: Entire region + /proc/pid/mem,22,,,95166609.0,ns,2232
snapshot_restore_with_dense,Dense: Entire region + /proc/pid/mem,22,,,96196180.0,ns,2256
snapshot_restore_with_dense,Dense: Entire region + /proc/pid/mem,22,,,97193626.0,ns,2280
snapshot_restore_with_dense,Dense: Entire region + /proc/pid/mem,22,,,98197645.0,ns,2304
snapshot_restore_with_dense,Dense: Entire region + /proc/pid/mem,22,,,99175696.0,ns,2328
snapshot_restore_with_dense,Dense: Entire region + /proc/pid/mem,22,,,100307341.0,ns,2352
snapshot_restore_with_dense,Dense: Entire region + /proc/pid/mem,22,,,101557070.0,ns,2376
snapshot_restore_with_dense,Dense: Entire region + /proc/pid/mem,22,,,102354551.0,ns,2400
