group,function,value,throughput_num,throughput_type,sample_measured_value,unit,iteration_count
snapshot_restore_with_dense,Sparse: Dirty pages + process_vm_writev,2,,,1066756.0,ns,171
snapshot_restore_with_dense,Sparse: Dirty pages + process_vm_writev,2,,,2017306.0,ns,342
snapshot_restore_with_dense,Sparse: Dirty pages + process_vm_writev,2,,,2962780.0,ns,513
snapshot_restore_with_dense,Sparse: Dirty pages + process_vm_writev,2,,,3998148.0,ns,684
snapshot_restore_with_dense,Sparse: Dirty pages + process_vm_writev,2,,,5598205.0,ns,855
snapshot_restore_with_dense,Sparse: Dirty pages + process_vm_writev,2,,,5954651.0,ns,1026
snapshot_restore_with_dense,Sparse: Dirty pages + process_vm_writev,2,,,8307354.0,ns,1197
snapshot_restore_with_dense,Sparse: Dirty pages + process_vm_writev,2,,,8427514.0,ns,1368
snapshot_restore_with_dense,Sparse: Dirty pages + process_vm_writev,2,,,9206074.0,ns,1539
snapshot_restore_with_dense,Sparse: Dirty pages + process_vm_writev,2,,,10036759.0,ns,1710
snapshot_restore_with_dense,Sparse: Dirty pages + process_vm_writev,2,,,10939302.0,ns,1881
snapshot_restore_with_dense,Sparse: Dirty pages + process_vm_writev,2,,,11814398.0,ns,2052
snapshot_restore_with_dense,Sparse: Dirty pages + process_vm_writev,2,,,12879821.0,ns,2223
snapshot_restore_with_dense,Sparse: Dirty pages + process_vm_writev,2,,,13863871.0,ns,2394
snapshot_restore_with_dense,Sparse: Dirty pages + process_vm_writev,2,,,14822547.0,ns,2565
snapshot_restore_with_dense,Sparse: Dirty pages + process_vm_writev,2,,,16173956.0,ns,2736
snapshot_restore_with_dense,Sparse: Dirty pages + process_vm_writev,2,,,16871047.0,ns,2907
snapshot_restore_with_dense,Sparse: Dirty pages + process_vm_writev,2,,,17853913.0,ns,3078
snapshot_restore_with_dense,Sparse: Dirty pages + process_vm_writev,2,,,18855611.0,ns,3249
snapshot_restore_with_dense,Sparse: Dirty pages + process_vm_writev,2,,,19833272.0,ns,3420
snapshot_restore_with_dense,Sparse: Dirty pages + process_vm_writev,2,,,20695375.0,ns,3591
snapshot_restore_with_dense,Sparse: Dirty pages + process_vm_writev,2,,,21644796.0,ns,3762
snapshot_restore_with_dense,Sparse: Dirty pages + process_vm_writev,2,,,22711304.0,ns,3933
snapshot_restore_with_dense,Sparse: Dirty pages + process_vm_writev,2,,,23588627.0,ns,4104
snapshot_restore_with_dense,Sparse: Dirty pages + process_vm_writev,2,,,24738345.0,ns,4275
snapshot_restore_with_dense,Sparse: Dirty pages + process_vm_writev,2,,,25686561.0,ns,4446
snapshot_restore_with_dense,Sparse: Dirty pages + process_vm_writev,2,,,26580656.0,ns,4617
snapshot_restore_with_dense,Sparse: Dirty pages + process_vm_writev,2,,,27676360.0,ns,4788
snapshot_restore_with_dense,Sparse: Dirty pages + process_vm_writev,2,,,28624049.0,ns,4959
snapshot_restore_with_dense,Sparse: Dirty pages + process_vm_writev,2,,,29657388.0,ns,5130
snapshot_restore_with_dense,Sparse: Dirty pages + process_vm_writev,2,,,30669211.0,ns,5301
snapshot_restore_with_dense,Sparse: Dirty pages + process_vm_writev,2,,,31705844.0,ns,5472
snapshot_restore_with_dense,Sparse: Dirty pages + process_vm_writev,2,,,32562227.0,ns,5643
snapshot_restore_with_dense,Sparse: Dirty pages + process_vm_writev,2,,,33536462.0,ns,5814
snapshot_restore_with_dense,Sparse: Dirty pages + process_vm_writev,2,,,34629593.0,ns,5985
snapshot_restore_with_dense,Sparse: Dirty pages + process_vm_writev,2,,,35795018.0,ns,6156
snapshot_restore_with_dense,Sparse: Dirty pages + process_vm_writev,2,,,36685171.0,ns,6327
snapshot_restore_with_dense,Sparse: Dirty pages + process_vm_writev,2,,,37750683.0,ns,6498
snapshot_restore_with_dense,Sparse: Dirty pages + process_vm_writev,2,,,38507576.0,ns,6669
snapshot_restore_with_dense,Sparse: Dirty pages + process_vm_writev,2,,,39634633.0,ns,6840
snapshot_restore_with_dense,Sparse: Dirty pages + process_vm_writev,2,,,40612550.0,ns,7011
snapshot_restore_with_dense,Sparse: Dirty pages + process_vm_writev,2,,,41529165.0,ns,7182
snapshot_restore_with_dense,Sparse: Dirty pages + process_vm_writev,2,,,42569323.0,ns,7353
snapshot_restore_with_dense,Sparse: Dirty pages + process_vm_writev,2,,,43392392.0,ns,7524
snapshot_restore_with_dense,Sparse: Dirty pages + process_vm_writev,2,,,44728869.0,ns,7695
snapshot_restore_with_dense,Sparse: Dirty pages + process_vm_writev,2,,,45591391.0,ns,7866
snapshot_restore_with_dense,Sparse: Dirty pages + process_vm_writev,2,,,46395830.0,ns,8037
snapshot_restore_with_dense,Sparse: Dirty pages + process_vm_writev,2,,,47377825.0,ns,8208
snapshot_restore_with_dense,Sparse: Dirty pages + process_vm_writev,2,,,48658253.0,ns,8379
snapshot_restore_with_dense,Sparse: Dirty pages + process_vm_writev,2,,,49390778.0,ns,8550
snapshot_restore_with_dense,Sparse: Dirty pages + process_vm_writev,2,,,50321857.0,ns,8721
snapshot_restore_with_dense,Sparse: Dirty pages + process_vm_writev,2,,,51501119.0,ns,8892
snapshot_restore_with_dense,Sparse: Dirty pages + process_vm_writev,2,,,52462794.0,ns,9063
snapshot_restore_with_dense,Sparse: Dirty pages + process_vm_writev,2,,,53506669.0,ns,9234
snapshot_restore_with_dense,Sparse: Dirty pages + process_vm_writev,2,,,54375853.0,ns,9405
snapshot_restore_with_dense,Sparse: Dirty pages + process_vm_writev,2,,,55440028.0,ns,9576
snapshot_restore_with_dense,Sparse: Dirty pages + process_vm_writev,2,,,56256052.0,ns,9747
snapshot_restore_with_dense,Sparse: Dirty pages + process_vm_writev,2,,,57392502.0,ns,9918
snapshot_restore_with_dense,Sparse: Dirty pages + process_vm_writev,2,,,58463802.0,ns,10089
snapshot_restore_with_dense,Sparse: Dirty pages + process_vm_writev,2,,,59332310.0,ns,10260
snapshot_restore_with_dense,Sparse: Dirty pages + process_vm_writev,2,,,60382158.0,ns,10431
snapshot_restore_with_dense,Sparse: Dirty pages + process_vm_writev,2,,,61754755.0,ns,10602
snapshot_restore_with_dense,Sparse: Dirty pages + process_vm_writev,2,,,62507221.0,ns,10773
snapshot_restore_with_dense,Sparse: Dirty pages + process_vm_writev,2,,,63256928.0,ns,10944
snapshot_restore_with_dense,Sparse: Dirty pages + process_vm_writev,2,,,64318057.0,ns,11115
snapshot_restore_with_dense,Sparse: Dirty pages + process_vm_writev,2,,,65383224.0,ns,11286
snapshot_restore_with_dense,Sparse: Dirty pages + process_vm_writev,2,,,66139058.0,ns,11457
snapshot_restore_with_dense,Sparse: Dirty pages + process_vm_writev,2,,,67263824.0,ns,11628
snapshot_restore_with_dense,Sparse: Dirty pages + process_vm_writev,2,,,68392141.0,ns,11799
snapshot_restore_with_dense,Sparse: Dirty pages + process_vm_writev,2,,,69192930.0,ns,11970
snapshot_restore_with_dense,Sparse: Dirty pages + process_vm_writev,2,,,70045366.0,ns,12141
snapshot_restore_with_dense,Sparse: Dirty pages + process_vm_writev,2,,,71117967.0,ns,12312
snapshot_restore_with_dense,Sparse: Dirty pages + process_vm_writev,2,,,72245116.0,ns,12483
snapshot_restore_with_dense,Sparse: Dirty pages + process_vm_writev,2,,,73209459.0,ns,12654
snapshot_restore_with_dense,Sparse: Dirty pages + process_vm_writev,2,,,74234972.0,ns,12825
snapshot_restore_with_dense,Sparse: Dirty pages + process_vm_writev,2,,,75121603.0,ns,12996
snapshot_restore_with_dense,Sparse: Dirty pages + process_vm_writev,2,,,76508093.0,ns,13167
snapshot_restore_with_dense,Sparse: Dirty pages + process_vm_writev,2,,,76963500.0,ns,13338
snapshot_restore_with_dense,Sparse: Dirty pages + process_vm_writev,2,,,78223455.0,ns,13509
snapshot_restore_with_dense,Sparse: Dirty pages + process_vm_writev,2,,,79040973.0,ns,13680
snapshot_restore_with_dense,Sparse: Dirty pages + process_vm_writev,2,,,80154239.0,ns,13851
snapshot_restore_with_dense,Sparse: Dirty pages + process_vm_writev,2,,,81102777.0,ns,14022
snapshot_restore_with_dense,Sparse: Dirty pages + process_vm_writev,2,,,82268027.0,ns,14193
snapshot_restore_with_dense,Sparse: Dirty pages + process_vm_writev,2,,,83168426.0,ns,14364
snapshot_restore_with_dense,Sparse: Dirty pages + process_vm_writev,2,,,84218086.0,ns,14535
snapshot_restore_with_dense,Sparse: Dirty pages + process_vm_writev,2,,,85035352.0,ns,14706
snapshot_restore_with_dense,Sparse: Dirty pages + process_vm_writev,2,,,92116800.0,ns,14877
snapshot_restore_with_dense,Sparse: Dirty pages + process_vm_writev,2,,,87290328.0,ns,15048
snapshot_restore_with_dense,Sparse: Dirty pages + process_vm_writev,2,,,88320369.0,ns,15219
snapshot_restore_with_dense,Sparse: Dirty pages + process_vm_writev,2,,,89201891.0,ns,15390
snapshot_restore_with_dense,Sparse: Dirty pages + process_vm_writev,2,,,90210023.0,ns,15561
snapshot_restore_with_dense,Sparse: Dirty pages + process_vm_writev,2,,,90860438.0,ns,15732
snapshot_restore_with_dense,Sparse: Dirty pages + process_vm_writev,2,,,92012611.0,ns,15903
snapshot_restore_with_dense,Sparse: Dirty pages + process_vm_writev,2,,,92890808.0,ns,16074
snapshot_restore_with_dense,Sparse: Dirty pages + process_vm_writev,2,,,94093268.0,ns,16245
snapshot_restore_with_dense,Sparse: Dirty pages + process_vm_writev,2,,,94823328.0,ns,16416
snapshot_restore_with_dense,Sparse: Dirty pages + process_vm_writev,2,,,96099549.0,ns,16587
snapshot_restore_with_dense,Sparse: Dirty pages + process_vm_writev,2,,,96638726.0,ns,16758
snapshot_restore_with_dense,Sparse: Dirty pages + process_vm_writev,2,,,98059802.0,ns,16929
snapshot_restore_with_dense,Sparse: Dirty pages + process_vm_writev,2,,,99230536.0,ns,17100
