group,function,value,throughput_num,throughput_type,sample_measured_value,unit,iteration_count
snapshot_restore_with_dense,Sparse: Dirty pages + /proc/pid/mem,100,,,1301969.0,ns,3
snapshot_restore_with_dense,Sparse: Dirty pages + /proc/pid/mem,100,,,2328975.0,ns,6
snapshot_restore_with_dense,Sparse: Dirty pages + /proc/pid/mem,100,,,3483278.0,ns,9
snapshot_restore_with_dense,Sparse: Dirty pages + /proc/pid/mem,100,,,5264004.0,ns,12
snapshot_restore_with_dense,Sparse: Dirty pages + /proc/pid/mem,100,,,5840085.0,ns,15
snapshot_restore_with_dense,Sparse: Dirty pages + /proc/pid/mem,100,,,7051092.0,ns,18
snapshot_restore_with_dense,Sparse: Dirty pages + /proc/pid/mem,100,,,9825756.0,ns,21
snapshot_restore_with_dense,Sparse: Dirty pages + /proc/pid/mem,100,,,9823484.0,ns,24
snapshot_restore_with_dense,Sparse: Dirty pages + /proc/pid/mem,100,,,10707332.0,ns,27
snapshot_restore_with_dense,Sparse: Dirty pages + /proc/pid/mem,100,,,11638538.0,ns,30
snapshot_restore_with_dense,Sparse: Dirty pages + /proc/pid/mem,100,,,12721675.0,ns,33
snapshot_restore_with_dense,Sparse: Dirty pages + /proc/pid/mem,100,,,13907574.0,ns,36
snapshot_restore_with_dense,Sparse: Dirty pages + /proc/pid/mem,100,,,15081753.0,ns,39
snapshot_restore_with_dense,Sparse: Dirty pages + /proc/pid/mem,100,,,16567901.0,ns,42
snapshot_restore_with_dense,Sparse: Dirty pages + /proc/pid/mem,100,,,17425350.0,ns,45
snapshot_restore_with_dense,Sparse: Dirty pages + /proc/pid/mem,100,,,18694507.0,ns,48
snapshot_restore_with_dense,Sparse: Dirty pages + /proc/pid/mem,100,,,19736906.0,ns,51
snapshot_restore_with_dense,Sparse: Dirty pages + /proc/pid/mem,100,,,20928029.0,ns,54
snapshot_restore_with_dense,Sparse: Dirty pages + /proc/pid/mem,100,,,22155790.0,ns,57
snapshot_restore_with_dense,Sparse: Dirty pages + /proc/pid/mem,100,,,23380014.0,ns,60
snapshot_restore_with_dense,Sparse: Dirty pages + /proc/pid/mem,100,,,26194827.0,ns,63
snapshot_restore_with_dense,Sparse: Dirty pages + /proc/pid/mem,100,,,25524371.0,ns,66
snapshot_restore_with_dense,Sparse: Dirty pages + /proc/pid/mem,100,,,27670728.0,ns,69
snapshot_restore_with_dense,Sparse: Dirty pages + /proc/pid/mem,100,,,28065747.0,ns,72
snapshot_restore_with_dense,Sparse: Dirty pages + /proc/pid/mem,100,,,29333464.0,ns,75
snapshot_restore_with_dense,Sparse: Dirty pages + /proc/pid/mem,100,,,30405635.0,ns,78
snapshot_restore_with_dense,Sparse: Dirty pages + /proc/pid/mem,100,,,31520242.0,ns,81
snapshot_restore_with_dense,Sparse: Dirty pages + /proc/pid/mem,100,,,32648787.0,ns,84
snapshot_restore_with_dense,Sparse: Dirty pages + /proc/pid/mem,100,,,33772922.0,ns,87
snapshot_restore_with_dense,Sparse: Dirty pages + /proc/pid/mem,100,,,34910971.0,ns,90
snapshot_restore_with_dense,Sparse: Dirty pages + /proc/pid/mem,100,,,36163033.0,ns,93
snapshot_restore_with_dense,Sparse: Dirty pages + /proc/pid/mem,100,,,37328555.0,ns,96
snapshot_restore_with_dense,Sparse: Dirty pages + /proc/pid/mem,100,,,38453261.0,ns,99
snapshot_restore_with_dense,Sparse: Dirty pages + /proc/pid/mem,100,,,39733794.0,ns,102
snapshot_restore_with_dense,Sparse: Dirty pages + /proc/pid/mem,100,,,40765236.0,ns,105
snapshot_restore_with_dense,Sparse: Dirty pages + /proc/pid/mem,100,,,42046684.0,ns,108
snapshot_restore_with_dense,Sparse: Dirty pages + /proc/pid/mem,100,,,43073077.0,ns,111
snapshot_restore_with_dense,Sparse: Dirty pages + /proc/pid/mem,100,,,44209461.0,ns,114
snapshot_restore_with_dense,Sparse: Dirty pages + /proc/pid/mem,100,,,45231207.0,ns,117
snapshot_restore_with_dense,Sparse: Dirty pages + /proc/pid/mem,100,,,46510262.0,ns,120
snapshot_restore_with_dense,Sparse: Dirty pages + /proc/pid/mem,100,,,47755852.0,ns,123
snapshot_restore_with_dense,Sparse: Dirty pages + /proc/pid/mem,100,,,49026512.0,ns,126
snapshot_restore_with_dense,Sparse: Dirty pages + /proc/pid/mem,100,,,50192723.0,ns,129
snapshot_restore_with_dense,Sparse: Dirty pages + /proc/pid/mem,100,,,51187507.0,ns,132
snapshot_restore_with_dense,Sparse: Dirty pages + /proc/pid/mem,100,,,52478664.0,ns,135
snapshot_restore_with_dense,Sparse: Dirty pages + /proc/pid/mem,100,,,53371770.0,ns,138
snapshot_restore_with_dense,Sparse: Dirty pages + /proc/pid/mem,100,,,54746148.0,ns,141
snapshot_restore_with_dense,Sparse: Dirty pages + /proc/pid/mem,100,,,56099521.0,ns,144
snapshot_restore_with_dense,Sparse: Dirty pages + /proc/pid/mem,100,,,57148450.0,ns,147
snapshot_restore_with_dense,Sparse: Dirty pages + /proc/pid/mem,100,,,58355235.0,ns,150
snapshot_restore_with_dense,Sparse: Dirty pages + /proc/pid/mem,100,,,59360550.0,ns,153
snapshot_restore_with_dense,Sparse: Dirty pages + /proc/pid/mem,100,,,60478916.0,ns,156
snapshot_restore_with_dense,Sparse: Dirty pages + /proc/pid/mem,100,,,61648111.0,ns,159
snapshot_restore_with_dense,Sparse: Dirty pages + /proc/pid/mem,100,,,62840155.0,ns,162
snapshot_restore_with_dense,Sparse: Dirty pages + /proc/pid/mem,100,,,64308186.0,ns,165
snapshot_restore_with_dense,Sparse: Dirty pages + /proc/pid/mem,100,,,65156066.0,ns,168
snapshot_restore_with_dense,Sparse: Dirty pages + /proc/pid/mem,100,,,66320395.0,ns,171
snapshot_restore_with_dense,Sparse: Dirty pages + /proc/pid/mem,100,,,67468746.0,ns,174
snapshot_restore_with_dense,Sparse: Dirty pages + /proc/pid/mem,100,,,68645437.0,ns,177
snapshot_restore_with_dense,Sparse: Dirty pages + /proc/pid/mem,100,,,69846350.0,ns,180
snapshot_restore_with_dense,Sparse: Dirty pages + /proc/pid/mem,100,,,70998725.0,ns,183
snapshot_restore_with_dense,Sparse: Dirty pages + /proc/pid/mem,100,,,71976395.0,ns,186
snapshot_restore_with_dense,Sparse: Dirty pages + /proc/pid/mem,100,,,73239490.0,ns,189
snapshot_restore_with_dense,Sparse: Dirty pages + /proc/pid/mem,100,,,74652637.0,ns,192
snapshot_restore_with_dense,Sparse: Dirty pages + /proc/pid/mem,100,,,75719625.0,ns,195
snapshot_restore_with_dense,Sparse: Dirty pages + /proc/pid/mem,100,,,76943851.0,ns,198
snapshot_restore_with_dense,Sparse: Dirty pages + /proc/pid/mem,100,,,78216773.0,ns,201
snapshot_restore_with_dense,Sparse: Dirty pages + /proc/pid/mem,100,,,79319532.0,ns,204
snapshot_restore_with_dense,Sparse: Dirty pages + /proc/pid/mem,100,,,80111495.0,ns,207
snapshot_restore_with_dense,Sparse: Dirty pages + /proc/pid/mem,100,,,81530264.0,ns,210
snapshot_restore_with_dense,Sparse: Dirty pages + /proc/pid/mem,100,,,82622451.0,ns,213
snapshot_restore_with_dense,Sparse: Dirty pages + /proc/pid/mem,100,,,83855282.0,ns,216
snapshot_restore_with_dense,Sparse: Dirty pages + /proc/pid/mem,100,,,85128514.0,ns,219
snapshot_restore_with_dense,Sparse: Dirty pages + /proc/pid/mem,100,,,86253819.0,ns,222
snapshot_restore_with_dense,Sparse: Dirty pages + /proc/pid/mem,100,,,87404693.0,ns,225
snapshot_restore_with_dense,Sparse: Dirty pages + /proc/pid/mem,100,,,88806187.0,ns,228
snapshot_restore_with_dense,Sparse: Dirty pages + /proc/pid/mem,100,,,89652602.0,ns,231
snapshot_restore_with_dense,Sparse: Dirty pages + /proc/pid/mem,100,,,90656189.0,ns,234
snapshot_restore_with_dense,Sparse: Dirty pages + /proc/pid/mem,100,,,92123462.0,ns,237
snapshot_restore_with_dense,Sparse: Dirty pages + /proc/pid/mem,100,,,93239118.0,ns,240
snapshot_restore_with_dense,Sparse: Dirty pages + /proc/pid/mem,100,,,94437354.0,ns,243
snapshot_restore_with_dense,Sparse: Dirty pages + /proc/pid/mem,100,,,95578719.0,ns,246
snapshot_restore_with_dense,Sparse: Dirty pages + /proc/pid/mem,100,,,97019160.0,ns,249
snapshot_restore_with_dense,Sparse: Dirty pages + /proc/pid/mem,100,,,97963847.0,ns,252
snapshot_restore_with_dense,Sparse: Dirty pages + /proc/pid/mem,100,,,99157437.0,ns,255
snapshot_restore_with_dense,Sparse: Dirty pages + /proc/pid/mem,100,,,100450535.0,ns,258
snapshot_restore_with_dense,Sparse: Dirty pages + /proc/pid/mem,100,,,101654184.0,ns,261
snapshot_restore_with_dense,Sparse: Dirty pages + /proc/pid/mem,100,,,102404078.0,ns,264
snapshot_restore_with_dense,Sparse: Dirty pages + /proc/pid/mem,100,,,107643518.0,ns,267
snapshot_restore_with_dense,Sparse: Dirty pages + /proc/pid/mem,100,,,104782176.0,ns,270
snapshot_restore_with_dense,Sparse: Dirty pages + /proc/pid/mem,100,,,106105051.0,ns,273
snapshot_restore_with_dense,Sparse: Dirty pages + /proc/pid/mem,100,,,106937951.0,ns,276
snapshot_restore_with_dense,Sparse: Dirty pages + /proc/pid/mem,100,,,108470968.0,ns,279
snapshot_restore_with_dense,Sparse: Dirty pages + /proc/pid/mem,100,,,109381711.0,ns,282
snapshot_restore_with_dense,Sparse: Dirty pages + /proc/pid/mem,100,,,110598230.0,ns,285
snapshot_restore_with_dense,Sparse: Dirty pages + /proc/pid/mem,100,,,112071378.0,ns,288
snapshot_restore_with_dense,Sparse: Dirty pages + /proc/pid/mem,100,,,112975333.0,ns,291
snapshot_restore_with_dense,Sparse: Dirty pages + /proc/pid/mem,100,,,114049129.0,ns,294
snapshot_restore_with_dense,Sparse: Dirty pages + /proc/pid/mem,100,,,115273527.0,ns,297
snapshot_restore_with_dense,Sparse: Dirty pages + /proc/pid/mem,100,,,116307410.0,ns,300
