group,function,value,throughput_num,throughput_type,sample_measured_value,unit,iteration_count
snapshot_restore_with_dense,Sparse: Entire region + /proc/pid/mem,2,,,1075862.0,ns,24
snapshot_restore_with_dense,Sparse: Entire region + /proc/pid/mem,2,,,2066775.0,ns,48
snapshot_restore_with_dense,Sparse: Entire region + /proc/pid/mem,2,,,3082671.0,ns,72
snapshot_restore_with_dense,Sparse: Entire region + /proc/pid/mem,2,,,4131378.0,ns,96
snapshot_restore_with_dense,Sparse: Entire region + /proc/pid/mem,2,,,5777547.0,ns,120
snapshot_restore_with_dense,Sparse: Entire region + /proc/pid/mem,2,,,6171338.0,ns,144
snapshot_restore_with_dense,Sparse: Entire region + /proc/pid/mem,2,,,7970455.0,ns,168
snapshot_restore_with_dense,Sparse: Entire region + /proc/pid/mem,2,,,8686257.0,ns,192
snapshot_restore_with_dense,Sparse: Entire region + /proc/pid/mem,2,,,9663283.0,ns,216
snapshot_restore_with_dense,Sparse: Entire region + /proc/pid/mem,2,,,10298124.0,ns,240
snapshot_restore_with_dense,Sparse: Entire region + /proc/pid/mem,2,,,11241595.0,ns,264
snapshot_restore_with_dense,Sparse: Entire region + /proc/pid/mem,2,,,12289101.0,ns,288
snapshot_restore_with_dense,Sparse: Entire region + /proc/pid/mem,2,,,13254786.0,ns,312
snapshot_restore_with_dense,Sparse: Entire region + /proc/pid/mem,2,,,14298579.0,ns,336
snapshot_restore_with_dense,Sparse: Entire region + /proc/pid/mem,2,,,15392559.0,ns,360
snapshot_restore_with_dense,Sparse: Entire region + /proc/pid/mem,2,,,16326009.0,ns,384
snapshot_restore_with_dense,Sparse: Entire region + /proc/pid/mem,2,,,17372713.0,ns,408
snapshot_restore_with_dense,Sparse: Entire region + /proc/pid/mem,2,,,18393696.0,ns,432
snapshot_restore_with_dense,Sparse: Entire region + /proc/pid/mem,2,,,19504821.0,ns,456
snapshot_restore_with_dense,Sparse: Entire region + /proc/pid/mem,2,,,20441149.0,ns,480
snapshot_restore_with_dense,Sparse: Entire region + /proc/pid/mem,2,,,21497149.0,ns,504
snapshot_restore_with_dense,Sparse: Entire region + /proc/pid/mem,2,,,22492059.0,ns,528
snapshot_restore_with_dense,Sparse: Entire region + /proc/pid/mem,2,,,23527098.0,ns,552
snapshot_restore_with_dense,Sparse: Entire region + /proc/pid/mem,2,,,24627841.0,ns,576
snapshot_restore_with_dense,Sparse: Entire region + /proc/pid/mem,2,,,25509290.0,ns,600
snapshot_restore_with_dense,Sparse: Entire region + /proc/pid/mem,2,,,26575794.0,ns,624
snapshot_restore_with_dense,Sparse: Entire region + /proc/pid/mem,2,,,27666556.0,ns,648
snapshot_restore_with_dense,Sparse: Entire region + /proc/pid/mem,2,,,28630125.0,ns,672
snapshot_restore_with_dense,Sparse: Entire region + /proc/pid/mem,2,,,29618019.0,ns,696
snapshot_restore_with_dense,Sparse: Entire region + /proc/pid/mem,2,,,30640778.0,ns,720
snapshot_restore_with_dense,Sparse: Entire region + /proc/pid/mem,2,,,31760597.0,ns,744
snapshot_restore_with_dense,Sparse: Entire region + /proc/pid/mem,2,,,32692866.0,ns,768
snapshot_restore_with_dense,Sparse: Entire region + /proc/pid/mem,2,,,33699036.0,ns,792
snapshot_restore_with_dense,Sparse: Entire region + /proc/pid/mem,2,,,34841358.0,ns,816
snapshot_restore_with_dense,Sparse: Entire region + /proc/pid/mem,2,,,35864142.0,ns,840
snapshot_restore_with_dense,Sparse: Entire region + /proc/pid/mem,2,,,36808608.0,ns,864
snapshot_restore_with_dense,Sparse: Entire region + /proc/pid/mem,2,,,38014640.0,ns,888
snapshot_restore_with_dense,Sparse: Entire region + /proc/pid/mem,2,,,38971868.0,ns,912
snapshot_restore_with_dense,Sparse: Entire region + /proc/pid/mem,2,,,39892425.0,ns,936
snapshot_restore_with_dense,Sparse: Entire region + /proc/pid/mem,2,,,40928718.0,ns,960
snapshot_restore_with_dense,Sparse: Entire region + /proc/pid/mem,2,,,41848295.0,ns,984
snapshot_restore_with_dense,Sparse: Entire region + /proc/pid/mem,2,,,42998143.0,ns,1008
snapshot_restore_with_dense,Sparse: Entire region + /proc/pid/mem,2,,,43932457.0,ns,1032
snapshot_restore_with_dense,Sparse: Entire region + /proc/pid/mem,2,,,45039453.0,ns,1056
snapshot_restore_with_dense,Sparse: Entire region + /proc/pid/mem,2,,,45975415.0,ns,1080
snapshot_restore_with_dense,Sparse: Entire region + /proc/pid/mem,2,,,47033096.0,ns,1104
snapshot_restore_with_dense,Sparse: Entire region + /proc/pid/mem,2,,,48052450.0,ns,1128
snapshot_restore_with_dense,Sparse: Entire region + /proc/pid/mem,2,,,49159556.0,ns,1152
snapshot_restore_with_dense,Sparse: Entire region + /proc/pid/mem,2,,,50124443.0,ns,1176
snapshot_restore_with_dense,Sparse: Entire region + /proc/pid/mem,2,,,51119022.0,ns,1200
snapshot_restore_with_dense,Sparse: Entire region + /proc/pid/mem,2,,,52130522.0,ns,1224
snapshot_restore_with_dense,Sparse: Entire region + /proc/pid/mem,2,,,53261690.0,ns,1248
snapshot_restore_with_dense,Sparse: Entire region + /proc/pid/mem,2,,,54243817.0,ns,1272
snapshot_restore_with_dense,Sparse: Entire region + /proc/pid/mem,2,,,55245466.0,ns,1296
snapshot_restore_with_dense,Sparse: Entire region + /proc/pid/mem,2,,,56228633.0,ns,1320
snapshot_restore_with_dense,Sparse: Entire region + /proc/pid/mem,2,,,57270755.0,ns,1344
snapshot_restore_with_dense,Sparse: Entire region + /proc/pid/mem,2,,,58710956.0,ns,1368
snapshot_restore_with_dense,Sparse: Entire region + /proc/pid/mem,2,,,59367178.0,ns,1392
snapshot_restore_with_dense,Sparse: Entire region + /proc/pid/mem,2,,,60260627.0,ns,1416
snapshot_restore_with_dense,Sparse: Entire region + /proc/pid/mem,2,,,61410357.0,ns,1440
snapshot_restore_with_dense,Sparse: Entire region + /proc/pid/mem,2,,,62400233.0,ns,1464
snapshot_restore_with_dense,Sparse: Entire region + /proc/pid/mem,2,,,63381979.0,ns,1488
snapshot_restore_with_dense,Sparse: Entire region + /proc/pid/mem,2,,,64441513.0,ns,1512
snapshot_restore_with_dense,Sparse: Entire region + /proc/pid/mem,2,,,65466664.0,ns,1536
snapshot_restore_with_dense,Sparse: Entire region + /proc/pid/mem,2,,,66422923.0,ns,1560
snapshot_restore_with_dense,Sparse: Entire region + /proc/pid/mem,2,,,67449467.0,ns,1584
snapshot_restore_with_dense,Sparse: Entire region + /proc/pid/mem,2,,,68558372.0,ns,1608
snapshot_restore_with_dense,Sparse: Entire region + /proc/pid/mem,2,,,69488862.0,ns,1632
snapshot_restore_with_dense,Sparse: Entire region + /proc/pid/mem,2,,,70655710.0,ns,1656
snapshot_restore_with_dense,Sparse: Entire region + /proc/pid/mem,2,,,71659992.0,ns,1680
snapshot_restore_with_dense,Sparse: Entire region + /proc/pid/mem,2,,,72486892.0,ns,1704
snapshot_restore_with_dense,Sparse: Entire region + /proc/pid/mem,2,,,73637328.0,ns,1728
snapshot_restore_with_dense,Sparse: Entire region + /proc/pid/mem,2,,,74610261.0,ns,1752
snapshot_restore_with_dense,Sparse: Entire region + /proc/pid/mem,2,,,75588351.0,ns,1776
snapshot_restore_with_dense,Sparse: Entire region + /proc/pid/mem,2,,,76715371.0,ns,1800
snapshot_restore_with_dense,Sparse: Entire region + /proc/pid/mem,2,,,77742917.0,ns,1824
snapshot_restore_with_dense,Sparse: Entire region + /proc/pid/mem,2,,,78697923.0,ns,1848
snapshot_restore_with_dense,Sparse: Entire region + /proc/pid/mem,2,,,79712566.0,ns,1872
snapshot_restore_with_dense,Sparse: Entire region + /proc/pid/mem,2,,,80661631.0,ns,1896
snapshot_restore_with_dense,Sparse: Entire region + /proc/pid/mem,2,,,81810940.0,ns,1920
snapshot_restore_with_dense,Sparse: Entire region + /proc/pid/mem,2,,,82749218.0,ns,1944
snapshot_restore_with_dense,Sparse: Entire region + /proc/pid/mem,2,,,83875772.0,ns,1968
snapshot_restore_with_dense,Sparse: Entire region + /proc/pid/mem,2,,,85044282.0,ns,1992
snapshot_restore_with_dense,Sparse: Entire region + /proc/pid/mem,2,,,86142100.0,ns,2016
snapshot_restore_with_dense,Sparse: Entire region + /proc/pid/mem,2,,,87524771.0,ns,2040
snapshot_restore_with_dense,Sparse: Entire region + /proc/pid/mem,2,,,87955112.0,ns,2064
snapshot_restore_with_dense,Sparse: Entire region + /proc/pid/mem,2,,,88934354.0,ns,2088
snapshot_restore_with_dense,Sparse: Entire region + /proc/pid/mem,2,,,89926179.0,ns,2112
snapshot_restore_with_dense,Sparse: Entire region + /proc/pid/mem,2,,,90995493.0,ns,2136
snapshot_restore_with_dense,Sparse: Entire region + /proc/pid/mem,2,,,91992796.0,ns,2160
snapshot_restore_with_dense,Sparse: Entire region + /proc/pid/mem,2,,,92950854.0,ns,2184
snapshot_restore_with_dense,Sparse: Entire region + /proc/pid/mem,2,,,94028039.0,ns,2208
snapshot_restore_with_dense,Sparse: Entire region + /proc/pid/mem,2,,,95011465.0,ns,2232
snapshot_restore_with_dense,Sparse: Entire region + /proc/pid/mem,2,,,96081823.0,ns,2256
snapshot_restore_with_dense,Sparse: Entire region + /proc/pid/mem,2,,,97165112.0,ns,2280
snapshot_restore_with_dense,Sparse: Entire region + /proc/pid/mem,2,,,98402223.0,ns,2304
snapshot_restore_with_dense,Sparse: Entire region + /proc/pid/mem,2,,,99453791.0,ns,2328
snapshot_restore_with_dense,Sparse: Entire region + /proc/pid/mem,2,,,100198030.0,ns,2352
snapshot_restore_with_dense,Sparse: Entire region + /proc/pid/mem,2,,,101223502.0,ns,2376
snapshot_restore_with_dense,Sparse: Entire region + /proc/pid/mem,2,,,102223369.0,ns,2400
