<?xml version="1.0" encoding="utf-8"  standalone="no"?>
<svg 
 viewBox="0 0 1280 720"
 xmlns="http://www.w3.org/2000/svg"
 xmlns:xlink="http://www.w3.org/1999/xlink"
>

<title>Gnuplot</title>
<desc>Produced by GNUPLOT 5.2 patchlevel 6 </desc>

<g id="gnuplot_canvas">

<rect x="0" y="0" width="1280" height="720" fill="none"/>
<defs>

	<circle id='gpDot' r='0.5' stroke-width='0.5' stroke='currentColor'/>
	<path id='gpPt0' stroke-width='0.222' stroke='currentColor' d='M-1,0 h2 M0,-1 v2'/>
	<path id='gpPt1' stroke-width='0.222' stroke='currentColor' d='M-1,-1 L1,1 M1,-1 L-1,1'/>
	<path id='gpPt2' stroke-width='0.222' stroke='currentColor' d='M-1,0 L1,0 M0,-1 L0,1 M-1,-1 L1,1 M-1,1 L1,-1'/>
	<rect id='gpPt3' stroke-width='0.222' stroke='currentColor' x='-1' y='-1' width='2' height='2'/>
	<rect id='gpPt4' stroke-width='0.222' stroke='currentColor' fill='currentColor' x='-1' y='-1' width='2' height='2'/>
	<circle id='gpPt5' stroke-width='0.222' stroke='currentColor' cx='0' cy='0' r='1'/>
	<use xlink:href='#gpPt5' id='gpPt6' fill='currentColor' stroke='none'/>
	<path id='gpPt7' stroke-width='0.222' stroke='currentColor' d='M0,-1.33 L-1.33,0.67 L1.33,0.67 z'/>
	<use xlink:href='#gpPt7' id='gpPt8' fill='currentColor' stroke='none'/>
	<use xlink:href='#gpPt7' id='gpPt9' stroke='currentColor' transform='rotate(180)'/>
	<use xlink:href='#gpPt9' id='gpPt10' fill='currentColor' stroke='none'/>
	<use xlink:href='#gpPt3' id='gpPt11' stroke='currentColor' transform='rotate(45)'/>
	<use xlink:href='#gpPt11' id='gpPt12' fill='currentColor' stroke='none'/>
	<path id='gpPt13' stroke-width='0.222' stroke='currentColor' d='M0,1.330 L1.265,0.411 L0.782,-1.067 L-0.782,-1.076 L-1.265,0.411 z'/>
	<use xlink:href='#gpPt13' id='gpPt14' fill='currentColor' stroke='none'/>
	<filter id='textbox' filterUnits='objectBoundingBox' x='0' y='0' height='1' width='1'>
	  <feFlood flood-color='white' flood-opacity='1' result='bgnd'/>
	  <feComposite in='SourceGraphic' in2='bgnd' operator='atop'/>
	</filter>
	<filter id='greybox' filterUnits='objectBoundingBox' x='0' y='0' height='1' width='1'>
	  <feFlood flood-color='lightgrey' flood-opacity='1' result='grey'/>
	  <feComposite in='SourceGraphic' in2='grey' operator='atop'/>
	</filter>
</defs>
<g fill="none" color="white" stroke="currentColor" stroke-width="1.00" stroke-linecap="butt" stroke-linejoin="miter">
</g>
<g fill="none" color="black" stroke="currentColor" stroke-width="1.00" stroke-linecap="butt" stroke-linejoin="miter">
	<path stroke='black'  d='M63.6,662.4 L72.6,662.4  '/>	<g transform="translate(55.3,666.3)" stroke="none" fill="black" font-family="Helvetica" font-size="12.00"  text-anchor="end">
		<text><tspan font-family="Helvetica" > 0</tspan></text>
	</g>
</g>
<g fill="none" color="black" stroke="currentColor" stroke-width="1.00" stroke-linecap="butt" stroke-linejoin="miter">
	<path stroke='black'  d='M63.6,601.6 L72.6,601.6  '/>	<g transform="translate(55.3,605.5)" stroke="none" fill="black" font-family="Helvetica" font-size="12.00"  text-anchor="end">
		<text><tspan font-family="Helvetica" > 1</tspan></text>
	</g>
</g>
<g fill="none" color="black" stroke="currentColor" stroke-width="1.00" stroke-linecap="butt" stroke-linejoin="miter">
	<path stroke='black'  d='M63.6,540.7 L72.6,540.7  '/>	<g transform="translate(55.3,544.6)" stroke="none" fill="black" font-family="Helvetica" font-size="12.00"  text-anchor="end">
		<text><tspan font-family="Helvetica" > 2</tspan></text>
	</g>
</g>
<g fill="none" color="black" stroke="currentColor" stroke-width="1.00" stroke-linecap="butt" stroke-linejoin="miter">
	<path stroke='black'  d='M63.6,479.9 L72.6,479.9  '/>	<g transform="translate(55.3,483.8)" stroke="none" fill="black" font-family="Helvetica" font-size="12.00"  text-anchor="end">
		<text><tspan font-family="Helvetica" > 3</tspan></text>
	</g>
</g>
<g fill="none" color="black" stroke="currentColor" stroke-width="1.00" stroke-linecap="butt" stroke-linejoin="miter">
	<path stroke='black'  d='M63.6,419.1 L72.6,419.1  '/>	<g transform="translate(55.3,423.0)" stroke="none" fill="black" font-family="Helvetica" font-size="12.00"  text-anchor="end">
		<text><tspan font-family="Helvetica" > 4</tspan></text>
	</g>
</g>
<g fill="none" color="black" stroke="currentColor" stroke-width="1.00" stroke-linecap="butt" stroke-linejoin="miter">
	<path stroke='black'  d='M63.6,358.2 L72.6,358.2  '/>	<g transform="translate(55.3,362.1)" stroke="none" fill="black" font-family="Helvetica" font-size="12.00"  text-anchor="end">
		<text><tspan font-family="Helvetica" > 5</tspan></text>
	</g>
</g>
<g fill="none" color="black" stroke="currentColor" stroke-width="1.00" stroke-linecap="butt" stroke-linejoin="miter">
	<path stroke='black'  d='M63.6,297.4 L72.6,297.4  '/>	<g transform="translate(55.3,301.3)" stroke="none" fill="black" font-family="Helvetica" font-size="12.00"  text-anchor="end">
		<text><tspan font-family="Helvetica" > 6</tspan></text>
	</g>
</g>
<g fill="none" color="black" stroke="currentColor" stroke-width="1.00" stroke-linecap="butt" stroke-linejoin="miter">
	<path stroke='black'  d='M63.6,236.6 L72.6,236.6  '/>	<g transform="translate(55.3,240.5)" stroke="none" fill="black" font-family="Helvetica" font-size="12.00"  text-anchor="end">
		<text><tspan font-family="Helvetica" > 7</tspan></text>
	</g>
</g>
<g fill="none" color="black" stroke="currentColor" stroke-width="1.00" stroke-linecap="butt" stroke-linejoin="miter">
	<path stroke='black'  d='M63.6,175.8 L72.6,175.8  '/>	<g transform="translate(55.3,179.7)" stroke="none" fill="black" font-family="Helvetica" font-size="12.00"  text-anchor="end">
		<text><tspan font-family="Helvetica" > 8</tspan></text>
	</g>
</g>
<g fill="none" color="black" stroke="currentColor" stroke-width="1.00" stroke-linecap="butt" stroke-linejoin="miter">
	<path stroke='black'  d='M63.6,114.9 L72.6,114.9  '/>	<g transform="translate(55.3,118.8)" stroke="none" fill="black" font-family="Helvetica" font-size="12.00"  text-anchor="end">
		<text><tspan font-family="Helvetica" > 9</tspan></text>
	</g>
</g>
<g fill="none" color="black" stroke="currentColor" stroke-width="1.00" stroke-linecap="butt" stroke-linejoin="miter">
	<path stroke='black'  d='M63.6,54.1 L72.6,54.1  '/>	<g transform="translate(55.3,58.0)" stroke="none" fill="black" font-family="Helvetica" font-size="12.00"  text-anchor="end">
		<text><tspan font-family="Helvetica" > 10</tspan></text>
	</g>
</g>
<g fill="none" color="black" stroke="currentColor" stroke-width="1.00" stroke-linecap="butt" stroke-linejoin="miter">
	<path stroke='black'  d='M271.3,662.4 L271.3,653.4  '/>	<g transform="translate(271.3,684.3)" stroke="none" fill="black" font-family="Helvetica" font-size="12.00"  text-anchor="middle">
		<text><tspan font-family="Helvetica" > 31.8</tspan></text>
	</g>
</g>
<g fill="none" color="black" stroke="currentColor" stroke-width="1.00" stroke-linecap="butt" stroke-linejoin="miter">
	<path stroke='black'  d='M503.6,662.4 L503.6,653.4  '/>	<g transform="translate(503.6,684.3)" stroke="none" fill="black" font-family="Helvetica" font-size="12.00"  text-anchor="middle">
		<text><tspan font-family="Helvetica" > 31.85</tspan></text>
	</g>
</g>
<g fill="none" color="black" stroke="currentColor" stroke-width="1.00" stroke-linecap="butt" stroke-linejoin="miter">
	<path stroke='black'  d='M735.8,662.4 L735.8,653.4  '/>	<g transform="translate(735.8,684.3)" stroke="none" fill="black" font-family="Helvetica" font-size="12.00"  text-anchor="middle">
		<text><tspan font-family="Helvetica" > 31.9</tspan></text>
	</g>
</g>
<g fill="none" color="black" stroke="currentColor" stroke-width="1.00" stroke-linecap="butt" stroke-linejoin="miter">
	<path stroke='black'  d='M968.0,662.4 L968.0,653.4  '/>	<g transform="translate(968.0,684.3)" stroke="none" fill="black" font-family="Helvetica" font-size="12.00"  text-anchor="middle">
		<text><tspan font-family="Helvetica" > 31.95</tspan></text>
	</g>
</g>
<g fill="none" color="black" stroke="currentColor" stroke-width="1.00" stroke-linecap="butt" stroke-linejoin="miter">
</g>
<g fill="none" color="black" stroke="currentColor" stroke-width="1.00" stroke-linecap="butt" stroke-linejoin="miter">
	<path stroke='black'  d='M63.6,54.1 L63.6,662.4 L1013.6,662.4 L1013.6,54.1 L63.6,54.1 Z  '/></g>
<g fill="none" color="black" stroke="currentColor" stroke-width="1.00" stroke-linecap="butt" stroke-linejoin="miter">
	<g transform="translate(16.3,358.3) rotate(270)" stroke="none" fill="black" font-family="Helvetica" font-size="12.00"  text-anchor="middle">
		<text><tspan font-family="Helvetica" >Density (a.u.)</tspan></text>
	</g>
</g>
<g fill="none" color="black" stroke="currentColor" stroke-width="1.00" stroke-linecap="butt" stroke-linejoin="miter">
	<g transform="translate(538.6,711.3)" stroke="none" fill="black" font-family="Helvetica" font-size="12.00"  text-anchor="middle">
		<text><tspan font-family="Helvetica" >Average time (us)</tspan></text>
	</g>
</g>
<g fill="none" color="black" stroke="currentColor" stroke-width="1.00" stroke-linecap="butt" stroke-linejoin="miter">
	<g transform="translate(538.6,31.0)" stroke="none" fill="black" font-family="Helvetica" font-size="12.00"  text-anchor="middle">
		<text><tspan font-family="Helvetica" >snapshot_restore_with_dense/Dense: Entire region + process_vm_writev w/ page size/46: mean</tspan></text>
	</g>
</g>
	<g id="gnuplot_plot_1" ><title>Bootstrap distribution</title>
<g fill="none" color="white" stroke="black" stroke-width="2.00" stroke-linecap="butt" stroke-linejoin="miter">
</g>
<g fill="none" color="black" stroke="currentColor" stroke-width="2.00" stroke-linecap="butt" stroke-linejoin="miter">
	<g transform="translate(1089.0,67.0)" stroke="none" fill="black" font-family="Helvetica" font-size="12.00"  text-anchor="start">
		<text><tspan font-family="Helvetica" >Bootstrap distribution</tspan></text>
	</g>
</g>
<g fill="none" color="black" stroke="currentColor" stroke-width="2.00" stroke-linecap="butt" stroke-linejoin="miter">
	<path stroke='rgb( 31, 120, 180)'  d='M1038.5,63.1 L1080.7,63.1 M63.6,629.5 L65.5,628.3 L67.4,627.2 L69.3,626.0 L71.2,624.8 L73.1,623.5
		L75.0,622.2 L76.9,621.0 L78.8,619.7 L80.7,618.3 L82.6,617.0 L84.5,615.6 L86.4,614.3 L88.3,612.9
		L90.3,611.5 L92.2,610.0 L94.1,608.6 L96.0,607.1 L97.9,605.6 L99.8,604.2 L101.7,602.6 L103.6,601.1
		L105.5,599.5 L107.4,598.0 L109.3,596.4 L111.2,594.7 L113.1,593.1 L115.0,591.4 L116.9,589.7 L118.8,587.9
		L120.7,586.2 L122.6,584.3 L124.5,582.5 L126.4,580.6 L128.3,578.7 L130.2,576.7 L132.1,574.7 L134.0,572.6
		L135.9,570.6 L137.8,568.4 L139.8,566.3 L141.7,564.1 L143.6,561.9 L145.5,559.6 L147.4,557.3 L149.3,555.0
		L151.2,552.6 L153.1,550.3 L155.0,547.8 L156.9,545.4 L158.8,542.9 L160.7,540.4 L162.6,537.9 L164.5,535.3
		L166.4,532.7 L168.3,530.0 L170.2,527.3 L172.1,524.6 L174.0,521.8 L175.9,519.0 L177.8,516.2 L179.7,513.3
		L181.6,510.3 L183.5,507.4 L185.4,504.3 L187.3,501.3 L189.3,498.2 L191.2,495.1 L193.1,491.9 L195.0,488.7
		L196.9,485.5 L198.8,482.2 L200.7,479.0 L202.6,475.6 L204.5,472.3 L206.4,468.9 L208.3,465.5 L210.2,462.1
		L212.1,458.7 L214.0,455.2 L215.9,451.6 L217.8,448.1 L219.7,444.5 L221.6,440.8 L223.5,437.1 L225.4,433.4
		L227.3,429.7 L229.2,425.9 L231.1,422.0 L233.0,418.2 L234.9,414.3 L236.8,410.4 L238.8,406.4 L240.7,402.5
		L242.6,398.5 L244.5,394.6 L246.4,390.6 L248.3,386.7 L250.2,382.7 L252.1,378.8 L254.0,374.9 L255.9,371.0
		L257.8,367.2 L259.7,363.4 L261.6,359.7 L263.5,356.0 L265.4,352.3 L267.3,348.7 L269.2,345.2 L271.1,341.7
		L273.0,338.2 L274.9,334.8 L276.8,331.5 L278.7,328.2 L280.6,324.9 L282.5,321.7 L284.4,318.5 L286.3,315.3
		L288.2,312.1 L290.2,309.0 L292.1,305.8 L294.0,302.6 L295.9,299.4 L297.8,296.1 L299.7,292.9 L301.6,289.5
		L303.5,286.2 L305.4,282.8 L307.3,279.3 L309.2,275.8 L311.1,272.3 L313.0,268.8 L314.9,265.2 L316.8,261.6
		L318.7,258.1 L320.6,254.5 L322.5,250.9 L324.4,247.4 L326.3,244.0 L328.2,240.6 L330.1,237.3 L332.0,234.0
		L333.9,230.8 L335.8,227.7 L337.7,224.7 L339.7,221.8 L341.6,219.0 L343.5,216.2 L345.4,213.6 L347.3,211.0
		L349.2,208.5 L351.1,206.0 L353.0,203.6 L354.9,201.2 L356.8,198.8 L358.7,196.5 L360.6,194.1 L362.5,191.8
		L364.4,189.4 L366.3,187.0 L368.2,184.6 L370.1,182.1 L372.0,179.6 L373.9,177.1 L375.8,174.5 L377.7,171.9
		L379.6,169.2 L381.5,166.6 L383.4,163.9 L385.3,161.1 L387.2,158.4 L389.2,155.7 L391.1,152.9 L393.0,150.2
		L394.9,147.5 L396.8,144.9 L398.7,142.2 L400.6,139.6 L402.5,137.1 L404.4,134.6 L406.3,132.1 L408.2,129.7
		L410.1,127.4 L412.0,125.1 L413.9,122.9 L415.8,120.7 L417.7,118.6 L419.6,116.6 L421.5,114.6 L423.4,112.7
		L425.3,110.9 L427.2,109.1 L429.1,107.4 L431.0,105.7 L432.9,104.2 L434.8,102.7 L436.7,101.3 L438.7,99.9
		L440.6,98.7 L442.5,97.5 L444.4,96.4 L446.3,95.4 L448.2,94.5 L450.1,93.7 L452.0,93.0 L453.9,92.4
		L455.8,91.8 L457.7,91.4 L459.6,91.0 L461.5,90.7 L463.4,90.5 L465.3,90.3 L467.2,90.2 L469.1,90.2
		L471.0,90.3 L472.9,90.4 L474.8,90.5 L476.7,90.8 L478.6,91.1 L480.5,91.4 L482.4,91.9 L484.3,92.4
		L486.2,92.9 L488.1,93.6 L490.1,94.3 L492.0,95.0 L493.9,95.9 L495.8,96.8 L497.7,97.8 L499.6,98.8
		L501.5,99.9 L503.4,101.1 L505.3,102.3 L507.2,103.5 L509.1,104.8 L511.0,106.2 L512.9,107.6 L514.8,109.0
		L516.7,110.5 L518.6,112.0 L520.5,113.5 L522.4,115.1 L524.3,116.7 L526.2,118.3 L528.1,120.0 L530.0,121.7
		L531.9,123.4 L533.8,125.1 L535.7,126.9 L537.6,128.6 L539.6,130.4 L541.5,132.2 L543.4,134.1 L545.3,135.9
		L547.2,137.7 L549.1,139.6 L551.0,141.4 L552.9,143.3 L554.8,145.2 L556.7,147.0 L558.6,148.9 L560.5,150.7
		L562.4,152.6 L564.3,154.5 L566.2,156.3 L568.1,158.2 L570.0,160.1 L571.9,162.1 L573.8,164.0 L575.7,166.0
		L577.6,168.0 L579.5,170.1 L581.4,172.2 L583.3,174.4 L585.2,176.7 L587.1,179.0 L589.1,181.3 L591.0,183.8
		L592.9,186.3 L594.8,188.9 L596.7,191.5 L598.6,194.3 L600.5,197.0 L602.4,199.9 L604.3,202.8 L606.2,205.7
		L608.1,208.6 L610.0,211.5 L611.9,214.5 L613.8,217.4 L615.7,220.3 L617.6,223.2 L619.5,226.0 L621.4,228.8
		L623.3,231.5 L625.2,234.1 L627.1,236.7 L629.0,239.2 L630.9,241.7 L632.8,244.1 L634.7,246.4 L636.6,248.7
		L638.5,251.0 L640.5,253.2 L642.4,255.5 L644.3,257.7 L646.2,260.0 L648.1,262.3 L650.0,264.6 L651.9,267.0
		L653.8,269.4 L655.7,271.9 L657.6,274.5 L659.5,277.1 L661.4,279.8 L663.3,282.6 L665.2,285.4 L667.1,288.3
		L669.0,291.3 L670.9,294.2 L672.8,297.2 L674.7,300.3 L676.6,303.3 L678.5,306.3 L680.4,309.4 L682.3,312.4
		L684.2,315.3 L686.1,318.3 L688.0,321.2 L690.0,324.1 L691.9,326.9 L693.8,329.7 L695.7,332.5 L697.6,335.2
		L699.5,337.8 L701.4,340.4 L703.3,343.0 L705.2,345.6 L707.1,348.1 L709.0,350.6 L710.9,353.1 L712.8,355.6
		L714.7,358.2 L716.6,360.7 L718.5,363.2 L720.4,365.8 L722.3,368.4 L724.2,371.0 L726.1,373.7 L728.0,376.4
		L729.9,379.1 L731.8,381.9 L733.7,384.7 L735.6,387.6 L737.5,390.5 L739.5,393.4 L741.4,396.4 L743.3,399.3
		L745.2,402.3 L747.1,405.3 L749.0,408.4 L750.9,411.4 L752.8,414.4 L754.7,417.4 L756.6,420.4 L758.5,423.4
		L760.4,426.4 L762.3,429.4 L764.2,432.3 L766.1,435.3 L768.0,438.2 L769.9,441.1 L771.8,444.0 L773.7,446.9
		L775.6,449.7 L777.5,452.6 L779.4,455.4 L781.3,458.1 L783.2,460.9 L785.1,463.6 L787.0,466.3 L789.0,469.0
		L790.9,471.6 L792.8,474.2 L794.7,476.7 L796.6,479.2 L798.5,481.7 L800.4,484.1 L802.3,486.5 L804.2,488.8
		L806.1,491.0 L808.0,493.2 L809.9,495.4 L811.8,497.5 L813.7,499.6 L815.6,501.6 L817.5,503.6 L819.4,505.6
		L821.3,507.5 L823.2,509.4 L825.1,511.3 L827.0,513.1 L828.9,515.0 L830.8,516.8 L832.7,518.6 L834.6,520.3
		L836.5,522.1 L838.4,523.8 L840.4,525.5 L842.3,527.2 L844.2,528.9 L846.1,530.5 L848.0,532.2 L849.9,533.8
		L851.8,535.4 L853.7,536.9 L855.6,538.5 L857.5,540.0 L859.4,541.5 L861.3,543.0 L863.2,544.5 L865.1,545.9
		L867.0,547.4 L868.9,548.8 L870.8,550.3 L872.7,551.7 L874.6,553.2 L876.5,554.7 L878.4,556.1 L880.3,557.6
		L882.2,559.1 L884.1,560.6 L886.0,562.0 L887.9,563.6 L889.9,565.1 L891.8,566.6 L893.7,568.1 L895.6,569.6
		L897.5,571.1 L899.4,572.6 L901.3,574.1 L903.2,575.6 L905.1,577.0 L907.0,578.5 L908.9,579.9 L910.8,581.3
		L912.7,582.6 L914.6,583.9 L916.5,585.2 L918.4,586.4 L920.3,587.6 L922.2,588.7 L924.1,589.8 L926.0,590.9
		L927.9,592.0 L929.8,593.0 L931.7,594.0 L933.6,594.9 L935.5,595.9 L937.4,596.8 L939.4,597.7 L941.3,598.6
		L943.2,599.5 L945.1,600.4 L947.0,601.3 L948.9,602.2 L950.8,603.2 L952.7,604.1 L954.6,605.0 L956.5,606.0
		L958.4,606.9 L960.3,607.9 L962.2,608.8 L964.1,609.8 L966.0,610.8 L967.9,611.8 L969.8,612.7 L971.7,613.7
		L973.6,614.7 L975.5,615.6 L977.4,616.5 L979.3,617.5 L981.2,618.4 L983.1,619.3 L985.0,620.1 L986.9,621.0
		L988.9,621.8 L990.8,622.7 L992.7,623.5 L994.6,624.3 L996.5,625.1 L998.4,625.9 L1000.3,626.6 L1002.2,627.4
		L1004.1,628.1 L1006.0,628.8 L1007.9,629.5 L1009.8,630.2 L1011.7,630.9 L1013.6,631.5  '/></g>
	</g>
	<g id="gnuplot_plot_2" ><title>Confidence interval</title>
<g fill="none" color="white" stroke="rgb( 31, 120, 180)" stroke-width="1.00" stroke-linecap="butt" stroke-linejoin="miter">
</g>
<g fill="none" color="black" stroke="currentColor" stroke-width="1.00" stroke-linecap="butt" stroke-linejoin="miter">
	<g transform="translate(1089.0,85.0)" stroke="none" fill="black" font-family="Helvetica" font-size="12.00"  text-anchor="start">
		<text><tspan font-family="Helvetica" >Confidence interval</tspan></text>
	</g>
</g>
<g fill="none" color="black" stroke="currentColor" stroke-width="1.00" stroke-linecap="butt" stroke-linejoin="miter">
	<g stroke='none' shape-rendering='crispEdges'>
		<polygon fill = 'rgb( 31, 120, 180)' fill-opacity = '0.250000' points = '1038.5,85.6 1080.7,85.6 1080.7,76.6 1038.5,76.6 '/>
		<polygon fill = 'rgb( 31, 120, 180)' fill-opacity = '0.250000' points = '151.2,552.6 153.1,550.3 155.0,547.8 156.9,545.4 158.8,542.9 160.7,540.4 162.6,537.9 164.5,535.3 166.4,532.7 168.3,530.0 170.2,527.3 172.1,524.6 174.0,521.8 175.9,519.0 177.8,516.2 179.7,513.3
181.6,510.3 183.5,507.4 185.4,504.3 187.3,501.3 189.3,498.2 191.2,495.1 193.1,491.9 195.0,488.7 196.9,485.5 198.8,482.2 200.7,479.0 202.6,475.6 204.5,472.3 206.4,468.9 208.3,465.5 210.2,462.1
212.1,458.7 214.0,455.2 215.9,451.6 217.8,448.1 219.7,444.5 221.6,440.8 223.5,437.1 225.4,433.4 227.3,429.7 229.2,425.9 231.1,422.0 233.0,418.2 234.9,414.3 236.8,410.4 238.8,406.4 240.7,402.5
242.6,398.5 244.5,394.6 246.4,390.6 248.3,386.7 250.2,382.7 252.1,378.8 254.0,374.9 255.9,371.0 257.8,367.2 259.7,363.4 261.6,359.7 263.5,356.0 265.4,352.3 267.3,348.7 269.2,345.2 271.1,341.7
273.0,338.2 274.9,334.8 276.8,331.5 278.7,328.2 280.6,324.9 282.5,321.7 284.4,318.5 286.3,315.3 288.2,312.1 290.2,309.0 292.1,305.8 294.0,302.6 295.9,299.4 297.8,296.1 299.7,292.9 301.6,289.5
303.5,286.2 305.4,282.8 307.3,279.3 309.2,275.8 311.1,272.3 313.0,268.8 314.9,265.2 316.8,261.6 318.7,258.1 320.6,254.5 322.5,250.9 324.4,247.4 326.3,244.0 328.2,240.6 330.1,237.3 332.0,234.0
333.9,230.8 335.8,227.7 337.7,224.7 339.7,221.8 341.6,219.0 343.5,216.2 345.4,213.6 347.3,211.0 349.2,208.5 351.1,206.0 353.0,203.6 354.9,201.2 356.8,198.8 358.7,196.5 360.6,194.1 362.5,191.8
364.4,189.4 366.3,187.0 368.2,184.6 370.1,182.1 372.0,179.6 373.9,177.1 375.8,174.5 377.7,171.9 379.6,169.2 381.5,166.6 383.4,163.9 385.3,161.1 387.2,158.4 389.2,155.7 391.1,152.9 393.0,150.2
394.9,147.5 396.8,144.9 398.7,142.2 400.6,139.6 402.5,137.1 404.4,134.6 406.3,132.1 408.2,129.7 410.1,127.4 412.0,125.1 413.9,122.9 415.8,120.7 417.7,118.6 419.6,116.6 421.5,114.6 423.4,112.7
425.3,110.9 427.2,109.1 429.1,107.4 431.0,105.7 432.9,104.2 434.8,102.7 436.7,101.3 438.7,99.9 440.6,98.7 442.5,97.5 444.4,96.4 446.3,95.4 448.2,94.5 450.1,93.7 452.0,93.0 453.9,92.4
455.8,91.8 457.7,91.4 459.6,91.0 461.5,90.7 463.4,90.5 465.3,90.3 467.2,90.2 469.1,90.2 471.0,90.3 472.9,90.4 474.8,90.5 476.7,90.8 478.6,91.1 480.5,91.4 482.4,91.9 484.3,92.4
486.2,92.9 488.1,93.6 490.1,94.3 492.0,95.0 493.9,95.9 495.8,96.8 497.7,97.8 499.6,98.8 501.5,99.9 503.4,101.1 505.3,102.3 507.2,103.5 509.1,104.8 511.0,106.2 512.9,107.6 514.8,109.0
516.7,110.5 518.6,112.0 520.5,113.5 522.4,115.1 524.3,116.7 526.2,118.3 528.1,120.0 530.0,121.7 531.9,123.4 533.8,125.1 535.7,126.9 537.6,128.6 539.6,130.4 541.5,132.2 543.4,134.1 545.3,135.9
547.2,137.7 549.1,139.6 551.0,141.4 552.9,143.3 554.8,145.2 556.7,147.0 558.6,148.9 560.5,150.7 562.4,152.6 564.3,154.5 566.2,156.3 568.1,158.2 570.0,160.1 571.9,162.1 573.8,164.0 575.7,166.0
577.6,168.0 579.5,170.1 581.4,172.2 583.3,174.4 585.2,176.7 587.1,179.0 589.1,181.3 591.0,183.8 592.9,186.3 594.8,188.9 596.7,191.5 598.6,194.3 600.5,197.0 602.4,199.9 604.3,202.8 606.2,205.7
608.1,208.6 610.0,211.5 611.9,214.5 613.8,217.4 615.7,220.3 617.6,223.2 619.5,226.0 621.4,228.8 623.3,231.5 625.2,234.1 627.1,236.7 629.0,239.2 630.9,241.7 632.8,244.1 634.7,246.4 636.6,248.7
638.5,251.0 640.5,253.2 642.4,255.5 644.3,257.7 646.2,260.0 648.1,262.3 650.0,264.6 651.9,267.0 653.8,269.4 655.7,271.9 657.6,274.5 659.5,277.1 661.4,279.8 663.3,282.6 665.2,285.4 667.1,288.3
669.0,291.3 670.9,294.2 672.8,297.2 674.7,300.3 676.6,303.3 678.5,306.3 680.4,309.4 682.3,312.4 684.2,315.3 686.1,318.3 688.0,321.2 690.0,324.1 691.9,326.9 693.8,329.7 695.7,332.5 697.6,335.2
699.5,337.8 701.4,340.4 703.3,343.0 705.2,345.6 707.1,348.1 709.0,350.6 710.9,353.1 712.8,355.6 714.7,358.2 716.6,360.7 718.5,363.2 720.4,365.8 722.3,368.4 724.2,371.0 726.1,373.7 728.0,376.4
729.9,379.1 731.8,381.9 733.7,384.7 735.6,387.6 737.5,390.5 739.5,393.4 741.4,396.4 743.3,399.3 745.2,402.3 747.1,405.3 749.0,408.4 750.9,411.4 752.8,414.4 754.7,417.4 756.6,420.4 758.5,423.4
760.4,426.4 762.3,429.4 764.2,432.3 766.1,435.3 768.0,438.2 769.9,441.1 771.8,444.0 773.7,446.9 775.6,449.7 777.5,452.6 779.4,455.4 781.3,458.1 783.2,460.9 785.1,463.6 787.0,466.3 789.0,469.0
790.9,471.6 792.8,474.2 794.7,476.7 796.6,479.2 798.5,481.7 800.4,484.1 802.3,486.5 804.2,488.8 806.1,491.0 808.0,493.2 809.9,495.4 811.8,497.5 813.7,499.6 815.6,501.6 817.5,503.6 819.4,505.6
821.3,507.5 823.2,509.4 825.1,511.3 827.0,513.1 828.9,515.0 830.8,516.8 832.7,518.6 834.6,520.3 836.5,522.1 838.4,523.8 840.4,525.5 842.3,527.2 844.2,528.9 846.1,530.5 848.0,532.2 849.9,533.8
851.8,535.4 853.7,536.9 855.6,538.5 857.5,540.0 859.4,541.5 861.3,543.0 863.2,544.5 865.1,545.9 867.0,547.4 868.9,548.8 870.8,550.3 872.7,551.7 874.6,553.2 876.5,554.7 878.4,556.1 880.3,557.6
882.2,559.1 884.1,560.6 886.0,562.0 887.9,563.6 889.9,565.1 891.8,566.6 893.7,568.1 895.6,569.6 897.5,571.1 899.4,572.6 901.3,574.1 903.2,575.6 905.1,577.0 907.0,578.5 908.9,579.9 910.8,581.3
912.7,582.6 914.6,583.9 916.5,585.2 918.4,586.4 920.3,587.6 922.2,588.7 924.1,589.8 924.1,662.4 922.2,662.4 920.3,662.4 918.4,662.4 916.5,662.4 914.6,662.4 912.7,662.4 910.8,662.4 908.9,662.4
907.0,662.4 905.1,662.4 903.2,662.4 901.3,662.4 899.4,662.4 897.5,662.4 895.6,662.4 893.7,662.4 891.8,662.4 889.9,662.4 887.9,662.4 886.0,662.4 884.1,662.4 882.2,662.4 880.3,662.4 878.4,662.4
876.5,662.4 874.6,662.4 872.7,662.4 870.8,662.4 868.9,662.4 867.0,662.4 865.1,662.4 863.2,662.4 861.3,662.4 859.4,662.4 857.5,662.4 855.6,662.4 853.7,662.4 851.8,662.4 849.9,662.4 848.0,662.4
846.1,662.4 844.2,662.4 842.3,662.4 840.4,662.4 838.4,662.4 836.5,662.4 834.6,662.4 832.7,662.4 830.8,662.4 828.9,662.4 827.0,662.4 825.1,662.4 823.2,662.4 821.3,662.4 819.4,662.4 817.5,662.4
815.6,662.4 813.7,662.4 811.8,662.4 809.9,662.4 808.0,662.4 806.1,662.4 804.2,662.4 802.3,662.4 800.4,662.4 798.5,662.4 796.6,662.4 794.7,662.4 792.8,662.4 790.9,662.4 789.0,662.4 787.0,662.4
785.1,662.4 783.2,662.4 781.3,662.4 779.4,662.4 777.5,662.4 775.6,662.4 773.7,662.4 771.8,662.4 769.9,662.4 768.0,662.4 766.1,662.4 764.2,662.4 762.3,662.4 760.4,662.4 758.5,662.4 756.6,662.4
754.7,662.4 752.8,662.4 750.9,662.4 749.0,662.4 747.1,662.4 745.2,662.4 743.3,662.4 741.4,662.4 739.5,662.4 737.5,662.4 735.6,662.4 733.7,662.4 731.8,662.4 729.9,662.4 728.0,662.4 726.1,662.4
724.2,662.4 722.3,662.4 720.4,662.4 718.5,662.4 716.6,662.4 714.7,662.4 712.8,662.4 710.9,662.4 709.0,662.4 707.1,662.4 705.2,662.4 703.3,662.4 701.4,662.4 699.5,662.4 697.6,662.4 695.7,662.4
693.8,662.4 691.9,662.4 690.0,662.4 688.0,662.4 686.1,662.4 684.2,662.4 682.3,662.4 680.4,662.4 678.5,662.4 676.6,662.4 674.7,662.4 672.8,662.4 670.9,662.4 669.0,662.4 667.1,662.4 665.2,662.4
663.3,662.4 661.4,662.4 659.5,662.4 657.6,662.4 655.7,662.4 653.8,662.4 651.9,662.4 650.0,662.4 648.1,662.4 646.2,662.4 644.3,662.4 642.4,662.4 640.5,662.4 638.5,662.4 636.6,662.4 634.7,662.4
632.8,662.4 630.9,662.4 629.0,662.4 627.1,662.4 625.2,662.4 623.3,662.4 621.4,662.4 619.5,662.4 617.6,662.4 615.7,662.4 613.8,662.4 611.9,662.4 610.0,662.4 608.1,662.4 606.2,662.4 604.3,662.4
602.4,662.4 600.5,662.4 598.6,662.4 596.7,662.4 594.8,662.4 592.9,662.4 591.0,662.4 589.1,662.4 587.1,662.4 585.2,662.4 583.3,662.4 581.4,662.4 579.5,662.4 577.6,662.4 575.7,662.4 573.8,662.4
571.9,662.4 570.0,662.4 568.1,662.4 566.2,662.4 564.3,662.4 562.4,662.4 560.5,662.4 558.6,662.4 556.7,662.4 554.8,662.4 552.9,662.4 551.0,662.4 549.1,662.4 547.2,662.4 545.3,662.4 543.4,662.4
541.5,662.4 539.6,662.4 537.6,662.4 535.7,662.4 533.8,662.4 531.9,662.4 530.0,662.4 528.1,662.4 526.2,662.4 524.3,662.4 522.4,662.4 520.5,662.4 518.6,662.4 516.7,662.4 514.8,662.4 512.9,662.4
511.0,662.4 509.1,662.4 507.2,662.4 505.3,662.4 503.4,662.4 501.5,662.4 499.6,662.4 497.7,662.4 495.8,662.4 493.9,662.4 492.0,662.4 490.1,662.4 488.1,662.4 486.2,662.4 484.3,662.4 482.4,662.4
480.5,662.4 478.6,662.4 476.7,662.4 474.8,662.4 472.9,662.4 471.0,662.4 469.1,662.4 467.2,662.4 465.3,662.4 463.4,662.4 461.5,662.4 459.6,662.4 457.7,662.4 455.8,662.4 453.9,662.4 452.0,662.4
450.1,662.4 448.2,662.4 446.3,662.4 444.4,662.4 442.5,662.4 440.6,662.4 438.7,662.4 436.7,662.4 434.8,662.4 432.9,662.4 431.0,662.4 429.1,662.4 427.2,662.4 425.3,662.4 423.4,662.4 421.5,662.4
419.6,662.4 417.7,662.4 415.8,662.4 413.9,662.4 412.0,662.4 410.1,662.4 408.2,662.4 406.3,662.4 404.4,662.4 402.5,662.4 400.6,662.4 398.7,662.4 396.8,662.4 394.9,662.4 393.0,662.4 391.1,662.4
389.2,662.4 387.2,662.4 385.3,662.4 383.4,662.4 381.5,662.4 379.6,662.4 377.7,662.4 375.8,662.4 373.9,662.4 372.0,662.4 370.1,662.4 368.2,662.4 366.3,662.4 364.4,662.4 362.5,662.4 360.6,662.4
358.7,662.4 356.8,662.4 354.9,662.4 353.0,662.4 351.1,662.4 349.2,662.4 347.3,662.4 345.4,662.4 343.5,662.4 341.6,662.4 339.7,662.4 337.7,662.4 335.8,662.4 333.9,662.4 332.0,662.4 330.1,662.4
328.2,662.4 326.3,662.4 324.4,662.4 322.5,662.4 320.6,662.4 318.7,662.4 316.8,662.4 314.9,662.4 313.0,662.4 311.1,662.4 309.2,662.4 307.3,662.4 305.4,662.4 303.5,662.4 301.6,662.4 299.7,662.4
297.8,662.4 295.9,662.4 294.0,662.4 292.1,662.4 290.2,662.4 288.2,662.4 286.3,662.4 284.4,662.4 282.5,662.4 280.6,662.4 278.7,662.4 276.8,662.4 274.9,662.4 273.0,662.4 271.1,662.4 269.2,662.4
267.3,662.4 265.4,662.4 263.5,662.4 261.6,662.4 259.7,662.4 257.8,662.4 255.9,662.4 254.0,662.4 252.1,662.4 250.2,662.4 248.3,662.4 246.4,662.4 244.5,662.4 242.6,662.4 240.7,662.4 238.8,662.4
236.8,662.4 234.9,662.4 233.0,662.4 231.1,662.4 229.2,662.4 227.3,662.4 225.4,662.4 223.5,662.4 221.6,662.4 219.7,662.4 217.8,662.4 215.9,662.4 214.0,662.4 212.1,662.4 210.2,662.4 208.3,662.4
206.4,662.4 204.5,662.4 202.6,662.4 200.7,662.4 198.8,662.4 196.9,662.4 195.0,662.4 193.1,662.4 191.2,662.4 189.3,662.4 187.3,662.4 185.4,662.4 183.5,662.4 181.6,662.4 179.7,662.4 177.8,662.4
175.9,662.4 174.0,662.4 172.1,662.4 170.2,662.4 168.3,662.4 166.4,662.4 164.5,662.4 162.6,662.4 160.7,662.4 158.8,662.4 156.9,662.4 155.0,662.4 153.1,662.4 151.2,662.4 '/>
	</g>
</g>
	</g>
	<g id="gnuplot_plot_3" ><title>Point estimate</title>
<g fill="none" color="white" stroke="rgb( 31, 120, 180)" stroke-width="2.00" stroke-linecap="butt" stroke-linejoin="miter">
</g>
<g fill="none" color="black" stroke="currentColor" stroke-width="2.00" stroke-linecap="butt" stroke-linejoin="miter">
	<g transform="translate(1089.0,103.0)" stroke="none" fill="black" font-family="Helvetica" font-size="12.00"  text-anchor="start">
		<text><tspan font-family="Helvetica" >Point estimate</tspan></text>
	</g>
</g>
<g fill="none" color="black" stroke="currentColor" stroke-width="2.00" stroke-linecap="butt" stroke-linejoin="miter">
	<path stroke='rgb( 31, 120, 180)'  d='M1038.5,99.1 L1080.7,99.1 M506.9,662.4 L506.9,103.3  '/></g>
	</g>
<g fill="none" color="black" stroke="currentColor" stroke-width="2.00" stroke-linecap="butt" stroke-linejoin="miter">
</g>
<g fill="none" color="black" stroke="black" stroke-width="1.00" stroke-linecap="butt" stroke-linejoin="miter">
</g>
<g fill="none" color="black" stroke="currentColor" stroke-width="1.00" stroke-linecap="butt" stroke-linejoin="miter">
	<path stroke='black'  d='M63.6,54.1 L63.6,662.4 L1013.6,662.4 L1013.6,54.1 L63.6,54.1 Z  '/></g>
<g fill="none" color="black" stroke="currentColor" stroke-width="1.00" stroke-linecap="butt" stroke-linejoin="miter">
</g>
</g>
</svg>

