<?xml version="1.0" encoding="utf-8"  standalone="no"?>
<svg 
 viewBox="0 0 450 300"
 xmlns="http://www.w3.org/2000/svg"
 xmlns:xlink="http://www.w3.org/1999/xlink"
>

<title>Gnuplot</title>
<desc>Produced by GNUPLOT 5.2 patchlevel 6 </desc>

<g id="gnuplot_canvas">

<rect x="0" y="0" width="450" height="300" fill="none"/>
<defs>

	<circle id='gpDot' r='0.5' stroke-width='0.5' stroke='currentColor'/>
	<path id='gpPt0' stroke-width='0.222' stroke='currentColor' d='M-1,0 h2 M0,-1 v2'/>
	<path id='gpPt1' stroke-width='0.222' stroke='currentColor' d='M-1,-1 L1,1 M1,-1 L-1,1'/>
	<path id='gpPt2' stroke-width='0.222' stroke='currentColor' d='M-1,0 L1,0 M0,-1 L0,1 M-1,-1 L1,1 M-1,1 L1,-1'/>
	<rect id='gpPt3' stroke-width='0.222' stroke='currentColor' x='-1' y='-1' width='2' height='2'/>
	<rect id='gpPt4' stroke-width='0.222' stroke='currentColor' fill='currentColor' x='-1' y='-1' width='2' height='2'/>
	<circle id='gpPt5' stroke-width='0.222' stroke='currentColor' cx='0' cy='0' r='1'/>
	<use xlink:href='#gpPt5' id='gpPt6' fill='currentColor' stroke='none'/>
	<path id='gpPt7' stroke-width='0.222' stroke='currentColor' d='M0,-1.33 L-1.33,0.67 L1.33,0.67 z'/>
	<use xlink:href='#gpPt7' id='gpPt8' fill='currentColor' stroke='none'/>
	<use xlink:href='#gpPt7' id='gpPt9' stroke='currentColor' transform='rotate(180)'/>
	<use xlink:href='#gpPt9' id='gpPt10' fill='currentColor' stroke='none'/>
	<use xlink:href='#gpPt3' id='gpPt11' stroke='currentColor' transform='rotate(45)'/>
	<use xlink:href='#gpPt11' id='gpPt12' fill='currentColor' stroke='none'/>
	<path id='gpPt13' stroke-width='0.222' stroke='currentColor' d='M0,1.330 L1.265,0.411 L0.782,-1.067 L-0.782,-1.076 L-1.265,0.411 z'/>
	<use xlink:href='#gpPt13' id='gpPt14' fill='currentColor' stroke='none'/>
	<filter id='textbox' filterUnits='objectBoundingBox' x='0' y='0' height='1' width='1'>
	  <feFlood flood-color='white' flood-opacity='1' result='bgnd'/>
	  <feComposite in='SourceGraphic' in2='bgnd' operator='atop'/>
	</filter>
	<filter id='greybox' filterUnits='objectBoundingBox' x='0' y='0' height='1' width='1'>
	  <feFlood flood-color='lightgrey' flood-opacity='1' result='grey'/>
	  <feComposite in='SourceGraphic' in2='grey' operator='atop'/>
	</filter>
</defs>
<g fill="none" color="white" stroke="currentColor" stroke-width="1.00" stroke-linecap="butt" stroke-linejoin="miter">
</g>
<g fill="none" color="black" stroke="currentColor" stroke-width="1.00" stroke-linecap="butt" stroke-linejoin="miter">
	<path stroke='black'  d='M71.9,242.4 L80.9,242.4  '/>	<g transform="translate(63.6,246.3)" stroke="none" fill="black" font-family="Helvetica" font-size="12.00"  text-anchor="end">
		<text><tspan font-family="Helvetica" > 0</tspan></text>
	</g>
</g>
<g fill="none" color="black" stroke="currentColor" stroke-width="1.00" stroke-linecap="butt" stroke-linejoin="miter">
	<path stroke='black'  d='M71.9,220.0 L80.9,220.0  '/>	<g transform="translate(63.6,223.9)" stroke="none" fill="black" font-family="Helvetica" font-size="12.00"  text-anchor="end">
		<text><tspan font-family="Helvetica" > 0.2</tspan></text>
	</g>
</g>
<g fill="none" color="black" stroke="currentColor" stroke-width="1.00" stroke-linecap="butt" stroke-linejoin="miter">
	<path stroke='black'  d='M71.9,197.5 L80.9,197.5  '/>	<g transform="translate(63.6,201.4)" stroke="none" fill="black" font-family="Helvetica" font-size="12.00"  text-anchor="end">
		<text><tspan font-family="Helvetica" > 0.4</tspan></text>
	</g>
</g>
<g fill="none" color="black" stroke="currentColor" stroke-width="1.00" stroke-linecap="butt" stroke-linejoin="miter">
	<path stroke='black'  d='M71.9,175.1 L80.9,175.1  '/>	<g transform="translate(63.6,179.0)" stroke="none" fill="black" font-family="Helvetica" font-size="12.00"  text-anchor="end">
		<text><tspan font-family="Helvetica" > 0.6</tspan></text>
	</g>
</g>
<g fill="none" color="black" stroke="currentColor" stroke-width="1.00" stroke-linecap="butt" stroke-linejoin="miter">
	<path stroke='black'  d='M71.9,152.7 L80.9,152.7  '/>	<g transform="translate(63.6,156.6)" stroke="none" fill="black" font-family="Helvetica" font-size="12.00"  text-anchor="end">
		<text><tspan font-family="Helvetica" > 0.8</tspan></text>
	</g>
</g>
<g fill="none" color="black" stroke="currentColor" stroke-width="1.00" stroke-linecap="butt" stroke-linejoin="miter">
	<path stroke='black'  d='M71.9,130.2 L80.9,130.2  '/>	<g transform="translate(63.6,134.1)" stroke="none" fill="black" font-family="Helvetica" font-size="12.00"  text-anchor="end">
		<text><tspan font-family="Helvetica" > 1</tspan></text>
	</g>
</g>
<g fill="none" color="black" stroke="currentColor" stroke-width="1.00" stroke-linecap="butt" stroke-linejoin="miter">
	<path stroke='black'  d='M71.9,107.8 L80.9,107.8  '/>	<g transform="translate(63.6,111.7)" stroke="none" fill="black" font-family="Helvetica" font-size="12.00"  text-anchor="end">
		<text><tspan font-family="Helvetica" > 1.2</tspan></text>
	</g>
</g>
<g fill="none" color="black" stroke="currentColor" stroke-width="1.00" stroke-linecap="butt" stroke-linejoin="miter">
	<path stroke='black'  d='M71.9,85.4 L80.9,85.4  '/>	<g transform="translate(63.6,89.3)" stroke="none" fill="black" font-family="Helvetica" font-size="12.00"  text-anchor="end">
		<text><tspan font-family="Helvetica" > 1.4</tspan></text>
	</g>
</g>
<g fill="none" color="black" stroke="currentColor" stroke-width="1.00" stroke-linecap="butt" stroke-linejoin="miter">
	<path stroke='black'  d='M71.9,63.0 L80.9,63.0  '/>	<g transform="translate(63.6,66.9)" stroke="none" fill="black" font-family="Helvetica" font-size="12.00"  text-anchor="end">
		<text><tspan font-family="Helvetica" > 1.6</tspan></text>
	</g>
</g>
<g fill="none" color="black" stroke="currentColor" stroke-width="1.00" stroke-linecap="butt" stroke-linejoin="miter">
	<path stroke='black'  d='M71.9,40.5 L80.9,40.5  '/>	<g transform="translate(63.6,44.4)" stroke="none" fill="black" font-family="Helvetica" font-size="12.00"  text-anchor="end">
		<text><tspan font-family="Helvetica" > 1.8</tspan></text>
	</g>
</g>
<g fill="none" color="black" stroke="currentColor" stroke-width="1.00" stroke-linecap="butt" stroke-linejoin="miter">
	<path stroke='black'  d='M71.9,18.1 L80.9,18.1  '/>	<g transform="translate(63.6,22.0)" stroke="none" fill="black" font-family="Helvetica" font-size="12.00"  text-anchor="end">
		<text><tspan font-family="Helvetica" > 2</tspan></text>
	</g>
</g>
<g fill="none" color="black" stroke="currentColor" stroke-width="1.00" stroke-linecap="butt" stroke-linejoin="miter">
	<path stroke='black'  d='M71.9,242.4 L71.9,233.4  '/>	<g transform="translate(71.9,264.3)" stroke="none" fill="black" font-family="Helvetica" font-size="12.00"  text-anchor="middle">
		<text><tspan font-family="Helvetica" > 30</tspan></text>
	</g>
</g>
<g fill="none" color="black" stroke="currentColor" stroke-width="1.00" stroke-linecap="butt" stroke-linejoin="miter">
	<path stroke='black'  d='M130.8,242.4 L130.8,233.4  '/>	<g transform="translate(130.8,264.3)" stroke="none" fill="black" font-family="Helvetica" font-size="12.00"  text-anchor="middle">
		<text><tspan font-family="Helvetica" > 35</tspan></text>
	</g>
</g>
<g fill="none" color="black" stroke="currentColor" stroke-width="1.00" stroke-linecap="butt" stroke-linejoin="miter">
	<path stroke='black'  d='M189.6,242.4 L189.6,233.4  '/>	<g transform="translate(189.6,264.3)" stroke="none" fill="black" font-family="Helvetica" font-size="12.00"  text-anchor="middle">
		<text><tspan font-family="Helvetica" > 40</tspan></text>
	</g>
</g>
<g fill="none" color="black" stroke="currentColor" stroke-width="1.00" stroke-linecap="butt" stroke-linejoin="miter">
	<path stroke='black'  d='M248.5,242.4 L248.5,233.4  '/>	<g transform="translate(248.5,264.3)" stroke="none" fill="black" font-family="Helvetica" font-size="12.00"  text-anchor="middle">
		<text><tspan font-family="Helvetica" > 45</tspan></text>
	</g>
</g>
<g fill="none" color="black" stroke="currentColor" stroke-width="1.00" stroke-linecap="butt" stroke-linejoin="miter">
	<path stroke='black'  d='M307.3,242.4 L307.3,233.4  '/>	<g transform="translate(307.3,264.3)" stroke="none" fill="black" font-family="Helvetica" font-size="12.00"  text-anchor="middle">
		<text><tspan font-family="Helvetica" > 50</tspan></text>
	</g>
</g>
<g fill="none" color="black" stroke="currentColor" stroke-width="1.00" stroke-linecap="butt" stroke-linejoin="miter">
	<path stroke='black'  d='M366.2,242.4 L366.2,233.4  '/>	<g transform="translate(366.2,264.3)" stroke="none" fill="black" font-family="Helvetica" font-size="12.00"  text-anchor="middle">
		<text><tspan font-family="Helvetica" > 55</tspan></text>
	</g>
</g>
<g fill="none" color="black" stroke="currentColor" stroke-width="1.00" stroke-linecap="butt" stroke-linejoin="miter">
	<path stroke='black'  d='M425.0,242.4 L425.0,233.4  '/>	<g transform="translate(425.0,264.3)" stroke="none" fill="black" font-family="Helvetica" font-size="12.00"  text-anchor="middle">
		<text><tspan font-family="Helvetica" > 60</tspan></text>
	</g>
</g>
<g fill="none" color="black" stroke="currentColor" stroke-width="1.00" stroke-linecap="butt" stroke-linejoin="miter">
</g>
<g fill="none" color="black" stroke="currentColor" stroke-width="1.00" stroke-linecap="butt" stroke-linejoin="miter">
	<path stroke='black'  d='M71.9,18.1 L71.9,242.4 L425.0,242.4 L425.0,18.1 L71.9,18.1 Z  '/></g>
<g fill="none" color="black" stroke="currentColor" stroke-width="1.00" stroke-linecap="butt" stroke-linejoin="miter">
	<g transform="translate(16.3,130.3) rotate(270)" stroke="none" fill="black" font-family="Helvetica" font-size="12.00"  text-anchor="middle">
		<text><tspan font-family="Helvetica" >Density (a.u.)</tspan></text>
	</g>
</g>
<g fill="none" color="black" stroke="currentColor" stroke-width="1.00" stroke-linecap="butt" stroke-linejoin="miter">
	<g transform="translate(248.4,291.3)" stroke="none" fill="black" font-family="Helvetica" font-size="12.00"  text-anchor="middle">
		<text><tspan font-family="Helvetica" >Average time (us)</tspan></text>
	</g>
</g>
<g fill="none" color="black" stroke="currentColor" stroke-width="1.00" stroke-linecap="butt" stroke-linejoin="miter">
</g>
	<g id="gnuplot_plot_1" ><title>Base PDF</title>
<g fill="none" color="black" stroke="currentColor" stroke-width="1.00" stroke-linecap="butt" stroke-linejoin="miter">
	<g stroke='none' shape-rendering='crispEdges'>
		<polygon fill = 'rgb(227,  26,  28)' fill-opacity = '0.500000' points = '142.5,242.2 143.0,242.2 143.5,242.1 144.0,242.1 144.5,242.0 145.0,242.0 145.4,241.9 145.9,241.8 146.4,241.7 146.9,241.6 147.4,241.4 147.9,241.3 148.3,241.1 148.8,240.9 149.3,240.7 149.8,240.5
150.3,240.2 150.8,239.9 151.2,239.6 151.7,239.2 152.2,238.8 152.7,238.4 153.2,237.9 153.7,237.4 154.1,236.8 154.6,236.2 155.1,235.5 155.6,234.8 156.1,234.0 156.6,233.2 157.1,232.3 157.5,231.4
158.0,230.4 158.5,229.3 159.0,228.3 159.5,227.1 160.0,225.9 160.4,224.7 160.9,223.4 161.4,222.1 161.9,220.8 162.4,219.4 162.9,218.0 163.3,216.6 163.8,215.2 164.3,213.8 164.8,212.4 165.3,211.0
165.8,209.7 166.2,208.3 166.7,207.0 167.2,205.7 167.7,204.5 168.2,203.3 168.7,202.2 169.1,201.2 169.6,200.3 170.1,199.4 170.6,198.6 171.1,197.9 171.6,197.3 172.0,196.8 172.5,196.4 173.0,196.1
173.5,195.9 174.0,195.8 174.5,195.8 174.9,195.9 175.4,196.1 175.9,196.4 176.4,196.8 176.9,197.2 177.4,197.8 177.8,198.4 178.3,199.1 178.8,199.9 179.3,200.7 179.8,201.6 180.3,202.6 180.8,203.5
181.2,204.6 181.7,205.6 182.2,206.7 182.7,207.8 183.2,208.9 183.7,210.0 184.1,211.2 184.6,212.3 185.1,213.4 185.6,214.6 186.1,215.7 186.6,216.8 187.0,217.8 187.5,218.9 188.0,219.9 188.5,220.9
189.0,221.9 189.5,222.9 189.9,223.8 190.4,224.7 190.9,225.6 191.4,226.4 191.9,227.2 192.4,228.0 192.8,228.7 193.3,229.4 193.8,230.1 194.3,230.8 194.8,231.4 195.3,232.0 195.7,232.6 196.2,233.1
196.7,233.6 197.2,234.1 197.7,234.6 198.2,235.0 198.6,235.5 199.1,235.9 199.6,236.2 200.1,236.6 200.6,236.9 201.1,237.2 201.5,237.5 202.0,237.8 202.5,238.1 203.0,238.3 203.5,238.5 204.0,238.7
204.5,238.9 204.9,239.1 205.4,239.3 205.9,239.4 206.4,239.6 206.9,239.7 207.4,239.8 207.8,239.9 208.3,240.0 208.8,240.1 209.3,240.2 209.8,240.3 210.3,240.4 210.7,240.4 211.2,240.5 211.7,240.6
212.2,240.6 212.7,240.7 213.2,240.8 213.6,240.8 214.1,240.9 214.6,240.9 215.1,241.0 215.6,241.0 216.1,241.0 216.5,241.1 217.0,241.1 217.5,241.2 218.0,241.2 218.5,241.2 219.0,241.3 219.4,241.3
219.9,241.3 220.4,241.4 220.9,241.4 221.4,241.4 221.9,241.5 222.3,241.5 222.8,241.5 223.3,241.5 223.8,241.6 224.3,241.6 224.8,241.6 225.2,241.6 225.7,241.6 226.2,241.6 226.7,241.6 227.2,241.6
227.7,241.7 228.1,241.7 228.6,241.7 229.1,241.7 229.6,241.7 230.1,241.7 230.6,241.7 231.1,241.7 231.5,241.7 232.0,241.7 232.5,241.7 233.0,241.7 233.5,241.7 234.0,241.7 234.4,241.7 234.9,241.8
235.4,241.8 235.9,241.8 236.4,241.8 236.9,241.8 237.3,241.8 237.8,241.8 238.3,241.9 238.8,241.9 239.3,241.9 239.8,241.9 240.2,241.9 240.7,242.0 241.2,242.0 241.7,242.0 242.2,242.0 242.7,242.0
243.1,242.1 243.6,242.1 244.1,242.1 244.6,242.1 245.1,242.1 245.6,242.2 246.0,242.2 246.5,242.2 247.0,242.2 247.5,242.2 248.0,242.2 248.5,242.3 248.9,242.3 249.4,242.3 249.9,242.3 250.4,242.3
250.9,242.3 251.4,242.3 251.8,242.3 252.3,242.3 252.8,242.3 253.3,242.3 253.8,242.4 254.3,242.4 254.8,242.4 255.2,242.4 255.7,242.4 256.2,242.4 256.7,242.4 257.2,242.4 257.7,242.4 258.1,242.4
258.6,242.4 259.1,242.4 259.6,242.4 260.1,242.4 260.6,242.4 261.0,242.4 261.5,242.4 262.0,242.4 262.5,242.4 263.0,242.4 263.5,242.4 263.9,242.4 264.4,242.4 264.9,242.4 265.4,242.4 265.9,242.4
266.4,242.4 266.8,242.4 267.3,242.4 267.8,242.4 268.3,242.4 268.8,242.4 269.3,242.4 269.7,242.4 270.2,242.4 270.7,242.4 271.2,242.4 271.7,242.4 272.2,242.4 272.6,242.4 273.1,242.4 273.6,242.4
274.1,242.4 274.6,242.4 275.1,242.4 275.5,242.4 276.0,242.4 276.5,242.4 277.0,242.4 277.5,242.4 278.0,242.4 278.5,242.4 278.9,242.4 279.4,242.4 279.9,242.4 280.4,242.4 280.9,242.4 281.4,242.4
281.8,242.4 282.3,242.4 282.8,242.4 283.3,242.4 283.8,242.4 284.3,242.4 284.7,242.4 285.2,242.4 285.7,242.4 286.2,242.4 286.7,242.4 287.2,242.4 287.6,242.4 288.1,242.4 288.6,242.4 289.1,242.4
289.6,242.4 290.1,242.4 290.5,242.4 291.0,242.4 291.5,242.4 292.0,242.4 292.5,242.4 293.0,242.4 293.4,242.4 293.9,242.4 294.4,242.4 294.9,242.4 295.4,242.4 295.9,242.4 296.3,242.4 296.8,242.4
297.3,242.4 297.8,242.4 298.3,242.4 298.8,242.4 299.2,242.4 299.7,242.4 300.2,242.4 300.7,242.4 301.2,242.4 301.7,242.4 302.2,242.4 302.6,242.4 303.1,242.4 303.6,242.4 304.1,242.4 304.6,242.4
305.1,242.4 305.5,242.4 306.0,242.4 306.5,242.4 307.0,242.4 307.5,242.4 308.0,242.4 308.4,242.4 308.9,242.4 309.4,242.4 309.9,242.4 310.4,242.4 310.9,242.4 311.3,242.4 311.8,242.4 312.3,242.4
312.8,242.4 313.3,242.4 313.8,242.4 314.2,242.4 314.7,242.4 315.2,242.4 315.7,242.4 316.2,242.4 316.7,242.4 317.1,242.4 317.6,242.4 318.1,242.4 318.6,242.4 319.1,242.4 319.6,242.4 320.0,242.4
320.5,242.4 321.0,242.4 321.5,242.4 322.0,242.4 322.5,242.4 322.9,242.4 323.4,242.4 323.9,242.4 324.4,242.4 324.9,242.4 325.4,242.4 325.9,242.4 326.3,242.4 326.8,242.4 327.3,242.4 327.8,242.4
328.3,242.4 328.8,242.4 329.2,242.4 329.7,242.4 330.2,242.4 330.7,242.4 331.2,242.4 331.7,242.4 332.1,242.4 332.6,242.4 333.1,242.4 333.6,242.4 334.1,242.4 334.6,242.4 335.0,242.4 335.5,242.4
336.0,242.4 336.5,242.4 337.0,242.4 337.5,242.4 337.9,242.4 338.4,242.3 338.9,242.3 339.4,242.3 339.9,242.3 340.4,242.3 340.8,242.3 341.3,242.3 341.8,242.3 342.3,242.3 342.8,242.3 343.3,242.2
343.7,242.2 344.2,242.2 344.7,242.2 345.2,242.2 345.7,242.2 346.2,242.1 346.6,242.1 347.1,242.1 347.6,242.1 348.1,242.1 348.6,242.0 349.1,242.0 349.5,242.0 350.0,242.0 350.5,242.0 351.0,241.9
351.5,241.9 352.0,241.9 352.5,241.9 352.9,241.9 353.4,241.9 353.9,241.9 354.4,241.8 354.9,241.8 355.4,241.8 355.8,241.8 356.3,241.8 356.8,241.8 357.3,241.8 357.8,241.8 358.3,241.8 358.7,241.8
359.2,241.8 359.7,241.8 360.2,241.8 360.7,241.8 361.2,241.8 361.6,241.9 362.1,241.9 362.6,241.9 363.1,241.9 363.6,241.9 364.1,241.9 364.5,242.0 365.0,242.0 365.5,242.0 366.0,242.0 366.5,242.0
367.0,242.1 367.4,242.1 367.9,242.1 368.4,242.1 368.9,242.1 369.4,242.2 369.9,242.2 370.3,242.2 370.8,242.2 371.3,242.2 371.8,242.2 372.3,242.3 372.8,242.3 373.2,242.3 373.7,242.3 374.2,242.3
374.7,242.3 375.2,242.3 375.7,242.3 376.2,242.3 376.6,242.3 377.1,242.3 377.6,242.4 378.1,242.4 378.6,242.4 379.1,242.4 379.5,242.4 380.0,242.4 380.5,242.4 381.0,242.4 381.5,242.4 382.0,242.4
382.4,242.4 382.9,242.4 383.4,242.4 383.9,242.4 383.9,242.4 383.4,242.4 382.9,242.4 382.4,242.4 382.0,242.4 381.5,242.4 381.0,242.4 380.5,242.4 380.0,242.4 379.5,242.4 379.1,242.4 378.6,242.4
378.1,242.4 377.6,242.4 377.1,242.4 376.6,242.4 376.2,242.4 375.7,242.4 375.2,242.4 374.7,242.4 374.2,242.4 373.7,242.4 373.2,242.4 372.8,242.4 372.3,242.4 371.8,242.4 371.3,242.4 370.8,242.4
370.3,242.4 369.9,242.4 369.4,242.4 368.9,242.4 368.4,242.4 367.9,242.4 367.4,242.4 367.0,242.4 366.5,242.4 366.0,242.4 365.5,242.4 365.0,242.4 364.5,242.4 364.1,242.4 363.6,242.4 363.1,242.4
362.6,242.4 362.1,242.4 361.6,242.4 361.2,242.4 360.7,242.4 360.2,242.4 359.7,242.4 359.2,242.4 358.7,242.4 358.3,242.4 357.8,242.4 357.3,242.4 356.8,242.4 356.3,242.4 355.8,242.4 355.4,242.4
354.9,242.4 354.4,242.4 353.9,242.4 353.4,242.4 352.9,242.4 352.5,242.4 352.0,242.4 351.5,242.4 351.0,242.4 350.5,242.4 350.0,242.4 349.5,242.4 349.1,242.4 348.6,242.4 348.1,242.4 347.6,242.4
347.1,242.4 346.6,242.4 346.2,242.4 345.7,242.4 345.2,242.4 344.7,242.4 344.2,242.4 343.7,242.4 343.3,242.4 342.8,242.4 342.3,242.4 341.8,242.4 341.3,242.4 340.8,242.4 340.4,242.4 339.9,242.4
339.4,242.4 338.9,242.4 338.4,242.4 337.9,242.4 337.5,242.4 337.0,242.4 336.5,242.4 336.0,242.4 335.5,242.4 335.0,242.4 334.6,242.4 334.1,242.4 333.6,242.4 333.1,242.4 332.6,242.4 332.1,242.4
331.7,242.4 331.2,242.4 330.7,242.4 330.2,242.4 329.7,242.4 329.2,242.4 328.8,242.4 328.3,242.4 327.8,242.4 327.3,242.4 326.8,242.4 326.3,242.4 325.9,242.4 325.4,242.4 324.9,242.4 324.4,242.4
323.9,242.4 323.4,242.4 322.9,242.4 322.5,242.4 322.0,242.4 321.5,242.4 321.0,242.4 320.5,242.4 320.0,242.4 319.6,242.4 319.1,242.4 318.6,242.4 318.1,242.4 317.6,242.4 317.1,242.4 316.7,242.4
316.2,242.4 315.7,242.4 315.2,242.4 314.7,242.4 314.2,242.4 313.8,242.4 313.3,242.4 312.8,242.4 312.3,242.4 311.8,242.4 311.3,242.4 310.9,242.4 310.4,242.4 309.9,242.4 309.4,242.4 308.9,242.4
308.4,242.4 308.0,242.4 307.5,242.4 307.0,242.4 306.5,242.4 306.0,242.4 305.5,242.4 305.1,242.4 304.6,242.4 304.1,242.4 303.6,242.4 303.1,242.4 302.6,242.4 302.2,242.4 301.7,242.4 301.2,242.4
300.7,242.4 300.2,242.4 299.7,242.4 299.2,242.4 298.8,242.4 298.3,242.4 297.8,242.4 297.3,242.4 296.8,242.4 296.3,242.4 295.9,242.4 295.4,242.4 294.9,242.4 294.4,242.4 293.9,242.4 293.4,242.4
293.0,242.4 292.5,242.4 292.0,242.4 291.5,242.4 291.0,242.4 290.5,242.4 290.1,242.4 289.6,242.4 289.1,242.4 288.6,242.4 288.1,242.4 287.6,242.4 287.2,242.4 286.7,242.4 286.2,242.4 285.7,242.4
285.2,242.4 284.7,242.4 284.3,242.4 283.8,242.4 283.3,242.4 282.8,242.4 282.3,242.4 281.8,242.4 281.4,242.4 280.9,242.4 280.4,242.4 279.9,242.4 279.4,242.4 278.9,242.4 278.5,242.4 278.0,242.4
277.5,242.4 277.0,242.4 276.5,242.4 276.0,242.4 275.5,242.4 275.1,242.4 274.6,242.4 274.1,242.4 273.6,242.4 273.1,242.4 272.6,242.4 272.2,242.4 271.7,242.4 271.2,242.4 270.7,242.4 270.2,242.4
269.7,242.4 269.3,242.4 268.8,242.4 268.3,242.4 267.8,242.4 267.3,242.4 266.8,242.4 266.4,242.4 265.9,242.4 265.4,242.4 264.9,242.4 264.4,242.4 263.9,242.4 263.5,242.4 263.0,242.4 262.5,242.4
262.0,242.4 261.5,242.4 261.0,242.4 260.6,242.4 260.1,242.4 259.6,242.4 259.1,242.4 258.6,242.4 258.1,242.4 257.7,242.4 257.2,242.4 256.7,242.4 256.2,242.4 255.7,242.4 255.2,242.4 254.8,242.4
254.3,242.4 253.8,242.4 253.3,242.4 252.8,242.4 252.3,242.4 251.8,242.4 251.4,242.4 250.9,242.4 250.4,242.4 249.9,242.4 249.4,242.4 248.9,242.4 248.5,242.4 248.0,242.4 247.5,242.4 247.0,242.4
246.5,242.4 246.0,242.4 245.6,242.4 245.1,242.4 244.6,242.4 244.1,242.4 243.6,242.4 243.1,242.4 242.7,242.4 242.2,242.4 241.7,242.4 241.2,242.4 240.7,242.4 240.2,242.4 239.8,242.4 239.3,242.4
238.8,242.4 238.3,242.4 237.8,242.4 237.3,242.4 236.9,242.4 236.4,242.4 235.9,242.4 235.4,242.4 234.9,242.4 234.4,242.4 234.0,242.4 233.5,242.4 233.0,242.4 232.5,242.4 232.0,242.4 231.5,242.4
231.1,242.4 230.6,242.4 230.1,242.4 229.6,242.4 229.1,242.4 228.6,242.4 228.1,242.4 227.7,242.4 227.2,242.4 226.7,242.4 226.2,242.4 225.7,242.4 225.2,242.4 224.8,242.4 224.3,242.4 223.8,242.4
223.3,242.4 222.8,242.4 222.3,242.4 221.9,242.4 221.4,242.4 220.9,242.4 220.4,242.4 219.9,242.4 219.4,242.4 219.0,242.4 218.5,242.4 218.0,242.4 217.5,242.4 217.0,242.4 216.5,242.4 216.1,242.4
215.6,242.4 215.1,242.4 214.6,242.4 214.1,242.4 213.6,242.4 213.2,242.4 212.7,242.4 212.2,242.4 211.7,242.4 211.2,242.4 210.7,242.4 210.3,242.4 209.8,242.4 209.3,242.4 208.8,242.4 208.3,242.4
207.8,242.4 207.4,242.4 206.9,242.4 206.4,242.4 205.9,242.4 205.4,242.4 204.9,242.4 204.5,242.4 204.0,242.4 203.5,242.4 203.0,242.4 202.5,242.4 202.0,242.4 201.5,242.4 201.1,242.4 200.6,242.4
200.1,242.4 199.6,242.4 199.1,242.4 198.6,242.4 198.2,242.4 197.7,242.4 197.2,242.4 196.7,242.4 196.2,242.4 195.7,242.4 195.3,242.4 194.8,242.4 194.3,242.4 193.8,242.4 193.3,242.4 192.8,242.4
192.4,242.4 191.9,242.4 191.4,242.4 190.9,242.4 190.4,242.4 189.9,242.4 189.5,242.4 189.0,242.4 188.5,242.4 188.0,242.4 187.5,242.4 187.0,242.4 186.6,242.4 186.1,242.4 185.6,242.4 185.1,242.4
184.6,242.4 184.1,242.4 183.7,242.4 183.2,242.4 182.7,242.4 182.2,242.4 181.7,242.4 181.2,242.4 180.8,242.4 180.3,242.4 179.8,242.4 179.3,242.4 178.8,242.4 178.3,242.4 177.8,242.4 177.4,242.4
176.9,242.4 176.4,242.4 175.9,242.4 175.4,242.4 174.9,242.4 174.5,242.4 174.0,242.4 173.5,242.4 173.0,242.4 172.5,242.4 172.0,242.4 171.6,242.4 171.1,242.4 170.6,242.4 170.1,242.4 169.6,242.4
169.1,242.4 168.7,242.4 168.2,242.4 167.7,242.4 167.2,242.4 166.7,242.4 166.2,242.4 165.8,242.4 165.3,242.4 164.8,242.4 164.3,242.4 163.8,242.4 163.3,242.4 162.9,242.4 162.4,242.4 161.9,242.4
161.4,242.4 160.9,242.4 160.4,242.4 160.0,242.4 159.5,242.4 159.0,242.4 158.5,242.4 158.0,242.4 157.5,242.4 157.1,242.4 156.6,242.4 156.1,242.4 155.6,242.4 155.1,242.4 154.6,242.4 154.1,242.4
153.7,242.4 153.2,242.4 152.7,242.4 152.2,242.4 151.7,242.4 151.2,242.4 150.8,242.4 150.3,242.4 149.8,242.4 149.3,242.4 148.8,242.4 148.3,242.4 147.9,242.4 147.4,242.4 146.9,242.4 146.4,242.4
145.9,242.4 145.4,242.4 145.0,242.4 144.5,242.4 144.0,242.4 143.5,242.4 143.0,242.4 142.5,242.4 '/>
	</g>
</g>
	</g>
	<g id="gnuplot_plot_2" ><title>Base Mean</title>
<g fill="none" color="white" stroke="rgb(227,  26,  28)" stroke-width="2.00" stroke-linecap="butt" stroke-linejoin="miter">
</g>
<g fill="none" color="black" stroke="currentColor" stroke-width="2.00" stroke-linecap="butt" stroke-linejoin="miter">
	<path stroke='rgb(227,  26,  28)'  d='M179.2,242.4 L179.2,200.5  '/></g>
	</g>
	<g id="gnuplot_plot_3" ><title>New PDF</title>
<g fill="none" color="white" stroke="rgb(227,  26,  28)" stroke-width="1.00" stroke-linecap="butt" stroke-linejoin="miter">
</g>
<g fill="none" color="black" stroke="currentColor" stroke-width="1.00" stroke-linecap="butt" stroke-linejoin="miter">
	<g stroke='none' shape-rendering='crispEdges'>
		<polygon fill = 'rgb( 31, 120, 180)' fill-opacity = '0.500000' points = '84.5,241.7 84.6,241.6 84.7,241.5 84.8,241.4 84.9,241.3 84.9,241.1 85.0,241.0 85.1,240.8 85.2,240.6 85.3,240.4 85.3,240.2 85.4,239.9 85.5,239.6 85.6,239.3 85.7,239.0 85.7,238.6
85.8,238.2 85.9,237.7 86.0,237.2 86.1,236.7 86.2,236.1 86.2,235.5 86.3,234.8 86.4,234.0 86.5,233.2 86.6,232.3 86.6,231.4 86.7,230.4 86.8,229.3 86.9,228.1 87.0,226.8 87.0,225.5
87.1,224.1 87.2,222.5 87.3,220.9 87.4,219.2 87.5,217.4 87.5,215.4 87.6,213.4 87.7,211.2 87.8,208.9 87.9,206.5 87.9,204.0 88.0,201.4 88.1,198.6 88.2,195.8 88.3,192.8 88.4,189.7
88.4,186.4 88.5,183.1 88.6,179.6 88.7,176.0 88.8,172.3 88.8,168.5 88.9,164.6 89.0,160.6 89.1,156.6 89.2,152.4 89.2,148.2 89.3,143.9 89.4,139.5 89.5,135.1 89.6,130.6 89.7,126.2
89.7,121.7 89.8,117.1 89.9,112.6 90.0,108.2 90.1,103.7 90.1,99.3 90.2,94.9 90.3,90.6 90.4,86.4 90.5,82.3 90.5,78.3 90.6,74.4 90.7,70.7 90.8,67.1 90.9,63.6 91.0,60.3
91.0,57.2 91.1,54.3 91.2,51.6 91.3,49.1 91.4,46.8 91.4,44.7 91.5,42.9 91.6,41.3 91.7,40.0 91.8,38.9 91.9,38.0 91.9,37.4 92.0,37.1 92.1,37.0 92.2,37.2 92.3,37.6
92.3,38.3 92.4,39.2 92.5,40.4 92.6,41.8 92.7,43.4 92.7,45.3 92.8,47.4 92.9,49.7 93.0,52.2 93.1,54.8 93.2,57.7 93.2,60.7 93.3,63.9 93.4,67.2 93.5,70.7 93.6,74.3
93.6,78.0 93.7,81.8 93.8,85.7 93.9,89.7 94.0,93.7 94.1,97.8 94.1,102.0 94.2,106.1 94.3,110.3 94.4,114.5 94.5,118.7 94.5,122.9 94.6,127.0 94.7,131.1 94.8,135.2 94.9,139.3
94.9,143.3 95.0,147.2 95.1,151.1 95.2,154.9 95.3,158.6 95.4,162.2 95.4,165.8 95.5,169.3 95.6,172.6 95.7,175.9 95.8,179.1 95.8,182.2 95.9,185.1 96.0,188.0 96.1,190.8 96.2,193.5
96.2,196.0 96.3,198.5 96.4,200.9 96.5,203.2 96.6,205.3 96.7,207.4 96.7,209.4 96.8,211.3 96.9,213.1 97.0,214.8 97.1,216.4 97.1,217.9 97.2,219.4 97.3,220.8 97.4,222.1 97.5,223.3
97.6,224.4 97.6,225.5 97.7,226.5 97.8,227.5 97.9,228.4 98.0,229.2 98.0,230.0 98.1,230.7 98.2,231.4 98.3,232.0 98.4,232.6 98.4,233.1 98.5,233.6 98.6,234.0 98.7,234.4 98.8,234.8
98.9,235.1 98.9,235.4 99.0,235.7 99.1,236.0 99.2,236.2 99.3,236.4 99.3,236.5 99.4,236.7 99.5,236.8 99.6,236.9 99.7,237.0 99.7,237.1 99.8,237.1 99.9,237.2 100.0,237.2 100.1,237.2
100.2,237.3 100.2,237.3 100.3,237.2 100.4,237.2 100.5,237.2 100.6,237.2 100.6,237.1 100.7,237.1 100.8,237.0 100.9,237.0 101.0,236.9 101.1,236.9 101.1,236.8 101.2,236.7 101.3,236.7 101.4,236.6
101.5,236.5 101.5,236.5 101.6,236.4 101.7,236.3 101.8,236.3 101.9,236.2 101.9,236.1 102.0,236.1 102.1,236.0 102.2,236.0 102.3,235.9 102.4,235.8 102.4,235.8 102.5,235.7 102.6,235.7 102.7,235.6
102.8,235.6 102.8,235.6 102.9,235.5 103.0,235.5 103.1,235.5 103.2,235.4 103.3,235.4 103.3,235.4 103.4,235.4 103.5,235.3 103.6,235.3 103.7,235.3 103.7,235.3 103.8,235.3 103.9,235.3 104.0,235.3
104.1,235.3 104.1,235.3 104.2,235.3 104.3,235.3 104.4,235.3 104.5,235.3 104.6,235.3 104.6,235.3 104.7,235.3 104.8,235.3 104.9,235.3 105.0,235.3 105.0,235.3 105.1,235.3 105.2,235.3 105.3,235.3
105.4,235.4 105.4,235.4 105.5,235.4 105.6,235.4 105.7,235.4 105.8,235.4 105.9,235.4 105.9,235.4 106.0,235.4 106.1,235.4 106.2,235.4 106.3,235.4 106.3,235.4 106.4,235.4 106.5,235.4 106.6,235.4
106.7,235.4 106.8,235.4 106.8,235.4 106.9,235.4 107.0,235.4 107.1,235.4 107.2,235.4 107.2,235.4 107.3,235.4 107.4,235.4 107.5,235.4 107.6,235.4 107.6,235.4 107.7,235.4 107.8,235.4 107.9,235.5
108.0,235.5 108.1,235.5 108.1,235.5 108.2,235.5 108.3,235.5 108.4,235.5 108.5,235.5 108.5,235.5 108.6,235.5 108.7,235.5 108.8,235.5 108.9,235.6 108.9,235.6 109.0,235.6 109.1,235.6 109.2,235.6
109.3,235.6 109.4,235.6 109.4,235.6 109.5,235.6 109.6,235.6 109.7,235.6 109.8,235.7 109.8,235.7 109.9,235.7 110.0,235.7 110.1,235.7 110.2,235.7 110.3,235.7 110.3,235.7 110.4,235.8 110.5,235.8
110.6,235.8 110.7,235.8 110.7,235.8 110.8,235.9 110.9,235.9 111.0,235.9 111.1,236.0 111.1,236.0 111.2,236.0 111.3,236.1 111.4,236.1 111.5,236.1 111.6,236.2 111.6,236.2 111.7,236.3 111.8,236.3
111.9,236.4 112.0,236.4 112.0,236.5 112.1,236.5 112.2,236.6 112.3,236.6 112.4,236.7 112.5,236.7 112.5,236.8 112.6,236.9 112.7,236.9 112.8,237.0 112.9,237.0 112.9,237.1 113.0,237.2 113.1,237.2
113.2,237.3 113.3,237.3 113.3,237.4 113.4,237.5 113.5,237.5 113.6,237.6 113.7,237.6 113.8,237.7 113.8,237.8 113.9,237.8 114.0,237.9 114.1,237.9 114.2,238.0 114.2,238.1 114.3,238.1 114.4,238.2
114.5,238.2 114.6,238.3 114.6,238.3 114.7,238.4 114.8,238.4 114.9,238.5 115.0,238.5 115.1,238.6 115.1,238.6 115.2,238.7 115.3,238.7 115.4,238.7 115.5,238.8 115.5,238.8 115.6,238.8 115.7,238.9
115.8,238.9 115.9,238.9 116.0,239.0 116.0,239.0 116.1,239.0 116.2,239.0 116.3,239.1 116.4,239.1 116.4,239.1 116.5,239.1 116.6,239.2 116.7,239.2 116.8,239.2 116.8,239.2 116.9,239.2 117.0,239.2
117.1,239.2 117.2,239.3 117.3,239.3 117.3,239.3 117.4,239.3 117.5,239.3 117.6,239.3 117.7,239.3 117.7,239.3 117.8,239.3 117.9,239.4 118.0,239.4 118.1,239.4 118.2,239.4 118.2,239.4 118.3,239.4
118.4,239.5 118.5,239.5 118.6,239.5 118.6,239.5 118.7,239.6 118.8,239.6 118.9,239.6 119.0,239.7 119.0,239.7 119.1,239.7 119.2,239.8 119.3,239.8 119.4,239.8 119.5,239.9 119.5,239.9 119.6,240.0
119.7,240.0 119.8,240.1 119.9,240.1 119.9,240.2 120.0,240.3 120.1,240.3 120.2,240.4 120.3,240.4 120.3,240.5 120.4,240.5 120.5,240.6 120.6,240.7 120.7,240.7 120.8,240.8 120.8,240.9 120.9,240.9
121.0,241.0 121.1,241.0 121.2,241.1 121.2,241.1 121.3,241.2 121.4,241.3 121.5,241.3 121.6,241.4 121.7,241.4 121.7,241.5 121.8,241.5 121.9,241.6 122.0,241.6 122.1,241.7 122.1,241.7 122.2,241.7
122.3,241.8 122.4,241.8 122.5,241.9 122.5,241.9 122.6,241.9 122.7,242.0 122.8,242.0 122.9,242.0 123.0,242.0 123.0,242.1 123.1,242.1 123.2,242.1 123.3,242.1 123.4,242.2 123.4,242.2 123.5,242.2
123.6,242.2 123.7,242.2 123.8,242.2 123.8,242.3 123.9,242.3 124.0,242.3 124.1,242.3 124.2,242.3 124.3,242.3 124.3,242.3 124.4,242.3 124.5,242.3 124.6,242.3 124.7,242.3 124.7,242.4 124.8,242.4
124.9,242.4 125.0,242.4 125.1,242.4 125.2,242.4 125.2,242.4 125.1,242.4 125.0,242.4 124.9,242.4 124.8,242.4 124.7,242.4 124.7,242.4 124.6,242.4 124.5,242.4 124.4,242.4 124.3,242.4 124.3,242.4
124.2,242.4 124.1,242.4 124.0,242.4 123.9,242.4 123.8,242.4 123.8,242.4 123.7,242.4 123.6,242.4 123.5,242.4 123.4,242.4 123.4,242.4 123.3,242.4 123.2,242.4 123.1,242.4 123.0,242.4 123.0,242.4
122.9,242.4 122.8,242.4 122.7,242.4 122.6,242.4 122.5,242.4 122.5,242.4 122.4,242.4 122.3,242.4 122.2,242.4 122.1,242.4 122.1,242.4 122.0,242.4 121.9,242.4 121.8,242.4 121.7,242.4 121.7,242.4
121.6,242.4 121.5,242.4 121.4,242.4 121.3,242.4 121.2,242.4 121.2,242.4 121.1,242.4 121.0,242.4 120.9,242.4 120.8,242.4 120.8,242.4 120.7,242.4 120.6,242.4 120.5,242.4 120.4,242.4 120.3,242.4
120.3,242.4 120.2,242.4 120.1,242.4 120.0,242.4 119.9,242.4 119.9,242.4 119.8,242.4 119.7,242.4 119.6,242.4 119.5,242.4 119.5,242.4 119.4,242.4 119.3,242.4 119.2,242.4 119.1,242.4 119.0,242.4
119.0,242.4 118.9,242.4 118.8,242.4 118.7,242.4 118.6,242.4 118.6,242.4 118.5,242.4 118.4,242.4 118.3,242.4 118.2,242.4 118.2,242.4 118.1,242.4 118.0,242.4 117.9,242.4 117.8,242.4 117.7,242.4
117.7,242.4 117.6,242.4 117.5,242.4 117.4,242.4 117.3,242.4 117.3,242.4 117.2,242.4 117.1,242.4 117.0,242.4 116.9,242.4 116.8,242.4 116.8,242.4 116.7,242.4 116.6,242.4 116.5,242.4 116.4,242.4
116.4,242.4 116.3,242.4 116.2,242.4 116.1,242.4 116.0,242.4 116.0,242.4 115.9,242.4 115.8,242.4 115.7,242.4 115.6,242.4 115.5,242.4 115.5,242.4 115.4,242.4 115.3,242.4 115.2,242.4 115.1,242.4
115.1,242.4 115.0,242.4 114.9,242.4 114.8,242.4 114.7,242.4 114.6,242.4 114.6,242.4 114.5,242.4 114.4,242.4 114.3,242.4 114.2,242.4 114.2,242.4 114.1,242.4 114.0,242.4 113.9,242.4 113.8,242.4
113.8,242.4 113.7,242.4 113.6,242.4 113.5,242.4 113.4,242.4 113.3,242.4 113.3,242.4 113.2,242.4 113.1,242.4 113.0,242.4 112.9,242.4 112.9,242.4 112.8,242.4 112.7,242.4 112.6,242.4 112.5,242.4
112.5,242.4 112.4,242.4 112.3,242.4 112.2,242.4 112.1,242.4 112.0,242.4 112.0,242.4 111.9,242.4 111.8,242.4 111.7,242.4 111.6,242.4 111.6,242.4 111.5,242.4 111.4,242.4 111.3,242.4 111.2,242.4
111.1,242.4 111.1,242.4 111.0,242.4 110.9,242.4 110.8,242.4 110.7,242.4 110.7,242.4 110.6,242.4 110.5,242.4 110.4,242.4 110.3,242.4 110.3,242.4 110.2,242.4 110.1,242.4 110.0,242.4 109.9,242.4
109.8,242.4 109.8,242.4 109.7,242.4 109.6,242.4 109.5,242.4 109.4,242.4 109.4,242.4 109.3,242.4 109.2,242.4 109.1,242.4 109.0,242.4 108.9,242.4 108.9,242.4 108.8,242.4 108.7,242.4 108.6,242.4
108.5,242.4 108.5,242.4 108.4,242.4 108.3,242.4 108.2,242.4 108.1,242.4 108.1,242.4 108.0,242.4 107.9,242.4 107.8,242.4 107.7,242.4 107.6,242.4 107.6,242.4 107.5,242.4 107.4,242.4 107.3,242.4
107.2,242.4 107.2,242.4 107.1,242.4 107.0,242.4 106.9,242.4 106.8,242.4 106.8,242.4 106.7,242.4 106.6,242.4 106.5,242.4 106.4,242.4 106.3,242.4 106.3,242.4 106.2,242.4 106.1,242.4 106.0,242.4
105.9,242.4 105.9,242.4 105.8,242.4 105.7,242.4 105.6,242.4 105.5,242.4 105.4,242.4 105.4,242.4 105.3,242.4 105.2,242.4 105.1,242.4 105.0,242.4 105.0,242.4 104.9,242.4 104.8,242.4 104.7,242.4
104.6,242.4 104.6,242.4 104.5,242.4 104.4,242.4 104.3,242.4 104.2,242.4 104.1,242.4 104.1,242.4 104.0,242.4 103.9,242.4 103.8,242.4 103.7,242.4 103.7,242.4 103.6,242.4 103.5,242.4 103.4,242.4
103.3,242.4 103.3,242.4 103.2,242.4 103.1,242.4 103.0,242.4 102.9,242.4 102.8,242.4 102.8,242.4 102.7,242.4 102.6,242.4 102.5,242.4 102.4,242.4 102.4,242.4 102.3,242.4 102.2,242.4 102.1,242.4
102.0,242.4 101.9,242.4 101.9,242.4 101.8,242.4 101.7,242.4 101.6,242.4 101.5,242.4 101.5,242.4 101.4,242.4 101.3,242.4 101.2,242.4 101.1,242.4 101.1,242.4 101.0,242.4 100.9,242.4 100.8,242.4
100.7,242.4 100.6,242.4 100.6,242.4 100.5,242.4 100.4,242.4 100.3,242.4 100.2,242.4 100.2,242.4 100.1,242.4 100.0,242.4 99.9,242.4 99.8,242.4 99.7,242.4 99.7,242.4 99.6,242.4 99.5,242.4
99.4,242.4 99.3,242.4 99.3,242.4 99.2,242.4 99.1,242.4 99.0,242.4 98.9,242.4 98.9,242.4 98.8,242.4 98.7,242.4 98.6,242.4 98.5,242.4 98.4,242.4 98.4,242.4 98.3,242.4 98.2,242.4
98.1,242.4 98.0,242.4 98.0,242.4 97.9,242.4 97.8,242.4 97.7,242.4 97.6,242.4 97.6,242.4 97.5,242.4 97.4,242.4 97.3,242.4 97.2,242.4 97.1,242.4 97.1,242.4 97.0,242.4 96.9,242.4
96.8,242.4 96.7,242.4 96.7,242.4 96.6,242.4 96.5,242.4 96.4,242.4 96.3,242.4 96.2,242.4 96.2,242.4 96.1,242.4 96.0,242.4 95.9,242.4 95.8,242.4 95.8,242.4 95.7,242.4 95.6,242.4
95.5,242.4 95.4,242.4 95.4,242.4 95.3,242.4 95.2,242.4 95.1,242.4 95.0,242.4 94.9,242.4 94.9,242.4 94.8,242.4 94.7,242.4 94.6,242.4 94.5,242.4 94.5,242.4 94.4,242.4 94.3,242.4
94.2,242.4 94.1,242.4 94.1,242.4 94.0,242.4 93.9,242.4 93.8,242.4 93.7,242.4 93.6,242.4 93.6,242.4 93.5,242.4 93.4,242.4 93.3,242.4 93.2,242.4 93.2,242.4 93.1,242.4 93.0,242.4
92.9,242.4 92.8,242.4 92.7,242.4 92.7,242.4 92.6,242.4 92.5,242.4 92.4,242.4 92.3,242.4 92.3,242.4 92.2,242.4 92.1,242.4 92.0,242.4 91.9,242.4 91.9,242.4 91.8,242.4 91.7,242.4
91.6,242.4 91.5,242.4 91.4,242.4 91.4,242.4 91.3,242.4 91.2,242.4 91.1,242.4 91.0,242.4 91.0,242.4 90.9,242.4 90.8,242.4 90.7,242.4 90.6,242.4 90.5,242.4 90.5,242.4 90.4,242.4
90.3,242.4 90.2,242.4 90.1,242.4 90.1,242.4 90.0,242.4 89.9,242.4 89.8,242.4 89.7,242.4 89.7,242.4 89.6,242.4 89.5,242.4 89.4,242.4 89.3,242.4 89.2,242.4 89.2,242.4 89.1,242.4
89.0,242.4 88.9,242.4 88.8,242.4 88.8,242.4 88.7,242.4 88.6,242.4 88.5,242.4 88.4,242.4 88.4,242.4 88.3,242.4 88.2,242.4 88.1,242.4 88.0,242.4 87.9,242.4 87.9,242.4 87.8,242.4
87.7,242.4 87.6,242.4 87.5,242.4 87.5,242.4 87.4,242.4 87.3,242.4 87.2,242.4 87.1,242.4 87.0,242.4 87.0,242.4 86.9,242.4 86.8,242.4 86.7,242.4 86.6,242.4 86.6,242.4 86.5,242.4
86.4,242.4 86.3,242.4 86.2,242.4 86.2,242.4 86.1,242.4 86.0,242.4 85.9,242.4 85.8,242.4 85.7,242.4 85.7,242.4 85.6,242.4 85.5,242.4 85.4,242.4 85.3,242.4 85.3,242.4 85.2,242.4
85.1,242.4 85.0,242.4 84.9,242.4 84.9,242.4 84.8,242.4 84.7,242.4 84.6,242.4 84.5,242.4 '/>
	</g>
</g>
	</g>
	<g id="gnuplot_plot_4" ><title>New Mean</title>
<g fill="none" color="white" stroke="rgb( 31, 120, 180)" stroke-width="2.00" stroke-linecap="butt" stroke-linejoin="miter">
</g>
<g fill="none" color="black" stroke="currentColor" stroke-width="2.00" stroke-linecap="butt" stroke-linejoin="miter">
	<path stroke='rgb( 31, 120, 180)'  d='M93.7,242.4 L93.7,79.9  '/></g>
	</g>
<g fill="none" color="black" stroke="currentColor" stroke-width="2.00" stroke-linecap="butt" stroke-linejoin="miter">
</g>
<g fill="none" color="black" stroke="black" stroke-width="1.00" stroke-linecap="butt" stroke-linejoin="miter">
</g>
<g fill="none" color="black" stroke="currentColor" stroke-width="1.00" stroke-linecap="butt" stroke-linejoin="miter">
	<path stroke='black'  d='M71.9,18.1 L71.9,242.4 L425.0,242.4 L425.0,18.1 L71.9,18.1 Z  '/></g>
<g fill="none" color="black" stroke="currentColor" stroke-width="1.00" stroke-linecap="butt" stroke-linejoin="miter">
</g>
</g>
</svg>

