<?xml version="1.0" encoding="utf-8"  standalone="no"?>
<svg 
 viewBox="0 0 1280 720"
 xmlns="http://www.w3.org/2000/svg"
 xmlns:xlink="http://www.w3.org/1999/xlink"
>

<title>Gnuplot</title>
<desc>Produced by GNUPLOT 5.2 patchlevel 6 </desc>

<g id="gnuplot_canvas">

<rect x="0" y="0" width="1280" height="720" fill="none"/>
<defs>

	<circle id='gpDot' r='0.5' stroke-width='0.5' stroke='currentColor'/>
	<path id='gpPt0' stroke-width='0.222' stroke='currentColor' d='M-1,0 h2 M0,-1 v2'/>
	<path id='gpPt1' stroke-width='0.222' stroke='currentColor' d='M-1,-1 L1,1 M1,-1 L-1,1'/>
	<path id='gpPt2' stroke-width='0.222' stroke='currentColor' d='M-1,0 L1,0 M0,-1 L0,1 M-1,-1 L1,1 M-1,1 L1,-1'/>
	<rect id='gpPt3' stroke-width='0.222' stroke='currentColor' x='-1' y='-1' width='2' height='2'/>
	<rect id='gpPt4' stroke-width='0.222' stroke='currentColor' fill='currentColor' x='-1' y='-1' width='2' height='2'/>
	<circle id='gpPt5' stroke-width='0.222' stroke='currentColor' cx='0' cy='0' r='1'/>
	<use xlink:href='#gpPt5' id='gpPt6' fill='currentColor' stroke='none'/>
	<path id='gpPt7' stroke-width='0.222' stroke='currentColor' d='M0,-1.33 L-1.33,0.67 L1.33,0.67 z'/>
	<use xlink:href='#gpPt7' id='gpPt8' fill='currentColor' stroke='none'/>
	<use xlink:href='#gpPt7' id='gpPt9' stroke='currentColor' transform='rotate(180)'/>
	<use xlink:href='#gpPt9' id='gpPt10' fill='currentColor' stroke='none'/>
	<use xlink:href='#gpPt3' id='gpPt11' stroke='currentColor' transform='rotate(45)'/>
	<use xlink:href='#gpPt11' id='gpPt12' fill='currentColor' stroke='none'/>
	<path id='gpPt13' stroke-width='0.222' stroke='currentColor' d='M0,1.330 L1.265,0.411 L0.782,-1.067 L-0.782,-1.076 L-1.265,0.411 z'/>
	<use xlink:href='#gpPt13' id='gpPt14' fill='currentColor' stroke='none'/>
	<filter id='textbox' filterUnits='objectBoundingBox' x='0' y='0' height='1' width='1'>
	  <feFlood flood-color='white' flood-opacity='1' result='bgnd'/>
	  <feComposite in='SourceGraphic' in2='bgnd' operator='atop'/>
	</filter>
	<filter id='greybox' filterUnits='objectBoundingBox' x='0' y='0' height='1' width='1'>
	  <feFlood flood-color='lightgrey' flood-opacity='1' result='grey'/>
	  <feComposite in='SourceGraphic' in2='grey' operator='atop'/>
	</filter>
</defs>
<g fill="none" color="white" stroke="currentColor" stroke-width="1.00" stroke-linecap="butt" stroke-linejoin="miter">
</g>
<g fill="none" color="black" stroke="currentColor" stroke-width="1.00" stroke-linecap="butt" stroke-linejoin="miter">
	<path stroke='black'  d='M88.5,662.4 L97.5,662.4  '/>	<g transform="translate(80.2,666.3)" stroke="none" fill="black" font-family="Helvetica" font-size="12.00"  text-anchor="end">
		<text><tspan font-family="Helvetica" > 0</tspan></text>
	</g>
</g>
<g fill="none" color="black" stroke="currentColor" stroke-width="1.00" stroke-linecap="butt" stroke-linejoin="miter">
	<path stroke='black'  d='M88.5,561.0 L97.5,561.0  '/>	<g transform="translate(80.2,564.9)" stroke="none" fill="black" font-family="Helvetica" font-size="12.00"  text-anchor="end">
		<text><tspan font-family="Helvetica" > 0.001</tspan></text>
	</g>
</g>
<g fill="none" color="black" stroke="currentColor" stroke-width="1.00" stroke-linecap="butt" stroke-linejoin="miter">
	<path stroke='black'  d='M88.5,459.6 L97.5,459.6  '/>	<g transform="translate(80.2,463.5)" stroke="none" fill="black" font-family="Helvetica" font-size="12.00"  text-anchor="end">
		<text><tspan font-family="Helvetica" > 0.002</tspan></text>
	</g>
</g>
<g fill="none" color="black" stroke="currentColor" stroke-width="1.00" stroke-linecap="butt" stroke-linejoin="miter">
	<path stroke='black'  d='M88.5,358.2 L97.5,358.2  '/>	<g transform="translate(80.2,362.1)" stroke="none" fill="black" font-family="Helvetica" font-size="12.00"  text-anchor="end">
		<text><tspan font-family="Helvetica" > 0.003</tspan></text>
	</g>
</g>
<g fill="none" color="black" stroke="currentColor" stroke-width="1.00" stroke-linecap="butt" stroke-linejoin="miter">
	<path stroke='black'  d='M88.5,256.9 L97.5,256.9  '/>	<g transform="translate(80.2,260.8)" stroke="none" fill="black" font-family="Helvetica" font-size="12.00"  text-anchor="end">
		<text><tspan font-family="Helvetica" > 0.004</tspan></text>
	</g>
</g>
<g fill="none" color="black" stroke="currentColor" stroke-width="1.00" stroke-linecap="butt" stroke-linejoin="miter">
	<path stroke='black'  d='M88.5,155.5 L97.5,155.5  '/>	<g transform="translate(80.2,159.4)" stroke="none" fill="black" font-family="Helvetica" font-size="12.00"  text-anchor="end">
		<text><tspan font-family="Helvetica" > 0.005</tspan></text>
	</g>
</g>
<g fill="none" color="black" stroke="currentColor" stroke-width="1.00" stroke-linecap="butt" stroke-linejoin="miter">
	<path stroke='black'  d='M88.5,54.1 L97.5,54.1  '/>	<g transform="translate(80.2,58.0)" stroke="none" fill="black" font-family="Helvetica" font-size="12.00"  text-anchor="end">
		<text><tspan font-family="Helvetica" > 0.006</tspan></text>
	</g>
</g>
<g fill="none" color="black" stroke="currentColor" stroke-width="1.00" stroke-linecap="butt" stroke-linejoin="miter">
	<path stroke='black'  d='M134.3,662.4 L134.3,653.4  '/>	<g transform="translate(134.3,684.3)" stroke="none" fill="black" font-family="Helvetica" font-size="12.00"  text-anchor="middle">
		<text><tspan font-family="Helvetica" > 250</tspan></text>
	</g>
</g>
<g fill="none" color="black" stroke="currentColor" stroke-width="1.00" stroke-linecap="butt" stroke-linejoin="miter">
	<path stroke='black'  d='M260.6,662.4 L260.6,653.4  '/>	<g transform="translate(260.6,684.3)" stroke="none" fill="black" font-family="Helvetica" font-size="12.00"  text-anchor="middle">
		<text><tspan font-family="Helvetica" > 300</tspan></text>
	</g>
</g>
<g fill="none" color="black" stroke="currentColor" stroke-width="1.00" stroke-linecap="butt" stroke-linejoin="miter">
	<path stroke='black'  d='M386.9,662.4 L386.9,653.4  '/>	<g transform="translate(386.9,684.3)" stroke="none" fill="black" font-family="Helvetica" font-size="12.00"  text-anchor="middle">
		<text><tspan font-family="Helvetica" > 350</tspan></text>
	</g>
</g>
<g fill="none" color="black" stroke="currentColor" stroke-width="1.00" stroke-linecap="butt" stroke-linejoin="miter">
	<path stroke='black'  d='M513.3,662.4 L513.3,653.4  '/>	<g transform="translate(513.3,684.3)" stroke="none" fill="black" font-family="Helvetica" font-size="12.00"  text-anchor="middle">
		<text><tspan font-family="Helvetica" > 400</tspan></text>
	</g>
</g>
<g fill="none" color="black" stroke="currentColor" stroke-width="1.00" stroke-linecap="butt" stroke-linejoin="miter">
	<path stroke='black'  d='M639.6,662.4 L639.6,653.4  '/>	<g transform="translate(639.6,684.3)" stroke="none" fill="black" font-family="Helvetica" font-size="12.00"  text-anchor="middle">
		<text><tspan font-family="Helvetica" > 450</tspan></text>
	</g>
</g>
<g fill="none" color="black" stroke="currentColor" stroke-width="1.00" stroke-linecap="butt" stroke-linejoin="miter">
	<path stroke='black'  d='M765.9,662.4 L765.9,653.4  '/>	<g transform="translate(765.9,684.3)" stroke="none" fill="black" font-family="Helvetica" font-size="12.00"  text-anchor="middle">
		<text><tspan font-family="Helvetica" > 500</tspan></text>
	</g>
</g>
<g fill="none" color="black" stroke="currentColor" stroke-width="1.00" stroke-linecap="butt" stroke-linejoin="miter">
	<path stroke='black'  d='M892.3,662.4 L892.3,653.4  '/>	<g transform="translate(892.3,684.3)" stroke="none" fill="black" font-family="Helvetica" font-size="12.00"  text-anchor="middle">
		<text><tspan font-family="Helvetica" > 550</tspan></text>
	</g>
</g>
<g fill="none" color="black" stroke="currentColor" stroke-width="1.00" stroke-linecap="butt" stroke-linejoin="miter">
</g>
<g fill="none" color="black" stroke="currentColor" stroke-width="1.00" stroke-linecap="butt" stroke-linejoin="miter">
	<path stroke='black'  d='M88.5,54.1 L88.5,662.4 L1013.6,662.4 L1013.6,54.1 L88.5,54.1 Z  '/></g>
<g fill="none" color="black" stroke="currentColor" stroke-width="1.00" stroke-linecap="butt" stroke-linejoin="miter">
	<g transform="translate(16.3,358.3) rotate(270)" stroke="none" fill="black" font-family="Helvetica" font-size="12.00"  text-anchor="middle">
		<text><tspan font-family="Helvetica" >Density (a.u.)</tspan></text>
	</g>
</g>
<g fill="none" color="black" stroke="currentColor" stroke-width="1.00" stroke-linecap="butt" stroke-linejoin="miter">
	<g transform="translate(551.0,711.3)" stroke="none" fill="black" font-family="Helvetica" font-size="12.00"  text-anchor="middle">
		<text><tspan font-family="Helvetica" >Average time (ns)</tspan></text>
	</g>
</g>
<g fill="none" color="black" stroke="currentColor" stroke-width="1.00" stroke-linecap="butt" stroke-linejoin="miter">
	<g transform="translate(551.0,31.0)" stroke="none" fill="black" font-family="Helvetica" font-size="12.00"  text-anchor="middle">
		<text><tspan font-family="Helvetica" >snapshot_restore_with_dense/Dense: Entire region + process_vm_writev w/ page size/46: SD</tspan></text>
	</g>
</g>
	<g id="gnuplot_plot_1" ><title>Bootstrap distribution</title>
<g fill="none" color="white" stroke="black" stroke-width="2.00" stroke-linecap="butt" stroke-linejoin="miter">
</g>
<g fill="none" color="black" stroke="currentColor" stroke-width="2.00" stroke-linecap="butt" stroke-linejoin="miter">
	<g transform="translate(1089.0,67.0)" stroke="none" fill="black" font-family="Helvetica" font-size="12.00"  text-anchor="start">
		<text><tspan font-family="Helvetica" >Bootstrap distribution</tspan></text>
	</g>
</g>
<g fill="none" color="black" stroke="currentColor" stroke-width="2.00" stroke-linecap="butt" stroke-linejoin="miter">
	<path stroke='rgb( 31, 120, 180)'  d='M1038.5,63.1 L1080.7,63.1 M88.5,632.5 L90.4,631.9 L92.2,631.3 L94.1,630.7 L95.9,630.1 L97.8,629.5
		L99.6,628.9 L101.5,628.3 L103.3,627.7 L105.2,627.1 L107.0,626.5 L108.9,625.9 L110.7,625.2 L112.6,624.6
		L114.5,623.9 L116.3,623.2 L118.2,622.6 L120.0,621.8 L121.9,621.1 L123.7,620.4 L125.6,619.6 L127.4,618.9
		L129.3,618.1 L131.1,617.2 L133.0,616.4 L134.8,615.5 L136.7,614.7 L138.6,613.8 L140.4,612.9 L142.3,611.9
		L144.1,611.0 L146.0,610.0 L147.8,609.0 L149.7,608.0 L151.5,607.0 L153.4,606.0 L155.2,604.9 L157.1,603.9
		L158.9,602.8 L160.8,601.7 L162.7,600.6 L164.5,599.4 L166.4,598.3 L168.2,597.1 L170.1,595.9 L171.9,594.7
		L173.8,593.4 L175.6,592.1 L177.5,590.9 L179.3,589.5 L181.2,588.2 L183.0,586.9 L184.9,585.5 L186.8,584.1
		L188.6,582.7 L190.5,581.3 L192.3,579.8 L194.2,578.4 L196.0,576.9 L197.9,575.4 L199.7,573.9 L201.6,572.4
		L203.4,570.9 L205.3,569.4 L207.2,567.8 L209.0,566.3 L210.9,564.7 L212.7,563.2 L214.6,561.6 L216.4,560.0
		L218.3,558.4 L220.1,556.8 L222.0,555.1 L223.8,553.4 L225.7,551.8 L227.5,550.1 L229.4,548.3 L231.3,546.6
		L233.1,544.8 L235.0,543.0 L236.8,541.1 L238.7,539.3 L240.5,537.4 L242.4,535.5 L244.2,533.5 L246.1,531.5
		L247.9,529.5 L249.8,527.5 L251.6,525.5 L253.5,523.4 L255.4,521.4 L257.2,519.3 L259.1,517.2 L260.9,515.2
		L262.8,513.1 L264.6,511.0 L266.5,508.9 L268.3,506.8 L270.2,504.8 L272.0,502.7 L273.9,500.6 L275.7,498.5
		L277.6,496.5 L279.5,494.4 L281.3,492.3 L283.2,490.3 L285.0,488.2 L286.9,486.1 L288.7,484.0 L290.6,481.9
		L292.4,479.7 L294.3,477.6 L296.1,475.4 L298.0,473.2 L299.8,470.9 L301.7,468.7 L303.6,466.4 L305.4,464.0
		L307.3,461.7 L309.1,459.3 L311.0,456.9 L312.8,454.5 L314.7,452.1 L316.5,449.6 L318.4,447.2 L320.2,444.7
		L322.1,442.2 L323.9,439.7 L325.8,437.2 L327.7,434.6 L329.5,432.1 L331.4,429.6 L333.2,427.0 L335.1,424.5
		L336.9,421.9 L338.8,419.4 L340.6,416.8 L342.5,414.3 L344.3,411.7 L346.2,409.2 L348.0,406.6 L349.9,404.0
		L351.8,401.5 L353.6,398.9 L355.5,396.4 L357.3,393.9 L359.2,391.4 L361.0,388.8 L362.9,386.3 L364.7,383.8
		L366.6,381.3 L368.4,378.8 L370.3,376.3 L372.1,373.8 L374.0,371.3 L375.9,368.7 L377.7,366.1 L379.6,363.6
		L381.4,360.9 L383.3,358.3 L385.1,355.6 L387.0,352.9 L388.8,350.2 L390.7,347.5 L392.5,344.7 L394.4,341.8
		L396.2,339.0 L398.1,336.1 L400.0,333.2 L401.8,330.3 L403.7,327.4 L405.5,324.4 L407.4,321.5 L409.2,318.5
		L411.1,315.5 L412.9,312.5 L414.8,309.4 L416.6,306.4 L418.5,303.3 L420.3,300.3 L422.2,297.2 L424.1,294.1
		L425.9,291.0 L427.8,287.9 L429.6,284.8 L431.5,281.6 L433.3,278.5 L435.2,275.4 L437.0,272.2 L438.9,269.1
		L440.7,266.0 L442.6,262.9 L444.5,259.8 L446.3,256.8 L448.2,253.7 L450.0,250.7 L451.9,247.8 L453.7,244.9
		L455.6,242.0 L457.4,239.1 L459.3,236.4 L461.1,233.6 L463.0,230.9 L464.8,228.2 L466.7,225.6 L468.6,223.0
		L470.4,220.4 L472.3,217.9 L474.1,215.4 L476.0,212.9 L477.8,210.5 L479.7,208.1 L481.5,205.7 L483.4,203.3
		L485.2,201.0 L487.1,198.7 L488.9,196.4 L490.8,194.2 L492.7,192.0 L494.5,189.8 L496.4,187.7 L498.2,185.6
		L500.1,183.6 L501.9,181.5 L503.8,179.6 L505.6,177.7 L507.5,175.8 L509.3,173.9 L511.2,172.1 L513.0,170.4
		L514.9,168.6 L516.8,166.9 L518.6,165.2 L520.5,163.6 L522.3,161.9 L524.2,160.3 L526.0,158.7 L527.9,157.1
		L529.7,155.5 L531.6,154.0 L533.4,152.4 L535.3,150.9 L537.1,149.3 L539.0,147.8 L540.9,146.3 L542.7,144.9
		L544.6,143.5 L546.4,142.1 L548.3,140.7 L550.1,139.4 L552.0,138.2 L553.8,137.0 L555.7,135.9 L557.5,134.8
		L559.4,133.8 L561.2,132.9 L563.1,132.0 L565.0,131.3 L566.8,130.6 L568.7,130.0 L570.5,129.4 L572.4,129.0
		L574.2,128.7 L576.1,128.4 L577.9,128.2 L579.8,128.1 L581.6,128.1 L583.5,128.1 L585.3,128.3 L587.2,128.5
		L589.1,128.8 L590.9,129.2 L592.8,129.7 L594.6,130.2 L596.5,130.8 L598.3,131.5 L600.2,132.3 L602.0,133.1
		L603.9,134.0 L605.7,135.0 L607.6,136.0 L609.4,137.1 L611.3,138.2 L613.2,139.4 L615.0,140.7 L616.9,141.9
		L618.7,143.2 L620.6,144.6 L622.4,145.9 L624.3,147.3 L626.1,148.7 L628.0,150.2 L629.8,151.6 L631.7,153.1
		L633.5,154.5 L635.4,156.0 L637.3,157.5 L639.1,159.0 L641.0,160.5 L642.8,162.0 L644.7,163.5 L646.5,165.1
		L648.4,166.6 L650.2,168.2 L652.1,169.8 L653.9,171.4 L655.8,173.0 L657.6,174.7 L659.5,176.4 L661.4,178.1
		L663.2,179.9 L665.1,181.7 L666.9,183.5 L668.8,185.4 L670.6,187.4 L672.5,189.4 L674.3,191.4 L676.2,193.4
		L678.0,195.5 L679.9,197.6 L681.8,199.8 L683.6,201.9 L685.5,204.1 L687.3,206.4 L689.2,208.6 L691.0,210.8
		L692.9,213.1 L694.7,215.4 L696.6,217.7 L698.4,220.0 L700.3,222.3 L702.1,224.7 L704.0,227.0 L705.9,229.4
		L707.7,231.8 L709.6,234.3 L711.4,236.8 L713.3,239.3 L715.1,241.8 L717.0,244.4 L718.8,247.1 L720.7,249.8
		L722.5,252.5 L724.4,255.3 L726.2,258.1 L728.1,260.9 L730.0,263.8 L731.8,266.8 L733.7,269.7 L735.5,272.7
		L737.4,275.7 L739.2,278.8 L741.1,281.8 L742.9,284.9 L744.8,287.9 L746.6,291.0 L748.5,294.1 L750.3,297.1
		L752.2,300.2 L754.1,303.2 L755.9,306.3 L757.8,309.3 L759.6,312.4 L761.5,315.4 L763.3,318.5 L765.2,321.5
		L767.0,324.5 L768.9,327.6 L770.7,330.6 L772.6,333.7 L774.4,336.8 L776.3,339.9 L778.2,343.0 L780.0,346.1
		L781.9,349.3 L783.7,352.4 L785.6,355.6 L787.4,358.8 L789.3,362.0 L791.1,365.2 L793.0,368.5 L794.8,371.7
		L796.7,375.0 L798.5,378.3 L800.4,381.6 L802.3,384.8 L804.1,388.1 L806.0,391.4 L807.8,394.7 L809.7,398.0
		L811.5,401.2 L813.4,404.5 L815.2,407.8 L817.1,411.0 L818.9,414.2 L820.8,417.4 L822.6,420.6 L824.5,423.8
		L826.4,427.0 L828.2,430.1 L830.1,433.3 L831.9,436.4 L833.8,439.5 L835.6,442.5 L837.5,445.5 L839.3,448.5
		L841.2,451.5 L843.0,454.4 L844.9,457.3 L846.7,460.2 L848.6,463.0 L850.5,465.8 L852.3,468.6 L854.2,471.3
		L856.0,474.0 L857.9,476.7 L859.7,479.4 L861.6,482.1 L863.4,484.7 L865.3,487.3 L867.1,490.0 L869.0,492.6
		L870.8,495.3 L872.7,497.9 L874.6,500.6 L876.4,503.3 L878.3,506.0 L880.1,508.7 L882.0,511.4 L883.8,514.1
		L885.7,516.9 L887.5,519.6 L889.4,522.3 L891.2,525.1 L893.1,527.8 L894.9,530.5 L896.8,533.1 L898.7,535.8
		L900.5,538.4 L902.4,540.9 L904.2,543.4 L906.1,545.9 L907.9,548.3 L909.8,550.7 L911.6,553.0 L913.5,555.3
		L915.3,557.5 L917.2,559.7 L919.1,561.8 L920.9,563.8 L922.8,565.8 L924.6,567.7 L926.5,569.6 L928.3,571.5
		L930.2,573.3 L932.0,575.0 L933.9,576.7 L935.7,578.4 L937.6,580.0 L939.4,581.6 L941.3,583.2 L943.2,584.7
		L945.0,586.2 L946.9,587.6 L948.7,589.0 L950.6,590.5 L952.4,591.8 L954.3,593.2 L956.1,594.5 L958.0,595.9
		L959.8,597.2 L961.7,598.5 L963.5,599.8 L965.4,601.2 L967.3,602.5 L969.1,603.8 L971.0,605.1 L972.8,606.4
		L974.7,607.7 L976.5,609.0 L978.4,610.3 L980.2,611.6 L982.1,612.9 L983.9,614.2 L985.8,615.5 L987.6,616.7
		L989.5,618.0 L991.4,619.2 L993.2,620.4 L995.1,621.6 L996.9,622.8 L998.8,623.9 L1000.6,625.1 L1002.5,626.2
		L1004.3,627.2 L1006.2,628.3 L1008.0,629.3 L1009.9,630.2 L1011.7,631.2 L1013.6,632.1  '/></g>
	</g>
	<g id="gnuplot_plot_2" ><title>Confidence interval</title>
<g fill="none" color="white" stroke="rgb( 31, 120, 180)" stroke-width="1.00" stroke-linecap="butt" stroke-linejoin="miter">
</g>
<g fill="none" color="black" stroke="currentColor" stroke-width="1.00" stroke-linecap="butt" stroke-linejoin="miter">
	<g transform="translate(1089.0,85.0)" stroke="none" fill="black" font-family="Helvetica" font-size="12.00"  text-anchor="start">
		<text><tspan font-family="Helvetica" >Confidence interval</tspan></text>
	</g>
</g>
<g fill="none" color="black" stroke="currentColor" stroke-width="1.00" stroke-linecap="butt" stroke-linejoin="miter">
	<g stroke='none' shape-rendering='crispEdges'>
		<polygon fill = 'rgb( 31, 120, 180)' fill-opacity = '0.250000' points = '1038.5,85.6 1080.7,85.6 1080.7,76.6 1038.5,76.6 '/>
		<polygon fill = 'rgb( 31, 120, 180)' fill-opacity = '0.250000' points = '173.8,593.4 175.6,592.1 177.5,590.9 179.3,589.5 181.2,588.2 183.0,586.9 184.9,585.5 186.8,584.1 188.6,582.7 190.5,581.3 192.3,579.8 194.2,578.4 196.0,576.9 197.9,575.4 199.7,573.9 201.6,572.4
203.4,570.9 205.3,569.4 207.2,567.8 209.0,566.3 210.9,564.7 212.7,563.2 214.6,561.6 216.4,560.0 218.3,558.4 220.1,556.8 222.0,555.1 223.8,553.4 225.7,551.8 227.5,550.1 229.4,548.3 231.3,546.6
233.1,544.8 235.0,543.0 236.8,541.1 238.7,539.3 240.5,537.4 242.4,535.5 244.2,533.5 246.1,531.5 247.9,529.5 249.8,527.5 251.6,525.5 253.5,523.4 255.4,521.4 257.2,519.3 259.1,517.2 260.9,515.2
262.8,513.1 264.6,511.0 266.5,508.9 268.3,506.8 270.2,504.8 272.0,502.7 273.9,500.6 275.7,498.5 277.6,496.5 279.5,494.4 281.3,492.3 283.2,490.3 285.0,488.2 286.9,486.1 288.7,484.0 290.6,481.9
292.4,479.7 294.3,477.6 296.1,475.4 298.0,473.2 299.8,470.9 301.7,468.7 303.6,466.4 305.4,464.0 307.3,461.7 309.1,459.3 311.0,456.9 312.8,454.5 314.7,452.1 316.5,449.6 318.4,447.2 320.2,444.7
322.1,442.2 323.9,439.7 325.8,437.2 327.7,434.6 329.5,432.1 331.4,429.6 333.2,427.0 335.1,424.5 336.9,421.9 338.8,419.4 340.6,416.8 342.5,414.3 344.3,411.7 346.2,409.2 348.0,406.6 349.9,404.0
351.8,401.5 353.6,398.9 355.5,396.4 357.3,393.9 359.2,391.4 361.0,388.8 362.9,386.3 364.7,383.8 366.6,381.3 368.4,378.8 370.3,376.3 372.1,373.8 374.0,371.3 375.9,368.7 377.7,366.1 379.6,363.6
381.4,360.9 383.3,358.3 385.1,355.6 387.0,352.9 388.8,350.2 390.7,347.5 392.5,344.7 394.4,341.8 396.2,339.0 398.1,336.1 400.0,333.2 401.8,330.3 403.7,327.4 405.5,324.4 407.4,321.5 409.2,318.5
411.1,315.5 412.9,312.5 414.8,309.4 416.6,306.4 418.5,303.3 420.3,300.3 422.2,297.2 424.1,294.1 425.9,291.0 427.8,287.9 429.6,284.8 431.5,281.6 433.3,278.5 435.2,275.4 437.0,272.2 438.9,269.1
440.7,266.0 442.6,262.9 444.5,259.8 446.3,256.8 448.2,253.7 450.0,250.7 451.9,247.8 453.7,244.9 455.6,242.0 457.4,239.1 459.3,236.4 461.1,233.6 463.0,230.9 464.8,228.2 466.7,225.6 468.6,223.0
470.4,220.4 472.3,217.9 474.1,215.4 476.0,212.9 477.8,210.5 479.7,208.1 481.5,205.7 483.4,203.3 485.2,201.0 487.1,198.7 488.9,196.4 490.8,194.2 492.7,192.0 494.5,189.8 496.4,187.7 498.2,185.6
500.1,183.6 501.9,181.5 503.8,179.6 505.6,177.7 507.5,175.8 509.3,173.9 511.2,172.1 513.0,170.4 514.9,168.6 516.8,166.9 518.6,165.2 520.5,163.6 522.3,161.9 524.2,160.3 526.0,158.7 527.9,157.1
529.7,155.5 531.6,154.0 533.4,152.4 535.3,150.9 537.1,149.3 539.0,147.8 540.9,146.3 542.7,144.9 544.6,143.5 546.4,142.1 548.3,140.7 550.1,139.4 552.0,138.2 553.8,137.0 555.7,135.9 557.5,134.8
559.4,133.8 561.2,132.9 563.1,132.0 565.0,131.3 566.8,130.6 568.7,130.0 570.5,129.4 572.4,129.0 574.2,128.7 576.1,128.4 577.9,128.2 579.8,128.1 581.6,128.1 583.5,128.1 585.3,128.3 587.2,128.5
589.1,128.8 590.9,129.2 592.8,129.7 594.6,130.2 596.5,130.8 598.3,131.5 600.2,132.3 602.0,133.1 603.9,134.0 605.7,135.0 607.6,136.0 609.4,137.1 611.3,138.2 613.2,139.4 615.0,140.7 616.9,141.9
618.7,143.2 620.6,144.6 622.4,145.9 624.3,147.3 626.1,148.7 628.0,150.2 629.8,151.6 631.7,153.1 633.5,154.5 635.4,156.0 637.3,157.5 639.1,159.0 641.0,160.5 642.8,162.0 644.7,163.5 646.5,165.1
648.4,166.6 650.2,168.2 652.1,169.8 653.9,171.4 655.8,173.0 657.6,174.7 659.5,176.4 661.4,178.1 663.2,179.9 665.1,181.7 666.9,183.5 668.8,185.4 670.6,187.4 672.5,189.4 674.3,191.4 676.2,193.4
678.0,195.5 679.9,197.6 681.8,199.8 683.6,201.9 685.5,204.1 687.3,206.4 689.2,208.6 691.0,210.8 692.9,213.1 694.7,215.4 696.6,217.7 698.4,220.0 700.3,222.3 702.1,224.7 704.0,227.0 705.9,229.4
707.7,231.8 709.6,234.3 711.4,236.8 713.3,239.3 715.1,241.8 717.0,244.4 718.8,247.1 720.7,249.8 722.5,252.5 724.4,255.3 726.2,258.1 728.1,260.9 730.0,263.8 731.8,266.8 733.7,269.7 735.5,272.7
737.4,275.7 739.2,278.8 741.1,281.8 742.9,284.9 744.8,287.9 746.6,291.0 748.5,294.1 750.3,297.1 752.2,300.2 754.1,303.2 755.9,306.3 757.8,309.3 759.6,312.4 761.5,315.4 763.3,318.5 765.2,321.5
767.0,324.5 768.9,327.6 770.7,330.6 772.6,333.7 774.4,336.8 776.3,339.9 778.2,343.0 780.0,346.1 781.9,349.3 783.7,352.4 785.6,355.6 787.4,358.8 789.3,362.0 791.1,365.2 793.0,368.5 794.8,371.7
796.7,375.0 798.5,378.3 800.4,381.6 802.3,384.8 804.1,388.1 806.0,391.4 807.8,394.7 809.7,398.0 811.5,401.2 813.4,404.5 815.2,407.8 817.1,411.0 818.9,414.2 820.8,417.4 822.6,420.6 824.5,423.8
826.4,427.0 828.2,430.1 830.1,433.3 831.9,436.4 833.8,439.5 835.6,442.5 837.5,445.5 839.3,448.5 841.2,451.5 843.0,454.4 844.9,457.3 846.7,460.2 848.6,463.0 850.5,465.8 852.3,468.6 854.2,471.3
856.0,474.0 857.9,476.7 859.7,479.4 861.6,482.1 863.4,484.7 865.3,487.3 867.1,490.0 869.0,492.6 870.8,495.3 872.7,497.9 874.6,500.6 876.4,503.3 878.3,506.0 880.1,508.7 882.0,511.4 883.8,514.1
885.7,516.9 887.5,519.6 889.4,522.3 891.2,525.1 893.1,527.8 894.9,530.5 896.8,533.1 898.7,535.8 900.5,538.4 902.4,540.9 904.2,543.4 906.1,545.9 907.9,548.3 909.8,550.7 911.6,553.0 913.5,555.3
915.3,557.5 917.2,559.7 919.1,561.8 920.9,563.8 922.8,565.8 924.6,567.7 926.5,569.6 926.5,662.4 924.6,662.4 922.8,662.4 920.9,662.4 919.1,662.4 917.2,662.4 915.3,662.4 913.5,662.4 911.6,662.4
909.8,662.4 907.9,662.4 906.1,662.4 904.2,662.4 902.4,662.4 900.5,662.4 898.7,662.4 896.8,662.4 894.9,662.4 893.1,662.4 891.2,662.4 889.4,662.4 887.5,662.4 885.7,662.4 883.8,662.4 882.0,662.4
880.1,662.4 878.3,662.4 876.4,662.4 874.6,662.4 872.7,662.4 870.8,662.4 869.0,662.4 867.1,662.4 865.3,662.4 863.4,662.4 861.6,662.4 859.7,662.4 857.9,662.4 856.0,662.4 854.2,662.4 852.3,662.4
850.5,662.4 848.6,662.4 846.7,662.4 844.9,662.4 843.0,662.4 841.2,662.4 839.3,662.4 837.5,662.4 835.6,662.4 833.8,662.4 831.9,662.4 830.1,662.4 828.2,662.4 826.4,662.4 824.5,662.4 822.6,662.4
820.8,662.4 818.9,662.4 817.1,662.4 815.2,662.4 813.4,662.4 811.5,662.4 809.7,662.4 807.8,662.4 806.0,662.4 804.1,662.4 802.3,662.4 800.4,662.4 798.5,662.4 796.7,662.4 794.8,662.4 793.0,662.4
791.1,662.4 789.3,662.4 787.4,662.4 785.6,662.4 783.7,662.4 781.9,662.4 780.0,662.4 778.2,662.4 776.3,662.4 774.4,662.4 772.6,662.4 770.7,662.4 768.9,662.4 767.0,662.4 765.2,662.4 763.3,662.4
761.5,662.4 759.6,662.4 757.8,662.4 755.9,662.4 754.1,662.4 752.2,662.4 750.3,662.4 748.5,662.4 746.6,662.4 744.8,662.4 742.9,662.4 741.1,662.4 739.2,662.4 737.4,662.4 735.5,662.4 733.7,662.4
731.8,662.4 730.0,662.4 728.1,662.4 726.2,662.4 724.4,662.4 722.5,662.4 720.7,662.4 718.8,662.4 717.0,662.4 715.1,662.4 713.3,662.4 711.4,662.4 709.6,662.4 707.7,662.4 705.9,662.4 704.0,662.4
702.1,662.4 700.3,662.4 698.4,662.4 696.6,662.4 694.7,662.4 692.9,662.4 691.0,662.4 689.2,662.4 687.3,662.4 685.5,662.4 683.6,662.4 681.8,662.4 679.9,662.4 678.0,662.4 676.2,662.4 674.3,662.4
672.5,662.4 670.6,662.4 668.8,662.4 666.9,662.4 665.1,662.4 663.2,662.4 661.4,662.4 659.5,662.4 657.6,662.4 655.8,662.4 653.9,662.4 652.1,662.4 650.2,662.4 648.4,662.4 646.5,662.4 644.7,662.4
642.8,662.4 641.0,662.4 639.1,662.4 637.3,662.4 635.4,662.4 633.5,662.4 631.7,662.4 629.8,662.4 628.0,662.4 626.1,662.4 624.3,662.4 622.4,662.4 620.6,662.4 618.7,662.4 616.9,662.4 615.0,662.4
613.2,662.4 611.3,662.4 609.4,662.4 607.6,662.4 605.7,662.4 603.9,662.4 602.0,662.4 600.2,662.4 598.3,662.4 596.5,662.4 594.6,662.4 592.8,662.4 590.9,662.4 589.1,662.4 587.2,662.4 585.3,662.4
583.5,662.4 581.6,662.4 579.8,662.4 577.9,662.4 576.1,662.4 574.2,662.4 572.4,662.4 570.5,662.4 568.7,662.4 566.8,662.4 565.0,662.4 563.1,662.4 561.2,662.4 559.4,662.4 557.5,662.4 555.7,662.4
553.8,662.4 552.0,662.4 550.1,662.4 548.3,662.4 546.4,662.4 544.6,662.4 542.7,662.4 540.9,662.4 539.0,662.4 537.1,662.4 535.3,662.4 533.4,662.4 531.6,662.4 529.7,662.4 527.9,662.4 526.0,662.4
524.2,662.4 522.3,662.4 520.5,662.4 518.6,662.4 516.8,662.4 514.9,662.4 513.0,662.4 511.2,662.4 509.3,662.4 507.5,662.4 505.6,662.4 503.8,662.4 501.9,662.4 500.1,662.4 498.2,662.4 496.4,662.4
494.5,662.4 492.7,662.4 490.8,662.4 488.9,662.4 487.1,662.4 485.2,662.4 483.4,662.4 481.5,662.4 479.7,662.4 477.8,662.4 476.0,662.4 474.1,662.4 472.3,662.4 470.4,662.4 468.6,662.4 466.7,662.4
464.8,662.4 463.0,662.4 461.1,662.4 459.3,662.4 457.4,662.4 455.6,662.4 453.7,662.4 451.9,662.4 450.0,662.4 448.2,662.4 446.3,662.4 444.5,662.4 442.6,662.4 440.7,662.4 438.9,662.4 437.0,662.4
435.2,662.4 433.3,662.4 431.5,662.4 429.6,662.4 427.8,662.4 425.9,662.4 424.1,662.4 422.2,662.4 420.3,662.4 418.5,662.4 416.6,662.4 414.8,662.4 412.9,662.4 411.1,662.4 409.2,662.4 407.4,662.4
405.5,662.4 403.7,662.4 401.8,662.4 400.0,662.4 398.1,662.4 396.2,662.4 394.4,662.4 392.5,662.4 390.7,662.4 388.8,662.4 387.0,662.4 385.1,662.4 383.3,662.4 381.4,662.4 379.6,662.4 377.7,662.4
375.9,662.4 374.0,662.4 372.1,662.4 370.3,662.4 368.4,662.4 366.6,662.4 364.7,662.4 362.9,662.4 361.0,662.4 359.2,662.4 357.3,662.4 355.5,662.4 353.6,662.4 351.8,662.4 349.9,662.4 348.0,662.4
346.2,662.4 344.3,662.4 342.5,662.4 340.6,662.4 338.8,662.4 336.9,662.4 335.1,662.4 333.2,662.4 331.4,662.4 329.5,662.4 327.7,662.4 325.8,662.4 323.9,662.4 322.1,662.4 320.2,662.4 318.4,662.4
316.5,662.4 314.7,662.4 312.8,662.4 311.0,662.4 309.1,662.4 307.3,662.4 305.4,662.4 303.6,662.4 301.7,662.4 299.8,662.4 298.0,662.4 296.1,662.4 294.3,662.4 292.4,662.4 290.6,662.4 288.7,662.4
286.9,662.4 285.0,662.4 283.2,662.4 281.3,662.4 279.5,662.4 277.6,662.4 275.7,662.4 273.9,662.4 272.0,662.4 270.2,662.4 268.3,662.4 266.5,662.4 264.6,662.4 262.8,662.4 260.9,662.4 259.1,662.4
257.2,662.4 255.4,662.4 253.5,662.4 251.6,662.4 249.8,662.4 247.9,662.4 246.1,662.4 244.2,662.4 242.4,662.4 240.5,662.4 238.7,662.4 236.8,662.4 235.0,662.4 233.1,662.4 231.3,662.4 229.4,662.4
227.5,662.4 225.7,662.4 223.8,662.4 222.0,662.4 220.1,662.4 218.3,662.4 216.4,662.4 214.6,662.4 212.7,662.4 210.9,662.4 209.0,662.4 207.2,662.4 205.3,662.4 203.4,662.4 201.6,662.4 199.7,662.4
197.9,662.4 196.0,662.4 194.2,662.4 192.3,662.4 190.5,662.4 188.6,662.4 186.8,662.4 184.9,662.4 183.0,662.4 181.2,662.4 179.3,662.4 177.5,662.4 175.6,662.4 173.8,662.4 '/>
	</g>
</g>
	</g>
	<g id="gnuplot_plot_3" ><title>Point estimate</title>
<g fill="none" color="white" stroke="rgb( 31, 120, 180)" stroke-width="2.00" stroke-linecap="butt" stroke-linejoin="miter">
</g>
<g fill="none" color="black" stroke="currentColor" stroke-width="2.00" stroke-linecap="butt" stroke-linejoin="miter">
	<g transform="translate(1089.0,103.0)" stroke="none" fill="black" font-family="Helvetica" font-size="12.00"  text-anchor="start">
		<text><tspan font-family="Helvetica" >Point estimate</tspan></text>
	</g>
</g>
<g fill="none" color="black" stroke="currentColor" stroke-width="2.00" stroke-linecap="butt" stroke-linejoin="miter">
	<path stroke='rgb( 31, 120, 180)'  d='M1038.5,99.1 L1080.7,99.1 M592.3,662.4 L592.3,129.5  '/></g>
	</g>
<g fill="none" color="black" stroke="currentColor" stroke-width="2.00" stroke-linecap="butt" stroke-linejoin="miter">
</g>
<g fill="none" color="black" stroke="black" stroke-width="1.00" stroke-linecap="butt" stroke-linejoin="miter">
</g>
<g fill="none" color="black" stroke="currentColor" stroke-width="1.00" stroke-linecap="butt" stroke-linejoin="miter">
	<path stroke='black'  d='M88.5,54.1 L88.5,662.4 L1013.6,662.4 L1013.6,54.1 L88.5,54.1 Z  '/></g>
<g fill="none" color="black" stroke="currentColor" stroke-width="1.00" stroke-linecap="butt" stroke-linejoin="miter">
</g>
</g>
</svg>

