<?xml version="1.0" encoding="utf-8"  standalone="no"?>
<svg 
 viewBox="0 0 1280 720"
 xmlns="http://www.w3.org/2000/svg"
 xmlns:xlink="http://www.w3.org/1999/xlink"
>

<title>Gnuplot</title>
<desc>Produced by GNUPLOT 5.2 patchlevel 6 </desc>

<g id="gnuplot_canvas">

<rect x="0" y="0" width="1280" height="720" fill="none"/>
<defs>

	<circle id='gpDot' r='0.5' stroke-width='0.5' stroke='currentColor'/>
	<path id='gpPt0' stroke-width='0.222' stroke='currentColor' d='M-1,0 h2 M0,-1 v2'/>
	<path id='gpPt1' stroke-width='0.222' stroke='currentColor' d='M-1,-1 L1,1 M1,-1 L-1,1'/>
	<path id='gpPt2' stroke-width='0.222' stroke='currentColor' d='M-1,0 L1,0 M0,-1 L0,1 M-1,-1 L1,1 M-1,1 L1,-1'/>
	<rect id='gpPt3' stroke-width='0.222' stroke='currentColor' x='-1' y='-1' width='2' height='2'/>
	<rect id='gpPt4' stroke-width='0.222' stroke='currentColor' fill='currentColor' x='-1' y='-1' width='2' height='2'/>
	<circle id='gpPt5' stroke-width='0.222' stroke='currentColor' cx='0' cy='0' r='1'/>
	<use xlink:href='#gpPt5' id='gpPt6' fill='currentColor' stroke='none'/>
	<path id='gpPt7' stroke-width='0.222' stroke='currentColor' d='M0,-1.33 L-1.33,0.67 L1.33,0.67 z'/>
	<use xlink:href='#gpPt7' id='gpPt8' fill='currentColor' stroke='none'/>
	<use xlink:href='#gpPt7' id='gpPt9' stroke='currentColor' transform='rotate(180)'/>
	<use xlink:href='#gpPt9' id='gpPt10' fill='currentColor' stroke='none'/>
	<use xlink:href='#gpPt3' id='gpPt11' stroke='currentColor' transform='rotate(45)'/>
	<use xlink:href='#gpPt11' id='gpPt12' fill='currentColor' stroke='none'/>
	<path id='gpPt13' stroke-width='0.222' stroke='currentColor' d='M0,1.330 L1.265,0.411 L0.782,-1.067 L-0.782,-1.076 L-1.265,0.411 z'/>
	<use xlink:href='#gpPt13' id='gpPt14' fill='currentColor' stroke='none'/>
	<filter id='textbox' filterUnits='objectBoundingBox' x='0' y='0' height='1' width='1'>
	  <feFlood flood-color='white' flood-opacity='1' result='bgnd'/>
	  <feComposite in='SourceGraphic' in2='bgnd' operator='atop'/>
	</filter>
	<filter id='greybox' filterUnits='objectBoundingBox' x='0' y='0' height='1' width='1'>
	  <feFlood flood-color='lightgrey' flood-opacity='1' result='grey'/>
	  <feComposite in='SourceGraphic' in2='grey' operator='atop'/>
	</filter>
</defs>
<g fill="none" color="white" stroke="currentColor" stroke-width="1.00" stroke-linecap="butt" stroke-linejoin="miter">
</g>
<g fill="none" color="black" stroke="currentColor" stroke-width="1.00" stroke-linecap="butt" stroke-linejoin="miter">
	<path stroke='black'  d='M63.6,662.4 L72.6,662.4  '/>	<g transform="translate(55.3,666.3)" stroke="none" fill="black" font-family="Helvetica" font-size="12.00"  text-anchor="end">
		<text><tspan font-family="Helvetica" > 0</tspan></text>
	</g>
</g>
<g fill="none" color="black" stroke="currentColor" stroke-width="1.00" stroke-linecap="butt" stroke-linejoin="miter">
	<path stroke='black'  d='M63.6,601.6 L72.6,601.6  '/>	<g transform="translate(55.3,605.5)" stroke="none" fill="black" font-family="Helvetica" font-size="12.00"  text-anchor="end">
		<text><tspan font-family="Helvetica" > 1</tspan></text>
	</g>
</g>
<g fill="none" color="black" stroke="currentColor" stroke-width="1.00" stroke-linecap="butt" stroke-linejoin="miter">
	<path stroke='black'  d='M63.6,540.7 L72.6,540.7  '/>	<g transform="translate(55.3,544.6)" stroke="none" fill="black" font-family="Helvetica" font-size="12.00"  text-anchor="end">
		<text><tspan font-family="Helvetica" > 2</tspan></text>
	</g>
</g>
<g fill="none" color="black" stroke="currentColor" stroke-width="1.00" stroke-linecap="butt" stroke-linejoin="miter">
	<path stroke='black'  d='M63.6,479.9 L72.6,479.9  '/>	<g transform="translate(55.3,483.8)" stroke="none" fill="black" font-family="Helvetica" font-size="12.00"  text-anchor="end">
		<text><tspan font-family="Helvetica" > 3</tspan></text>
	</g>
</g>
<g fill="none" color="black" stroke="currentColor" stroke-width="1.00" stroke-linecap="butt" stroke-linejoin="miter">
	<path stroke='black'  d='M63.6,419.1 L72.6,419.1  '/>	<g transform="translate(55.3,423.0)" stroke="none" fill="black" font-family="Helvetica" font-size="12.00"  text-anchor="end">
		<text><tspan font-family="Helvetica" > 4</tspan></text>
	</g>
</g>
<g fill="none" color="black" stroke="currentColor" stroke-width="1.00" stroke-linecap="butt" stroke-linejoin="miter">
	<path stroke='black'  d='M63.6,358.2 L72.6,358.2  '/>	<g transform="translate(55.3,362.1)" stroke="none" fill="black" font-family="Helvetica" font-size="12.00"  text-anchor="end">
		<text><tspan font-family="Helvetica" > 5</tspan></text>
	</g>
</g>
<g fill="none" color="black" stroke="currentColor" stroke-width="1.00" stroke-linecap="butt" stroke-linejoin="miter">
	<path stroke='black'  d='M63.6,297.4 L72.6,297.4  '/>	<g transform="translate(55.3,301.3)" stroke="none" fill="black" font-family="Helvetica" font-size="12.00"  text-anchor="end">
		<text><tspan font-family="Helvetica" > 6</tspan></text>
	</g>
</g>
<g fill="none" color="black" stroke="currentColor" stroke-width="1.00" stroke-linecap="butt" stroke-linejoin="miter">
	<path stroke='black'  d='M63.6,236.6 L72.6,236.6  '/>	<g transform="translate(55.3,240.5)" stroke="none" fill="black" font-family="Helvetica" font-size="12.00"  text-anchor="end">
		<text><tspan font-family="Helvetica" > 7</tspan></text>
	</g>
</g>
<g fill="none" color="black" stroke="currentColor" stroke-width="1.00" stroke-linecap="butt" stroke-linejoin="miter">
	<path stroke='black'  d='M63.6,175.8 L72.6,175.8  '/>	<g transform="translate(55.3,179.7)" stroke="none" fill="black" font-family="Helvetica" font-size="12.00"  text-anchor="end">
		<text><tspan font-family="Helvetica" > 8</tspan></text>
	</g>
</g>
<g fill="none" color="black" stroke="currentColor" stroke-width="1.00" stroke-linecap="butt" stroke-linejoin="miter">
	<path stroke='black'  d='M63.6,114.9 L72.6,114.9  '/>	<g transform="translate(55.3,118.8)" stroke="none" fill="black" font-family="Helvetica" font-size="12.00"  text-anchor="end">
		<text><tspan font-family="Helvetica" > 9</tspan></text>
	</g>
</g>
<g fill="none" color="black" stroke="currentColor" stroke-width="1.00" stroke-linecap="butt" stroke-linejoin="miter">
	<path stroke='black'  d='M63.6,54.1 L72.6,54.1  '/>	<g transform="translate(55.3,58.0)" stroke="none" fill="black" font-family="Helvetica" font-size="12.00"  text-anchor="end">
		<text><tspan font-family="Helvetica" > 10</tspan></text>
	</g>
</g>
<g fill="none" color="black" stroke="currentColor" stroke-width="1.00" stroke-linecap="butt" stroke-linejoin="miter">
	<path stroke='black'  d='M78.9,662.4 L78.9,653.4  '/>	<g transform="translate(78.9,684.3)" stroke="none" fill="black" font-family="Helvetica" font-size="12.00"  text-anchor="middle">
		<text><tspan font-family="Helvetica" > 429.55</tspan></text>
	</g>
</g>
<g fill="none" color="black" stroke="currentColor" stroke-width="1.00" stroke-linecap="butt" stroke-linejoin="miter">
	<path stroke='black'  d='M212.7,662.4 L212.7,653.4  '/>	<g transform="translate(212.7,684.3)" stroke="none" fill="black" font-family="Helvetica" font-size="12.00"  text-anchor="middle">
		<text><tspan font-family="Helvetica" > 429.6</tspan></text>
	</g>
</g>
<g fill="none" color="black" stroke="currentColor" stroke-width="1.00" stroke-linecap="butt" stroke-linejoin="miter">
	<path stroke='black'  d='M346.5,662.4 L346.5,653.4  '/>	<g transform="translate(346.5,684.3)" stroke="none" fill="black" font-family="Helvetica" font-size="12.00"  text-anchor="middle">
		<text><tspan font-family="Helvetica" > 429.65</tspan></text>
	</g>
</g>
<g fill="none" color="black" stroke="currentColor" stroke-width="1.00" stroke-linecap="butt" stroke-linejoin="miter">
	<path stroke='black'  d='M480.3,662.4 L480.3,653.4  '/>	<g transform="translate(480.3,684.3)" stroke="none" fill="black" font-family="Helvetica" font-size="12.00"  text-anchor="middle">
		<text><tspan font-family="Helvetica" > 429.7</tspan></text>
	</g>
</g>
<g fill="none" color="black" stroke="currentColor" stroke-width="1.00" stroke-linecap="butt" stroke-linejoin="miter">
	<path stroke='black'  d='M614.1,662.4 L614.1,653.4  '/>	<g transform="translate(614.1,684.3)" stroke="none" fill="black" font-family="Helvetica" font-size="12.00"  text-anchor="middle">
		<text><tspan font-family="Helvetica" > 429.75</tspan></text>
	</g>
</g>
<g fill="none" color="black" stroke="currentColor" stroke-width="1.00" stroke-linecap="butt" stroke-linejoin="miter">
	<path stroke='black'  d='M747.9,662.4 L747.9,653.4  '/>	<g transform="translate(747.9,684.3)" stroke="none" fill="black" font-family="Helvetica" font-size="12.00"  text-anchor="middle">
		<text><tspan font-family="Helvetica" > 429.8</tspan></text>
	</g>
</g>
<g fill="none" color="black" stroke="currentColor" stroke-width="1.00" stroke-linecap="butt" stroke-linejoin="miter">
	<path stroke='black'  d='M881.7,662.4 L881.7,653.4  '/>	<g transform="translate(881.7,684.3)" stroke="none" fill="black" font-family="Helvetica" font-size="12.00"  text-anchor="middle">
		<text><tspan font-family="Helvetica" > 429.85</tspan></text>
	</g>
</g>
<g fill="none" color="black" stroke="currentColor" stroke-width="1.00" stroke-linecap="butt" stroke-linejoin="miter">
</g>
<g fill="none" color="black" stroke="currentColor" stroke-width="1.00" stroke-linecap="butt" stroke-linejoin="miter">
	<path stroke='black'  d='M63.6,54.1 L63.6,662.4 L1013.6,662.4 L1013.6,54.1 L63.6,54.1 Z  '/></g>
<g fill="none" color="black" stroke="currentColor" stroke-width="1.00" stroke-linecap="butt" stroke-linejoin="miter">
	<g transform="translate(16.3,358.3) rotate(270)" stroke="none" fill="black" font-family="Helvetica" font-size="12.00"  text-anchor="middle">
		<text><tspan font-family="Helvetica" >Density (a.u.)</tspan></text>
	</g>
</g>
<g fill="none" color="black" stroke="currentColor" stroke-width="1.00" stroke-linecap="butt" stroke-linejoin="miter">
	<g transform="translate(538.6,711.3)" stroke="none" fill="black" font-family="Helvetica" font-size="12.00"  text-anchor="middle">
		<text><tspan font-family="Helvetica" >Average time (us)</tspan></text>
	</g>
</g>
<g fill="none" color="black" stroke="currentColor" stroke-width="1.00" stroke-linecap="butt" stroke-linejoin="miter">
	<g transform="translate(538.6,31.0)" stroke="none" fill="black" font-family="Helvetica" font-size="12.00"  text-anchor="middle">
		<text><tspan font-family="Helvetica" >snapshot_restore_with_dense/Dense: Dirty pages + /proc/pid/mem/215: median</tspan></text>
	</g>
</g>
	<g id="gnuplot_plot_1" ><title>Bootstrap distribution</title>
<g fill="none" color="white" stroke="black" stroke-width="2.00" stroke-linecap="butt" stroke-linejoin="miter">
</g>
<g fill="none" color="black" stroke="currentColor" stroke-width="2.00" stroke-linecap="butt" stroke-linejoin="miter">
	<g transform="translate(1089.0,67.0)" stroke="none" fill="black" font-family="Helvetica" font-size="12.00"  text-anchor="start">
		<text><tspan font-family="Helvetica" >Bootstrap distribution</tspan></text>
	</g>
</g>
<g fill="none" color="black" stroke="currentColor" stroke-width="2.00" stroke-linecap="butt" stroke-linejoin="miter">
	<path stroke='rgb( 31, 120, 180)'  d='M1038.5,63.1 L1080.7,63.1 M63.6,649.8 L65.5,650.2 L67.4,650.5 L69.3,650.9 L71.2,651.3 L73.1,651.7
		L75.0,652.1 L76.9,652.5 L78.8,652.8 L80.7,653.0 L82.6,653.2 L84.5,653.4 L86.4,653.4 L88.3,653.4
		L90.3,653.2 L92.2,652.9 L94.1,652.5 L96.0,652.0 L97.9,651.4 L99.8,650.6 L101.7,649.7 L103.6,648.6
		L105.5,647.4 L107.4,646.1 L109.3,644.6 L111.2,643.1 L113.1,641.4 L115.0,639.6 L116.9,637.8 L118.8,635.9
		L120.7,634.0 L122.6,632.0 L124.5,630.1 L126.4,628.1 L128.3,626.2 L130.2,624.3 L132.1,622.4 L134.0,620.7
		L135.9,619.0 L137.8,617.4 L139.8,615.9 L141.7,614.6 L143.6,613.3 L145.5,612.2 L147.4,611.2 L149.3,610.2
		L151.2,609.4 L153.1,608.7 L155.0,608.1 L156.9,607.5 L158.8,607.0 L160.7,606.6 L162.6,606.2 L164.5,605.9
		L166.4,605.6 L168.3,605.3 L170.2,605.1 L172.1,604.8 L174.0,604.5 L175.9,604.3 L177.8,604.0 L179.7,603.7
		L181.6,603.4 L183.5,603.0 L185.4,602.6 L187.3,602.3 L189.3,601.8 L191.2,601.4 L193.1,600.9 L195.0,600.4
		L196.9,599.8 L198.8,599.2 L200.7,598.6 L202.6,597.9 L204.5,597.1 L206.4,596.3 L208.3,595.4 L210.2,594.4
		L212.1,593.4 L214.0,592.2 L215.9,590.9 L217.8,589.6 L219.7,588.0 L221.6,586.4 L223.5,584.6 L225.4,582.6
		L227.3,580.4 L229.2,578.0 L231.1,575.5 L233.0,572.7 L234.9,569.8 L236.8,566.7 L238.8,563.4 L240.7,560.0
		L242.6,556.5 L244.5,552.9 L246.4,549.3 L248.3,545.7 L250.2,542.2 L252.1,538.8 L254.0,535.6 L255.9,532.6
		L257.8,529.9 L259.7,527.5 L261.6,525.5 L263.5,523.8 L265.4,522.5 L267.3,521.7 L269.2,521.2 L271.1,521.1
		L273.0,521.4 L274.9,522.0 L276.8,522.9 L278.7,524.1 L280.6,525.5 L282.5,527.0 L284.4,528.7 L286.3,530.5
		L288.2,532.3 L290.2,534.1 L292.1,535.9 L294.0,537.7 L295.9,539.4 L297.8,541.0 L299.7,542.5 L301.6,543.8
		L303.5,545.1 L305.4,546.3 L307.3,547.3 L309.2,548.3 L311.1,549.1 L313.0,549.9 L314.9,550.7 L316.8,551.4
		L318.7,552.0 L320.6,552.7 L322.5,553.4 L324.4,554.0 L326.3,554.7 L328.2,555.5 L330.1,556.2 L332.0,557.0
		L333.9,557.9 L335.8,558.7 L337.7,559.6 L339.7,560.4 L341.6,561.3 L343.5,562.1 L345.4,562.9 L347.3,563.7
		L349.2,564.3 L351.1,565.0 L353.0,565.5 L354.9,566.0 L356.8,566.5 L358.7,566.8 L360.6,567.1 L362.5,567.4
		L364.4,567.5 L366.3,567.7 L368.2,567.7 L370.1,567.7 L372.0,567.6 L373.9,567.4 L375.8,567.1 L377.7,566.7
		L379.6,566.2 L381.5,565.5 L383.4,564.7 L385.3,563.8 L387.2,562.7 L389.2,561.5 L391.1,560.3 L393.0,558.9
		L394.9,557.5 L396.8,556.0 L398.7,554.6 L400.6,553.2 L402.5,552.0 L404.4,550.9 L406.3,549.9 L408.2,549.2
		L410.1,548.7 L412.0,548.5 L413.9,548.5 L415.8,548.7 L417.7,549.2 L419.6,549.9 L421.5,550.7 L423.4,551.6
		L425.3,552.6 L427.2,553.6 L429.1,554.6 L431.0,555.4 L432.9,556.2 L434.8,556.7 L436.7,557.0 L438.7,557.1
		L440.6,557.0 L442.5,556.6 L444.4,555.9 L446.3,555.1 L448.2,554.0 L450.1,552.9 L452.0,551.6 L453.9,550.2
		L455.8,548.9 L457.7,547.6 L459.6,546.4 L461.5,545.3 L463.4,544.4 L465.3,543.7 L467.2,543.1 L469.1,542.7
		L471.0,542.5 L472.9,542.4 L474.8,542.4 L476.7,542.5 L478.6,542.5 L480.5,542.4 L482.4,542.1 L484.3,541.6
		L486.2,540.8 L488.1,539.5 L490.1,537.8 L492.0,535.4 L493.9,532.5 L495.8,528.8 L497.7,524.3 L499.6,519.0
		L501.5,512.9 L503.4,505.8 L505.3,497.8 L507.2,488.9 L509.1,479.0 L511.0,468.2 L512.9,456.4 L514.8,443.7
		L516.7,430.1 L518.6,415.6 L520.5,400.3 L522.4,384.1 L524.3,367.2 L526.2,349.7 L528.1,331.6 L530.0,313.0
		L531.9,294.0 L533.8,274.8 L535.7,255.4 L537.6,236.2 L539.6,217.1 L541.5,198.4 L543.4,180.3 L545.3,163.0
		L547.2,146.5 L549.1,131.2 L551.0,117.1 L552.9,104.4 L554.8,93.2 L556.7,83.6 L558.6,75.7 L560.5,69.5
		L562.4,65.0 L564.3,62.1 L566.2,60.8 L568.1,61.0 L570.0,62.6 L571.9,65.4 L573.8,69.3 L575.7,74.0
		L577.6,79.4 L579.5,85.3 L581.4,91.5 L583.3,97.8 L585.2,104.0 L587.1,110.0 L589.1,115.7 L591.0,121.0
		L592.9,125.7 L594.8,129.8 L596.7,133.3 L598.6,136.2 L600.5,138.5 L602.4,140.2 L604.3,141.5 L606.2,142.5
		L608.1,143.1 L610.0,143.7 L611.9,144.2 L613.8,144.9 L615.7,146.0 L617.6,147.5 L619.5,149.7 L621.4,152.6
		L623.3,156.5 L625.2,161.4 L627.1,167.5 L629.0,174.7 L630.9,183.2 L632.8,193.0 L634.7,204.0 L636.6,216.2
		L638.5,229.5 L640.5,243.8 L642.4,258.9 L644.3,274.6 L646.2,290.8 L648.1,307.2 L650.0,323.7 L651.9,339.9
		L653.8,355.7 L655.7,370.8 L657.6,385.1 L659.5,398.3 L661.4,410.4 L663.3,421.3 L665.2,430.8 L667.1,438.9
		L669.0,445.6 L670.9,451.0 L672.8,455.1 L674.7,458.1 L676.6,460.1 L678.5,461.2 L680.4,461.7 L682.3,461.7
		L684.2,461.3 L686.1,460.8 L688.0,460.3 L690.0,459.8 L691.9,459.7 L693.8,459.7 L695.7,460.1 L697.6,460.8
		L699.5,461.8 L701.4,462.9 L703.3,464.1 L705.2,465.2 L707.1,466.1 L709.0,466.6 L710.9,466.5 L712.8,465.7
		L714.7,463.9 L716.6,461.2 L718.5,457.3 L720.4,452.2 L722.3,445.9 L724.2,438.5 L726.1,429.9 L728.0,420.4
		L729.9,410.1 L731.8,399.3 L733.7,388.0 L735.6,376.7 L737.5,365.7 L739.5,355.1 L741.4,345.4 L743.3,336.7
		L745.2,329.4 L747.1,323.6 L749.0,319.5 L750.9,317.2 L752.8,316.8 L754.7,318.3 L756.6,321.6 L758.5,326.7
		L760.4,333.4 L762.3,341.5 L764.2,350.8 L766.1,361.1 L768.0,372.2 L769.9,383.7 L771.8,395.4 L773.7,407.2
		L775.6,418.8 L777.5,430.0 L779.4,440.8 L781.3,450.8 L783.2,460.2 L785.1,468.9 L787.0,476.7 L789.0,483.8
		L790.9,490.1 L792.8,495.7 L794.7,500.6 L796.6,504.9 L798.5,508.5 L800.4,511.7 L802.3,514.3 L804.2,516.4
		L806.1,518.0 L808.0,519.2 L809.9,520.0 L811.8,520.3 L813.7,520.2 L815.6,519.6 L817.5,518.6 L819.4,517.2
		L821.3,515.5 L823.2,513.4 L825.1,511.0 L827.0,508.5 L828.9,505.8 L830.8,503.2 L832.7,500.5 L834.6,498.1
		L836.5,495.9 L838.4,494.0 L840.4,492.6 L842.3,491.8 L844.2,491.5 L846.1,491.9 L848.0,492.9 L849.9,494.6
		L851.8,497.0 L853.7,500.0 L855.6,503.6 L857.5,507.8 L859.4,512.4 L861.3,517.5 L863.2,522.8 L865.1,528.3
		L867.0,534.0 L868.9,539.7 L870.8,545.3 L872.7,550.8 L874.6,556.2 L876.5,561.3 L878.4,566.2 L880.3,570.8
		L882.2,575.0 L884.1,578.9 L886.0,582.5 L887.9,585.8 L889.9,588.8 L891.8,591.5 L893.7,593.9 L895.6,596.0
		L897.5,597.9 L899.4,599.6 L901.3,601.1 L903.2,602.4 L905.1,603.6 L907.0,604.6 L908.9,605.4 L910.8,606.1
		L912.7,606.7 L914.6,607.2 L916.5,607.6 L918.4,608.0 L920.3,608.3 L922.2,608.5 L924.1,608.8 L926.0,609.0
		L927.9,609.3 L929.8,609.6 L931.7,610.0 L933.6,610.4 L935.5,611.0 L937.4,611.6 L939.4,612.3 L941.3,613.1
		L943.2,614.0 L945.1,615.0 L947.0,616.1 L948.9,617.3 L950.8,618.5 L952.7,619.8 L954.6,621.2 L956.5,622.6
		L958.4,624.0 L960.3,625.5 L962.2,626.9 L964.1,628.3 L966.0,629.7 L967.9,631.1 L969.8,632.5 L971.7,633.8
		L973.6,635.1 L975.5,636.3 L977.4,637.5 L979.3,638.6 L981.2,639.7 L983.1,640.8 L985.0,641.8 L986.9,642.8
		L988.9,643.7 L990.8,644.6 L992.7,645.5 L994.6,646.3 L996.5,647.1 L998.4,647.9 L1000.3,648.7 L1002.2,649.4
		L1004.1,650.1 L1006.0,650.7 L1007.9,651.4 L1009.8,652.0 L1011.7,652.6 L1013.6,653.2  '/></g>
	</g>
	<g id="gnuplot_plot_2" ><title>Confidence interval</title>
<g fill="none" color="white" stroke="rgb( 31, 120, 180)" stroke-width="1.00" stroke-linecap="butt" stroke-linejoin="miter">
</g>
<g fill="none" color="black" stroke="currentColor" stroke-width="1.00" stroke-linecap="butt" stroke-linejoin="miter">
	<g transform="translate(1089.0,85.0)" stroke="none" fill="black" font-family="Helvetica" font-size="12.00"  text-anchor="start">
		<text><tspan font-family="Helvetica" >Confidence interval</tspan></text>
	</g>
</g>
<g fill="none" color="black" stroke="currentColor" stroke-width="1.00" stroke-linecap="butt" stroke-linejoin="miter">
	<g stroke='none' shape-rendering='crispEdges'>
		<polygon fill = 'rgb( 31, 120, 180)' fill-opacity = '0.250000' points = '1038.5,85.6 1080.7,85.6 1080.7,76.6 1038.5,76.6 '/>
		<polygon fill = 'rgb( 31, 120, 180)' fill-opacity = '0.250000' points = '151.2,609.4 153.1,608.7 155.0,608.1 156.9,607.5 158.8,607.0 160.7,606.6 162.6,606.2 164.5,605.9 166.4,605.6 168.3,605.3 170.2,605.1 172.1,604.8 174.0,604.5 175.9,604.3 177.8,604.0 179.7,603.7
181.6,603.4 183.5,603.0 185.4,602.6 187.3,602.3 189.3,601.8 191.2,601.4 193.1,600.9 195.0,600.4 196.9,599.8 198.8,599.2 200.7,598.6 202.6,597.9 204.5,597.1 206.4,596.3 208.3,595.4 210.2,594.4
212.1,593.4 214.0,592.2 215.9,590.9 217.8,589.6 219.7,588.0 221.6,586.4 223.5,584.6 225.4,582.6 227.3,580.4 229.2,578.0 231.1,575.5 233.0,572.7 234.9,569.8 236.8,566.7 238.8,563.4 240.7,560.0
242.6,556.5 244.5,552.9 246.4,549.3 248.3,545.7 250.2,542.2 252.1,538.8 254.0,535.6 255.9,532.6 257.8,529.9 259.7,527.5 261.6,525.5 263.5,523.8 265.4,522.5 267.3,521.7 269.2,521.2 271.1,521.1
273.0,521.4 274.9,522.0 276.8,522.9 278.7,524.1 280.6,525.5 282.5,527.0 284.4,528.7 286.3,530.5 288.2,532.3 290.2,534.1 292.1,535.9 294.0,537.7 295.9,539.4 297.8,541.0 299.7,542.5 301.6,543.8
303.5,545.1 305.4,546.3 307.3,547.3 309.2,548.3 311.1,549.1 313.0,549.9 314.9,550.7 316.8,551.4 318.7,552.0 320.6,552.7 322.5,553.4 324.4,554.0 326.3,554.7 328.2,555.5 330.1,556.2 332.0,557.0
333.9,557.9 335.8,558.7 337.7,559.6 339.7,560.4 341.6,561.3 343.5,562.1 345.4,562.9 347.3,563.7 349.2,564.3 351.1,565.0 353.0,565.5 354.9,566.0 356.8,566.5 358.7,566.8 360.6,567.1 362.5,567.4
364.4,567.5 366.3,567.7 368.2,567.7 370.1,567.7 372.0,567.6 373.9,567.4 375.8,567.1 377.7,566.7 379.6,566.2 381.5,565.5 383.4,564.7 385.3,563.8 387.2,562.7 389.2,561.5 391.1,560.3 393.0,558.9
394.9,557.5 396.8,556.0 398.7,554.6 400.6,553.2 402.5,552.0 404.4,550.9 406.3,549.9 408.2,549.2 410.1,548.7 412.0,548.5 413.9,548.5 415.8,548.7 417.7,549.2 419.6,549.9 421.5,550.7 423.4,551.6
425.3,552.6 427.2,553.6 429.1,554.6 431.0,555.4 432.9,556.2 434.8,556.7 436.7,557.0 438.7,557.1 440.6,557.0 442.5,556.6 444.4,555.9 446.3,555.1 448.2,554.0 450.1,552.9 452.0,551.6 453.9,550.2
455.8,548.9 457.7,547.6 459.6,546.4 461.5,545.3 463.4,544.4 465.3,543.7 467.2,543.1 469.1,542.7 471.0,542.5 472.9,542.4 474.8,542.4 476.7,542.5 478.6,542.5 480.5,542.4 482.4,542.1 484.3,541.6
486.2,540.8 488.1,539.5 490.1,537.8 492.0,535.4 493.9,532.5 495.8,528.8 497.7,524.3 499.6,519.0 501.5,512.9 503.4,505.8 505.3,497.8 507.2,488.9 509.1,479.0 511.0,468.2 512.9,456.4 514.8,443.7
516.7,430.1 518.6,415.6 520.5,400.3 522.4,384.1 524.3,367.2 526.2,349.7 528.1,331.6 530.0,313.0 531.9,294.0 533.8,274.8 535.7,255.4 537.6,236.2 539.6,217.1 541.5,198.4 543.4,180.3 545.3,163.0
547.2,146.5 549.1,131.2 551.0,117.1 552.9,104.4 554.8,93.2 556.7,83.6 558.6,75.7 560.5,69.5 562.4,65.0 564.3,62.1 566.2,60.8 568.1,61.0 570.0,62.6 571.9,65.4 573.8,69.3 575.7,74.0
577.6,79.4 579.5,85.3 581.4,91.5 583.3,97.8 585.2,104.0 587.1,110.0 589.1,115.7 591.0,121.0 592.9,125.7 594.8,129.8 596.7,133.3 598.6,136.2 600.5,138.5 602.4,140.2 604.3,141.5 606.2,142.5
608.1,143.1 610.0,143.7 611.9,144.2 613.8,144.9 615.7,146.0 617.6,147.5 619.5,149.7 621.4,152.6 623.3,156.5 625.2,161.4 627.1,167.5 629.0,174.7 630.9,183.2 632.8,193.0 634.7,204.0 636.6,216.2
638.5,229.5 640.5,243.8 642.4,258.9 644.3,274.6 646.2,290.8 648.1,307.2 650.0,323.7 651.9,339.9 653.8,355.7 655.7,370.8 657.6,385.1 659.5,398.3 661.4,410.4 663.3,421.3 665.2,430.8 667.1,438.9
669.0,445.6 670.9,451.0 672.8,455.1 674.7,458.1 676.6,460.1 678.5,461.2 680.4,461.7 682.3,461.7 684.2,461.3 686.1,460.8 688.0,460.3 690.0,459.8 691.9,459.7 693.8,459.7 695.7,460.1 697.6,460.8
699.5,461.8 701.4,462.9 703.3,464.1 705.2,465.2 707.1,466.1 709.0,466.6 710.9,466.5 712.8,465.7 714.7,463.9 716.6,461.2 718.5,457.3 720.4,452.2 722.3,445.9 724.2,438.5 726.1,429.9 728.0,420.4
729.9,410.1 731.8,399.3 733.7,388.0 735.6,376.7 737.5,365.7 739.5,355.1 741.4,345.4 743.3,336.7 745.2,329.4 747.1,323.6 749.0,319.5 750.9,317.2 752.8,316.8 754.7,318.3 756.6,321.6 758.5,326.7
760.4,333.4 762.3,341.5 764.2,350.8 766.1,361.1 768.0,372.2 769.9,383.7 771.8,395.4 773.7,407.2 775.6,418.8 777.5,430.0 779.4,440.8 781.3,450.8 783.2,460.2 785.1,468.9 787.0,476.7 789.0,483.8
790.9,490.1 792.8,495.7 794.7,500.6 796.6,504.9 798.5,508.5 800.4,511.7 802.3,514.3 804.2,516.4 806.1,518.0 808.0,519.2 809.9,520.0 811.8,520.3 813.7,520.2 815.6,519.6 817.5,518.6 819.4,517.2
821.3,515.5 823.2,513.4 825.1,511.0 827.0,508.5 828.9,505.8 830.8,503.2 832.7,500.5 834.6,498.1 836.5,495.9 838.4,494.0 840.4,492.6 842.3,491.8 844.2,491.5 846.1,491.9 848.0,492.9 849.9,494.6
851.8,497.0 853.7,500.0 855.6,503.6 857.5,507.8 859.4,512.4 861.3,517.5 863.2,522.8 865.1,528.3 867.0,534.0 868.9,539.7 870.8,545.3 872.7,550.8 874.6,556.2 876.5,561.3 878.4,566.2 880.3,570.8
882.2,575.0 884.1,578.9 886.0,582.5 887.9,585.8 889.9,588.8 891.8,591.5 893.7,593.9 895.6,596.0 897.5,597.9 899.4,599.6 901.3,601.1 903.2,602.4 905.1,603.6 907.0,604.6 908.9,605.4 910.8,606.1
912.7,606.7 914.6,607.2 916.5,607.6 918.4,608.0 920.3,608.3 922.2,608.5 924.1,608.8 924.1,662.4 922.2,662.4 920.3,662.4 918.4,662.4 916.5,662.4 914.6,662.4 912.7,662.4 910.8,662.4 908.9,662.4
907.0,662.4 905.1,662.4 903.2,662.4 901.3,662.4 899.4,662.4 897.5,662.4 895.6,662.4 893.7,662.4 891.8,662.4 889.9,662.4 887.9,662.4 886.0,662.4 884.1,662.4 882.2,662.4 880.3,662.4 878.4,662.4
876.5,662.4 874.6,662.4 872.7,662.4 870.8,662.4 868.9,662.4 867.0,662.4 865.1,662.4 863.2,662.4 861.3,662.4 859.4,662.4 857.5,662.4 855.6,662.4 853.7,662.4 851.8,662.4 849.9,662.4 848.0,662.4
846.1,662.4 844.2,662.4 842.3,662.4 840.4,662.4 838.4,662.4 836.5,662.4 834.6,662.4 832.7,662.4 830.8,662.4 828.9,662.4 827.0,662.4 825.1,662.4 823.2,662.4 821.3,662.4 819.4,662.4 817.5,662.4
815.6,662.4 813.7,662.4 811.8,662.4 809.9,662.4 808.0,662.4 806.1,662.4 804.2,662.4 802.3,662.4 800.4,662.4 798.5,662.4 796.6,662.4 794.7,662.4 792.8,662.4 790.9,662.4 789.0,662.4 787.0,662.4
785.1,662.4 783.2,662.4 781.3,662.4 779.4,662.4 777.5,662.4 775.6,662.4 773.7,662.4 771.8,662.4 769.9,662.4 768.0,662.4 766.1,662.4 764.2,662.4 762.3,662.4 760.4,662.4 758.5,662.4 756.6,662.4
754.7,662.4 752.8,662.4 750.9,662.4 749.0,662.4 747.1,662.4 745.2,662.4 743.3,662.4 741.4,662.4 739.5,662.4 737.5,662.4 735.6,662.4 733.7,662.4 731.8,662.4 729.9,662.4 728.0,662.4 726.1,662.4
724.2,662.4 722.3,662.4 720.4,662.4 718.5,662.4 716.6,662.4 714.7,662.4 712.8,662.4 710.9,662.4 709.0,662.4 707.1,662.4 705.2,662.4 703.3,662.4 701.4,662.4 699.5,662.4 697.6,662.4 695.7,662.4
693.8,662.4 691.9,662.4 690.0,662.4 688.0,662.4 686.1,662.4 684.2,662.4 682.3,662.4 680.4,662.4 678.5,662.4 676.6,662.4 674.7,662.4 672.8,662.4 670.9,662.4 669.0,662.4 667.1,662.4 665.2,662.4
663.3,662.4 661.4,662.4 659.5,662.4 657.6,662.4 655.7,662.4 653.8,662.4 651.9,662.4 650.0,662.4 648.1,662.4 646.2,662.4 644.3,662.4 642.4,662.4 640.5,662.4 638.5,662.4 636.6,662.4 634.7,662.4
632.8,662.4 630.9,662.4 629.0,662.4 627.1,662.4 625.2,662.4 623.3,662.4 621.4,662.4 619.5,662.4 617.6,662.4 615.7,662.4 613.8,662.4 611.9,662.4 610.0,662.4 608.1,662.4 606.2,662.4 604.3,662.4
602.4,662.4 600.5,662.4 598.6,662.4 596.7,662.4 594.8,662.4 592.9,662.4 591.0,662.4 589.1,662.4 587.1,662.4 585.2,662.4 583.3,662.4 581.4,662.4 579.5,662.4 577.6,662.4 575.7,662.4 573.8,662.4
571.9,662.4 570.0,662.4 568.1,662.4 566.2,662.4 564.3,662.4 562.4,662.4 560.5,662.4 558.6,662.4 556.7,662.4 554.8,662.4 552.9,662.4 551.0,662.4 549.1,662.4 547.2,662.4 545.3,662.4 543.4,662.4
541.5,662.4 539.6,662.4 537.6,662.4 535.7,662.4 533.8,662.4 531.9,662.4 530.0,662.4 528.1,662.4 526.2,662.4 524.3,662.4 522.4,662.4 520.5,662.4 518.6,662.4 516.7,662.4 514.8,662.4 512.9,662.4
511.0,662.4 509.1,662.4 507.2,662.4 505.3,662.4 503.4,662.4 501.5,662.4 499.6,662.4 497.7,662.4 495.8,662.4 493.9,662.4 492.0,662.4 490.1,662.4 488.1,662.4 486.2,662.4 484.3,662.4 482.4,662.4
480.5,662.4 478.6,662.4 476.7,662.4 474.8,662.4 472.9,662.4 471.0,662.4 469.1,662.4 467.2,662.4 465.3,662.4 463.4,662.4 461.5,662.4 459.6,662.4 457.7,662.4 455.8,662.4 453.9,662.4 452.0,662.4
450.1,662.4 448.2,662.4 446.3,662.4 444.4,662.4 442.5,662.4 440.6,662.4 438.7,662.4 436.7,662.4 434.8,662.4 432.9,662.4 431.0,662.4 429.1,662.4 427.2,662.4 425.3,662.4 423.4,662.4 421.5,662.4
419.6,662.4 417.7,662.4 415.8,662.4 413.9,662.4 412.0,662.4 410.1,662.4 408.2,662.4 406.3,662.4 404.4,662.4 402.5,662.4 400.6,662.4 398.7,662.4 396.8,662.4 394.9,662.4 393.0,662.4 391.1,662.4
389.2,662.4 387.2,662.4 385.3,662.4 383.4,662.4 381.5,662.4 379.6,662.4 377.7,662.4 375.8,662.4 373.9,662.4 372.0,662.4 370.1,662.4 368.2,662.4 366.3,662.4 364.4,662.4 362.5,662.4 360.6,662.4
358.7,662.4 356.8,662.4 354.9,662.4 353.0,662.4 351.1,662.4 349.2,662.4 347.3,662.4 345.4,662.4 343.5,662.4 341.6,662.4 339.7,662.4 337.7,662.4 335.8,662.4 333.9,662.4 332.0,662.4 330.1,662.4
328.2,662.4 326.3,662.4 324.4,662.4 322.5,662.4 320.6,662.4 318.7,662.4 316.8,662.4 314.9,662.4 313.0,662.4 311.1,662.4 309.2,662.4 307.3,662.4 305.4,662.4 303.5,662.4 301.6,662.4 299.7,662.4
297.8,662.4 295.9,662.4 294.0,662.4 292.1,662.4 290.2,662.4 288.2,662.4 286.3,662.4 284.4,662.4 282.5,662.4 280.6,662.4 278.7,662.4 276.8,662.4 274.9,662.4 273.0,662.4 271.1,662.4 269.2,662.4
267.3,662.4 265.4,662.4 263.5,662.4 261.6,662.4 259.7,662.4 257.8,662.4 255.9,662.4 254.0,662.4 252.1,662.4 250.2,662.4 248.3,662.4 246.4,662.4 244.5,662.4 242.6,662.4 240.7,662.4 238.8,662.4
236.8,662.4 234.9,662.4 233.0,662.4 231.1,662.4 229.2,662.4 227.3,662.4 225.4,662.4 223.5,662.4 221.6,662.4 219.7,662.4 217.8,662.4 215.9,662.4 214.0,662.4 212.1,662.4 210.2,662.4 208.3,662.4
206.4,662.4 204.5,662.4 202.6,662.4 200.7,662.4 198.8,662.4 196.9,662.4 195.0,662.4 193.1,662.4 191.2,662.4 189.3,662.4 187.3,662.4 185.4,662.4 183.5,662.4 181.6,662.4 179.7,662.4 177.8,662.4
175.9,662.4 174.0,662.4 172.1,662.4 170.2,662.4 168.3,662.4 166.4,662.4 164.5,662.4 162.6,662.4 160.7,662.4 158.8,662.4 156.9,662.4 155.0,662.4 153.1,662.4 151.2,662.4 '/>
	</g>
</g>
	</g>
	<g id="gnuplot_plot_3" ><title>Point estimate</title>
<g fill="none" color="white" stroke="rgb( 31, 120, 180)" stroke-width="2.00" stroke-linecap="butt" stroke-linejoin="miter">
</g>
<g fill="none" color="black" stroke="currentColor" stroke-width="2.00" stroke-linecap="butt" stroke-linejoin="miter">
	<g transform="translate(1089.0,103.0)" stroke="none" fill="black" font-family="Helvetica" font-size="12.00"  text-anchor="start">
		<text><tspan font-family="Helvetica" >Point estimate</tspan></text>
	</g>
</g>
<g fill="none" color="black" stroke="currentColor" stroke-width="2.00" stroke-linecap="butt" stroke-linejoin="miter">
	<path stroke='rgb( 31, 120, 180)'  d='M1038.5,99.1 L1080.7,99.1 M593.1,662.4 L593.1,126.2  '/></g>
	</g>
<g fill="none" color="black" stroke="currentColor" stroke-width="2.00" stroke-linecap="butt" stroke-linejoin="miter">
</g>
<g fill="none" color="black" stroke="black" stroke-width="1.00" stroke-linecap="butt" stroke-linejoin="miter">
</g>
<g fill="none" color="black" stroke="currentColor" stroke-width="1.00" stroke-linecap="butt" stroke-linejoin="miter">
	<path stroke='black'  d='M63.6,54.1 L63.6,662.4 L1013.6,662.4 L1013.6,54.1 L63.6,54.1 Z  '/></g>
<g fill="none" color="black" stroke="currentColor" stroke-width="1.00" stroke-linecap="butt" stroke-linejoin="miter">
</g>
</g>
</svg>

