<?xml version="1.0" encoding="utf-8"  standalone="no"?>
<svg 
 viewBox="0 0 1280 720"
 xmlns="http://www.w3.org/2000/svg"
 xmlns:xlink="http://www.w3.org/1999/xlink"
>

<title>Gnuplot</title>
<desc>Produced by GNUPLOT 5.2 patchlevel 6 </desc>

<g id="gnuplot_canvas">

<rect x="0" y="0" width="1280" height="720" fill="none"/>
<defs>

	<circle id='gpDot' r='0.5' stroke-width='0.5' stroke='currentColor'/>
	<path id='gpPt0' stroke-width='0.222' stroke='currentColor' d='M-1,0 h2 M0,-1 v2'/>
	<path id='gpPt1' stroke-width='0.222' stroke='currentColor' d='M-1,-1 L1,1 M1,-1 L-1,1'/>
	<path id='gpPt2' stroke-width='0.222' stroke='currentColor' d='M-1,0 L1,0 M0,-1 L0,1 M-1,-1 L1,1 M-1,1 L1,-1'/>
	<rect id='gpPt3' stroke-width='0.222' stroke='currentColor' x='-1' y='-1' width='2' height='2'/>
	<rect id='gpPt4' stroke-width='0.222' stroke='currentColor' fill='currentColor' x='-1' y='-1' width='2' height='2'/>
	<circle id='gpPt5' stroke-width='0.222' stroke='currentColor' cx='0' cy='0' r='1'/>
	<use xlink:href='#gpPt5' id='gpPt6' fill='currentColor' stroke='none'/>
	<path id='gpPt7' stroke-width='0.222' stroke='currentColor' d='M0,-1.33 L-1.33,0.67 L1.33,0.67 z'/>
	<use xlink:href='#gpPt7' id='gpPt8' fill='currentColor' stroke='none'/>
	<use xlink:href='#gpPt7' id='gpPt9' stroke='currentColor' transform='rotate(180)'/>
	<use xlink:href='#gpPt9' id='gpPt10' fill='currentColor' stroke='none'/>
	<use xlink:href='#gpPt3' id='gpPt11' stroke='currentColor' transform='rotate(45)'/>
	<use xlink:href='#gpPt11' id='gpPt12' fill='currentColor' stroke='none'/>
	<path id='gpPt13' stroke-width='0.222' stroke='currentColor' d='M0,1.330 L1.265,0.411 L0.782,-1.067 L-0.782,-1.076 L-1.265,0.411 z'/>
	<use xlink:href='#gpPt13' id='gpPt14' fill='currentColor' stroke='none'/>
	<filter id='textbox' filterUnits='objectBoundingBox' x='0' y='0' height='1' width='1'>
	  <feFlood flood-color='white' flood-opacity='1' result='bgnd'/>
	  <feComposite in='SourceGraphic' in2='bgnd' operator='atop'/>
	</filter>
	<filter id='greybox' filterUnits='objectBoundingBox' x='0' y='0' height='1' width='1'>
	  <feFlood flood-color='lightgrey' flood-opacity='1' result='grey'/>
	  <feComposite in='SourceGraphic' in2='grey' operator='atop'/>
	</filter>
</defs>
<g fill="none" color="white" stroke="currentColor" stroke-width="1.00" stroke-linecap="butt" stroke-linejoin="miter">
</g>
<g fill="none" color="black" stroke="currentColor" stroke-width="1.00" stroke-linecap="butt" stroke-linejoin="miter">
	<path stroke='black'  d='M80.2,662.4 L89.2,662.4  '/>	<g transform="translate(71.9,666.3)" stroke="none" fill="black" font-family="Helvetica" font-size="12.00"  text-anchor="end">
		<text><tspan font-family="Helvetica" > 0</tspan></text>
	</g>
</g>
<g fill="none" color="black" stroke="currentColor" stroke-width="1.00" stroke-linecap="butt" stroke-linejoin="miter">
	<path stroke='black'  d='M80.2,540.7 L89.2,540.7  '/>	<g transform="translate(71.9,544.6)" stroke="none" fill="black" font-family="Helvetica" font-size="12.00"  text-anchor="end">
		<text><tspan font-family="Helvetica" > 0.05</tspan></text>
	</g>
</g>
<g fill="none" color="black" stroke="currentColor" stroke-width="1.00" stroke-linecap="butt" stroke-linejoin="miter">
	<path stroke='black'  d='M80.2,419.1 L89.2,419.1  '/>	<g transform="translate(71.9,423.0)" stroke="none" fill="black" font-family="Helvetica" font-size="12.00"  text-anchor="end">
		<text><tspan font-family="Helvetica" > 0.1</tspan></text>
	</g>
</g>
<g fill="none" color="black" stroke="currentColor" stroke-width="1.00" stroke-linecap="butt" stroke-linejoin="miter">
	<path stroke='black'  d='M80.2,297.4 L89.2,297.4  '/>	<g transform="translate(71.9,301.3)" stroke="none" fill="black" font-family="Helvetica" font-size="12.00"  text-anchor="end">
		<text><tspan font-family="Helvetica" > 0.15</tspan></text>
	</g>
</g>
<g fill="none" color="black" stroke="currentColor" stroke-width="1.00" stroke-linecap="butt" stroke-linejoin="miter">
	<path stroke='black'  d='M80.2,175.8 L89.2,175.8  '/>	<g transform="translate(71.9,179.7)" stroke="none" fill="black" font-family="Helvetica" font-size="12.00"  text-anchor="end">
		<text><tspan font-family="Helvetica" > 0.2</tspan></text>
	</g>
</g>
<g fill="none" color="black" stroke="currentColor" stroke-width="1.00" stroke-linecap="butt" stroke-linejoin="miter">
	<path stroke='black'  d='M80.2,54.1 L89.2,54.1  '/>	<g transform="translate(71.9,58.0)" stroke="none" fill="black" font-family="Helvetica" font-size="12.00"  text-anchor="end">
		<text><tspan font-family="Helvetica" > 0.25</tspan></text>
	</g>
</g>
<g fill="none" color="black" stroke="currentColor" stroke-width="1.00" stroke-linecap="butt" stroke-linejoin="miter">
	<path stroke='black'  d='M117.0,662.4 L117.0,653.4  '/>	<g transform="translate(117.0,684.3)" stroke="none" fill="black" font-family="Helvetica" font-size="12.00"  text-anchor="middle">
		<text><tspan font-family="Helvetica" > 4</tspan></text>
	</g>
</g>
<g fill="none" color="black" stroke="currentColor" stroke-width="1.00" stroke-linecap="butt" stroke-linejoin="miter">
	<path stroke='black'  d='M222.2,662.4 L222.2,653.4  '/>	<g transform="translate(222.2,684.3)" stroke="none" fill="black" font-family="Helvetica" font-size="12.00"  text-anchor="middle">
		<text><tspan font-family="Helvetica" > 5</tspan></text>
	</g>
</g>
<g fill="none" color="black" stroke="currentColor" stroke-width="1.00" stroke-linecap="butt" stroke-linejoin="miter">
	<path stroke='black'  d='M327.4,662.4 L327.4,653.4  '/>	<g transform="translate(327.4,684.3)" stroke="none" fill="black" font-family="Helvetica" font-size="12.00"  text-anchor="middle">
		<text><tspan font-family="Helvetica" > 6</tspan></text>
	</g>
</g>
<g fill="none" color="black" stroke="currentColor" stroke-width="1.00" stroke-linecap="butt" stroke-linejoin="miter">
	<path stroke='black'  d='M432.6,662.4 L432.6,653.4  '/>	<g transform="translate(432.6,684.3)" stroke="none" fill="black" font-family="Helvetica" font-size="12.00"  text-anchor="middle">
		<text><tspan font-family="Helvetica" > 7</tspan></text>
	</g>
</g>
<g fill="none" color="black" stroke="currentColor" stroke-width="1.00" stroke-linecap="butt" stroke-linejoin="miter">
	<path stroke='black'  d='M537.8,662.4 L537.8,653.4  '/>	<g transform="translate(537.8,684.3)" stroke="none" fill="black" font-family="Helvetica" font-size="12.00"  text-anchor="middle">
		<text><tspan font-family="Helvetica" > 8</tspan></text>
	</g>
</g>
<g fill="none" color="black" stroke="currentColor" stroke-width="1.00" stroke-linecap="butt" stroke-linejoin="miter">
	<path stroke='black'  d='M643.0,662.4 L643.0,653.4  '/>	<g transform="translate(643.0,684.3)" stroke="none" fill="black" font-family="Helvetica" font-size="12.00"  text-anchor="middle">
		<text><tspan font-family="Helvetica" > 9</tspan></text>
	</g>
</g>
<g fill="none" color="black" stroke="currentColor" stroke-width="1.00" stroke-linecap="butt" stroke-linejoin="miter">
	<path stroke='black'  d='M748.3,662.4 L748.3,653.4  '/>	<g transform="translate(748.3,684.3)" stroke="none" fill="black" font-family="Helvetica" font-size="12.00"  text-anchor="middle">
		<text><tspan font-family="Helvetica" > 10</tspan></text>
	</g>
</g>
<g fill="none" color="black" stroke="currentColor" stroke-width="1.00" stroke-linecap="butt" stroke-linejoin="miter">
	<path stroke='black'  d='M853.5,662.4 L853.5,653.4  '/>	<g transform="translate(853.5,684.3)" stroke="none" fill="black" font-family="Helvetica" font-size="12.00"  text-anchor="middle">
		<text><tspan font-family="Helvetica" > 11</tspan></text>
	</g>
</g>
<g fill="none" color="black" stroke="currentColor" stroke-width="1.00" stroke-linecap="butt" stroke-linejoin="miter">
	<path stroke='black'  d='M958.7,662.4 L958.7,653.4  '/>	<g transform="translate(958.7,684.3)" stroke="none" fill="black" font-family="Helvetica" font-size="12.00"  text-anchor="middle">
		<text><tspan font-family="Helvetica" > 12</tspan></text>
	</g>
</g>
<g fill="none" color="black" stroke="currentColor" stroke-width="1.00" stroke-linecap="butt" stroke-linejoin="miter">
</g>
<g fill="none" color="black" stroke="currentColor" stroke-width="1.00" stroke-linecap="butt" stroke-linejoin="miter">
	<path stroke='black'  d='M80.2,54.1 L80.2,662.4 L1013.6,662.4 L1013.6,54.1 L80.2,54.1 Z  '/></g>
<g fill="none" color="black" stroke="currentColor" stroke-width="1.00" stroke-linecap="butt" stroke-linejoin="miter">
	<g transform="translate(16.3,358.3) rotate(270)" stroke="none" fill="black" font-family="Helvetica" font-size="12.00"  text-anchor="middle">
		<text><tspan font-family="Helvetica" >Density (a.u.)</tspan></text>
	</g>
</g>
<g fill="none" color="black" stroke="currentColor" stroke-width="1.00" stroke-linecap="butt" stroke-linejoin="miter">
	<g transform="translate(546.9,711.3)" stroke="none" fill="black" font-family="Helvetica" font-size="12.00"  text-anchor="middle">
		<text><tspan font-family="Helvetica" >Average time (us)</tspan></text>
	</g>
</g>
<g fill="none" color="black" stroke="currentColor" stroke-width="1.00" stroke-linecap="butt" stroke-linejoin="miter">
	<g transform="translate(546.9,31.0)" stroke="none" fill="black" font-family="Helvetica" font-size="12.00"  text-anchor="middle">
		<text><tspan font-family="Helvetica" >snapshot_restore_with_dense/Dense: Entire region + /proc/pid/mem/463: SD</tspan></text>
	</g>
</g>
	<g id="gnuplot_plot_1" ><title>Bootstrap distribution</title>
<g fill="none" color="white" stroke="black" stroke-width="2.00" stroke-linecap="butt" stroke-linejoin="miter">
</g>
<g fill="none" color="black" stroke="currentColor" stroke-width="2.00" stroke-linecap="butt" stroke-linejoin="miter">
	<g transform="translate(1089.0,67.0)" stroke="none" fill="black" font-family="Helvetica" font-size="12.00"  text-anchor="start">
		<text><tspan font-family="Helvetica" >Bootstrap distribution</tspan></text>
	</g>
</g>
<g fill="none" color="black" stroke="currentColor" stroke-width="2.00" stroke-linecap="butt" stroke-linejoin="miter">
	<path stroke='rgb( 31, 120, 180)'  d='M1038.5,63.1 L1080.7,63.1 M80.2,643.5 L82.1,643.1 L83.9,642.7 L85.8,642.2 L87.7,641.8 L89.6,641.3
		L91.4,640.8 L93.3,640.3 L95.2,639.7 L97.0,639.1 L98.9,638.4 L100.8,637.7 L102.6,636.9 L104.5,636.0
		L106.4,635.1 L108.3,634.1 L110.1,633.1 L112.0,632.0 L113.9,630.8 L115.7,629.6 L117.6,628.3 L119.5,627.0
		L121.4,625.7 L123.2,624.3 L125.1,622.9 L127.0,621.5 L128.8,620.1 L130.7,618.7 L132.6,617.2 L134.4,615.8
		L136.3,614.3 L138.2,612.9 L140.1,611.4 L141.9,609.9 L143.8,608.3 L145.7,606.8 L147.5,605.2 L149.4,603.6
		L151.3,601.9 L153.2,600.2 L155.0,598.4 L156.9,596.6 L158.8,594.8 L160.6,592.9 L162.5,590.9 L164.4,588.9
		L166.2,586.9 L168.1,584.9 L170.0,582.9 L171.9,580.9 L173.7,578.8 L175.6,576.8 L177.5,574.9 L179.3,573.0
		L181.2,571.1 L183.1,569.3 L185.0,567.6 L186.8,565.9 L188.7,564.3 L190.6,562.8 L192.4,561.4 L194.3,560.1
		L196.2,558.8 L198.0,557.7 L199.9,556.6 L201.8,555.6 L203.7,554.6 L205.5,553.7 L207.4,552.9 L209.3,552.2
		L211.1,551.5 L213.0,550.9 L214.9,550.3 L216.7,549.8 L218.6,549.3 L220.5,548.9 L222.4,548.5 L224.2,548.2
		L226.1,547.9 L228.0,547.7 L229.8,547.5 L231.7,547.4 L233.6,547.3 L235.5,547.2 L237.3,547.1 L239.2,547.0
		L241.1,546.9 L242.9,546.8 L244.8,546.6 L246.7,546.4 L248.5,546.1 L250.4,545.7 L252.3,545.3 L254.2,544.8
		L256.0,544.1 L257.9,543.4 L259.8,542.5 L261.6,541.5 L263.5,540.3 L265.4,539.0 L267.3,537.6 L269.1,536.1
		L271.0,534.4 L272.9,532.6 L274.7,530.7 L276.6,528.6 L278.5,526.5 L280.3,524.2 L282.2,521.8 L284.1,519.3
		L286.0,516.7 L287.8,514.0 L289.7,511.2 L291.6,508.3 L293.4,505.4 L295.3,502.3 L297.2,499.1 L299.1,495.9
		L300.9,492.6 L302.8,489.1 L304.7,485.7 L306.5,482.1 L308.4,478.5 L310.3,474.8 L312.1,471.0 L314.0,467.2
		L315.9,463.4 L317.8,459.5 L319.6,455.6 L321.5,451.7 L323.4,447.8 L325.2,443.9 L327.1,440.0 L329.0,436.2
		L330.9,432.4 L332.7,428.7 L334.6,425.1 L336.5,421.5 L338.3,418.0 L340.2,414.6 L342.1,411.4 L343.9,408.2
		L345.8,405.1 L347.7,402.2 L349.6,399.4 L351.4,396.7 L353.3,394.1 L355.2,391.6 L357.0,389.3 L358.9,387.1
		L360.8,385.0 L362.7,383.0 L364.5,381.2 L366.4,379.4 L368.3,377.7 L370.1,376.2 L372.0,374.7 L373.9,373.3
		L375.7,371.9 L377.6,370.7 L379.5,369.4 L381.4,368.2 L383.2,367.0 L385.1,365.9 L387.0,364.7 L388.8,363.5
		L390.7,362.2 L392.6,361.0 L394.5,359.6 L396.3,358.2 L398.2,356.7 L400.1,355.1 L401.9,353.4 L403.8,351.6
		L405.7,349.7 L407.5,347.6 L409.4,345.4 L411.3,343.1 L413.2,340.6 L415.0,338.0 L416.9,335.3 L418.8,332.4
		L420.6,329.4 L422.5,326.3 L424.4,323.0 L426.3,319.7 L428.1,316.2 L430.0,312.6 L431.9,309.0 L433.7,305.3
		L435.6,301.5 L437.5,297.6 L439.3,293.7 L441.2,289.8 L443.1,285.8 L445.0,281.8 L446.8,277.8 L448.7,273.8
		L450.6,269.7 L452.4,265.7 L454.3,261.8 L456.2,257.8 L458.0,253.9 L459.9,250.1 L461.8,246.3 L463.7,242.6
		L465.5,239.0 L467.4,235.4 L469.3,232.0 L471.1,228.7 L473.0,225.5 L474.9,222.5 L476.8,219.5 L478.6,216.8
		L480.5,214.1 L482.4,211.6 L484.2,209.3 L486.1,207.1 L488.0,205.1 L489.8,203.1 L491.7,201.3 L493.6,199.7
		L495.5,198.1 L497.3,196.6 L499.2,195.2 L501.1,193.8 L502.9,192.5 L504.8,191.3 L506.7,190.1 L508.6,188.9
		L510.4,187.7 L512.3,186.5 L514.2,185.3 L516.0,184.0 L517.9,182.8 L519.8,181.5 L521.6,180.2 L523.5,178.9
		L525.4,177.5 L527.3,176.1 L529.1,174.7 L531.0,173.2 L532.9,171.7 L534.7,170.2 L536.6,168.6 L538.5,167.1
		L540.4,165.5 L542.2,164.0 L544.1,162.4 L546.0,160.9 L547.8,159.3 L549.7,157.8 L551.6,156.3 L553.4,154.9
		L555.3,153.4 L557.2,152.0 L559.1,150.7 L560.9,149.4 L562.8,148.2 L564.7,147.0 L566.5,145.9 L568.4,144.8
		L570.3,143.8 L572.2,142.9 L574.0,142.0 L575.9,141.3 L577.8,140.5 L579.6,139.9 L581.5,139.3 L583.4,138.7
		L585.2,138.2 L587.1,137.8 L589.0,137.5 L590.9,137.1 L592.7,136.9 L594.6,136.7 L596.5,136.5 L598.3,136.3
		L600.2,136.2 L602.1,136.2 L604.0,136.1 L605.8,136.1 L607.7,136.1 L609.6,136.2 L611.4,136.2 L613.3,136.3
		L615.2,136.4 L617.0,136.6 L618.9,136.7 L620.8,136.9 L622.7,137.1 L624.5,137.4 L626.4,137.7 L628.3,138.0
		L630.1,138.4 L632.0,138.9 L633.9,139.4 L635.8,140.0 L637.6,140.6 L639.5,141.4 L641.4,142.2 L643.2,143.1
		L645.1,144.0 L647.0,145.1 L648.8,146.2 L650.7,147.4 L652.6,148.6 L654.5,150.0 L656.3,151.4 L658.2,152.8
		L660.1,154.4 L661.9,155.9 L663.8,157.6 L665.7,159.2 L667.5,160.9 L669.4,162.7 L671.3,164.5 L673.2,166.3
		L675.0,168.2 L676.9,170.1 L678.8,172.1 L680.6,174.2 L682.5,176.3 L684.4,178.4 L686.3,180.6 L688.1,182.9
		L690.0,185.2 L691.9,187.7 L693.7,190.1 L695.6,192.7 L697.5,195.3 L699.3,198.0 L701.2,200.7 L703.1,203.5
		L705.0,206.3 L706.8,209.2 L708.7,212.1 L710.6,215.0 L712.4,218.0 L714.3,220.9 L716.2,223.9 L718.1,226.9
		L719.9,229.9 L721.8,232.8 L723.7,235.8 L725.5,238.8 L727.4,241.8 L729.3,244.7 L731.1,247.7 L733.0,250.6
		L734.9,253.6 L736.8,256.5 L738.6,259.5 L740.5,262.4 L742.4,265.4 L744.2,268.4 L746.1,271.5 L748.0,274.6
		L749.9,277.7 L751.7,280.8 L753.6,284.0 L755.5,287.2 L757.3,290.5 L759.2,293.9 L761.1,297.2 L762.9,300.7
		L764.8,304.1 L766.7,307.7 L768.6,311.2 L770.4,314.8 L772.3,318.4 L774.2,322.1 L776.0,325.8 L777.9,329.4
		L779.8,333.1 L781.7,336.8 L783.5,340.5 L785.4,344.2 L787.3,347.8 L789.1,351.5 L791.0,355.1 L792.9,358.7
		L794.7,362.3 L796.6,365.9 L798.5,369.5 L800.4,373.0 L802.2,376.5 L804.1,380.0 L806.0,383.5 L807.8,387.0
		L809.7,390.4 L811.6,393.9 L813.5,397.3 L815.3,400.8 L817.2,404.2 L819.1,407.6 L820.9,411.0 L822.8,414.4
		L824.7,417.8 L826.5,421.1 L828.4,424.5 L830.3,427.8 L832.2,431.1 L834.0,434.4 L835.9,437.6 L837.8,440.8
		L839.6,444.0 L841.5,447.2 L843.4,450.3 L845.3,453.3 L847.1,456.3 L849.0,459.3 L850.9,462.3 L852.7,465.2
		L854.6,468.1 L856.5,470.9 L858.3,473.7 L860.2,476.5 L862.1,479.3 L864.0,482.0 L865.8,484.8 L867.7,487.5
		L869.6,490.2 L871.4,492.9 L873.3,495.6 L875.2,498.3 L877.1,501.1 L878.9,503.8 L880.8,506.5 L882.7,509.2
		L884.5,511.9 L886.4,514.6 L888.3,517.2 L890.1,519.9 L892.0,522.6 L893.9,525.2 L895.8,527.8 L897.6,530.4
		L899.5,533.0 L901.4,535.5 L903.2,538.0 L905.1,540.5 L907.0,542.9 L908.8,545.3 L910.7,547.6 L912.6,549.9
		L914.5,552.2 L916.3,554.4 L918.2,556.5 L920.1,558.7 L921.9,560.8 L923.8,562.9 L925.7,564.9 L927.6,567.0
		L929.4,568.9 L931.3,570.9 L933.2,572.9 L935.0,574.8 L936.9,576.7 L938.8,578.6 L940.6,580.4 L942.5,582.2
		L944.4,584.0 L946.3,585.8 L948.1,587.6 L950.0,589.3 L951.9,591.0 L953.7,592.7 L955.6,594.3 L957.5,595.9
		L959.4,597.5 L961.2,599.0 L963.1,600.6 L965.0,602.1 L966.8,603.5 L968.7,605.0 L970.6,606.4 L972.4,607.7
		L974.3,609.1 L976.2,610.4 L978.1,611.7 L979.9,613.0 L981.8,614.3 L983.7,615.5 L985.5,616.7 L987.4,617.9
		L989.3,619.0 L991.2,620.1 L993.0,621.3 L994.9,622.3 L996.8,623.4 L998.6,624.4 L1000.5,625.4 L1002.4,626.4
		L1004.2,627.4 L1006.1,628.3 L1008.0,629.2 L1009.9,630.1 L1011.7,631.0 L1013.6,631.9  '/></g>
	</g>
	<g id="gnuplot_plot_2" ><title>Confidence interval</title>
<g fill="none" color="white" stroke="rgb( 31, 120, 180)" stroke-width="1.00" stroke-linecap="butt" stroke-linejoin="miter">
</g>
<g fill="none" color="black" stroke="currentColor" stroke-width="1.00" stroke-linecap="butt" stroke-linejoin="miter">
	<g transform="translate(1089.0,85.0)" stroke="none" fill="black" font-family="Helvetica" font-size="12.00"  text-anchor="start">
		<text><tspan font-family="Helvetica" >Confidence interval</tspan></text>
	</g>
</g>
<g fill="none" color="black" stroke="currentColor" stroke-width="1.00" stroke-linecap="butt" stroke-linejoin="miter">
	<g stroke='none' shape-rendering='crispEdges'>
		<polygon fill = 'rgb( 31, 120, 180)' fill-opacity = '0.250000' points = '1038.5,85.6 1080.7,85.6 1080.7,76.6 1038.5,76.6 '/>
		<polygon fill = 'rgb( 31, 120, 180)' fill-opacity = '0.250000' points = '166.2,586.9 168.1,584.9 170.0,582.9 171.9,580.9 173.7,578.8 175.6,576.8 177.5,574.9 179.3,573.0 181.2,571.1 183.1,569.3 185.0,567.6 186.8,565.9 188.7,564.3 190.6,562.8 192.4,561.4 194.3,560.1
196.2,558.8 198.0,557.7 199.9,556.6 201.8,555.6 203.7,554.6 205.5,553.7 207.4,552.9 209.3,552.2 211.1,551.5 213.0,550.9 214.9,550.3 216.7,549.8 218.6,549.3 220.5,548.9 222.4,548.5 224.2,548.2
226.1,547.9 228.0,547.7 229.8,547.5 231.7,547.4 233.6,547.3 235.5,547.2 237.3,547.1 239.2,547.0 241.1,546.9 242.9,546.8 244.8,546.6 246.7,546.4 248.5,546.1 250.4,545.7 252.3,545.3 254.2,544.8
256.0,544.1 257.9,543.4 259.8,542.5 261.6,541.5 263.5,540.3 265.4,539.0 267.3,537.6 269.1,536.1 271.0,534.4 272.9,532.6 274.7,530.7 276.6,528.6 278.5,526.5 280.3,524.2 282.2,521.8 284.1,519.3
286.0,516.7 287.8,514.0 289.7,511.2 291.6,508.3 293.4,505.4 295.3,502.3 297.2,499.1 299.1,495.9 300.9,492.6 302.8,489.1 304.7,485.7 306.5,482.1 308.4,478.5 310.3,474.8 312.1,471.0 314.0,467.2
315.9,463.4 317.8,459.5 319.6,455.6 321.5,451.7 323.4,447.8 325.2,443.9 327.1,440.0 329.0,436.2 330.9,432.4 332.7,428.7 334.6,425.1 336.5,421.5 338.3,418.0 340.2,414.6 342.1,411.4 343.9,408.2
345.8,405.1 347.7,402.2 349.6,399.4 351.4,396.7 353.3,394.1 355.2,391.6 357.0,389.3 358.9,387.1 360.8,385.0 362.7,383.0 364.5,381.2 366.4,379.4 368.3,377.7 370.1,376.2 372.0,374.7 373.9,373.3
375.7,371.9 377.6,370.7 379.5,369.4 381.4,368.2 383.2,367.0 385.1,365.9 387.0,364.7 388.8,363.5 390.7,362.2 392.6,361.0 394.5,359.6 396.3,358.2 398.2,356.7 400.1,355.1 401.9,353.4 403.8,351.6
405.7,349.7 407.5,347.6 409.4,345.4 411.3,343.1 413.2,340.6 415.0,338.0 416.9,335.3 418.8,332.4 420.6,329.4 422.5,326.3 424.4,323.0 426.3,319.7 428.1,316.2 430.0,312.6 431.9,309.0 433.7,305.3
435.6,301.5 437.5,297.6 439.3,293.7 441.2,289.8 443.1,285.8 445.0,281.8 446.8,277.8 448.7,273.8 450.6,269.7 452.4,265.7 454.3,261.8 456.2,257.8 458.0,253.9 459.9,250.1 461.8,246.3 463.7,242.6
465.5,239.0 467.4,235.4 469.3,232.0 471.1,228.7 473.0,225.5 474.9,222.5 476.8,219.5 478.6,216.8 480.5,214.1 482.4,211.6 484.2,209.3 486.1,207.1 488.0,205.1 489.8,203.1 491.7,201.3 493.6,199.7
495.5,198.1 497.3,196.6 499.2,195.2 501.1,193.8 502.9,192.5 504.8,191.3 506.7,190.1 508.6,188.9 510.4,187.7 512.3,186.5 514.2,185.3 516.0,184.0 517.9,182.8 519.8,181.5 521.6,180.2 523.5,178.9
525.4,177.5 527.3,176.1 529.1,174.7 531.0,173.2 532.9,171.7 534.7,170.2 536.6,168.6 538.5,167.1 540.4,165.5 542.2,164.0 544.1,162.4 546.0,160.9 547.8,159.3 549.7,157.8 551.6,156.3 553.4,154.9
555.3,153.4 557.2,152.0 559.1,150.7 560.9,149.4 562.8,148.2 564.7,147.0 566.5,145.9 568.4,144.8 570.3,143.8 572.2,142.9 574.0,142.0 575.9,141.3 577.8,140.5 579.6,139.9 581.5,139.3 583.4,138.7
585.2,138.2 587.1,137.8 589.0,137.5 590.9,137.1 592.7,136.9 594.6,136.7 596.5,136.5 598.3,136.3 600.2,136.2 602.1,136.2 604.0,136.1 605.8,136.1 607.7,136.1 609.6,136.2 611.4,136.2 613.3,136.3
615.2,136.4 617.0,136.6 618.9,136.7 620.8,136.9 622.7,137.1 624.5,137.4 626.4,137.7 628.3,138.0 630.1,138.4 632.0,138.9 633.9,139.4 635.8,140.0 637.6,140.6 639.5,141.4 641.4,142.2 643.2,143.1
645.1,144.0 647.0,145.1 648.8,146.2 650.7,147.4 652.6,148.6 654.5,150.0 656.3,151.4 658.2,152.8 660.1,154.4 661.9,155.9 663.8,157.6 665.7,159.2 667.5,160.9 669.4,162.7 671.3,164.5 673.2,166.3
675.0,168.2 676.9,170.1 678.8,172.1 680.6,174.2 682.5,176.3 684.4,178.4 686.3,180.6 688.1,182.9 690.0,185.2 691.9,187.7 693.7,190.1 695.6,192.7 697.5,195.3 699.3,198.0 701.2,200.7 703.1,203.5
705.0,206.3 706.8,209.2 708.7,212.1 710.6,215.0 712.4,218.0 714.3,220.9 716.2,223.9 718.1,226.9 719.9,229.9 721.8,232.8 723.7,235.8 725.5,238.8 727.4,241.8 729.3,244.7 731.1,247.7 733.0,250.6
734.9,253.6 736.8,256.5 738.6,259.5 740.5,262.4 742.4,265.4 744.2,268.4 746.1,271.5 748.0,274.6 749.9,277.7 751.7,280.8 753.6,284.0 755.5,287.2 757.3,290.5 759.2,293.9 761.1,297.2 762.9,300.7
764.8,304.1 766.7,307.7 768.6,311.2 770.4,314.8 772.3,318.4 774.2,322.1 776.0,325.8 777.9,329.4 779.8,333.1 781.7,336.8 783.5,340.5 785.4,344.2 787.3,347.8 789.1,351.5 791.0,355.1 792.9,358.7
794.7,362.3 796.6,365.9 798.5,369.5 800.4,373.0 802.2,376.5 804.1,380.0 806.0,383.5 807.8,387.0 809.7,390.4 811.6,393.9 813.5,397.3 815.3,400.8 817.2,404.2 819.1,407.6 820.9,411.0 822.8,414.4
824.7,417.8 826.5,421.1 828.4,424.5 830.3,427.8 832.2,431.1 834.0,434.4 835.9,437.6 837.8,440.8 839.6,444.0 841.5,447.2 843.4,450.3 845.3,453.3 847.1,456.3 849.0,459.3 850.9,462.3 852.7,465.2
854.6,468.1 856.5,470.9 858.3,473.7 860.2,476.5 862.1,479.3 864.0,482.0 865.8,484.8 867.7,487.5 869.6,490.2 871.4,492.9 873.3,495.6 875.2,498.3 877.1,501.1 878.9,503.8 880.8,506.5 882.7,509.2
884.5,511.9 886.4,514.6 888.3,517.2 890.1,519.9 892.0,522.6 893.9,525.2 895.8,527.8 897.6,530.4 899.5,533.0 901.4,535.5 903.2,538.0 905.1,540.5 907.0,542.9 908.8,545.3 910.7,547.6 912.6,549.9
914.5,552.2 916.3,554.4 918.2,556.5 920.1,558.7 921.9,560.8 923.8,562.9 925.7,564.9 925.7,662.4 923.8,662.4 921.9,662.4 920.1,662.4 918.2,662.4 916.3,662.4 914.5,662.4 912.6,662.4 910.7,662.4
908.8,662.4 907.0,662.4 905.1,662.4 903.2,662.4 901.4,662.4 899.5,662.4 897.6,662.4 895.8,662.4 893.9,662.4 892.0,662.4 890.1,662.4 888.3,662.4 886.4,662.4 884.5,662.4 882.7,662.4 880.8,662.4
878.9,662.4 877.1,662.4 875.2,662.4 873.3,662.4 871.4,662.4 869.6,662.4 867.7,662.4 865.8,662.4 864.0,662.4 862.1,662.4 860.2,662.4 858.3,662.4 856.5,662.4 854.6,662.4 852.7,662.4 850.9,662.4
849.0,662.4 847.1,662.4 845.3,662.4 843.4,662.4 841.5,662.4 839.6,662.4 837.8,662.4 835.9,662.4 834.0,662.4 832.2,662.4 830.3,662.4 828.4,662.4 826.5,662.4 824.7,662.4 822.8,662.4 820.9,662.4
819.1,662.4 817.2,662.4 815.3,662.4 813.5,662.4 811.6,662.4 809.7,662.4 807.8,662.4 806.0,662.4 804.1,662.4 802.2,662.4 800.4,662.4 798.5,662.4 796.6,662.4 794.7,662.4 792.9,662.4 791.0,662.4
789.1,662.4 787.3,662.4 785.4,662.4 783.5,662.4 781.7,662.4 779.8,662.4 777.9,662.4 776.0,662.4 774.2,662.4 772.3,662.4 770.4,662.4 768.6,662.4 766.7,662.4 764.8,662.4 762.9,662.4 761.1,662.4
759.2,662.4 757.3,662.4 755.5,662.4 753.6,662.4 751.7,662.4 749.9,662.4 748.0,662.4 746.1,662.4 744.2,662.4 742.4,662.4 740.5,662.4 738.6,662.4 736.8,662.4 734.9,662.4 733.0,662.4 731.1,662.4
729.3,662.4 727.4,662.4 725.5,662.4 723.7,662.4 721.8,662.4 719.9,662.4 718.1,662.4 716.2,662.4 714.3,662.4 712.4,662.4 710.6,662.4 708.7,662.4 706.8,662.4 705.0,662.4 703.1,662.4 701.2,662.4
699.3,662.4 697.5,662.4 695.6,662.4 693.7,662.4 691.9,662.4 690.0,662.4 688.1,662.4 686.3,662.4 684.4,662.4 682.5,662.4 680.6,662.4 678.8,662.4 676.9,662.4 675.0,662.4 673.2,662.4 671.3,662.4
669.4,662.4 667.5,662.4 665.7,662.4 663.8,662.4 661.9,662.4 660.1,662.4 658.2,662.4 656.3,662.4 654.5,662.4 652.6,662.4 650.7,662.4 648.8,662.4 647.0,662.4 645.1,662.4 643.2,662.4 641.4,662.4
639.5,662.4 637.6,662.4 635.8,662.4 633.9,662.4 632.0,662.4 630.1,662.4 628.3,662.4 626.4,662.4 624.5,662.4 622.7,662.4 620.8,662.4 618.9,662.4 617.0,662.4 615.2,662.4 613.3,662.4 611.4,662.4
609.6,662.4 607.7,662.4 605.8,662.4 604.0,662.4 602.1,662.4 600.2,662.4 598.3,662.4 596.5,662.4 594.6,662.4 592.7,662.4 590.9,662.4 589.0,662.4 587.1,662.4 585.2,662.4 583.4,662.4 581.5,662.4
579.6,662.4 577.8,662.4 575.9,662.4 574.0,662.4 572.2,662.4 570.3,662.4 568.4,662.4 566.5,662.4 564.7,662.4 562.8,662.4 560.9,662.4 559.1,662.4 557.2,662.4 555.3,662.4 553.4,662.4 551.6,662.4
549.7,662.4 547.8,662.4 546.0,662.4 544.1,662.4 542.2,662.4 540.4,662.4 538.5,662.4 536.6,662.4 534.7,662.4 532.9,662.4 531.0,662.4 529.1,662.4 527.3,662.4 525.4,662.4 523.5,662.4 521.6,662.4
519.8,662.4 517.9,662.4 516.0,662.4 514.2,662.4 512.3,662.4 510.4,662.4 508.6,662.4 506.7,662.4 504.8,662.4 502.9,662.4 501.1,662.4 499.2,662.4 497.3,662.4 495.5,662.4 493.6,662.4 491.7,662.4
489.8,662.4 488.0,662.4 486.1,662.4 484.2,662.4 482.4,662.4 480.5,662.4 478.6,662.4 476.8,662.4 474.9,662.4 473.0,662.4 471.1,662.4 469.3,662.4 467.4,662.4 465.5,662.4 463.7,662.4 461.8,662.4
459.9,662.4 458.0,662.4 456.2,662.4 454.3,662.4 452.4,662.4 450.6,662.4 448.7,662.4 446.8,662.4 445.0,662.4 443.1,662.4 441.2,662.4 439.3,662.4 437.5,662.4 435.6,662.4 433.7,662.4 431.9,662.4
430.0,662.4 428.1,662.4 426.3,662.4 424.4,662.4 422.5,662.4 420.6,662.4 418.8,662.4 416.9,662.4 415.0,662.4 413.2,662.4 411.3,662.4 409.4,662.4 407.5,662.4 405.7,662.4 403.8,662.4 401.9,662.4
400.1,662.4 398.2,662.4 396.3,662.4 394.5,662.4 392.6,662.4 390.7,662.4 388.8,662.4 387.0,662.4 385.1,662.4 383.2,662.4 381.4,662.4 379.5,662.4 377.6,662.4 375.7,662.4 373.9,662.4 372.0,662.4
370.1,662.4 368.3,662.4 366.4,662.4 364.5,662.4 362.7,662.4 360.8,662.4 358.9,662.4 357.0,662.4 355.2,662.4 353.3,662.4 351.4,662.4 349.6,662.4 347.7,662.4 345.8,662.4 343.9,662.4 342.1,662.4
340.2,662.4 338.3,662.4 336.5,662.4 334.6,662.4 332.7,662.4 330.9,662.4 329.0,662.4 327.1,662.4 325.2,662.4 323.4,662.4 321.5,662.4 319.6,662.4 317.8,662.4 315.9,662.4 314.0,662.4 312.1,662.4
310.3,662.4 308.4,662.4 306.5,662.4 304.7,662.4 302.8,662.4 300.9,662.4 299.1,662.4 297.2,662.4 295.3,662.4 293.4,662.4 291.6,662.4 289.7,662.4 287.8,662.4 286.0,662.4 284.1,662.4 282.2,662.4
280.3,662.4 278.5,662.4 276.6,662.4 274.7,662.4 272.9,662.4 271.0,662.4 269.1,662.4 267.3,662.4 265.4,662.4 263.5,662.4 261.6,662.4 259.8,662.4 257.9,662.4 256.0,662.4 254.2,662.4 252.3,662.4
250.4,662.4 248.5,662.4 246.7,662.4 244.8,662.4 242.9,662.4 241.1,662.4 239.2,662.4 237.3,662.4 235.5,662.4 233.6,662.4 231.7,662.4 229.8,662.4 228.0,662.4 226.1,662.4 224.2,662.4 222.4,662.4
220.5,662.4 218.6,662.4 216.7,662.4 214.9,662.4 213.0,662.4 211.1,662.4 209.3,662.4 207.4,662.4 205.5,662.4 203.7,662.4 201.8,662.4 199.9,662.4 198.0,662.4 196.2,662.4 194.3,662.4 192.4,662.4
190.6,662.4 188.7,662.4 186.8,662.4 185.0,662.4 183.1,662.4 181.2,662.4 179.3,662.4 177.5,662.4 175.6,662.4 173.7,662.4 171.9,662.4 170.0,662.4 168.1,662.4 166.2,662.4 '/>
	</g>
</g>
	</g>
	<g id="gnuplot_plot_3" ><title>Point estimate</title>
<g fill="none" color="white" stroke="rgb( 31, 120, 180)" stroke-width="2.00" stroke-linecap="butt" stroke-linejoin="miter">
</g>
<g fill="none" color="black" stroke="currentColor" stroke-width="2.00" stroke-linecap="butt" stroke-linejoin="miter">
	<g transform="translate(1089.0,103.0)" stroke="none" fill="black" font-family="Helvetica" font-size="12.00"  text-anchor="start">
		<text><tspan font-family="Helvetica" >Point estimate</tspan></text>
	</g>
</g>
<g fill="none" color="black" stroke="currentColor" stroke-width="2.00" stroke-linecap="butt" stroke-linejoin="miter">
	<path stroke='rgb( 31, 120, 180)'  d='M1038.5,99.1 L1080.7,99.1 M599.3,662.4 L599.3,136.3  '/></g>
	</g>
<g fill="none" color="black" stroke="currentColor" stroke-width="2.00" stroke-linecap="butt" stroke-linejoin="miter">
</g>
<g fill="none" color="black" stroke="black" stroke-width="1.00" stroke-linecap="butt" stroke-linejoin="miter">
</g>
<g fill="none" color="black" stroke="currentColor" stroke-width="1.00" stroke-linecap="butt" stroke-linejoin="miter">
	<path stroke='black'  d='M80.2,54.1 L80.2,662.4 L1013.6,662.4 L1013.6,54.1 L80.2,54.1 Z  '/></g>
<g fill="none" color="black" stroke="currentColor" stroke-width="1.00" stroke-linecap="butt" stroke-linejoin="miter">
</g>
</g>
</svg>

