group,function,value,throughput_num,throughput_type,sample_measured_value,unit,iteration_count
snapshot_restore_with_dense,Sparse: Entire region + /proc/pid/mem,46,,,1315645.0,ns,3
snapshot_restore_with_dense,Sparse: Entire region + /proc/pid/mem,46,,,2571437.0,ns,6
snapshot_restore_with_dense,Sparse: Entire region + /proc/pid/mem,46,,,3838217.0,ns,9
snapshot_restore_with_dense,Sparse: Entire region + /proc/pid/mem,46,,,5221365.0,ns,12
snapshot_restore_with_dense,Sparse: Entire region + /proc/pid/mem,46,,,6398813.0,ns,15
snapshot_restore_with_dense,Sparse: Entire region + /proc/pid/mem,46,,,8053294.0,ns,18
snapshot_restore_with_dense,Sparse: Entire region + /proc/pid/mem,46,,,14873442.0,ns,21
snapshot_restore_with_dense,Sparse: Entire region + /proc/pid/mem,46,,,10357861.0,ns,24
snapshot_restore_with_dense,Sparse: Entire region + /proc/pid/mem,46,,,11584193.0,ns,27
snapshot_restore_with_dense,Sparse: Entire region + /proc/pid/mem,46,,,12764932.0,ns,30
snapshot_restore_with_dense,Sparse: Entire region + /proc/pid/mem,46,,,14013356.0,ns,33
snapshot_restore_with_dense,Sparse: Entire region + /proc/pid/mem,46,,,15299823.0,ns,36
snapshot_restore_with_dense,Sparse: Entire region + /proc/pid/mem,46,,,16726173.0,ns,39
snapshot_restore_with_dense,Sparse: Entire region + /proc/pid/mem,46,,,17855323.0,ns,42
snapshot_restore_with_dense,Sparse: Entire region + /proc/pid/mem,46,,,19179105.0,ns,45
snapshot_restore_with_dense,Sparse: Entire region + /proc/pid/mem,46,,,20401825.0,ns,48
snapshot_restore_with_dense,Sparse: Entire region + /proc/pid/mem,46,,,21710927.0,ns,51
snapshot_restore_with_dense,Sparse: Entire region + /proc/pid/mem,46,,,22973758.0,ns,54
snapshot_restore_with_dense,Sparse: Entire region + /proc/pid/mem,46,,,24216105.0,ns,57
snapshot_restore_with_dense,Sparse: Entire region + /proc/pid/mem,46,,,25574373.0,ns,60
snapshot_restore_with_dense,Sparse: Entire region + /proc/pid/mem,46,,,26781391.0,ns,63
snapshot_restore_with_dense,Sparse: Entire region + /proc/pid/mem,46,,,28023317.0,ns,66
snapshot_restore_with_dense,Sparse: Entire region + /proc/pid/mem,46,,,29325080.0,ns,69
snapshot_restore_with_dense,Sparse: Entire region + /proc/pid/mem,46,,,30651367.0,ns,72
snapshot_restore_with_dense,Sparse: Entire region + /proc/pid/mem,46,,,36891770.0,ns,75
snapshot_restore_with_dense,Sparse: Entire region + /proc/pid/mem,46,,,34201439.0,ns,78
snapshot_restore_with_dense,Sparse: Entire region + /proc/pid/mem,46,,,34896035.0,ns,81
snapshot_restore_with_dense,Sparse: Entire region + /proc/pid/mem,46,,,36138516.0,ns,84
snapshot_restore_with_dense,Sparse: Entire region + /proc/pid/mem,46,,,37086185.0,ns,87
snapshot_restore_with_dense,Sparse: Entire region + /proc/pid/mem,46,,,38379749.0,ns,90
snapshot_restore_with_dense,Sparse: Entire region + /proc/pid/mem,46,,,39510131.0,ns,93
snapshot_restore_with_dense,Sparse: Entire region + /proc/pid/mem,46,,,40911421.0,ns,96
snapshot_restore_with_dense,Sparse: Entire region + /proc/pid/mem,46,,,42191100.0,ns,99
snapshot_restore_with_dense,Sparse: Entire region + /proc/pid/mem,46,,,43418470.0,ns,102
snapshot_restore_with_dense,Sparse: Entire region + /proc/pid/mem,46,,,44621117.0,ns,105
snapshot_restore_with_dense,Sparse: Entire region + /proc/pid/mem,46,,,45884876.0,ns,108
snapshot_restore_with_dense,Sparse: Entire region + /proc/pid/mem,46,,,47239675.0,ns,111
snapshot_restore_with_dense,Sparse: Entire region + /proc/pid/mem,46,,,48471676.0,ns,114
snapshot_restore_with_dense,Sparse: Entire region + /proc/pid/mem,46,,,49730598.0,ns,117
snapshot_restore_with_dense,Sparse: Entire region + /proc/pid/mem,46,,,51121937.0,ns,120
snapshot_restore_with_dense,Sparse: Entire region + /proc/pid/mem,46,,,52331137.0,ns,123
snapshot_restore_with_dense,Sparse: Entire region + /proc/pid/mem,46,,,53597255.0,ns,126
snapshot_restore_with_dense,Sparse: Entire region + /proc/pid/mem,46,,,54888435.0,ns,129
snapshot_restore_with_dense,Sparse: Entire region + /proc/pid/mem,46,,,56091228.0,ns,132
snapshot_restore_with_dense,Sparse: Entire region + /proc/pid/mem,46,,,57452443.0,ns,135
snapshot_restore_with_dense,Sparse: Entire region + /proc/pid/mem,46,,,58689037.0,ns,138
snapshot_restore_with_dense,Sparse: Entire region + /proc/pid/mem,46,,,60058996.0,ns,141
snapshot_restore_with_dense,Sparse: Entire region + /proc/pid/mem,46,,,61600076.0,ns,144
snapshot_restore_with_dense,Sparse: Entire region + /proc/pid/mem,46,,,62498840.0,ns,147
snapshot_restore_with_dense,Sparse: Entire region + /proc/pid/mem,46,,,63845039.0,ns,150
snapshot_restore_with_dense,Sparse: Entire region + /proc/pid/mem,46,,,65104730.0,ns,153
snapshot_restore_with_dense,Sparse: Entire region + /proc/pid/mem,46,,,66292893.0,ns,156
snapshot_restore_with_dense,Sparse: Entire region + /proc/pid/mem,46,,,67635626.0,ns,159
snapshot_restore_with_dense,Sparse: Entire region + /proc/pid/mem,46,,,69169350.0,ns,162
snapshot_restore_with_dense,Sparse: Entire region + /proc/pid/mem,46,,,70120403.0,ns,165
snapshot_restore_with_dense,Sparse: Entire region + /proc/pid/mem,46,,,71566683.0,ns,168
snapshot_restore_with_dense,Sparse: Entire region + /proc/pid/mem,46,,,72740074.0,ns,171
snapshot_restore_with_dense,Sparse: Entire region + /proc/pid/mem,46,,,74049004.0,ns,174
snapshot_restore_with_dense,Sparse: Entire region + /proc/pid/mem,46,,,75349266.0,ns,177
snapshot_restore_with_dense,Sparse: Entire region + /proc/pid/mem,46,,,76602007.0,ns,180
snapshot_restore_with_dense,Sparse: Entire region + /proc/pid/mem,46,,,77934671.0,ns,183
snapshot_restore_with_dense,Sparse: Entire region + /proc/pid/mem,46,,,79154124.0,ns,186
snapshot_restore_with_dense,Sparse: Entire region + /proc/pid/mem,46,,,80721655.0,ns,189
snapshot_restore_with_dense,Sparse: Entire region + /proc/pid/mem,46,,,81766806.0,ns,192
snapshot_restore_with_dense,Sparse: Entire region + /proc/pid/mem,46,,,83048189.0,ns,195
snapshot_restore_with_dense,Sparse: Entire region + /proc/pid/mem,46,,,84287998.0,ns,198
snapshot_restore_with_dense,Sparse: Entire region + /proc/pid/mem,46,,,85479152.0,ns,201
snapshot_restore_with_dense,Sparse: Entire region + /proc/pid/mem,46,,,86862231.0,ns,204
snapshot_restore_with_dense,Sparse: Entire region + /proc/pid/mem,46,,,88155313.0,ns,207
snapshot_restore_with_dense,Sparse: Entire region + /proc/pid/mem,46,,,89374106.0,ns,210
snapshot_restore_with_dense,Sparse: Entire region + /proc/pid/mem,46,,,90624589.0,ns,213
snapshot_restore_with_dense,Sparse: Entire region + /proc/pid/mem,46,,,92174523.0,ns,216
snapshot_restore_with_dense,Sparse: Entire region + /proc/pid/mem,46,,,93202445.0,ns,219
snapshot_restore_with_dense,Sparse: Entire region + /proc/pid/mem,46,,,94587798.0,ns,222
snapshot_restore_with_dense,Sparse: Entire region + /proc/pid/mem,46,,,95733063.0,ns,225
snapshot_restore_with_dense,Sparse: Entire region + /proc/pid/mem,46,,,96985507.0,ns,228
snapshot_restore_with_dense,Sparse: Entire region + /proc/pid/mem,46,,,98416892.0,ns,231
snapshot_restore_with_dense,Sparse: Entire region + /proc/pid/mem,46,,,99622989.0,ns,234
snapshot_restore_with_dense,Sparse: Entire region + /proc/pid/mem,46,,,100826495.0,ns,237
snapshot_restore_with_dense,Sparse: Entire region + /proc/pid/mem,46,,,102155029.0,ns,240
snapshot_restore_with_dense,Sparse: Entire region + /proc/pid/mem,46,,,103585664.0,ns,243
snapshot_restore_with_dense,Sparse: Entire region + /proc/pid/mem,46,,,104835264.0,ns,246
snapshot_restore_with_dense,Sparse: Entire region + /proc/pid/mem,46,,,105964245.0,ns,249
snapshot_restore_with_dense,Sparse: Entire region + /proc/pid/mem,46,,,107730321.0,ns,252
snapshot_restore_with_dense,Sparse: Entire region + /proc/pid/mem,46,,,108510292.0,ns,255
snapshot_restore_with_dense,Sparse: Entire region + /proc/pid/mem,46,,,110080093.0,ns,258
snapshot_restore_with_dense,Sparse: Entire region + /proc/pid/mem,46,,,110998289.0,ns,261
snapshot_restore_with_dense,Sparse: Entire region + /proc/pid/mem,46,,,112347929.0,ns,264
snapshot_restore_with_dense,Sparse: Entire region + /proc/pid/mem,46,,,113733341.0,ns,267
snapshot_restore_with_dense,Sparse: Entire region + /proc/pid/mem,46,,,114810712.0,ns,270
snapshot_restore_with_dense,Sparse: Entire region + /proc/pid/mem,46,,,116191605.0,ns,273
snapshot_restore_with_dense,Sparse: Entire region + /proc/pid/mem,46,,,117429701.0,ns,276
snapshot_restore_with_dense,Sparse: Entire region + /proc/pid/mem,46,,,118773516.0,ns,279
snapshot_restore_with_dense,Sparse: Entire region + /proc/pid/mem,46,,,120036609.0,ns,282
snapshot_restore_with_dense,Sparse: Entire region + /proc/pid/mem,46,,,121300173.0,ns,285
snapshot_restore_with_dense,Sparse: Entire region + /proc/pid/mem,46,,,122592486.0,ns,288
snapshot_restore_with_dense,Sparse: Entire region + /proc/pid/mem,46,,,123750939.0,ns,291
snapshot_restore_with_dense,Sparse: Entire region + /proc/pid/mem,46,,,125151443.0,ns,294
snapshot_restore_with_dense,Sparse: Entire region + /proc/pid/mem,46,,,126304771.0,ns,297
snapshot_restore_with_dense,Sparse: Entire region + /proc/pid/mem,46,,,127631946.0,ns,300
