<?xml version="1.0" encoding="utf-8"  standalone="no"?>
<svg 
 viewBox="0 0 1280 720"
 xmlns="http://www.w3.org/2000/svg"
 xmlns:xlink="http://www.w3.org/1999/xlink"
>

<title>Gnuplot</title>
<desc>Produced by GNUPLOT 5.2 patchlevel 6 </desc>

<g id="gnuplot_canvas">

<rect x="0" y="0" width="1280" height="720" fill="none"/>
<defs>

	<circle id='gpDot' r='0.5' stroke-width='0.5' stroke='currentColor'/>
	<path id='gpPt0' stroke-width='0.222' stroke='currentColor' d='M-1,0 h2 M0,-1 v2'/>
	<path id='gpPt1' stroke-width='0.222' stroke='currentColor' d='M-1,-1 L1,1 M1,-1 L-1,1'/>
	<path id='gpPt2' stroke-width='0.222' stroke='currentColor' d='M-1,0 L1,0 M0,-1 L0,1 M-1,-1 L1,1 M-1,1 L1,-1'/>
	<rect id='gpPt3' stroke-width='0.222' stroke='currentColor' x='-1' y='-1' width='2' height='2'/>
	<rect id='gpPt4' stroke-width='0.222' stroke='currentColor' fill='currentColor' x='-1' y='-1' width='2' height='2'/>
	<circle id='gpPt5' stroke-width='0.222' stroke='currentColor' cx='0' cy='0' r='1'/>
	<use xlink:href='#gpPt5' id='gpPt6' fill='currentColor' stroke='none'/>
	<path id='gpPt7' stroke-width='0.222' stroke='currentColor' d='M0,-1.33 L-1.33,0.67 L1.33,0.67 z'/>
	<use xlink:href='#gpPt7' id='gpPt8' fill='currentColor' stroke='none'/>
	<use xlink:href='#gpPt7' id='gpPt9' stroke='currentColor' transform='rotate(180)'/>
	<use xlink:href='#gpPt9' id='gpPt10' fill='currentColor' stroke='none'/>
	<use xlink:href='#gpPt3' id='gpPt11' stroke='currentColor' transform='rotate(45)'/>
	<use xlink:href='#gpPt11' id='gpPt12' fill='currentColor' stroke='none'/>
	<path id='gpPt13' stroke-width='0.222' stroke='currentColor' d='M0,1.330 L1.265,0.411 L0.782,-1.067 L-0.782,-1.076 L-1.265,0.411 z'/>
	<use xlink:href='#gpPt13' id='gpPt14' fill='currentColor' stroke='none'/>
	<filter id='textbox' filterUnits='objectBoundingBox' x='0' y='0' height='1' width='1'>
	  <feFlood flood-color='white' flood-opacity='1' result='bgnd'/>
	  <feComposite in='SourceGraphic' in2='bgnd' operator='atop'/>
	</filter>
	<filter id='greybox' filterUnits='objectBoundingBox' x='0' y='0' height='1' width='1'>
	  <feFlood flood-color='lightgrey' flood-opacity='1' result='grey'/>
	  <feComposite in='SourceGraphic' in2='grey' operator='atop'/>
	</filter>
</defs>
<g fill="none" color="white" stroke="currentColor" stroke-width="1.00" stroke-linecap="butt" stroke-linejoin="miter">
</g>
<g fill="none" color="black" stroke="currentColor" stroke-width="1.00" stroke-linecap="butt" stroke-linejoin="miter">
	<path stroke='black'  d='M55.3,662.4 L64.3,662.4  '/>	<g transform="translate(47.0,666.3)" stroke="none" fill="black" font-family="Helvetica" font-size="12.00"  text-anchor="end">
		<text><tspan font-family="Helvetica" > 0</tspan></text>
	</g>
</g>
<g fill="none" color="black" stroke="currentColor" stroke-width="1.00" stroke-linecap="butt" stroke-linejoin="miter">
	<path stroke='black'  d='M55.3,586.4 L64.3,586.4  '/>	<g transform="translate(47.0,590.3)" stroke="none" fill="black" font-family="Helvetica" font-size="12.00"  text-anchor="end">
		<text><tspan font-family="Helvetica" > 1</tspan></text>
	</g>
</g>
<g fill="none" color="black" stroke="currentColor" stroke-width="1.00" stroke-linecap="butt" stroke-linejoin="miter">
	<path stroke='black'  d='M55.3,510.3 L64.3,510.3  '/>	<g transform="translate(47.0,514.2)" stroke="none" fill="black" font-family="Helvetica" font-size="12.00"  text-anchor="end">
		<text><tspan font-family="Helvetica" > 2</tspan></text>
	</g>
</g>
<g fill="none" color="black" stroke="currentColor" stroke-width="1.00" stroke-linecap="butt" stroke-linejoin="miter">
	<path stroke='black'  d='M55.3,434.3 L64.3,434.3  '/>	<g transform="translate(47.0,438.2)" stroke="none" fill="black" font-family="Helvetica" font-size="12.00"  text-anchor="end">
		<text><tspan font-family="Helvetica" > 3</tspan></text>
	</g>
</g>
<g fill="none" color="black" stroke="currentColor" stroke-width="1.00" stroke-linecap="butt" stroke-linejoin="miter">
	<path stroke='black'  d='M55.3,358.2 L64.3,358.2  '/>	<g transform="translate(47.0,362.1)" stroke="none" fill="black" font-family="Helvetica" font-size="12.00"  text-anchor="end">
		<text><tspan font-family="Helvetica" > 4</tspan></text>
	</g>
</g>
<g fill="none" color="black" stroke="currentColor" stroke-width="1.00" stroke-linecap="butt" stroke-linejoin="miter">
	<path stroke='black'  d='M55.3,282.2 L64.3,282.2  '/>	<g transform="translate(47.0,286.1)" stroke="none" fill="black" font-family="Helvetica" font-size="12.00"  text-anchor="end">
		<text><tspan font-family="Helvetica" > 5</tspan></text>
	</g>
</g>
<g fill="none" color="black" stroke="currentColor" stroke-width="1.00" stroke-linecap="butt" stroke-linejoin="miter">
	<path stroke='black'  d='M55.3,206.2 L64.3,206.2  '/>	<g transform="translate(47.0,210.1)" stroke="none" fill="black" font-family="Helvetica" font-size="12.00"  text-anchor="end">
		<text><tspan font-family="Helvetica" > 6</tspan></text>
	</g>
</g>
<g fill="none" color="black" stroke="currentColor" stroke-width="1.00" stroke-linecap="butt" stroke-linejoin="miter">
	<path stroke='black'  d='M55.3,130.1 L64.3,130.1  '/>	<g transform="translate(47.0,134.0)" stroke="none" fill="black" font-family="Helvetica" font-size="12.00"  text-anchor="end">
		<text><tspan font-family="Helvetica" > 7</tspan></text>
	</g>
</g>
<g fill="none" color="black" stroke="currentColor" stroke-width="1.00" stroke-linecap="butt" stroke-linejoin="miter">
	<path stroke='black'  d='M55.3,54.1 L64.3,54.1  '/>	<g transform="translate(47.0,58.0)" stroke="none" fill="black" font-family="Helvetica" font-size="12.00"  text-anchor="end">
		<text><tspan font-family="Helvetica" > 8</tspan></text>
	</g>
</g>
<g fill="none" color="black" stroke="currentColor" stroke-width="1.00" stroke-linecap="butt" stroke-linejoin="miter">
	<path stroke='black'  d='M144.1,662.4 L144.1,653.4  '/>	<g transform="translate(144.1,684.3)" stroke="none" fill="black" font-family="Helvetica" font-size="12.00"  text-anchor="middle">
		<text><tspan font-family="Helvetica" > 23.6</tspan></text>
	</g>
</g>
<g fill="none" color="black" stroke="currentColor" stroke-width="1.00" stroke-linecap="butt" stroke-linejoin="miter">
	<path stroke='black'  d='M294.3,662.4 L294.3,653.4  '/>	<g transform="translate(294.3,684.3)" stroke="none" fill="black" font-family="Helvetica" font-size="12.00"  text-anchor="middle">
		<text><tspan font-family="Helvetica" > 23.65</tspan></text>
	</g>
</g>
<g fill="none" color="black" stroke="currentColor" stroke-width="1.00" stroke-linecap="butt" stroke-linejoin="miter">
	<path stroke='black'  d='M444.5,662.4 L444.5,653.4  '/>	<g transform="translate(444.5,684.3)" stroke="none" fill="black" font-family="Helvetica" font-size="12.00"  text-anchor="middle">
		<text><tspan font-family="Helvetica" > 23.7</tspan></text>
	</g>
</g>
<g fill="none" color="black" stroke="currentColor" stroke-width="1.00" stroke-linecap="butt" stroke-linejoin="miter">
	<path stroke='black'  d='M594.7,662.4 L594.7,653.4  '/>	<g transform="translate(594.7,684.3)" stroke="none" fill="black" font-family="Helvetica" font-size="12.00"  text-anchor="middle">
		<text><tspan font-family="Helvetica" > 23.75</tspan></text>
	</g>
</g>
<g fill="none" color="black" stroke="currentColor" stroke-width="1.00" stroke-linecap="butt" stroke-linejoin="miter">
	<path stroke='black'  d='M744.9,662.4 L744.9,653.4  '/>	<g transform="translate(744.9,684.3)" stroke="none" fill="black" font-family="Helvetica" font-size="12.00"  text-anchor="middle">
		<text><tspan font-family="Helvetica" > 23.8</tspan></text>
	</g>
</g>
<g fill="none" color="black" stroke="currentColor" stroke-width="1.00" stroke-linecap="butt" stroke-linejoin="miter">
	<path stroke='black'  d='M895.1,662.4 L895.1,653.4  '/>	<g transform="translate(895.1,684.3)" stroke="none" fill="black" font-family="Helvetica" font-size="12.00"  text-anchor="middle">
		<text><tspan font-family="Helvetica" > 23.85</tspan></text>
	</g>
</g>
<g fill="none" color="black" stroke="currentColor" stroke-width="1.00" stroke-linecap="butt" stroke-linejoin="miter">
</g>
<g fill="none" color="black" stroke="currentColor" stroke-width="1.00" stroke-linecap="butt" stroke-linejoin="miter">
	<path stroke='black'  d='M55.3,54.1 L55.3,662.4 L1013.6,662.4 L1013.6,54.1 L55.3,54.1 Z  '/></g>
<g fill="none" color="black" stroke="currentColor" stroke-width="1.00" stroke-linecap="butt" stroke-linejoin="miter">
	<g transform="translate(16.3,358.3) rotate(270)" stroke="none" fill="black" font-family="Helvetica" font-size="12.00"  text-anchor="middle">
		<text><tspan font-family="Helvetica" >Density (a.u.)</tspan></text>
	</g>
</g>
<g fill="none" color="black" stroke="currentColor" stroke-width="1.00" stroke-linecap="butt" stroke-linejoin="miter">
	<g transform="translate(534.4,711.3)" stroke="none" fill="black" font-family="Helvetica" font-size="12.00"  text-anchor="middle">
		<text><tspan font-family="Helvetica" >Average time (us)</tspan></text>
	</g>
</g>
<g fill="none" color="black" stroke="currentColor" stroke-width="1.00" stroke-linecap="butt" stroke-linejoin="miter">
	<g transform="translate(534.4,31.0)" stroke="none" fill="black" font-family="Helvetica" font-size="12.00"  text-anchor="middle">
		<text><tspan font-family="Helvetica" >snapshot_restore_with_dense/Dense: Dirty pages + process_vm_writev/100: slope</tspan></text>
	</g>
</g>
	<g id="gnuplot_plot_1" ><title>Bootstrap distribution</title>
<g fill="none" color="white" stroke="black" stroke-width="2.00" stroke-linecap="butt" stroke-linejoin="miter">
</g>
<g fill="none" color="black" stroke="currentColor" stroke-width="2.00" stroke-linecap="butt" stroke-linejoin="miter">
	<g transform="translate(1089.0,67.0)" stroke="none" fill="black" font-family="Helvetica" font-size="12.00"  text-anchor="start">
		<text><tspan font-family="Helvetica" >Bootstrap distribution</tspan></text>
	</g>
</g>
<g fill="none" color="black" stroke="currentColor" stroke-width="2.00" stroke-linecap="butt" stroke-linejoin="miter">
	<path stroke='rgb( 31, 120, 180)'  d='M1038.5,63.1 L1080.7,63.1 M55.3,657.9 L57.2,657.2 L59.1,656.4 L61.1,655.6 L63.0,654.7 L64.9,653.6
		L66.8,652.4 L68.7,651.1 L70.7,649.7 L72.6,648.1 L74.5,646.3 L76.4,644.3 L78.3,642.2 L80.3,639.8
		L82.2,637.2 L84.1,634.3 L86.0,631.2 L87.9,627.9 L89.9,624.2 L91.8,620.3 L93.7,616.0 L95.6,611.4
		L97.5,606.5 L99.5,601.2 L101.4,595.6 L103.3,589.6 L105.2,583.2 L107.2,576.4 L109.1,569.2 L111.0,561.6
		L112.9,553.6 L114.8,545.2 L116.8,536.4 L118.7,527.2 L120.6,517.6 L122.5,507.5 L124.4,497.1 L126.4,486.3
		L128.3,475.1 L130.2,463.6 L132.1,451.7 L134.0,439.6 L136.0,427.1 L137.9,414.4 L139.8,401.5 L141.7,388.3
		L143.6,375.0 L145.6,361.6 L147.5,348.0 L149.4,334.4 L151.3,320.8 L153.2,307.2 L155.2,293.6 L157.1,280.2
		L159.0,266.8 L160.9,253.7 L162.8,240.8 L164.8,228.1 L166.7,215.7 L168.6,203.6 L170.5,191.9 L172.4,180.6
		L174.4,169.7 L176.3,159.3 L178.2,149.4 L180.1,140.0 L182.0,131.1 L184.0,122.8 L185.9,115.1 L187.8,108.0
		L189.7,101.5 L191.7,95.7 L193.6,90.5 L195.5,86.0 L197.4,82.2 L199.3,79.1 L201.3,76.6 L203.2,74.9
		L205.1,73.8 L207.0,73.4 L208.9,73.7 L210.9,74.6 L212.8,76.2 L214.7,78.5 L216.6,81.4 L218.5,84.9
		L220.5,89.0 L222.4,93.6 L224.3,98.8 L226.2,104.5 L228.1,110.7 L230.1,117.4 L232.0,124.5 L233.9,132.0
		L235.8,139.9 L237.7,148.1 L239.7,156.7 L241.6,165.5 L243.5,174.5 L245.4,183.8 L247.3,193.3 L249.3,202.9
		L251.2,212.6 L253.1,222.4 L255.0,232.3 L256.9,242.2 L258.9,252.1 L260.8,262.0 L262.7,271.8 L264.6,281.5
		L266.5,291.0 L268.5,300.5 L270.4,309.7 L272.3,318.7 L274.2,327.5 L276.2,336.0 L278.1,344.3 L280.0,352.2
		L281.9,359.8 L283.8,367.0 L285.8,373.8 L287.7,380.3 L289.6,386.3 L291.5,391.9 L293.4,397.0 L295.4,401.7
		L297.3,405.9 L299.2,409.6 L301.1,412.8 L303.0,415.6 L305.0,417.8 L306.9,419.6 L308.8,420.8 L310.7,421.5
		L312.6,421.8 L314.6,421.5 L316.5,420.7 L318.4,419.5 L320.3,417.7 L322.2,415.5 L324.2,412.8 L326.1,409.7
		L328.0,406.1 L329.9,402.0 L331.8,397.5 L333.8,392.7 L335.7,387.4 L337.6,381.7 L339.5,375.7 L341.4,369.3
		L343.4,362.6 L345.3,355.6 L347.2,348.4 L349.1,340.9 L351.0,333.1 L353.0,325.2 L354.9,317.1 L356.8,308.8
		L358.7,300.4 L360.7,292.0 L362.6,283.4 L364.5,274.9 L366.4,266.3 L368.3,257.8 L370.3,249.3 L372.2,240.9
		L374.1,232.6 L376.0,224.4 L377.9,216.4 L379.9,208.6 L381.8,201.0 L383.7,193.6 L385.6,186.6 L387.5,179.8
		L389.5,173.3 L391.4,167.2 L393.3,161.4 L395.2,156.0 L397.1,151.0 L399.1,146.4 L401.0,142.2 L402.9,138.5
		L404.8,135.2 L406.7,132.3 L408.7,130.0 L410.6,128.0 L412.5,126.6 L414.4,125.6 L416.3,125.0 L418.3,124.9
		L420.2,125.3 L422.1,126.1 L424.0,127.4 L425.9,129.1 L427.9,131.3 L429.8,133.8 L431.7,136.8 L433.6,140.1
		L435.5,143.9 L437.5,148.0 L439.4,152.5 L441.3,157.3 L443.2,162.4 L445.1,167.9 L447.1,173.6 L449.0,179.6
		L450.9,185.9 L452.8,192.4 L454.8,199.1 L456.7,206.0 L458.6,213.1 L460.5,220.3 L462.4,227.6 L464.4,235.1
		L466.3,242.6 L468.2,250.2 L470.1,257.8 L472.0,265.4 L474.0,273.0 L475.9,280.6 L477.8,288.2 L479.7,295.6
		L481.6,303.0 L483.6,310.3 L485.5,317.5 L487.4,324.6 L489.3,331.5 L491.2,338.2 L493.2,344.8 L495.1,351.2
		L497.0,357.4 L498.9,363.4 L500.8,369.2 L502.8,374.7 L504.7,380.1 L506.6,385.2 L508.5,390.2 L510.4,394.8
		L512.4,399.3 L514.3,403.5 L516.2,407.5 L518.1,411.2 L520.0,414.8 L522.0,418.1 L523.9,421.1 L525.8,424.0
		L527.7,426.6 L529.6,429.0 L531.6,431.2 L533.5,433.1 L535.4,434.9 L537.3,436.4 L539.3,437.8 L541.2,439.0
		L543.1,439.9 L545.0,440.7 L546.9,441.3 L548.9,441.7 L550.8,442.0 L552.7,442.1 L554.6,442.0 L556.5,441.8
		L558.5,441.5 L560.4,441.0 L562.3,440.4 L564.2,439.8 L566.1,439.0 L568.1,438.1 L570.0,437.2 L571.9,436.2
		L573.8,435.2 L575.7,434.2 L577.7,433.1 L579.6,432.0 L581.5,431.0 L583.4,429.9 L585.3,428.9 L587.3,427.9
		L589.2,427.0 L591.1,426.2 L593.0,425.4 L594.9,424.6 L596.9,424.0 L598.8,423.4 L600.7,422.9 L602.6,422.5
		L604.5,422.1 L606.5,421.9 L608.4,421.7 L610.3,421.7 L612.2,421.7 L614.1,421.8 L616.1,421.9 L618.0,422.2
		L619.9,422.6 L621.8,423.0 L623.8,423.5 L625.7,424.2 L627.6,424.9 L629.5,425.7 L631.4,426.6 L633.4,427.6
		L635.3,428.7 L637.2,430.0 L639.1,431.3 L641.0,432.7 L643.0,434.2 L644.9,435.9 L646.8,437.6 L648.7,439.4
		L650.6,441.4 L652.6,443.4 L654.5,445.5 L656.4,447.6 L658.3,449.9 L660.2,452.2 L662.2,454.6 L664.1,457.0
		L666.0,459.4 L667.9,461.9 L669.8,464.5 L671.8,467.0 L673.7,469.6 L675.6,472.2 L677.5,474.8 L679.4,477.5
		L681.4,480.1 L683.3,482.7 L685.2,485.3 L687.1,488.0 L689.0,490.6 L691.0,493.2 L692.9,495.8 L694.8,498.4
		L696.7,500.9 L698.6,503.5 L700.6,506.0 L702.5,508.5 L704.4,511.0 L706.3,513.4 L708.2,515.8 L710.2,518.2
		L712.1,520.5 L714.0,522.8 L715.9,525.0 L717.9,527.2 L719.8,529.4 L721.7,531.5 L723.6,533.6 L725.5,535.7
		L727.5,537.7 L729.4,539.7 L731.3,541.6 L733.2,543.5 L735.1,545.3 L737.1,547.1 L739.0,548.8 L740.9,550.5
		L742.8,552.2 L744.7,553.8 L746.7,555.4 L748.6,556.9 L750.5,558.4 L752.4,559.8 L754.3,561.2 L756.3,562.5
		L758.2,563.8 L760.1,565.0 L762.0,566.2 L763.9,567.3 L765.9,568.4 L767.8,569.4 L769.7,570.4 L771.6,571.3
		L773.5,572.2 L775.5,573.1 L777.4,573.9 L779.3,574.7 L781.2,575.4 L783.1,576.1 L785.1,576.8 L787.0,577.5
		L788.9,578.1 L790.8,578.7 L792.7,579.3 L794.7,579.8 L796.6,580.4 L798.5,580.9 L800.4,581.5 L802.4,582.0
		L804.3,582.5 L806.2,583.0 L808.1,583.5 L810.0,584.0 L812.0,584.5 L813.9,585.0 L815.8,585.5 L817.7,586.0
		L819.6,586.4 L821.6,586.9 L823.5,587.4 L825.4,587.9 L827.3,588.4 L829.2,588.9 L831.2,589.4 L833.1,589.9
		L835.0,590.4 L836.9,590.9 L838.8,591.4 L840.8,591.9 L842.7,592.4 L844.6,592.9 L846.5,593.4 L848.4,593.9
		L850.4,594.4 L852.3,594.9 L854.2,595.4 L856.1,595.9 L858.0,596.4 L860.0,596.9 L861.9,597.4 L863.8,597.9
		L865.7,598.4 L867.6,599.0 L869.6,599.5 L871.5,600.0 L873.4,600.6 L875.3,601.2 L877.2,601.8 L879.2,602.4
		L881.1,603.1 L883.0,603.7 L884.9,604.4 L886.9,605.1 L888.8,605.8 L890.7,606.5 L892.6,607.3 L894.5,608.0
		L896.5,608.8 L898.4,609.6 L900.3,610.3 L902.2,611.1 L904.1,611.9 L906.1,612.7 L908.0,613.4 L909.9,614.2
		L911.8,614.9 L913.7,615.6 L915.7,616.3 L917.6,617.0 L919.5,617.7 L921.4,618.3 L923.3,619.0 L925.3,619.6
		L927.2,620.2 L929.1,620.8 L931.0,621.3 L932.9,621.9 L934.9,622.4 L936.8,623.0 L938.7,623.5 L940.6,624.0
		L942.5,624.5 L944.5,625.0 L946.4,625.5 L948.3,626.0 L950.2,626.4 L952.1,626.9 L954.1,627.4 L956.0,627.9
		L957.9,628.4 L959.8,628.8 L961.7,629.3 L963.7,629.8 L965.6,630.3 L967.5,630.7 L969.4,631.2 L971.4,631.7
		L973.3,632.2 L975.2,632.6 L977.1,633.1 L979.0,633.6 L981.0,634.0 L982.9,634.5 L984.8,634.9 L986.7,635.4
		L988.6,635.8 L990.6,636.2 L992.5,636.7 L994.4,637.1 L996.3,637.5 L998.2,637.9 L1000.2,638.3 L1002.1,638.7
		L1004.0,639.1 L1005.9,639.5 L1007.8,639.9 L1009.8,640.2 L1011.7,640.6 L1013.6,641.0  '/></g>
	</g>
	<g id="gnuplot_plot_2" ><title>Confidence interval</title>
<g fill="none" color="white" stroke="rgb( 31, 120, 180)" stroke-width="1.00" stroke-linecap="butt" stroke-linejoin="miter">
</g>
<g fill="none" color="black" stroke="currentColor" stroke-width="1.00" stroke-linecap="butt" stroke-linejoin="miter">
	<g transform="translate(1089.0,85.0)" stroke="none" fill="black" font-family="Helvetica" font-size="12.00"  text-anchor="start">
		<text><tspan font-family="Helvetica" >Confidence interval</tspan></text>
	</g>
</g>
<g fill="none" color="black" stroke="currentColor" stroke-width="1.00" stroke-linecap="butt" stroke-linejoin="miter">
	<g stroke='none' shape-rendering='crispEdges'>
		<polygon fill = 'rgb( 31, 120, 180)' fill-opacity = '0.250000' points = '1038.5,85.6 1080.7,85.6 1080.7,76.6 1038.5,76.6 '/>
		<polygon fill = 'rgb( 31, 120, 180)' fill-opacity = '0.250000' points = '143.6,375.0 145.6,361.6 147.5,348.0 149.4,334.4 151.3,320.8 153.2,307.2 155.2,293.6 157.1,280.2 159.0,266.8 160.9,253.7 162.8,240.8 164.8,228.1 166.7,215.7 168.6,203.6 170.5,191.9 172.4,180.6
174.4,169.7 176.3,159.3 178.2,149.4 180.1,140.0 182.0,131.1 184.0,122.8 185.9,115.1 187.8,108.0 189.7,101.5 191.7,95.7 193.6,90.5 195.5,86.0 197.4,82.2 199.3,79.1 201.3,76.6 203.2,74.9
205.1,73.8 207.0,73.4 208.9,73.7 210.9,74.6 212.8,76.2 214.7,78.5 216.6,81.4 218.5,84.9 220.5,89.0 222.4,93.6 224.3,98.8 226.2,104.5 228.1,110.7 230.1,117.4 232.0,124.5 233.9,132.0
235.8,139.9 237.7,148.1 239.7,156.7 241.6,165.5 243.5,174.5 245.4,183.8 247.3,193.3 249.3,202.9 251.2,212.6 253.1,222.4 255.0,232.3 256.9,242.2 258.9,252.1 260.8,262.0 262.7,271.8 264.6,281.5
266.5,291.0 268.5,300.5 270.4,309.7 272.3,318.7 274.2,327.5 276.2,336.0 278.1,344.3 280.0,352.2 281.9,359.8 283.8,367.0 285.8,373.8 287.7,380.3 289.6,386.3 291.5,391.9 293.4,397.0 295.4,401.7
297.3,405.9 299.2,409.6 301.1,412.8 303.0,415.6 305.0,417.8 306.9,419.6 308.8,420.8 310.7,421.5 312.6,421.8 314.6,421.5 316.5,420.7 318.4,419.5 320.3,417.7 322.2,415.5 324.2,412.8 326.1,409.7
328.0,406.1 329.9,402.0 331.8,397.5 333.8,392.7 335.7,387.4 337.6,381.7 339.5,375.7 341.4,369.3 343.4,362.6 345.3,355.6 347.2,348.4 349.1,340.9 351.0,333.1 353.0,325.2 354.9,317.1 356.8,308.8
358.7,300.4 360.7,292.0 362.6,283.4 364.5,274.9 366.4,266.3 368.3,257.8 370.3,249.3 372.2,240.9 374.1,232.6 376.0,224.4 377.9,216.4 379.9,208.6 381.8,201.0 383.7,193.6 385.6,186.6 387.5,179.8
389.5,173.3 391.4,167.2 393.3,161.4 395.2,156.0 397.1,151.0 399.1,146.4 401.0,142.2 402.9,138.5 404.8,135.2 406.7,132.3 408.7,130.0 410.6,128.0 412.5,126.6 414.4,125.6 416.3,125.0 418.3,124.9
420.2,125.3 422.1,126.1 424.0,127.4 425.9,129.1 427.9,131.3 429.8,133.8 431.7,136.8 433.6,140.1 435.5,143.9 437.5,148.0 439.4,152.5 441.3,157.3 443.2,162.4 445.1,167.9 447.1,173.6 449.0,179.6
450.9,185.9 452.8,192.4 454.8,199.1 456.7,206.0 458.6,213.1 460.5,220.3 462.4,227.6 464.4,235.1 466.3,242.6 468.2,250.2 470.1,257.8 472.0,265.4 474.0,273.0 475.9,280.6 477.8,288.2 479.7,295.6
481.6,303.0 483.6,310.3 485.5,317.5 487.4,324.6 489.3,331.5 491.2,338.2 493.2,344.8 495.1,351.2 497.0,357.4 498.9,363.4 500.8,369.2 502.8,374.7 504.7,380.1 506.6,385.2 508.5,390.2 510.4,394.8
512.4,399.3 514.3,403.5 516.2,407.5 518.1,411.2 520.0,414.8 522.0,418.1 523.9,421.1 525.8,424.0 527.7,426.6 529.6,429.0 531.6,431.2 533.5,433.1 535.4,434.9 537.3,436.4 539.3,437.8 541.2,439.0
543.1,439.9 545.0,440.7 546.9,441.3 548.9,441.7 550.8,442.0 552.7,442.1 554.6,442.0 556.5,441.8 558.5,441.5 560.4,441.0 562.3,440.4 564.2,439.8 566.1,439.0 568.1,438.1 570.0,437.2 571.9,436.2
573.8,435.2 575.7,434.2 577.7,433.1 579.6,432.0 581.5,431.0 583.4,429.9 585.3,428.9 587.3,427.9 589.2,427.0 591.1,426.2 593.0,425.4 594.9,424.6 596.9,424.0 598.8,423.4 600.7,422.9 602.6,422.5
604.5,422.1 606.5,421.9 608.4,421.7 610.3,421.7 612.2,421.7 614.1,421.8 616.1,421.9 618.0,422.2 619.9,422.6 621.8,423.0 623.8,423.5 625.7,424.2 627.6,424.9 629.5,425.7 631.4,426.6 633.4,427.6
635.3,428.7 637.2,430.0 639.1,431.3 641.0,432.7 643.0,434.2 644.9,435.9 646.8,437.6 648.7,439.4 650.6,441.4 652.6,443.4 654.5,445.5 656.4,447.6 658.3,449.9 660.2,452.2 662.2,454.6 664.1,457.0
666.0,459.4 667.9,461.9 669.8,464.5 671.8,467.0 673.7,469.6 675.6,472.2 677.5,474.8 679.4,477.5 681.4,480.1 683.3,482.7 685.2,485.3 687.1,488.0 689.0,490.6 691.0,493.2 692.9,495.8 694.8,498.4
696.7,500.9 698.6,503.5 700.6,506.0 702.5,508.5 704.4,511.0 706.3,513.4 708.2,515.8 710.2,518.2 712.1,520.5 714.0,522.8 715.9,525.0 717.9,527.2 719.8,529.4 721.7,531.5 723.6,533.6 725.5,535.7
727.5,537.7 729.4,539.7 731.3,541.6 733.2,543.5 735.1,545.3 737.1,547.1 739.0,548.8 740.9,550.5 742.8,552.2 744.7,553.8 746.7,555.4 748.6,556.9 750.5,558.4 752.4,559.8 754.3,561.2 756.3,562.5
758.2,563.8 760.1,565.0 762.0,566.2 763.9,567.3 765.9,568.4 767.8,569.4 769.7,570.4 771.6,571.3 773.5,572.2 775.5,573.1 777.4,573.9 779.3,574.7 781.2,575.4 783.1,576.1 785.1,576.8 787.0,577.5
788.9,578.1 790.8,578.7 792.7,579.3 794.7,579.8 796.6,580.4 798.5,580.9 800.4,581.5 802.4,582.0 804.3,582.5 806.2,583.0 808.1,583.5 810.0,584.0 812.0,584.5 813.9,585.0 815.8,585.5 817.7,586.0
819.6,586.4 821.6,586.9 823.5,587.4 825.4,587.9 827.3,588.4 829.2,588.9 831.2,589.4 833.1,589.9 835.0,590.4 836.9,590.9 838.8,591.4 840.8,591.9 842.7,592.4 844.6,592.9 846.5,593.4 848.4,593.9
850.4,594.4 852.3,594.9 854.2,595.4 856.1,595.9 858.0,596.4 860.0,596.9 861.9,597.4 863.8,597.9 865.7,598.4 867.6,599.0 869.6,599.5 871.5,600.0 873.4,600.6 875.3,601.2 877.2,601.8 879.2,602.4
881.1,603.1 883.0,603.7 884.9,604.4 886.9,605.1 888.8,605.8 890.7,606.5 892.6,607.3 894.5,608.0 896.5,608.8 898.4,609.6 900.3,610.3 902.2,611.1 904.1,611.9 906.1,612.7 908.0,613.4 909.9,614.2
911.8,614.9 913.7,615.6 915.7,616.3 917.6,617.0 919.5,617.7 921.4,618.3 923.3,619.0 923.3,662.4 921.4,662.4 919.5,662.4 917.6,662.4 915.7,662.4 913.7,662.4 911.8,662.4 909.9,662.4 908.0,662.4
906.1,662.4 904.1,662.4 902.2,662.4 900.3,662.4 898.4,662.4 896.5,662.4 894.5,662.4 892.6,662.4 890.7,662.4 888.8,662.4 886.9,662.4 884.9,662.4 883.0,662.4 881.1,662.4 879.2,662.4 877.2,662.4
875.3,662.4 873.4,662.4 871.5,662.4 869.6,662.4 867.6,662.4 865.7,662.4 863.8,662.4 861.9,662.4 860.0,662.4 858.0,662.4 856.1,662.4 854.2,662.4 852.3,662.4 850.4,662.4 848.4,662.4 846.5,662.4
844.6,662.4 842.7,662.4 840.8,662.4 838.8,662.4 836.9,662.4 835.0,662.4 833.1,662.4 831.2,662.4 829.2,662.4 827.3,662.4 825.4,662.4 823.5,662.4 821.6,662.4 819.6,662.4 817.7,662.4 815.8,662.4
813.9,662.4 812.0,662.4 810.0,662.4 808.1,662.4 806.2,662.4 804.3,662.4 802.4,662.4 800.4,662.4 798.5,662.4 796.6,662.4 794.7,662.4 792.7,662.4 790.8,662.4 788.9,662.4 787.0,662.4 785.1,662.4
783.1,662.4 781.2,662.4 779.3,662.4 777.4,662.4 775.5,662.4 773.5,662.4 771.6,662.4 769.7,662.4 767.8,662.4 765.9,662.4 763.9,662.4 762.0,662.4 760.1,662.4 758.2,662.4 756.3,662.4 754.3,662.4
752.4,662.4 750.5,662.4 748.6,662.4 746.7,662.4 744.7,662.4 742.8,662.4 740.9,662.4 739.0,662.4 737.1,662.4 735.1,662.4 733.2,662.4 731.3,662.4 729.4,662.4 727.5,662.4 725.5,662.4 723.6,662.4
721.7,662.4 719.8,662.4 717.9,662.4 715.9,662.4 714.0,662.4 712.1,662.4 710.2,662.4 708.2,662.4 706.3,662.4 704.4,662.4 702.5,662.4 700.6,662.4 698.6,662.4 696.7,662.4 694.8,662.4 692.9,662.4
691.0,662.4 689.0,662.4 687.1,662.4 685.2,662.4 683.3,662.4 681.4,662.4 679.4,662.4 677.5,662.4 675.6,662.4 673.7,662.4 671.8,662.4 669.8,662.4 667.9,662.4 666.0,662.4 664.1,662.4 662.2,662.4
660.2,662.4 658.3,662.4 656.4,662.4 654.5,662.4 652.6,662.4 650.6,662.4 648.7,662.4 646.8,662.4 644.9,662.4 643.0,662.4 641.0,662.4 639.1,662.4 637.2,662.4 635.3,662.4 633.4,662.4 631.4,662.4
629.5,662.4 627.6,662.4 625.7,662.4 623.8,662.4 621.8,662.4 619.9,662.4 618.0,662.4 616.1,662.4 614.1,662.4 612.2,662.4 610.3,662.4 608.4,662.4 606.5,662.4 604.5,662.4 602.6,662.4 600.7,662.4
598.8,662.4 596.9,662.4 594.9,662.4 593.0,662.4 591.1,662.4 589.2,662.4 587.3,662.4 585.3,662.4 583.4,662.4 581.5,662.4 579.6,662.4 577.7,662.4 575.7,662.4 573.8,662.4 571.9,662.4 570.0,662.4
568.1,662.4 566.1,662.4 564.2,662.4 562.3,662.4 560.4,662.4 558.5,662.4 556.5,662.4 554.6,662.4 552.7,662.4 550.8,662.4 548.9,662.4 546.9,662.4 545.0,662.4 543.1,662.4 541.2,662.4 539.3,662.4
537.3,662.4 535.4,662.4 533.5,662.4 531.6,662.4 529.6,662.4 527.7,662.4 525.8,662.4 523.9,662.4 522.0,662.4 520.0,662.4 518.1,662.4 516.2,662.4 514.3,662.4 512.4,662.4 510.4,662.4 508.5,662.4
506.6,662.4 504.7,662.4 502.8,662.4 500.8,662.4 498.9,662.4 497.0,662.4 495.1,662.4 493.2,662.4 491.2,662.4 489.3,662.4 487.4,662.4 485.5,662.4 483.6,662.4 481.6,662.4 479.7,662.4 477.8,662.4
475.9,662.4 474.0,662.4 472.0,662.4 470.1,662.4 468.2,662.4 466.3,662.4 464.4,662.4 462.4,662.4 460.5,662.4 458.6,662.4 456.7,662.4 454.8,662.4 452.8,662.4 450.9,662.4 449.0,662.4 447.1,662.4
445.1,662.4 443.2,662.4 441.3,662.4 439.4,662.4 437.5,662.4 435.5,662.4 433.6,662.4 431.7,662.4 429.8,662.4 427.9,662.4 425.9,662.4 424.0,662.4 422.1,662.4 420.2,662.4 418.3,662.4 416.3,662.4
414.4,662.4 412.5,662.4 410.6,662.4 408.7,662.4 406.7,662.4 404.8,662.4 402.9,662.4 401.0,662.4 399.1,662.4 397.1,662.4 395.2,662.4 393.3,662.4 391.4,662.4 389.5,662.4 387.5,662.4 385.6,662.4
383.7,662.4 381.8,662.4 379.9,662.4 377.9,662.4 376.0,662.4 374.1,662.4 372.2,662.4 370.3,662.4 368.3,662.4 366.4,662.4 364.5,662.4 362.6,662.4 360.7,662.4 358.7,662.4 356.8,662.4 354.9,662.4
353.0,662.4 351.0,662.4 349.1,662.4 347.2,662.4 345.3,662.4 343.4,662.4 341.4,662.4 339.5,662.4 337.6,662.4 335.7,662.4 333.8,662.4 331.8,662.4 329.9,662.4 328.0,662.4 326.1,662.4 324.2,662.4
322.2,662.4 320.3,662.4 318.4,662.4 316.5,662.4 314.6,662.4 312.6,662.4 310.7,662.4 308.8,662.4 306.9,662.4 305.0,662.4 303.0,662.4 301.1,662.4 299.2,662.4 297.3,662.4 295.4,662.4 293.4,662.4
291.5,662.4 289.6,662.4 287.7,662.4 285.8,662.4 283.8,662.4 281.9,662.4 280.0,662.4 278.1,662.4 276.2,662.4 274.2,662.4 272.3,662.4 270.4,662.4 268.5,662.4 266.5,662.4 264.6,662.4 262.7,662.4
260.8,662.4 258.9,662.4 256.9,662.4 255.0,662.4 253.1,662.4 251.2,662.4 249.3,662.4 247.3,662.4 245.4,662.4 243.5,662.4 241.6,662.4 239.7,662.4 237.7,662.4 235.8,662.4 233.9,662.4 232.0,662.4
230.1,662.4 228.1,662.4 226.2,662.4 224.3,662.4 222.4,662.4 220.5,662.4 218.5,662.4 216.6,662.4 214.7,662.4 212.8,662.4 210.9,662.4 208.9,662.4 207.0,662.4 205.1,662.4 203.2,662.4 201.3,662.4
199.3,662.4 197.4,662.4 195.5,662.4 193.6,662.4 191.7,662.4 189.7,662.4 187.8,662.4 185.9,662.4 184.0,662.4 182.0,662.4 180.1,662.4 178.2,662.4 176.3,662.4 174.4,662.4 172.4,662.4 170.5,662.4
168.6,662.4 166.7,662.4 164.8,662.4 162.8,662.4 160.9,662.4 159.0,662.4 157.1,662.4 155.2,662.4 153.2,662.4 151.3,662.4 149.4,662.4 147.5,662.4 145.6,662.4 143.6,662.4 '/>
	</g>
</g>
	</g>
	<g id="gnuplot_plot_3" ><title>Point estimate</title>
<g fill="none" color="white" stroke="rgb( 31, 120, 180)" stroke-width="2.00" stroke-linecap="butt" stroke-linejoin="miter">
</g>
<g fill="none" color="black" stroke="currentColor" stroke-width="2.00" stroke-linecap="butt" stroke-linejoin="miter">
	<g transform="translate(1089.0,103.0)" stroke="none" fill="black" font-family="Helvetica" font-size="12.00"  text-anchor="start">
		<text><tspan font-family="Helvetica" >Point estimate</tspan></text>
	</g>
</g>
<g fill="none" color="black" stroke="currentColor" stroke-width="2.00" stroke-linecap="butt" stroke-linejoin="miter">
	<path stroke='rgb( 31, 120, 180)'  d='M1038.5,99.1 L1080.7,99.1 M422.3,662.4 L422.3,126.3  '/></g>
	</g>
<g fill="none" color="black" stroke="currentColor" stroke-width="2.00" stroke-linecap="butt" stroke-linejoin="miter">
</g>
<g fill="none" color="black" stroke="black" stroke-width="1.00" stroke-linecap="butt" stroke-linejoin="miter">
</g>
<g fill="none" color="black" stroke="currentColor" stroke-width="1.00" stroke-linecap="butt" stroke-linejoin="miter">
	<path stroke='black'  d='M55.3,54.1 L55.3,662.4 L1013.6,662.4 L1013.6,54.1 L55.3,54.1 Z  '/></g>
<g fill="none" color="black" stroke="currentColor" stroke-width="1.00" stroke-linecap="butt" stroke-linejoin="miter">
</g>
</g>
</svg>

