<?xml version="1.0" encoding="utf-8"  standalone="no"?>
<svg 
 viewBox="0 0 1280 720"
 xmlns="http://www.w3.org/2000/svg"
 xmlns:xlink="http://www.w3.org/1999/xlink"
>

<title>Gnuplot</title>
<desc>Produced by GNUPLOT 5.2 patchlevel 6 </desc>

<g id="gnuplot_canvas">

<rect x="0" y="0" width="1280" height="720" fill="none"/>
<defs>

	<circle id='gpDot' r='0.5' stroke-width='0.5' stroke='currentColor'/>
	<path id='gpPt0' stroke-width='0.222' stroke='currentColor' d='M-1,0 h2 M0,-1 v2'/>
	<path id='gpPt1' stroke-width='0.222' stroke='currentColor' d='M-1,-1 L1,1 M1,-1 L-1,1'/>
	<path id='gpPt2' stroke-width='0.222' stroke='currentColor' d='M-1,0 L1,0 M0,-1 L0,1 M-1,-1 L1,1 M-1,1 L1,-1'/>
	<rect id='gpPt3' stroke-width='0.222' stroke='currentColor' x='-1' y='-1' width='2' height='2'/>
	<rect id='gpPt4' stroke-width='0.222' stroke='currentColor' fill='currentColor' x='-1' y='-1' width='2' height='2'/>
	<circle id='gpPt5' stroke-width='0.222' stroke='currentColor' cx='0' cy='0' r='1'/>
	<use xlink:href='#gpPt5' id='gpPt6' fill='currentColor' stroke='none'/>
	<path id='gpPt7' stroke-width='0.222' stroke='currentColor' d='M0,-1.33 L-1.33,0.67 L1.33,0.67 z'/>
	<use xlink:href='#gpPt7' id='gpPt8' fill='currentColor' stroke='none'/>
	<use xlink:href='#gpPt7' id='gpPt9' stroke='currentColor' transform='rotate(180)'/>
	<use xlink:href='#gpPt9' id='gpPt10' fill='currentColor' stroke='none'/>
	<use xlink:href='#gpPt3' id='gpPt11' stroke='currentColor' transform='rotate(45)'/>
	<use xlink:href='#gpPt11' id='gpPt12' fill='currentColor' stroke='none'/>
	<path id='gpPt13' stroke-width='0.222' stroke='currentColor' d='M0,1.330 L1.265,0.411 L0.782,-1.067 L-0.782,-1.076 L-1.265,0.411 z'/>
	<use xlink:href='#gpPt13' id='gpPt14' fill='currentColor' stroke='none'/>
	<filter id='textbox' filterUnits='objectBoundingBox' x='0' y='0' height='1' width='1'>
	  <feFlood flood-color='white' flood-opacity='1' result='bgnd'/>
	  <feComposite in='SourceGraphic' in2='bgnd' operator='atop'/>
	</filter>
	<filter id='greybox' filterUnits='objectBoundingBox' x='0' y='0' height='1' width='1'>
	  <feFlood flood-color='lightgrey' flood-opacity='1' result='grey'/>
	  <feComposite in='SourceGraphic' in2='grey' operator='atop'/>
	</filter>
</defs>
<g fill="none" color="white" stroke="currentColor" stroke-width="1.00" stroke-linecap="butt" stroke-linejoin="miter">
</g>
<g fill="none" color="black" stroke="currentColor" stroke-width="1.00" stroke-linecap="butt" stroke-linejoin="miter">
	<path stroke='black'  d='M71.9,662.4 L80.9,662.4  '/>	<g transform="translate(63.6,666.3)" stroke="none" fill="black" font-family="Helvetica" font-size="12.00"  text-anchor="end">
		<text><tspan font-family="Helvetica" > 0</tspan></text>
	</g>
</g>
<g fill="none" color="black" stroke="currentColor" stroke-width="1.00" stroke-linecap="butt" stroke-linejoin="miter">
	<path stroke='black'  d='M71.9,586.4 L80.9,586.4  '/>	<g transform="translate(63.6,590.3)" stroke="none" fill="black" font-family="Helvetica" font-size="12.00"  text-anchor="end">
		<text><tspan font-family="Helvetica" > 50</tspan></text>
	</g>
</g>
<g fill="none" color="black" stroke="currentColor" stroke-width="1.00" stroke-linecap="butt" stroke-linejoin="miter">
	<path stroke='black'  d='M71.9,510.3 L80.9,510.3  '/>	<g transform="translate(63.6,514.2)" stroke="none" fill="black" font-family="Helvetica" font-size="12.00"  text-anchor="end">
		<text><tspan font-family="Helvetica" > 100</tspan></text>
	</g>
</g>
<g fill="none" color="black" stroke="currentColor" stroke-width="1.00" stroke-linecap="butt" stroke-linejoin="miter">
	<path stroke='black'  d='M71.9,434.3 L80.9,434.3  '/>	<g transform="translate(63.6,438.2)" stroke="none" fill="black" font-family="Helvetica" font-size="12.00"  text-anchor="end">
		<text><tspan font-family="Helvetica" > 150</tspan></text>
	</g>
</g>
<g fill="none" color="black" stroke="currentColor" stroke-width="1.00" stroke-linecap="butt" stroke-linejoin="miter">
	<path stroke='black'  d='M71.9,358.2 L80.9,358.2  '/>	<g transform="translate(63.6,362.1)" stroke="none" fill="black" font-family="Helvetica" font-size="12.00"  text-anchor="end">
		<text><tspan font-family="Helvetica" > 200</tspan></text>
	</g>
</g>
<g fill="none" color="black" stroke="currentColor" stroke-width="1.00" stroke-linecap="butt" stroke-linejoin="miter">
	<path stroke='black'  d='M71.9,282.2 L80.9,282.2  '/>	<g transform="translate(63.6,286.1)" stroke="none" fill="black" font-family="Helvetica" font-size="12.00"  text-anchor="end">
		<text><tspan font-family="Helvetica" > 250</tspan></text>
	</g>
</g>
<g fill="none" color="black" stroke="currentColor" stroke-width="1.00" stroke-linecap="butt" stroke-linejoin="miter">
	<path stroke='black'  d='M71.9,206.2 L80.9,206.2  '/>	<g transform="translate(63.6,210.1)" stroke="none" fill="black" font-family="Helvetica" font-size="12.00"  text-anchor="end">
		<text><tspan font-family="Helvetica" > 300</tspan></text>
	</g>
</g>
<g fill="none" color="black" stroke="currentColor" stroke-width="1.00" stroke-linecap="butt" stroke-linejoin="miter">
	<path stroke='black'  d='M71.9,130.1 L80.9,130.1  '/>	<g transform="translate(63.6,134.0)" stroke="none" fill="black" font-family="Helvetica" font-size="12.00"  text-anchor="end">
		<text><tspan font-family="Helvetica" > 350</tspan></text>
	</g>
</g>
<g fill="none" color="black" stroke="currentColor" stroke-width="1.00" stroke-linecap="butt" stroke-linejoin="miter">
	<path stroke='black'  d='M71.9,54.1 L80.9,54.1  '/>	<g transform="translate(63.6,58.0)" stroke="none" fill="black" font-family="Helvetica" font-size="12.00"  text-anchor="end">
		<text><tspan font-family="Helvetica" > 400</tspan></text>
	</g>
</g>
<g fill="none" color="black" stroke="currentColor" stroke-width="1.00" stroke-linecap="butt" stroke-linejoin="miter">
	<path stroke='black'  d='M138.8,662.4 L138.8,653.4  '/>	<g transform="translate(138.8,684.3)" stroke="none" fill="black" font-family="Helvetica" font-size="12.00"  text-anchor="middle">
		<text><tspan font-family="Helvetica" > 4.286</tspan></text>
	</g>
</g>
<g fill="none" color="black" stroke="currentColor" stroke-width="1.00" stroke-linecap="butt" stroke-linejoin="miter">
	<path stroke='black'  d='M267.5,662.4 L267.5,653.4  '/>	<g transform="translate(267.5,684.3)" stroke="none" fill="black" font-family="Helvetica" font-size="12.00"  text-anchor="middle">
		<text><tspan font-family="Helvetica" > 4.287</tspan></text>
	</g>
</g>
<g fill="none" color="black" stroke="currentColor" stroke-width="1.00" stroke-linecap="butt" stroke-linejoin="miter">
	<path stroke='black'  d='M396.2,662.4 L396.2,653.4  '/>	<g transform="translate(396.2,684.3)" stroke="none" fill="black" font-family="Helvetica" font-size="12.00"  text-anchor="middle">
		<text><tspan font-family="Helvetica" > 4.288</tspan></text>
	</g>
</g>
<g fill="none" color="black" stroke="currentColor" stroke-width="1.00" stroke-linecap="butt" stroke-linejoin="miter">
	<path stroke='black'  d='M524.8,662.4 L524.8,653.4  '/>	<g transform="translate(524.8,684.3)" stroke="none" fill="black" font-family="Helvetica" font-size="12.00"  text-anchor="middle">
		<text><tspan font-family="Helvetica" > 4.289</tspan></text>
	</g>
</g>
<g fill="none" color="black" stroke="currentColor" stroke-width="1.00" stroke-linecap="butt" stroke-linejoin="miter">
	<path stroke='black'  d='M653.5,662.4 L653.5,653.4  '/>	<g transform="translate(653.5,684.3)" stroke="none" fill="black" font-family="Helvetica" font-size="12.00"  text-anchor="middle">
		<text><tspan font-family="Helvetica" > 4.29</tspan></text>
	</g>
</g>
<g fill="none" color="black" stroke="currentColor" stroke-width="1.00" stroke-linecap="butt" stroke-linejoin="miter">
	<path stroke='black'  d='M782.2,662.4 L782.2,653.4  '/>	<g transform="translate(782.2,684.3)" stroke="none" fill="black" font-family="Helvetica" font-size="12.00"  text-anchor="middle">
		<text><tspan font-family="Helvetica" > 4.291</tspan></text>
	</g>
</g>
<g fill="none" color="black" stroke="currentColor" stroke-width="1.00" stroke-linecap="butt" stroke-linejoin="miter">
	<path stroke='black'  d='M910.9,662.4 L910.9,653.4  '/>	<g transform="translate(910.9,684.3)" stroke="none" fill="black" font-family="Helvetica" font-size="12.00"  text-anchor="middle">
		<text><tspan font-family="Helvetica" > 4.292</tspan></text>
	</g>
</g>
<g fill="none" color="black" stroke="currentColor" stroke-width="1.00" stroke-linecap="butt" stroke-linejoin="miter">
</g>
<g fill="none" color="black" stroke="currentColor" stroke-width="1.00" stroke-linecap="butt" stroke-linejoin="miter">
	<path stroke='black'  d='M71.9,54.1 L71.9,662.4 L1013.6,662.4 L1013.6,54.1 L71.9,54.1 Z  '/></g>
<g fill="none" color="black" stroke="currentColor" stroke-width="1.00" stroke-linecap="butt" stroke-linejoin="miter">
	<g transform="translate(16.3,358.3) rotate(270)" stroke="none" fill="black" font-family="Helvetica" font-size="12.00"  text-anchor="middle">
		<text><tspan font-family="Helvetica" >Density (a.u.)</tspan></text>
	</g>
</g>
<g fill="none" color="black" stroke="currentColor" stroke-width="1.00" stroke-linecap="butt" stroke-linejoin="miter">
	<g transform="translate(542.7,711.3)" stroke="none" fill="black" font-family="Helvetica" font-size="12.00"  text-anchor="middle">
		<text><tspan font-family="Helvetica" >Average time (us)</tspan></text>
	</g>
</g>
<g fill="none" color="black" stroke="currentColor" stroke-width="1.00" stroke-linecap="butt" stroke-linejoin="miter">
	<g transform="translate(542.7,31.0)" stroke="none" fill="black" font-family="Helvetica" font-size="12.00"  text-anchor="middle">
		<text><tspan font-family="Helvetica" >snapshot_restore_with_dense/Dense: Dirty pages + process_vm_writev/2: median</tspan></text>
	</g>
</g>
	<g id="gnuplot_plot_1" ><title>Bootstrap distribution</title>
<g fill="none" color="white" stroke="black" stroke-width="2.00" stroke-linecap="butt" stroke-linejoin="miter">
</g>
<g fill="none" color="black" stroke="currentColor" stroke-width="2.00" stroke-linecap="butt" stroke-linejoin="miter">
	<g transform="translate(1089.0,67.0)" stroke="none" fill="black" font-family="Helvetica" font-size="12.00"  text-anchor="start">
		<text><tspan font-family="Helvetica" >Bootstrap distribution</tspan></text>
	</g>
</g>
<g fill="none" color="black" stroke="currentColor" stroke-width="2.00" stroke-linecap="butt" stroke-linejoin="miter">
	<path stroke='rgb( 31, 120, 180)'  d='M1038.5,63.1 L1080.7,63.1 M71.9,655.0 L73.8,655.6 L75.7,656.1 L77.6,656.6 L79.4,657.0 L81.3,657.4
		L83.2,657.6 L85.1,657.8 L87.0,657.9 L88.9,657.9 L90.8,657.8 L92.7,657.6 L94.5,657.4 L96.4,657.0
		L98.3,656.4 L100.2,655.8 L102.1,655.0 L104.0,654.1 L105.9,653.1 L107.8,651.9 L109.6,650.5 L111.5,649.0
		L113.4,647.2 L115.3,645.3 L117.2,643.2 L119.1,640.9 L121.0,638.3 L122.9,635.5 L124.7,632.5 L126.6,629.2
		L128.5,625.6 L130.4,621.7 L132.3,617.5 L134.2,613.1 L136.1,608.3 L138.0,603.2 L139.8,597.9 L141.7,592.2
		L143.6,586.3 L145.5,580.1 L147.4,573.7 L149.3,567.1 L151.2,560.4 L153.0,553.6 L154.9,546.7 L156.8,539.8
		L158.7,533.0 L160.6,526.4 L162.5,519.9 L164.4,513.7 L166.3,507.9 L168.1,502.4 L170.0,497.3 L171.9,492.8
		L173.8,488.7 L175.7,485.2 L177.6,482.2 L179.5,479.8 L181.4,477.9 L183.2,476.5 L185.1,475.6 L187.0,475.1
		L188.9,474.9 L190.8,475.1 L192.7,475.5 L194.6,476.1 L196.5,476.8 L198.3,477.5 L200.2,478.2 L202.1,478.7
		L204.0,479.1 L205.9,479.2 L207.8,479.1 L209.7,478.6 L211.6,477.7 L213.4,476.5 L215.3,474.8 L217.2,472.7
		L219.1,470.1 L221.0,467.2 L222.9,463.8 L224.8,460.1 L226.6,455.9 L228.5,451.5 L230.4,446.7 L232.3,441.8
		L234.2,436.6 L236.1,431.2 L238.0,425.8 L239.9,420.2 L241.7,414.7 L243.6,409.1 L245.5,403.6 L247.4,398.2
		L249.3,392.8 L251.2,387.6 L253.1,382.4 L255.0,377.4 L256.8,372.4 L258.7,367.5 L260.6,362.6 L262.5,357.7
		L264.4,352.9 L266.3,347.9 L268.2,342.9 L270.1,337.7 L271.9,332.4 L273.8,326.8 L275.7,321.1 L277.6,315.0
		L279.5,308.7 L281.4,302.1 L283.3,295.2 L285.2,287.9 L287.0,280.4 L288.9,272.6 L290.8,264.5 L292.7,256.3
		L294.6,247.8 L296.5,239.2 L298.4,230.6 L300.2,221.9 L302.1,213.2 L304.0,204.7 L305.9,196.3 L307.8,188.2
		L309.7,180.4 L311.6,172.9 L313.5,165.9 L315.3,159.4 L317.2,153.4 L319.1,148.0 L321.0,143.2 L322.9,139.1
		L324.8,135.6 L326.7,132.7 L328.6,130.4 L330.4,128.8 L332.3,127.8 L334.2,127.3 L336.1,127.4 L338.0,127.9
		L339.9,128.9 L341.8,130.3 L343.7,132.1 L345.5,134.1 L347.4,136.4 L349.3,138.9 L351.2,141.6 L353.1,144.5
		L355.0,147.5 L356.9,150.6 L358.8,153.9 L360.6,157.2 L362.5,160.7 L364.4,164.2 L366.3,167.9 L368.2,171.7
		L370.1,175.7 L372.0,179.8 L373.8,184.0 L375.7,188.3 L377.6,192.8 L379.5,197.5 L381.4,202.2 L383.3,207.1
		L385.2,212.0 L387.1,217.0 L388.9,222.1 L390.8,227.1 L392.7,232.1 L394.6,237.0 L396.5,241.7 L398.4,246.3
		L400.3,250.7 L402.2,254.8 L404.0,258.7 L405.9,262.2 L407.8,265.3 L409.7,268.0 L411.6,270.3 L413.5,272.2
		L415.4,273.6 L417.3,274.6 L419.1,275.1 L421.0,275.1 L422.9,274.8 L424.8,274.0 L426.7,272.9 L428.6,271.5
		L430.5,269.8 L432.4,268.0 L434.2,266.1 L436.1,264.2 L438.0,262.5 L439.9,260.9 L441.8,259.6 L443.7,258.7
		L445.6,258.3 L447.4,258.5 L449.3,259.4 L451.2,261.0 L453.1,263.4 L455.0,266.6 L456.9,270.6 L458.8,275.4
		L460.7,281.1 L462.5,287.4 L464.4,294.4 L466.3,302.0 L468.2,310.1 L470.1,318.5 L472.0,327.2 L473.9,336.1
		L475.8,344.9 L477.6,353.7 L479.5,362.3 L481.4,370.6 L483.3,378.6 L485.2,386.1 L487.1,393.3 L489.0,399.9
		L490.9,406.1 L492.7,411.7 L494.6,416.9 L496.5,421.7 L498.4,426.0 L500.3,429.9 L502.2,433.4 L504.1,436.6
		L506.0,439.5 L507.8,442.1 L509.7,444.3 L511.6,446.3 L513.5,448.1 L515.4,449.6 L517.3,450.8 L519.2,451.8
		L521.0,452.7 L522.9,453.3 L524.8,453.7 L526.7,454.0 L528.6,454.1 L530.5,454.2 L532.4,454.2 L534.3,454.2
		L536.1,454.2 L538.0,454.3 L539.9,454.5 L541.8,454.9 L543.7,455.4 L545.6,456.1 L547.5,457.0 L549.4,458.0
		L551.2,459.3 L553.1,460.6 L555.0,462.1 L556.9,463.7 L558.8,465.4 L560.7,467.0 L562.6,468.6 L564.5,470.2
		L566.3,471.6 L568.2,472.9 L570.1,474.0 L572.0,475.0 L573.9,475.7 L575.8,476.2 L577.7,476.6 L579.5,476.7
		L581.4,476.6 L583.3,476.3 L585.2,475.7 L587.1,475.0 L589.0,474.0 L590.9,472.9 L592.8,471.4 L594.6,469.7
		L596.5,467.8 L598.4,465.6 L600.3,463.0 L602.2,460.2 L604.1,457.1 L606.0,453.7 L607.9,450.1 L609.7,446.2
		L611.6,442.2 L613.5,438.1 L615.4,433.9 L617.3,429.8 L619.2,425.8 L621.1,422.0 L623.0,418.6 L624.8,415.7
		L626.7,413.2 L628.6,411.4 L630.5,410.3 L632.4,409.9 L634.3,410.4 L636.2,411.6 L638.1,413.6 L639.9,416.4
		L641.8,420.0 L643.7,424.2 L645.6,429.0 L647.5,434.4 L649.4,440.1 L651.3,446.1 L653.1,452.3 L655.0,458.6
		L656.9,464.9 L658.8,471.0 L660.7,477.0 L662.6,482.7 L664.5,488.1 L666.4,493.2 L668.2,497.9 L670.1,502.2
		L672.0,506.3 L673.9,510.0 L675.8,513.4 L677.7,516.6 L679.6,519.6 L681.5,522.4 L683.3,525.1 L685.2,527.7
		L687.1,530.2 L689.0,532.7 L690.9,535.1 L692.8,537.6 L694.7,539.9 L696.6,542.2 L698.4,544.5 L700.3,546.6
		L702.2,548.7 L704.1,550.6 L706.0,552.3 L707.9,553.8 L709.8,555.2 L711.7,556.3 L713.5,557.2 L715.4,558.0
		L717.3,558.5 L719.2,558.9 L721.1,559.2 L723.0,559.3 L724.9,559.4 L726.7,559.5 L728.6,559.6 L730.5,559.8
		L732.4,560.0 L734.3,560.4 L736.2,560.9 L738.1,561.5 L740.0,562.3 L741.8,563.3 L743.7,564.4 L745.6,565.7
		L747.5,567.0 L749.4,568.5 L751.3,570.0 L753.2,571.5 L755.1,573.0 L756.9,574.4 L758.8,575.8 L760.7,577.0
		L762.6,578.0 L764.5,578.9 L766.4,579.5 L768.3,580.0 L770.2,580.3 L772.0,580.3 L773.9,580.2 L775.8,580.0
		L777.7,579.6 L779.6,579.1 L781.5,578.6 L783.4,578.1 L785.3,577.7 L787.1,577.3 L789.0,577.1 L790.9,577.0
		L792.8,577.1 L794.7,577.5 L796.6,578.0 L798.5,578.7 L800.3,579.7 L802.2,580.8 L804.1,582.1 L806.0,583.6
		L807.9,585.1 L809.8,586.6 L811.7,588.1 L813.6,589.5 L815.4,590.7 L817.3,591.8 L819.2,592.5 L821.1,592.9
		L823.0,593.0 L824.9,592.6 L826.8,591.7 L828.7,590.4 L830.5,588.5 L832.4,586.2 L834.3,583.3 L836.2,580.0
		L838.1,576.3 L840.0,572.1 L841.9,567.6 L843.8,562.9 L845.6,557.8 L847.5,552.7 L849.4,547.4 L851.3,542.1
		L853.2,536.9 L855.1,531.9 L857.0,527.0 L858.9,522.4 L860.7,518.2 L862.6,514.3 L864.5,510.8 L866.4,507.7
		L868.3,505.1 L870.2,502.9 L872.1,501.2 L873.9,499.9 L875.8,499.1 L877.7,498.6 L879.6,498.6 L881.5,498.8
		L883.4,499.4 L885.3,500.2 L887.2,501.3 L889.0,502.5 L890.9,503.9 L892.8,505.4 L894.7,507.0 L896.6,508.6
		L898.5,510.3 L900.4,512.0 L902.3,513.7 L904.1,515.5 L906.0,517.2 L907.9,518.9 L909.8,520.7 L911.7,522.5
		L913.6,524.3 L915.5,526.2 L917.4,528.2 L919.2,530.3 L921.1,532.5 L923.0,534.9 L924.9,537.4 L926.8,540.1
		L928.7,542.9 L930.6,545.9 L932.5,549.1 L934.3,552.5 L936.2,556.1 L938.1,559.8 L940.0,563.6 L941.9,567.6
		L943.8,571.8 L945.7,576.0 L947.5,580.2 L949.4,584.5 L951.3,588.9 L953.2,593.2 L955.1,597.4 L957.0,601.6
		L958.9,605.7 L960.8,609.7 L962.6,613.6 L964.5,617.3 L966.4,620.8 L968.3,624.2 L970.2,627.4 L972.1,630.3
		L974.0,633.1 L975.9,635.7 L977.7,638.1 L979.6,640.3 L981.5,642.3 L983.4,644.1 L985.3,645.7 L987.2,647.2
		L989.1,648.5 L991.0,649.6 L992.8,650.6 L994.7,651.5 L996.6,652.3 L998.5,652.9 L1000.4,653.5 L1002.3,653.9
		L1004.2,654.3 L1006.1,654.6 L1007.9,654.9 L1009.8,655.0 L1011.7,655.2 L1013.6,655.3  '/></g>
	</g>
	<g id="gnuplot_plot_2" ><title>Confidence interval</title>
<g fill="none" color="white" stroke="rgb( 31, 120, 180)" stroke-width="1.00" stroke-linecap="butt" stroke-linejoin="miter">
</g>
<g fill="none" color="black" stroke="currentColor" stroke-width="1.00" stroke-linecap="butt" stroke-linejoin="miter">
	<g transform="translate(1089.0,85.0)" stroke="none" fill="black" font-family="Helvetica" font-size="12.00"  text-anchor="start">
		<text><tspan font-family="Helvetica" >Confidence interval</tspan></text>
	</g>
</g>
<g fill="none" color="black" stroke="currentColor" stroke-width="1.00" stroke-linecap="butt" stroke-linejoin="miter">
	<g stroke='none' shape-rendering='crispEdges'>
		<polygon fill = 'rgb( 31, 120, 180)' fill-opacity = '0.250000' points = '1038.5,85.6 1080.7,85.6 1080.7,76.6 1038.5,76.6 '/>
		<polygon fill = 'rgb( 31, 120, 180)' fill-opacity = '0.250000' points = '158.7,533.0 160.6,526.4 162.5,519.9 164.4,513.7 166.3,507.9 168.1,502.4 170.0,497.3 171.9,492.8 173.8,488.7 175.7,485.2 177.6,482.2 179.5,479.8 181.4,477.9 183.2,476.5 185.1,475.6 187.0,475.1
188.9,474.9 190.8,475.1 192.7,475.5 194.6,476.1 196.5,476.8 198.3,477.5 200.2,478.2 202.1,478.7 204.0,479.1 205.9,479.2 207.8,479.1 209.7,478.6 211.6,477.7 213.4,476.5 215.3,474.8 217.2,472.7
219.1,470.1 221.0,467.2 222.9,463.8 224.8,460.1 226.6,455.9 228.5,451.5 230.4,446.7 232.3,441.8 234.2,436.6 236.1,431.2 238.0,425.8 239.9,420.2 241.7,414.7 243.6,409.1 245.5,403.6 247.4,398.2
249.3,392.8 251.2,387.6 253.1,382.4 255.0,377.4 256.8,372.4 258.7,367.5 260.6,362.6 262.5,357.7 264.4,352.9 266.3,347.9 268.2,342.9 270.1,337.7 271.9,332.4 273.8,326.8 275.7,321.1 277.6,315.0
279.5,308.7 281.4,302.1 283.3,295.2 285.2,287.9 287.0,280.4 288.9,272.6 290.8,264.5 292.7,256.3 294.6,247.8 296.5,239.2 298.4,230.6 300.2,221.9 302.1,213.2 304.0,204.7 305.9,196.3 307.8,188.2
309.7,180.4 311.6,172.9 313.5,165.9 315.3,159.4 317.2,153.4 319.1,148.0 321.0,143.2 322.9,139.1 324.8,135.6 326.7,132.7 328.6,130.4 330.4,128.8 332.3,127.8 334.2,127.3 336.1,127.4 338.0,127.9
339.9,128.9 341.8,130.3 343.7,132.1 345.5,134.1 347.4,136.4 349.3,138.9 351.2,141.6 353.1,144.5 355.0,147.5 356.9,150.6 358.8,153.9 360.6,157.2 362.5,160.7 364.4,164.2 366.3,167.9 368.2,171.7
370.1,175.7 372.0,179.8 373.8,184.0 375.7,188.3 377.6,192.8 379.5,197.5 381.4,202.2 383.3,207.1 385.2,212.0 387.1,217.0 388.9,222.1 390.8,227.1 392.7,232.1 394.6,237.0 396.5,241.7 398.4,246.3
400.3,250.7 402.2,254.8 404.0,258.7 405.9,262.2 407.8,265.3 409.7,268.0 411.6,270.3 413.5,272.2 415.4,273.6 417.3,274.6 419.1,275.1 421.0,275.1 422.9,274.8 424.8,274.0 426.7,272.9 428.6,271.5
430.5,269.8 432.4,268.0 434.2,266.1 436.1,264.2 438.0,262.5 439.9,260.9 441.8,259.6 443.7,258.7 445.6,258.3 447.4,258.5 449.3,259.4 451.2,261.0 453.1,263.4 455.0,266.6 456.9,270.6 458.8,275.4
460.7,281.1 462.5,287.4 464.4,294.4 466.3,302.0 468.2,310.1 470.1,318.5 472.0,327.2 473.9,336.1 475.8,344.9 477.6,353.7 479.5,362.3 481.4,370.6 483.3,378.6 485.2,386.1 487.1,393.3 489.0,399.9
490.9,406.1 492.7,411.7 494.6,416.9 496.5,421.7 498.4,426.0 500.3,429.9 502.2,433.4 504.1,436.6 506.0,439.5 507.8,442.1 509.7,444.3 511.6,446.3 513.5,448.1 515.4,449.6 517.3,450.8 519.2,451.8
521.0,452.7 522.9,453.3 524.8,453.7 526.7,454.0 528.6,454.1 530.5,454.2 532.4,454.2 534.3,454.2 536.1,454.2 538.0,454.3 539.9,454.5 541.8,454.9 543.7,455.4 545.6,456.1 547.5,457.0 549.4,458.0
551.2,459.3 553.1,460.6 555.0,462.1 556.9,463.7 558.8,465.4 560.7,467.0 562.6,468.6 564.5,470.2 566.3,471.6 568.2,472.9 570.1,474.0 572.0,475.0 573.9,475.7 575.8,476.2 577.7,476.6 579.5,476.7
581.4,476.6 583.3,476.3 585.2,475.7 587.1,475.0 589.0,474.0 590.9,472.9 592.8,471.4 594.6,469.7 596.5,467.8 598.4,465.6 600.3,463.0 602.2,460.2 604.1,457.1 606.0,453.7 607.9,450.1 609.7,446.2
611.6,442.2 613.5,438.1 615.4,433.9 617.3,429.8 619.2,425.8 621.1,422.0 623.0,418.6 624.8,415.7 626.7,413.2 628.6,411.4 630.5,410.3 632.4,409.9 634.3,410.4 636.2,411.6 638.1,413.6 639.9,416.4
641.8,420.0 643.7,424.2 645.6,429.0 647.5,434.4 649.4,440.1 651.3,446.1 653.1,452.3 655.0,458.6 656.9,464.9 658.8,471.0 660.7,477.0 662.6,482.7 664.5,488.1 666.4,493.2 668.2,497.9 670.1,502.2
672.0,506.3 673.9,510.0 675.8,513.4 677.7,516.6 679.6,519.6 681.5,522.4 683.3,525.1 685.2,527.7 687.1,530.2 689.0,532.7 690.9,535.1 692.8,537.6 694.7,539.9 696.6,542.2 698.4,544.5 700.3,546.6
702.2,548.7 704.1,550.6 706.0,552.3 707.9,553.8 709.8,555.2 711.7,556.3 713.5,557.2 715.4,558.0 717.3,558.5 719.2,558.9 721.1,559.2 723.0,559.3 724.9,559.4 726.7,559.5 728.6,559.6 730.5,559.8
732.4,560.0 734.3,560.4 736.2,560.9 738.1,561.5 740.0,562.3 741.8,563.3 743.7,564.4 745.6,565.7 747.5,567.0 749.4,568.5 751.3,570.0 753.2,571.5 755.1,573.0 756.9,574.4 758.8,575.8 760.7,577.0
762.6,578.0 764.5,578.9 766.4,579.5 768.3,580.0 770.2,580.3 772.0,580.3 773.9,580.2 775.8,580.0 777.7,579.6 779.6,579.1 781.5,578.6 783.4,578.1 785.3,577.7 787.1,577.3 789.0,577.1 790.9,577.0
792.8,577.1 794.7,577.5 796.6,578.0 798.5,578.7 800.3,579.7 802.2,580.8 804.1,582.1 806.0,583.6 807.9,585.1 809.8,586.6 811.7,588.1 813.6,589.5 815.4,590.7 817.3,591.8 819.2,592.5 821.1,592.9
823.0,593.0 824.9,592.6 826.8,591.7 828.7,590.4 830.5,588.5 832.4,586.2 834.3,583.3 836.2,580.0 838.1,576.3 840.0,572.1 841.9,567.6 843.8,562.9 845.6,557.8 847.5,552.7 849.4,547.4 851.3,542.1
853.2,536.9 855.1,531.9 857.0,527.0 858.9,522.4 860.7,518.2 862.6,514.3 864.5,510.8 866.4,507.7 868.3,505.1 870.2,502.9 872.1,501.2 873.9,499.9 875.8,499.1 877.7,498.6 879.6,498.6 881.5,498.8
883.4,499.4 885.3,500.2 887.2,501.3 889.0,502.5 890.9,503.9 892.8,505.4 894.7,507.0 896.6,508.6 898.5,510.3 900.4,512.0 902.3,513.7 904.1,515.5 906.0,517.2 907.9,518.9 909.8,520.7 911.7,522.5
913.6,524.3 915.5,526.2 917.4,528.2 919.2,530.3 921.1,532.5 923.0,534.9 924.9,537.4 924.9,662.4 923.0,662.4 921.1,662.4 919.2,662.4 917.4,662.4 915.5,662.4 913.6,662.4 911.7,662.4 909.8,662.4
907.9,662.4 906.0,662.4 904.1,662.4 902.3,662.4 900.4,662.4 898.5,662.4 896.6,662.4 894.7,662.4 892.8,662.4 890.9,662.4 889.0,662.4 887.2,662.4 885.3,662.4 883.4,662.4 881.5,662.4 879.6,662.4
877.7,662.4 875.8,662.4 873.9,662.4 872.1,662.4 870.2,662.4 868.3,662.4 866.4,662.4 864.5,662.4 862.6,662.4 860.7,662.4 858.9,662.4 857.0,662.4 855.1,662.4 853.2,662.4 851.3,662.4 849.4,662.4
847.5,662.4 845.6,662.4 843.8,662.4 841.9,662.4 840.0,662.4 838.1,662.4 836.2,662.4 834.3,662.4 832.4,662.4 830.5,662.4 828.7,662.4 826.8,662.4 824.9,662.4 823.0,662.4 821.1,662.4 819.2,662.4
817.3,662.4 815.4,662.4 813.6,662.4 811.7,662.4 809.8,662.4 807.9,662.4 806.0,662.4 804.1,662.4 802.2,662.4 800.3,662.4 798.5,662.4 796.6,662.4 794.7,662.4 792.8,662.4 790.9,662.4 789.0,662.4
787.1,662.4 785.3,662.4 783.4,662.4 781.5,662.4 779.6,662.4 777.7,662.4 775.8,662.4 773.9,662.4 772.0,662.4 770.2,662.4 768.3,662.4 766.4,662.4 764.5,662.4 762.6,662.4 760.7,662.4 758.8,662.4
756.9,662.4 755.1,662.4 753.2,662.4 751.3,662.4 749.4,662.4 747.5,662.4 745.6,662.4 743.7,662.4 741.8,662.4 740.0,662.4 738.1,662.4 736.2,662.4 734.3,662.4 732.4,662.4 730.5,662.4 728.6,662.4
726.7,662.4 724.9,662.4 723.0,662.4 721.1,662.4 719.2,662.4 717.3,662.4 715.4,662.4 713.5,662.4 711.7,662.4 709.8,662.4 707.9,662.4 706.0,662.4 704.1,662.4 702.2,662.4 700.3,662.4 698.4,662.4
696.6,662.4 694.7,662.4 692.8,662.4 690.9,662.4 689.0,662.4 687.1,662.4 685.2,662.4 683.3,662.4 681.5,662.4 679.6,662.4 677.7,662.4 675.8,662.4 673.9,662.4 672.0,662.4 670.1,662.4 668.2,662.4
666.4,662.4 664.5,662.4 662.6,662.4 660.7,662.4 658.8,662.4 656.9,662.4 655.0,662.4 653.1,662.4 651.3,662.4 649.4,662.4 647.5,662.4 645.6,662.4 643.7,662.4 641.8,662.4 639.9,662.4 638.1,662.4
636.2,662.4 634.3,662.4 632.4,662.4 630.5,662.4 628.6,662.4 626.7,662.4 624.8,662.4 623.0,662.4 621.1,662.4 619.2,662.4 617.3,662.4 615.4,662.4 613.5,662.4 611.6,662.4 609.7,662.4 607.9,662.4
606.0,662.4 604.1,662.4 602.2,662.4 600.3,662.4 598.4,662.4 596.5,662.4 594.6,662.4 592.8,662.4 590.9,662.4 589.0,662.4 587.1,662.4 585.2,662.4 583.3,662.4 581.4,662.4 579.5,662.4 577.7,662.4
575.8,662.4 573.9,662.4 572.0,662.4 570.1,662.4 568.2,662.4 566.3,662.4 564.5,662.4 562.6,662.4 560.7,662.4 558.8,662.4 556.9,662.4 555.0,662.4 553.1,662.4 551.2,662.4 549.4,662.4 547.5,662.4
545.6,662.4 543.7,662.4 541.8,662.4 539.9,662.4 538.0,662.4 536.1,662.4 534.3,662.4 532.4,662.4 530.5,662.4 528.6,662.4 526.7,662.4 524.8,662.4 522.9,662.4 521.0,662.4 519.2,662.4 517.3,662.4
515.4,662.4 513.5,662.4 511.6,662.4 509.7,662.4 507.8,662.4 506.0,662.4 504.1,662.4 502.2,662.4 500.3,662.4 498.4,662.4 496.5,662.4 494.6,662.4 492.7,662.4 490.9,662.4 489.0,662.4 487.1,662.4
485.2,662.4 483.3,662.4 481.4,662.4 479.5,662.4 477.6,662.4 475.8,662.4 473.9,662.4 472.0,662.4 470.1,662.4 468.2,662.4 466.3,662.4 464.4,662.4 462.5,662.4 460.7,662.4 458.8,662.4 456.9,662.4
455.0,662.4 453.1,662.4 451.2,662.4 449.3,662.4 447.4,662.4 445.6,662.4 443.7,662.4 441.8,662.4 439.9,662.4 438.0,662.4 436.1,662.4 434.2,662.4 432.4,662.4 430.5,662.4 428.6,662.4 426.7,662.4
424.8,662.4 422.9,662.4 421.0,662.4 419.1,662.4 417.3,662.4 415.4,662.4 413.5,662.4 411.6,662.4 409.7,662.4 407.8,662.4 405.9,662.4 404.0,662.4 402.2,662.4 400.3,662.4 398.4,662.4 396.5,662.4
394.6,662.4 392.7,662.4 390.8,662.4 388.9,662.4 387.1,662.4 385.2,662.4 383.3,662.4 381.4,662.4 379.5,662.4 377.6,662.4 375.7,662.4 373.8,662.4 372.0,662.4 370.1,662.4 368.2,662.4 366.3,662.4
364.4,662.4 362.5,662.4 360.6,662.4 358.8,662.4 356.9,662.4 355.0,662.4 353.1,662.4 351.2,662.4 349.3,662.4 347.4,662.4 345.5,662.4 343.7,662.4 341.8,662.4 339.9,662.4 338.0,662.4 336.1,662.4
334.2,662.4 332.3,662.4 330.4,662.4 328.6,662.4 326.7,662.4 324.8,662.4 322.9,662.4 321.0,662.4 319.1,662.4 317.2,662.4 315.3,662.4 313.5,662.4 311.6,662.4 309.7,662.4 307.8,662.4 305.9,662.4
304.0,662.4 302.1,662.4 300.2,662.4 298.4,662.4 296.5,662.4 294.6,662.4 292.7,662.4 290.8,662.4 288.9,662.4 287.0,662.4 285.2,662.4 283.3,662.4 281.4,662.4 279.5,662.4 277.6,662.4 275.7,662.4
273.8,662.4 271.9,662.4 270.1,662.4 268.2,662.4 266.3,662.4 264.4,662.4 262.5,662.4 260.6,662.4 258.7,662.4 256.8,662.4 255.0,662.4 253.1,662.4 251.2,662.4 249.3,662.4 247.4,662.4 245.5,662.4
243.6,662.4 241.7,662.4 239.9,662.4 238.0,662.4 236.1,662.4 234.2,662.4 232.3,662.4 230.4,662.4 228.5,662.4 226.6,662.4 224.8,662.4 222.9,662.4 221.0,662.4 219.1,662.4 217.2,662.4 215.3,662.4
213.4,662.4 211.6,662.4 209.7,662.4 207.8,662.4 205.9,662.4 204.0,662.4 202.1,662.4 200.2,662.4 198.3,662.4 196.5,662.4 194.6,662.4 192.7,662.4 190.8,662.4 188.9,662.4 187.0,662.4 185.1,662.4
183.2,662.4 181.4,662.4 179.5,662.4 177.6,662.4 175.7,662.4 173.8,662.4 171.9,662.4 170.0,662.4 168.1,662.4 166.3,662.4 164.4,662.4 162.5,662.4 160.6,662.4 158.7,662.4 '/>
	</g>
</g>
	</g>
	<g id="gnuplot_plot_3" ><title>Point estimate</title>
<g fill="none" color="white" stroke="rgb( 31, 120, 180)" stroke-width="2.00" stroke-linecap="butt" stroke-linejoin="miter">
</g>
<g fill="none" color="black" stroke="currentColor" stroke-width="2.00" stroke-linecap="butt" stroke-linejoin="miter">
	<g transform="translate(1089.0,103.0)" stroke="none" fill="black" font-family="Helvetica" font-size="12.00"  text-anchor="start">
		<text><tspan font-family="Helvetica" >Point estimate</tspan></text>
	</g>
</g>
<g fill="none" color="black" stroke="currentColor" stroke-width="2.00" stroke-linecap="butt" stroke-linejoin="miter">
	<path stroke='rgb( 31, 120, 180)'  d='M1038.5,99.1 L1080.7,99.1 M421.1,662.4 L421.1,275.1  '/></g>
	</g>
<g fill="none" color="black" stroke="currentColor" stroke-width="2.00" stroke-linecap="butt" stroke-linejoin="miter">
</g>
<g fill="none" color="black" stroke="black" stroke-width="1.00" stroke-linecap="butt" stroke-linejoin="miter">
</g>
<g fill="none" color="black" stroke="currentColor" stroke-width="1.00" stroke-linecap="butt" stroke-linejoin="miter">
	<path stroke='black'  d='M71.9,54.1 L71.9,662.4 L1013.6,662.4 L1013.6,54.1 L71.9,54.1 Z  '/></g>
<g fill="none" color="black" stroke="currentColor" stroke-width="1.00" stroke-linecap="butt" stroke-linejoin="miter">
</g>
</g>
</svg>

