<?xml version="1.0" encoding="utf-8"  standalone="no"?>
<svg 
 viewBox="0 0 1280 720"
 xmlns="http://www.w3.org/2000/svg"
 xmlns:xlink="http://www.w3.org/1999/xlink"
>

<title>Gnuplot</title>
<desc>Produced by GNUPLOT 5.2 patchlevel 6 </desc>

<g id="gnuplot_canvas">

<rect x="0" y="0" width="1280" height="720" fill="none"/>
<defs>

	<circle id='gpDot' r='0.5' stroke-width='0.5' stroke='currentColor'/>
	<path id='gpPt0' stroke-width='0.222' stroke='currentColor' d='M-1,0 h2 M0,-1 v2'/>
	<path id='gpPt1' stroke-width='0.222' stroke='currentColor' d='M-1,-1 L1,1 M1,-1 L-1,1'/>
	<path id='gpPt2' stroke-width='0.222' stroke='currentColor' d='M-1,0 L1,0 M0,-1 L0,1 M-1,-1 L1,1 M-1,1 L1,-1'/>
	<rect id='gpPt3' stroke-width='0.222' stroke='currentColor' x='-1' y='-1' width='2' height='2'/>
	<rect id='gpPt4' stroke-width='0.222' stroke='currentColor' fill='currentColor' x='-1' y='-1' width='2' height='2'/>
	<circle id='gpPt5' stroke-width='0.222' stroke='currentColor' cx='0' cy='0' r='1'/>
	<use xlink:href='#gpPt5' id='gpPt6' fill='currentColor' stroke='none'/>
	<path id='gpPt7' stroke-width='0.222' stroke='currentColor' d='M0,-1.33 L-1.33,0.67 L1.33,0.67 z'/>
	<use xlink:href='#gpPt7' id='gpPt8' fill='currentColor' stroke='none'/>
	<use xlink:href='#gpPt7' id='gpPt9' stroke='currentColor' transform='rotate(180)'/>
	<use xlink:href='#gpPt9' id='gpPt10' fill='currentColor' stroke='none'/>
	<use xlink:href='#gpPt3' id='gpPt11' stroke='currentColor' transform='rotate(45)'/>
	<use xlink:href='#gpPt11' id='gpPt12' fill='currentColor' stroke='none'/>
	<path id='gpPt13' stroke-width='0.222' stroke='currentColor' d='M0,1.330 L1.265,0.411 L0.782,-1.067 L-0.782,-1.076 L-1.265,0.411 z'/>
	<use xlink:href='#gpPt13' id='gpPt14' fill='currentColor' stroke='none'/>
	<filter id='textbox' filterUnits='objectBoundingBox' x='0' y='0' height='1' width='1'>
	  <feFlood flood-color='white' flood-opacity='1' result='bgnd'/>
	  <feComposite in='SourceGraphic' in2='bgnd' operator='atop'/>
	</filter>
	<filter id='greybox' filterUnits='objectBoundingBox' x='0' y='0' height='1' width='1'>
	  <feFlood flood-color='lightgrey' flood-opacity='1' result='grey'/>
	  <feComposite in='SourceGraphic' in2='grey' operator='atop'/>
	</filter>
</defs>
<g fill="none" color="white" stroke="currentColor" stroke-width="1.00" stroke-linecap="butt" stroke-linejoin="miter">
</g>
<g fill="none" color="black" stroke="currentColor" stroke-width="1.00" stroke-linecap="butt" stroke-linejoin="miter">
	<path stroke='black'  d='M71.9,662.4 L80.9,662.4  '/>	<g transform="translate(63.6,666.3)" stroke="none" fill="black" font-family="Helvetica" font-size="12.00"  text-anchor="end">
		<text><tspan font-family="Helvetica" > 0</tspan></text>
	</g>
</g>
<g fill="none" color="black" stroke="currentColor" stroke-width="1.00" stroke-linecap="butt" stroke-linejoin="miter">
	<path stroke='black'  d='M71.9,594.8 L80.9,594.8  '/>	<g transform="translate(63.6,598.7)" stroke="none" fill="black" font-family="Helvetica" font-size="12.00"  text-anchor="end">
		<text><tspan font-family="Helvetica" > 0.2</tspan></text>
	</g>
</g>
<g fill="none" color="black" stroke="currentColor" stroke-width="1.00" stroke-linecap="butt" stroke-linejoin="miter">
	<path stroke='black'  d='M71.9,527.2 L80.9,527.2  '/>	<g transform="translate(63.6,531.1)" stroke="none" fill="black" font-family="Helvetica" font-size="12.00"  text-anchor="end">
		<text><tspan font-family="Helvetica" > 0.4</tspan></text>
	</g>
</g>
<g fill="none" color="black" stroke="currentColor" stroke-width="1.00" stroke-linecap="butt" stroke-linejoin="miter">
	<path stroke='black'  d='M71.9,459.6 L80.9,459.6  '/>	<g transform="translate(63.6,463.5)" stroke="none" fill="black" font-family="Helvetica" font-size="12.00"  text-anchor="end">
		<text><tspan font-family="Helvetica" > 0.6</tspan></text>
	</g>
</g>
<g fill="none" color="black" stroke="currentColor" stroke-width="1.00" stroke-linecap="butt" stroke-linejoin="miter">
	<path stroke='black'  d='M71.9,392.0 L80.9,392.0  '/>	<g transform="translate(63.6,395.9)" stroke="none" fill="black" font-family="Helvetica" font-size="12.00"  text-anchor="end">
		<text><tspan font-family="Helvetica" > 0.8</tspan></text>
	</g>
</g>
<g fill="none" color="black" stroke="currentColor" stroke-width="1.00" stroke-linecap="butt" stroke-linejoin="miter">
	<path stroke='black'  d='M71.9,324.5 L80.9,324.5  '/>	<g transform="translate(63.6,328.4)" stroke="none" fill="black" font-family="Helvetica" font-size="12.00"  text-anchor="end">
		<text><tspan font-family="Helvetica" > 1</tspan></text>
	</g>
</g>
<g fill="none" color="black" stroke="currentColor" stroke-width="1.00" stroke-linecap="butt" stroke-linejoin="miter">
	<path stroke='black'  d='M71.9,256.9 L80.9,256.9  '/>	<g transform="translate(63.6,260.8)" stroke="none" fill="black" font-family="Helvetica" font-size="12.00"  text-anchor="end">
		<text><tspan font-family="Helvetica" > 1.2</tspan></text>
	</g>
</g>
<g fill="none" color="black" stroke="currentColor" stroke-width="1.00" stroke-linecap="butt" stroke-linejoin="miter">
	<path stroke='black'  d='M71.9,189.3 L80.9,189.3  '/>	<g transform="translate(63.6,193.2)" stroke="none" fill="black" font-family="Helvetica" font-size="12.00"  text-anchor="end">
		<text><tspan font-family="Helvetica" > 1.4</tspan></text>
	</g>
</g>
<g fill="none" color="black" stroke="currentColor" stroke-width="1.00" stroke-linecap="butt" stroke-linejoin="miter">
	<path stroke='black'  d='M71.9,121.7 L80.9,121.7  '/>	<g transform="translate(63.6,125.6)" stroke="none" fill="black" font-family="Helvetica" font-size="12.00"  text-anchor="end">
		<text><tspan font-family="Helvetica" > 1.6</tspan></text>
	</g>
</g>
<g fill="none" color="black" stroke="currentColor" stroke-width="1.00" stroke-linecap="butt" stroke-linejoin="miter">
	<path stroke='black'  d='M71.9,54.1 L80.9,54.1  '/>	<g transform="translate(63.6,58.0)" stroke="none" fill="black" font-family="Helvetica" font-size="12.00"  text-anchor="end">
		<text><tspan font-family="Helvetica" > 1.8</tspan></text>
	</g>
</g>
<g fill="none" color="black" stroke="currentColor" stroke-width="1.00" stroke-linecap="butt" stroke-linejoin="miter">
	<path stroke='black'  d='M71.9,662.4 L71.9,653.4  '/>	<g transform="translate(71.9,684.3)" stroke="none" fill="black" font-family="Helvetica" font-size="12.00"  text-anchor="middle">
		<text><tspan font-family="Helvetica" > 25</tspan></text>
	</g>
</g>
<g fill="none" color="black" stroke="currentColor" stroke-width="1.00" stroke-linecap="butt" stroke-linejoin="miter">
	<path stroke='black'  d='M246.8,662.4 L246.8,653.4  '/>	<g transform="translate(246.8,684.3)" stroke="none" fill="black" font-family="Helvetica" font-size="12.00"  text-anchor="middle">
		<text><tspan font-family="Helvetica" > 30</tspan></text>
	</g>
</g>
<g fill="none" color="black" stroke="currentColor" stroke-width="1.00" stroke-linecap="butt" stroke-linejoin="miter">
	<path stroke='black'  d='M421.8,662.4 L421.8,653.4  '/>	<g transform="translate(421.8,684.3)" stroke="none" fill="black" font-family="Helvetica" font-size="12.00"  text-anchor="middle">
		<text><tspan font-family="Helvetica" > 35</tspan></text>
	</g>
</g>
<g fill="none" color="black" stroke="currentColor" stroke-width="1.00" stroke-linecap="butt" stroke-linejoin="miter">
	<path stroke='black'  d='M596.7,662.4 L596.7,653.4  '/>	<g transform="translate(596.7,684.3)" stroke="none" fill="black" font-family="Helvetica" font-size="12.00"  text-anchor="middle">
		<text><tspan font-family="Helvetica" > 40</tspan></text>
	</g>
</g>
<g fill="none" color="black" stroke="currentColor" stroke-width="1.00" stroke-linecap="butt" stroke-linejoin="miter">
	<path stroke='black'  d='M771.6,662.4 L771.6,653.4  '/>	<g transform="translate(771.6,684.3)" stroke="none" fill="black" font-family="Helvetica" font-size="12.00"  text-anchor="middle">
		<text><tspan font-family="Helvetica" > 45</tspan></text>
	</g>
</g>
<g fill="none" color="black" stroke="currentColor" stroke-width="1.00" stroke-linecap="butt" stroke-linejoin="miter">
	<path stroke='black'  d='M946.6,662.4 L946.6,653.4  '/>	<g transform="translate(946.6,684.3)" stroke="none" fill="black" font-family="Helvetica" font-size="12.00"  text-anchor="middle">
		<text><tspan font-family="Helvetica" > 50</tspan></text>
	</g>
</g>
<g fill="none" color="black" stroke="currentColor" stroke-width="1.00" stroke-linecap="butt" stroke-linejoin="miter">
	<path stroke='black'  d='M1121.5,662.4 L1121.5,653.4  '/>	<g transform="translate(1121.5,684.3)" stroke="none" fill="black" font-family="Helvetica" font-size="12.00"  text-anchor="middle">
		<text><tspan font-family="Helvetica" > 55</tspan></text>
	</g>
</g>
<g fill="none" color="black" stroke="currentColor" stroke-width="1.00" stroke-linecap="butt" stroke-linejoin="miter">
</g>
<g fill="none" color="black" stroke="currentColor" stroke-width="1.00" stroke-linecap="butt" stroke-linejoin="miter">
	<path stroke='black'  d='M71.9,54.1 L71.9,662.4 L1121.5,662.4 L1121.5,54.1 L71.9,54.1 Z  '/></g>
<g fill="none" color="black" stroke="currentColor" stroke-width="1.00" stroke-linecap="butt" stroke-linejoin="miter">
	<g transform="translate(16.3,358.3) rotate(270)" stroke="none" fill="black" font-family="Helvetica" font-size="12.00"  text-anchor="middle">
		<text><tspan font-family="Helvetica" >Density (a.u.)</tspan></text>
	</g>
</g>
<g fill="none" color="black" stroke="currentColor" stroke-width="1.00" stroke-linecap="butt" stroke-linejoin="miter">
	<g transform="translate(596.7,711.3)" stroke="none" fill="black" font-family="Helvetica" font-size="12.00"  text-anchor="middle">
		<text><tspan font-family="Helvetica" >Average time (us)</tspan></text>
	</g>
</g>
<g fill="none" color="black" stroke="currentColor" stroke-width="1.00" stroke-linecap="butt" stroke-linejoin="miter">
	<g transform="translate(596.7,31.0)" stroke="none" fill="black" font-family="Helvetica" font-size="12.00"  text-anchor="middle">
		<text><tspan font-family="Helvetica" >snapshot_restore_with_dense/Dense: Entire region + process_vm_writev/2</tspan></text>
	</g>
</g>
	<g id="gnuplot_plot_1" ><title>Base PDF</title>
<g fill="none" color="black" stroke="currentColor" stroke-width="1.00" stroke-linecap="butt" stroke-linejoin="miter">
	<g transform="translate(1196.9,67.0)" stroke="none" fill="black" font-family="Helvetica" font-size="12.00"  text-anchor="start">
		<text><tspan font-family="Helvetica" >Base PDF</tspan></text>
	</g>
</g>
<g fill="none" color="black" stroke="currentColor" stroke-width="1.00" stroke-linecap="butt" stroke-linejoin="miter">
	<g stroke='none' shape-rendering='crispEdges'>
		<polygon fill = 'rgb(227,  26,  28)' fill-opacity = '0.500000' points = '1146.4,67.6 1188.6,67.6 1188.6,58.6 1146.4,58.6 '/>
		<polygon fill = 'rgb(227,  26,  28)' fill-opacity = '0.500000' points = '225.1,662.2 226.6,662.2 228.1,662.2 229.5,662.1 231.0,662.1 232.5,662.1 234.0,662.0 235.5,662.0 237.0,661.9 238.4,661.9 239.9,661.8 241.4,661.7 242.9,661.6 244.4,661.5 245.9,661.4 247.4,661.3
248.8,661.2 250.3,661.0 251.8,660.9 253.3,660.7 254.8,660.5 256.3,660.3 257.8,660.1 259.2,659.9 260.7,659.6 262.2,659.4 263.7,659.1 265.2,658.7 266.7,658.4 268.1,658.0 269.6,657.6 271.1,657.2
272.6,656.7 274.1,656.2 275.6,655.7 277.1,655.1 278.5,654.5 280.0,653.9 281.5,653.2 283.0,652.5 284.5,651.8 286.0,651.0 287.4,650.1 288.9,649.3 290.4,648.4 291.9,647.4 293.4,646.4 294.9,645.4
296.4,644.3 297.8,643.2 299.3,642.0 300.8,640.9 302.3,639.6 303.8,638.4 305.3,637.1 306.8,635.7 308.2,634.4 309.7,633.0 311.2,631.5 312.7,630.1 314.2,628.6 315.7,627.1 317.1,625.6 318.6,624.1
320.1,622.6 321.6,621.0 323.1,619.5 324.6,617.9 326.1,616.4 327.5,614.9 329.0,613.3 330.5,611.8 332.0,610.3 333.5,608.9 335.0,607.4 336.4,606.0 337.9,604.6 339.4,603.3 340.9,602.0 342.4,600.7
343.9,599.5 345.4,598.3 346.8,597.2 348.3,596.1 349.8,595.1 351.3,594.1 352.8,593.2 354.3,592.4 355.7,591.6 357.2,590.9 358.7,590.2 360.2,589.6 361.7,589.1 363.2,588.6 364.7,588.2 366.1,587.9
367.6,587.7 369.1,587.5 370.6,587.3 372.1,587.3 373.6,587.3 375.1,587.3 376.5,587.4 378.0,587.6 379.5,587.8 381.0,588.1 382.5,588.4 384.0,588.8 385.4,589.2 386.9,589.6 388.4,590.1 389.9,590.7
391.4,591.2 392.9,591.8 394.4,592.5 395.8,593.1 397.3,593.8 398.8,594.5 400.3,595.3 401.8,596.0 403.3,596.8 404.7,597.6 406.2,598.4 407.7,599.2 409.2,600.0 410.7,600.8 412.2,601.6 413.7,602.4
415.1,603.2 416.6,604.1 418.1,604.9 419.6,605.7 421.1,606.5 422.6,607.3 424.1,608.1 425.5,608.9 427.0,609.7 428.5,610.5 430.0,611.3 431.5,612.0 433.0,612.8 434.4,613.6 435.9,614.3 437.4,615.0
438.9,615.8 440.4,616.5 441.9,617.2 443.4,617.9 444.8,618.6 446.3,619.2 447.8,619.9 449.3,620.6 450.8,621.2 452.3,621.9 453.7,622.5 455.2,623.1 456.7,623.8 458.2,624.4 459.7,625.0 461.2,625.6
462.7,626.2 464.1,626.8 465.6,627.4 467.1,628.0 468.6,628.5 470.1,629.1 471.6,629.7 473.0,630.2 474.5,630.8 476.0,631.3 477.5,631.9 479.0,632.4 480.5,633.0 482.0,633.5 483.4,634.0 484.9,634.6
486.4,635.1 487.9,635.6 489.4,636.1 490.9,636.7 492.4,637.2 493.8,637.7 495.3,638.2 496.8,638.7 498.3,639.2 499.8,639.7 501.3,640.2 502.7,640.7 504.2,641.2 505.7,641.7 507.2,642.2 508.7,642.7
510.2,643.2 511.7,643.7 513.1,644.2 514.6,644.7 516.1,645.1 517.6,645.6 519.1,646.1 520.6,646.6 522.0,647.0 523.5,647.5 525.0,648.0 526.5,648.4 528.0,648.9 529.5,649.3 531.0,649.8 532.4,650.2
533.9,650.6 535.4,651.1 536.9,651.5 538.4,651.9 539.9,652.3 541.4,652.7 542.8,653.1 544.3,653.5 545.8,653.9 547.3,654.3 548.8,654.6 550.3,655.0 551.7,655.3 553.2,655.7 554.7,656.0 556.2,656.3
557.7,656.6 559.2,656.9 560.7,657.2 562.1,657.5 563.6,657.7 565.1,658.0 566.6,658.3 568.1,658.5 569.6,658.7 571.0,659.0 572.5,659.2 574.0,659.4 575.5,659.6 577.0,659.8 578.5,659.9 580.0,660.1
581.4,660.3 582.9,660.4 584.4,660.5 585.9,660.7 587.4,660.8 588.9,660.9 590.4,661.0 591.8,661.1 593.3,661.2 594.8,661.3 596.3,661.4 597.8,661.5 599.3,661.6 600.7,661.6 602.2,661.7 603.7,661.8
605.2,661.8 606.7,661.9 608.2,661.9 609.7,662.0 611.1,662.0 612.6,662.0 614.1,662.1 615.6,662.1 617.1,662.1 618.6,662.2 620.0,662.2 621.5,662.2 623.0,662.2 624.5,662.2 626.0,662.3 627.5,662.3
629.0,662.3 630.4,662.3 631.9,662.3 633.4,662.3 634.9,662.3 636.4,662.3 637.9,662.3 639.3,662.3 640.8,662.3 642.3,662.3 643.8,662.3 645.3,662.3 646.8,662.3 648.3,662.3 649.7,662.3 651.2,662.3
652.7,662.3 654.2,662.3 655.7,662.3 657.2,662.3 658.7,662.3 660.1,662.3 661.6,662.3 663.1,662.3 664.6,662.3 666.1,662.3 667.6,662.3 669.0,662.2 670.5,662.2 672.0,662.2 673.5,662.2 675.0,662.2
676.5,662.2 678.0,662.1 679.4,662.1 680.9,662.1 682.4,662.1 683.9,662.0 685.4,662.0 686.9,662.0 688.3,661.9 689.8,661.9 691.3,661.9 692.8,661.8 694.3,661.8 695.8,661.7 697.3,661.7 698.7,661.7
700.2,661.6 701.7,661.6 703.2,661.5 704.7,661.4 706.2,661.4 707.7,661.3 709.1,661.3 710.6,661.2 712.1,661.2 713.6,661.1 715.1,661.0 716.6,661.0 718.0,660.9 719.5,660.8 721.0,660.8 722.5,660.7
724.0,660.7 725.5,660.6 727.0,660.5 728.4,660.5 729.9,660.4 731.4,660.4 732.9,660.3 734.4,660.2 735.9,660.2 737.3,660.1 738.8,660.1 740.3,660.0 741.8,660.0 743.3,660.0 744.8,659.9 746.3,659.9
747.7,659.9 749.2,659.9 750.7,659.8 752.2,659.8 753.7,659.8 755.2,659.8 756.6,659.8 758.1,659.8 759.6,659.8 761.1,659.8 762.6,659.8 764.1,659.8 765.6,659.9 767.0,659.9 768.5,659.9 770.0,659.9
771.5,660.0 773.0,660.0 774.5,660.0 776.0,660.1 777.4,660.1 778.9,660.2 780.4,660.2 781.9,660.2 783.4,660.3 784.9,660.3 786.3,660.4 787.8,660.4 789.3,660.5 790.8,660.5 792.3,660.6 793.8,660.6
795.3,660.6 796.7,660.7 798.2,660.7 799.7,660.8 801.2,660.8 802.7,660.8 804.2,660.9 805.6,660.9 807.1,660.9 808.6,661.0 810.1,661.0 811.6,661.0 813.1,661.0 814.6,661.0 816.0,661.1 817.5,661.1
819.0,661.1 820.5,661.1 822.0,661.1 823.5,661.1 825.0,661.1 826.4,661.1 827.9,661.1 829.4,661.1 830.9,661.1 832.4,661.1 833.9,661.1 835.3,661.1 836.8,661.1 838.3,661.1 839.8,661.1 841.3,661.1
842.8,661.0 844.3,661.0 845.7,661.0 847.2,661.0 848.7,661.0 850.2,661.0 851.7,661.0 853.2,661.0 854.6,661.0 856.1,661.0 857.6,661.0 859.1,661.0 860.6,661.0 862.1,661.1 863.6,661.1 865.0,661.1
866.5,661.1 868.0,661.1 869.5,661.1 871.0,661.2 872.5,661.2 874.0,661.2 875.4,661.2 876.9,661.2 878.4,661.3 879.9,661.3 881.4,661.3 882.9,661.4 884.3,661.4 885.8,661.4 887.3,661.5 888.8,661.5
890.3,661.5 891.8,661.6 893.3,661.6 894.7,661.6 896.2,661.7 897.7,661.7 899.2,661.7 900.7,661.8 902.2,661.8 903.6,661.8 905.1,661.8 906.6,661.9 908.1,661.9 909.6,661.9 911.1,662.0 912.6,662.0
914.0,662.0 915.5,662.0 917.0,662.1 918.5,662.1 920.0,662.1 921.5,662.1 922.9,662.1 924.4,662.2 925.9,662.2 927.4,662.2 928.9,662.2 930.4,662.2 931.9,662.2 933.3,662.3 934.8,662.3 936.3,662.3
937.8,662.3 939.3,662.3 940.8,662.3 942.3,662.3 943.7,662.3 945.2,662.3 946.7,662.3 948.2,662.3 949.7,662.3 951.2,662.4 952.6,662.4 954.1,662.4 955.6,662.4 957.1,662.4 958.6,662.4 960.1,662.4
961.6,662.4 963.0,662.4 964.5,662.4 966.0,662.4 966.0,662.4 964.5,662.4 963.0,662.4 961.6,662.4 960.1,662.4 958.6,662.4 957.1,662.4 955.6,662.4 954.1,662.4 952.6,662.4 951.2,662.4 949.7,662.4
948.2,662.4 946.7,662.4 945.2,662.4 943.7,662.4 942.3,662.4 940.8,662.4 939.3,662.4 937.8,662.4 936.3,662.4 934.8,662.4 933.3,662.4 931.9,662.4 930.4,662.4 928.9,662.4 927.4,662.4 925.9,662.4
924.4,662.4 922.9,662.4 921.5,662.4 920.0,662.4 918.5,662.4 917.0,662.4 915.5,662.4 914.0,662.4 912.6,662.4 911.1,662.4 909.6,662.4 908.1,662.4 906.6,662.4 905.1,662.4 903.6,662.4 902.2,662.4
900.7,662.4 899.2,662.4 897.7,662.4 896.2,662.4 894.7,662.4 893.3,662.4 891.8,662.4 890.3,662.4 888.8,662.4 887.3,662.4 885.8,662.4 884.3,662.4 882.9,662.4 881.4,662.4 879.9,662.4 878.4,662.4
876.9,662.4 875.4,662.4 874.0,662.4 872.5,662.4 871.0,662.4 869.5,662.4 868.0,662.4 866.5,662.4 865.0,662.4 863.6,662.4 862.1,662.4 860.6,662.4 859.1,662.4 857.6,662.4 856.1,662.4 854.6,662.4
853.2,662.4 851.7,662.4 850.2,662.4 848.7,662.4 847.2,662.4 845.7,662.4 844.3,662.4 842.8,662.4 841.3,662.4 839.8,662.4 838.3,662.4 836.8,662.4 835.3,662.4 833.9,662.4 832.4,662.4 830.9,662.4
829.4,662.4 827.9,662.4 826.4,662.4 825.0,662.4 823.5,662.4 822.0,662.4 820.5,662.4 819.0,662.4 817.5,662.4 816.0,662.4 814.6,662.4 813.1,662.4 811.6,662.4 810.1,662.4 808.6,662.4 807.1,662.4
805.6,662.4 804.2,662.4 802.7,662.4 801.2,662.4 799.7,662.4 798.2,662.4 796.7,662.4 795.3,662.4 793.8,662.4 792.3,662.4 790.8,662.4 789.3,662.4 787.8,662.4 786.3,662.4 784.9,662.4 783.4,662.4
781.9,662.4 780.4,662.4 778.9,662.4 777.4,662.4 776.0,662.4 774.5,662.4 773.0,662.4 771.5,662.4 770.0,662.4 768.5,662.4 767.0,662.4 765.6,662.4 764.1,662.4 762.6,662.4 761.1,662.4 759.6,662.4
758.1,662.4 756.6,662.4 755.2,662.4 753.7,662.4 752.2,662.4 750.7,662.4 749.2,662.4 747.7,662.4 746.3,662.4 744.8,662.4 743.3,662.4 741.8,662.4 740.3,662.4 738.8,662.4 737.3,662.4 735.9,662.4
734.4,662.4 732.9,662.4 731.4,662.4 729.9,662.4 728.4,662.4 727.0,662.4 725.5,662.4 724.0,662.4 722.5,662.4 721.0,662.4 719.5,662.4 718.0,662.4 716.6,662.4 715.1,662.4 713.6,662.4 712.1,662.4
710.6,662.4 709.1,662.4 707.7,662.4 706.2,662.4 704.7,662.4 703.2,662.4 701.7,662.4 700.2,662.4 698.7,662.4 697.3,662.4 695.8,662.4 694.3,662.4 692.8,662.4 691.3,662.4 689.8,662.4 688.3,662.4
686.9,662.4 685.4,662.4 683.9,662.4 682.4,662.4 680.9,662.4 679.4,662.4 678.0,662.4 676.5,662.4 675.0,662.4 673.5,662.4 672.0,662.4 670.5,662.4 669.0,662.4 667.6,662.4 666.1,662.4 664.6,662.4
663.1,662.4 661.6,662.4 660.1,662.4 658.7,662.4 657.2,662.4 655.7,662.4 654.2,662.4 652.7,662.4 651.2,662.4 649.7,662.4 648.3,662.4 646.8,662.4 645.3,662.4 643.8,662.4 642.3,662.4 640.8,662.4
639.3,662.4 637.9,662.4 636.4,662.4 634.9,662.4 633.4,662.4 631.9,662.4 630.4,662.4 629.0,662.4 627.5,662.4 626.0,662.4 624.5,662.4 623.0,662.4 621.5,662.4 620.0,662.4 618.6,662.4 617.1,662.4
615.6,662.4 614.1,662.4 612.6,662.4 611.1,662.4 609.7,662.4 608.2,662.4 606.7,662.4 605.2,662.4 603.7,662.4 602.2,662.4 600.7,662.4 599.3,662.4 597.8,662.4 596.3,662.4 594.8,662.4 593.3,662.4
591.8,662.4 590.4,662.4 588.9,662.4 587.4,662.4 585.9,662.4 584.4,662.4 582.9,662.4 581.4,662.4 580.0,662.4 578.5,662.4 577.0,662.4 575.5,662.4 574.0,662.4 572.5,662.4 571.0,662.4 569.6,662.4
568.1,662.4 566.6,662.4 565.1,662.4 563.6,662.4 562.1,662.4 560.7,662.4 559.2,662.4 557.7,662.4 556.2,662.4 554.7,662.4 553.2,662.4 551.7,662.4 550.3,662.4 548.8,662.4 547.3,662.4 545.8,662.4
544.3,662.4 542.8,662.4 541.4,662.4 539.9,662.4 538.4,662.4 536.9,662.4 535.4,662.4 533.9,662.4 532.4,662.4 531.0,662.4 529.5,662.4 528.0,662.4 526.5,662.4 525.0,662.4 523.5,662.4 522.0,662.4
520.6,662.4 519.1,662.4 517.6,662.4 516.1,662.4 514.6,662.4 513.1,662.4 511.7,662.4 510.2,662.4 508.7,662.4 507.2,662.4 505.7,662.4 504.2,662.4 502.7,662.4 501.3,662.4 499.8,662.4 498.3,662.4
496.8,662.4 495.3,662.4 493.8,662.4 492.4,662.4 490.9,662.4 489.4,662.4 487.9,662.4 486.4,662.4 484.9,662.4 483.4,662.4 482.0,662.4 480.5,662.4 479.0,662.4 477.5,662.4 476.0,662.4 474.5,662.4
473.0,662.4 471.6,662.4 470.1,662.4 468.6,662.4 467.1,662.4 465.6,662.4 464.1,662.4 462.7,662.4 461.2,662.4 459.7,662.4 458.2,662.4 456.7,662.4 455.2,662.4 453.7,662.4 452.3,662.4 450.8,662.4
449.3,662.4 447.8,662.4 446.3,662.4 444.8,662.4 443.4,662.4 441.9,662.4 440.4,662.4 438.9,662.4 437.4,662.4 435.9,662.4 434.4,662.4 433.0,662.4 431.5,662.4 430.0,662.4 428.5,662.4 427.0,662.4
425.5,662.4 424.1,662.4 422.6,662.4 421.1,662.4 419.6,662.4 418.1,662.4 416.6,662.4 415.1,662.4 413.7,662.4 412.2,662.4 410.7,662.4 409.2,662.4 407.7,662.4 406.2,662.4 404.7,662.4 403.3,662.4
401.8,662.4 400.3,662.4 398.8,662.4 397.3,662.4 395.8,662.4 394.4,662.4 392.9,662.4 391.4,662.4 389.9,662.4 388.4,662.4 386.9,662.4 385.4,662.4 384.0,662.4 382.5,662.4 381.0,662.4 379.5,662.4
378.0,662.4 376.5,662.4 375.1,662.4 373.6,662.4 372.1,662.4 370.6,662.4 369.1,662.4 367.6,662.4 366.1,662.4 364.7,662.4 363.2,662.4 361.7,662.4 360.2,662.4 358.7,662.4 357.2,662.4 355.7,662.4
354.3,662.4 352.8,662.4 351.3,662.4 349.8,662.4 348.3,662.4 346.8,662.4 345.4,662.4 343.9,662.4 342.4,662.4 340.9,662.4 339.4,662.4 337.9,662.4 336.4,662.4 335.0,662.4 333.5,662.4 332.0,662.4
330.5,662.4 329.0,662.4 327.5,662.4 326.1,662.4 324.6,662.4 323.1,662.4 321.6,662.4 320.1,662.4 318.6,662.4 317.1,662.4 315.7,662.4 314.2,662.4 312.7,662.4 311.2,662.4 309.7,662.4 308.2,662.4
306.8,662.4 305.3,662.4 303.8,662.4 302.3,662.4 300.8,662.4 299.3,662.4 297.8,662.4 296.4,662.4 294.9,662.4 293.4,662.4 291.9,662.4 290.4,662.4 288.9,662.4 287.4,662.4 286.0,662.4 284.5,662.4
283.0,662.4 281.5,662.4 280.0,662.4 278.5,662.4 277.1,662.4 275.6,662.4 274.1,662.4 272.6,662.4 271.1,662.4 269.6,662.4 268.1,662.4 266.7,662.4 265.2,662.4 263.7,662.4 262.2,662.4 260.7,662.4
259.2,662.4 257.8,662.4 256.3,662.4 254.8,662.4 253.3,662.4 251.8,662.4 250.3,662.4 248.8,662.4 247.4,662.4 245.9,662.4 244.4,662.4 242.9,662.4 241.4,662.4 239.9,662.4 238.4,662.4 237.0,662.4
235.5,662.4 234.0,662.4 232.5,662.4 231.0,662.4 229.5,662.4 228.1,662.4 226.6,662.4 225.1,662.4 '/>
	</g>
</g>
	</g>
	<g id="gnuplot_plot_2" ><title>Base Mean</title>
<g fill="none" color="white" stroke="rgb(227,  26,  28)" stroke-width="2.00" stroke-linecap="butt" stroke-linejoin="miter">
</g>
<g fill="none" color="black" stroke="currentColor" stroke-width="2.00" stroke-linecap="butt" stroke-linejoin="miter">
	<g transform="translate(1196.9,85.0)" stroke="none" fill="black" font-family="Helvetica" font-size="12.00"  text-anchor="start">
		<text><tspan font-family="Helvetica" >Base Mean</tspan></text>
	</g>
</g>
<g fill="none" color="black" stroke="currentColor" stroke-width="2.00" stroke-linecap="butt" stroke-linejoin="miter">
	<path stroke='rgb(227,  26,  28)'  d='M1146.4,81.1 L1188.6,81.1 M411.5,662.4 L411.5,601.2  '/></g>
	</g>
	<g id="gnuplot_plot_3" ><title>New PDF</title>
<g fill="none" color="white" stroke="rgb(227,  26,  28)" stroke-width="1.00" stroke-linecap="butt" stroke-linejoin="miter">
</g>
<g fill="none" color="black" stroke="currentColor" stroke-width="1.00" stroke-linecap="butt" stroke-linejoin="miter">
	<g transform="translate(1196.9,103.0)" stroke="none" fill="black" font-family="Helvetica" font-size="12.00"  text-anchor="start">
		<text><tspan font-family="Helvetica" >New PDF</tspan></text>
	</g>
</g>
<g fill="none" color="black" stroke="currentColor" stroke-width="1.00" stroke-linecap="butt" stroke-linejoin="miter">
	<g stroke='none' shape-rendering='crispEdges'>
		<polygon fill = 'rgb( 31, 120, 180)' fill-opacity = '0.500000' points = '1146.4,103.6 1188.6,103.6 1188.6,94.6 1146.4,94.6 '/>
		<polygon fill = 'rgb( 31, 120, 180)' fill-opacity = '0.500000' points = '108.6,660.5 109.0,660.1 109.4,659.7 109.8,659.2 110.1,658.7 110.5,658.1 110.9,657.3 111.2,656.5 111.6,655.5 112.0,654.4 112.4,653.2 112.7,651.8 113.1,650.2 113.5,648.4 113.8,646.4 114.2,644.2
114.6,641.7 115.0,638.9 115.3,635.7 115.7,632.3 116.1,628.5 116.4,624.2 116.8,619.6 117.2,614.5 117.6,609.0 117.9,603.0 118.3,596.5 118.7,589.4 119.1,581.8 119.4,573.5 119.8,564.7 120.2,555.3
120.5,545.3 120.9,534.7 121.3,523.4 121.7,511.6 122.0,499.1 122.4,486.0 122.8,472.4 123.1,458.2 123.5,443.5 123.9,428.3 124.3,412.7 124.6,396.7 125.0,380.4 125.4,363.7 125.7,346.9 126.1,330.0
126.5,313.0 126.9,296.1 127.2,279.3 127.6,262.7 128.0,246.3 128.3,230.4 128.7,215.0 129.1,200.1 129.5,185.9 129.8,172.5 130.2,159.9 130.6,148.2 131.0,137.5 131.3,127.9 131.7,119.4 132.1,112.1
132.4,106.1 132.8,101.3 133.2,97.8 133.6,95.7 133.9,94.9 134.3,95.5 134.7,97.4 135.0,100.6 135.4,105.1 135.8,110.9 136.2,117.9 136.5,126.0 136.9,135.3 137.3,145.6 137.6,156.8 138.0,169.0
138.4,181.9 138.8,195.6 139.1,209.9 139.5,224.8 139.9,240.1 140.2,255.8 140.6,271.7 141.0,287.9 141.4,304.1 141.7,320.4 142.1,336.7 142.5,352.8 142.8,368.7 143.2,384.4 143.6,399.7 144.0,414.7
144.3,429.3 144.7,443.4 145.1,457.1 145.5,470.2 145.8,482.8 146.2,494.8 146.6,506.3 146.9,517.2 147.3,527.5 147.7,537.2 148.1,546.3 148.4,554.9 148.8,562.9 149.2,570.4 149.5,577.3 149.9,583.7
150.3,589.6 150.7,595.1 151.0,600.1 151.4,604.7 151.8,608.9 152.1,612.7 152.5,616.2 152.9,619.4 153.3,622.2 153.6,624.8 154.0,627.1 154.4,629.1 154.7,631.0 155.1,632.6 155.5,634.1 155.9,635.4
156.2,636.6 156.6,637.6 157.0,638.5 157.4,639.3 157.7,640.0 158.1,640.7 158.5,641.2 158.8,641.7 159.2,642.1 159.6,642.5 160.0,642.8 160.3,643.1 160.7,643.4 161.1,643.6 161.4,643.7 161.8,643.9
162.2,644.0 162.6,644.1 162.9,644.2 163.3,644.3 163.7,644.4 164.0,644.4 164.4,644.4 164.8,644.4 165.2,644.4 165.5,644.4 165.9,644.4 166.3,644.4 166.6,644.4 167.0,644.3 167.4,644.3 167.8,644.3
168.1,644.2 168.5,644.2 168.9,644.2 169.2,644.1 169.6,644.1 170.0,644.1 170.4,644.1 170.7,644.1 171.1,644.1 171.5,644.1 171.9,644.1 172.2,644.1 172.6,644.2 173.0,644.2 173.3,644.3 173.7,644.4
174.1,644.5 174.5,644.6 174.8,644.7 175.2,644.8 175.6,644.9 175.9,645.0 176.3,645.1 176.7,645.3 177.1,645.4 177.4,645.5 177.8,645.6 178.2,645.8 178.5,645.9 178.9,646.0 179.3,646.1 179.7,646.2
180.0,646.3 180.4,646.4 180.8,646.5 181.1,646.6 181.5,646.7 181.9,646.7 182.3,646.8 182.6,646.8 183.0,646.8 183.4,646.9 183.8,646.9 184.1,646.9 184.5,646.9 184.9,646.9 185.2,646.9 185.6,646.9
186.0,646.9 186.4,646.9 186.7,646.9 187.1,647.0 187.5,647.0 187.8,647.1 188.2,647.1 188.6,647.2 189.0,647.3 189.3,647.4 189.7,647.5 190.1,647.7 190.4,647.9 190.8,648.1 191.2,648.3 191.6,648.5
191.9,648.8 192.3,649.1 192.7,649.3 193.0,649.7 193.4,650.0 193.8,650.3 194.2,650.7 194.5,651.1 194.9,651.5 195.3,651.9 195.6,652.3 196.0,652.7 196.4,653.1 196.8,653.6 197.1,654.0 197.5,654.4
197.9,654.8 198.3,655.2 198.6,655.7 199.0,656.1 199.4,656.4 199.7,656.8 200.1,657.2 200.5,657.6 200.9,657.9 201.2,658.2 201.6,658.5 202.0,658.8 202.3,659.1 202.7,659.4 203.1,659.7 203.5,659.9
203.8,660.1 204.2,660.3 204.6,660.5 204.9,660.7 205.3,660.9 205.7,661.0 206.1,661.2 206.4,661.3 206.8,661.4 207.2,661.5 207.5,661.6 207.9,661.7 208.3,661.8 208.7,661.9 209.0,661.9 209.4,662.0
209.8,662.0 210.1,662.1 210.5,662.1 210.9,662.2 211.3,662.2 211.6,662.2 212.0,662.3 212.4,662.3 212.8,662.3 213.1,662.3 213.5,662.3 213.9,662.3 214.2,662.3 214.6,662.4 215.0,662.4 215.4,662.4
215.7,662.4 216.1,662.4 216.5,662.4 216.8,662.4 217.2,662.4 217.6,662.4 218.0,662.4 218.3,662.4 218.7,662.4 219.1,662.4 219.4,662.4 219.8,662.4 220.2,662.4 220.6,662.4 220.9,662.4 221.3,662.4
221.7,662.4 222.0,662.4 222.4,662.4 222.8,662.4 223.2,662.4 223.5,662.4 223.9,662.4 224.3,662.4 224.7,662.4 225.0,662.4 225.4,662.4 225.8,662.4 226.1,662.4 226.5,662.4 226.9,662.4 227.3,662.4
227.6,662.4 228.0,662.4 228.4,662.4 228.7,662.4 229.1,662.4 229.5,662.4 229.9,662.4 230.2,662.4 230.6,662.4 231.0,662.4 231.3,662.4 231.7,662.4 232.1,662.4 232.5,662.4 232.8,662.4 233.2,662.4
233.6,662.4 233.9,662.4 234.3,662.4 234.7,662.4 235.1,662.4 235.4,662.4 235.8,662.4 236.2,662.4 236.5,662.4 236.9,662.4 237.3,662.4 237.7,662.4 238.0,662.4 238.4,662.4 238.8,662.4 239.2,662.4
239.5,662.4 239.9,662.4 240.3,662.4 240.6,662.4 241.0,662.4 241.4,662.4 241.8,662.4 242.1,662.4 242.5,662.4 242.9,662.4 243.2,662.4 243.6,662.4 244.0,662.4 244.4,662.4 244.7,662.4 245.1,662.4
245.5,662.4 245.8,662.4 246.2,662.4 246.6,662.4 247.0,662.4 247.3,662.4 247.7,662.4 248.1,662.4 248.4,662.4 248.8,662.4 249.2,662.4 249.6,662.4 249.9,662.3 250.3,662.3 250.7,662.3 251.1,662.3
251.4,662.3 251.8,662.3 252.2,662.3 252.5,662.2 252.9,662.2 253.3,662.2 253.7,662.2 254.0,662.1 254.4,662.1 254.8,662.0 255.1,662.0 255.5,661.9 255.9,661.9 256.3,661.8 256.6,661.8 257.0,661.7
257.4,661.6 257.7,661.5 258.1,661.4 258.5,661.3 258.9,661.2 259.2,661.1 259.6,661.0 260.0,660.9 260.3,660.7 260.7,660.6 261.1,660.4 261.5,660.3 261.8,660.1 262.2,659.9 262.6,659.7 262.9,659.6
263.3,659.4 263.7,659.2 264.1,659.0 264.4,658.8 264.8,658.6 265.2,658.4 265.6,658.2 265.9,658.0 266.3,657.8 266.7,657.6 267.0,657.4 267.4,657.2 267.8,657.1 268.2,656.9 268.5,656.7 268.9,656.6
269.3,656.5 269.6,656.3 270.0,656.2 270.4,656.2 270.8,656.1 271.1,656.0 271.5,656.0 271.9,655.9 272.2,655.9 272.6,655.9 273.0,656.0 273.4,656.0 273.7,656.1 274.1,656.1 274.5,656.2 274.8,656.3
275.2,656.4 275.6,656.6 276.0,656.7 276.3,656.8 276.7,657.0 277.1,657.2 277.4,657.4 277.8,657.5 278.2,657.7 278.6,657.9 278.9,658.1 279.3,658.3 279.7,658.5 280.1,658.7 280.4,658.9 280.8,659.1
281.2,659.3 281.5,659.5 281.9,659.7 282.3,659.9 282.7,660.0 283.0,660.2 283.4,660.4 283.8,660.5 284.1,660.7 284.5,660.8 284.9,660.9 285.3,661.1 285.6,661.2 286.0,661.3 286.4,661.4 286.7,661.5
287.1,661.6 287.5,661.7 287.9,661.7 288.2,661.8 288.6,661.9 289.0,661.9 289.3,662.0 289.7,662.0 290.1,662.1 290.5,662.1 290.8,662.1 291.2,662.2 291.6,662.2 292.0,662.2 292.3,662.3 292.7,662.3
293.1,662.3 293.4,662.3 293.8,662.3 294.2,662.3 294.2,662.4 293.8,662.4 293.4,662.4 293.1,662.4 292.7,662.4 292.3,662.4 292.0,662.4 291.6,662.4 291.2,662.4 290.8,662.4 290.5,662.4 290.1,662.4
289.7,662.4 289.3,662.4 289.0,662.4 288.6,662.4 288.2,662.4 287.9,662.4 287.5,662.4 287.1,662.4 286.7,662.4 286.4,662.4 286.0,662.4 285.6,662.4 285.3,662.4 284.9,662.4 284.5,662.4 284.1,662.4
283.8,662.4 283.4,662.4 283.0,662.4 282.7,662.4 282.3,662.4 281.9,662.4 281.5,662.4 281.2,662.4 280.8,662.4 280.4,662.4 280.1,662.4 279.7,662.4 279.3,662.4 278.9,662.4 278.6,662.4 278.2,662.4
277.8,662.4 277.4,662.4 277.1,662.4 276.7,662.4 276.3,662.4 276.0,662.4 275.6,662.4 275.2,662.4 274.8,662.4 274.5,662.4 274.1,662.4 273.7,662.4 273.4,662.4 273.0,662.4 272.6,662.4 272.2,662.4
271.9,662.4 271.5,662.4 271.1,662.4 270.8,662.4 270.4,662.4 270.0,662.4 269.6,662.4 269.3,662.4 268.9,662.4 268.5,662.4 268.2,662.4 267.8,662.4 267.4,662.4 267.0,662.4 266.7,662.4 266.3,662.4
265.9,662.4 265.6,662.4 265.2,662.4 264.8,662.4 264.4,662.4 264.1,662.4 263.7,662.4 263.3,662.4 262.9,662.4 262.6,662.4 262.2,662.4 261.8,662.4 261.5,662.4 261.1,662.4 260.7,662.4 260.3,662.4
260.0,662.4 259.6,662.4 259.2,662.4 258.9,662.4 258.5,662.4 258.1,662.4 257.7,662.4 257.4,662.4 257.0,662.4 256.6,662.4 256.3,662.4 255.9,662.4 255.5,662.4 255.1,662.4 254.8,662.4 254.4,662.4
254.0,662.4 253.7,662.4 253.3,662.4 252.9,662.4 252.5,662.4 252.2,662.4 251.8,662.4 251.4,662.4 251.1,662.4 250.7,662.4 250.3,662.4 249.9,662.4 249.6,662.4 249.2,662.4 248.8,662.4 248.4,662.4
248.1,662.4 247.7,662.4 247.3,662.4 247.0,662.4 246.6,662.4 246.2,662.4 245.8,662.4 245.5,662.4 245.1,662.4 244.7,662.4 244.4,662.4 244.0,662.4 243.6,662.4 243.2,662.4 242.9,662.4 242.5,662.4
242.1,662.4 241.8,662.4 241.4,662.4 241.0,662.4 240.6,662.4 240.3,662.4 239.9,662.4 239.5,662.4 239.2,662.4 238.8,662.4 238.4,662.4 238.0,662.4 237.7,662.4 237.3,662.4 236.9,662.4 236.5,662.4
236.2,662.4 235.8,662.4 235.4,662.4 235.1,662.4 234.7,662.4 234.3,662.4 233.9,662.4 233.6,662.4 233.2,662.4 232.8,662.4 232.5,662.4 232.1,662.4 231.7,662.4 231.3,662.4 231.0,662.4 230.6,662.4
230.2,662.4 229.9,662.4 229.5,662.4 229.1,662.4 228.7,662.4 228.4,662.4 228.0,662.4 227.6,662.4 227.3,662.4 226.9,662.4 226.5,662.4 226.1,662.4 225.8,662.4 225.4,662.4 225.0,662.4 224.7,662.4
224.3,662.4 223.9,662.4 223.5,662.4 223.2,662.4 222.8,662.4 222.4,662.4 222.0,662.4 221.7,662.4 221.3,662.4 220.9,662.4 220.6,662.4 220.2,662.4 219.8,662.4 219.4,662.4 219.1,662.4 218.7,662.4
218.3,662.4 218.0,662.4 217.6,662.4 217.2,662.4 216.8,662.4 216.5,662.4 216.1,662.4 215.7,662.4 215.4,662.4 215.0,662.4 214.6,662.4 214.2,662.4 213.9,662.4 213.5,662.4 213.1,662.4 212.8,662.4
212.4,662.4 212.0,662.4 211.6,662.4 211.3,662.4 210.9,662.4 210.5,662.4 210.1,662.4 209.8,662.4 209.4,662.4 209.0,662.4 208.7,662.4 208.3,662.4 207.9,662.4 207.5,662.4 207.2,662.4 206.8,662.4
206.4,662.4 206.1,662.4 205.7,662.4 205.3,662.4 204.9,662.4 204.6,662.4 204.2,662.4 203.8,662.4 203.5,662.4 203.1,662.4 202.7,662.4 202.3,662.4 202.0,662.4 201.6,662.4 201.2,662.4 200.9,662.4
200.5,662.4 200.1,662.4 199.7,662.4 199.4,662.4 199.0,662.4 198.6,662.4 198.3,662.4 197.9,662.4 197.5,662.4 197.1,662.4 196.8,662.4 196.4,662.4 196.0,662.4 195.6,662.4 195.3,662.4 194.9,662.4
194.5,662.4 194.2,662.4 193.8,662.4 193.4,662.4 193.0,662.4 192.7,662.4 192.3,662.4 191.9,662.4 191.6,662.4 191.2,662.4 190.8,662.4 190.4,662.4 190.1,662.4 189.7,662.4 189.3,662.4 189.0,662.4
188.6,662.4 188.2,662.4 187.8,662.4 187.5,662.4 187.1,662.4 186.7,662.4 186.4,662.4 186.0,662.4 185.6,662.4 185.2,662.4 184.9,662.4 184.5,662.4 184.1,662.4 183.8,662.4 183.4,662.4 183.0,662.4
182.6,662.4 182.3,662.4 181.9,662.4 181.5,662.4 181.1,662.4 180.8,662.4 180.4,662.4 180.0,662.4 179.7,662.4 179.3,662.4 178.9,662.4 178.5,662.4 178.2,662.4 177.8,662.4 177.4,662.4 177.1,662.4
176.7,662.4 176.3,662.4 175.9,662.4 175.6,662.4 175.2,662.4 174.8,662.4 174.5,662.4 174.1,662.4 173.7,662.4 173.3,662.4 173.0,662.4 172.6,662.4 172.2,662.4 171.9,662.4 171.5,662.4 171.1,662.4
170.7,662.4 170.4,662.4 170.0,662.4 169.6,662.4 169.2,662.4 168.9,662.4 168.5,662.4 168.1,662.4 167.8,662.4 167.4,662.4 167.0,662.4 166.6,662.4 166.3,662.4 165.9,662.4 165.5,662.4 165.2,662.4
164.8,662.4 164.4,662.4 164.0,662.4 163.7,662.4 163.3,662.4 162.9,662.4 162.6,662.4 162.2,662.4 161.8,662.4 161.4,662.4 161.1,662.4 160.7,662.4 160.3,662.4 160.0,662.4 159.6,662.4 159.2,662.4
158.8,662.4 158.5,662.4 158.1,662.4 157.7,662.4 157.4,662.4 157.0,662.4 156.6,662.4 156.2,662.4 155.9,662.4 155.5,662.4 155.1,662.4 154.7,662.4 154.4,662.4 154.0,662.4 153.6,662.4 153.3,662.4
152.9,662.4 152.5,662.4 152.1,662.4 151.8,662.4 151.4,662.4 151.0,662.4 150.7,662.4 150.3,662.4 149.9,662.4 149.5,662.4 149.2,662.4 148.8,662.4 148.4,662.4 148.1,662.4 147.7,662.4 147.3,662.4
146.9,662.4 146.6,662.4 146.2,662.4 145.8,662.4 145.5,662.4 145.1,662.4 144.7,662.4 144.3,662.4 144.0,662.4 143.6,662.4 143.2,662.4 142.8,662.4 142.5,662.4 142.1,662.4 141.7,662.4 141.4,662.4
141.0,662.4 140.6,662.4 140.2,662.4 139.9,662.4 139.5,662.4 139.1,662.4 138.8,662.4 138.4,662.4 138.0,662.4 137.6,662.4 137.3,662.4 136.9,662.4 136.5,662.4 136.2,662.4 135.8,662.4 135.4,662.4
135.0,662.4 134.7,662.4 134.3,662.4 133.9,662.4 133.6,662.4 133.2,662.4 132.8,662.4 132.4,662.4 132.1,662.4 131.7,662.4 131.3,662.4 131.0,662.4 130.6,662.4 130.2,662.4 129.8,662.4 129.5,662.4
129.1,662.4 128.7,662.4 128.3,662.4 128.0,662.4 127.6,662.4 127.2,662.4 126.9,662.4 126.5,662.4 126.1,662.4 125.7,662.4 125.4,662.4 125.0,662.4 124.6,662.4 124.3,662.4 123.9,662.4 123.5,662.4
123.1,662.4 122.8,662.4 122.4,662.4 122.0,662.4 121.7,662.4 121.3,662.4 120.9,662.4 120.5,662.4 120.2,662.4 119.8,662.4 119.4,662.4 119.1,662.4 118.7,662.4 118.3,662.4 117.9,662.4 117.6,662.4
117.2,662.4 116.8,662.4 116.4,662.4 116.1,662.4 115.7,662.4 115.3,662.4 115.0,662.4 114.6,662.4 114.2,662.4 113.8,662.4 113.5,662.4 113.1,662.4 112.7,662.4 112.4,662.4 112.0,662.4 111.6,662.4
111.2,662.4 110.9,662.4 110.5,662.4 110.1,662.4 109.8,662.4 109.4,662.4 109.0,662.4 108.6,662.4 '/>
	</g>
</g>
	</g>
	<g id="gnuplot_plot_4" ><title>New Mean</title>
<g fill="none" color="white" stroke="rgb( 31, 120, 180)" stroke-width="2.00" stroke-linecap="butt" stroke-linejoin="miter">
</g>
<g fill="none" color="black" stroke="currentColor" stroke-width="2.00" stroke-linecap="butt" stroke-linejoin="miter">
	<g transform="translate(1196.9,121.0)" stroke="none" fill="black" font-family="Helvetica" font-size="12.00"  text-anchor="start">
		<text><tspan font-family="Helvetica" >New Mean</tspan></text>
	</g>
</g>
<g fill="none" color="black" stroke="currentColor" stroke-width="2.00" stroke-linecap="butt" stroke-linejoin="miter">
	<path stroke='rgb( 31, 120, 180)'  d='M1146.4,117.1 L1188.6,117.1 M138.2,662.4 L138.2,175.6  '/></g>
	</g>
<g fill="none" color="black" stroke="currentColor" stroke-width="2.00" stroke-linecap="butt" stroke-linejoin="miter">
</g>
<g fill="none" color="black" stroke="black" stroke-width="1.00" stroke-linecap="butt" stroke-linejoin="miter">
</g>
<g fill="none" color="black" stroke="currentColor" stroke-width="1.00" stroke-linecap="butt" stroke-linejoin="miter">
	<path stroke='black'  d='M71.9,54.1 L71.9,662.4 L1121.5,662.4 L1121.5,54.1 L71.9,54.1 Z  '/></g>
<g fill="none" color="black" stroke="currentColor" stroke-width="1.00" stroke-linecap="butt" stroke-linejoin="miter">
</g>
</g>
</svg>

