<?xml version="1.0" encoding="utf-8"  standalone="no"?>
<svg 
 viewBox="0 0 1280 720"
 xmlns="http://www.w3.org/2000/svg"
 xmlns:xlink="http://www.w3.org/1999/xlink"
>

<title>Gnuplot</title>
<desc>Produced by GNUPLOT 5.2 patchlevel 6 </desc>

<g id="gnuplot_canvas">

<rect x="0" y="0" width="1280" height="720" fill="none"/>
<defs>

	<circle id='gpDot' r='0.5' stroke-width='0.5' stroke='currentColor'/>
	<path id='gpPt0' stroke-width='0.222' stroke='currentColor' d='M-1,0 h2 M0,-1 v2'/>
	<path id='gpPt1' stroke-width='0.222' stroke='currentColor' d='M-1,-1 L1,1 M1,-1 L-1,1'/>
	<path id='gpPt2' stroke-width='0.222' stroke='currentColor' d='M-1,0 L1,0 M0,-1 L0,1 M-1,-1 L1,1 M-1,1 L1,-1'/>
	<rect id='gpPt3' stroke-width='0.222' stroke='currentColor' x='-1' y='-1' width='2' height='2'/>
	<rect id='gpPt4' stroke-width='0.222' stroke='currentColor' fill='currentColor' x='-1' y='-1' width='2' height='2'/>
	<circle id='gpPt5' stroke-width='0.222' stroke='currentColor' cx='0' cy='0' r='1'/>
	<use xlink:href='#gpPt5' id='gpPt6' fill='currentColor' stroke='none'/>
	<path id='gpPt7' stroke-width='0.222' stroke='currentColor' d='M0,-1.33 L-1.33,0.67 L1.33,0.67 z'/>
	<use xlink:href='#gpPt7' id='gpPt8' fill='currentColor' stroke='none'/>
	<use xlink:href='#gpPt7' id='gpPt9' stroke='currentColor' transform='rotate(180)'/>
	<use xlink:href='#gpPt9' id='gpPt10' fill='currentColor' stroke='none'/>
	<use xlink:href='#gpPt3' id='gpPt11' stroke='currentColor' transform='rotate(45)'/>
	<use xlink:href='#gpPt11' id='gpPt12' fill='currentColor' stroke='none'/>
	<path id='gpPt13' stroke-width='0.222' stroke='currentColor' d='M0,1.330 L1.265,0.411 L0.782,-1.067 L-0.782,-1.076 L-1.265,0.411 z'/>
	<use xlink:href='#gpPt13' id='gpPt14' fill='currentColor' stroke='none'/>
	<filter id='textbox' filterUnits='objectBoundingBox' x='0' y='0' height='1' width='1'>
	  <feFlood flood-color='white' flood-opacity='1' result='bgnd'/>
	  <feComposite in='SourceGraphic' in2='bgnd' operator='atop'/>
	</filter>
	<filter id='greybox' filterUnits='objectBoundingBox' x='0' y='0' height='1' width='1'>
	  <feFlood flood-color='lightgrey' flood-opacity='1' result='grey'/>
	  <feComposite in='SourceGraphic' in2='grey' operator='atop'/>
	</filter>
</defs>
<g fill="none" color="white" stroke="currentColor" stroke-width="1.00" stroke-linecap="butt" stroke-linejoin="miter">
</g>
<g fill="none" color="black" stroke="currentColor" stroke-width="1.00" stroke-linecap="butt" stroke-linejoin="miter">
	<path stroke='black'  d='M55.3,662.4 L64.3,662.4  '/>	<g transform="translate(47.0,666.3)" stroke="none" fill="black" font-family="Helvetica" font-size="12.00"  text-anchor="end">
		<text><tspan font-family="Helvetica" > 0</tspan></text>
	</g>
</g>
<g fill="none" color="black" stroke="currentColor" stroke-width="1.00" stroke-linecap="butt" stroke-linejoin="miter">
	<path stroke='black'  d='M55.3,561.0 L64.3,561.0  '/>	<g transform="translate(47.0,564.9)" stroke="none" fill="black" font-family="Helvetica" font-size="12.00"  text-anchor="end">
		<text><tspan font-family="Helvetica" > 1</tspan></text>
	</g>
</g>
<g fill="none" color="black" stroke="currentColor" stroke-width="1.00" stroke-linecap="butt" stroke-linejoin="miter">
	<path stroke='black'  d='M55.3,459.6 L64.3,459.6  '/>	<g transform="translate(47.0,463.5)" stroke="none" fill="black" font-family="Helvetica" font-size="12.00"  text-anchor="end">
		<text><tspan font-family="Helvetica" > 2</tspan></text>
	</g>
</g>
<g fill="none" color="black" stroke="currentColor" stroke-width="1.00" stroke-linecap="butt" stroke-linejoin="miter">
	<path stroke='black'  d='M55.3,358.2 L64.3,358.2  '/>	<g transform="translate(47.0,362.1)" stroke="none" fill="black" font-family="Helvetica" font-size="12.00"  text-anchor="end">
		<text><tspan font-family="Helvetica" > 3</tspan></text>
	</g>
</g>
<g fill="none" color="black" stroke="currentColor" stroke-width="1.00" stroke-linecap="butt" stroke-linejoin="miter">
	<path stroke='black'  d='M55.3,256.9 L64.3,256.9  '/>	<g transform="translate(47.0,260.8)" stroke="none" fill="black" font-family="Helvetica" font-size="12.00"  text-anchor="end">
		<text><tspan font-family="Helvetica" > 4</tspan></text>
	</g>
</g>
<g fill="none" color="black" stroke="currentColor" stroke-width="1.00" stroke-linecap="butt" stroke-linejoin="miter">
	<path stroke='black'  d='M55.3,155.5 L64.3,155.5  '/>	<g transform="translate(47.0,159.4)" stroke="none" fill="black" font-family="Helvetica" font-size="12.00"  text-anchor="end">
		<text><tspan font-family="Helvetica" > 5</tspan></text>
	</g>
</g>
<g fill="none" color="black" stroke="currentColor" stroke-width="1.00" stroke-linecap="butt" stroke-linejoin="miter">
	<path stroke='black'  d='M55.3,54.1 L64.3,54.1  '/>	<g transform="translate(47.0,58.0)" stroke="none" fill="black" font-family="Helvetica" font-size="12.00"  text-anchor="end">
		<text><tspan font-family="Helvetica" > 6</tspan></text>
	</g>
</g>
<g fill="none" color="black" stroke="currentColor" stroke-width="1.00" stroke-linecap="butt" stroke-linejoin="miter">
	<path stroke='black'  d='M170.8,662.4 L170.8,653.4  '/>	<g transform="translate(170.8,684.3)" stroke="none" fill="black" font-family="Helvetica" font-size="12.00"  text-anchor="middle">
		<text><tspan font-family="Helvetica" > 42.7</tspan></text>
	</g>
</g>
<g fill="none" color="black" stroke="currentColor" stroke-width="1.00" stroke-linecap="butt" stroke-linejoin="miter">
	<path stroke='black'  d='M321.0,662.4 L321.0,653.4  '/>	<g transform="translate(321.0,684.3)" stroke="none" fill="black" font-family="Helvetica" font-size="12.00"  text-anchor="middle">
		<text><tspan font-family="Helvetica" > 42.75</tspan></text>
	</g>
</g>
<g fill="none" color="black" stroke="currentColor" stroke-width="1.00" stroke-linecap="butt" stroke-linejoin="miter">
	<path stroke='black'  d='M471.3,662.4 L471.3,653.4  '/>	<g transform="translate(471.3,684.3)" stroke="none" fill="black" font-family="Helvetica" font-size="12.00"  text-anchor="middle">
		<text><tspan font-family="Helvetica" > 42.8</tspan></text>
	</g>
</g>
<g fill="none" color="black" stroke="currentColor" stroke-width="1.00" stroke-linecap="butt" stroke-linejoin="miter">
	<path stroke='black'  d='M621.5,662.4 L621.5,653.4  '/>	<g transform="translate(621.5,684.3)" stroke="none" fill="black" font-family="Helvetica" font-size="12.00"  text-anchor="middle">
		<text><tspan font-family="Helvetica" > 42.85</tspan></text>
	</g>
</g>
<g fill="none" color="black" stroke="currentColor" stroke-width="1.00" stroke-linecap="butt" stroke-linejoin="miter">
	<path stroke='black'  d='M771.7,662.4 L771.7,653.4  '/>	<g transform="translate(771.7,684.3)" stroke="none" fill="black" font-family="Helvetica" font-size="12.00"  text-anchor="middle">
		<text><tspan font-family="Helvetica" > 42.9</tspan></text>
	</g>
</g>
<g fill="none" color="black" stroke="currentColor" stroke-width="1.00" stroke-linecap="butt" stroke-linejoin="miter">
	<path stroke='black'  d='M922.0,662.4 L922.0,653.4  '/>	<g transform="translate(922.0,684.3)" stroke="none" fill="black" font-family="Helvetica" font-size="12.00"  text-anchor="middle">
		<text><tspan font-family="Helvetica" > 42.95</tspan></text>
	</g>
</g>
<g fill="none" color="black" stroke="currentColor" stroke-width="1.00" stroke-linecap="butt" stroke-linejoin="miter">
</g>
<g fill="none" color="black" stroke="currentColor" stroke-width="1.00" stroke-linecap="butt" stroke-linejoin="miter">
	<path stroke='black'  d='M55.3,54.1 L55.3,662.4 L1013.6,662.4 L1013.6,54.1 L55.3,54.1 Z  '/></g>
<g fill="none" color="black" stroke="currentColor" stroke-width="1.00" stroke-linecap="butt" stroke-linejoin="miter">
	<g transform="translate(16.3,358.3) rotate(270)" stroke="none" fill="black" font-family="Helvetica" font-size="12.00"  text-anchor="middle">
		<text><tspan font-family="Helvetica" >Density (a.u.)</tspan></text>
	</g>
</g>
<g fill="none" color="black" stroke="currentColor" stroke-width="1.00" stroke-linecap="butt" stroke-linejoin="miter">
	<g transform="translate(534.4,711.3)" stroke="none" fill="black" font-family="Helvetica" font-size="12.00"  text-anchor="middle">
		<text><tspan font-family="Helvetica" >Average time (us)</tspan></text>
	</g>
</g>
<g fill="none" color="black" stroke="currentColor" stroke-width="1.00" stroke-linecap="butt" stroke-linejoin="miter">
	<g transform="translate(534.4,31.0)" stroke="none" fill="black" font-family="Helvetica" font-size="12.00"  text-anchor="middle">
		<text><tspan font-family="Helvetica" >snapshot_restore_with_dense/Dense: Entire region + /proc/pid/mem/10: slope</tspan></text>
	</g>
</g>
	<g id="gnuplot_plot_1" ><title>Bootstrap distribution</title>
<g fill="none" color="white" stroke="black" stroke-width="2.00" stroke-linecap="butt" stroke-linejoin="miter">
</g>
<g fill="none" color="black" stroke="currentColor" stroke-width="2.00" stroke-linecap="butt" stroke-linejoin="miter">
	<g transform="translate(1089.0,67.0)" stroke="none" fill="black" font-family="Helvetica" font-size="12.00"  text-anchor="start">
		<text><tspan font-family="Helvetica" >Bootstrap distribution</tspan></text>
	</g>
</g>
<g fill="none" color="black" stroke="currentColor" stroke-width="2.00" stroke-linecap="butt" stroke-linejoin="miter">
	<path stroke='rgb( 31, 120, 180)'  d='M1038.5,63.1 L1080.7,63.1 M55.3,636.9 L57.2,635.3 L59.1,633.5 L61.1,631.7 L63.0,629.8 L64.9,627.9
		L66.8,625.9 L68.7,623.8 L70.7,621.7 L72.6,619.5 L74.5,617.2 L76.4,614.8 L78.3,612.4 L80.3,609.9
		L82.2,607.4 L84.1,604.7 L86.0,602.0 L87.9,599.2 L89.9,596.4 L91.8,593.4 L93.7,590.4 L95.6,587.3
		L97.5,584.1 L99.5,580.9 L101.4,577.5 L103.3,574.1 L105.2,570.6 L107.2,567.0 L109.1,563.4 L111.0,559.6
		L112.9,555.8 L114.8,552.0 L116.8,548.0 L118.7,544.1 L120.6,540.0 L122.5,536.0 L124.4,531.9 L126.4,527.7
		L128.3,523.6 L130.2,519.4 L132.1,515.2 L134.0,511.0 L136.0,506.8 L137.9,502.7 L139.8,498.5 L141.7,494.4
		L143.6,490.2 L145.6,486.1 L147.5,482.0 L149.4,477.9 L151.3,473.8 L153.2,469.8 L155.2,465.7 L157.1,461.7
		L159.0,457.6 L160.9,453.5 L162.8,449.5 L164.8,445.4 L166.7,441.3 L168.6,437.1 L170.5,432.9 L172.4,428.7
		L174.4,424.5 L176.3,420.2 L178.2,415.8 L180.1,411.4 L182.0,407.0 L184.0,402.5 L185.9,398.0 L187.8,393.5
		L189.7,388.9 L191.7,384.3 L193.6,379.7 L195.5,375.1 L197.4,370.5 L199.3,365.9 L201.3,361.3 L203.2,356.7
		L205.1,352.2 L207.0,347.6 L208.9,343.1 L210.9,338.7 L212.8,334.2 L214.7,329.8 L216.6,325.4 L218.5,321.0
		L220.5,316.7 L222.4,312.3 L224.3,308.0 L226.2,303.6 L228.1,299.3 L230.1,294.9 L232.0,290.5 L233.9,286.1
		L235.8,281.7 L237.7,277.3 L239.7,272.8 L241.6,268.3 L243.5,263.8 L245.4,259.3 L247.3,254.7 L249.3,250.2
		L251.2,245.6 L253.1,241.0 L255.0,236.4 L256.9,231.8 L258.9,227.2 L260.8,222.7 L262.7,218.1 L264.6,213.6
		L266.5,209.1 L268.5,204.6 L270.4,200.2 L272.3,195.8 L274.2,191.5 L276.2,187.2 L278.1,183.0 L280.0,178.8
		L281.9,174.7 L283.8,170.6 L285.8,166.6 L287.7,162.6 L289.6,158.7 L291.5,154.9 L293.4,151.1 L295.4,147.5
		L297.3,143.9 L299.2,140.4 L301.1,136.9 L303.0,133.6 L305.0,130.3 L306.9,127.2 L308.8,124.1 L310.7,121.1
		L312.6,118.3 L314.6,115.5 L316.5,112.8 L318.4,110.2 L320.3,107.8 L322.2,105.4 L324.2,103.1 L326.1,100.8
		L328.0,98.7 L329.9,96.6 L331.8,94.6 L333.8,92.7 L335.7,90.8 L337.6,89.0 L339.5,87.2 L341.4,85.5
		L343.4,83.9 L345.3,82.2 L347.2,80.7 L349.1,79.1 L351.0,77.7 L353.0,76.3 L354.9,74.9 L356.8,73.5
		L358.7,72.3 L360.7,71.0 L362.6,69.9 L364.5,68.8 L366.4,67.7 L368.3,66.7 L370.3,65.7 L372.2,64.8
		L374.1,63.9 L376.0,63.1 L377.9,62.3 L379.9,61.6 L381.8,60.9 L383.7,60.3 L385.6,59.8 L387.5,59.2
		L389.5,58.8 L391.4,58.4 L393.3,58.0 L395.2,57.7 L397.1,57.5 L399.1,57.3 L401.0,57.2 L402.9,57.2
		L404.8,57.2 L406.7,57.4 L408.7,57.5 L410.6,57.7 L412.5,58.0 L414.4,58.3 L416.3,58.7 L418.3,59.1
		L420.2,59.5 L422.1,59.9 L424.0,60.4 L425.9,60.8 L427.9,61.2 L429.8,61.7 L431.7,62.1 L433.6,62.6
		L435.5,63.0 L437.5,63.4 L439.4,63.8 L441.3,64.2 L443.2,64.6 L445.1,65.1 L447.1,65.5 L449.0,66.0
		L450.9,66.6 L452.8,67.1 L454.8,67.8 L456.7,68.5 L458.6,69.3 L460.5,70.1 L462.4,71.1 L464.4,72.1
		L466.3,73.2 L468.2,74.5 L470.1,75.8 L472.0,77.2 L474.0,78.7 L475.9,80.3 L477.8,82.1 L479.7,83.8
		L481.6,85.7 L483.6,87.7 L485.5,89.7 L487.4,91.8 L489.3,93.9 L491.2,96.1 L493.2,98.3 L495.1,100.6
		L497.0,102.9 L498.9,105.2 L500.8,107.5 L502.8,109.8 L504.7,112.1 L506.6,114.4 L508.5,116.7 L510.4,118.9
		L512.4,121.1 L514.3,123.3 L516.2,125.4 L518.1,127.5 L520.0,129.6 L522.0,131.7 L523.9,133.7 L525.8,135.7
		L527.7,137.7 L529.6,139.7 L531.6,141.7 L533.5,143.7 L535.4,145.7 L537.3,147.8 L539.3,149.9 L541.2,152.0
		L543.1,154.3 L545.0,156.5 L546.9,158.9 L548.9,161.3 L550.8,163.8 L552.7,166.4 L554.6,169.1 L556.5,171.8
		L558.5,174.7 L560.4,177.6 L562.3,180.6 L564.2,183.7 L566.1,186.8 L568.1,190.0 L570.0,193.2 L571.9,196.5
		L573.8,199.9 L575.7,203.2 L577.7,206.6 L579.6,210.0 L581.5,213.4 L583.4,216.8 L585.3,220.2 L587.3,223.5
		L589.2,226.9 L591.1,230.2 L593.0,233.5 L594.9,236.8 L596.9,240.1 L598.8,243.3 L600.7,246.5 L602.6,249.6
		L604.5,252.8 L606.5,255.9 L608.4,259.0 L610.3,262.0 L612.2,265.0 L614.1,268.1 L616.1,271.1 L618.0,274.0
		L619.9,277.0 L621.8,279.9 L623.8,282.9 L625.7,285.8 L627.6,288.7 L629.5,291.6 L631.4,294.4 L633.4,297.3
		L635.3,300.1 L637.2,302.9 L639.1,305.7 L641.0,308.5 L643.0,311.2 L644.9,313.9 L646.8,316.6 L648.7,319.2
		L650.6,321.9 L652.6,324.5 L654.5,327.1 L656.4,329.6 L658.3,332.2 L660.2,334.7 L662.2,337.2 L664.1,339.8
		L666.0,342.3 L667.9,344.8 L669.8,347.4 L671.8,350.0 L673.7,352.6 L675.6,355.2 L677.5,357.8 L679.4,360.5
		L681.4,363.2 L683.3,366.0 L685.2,368.7 L687.1,371.6 L689.0,374.4 L691.0,377.2 L692.9,380.1 L694.8,383.0
		L696.7,385.9 L698.6,388.9 L700.6,391.8 L702.5,394.7 L704.4,397.7 L706.3,400.6 L708.2,403.5 L710.2,406.4
		L712.1,409.3 L714.0,412.1 L715.9,414.9 L717.9,417.7 L719.8,420.5 L721.7,423.2 L723.6,426.0 L725.5,428.6
		L727.5,431.3 L729.4,433.9 L731.3,436.4 L733.2,439.0 L735.1,441.4 L737.1,443.9 L739.0,446.3 L740.9,448.7
		L742.8,451.1 L744.7,453.5 L746.7,455.8 L748.6,458.1 L750.5,460.4 L752.4,462.6 L754.3,464.8 L756.3,467.0
		L758.2,469.2 L760.1,471.4 L762.0,473.5 L763.9,475.7 L765.9,477.8 L767.8,479.9 L769.7,482.0 L771.6,484.0
		L773.5,486.1 L775.5,488.1 L777.4,490.2 L779.3,492.2 L781.2,494.2 L783.1,496.2 L785.1,498.2 L787.0,500.1
		L788.9,502.1 L790.8,504.1 L792.7,506.0 L794.7,507.9 L796.6,509.8 L798.5,511.7 L800.4,513.6 L802.4,515.5
		L804.3,517.3 L806.2,519.1 L808.1,520.9 L810.0,522.6 L812.0,524.4 L813.9,526.0 L815.8,527.7 L817.7,529.3
		L819.6,530.9 L821.6,532.4 L823.5,533.9 L825.4,535.4 L827.3,536.8 L829.2,538.2 L831.2,539.6 L833.1,541.0
		L835.0,542.3 L836.9,543.6 L838.8,544.9 L840.8,546.2 L842.7,547.4 L844.6,548.7 L846.5,549.9 L848.4,551.2
		L850.4,552.4 L852.3,553.7 L854.2,554.9 L856.1,556.2 L858.0,557.4 L860.0,558.7 L861.9,559.9 L863.8,561.2
		L865.7,562.5 L867.6,563.7 L869.6,565.0 L871.5,566.3 L873.4,567.5 L875.3,568.8 L877.2,570.1 L879.2,571.4
		L881.1,572.6 L883.0,573.9 L884.9,575.1 L886.9,576.4 L888.8,577.6 L890.7,578.9 L892.6,580.1 L894.5,581.3
		L896.5,582.6 L898.4,583.8 L900.3,585.0 L902.2,586.2 L904.1,587.4 L906.1,588.5 L908.0,589.7 L909.9,590.9
		L911.8,592.0 L913.7,593.1 L915.7,594.2 L917.6,595.3 L919.5,596.4 L921.4,597.4 L923.3,598.4 L925.3,599.4
		L927.2,600.4 L929.1,601.3 L931.0,602.2 L932.9,603.0 L934.9,603.9 L936.8,604.7 L938.7,605.5 L940.6,606.2
		L942.5,606.9 L944.5,607.6 L946.4,608.3 L948.3,609.0 L950.2,609.6 L952.1,610.2 L954.1,610.8 L956.0,611.4
		L957.9,612.0 L959.8,612.5 L961.7,613.1 L963.7,613.6 L965.6,614.2 L967.5,614.7 L969.4,615.3 L971.4,615.8
		L973.3,616.4 L975.2,616.9 L977.1,617.5 L979.0,618.0 L981.0,618.6 L982.9,619.2 L984.8,619.8 L986.7,620.4
		L988.6,621.0 L990.6,621.6 L992.5,622.3 L994.4,622.9 L996.3,623.5 L998.2,624.2 L1000.2,624.8 L1002.1,625.5
		L1004.0,626.2 L1005.9,626.8 L1007.8,627.5 L1009.8,628.1 L1011.7,628.8 L1013.6,629.4  '/></g>
	</g>
	<g id="gnuplot_plot_2" ><title>Confidence interval</title>
<g fill="none" color="white" stroke="rgb( 31, 120, 180)" stroke-width="1.00" stroke-linecap="butt" stroke-linejoin="miter">
</g>
<g fill="none" color="black" stroke="currentColor" stroke-width="1.00" stroke-linecap="butt" stroke-linejoin="miter">
	<g transform="translate(1089.0,85.0)" stroke="none" fill="black" font-family="Helvetica" font-size="12.00"  text-anchor="start">
		<text><tspan font-family="Helvetica" >Confidence interval</tspan></text>
	</g>
</g>
<g fill="none" color="black" stroke="currentColor" stroke-width="1.00" stroke-linecap="butt" stroke-linejoin="miter">
	<g stroke='none' shape-rendering='crispEdges'>
		<polygon fill = 'rgb( 31, 120, 180)' fill-opacity = '0.250000' points = '1038.5,85.6 1080.7,85.6 1080.7,76.6 1038.5,76.6 '/>
		<polygon fill = 'rgb( 31, 120, 180)' fill-opacity = '0.250000' points = '143.6,490.2 145.6,486.1 147.5,482.0 149.4,477.9 151.3,473.8 153.2,469.8 155.2,465.7 157.1,461.7 159.0,457.6 160.9,453.5 162.8,449.5 164.8,445.4 166.7,441.3 168.6,437.1 170.5,432.9 172.4,428.7
174.4,424.5 176.3,420.2 178.2,415.8 180.1,411.4 182.0,407.0 184.0,402.5 185.9,398.0 187.8,393.5 189.7,388.9 191.7,384.3 193.6,379.7 195.5,375.1 197.4,370.5 199.3,365.9 201.3,361.3 203.2,356.7
205.1,352.2 207.0,347.6 208.9,343.1 210.9,338.7 212.8,334.2 214.7,329.8 216.6,325.4 218.5,321.0 220.5,316.7 222.4,312.3 224.3,308.0 226.2,303.6 228.1,299.3 230.1,294.9 232.0,290.5 233.9,286.1
235.8,281.7 237.7,277.3 239.7,272.8 241.6,268.3 243.5,263.8 245.4,259.3 247.3,254.7 249.3,250.2 251.2,245.6 253.1,241.0 255.0,236.4 256.9,231.8 258.9,227.2 260.8,222.7 262.7,218.1 264.6,213.6
266.5,209.1 268.5,204.6 270.4,200.2 272.3,195.8 274.2,191.5 276.2,187.2 278.1,183.0 280.0,178.8 281.9,174.7 283.8,170.6 285.8,166.6 287.7,162.6 289.6,158.7 291.5,154.9 293.4,151.1 295.4,147.5
297.3,143.9 299.2,140.4 301.1,136.9 303.0,133.6 305.0,130.3 306.9,127.2 308.8,124.1 310.7,121.1 312.6,118.3 314.6,115.5 316.5,112.8 318.4,110.2 320.3,107.8 322.2,105.4 324.2,103.1 326.1,100.8
328.0,98.7 329.9,96.6 331.8,94.6 333.8,92.7 335.7,90.8 337.6,89.0 339.5,87.2 341.4,85.5 343.4,83.9 345.3,82.2 347.2,80.7 349.1,79.1 351.0,77.7 353.0,76.3 354.9,74.9 356.8,73.5
358.7,72.3 360.7,71.0 362.6,69.9 364.5,68.8 366.4,67.7 368.3,66.7 370.3,65.7 372.2,64.8 374.1,63.9 376.0,63.1 377.9,62.3 379.9,61.6 381.8,60.9 383.7,60.3 385.6,59.8 387.5,59.2
389.5,58.8 391.4,58.4 393.3,58.0 395.2,57.7 397.1,57.5 399.1,57.3 401.0,57.2 402.9,57.2 404.8,57.2 406.7,57.4 408.7,57.5 410.6,57.7 412.5,58.0 414.4,58.3 416.3,58.7 418.3,59.1
420.2,59.5 422.1,59.9 424.0,60.4 425.9,60.8 427.9,61.2 429.8,61.7 431.7,62.1 433.6,62.6 435.5,63.0 437.5,63.4 439.4,63.8 441.3,64.2 443.2,64.6 445.1,65.1 447.1,65.5 449.0,66.0
450.9,66.6 452.8,67.1 454.8,67.8 456.7,68.5 458.6,69.3 460.5,70.1 462.4,71.1 464.4,72.1 466.3,73.2 468.2,74.5 470.1,75.8 472.0,77.2 474.0,78.7 475.9,80.3 477.8,82.1 479.7,83.8
481.6,85.7 483.6,87.7 485.5,89.7 487.4,91.8 489.3,93.9 491.2,96.1 493.2,98.3 495.1,100.6 497.0,102.9 498.9,105.2 500.8,107.5 502.8,109.8 504.7,112.1 506.6,114.4 508.5,116.7 510.4,118.9
512.4,121.1 514.3,123.3 516.2,125.4 518.1,127.5 520.0,129.6 522.0,131.7 523.9,133.7 525.8,135.7 527.7,137.7 529.6,139.7 531.6,141.7 533.5,143.7 535.4,145.7 537.3,147.8 539.3,149.9 541.2,152.0
543.1,154.3 545.0,156.5 546.9,158.9 548.9,161.3 550.8,163.8 552.7,166.4 554.6,169.1 556.5,171.8 558.5,174.7 560.4,177.6 562.3,180.6 564.2,183.7 566.1,186.8 568.1,190.0 570.0,193.2 571.9,196.5
573.8,199.9 575.7,203.2 577.7,206.6 579.6,210.0 581.5,213.4 583.4,216.8 585.3,220.2 587.3,223.5 589.2,226.9 591.1,230.2 593.0,233.5 594.9,236.8 596.9,240.1 598.8,243.3 600.7,246.5 602.6,249.6
604.5,252.8 606.5,255.9 608.4,259.0 610.3,262.0 612.2,265.0 614.1,268.1 616.1,271.1 618.0,274.0 619.9,277.0 621.8,279.9 623.8,282.9 625.7,285.8 627.6,288.7 629.5,291.6 631.4,294.4 633.4,297.3
635.3,300.1 637.2,302.9 639.1,305.7 641.0,308.5 643.0,311.2 644.9,313.9 646.8,316.6 648.7,319.2 650.6,321.9 652.6,324.5 654.5,327.1 656.4,329.6 658.3,332.2 660.2,334.7 662.2,337.2 664.1,339.8
666.0,342.3 667.9,344.8 669.8,347.4 671.8,350.0 673.7,352.6 675.6,355.2 677.5,357.8 679.4,360.5 681.4,363.2 683.3,366.0 685.2,368.7 687.1,371.6 689.0,374.4 691.0,377.2 692.9,380.1 694.8,383.0
696.7,385.9 698.6,388.9 700.6,391.8 702.5,394.7 704.4,397.7 706.3,400.6 708.2,403.5 710.2,406.4 712.1,409.3 714.0,412.1 715.9,414.9 717.9,417.7 719.8,420.5 721.7,423.2 723.6,426.0 725.5,428.6
727.5,431.3 729.4,433.9 731.3,436.4 733.2,439.0 735.1,441.4 737.1,443.9 739.0,446.3 740.9,448.7 742.8,451.1 744.7,453.5 746.7,455.8 748.6,458.1 750.5,460.4 752.4,462.6 754.3,464.8 756.3,467.0
758.2,469.2 760.1,471.4 762.0,473.5 763.9,475.7 765.9,477.8 767.8,479.9 769.7,482.0 771.6,484.0 773.5,486.1 775.5,488.1 777.4,490.2 779.3,492.2 781.2,494.2 783.1,496.2 785.1,498.2 787.0,500.1
788.9,502.1 790.8,504.1 792.7,506.0 794.7,507.9 796.6,509.8 798.5,511.7 800.4,513.6 802.4,515.5 804.3,517.3 806.2,519.1 808.1,520.9 810.0,522.6 812.0,524.4 813.9,526.0 815.8,527.7 817.7,529.3
819.6,530.9 821.6,532.4 823.5,533.9 825.4,535.4 827.3,536.8 829.2,538.2 831.2,539.6 833.1,541.0 835.0,542.3 836.9,543.6 838.8,544.9 840.8,546.2 842.7,547.4 844.6,548.7 846.5,549.9 848.4,551.2
850.4,552.4 852.3,553.7 854.2,554.9 856.1,556.2 858.0,557.4 860.0,558.7 861.9,559.9 863.8,561.2 865.7,562.5 867.6,563.7 869.6,565.0 871.5,566.3 873.4,567.5 875.3,568.8 877.2,570.1 879.2,571.4
881.1,572.6 883.0,573.9 884.9,575.1 886.9,576.4 888.8,577.6 890.7,578.9 892.6,580.1 894.5,581.3 896.5,582.6 898.4,583.8 900.3,585.0 902.2,586.2 904.1,587.4 906.1,588.5 908.0,589.7 909.9,590.9
911.8,592.0 913.7,593.1 915.7,594.2 917.6,595.3 919.5,596.4 921.4,597.4 923.3,598.4 923.3,662.4 921.4,662.4 919.5,662.4 917.6,662.4 915.7,662.4 913.7,662.4 911.8,662.4 909.9,662.4 908.0,662.4
906.1,662.4 904.1,662.4 902.2,662.4 900.3,662.4 898.4,662.4 896.5,662.4 894.5,662.4 892.6,662.4 890.7,662.4 888.8,662.4 886.9,662.4 884.9,662.4 883.0,662.4 881.1,662.4 879.2,662.4 877.2,662.4
875.3,662.4 873.4,662.4 871.5,662.4 869.6,662.4 867.6,662.4 865.7,662.4 863.8,662.4 861.9,662.4 860.0,662.4 858.0,662.4 856.1,662.4 854.2,662.4 852.3,662.4 850.4,662.4 848.4,662.4 846.5,662.4
844.6,662.4 842.7,662.4 840.8,662.4 838.8,662.4 836.9,662.4 835.0,662.4 833.1,662.4 831.2,662.4 829.2,662.4 827.3,662.4 825.4,662.4 823.5,662.4 821.6,662.4 819.6,662.4 817.7,662.4 815.8,662.4
813.9,662.4 812.0,662.4 810.0,662.4 808.1,662.4 806.2,662.4 804.3,662.4 802.4,662.4 800.4,662.4 798.5,662.4 796.6,662.4 794.7,662.4 792.7,662.4 790.8,662.4 788.9,662.4 787.0,662.4 785.1,662.4
783.1,662.4 781.2,662.4 779.3,662.4 777.4,662.4 775.5,662.4 773.5,662.4 771.6,662.4 769.7,662.4 767.8,662.4 765.9,662.4 763.9,662.4 762.0,662.4 760.1,662.4 758.2,662.4 756.3,662.4 754.3,662.4
752.4,662.4 750.5,662.4 748.6,662.4 746.7,662.4 744.7,662.4 742.8,662.4 740.9,662.4 739.0,662.4 737.1,662.4 735.1,662.4 733.2,662.4 731.3,662.4 729.4,662.4 727.5,662.4 725.5,662.4 723.6,662.4
721.7,662.4 719.8,662.4 717.9,662.4 715.9,662.4 714.0,662.4 712.1,662.4 710.2,662.4 708.2,662.4 706.3,662.4 704.4,662.4 702.5,662.4 700.6,662.4 698.6,662.4 696.7,662.4 694.8,662.4 692.9,662.4
691.0,662.4 689.0,662.4 687.1,662.4 685.2,662.4 683.3,662.4 681.4,662.4 679.4,662.4 677.5,662.4 675.6,662.4 673.7,662.4 671.8,662.4 669.8,662.4 667.9,662.4 666.0,662.4 664.1,662.4 662.2,662.4
660.2,662.4 658.3,662.4 656.4,662.4 654.5,662.4 652.6,662.4 650.6,662.4 648.7,662.4 646.8,662.4 644.9,662.4 643.0,662.4 641.0,662.4 639.1,662.4 637.2,662.4 635.3,662.4 633.4,662.4 631.4,662.4
629.5,662.4 627.6,662.4 625.7,662.4 623.8,662.4 621.8,662.4 619.9,662.4 618.0,662.4 616.1,662.4 614.1,662.4 612.2,662.4 610.3,662.4 608.4,662.4 606.5,662.4 604.5,662.4 602.6,662.4 600.7,662.4
598.8,662.4 596.9,662.4 594.9,662.4 593.0,662.4 591.1,662.4 589.2,662.4 587.3,662.4 585.3,662.4 583.4,662.4 581.5,662.4 579.6,662.4 577.7,662.4 575.7,662.4 573.8,662.4 571.9,662.4 570.0,662.4
568.1,662.4 566.1,662.4 564.2,662.4 562.3,662.4 560.4,662.4 558.5,662.4 556.5,662.4 554.6,662.4 552.7,662.4 550.8,662.4 548.9,662.4 546.9,662.4 545.0,662.4 543.1,662.4 541.2,662.4 539.3,662.4
537.3,662.4 535.4,662.4 533.5,662.4 531.6,662.4 529.6,662.4 527.7,662.4 525.8,662.4 523.9,662.4 522.0,662.4 520.0,662.4 518.1,662.4 516.2,662.4 514.3,662.4 512.4,662.4 510.4,662.4 508.5,662.4
506.6,662.4 504.7,662.4 502.8,662.4 500.8,662.4 498.9,662.4 497.0,662.4 495.1,662.4 493.2,662.4 491.2,662.4 489.3,662.4 487.4,662.4 485.5,662.4 483.6,662.4 481.6,662.4 479.7,662.4 477.8,662.4
475.9,662.4 474.0,662.4 472.0,662.4 470.1,662.4 468.2,662.4 466.3,662.4 464.4,662.4 462.4,662.4 460.5,662.4 458.6,662.4 456.7,662.4 454.8,662.4 452.8,662.4 450.9,662.4 449.0,662.4 447.1,662.4
445.1,662.4 443.2,662.4 441.3,662.4 439.4,662.4 437.5,662.4 435.5,662.4 433.6,662.4 431.7,662.4 429.8,662.4 427.9,662.4 425.9,662.4 424.0,662.4 422.1,662.4 420.2,662.4 418.3,662.4 416.3,662.4
414.4,662.4 412.5,662.4 410.6,662.4 408.7,662.4 406.7,662.4 404.8,662.4 402.9,662.4 401.0,662.4 399.1,662.4 397.1,662.4 395.2,662.4 393.3,662.4 391.4,662.4 389.5,662.4 387.5,662.4 385.6,662.4
383.7,662.4 381.8,662.4 379.9,662.4 377.9,662.4 376.0,662.4 374.1,662.4 372.2,662.4 370.3,662.4 368.3,662.4 366.4,662.4 364.5,662.4 362.6,662.4 360.7,662.4 358.7,662.4 356.8,662.4 354.9,662.4
353.0,662.4 351.0,662.4 349.1,662.4 347.2,662.4 345.3,662.4 343.4,662.4 341.4,662.4 339.5,662.4 337.6,662.4 335.7,662.4 333.8,662.4 331.8,662.4 329.9,662.4 328.0,662.4 326.1,662.4 324.2,662.4
322.2,662.4 320.3,662.4 318.4,662.4 316.5,662.4 314.6,662.4 312.6,662.4 310.7,662.4 308.8,662.4 306.9,662.4 305.0,662.4 303.0,662.4 301.1,662.4 299.2,662.4 297.3,662.4 295.4,662.4 293.4,662.4
291.5,662.4 289.6,662.4 287.7,662.4 285.8,662.4 283.8,662.4 281.9,662.4 280.0,662.4 278.1,662.4 276.2,662.4 274.2,662.4 272.3,662.4 270.4,662.4 268.5,662.4 266.5,662.4 264.6,662.4 262.7,662.4
260.8,662.4 258.9,662.4 256.9,662.4 255.0,662.4 253.1,662.4 251.2,662.4 249.3,662.4 247.3,662.4 245.4,662.4 243.5,662.4 241.6,662.4 239.7,662.4 237.7,662.4 235.8,662.4 233.9,662.4 232.0,662.4
230.1,662.4 228.1,662.4 226.2,662.4 224.3,662.4 222.4,662.4 220.5,662.4 218.5,662.4 216.6,662.4 214.7,662.4 212.8,662.4 210.9,662.4 208.9,662.4 207.0,662.4 205.1,662.4 203.2,662.4 201.3,662.4
199.3,662.4 197.4,662.4 195.5,662.4 193.6,662.4 191.7,662.4 189.7,662.4 187.8,662.4 185.9,662.4 184.0,662.4 182.0,662.4 180.1,662.4 178.2,662.4 176.3,662.4 174.4,662.4 172.4,662.4 170.5,662.4
168.6,662.4 166.7,662.4 164.8,662.4 162.8,662.4 160.9,662.4 159.0,662.4 157.1,662.4 155.2,662.4 153.2,662.4 151.3,662.4 149.4,662.4 147.5,662.4 145.6,662.4 143.6,662.4 '/>
	</g>
</g>
	</g>
	<g id="gnuplot_plot_3" ><title>Point estimate</title>
<g fill="none" color="white" stroke="rgb( 31, 120, 180)" stroke-width="2.00" stroke-linecap="butt" stroke-linejoin="miter">
</g>
<g fill="none" color="black" stroke="currentColor" stroke-width="2.00" stroke-linecap="butt" stroke-linejoin="miter">
	<g transform="translate(1089.0,103.0)" stroke="none" fill="black" font-family="Helvetica" font-size="12.00"  text-anchor="start">
		<text><tspan font-family="Helvetica" >Point estimate</tspan></text>
	</g>
</g>
<g fill="none" color="black" stroke="currentColor" stroke-width="2.00" stroke-linecap="butt" stroke-linejoin="miter">
	<path stroke='rgb( 31, 120, 180)'  d='M1038.5,99.1 L1080.7,99.1 M473.7,662.4 L473.7,78.6  '/></g>
	</g>
<g fill="none" color="black" stroke="currentColor" stroke-width="2.00" stroke-linecap="butt" stroke-linejoin="miter">
</g>
<g fill="none" color="black" stroke="black" stroke-width="1.00" stroke-linecap="butt" stroke-linejoin="miter">
</g>
<g fill="none" color="black" stroke="currentColor" stroke-width="1.00" stroke-linecap="butt" stroke-linejoin="miter">
	<path stroke='black'  d='M55.3,54.1 L55.3,662.4 L1013.6,662.4 L1013.6,54.1 L55.3,54.1 Z  '/></g>
<g fill="none" color="black" stroke="currentColor" stroke-width="1.00" stroke-linecap="butt" stroke-linejoin="miter">
</g>
</g>
</svg>

