<?xml version="1.0" encoding="utf-8"  standalone="no"?>
<svg 
 viewBox="0 0 1280 720"
 xmlns="http://www.w3.org/2000/svg"
 xmlns:xlink="http://www.w3.org/1999/xlink"
>

<title>Gnuplot</title>
<desc>Produced by GNUPLOT 5.2 patchlevel 6 </desc>

<g id="gnuplot_canvas">

<rect x="0" y="0" width="1280" height="720" fill="none"/>
<defs>

	<circle id='gpDot' r='0.5' stroke-width='0.5' stroke='currentColor'/>
	<path id='gpPt0' stroke-width='0.222' stroke='currentColor' d='M-1,0 h2 M0,-1 v2'/>
	<path id='gpPt1' stroke-width='0.222' stroke='currentColor' d='M-1,-1 L1,1 M1,-1 L-1,1'/>
	<path id='gpPt2' stroke-width='0.222' stroke='currentColor' d='M-1,0 L1,0 M0,-1 L0,1 M-1,-1 L1,1 M-1,1 L1,-1'/>
	<rect id='gpPt3' stroke-width='0.222' stroke='currentColor' x='-1' y='-1' width='2' height='2'/>
	<rect id='gpPt4' stroke-width='0.222' stroke='currentColor' fill='currentColor' x='-1' y='-1' width='2' height='2'/>
	<circle id='gpPt5' stroke-width='0.222' stroke='currentColor' cx='0' cy='0' r='1'/>
	<use xlink:href='#gpPt5' id='gpPt6' fill='currentColor' stroke='none'/>
	<path id='gpPt7' stroke-width='0.222' stroke='currentColor' d='M0,-1.33 L-1.33,0.67 L1.33,0.67 z'/>
	<use xlink:href='#gpPt7' id='gpPt8' fill='currentColor' stroke='none'/>
	<use xlink:href='#gpPt7' id='gpPt9' stroke='currentColor' transform='rotate(180)'/>
	<use xlink:href='#gpPt9' id='gpPt10' fill='currentColor' stroke='none'/>
	<use xlink:href='#gpPt3' id='gpPt11' stroke='currentColor' transform='rotate(45)'/>
	<use xlink:href='#gpPt11' id='gpPt12' fill='currentColor' stroke='none'/>
	<path id='gpPt13' stroke-width='0.222' stroke='currentColor' d='M0,1.330 L1.265,0.411 L0.782,-1.067 L-0.782,-1.076 L-1.265,0.411 z'/>
	<use xlink:href='#gpPt13' id='gpPt14' fill='currentColor' stroke='none'/>
	<filter id='textbox' filterUnits='objectBoundingBox' x='0' y='0' height='1' width='1'>
	  <feFlood flood-color='white' flood-opacity='1' result='bgnd'/>
	  <feComposite in='SourceGraphic' in2='bgnd' operator='atop'/>
	</filter>
	<filter id='greybox' filterUnits='objectBoundingBox' x='0' y='0' height='1' width='1'>
	  <feFlood flood-color='lightgrey' flood-opacity='1' result='grey'/>
	  <feComposite in='SourceGraphic' in2='grey' operator='atop'/>
	</filter>
</defs>
<g fill="none" color="white" stroke="currentColor" stroke-width="1.00" stroke-linecap="butt" stroke-linejoin="miter">
</g>
<g fill="none" color="black" stroke="currentColor" stroke-width="1.00" stroke-linecap="butt" stroke-linejoin="miter">
	<path stroke='black'  d='M80.2,662.4 L89.2,662.4  '/>	<g transform="translate(71.9,666.3)" stroke="none" fill="black" font-family="Helvetica" font-size="12.00"  text-anchor="end">
		<text><tspan font-family="Helvetica" > 0</tspan></text>
	</g>
</g>
<g fill="none" color="black" stroke="currentColor" stroke-width="1.00" stroke-linecap="butt" stroke-linejoin="miter">
	<path stroke='black'  d='M80.2,594.8 L89.2,594.8  '/>	<g transform="translate(71.9,598.7)" stroke="none" fill="black" font-family="Helvetica" font-size="12.00"  text-anchor="end">
		<text><tspan font-family="Helvetica" > 0.01</tspan></text>
	</g>
</g>
<g fill="none" color="black" stroke="currentColor" stroke-width="1.00" stroke-linecap="butt" stroke-linejoin="miter">
	<path stroke='black'  d='M80.2,527.2 L89.2,527.2  '/>	<g transform="translate(71.9,531.1)" stroke="none" fill="black" font-family="Helvetica" font-size="12.00"  text-anchor="end">
		<text><tspan font-family="Helvetica" > 0.02</tspan></text>
	</g>
</g>
<g fill="none" color="black" stroke="currentColor" stroke-width="1.00" stroke-linecap="butt" stroke-linejoin="miter">
	<path stroke='black'  d='M80.2,459.6 L89.2,459.6  '/>	<g transform="translate(71.9,463.5)" stroke="none" fill="black" font-family="Helvetica" font-size="12.00"  text-anchor="end">
		<text><tspan font-family="Helvetica" > 0.03</tspan></text>
	</g>
</g>
<g fill="none" color="black" stroke="currentColor" stroke-width="1.00" stroke-linecap="butt" stroke-linejoin="miter">
	<path stroke='black'  d='M80.2,392.0 L89.2,392.0  '/>	<g transform="translate(71.9,395.9)" stroke="none" fill="black" font-family="Helvetica" font-size="12.00"  text-anchor="end">
		<text><tspan font-family="Helvetica" > 0.04</tspan></text>
	</g>
</g>
<g fill="none" color="black" stroke="currentColor" stroke-width="1.00" stroke-linecap="butt" stroke-linejoin="miter">
	<path stroke='black'  d='M80.2,324.5 L89.2,324.5  '/>	<g transform="translate(71.9,328.4)" stroke="none" fill="black" font-family="Helvetica" font-size="12.00"  text-anchor="end">
		<text><tspan font-family="Helvetica" > 0.05</tspan></text>
	</g>
</g>
<g fill="none" color="black" stroke="currentColor" stroke-width="1.00" stroke-linecap="butt" stroke-linejoin="miter">
	<path stroke='black'  d='M80.2,256.9 L89.2,256.9  '/>	<g transform="translate(71.9,260.8)" stroke="none" fill="black" font-family="Helvetica" font-size="12.00"  text-anchor="end">
		<text><tspan font-family="Helvetica" > 0.06</tspan></text>
	</g>
</g>
<g fill="none" color="black" stroke="currentColor" stroke-width="1.00" stroke-linecap="butt" stroke-linejoin="miter">
	<path stroke='black'  d='M80.2,189.3 L89.2,189.3  '/>	<g transform="translate(71.9,193.2)" stroke="none" fill="black" font-family="Helvetica" font-size="12.00"  text-anchor="end">
		<text><tspan font-family="Helvetica" > 0.07</tspan></text>
	</g>
</g>
<g fill="none" color="black" stroke="currentColor" stroke-width="1.00" stroke-linecap="butt" stroke-linejoin="miter">
	<path stroke='black'  d='M80.2,121.7 L89.2,121.7  '/>	<g transform="translate(71.9,125.6)" stroke="none" fill="black" font-family="Helvetica" font-size="12.00"  text-anchor="end">
		<text><tspan font-family="Helvetica" > 0.08</tspan></text>
	</g>
</g>
<g fill="none" color="black" stroke="currentColor" stroke-width="1.00" stroke-linecap="butt" stroke-linejoin="miter">
	<path stroke='black'  d='M80.2,54.1 L89.2,54.1  '/>	<g transform="translate(71.9,58.0)" stroke="none" fill="black" font-family="Helvetica" font-size="12.00"  text-anchor="end">
		<text><tspan font-family="Helvetica" > 0.09</tspan></text>
	</g>
</g>
<g fill="none" color="black" stroke="currentColor" stroke-width="1.00" stroke-linecap="butt" stroke-linejoin="miter">
	<path stroke='black'  d='M127.2,662.4 L127.2,653.4  '/>	<g transform="translate(127.2,684.3)" stroke="none" fill="black" font-family="Helvetica" font-size="12.00"  text-anchor="middle">
		<text><tspan font-family="Helvetica" > 0</tspan></text>
	</g>
</g>
<g fill="none" color="black" stroke="currentColor" stroke-width="1.00" stroke-linecap="butt" stroke-linejoin="miter">
	<path stroke='black'  d='M290.5,662.4 L290.5,653.4  '/>	<g transform="translate(290.5,684.3)" stroke="none" fill="black" font-family="Helvetica" font-size="12.00"  text-anchor="middle">
		<text><tspan font-family="Helvetica" > 10</tspan></text>
	</g>
</g>
<g fill="none" color="black" stroke="currentColor" stroke-width="1.00" stroke-linecap="butt" stroke-linejoin="miter">
	<path stroke='black'  d='M453.9,662.4 L453.9,653.4  '/>	<g transform="translate(453.9,684.3)" stroke="none" fill="black" font-family="Helvetica" font-size="12.00"  text-anchor="middle">
		<text><tspan font-family="Helvetica" > 20</tspan></text>
	</g>
</g>
<g fill="none" color="black" stroke="currentColor" stroke-width="1.00" stroke-linecap="butt" stroke-linejoin="miter">
	<path stroke='black'  d='M617.2,662.4 L617.2,653.4  '/>	<g transform="translate(617.2,684.3)" stroke="none" fill="black" font-family="Helvetica" font-size="12.00"  text-anchor="middle">
		<text><tspan font-family="Helvetica" > 30</tspan></text>
	</g>
</g>
<g fill="none" color="black" stroke="currentColor" stroke-width="1.00" stroke-linecap="butt" stroke-linejoin="miter">
	<path stroke='black'  d='M780.6,662.4 L780.6,653.4  '/>	<g transform="translate(780.6,684.3)" stroke="none" fill="black" font-family="Helvetica" font-size="12.00"  text-anchor="middle">
		<text><tspan font-family="Helvetica" > 40</tspan></text>
	</g>
</g>
<g fill="none" color="black" stroke="currentColor" stroke-width="1.00" stroke-linecap="butt" stroke-linejoin="miter">
	<path stroke='black'  d='M943.9,662.4 L943.9,653.4  '/>	<g transform="translate(943.9,684.3)" stroke="none" fill="black" font-family="Helvetica" font-size="12.00"  text-anchor="middle">
		<text><tspan font-family="Helvetica" > 50</tspan></text>
	</g>
</g>
<g fill="none" color="black" stroke="currentColor" stroke-width="1.00" stroke-linecap="butt" stroke-linejoin="miter">
</g>
<g fill="none" color="black" stroke="currentColor" stroke-width="1.00" stroke-linecap="butt" stroke-linejoin="miter">
	<path stroke='black'  d='M80.2,54.1 L80.2,662.4 L1013.6,662.4 L1013.6,54.1 L80.2,54.1 Z  '/></g>
<g fill="none" color="black" stroke="currentColor" stroke-width="1.00" stroke-linecap="butt" stroke-linejoin="miter">
	<g transform="translate(16.3,358.3) rotate(270)" stroke="none" fill="black" font-family="Helvetica" font-size="12.00"  text-anchor="middle">
		<text><tspan font-family="Helvetica" >Density (a.u.)</tspan></text>
	</g>
</g>
<g fill="none" color="black" stroke="currentColor" stroke-width="1.00" stroke-linecap="butt" stroke-linejoin="miter">
	<g transform="translate(546.9,711.3)" stroke="none" fill="black" font-family="Helvetica" font-size="12.00"  text-anchor="middle">
		<text><tspan font-family="Helvetica" >Average time (us)</tspan></text>
	</g>
</g>
<g fill="none" color="black" stroke="currentColor" stroke-width="1.00" stroke-linecap="butt" stroke-linejoin="miter">
	<g transform="translate(546.9,31.0)" stroke="none" fill="black" font-family="Helvetica" font-size="12.00"  text-anchor="middle">
		<text><tspan font-family="Helvetica" >snapshot_restore_with_dense/Sparse: Entire region + /proc/pid/mem/46: SD</tspan></text>
	</g>
</g>
	<g id="gnuplot_plot_1" ><title>Bootstrap distribution</title>
<g fill="none" color="white" stroke="black" stroke-width="2.00" stroke-linecap="butt" stroke-linejoin="miter">
</g>
<g fill="none" color="black" stroke="currentColor" stroke-width="2.00" stroke-linecap="butt" stroke-linejoin="miter">
	<g transform="translate(1089.0,67.0)" stroke="none" fill="black" font-family="Helvetica" font-size="12.00"  text-anchor="start">
		<text><tspan font-family="Helvetica" >Bootstrap distribution</tspan></text>
	</g>
</g>
<g fill="none" color="black" stroke="currentColor" stroke-width="2.00" stroke-linecap="butt" stroke-linejoin="miter">
	<path stroke='rgb( 31, 120, 180)'  d='M1038.5,63.1 L1080.7,63.1 M80.2,661.6 L82.1,661.4 L83.9,661.2 L85.8,660.9 L87.7,660.5 L89.6,660.1
		L91.4,659.7 L93.3,659.1 L95.2,658.4 L97.0,657.7 L98.9,656.8 L100.8,655.7 L102.6,654.5 L104.5,653.1
		L106.4,651.5 L108.3,649.7 L110.1,647.7 L112.0,645.4 L113.9,642.9 L115.7,640.0 L117.6,636.8 L119.5,633.3
		L121.4,629.5 L123.2,625.3 L125.1,620.8 L127.0,615.8 L128.8,610.6 L130.7,604.9 L132.6,598.9 L134.4,592.6
		L136.3,586.0 L138.2,579.0 L140.1,571.9 L141.9,564.4 L143.8,556.9 L145.7,549.1 L147.5,541.4 L149.4,533.6
		L151.3,525.8 L153.2,518.1 L155.0,510.7 L156.9,503.4 L158.8,496.5 L160.6,489.9 L162.5,483.8 L164.4,478.1
		L166.2,472.9 L168.1,468.3 L170.0,464.3 L171.9,460.8 L173.7,458.0 L175.6,455.8 L177.5,454.2 L179.3,453.2
		L181.2,452.7 L183.1,452.7 L185.0,453.1 L186.8,453.9 L188.7,455.0 L190.6,456.3 L192.4,457.8 L194.3,459.2
		L196.2,460.6 L198.0,461.9 L199.9,463.0 L201.8,463.7 L203.7,464.1 L205.5,464.0 L207.4,463.5 L209.3,462.5
		L211.1,460.9 L213.0,458.8 L214.9,456.2 L216.7,453.0 L218.6,449.4 L220.5,445.3 L222.4,440.8 L224.2,436.1
		L226.1,431.1 L228.0,426.0 L229.8,420.9 L231.7,415.8 L233.6,410.8 L235.5,406.1 L237.3,401.7 L239.2,397.6
		L241.1,394.1 L242.9,391.0 L244.8,388.6 L246.7,386.7 L248.5,385.5 L250.4,384.9 L252.3,385.0 L254.2,385.7
		L256.0,387.0 L257.9,388.9 L259.8,391.4 L261.6,394.4 L263.5,397.8 L265.4,401.7 L267.3,405.9 L269.1,410.5
		L271.0,415.4 L272.9,420.5 L274.7,425.7 L276.6,431.2 L278.5,436.8 L280.3,442.4 L282.2,448.2 L284.1,454.0
		L286.0,459.8 L287.8,465.7 L289.7,471.5 L291.6,477.4 L293.4,483.3 L295.3,489.2 L297.2,495.0 L299.1,500.9
		L300.9,506.7 L302.8,512.5 L304.7,518.2 L306.5,524.0 L308.4,529.6 L310.3,535.2 L312.1,540.8 L314.0,546.2
		L315.9,551.6 L317.8,556.9 L319.6,562.1 L321.5,567.2 L323.4,572.1 L325.2,577.0 L327.1,581.7 L329.0,586.2
		L330.9,590.7 L332.7,595.0 L334.6,599.1 L336.5,603.1 L338.3,606.9 L340.2,610.5 L342.1,614.0 L343.9,617.4
		L345.8,620.6 L347.7,623.6 L349.6,626.5 L351.4,629.2 L353.3,631.7 L355.2,634.2 L357.0,636.4 L358.9,638.6
		L360.8,640.6 L362.7,642.4 L364.5,644.2 L366.4,645.8 L368.3,647.3 L370.1,648.7 L372.0,649.9 L373.9,651.1
		L375.7,652.2 L377.6,653.2 L379.5,654.1 L381.4,655.0 L383.2,655.7 L385.1,656.4 L387.0,657.0 L388.8,657.6
		L390.7,658.1 L392.6,658.6 L394.5,659.0 L396.3,659.4 L398.2,659.7 L400.1,660.0 L401.9,660.3 L403.8,660.5
		L405.7,660.8 L407.5,661.0 L409.4,661.1 L411.3,661.3 L413.2,661.4 L415.0,661.5 L416.9,661.6 L418.8,661.7
		L420.6,661.8 L422.5,661.9 L424.4,662.0 L426.3,662.0 L428.1,662.1 L430.0,662.1 L431.9,662.1 L433.7,662.2
		L435.6,662.2 L437.5,662.2 L439.3,662.3 L441.2,662.3 L443.1,662.3 L445.0,662.3 L446.8,662.3 L448.7,662.3
		L450.6,662.3 L452.4,662.4 L454.3,662.4 L456.2,662.4 L458.0,662.4 L459.9,662.4 L461.8,662.4 L463.7,662.4
		L465.5,662.4 L467.4,662.4 L469.3,662.4 L471.1,662.4 L473.0,662.4 L474.9,662.4 L476.8,662.4 L478.6,662.4
		L480.5,662.4 L482.4,662.3 L484.2,662.3 L486.1,662.3 L488.0,662.3 L489.8,662.2 L491.7,662.2 L493.6,662.1
		L495.5,662.0 L497.3,661.9 L499.2,661.7 L501.1,661.5 L502.9,661.3 L504.8,661.0 L506.7,660.6 L508.6,660.1
		L510.4,659.6 L512.3,658.9 L514.2,658.0 L516.0,656.9 L517.9,655.7 L519.8,654.2 L521.6,652.4 L523.5,650.2
		L525.4,647.7 L527.3,644.8 L529.1,641.3 L531.0,637.3 L532.9,632.7 L534.7,627.3 L536.6,621.3 L538.5,614.4
		L540.4,606.6 L542.2,597.9 L544.1,588.2 L546.0,577.4 L547.8,565.5 L549.7,552.4 L551.6,538.2 L553.4,522.8
		L555.3,506.2 L557.2,488.5 L559.1,469.6 L560.9,449.8 L562.8,428.9 L564.7,407.3 L566.5,384.8 L568.4,361.9
		L570.3,338.5 L572.2,314.9 L574.0,291.3 L575.9,267.9 L577.8,244.9 L579.6,222.6 L581.5,201.2 L583.4,181.0
		L585.2,162.2 L587.1,144.9 L589.0,129.5 L590.9,116.0 L592.7,104.7 L594.6,95.8 L596.5,89.2 L598.3,85.1
		L600.2,83.6 L602.1,84.6 L604.0,88.1 L605.8,94.1 L607.7,102.5 L609.6,113.1 L611.4,125.9 L613.3,140.6
		L615.2,157.2 L617.0,175.3 L618.9,194.7 L620.8,215.3 L622.7,236.8 L624.5,259.0 L626.4,281.6 L628.3,304.5
		L630.1,327.4 L632.0,350.1 L633.9,372.6 L635.8,394.5 L637.6,415.7 L639.5,436.3 L641.4,455.9 L643.2,474.7
		L645.1,492.4 L647.0,509.1 L648.8,524.7 L650.7,539.2 L652.6,552.6 L654.5,564.9 L656.3,576.2 L658.2,586.5
		L660.1,595.9 L661.9,604.3 L663.8,611.8 L665.7,618.6 L667.5,624.5 L669.4,629.8 L671.3,634.5 L673.2,638.6
		L675.0,642.1 L676.9,645.2 L678.8,647.8 L680.6,650.1 L682.5,652.0 L684.4,653.6 L686.3,654.9 L688.1,656.0
		L690.0,656.9 L691.9,657.6 L693.7,658.1 L695.6,658.4 L697.5,658.5 L699.3,658.5 L701.2,658.3 L703.1,657.9
		L705.0,657.3 L706.8,656.6 L708.7,655.6 L710.6,654.4 L712.4,652.9 L714.3,651.2 L716.2,649.1 L718.1,646.7
		L719.9,643.9 L721.8,640.7 L723.7,637.0 L725.5,632.9 L727.4,628.2 L729.3,623.0 L731.1,617.1 L733.0,610.7
		L734.9,603.6 L736.8,595.9 L738.6,587.6 L740.5,578.6 L742.4,568.9 L744.2,558.7 L746.1,547.9 L748.0,536.6
		L749.9,524.9 L751.7,512.8 L753.6,500.4 L755.5,487.8 L757.3,475.2 L759.2,462.6 L761.1,450.2 L762.9,438.1
		L764.8,426.5 L766.7,415.4 L768.6,405.1 L770.4,395.6 L772.3,387.2 L774.2,379.8 L776.0,373.6 L777.9,368.7
		L779.8,365.1 L781.7,362.9 L783.5,362.1 L785.4,362.8 L787.3,364.9 L789.1,368.4 L791.0,373.2 L792.9,379.3
		L794.7,386.6 L796.6,395.0 L798.5,404.3 L800.4,414.5 L802.2,425.4 L804.1,436.9 L806.0,448.8 L807.8,461.1
		L809.7,473.6 L811.6,486.1 L813.5,498.5 L815.3,510.8 L817.2,522.8 L819.1,534.5 L820.9,545.7 L822.8,556.4
		L824.7,566.6 L826.5,576.2 L828.4,585.2 L830.3,593.5 L832.2,601.2 L834.0,608.3 L835.9,614.7 L837.8,620.5
		L839.6,625.7 L841.5,630.3 L843.4,634.4 L845.3,637.9 L847.1,641.0 L849.0,643.5 L850.9,645.7 L852.7,647.4
		L854.6,648.7 L856.5,649.7 L858.3,650.2 L860.2,650.5 L862.1,650.4 L864.0,650.1 L865.8,649.4 L867.7,648.4
		L869.6,647.2 L871.4,645.6 L873.3,643.8 L875.2,641.7 L877.1,639.3 L878.9,636.7 L880.8,633.8 L882.7,630.7
		L884.5,627.4 L886.4,623.9 L888.3,620.2 L890.1,616.3 L892.0,612.3 L893.9,608.2 L895.8,604.0 L897.6,599.9
		L899.5,595.7 L901.4,591.7 L903.2,587.7 L905.1,583.9 L907.0,580.4 L908.8,577.1 L910.7,574.0 L912.6,571.4
		L914.5,569.1 L916.3,567.2 L918.2,565.7 L920.1,564.8 L921.9,564.3 L923.8,564.2 L925.7,564.7 L927.6,565.6
		L929.4,567.0 L931.3,568.8 L933.2,571.1 L935.0,573.7 L936.9,576.6 L938.8,579.9 L940.6,583.4 L942.5,587.2
		L944.4,591.1 L946.3,595.1 L948.1,599.2 L950.0,603.4 L951.9,607.5 L953.7,611.6 L955.6,615.6 L957.5,619.5
		L959.4,623.2 L961.2,626.8 L963.1,630.1 L965.0,633.3 L966.8,636.2 L968.7,638.9 L970.6,641.4 L972.4,643.6
		L974.3,645.6 L976.2,647.3 L978.1,648.8 L979.9,650.1 L981.8,651.2 L983.7,652.1 L985.5,652.8 L987.4,653.3
		L989.3,653.6 L991.2,653.7 L993.0,653.7 L994.9,653.5 L996.8,653.2 L998.6,652.8 L1000.5,652.3 L1002.4,651.7
		L1004.2,650.9 L1006.1,650.1 L1008.0,649.3 L1009.9,648.3 L1011.7,647.4 L1013.6,646.4  '/></g>
	</g>
	<g id="gnuplot_plot_2" ><title>Confidence interval</title>
<g fill="none" color="white" stroke="rgb( 31, 120, 180)" stroke-width="1.00" stroke-linecap="butt" stroke-linejoin="miter">
</g>
<g fill="none" color="black" stroke="currentColor" stroke-width="1.00" stroke-linecap="butt" stroke-linejoin="miter">
	<g transform="translate(1089.0,85.0)" stroke="none" fill="black" font-family="Helvetica" font-size="12.00"  text-anchor="start">
		<text><tspan font-family="Helvetica" >Confidence interval</tspan></text>
	</g>
</g>
<g fill="none" color="black" stroke="currentColor" stroke-width="1.00" stroke-linecap="butt" stroke-linejoin="miter">
	<g stroke='none' shape-rendering='crispEdges'>
		<polygon fill = 'rgb( 31, 120, 180)' fill-opacity = '0.250000' points = '1038.5,85.6 1080.7,85.6 1080.7,76.6 1038.5,76.6 '/>
		<polygon fill = 'rgb( 31, 120, 180)' fill-opacity = '0.250000' points = '166.2,472.9 168.1,468.3 170.0,464.3 171.9,460.8 173.7,458.0 175.6,455.8 177.5,454.2 179.3,453.2 181.2,452.7 183.1,452.7 185.0,453.1 186.8,453.9 188.7,455.0 190.6,456.3 192.4,457.8 194.3,459.2
196.2,460.6 198.0,461.9 199.9,463.0 201.8,463.7 203.7,464.1 205.5,464.0 207.4,463.5 209.3,462.5 211.1,460.9 213.0,458.8 214.9,456.2 216.7,453.0 218.6,449.4 220.5,445.3 222.4,440.8 224.2,436.1
226.1,431.1 228.0,426.0 229.8,420.9 231.7,415.8 233.6,410.8 235.5,406.1 237.3,401.7 239.2,397.6 241.1,394.1 242.9,391.0 244.8,388.6 246.7,386.7 248.5,385.5 250.4,384.9 252.3,385.0 254.2,385.7
256.0,387.0 257.9,388.9 259.8,391.4 261.6,394.4 263.5,397.8 265.4,401.7 267.3,405.9 269.1,410.5 271.0,415.4 272.9,420.5 274.7,425.7 276.6,431.2 278.5,436.8 280.3,442.4 282.2,448.2 284.1,454.0
286.0,459.8 287.8,465.7 289.7,471.5 291.6,477.4 293.4,483.3 295.3,489.2 297.2,495.0 299.1,500.9 300.9,506.7 302.8,512.5 304.7,518.2 306.5,524.0 308.4,529.6 310.3,535.2 312.1,540.8 314.0,546.2
315.9,551.6 317.8,556.9 319.6,562.1 321.5,567.2 323.4,572.1 325.2,577.0 327.1,581.7 329.0,586.2 330.9,590.7 332.7,595.0 334.6,599.1 336.5,603.1 338.3,606.9 340.2,610.5 342.1,614.0 343.9,617.4
345.8,620.6 347.7,623.6 349.6,626.5 351.4,629.2 353.3,631.7 355.2,634.2 357.0,636.4 358.9,638.6 360.8,640.6 362.7,642.4 364.5,644.2 366.4,645.8 368.3,647.3 370.1,648.7 372.0,649.9 373.9,651.1
375.7,652.2 377.6,653.2 379.5,654.1 381.4,655.0 383.2,655.7 385.1,656.4 387.0,657.0 388.8,657.6 390.7,658.1 392.6,658.6 394.5,659.0 396.3,659.4 398.2,659.7 400.1,660.0 401.9,660.3 403.8,660.5
405.7,660.8 407.5,661.0 409.4,661.1 411.3,661.3 413.2,661.4 415.0,661.5 416.9,661.6 418.8,661.7 420.6,661.8 422.5,661.9 424.4,662.0 426.3,662.0 428.1,662.1 430.0,662.1 431.9,662.1 433.7,662.2
435.6,662.2 437.5,662.2 439.3,662.3 441.2,662.3 443.1,662.3 445.0,662.3 446.8,662.3 448.7,662.3 450.6,662.3 452.4,662.4 454.3,662.4 456.2,662.4 458.0,662.4 459.9,662.4 461.8,662.4 463.7,662.4
465.5,662.4 467.4,662.4 469.3,662.4 471.1,662.4 473.0,662.4 474.9,662.4 476.8,662.4 478.6,662.4 480.5,662.4 482.4,662.3 484.2,662.3 486.1,662.3 488.0,662.3 489.8,662.2 491.7,662.2 493.6,662.1
495.5,662.0 497.3,661.9 499.2,661.7 501.1,661.5 502.9,661.3 504.8,661.0 506.7,660.6 508.6,660.1 510.4,659.6 512.3,658.9 514.2,658.0 516.0,656.9 517.9,655.7 519.8,654.2 521.6,652.4 523.5,650.2
525.4,647.7 527.3,644.8 529.1,641.3 531.0,637.3 532.9,632.7 534.7,627.3 536.6,621.3 538.5,614.4 540.4,606.6 542.2,597.9 544.1,588.2 546.0,577.4 547.8,565.5 549.7,552.4 551.6,538.2 553.4,522.8
555.3,506.2 557.2,488.5 559.1,469.6 560.9,449.8 562.8,428.9 564.7,407.3 566.5,384.8 568.4,361.9 570.3,338.5 572.2,314.9 574.0,291.3 575.9,267.9 577.8,244.9 579.6,222.6 581.5,201.2 583.4,181.0
585.2,162.2 587.1,144.9 589.0,129.5 590.9,116.0 592.7,104.7 594.6,95.8 596.5,89.2 598.3,85.1 600.2,83.6 602.1,84.6 604.0,88.1 605.8,94.1 607.7,102.5 609.6,113.1 611.4,125.9 613.3,140.6
615.2,157.2 617.0,175.3 618.9,194.7 620.8,215.3 622.7,236.8 624.5,259.0 626.4,281.6 628.3,304.5 630.1,327.4 632.0,350.1 633.9,372.6 635.8,394.5 637.6,415.7 639.5,436.3 641.4,455.9 643.2,474.7
645.1,492.4 647.0,509.1 648.8,524.7 650.7,539.2 652.6,552.6 654.5,564.9 656.3,576.2 658.2,586.5 660.1,595.9 661.9,604.3 663.8,611.8 665.7,618.6 667.5,624.5 669.4,629.8 671.3,634.5 673.2,638.6
675.0,642.1 676.9,645.2 678.8,647.8 680.6,650.1 682.5,652.0 684.4,653.6 686.3,654.9 688.1,656.0 690.0,656.9 691.9,657.6 693.7,658.1 695.6,658.4 697.5,658.5 699.3,658.5 701.2,658.3 703.1,657.9
705.0,657.3 706.8,656.6 708.7,655.6 710.6,654.4 712.4,652.9 714.3,651.2 716.2,649.1 718.1,646.7 719.9,643.9 721.8,640.7 723.7,637.0 725.5,632.9 727.4,628.2 729.3,623.0 731.1,617.1 733.0,610.7
734.9,603.6 736.8,595.9 738.6,587.6 740.5,578.6 742.4,568.9 744.2,558.7 746.1,547.9 748.0,536.6 749.9,524.9 751.7,512.8 753.6,500.4 755.5,487.8 757.3,475.2 759.2,462.6 761.1,450.2 762.9,438.1
764.8,426.5 766.7,415.4 768.6,405.1 770.4,395.6 772.3,387.2 774.2,379.8 776.0,373.6 777.9,368.7 779.8,365.1 781.7,362.9 783.5,362.1 785.4,362.8 787.3,364.9 789.1,368.4 791.0,373.2 792.9,379.3
794.7,386.6 796.6,395.0 798.5,404.3 800.4,414.5 802.2,425.4 804.1,436.9 806.0,448.8 807.8,461.1 809.7,473.6 811.6,486.1 813.5,498.5 815.3,510.8 817.2,522.8 819.1,534.5 820.9,545.7 822.8,556.4
824.7,566.6 826.5,576.2 828.4,585.2 830.3,593.5 832.2,601.2 834.0,608.3 835.9,614.7 837.8,620.5 839.6,625.7 841.5,630.3 843.4,634.4 845.3,637.9 847.1,641.0 849.0,643.5 850.9,645.7 852.7,647.4
854.6,648.7 856.5,649.7 858.3,650.2 860.2,650.5 862.1,650.4 864.0,650.1 865.8,649.4 867.7,648.4 869.6,647.2 871.4,645.6 873.3,643.8 875.2,641.7 877.1,639.3 878.9,636.7 880.8,633.8 882.7,630.7
884.5,627.4 886.4,623.9 888.3,620.2 890.1,616.3 892.0,612.3 893.9,608.2 895.8,604.0 897.6,599.9 899.5,595.7 901.4,591.7 903.2,587.7 905.1,583.9 907.0,580.4 908.8,577.1 910.7,574.0 912.6,571.4
914.5,569.1 916.3,567.2 918.2,565.7 920.1,564.8 921.9,564.3 923.8,564.2 925.7,564.7 925.7,662.4 923.8,662.4 921.9,662.4 920.1,662.4 918.2,662.4 916.3,662.4 914.5,662.4 912.6,662.4 910.7,662.4
908.8,662.4 907.0,662.4 905.1,662.4 903.2,662.4 901.4,662.4 899.5,662.4 897.6,662.4 895.8,662.4 893.9,662.4 892.0,662.4 890.1,662.4 888.3,662.4 886.4,662.4 884.5,662.4 882.7,662.4 880.8,662.4
878.9,662.4 877.1,662.4 875.2,662.4 873.3,662.4 871.4,662.4 869.6,662.4 867.7,662.4 865.8,662.4 864.0,662.4 862.1,662.4 860.2,662.4 858.3,662.4 856.5,662.4 854.6,662.4 852.7,662.4 850.9,662.4
849.0,662.4 847.1,662.4 845.3,662.4 843.4,662.4 841.5,662.4 839.6,662.4 837.8,662.4 835.9,662.4 834.0,662.4 832.2,662.4 830.3,662.4 828.4,662.4 826.5,662.4 824.7,662.4 822.8,662.4 820.9,662.4
819.1,662.4 817.2,662.4 815.3,662.4 813.5,662.4 811.6,662.4 809.7,662.4 807.8,662.4 806.0,662.4 804.1,662.4 802.2,662.4 800.4,662.4 798.5,662.4 796.6,662.4 794.7,662.4 792.9,662.4 791.0,662.4
789.1,662.4 787.3,662.4 785.4,662.4 783.5,662.4 781.7,662.4 779.8,662.4 777.9,662.4 776.0,662.4 774.2,662.4 772.3,662.4 770.4,662.4 768.6,662.4 766.7,662.4 764.8,662.4 762.9,662.4 761.1,662.4
759.2,662.4 757.3,662.4 755.5,662.4 753.6,662.4 751.7,662.4 749.9,662.4 748.0,662.4 746.1,662.4 744.2,662.4 742.4,662.4 740.5,662.4 738.6,662.4 736.8,662.4 734.9,662.4 733.0,662.4 731.1,662.4
729.3,662.4 727.4,662.4 725.5,662.4 723.7,662.4 721.8,662.4 719.9,662.4 718.1,662.4 716.2,662.4 714.3,662.4 712.4,662.4 710.6,662.4 708.7,662.4 706.8,662.4 705.0,662.4 703.1,662.4 701.2,662.4
699.3,662.4 697.5,662.4 695.6,662.4 693.7,662.4 691.9,662.4 690.0,662.4 688.1,662.4 686.3,662.4 684.4,662.4 682.5,662.4 680.6,662.4 678.8,662.4 676.9,662.4 675.0,662.4 673.2,662.4 671.3,662.4
669.4,662.4 667.5,662.4 665.7,662.4 663.8,662.4 661.9,662.4 660.1,662.4 658.2,662.4 656.3,662.4 654.5,662.4 652.6,662.4 650.7,662.4 648.8,662.4 647.0,662.4 645.1,662.4 643.2,662.4 641.4,662.4
639.5,662.4 637.6,662.4 635.8,662.4 633.9,662.4 632.0,662.4 630.1,662.4 628.3,662.4 626.4,662.4 624.5,662.4 622.7,662.4 620.8,662.4 618.9,662.4 617.0,662.4 615.2,662.4 613.3,662.4 611.4,662.4
609.6,662.4 607.7,662.4 605.8,662.4 604.0,662.4 602.1,662.4 600.2,662.4 598.3,662.4 596.5,662.4 594.6,662.4 592.7,662.4 590.9,662.4 589.0,662.4 587.1,662.4 585.2,662.4 583.4,662.4 581.5,662.4
579.6,662.4 577.8,662.4 575.9,662.4 574.0,662.4 572.2,662.4 570.3,662.4 568.4,662.4 566.5,662.4 564.7,662.4 562.8,662.4 560.9,662.4 559.1,662.4 557.2,662.4 555.3,662.4 553.4,662.4 551.6,662.4
549.7,662.4 547.8,662.4 546.0,662.4 544.1,662.4 542.2,662.4 540.4,662.4 538.5,662.4 536.6,662.4 534.7,662.4 532.9,662.4 531.0,662.4 529.1,662.4 527.3,662.4 525.4,662.4 523.5,662.4 521.6,662.4
519.8,662.4 517.9,662.4 516.0,662.4 514.2,662.4 512.3,662.4 510.4,662.4 508.6,662.4 506.7,662.4 504.8,662.4 502.9,662.4 501.1,662.4 499.2,662.4 497.3,662.4 495.5,662.4 493.6,662.4 491.7,662.4
489.8,662.4 488.0,662.4 486.1,662.4 484.2,662.4 482.4,662.4 480.5,662.4 478.6,662.4 476.8,662.4 474.9,662.4 473.0,662.4 471.1,662.4 469.3,662.4 467.4,662.4 465.5,662.4 463.7,662.4 461.8,662.4
459.9,662.4 458.0,662.4 456.2,662.4 454.3,662.4 452.4,662.4 450.6,662.4 448.7,662.4 446.8,662.4 445.0,662.4 443.1,662.4 441.2,662.4 439.3,662.4 437.5,662.4 435.6,662.4 433.7,662.4 431.9,662.4
430.0,662.4 428.1,662.4 426.3,662.4 424.4,662.4 422.5,662.4 420.6,662.4 418.8,662.4 416.9,662.4 415.0,662.4 413.2,662.4 411.3,662.4 409.4,662.4 407.5,662.4 405.7,662.4 403.8,662.4 401.9,662.4
400.1,662.4 398.2,662.4 396.3,662.4 394.5,662.4 392.6,662.4 390.7,662.4 388.8,662.4 387.0,662.4 385.1,662.4 383.2,662.4 381.4,662.4 379.5,662.4 377.6,662.4 375.7,662.4 373.9,662.4 372.0,662.4
370.1,662.4 368.3,662.4 366.4,662.4 364.5,662.4 362.7,662.4 360.8,662.4 358.9,662.4 357.0,662.4 355.2,662.4 353.3,662.4 351.4,662.4 349.6,662.4 347.7,662.4 345.8,662.4 343.9,662.4 342.1,662.4
340.2,662.4 338.3,662.4 336.5,662.4 334.6,662.4 332.7,662.4 330.9,662.4 329.0,662.4 327.1,662.4 325.2,662.4 323.4,662.4 321.5,662.4 319.6,662.4 317.8,662.4 315.9,662.4 314.0,662.4 312.1,662.4
310.3,662.4 308.4,662.4 306.5,662.4 304.7,662.4 302.8,662.4 300.9,662.4 299.1,662.4 297.2,662.4 295.3,662.4 293.4,662.4 291.6,662.4 289.7,662.4 287.8,662.4 286.0,662.4 284.1,662.4 282.2,662.4
280.3,662.4 278.5,662.4 276.6,662.4 274.7,662.4 272.9,662.4 271.0,662.4 269.1,662.4 267.3,662.4 265.4,662.4 263.5,662.4 261.6,662.4 259.8,662.4 257.9,662.4 256.0,662.4 254.2,662.4 252.3,662.4
250.4,662.4 248.5,662.4 246.7,662.4 244.8,662.4 242.9,662.4 241.1,662.4 239.2,662.4 237.3,662.4 235.5,662.4 233.6,662.4 231.7,662.4 229.8,662.4 228.0,662.4 226.1,662.4 224.2,662.4 222.4,662.4
220.5,662.4 218.6,662.4 216.7,662.4 214.9,662.4 213.0,662.4 211.1,662.4 209.3,662.4 207.4,662.4 205.5,662.4 203.7,662.4 201.8,662.4 199.9,662.4 198.0,662.4 196.2,662.4 194.3,662.4 192.4,662.4
190.6,662.4 188.7,662.4 186.8,662.4 185.0,662.4 183.1,662.4 181.2,662.4 179.3,662.4 177.5,662.4 175.6,662.4 173.7,662.4 171.9,662.4 170.0,662.4 168.1,662.4 166.2,662.4 '/>
	</g>
</g>
	</g>
	<g id="gnuplot_plot_3" ><title>Point estimate</title>
<g fill="none" color="white" stroke="rgb( 31, 120, 180)" stroke-width="2.00" stroke-linecap="butt" stroke-linejoin="miter">
</g>
<g fill="none" color="black" stroke="currentColor" stroke-width="2.00" stroke-linecap="butt" stroke-linejoin="miter">
	<g transform="translate(1089.0,103.0)" stroke="none" fill="black" font-family="Helvetica" font-size="12.00"  text-anchor="start">
		<text><tspan font-family="Helvetica" >Point estimate</tspan></text>
	</g>
</g>
<g fill="none" color="black" stroke="currentColor" stroke-width="2.00" stroke-linecap="butt" stroke-linejoin="miter">
	<path stroke='rgb( 31, 120, 180)'  d='M1038.5,99.1 L1080.7,99.1 M601.4,662.4 L601.4,84.2  '/></g>
	</g>
<g fill="none" color="black" stroke="currentColor" stroke-width="2.00" stroke-linecap="butt" stroke-linejoin="miter">
</g>
<g fill="none" color="black" stroke="black" stroke-width="1.00" stroke-linecap="butt" stroke-linejoin="miter">
</g>
<g fill="none" color="black" stroke="currentColor" stroke-width="1.00" stroke-linecap="butt" stroke-linejoin="miter">
	<path stroke='black'  d='M80.2,54.1 L80.2,662.4 L1013.6,662.4 L1013.6,54.1 L80.2,54.1 Z  '/></g>
<g fill="none" color="black" stroke="currentColor" stroke-width="1.00" stroke-linecap="butt" stroke-linejoin="miter">
</g>
</g>
</svg>

