<?xml version="1.0" encoding="utf-8"  standalone="no"?>
<svg 
 viewBox="0 0 1280 720"
 xmlns="http://www.w3.org/2000/svg"
 xmlns:xlink="http://www.w3.org/1999/xlink"
>

<title>Gnuplot</title>
<desc>Produced by GNUPLOT 5.2 patchlevel 6 </desc>

<g id="gnuplot_canvas">

<rect x="0" y="0" width="1280" height="720" fill="none"/>
<defs>

	<circle id='gpDot' r='0.5' stroke-width='0.5' stroke='currentColor'/>
	<path id='gpPt0' stroke-width='0.222' stroke='currentColor' d='M-1,0 h2 M0,-1 v2'/>
	<path id='gpPt1' stroke-width='0.222' stroke='currentColor' d='M-1,-1 L1,1 M1,-1 L-1,1'/>
	<path id='gpPt2' stroke-width='0.222' stroke='currentColor' d='M-1,0 L1,0 M0,-1 L0,1 M-1,-1 L1,1 M-1,1 L1,-1'/>
	<rect id='gpPt3' stroke-width='0.222' stroke='currentColor' x='-1' y='-1' width='2' height='2'/>
	<rect id='gpPt4' stroke-width='0.222' stroke='currentColor' fill='currentColor' x='-1' y='-1' width='2' height='2'/>
	<circle id='gpPt5' stroke-width='0.222' stroke='currentColor' cx='0' cy='0' r='1'/>
	<use xlink:href='#gpPt5' id='gpPt6' fill='currentColor' stroke='none'/>
	<path id='gpPt7' stroke-width='0.222' stroke='currentColor' d='M0,-1.33 L-1.33,0.67 L1.33,0.67 z'/>
	<use xlink:href='#gpPt7' id='gpPt8' fill='currentColor' stroke='none'/>
	<use xlink:href='#gpPt7' id='gpPt9' stroke='currentColor' transform='rotate(180)'/>
	<use xlink:href='#gpPt9' id='gpPt10' fill='currentColor' stroke='none'/>
	<use xlink:href='#gpPt3' id='gpPt11' stroke='currentColor' transform='rotate(45)'/>
	<use xlink:href='#gpPt11' id='gpPt12' fill='currentColor' stroke='none'/>
	<path id='gpPt13' stroke-width='0.222' stroke='currentColor' d='M0,1.330 L1.265,0.411 L0.782,-1.067 L-0.782,-1.076 L-1.265,0.411 z'/>
	<use xlink:href='#gpPt13' id='gpPt14' fill='currentColor' stroke='none'/>
	<filter id='textbox' filterUnits='objectBoundingBox' x='0' y='0' height='1' width='1'>
	  <feFlood flood-color='white' flood-opacity='1' result='bgnd'/>
	  <feComposite in='SourceGraphic' in2='bgnd' operator='atop'/>
	</filter>
	<filter id='greybox' filterUnits='objectBoundingBox' x='0' y='0' height='1' width='1'>
	  <feFlood flood-color='lightgrey' flood-opacity='1' result='grey'/>
	  <feComposite in='SourceGraphic' in2='grey' operator='atop'/>
	</filter>
</defs>
<g fill="none" color="white" stroke="currentColor" stroke-width="1.00" stroke-linecap="butt" stroke-linejoin="miter">
</g>
<g fill="none" color="black" stroke="currentColor" stroke-width="1.00" stroke-linecap="butt" stroke-linejoin="miter">
	<path stroke='black'  d='M71.9,662.4 L80.9,662.4  '/>	<g transform="translate(63.6,666.3)" stroke="none" fill="black" font-family="Helvetica" font-size="12.00"  text-anchor="end">
		<text><tspan font-family="Helvetica" > 0</tspan></text>
	</g>
</g>
<g fill="none" color="black" stroke="currentColor" stroke-width="1.00" stroke-linecap="butt" stroke-linejoin="miter">
	<path stroke='black'  d='M71.9,575.5 L80.9,575.5  '/>	<g transform="translate(63.6,579.4)" stroke="none" fill="black" font-family="Helvetica" font-size="12.00"  text-anchor="end">
		<text><tspan font-family="Helvetica" > 0.2</tspan></text>
	</g>
</g>
<g fill="none" color="black" stroke="currentColor" stroke-width="1.00" stroke-linecap="butt" stroke-linejoin="miter">
	<path stroke='black'  d='M71.9,488.6 L80.9,488.6  '/>	<g transform="translate(63.6,492.5)" stroke="none" fill="black" font-family="Helvetica" font-size="12.00"  text-anchor="end">
		<text><tspan font-family="Helvetica" > 0.4</tspan></text>
	</g>
</g>
<g fill="none" color="black" stroke="currentColor" stroke-width="1.00" stroke-linecap="butt" stroke-linejoin="miter">
	<path stroke='black'  d='M71.9,401.7 L80.9,401.7  '/>	<g transform="translate(63.6,405.6)" stroke="none" fill="black" font-family="Helvetica" font-size="12.00"  text-anchor="end">
		<text><tspan font-family="Helvetica" > 0.6</tspan></text>
	</g>
</g>
<g fill="none" color="black" stroke="currentColor" stroke-width="1.00" stroke-linecap="butt" stroke-linejoin="miter">
	<path stroke='black'  d='M71.9,314.8 L80.9,314.8  '/>	<g transform="translate(63.6,318.7)" stroke="none" fill="black" font-family="Helvetica" font-size="12.00"  text-anchor="end">
		<text><tspan font-family="Helvetica" > 0.8</tspan></text>
	</g>
</g>
<g fill="none" color="black" stroke="currentColor" stroke-width="1.00" stroke-linecap="butt" stroke-linejoin="miter">
	<path stroke='black'  d='M71.9,227.9 L80.9,227.9  '/>	<g transform="translate(63.6,231.8)" stroke="none" fill="black" font-family="Helvetica" font-size="12.00"  text-anchor="end">
		<text><tspan font-family="Helvetica" > 1</tspan></text>
	</g>
</g>
<g fill="none" color="black" stroke="currentColor" stroke-width="1.00" stroke-linecap="butt" stroke-linejoin="miter">
	<path stroke='black'  d='M71.9,141.0 L80.9,141.0  '/>	<g transform="translate(63.6,144.9)" stroke="none" fill="black" font-family="Helvetica" font-size="12.00"  text-anchor="end">
		<text><tspan font-family="Helvetica" > 1.2</tspan></text>
	</g>
</g>
<g fill="none" color="black" stroke="currentColor" stroke-width="1.00" stroke-linecap="butt" stroke-linejoin="miter">
	<path stroke='black'  d='M71.9,54.1 L80.9,54.1  '/>	<g transform="translate(63.6,58.0)" stroke="none" fill="black" font-family="Helvetica" font-size="12.00"  text-anchor="end">
		<text><tspan font-family="Helvetica" > 1.4</tspan></text>
	</g>
</g>
<g fill="none" color="black" stroke="currentColor" stroke-width="1.00" stroke-linecap="butt" stroke-linejoin="miter">
	<path stroke='black'  d='M186.1,662.4 L186.1,653.4  '/>	<g transform="translate(186.1,684.3)" stroke="none" fill="black" font-family="Helvetica" font-size="12.00"  text-anchor="middle">
		<text><tspan font-family="Helvetica" > 121.8</tspan></text>
	</g>
</g>
<g fill="none" color="black" stroke="currentColor" stroke-width="1.00" stroke-linecap="butt" stroke-linejoin="miter">
	<path stroke='black'  d='M306.4,662.4 L306.4,653.4  '/>	<g transform="translate(306.4,684.3)" stroke="none" fill="black" font-family="Helvetica" font-size="12.00"  text-anchor="middle">
		<text><tspan font-family="Helvetica" > 122</tspan></text>
	</g>
</g>
<g fill="none" color="black" stroke="currentColor" stroke-width="1.00" stroke-linecap="butt" stroke-linejoin="miter">
	<path stroke='black'  d='M426.7,662.4 L426.7,653.4  '/>	<g transform="translate(426.7,684.3)" stroke="none" fill="black" font-family="Helvetica" font-size="12.00"  text-anchor="middle">
		<text><tspan font-family="Helvetica" > 122.2</tspan></text>
	</g>
</g>
<g fill="none" color="black" stroke="currentColor" stroke-width="1.00" stroke-linecap="butt" stroke-linejoin="miter">
	<path stroke='black'  d='M547.0,662.4 L547.0,653.4  '/>	<g transform="translate(547.0,684.3)" stroke="none" fill="black" font-family="Helvetica" font-size="12.00"  text-anchor="middle">
		<text><tspan font-family="Helvetica" > 122.4</tspan></text>
	</g>
</g>
<g fill="none" color="black" stroke="currentColor" stroke-width="1.00" stroke-linecap="butt" stroke-linejoin="miter">
	<path stroke='black'  d='M667.3,662.4 L667.3,653.4  '/>	<g transform="translate(667.3,684.3)" stroke="none" fill="black" font-family="Helvetica" font-size="12.00"  text-anchor="middle">
		<text><tspan font-family="Helvetica" > 122.6</tspan></text>
	</g>
</g>
<g fill="none" color="black" stroke="currentColor" stroke-width="1.00" stroke-linecap="butt" stroke-linejoin="miter">
	<path stroke='black'  d='M787.6,662.4 L787.6,653.4  '/>	<g transform="translate(787.6,684.3)" stroke="none" fill="black" font-family="Helvetica" font-size="12.00"  text-anchor="middle">
		<text><tspan font-family="Helvetica" > 122.8</tspan></text>
	</g>
</g>
<g fill="none" color="black" stroke="currentColor" stroke-width="1.00" stroke-linecap="butt" stroke-linejoin="miter">
	<path stroke='black'  d='M907.9,662.4 L907.9,653.4  '/>	<g transform="translate(907.9,684.3)" stroke="none" fill="black" font-family="Helvetica" font-size="12.00"  text-anchor="middle">
		<text><tspan font-family="Helvetica" > 123</tspan></text>
	</g>
</g>
<g fill="none" color="black" stroke="currentColor" stroke-width="1.00" stroke-linecap="butt" stroke-linejoin="miter">
</g>
<g fill="none" color="black" stroke="currentColor" stroke-width="1.00" stroke-linecap="butt" stroke-linejoin="miter">
	<path stroke='black'  d='M71.9,54.1 L71.9,662.4 L1013.6,662.4 L1013.6,54.1 L71.9,54.1 Z  '/></g>
<g fill="none" color="black" stroke="currentColor" stroke-width="1.00" stroke-linecap="butt" stroke-linejoin="miter">
	<g transform="translate(16.3,358.3) rotate(270)" stroke="none" fill="black" font-family="Helvetica" font-size="12.00"  text-anchor="middle">
		<text><tspan font-family="Helvetica" >Density (a.u.)</tspan></text>
	</g>
</g>
<g fill="none" color="black" stroke="currentColor" stroke-width="1.00" stroke-linecap="butt" stroke-linejoin="miter">
	<g transform="translate(542.7,711.3)" stroke="none" fill="black" font-family="Helvetica" font-size="12.00"  text-anchor="middle">
		<text><tspan font-family="Helvetica" >Average time (us)</tspan></text>
	</g>
</g>
<g fill="none" color="black" stroke="currentColor" stroke-width="1.00" stroke-linecap="butt" stroke-linejoin="miter">
	<g transform="translate(542.7,31.0)" stroke="none" fill="black" font-family="Helvetica" font-size="12.00"  text-anchor="middle">
		<text><tspan font-family="Helvetica" >snapshot_restore_with_dense/Dense: Entire region + process_vm_writev w/ page size/215: mean</tspan></text>
	</g>
</g>
	<g id="gnuplot_plot_1" ><title>Bootstrap distribution</title>
<g fill="none" color="white" stroke="black" stroke-width="2.00" stroke-linecap="butt" stroke-linejoin="miter">
</g>
<g fill="none" color="black" stroke="currentColor" stroke-width="2.00" stroke-linecap="butt" stroke-linejoin="miter">
	<g transform="translate(1089.0,67.0)" stroke="none" fill="black" font-family="Helvetica" font-size="12.00"  text-anchor="start">
		<text><tspan font-family="Helvetica" >Bootstrap distribution</tspan></text>
	</g>
</g>
<g fill="none" color="black" stroke="currentColor" stroke-width="2.00" stroke-linecap="butt" stroke-linejoin="miter">
	<path stroke='rgb( 31, 120, 180)'  d='M1038.5,63.1 L1080.7,63.1 M71.9,633.5 L73.8,632.3 L75.7,631.1 L77.6,629.9 L79.4,628.6 L81.3,627.3
		L83.2,625.9 L85.1,624.5 L87.0,623.1 L88.9,621.7 L90.8,620.2 L92.7,618.7 L94.5,617.1 L96.4,615.5
		L98.3,613.8 L100.2,612.1 L102.1,610.3 L104.0,608.5 L105.9,606.6 L107.8,604.6 L109.6,602.6 L111.5,600.6
		L113.4,598.5 L115.3,596.3 L117.2,594.1 L119.1,591.8 L121.0,589.5 L122.9,587.2 L124.7,584.8 L126.6,582.4
		L128.5,580.0 L130.4,577.6 L132.3,575.1 L134.2,572.6 L136.1,570.0 L138.0,567.5 L139.8,564.9 L141.7,562.3
		L143.6,559.6 L145.5,557.0 L147.4,554.3 L149.3,551.5 L151.2,548.7 L153.0,545.9 L154.9,543.0 L156.8,540.1
		L158.7,537.1 L160.6,534.1 L162.5,531.0 L164.4,527.8 L166.3,524.6 L168.1,521.3 L170.0,517.9 L171.9,514.5
		L173.8,511.1 L175.7,507.6 L177.6,504.0 L179.5,500.5 L181.4,496.9 L183.2,493.2 L185.1,489.6 L187.0,485.9
		L188.9,482.3 L190.8,478.6 L192.7,475.0 L194.6,471.4 L196.5,467.8 L198.3,464.2 L200.2,460.6 L202.1,457.1
		L204.0,453.5 L205.9,450.0 L207.8,446.5 L209.7,443.0 L211.6,439.6 L213.4,436.1 L215.3,432.6 L217.2,429.1
		L219.1,425.6 L221.0,422.1 L222.9,418.6 L224.8,415.0 L226.6,411.4 L228.5,407.8 L230.4,404.1 L232.3,400.4
		L234.2,396.6 L236.1,392.9 L238.0,389.0 L239.9,385.2 L241.7,381.3 L243.6,377.3 L245.5,373.4 L247.4,369.3
		L249.3,365.3 L251.2,361.3 L253.1,357.2 L255.0,353.1 L256.8,349.0 L258.7,344.9 L260.6,340.9 L262.5,336.8
		L264.4,332.7 L266.3,328.7 L268.2,324.7 L270.1,320.8 L271.9,316.9 L273.8,313.0 L275.7,309.2 L277.6,305.4
		L279.5,301.7 L281.4,298.1 L283.3,294.5 L285.2,291.0 L287.0,287.5 L288.9,284.2 L290.8,280.8 L292.7,277.5
		L294.6,274.3 L296.5,271.1 L298.4,267.9 L300.2,264.8 L302.1,261.6 L304.0,258.5 L305.9,255.5 L307.8,252.4
		L309.7,249.4 L311.6,246.3 L313.5,243.3 L315.3,240.3 L317.2,237.3 L319.1,234.3 L321.0,231.3 L322.9,228.4
		L324.8,225.5 L326.7,222.5 L328.6,219.7 L330.4,216.8 L332.3,214.0 L334.2,211.2 L336.1,208.5 L338.0,205.8
		L339.9,203.2 L341.8,200.6 L343.7,198.0 L345.5,195.5 L347.4,193.0 L349.3,190.6 L351.2,188.2 L353.1,185.8
		L355.0,183.5 L356.9,181.2 L358.8,179.0 L360.6,176.8 L362.5,174.6 L364.4,172.5 L366.3,170.4 L368.2,168.4
		L370.1,166.4 L372.0,164.5 L373.8,162.6 L375.7,160.8 L377.6,159.1 L379.5,157.4 L381.4,155.8 L383.3,154.3
		L385.2,152.9 L387.1,151.5 L388.9,150.2 L390.8,149.0 L392.7,147.9 L394.6,146.9 L396.5,145.9 L398.4,145.0
		L400.3,144.2 L402.2,143.4 L404.0,142.7 L405.9,142.0 L407.8,141.4 L409.7,140.9 L411.6,140.3 L413.5,139.8
		L415.4,139.3 L417.3,138.9 L419.1,138.4 L421.0,138.0 L422.9,137.5 L424.8,137.1 L426.7,136.7 L428.6,136.3
		L430.5,136.0 L432.4,135.6 L434.2,135.3 L436.1,135.0 L438.0,134.7 L439.9,134.5 L441.8,134.3 L443.7,134.1
		L445.6,134.0 L447.4,134.0 L449.3,134.0 L451.2,134.1 L453.1,134.3 L455.0,134.5 L456.9,134.8 L458.8,135.1
		L460.7,135.5 L462.5,136.0 L464.4,136.6 L466.3,137.2 L468.2,137.9 L470.1,138.6 L472.0,139.5 L473.9,140.3
		L475.8,141.3 L477.6,142.3 L479.5,143.4 L481.4,144.6 L483.3,145.8 L485.2,147.1 L487.1,148.5 L489.0,149.9
		L490.9,151.4 L492.7,153.0 L494.6,154.6 L496.5,156.3 L498.4,158.0 L500.3,159.7 L502.2,161.5 L504.1,163.3
		L506.0,165.1 L507.8,167.0 L509.7,168.8 L511.6,170.7 L513.5,172.5 L515.4,174.4 L517.3,176.2 L519.2,178.0
		L521.0,179.9 L522.9,181.7 L524.8,183.5 L526.7,185.3 L528.6,187.1 L530.5,188.9 L532.4,190.7 L534.3,192.6
		L536.1,194.4 L538.0,196.2 L539.9,198.1 L541.8,200.0 L543.7,201.9 L545.6,203.8 L547.5,205.7 L549.4,207.6
		L551.2,209.5 L553.1,211.5 L555.0,213.4 L556.9,215.3 L558.8,217.3 L560.7,219.2 L562.6,221.2 L564.5,223.1
		L566.3,225.0 L568.2,226.9 L570.1,228.8 L572.0,230.7 L573.9,232.6 L575.8,234.5 L577.7,236.4 L579.5,238.3
		L581.4,240.2 L583.3,242.1 L585.2,244.1 L587.1,246.0 L589.0,248.0 L590.9,250.0 L592.8,252.0 L594.6,254.1
		L596.5,256.2 L598.4,258.3 L600.3,260.5 L602.2,262.7 L604.1,264.9 L606.0,267.2 L607.9,269.6 L609.7,272.0
		L611.6,274.4 L613.5,276.8 L615.4,279.3 L617.3,281.9 L619.2,284.4 L621.1,287.0 L623.0,289.6 L624.8,292.2
		L626.7,294.8 L628.6,297.5 L630.5,300.1 L632.4,302.7 L634.3,305.4 L636.2,308.0 L638.1,310.7 L639.9,313.3
		L641.8,316.0 L643.7,318.6 L645.6,321.3 L647.5,324.0 L649.4,326.6 L651.3,329.3 L653.1,332.0 L655.0,334.7
		L656.9,337.4 L658.8,340.1 L660.7,342.8 L662.6,345.6 L664.5,348.3 L666.4,351.0 L668.2,353.8 L670.1,356.5
		L672.0,359.2 L673.9,362.0 L675.8,364.7 L677.7,367.4 L679.6,370.1 L681.5,372.8 L683.3,375.4 L685.2,378.1
		L687.1,380.7 L689.0,383.3 L690.9,385.9 L692.8,388.4 L694.7,391.0 L696.6,393.5 L698.4,396.0 L700.3,398.6
		L702.2,401.1 L704.1,403.6 L706.0,406.1 L707.9,408.6 L709.8,411.0 L711.7,413.5 L713.5,416.0 L715.4,418.5
		L717.3,421.0 L719.2,423.5 L721.1,426.0 L723.0,428.4 L724.9,430.9 L726.7,433.3 L728.6,435.8 L730.5,438.2
		L732.4,440.5 L734.3,442.9 L736.2,445.2 L738.1,447.5 L740.0,449.7 L741.8,451.9 L743.7,454.1 L745.6,456.2
		L747.5,458.3 L749.4,460.4 L751.3,462.5 L753.2,464.5 L755.1,466.5 L756.9,468.4 L758.8,470.4 L760.7,472.4
		L762.6,474.3 L764.5,476.3 L766.4,478.2 L768.3,480.2 L770.2,482.2 L772.0,484.1 L773.9,486.1 L775.8,488.1
		L777.7,490.1 L779.6,492.1 L781.5,494.1 L783.4,496.1 L785.3,498.1 L787.1,500.1 L789.0,502.0 L790.9,504.0
		L792.8,505.9 L794.7,507.8 L796.6,509.6 L798.5,511.4 L800.3,513.2 L802.2,515.0 L804.1,516.7 L806.0,518.4
		L807.9,520.0 L809.8,521.6 L811.7,523.2 L813.6,524.7 L815.4,526.3 L817.3,527.8 L819.2,529.2 L821.1,530.7
		L823.0,532.1 L824.9,533.5 L826.8,535.0 L828.7,536.4 L830.5,537.8 L832.4,539.2 L834.3,540.6 L836.2,542.0
		L838.1,543.4 L840.0,544.8 L841.9,546.3 L843.8,547.7 L845.6,549.1 L847.5,550.6 L849.4,552.0 L851.3,553.5
		L853.2,555.0 L855.1,556.4 L857.0,557.9 L858.9,559.3 L860.7,560.8 L862.6,562.2 L864.5,563.7 L866.4,565.1
		L868.3,566.5 L870.2,567.9 L872.1,569.2 L873.9,570.6 L875.8,571.9 L877.7,573.3 L879.6,574.6 L881.5,575.9
		L883.4,577.1 L885.3,578.4 L887.2,579.6 L889.0,580.8 L890.9,582.0 L892.8,583.2 L894.7,584.4 L896.6,585.6
		L898.5,586.7 L900.4,587.8 L902.3,588.9 L904.1,590.0 L906.0,591.1 L907.9,592.2 L909.8,593.3 L911.7,594.3
		L913.6,595.3 L915.5,596.4 L917.4,597.4 L919.2,598.4 L921.1,599.4 L923.0,600.3 L924.9,601.3 L926.8,602.3
		L928.7,603.2 L930.6,604.1 L932.5,605.0 L934.3,605.9 L936.2,606.8 L938.1,607.7 L940.0,608.5 L941.9,609.4
		L943.8,610.2 L945.7,611.0 L947.5,611.8 L949.4,612.5 L951.3,613.3 L953.2,614.0 L955.1,614.8 L957.0,615.5
		L958.9,616.2 L960.8,616.9 L962.6,617.5 L964.5,618.2 L966.4,618.8 L968.3,619.5 L970.2,620.1 L972.1,620.8
		L974.0,621.4 L975.9,622.0 L977.7,622.6 L979.6,623.2 L981.5,623.8 L983.4,624.5 L985.3,625.1 L987.2,625.7
		L989.1,626.2 L991.0,626.8 L992.8,627.4 L994.7,628.0 L996.6,628.6 L998.5,629.1 L1000.4,629.7 L1002.3,630.2
		L1004.2,630.8 L1006.1,631.3 L1007.9,631.8 L1009.8,632.4 L1011.7,632.9 L1013.6,633.4  '/></g>
	</g>
	<g id="gnuplot_plot_2" ><title>Confidence interval</title>
<g fill="none" color="white" stroke="rgb( 31, 120, 180)" stroke-width="1.00" stroke-linecap="butt" stroke-linejoin="miter">
</g>
<g fill="none" color="black" stroke="currentColor" stroke-width="1.00" stroke-linecap="butt" stroke-linejoin="miter">
	<g transform="translate(1089.0,85.0)" stroke="none" fill="black" font-family="Helvetica" font-size="12.00"  text-anchor="start">
		<text><tspan font-family="Helvetica" >Confidence interval</tspan></text>
	</g>
</g>
<g fill="none" color="black" stroke="currentColor" stroke-width="1.00" stroke-linecap="butt" stroke-linejoin="miter">
	<g stroke='none' shape-rendering='crispEdges'>
		<polygon fill = 'rgb( 31, 120, 180)' fill-opacity = '0.250000' points = '1038.5,85.6 1080.7,85.6 1080.7,76.6 1038.5,76.6 '/>
		<polygon fill = 'rgb( 31, 120, 180)' fill-opacity = '0.250000' points = '158.7,537.1 160.6,534.1 162.5,531.0 164.4,527.8 166.3,524.6 168.1,521.3 170.0,517.9 171.9,514.5 173.8,511.1 175.7,507.6 177.6,504.0 179.5,500.5 181.4,496.9 183.2,493.2 185.1,489.6 187.0,485.9
188.9,482.3 190.8,478.6 192.7,475.0 194.6,471.4 196.5,467.8 198.3,464.2 200.2,460.6 202.1,457.1 204.0,453.5 205.9,450.0 207.8,446.5 209.7,443.0 211.6,439.6 213.4,436.1 215.3,432.6 217.2,429.1
219.1,425.6 221.0,422.1 222.9,418.6 224.8,415.0 226.6,411.4 228.5,407.8 230.4,404.1 232.3,400.4 234.2,396.6 236.1,392.9 238.0,389.0 239.9,385.2 241.7,381.3 243.6,377.3 245.5,373.4 247.4,369.3
249.3,365.3 251.2,361.3 253.1,357.2 255.0,353.1 256.8,349.0 258.7,344.9 260.6,340.9 262.5,336.8 264.4,332.7 266.3,328.7 268.2,324.7 270.1,320.8 271.9,316.9 273.8,313.0 275.7,309.2 277.6,305.4
279.5,301.7 281.4,298.1 283.3,294.5 285.2,291.0 287.0,287.5 288.9,284.2 290.8,280.8 292.7,277.5 294.6,274.3 296.5,271.1 298.4,267.9 300.2,264.8 302.1,261.6 304.0,258.5 305.9,255.5 307.8,252.4
309.7,249.4 311.6,246.3 313.5,243.3 315.3,240.3 317.2,237.3 319.1,234.3 321.0,231.3 322.9,228.4 324.8,225.5 326.7,222.5 328.6,219.7 330.4,216.8 332.3,214.0 334.2,211.2 336.1,208.5 338.0,205.8
339.9,203.2 341.8,200.6 343.7,198.0 345.5,195.5 347.4,193.0 349.3,190.6 351.2,188.2 353.1,185.8 355.0,183.5 356.9,181.2 358.8,179.0 360.6,176.8 362.5,174.6 364.4,172.5 366.3,170.4 368.2,168.4
370.1,166.4 372.0,164.5 373.8,162.6 375.7,160.8 377.6,159.1 379.5,157.4 381.4,155.8 383.3,154.3 385.2,152.9 387.1,151.5 388.9,150.2 390.8,149.0 392.7,147.9 394.6,146.9 396.5,145.9 398.4,145.0
400.3,144.2 402.2,143.4 404.0,142.7 405.9,142.0 407.8,141.4 409.7,140.9 411.6,140.3 413.5,139.8 415.4,139.3 417.3,138.9 419.1,138.4 421.0,138.0 422.9,137.5 424.8,137.1 426.7,136.7 428.6,136.3
430.5,136.0 432.4,135.6 434.2,135.3 436.1,135.0 438.0,134.7 439.9,134.5 441.8,134.3 443.7,134.1 445.6,134.0 447.4,134.0 449.3,134.0 451.2,134.1 453.1,134.3 455.0,134.5 456.9,134.8 458.8,135.1
460.7,135.5 462.5,136.0 464.4,136.6 466.3,137.2 468.2,137.9 470.1,138.6 472.0,139.5 473.9,140.3 475.8,141.3 477.6,142.3 479.5,143.4 481.4,144.6 483.3,145.8 485.2,147.1 487.1,148.5 489.0,149.9
490.9,151.4 492.7,153.0 494.6,154.6 496.5,156.3 498.4,158.0 500.3,159.7 502.2,161.5 504.1,163.3 506.0,165.1 507.8,167.0 509.7,168.8 511.6,170.7 513.5,172.5 515.4,174.4 517.3,176.2 519.2,178.0
521.0,179.9 522.9,181.7 524.8,183.5 526.7,185.3 528.6,187.1 530.5,188.9 532.4,190.7 534.3,192.6 536.1,194.4 538.0,196.2 539.9,198.1 541.8,200.0 543.7,201.9 545.6,203.8 547.5,205.7 549.4,207.6
551.2,209.5 553.1,211.5 555.0,213.4 556.9,215.3 558.8,217.3 560.7,219.2 562.6,221.2 564.5,223.1 566.3,225.0 568.2,226.9 570.1,228.8 572.0,230.7 573.9,232.6 575.8,234.5 577.7,236.4 579.5,238.3
581.4,240.2 583.3,242.1 585.2,244.1 587.1,246.0 589.0,248.0 590.9,250.0 592.8,252.0 594.6,254.1 596.5,256.2 598.4,258.3 600.3,260.5 602.2,262.7 604.1,264.9 606.0,267.2 607.9,269.6 609.7,272.0
611.6,274.4 613.5,276.8 615.4,279.3 617.3,281.9 619.2,284.4 621.1,287.0 623.0,289.6 624.8,292.2 626.7,294.8 628.6,297.5 630.5,300.1 632.4,302.7 634.3,305.4 636.2,308.0 638.1,310.7 639.9,313.3
641.8,316.0 643.7,318.6 645.6,321.3 647.5,324.0 649.4,326.6 651.3,329.3 653.1,332.0 655.0,334.7 656.9,337.4 658.8,340.1 660.7,342.8 662.6,345.6 664.5,348.3 666.4,351.0 668.2,353.8 670.1,356.5
672.0,359.2 673.9,362.0 675.8,364.7 677.7,367.4 679.6,370.1 681.5,372.8 683.3,375.4 685.2,378.1 687.1,380.7 689.0,383.3 690.9,385.9 692.8,388.4 694.7,391.0 696.6,393.5 698.4,396.0 700.3,398.6
702.2,401.1 704.1,403.6 706.0,406.1 707.9,408.6 709.8,411.0 711.7,413.5 713.5,416.0 715.4,418.5 717.3,421.0 719.2,423.5 721.1,426.0 723.0,428.4 724.9,430.9 726.7,433.3 728.6,435.8 730.5,438.2
732.4,440.5 734.3,442.9 736.2,445.2 738.1,447.5 740.0,449.7 741.8,451.9 743.7,454.1 745.6,456.2 747.5,458.3 749.4,460.4 751.3,462.5 753.2,464.5 755.1,466.5 756.9,468.4 758.8,470.4 760.7,472.4
762.6,474.3 764.5,476.3 766.4,478.2 768.3,480.2 770.2,482.2 772.0,484.1 773.9,486.1 775.8,488.1 777.7,490.1 779.6,492.1 781.5,494.1 783.4,496.1 785.3,498.1 787.1,500.1 789.0,502.0 790.9,504.0
792.8,505.9 794.7,507.8 796.6,509.6 798.5,511.4 800.3,513.2 802.2,515.0 804.1,516.7 806.0,518.4 807.9,520.0 809.8,521.6 811.7,523.2 813.6,524.7 815.4,526.3 817.3,527.8 819.2,529.2 821.1,530.7
823.0,532.1 824.9,533.5 826.8,535.0 828.7,536.4 830.5,537.8 832.4,539.2 834.3,540.6 836.2,542.0 838.1,543.4 840.0,544.8 841.9,546.3 843.8,547.7 845.6,549.1 847.5,550.6 849.4,552.0 851.3,553.5
853.2,555.0 855.1,556.4 857.0,557.9 858.9,559.3 860.7,560.8 862.6,562.2 864.5,563.7 866.4,565.1 868.3,566.5 870.2,567.9 872.1,569.2 873.9,570.6 875.8,571.9 877.7,573.3 879.6,574.6 881.5,575.9
883.4,577.1 885.3,578.4 887.2,579.6 889.0,580.8 890.9,582.0 892.8,583.2 894.7,584.4 896.6,585.6 898.5,586.7 900.4,587.8 902.3,588.9 904.1,590.0 906.0,591.1 907.9,592.2 909.8,593.3 911.7,594.3
913.6,595.3 915.5,596.4 917.4,597.4 919.2,598.4 921.1,599.4 923.0,600.3 924.9,601.3 924.9,662.4 923.0,662.4 921.1,662.4 919.2,662.4 917.4,662.4 915.5,662.4 913.6,662.4 911.7,662.4 909.8,662.4
907.9,662.4 906.0,662.4 904.1,662.4 902.3,662.4 900.4,662.4 898.5,662.4 896.6,662.4 894.7,662.4 892.8,662.4 890.9,662.4 889.0,662.4 887.2,662.4 885.3,662.4 883.4,662.4 881.5,662.4 879.6,662.4
877.7,662.4 875.8,662.4 873.9,662.4 872.1,662.4 870.2,662.4 868.3,662.4 866.4,662.4 864.5,662.4 862.6,662.4 860.7,662.4 858.9,662.4 857.0,662.4 855.1,662.4 853.2,662.4 851.3,662.4 849.4,662.4
847.5,662.4 845.6,662.4 843.8,662.4 841.9,662.4 840.0,662.4 838.1,662.4 836.2,662.4 834.3,662.4 832.4,662.4 830.5,662.4 828.7,662.4 826.8,662.4 824.9,662.4 823.0,662.4 821.1,662.4 819.2,662.4
817.3,662.4 815.4,662.4 813.6,662.4 811.7,662.4 809.8,662.4 807.9,662.4 806.0,662.4 804.1,662.4 802.2,662.4 800.3,662.4 798.5,662.4 796.6,662.4 794.7,662.4 792.8,662.4 790.9,662.4 789.0,662.4
787.1,662.4 785.3,662.4 783.4,662.4 781.5,662.4 779.6,662.4 777.7,662.4 775.8,662.4 773.9,662.4 772.0,662.4 770.2,662.4 768.3,662.4 766.4,662.4 764.5,662.4 762.6,662.4 760.7,662.4 758.8,662.4
756.9,662.4 755.1,662.4 753.2,662.4 751.3,662.4 749.4,662.4 747.5,662.4 745.6,662.4 743.7,662.4 741.8,662.4 740.0,662.4 738.1,662.4 736.2,662.4 734.3,662.4 732.4,662.4 730.5,662.4 728.6,662.4
726.7,662.4 724.9,662.4 723.0,662.4 721.1,662.4 719.2,662.4 717.3,662.4 715.4,662.4 713.5,662.4 711.7,662.4 709.8,662.4 707.9,662.4 706.0,662.4 704.1,662.4 702.2,662.4 700.3,662.4 698.4,662.4
696.6,662.4 694.7,662.4 692.8,662.4 690.9,662.4 689.0,662.4 687.1,662.4 685.2,662.4 683.3,662.4 681.5,662.4 679.6,662.4 677.7,662.4 675.8,662.4 673.9,662.4 672.0,662.4 670.1,662.4 668.2,662.4
666.4,662.4 664.5,662.4 662.6,662.4 660.7,662.4 658.8,662.4 656.9,662.4 655.0,662.4 653.1,662.4 651.3,662.4 649.4,662.4 647.5,662.4 645.6,662.4 643.7,662.4 641.8,662.4 639.9,662.4 638.1,662.4
636.2,662.4 634.3,662.4 632.4,662.4 630.5,662.4 628.6,662.4 626.7,662.4 624.8,662.4 623.0,662.4 621.1,662.4 619.2,662.4 617.3,662.4 615.4,662.4 613.5,662.4 611.6,662.4 609.7,662.4 607.9,662.4
606.0,662.4 604.1,662.4 602.2,662.4 600.3,662.4 598.4,662.4 596.5,662.4 594.6,662.4 592.8,662.4 590.9,662.4 589.0,662.4 587.1,662.4 585.2,662.4 583.3,662.4 581.4,662.4 579.5,662.4 577.7,662.4
575.8,662.4 573.9,662.4 572.0,662.4 570.1,662.4 568.2,662.4 566.3,662.4 564.5,662.4 562.6,662.4 560.7,662.4 558.8,662.4 556.9,662.4 555.0,662.4 553.1,662.4 551.2,662.4 549.4,662.4 547.5,662.4
545.6,662.4 543.7,662.4 541.8,662.4 539.9,662.4 538.0,662.4 536.1,662.4 534.3,662.4 532.4,662.4 530.5,662.4 528.6,662.4 526.7,662.4 524.8,662.4 522.9,662.4 521.0,662.4 519.2,662.4 517.3,662.4
515.4,662.4 513.5,662.4 511.6,662.4 509.7,662.4 507.8,662.4 506.0,662.4 504.1,662.4 502.2,662.4 500.3,662.4 498.4,662.4 496.5,662.4 494.6,662.4 492.7,662.4 490.9,662.4 489.0,662.4 487.1,662.4
485.2,662.4 483.3,662.4 481.4,662.4 479.5,662.4 477.6,662.4 475.8,662.4 473.9,662.4 472.0,662.4 470.1,662.4 468.2,662.4 466.3,662.4 464.4,662.4 462.5,662.4 460.7,662.4 458.8,662.4 456.9,662.4
455.0,662.4 453.1,662.4 451.2,662.4 449.3,662.4 447.4,662.4 445.6,662.4 443.7,662.4 441.8,662.4 439.9,662.4 438.0,662.4 436.1,662.4 434.2,662.4 432.4,662.4 430.5,662.4 428.6,662.4 426.7,662.4
424.8,662.4 422.9,662.4 421.0,662.4 419.1,662.4 417.3,662.4 415.4,662.4 413.5,662.4 411.6,662.4 409.7,662.4 407.8,662.4 405.9,662.4 404.0,662.4 402.2,662.4 400.3,662.4 398.4,662.4 396.5,662.4
394.6,662.4 392.7,662.4 390.8,662.4 388.9,662.4 387.1,662.4 385.2,662.4 383.3,662.4 381.4,662.4 379.5,662.4 377.6,662.4 375.7,662.4 373.8,662.4 372.0,662.4 370.1,662.4 368.2,662.4 366.3,662.4
364.4,662.4 362.5,662.4 360.6,662.4 358.8,662.4 356.9,662.4 355.0,662.4 353.1,662.4 351.2,662.4 349.3,662.4 347.4,662.4 345.5,662.4 343.7,662.4 341.8,662.4 339.9,662.4 338.0,662.4 336.1,662.4
334.2,662.4 332.3,662.4 330.4,662.4 328.6,662.4 326.7,662.4 324.8,662.4 322.9,662.4 321.0,662.4 319.1,662.4 317.2,662.4 315.3,662.4 313.5,662.4 311.6,662.4 309.7,662.4 307.8,662.4 305.9,662.4
304.0,662.4 302.1,662.4 300.2,662.4 298.4,662.4 296.5,662.4 294.6,662.4 292.7,662.4 290.8,662.4 288.9,662.4 287.0,662.4 285.2,662.4 283.3,662.4 281.4,662.4 279.5,662.4 277.6,662.4 275.7,662.4
273.8,662.4 271.9,662.4 270.1,662.4 268.2,662.4 266.3,662.4 264.4,662.4 262.5,662.4 260.6,662.4 258.7,662.4 256.8,662.4 255.0,662.4 253.1,662.4 251.2,662.4 249.3,662.4 247.4,662.4 245.5,662.4
243.6,662.4 241.7,662.4 239.9,662.4 238.0,662.4 236.1,662.4 234.2,662.4 232.3,662.4 230.4,662.4 228.5,662.4 226.6,662.4 224.8,662.4 222.9,662.4 221.0,662.4 219.1,662.4 217.2,662.4 215.3,662.4
213.4,662.4 211.6,662.4 209.7,662.4 207.8,662.4 205.9,662.4 204.0,662.4 202.1,662.4 200.2,662.4 198.3,662.4 196.5,662.4 194.6,662.4 192.7,662.4 190.8,662.4 188.9,662.4 187.0,662.4 185.1,662.4
183.2,662.4 181.4,662.4 179.5,662.4 177.6,662.4 175.7,662.4 173.8,662.4 171.9,662.4 170.0,662.4 168.1,662.4 166.3,662.4 164.4,662.4 162.5,662.4 160.6,662.4 158.7,662.4 '/>
	</g>
</g>
	</g>
	<g id="gnuplot_plot_3" ><title>Point estimate</title>
<g fill="none" color="white" stroke="rgb( 31, 120, 180)" stroke-width="2.00" stroke-linecap="butt" stroke-linejoin="miter">
</g>
<g fill="none" color="black" stroke="currentColor" stroke-width="2.00" stroke-linecap="butt" stroke-linejoin="miter">
	<g transform="translate(1089.0,103.0)" stroke="none" fill="black" font-family="Helvetica" font-size="12.00"  text-anchor="start">
		<text><tspan font-family="Helvetica" >Point estimate</tspan></text>
	</g>
</g>
<g fill="none" color="black" stroke="currentColor" stroke-width="2.00" stroke-linecap="butt" stroke-linejoin="miter">
	<path stroke='rgb( 31, 120, 180)'  d='M1038.5,99.1 L1080.7,99.1 M494.8,662.4 L494.8,154.8  '/></g>
	</g>
<g fill="none" color="black" stroke="currentColor" stroke-width="2.00" stroke-linecap="butt" stroke-linejoin="miter">
</g>
<g fill="none" color="black" stroke="black" stroke-width="1.00" stroke-linecap="butt" stroke-linejoin="miter">
</g>
<g fill="none" color="black" stroke="currentColor" stroke-width="1.00" stroke-linecap="butt" stroke-linejoin="miter">
	<path stroke='black'  d='M71.9,54.1 L71.9,662.4 L1013.6,662.4 L1013.6,54.1 L71.9,54.1 Z  '/></g>
<g fill="none" color="black" stroke="currentColor" stroke-width="1.00" stroke-linecap="butt" stroke-linejoin="miter">
</g>
</g>
</svg>

