<?xml version="1.0" encoding="utf-8"  standalone="no"?>
<svg 
 viewBox="0 0 450 300"
 xmlns="http://www.w3.org/2000/svg"
 xmlns:xlink="http://www.w3.org/1999/xlink"
>

<title>Gnuplot</title>
<desc>Produced by GNUPLOT 5.2 patchlevel 6 </desc>

<g id="gnuplot_canvas">

<rect x="0" y="0" width="450" height="300" fill="none"/>
<defs>

	<circle id='gpDot' r='0.5' stroke-width='0.5' stroke='currentColor'/>
	<path id='gpPt0' stroke-width='0.222' stroke='currentColor' d='M-1,0 h2 M0,-1 v2'/>
	<path id='gpPt1' stroke-width='0.222' stroke='currentColor' d='M-1,-1 L1,1 M1,-1 L-1,1'/>
	<path id='gpPt2' stroke-width='0.222' stroke='currentColor' d='M-1,0 L1,0 M0,-1 L0,1 M-1,-1 L1,1 M-1,1 L1,-1'/>
	<rect id='gpPt3' stroke-width='0.222' stroke='currentColor' x='-1' y='-1' width='2' height='2'/>
	<rect id='gpPt4' stroke-width='0.222' stroke='currentColor' fill='currentColor' x='-1' y='-1' width='2' height='2'/>
	<circle id='gpPt5' stroke-width='0.222' stroke='currentColor' cx='0' cy='0' r='1'/>
	<use xlink:href='#gpPt5' id='gpPt6' fill='currentColor' stroke='none'/>
	<path id='gpPt7' stroke-width='0.222' stroke='currentColor' d='M0,-1.33 L-1.33,0.67 L1.33,0.67 z'/>
	<use xlink:href='#gpPt7' id='gpPt8' fill='currentColor' stroke='none'/>
	<use xlink:href='#gpPt7' id='gpPt9' stroke='currentColor' transform='rotate(180)'/>
	<use xlink:href='#gpPt9' id='gpPt10' fill='currentColor' stroke='none'/>
	<use xlink:href='#gpPt3' id='gpPt11' stroke='currentColor' transform='rotate(45)'/>
	<use xlink:href='#gpPt11' id='gpPt12' fill='currentColor' stroke='none'/>
	<path id='gpPt13' stroke-width='0.222' stroke='currentColor' d='M0,1.330 L1.265,0.411 L0.782,-1.067 L-0.782,-1.076 L-1.265,0.411 z'/>
	<use xlink:href='#gpPt13' id='gpPt14' fill='currentColor' stroke='none'/>
	<filter id='textbox' filterUnits='objectBoundingBox' x='0' y='0' height='1' width='1'>
	  <feFlood flood-color='white' flood-opacity='1' result='bgnd'/>
	  <feComposite in='SourceGraphic' in2='bgnd' operator='atop'/>
	</filter>
	<filter id='greybox' filterUnits='objectBoundingBox' x='0' y='0' height='1' width='1'>
	  <feFlood flood-color='lightgrey' flood-opacity='1' result='grey'/>
	  <feComposite in='SourceGraphic' in2='grey' operator='atop'/>
	</filter>
</defs>
<g fill="none" color="white" stroke="currentColor" stroke-width="1.00" stroke-linecap="butt" stroke-linejoin="miter">
</g>
<g fill="none" color="black" stroke="currentColor" stroke-width="1.00" stroke-linecap="butt" stroke-linejoin="miter">
	<path stroke='black'  d='M80.2,242.4 L89.2,242.4  '/>	<g transform="translate(71.9,246.3)" stroke="none" fill="black" font-family="Helvetica" font-size="12.00"  text-anchor="end">
		<text><tspan font-family="Helvetica" > 0</tspan></text>
	</g>
</g>
<g fill="none" color="black" stroke="currentColor" stroke-width="1.00" stroke-linecap="butt" stroke-linejoin="miter">
	<path stroke='black'  d='M80.2,202.6 L89.2,202.6  '/>	<g transform="translate(71.9,206.5)" stroke="none" fill="black" font-family="Helvetica" font-size="12.00"  text-anchor="end">
		<text><tspan font-family="Helvetica" > 0.05</tspan></text>
	</g>
</g>
<g fill="none" color="black" stroke="currentColor" stroke-width="1.00" stroke-linecap="butt" stroke-linejoin="miter">
	<path stroke='black'  d='M80.2,162.9 L89.2,162.9  '/>	<g transform="translate(71.9,166.8)" stroke="none" fill="black" font-family="Helvetica" font-size="12.00"  text-anchor="end">
		<text><tspan font-family="Helvetica" > 0.1</tspan></text>
	</g>
</g>
<g fill="none" color="black" stroke="currentColor" stroke-width="1.00" stroke-linecap="butt" stroke-linejoin="miter">
	<path stroke='black'  d='M80.2,123.1 L89.2,123.1  '/>	<g transform="translate(71.9,127.0)" stroke="none" fill="black" font-family="Helvetica" font-size="12.00"  text-anchor="end">
		<text><tspan font-family="Helvetica" > 0.15</tspan></text>
	</g>
</g>
<g fill="none" color="black" stroke="currentColor" stroke-width="1.00" stroke-linecap="butt" stroke-linejoin="miter">
	<path stroke='black'  d='M80.2,83.4 L89.2,83.4  '/>	<g transform="translate(71.9,87.3)" stroke="none" fill="black" font-family="Helvetica" font-size="12.00"  text-anchor="end">
		<text><tspan font-family="Helvetica" > 0.2</tspan></text>
	</g>
</g>
<g fill="none" color="black" stroke="currentColor" stroke-width="1.00" stroke-linecap="butt" stroke-linejoin="miter">
	<path stroke='black'  d='M80.2,43.6 L89.2,43.6  '/>	<g transform="translate(71.9,47.5)" stroke="none" fill="black" font-family="Helvetica" font-size="12.00"  text-anchor="end">
		<text><tspan font-family="Helvetica" > 0.25</tspan></text>
	</g>
</g>
<g fill="none" color="black" stroke="currentColor" stroke-width="1.00" stroke-linecap="butt" stroke-linejoin="miter">
	<path stroke='black'  d='M111.0,242.4 L111.0,233.4  '/>	<g transform="translate(111.0,264.3)" stroke="none" fill="black" font-family="Helvetica" font-size="12.00"  text-anchor="middle">
		<text><tspan font-family="Helvetica" > 120</tspan></text>
	</g>
</g>
<g fill="none" color="black" stroke="currentColor" stroke-width="1.00" stroke-linecap="butt" stroke-linejoin="miter">
	<path stroke='black'  d='M162.9,242.4 L162.9,233.4  '/>	<g transform="translate(162.9,264.3)" stroke="none" fill="black" font-family="Helvetica" font-size="12.00"  text-anchor="middle">
		<text><tspan font-family="Helvetica" > 125</tspan></text>
	</g>
</g>
<g fill="none" color="black" stroke="currentColor" stroke-width="1.00" stroke-linecap="butt" stroke-linejoin="miter">
	<path stroke='black'  d='M214.7,242.4 L214.7,233.4  '/>	<g transform="translate(214.7,264.3)" stroke="none" fill="black" font-family="Helvetica" font-size="12.00"  text-anchor="middle">
		<text><tspan font-family="Helvetica" > 130</tspan></text>
	</g>
</g>
<g fill="none" color="black" stroke="currentColor" stroke-width="1.00" stroke-linecap="butt" stroke-linejoin="miter">
	<path stroke='black'  d='M266.6,242.4 L266.6,233.4  '/>	<g transform="translate(266.6,264.3)" stroke="none" fill="black" font-family="Helvetica" font-size="12.00"  text-anchor="middle">
		<text><tspan font-family="Helvetica" > 135</tspan></text>
	</g>
</g>
<g fill="none" color="black" stroke="currentColor" stroke-width="1.00" stroke-linecap="butt" stroke-linejoin="miter">
	<path stroke='black'  d='M318.4,242.4 L318.4,233.4  '/>	<g transform="translate(318.4,264.3)" stroke="none" fill="black" font-family="Helvetica" font-size="12.00"  text-anchor="middle">
		<text><tspan font-family="Helvetica" > 140</tspan></text>
	</g>
</g>
<g fill="none" color="black" stroke="currentColor" stroke-width="1.00" stroke-linecap="butt" stroke-linejoin="miter">
	<path stroke='black'  d='M370.3,242.4 L370.3,233.4  '/>	<g transform="translate(370.3,264.3)" stroke="none" fill="black" font-family="Helvetica" font-size="12.00"  text-anchor="middle">
		<text><tspan font-family="Helvetica" > 145</tspan></text>
	</g>
</g>
<g fill="none" color="black" stroke="currentColor" stroke-width="1.00" stroke-linecap="butt" stroke-linejoin="miter">
	<path stroke='black'  d='M422.1,242.4 L422.1,233.4  '/>	<g transform="translate(422.1,264.3)" stroke="none" fill="black" font-family="Helvetica" font-size="12.00"  text-anchor="middle">
		<text><tspan font-family="Helvetica" > 150</tspan></text>
	</g>
</g>
<g fill="none" color="black" stroke="currentColor" stroke-width="1.00" stroke-linecap="butt" stroke-linejoin="miter">
</g>
<g fill="none" color="black" stroke="currentColor" stroke-width="1.00" stroke-linecap="butt" stroke-linejoin="miter">
	<path stroke='black'  d='M80.2,18.1 L80.2,242.4 L425.0,242.4 L425.0,18.1 L80.2,18.1 Z  '/></g>
<g fill="none" color="black" stroke="currentColor" stroke-width="1.00" stroke-linecap="butt" stroke-linejoin="miter">
	<g transform="translate(16.3,130.3) rotate(270)" stroke="none" fill="black" font-family="Helvetica" font-size="12.00"  text-anchor="middle">
		<text><tspan font-family="Helvetica" >Density (a.u.)</tspan></text>
	</g>
</g>
<g fill="none" color="black" stroke="currentColor" stroke-width="1.00" stroke-linecap="butt" stroke-linejoin="miter">
	<g transform="translate(252.6,291.3)" stroke="none" fill="black" font-family="Helvetica" font-size="12.00"  text-anchor="middle">
		<text><tspan font-family="Helvetica" >Average time (us)</tspan></text>
	</g>
</g>
<g fill="none" color="black" stroke="currentColor" stroke-width="1.00" stroke-linecap="butt" stroke-linejoin="miter">
</g>
	<g id="gnuplot_plot_1" ><title>PDF</title>
<g fill="none" color="black" stroke="currentColor" stroke-width="1.00" stroke-linecap="butt" stroke-linejoin="miter">
	<g stroke='none' shape-rendering='crispEdges'>
		<polygon fill = 'rgb( 31, 120, 180)' fill-opacity = '0.250000' points = '80.2,240.9 80.9,240.6 81.6,240.4 82.3,240.0 83.0,239.7 83.7,239.3 84.3,238.8 85.0,238.3 85.7,237.7 86.4,237.1 87.1,236.3 87.8,235.5 88.5,234.6 89.2,233.6 89.9,232.5 90.6,231.3
91.3,229.9 91.9,228.5 92.6,226.8 93.3,225.1 94.0,223.1 94.7,221.0 95.4,218.8 96.1,216.3 96.8,213.7 97.5,210.8 98.2,207.8 98.9,204.5 99.5,201.0 100.2,197.4 100.9,193.4 101.6,189.3
102.3,185.0 103.0,180.4 103.7,175.6 104.4,170.6 105.1,165.4 105.8,160.0 106.5,154.4 107.1,148.7 107.8,142.8 108.5,136.8 109.2,130.6 109.9,124.4 110.6,118.1 111.3,111.7 112.0,105.3 112.7,99.0
113.4,92.6 114.1,86.3 114.7,80.2 115.4,74.1 116.1,68.2 116.8,62.5 117.5,57.0 118.2,51.8 118.9,46.9 119.6,42.2 120.3,37.9 121.0,34.0 121.7,30.5 122.3,27.4 123.0,24.7 123.7,22.4
124.4,20.6 125.1,19.3 125.8,18.5 126.5,18.1 127.2,18.2 127.9,18.8 128.6,19.9 129.3,21.5 130.0,23.5 130.6,25.9 131.3,28.8 132.0,32.1 132.7,35.7 133.4,39.8 134.1,44.1 134.8,48.8
135.5,53.7 136.2,58.9 136.9,64.3 137.6,69.9 138.2,75.7 138.9,81.6 139.6,87.5 140.3,93.6 141.0,99.7 141.7,105.8 142.4,111.8 143.1,117.8 143.8,123.8 144.5,129.7 145.2,135.4 145.8,141.1
146.5,146.6 147.2,151.9 147.9,157.1 148.6,162.1 149.3,166.9 150.0,171.5 150.7,175.9 151.4,180.1 152.1,184.2 152.8,188.0 153.4,191.6 154.1,195.0 154.8,198.2 155.5,201.2 156.2,204.0 156.9,206.7
157.6,209.2 158.3,211.5 159.0,213.6 159.7,215.6 160.4,217.4 161.0,219.2 161.7,220.7 162.4,222.2 163.1,223.6 163.8,224.8 164.5,225.9 165.2,227.0 165.9,228.0 166.6,228.8 167.3,229.7 168.0,230.4
168.6,231.1 169.3,231.7 170.0,232.3 170.7,232.8 171.4,233.3 172.1,233.8 172.8,234.2 173.5,234.6 174.2,234.9 174.9,235.3 175.6,235.5 176.2,235.8 176.9,236.1 177.6,236.3 178.3,236.5 179.0,236.7
179.7,236.9 180.4,237.0 181.1,237.2 181.8,237.3 182.5,237.4 183.2,237.5 183.8,237.6 184.5,237.7 185.2,237.8 185.9,237.8 186.6,237.9 187.3,237.9 188.0,237.9 188.7,237.9 189.4,237.9 190.1,237.9
190.8,237.9 191.4,237.9 192.1,237.9 192.8,237.9 193.5,237.8 194.2,237.8 194.9,237.8 195.6,237.7 196.3,237.7 197.0,237.6 197.7,237.6 198.4,237.5 199.0,237.5 199.7,237.4 200.4,237.4 201.1,237.3
201.8,237.3 202.5,237.3 203.2,237.3 203.9,237.2 204.6,237.2 205.3,237.2 206.0,237.2 206.6,237.2 207.3,237.2 208.0,237.3 208.7,237.3 209.4,237.3 210.1,237.4 210.8,237.4 211.5,237.5 212.2,237.6
212.9,237.7 213.6,237.8 214.3,237.8 214.9,238.0 215.6,238.1 216.3,238.2 217.0,238.3 217.7,238.4 218.4,238.5 219.1,238.7 219.8,238.8 220.5,238.9 221.2,239.1 221.9,239.2 222.5,239.3 223.2,239.4
223.9,239.6 224.6,239.7 225.3,239.8 226.0,239.9 226.7,240.0 227.4,240.2 228.1,240.3 228.8,240.4 229.5,240.4 230.1,240.5 230.8,240.6 231.5,240.7 232.2,240.7 232.9,240.8 233.6,240.8 234.3,240.9
235.0,240.9 235.7,240.9 236.4,240.9 237.1,241.0 237.7,241.0 238.4,241.0 239.1,240.9 239.8,240.9 240.5,240.9 241.2,240.9 241.9,240.8 242.6,240.8 243.3,240.7 244.0,240.7 244.7,240.6 245.3,240.5
246.0,240.5 246.7,240.4 247.4,240.3 248.1,240.2 248.8,240.1 249.5,240.1 250.2,240.0 250.9,239.9 251.6,239.8 252.3,239.7 252.9,239.6 253.6,239.5 254.3,239.4 255.0,239.3 255.7,239.2 256.4,239.2
257.1,239.1 257.8,239.0 258.5,238.9 259.2,238.9 259.9,238.8 260.5,238.7 261.2,238.7 261.9,238.6 262.6,238.5 263.3,238.5 264.0,238.5 264.7,238.4 265.4,238.4 266.1,238.4 266.8,238.3 267.5,238.3
268.1,238.3 268.8,238.3 269.5,238.3 270.2,238.3 270.9,238.3 271.6,238.3 272.3,238.4 273.0,238.4 273.7,238.4 274.4,238.5 275.1,238.5 275.7,238.6 276.4,238.6 277.1,238.7 277.8,238.7 278.5,238.8
279.2,238.9 279.9,238.9 280.6,239.0 281.3,239.1 282.0,239.2 282.7,239.3 283.3,239.4 284.0,239.5 284.7,239.6 285.4,239.6 286.1,239.7 286.8,239.8 287.5,239.9 288.2,240.0 288.9,240.1 289.6,240.2
290.3,240.3 290.9,240.4 291.6,240.5 292.3,240.6 293.0,240.7 293.7,240.8 294.4,240.9 295.1,241.0 295.8,241.1 296.5,241.2 297.2,241.2 297.9,241.3 298.6,241.4 299.2,241.5 299.9,241.5 300.6,241.6
301.3,241.6 302.0,241.7 302.7,241.8 303.4,241.8 304.1,241.9 304.8,241.9 305.5,242.0 306.2,242.0 306.8,242.0 307.5,242.1 308.2,242.1 308.9,242.1 309.6,242.2 310.3,242.2 311.0,242.2 311.7,242.2
312.4,242.2 313.1,242.3 313.8,242.3 314.4,242.3 315.1,242.3 315.8,242.3 316.5,242.3 317.2,242.3 317.9,242.3 318.6,242.3 319.3,242.4 320.0,242.4 320.7,242.4 321.4,242.4 322.0,242.4 322.7,242.4
323.4,242.4 324.1,242.4 324.8,242.4 325.5,242.4 326.2,242.4 326.9,242.4 327.6,242.4 328.3,242.4 329.0,242.4 329.6,242.4 330.3,242.4 331.0,242.4 331.7,242.4 332.4,242.4 333.1,242.4 333.8,242.4
334.5,242.4 335.2,242.4 335.9,242.4 336.6,242.4 337.2,242.4 337.9,242.4 338.6,242.4 339.3,242.4 340.0,242.4 340.7,242.4 341.4,242.3 342.1,242.3 342.8,242.3 343.5,242.3 344.2,242.3 344.8,242.3
345.5,242.3 346.2,242.3 346.9,242.3 347.6,242.2 348.3,242.2 349.0,242.2 349.7,242.2 350.4,242.1 351.1,242.1 351.8,242.1 352.4,242.1 353.1,242.0 353.8,242.0 354.5,242.0 355.2,241.9 355.9,241.9
356.6,241.8 357.3,241.8 358.0,241.7 358.7,241.7 359.4,241.6 360.0,241.6 360.7,241.5 361.4,241.4 362.1,241.4 362.8,241.3 363.5,241.2 364.2,241.2 364.9,241.1 365.6,241.0 366.3,241.0 367.0,240.9
367.6,240.8 368.3,240.7 369.0,240.7 369.7,240.6 370.4,240.5 371.1,240.5 371.8,240.4 372.5,240.3 373.2,240.3 373.9,240.2 374.6,240.2 375.2,240.1 375.9,240.1 376.6,240.0 377.3,240.0 378.0,240.0
378.7,240.0 379.4,239.9 380.1,239.9 380.8,239.9 381.5,239.9 382.2,239.9 382.9,239.9 383.5,239.9 384.2,240.0 384.9,240.0 385.6,240.0 386.3,240.0 387.0,240.1 387.7,240.1 388.4,240.2 389.1,240.2
389.8,240.3 390.5,240.3 391.1,240.4 391.8,240.5 392.5,240.5 393.2,240.6 393.9,240.7 394.6,240.7 395.3,240.8 396.0,240.9 396.7,241.0 397.4,241.0 398.1,241.1 398.7,241.2 399.4,241.2 400.1,241.3
400.8,241.4 401.5,241.4 402.2,241.5 402.9,241.6 403.6,241.6 404.3,241.7 405.0,241.7 405.7,241.8 406.3,241.8 407.0,241.9 407.7,241.9 408.4,242.0 409.1,242.0 409.8,242.0 410.5,242.1 411.2,242.1
411.9,242.1 412.6,242.1 413.3,242.2 413.9,242.2 414.6,242.2 415.3,242.2 416.0,242.3 416.7,242.3 417.4,242.3 418.1,242.3 418.8,242.3 419.5,242.3 420.2,242.3 420.9,242.3 421.5,242.3 422.2,242.4
422.9,242.4 423.6,242.4 424.3,242.4 425.0,242.4 425.0,242.4 424.3,242.4 423.6,242.4 422.9,242.4 422.2,242.4 421.5,242.4 420.9,242.4 420.2,242.4 419.5,242.4 418.8,242.4 418.1,242.4 417.4,242.4
416.7,242.4 416.0,242.4 415.3,242.4 414.6,242.4 413.9,242.4 413.3,242.4 412.6,242.4 411.9,242.4 411.2,242.4 410.5,242.4 409.8,242.4 409.1,242.4 408.4,242.4 407.7,242.4 407.0,242.4 406.3,242.4
405.7,242.4 405.0,242.4 404.3,242.4 403.6,242.4 402.9,242.4 402.2,242.4 401.5,242.4 400.8,242.4 400.1,242.4 399.4,242.4 398.7,242.4 398.1,242.4 397.4,242.4 396.7,242.4 396.0,242.4 395.3,242.4
394.6,242.4 393.9,242.4 393.2,242.4 392.5,242.4 391.8,242.4 391.1,242.4 390.5,242.4 389.8,242.4 389.1,242.4 388.4,242.4 387.7,242.4 387.0,242.4 386.3,242.4 385.6,242.4 384.9,242.4 384.2,242.4
383.5,242.4 382.9,242.4 382.2,242.4 381.5,242.4 380.8,242.4 380.1,242.4 379.4,242.4 378.7,242.4 378.0,242.4 377.3,242.4 376.6,242.4 375.9,242.4 375.2,242.4 374.6,242.4 373.9,242.4 373.2,242.4
372.5,242.4 371.8,242.4 371.1,242.4 370.4,242.4 369.7,242.4 369.0,242.4 368.3,242.4 367.6,242.4 367.0,242.4 366.3,242.4 365.6,242.4 364.9,242.4 364.2,242.4 363.5,242.4 362.8,242.4 362.1,242.4
361.4,242.4 360.7,242.4 360.0,242.4 359.4,242.4 358.7,242.4 358.0,242.4 357.3,242.4 356.6,242.4 355.9,242.4 355.2,242.4 354.5,242.4 353.8,242.4 353.1,242.4 352.4,242.4 351.8,242.4 351.1,242.4
350.4,242.4 349.7,242.4 349.0,242.4 348.3,242.4 347.6,242.4 346.9,242.4 346.2,242.4 345.5,242.4 344.8,242.4 344.2,242.4 343.5,242.4 342.8,242.4 342.1,242.4 341.4,242.4 340.7,242.4 340.0,242.4
339.3,242.4 338.6,242.4 337.9,242.4 337.2,242.4 336.6,242.4 335.9,242.4 335.2,242.4 334.5,242.4 333.8,242.4 333.1,242.4 332.4,242.4 331.7,242.4 331.0,242.4 330.3,242.4 329.6,242.4 329.0,242.4
328.3,242.4 327.6,242.4 326.9,242.4 326.2,242.4 325.5,242.4 324.8,242.4 324.1,242.4 323.4,242.4 322.7,242.4 322.0,242.4 321.4,242.4 320.7,242.4 320.0,242.4 319.3,242.4 318.6,242.4 317.9,242.4
317.2,242.4 316.5,242.4 315.8,242.4 315.1,242.4 314.4,242.4 313.8,242.4 313.1,242.4 312.4,242.4 311.7,242.4 311.0,242.4 310.3,242.4 309.6,242.4 308.9,242.4 308.2,242.4 307.5,242.4 306.8,242.4
306.2,242.4 305.5,242.4 304.8,242.4 304.1,242.4 303.4,242.4 302.7,242.4 302.0,242.4 301.3,242.4 300.6,242.4 299.9,242.4 299.2,242.4 298.6,242.4 297.9,242.4 297.2,242.4 296.5,242.4 295.8,242.4
295.1,242.4 294.4,242.4 293.7,242.4 293.0,242.4 292.3,242.4 291.6,242.4 290.9,242.4 290.3,242.4 289.6,242.4 288.9,242.4 288.2,242.4 287.5,242.4 286.8,242.4 286.1,242.4 285.4,242.4 284.7,242.4
284.0,242.4 283.3,242.4 282.7,242.4 282.0,242.4 281.3,242.4 280.6,242.4 279.9,242.4 279.2,242.4 278.5,242.4 277.8,242.4 277.1,242.4 276.4,242.4 275.7,242.4 275.1,242.4 274.4,242.4 273.7,242.4
273.0,242.4 272.3,242.4 271.6,242.4 270.9,242.4 270.2,242.4 269.5,242.4 268.8,242.4 268.1,242.4 267.5,242.4 266.8,242.4 266.1,242.4 265.4,242.4 264.7,242.4 264.0,242.4 263.3,242.4 262.6,242.4
261.9,242.4 261.2,242.4 260.5,242.4 259.9,242.4 259.2,242.4 258.5,242.4 257.8,242.4 257.1,242.4 256.4,242.4 255.7,242.4 255.0,242.4 254.3,242.4 253.6,242.4 252.9,242.4 252.3,242.4 251.6,242.4
250.9,242.4 250.2,242.4 249.5,242.4 248.8,242.4 248.1,242.4 247.4,242.4 246.7,242.4 246.0,242.4 245.3,242.4 244.7,242.4 244.0,242.4 243.3,242.4 242.6,242.4 241.9,242.4 241.2,242.4 240.5,242.4
239.8,242.4 239.1,242.4 238.4,242.4 237.7,242.4 237.1,242.4 236.4,242.4 235.7,242.4 235.0,242.4 234.3,242.4 233.6,242.4 232.9,242.4 232.2,242.4 231.5,242.4 230.8,242.4 230.1,242.4 229.5,242.4
228.8,242.4 228.1,242.4 227.4,242.4 226.7,242.4 226.0,242.4 225.3,242.4 224.6,242.4 223.9,242.4 223.2,242.4 222.5,242.4 221.9,242.4 221.2,242.4 220.5,242.4 219.8,242.4 219.1,242.4 218.4,242.4
217.7,242.4 217.0,242.4 216.3,242.4 215.6,242.4 214.9,242.4 214.3,242.4 213.6,242.4 212.9,242.4 212.2,242.4 211.5,242.4 210.8,242.4 210.1,242.4 209.4,242.4 208.7,242.4 208.0,242.4 207.3,242.4
206.6,242.4 206.0,242.4 205.3,242.4 204.6,242.4 203.9,242.4 203.2,242.4 202.5,242.4 201.8,242.4 201.1,242.4 200.4,242.4 199.7,242.4 199.0,242.4 198.4,242.4 197.7,242.4 197.0,242.4 196.3,242.4
195.6,242.4 194.9,242.4 194.2,242.4 193.5,242.4 192.8,242.4 192.1,242.4 191.4,242.4 190.8,242.4 190.1,242.4 189.4,242.4 188.7,242.4 188.0,242.4 187.3,242.4 186.6,242.4 185.9,242.4 185.2,242.4
184.5,242.4 183.8,242.4 183.2,242.4 182.5,242.4 181.8,242.4 181.1,242.4 180.4,242.4 179.7,242.4 179.0,242.4 178.3,242.4 177.6,242.4 176.9,242.4 176.2,242.4 175.6,242.4 174.9,242.4 174.2,242.4
173.5,242.4 172.8,242.4 172.1,242.4 171.4,242.4 170.7,242.4 170.0,242.4 169.3,242.4 168.6,242.4 168.0,242.4 167.3,242.4 166.6,242.4 165.9,242.4 165.2,242.4 164.5,242.4 163.8,242.4 163.1,242.4
162.4,242.4 161.7,242.4 161.0,242.4 160.4,242.4 159.7,242.4 159.0,242.4 158.3,242.4 157.6,242.4 156.9,242.4 156.2,242.4 155.5,242.4 154.8,242.4 154.1,242.4 153.4,242.4 152.8,242.4 152.1,242.4
151.4,242.4 150.7,242.4 150.0,242.4 149.3,242.4 148.6,242.4 147.9,242.4 147.2,242.4 146.5,242.4 145.8,242.4 145.2,242.4 144.5,242.4 143.8,242.4 143.1,242.4 142.4,242.4 141.7,242.4 141.0,242.4
140.3,242.4 139.6,242.4 138.9,242.4 138.2,242.4 137.6,242.4 136.9,242.4 136.2,242.4 135.5,242.4 134.8,242.4 134.1,242.4 133.4,242.4 132.7,242.4 132.0,242.4 131.3,242.4 130.6,242.4 130.0,242.4
129.3,242.4 128.6,242.4 127.9,242.4 127.2,242.4 126.5,242.4 125.8,242.4 125.1,242.4 124.4,242.4 123.7,242.4 123.0,242.4 122.3,242.4 121.7,242.4 121.0,242.4 120.3,242.4 119.6,242.4 118.9,242.4
118.2,242.4 117.5,242.4 116.8,242.4 116.1,242.4 115.4,242.4 114.7,242.4 114.1,242.4 113.4,242.4 112.7,242.4 112.0,242.4 111.3,242.4 110.6,242.4 109.9,242.4 109.2,242.4 108.5,242.4 107.8,242.4
107.1,242.4 106.5,242.4 105.8,242.4 105.1,242.4 104.4,242.4 103.7,242.4 103.0,242.4 102.3,242.4 101.6,242.4 100.9,242.4 100.2,242.4 99.5,242.4 98.9,242.4 98.2,242.4 97.5,242.4 96.8,242.4
96.1,242.4 95.4,242.4 94.7,242.4 94.0,242.4 93.3,242.4 92.6,242.4 91.9,242.4 91.3,242.4 90.6,242.4 89.9,242.4 89.2,242.4 88.5,242.4 87.8,242.4 87.1,242.4 86.4,242.4 85.7,242.4
85.0,242.4 84.3,242.4 83.7,242.4 83.0,242.4 82.3,242.4 81.6,242.4 80.9,242.4 80.2,242.4 '/>
	</g>
</g>
	</g>
	<g id="gnuplot_plot_2" ><title>Mean</title>
<g fill="none" color="white" stroke="rgb( 31, 120, 180)" stroke-width="2.00" stroke-linecap="butt" stroke-linejoin="miter">
</g>
<g fill="none" color="black" stroke="currentColor" stroke-width="2.00" stroke-linecap="butt" stroke-linejoin="miter">
	<path stroke='rgb( 31, 120, 180)'  d='M135.0,242.4 L135.0,67.8  '/></g>
	</g>
<g fill="none" color="black" stroke="currentColor" stroke-width="2.00" stroke-linecap="butt" stroke-linejoin="miter">
</g>
<g fill="none" color="black" stroke="black" stroke-width="1.00" stroke-linecap="butt" stroke-linejoin="miter">
</g>
<g fill="none" color="black" stroke="currentColor" stroke-width="1.00" stroke-linecap="butt" stroke-linejoin="miter">
	<path stroke='black'  d='M80.2,18.1 L80.2,242.4 L425.0,242.4 L425.0,18.1 L80.2,18.1 Z  '/></g>
<g fill="none" color="black" stroke="currentColor" stroke-width="1.00" stroke-linecap="butt" stroke-linejoin="miter">
</g>
</g>
</svg>

