<?xml version="1.0" encoding="utf-8"  standalone="no"?>
<svg 
 viewBox="0 0 1280 720"
 xmlns="http://www.w3.org/2000/svg"
 xmlns:xlink="http://www.w3.org/1999/xlink"
>

<title>Gnuplot</title>
<desc>Produced by GNUPLOT 5.2 patchlevel 6 </desc>

<g id="gnuplot_canvas">

<rect x="0" y="0" width="1280" height="720" fill="none"/>
<defs>

	<circle id='gpDot' r='0.5' stroke-width='0.5' stroke='currentColor'/>
	<path id='gpPt0' stroke-width='0.222' stroke='currentColor' d='M-1,0 h2 M0,-1 v2'/>
	<path id='gpPt1' stroke-width='0.222' stroke='currentColor' d='M-1,-1 L1,1 M1,-1 L-1,1'/>
	<path id='gpPt2' stroke-width='0.222' stroke='currentColor' d='M-1,0 L1,0 M0,-1 L0,1 M-1,-1 L1,1 M-1,1 L1,-1'/>
	<rect id='gpPt3' stroke-width='0.222' stroke='currentColor' x='-1' y='-1' width='2' height='2'/>
	<rect id='gpPt4' stroke-width='0.222' stroke='currentColor' fill='currentColor' x='-1' y='-1' width='2' height='2'/>
	<circle id='gpPt5' stroke-width='0.222' stroke='currentColor' cx='0' cy='0' r='1'/>
	<use xlink:href='#gpPt5' id='gpPt6' fill='currentColor' stroke='none'/>
	<path id='gpPt7' stroke-width='0.222' stroke='currentColor' d='M0,-1.33 L-1.33,0.67 L1.33,0.67 z'/>
	<use xlink:href='#gpPt7' id='gpPt8' fill='currentColor' stroke='none'/>
	<use xlink:href='#gpPt7' id='gpPt9' stroke='currentColor' transform='rotate(180)'/>
	<use xlink:href='#gpPt9' id='gpPt10' fill='currentColor' stroke='none'/>
	<use xlink:href='#gpPt3' id='gpPt11' stroke='currentColor' transform='rotate(45)'/>
	<use xlink:href='#gpPt11' id='gpPt12' fill='currentColor' stroke='none'/>
	<path id='gpPt13' stroke-width='0.222' stroke='currentColor' d='M0,1.330 L1.265,0.411 L0.782,-1.067 L-0.782,-1.076 L-1.265,0.411 z'/>
	<use xlink:href='#gpPt13' id='gpPt14' fill='currentColor' stroke='none'/>
	<filter id='textbox' filterUnits='objectBoundingBox' x='0' y='0' height='1' width='1'>
	  <feFlood flood-color='white' flood-opacity='1' result='bgnd'/>
	  <feComposite in='SourceGraphic' in2='bgnd' operator='atop'/>
	</filter>
	<filter id='greybox' filterUnits='objectBoundingBox' x='0' y='0' height='1' width='1'>
	  <feFlood flood-color='lightgrey' flood-opacity='1' result='grey'/>
	  <feComposite in='SourceGraphic' in2='grey' operator='atop'/>
	</filter>
</defs>
<g fill="none" color="white" stroke="currentColor" stroke-width="1.00" stroke-linecap="butt" stroke-linejoin="miter">
</g>
<g fill="none" color="black" stroke="currentColor" stroke-width="1.00" stroke-linecap="butt" stroke-linejoin="miter">
	<path stroke='black'  d='M71.9,662.4 L80.9,662.4  '/>	<g transform="translate(63.6,666.3)" stroke="none" fill="black" font-family="Helvetica" font-size="12.00"  text-anchor="end">
		<text><tspan font-family="Helvetica" > 0</tspan></text>
	</g>
</g>
<g fill="none" color="black" stroke="currentColor" stroke-width="1.00" stroke-linecap="butt" stroke-linejoin="miter">
	<path stroke='black'  d='M71.9,575.5 L80.9,575.5  '/>	<g transform="translate(63.6,579.4)" stroke="none" fill="black" font-family="Helvetica" font-size="12.00"  text-anchor="end">
		<text><tspan font-family="Helvetica" > 0.5</tspan></text>
	</g>
</g>
<g fill="none" color="black" stroke="currentColor" stroke-width="1.00" stroke-linecap="butt" stroke-linejoin="miter">
	<path stroke='black'  d='M71.9,488.6 L80.9,488.6  '/>	<g transform="translate(63.6,492.5)" stroke="none" fill="black" font-family="Helvetica" font-size="12.00"  text-anchor="end">
		<text><tspan font-family="Helvetica" > 1</tspan></text>
	</g>
</g>
<g fill="none" color="black" stroke="currentColor" stroke-width="1.00" stroke-linecap="butt" stroke-linejoin="miter">
	<path stroke='black'  d='M71.9,401.7 L80.9,401.7  '/>	<g transform="translate(63.6,405.6)" stroke="none" fill="black" font-family="Helvetica" font-size="12.00"  text-anchor="end">
		<text><tspan font-family="Helvetica" > 1.5</tspan></text>
	</g>
</g>
<g fill="none" color="black" stroke="currentColor" stroke-width="1.00" stroke-linecap="butt" stroke-linejoin="miter">
	<path stroke='black'  d='M71.9,314.8 L80.9,314.8  '/>	<g transform="translate(63.6,318.7)" stroke="none" fill="black" font-family="Helvetica" font-size="12.00"  text-anchor="end">
		<text><tspan font-family="Helvetica" > 2</tspan></text>
	</g>
</g>
<g fill="none" color="black" stroke="currentColor" stroke-width="1.00" stroke-linecap="butt" stroke-linejoin="miter">
	<path stroke='black'  d='M71.9,227.9 L80.9,227.9  '/>	<g transform="translate(63.6,231.8)" stroke="none" fill="black" font-family="Helvetica" font-size="12.00"  text-anchor="end">
		<text><tspan font-family="Helvetica" > 2.5</tspan></text>
	</g>
</g>
<g fill="none" color="black" stroke="currentColor" stroke-width="1.00" stroke-linecap="butt" stroke-linejoin="miter">
	<path stroke='black'  d='M71.9,141.0 L80.9,141.0  '/>	<g transform="translate(63.6,144.9)" stroke="none" fill="black" font-family="Helvetica" font-size="12.00"  text-anchor="end">
		<text><tspan font-family="Helvetica" > 3</tspan></text>
	</g>
</g>
<g fill="none" color="black" stroke="currentColor" stroke-width="1.00" stroke-linecap="butt" stroke-linejoin="miter">
	<path stroke='black'  d='M71.9,54.1 L80.9,54.1  '/>	<g transform="translate(63.6,58.0)" stroke="none" fill="black" font-family="Helvetica" font-size="12.00"  text-anchor="end">
		<text><tspan font-family="Helvetica" > 3.5</tspan></text>
	</g>
</g>
<g fill="none" color="black" stroke="currentColor" stroke-width="1.00" stroke-linecap="butt" stroke-linejoin="miter">
	<path stroke='black'  d='M173.8,662.4 L173.8,653.4  '/>	<g transform="translate(173.8,684.3)" stroke="none" fill="black" font-family="Helvetica" font-size="12.00"  text-anchor="middle">
		<text><tspan font-family="Helvetica" > 121.5</tspan></text>
	</g>
</g>
<g fill="none" color="black" stroke="currentColor" stroke-width="1.00" stroke-linecap="butt" stroke-linejoin="miter">
	<path stroke='black'  d='M279.7,662.4 L279.7,653.4  '/>	<g transform="translate(279.7,684.3)" stroke="none" fill="black" font-family="Helvetica" font-size="12.00"  text-anchor="middle">
		<text><tspan font-family="Helvetica" > 121.6</tspan></text>
	</g>
</g>
<g fill="none" color="black" stroke="currentColor" stroke-width="1.00" stroke-linecap="butt" stroke-linejoin="miter">
	<path stroke='black'  d='M385.5,662.4 L385.5,653.4  '/>	<g transform="translate(385.5,684.3)" stroke="none" fill="black" font-family="Helvetica" font-size="12.00"  text-anchor="middle">
		<text><tspan font-family="Helvetica" > 121.7</tspan></text>
	</g>
</g>
<g fill="none" color="black" stroke="currentColor" stroke-width="1.00" stroke-linecap="butt" stroke-linejoin="miter">
	<path stroke='black'  d='M491.4,662.4 L491.4,653.4  '/>	<g transform="translate(491.4,684.3)" stroke="none" fill="black" font-family="Helvetica" font-size="12.00"  text-anchor="middle">
		<text><tspan font-family="Helvetica" > 121.8</tspan></text>
	</g>
</g>
<g fill="none" color="black" stroke="currentColor" stroke-width="1.00" stroke-linecap="butt" stroke-linejoin="miter">
	<path stroke='black'  d='M597.2,662.4 L597.2,653.4  '/>	<g transform="translate(597.2,684.3)" stroke="none" fill="black" font-family="Helvetica" font-size="12.00"  text-anchor="middle">
		<text><tspan font-family="Helvetica" > 121.9</tspan></text>
	</g>
</g>
<g fill="none" color="black" stroke="currentColor" stroke-width="1.00" stroke-linecap="butt" stroke-linejoin="miter">
	<path stroke='black'  d='M703.1,662.4 L703.1,653.4  '/>	<g transform="translate(703.1,684.3)" stroke="none" fill="black" font-family="Helvetica" font-size="12.00"  text-anchor="middle">
		<text><tspan font-family="Helvetica" > 122</tspan></text>
	</g>
</g>
<g fill="none" color="black" stroke="currentColor" stroke-width="1.00" stroke-linecap="butt" stroke-linejoin="miter">
	<path stroke='black'  d='M808.9,662.4 L808.9,653.4  '/>	<g transform="translate(808.9,684.3)" stroke="none" fill="black" font-family="Helvetica" font-size="12.00"  text-anchor="middle">
		<text><tspan font-family="Helvetica" > 122.1</tspan></text>
	</g>
</g>
<g fill="none" color="black" stroke="currentColor" stroke-width="1.00" stroke-linecap="butt" stroke-linejoin="miter">
	<path stroke='black'  d='M914.8,662.4 L914.8,653.4  '/>	<g transform="translate(914.8,684.3)" stroke="none" fill="black" font-family="Helvetica" font-size="12.00"  text-anchor="middle">
		<text><tspan font-family="Helvetica" > 122.2</tspan></text>
	</g>
</g>
<g fill="none" color="black" stroke="currentColor" stroke-width="1.00" stroke-linecap="butt" stroke-linejoin="miter">
</g>
<g fill="none" color="black" stroke="currentColor" stroke-width="1.00" stroke-linecap="butt" stroke-linejoin="miter">
	<path stroke='black'  d='M71.9,54.1 L71.9,662.4 L1013.6,662.4 L1013.6,54.1 L71.9,54.1 Z  '/></g>
<g fill="none" color="black" stroke="currentColor" stroke-width="1.00" stroke-linecap="butt" stroke-linejoin="miter">
	<g transform="translate(16.3,358.3) rotate(270)" stroke="none" fill="black" font-family="Helvetica" font-size="12.00"  text-anchor="middle">
		<text><tspan font-family="Helvetica" >Density (a.u.)</tspan></text>
	</g>
</g>
<g fill="none" color="black" stroke="currentColor" stroke-width="1.00" stroke-linecap="butt" stroke-linejoin="miter">
	<g transform="translate(542.7,711.3)" stroke="none" fill="black" font-family="Helvetica" font-size="12.00"  text-anchor="middle">
		<text><tspan font-family="Helvetica" >Average time (us)</tspan></text>
	</g>
</g>
<g fill="none" color="black" stroke="currentColor" stroke-width="1.00" stroke-linecap="butt" stroke-linejoin="miter">
	<g transform="translate(542.7,31.0)" stroke="none" fill="black" font-family="Helvetica" font-size="12.00"  text-anchor="middle">
		<text><tspan font-family="Helvetica" >snapshot_restore_with_dense/Dense: Entire region + process_vm_writev w/ page size/215: slope</tspan></text>
	</g>
</g>
	<g id="gnuplot_plot_1" ><title>Bootstrap distribution</title>
<g fill="none" color="white" stroke="black" stroke-width="2.00" stroke-linecap="butt" stroke-linejoin="miter">
</g>
<g fill="none" color="black" stroke="currentColor" stroke-width="2.00" stroke-linecap="butt" stroke-linejoin="miter">
	<g transform="translate(1089.0,67.0)" stroke="none" fill="black" font-family="Helvetica" font-size="12.00"  text-anchor="start">
		<text><tspan font-family="Helvetica" >Bootstrap distribution</tspan></text>
	</g>
</g>
<g fill="none" color="black" stroke="currentColor" stroke-width="2.00" stroke-linecap="butt" stroke-linejoin="miter">
	<path stroke='rgb( 31, 120, 180)'  d='M1038.5,63.1 L1080.7,63.1 M71.9,661.6 L73.8,661.4 L75.7,661.2 L77.6,660.9 L79.4,660.5 L81.3,660.1
		L83.2,659.6 L85.1,658.9 L87.0,658.2 L88.9,657.3 L90.8,656.3 L92.7,655.1 L94.5,653.7 L96.4,652.1
		L98.3,650.2 L100.2,648.0 L102.1,645.5 L104.0,642.7 L105.9,639.5 L107.8,635.9 L109.6,631.9 L111.5,627.3
		L113.4,622.3 L115.3,616.7 L117.2,610.6 L119.1,603.9 L121.0,596.5 L122.9,588.5 L124.7,579.9 L126.6,570.6
		L128.5,560.6 L130.4,550.0 L132.3,538.7 L134.2,526.8 L136.1,514.3 L138.0,501.2 L139.8,487.5 L141.7,473.3
		L143.6,458.6 L145.5,443.5 L147.4,428.0 L149.3,412.2 L151.2,396.2 L153.0,380.0 L154.9,363.7 L156.8,347.4
		L158.7,331.1 L160.6,314.9 L162.5,298.9 L164.4,283.1 L166.3,267.7 L168.1,252.7 L170.0,238.1 L171.9,224.0
		L173.8,210.5 L175.7,197.6 L177.6,185.3 L179.5,173.8 L181.4,163.0 L183.2,153.0 L185.1,143.8 L187.0,135.5
		L188.9,128.0 L190.8,121.4 L192.7,115.7 L194.6,110.8 L196.5,106.9 L198.3,103.9 L200.2,101.8 L202.1,100.6
		L204.0,100.3 L205.9,100.8 L207.8,102.2 L209.7,104.4 L211.6,107.4 L213.4,111.2 L215.3,115.7 L217.2,121.0
		L219.1,126.9 L221.0,133.4 L222.9,140.6 L224.8,148.3 L226.6,156.5 L228.5,165.2 L230.4,174.4 L232.3,184.0
		L234.2,193.9 L236.1,204.1 L238.0,214.6 L239.9,225.4 L241.7,236.4 L243.6,247.6 L245.5,258.9 L247.4,270.3
		L249.3,281.7 L251.2,293.3 L253.1,304.8 L255.0,316.4 L256.8,327.8 L258.7,339.3 L260.6,350.6 L262.5,361.9
		L264.4,373.0 L266.3,384.0 L268.2,394.8 L270.1,405.4 L271.9,415.8 L273.8,426.0 L275.7,436.0 L277.6,445.7
		L279.5,455.2 L281.4,464.4 L283.3,473.3 L285.2,481.9 L287.0,490.2 L288.9,498.2 L290.8,505.9 L292.7,513.3
		L294.6,520.3 L296.5,527.0 L298.4,533.4 L300.2,539.3 L302.1,544.9 L304.0,550.1 L305.9,554.8 L307.8,559.2
		L309.7,563.1 L311.6,566.6 L313.5,569.6 L315.3,572.1 L317.2,574.1 L319.1,575.6 L321.0,576.6 L322.9,577.0
		L324.8,576.9 L326.7,576.1 L328.6,574.8 L330.4,572.8 L332.3,570.2 L334.2,567.0 L336.1,563.1 L338.0,558.5
		L339.9,553.3 L341.8,547.4 L343.7,540.8 L345.5,533.6 L347.4,525.7 L349.3,517.2 L351.2,508.0 L353.1,498.2
		L355.0,487.8 L356.9,476.9 L358.8,465.4 L360.6,453.4 L362.5,441.0 L364.4,428.1 L366.3,414.9 L368.2,401.3
		L370.1,387.5 L372.0,373.5 L373.8,359.3 L375.7,345.0 L377.6,330.7 L379.5,316.4 L381.4,302.1 L383.3,288.1
		L385.2,274.2 L387.1,260.6 L388.9,247.3 L390.8,234.4 L392.7,221.9 L394.6,210.0 L396.5,198.6 L398.4,187.7
		L400.3,177.6 L402.2,168.0 L404.0,159.2 L405.9,151.2 L407.8,143.9 L409.7,137.4 L411.6,131.8 L413.5,126.9
		L415.4,122.9 L417.3,119.8 L419.1,117.5 L421.0,116.0 L422.9,115.3 L424.8,115.5 L426.7,116.5 L428.6,118.3
		L430.5,120.8 L432.4,124.1 L434.2,128.1 L436.1,132.7 L438.0,138.0 L439.9,143.9 L441.8,150.4 L443.7,157.4
		L445.6,165.0 L447.4,172.9 L449.3,181.4 L451.2,190.2 L453.1,199.3 L455.0,208.8 L456.9,218.5 L458.8,228.5
		L460.7,238.7 L462.5,249.0 L464.4,259.5 L466.3,270.2 L468.2,280.8 L470.1,291.6 L472.0,302.3 L473.9,313.1
		L475.8,323.8 L477.6,334.5 L479.5,345.0 L481.4,355.5 L483.3,365.9 L485.2,376.1 L487.1,386.2 L489.0,396.0
		L490.9,405.7 L492.7,415.2 L494.6,424.5 L496.5,433.5 L498.4,442.2 L500.3,450.7 L502.2,459.0 L504.1,466.9
		L506.0,474.6 L507.8,481.9 L509.7,488.9 L511.6,495.6 L513.5,501.9 L515.4,508.0 L517.3,513.6 L519.2,519.0
		L521.0,523.9 L522.9,528.5 L524.8,532.7 L526.7,536.6 L528.6,540.1 L530.5,543.2 L532.4,546.0 L534.3,548.4
		L536.1,550.4 L538.0,552.1 L539.9,553.4 L541.8,554.3 L543.7,554.9 L545.6,555.2 L547.5,555.1 L549.4,554.7
		L551.2,553.9 L553.1,552.9 L555.0,551.5 L556.9,549.9 L558.8,548.0 L560.7,545.8 L562.6,543.4 L564.5,540.7
		L566.3,537.8 L568.2,534.7 L570.1,531.4 L572.0,527.9 L573.9,524.2 L575.8,520.4 L577.7,516.4 L579.5,512.4
		L581.4,508.2 L583.3,504.0 L585.2,499.7 L587.1,495.4 L589.0,491.1 L590.9,486.8 L592.8,482.4 L594.6,478.2
		L596.5,474.0 L598.4,469.8 L600.3,465.8 L602.2,461.8 L604.1,458.0 L606.0,454.3 L607.9,450.8 L609.7,447.4
		L611.6,444.3 L613.5,441.3 L615.4,438.5 L617.3,435.9 L619.2,433.6 L621.1,431.5 L623.0,429.6 L624.8,428.0
		L626.7,426.6 L628.6,425.4 L630.5,424.5 L632.4,423.9 L634.3,423.5 L636.2,423.3 L638.1,423.4 L639.9,423.7
		L641.8,424.3 L643.7,425.1 L645.6,426.1 L647.5,427.3 L649.4,428.8 L651.3,430.5 L653.1,432.4 L655.0,434.5
		L656.9,436.7 L658.8,439.2 L660.7,441.8 L662.6,444.6 L664.5,447.6 L666.4,450.7 L668.2,454.0 L670.1,457.4
		L672.0,460.9 L673.9,464.5 L675.8,468.2 L677.7,472.0 L679.6,475.9 L681.5,479.9 L683.3,483.9 L685.2,488.0
		L687.1,492.1 L689.0,496.2 L690.9,500.3 L692.8,504.4 L694.7,508.5 L696.6,512.6 L698.4,516.7 L700.3,520.7
		L702.2,524.6 L704.1,528.5 L706.0,532.3 L707.9,536.1 L709.8,539.7 L711.7,543.3 L713.5,546.8 L715.4,550.2
		L717.3,553.5 L719.2,556.7 L721.1,559.7 L723.0,562.7 L724.9,565.5 L726.7,568.3 L728.6,570.9 L730.5,573.4
		L732.4,575.8 L734.3,578.1 L736.2,580.2 L738.1,582.3 L740.0,584.2 L741.8,586.0 L743.7,587.7 L745.6,589.3
		L747.5,590.8 L749.4,592.1 L751.3,593.3 L753.2,594.5 L755.1,595.5 L756.9,596.4 L758.8,597.2 L760.7,597.9
		L762.6,598.5 L764.5,599.1 L766.4,599.5 L768.3,599.8 L770.2,600.1 L772.0,600.3 L773.9,600.4 L775.8,600.4
		L777.7,600.4 L779.6,600.3 L781.5,600.2 L783.4,600.1 L785.3,599.9 L787.1,599.6 L789.0,599.4 L790.9,599.1
		L792.8,598.8 L794.7,598.4 L796.6,598.1 L798.5,597.8 L800.3,597.4 L802.2,597.1 L804.1,596.8 L806.0,596.4
		L807.9,596.1 L809.8,595.8 L811.7,595.5 L813.6,595.3 L815.4,595.0 L817.3,594.8 L819.2,594.6 L821.1,594.5
		L823.0,594.3 L824.9,594.2 L826.8,594.1 L828.7,594.1 L830.5,594.1 L832.4,594.1 L834.3,594.1 L836.2,594.2
		L838.1,594.3 L840.0,594.5 L841.9,594.7 L843.8,594.9 L845.6,595.1 L847.5,595.4 L849.4,595.7 L851.3,596.0
		L853.2,596.4 L855.1,596.7 L857.0,597.1 L858.9,597.6 L860.7,598.0 L862.6,598.5 L864.5,599.0 L866.4,599.5
		L868.3,600.1 L870.2,600.6 L872.1,601.2 L873.9,601.8 L875.8,602.5 L877.7,603.1 L879.6,603.8 L881.5,604.5
		L883.4,605.3 L885.3,606.0 L887.2,606.8 L889.0,607.6 L890.9,608.4 L892.8,609.3 L894.7,610.2 L896.6,611.1
		L898.5,612.0 L900.4,612.9 L902.3,613.9 L904.1,614.8 L906.0,615.8 L907.9,616.8 L909.8,617.7 L911.7,618.7
		L913.6,619.7 L915.5,620.7 L917.4,621.6 L919.2,622.6 L921.1,623.5 L923.0,624.4 L924.9,625.3 L926.8,626.2
		L928.7,627.0 L930.6,627.8 L932.5,628.6 L934.3,629.4 L936.2,630.1 L938.1,630.8 L940.0,631.5 L941.9,632.2
		L943.8,632.8 L945.7,633.4 L947.5,634.0 L949.4,634.6 L951.3,635.1 L953.2,635.6 L955.1,636.1 L957.0,636.6
		L958.9,637.1 L960.8,637.5 L962.6,638.0 L964.5,638.4 L966.4,638.8 L968.3,639.2 L970.2,639.6 L972.1,639.9
		L974.0,640.3 L975.9,640.6 L977.7,641.0 L979.6,641.3 L981.5,641.6 L983.4,641.9 L985.3,642.2 L987.2,642.5
		L989.1,642.8 L991.0,643.0 L992.8,643.2 L994.7,643.5 L996.6,643.7 L998.5,643.9 L1000.4,644.0 L1002.3,644.2
		L1004.2,644.3 L1006.1,644.5 L1007.9,644.6 L1009.8,644.7 L1011.7,644.8 L1013.6,644.9  '/></g>
	</g>
	<g id="gnuplot_plot_2" ><title>Confidence interval</title>
<g fill="none" color="white" stroke="rgb( 31, 120, 180)" stroke-width="1.00" stroke-linecap="butt" stroke-linejoin="miter">
</g>
<g fill="none" color="black" stroke="currentColor" stroke-width="1.00" stroke-linecap="butt" stroke-linejoin="miter">
	<g transform="translate(1089.0,85.0)" stroke="none" fill="black" font-family="Helvetica" font-size="12.00"  text-anchor="start">
		<text><tspan font-family="Helvetica" >Confidence interval</tspan></text>
	</g>
</g>
<g fill="none" color="black" stroke="currentColor" stroke-width="1.00" stroke-linecap="butt" stroke-linejoin="miter">
	<g stroke='none' shape-rendering='crispEdges'>
		<polygon fill = 'rgb( 31, 120, 180)' fill-opacity = '0.250000' points = '1038.5,85.6 1080.7,85.6 1080.7,76.6 1038.5,76.6 '/>
		<polygon fill = 'rgb( 31, 120, 180)' fill-opacity = '0.250000' points = '158.7,331.1 160.6,314.9 162.5,298.9 164.4,283.1 166.3,267.7 168.1,252.7 170.0,238.1 171.9,224.0 173.8,210.5 175.7,197.6 177.6,185.3 179.5,173.8 181.4,163.0 183.2,153.0 185.1,143.8 187.0,135.5
188.9,128.0 190.8,121.4 192.7,115.7 194.6,110.8 196.5,106.9 198.3,103.9 200.2,101.8 202.1,100.6 204.0,100.3 205.9,100.8 207.8,102.2 209.7,104.4 211.6,107.4 213.4,111.2 215.3,115.7 217.2,121.0
219.1,126.9 221.0,133.4 222.9,140.6 224.8,148.3 226.6,156.5 228.5,165.2 230.4,174.4 232.3,184.0 234.2,193.9 236.1,204.1 238.0,214.6 239.9,225.4 241.7,236.4 243.6,247.6 245.5,258.9 247.4,270.3
249.3,281.7 251.2,293.3 253.1,304.8 255.0,316.4 256.8,327.8 258.7,339.3 260.6,350.6 262.5,361.9 264.4,373.0 266.3,384.0 268.2,394.8 270.1,405.4 271.9,415.8 273.8,426.0 275.7,436.0 277.6,445.7
279.5,455.2 281.4,464.4 283.3,473.3 285.2,481.9 287.0,490.2 288.9,498.2 290.8,505.9 292.7,513.3 294.6,520.3 296.5,527.0 298.4,533.4 300.2,539.3 302.1,544.9 304.0,550.1 305.9,554.8 307.8,559.2
309.7,563.1 311.6,566.6 313.5,569.6 315.3,572.1 317.2,574.1 319.1,575.6 321.0,576.6 322.9,577.0 324.8,576.9 326.7,576.1 328.6,574.8 330.4,572.8 332.3,570.2 334.2,567.0 336.1,563.1 338.0,558.5
339.9,553.3 341.8,547.4 343.7,540.8 345.5,533.6 347.4,525.7 349.3,517.2 351.2,508.0 353.1,498.2 355.0,487.8 356.9,476.9 358.8,465.4 360.6,453.4 362.5,441.0 364.4,428.1 366.3,414.9 368.2,401.3
370.1,387.5 372.0,373.5 373.8,359.3 375.7,345.0 377.6,330.7 379.5,316.4 381.4,302.1 383.3,288.1 385.2,274.2 387.1,260.6 388.9,247.3 390.8,234.4 392.7,221.9 394.6,210.0 396.5,198.6 398.4,187.7
400.3,177.6 402.2,168.0 404.0,159.2 405.9,151.2 407.8,143.9 409.7,137.4 411.6,131.8 413.5,126.9 415.4,122.9 417.3,119.8 419.1,117.5 421.0,116.0 422.9,115.3 424.8,115.5 426.7,116.5 428.6,118.3
430.5,120.8 432.4,124.1 434.2,128.1 436.1,132.7 438.0,138.0 439.9,143.9 441.8,150.4 443.7,157.4 445.6,165.0 447.4,172.9 449.3,181.4 451.2,190.2 453.1,199.3 455.0,208.8 456.9,218.5 458.8,228.5
460.7,238.7 462.5,249.0 464.4,259.5 466.3,270.2 468.2,280.8 470.1,291.6 472.0,302.3 473.9,313.1 475.8,323.8 477.6,334.5 479.5,345.0 481.4,355.5 483.3,365.9 485.2,376.1 487.1,386.2 489.0,396.0
490.9,405.7 492.7,415.2 494.6,424.5 496.5,433.5 498.4,442.2 500.3,450.7 502.2,459.0 504.1,466.9 506.0,474.6 507.8,481.9 509.7,488.9 511.6,495.6 513.5,501.9 515.4,508.0 517.3,513.6 519.2,519.0
521.0,523.9 522.9,528.5 524.8,532.7 526.7,536.6 528.6,540.1 530.5,543.2 532.4,546.0 534.3,548.4 536.1,550.4 538.0,552.1 539.9,553.4 541.8,554.3 543.7,554.9 545.6,555.2 547.5,555.1 549.4,554.7
551.2,553.9 553.1,552.9 555.0,551.5 556.9,549.9 558.8,548.0 560.7,545.8 562.6,543.4 564.5,540.7 566.3,537.8 568.2,534.7 570.1,531.4 572.0,527.9 573.9,524.2 575.8,520.4 577.7,516.4 579.5,512.4
581.4,508.2 583.3,504.0 585.2,499.7 587.1,495.4 589.0,491.1 590.9,486.8 592.8,482.4 594.6,478.2 596.5,474.0 598.4,469.8 600.3,465.8 602.2,461.8 604.1,458.0 606.0,454.3 607.9,450.8 609.7,447.4
611.6,444.3 613.5,441.3 615.4,438.5 617.3,435.9 619.2,433.6 621.1,431.5 623.0,429.6 624.8,428.0 626.7,426.6 628.6,425.4 630.5,424.5 632.4,423.9 634.3,423.5 636.2,423.3 638.1,423.4 639.9,423.7
641.8,424.3 643.7,425.1 645.6,426.1 647.5,427.3 649.4,428.8 651.3,430.5 653.1,432.4 655.0,434.5 656.9,436.7 658.8,439.2 660.7,441.8 662.6,444.6 664.5,447.6 666.4,450.7 668.2,454.0 670.1,457.4
672.0,460.9 673.9,464.5 675.8,468.2 677.7,472.0 679.6,475.9 681.5,479.9 683.3,483.9 685.2,488.0 687.1,492.1 689.0,496.2 690.9,500.3 692.8,504.4 694.7,508.5 696.6,512.6 698.4,516.7 700.3,520.7
702.2,524.6 704.1,528.5 706.0,532.3 707.9,536.1 709.8,539.7 711.7,543.3 713.5,546.8 715.4,550.2 717.3,553.5 719.2,556.7 721.1,559.7 723.0,562.7 724.9,565.5 726.7,568.3 728.6,570.9 730.5,573.4
732.4,575.8 734.3,578.1 736.2,580.2 738.1,582.3 740.0,584.2 741.8,586.0 743.7,587.7 745.6,589.3 747.5,590.8 749.4,592.1 751.3,593.3 753.2,594.5 755.1,595.5 756.9,596.4 758.8,597.2 760.7,597.9
762.6,598.5 764.5,599.1 766.4,599.5 768.3,599.8 770.2,600.1 772.0,600.3 773.9,600.4 775.8,600.4 777.7,600.4 779.6,600.3 781.5,600.2 783.4,600.1 785.3,599.9 787.1,599.6 789.0,599.4 790.9,599.1
792.8,598.8 794.7,598.4 796.6,598.1 798.5,597.8 800.3,597.4 802.2,597.1 804.1,596.8 806.0,596.4 807.9,596.1 809.8,595.8 811.7,595.5 813.6,595.3 815.4,595.0 817.3,594.8 819.2,594.6 821.1,594.5
823.0,594.3 824.9,594.2 826.8,594.1 828.7,594.1 830.5,594.1 832.4,594.1 834.3,594.1 836.2,594.2 838.1,594.3 840.0,594.5 841.9,594.7 843.8,594.9 845.6,595.1 847.5,595.4 849.4,595.7 851.3,596.0
853.2,596.4 855.1,596.7 857.0,597.1 858.9,597.6 860.7,598.0 862.6,598.5 864.5,599.0 866.4,599.5 868.3,600.1 870.2,600.6 872.1,601.2 873.9,601.8 875.8,602.5 877.7,603.1 879.6,603.8 881.5,604.5
883.4,605.3 885.3,606.0 887.2,606.8 889.0,607.6 890.9,608.4 892.8,609.3 894.7,610.2 896.6,611.1 898.5,612.0 900.4,612.9 902.3,613.9 904.1,614.8 906.0,615.8 907.9,616.8 909.8,617.7 911.7,618.7
913.6,619.7 915.5,620.7 917.4,621.6 919.2,622.6 921.1,623.5 923.0,624.4 924.9,625.3 924.9,662.4 923.0,662.4 921.1,662.4 919.2,662.4 917.4,662.4 915.5,662.4 913.6,662.4 911.7,662.4 909.8,662.4
907.9,662.4 906.0,662.4 904.1,662.4 902.3,662.4 900.4,662.4 898.5,662.4 896.6,662.4 894.7,662.4 892.8,662.4 890.9,662.4 889.0,662.4 887.2,662.4 885.3,662.4 883.4,662.4 881.5,662.4 879.6,662.4
877.7,662.4 875.8,662.4 873.9,662.4 872.1,662.4 870.2,662.4 868.3,662.4 866.4,662.4 864.5,662.4 862.6,662.4 860.7,662.4 858.9,662.4 857.0,662.4 855.1,662.4 853.2,662.4 851.3,662.4 849.4,662.4
847.5,662.4 845.6,662.4 843.8,662.4 841.9,662.4 840.0,662.4 838.1,662.4 836.2,662.4 834.3,662.4 832.4,662.4 830.5,662.4 828.7,662.4 826.8,662.4 824.9,662.4 823.0,662.4 821.1,662.4 819.2,662.4
817.3,662.4 815.4,662.4 813.6,662.4 811.7,662.4 809.8,662.4 807.9,662.4 806.0,662.4 804.1,662.4 802.2,662.4 800.3,662.4 798.5,662.4 796.6,662.4 794.7,662.4 792.8,662.4 790.9,662.4 789.0,662.4
787.1,662.4 785.3,662.4 783.4,662.4 781.5,662.4 779.6,662.4 777.7,662.4 775.8,662.4 773.9,662.4 772.0,662.4 770.2,662.4 768.3,662.4 766.4,662.4 764.5,662.4 762.6,662.4 760.7,662.4 758.8,662.4
756.9,662.4 755.1,662.4 753.2,662.4 751.3,662.4 749.4,662.4 747.5,662.4 745.6,662.4 743.7,662.4 741.8,662.4 740.0,662.4 738.1,662.4 736.2,662.4 734.3,662.4 732.4,662.4 730.5,662.4 728.6,662.4
726.7,662.4 724.9,662.4 723.0,662.4 721.1,662.4 719.2,662.4 717.3,662.4 715.4,662.4 713.5,662.4 711.7,662.4 709.8,662.4 707.9,662.4 706.0,662.4 704.1,662.4 702.2,662.4 700.3,662.4 698.4,662.4
696.6,662.4 694.7,662.4 692.8,662.4 690.9,662.4 689.0,662.4 687.1,662.4 685.2,662.4 683.3,662.4 681.5,662.4 679.6,662.4 677.7,662.4 675.8,662.4 673.9,662.4 672.0,662.4 670.1,662.4 668.2,662.4
666.4,662.4 664.5,662.4 662.6,662.4 660.7,662.4 658.8,662.4 656.9,662.4 655.0,662.4 653.1,662.4 651.3,662.4 649.4,662.4 647.5,662.4 645.6,662.4 643.7,662.4 641.8,662.4 639.9,662.4 638.1,662.4
636.2,662.4 634.3,662.4 632.4,662.4 630.5,662.4 628.6,662.4 626.7,662.4 624.8,662.4 623.0,662.4 621.1,662.4 619.2,662.4 617.3,662.4 615.4,662.4 613.5,662.4 611.6,662.4 609.7,662.4 607.9,662.4
606.0,662.4 604.1,662.4 602.2,662.4 600.3,662.4 598.4,662.4 596.5,662.4 594.6,662.4 592.8,662.4 590.9,662.4 589.0,662.4 587.1,662.4 585.2,662.4 583.3,662.4 581.4,662.4 579.5,662.4 577.7,662.4
575.8,662.4 573.9,662.4 572.0,662.4 570.1,662.4 568.2,662.4 566.3,662.4 564.5,662.4 562.6,662.4 560.7,662.4 558.8,662.4 556.9,662.4 555.0,662.4 553.1,662.4 551.2,662.4 549.4,662.4 547.5,662.4
545.6,662.4 543.7,662.4 541.8,662.4 539.9,662.4 538.0,662.4 536.1,662.4 534.3,662.4 532.4,662.4 530.5,662.4 528.6,662.4 526.7,662.4 524.8,662.4 522.9,662.4 521.0,662.4 519.2,662.4 517.3,662.4
515.4,662.4 513.5,662.4 511.6,662.4 509.7,662.4 507.8,662.4 506.0,662.4 504.1,662.4 502.2,662.4 500.3,662.4 498.4,662.4 496.5,662.4 494.6,662.4 492.7,662.4 490.9,662.4 489.0,662.4 487.1,662.4
485.2,662.4 483.3,662.4 481.4,662.4 479.5,662.4 477.6,662.4 475.8,662.4 473.9,662.4 472.0,662.4 470.1,662.4 468.2,662.4 466.3,662.4 464.4,662.4 462.5,662.4 460.7,662.4 458.8,662.4 456.9,662.4
455.0,662.4 453.1,662.4 451.2,662.4 449.3,662.4 447.4,662.4 445.6,662.4 443.7,662.4 441.8,662.4 439.9,662.4 438.0,662.4 436.1,662.4 434.2,662.4 432.4,662.4 430.5,662.4 428.6,662.4 426.7,662.4
424.8,662.4 422.9,662.4 421.0,662.4 419.1,662.4 417.3,662.4 415.4,662.4 413.5,662.4 411.6,662.4 409.7,662.4 407.8,662.4 405.9,662.4 404.0,662.4 402.2,662.4 400.3,662.4 398.4,662.4 396.5,662.4
394.6,662.4 392.7,662.4 390.8,662.4 388.9,662.4 387.1,662.4 385.2,662.4 383.3,662.4 381.4,662.4 379.5,662.4 377.6,662.4 375.7,662.4 373.8,662.4 372.0,662.4 370.1,662.4 368.2,662.4 366.3,662.4
364.4,662.4 362.5,662.4 360.6,662.4 358.8,662.4 356.9,662.4 355.0,662.4 353.1,662.4 351.2,662.4 349.3,662.4 347.4,662.4 345.5,662.4 343.7,662.4 341.8,662.4 339.9,662.4 338.0,662.4 336.1,662.4
334.2,662.4 332.3,662.4 330.4,662.4 328.6,662.4 326.7,662.4 324.8,662.4 322.9,662.4 321.0,662.4 319.1,662.4 317.2,662.4 315.3,662.4 313.5,662.4 311.6,662.4 309.7,662.4 307.8,662.4 305.9,662.4
304.0,662.4 302.1,662.4 300.2,662.4 298.4,662.4 296.5,662.4 294.6,662.4 292.7,662.4 290.8,662.4 288.9,662.4 287.0,662.4 285.2,662.4 283.3,662.4 281.4,662.4 279.5,662.4 277.6,662.4 275.7,662.4
273.8,662.4 271.9,662.4 270.1,662.4 268.2,662.4 266.3,662.4 264.4,662.4 262.5,662.4 260.6,662.4 258.7,662.4 256.8,662.4 255.0,662.4 253.1,662.4 251.2,662.4 249.3,662.4 247.4,662.4 245.5,662.4
243.6,662.4 241.7,662.4 239.9,662.4 238.0,662.4 236.1,662.4 234.2,662.4 232.3,662.4 230.4,662.4 228.5,662.4 226.6,662.4 224.8,662.4 222.9,662.4 221.0,662.4 219.1,662.4 217.2,662.4 215.3,662.4
213.4,662.4 211.6,662.4 209.7,662.4 207.8,662.4 205.9,662.4 204.0,662.4 202.1,662.4 200.2,662.4 198.3,662.4 196.5,662.4 194.6,662.4 192.7,662.4 190.8,662.4 188.9,662.4 187.0,662.4 185.1,662.4
183.2,662.4 181.4,662.4 179.5,662.4 177.6,662.4 175.7,662.4 173.8,662.4 171.9,662.4 170.0,662.4 168.1,662.4 166.3,662.4 164.4,662.4 162.5,662.4 160.6,662.4 158.7,662.4 '/>
	</g>
</g>
	</g>
	<g id="gnuplot_plot_3" ><title>Point estimate</title>
<g fill="none" color="white" stroke="rgb( 31, 120, 180)" stroke-width="2.00" stroke-linecap="butt" stroke-linejoin="miter">
</g>
<g fill="none" color="black" stroke="currentColor" stroke-width="2.00" stroke-linecap="butt" stroke-linejoin="miter">
	<g transform="translate(1089.0,103.0)" stroke="none" fill="black" font-family="Helvetica" font-size="12.00"  text-anchor="start">
		<text><tspan font-family="Helvetica" >Point estimate</tspan></text>
	</g>
</g>
<g fill="none" color="black" stroke="currentColor" stroke-width="2.00" stroke-linecap="butt" stroke-linejoin="miter">
	<path stroke='rgb( 31, 120, 180)'  d='M1038.5,99.1 L1080.7,99.1 M433.4,662.4 L433.4,126.3  '/></g>
	</g>
<g fill="none" color="black" stroke="currentColor" stroke-width="2.00" stroke-linecap="butt" stroke-linejoin="miter">
</g>
<g fill="none" color="black" stroke="black" stroke-width="1.00" stroke-linecap="butt" stroke-linejoin="miter">
</g>
<g fill="none" color="black" stroke="currentColor" stroke-width="1.00" stroke-linecap="butt" stroke-linejoin="miter">
	<path stroke='black'  d='M71.9,54.1 L71.9,662.4 L1013.6,662.4 L1013.6,54.1 L71.9,54.1 Z  '/></g>
<g fill="none" color="black" stroke="currentColor" stroke-width="1.00" stroke-linecap="butt" stroke-linejoin="miter">
</g>
</g>
</svg>

