<?xml version="1.0" encoding="utf-8"  standalone="no"?>
<svg 
 viewBox="0 0 1280 720"
 xmlns="http://www.w3.org/2000/svg"
 xmlns:xlink="http://www.w3.org/1999/xlink"
>

<title>Gnuplot</title>
<desc>Produced by GNUPLOT 5.2 patchlevel 6 </desc>

<g id="gnuplot_canvas">

<rect x="0" y="0" width="1280" height="720" fill="none"/>
<defs>

	<circle id='gpDot' r='0.5' stroke-width='0.5' stroke='currentColor'/>
	<path id='gpPt0' stroke-width='0.222' stroke='currentColor' d='M-1,0 h2 M0,-1 v2'/>
	<path id='gpPt1' stroke-width='0.222' stroke='currentColor' d='M-1,-1 L1,1 M1,-1 L-1,1'/>
	<path id='gpPt2' stroke-width='0.222' stroke='currentColor' d='M-1,0 L1,0 M0,-1 L0,1 M-1,-1 L1,1 M-1,1 L1,-1'/>
	<rect id='gpPt3' stroke-width='0.222' stroke='currentColor' x='-1' y='-1' width='2' height='2'/>
	<rect id='gpPt4' stroke-width='0.222' stroke='currentColor' fill='currentColor' x='-1' y='-1' width='2' height='2'/>
	<circle id='gpPt5' stroke-width='0.222' stroke='currentColor' cx='0' cy='0' r='1'/>
	<use xlink:href='#gpPt5' id='gpPt6' fill='currentColor' stroke='none'/>
	<path id='gpPt7' stroke-width='0.222' stroke='currentColor' d='M0,-1.33 L-1.33,0.67 L1.33,0.67 z'/>
	<use xlink:href='#gpPt7' id='gpPt8' fill='currentColor' stroke='none'/>
	<use xlink:href='#gpPt7' id='gpPt9' stroke='currentColor' transform='rotate(180)'/>
	<use xlink:href='#gpPt9' id='gpPt10' fill='currentColor' stroke='none'/>
	<use xlink:href='#gpPt3' id='gpPt11' stroke='currentColor' transform='rotate(45)'/>
	<use xlink:href='#gpPt11' id='gpPt12' fill='currentColor' stroke='none'/>
	<path id='gpPt13' stroke-width='0.222' stroke='currentColor' d='M0,1.330 L1.265,0.411 L0.782,-1.067 L-0.782,-1.076 L-1.265,0.411 z'/>
	<use xlink:href='#gpPt13' id='gpPt14' fill='currentColor' stroke='none'/>
	<filter id='textbox' filterUnits='objectBoundingBox' x='0' y='0' height='1' width='1'>
	  <feFlood flood-color='white' flood-opacity='1' result='bgnd'/>
	  <feComposite in='SourceGraphic' in2='bgnd' operator='atop'/>
	</filter>
	<filter id='greybox' filterUnits='objectBoundingBox' x='0' y='0' height='1' width='1'>
	  <feFlood flood-color='lightgrey' flood-opacity='1' result='grey'/>
	  <feComposite in='SourceGraphic' in2='grey' operator='atop'/>
	</filter>
</defs>
<g fill="none" color="white" stroke="currentColor" stroke-width="1.00" stroke-linecap="butt" stroke-linejoin="miter">
</g>
<g fill="none" color="black" stroke="currentColor" stroke-width="1.00" stroke-linecap="butt" stroke-linejoin="miter">
	<path stroke='black'  d='M80.2,662.4 L89.2,662.4  '/>	<g transform="translate(71.9,666.3)" stroke="none" fill="black" font-family="Helvetica" font-size="12.00"  text-anchor="end">
		<text><tspan font-family="Helvetica" > 0</tspan></text>
	</g>
</g>
<g fill="none" color="black" stroke="currentColor" stroke-width="1.00" stroke-linecap="butt" stroke-linejoin="miter">
	<path stroke='black'  d='M80.2,601.6 L89.2,601.6  '/>	<g transform="translate(71.9,605.5)" stroke="none" fill="black" font-family="Helvetica" font-size="12.00"  text-anchor="end">
		<text><tspan font-family="Helvetica" > 200</tspan></text>
	</g>
</g>
<g fill="none" color="black" stroke="currentColor" stroke-width="1.00" stroke-linecap="butt" stroke-linejoin="miter">
	<path stroke='black'  d='M80.2,540.7 L89.2,540.7  '/>	<g transform="translate(71.9,544.6)" stroke="none" fill="black" font-family="Helvetica" font-size="12.00"  text-anchor="end">
		<text><tspan font-family="Helvetica" > 400</tspan></text>
	</g>
</g>
<g fill="none" color="black" stroke="currentColor" stroke-width="1.00" stroke-linecap="butt" stroke-linejoin="miter">
	<path stroke='black'  d='M80.2,479.9 L89.2,479.9  '/>	<g transform="translate(71.9,483.8)" stroke="none" fill="black" font-family="Helvetica" font-size="12.00"  text-anchor="end">
		<text><tspan font-family="Helvetica" > 600</tspan></text>
	</g>
</g>
<g fill="none" color="black" stroke="currentColor" stroke-width="1.00" stroke-linecap="butt" stroke-linejoin="miter">
	<path stroke='black'  d='M80.2,419.1 L89.2,419.1  '/>	<g transform="translate(71.9,423.0)" stroke="none" fill="black" font-family="Helvetica" font-size="12.00"  text-anchor="end">
		<text><tspan font-family="Helvetica" > 800</tspan></text>
	</g>
</g>
<g fill="none" color="black" stroke="currentColor" stroke-width="1.00" stroke-linecap="butt" stroke-linejoin="miter">
	<path stroke='black'  d='M80.2,358.2 L89.2,358.2  '/>	<g transform="translate(71.9,362.1)" stroke="none" fill="black" font-family="Helvetica" font-size="12.00"  text-anchor="end">
		<text><tspan font-family="Helvetica" > 1000</tspan></text>
	</g>
</g>
<g fill="none" color="black" stroke="currentColor" stroke-width="1.00" stroke-linecap="butt" stroke-linejoin="miter">
	<path stroke='black'  d='M80.2,297.4 L89.2,297.4  '/>	<g transform="translate(71.9,301.3)" stroke="none" fill="black" font-family="Helvetica" font-size="12.00"  text-anchor="end">
		<text><tspan font-family="Helvetica" > 1200</tspan></text>
	</g>
</g>
<g fill="none" color="black" stroke="currentColor" stroke-width="1.00" stroke-linecap="butt" stroke-linejoin="miter">
	<path stroke='black'  d='M80.2,236.6 L89.2,236.6  '/>	<g transform="translate(71.9,240.5)" stroke="none" fill="black" font-family="Helvetica" font-size="12.00"  text-anchor="end">
		<text><tspan font-family="Helvetica" > 1400</tspan></text>
	</g>
</g>
<g fill="none" color="black" stroke="currentColor" stroke-width="1.00" stroke-linecap="butt" stroke-linejoin="miter">
	<path stroke='black'  d='M80.2,175.8 L89.2,175.8  '/>	<g transform="translate(71.9,179.7)" stroke="none" fill="black" font-family="Helvetica" font-size="12.00"  text-anchor="end">
		<text><tspan font-family="Helvetica" > 1600</tspan></text>
	</g>
</g>
<g fill="none" color="black" stroke="currentColor" stroke-width="1.00" stroke-linecap="butt" stroke-linejoin="miter">
	<path stroke='black'  d='M80.2,114.9 L89.2,114.9  '/>	<g transform="translate(71.9,118.8)" stroke="none" fill="black" font-family="Helvetica" font-size="12.00"  text-anchor="end">
		<text><tspan font-family="Helvetica" > 1800</tspan></text>
	</g>
</g>
<g fill="none" color="black" stroke="currentColor" stroke-width="1.00" stroke-linecap="butt" stroke-linejoin="miter">
	<path stroke='black'  d='M80.2,54.1 L89.2,54.1  '/>	<g transform="translate(71.9,58.0)" stroke="none" fill="black" font-family="Helvetica" font-size="12.00"  text-anchor="end">
		<text><tspan font-family="Helvetica" > 2000</tspan></text>
	</g>
</g>
<g fill="none" color="black" stroke="currentColor" stroke-width="1.00" stroke-linecap="butt" stroke-linejoin="miter">
	<path stroke='black'  d='M138.9,662.4 L138.9,653.4  '/>	<g transform="translate(138.9,684.3)" stroke="none" fill="black" font-family="Helvetica" font-size="12.00"  text-anchor="middle">
		<text><tspan font-family="Helvetica" > 2.3604</tspan></text>
	</g>
</g>
<g fill="none" color="black" stroke="currentColor" stroke-width="1.00" stroke-linecap="butt" stroke-linejoin="miter">
	<path stroke='black'  d='M242.2,662.4 L242.2,653.4  '/>	<g transform="translate(242.2,684.3)" stroke="none" fill="black" font-family="Helvetica" font-size="12.00"  text-anchor="middle">
		<text><tspan font-family="Helvetica" > 2.3606</tspan></text>
	</g>
</g>
<g fill="none" color="black" stroke="currentColor" stroke-width="1.00" stroke-linecap="butt" stroke-linejoin="miter">
	<path stroke='black'  d='M345.4,662.4 L345.4,653.4  '/>	<g transform="translate(345.4,684.3)" stroke="none" fill="black" font-family="Helvetica" font-size="12.00"  text-anchor="middle">
		<text><tspan font-family="Helvetica" > 2.3608</tspan></text>
	</g>
</g>
<g fill="none" color="black" stroke="currentColor" stroke-width="1.00" stroke-linecap="butt" stroke-linejoin="miter">
	<path stroke='black'  d='M448.7,662.4 L448.7,653.4  '/>	<g transform="translate(448.7,684.3)" stroke="none" fill="black" font-family="Helvetica" font-size="12.00"  text-anchor="middle">
		<text><tspan font-family="Helvetica" > 2.361</tspan></text>
	</g>
</g>
<g fill="none" color="black" stroke="currentColor" stroke-width="1.00" stroke-linecap="butt" stroke-linejoin="miter">
	<path stroke='black'  d='M551.9,662.4 L551.9,653.4  '/>	<g transform="translate(551.9,684.3)" stroke="none" fill="black" font-family="Helvetica" font-size="12.00"  text-anchor="middle">
		<text><tspan font-family="Helvetica" > 2.3612</tspan></text>
	</g>
</g>
<g fill="none" color="black" stroke="currentColor" stroke-width="1.00" stroke-linecap="butt" stroke-linejoin="miter">
	<path stroke='black'  d='M655.2,662.4 L655.2,653.4  '/>	<g transform="translate(655.2,684.3)" stroke="none" fill="black" font-family="Helvetica" font-size="12.00"  text-anchor="middle">
		<text><tspan font-family="Helvetica" > 2.3614</tspan></text>
	</g>
</g>
<g fill="none" color="black" stroke="currentColor" stroke-width="1.00" stroke-linecap="butt" stroke-linejoin="miter">
	<path stroke='black'  d='M758.5,662.4 L758.5,653.4  '/>	<g transform="translate(758.5,684.3)" stroke="none" fill="black" font-family="Helvetica" font-size="12.00"  text-anchor="middle">
		<text><tspan font-family="Helvetica" > 2.3616</tspan></text>
	</g>
</g>
<g fill="none" color="black" stroke="currentColor" stroke-width="1.00" stroke-linecap="butt" stroke-linejoin="miter">
	<path stroke='black'  d='M861.7,662.4 L861.7,653.4  '/>	<g transform="translate(861.7,684.3)" stroke="none" fill="black" font-family="Helvetica" font-size="12.00"  text-anchor="middle">
		<text><tspan font-family="Helvetica" > 2.3618</tspan></text>
	</g>
</g>
<g fill="none" color="black" stroke="currentColor" stroke-width="1.00" stroke-linecap="butt" stroke-linejoin="miter">
	<path stroke='black'  d='M965.0,662.4 L965.0,653.4  '/>	<g transform="translate(965.0,684.3)" stroke="none" fill="black" font-family="Helvetica" font-size="12.00"  text-anchor="middle">
		<text><tspan font-family="Helvetica" > 2.362</tspan></text>
	</g>
</g>
<g fill="none" color="black" stroke="currentColor" stroke-width="1.00" stroke-linecap="butt" stroke-linejoin="miter">
</g>
<g fill="none" color="black" stroke="currentColor" stroke-width="1.00" stroke-linecap="butt" stroke-linejoin="miter">
	<path stroke='black'  d='M80.2,54.1 L80.2,662.4 L1013.6,662.4 L1013.6,54.1 L80.2,54.1 Z  '/></g>
<g fill="none" color="black" stroke="currentColor" stroke-width="1.00" stroke-linecap="butt" stroke-linejoin="miter">
	<g transform="translate(16.3,358.3) rotate(270)" stroke="none" fill="black" font-family="Helvetica" font-size="12.00"  text-anchor="middle">
		<text><tspan font-family="Helvetica" >Density (a.u.)</tspan></text>
	</g>
</g>
<g fill="none" color="black" stroke="currentColor" stroke-width="1.00" stroke-linecap="butt" stroke-linejoin="miter">
	<g transform="translate(546.9,711.3)" stroke="none" fill="black" font-family="Helvetica" font-size="12.00"  text-anchor="middle">
		<text><tspan font-family="Helvetica" >Average time (ms)</tspan></text>
	</g>
</g>
<g fill="none" color="black" stroke="currentColor" stroke-width="1.00" stroke-linecap="butt" stroke-linejoin="miter">
	<g transform="translate(546.9,31.0)" stroke="none" fill="black" font-family="Helvetica" font-size="12.00"  text-anchor="middle">
		<text><tspan font-family="Helvetica" >snapshot_restore_with_dense/Sparse: Entire region + process_vm_writev/463: median</tspan></text>
	</g>
</g>
	<g id="gnuplot_plot_1" ><title>Bootstrap distribution</title>
<g fill="none" color="white" stroke="black" stroke-width="2.00" stroke-linecap="butt" stroke-linejoin="miter">
</g>
<g fill="none" color="black" stroke="currentColor" stroke-width="2.00" stroke-linecap="butt" stroke-linejoin="miter">
	<g transform="translate(1089.0,67.0)" stroke="none" fill="black" font-family="Helvetica" font-size="12.00"  text-anchor="start">
		<text><tspan font-family="Helvetica" >Bootstrap distribution</tspan></text>
	</g>
</g>
<g fill="none" color="black" stroke="currentColor" stroke-width="2.00" stroke-linecap="butt" stroke-linejoin="miter">
	<path stroke='rgb( 31, 120, 180)'  d='M1038.5,63.1 L1080.7,63.1 M80.2,649.1 L82.1,649.0 L83.9,648.9 L85.8,648.8 L87.7,648.6 L89.6,648.4
		L91.4,648.2 L93.3,648.0 L95.2,647.7 L97.0,647.4 L98.9,647.1 L100.8,646.6 L102.6,646.2 L104.5,645.6
		L106.4,645.0 L108.3,644.3 L110.1,643.6 L112.0,642.7 L113.9,641.8 L115.7,640.8 L117.6,639.6 L119.5,638.4
		L121.4,637.1 L123.2,635.6 L125.1,634.0 L127.0,632.4 L128.8,630.6 L130.7,628.7 L132.6,626.8 L134.4,624.7
		L136.3,622.6 L138.2,620.5 L140.1,618.3 L141.9,616.1 L143.8,613.9 L145.7,611.7 L147.5,609.6 L149.4,607.5
		L151.3,605.4 L153.2,603.4 L155.0,601.5 L156.9,599.7 L158.8,597.9 L160.6,596.2 L162.5,594.6 L164.4,593.1
		L166.2,591.6 L168.1,590.1 L170.0,588.7 L171.9,587.3 L173.7,585.9 L175.6,584.4 L177.5,582.8 L179.3,581.2
		L181.2,579.4 L183.1,577.5 L185.0,575.4 L186.8,573.2 L188.7,570.7 L190.6,567.9 L192.4,564.9 L194.3,561.6
		L196.2,558.0 L198.0,554.0 L199.9,549.8 L201.8,545.1 L203.7,540.1 L205.5,534.7 L207.4,529.0 L209.3,522.8
		L211.1,516.2 L213.0,509.2 L214.9,501.8 L216.7,494.0 L218.6,485.8 L220.5,477.1 L222.4,468.0 L224.2,458.4
		L226.1,448.4 L228.0,438.0 L229.8,427.1 L231.7,415.8 L233.6,404.1 L235.5,391.9 L237.3,379.4 L239.2,366.4
		L241.1,353.1 L242.9,339.4 L244.8,325.4 L246.7,311.2 L248.5,296.8 L250.4,282.2 L252.3,267.6 L254.2,253.0
		L256.0,238.5 L257.9,224.2 L259.8,210.2 L261.6,196.6 L263.5,183.6 L265.4,171.2 L267.3,159.7 L269.1,149.0
		L271.0,139.2 L272.9,130.6 L274.7,123.1 L276.6,116.9 L278.5,112.0 L280.3,108.3 L282.2,106.0 L284.1,105.0
		L286.0,105.3 L287.8,106.7 L289.7,109.4 L291.6,113.1 L293.4,117.7 L295.3,123.2 L297.2,129.4 L299.1,136.2
		L300.9,143.4 L302.8,150.8 L304.7,158.5 L306.5,166.1 L308.4,173.7 L310.3,181.1 L312.1,188.2 L314.0,195.0
		L315.9,201.3 L317.8,207.3 L319.6,212.8 L321.5,217.9 L323.4,222.5 L325.2,226.9 L327.1,230.9 L329.0,234.6
		L330.9,238.2 L332.7,241.8 L334.6,245.3 L336.5,248.9 L338.3,252.6 L340.2,256.6 L342.1,260.9 L343.9,265.5
		L345.8,270.4 L347.7,275.8 L349.6,281.5 L351.4,287.6 L353.3,294.0 L355.2,300.8 L357.0,307.8 L358.9,315.0
		L360.8,322.4 L362.7,329.8 L364.5,337.3 L366.4,344.6 L368.3,351.9 L370.1,358.9 L372.0,365.7 L373.9,372.2
		L375.7,378.4 L377.6,384.3 L379.5,389.7 L381.4,394.8 L383.2,399.5 L385.1,403.8 L387.0,407.7 L388.8,411.2
		L390.7,414.4 L392.6,417.3 L394.5,419.8 L396.3,422.0 L398.2,423.9 L400.1,425.6 L401.9,426.9 L403.8,428.1
		L405.7,429.0 L407.5,429.6 L409.4,430.1 L411.3,430.3 L413.2,430.4 L415.0,430.3 L416.9,430.1 L418.8,429.8
		L420.6,429.5 L422.5,429.1 L424.4,428.7 L426.3,428.4 L428.1,428.1 L430.0,428.1 L431.9,428.2 L433.7,428.5
		L435.6,429.2 L437.5,430.1 L439.3,431.4 L441.2,433.1 L443.1,435.2 L445.0,437.7 L446.8,440.7 L448.7,444.2
		L450.6,448.1 L452.4,452.4 L454.3,457.2 L456.2,462.4 L458.0,467.9 L459.9,473.8 L461.8,480.0 L463.7,486.4
		L465.5,492.9 L467.4,499.6 L469.3,506.2 L471.1,512.9 L473.0,519.4 L474.9,525.8 L476.8,531.9 L478.6,537.7
		L480.5,543.2 L482.4,548.2 L484.2,552.7 L486.1,556.7 L488.0,560.2 L489.8,563.0 L491.7,565.3 L493.6,566.9
		L495.5,567.9 L497.3,568.4 L499.2,568.3 L501.1,567.7 L502.9,566.6 L504.8,565.0 L506.7,563.1 L508.6,560.9
		L510.4,558.5 L512.3,555.8 L514.2,553.1 L516.0,550.4 L517.9,547.7 L519.8,545.2 L521.6,542.8 L523.5,540.7
		L525.4,538.8 L527.3,537.3 L529.1,536.1 L531.0,535.3 L532.9,534.9 L534.7,534.9 L536.6,535.3 L538.5,536.0
		L540.4,537.0 L542.2,538.4 L544.1,540.0 L546.0,541.8 L547.8,543.8 L549.7,545.8 L551.6,548.0 L553.4,550.1
		L555.3,552.2 L557.2,554.3 L559.1,556.1 L560.9,557.9 L562.8,559.4 L564.7,560.7 L566.5,561.8 L568.4,562.6
		L570.3,563.1 L572.2,563.4 L574.0,563.4 L575.9,563.1 L577.8,562.7 L579.6,562.0 L581.5,561.1 L583.4,560.1
		L585.2,559.0 L587.1,557.7 L589.0,556.4 L590.9,555.1 L592.7,553.7 L594.6,552.4 L596.5,551.1 L598.3,550.0
		L600.2,548.8 L602.1,547.8 L604.0,546.9 L605.8,546.1 L607.7,545.4 L609.6,544.8 L611.4,544.3 L613.3,543.9
		L615.2,543.4 L617.0,543.1 L618.9,542.7 L620.8,542.3 L622.7,541.9 L624.5,541.4 L626.4,540.9 L628.3,540.2
		L630.1,539.5 L632.0,538.7 L633.9,537.8 L635.8,536.8 L637.6,535.7 L639.5,534.5 L641.4,533.2 L643.2,531.8
		L645.1,530.4 L647.0,528.9 L648.8,527.3 L650.7,525.6 L652.6,523.9 L654.5,522.2 L656.3,520.4 L658.2,518.5
		L660.1,516.6 L661.9,514.6 L663.8,512.6 L665.7,510.5 L667.5,508.3 L669.4,506.0 L671.3,503.7 L673.2,501.4
		L675.0,498.9 L676.9,496.5 L678.8,493.9 L680.6,491.4 L682.5,488.8 L684.4,486.3 L686.3,483.7 L688.1,481.1
		L690.0,478.6 L691.9,476.1 L693.7,473.7 L695.6,471.4 L697.5,469.1 L699.3,466.9 L701.2,464.8 L703.1,462.8
		L705.0,461.0 L706.8,459.2 L708.7,457.6 L710.6,456.2 L712.4,454.9 L714.3,453.7 L716.2,452.7 L718.1,451.8
		L719.9,451.1 L721.8,450.6 L723.7,450.2 L725.5,450.1 L727.4,450.0 L729.3,450.2 L731.1,450.6 L733.0,451.1
		L734.9,451.8 L736.8,452.7 L738.6,453.8 L740.5,455.1 L742.4,456.5 L744.2,458.1 L746.1,459.9 L748.0,461.8
		L749.9,463.9 L751.7,466.1 L753.6,468.5 L755.5,471.0 L757.3,473.7 L759.2,476.5 L761.1,479.4 L762.9,482.4
		L764.8,485.5 L766.7,488.7 L768.6,492.0 L770.4,495.3 L772.3,498.7 L774.2,502.1 L776.0,505.6 L777.9,509.1
		L779.8,512.6 L781.7,516.1 L783.5,519.5 L785.4,522.9 L787.3,526.3 L789.1,529.6 L791.0,532.8 L792.9,535.9
		L794.7,538.9 L796.6,541.8 L798.5,544.6 L800.4,547.3 L802.2,549.8 L804.1,552.2 L806.0,554.5 L807.8,556.6
		L809.7,558.6 L811.6,560.5 L813.5,562.2 L815.3,563.8 L817.2,565.3 L819.1,566.6 L820.9,567.9 L822.8,569.0
		L824.7,569.9 L826.5,570.8 L828.4,571.5 L830.3,572.2 L832.2,572.7 L834.0,573.1 L835.9,573.5 L837.8,573.7
		L839.6,573.8 L841.5,573.9 L843.4,573.8 L845.3,573.7 L847.1,573.6 L849.0,573.4 L850.9,573.2 L852.7,573.0
		L854.6,572.7 L856.5,572.6 L858.3,572.4 L860.2,572.3 L862.1,572.3 L864.0,572.4 L865.8,572.6 L867.7,572.9
		L869.6,573.4 L871.4,573.9 L873.3,574.6 L875.2,575.4 L877.1,576.4 L878.9,577.4 L880.8,578.6 L882.7,579.8
		L884.5,581.2 L886.4,582.5 L888.3,584.0 L890.1,585.5 L892.0,587.0 L893.9,588.5 L895.8,590.0 L897.6,591.4
		L899.5,592.8 L901.4,594.2 L903.2,595.5 L905.1,596.8 L907.0,597.9 L908.8,599.0 L910.7,600.0 L912.6,600.9
		L914.5,601.8 L916.3,602.5 L918.2,603.2 L920.1,603.8 L921.9,604.4 L923.8,604.9 L925.7,605.3 L927.6,605.7
		L929.4,606.0 L931.3,606.3 L933.2,606.6 L935.0,606.8 L936.9,607.1 L938.8,607.3 L940.6,607.6 L942.5,607.9
		L944.4,608.2 L946.3,608.6 L948.1,609.0 L950.0,609.5 L951.9,610.0 L953.7,610.6 L955.6,611.3 L957.5,612.1
		L959.4,613.0 L961.2,613.9 L963.1,614.9 L965.0,616.1 L966.8,617.3 L968.7,618.6 L970.6,620.0 L972.4,621.4
		L974.3,622.9 L976.2,624.5 L978.1,626.1 L979.9,627.7 L981.8,629.4 L983.7,631.0 L985.5,632.7 L987.4,634.3
		L989.3,635.9 L991.2,637.5 L993.0,639.0 L994.9,640.5 L996.8,641.9 L998.6,643.2 L1000.5,644.5 L1002.4,645.6
		L1004.2,646.7 L1006.1,647.8 L1008.0,648.7 L1009.9,649.6 L1011.7,650.5 L1013.6,651.2  '/></g>
	</g>
	<g id="gnuplot_plot_2" ><title>Confidence interval</title>
<g fill="none" color="white" stroke="rgb( 31, 120, 180)" stroke-width="1.00" stroke-linecap="butt" stroke-linejoin="miter">
</g>
<g fill="none" color="black" stroke="currentColor" stroke-width="1.00" stroke-linecap="butt" stroke-linejoin="miter">
	<g transform="translate(1089.0,85.0)" stroke="none" fill="black" font-family="Helvetica" font-size="12.00"  text-anchor="start">
		<text><tspan font-family="Helvetica" >Confidence interval</tspan></text>
	</g>
</g>
<g fill="none" color="black" stroke="currentColor" stroke-width="1.00" stroke-linecap="butt" stroke-linejoin="miter">
	<g stroke='none' shape-rendering='crispEdges'>
		<polygon fill = 'rgb( 31, 120, 180)' fill-opacity = '0.250000' points = '1038.5,85.6 1080.7,85.6 1080.7,76.6 1038.5,76.6 '/>
		<polygon fill = 'rgb( 31, 120, 180)' fill-opacity = '0.250000' points = '166.2,591.6 168.1,590.1 170.0,588.7 171.9,587.3 173.7,585.9 175.6,584.4 177.5,582.8 179.3,581.2 181.2,579.4 183.1,577.5 185.0,575.4 186.8,573.2 188.7,570.7 190.6,567.9 192.4,564.9 194.3,561.6
196.2,558.0 198.0,554.0 199.9,549.8 201.8,545.1 203.7,540.1 205.5,534.7 207.4,529.0 209.3,522.8 211.1,516.2 213.0,509.2 214.9,501.8 216.7,494.0 218.6,485.8 220.5,477.1 222.4,468.0 224.2,458.4
226.1,448.4 228.0,438.0 229.8,427.1 231.7,415.8 233.6,404.1 235.5,391.9 237.3,379.4 239.2,366.4 241.1,353.1 242.9,339.4 244.8,325.4 246.7,311.2 248.5,296.8 250.4,282.2 252.3,267.6 254.2,253.0
256.0,238.5 257.9,224.2 259.8,210.2 261.6,196.6 263.5,183.6 265.4,171.2 267.3,159.7 269.1,149.0 271.0,139.2 272.9,130.6 274.7,123.1 276.6,116.9 278.5,112.0 280.3,108.3 282.2,106.0 284.1,105.0
286.0,105.3 287.8,106.7 289.7,109.4 291.6,113.1 293.4,117.7 295.3,123.2 297.2,129.4 299.1,136.2 300.9,143.4 302.8,150.8 304.7,158.5 306.5,166.1 308.4,173.7 310.3,181.1 312.1,188.2 314.0,195.0
315.9,201.3 317.8,207.3 319.6,212.8 321.5,217.9 323.4,222.5 325.2,226.9 327.1,230.9 329.0,234.6 330.9,238.2 332.7,241.8 334.6,245.3 336.5,248.9 338.3,252.6 340.2,256.6 342.1,260.9 343.9,265.5
345.8,270.4 347.7,275.8 349.6,281.5 351.4,287.6 353.3,294.0 355.2,300.8 357.0,307.8 358.9,315.0 360.8,322.4 362.7,329.8 364.5,337.3 366.4,344.6 368.3,351.9 370.1,358.9 372.0,365.7 373.9,372.2
375.7,378.4 377.6,384.3 379.5,389.7 381.4,394.8 383.2,399.5 385.1,403.8 387.0,407.7 388.8,411.2 390.7,414.4 392.6,417.3 394.5,419.8 396.3,422.0 398.2,423.9 400.1,425.6 401.9,426.9 403.8,428.1
405.7,429.0 407.5,429.6 409.4,430.1 411.3,430.3 413.2,430.4 415.0,430.3 416.9,430.1 418.8,429.8 420.6,429.5 422.5,429.1 424.4,428.7 426.3,428.4 428.1,428.1 430.0,428.1 431.9,428.2 433.7,428.5
435.6,429.2 437.5,430.1 439.3,431.4 441.2,433.1 443.1,435.2 445.0,437.7 446.8,440.7 448.7,444.2 450.6,448.1 452.4,452.4 454.3,457.2 456.2,462.4 458.0,467.9 459.9,473.8 461.8,480.0 463.7,486.4
465.5,492.9 467.4,499.6 469.3,506.2 471.1,512.9 473.0,519.4 474.9,525.8 476.8,531.9 478.6,537.7 480.5,543.2 482.4,548.2 484.2,552.7 486.1,556.7 488.0,560.2 489.8,563.0 491.7,565.3 493.6,566.9
495.5,567.9 497.3,568.4 499.2,568.3 501.1,567.7 502.9,566.6 504.8,565.0 506.7,563.1 508.6,560.9 510.4,558.5 512.3,555.8 514.2,553.1 516.0,550.4 517.9,547.7 519.8,545.2 521.6,542.8 523.5,540.7
525.4,538.8 527.3,537.3 529.1,536.1 531.0,535.3 532.9,534.9 534.7,534.9 536.6,535.3 538.5,536.0 540.4,537.0 542.2,538.4 544.1,540.0 546.0,541.8 547.8,543.8 549.7,545.8 551.6,548.0 553.4,550.1
555.3,552.2 557.2,554.3 559.1,556.1 560.9,557.9 562.8,559.4 564.7,560.7 566.5,561.8 568.4,562.6 570.3,563.1 572.2,563.4 574.0,563.4 575.9,563.1 577.8,562.7 579.6,562.0 581.5,561.1 583.4,560.1
585.2,559.0 587.1,557.7 589.0,556.4 590.9,555.1 592.7,553.7 594.6,552.4 596.5,551.1 598.3,550.0 600.2,548.8 602.1,547.8 604.0,546.9 605.8,546.1 607.7,545.4 609.6,544.8 611.4,544.3 613.3,543.9
615.2,543.4 617.0,543.1 618.9,542.7 620.8,542.3 622.7,541.9 624.5,541.4 626.4,540.9 628.3,540.2 630.1,539.5 632.0,538.7 633.9,537.8 635.8,536.8 637.6,535.7 639.5,534.5 641.4,533.2 643.2,531.8
645.1,530.4 647.0,528.9 648.8,527.3 650.7,525.6 652.6,523.9 654.5,522.2 656.3,520.4 658.2,518.5 660.1,516.6 661.9,514.6 663.8,512.6 665.7,510.5 667.5,508.3 669.4,506.0 671.3,503.7 673.2,501.4
675.0,498.9 676.9,496.5 678.8,493.9 680.6,491.4 682.5,488.8 684.4,486.3 686.3,483.7 688.1,481.1 690.0,478.6 691.9,476.1 693.7,473.7 695.6,471.4 697.5,469.1 699.3,466.9 701.2,464.8 703.1,462.8
705.0,461.0 706.8,459.2 708.7,457.6 710.6,456.2 712.4,454.9 714.3,453.7 716.2,452.7 718.1,451.8 719.9,451.1 721.8,450.6 723.7,450.2 725.5,450.1 727.4,450.0 729.3,450.2 731.1,450.6 733.0,451.1
734.9,451.8 736.8,452.7 738.6,453.8 740.5,455.1 742.4,456.5 744.2,458.1 746.1,459.9 748.0,461.8 749.9,463.9 751.7,466.1 753.6,468.5 755.5,471.0 757.3,473.7 759.2,476.5 761.1,479.4 762.9,482.4
764.8,485.5 766.7,488.7 768.6,492.0 770.4,495.3 772.3,498.7 774.2,502.1 776.0,505.6 777.9,509.1 779.8,512.6 781.7,516.1 783.5,519.5 785.4,522.9 787.3,526.3 789.1,529.6 791.0,532.8 792.9,535.9
794.7,538.9 796.6,541.8 798.5,544.6 800.4,547.3 802.2,549.8 804.1,552.2 806.0,554.5 807.8,556.6 809.7,558.6 811.6,560.5 813.5,562.2 815.3,563.8 817.2,565.3 819.1,566.6 820.9,567.9 822.8,569.0
824.7,569.9 826.5,570.8 828.4,571.5 830.3,572.2 832.2,572.7 834.0,573.1 835.9,573.5 837.8,573.7 839.6,573.8 841.5,573.9 843.4,573.8 845.3,573.7 847.1,573.6 849.0,573.4 850.9,573.2 852.7,573.0
854.6,572.7 856.5,572.6 858.3,572.4 860.2,572.3 862.1,572.3 864.0,572.4 865.8,572.6 867.7,572.9 869.6,573.4 871.4,573.9 873.3,574.6 875.2,575.4 877.1,576.4 878.9,577.4 880.8,578.6 882.7,579.8
884.5,581.2 886.4,582.5 888.3,584.0 890.1,585.5 892.0,587.0 893.9,588.5 895.8,590.0 897.6,591.4 899.5,592.8 901.4,594.2 903.2,595.5 905.1,596.8 907.0,597.9 908.8,599.0 910.7,600.0 912.6,600.9
914.5,601.8 916.3,602.5 918.2,603.2 920.1,603.8 921.9,604.4 923.8,604.9 925.7,605.3 925.7,662.4 923.8,662.4 921.9,662.4 920.1,662.4 918.2,662.4 916.3,662.4 914.5,662.4 912.6,662.4 910.7,662.4
908.8,662.4 907.0,662.4 905.1,662.4 903.2,662.4 901.4,662.4 899.5,662.4 897.6,662.4 895.8,662.4 893.9,662.4 892.0,662.4 890.1,662.4 888.3,662.4 886.4,662.4 884.5,662.4 882.7,662.4 880.8,662.4
878.9,662.4 877.1,662.4 875.2,662.4 873.3,662.4 871.4,662.4 869.6,662.4 867.7,662.4 865.8,662.4 864.0,662.4 862.1,662.4 860.2,662.4 858.3,662.4 856.5,662.4 854.6,662.4 852.7,662.4 850.9,662.4
849.0,662.4 847.1,662.4 845.3,662.4 843.4,662.4 841.5,662.4 839.6,662.4 837.8,662.4 835.9,662.4 834.0,662.4 832.2,662.4 830.3,662.4 828.4,662.4 826.5,662.4 824.7,662.4 822.8,662.4 820.9,662.4
819.1,662.4 817.2,662.4 815.3,662.4 813.5,662.4 811.6,662.4 809.7,662.4 807.8,662.4 806.0,662.4 804.1,662.4 802.2,662.4 800.4,662.4 798.5,662.4 796.6,662.4 794.7,662.4 792.9,662.4 791.0,662.4
789.1,662.4 787.3,662.4 785.4,662.4 783.5,662.4 781.7,662.4 779.8,662.4 777.9,662.4 776.0,662.4 774.2,662.4 772.3,662.4 770.4,662.4 768.6,662.4 766.7,662.4 764.8,662.4 762.9,662.4 761.1,662.4
759.2,662.4 757.3,662.4 755.5,662.4 753.6,662.4 751.7,662.4 749.9,662.4 748.0,662.4 746.1,662.4 744.2,662.4 742.4,662.4 740.5,662.4 738.6,662.4 736.8,662.4 734.9,662.4 733.0,662.4 731.1,662.4
729.3,662.4 727.4,662.4 725.5,662.4 723.7,662.4 721.8,662.4 719.9,662.4 718.1,662.4 716.2,662.4 714.3,662.4 712.4,662.4 710.6,662.4 708.7,662.4 706.8,662.4 705.0,662.4 703.1,662.4 701.2,662.4
699.3,662.4 697.5,662.4 695.6,662.4 693.7,662.4 691.9,662.4 690.0,662.4 688.1,662.4 686.3,662.4 684.4,662.4 682.5,662.4 680.6,662.4 678.8,662.4 676.9,662.4 675.0,662.4 673.2,662.4 671.3,662.4
669.4,662.4 667.5,662.4 665.7,662.4 663.8,662.4 661.9,662.4 660.1,662.4 658.2,662.4 656.3,662.4 654.5,662.4 652.6,662.4 650.7,662.4 648.8,662.4 647.0,662.4 645.1,662.4 643.2,662.4 641.4,662.4
639.5,662.4 637.6,662.4 635.8,662.4 633.9,662.4 632.0,662.4 630.1,662.4 628.3,662.4 626.4,662.4 624.5,662.4 622.7,662.4 620.8,662.4 618.9,662.4 617.0,662.4 615.2,662.4 613.3,662.4 611.4,662.4
609.6,662.4 607.7,662.4 605.8,662.4 604.0,662.4 602.1,662.4 600.2,662.4 598.3,662.4 596.5,662.4 594.6,662.4 592.7,662.4 590.9,662.4 589.0,662.4 587.1,662.4 585.2,662.4 583.4,662.4 581.5,662.4
579.6,662.4 577.8,662.4 575.9,662.4 574.0,662.4 572.2,662.4 570.3,662.4 568.4,662.4 566.5,662.4 564.7,662.4 562.8,662.4 560.9,662.4 559.1,662.4 557.2,662.4 555.3,662.4 553.4,662.4 551.6,662.4
549.7,662.4 547.8,662.4 546.0,662.4 544.1,662.4 542.2,662.4 540.4,662.4 538.5,662.4 536.6,662.4 534.7,662.4 532.9,662.4 531.0,662.4 529.1,662.4 527.3,662.4 525.4,662.4 523.5,662.4 521.6,662.4
519.8,662.4 517.9,662.4 516.0,662.4 514.2,662.4 512.3,662.4 510.4,662.4 508.6,662.4 506.7,662.4 504.8,662.4 502.9,662.4 501.1,662.4 499.2,662.4 497.3,662.4 495.5,662.4 493.6,662.4 491.7,662.4
489.8,662.4 488.0,662.4 486.1,662.4 484.2,662.4 482.4,662.4 480.5,662.4 478.6,662.4 476.8,662.4 474.9,662.4 473.0,662.4 471.1,662.4 469.3,662.4 467.4,662.4 465.5,662.4 463.7,662.4 461.8,662.4
459.9,662.4 458.0,662.4 456.2,662.4 454.3,662.4 452.4,662.4 450.6,662.4 448.7,662.4 446.8,662.4 445.0,662.4 443.1,662.4 441.2,662.4 439.3,662.4 437.5,662.4 435.6,662.4 433.7,662.4 431.9,662.4
430.0,662.4 428.1,662.4 426.3,662.4 424.4,662.4 422.5,662.4 420.6,662.4 418.8,662.4 416.9,662.4 415.0,662.4 413.2,662.4 411.3,662.4 409.4,662.4 407.5,662.4 405.7,662.4 403.8,662.4 401.9,662.4
400.1,662.4 398.2,662.4 396.3,662.4 394.5,662.4 392.6,662.4 390.7,662.4 388.8,662.4 387.0,662.4 385.1,662.4 383.2,662.4 381.4,662.4 379.5,662.4 377.6,662.4 375.7,662.4 373.9,662.4 372.0,662.4
370.1,662.4 368.3,662.4 366.4,662.4 364.5,662.4 362.7,662.4 360.8,662.4 358.9,662.4 357.0,662.4 355.2,662.4 353.3,662.4 351.4,662.4 349.6,662.4 347.7,662.4 345.8,662.4 343.9,662.4 342.1,662.4
340.2,662.4 338.3,662.4 336.5,662.4 334.6,662.4 332.7,662.4 330.9,662.4 329.0,662.4 327.1,662.4 325.2,662.4 323.4,662.4 321.5,662.4 319.6,662.4 317.8,662.4 315.9,662.4 314.0,662.4 312.1,662.4
310.3,662.4 308.4,662.4 306.5,662.4 304.7,662.4 302.8,662.4 300.9,662.4 299.1,662.4 297.2,662.4 295.3,662.4 293.4,662.4 291.6,662.4 289.7,662.4 287.8,662.4 286.0,662.4 284.1,662.4 282.2,662.4
280.3,662.4 278.5,662.4 276.6,662.4 274.7,662.4 272.9,662.4 271.0,662.4 269.1,662.4 267.3,662.4 265.4,662.4 263.5,662.4 261.6,662.4 259.8,662.4 257.9,662.4 256.0,662.4 254.2,662.4 252.3,662.4
250.4,662.4 248.5,662.4 246.7,662.4 244.8,662.4 242.9,662.4 241.1,662.4 239.2,662.4 237.3,662.4 235.5,662.4 233.6,662.4 231.7,662.4 229.8,662.4 228.0,662.4 226.1,662.4 224.2,662.4 222.4,662.4
220.5,662.4 218.6,662.4 216.7,662.4 214.9,662.4 213.0,662.4 211.1,662.4 209.3,662.4 207.4,662.4 205.5,662.4 203.7,662.4 201.8,662.4 199.9,662.4 198.0,662.4 196.2,662.4 194.3,662.4 192.4,662.4
190.6,662.4 188.7,662.4 186.8,662.4 185.0,662.4 183.1,662.4 181.2,662.4 179.3,662.4 177.5,662.4 175.6,662.4 173.7,662.4 171.9,662.4 170.0,662.4 168.1,662.4 166.2,662.4 '/>
	</g>
</g>
	</g>
	<g id="gnuplot_plot_3" ><title>Point estimate</title>
<g fill="none" color="white" stroke="rgb( 31, 120, 180)" stroke-width="2.00" stroke-linecap="butt" stroke-linejoin="miter">
</g>
<g fill="none" color="black" stroke="currentColor" stroke-width="2.00" stroke-linecap="butt" stroke-linejoin="miter">
	<g transform="translate(1089.0,103.0)" stroke="none" fill="black" font-family="Helvetica" font-size="12.00"  text-anchor="start">
		<text><tspan font-family="Helvetica" >Point estimate</tspan></text>
	</g>
</g>
<g fill="none" color="black" stroke="currentColor" stroke-width="2.00" stroke-linecap="butt" stroke-linejoin="miter">
	<path stroke='rgb( 31, 120, 180)'  d='M1038.5,99.1 L1080.7,99.1 M388.1,662.4 L388.1,409.8  '/></g>
	</g>
<g fill="none" color="black" stroke="currentColor" stroke-width="2.00" stroke-linecap="butt" stroke-linejoin="miter">
</g>
<g fill="none" color="black" stroke="black" stroke-width="1.00" stroke-linecap="butt" stroke-linejoin="miter">
</g>
<g fill="none" color="black" stroke="currentColor" stroke-width="1.00" stroke-linecap="butt" stroke-linejoin="miter">
	<path stroke='black'  d='M80.2,54.1 L80.2,662.4 L1013.6,662.4 L1013.6,54.1 L80.2,54.1 Z  '/></g>
<g fill="none" color="black" stroke="currentColor" stroke-width="1.00" stroke-linecap="butt" stroke-linejoin="miter">
</g>
</g>
</svg>

