<?xml version="1.0" encoding="utf-8"  standalone="no"?>
<svg 
 viewBox="0 0 1280 720"
 xmlns="http://www.w3.org/2000/svg"
 xmlns:xlink="http://www.w3.org/1999/xlink"
>

<title>Gnuplot</title>
<desc>Produced by GNUPLOT 5.2 patchlevel 6 </desc>

<g id="gnuplot_canvas">

<rect x="0" y="0" width="1280" height="720" fill="none"/>
<defs>

	<circle id='gpDot' r='0.5' stroke-width='0.5' stroke='currentColor'/>
	<path id='gpPt0' stroke-width='0.222' stroke='currentColor' d='M-1,0 h2 M0,-1 v2'/>
	<path id='gpPt1' stroke-width='0.222' stroke='currentColor' d='M-1,-1 L1,1 M1,-1 L-1,1'/>
	<path id='gpPt2' stroke-width='0.222' stroke='currentColor' d='M-1,0 L1,0 M0,-1 L0,1 M-1,-1 L1,1 M-1,1 L1,-1'/>
	<rect id='gpPt3' stroke-width='0.222' stroke='currentColor' x='-1' y='-1' width='2' height='2'/>
	<rect id='gpPt4' stroke-width='0.222' stroke='currentColor' fill='currentColor' x='-1' y='-1' width='2' height='2'/>
	<circle id='gpPt5' stroke-width='0.222' stroke='currentColor' cx='0' cy='0' r='1'/>
	<use xlink:href='#gpPt5' id='gpPt6' fill='currentColor' stroke='none'/>
	<path id='gpPt7' stroke-width='0.222' stroke='currentColor' d='M0,-1.33 L-1.33,0.67 L1.33,0.67 z'/>
	<use xlink:href='#gpPt7' id='gpPt8' fill='currentColor' stroke='none'/>
	<use xlink:href='#gpPt7' id='gpPt9' stroke='currentColor' transform='rotate(180)'/>
	<use xlink:href='#gpPt9' id='gpPt10' fill='currentColor' stroke='none'/>
	<use xlink:href='#gpPt3' id='gpPt11' stroke='currentColor' transform='rotate(45)'/>
	<use xlink:href='#gpPt11' id='gpPt12' fill='currentColor' stroke='none'/>
	<path id='gpPt13' stroke-width='0.222' stroke='currentColor' d='M0,1.330 L1.265,0.411 L0.782,-1.067 L-0.782,-1.076 L-1.265,0.411 z'/>
	<use xlink:href='#gpPt13' id='gpPt14' fill='currentColor' stroke='none'/>
	<filter id='textbox' filterUnits='objectBoundingBox' x='0' y='0' height='1' width='1'>
	  <feFlood flood-color='white' flood-opacity='1' result='bgnd'/>
	  <feComposite in='SourceGraphic' in2='bgnd' operator='atop'/>
	</filter>
	<filter id='greybox' filterUnits='objectBoundingBox' x='0' y='0' height='1' width='1'>
	  <feFlood flood-color='lightgrey' flood-opacity='1' result='grey'/>
	  <feComposite in='SourceGraphic' in2='grey' operator='atop'/>
	</filter>
</defs>
<g fill="none" color="white" stroke="currentColor" stroke-width="1.00" stroke-linecap="butt" stroke-linejoin="miter">
</g>
<g fill="none" color="black" stroke="currentColor" stroke-width="1.00" stroke-linecap="butt" stroke-linejoin="miter">
	<path stroke='black'  d='M71.9,662.4 L80.9,662.4  '/>	<g transform="translate(63.6,666.3)" stroke="none" fill="black" font-family="Helvetica" font-size="12.00"  text-anchor="end">
		<text><tspan font-family="Helvetica" > 0</tspan></text>
	</g>
</g>
<g fill="none" color="black" stroke="currentColor" stroke-width="1.00" stroke-linecap="butt" stroke-linejoin="miter">
	<path stroke='black'  d='M71.9,601.6 L80.9,601.6  '/>	<g transform="translate(63.6,605.5)" stroke="none" fill="black" font-family="Helvetica" font-size="12.00"  text-anchor="end">
		<text><tspan font-family="Helvetica" > 20</tspan></text>
	</g>
</g>
<g fill="none" color="black" stroke="currentColor" stroke-width="1.00" stroke-linecap="butt" stroke-linejoin="miter">
	<path stroke='black'  d='M71.9,540.7 L80.9,540.7  '/>	<g transform="translate(63.6,544.6)" stroke="none" fill="black" font-family="Helvetica" font-size="12.00"  text-anchor="end">
		<text><tspan font-family="Helvetica" > 40</tspan></text>
	</g>
</g>
<g fill="none" color="black" stroke="currentColor" stroke-width="1.00" stroke-linecap="butt" stroke-linejoin="miter">
	<path stroke='black'  d='M71.9,479.9 L80.9,479.9  '/>	<g transform="translate(63.6,483.8)" stroke="none" fill="black" font-family="Helvetica" font-size="12.00"  text-anchor="end">
		<text><tspan font-family="Helvetica" > 60</tspan></text>
	</g>
</g>
<g fill="none" color="black" stroke="currentColor" stroke-width="1.00" stroke-linecap="butt" stroke-linejoin="miter">
	<path stroke='black'  d='M71.9,419.1 L80.9,419.1  '/>	<g transform="translate(63.6,423.0)" stroke="none" fill="black" font-family="Helvetica" font-size="12.00"  text-anchor="end">
		<text><tspan font-family="Helvetica" > 80</tspan></text>
	</g>
</g>
<g fill="none" color="black" stroke="currentColor" stroke-width="1.00" stroke-linecap="butt" stroke-linejoin="miter">
	<path stroke='black'  d='M71.9,358.2 L80.9,358.2  '/>	<g transform="translate(63.6,362.1)" stroke="none" fill="black" font-family="Helvetica" font-size="12.00"  text-anchor="end">
		<text><tspan font-family="Helvetica" > 100</tspan></text>
	</g>
</g>
<g fill="none" color="black" stroke="currentColor" stroke-width="1.00" stroke-linecap="butt" stroke-linejoin="miter">
	<path stroke='black'  d='M71.9,297.4 L80.9,297.4  '/>	<g transform="translate(63.6,301.3)" stroke="none" fill="black" font-family="Helvetica" font-size="12.00"  text-anchor="end">
		<text><tspan font-family="Helvetica" > 120</tspan></text>
	</g>
</g>
<g fill="none" color="black" stroke="currentColor" stroke-width="1.00" stroke-linecap="butt" stroke-linejoin="miter">
	<path stroke='black'  d='M71.9,236.6 L80.9,236.6  '/>	<g transform="translate(63.6,240.5)" stroke="none" fill="black" font-family="Helvetica" font-size="12.00"  text-anchor="end">
		<text><tspan font-family="Helvetica" > 140</tspan></text>
	</g>
</g>
<g fill="none" color="black" stroke="currentColor" stroke-width="1.00" stroke-linecap="butt" stroke-linejoin="miter">
	<path stroke='black'  d='M71.9,175.8 L80.9,175.8  '/>	<g transform="translate(63.6,179.7)" stroke="none" fill="black" font-family="Helvetica" font-size="12.00"  text-anchor="end">
		<text><tspan font-family="Helvetica" > 160</tspan></text>
	</g>
</g>
<g fill="none" color="black" stroke="currentColor" stroke-width="1.00" stroke-linecap="butt" stroke-linejoin="miter">
	<path stroke='black'  d='M71.9,114.9 L80.9,114.9  '/>	<g transform="translate(63.6,118.8)" stroke="none" fill="black" font-family="Helvetica" font-size="12.00"  text-anchor="end">
		<text><tspan font-family="Helvetica" > 180</tspan></text>
	</g>
</g>
<g fill="none" color="black" stroke="currentColor" stroke-width="1.00" stroke-linecap="butt" stroke-linejoin="miter">
	<path stroke='black'  d='M71.9,54.1 L80.9,54.1  '/>	<g transform="translate(63.6,58.0)" stroke="none" fill="black" font-family="Helvetica" font-size="12.00"  text-anchor="end">
		<text><tspan font-family="Helvetica" > 200</tspan></text>
	</g>
</g>
<g fill="none" color="black" stroke="currentColor" stroke-width="1.00" stroke-linecap="butt" stroke-linejoin="miter">
	<path stroke='black'  d='M191.3,662.4 L191.3,653.4  '/>	<g transform="translate(191.3,684.3)" stroke="none" fill="black" font-family="Helvetica" font-size="12.00"  text-anchor="middle">
		<text><tspan font-family="Helvetica" > 2.366</tspan></text>
	</g>
</g>
<g fill="none" color="black" stroke="currentColor" stroke-width="1.00" stroke-linecap="butt" stroke-linejoin="miter">
	<path stroke='black'  d='M372.6,662.4 L372.6,653.4  '/>	<g transform="translate(372.6,684.3)" stroke="none" fill="black" font-family="Helvetica" font-size="12.00"  text-anchor="middle">
		<text><tspan font-family="Helvetica" > 2.368</tspan></text>
	</g>
</g>
<g fill="none" color="black" stroke="currentColor" stroke-width="1.00" stroke-linecap="butt" stroke-linejoin="miter">
	<path stroke='black'  d='M554.0,662.4 L554.0,653.4  '/>	<g transform="translate(554.0,684.3)" stroke="none" fill="black" font-family="Helvetica" font-size="12.00"  text-anchor="middle">
		<text><tspan font-family="Helvetica" > 2.37</tspan></text>
	</g>
</g>
<g fill="none" color="black" stroke="currentColor" stroke-width="1.00" stroke-linecap="butt" stroke-linejoin="miter">
	<path stroke='black'  d='M735.3,662.4 L735.3,653.4  '/>	<g transform="translate(735.3,684.3)" stroke="none" fill="black" font-family="Helvetica" font-size="12.00"  text-anchor="middle">
		<text><tspan font-family="Helvetica" > 2.372</tspan></text>
	</g>
</g>
<g fill="none" color="black" stroke="currentColor" stroke-width="1.00" stroke-linecap="butt" stroke-linejoin="miter">
	<path stroke='black'  d='M916.6,662.4 L916.6,653.4  '/>	<g transform="translate(916.6,684.3)" stroke="none" fill="black" font-family="Helvetica" font-size="12.00"  text-anchor="middle">
		<text><tspan font-family="Helvetica" > 2.374</tspan></text>
	</g>
</g>
<g fill="none" color="black" stroke="currentColor" stroke-width="1.00" stroke-linecap="butt" stroke-linejoin="miter">
</g>
<g fill="none" color="black" stroke="currentColor" stroke-width="1.00" stroke-linecap="butt" stroke-linejoin="miter">
	<path stroke='black'  d='M71.9,54.1 L71.9,662.4 L1013.6,662.4 L1013.6,54.1 L71.9,54.1 Z  '/></g>
<g fill="none" color="black" stroke="currentColor" stroke-width="1.00" stroke-linecap="butt" stroke-linejoin="miter">
	<g transform="translate(16.3,358.3) rotate(270)" stroke="none" fill="black" font-family="Helvetica" font-size="12.00"  text-anchor="middle">
		<text><tspan font-family="Helvetica" >Density (a.u.)</tspan></text>
	</g>
</g>
<g fill="none" color="black" stroke="currentColor" stroke-width="1.00" stroke-linecap="butt" stroke-linejoin="miter">
	<g transform="translate(542.7,711.3)" stroke="none" fill="black" font-family="Helvetica" font-size="12.00"  text-anchor="middle">
		<text><tspan font-family="Helvetica" >Average time (ms)</tspan></text>
	</g>
</g>
<g fill="none" color="black" stroke="currentColor" stroke-width="1.00" stroke-linecap="butt" stroke-linejoin="miter">
	<g transform="translate(542.7,31.0)" stroke="none" fill="black" font-family="Helvetica" font-size="12.00"  text-anchor="middle">
		<text><tspan font-family="Helvetica" >snapshot_restore_with_dense/Sparse: Entire region + process_vm_writev/463: slope</tspan></text>
	</g>
</g>
	<g id="gnuplot_plot_1" ><title>Bootstrap distribution</title>
<g fill="none" color="white" stroke="black" stroke-width="2.00" stroke-linecap="butt" stroke-linejoin="miter">
</g>
<g fill="none" color="black" stroke="currentColor" stroke-width="2.00" stroke-linecap="butt" stroke-linejoin="miter">
	<g transform="translate(1089.0,67.0)" stroke="none" fill="black" font-family="Helvetica" font-size="12.00"  text-anchor="start">
		<text><tspan font-family="Helvetica" >Bootstrap distribution</tspan></text>
	</g>
</g>
<g fill="none" color="black" stroke="currentColor" stroke-width="2.00" stroke-linecap="butt" stroke-linejoin="miter">
	<path stroke='rgb( 31, 120, 180)'  d='M1038.5,63.1 L1080.7,63.1 M71.9,628.9 L73.8,628.0 L75.7,627.0 L77.6,626.1 L79.4,625.1 L81.3,624.1
		L83.2,623.1 L85.1,622.1 L87.0,621.0 L88.9,619.9 L90.8,618.8 L92.7,617.7 L94.5,616.5 L96.4,615.4
		L98.3,614.2 L100.2,613.0 L102.1,611.7 L104.0,610.5 L105.9,609.2 L107.8,607.9 L109.6,606.6 L111.5,605.2
		L113.4,603.9 L115.3,602.5 L117.2,601.1 L119.1,599.6 L121.0,598.2 L122.9,596.7 L124.7,595.2 L126.6,593.6
		L128.5,592.1 L130.4,590.5 L132.3,588.8 L134.2,587.2 L136.1,585.5 L138.0,583.7 L139.8,581.9 L141.7,580.1
		L143.6,578.2 L145.5,576.3 L147.4,574.4 L149.3,572.4 L151.2,570.3 L153.0,568.2 L154.9,566.1 L156.8,563.9
		L158.7,561.7 L160.6,559.4 L162.5,557.1 L164.4,554.8 L166.3,552.4 L168.1,550.0 L170.0,547.6 L171.9,545.1
		L173.8,542.7 L175.7,540.2 L177.6,537.7 L179.5,535.2 L181.4,532.6 L183.2,530.1 L185.1,527.5 L187.0,524.9
		L188.9,522.3 L190.8,519.6 L192.7,516.9 L194.6,514.3 L196.5,511.5 L198.3,508.8 L200.2,506.0 L202.1,503.1
		L204.0,500.3 L205.9,497.4 L207.8,494.4 L209.7,491.5 L211.6,488.5 L213.4,485.4 L215.3,482.3 L217.2,479.2
		L219.1,476.1 L221.0,473.0 L222.9,469.8 L224.8,466.6 L226.6,463.4 L228.5,460.2 L230.4,457.0 L232.3,453.8
		L234.2,450.5 L236.1,447.3 L238.0,444.1 L239.9,440.9 L241.7,437.7 L243.6,434.5 L245.5,431.3 L247.4,428.1
		L249.3,424.9 L251.2,421.8 L253.1,418.6 L255.0,415.5 L256.8,412.3 L258.7,409.2 L260.6,406.0 L262.5,402.8
		L264.4,399.7 L266.3,396.5 L268.2,393.3 L270.1,390.1 L271.9,386.8 L273.8,383.6 L275.7,380.3 L277.6,376.9
		L279.5,373.5 L281.4,370.1 L283.3,366.7 L285.2,363.2 L287.0,359.7 L288.9,356.1 L290.8,352.5 L292.7,348.9
		L294.6,345.3 L296.5,341.6 L298.4,337.9 L300.2,334.2 L302.1,330.5 L304.0,326.8 L305.9,323.1 L307.8,319.5
		L309.7,315.8 L311.6,312.1 L313.5,308.5 L315.3,304.9 L317.2,301.3 L319.1,297.7 L321.0,294.2 L322.9,290.7
		L324.8,287.2 L326.7,283.8 L328.6,280.3 L330.4,276.9 L332.3,273.6 L334.2,270.2 L336.1,266.9 L338.0,263.5
		L339.9,260.3 L341.8,257.0 L343.7,253.7 L345.5,250.5 L347.4,247.3 L349.3,244.1 L351.2,240.9 L353.1,237.7
		L355.0,234.6 L356.9,231.5 L358.8,228.5 L360.6,225.5 L362.5,222.5 L364.4,219.5 L366.3,216.6 L368.2,213.8
		L370.1,210.9 L372.0,208.1 L373.8,205.4 L375.7,202.7 L377.6,200.1 L379.5,197.4 L381.4,194.9 L383.3,192.3
		L385.2,189.9 L387.1,187.4 L388.9,185.0 L390.8,182.6 L392.7,180.3 L394.6,178.0 L396.5,175.7 L398.4,173.4
		L400.3,171.2 L402.2,169.0 L404.0,166.9 L405.9,164.8 L407.8,162.7 L409.7,160.6 L411.6,158.6 L413.5,156.6
		L415.4,154.6 L417.3,152.6 L419.1,150.7 L421.0,148.8 L422.9,147.0 L424.8,145.1 L426.7,143.3 L428.6,141.6
		L430.5,139.9 L432.4,138.2 L434.2,136.6 L436.1,135.0 L438.0,133.5 L439.9,132.0 L441.8,130.6 L443.7,129.2
		L445.6,127.9 L447.4,126.7 L449.3,125.5 L451.2,124.4 L453.1,123.3 L455.0,122.3 L456.9,121.4 L458.8,120.4
		L460.7,119.6 L462.5,118.8 L464.4,118.0 L466.3,117.2 L468.2,116.5 L470.1,115.8 L472.0,115.2 L473.9,114.5
		L475.8,113.9 L477.6,113.3 L479.5,112.8 L481.4,112.2 L483.3,111.7 L485.2,111.2 L487.1,110.8 L489.0,110.3
		L490.9,110.0 L492.7,109.6 L494.6,109.3 L496.5,109.1 L498.4,108.9 L500.3,108.7 L502.2,108.6 L504.1,108.5
		L506.0,108.5 L507.8,108.6 L509.7,108.7 L511.6,108.9 L513.5,109.1 L515.4,109.3 L517.3,109.7 L519.2,110.0
		L521.0,110.5 L522.9,111.0 L524.8,111.5 L526.7,112.2 L528.6,112.8 L530.5,113.6 L532.4,114.5 L534.3,115.4
		L536.1,116.4 L538.0,117.4 L539.9,118.6 L541.8,119.8 L543.7,121.2 L545.6,122.6 L547.5,124.0 L549.4,125.6
		L551.2,127.2 L553.1,128.9 L555.0,130.6 L556.9,132.4 L558.8,134.2 L560.7,136.1 L562.6,138.0 L564.5,140.0
		L566.3,142.0 L568.2,143.9 L570.1,146.0 L572.0,148.0 L573.9,150.0 L575.8,152.0 L577.7,154.1 L579.5,156.1
		L581.4,158.2 L583.3,160.2 L585.2,162.2 L587.1,164.3 L589.0,166.3 L590.9,168.4 L592.8,170.4 L594.6,172.4
		L596.5,174.5 L598.4,176.5 L600.3,178.6 L602.2,180.7 L604.1,182.8 L606.0,184.9 L607.9,187.0 L609.7,189.2
		L611.6,191.4 L613.5,193.7 L615.4,196.0 L617.3,198.3 L619.2,200.8 L621.1,203.3 L623.0,205.8 L624.8,208.4
		L626.7,211.1 L628.6,213.9 L630.5,216.7 L632.4,219.6 L634.3,222.6 L636.2,225.6 L638.1,228.6 L639.9,231.7
		L641.8,234.8 L643.7,237.9 L645.6,241.0 L647.5,244.2 L649.4,247.3 L651.3,250.4 L653.1,253.5 L655.0,256.6
		L656.9,259.6 L658.8,262.6 L660.7,265.6 L662.6,268.5 L664.5,271.4 L666.4,274.2 L668.2,277.0 L670.1,279.8
		L672.0,282.6 L673.9,285.3 L675.8,288.0 L677.7,290.7 L679.6,293.3 L681.5,296.0 L683.3,298.6 L685.2,301.3
		L687.1,303.9 L689.0,306.6 L690.9,309.3 L692.8,311.9 L694.7,314.6 L696.6,317.4 L698.4,320.1 L700.3,322.9
		L702.2,325.7 L704.1,328.5 L706.0,331.3 L707.9,334.2 L709.8,337.1 L711.7,340.0 L713.5,342.9 L715.4,345.8
		L717.3,348.7 L719.2,351.7 L721.1,354.6 L723.0,357.5 L724.9,360.4 L726.7,363.3 L728.6,366.2 L730.5,369.1
		L732.4,371.9 L734.3,374.7 L736.2,377.5 L738.1,380.2 L740.0,382.9 L741.8,385.6 L743.7,388.3 L745.6,390.9
		L747.5,393.5 L749.4,396.0 L751.3,398.6 L753.2,401.1 L755.1,403.6 L756.9,406.0 L758.8,408.5 L760.7,411.0
		L762.6,413.4 L764.5,415.9 L766.4,418.4 L768.3,420.9 L770.2,423.4 L772.0,425.9 L773.9,428.5 L775.8,431.0
		L777.7,433.6 L779.6,436.2 L781.5,438.9 L783.4,441.6 L785.3,444.3 L787.1,447.0 L789.0,449.7 L790.9,452.4
		L792.8,455.2 L794.7,457.9 L796.6,460.6 L798.5,463.4 L800.3,466.1 L802.2,468.8 L804.1,471.4 L806.0,474.1
		L807.9,476.7 L809.8,479.2 L811.7,481.8 L813.6,484.2 L815.4,486.7 L817.3,489.0 L819.2,491.4 L821.1,493.6
		L823.0,495.9 L824.9,498.1 L826.8,500.2 L828.7,502.3 L830.5,504.4 L832.4,506.4 L834.3,508.4 L836.2,510.4
		L838.1,512.3 L840.0,514.2 L841.9,516.1 L843.8,518.0 L845.6,519.9 L847.5,521.7 L849.4,523.6 L851.3,525.4
		L853.2,527.3 L855.1,529.1 L857.0,531.0 L858.9,532.8 L860.7,534.6 L862.6,536.4 L864.5,538.3 L866.4,540.1
		L868.3,541.9 L870.2,543.6 L872.1,545.4 L873.9,547.2 L875.8,548.9 L877.7,550.7 L879.6,552.4 L881.5,554.1
		L883.4,555.8 L885.3,557.4 L887.2,559.1 L889.0,560.7 L890.9,562.3 L892.8,563.8 L894.7,565.4 L896.6,566.9
		L898.5,568.4 L900.4,569.9 L902.3,571.4 L904.1,572.8 L906.0,574.3 L907.9,575.7 L909.8,577.1 L911.7,578.6
		L913.6,580.0 L915.5,581.4 L917.4,582.8 L919.2,584.2 L921.1,585.6 L923.0,586.9 L924.9,588.3 L926.8,589.7
		L928.7,591.0 L930.6,592.4 L932.5,593.7 L934.3,595.0 L936.2,596.3 L938.1,597.5 L940.0,598.7 L941.9,599.9
		L943.8,601.0 L945.7,602.1 L947.5,603.2 L949.4,604.2 L951.3,605.2 L953.2,606.1 L955.1,607.0 L957.0,607.9
		L958.9,608.7 L960.8,609.5 L962.6,610.3 L964.5,611.1 L966.4,611.9 L968.3,612.6 L970.2,613.4 L972.1,614.1
		L974.0,614.8 L975.9,615.6 L977.7,616.3 L979.6,617.0 L981.5,617.8 L983.4,618.5 L985.3,619.3 L987.2,620.0
		L989.1,620.8 L991.0,621.5 L992.8,622.3 L994.7,623.0 L996.6,623.8 L998.5,624.5 L1000.4,625.3 L1002.3,626.0
		L1004.2,626.7 L1006.1,627.5 L1007.9,628.2 L1009.8,628.9 L1011.7,629.5 L1013.6,630.2  '/></g>
	</g>
	<g id="gnuplot_plot_2" ><title>Confidence interval</title>
<g fill="none" color="white" stroke="rgb( 31, 120, 180)" stroke-width="1.00" stroke-linecap="butt" stroke-linejoin="miter">
</g>
<g fill="none" color="black" stroke="currentColor" stroke-width="1.00" stroke-linecap="butt" stroke-linejoin="miter">
	<g transform="translate(1089.0,85.0)" stroke="none" fill="black" font-family="Helvetica" font-size="12.00"  text-anchor="start">
		<text><tspan font-family="Helvetica" >Confidence interval</tspan></text>
	</g>
</g>
<g fill="none" color="black" stroke="currentColor" stroke-width="1.00" stroke-linecap="butt" stroke-linejoin="miter">
	<g stroke='none' shape-rendering='crispEdges'>
		<polygon fill = 'rgb( 31, 120, 180)' fill-opacity = '0.250000' points = '1038.5,85.6 1080.7,85.6 1080.7,76.6 1038.5,76.6 '/>
		<polygon fill = 'rgb( 31, 120, 180)' fill-opacity = '0.250000' points = '158.7,561.7 160.6,559.4 162.5,557.1 164.4,554.8 166.3,552.4 168.1,550.0 170.0,547.6 171.9,545.1 173.8,542.7 175.7,540.2 177.6,537.7 179.5,535.2 181.4,532.6 183.2,530.1 185.1,527.5 187.0,524.9
188.9,522.3 190.8,519.6 192.7,516.9 194.6,514.3 196.5,511.5 198.3,508.8 200.2,506.0 202.1,503.1 204.0,500.3 205.9,497.4 207.8,494.4 209.7,491.5 211.6,488.5 213.4,485.4 215.3,482.3 217.2,479.2
219.1,476.1 221.0,473.0 222.9,469.8 224.8,466.6 226.6,463.4 228.5,460.2 230.4,457.0 232.3,453.8 234.2,450.5 236.1,447.3 238.0,444.1 239.9,440.9 241.7,437.7 243.6,434.5 245.5,431.3 247.4,428.1
249.3,424.9 251.2,421.8 253.1,418.6 255.0,415.5 256.8,412.3 258.7,409.2 260.6,406.0 262.5,402.8 264.4,399.7 266.3,396.5 268.2,393.3 270.1,390.1 271.9,386.8 273.8,383.6 275.7,380.3 277.6,376.9
279.5,373.5 281.4,370.1 283.3,366.7 285.2,363.2 287.0,359.7 288.9,356.1 290.8,352.5 292.7,348.9 294.6,345.3 296.5,341.6 298.4,337.9 300.2,334.2 302.1,330.5 304.0,326.8 305.9,323.1 307.8,319.5
309.7,315.8 311.6,312.1 313.5,308.5 315.3,304.9 317.2,301.3 319.1,297.7 321.0,294.2 322.9,290.7 324.8,287.2 326.7,283.8 328.6,280.3 330.4,276.9 332.3,273.6 334.2,270.2 336.1,266.9 338.0,263.5
339.9,260.3 341.8,257.0 343.7,253.7 345.5,250.5 347.4,247.3 349.3,244.1 351.2,240.9 353.1,237.7 355.0,234.6 356.9,231.5 358.8,228.5 360.6,225.5 362.5,222.5 364.4,219.5 366.3,216.6 368.2,213.8
370.1,210.9 372.0,208.1 373.8,205.4 375.7,202.7 377.6,200.1 379.5,197.4 381.4,194.9 383.3,192.3 385.2,189.9 387.1,187.4 388.9,185.0 390.8,182.6 392.7,180.3 394.6,178.0 396.5,175.7 398.4,173.4
400.3,171.2 402.2,169.0 404.0,166.9 405.9,164.8 407.8,162.7 409.7,160.6 411.6,158.6 413.5,156.6 415.4,154.6 417.3,152.6 419.1,150.7 421.0,148.8 422.9,147.0 424.8,145.1 426.7,143.3 428.6,141.6
430.5,139.9 432.4,138.2 434.2,136.6 436.1,135.0 438.0,133.5 439.9,132.0 441.8,130.6 443.7,129.2 445.6,127.9 447.4,126.7 449.3,125.5 451.2,124.4 453.1,123.3 455.0,122.3 456.9,121.4 458.8,120.4
460.7,119.6 462.5,118.8 464.4,118.0 466.3,117.2 468.2,116.5 470.1,115.8 472.0,115.2 473.9,114.5 475.8,113.9 477.6,113.3 479.5,112.8 481.4,112.2 483.3,111.7 485.2,111.2 487.1,110.8 489.0,110.3
490.9,110.0 492.7,109.6 494.6,109.3 496.5,109.1 498.4,108.9 500.3,108.7 502.2,108.6 504.1,108.5 506.0,108.5 507.8,108.6 509.7,108.7 511.6,108.9 513.5,109.1 515.4,109.3 517.3,109.7 519.2,110.0
521.0,110.5 522.9,111.0 524.8,111.5 526.7,112.2 528.6,112.8 530.5,113.6 532.4,114.5 534.3,115.4 536.1,116.4 538.0,117.4 539.9,118.6 541.8,119.8 543.7,121.2 545.6,122.6 547.5,124.0 549.4,125.6
551.2,127.2 553.1,128.9 555.0,130.6 556.9,132.4 558.8,134.2 560.7,136.1 562.6,138.0 564.5,140.0 566.3,142.0 568.2,143.9 570.1,146.0 572.0,148.0 573.9,150.0 575.8,152.0 577.7,154.1 579.5,156.1
581.4,158.2 583.3,160.2 585.2,162.2 587.1,164.3 589.0,166.3 590.9,168.4 592.8,170.4 594.6,172.4 596.5,174.5 598.4,176.5 600.3,178.6 602.2,180.7 604.1,182.8 606.0,184.9 607.9,187.0 609.7,189.2
611.6,191.4 613.5,193.7 615.4,196.0 617.3,198.3 619.2,200.8 621.1,203.3 623.0,205.8 624.8,208.4 626.7,211.1 628.6,213.9 630.5,216.7 632.4,219.6 634.3,222.6 636.2,225.6 638.1,228.6 639.9,231.7
641.8,234.8 643.7,237.9 645.6,241.0 647.5,244.2 649.4,247.3 651.3,250.4 653.1,253.5 655.0,256.6 656.9,259.6 658.8,262.6 660.7,265.6 662.6,268.5 664.5,271.4 666.4,274.2 668.2,277.0 670.1,279.8
672.0,282.6 673.9,285.3 675.8,288.0 677.7,290.7 679.6,293.3 681.5,296.0 683.3,298.6 685.2,301.3 687.1,303.9 689.0,306.6 690.9,309.3 692.8,311.9 694.7,314.6 696.6,317.4 698.4,320.1 700.3,322.9
702.2,325.7 704.1,328.5 706.0,331.3 707.9,334.2 709.8,337.1 711.7,340.0 713.5,342.9 715.4,345.8 717.3,348.7 719.2,351.7 721.1,354.6 723.0,357.5 724.9,360.4 726.7,363.3 728.6,366.2 730.5,369.1
732.4,371.9 734.3,374.7 736.2,377.5 738.1,380.2 740.0,382.9 741.8,385.6 743.7,388.3 745.6,390.9 747.5,393.5 749.4,396.0 751.3,398.6 753.2,401.1 755.1,403.6 756.9,406.0 758.8,408.5 760.7,411.0
762.6,413.4 764.5,415.9 766.4,418.4 768.3,420.9 770.2,423.4 772.0,425.9 773.9,428.5 775.8,431.0 777.7,433.6 779.6,436.2 781.5,438.9 783.4,441.6 785.3,444.3 787.1,447.0 789.0,449.7 790.9,452.4
792.8,455.2 794.7,457.9 796.6,460.6 798.5,463.4 800.3,466.1 802.2,468.8 804.1,471.4 806.0,474.1 807.9,476.7 809.8,479.2 811.7,481.8 813.6,484.2 815.4,486.7 817.3,489.0 819.2,491.4 821.1,493.6
823.0,495.9 824.9,498.1 826.8,500.2 828.7,502.3 830.5,504.4 832.4,506.4 834.3,508.4 836.2,510.4 838.1,512.3 840.0,514.2 841.9,516.1 843.8,518.0 845.6,519.9 847.5,521.7 849.4,523.6 851.3,525.4
853.2,527.3 855.1,529.1 857.0,531.0 858.9,532.8 860.7,534.6 862.6,536.4 864.5,538.3 866.4,540.1 868.3,541.9 870.2,543.6 872.1,545.4 873.9,547.2 875.8,548.9 877.7,550.7 879.6,552.4 881.5,554.1
883.4,555.8 885.3,557.4 887.2,559.1 889.0,560.7 890.9,562.3 892.8,563.8 894.7,565.4 896.6,566.9 898.5,568.4 900.4,569.9 902.3,571.4 904.1,572.8 906.0,574.3 907.9,575.7 909.8,577.1 911.7,578.6
913.6,580.0 915.5,581.4 917.4,582.8 919.2,584.2 921.1,585.6 923.0,586.9 924.9,588.3 924.9,662.4 923.0,662.4 921.1,662.4 919.2,662.4 917.4,662.4 915.5,662.4 913.6,662.4 911.7,662.4 909.8,662.4
907.9,662.4 906.0,662.4 904.1,662.4 902.3,662.4 900.4,662.4 898.5,662.4 896.6,662.4 894.7,662.4 892.8,662.4 890.9,662.4 889.0,662.4 887.2,662.4 885.3,662.4 883.4,662.4 881.5,662.4 879.6,662.4
877.7,662.4 875.8,662.4 873.9,662.4 872.1,662.4 870.2,662.4 868.3,662.4 866.4,662.4 864.5,662.4 862.6,662.4 860.7,662.4 858.9,662.4 857.0,662.4 855.1,662.4 853.2,662.4 851.3,662.4 849.4,662.4
847.5,662.4 845.6,662.4 843.8,662.4 841.9,662.4 840.0,662.4 838.1,662.4 836.2,662.4 834.3,662.4 832.4,662.4 830.5,662.4 828.7,662.4 826.8,662.4 824.9,662.4 823.0,662.4 821.1,662.4 819.2,662.4
817.3,662.4 815.4,662.4 813.6,662.4 811.7,662.4 809.8,662.4 807.9,662.4 806.0,662.4 804.1,662.4 802.2,662.4 800.3,662.4 798.5,662.4 796.6,662.4 794.7,662.4 792.8,662.4 790.9,662.4 789.0,662.4
787.1,662.4 785.3,662.4 783.4,662.4 781.5,662.4 779.6,662.4 777.7,662.4 775.8,662.4 773.9,662.4 772.0,662.4 770.2,662.4 768.3,662.4 766.4,662.4 764.5,662.4 762.6,662.4 760.7,662.4 758.8,662.4
756.9,662.4 755.1,662.4 753.2,662.4 751.3,662.4 749.4,662.4 747.5,662.4 745.6,662.4 743.7,662.4 741.8,662.4 740.0,662.4 738.1,662.4 736.2,662.4 734.3,662.4 732.4,662.4 730.5,662.4 728.6,662.4
726.7,662.4 724.9,662.4 723.0,662.4 721.1,662.4 719.2,662.4 717.3,662.4 715.4,662.4 713.5,662.4 711.7,662.4 709.8,662.4 707.9,662.4 706.0,662.4 704.1,662.4 702.2,662.4 700.3,662.4 698.4,662.4
696.6,662.4 694.7,662.4 692.8,662.4 690.9,662.4 689.0,662.4 687.1,662.4 685.2,662.4 683.3,662.4 681.5,662.4 679.6,662.4 677.7,662.4 675.8,662.4 673.9,662.4 672.0,662.4 670.1,662.4 668.2,662.4
666.4,662.4 664.5,662.4 662.6,662.4 660.7,662.4 658.8,662.4 656.9,662.4 655.0,662.4 653.1,662.4 651.3,662.4 649.4,662.4 647.5,662.4 645.6,662.4 643.7,662.4 641.8,662.4 639.9,662.4 638.1,662.4
636.2,662.4 634.3,662.4 632.4,662.4 630.5,662.4 628.6,662.4 626.7,662.4 624.8,662.4 623.0,662.4 621.1,662.4 619.2,662.4 617.3,662.4 615.4,662.4 613.5,662.4 611.6,662.4 609.7,662.4 607.9,662.4
606.0,662.4 604.1,662.4 602.2,662.4 600.3,662.4 598.4,662.4 596.5,662.4 594.6,662.4 592.8,662.4 590.9,662.4 589.0,662.4 587.1,662.4 585.2,662.4 583.3,662.4 581.4,662.4 579.5,662.4 577.7,662.4
575.8,662.4 573.9,662.4 572.0,662.4 570.1,662.4 568.2,662.4 566.3,662.4 564.5,662.4 562.6,662.4 560.7,662.4 558.8,662.4 556.9,662.4 555.0,662.4 553.1,662.4 551.2,662.4 549.4,662.4 547.5,662.4
545.6,662.4 543.7,662.4 541.8,662.4 539.9,662.4 538.0,662.4 536.1,662.4 534.3,662.4 532.4,662.4 530.5,662.4 528.6,662.4 526.7,662.4 524.8,662.4 522.9,662.4 521.0,662.4 519.2,662.4 517.3,662.4
515.4,662.4 513.5,662.4 511.6,662.4 509.7,662.4 507.8,662.4 506.0,662.4 504.1,662.4 502.2,662.4 500.3,662.4 498.4,662.4 496.5,662.4 494.6,662.4 492.7,662.4 490.9,662.4 489.0,662.4 487.1,662.4
485.2,662.4 483.3,662.4 481.4,662.4 479.5,662.4 477.6,662.4 475.8,662.4 473.9,662.4 472.0,662.4 470.1,662.4 468.2,662.4 466.3,662.4 464.4,662.4 462.5,662.4 460.7,662.4 458.8,662.4 456.9,662.4
455.0,662.4 453.1,662.4 451.2,662.4 449.3,662.4 447.4,662.4 445.6,662.4 443.7,662.4 441.8,662.4 439.9,662.4 438.0,662.4 436.1,662.4 434.2,662.4 432.4,662.4 430.5,662.4 428.6,662.4 426.7,662.4
424.8,662.4 422.9,662.4 421.0,662.4 419.1,662.4 417.3,662.4 415.4,662.4 413.5,662.4 411.6,662.4 409.7,662.4 407.8,662.4 405.9,662.4 404.0,662.4 402.2,662.4 400.3,662.4 398.4,662.4 396.5,662.4
394.6,662.4 392.7,662.4 390.8,662.4 388.9,662.4 387.1,662.4 385.2,662.4 383.3,662.4 381.4,662.4 379.5,662.4 377.6,662.4 375.7,662.4 373.8,662.4 372.0,662.4 370.1,662.4 368.2,662.4 366.3,662.4
364.4,662.4 362.5,662.4 360.6,662.4 358.8,662.4 356.9,662.4 355.0,662.4 353.1,662.4 351.2,662.4 349.3,662.4 347.4,662.4 345.5,662.4 343.7,662.4 341.8,662.4 339.9,662.4 338.0,662.4 336.1,662.4
334.2,662.4 332.3,662.4 330.4,662.4 328.6,662.4 326.7,662.4 324.8,662.4 322.9,662.4 321.0,662.4 319.1,662.4 317.2,662.4 315.3,662.4 313.5,662.4 311.6,662.4 309.7,662.4 307.8,662.4 305.9,662.4
304.0,662.4 302.1,662.4 300.2,662.4 298.4,662.4 296.5,662.4 294.6,662.4 292.7,662.4 290.8,662.4 288.9,662.4 287.0,662.4 285.2,662.4 283.3,662.4 281.4,662.4 279.5,662.4 277.6,662.4 275.7,662.4
273.8,662.4 271.9,662.4 270.1,662.4 268.2,662.4 266.3,662.4 264.4,662.4 262.5,662.4 260.6,662.4 258.7,662.4 256.8,662.4 255.0,662.4 253.1,662.4 251.2,662.4 249.3,662.4 247.4,662.4 245.5,662.4
243.6,662.4 241.7,662.4 239.9,662.4 238.0,662.4 236.1,662.4 234.2,662.4 232.3,662.4 230.4,662.4 228.5,662.4 226.6,662.4 224.8,662.4 222.9,662.4 221.0,662.4 219.1,662.4 217.2,662.4 215.3,662.4
213.4,662.4 211.6,662.4 209.7,662.4 207.8,662.4 205.9,662.4 204.0,662.4 202.1,662.4 200.2,662.4 198.3,662.4 196.5,662.4 194.6,662.4 192.7,662.4 190.8,662.4 188.9,662.4 187.0,662.4 185.1,662.4
183.2,662.4 181.4,662.4 179.5,662.4 177.6,662.4 175.7,662.4 173.8,662.4 171.9,662.4 170.0,662.4 168.1,662.4 166.3,662.4 164.4,662.4 162.5,662.4 160.6,662.4 158.7,662.4 '/>
	</g>
</g>
	</g>
	<g id="gnuplot_plot_3" ><title>Point estimate</title>
<g fill="none" color="white" stroke="rgb( 31, 120, 180)" stroke-width="2.00" stroke-linecap="butt" stroke-linejoin="miter">
</g>
<g fill="none" color="black" stroke="currentColor" stroke-width="2.00" stroke-linecap="butt" stroke-linejoin="miter">
	<g transform="translate(1089.0,103.0)" stroke="none" fill="black" font-family="Helvetica" font-size="12.00"  text-anchor="start">
		<text><tspan font-family="Helvetica" >Point estimate</tspan></text>
	</g>
</g>
<g fill="none" color="black" stroke="currentColor" stroke-width="2.00" stroke-linecap="butt" stroke-linejoin="miter">
	<path stroke='rgb( 31, 120, 180)'  d='M1038.5,99.1 L1080.7,99.1 M521.9,662.4 L521.9,110.7  '/></g>
	</g>
<g fill="none" color="black" stroke="currentColor" stroke-width="2.00" stroke-linecap="butt" stroke-linejoin="miter">
</g>
<g fill="none" color="black" stroke="black" stroke-width="1.00" stroke-linecap="butt" stroke-linejoin="miter">
</g>
<g fill="none" color="black" stroke="currentColor" stroke-width="1.00" stroke-linecap="butt" stroke-linejoin="miter">
	<path stroke='black'  d='M71.9,54.1 L71.9,662.4 L1013.6,662.4 L1013.6,54.1 L71.9,54.1 Z  '/></g>
<g fill="none" color="black" stroke="currentColor" stroke-width="1.00" stroke-linecap="butt" stroke-linejoin="miter">
</g>
</g>
</svg>

