<?xml version="1.0" encoding="utf-8"  standalone="no"?>
<svg 
 viewBox="0 0 1280 720"
 xmlns="http://www.w3.org/2000/svg"
 xmlns:xlink="http://www.w3.org/1999/xlink"
>

<title>Gnuplot</title>
<desc>Produced by GNUPLOT 5.2 patchlevel 6 </desc>

<g id="gnuplot_canvas">

<rect x="0" y="0" width="1280" height="720" fill="none"/>
<defs>

	<circle id='gpDot' r='0.5' stroke-width='0.5' stroke='currentColor'/>
	<path id='gpPt0' stroke-width='0.222' stroke='currentColor' d='M-1,0 h2 M0,-1 v2'/>
	<path id='gpPt1' stroke-width='0.222' stroke='currentColor' d='M-1,-1 L1,1 M1,-1 L-1,1'/>
	<path id='gpPt2' stroke-width='0.222' stroke='currentColor' d='M-1,0 L1,0 M0,-1 L0,1 M-1,-1 L1,1 M-1,1 L1,-1'/>
	<rect id='gpPt3' stroke-width='0.222' stroke='currentColor' x='-1' y='-1' width='2' height='2'/>
	<rect id='gpPt4' stroke-width='0.222' stroke='currentColor' fill='currentColor' x='-1' y='-1' width='2' height='2'/>
	<circle id='gpPt5' stroke-width='0.222' stroke='currentColor' cx='0' cy='0' r='1'/>
	<use xlink:href='#gpPt5' id='gpPt6' fill='currentColor' stroke='none'/>
	<path id='gpPt7' stroke-width='0.222' stroke='currentColor' d='M0,-1.33 L-1.33,0.67 L1.33,0.67 z'/>
	<use xlink:href='#gpPt7' id='gpPt8' fill='currentColor' stroke='none'/>
	<use xlink:href='#gpPt7' id='gpPt9' stroke='currentColor' transform='rotate(180)'/>
	<use xlink:href='#gpPt9' id='gpPt10' fill='currentColor' stroke='none'/>
	<use xlink:href='#gpPt3' id='gpPt11' stroke='currentColor' transform='rotate(45)'/>
	<use xlink:href='#gpPt11' id='gpPt12' fill='currentColor' stroke='none'/>
	<path id='gpPt13' stroke-width='0.222' stroke='currentColor' d='M0,1.330 L1.265,0.411 L0.782,-1.067 L-0.782,-1.076 L-1.265,0.411 z'/>
	<use xlink:href='#gpPt13' id='gpPt14' fill='currentColor' stroke='none'/>
	<filter id='textbox' filterUnits='objectBoundingBox' x='0' y='0' height='1' width='1'>
	  <feFlood flood-color='white' flood-opacity='1' result='bgnd'/>
	  <feComposite in='SourceGraphic' in2='bgnd' operator='atop'/>
	</filter>
	<filter id='greybox' filterUnits='objectBoundingBox' x='0' y='0' height='1' width='1'>
	  <feFlood flood-color='lightgrey' flood-opacity='1' result='grey'/>
	  <feComposite in='SourceGraphic' in2='grey' operator='atop'/>
	</filter>
</defs>
<g fill="none" color="white" stroke="currentColor" stroke-width="1.00" stroke-linecap="butt" stroke-linejoin="miter">
</g>
<g fill="none" color="black" stroke="currentColor" stroke-width="1.00" stroke-linecap="butt" stroke-linejoin="miter">
	<path stroke='black'  d='M63.6,662.4 L72.6,662.4  '/>	<g transform="translate(55.3,666.3)" stroke="none" fill="black" font-family="Helvetica" font-size="12.00"  text-anchor="end">
		<text><tspan font-family="Helvetica" > 0</tspan></text>
	</g>
</g>
<g fill="none" color="black" stroke="currentColor" stroke-width="1.00" stroke-linecap="butt" stroke-linejoin="miter">
	<path stroke='black'  d='M63.6,586.4 L72.6,586.4  '/>	<g transform="translate(55.3,590.3)" stroke="none" fill="black" font-family="Helvetica" font-size="12.00"  text-anchor="end">
		<text><tspan font-family="Helvetica" > 10</tspan></text>
	</g>
</g>
<g fill="none" color="black" stroke="currentColor" stroke-width="1.00" stroke-linecap="butt" stroke-linejoin="miter">
	<path stroke='black'  d='M63.6,510.3 L72.6,510.3  '/>	<g transform="translate(55.3,514.2)" stroke="none" fill="black" font-family="Helvetica" font-size="12.00"  text-anchor="end">
		<text><tspan font-family="Helvetica" > 20</tspan></text>
	</g>
</g>
<g fill="none" color="black" stroke="currentColor" stroke-width="1.00" stroke-linecap="butt" stroke-linejoin="miter">
	<path stroke='black'  d='M63.6,434.3 L72.6,434.3  '/>	<g transform="translate(55.3,438.2)" stroke="none" fill="black" font-family="Helvetica" font-size="12.00"  text-anchor="end">
		<text><tspan font-family="Helvetica" > 30</tspan></text>
	</g>
</g>
<g fill="none" color="black" stroke="currentColor" stroke-width="1.00" stroke-linecap="butt" stroke-linejoin="miter">
	<path stroke='black'  d='M63.6,358.2 L72.6,358.2  '/>	<g transform="translate(55.3,362.1)" stroke="none" fill="black" font-family="Helvetica" font-size="12.00"  text-anchor="end">
		<text><tspan font-family="Helvetica" > 40</tspan></text>
	</g>
</g>
<g fill="none" color="black" stroke="currentColor" stroke-width="1.00" stroke-linecap="butt" stroke-linejoin="miter">
	<path stroke='black'  d='M63.6,282.2 L72.6,282.2  '/>	<g transform="translate(55.3,286.1)" stroke="none" fill="black" font-family="Helvetica" font-size="12.00"  text-anchor="end">
		<text><tspan font-family="Helvetica" > 50</tspan></text>
	</g>
</g>
<g fill="none" color="black" stroke="currentColor" stroke-width="1.00" stroke-linecap="butt" stroke-linejoin="miter">
	<path stroke='black'  d='M63.6,206.2 L72.6,206.2  '/>	<g transform="translate(55.3,210.1)" stroke="none" fill="black" font-family="Helvetica" font-size="12.00"  text-anchor="end">
		<text><tspan font-family="Helvetica" > 60</tspan></text>
	</g>
</g>
<g fill="none" color="black" stroke="currentColor" stroke-width="1.00" stroke-linecap="butt" stroke-linejoin="miter">
	<path stroke='black'  d='M63.6,130.1 L72.6,130.1  '/>	<g transform="translate(55.3,134.0)" stroke="none" fill="black" font-family="Helvetica" font-size="12.00"  text-anchor="end">
		<text><tspan font-family="Helvetica" > 70</tspan></text>
	</g>
</g>
<g fill="none" color="black" stroke="currentColor" stroke-width="1.00" stroke-linecap="butt" stroke-linejoin="miter">
	<path stroke='black'  d='M63.6,54.1 L72.6,54.1  '/>	<g transform="translate(55.3,58.0)" stroke="none" fill="black" font-family="Helvetica" font-size="12.00"  text-anchor="end">
		<text><tspan font-family="Helvetica" > 80</tspan></text>
	</g>
</g>
<g fill="none" color="black" stroke="currentColor" stroke-width="1.00" stroke-linecap="butt" stroke-linejoin="miter">
	<path stroke='black'  d='M210.8,662.4 L210.8,653.4  '/>	<g transform="translate(210.8,684.3)" stroke="none" fill="black" font-family="Helvetica" font-size="12.00"  text-anchor="middle">
		<text><tspan font-family="Helvetica" >-20</tspan></text>
	</g>
</g>
<g fill="none" color="black" stroke="currentColor" stroke-width="1.00" stroke-linecap="butt" stroke-linejoin="miter">
	<path stroke='black'  d='M391.1,662.4 L391.1,653.4  '/>	<g transform="translate(391.1,684.3)" stroke="none" fill="black" font-family="Helvetica" font-size="12.00"  text-anchor="middle">
		<text><tspan font-family="Helvetica" >-19.5</tspan></text>
	</g>
</g>
<g fill="none" color="black" stroke="currentColor" stroke-width="1.00" stroke-linecap="butt" stroke-linejoin="miter">
	<path stroke='black'  d='M571.3,662.4 L571.3,653.4  '/>	<g transform="translate(571.3,684.3)" stroke="none" fill="black" font-family="Helvetica" font-size="12.00"  text-anchor="middle">
		<text><tspan font-family="Helvetica" >-19</tspan></text>
	</g>
</g>
<g fill="none" color="black" stroke="currentColor" stroke-width="1.00" stroke-linecap="butt" stroke-linejoin="miter">
	<path stroke='black'  d='M751.6,662.4 L751.6,653.4  '/>	<g transform="translate(751.6,684.3)" stroke="none" fill="black" font-family="Helvetica" font-size="12.00"  text-anchor="middle">
		<text><tspan font-family="Helvetica" >-18.5</tspan></text>
	</g>
</g>
<g fill="none" color="black" stroke="currentColor" stroke-width="1.00" stroke-linecap="butt" stroke-linejoin="miter">
	<path stroke='black'  d='M931.9,662.4 L931.9,653.4  '/>	<g transform="translate(931.9,684.3)" stroke="none" fill="black" font-family="Helvetica" font-size="12.00"  text-anchor="middle">
		<text><tspan font-family="Helvetica" >-18</tspan></text>
	</g>
</g>
<g fill="none" color="black" stroke="currentColor" stroke-width="1.00" stroke-linecap="butt" stroke-linejoin="miter">
</g>
<g fill="none" color="black" stroke="currentColor" stroke-width="1.00" stroke-linecap="butt" stroke-linejoin="miter">
	<path stroke='black'  d='M63.6,54.1 L63.6,662.4 L1013.6,662.4 L1013.6,54.1 L63.6,54.1 Z  '/></g>
<g fill="none" color="black" stroke="currentColor" stroke-width="1.00" stroke-linecap="butt" stroke-linejoin="miter">
	<g transform="translate(16.3,358.3) rotate(270)" stroke="none" fill="black" font-family="Helvetica" font-size="12.00"  text-anchor="middle">
		<text><tspan font-family="Helvetica" >Density (a.u.)</tspan></text>
	</g>
</g>
<g fill="none" color="black" stroke="currentColor" stroke-width="1.00" stroke-linecap="butt" stroke-linejoin="miter">
	<g transform="translate(538.6,711.3)" stroke="none" fill="black" font-family="Helvetica" font-size="12.00"  text-anchor="middle">
		<text><tspan font-family="Helvetica" >Relative change (%)</tspan></text>
	</g>
</g>
<g fill="none" color="black" stroke="currentColor" stroke-width="1.00" stroke-linecap="butt" stroke-linejoin="miter">
	<g transform="translate(538.6,31.0)" stroke="none" fill="black" font-family="Helvetica" font-size="12.00"  text-anchor="middle">
		<text><tspan font-family="Helvetica" >snapshot_restore_with_dense/Dense: Entire region + process_vm_writev/46: mean</tspan></text>
	</g>
</g>
	<g id="gnuplot_plot_1" ><title>Bootstrap distribution</title>
<g fill="none" color="white" stroke="black" stroke-width="2.00" stroke-linecap="butt" stroke-linejoin="miter">
</g>
<g fill="none" color="black" stroke="currentColor" stroke-width="2.00" stroke-linecap="butt" stroke-linejoin="miter">
	<g transform="translate(1089.0,67.0)" stroke="none" fill="black" font-family="Helvetica" font-size="12.00"  text-anchor="start">
		<text><tspan font-family="Helvetica" >Bootstrap distribution</tspan></text>
	</g>
</g>
<g fill="none" color="black" stroke="currentColor" stroke-width="2.00" stroke-linecap="butt" stroke-linejoin="miter">
	<path stroke='rgb( 31, 120, 180)'  d='M1038.5,63.1 L1080.7,63.1 M63.6,632.1 L65.5,631.5 L67.4,630.9 L69.3,630.2 L71.2,629.6 L73.1,628.9
		L75.0,628.2 L76.9,627.5 L78.8,626.8 L80.7,626.1 L82.6,625.3 L84.5,624.6 L86.4,623.9 L88.3,623.1
		L90.3,622.4 L92.2,621.6 L94.1,620.9 L96.0,620.1 L97.9,619.4 L99.8,618.6 L101.7,617.8 L103.6,617.1
		L105.5,616.3 L107.4,615.6 L109.3,614.8 L111.2,614.0 L113.1,613.2 L115.0,612.4 L116.9,611.6 L118.8,610.8
		L120.7,609.9 L122.6,609.1 L124.5,608.2 L126.4,607.3 L128.3,606.4 L130.2,605.4 L132.1,604.5 L134.0,603.5
		L135.9,602.5 L137.8,601.5 L139.8,600.5 L141.7,599.5 L143.6,598.4 L145.5,597.4 L147.4,596.3 L149.3,595.2
		L151.2,594.1 L153.1,593.0 L155.0,591.9 L156.9,590.8 L158.8,589.7 L160.7,588.5 L162.6,587.4 L164.5,586.2
		L166.4,585.0 L168.3,583.8 L170.2,582.5 L172.1,581.3 L174.0,580.0 L175.9,578.7 L177.8,577.4 L179.7,576.1
		L181.6,574.8 L183.5,573.4 L185.4,572.0 L187.3,570.7 L189.3,569.3 L191.2,567.9 L193.1,566.5 L195.0,565.1
		L196.9,563.7 L198.8,562.2 L200.7,560.8 L202.6,559.4 L204.5,557.9 L206.4,556.5 L208.3,555.1 L210.2,553.6
		L212.1,552.1 L214.0,550.6 L215.9,549.2 L217.8,547.6 L219.7,546.1 L221.6,544.6 L223.5,543.0 L225.4,541.4
		L227.3,539.9 L229.2,538.2 L231.1,536.6 L233.0,535.0 L234.9,533.3 L236.8,531.6 L238.8,529.9 L240.7,528.2
		L242.6,526.5 L244.5,524.8 L246.4,523.0 L248.3,521.3 L250.2,519.5 L252.1,517.7 L254.0,515.9 L255.9,514.1
		L257.8,512.3 L259.7,510.4 L261.6,508.5 L263.5,506.6 L265.4,504.6 L267.3,502.7 L269.2,500.7 L271.1,498.6
		L273.0,496.6 L274.9,494.4 L276.8,492.3 L278.7,490.1 L280.6,488.0 L282.5,485.7 L284.4,483.5 L286.3,481.2
		L288.2,478.9 L290.2,476.6 L292.1,474.3 L294.0,472.0 L295.9,469.6 L297.8,467.3 L299.7,464.9 L301.6,462.5
		L303.5,460.1 L305.4,457.7 L307.3,455.3 L309.2,452.8 L311.1,450.3 L313.0,447.9 L314.9,445.3 L316.8,442.8
		L318.7,440.2 L320.6,437.6 L322.5,435.0 L324.4,432.3 L326.3,429.6 L328.2,426.9 L330.1,424.2 L332.0,421.5
		L333.9,418.7 L335.8,416.0 L337.7,413.2 L339.7,410.4 L341.6,407.7 L343.5,404.9 L345.4,402.2 L347.3,399.5
		L349.2,396.7 L351.1,394.0 L353.0,391.3 L354.9,388.6 L356.8,385.9 L358.7,383.3 L360.6,380.6 L362.5,377.9
		L364.4,375.2 L366.3,372.5 L368.2,369.9 L370.1,367.2 L372.0,364.5 L373.9,361.8 L375.8,359.1 L377.7,356.5
		L379.6,353.8 L381.5,351.1 L383.4,348.5 L385.3,345.9 L387.2,343.3 L389.2,340.7 L391.1,338.1 L393.0,335.5
		L394.9,333.0 L396.8,330.5 L398.7,328.0 L400.6,325.5 L402.5,323.0 L404.4,320.5 L406.3,318.1 L408.2,315.6
		L410.1,313.1 L412.0,310.6 L413.9,308.1 L415.8,305.6 L417.7,303.0 L419.6,300.4 L421.5,297.8 L423.4,295.2
		L425.3,292.5 L427.2,289.8 L429.1,287.1 L431.0,284.4 L432.9,281.6 L434.8,278.9 L436.7,276.1 L438.7,273.3
		L440.6,270.5 L442.5,267.7 L444.4,264.9 L446.3,262.2 L448.2,259.4 L450.1,256.7 L452.0,254.0 L453.9,251.4
		L455.8,248.7 L457.7,246.1 L459.6,243.5 L461.5,241.0 L463.4,238.5 L465.3,236.0 L467.2,233.5 L469.1,231.0
		L471.0,228.6 L472.9,226.1 L474.8,223.7 L476.7,221.3 L478.6,218.9 L480.5,216.5 L482.4,214.1 L484.3,211.7
		L486.2,209.3 L488.1,206.9 L490.1,204.6 L492.0,202.2 L493.9,199.8 L495.8,197.4 L497.7,195.1 L499.6,192.7
		L501.5,190.3 L503.4,188.0 L505.3,185.7 L507.2,183.3 L509.1,181.0 L511.0,178.7 L512.9,176.4 L514.8,174.2
		L516.7,171.9 L518.6,169.7 L520.5,167.5 L522.4,165.3 L524.3,163.2 L526.2,161.1 L528.1,159.0 L530.0,157.0
		L531.9,155.1 L533.8,153.2 L535.7,151.4 L537.6,149.7 L539.6,148.0 L541.5,146.4 L543.4,144.9 L545.3,143.4
		L547.2,142.1 L549.1,140.8 L551.0,139.6 L552.9,138.5 L554.8,137.4 L556.7,136.4 L558.6,135.5 L560.5,134.6
		L562.4,133.8 L564.3,133.0 L566.2,132.2 L568.1,131.4 L570.0,130.7 L571.9,130.0 L573.8,129.2 L575.7,128.5
		L577.6,127.8 L579.5,127.0 L581.4,126.3 L583.3,125.5 L585.2,124.8 L587.1,124.0 L589.1,123.3 L591.0,122.5
		L592.9,121.7 L594.8,121.0 L596.7,120.3 L598.6,119.6 L600.5,118.9 L602.4,118.3 L604.3,117.7 L606.2,117.1
		L608.1,116.6 L610.0,116.2 L611.9,115.8 L613.8,115.5 L615.7,115.3 L617.6,115.2 L619.5,115.2 L621.4,115.2
		L623.3,115.4 L625.2,115.6 L627.1,116.0 L629.0,116.5 L630.9,117.0 L632.8,117.7 L634.7,118.5 L636.6,119.4
		L638.5,120.3 L640.5,121.4 L642.4,122.5 L644.3,123.7 L646.2,125.0 L648.1,126.4 L650.0,127.8 L651.9,129.2
		L653.8,130.7 L655.7,132.2 L657.6,133.8 L659.5,135.3 L661.4,136.9 L663.3,138.5 L665.2,140.1 L667.1,141.7
		L669.0,143.4 L670.9,145.0 L672.8,146.6 L674.7,148.3 L676.6,149.9 L678.5,151.6 L680.4,153.3 L682.3,155.0
		L684.2,156.7 L686.1,158.4 L688.0,160.1 L690.0,161.9 L691.9,163.6 L693.8,165.4 L695.7,167.2 L697.6,169.1
		L699.5,170.9 L701.4,172.8 L703.3,174.7 L705.2,176.7 L707.1,178.6 L709.0,180.6 L710.9,182.7 L712.8,184.8
		L714.7,186.9 L716.6,189.1 L718.5,191.3 L720.4,193.6 L722.3,195.9 L724.2,198.3 L726.1,200.7 L728.0,203.2
		L729.9,205.8 L731.8,208.4 L733.7,211.1 L735.6,213.8 L737.5,216.6 L739.5,219.4 L741.4,222.3 L743.3,225.2
		L745.2,228.1 L747.1,231.1 L749.0,234.1 L750.9,237.1 L752.8,240.2 L754.7,243.3 L756.6,246.4 L758.5,249.5
		L760.4,252.7 L762.3,255.9 L764.2,259.1 L766.1,262.3 L768.0,265.6 L769.9,269.0 L771.8,272.4 L773.7,275.9
		L775.6,279.4 L777.5,282.9 L779.4,286.6 L781.3,290.3 L783.2,294.0 L785.1,297.8 L787.0,301.7 L789.0,305.6
		L790.9,309.6 L792.8,313.6 L794.7,317.6 L796.6,321.6 L798.5,325.7 L800.4,329.8 L802.3,333.8 L804.2,337.9
		L806.1,341.9 L808.0,345.9 L809.9,349.9 L811.8,353.8 L813.7,357.7 L815.6,361.5 L817.5,365.3 L819.4,369.0
		L821.3,372.7 L823.2,376.4 L825.1,380.0 L827.0,383.6 L828.9,387.1 L830.8,390.6 L832.7,394.1 L834.6,397.6
		L836.5,401.0 L838.4,404.4 L840.4,407.8 L842.3,411.2 L844.2,414.6 L846.1,418.0 L848.0,421.4 L849.9,424.7
		L851.8,428.1 L853.7,431.4 L855.6,434.8 L857.5,438.1 L859.4,441.4 L861.3,444.7 L863.2,448.0 L865.1,451.3
		L867.0,454.6 L868.9,457.8 L870.8,461.1 L872.7,464.3 L874.6,467.5 L876.5,470.8 L878.4,474.0 L880.3,477.2
		L882.2,480.3 L884.1,483.5 L886.0,486.7 L887.9,489.8 L889.9,492.9 L891.8,496.1 L893.7,499.2 L895.6,502.3
		L897.5,505.3 L899.4,508.4 L901.3,511.4 L903.2,514.3 L905.1,517.3 L907.0,520.2 L908.9,523.1 L910.8,526.0
		L912.7,528.8 L914.6,531.6 L916.5,534.3 L918.4,537.0 L920.3,539.7 L922.2,542.4 L924.1,545.0 L926.0,547.6
		L927.9,550.2 L929.8,552.7 L931.7,555.3 L933.6,557.8 L935.5,560.3 L937.4,562.8 L939.4,565.2 L941.3,567.6
		L943.2,570.1 L945.1,572.4 L947.0,574.8 L948.9,577.1 L950.8,579.4 L952.7,581.6 L954.6,583.8 L956.5,585.9
		L958.4,588.0 L960.3,590.1 L962.2,592.1 L964.1,594.0 L966.0,595.9 L967.9,597.7 L969.8,599.5 L971.7,601.2
		L973.6,602.9 L975.5,604.5 L977.4,606.1 L979.3,607.6 L981.2,609.1 L983.1,610.6 L985.0,612.0 L986.9,613.4
		L988.9,614.7 L990.8,616.1 L992.7,617.4 L994.6,618.7 L996.5,619.9 L998.4,621.2 L1000.3,622.4 L1002.2,623.6
		L1004.1,624.8 L1006.0,626.0 L1007.9,627.1 L1009.8,628.3 L1011.7,629.4 L1013.6,630.5  '/></g>
	</g>
	<g id="gnuplot_plot_2" ><title>Confidence interval</title>
<g fill="none" color="white" stroke="rgb( 31, 120, 180)" stroke-width="1.00" stroke-linecap="butt" stroke-linejoin="miter">
</g>
<g fill="none" color="black" stroke="currentColor" stroke-width="1.00" stroke-linecap="butt" stroke-linejoin="miter">
	<g transform="translate(1089.0,85.0)" stroke="none" fill="black" font-family="Helvetica" font-size="12.00"  text-anchor="start">
		<text><tspan font-family="Helvetica" >Confidence interval</tspan></text>
	</g>
</g>
<g fill="none" color="black" stroke="currentColor" stroke-width="1.00" stroke-linecap="butt" stroke-linejoin="miter">
	<g stroke='none' shape-rendering='crispEdges'>
		<polygon fill = 'rgb( 31, 120, 180)' fill-opacity = '0.250000' points = '1038.5,85.6 1080.7,85.6 1080.7,76.6 1038.5,76.6 '/>
		<polygon fill = 'rgb( 31, 120, 180)' fill-opacity = '0.250000' points = '151.2,594.1 153.1,593.0 155.0,591.9 156.9,590.8 158.8,589.7 160.7,588.5 162.6,587.4 164.5,586.2 166.4,585.0 168.3,583.8 170.2,582.5 172.1,581.3 174.0,580.0 175.9,578.7 177.8,577.4 179.7,576.1
181.6,574.8 183.5,573.4 185.4,572.0 187.3,570.7 189.3,569.3 191.2,567.9 193.1,566.5 195.0,565.1 196.9,563.7 198.8,562.2 200.7,560.8 202.6,559.4 204.5,557.9 206.4,556.5 208.3,555.1 210.2,553.6
212.1,552.1 214.0,550.6 215.9,549.2 217.8,547.6 219.7,546.1 221.6,544.6 223.5,543.0 225.4,541.4 227.3,539.9 229.2,538.2 231.1,536.6 233.0,535.0 234.9,533.3 236.8,531.6 238.8,529.9 240.7,528.2
242.6,526.5 244.5,524.8 246.4,523.0 248.3,521.3 250.2,519.5 252.1,517.7 254.0,515.9 255.9,514.1 257.8,512.3 259.7,510.4 261.6,508.5 263.5,506.6 265.4,504.6 267.3,502.7 269.2,500.7 271.1,498.6
273.0,496.6 274.9,494.4 276.8,492.3 278.7,490.1 280.6,488.0 282.5,485.7 284.4,483.5 286.3,481.2 288.2,478.9 290.2,476.6 292.1,474.3 294.0,472.0 295.9,469.6 297.8,467.3 299.7,464.9 301.6,462.5
303.5,460.1 305.4,457.7 307.3,455.3 309.2,452.8 311.1,450.3 313.0,447.9 314.9,445.3 316.8,442.8 318.7,440.2 320.6,437.6 322.5,435.0 324.4,432.3 326.3,429.6 328.2,426.9 330.1,424.2 332.0,421.5
333.9,418.7 335.8,416.0 337.7,413.2 339.7,410.4 341.6,407.7 343.5,404.9 345.4,402.2 347.3,399.5 349.2,396.7 351.1,394.0 353.0,391.3 354.9,388.6 356.8,385.9 358.7,383.3 360.6,380.6 362.5,377.9
364.4,375.2 366.3,372.5 368.2,369.9 370.1,367.2 372.0,364.5 373.9,361.8 375.8,359.1 377.7,356.5 379.6,353.8 381.5,351.1 383.4,348.5 385.3,345.9 387.2,343.3 389.2,340.7 391.1,338.1 393.0,335.5
394.9,333.0 396.8,330.5 398.7,328.0 400.6,325.5 402.5,323.0 404.4,320.5 406.3,318.1 408.2,315.6 410.1,313.1 412.0,310.6 413.9,308.1 415.8,305.6 417.7,303.0 419.6,300.4 421.5,297.8 423.4,295.2
425.3,292.5 427.2,289.8 429.1,287.1 431.0,284.4 432.9,281.6 434.8,278.9 436.7,276.1 438.7,273.3 440.6,270.5 442.5,267.7 444.4,264.9 446.3,262.2 448.2,259.4 450.1,256.7 452.0,254.0 453.9,251.4
455.8,248.7 457.7,246.1 459.6,243.5 461.5,241.0 463.4,238.5 465.3,236.0 467.2,233.5 469.1,231.0 471.0,228.6 472.9,226.1 474.8,223.7 476.7,221.3 478.6,218.9 480.5,216.5 482.4,214.1 484.3,211.7
486.2,209.3 488.1,206.9 490.1,204.6 492.0,202.2 493.9,199.8 495.8,197.4 497.7,195.1 499.6,192.7 501.5,190.3 503.4,188.0 505.3,185.7 507.2,183.3 509.1,181.0 511.0,178.7 512.9,176.4 514.8,174.2
516.7,171.9 518.6,169.7 520.5,167.5 522.4,165.3 524.3,163.2 526.2,161.1 528.1,159.0 530.0,157.0 531.9,155.1 533.8,153.2 535.7,151.4 537.6,149.7 539.6,148.0 541.5,146.4 543.4,144.9 545.3,143.4
547.2,142.1 549.1,140.8 551.0,139.6 552.9,138.5 554.8,137.4 556.7,136.4 558.6,135.5 560.5,134.6 562.4,133.8 564.3,133.0 566.2,132.2 568.1,131.4 570.0,130.7 571.9,130.0 573.8,129.2 575.7,128.5
577.6,127.8 579.5,127.0 581.4,126.3 583.3,125.5 585.2,124.8 587.1,124.0 589.1,123.3 591.0,122.5 592.9,121.7 594.8,121.0 596.7,120.3 598.6,119.6 600.5,118.9 602.4,118.3 604.3,117.7 606.2,117.1
608.1,116.6 610.0,116.2 611.9,115.8 613.8,115.5 615.7,115.3 617.6,115.2 619.5,115.2 621.4,115.2 623.3,115.4 625.2,115.6 627.1,116.0 629.0,116.5 630.9,117.0 632.8,117.7 634.7,118.5 636.6,119.4
638.5,120.3 640.5,121.4 642.4,122.5 644.3,123.7 646.2,125.0 648.1,126.4 650.0,127.8 651.9,129.2 653.8,130.7 655.7,132.2 657.6,133.8 659.5,135.3 661.4,136.9 663.3,138.5 665.2,140.1 667.1,141.7
669.0,143.4 670.9,145.0 672.8,146.6 674.7,148.3 676.6,149.9 678.5,151.6 680.4,153.3 682.3,155.0 684.2,156.7 686.1,158.4 688.0,160.1 690.0,161.9 691.9,163.6 693.8,165.4 695.7,167.2 697.6,169.1
699.5,170.9 701.4,172.8 703.3,174.7 705.2,176.7 707.1,178.6 709.0,180.6 710.9,182.7 712.8,184.8 714.7,186.9 716.6,189.1 718.5,191.3 720.4,193.6 722.3,195.9 724.2,198.3 726.1,200.7 728.0,203.2
729.9,205.8 731.8,208.4 733.7,211.1 735.6,213.8 737.5,216.6 739.5,219.4 741.4,222.3 743.3,225.2 745.2,228.1 747.1,231.1 749.0,234.1 750.9,237.1 752.8,240.2 754.7,243.3 756.6,246.4 758.5,249.5
760.4,252.7 762.3,255.9 764.2,259.1 766.1,262.3 768.0,265.6 769.9,269.0 771.8,272.4 773.7,275.9 775.6,279.4 777.5,282.9 779.4,286.6 781.3,290.3 783.2,294.0 785.1,297.8 787.0,301.7 789.0,305.6
790.9,309.6 792.8,313.6 794.7,317.6 796.6,321.6 798.5,325.7 800.4,329.8 802.3,333.8 804.2,337.9 806.1,341.9 808.0,345.9 809.9,349.9 811.8,353.8 813.7,357.7 815.6,361.5 817.5,365.3 819.4,369.0
821.3,372.7 823.2,376.4 825.1,380.0 827.0,383.6 828.9,387.1 830.8,390.6 832.7,394.1 834.6,397.6 836.5,401.0 838.4,404.4 840.4,407.8 842.3,411.2 844.2,414.6 846.1,418.0 848.0,421.4 849.9,424.7
851.8,428.1 853.7,431.4 855.6,434.8 857.5,438.1 859.4,441.4 861.3,444.7 863.2,448.0 865.1,451.3 867.0,454.6 868.9,457.8 870.8,461.1 872.7,464.3 874.6,467.5 876.5,470.8 878.4,474.0 880.3,477.2
882.2,480.3 884.1,483.5 886.0,486.7 887.9,489.8 889.9,492.9 891.8,496.1 893.7,499.2 895.6,502.3 897.5,505.3 899.4,508.4 901.3,511.4 903.2,514.3 905.1,517.3 907.0,520.2 908.9,523.1 910.8,526.0
912.7,528.8 914.6,531.6 916.5,534.3 918.4,537.0 920.3,539.7 922.2,542.4 924.1,545.0 924.1,662.4 922.2,662.4 920.3,662.4 918.4,662.4 916.5,662.4 914.6,662.4 912.7,662.4 910.8,662.4 908.9,662.4
907.0,662.4 905.1,662.4 903.2,662.4 901.3,662.4 899.4,662.4 897.5,662.4 895.6,662.4 893.7,662.4 891.8,662.4 889.9,662.4 887.9,662.4 886.0,662.4 884.1,662.4 882.2,662.4 880.3,662.4 878.4,662.4
876.5,662.4 874.6,662.4 872.7,662.4 870.8,662.4 868.9,662.4 867.0,662.4 865.1,662.4 863.2,662.4 861.3,662.4 859.4,662.4 857.5,662.4 855.6,662.4 853.7,662.4 851.8,662.4 849.9,662.4 848.0,662.4
846.1,662.4 844.2,662.4 842.3,662.4 840.4,662.4 838.4,662.4 836.5,662.4 834.6,662.4 832.7,662.4 830.8,662.4 828.9,662.4 827.0,662.4 825.1,662.4 823.2,662.4 821.3,662.4 819.4,662.4 817.5,662.4
815.6,662.4 813.7,662.4 811.8,662.4 809.9,662.4 808.0,662.4 806.1,662.4 804.2,662.4 802.3,662.4 800.4,662.4 798.5,662.4 796.6,662.4 794.7,662.4 792.8,662.4 790.9,662.4 789.0,662.4 787.0,662.4
785.1,662.4 783.2,662.4 781.3,662.4 779.4,662.4 777.5,662.4 775.6,662.4 773.7,662.4 771.8,662.4 769.9,662.4 768.0,662.4 766.1,662.4 764.2,662.4 762.3,662.4 760.4,662.4 758.5,662.4 756.6,662.4
754.7,662.4 752.8,662.4 750.9,662.4 749.0,662.4 747.1,662.4 745.2,662.4 743.3,662.4 741.4,662.4 739.5,662.4 737.5,662.4 735.6,662.4 733.7,662.4 731.8,662.4 729.9,662.4 728.0,662.4 726.1,662.4
724.2,662.4 722.3,662.4 720.4,662.4 718.5,662.4 716.6,662.4 714.7,662.4 712.8,662.4 710.9,662.4 709.0,662.4 707.1,662.4 705.2,662.4 703.3,662.4 701.4,662.4 699.5,662.4 697.6,662.4 695.7,662.4
693.8,662.4 691.9,662.4 690.0,662.4 688.0,662.4 686.1,662.4 684.2,662.4 682.3,662.4 680.4,662.4 678.5,662.4 676.6,662.4 674.7,662.4 672.8,662.4 670.9,662.4 669.0,662.4 667.1,662.4 665.2,662.4
663.3,662.4 661.4,662.4 659.5,662.4 657.6,662.4 655.7,662.4 653.8,662.4 651.9,662.4 650.0,662.4 648.1,662.4 646.2,662.4 644.3,662.4 642.4,662.4 640.5,662.4 638.5,662.4 636.6,662.4 634.7,662.4
632.8,662.4 630.9,662.4 629.0,662.4 627.1,662.4 625.2,662.4 623.3,662.4 621.4,662.4 619.5,662.4 617.6,662.4 615.7,662.4 613.8,662.4 611.9,662.4 610.0,662.4 608.1,662.4 606.2,662.4 604.3,662.4
602.4,662.4 600.5,662.4 598.6,662.4 596.7,662.4 594.8,662.4 592.9,662.4 591.0,662.4 589.1,662.4 587.1,662.4 585.2,662.4 583.3,662.4 581.4,662.4 579.5,662.4 577.6,662.4 575.7,662.4 573.8,662.4
571.9,662.4 570.0,662.4 568.1,662.4 566.2,662.4 564.3,662.4 562.4,662.4 560.5,662.4 558.6,662.4 556.7,662.4 554.8,662.4 552.9,662.4 551.0,662.4 549.1,662.4 547.2,662.4 545.3,662.4 543.4,662.4
541.5,662.4 539.6,662.4 537.6,662.4 535.7,662.4 533.8,662.4 531.9,662.4 530.0,662.4 528.1,662.4 526.2,662.4 524.3,662.4 522.4,662.4 520.5,662.4 518.6,662.4 516.7,662.4 514.8,662.4 512.9,662.4
511.0,662.4 509.1,662.4 507.2,662.4 505.3,662.4 503.4,662.4 501.5,662.4 499.6,662.4 497.7,662.4 495.8,662.4 493.9,662.4 492.0,662.4 490.1,662.4 488.1,662.4 486.2,662.4 484.3,662.4 482.4,662.4
480.5,662.4 478.6,662.4 476.7,662.4 474.8,662.4 472.9,662.4 471.0,662.4 469.1,662.4 467.2,662.4 465.3,662.4 463.4,662.4 461.5,662.4 459.6,662.4 457.7,662.4 455.8,662.4 453.9,662.4 452.0,662.4
450.1,662.4 448.2,662.4 446.3,662.4 444.4,662.4 442.5,662.4 440.6,662.4 438.7,662.4 436.7,662.4 434.8,662.4 432.9,662.4 431.0,662.4 429.1,662.4 427.2,662.4 425.3,662.4 423.4,662.4 421.5,662.4
419.6,662.4 417.7,662.4 415.8,662.4 413.9,662.4 412.0,662.4 410.1,662.4 408.2,662.4 406.3,662.4 404.4,662.4 402.5,662.4 400.6,662.4 398.7,662.4 396.8,662.4 394.9,662.4 393.0,662.4 391.1,662.4
389.2,662.4 387.2,662.4 385.3,662.4 383.4,662.4 381.5,662.4 379.6,662.4 377.7,662.4 375.8,662.4 373.9,662.4 372.0,662.4 370.1,662.4 368.2,662.4 366.3,662.4 364.4,662.4 362.5,662.4 360.6,662.4
358.7,662.4 356.8,662.4 354.9,662.4 353.0,662.4 351.1,662.4 349.2,662.4 347.3,662.4 345.4,662.4 343.5,662.4 341.6,662.4 339.7,662.4 337.7,662.4 335.8,662.4 333.9,662.4 332.0,662.4 330.1,662.4
328.2,662.4 326.3,662.4 324.4,662.4 322.5,662.4 320.6,662.4 318.7,662.4 316.8,662.4 314.9,662.4 313.0,662.4 311.1,662.4 309.2,662.4 307.3,662.4 305.4,662.4 303.5,662.4 301.6,662.4 299.7,662.4
297.8,662.4 295.9,662.4 294.0,662.4 292.1,662.4 290.2,662.4 288.2,662.4 286.3,662.4 284.4,662.4 282.5,662.4 280.6,662.4 278.7,662.4 276.8,662.4 274.9,662.4 273.0,662.4 271.1,662.4 269.2,662.4
267.3,662.4 265.4,662.4 263.5,662.4 261.6,662.4 259.7,662.4 257.8,662.4 255.9,662.4 254.0,662.4 252.1,662.4 250.2,662.4 248.3,662.4 246.4,662.4 244.5,662.4 242.6,662.4 240.7,662.4 238.8,662.4
236.8,662.4 234.9,662.4 233.0,662.4 231.1,662.4 229.2,662.4 227.3,662.4 225.4,662.4 223.5,662.4 221.6,662.4 219.7,662.4 217.8,662.4 215.9,662.4 214.0,662.4 212.1,662.4 210.2,662.4 208.3,662.4
206.4,662.4 204.5,662.4 202.6,662.4 200.7,662.4 198.8,662.4 196.9,662.4 195.0,662.4 193.1,662.4 191.2,662.4 189.3,662.4 187.3,662.4 185.4,662.4 183.5,662.4 181.6,662.4 179.7,662.4 177.8,662.4
175.9,662.4 174.0,662.4 172.1,662.4 170.2,662.4 168.3,662.4 166.4,662.4 164.5,662.4 162.6,662.4 160.7,662.4 158.8,662.4 156.9,662.4 155.0,662.4 153.1,662.4 151.2,662.4 '/>
	</g>
</g>
	</g>
	<g id="gnuplot_plot_3" ><title>Point estimate</title>
<g fill="none" color="white" stroke="rgb( 31, 120, 180)" stroke-width="2.00" stroke-linecap="butt" stroke-linejoin="miter">
</g>
<g fill="none" color="black" stroke="currentColor" stroke-width="2.00" stroke-linecap="butt" stroke-linejoin="miter">
	<g transform="translate(1089.0,103.0)" stroke="none" fill="black" font-family="Helvetica" font-size="12.00"  text-anchor="start">
		<text><tspan font-family="Helvetica" >Point estimate</tspan></text>
	</g>
</g>
<g fill="none" color="black" stroke="currentColor" stroke-width="2.00" stroke-linecap="butt" stroke-linejoin="miter">
	<path stroke='rgb( 31, 120, 180)'  d='M1038.5,99.1 L1080.7,99.1 M574.0,662.4 L574.0,129.2  '/></g>
	</g>
	<g id="gnuplot_plot_4" ><title>Noise threshold</title>
<g fill="none" color="white" stroke="rgb( 31, 120, 180)" stroke-width="1.00" stroke-linecap="butt" stroke-linejoin="miter">
</g>
<g fill="none" color="black" stroke="currentColor" stroke-width="1.00" stroke-linecap="butt" stroke-linejoin="miter">
	<g transform="translate(1089.0,121.0)" stroke="none" fill="black" font-family="Helvetica" font-size="12.00"  text-anchor="start">
		<text><tspan font-family="Helvetica" >Noise threshold</tspan></text>
	</g>
</g>
<g fill="none" color="black" stroke="currentColor" stroke-width="1.00" stroke-linecap="butt" stroke-linejoin="miter">
	<g stroke='none' shape-rendering='crispEdges'>
		<polygon fill = 'rgb(227,  26,  28)' fill-opacity = '0.100000' points = '1038.5,121.6 1080.7,121.6 1080.7,112.6 1038.5,112.6 '/>
		<polygon fill = 'rgb(227,  26,  28)' fill-opacity = '0.100000' points = '538.6,54.1 538.6,54.1 538.6,662.4 538.6,662.4 '/>
	</g>
</g>
	</g>
<g fill="none" color="white" stroke="rgb(227,  26,  28)" stroke-width="2.00" stroke-linecap="butt" stroke-linejoin="miter">
</g>
<g fill="none" color="black" stroke="currentColor" stroke-width="2.00" stroke-linecap="butt" stroke-linejoin="miter">
</g>
<g fill="none" color="black" stroke="black" stroke-width="1.00" stroke-linecap="butt" stroke-linejoin="miter">
</g>
<g fill="none" color="black" stroke="currentColor" stroke-width="1.00" stroke-linecap="butt" stroke-linejoin="miter">
	<path stroke='black'  d='M63.6,54.1 L63.6,662.4 L1013.6,662.4 L1013.6,54.1 L63.6,54.1 Z  '/></g>
<g fill="none" color="black" stroke="currentColor" stroke-width="1.00" stroke-linecap="butt" stroke-linejoin="miter">
</g>
</g>
</svg>

