group,function,value,throughput_num,throughput_type,sample_measured_value,unit,iteration_count
snapshot_restore_with_dense,Dense: Entire region + process_vm_writev w/ page size,10,,,1032558.0,ns,31
snapshot_restore_with_dense,Dense: Entire region + process_vm_writev w/ page size,10,,,1964306.0,ns,62
snapshot_restore_with_dense,Dense: Entire region + process_vm_writev w/ page size,10,,,2970300.0,ns,93
snapshot_restore_with_dense,Dense: Entire region + process_vm_writev w/ page size,10,,,4002904.0,ns,124
snapshot_restore_with_dense,Dense: Entire region + process_vm_writev w/ page size,10,,,5036549.0,ns,155
snapshot_restore_with_dense,Dense: Entire region + process_vm_writev w/ page size,10,,,5934088.0,ns,186
snapshot_restore_with_dense,Dense: Entire region + process_vm_writev w/ page size,10,,,7864243.0,ns,217
snapshot_restore_with_dense,Dense: Entire region + process_vm_writev w/ page size,10,,,12632722.0,ns,248
snapshot_restore_with_dense,Dense: Entire region + process_vm_writev w/ page size,10,,,9263002.0,ns,279
snapshot_restore_with_dense,Dense: Entire region + process_vm_writev w/ page size,10,,,10037949.0,ns,310
snapshot_restore_with_dense,Dense: Entire region + process_vm_writev w/ page size,10,,,10880348.0,ns,341
snapshot_restore_with_dense,Dense: Entire region + process_vm_writev w/ page size,10,,,11819371.0,ns,372
snapshot_restore_with_dense,Dense: Entire region + process_vm_writev w/ page size,10,,,12817668.0,ns,403
snapshot_restore_with_dense,Dense: Entire region + process_vm_writev w/ page size,10,,,13801627.0,ns,434
snapshot_restore_with_dense,Dense: Entire region + process_vm_writev w/ page size,10,,,14782070.0,ns,465
snapshot_restore_with_dense,Dense: Entire region + process_vm_writev w/ page size,10,,,15771085.0,ns,496
snapshot_restore_with_dense,Dense: Entire region + process_vm_writev w/ page size,10,,,16698795.0,ns,527
snapshot_restore_with_dense,Dense: Entire region + process_vm_writev w/ page size,10,,,17765539.0,ns,558
snapshot_restore_with_dense,Dense: Entire region + process_vm_writev w/ page size,10,,,18684363.0,ns,589
snapshot_restore_with_dense,Dense: Entire region + process_vm_writev w/ page size,10,,,19663558.0,ns,620
snapshot_restore_with_dense,Dense: Entire region + process_vm_writev w/ page size,10,,,20636107.0,ns,651
snapshot_restore_with_dense,Dense: Entire region + process_vm_writev w/ page size,10,,,21637091.0,ns,682
snapshot_restore_with_dense,Dense: Entire region + process_vm_writev w/ page size,10,,,22663662.0,ns,713
snapshot_restore_with_dense,Dense: Entire region + process_vm_writev w/ page size,10,,,23594011.0,ns,744
snapshot_restore_with_dense,Dense: Entire region + process_vm_writev w/ page size,10,,,24557522.0,ns,775
snapshot_restore_with_dense,Dense: Entire region + process_vm_writev w/ page size,10,,,25549144.0,ns,806
snapshot_restore_with_dense,Dense: Entire region + process_vm_writev w/ page size,10,,,26609273.0,ns,837
snapshot_restore_with_dense,Dense: Entire region + process_vm_writev w/ page size,10,,,27558226.0,ns,868
snapshot_restore_with_dense,Dense: Entire region + process_vm_writev w/ page size,10,,,28503047.0,ns,899
snapshot_restore_with_dense,Dense: Entire region + process_vm_writev w/ page size,10,,,29492825.0,ns,930
snapshot_restore_with_dense,Dense: Entire region + process_vm_writev w/ page size,10,,,30564506.0,ns,961
snapshot_restore_with_dense,Dense: Entire region + process_vm_writev w/ page size,10,,,31472950.0,ns,992
snapshot_restore_with_dense,Dense: Entire region + process_vm_writev w/ page size,10,,,32474737.0,ns,1023
snapshot_restore_with_dense,Dense: Entire region + process_vm_writev w/ page size,10,,,33495855.0,ns,1054
snapshot_restore_with_dense,Dense: Entire region + process_vm_writev w/ page size,10,,,34392898.0,ns,1085
snapshot_restore_with_dense,Dense: Entire region + process_vm_writev w/ page size,10,,,35468968.0,ns,1116
snapshot_restore_with_dense,Dense: Entire region + process_vm_writev w/ page size,10,,,36549643.0,ns,1147
snapshot_restore_with_dense,Dense: Entire region + process_vm_writev w/ page size,10,,,37395133.0,ns,1178
snapshot_restore_with_dense,Dense: Entire region + process_vm_writev w/ page size,10,,,38539383.0,ns,1209
snapshot_restore_with_dense,Dense: Entire region + process_vm_writev w/ page size,10,,,39404507.0,ns,1240
snapshot_restore_with_dense,Dense: Entire region + process_vm_writev w/ page size,10,,,40338541.0,ns,1271
snapshot_restore_with_dense,Dense: Entire region + process_vm_writev w/ page size,10,,,41404925.0,ns,1302
snapshot_restore_with_dense,Dense: Entire region + process_vm_writev w/ page size,10,,,42378692.0,ns,1333
snapshot_restore_with_dense,Dense: Entire region + process_vm_writev w/ page size,10,,,43459251.0,ns,1364
snapshot_restore_with_dense,Dense: Entire region + process_vm_writev w/ page size,10,,,44439354.0,ns,1395
snapshot_restore_with_dense,Dense: Entire region + process_vm_writev w/ page size,10,,,45291010.0,ns,1426
snapshot_restore_with_dense,Dense: Entire region + process_vm_writev w/ page size,10,,,46301371.0,ns,1457
snapshot_restore_with_dense,Dense: Entire region + process_vm_writev w/ page size,10,,,47202836.0,ns,1488
snapshot_restore_with_dense,Dense: Entire region + process_vm_writev w/ page size,10,,,48313708.0,ns,1519
snapshot_restore_with_dense,Dense: Entire region + process_vm_writev w/ page size,10,,,49196472.0,ns,1550
snapshot_restore_with_dense,Dense: Entire region + process_vm_writev w/ page size,10,,,50209533.0,ns,1581
snapshot_restore_with_dense,Dense: Entire region + process_vm_writev w/ page size,10,,,51118906.0,ns,1612
snapshot_restore_with_dense,Dense: Entire region + process_vm_writev w/ page size,10,,,52182167.0,ns,1643
snapshot_restore_with_dense,Dense: Entire region + process_vm_writev w/ page size,10,,,53183544.0,ns,1674
snapshot_restore_with_dense,Dense: Entire region + process_vm_writev w/ page size,10,,,54157543.0,ns,1705
snapshot_restore_with_dense,Dense: Entire region + process_vm_writev w/ page size,10,,,55076088.0,ns,1736
snapshot_restore_with_dense,Dense: Entire region + process_vm_writev w/ page size,10,,,56130184.0,ns,1767
snapshot_restore_with_dense,Dense: Entire region + process_vm_writev w/ page size,10,,,57028210.0,ns,1798
snapshot_restore_with_dense,Dense: Entire region + process_vm_writev w/ page size,10,,,58409779.0,ns,1829
snapshot_restore_with_dense,Dense: Entire region + process_vm_writev w/ page size,10,,,59147270.0,ns,1860
snapshot_restore_with_dense,Dense: Entire region + process_vm_writev w/ page size,10,,,60023640.0,ns,1891
snapshot_restore_with_dense,Dense: Entire region + process_vm_writev w/ page size,10,,,61008565.0,ns,1922
snapshot_restore_with_dense,Dense: Entire region + process_vm_writev w/ page size,10,,,62102657.0,ns,1953
snapshot_restore_with_dense,Dense: Entire region + process_vm_writev w/ page size,10,,,63039846.0,ns,1984
snapshot_restore_with_dense,Dense: Entire region + process_vm_writev w/ page size,10,,,64140474.0,ns,2015
snapshot_restore_with_dense,Dense: Entire region + process_vm_writev w/ page size,10,,,64844373.0,ns,2046
snapshot_restore_with_dense,Dense: Entire region + process_vm_writev w/ page size,10,,,66017220.0,ns,2077
snapshot_restore_with_dense,Dense: Entire region + process_vm_writev w/ page size,10,,,66891992.0,ns,2108
snapshot_restore_with_dense,Dense: Entire region + process_vm_writev w/ page size,10,,,67873970.0,ns,2139
snapshot_restore_with_dense,Dense: Entire region + process_vm_writev w/ page size,10,,,68880195.0,ns,2170
snapshot_restore_with_dense,Dense: Entire region + process_vm_writev w/ page size,10,,,69853094.0,ns,2201
snapshot_restore_with_dense,Dense: Entire region + process_vm_writev w/ page size,10,,,70791487.0,ns,2232
snapshot_restore_with_dense,Dense: Entire region + process_vm_writev w/ page size,10,,,71833505.0,ns,2263
snapshot_restore_with_dense,Dense: Entire region + process_vm_writev w/ page size,10,,,72836592.0,ns,2294
snapshot_restore_with_dense,Dense: Entire region + process_vm_writev w/ page size,10,,,73809774.0,ns,2325
snapshot_restore_with_dense,Dense: Entire region + process_vm_writev w/ page size,10,,,74764759.0,ns,2356
snapshot_restore_with_dense,Dense: Entire region + process_vm_writev w/ page size,10,,,75823913.0,ns,2387
snapshot_restore_with_dense,Dense: Entire region + process_vm_writev w/ page size,10,,,76777413.0,ns,2418
snapshot_restore_with_dense,Dense: Entire region + process_vm_writev w/ page size,10,,,77671426.0,ns,2449
snapshot_restore_with_dense,Dense: Entire region + process_vm_writev w/ page size,10,,,78725628.0,ns,2480
snapshot_restore_with_dense,Dense: Entire region + process_vm_writev w/ page size,10,,,79635925.0,ns,2511
snapshot_restore_with_dense,Dense: Entire region + process_vm_writev w/ page size,10,,,80688574.0,ns,2542
snapshot_restore_with_dense,Dense: Entire region + process_vm_writev w/ page size,10,,,81652287.0,ns,2573
snapshot_restore_with_dense,Dense: Entire region + process_vm_writev w/ page size,10,,,82767438.0,ns,2604
snapshot_restore_with_dense,Dense: Entire region + process_vm_writev w/ page size,10,,,83608620.0,ns,2635
snapshot_restore_with_dense,Dense: Entire region + process_vm_writev w/ page size,10,,,84607864.0,ns,2666
snapshot_restore_with_dense,Dense: Entire region + process_vm_writev w/ page size,10,,,85820564.0,ns,2697
snapshot_restore_with_dense,Dense: Entire region + process_vm_writev w/ page size,10,,,86592921.0,ns,2728
snapshot_restore_with_dense,Dense: Entire region + process_vm_writev w/ page size,10,,,87588958.0,ns,2759
snapshot_restore_with_dense,Dense: Entire region + process_vm_writev w/ page size,10,,,88587580.0,ns,2790
snapshot_restore_with_dense,Dense: Entire region + process_vm_writev w/ page size,10,,,89606634.0,ns,2821
snapshot_restore_with_dense,Dense: Entire region + process_vm_writev w/ page size,10,,,90474595.0,ns,2852
snapshot_restore_with_dense,Dense: Entire region + process_vm_writev w/ page size,10,,,91472088.0,ns,2883
snapshot_restore_with_dense,Dense: Entire region + process_vm_writev w/ page size,10,,,92465156.0,ns,2914
snapshot_restore_with_dense,Dense: Entire region + process_vm_writev w/ page size,10,,,93510084.0,ns,2945
snapshot_restore_with_dense,Dense: Entire region + process_vm_writev w/ page size,10,,,94477025.0,ns,2976
snapshot_restore_with_dense,Dense: Entire region + process_vm_writev w/ page size,10,,,95648705.0,ns,3007
snapshot_restore_with_dense,Dense: Entire region + process_vm_writev w/ page size,10,,,96693702.0,ns,3038
snapshot_restore_with_dense,Dense: Entire region + process_vm_writev w/ page size,10,,,97414840.0,ns,3069
snapshot_restore_with_dense,Dense: Entire region + process_vm_writev w/ page size,10,,,98508389.0,ns,3100
