group,function,value,throughput_num,throughput_type,sample_measured_value,unit,iteration_count
perf,instruction_counter,,,,1289416.0,ns,3
perf,instruction_counter,,,,2546542.0,ns,6
perf,instruction_counter,,,,3795719.0,ns,9
perf,instruction_counter,,,,5081312.0,ns,12
perf,instruction_counter,,,,6390659.0,ns,15
perf,instruction_counter,,,,7597010.0,ns,18
perf,instruction_counter,,,,8881055.0,ns,21
perf,instruction_counter,,,,10149623.0,ns,24
perf,instruction_counter,,,,11394671.0,ns,27
perf,instruction_counter,,,,12639455.0,ns,30
perf,instruction_counter,,,,13914235.0,ns,33
perf,instruction_counter,,,,15212173.0,ns,36
perf,instruction_counter,,,,16670875.0,ns,39
perf,instruction_counter,,,,22091055.0,ns,42
perf,instruction_counter,,,,18532804.0,ns,45
perf,instruction_counter,,,,19764159.0,ns,48
perf,instruction_counter,,,,21444794.0,ns,51
perf,instruction_counter,,,,22840772.0,ns,54
perf,instruction_counter,,,,24121011.0,ns,57
perf,instruction_counter,,,,25348167.0,ns,60
perf,instruction_counter,,,,26609295.0,ns,63
perf,instruction_counter,,,,27864843.0,ns,66
perf,instruction_counter,,,,29114707.0,ns,69
perf,instruction_counter,,,,30352496.0,ns,72
perf,instruction_counter,,,,31694459.0,ns,75
perf,instruction_counter,,,,37749552.0,ns,78
perf,instruction_counter,,,,33477424.0,ns,81
perf,instruction_counter,,,,39388650.0,ns,84
perf,instruction_counter,,,,36140552.0,ns,87
perf,instruction_counter,,,,37659814.0,ns,90
perf,instruction_counter,,,,68453734.0,ns,93
perf,instruction_counter,,,,40421685.0,ns,96
perf,instruction_counter,,,,41693732.0,ns,99
perf,instruction_counter,,,,43681090.0,ns,102
perf,instruction_counter,,,,47333663.0,ns,105
perf,instruction_counter,,,,45413562.0,ns,108
perf,instruction_counter,,,,46683452.0,ns,111
perf,instruction_counter,,,,47913230.0,ns,114
perf,instruction_counter,,,,49169671.0,ns,117
perf,instruction_counter,,,,50435680.0,ns,120
perf,instruction_counter,,,,51677366.0,ns,123
perf,instruction_counter,,,,52985187.0,ns,126
perf,instruction_counter,,,,54163410.0,ns,129
perf,instruction_counter,,,,55509648.0,ns,132
perf,instruction_counter,,,,56717706.0,ns,135
perf,instruction_counter,,,,58023012.0,ns,138
perf,instruction_counter,,,,59265561.0,ns,141
perf,instruction_counter,,,,60505895.0,ns,144
perf,instruction_counter,,,,61762546.0,ns,147
perf,instruction_counter,,,,96639466.0,ns,150
perf,instruction_counter,,,,64304223.0,ns,153
perf,instruction_counter,,,,64690607.0,ns,156
perf,instruction_counter,,,,65871388.0,ns,159
perf,instruction_counter,,,,66593908.0,ns,162
perf,instruction_counter,,,,68139086.0,ns,165
perf,instruction_counter,,,,69476014.0,ns,168
perf,instruction_counter,,,,70860715.0,ns,171
perf,instruction_counter,,,,72591157.0,ns,174
perf,instruction_counter,,,,74355691.0,ns,177
perf,instruction_counter,,,,75638681.0,ns,180
perf,instruction_counter,,,,76902346.0,ns,183
perf,instruction_counter,,,,77703541.0,ns,186
perf,instruction_counter,,,,78299705.0,ns,189
perf,instruction_counter,,,,105102802.0,ns,192
perf,instruction_counter,,,,85293235.0,ns,195
perf,instruction_counter,,,,83202598.0,ns,198
perf,instruction_counter,,,,84444614.0,ns,201
perf,instruction_counter,,,,84744442.0,ns,204
perf,instruction_counter,,,,86907032.0,ns,207
perf,instruction_counter,,,,87522824.0,ns,210
perf,instruction_counter,,,,88443435.0,ns,213
perf,instruction_counter,,,,89663776.0,ns,216
perf,instruction_counter,,,,90644233.0,ns,219
perf,instruction_counter,,,,91769849.0,ns,222
perf,instruction_counter,,,,93182886.0,ns,225
perf,instruction_counter,,,,136716649.0,ns,228
perf,instruction_counter,,,,97754429.0,ns,231
perf,instruction_counter,,,,98946577.0,ns,234
perf,instruction_counter,,,,100183680.0,ns,237
perf,instruction_counter,,,,101205360.0,ns,240
perf,instruction_counter,,,,102462103.0,ns,243
perf,instruction_counter,,,,103936664.0,ns,246
perf,instruction_counter,,,,105275219.0,ns,249
perf,instruction_counter,,,,106549902.0,ns,252
perf,instruction_counter,,,,107824491.0,ns,255
perf,instruction_counter,,,,108882912.0,ns,258
perf,instruction_counter,,,,110334232.0,ns,261
perf,instruction_counter,,,,111597506.0,ns,264
perf,instruction_counter,,,,112353383.0,ns,267
perf,instruction_counter,,,,113701688.0,ns,270
perf,instruction_counter,,,,114968995.0,ns,273
perf,instruction_counter,,,,116123070.0,ns,276
perf,instruction_counter,,,,117598609.0,ns,279
perf,instruction_counter,,,,119056683.0,ns,282
perf,instruction_counter,,,,149937015.0,ns,285
perf,instruction_counter,,,,121329125.0,ns,288
perf,instruction_counter,,,,122449509.0,ns,291
perf,instruction_counter,,,,123705118.0,ns,294
perf,instruction_counter,,,,125437479.0,ns,297
perf,instruction_counter,,,,126817218.0,ns,300
