<?xml version="1.0" encoding="utf-8"  standalone="no"?>
<svg 
 viewBox="0 0 1280 720"
 xmlns="http://www.w3.org/2000/svg"
 xmlns:xlink="http://www.w3.org/1999/xlink"
>

<title>Gnuplot</title>
<desc>Produced by GNUPLOT 5.2 patchlevel 6 </desc>

<g id="gnuplot_canvas">

<rect x="0" y="0" width="1280" height="720" fill="none"/>
<defs>

	<circle id='gpDot' r='0.5' stroke-width='0.5' stroke='currentColor'/>
	<path id='gpPt0' stroke-width='0.222' stroke='currentColor' d='M-1,0 h2 M0,-1 v2'/>
	<path id='gpPt1' stroke-width='0.222' stroke='currentColor' d='M-1,-1 L1,1 M1,-1 L-1,1'/>
	<path id='gpPt2' stroke-width='0.222' stroke='currentColor' d='M-1,0 L1,0 M0,-1 L0,1 M-1,-1 L1,1 M-1,1 L1,-1'/>
	<rect id='gpPt3' stroke-width='0.222' stroke='currentColor' x='-1' y='-1' width='2' height='2'/>
	<rect id='gpPt4' stroke-width='0.222' stroke='currentColor' fill='currentColor' x='-1' y='-1' width='2' height='2'/>
	<circle id='gpPt5' stroke-width='0.222' stroke='currentColor' cx='0' cy='0' r='1'/>
	<use xlink:href='#gpPt5' id='gpPt6' fill='currentColor' stroke='none'/>
	<path id='gpPt7' stroke-width='0.222' stroke='currentColor' d='M0,-1.33 L-1.33,0.67 L1.33,0.67 z'/>
	<use xlink:href='#gpPt7' id='gpPt8' fill='currentColor' stroke='none'/>
	<use xlink:href='#gpPt7' id='gpPt9' stroke='currentColor' transform='rotate(180)'/>
	<use xlink:href='#gpPt9' id='gpPt10' fill='currentColor' stroke='none'/>
	<use xlink:href='#gpPt3' id='gpPt11' stroke='currentColor' transform='rotate(45)'/>
	<use xlink:href='#gpPt11' id='gpPt12' fill='currentColor' stroke='none'/>
	<path id='gpPt13' stroke-width='0.222' stroke='currentColor' d='M0,1.330 L1.265,0.411 L0.782,-1.067 L-0.782,-1.076 L-1.265,0.411 z'/>
	<use xlink:href='#gpPt13' id='gpPt14' fill='currentColor' stroke='none'/>
	<filter id='textbox' filterUnits='objectBoundingBox' x='0' y='0' height='1' width='1'>
	  <feFlood flood-color='white' flood-opacity='1' result='bgnd'/>
	  <feComposite in='SourceGraphic' in2='bgnd' operator='atop'/>
	</filter>
	<filter id='greybox' filterUnits='objectBoundingBox' x='0' y='0' height='1' width='1'>
	  <feFlood flood-color='lightgrey' flood-opacity='1' result='grey'/>
	  <feComposite in='SourceGraphic' in2='grey' operator='atop'/>
	</filter>
</defs>
<g fill="none" color="white" stroke="currentColor" stroke-width="1.00" stroke-linecap="butt" stroke-linejoin="miter">
</g>
<g fill="none" color="black" stroke="currentColor" stroke-width="1.00" stroke-linecap="butt" stroke-linejoin="miter">
	<path stroke='black'  d='M80.2,662.4 L89.2,662.4  '/>	<g transform="translate(71.9,666.3)" stroke="none" fill="black" font-family="Helvetica" font-size="12.00"  text-anchor="end">
		<text><tspan font-family="Helvetica" > 0</tspan></text>
	</g>
</g>
<g fill="none" color="black" stroke="currentColor" stroke-width="1.00" stroke-linecap="butt" stroke-linejoin="miter">
	<path stroke='black'  d='M80.2,594.8 L89.2,594.8  '/>	<g transform="translate(71.9,598.7)" stroke="none" fill="black" font-family="Helvetica" font-size="12.00"  text-anchor="end">
		<text><tspan font-family="Helvetica" > 0.01</tspan></text>
	</g>
</g>
<g fill="none" color="black" stroke="currentColor" stroke-width="1.00" stroke-linecap="butt" stroke-linejoin="miter">
	<path stroke='black'  d='M80.2,527.2 L89.2,527.2  '/>	<g transform="translate(71.9,531.1)" stroke="none" fill="black" font-family="Helvetica" font-size="12.00"  text-anchor="end">
		<text><tspan font-family="Helvetica" > 0.02</tspan></text>
	</g>
</g>
<g fill="none" color="black" stroke="currentColor" stroke-width="1.00" stroke-linecap="butt" stroke-linejoin="miter">
	<path stroke='black'  d='M80.2,459.6 L89.2,459.6  '/>	<g transform="translate(71.9,463.5)" stroke="none" fill="black" font-family="Helvetica" font-size="12.00"  text-anchor="end">
		<text><tspan font-family="Helvetica" > 0.03</tspan></text>
	</g>
</g>
<g fill="none" color="black" stroke="currentColor" stroke-width="1.00" stroke-linecap="butt" stroke-linejoin="miter">
	<path stroke='black'  d='M80.2,392.0 L89.2,392.0  '/>	<g transform="translate(71.9,395.9)" stroke="none" fill="black" font-family="Helvetica" font-size="12.00"  text-anchor="end">
		<text><tspan font-family="Helvetica" > 0.04</tspan></text>
	</g>
</g>
<g fill="none" color="black" stroke="currentColor" stroke-width="1.00" stroke-linecap="butt" stroke-linejoin="miter">
	<path stroke='black'  d='M80.2,324.5 L89.2,324.5  '/>	<g transform="translate(71.9,328.4)" stroke="none" fill="black" font-family="Helvetica" font-size="12.00"  text-anchor="end">
		<text><tspan font-family="Helvetica" > 0.05</tspan></text>
	</g>
</g>
<g fill="none" color="black" stroke="currentColor" stroke-width="1.00" stroke-linecap="butt" stroke-linejoin="miter">
	<path stroke='black'  d='M80.2,256.9 L89.2,256.9  '/>	<g transform="translate(71.9,260.8)" stroke="none" fill="black" font-family="Helvetica" font-size="12.00"  text-anchor="end">
		<text><tspan font-family="Helvetica" > 0.06</tspan></text>
	</g>
</g>
<g fill="none" color="black" stroke="currentColor" stroke-width="1.00" stroke-linecap="butt" stroke-linejoin="miter">
	<path stroke='black'  d='M80.2,189.3 L89.2,189.3  '/>	<g transform="translate(71.9,193.2)" stroke="none" fill="black" font-family="Helvetica" font-size="12.00"  text-anchor="end">
		<text><tspan font-family="Helvetica" > 0.07</tspan></text>
	</g>
</g>
<g fill="none" color="black" stroke="currentColor" stroke-width="1.00" stroke-linecap="butt" stroke-linejoin="miter">
	<path stroke='black'  d='M80.2,121.7 L89.2,121.7  '/>	<g transform="translate(71.9,125.6)" stroke="none" fill="black" font-family="Helvetica" font-size="12.00"  text-anchor="end">
		<text><tspan font-family="Helvetica" > 0.08</tspan></text>
	</g>
</g>
<g fill="none" color="black" stroke="currentColor" stroke-width="1.00" stroke-linecap="butt" stroke-linejoin="miter">
	<path stroke='black'  d='M80.2,54.1 L89.2,54.1  '/>	<g transform="translate(71.9,58.0)" stroke="none" fill="black" font-family="Helvetica" font-size="12.00"  text-anchor="end">
		<text><tspan font-family="Helvetica" > 0.09</tspan></text>
	</g>
</g>
<g fill="none" color="black" stroke="currentColor" stroke-width="1.00" stroke-linecap="butt" stroke-linejoin="miter">
	<path stroke='black'  d='M206.6,662.4 L206.6,653.4  '/>	<g transform="translate(206.6,684.3)" stroke="none" fill="black" font-family="Helvetica" font-size="12.00"  text-anchor="middle">
		<text><tspan font-family="Helvetica" > 440</tspan></text>
	</g>
</g>
<g fill="none" color="black" stroke="currentColor" stroke-width="1.00" stroke-linecap="butt" stroke-linejoin="miter">
	<path stroke='black'  d='M419.4,662.4 L419.4,653.4  '/>	<g transform="translate(419.4,684.3)" stroke="none" fill="black" font-family="Helvetica" font-size="12.00"  text-anchor="middle">
		<text><tspan font-family="Helvetica" > 445</tspan></text>
	</g>
</g>
<g fill="none" color="black" stroke="currentColor" stroke-width="1.00" stroke-linecap="butt" stroke-linejoin="miter">
	<path stroke='black'  d='M632.2,662.4 L632.2,653.4  '/>	<g transform="translate(632.2,684.3)" stroke="none" fill="black" font-family="Helvetica" font-size="12.00"  text-anchor="middle">
		<text><tspan font-family="Helvetica" > 450</tspan></text>
	</g>
</g>
<g fill="none" color="black" stroke="currentColor" stroke-width="1.00" stroke-linecap="butt" stroke-linejoin="miter">
	<path stroke='black'  d='M845.0,662.4 L845.0,653.4  '/>	<g transform="translate(845.0,684.3)" stroke="none" fill="black" font-family="Helvetica" font-size="12.00"  text-anchor="middle">
		<text><tspan font-family="Helvetica" > 455</tspan></text>
	</g>
</g>
<g fill="none" color="black" stroke="currentColor" stroke-width="1.00" stroke-linecap="butt" stroke-linejoin="miter">
</g>
<g fill="none" color="black" stroke="currentColor" stroke-width="1.00" stroke-linecap="butt" stroke-linejoin="miter">
	<path stroke='black'  d='M80.2,54.1 L80.2,662.4 L1013.6,662.4 L1013.6,54.1 L80.2,54.1 Z  '/></g>
<g fill="none" color="black" stroke="currentColor" stroke-width="1.00" stroke-linecap="butt" stroke-linejoin="miter">
	<g transform="translate(16.3,358.3) rotate(270)" stroke="none" fill="black" font-family="Helvetica" font-size="12.00"  text-anchor="middle">
		<text><tspan font-family="Helvetica" >Density (a.u.)</tspan></text>
	</g>
</g>
<g fill="none" color="black" stroke="currentColor" stroke-width="1.00" stroke-linecap="butt" stroke-linejoin="miter">
	<g transform="translate(546.9,711.3)" stroke="none" fill="black" font-family="Helvetica" font-size="12.00"  text-anchor="middle">
		<text><tspan font-family="Helvetica" >Average time (us)</tspan></text>
	</g>
</g>
<g fill="none" color="black" stroke="currentColor" stroke-width="1.00" stroke-linecap="butt" stroke-linejoin="miter">
	<g transform="translate(546.9,31.0)" stroke="none" fill="black" font-family="Helvetica" font-size="12.00"  text-anchor="middle">
		<text><tspan font-family="Helvetica" >perf/instruction_and_branch_counters: mean</tspan></text>
	</g>
</g>
	<g id="gnuplot_plot_1" ><title>Bootstrap distribution</title>
<g fill="none" color="white" stroke="black" stroke-width="2.00" stroke-linecap="butt" stroke-linejoin="miter">
</g>
<g fill="none" color="black" stroke="currentColor" stroke-width="2.00" stroke-linecap="butt" stroke-linejoin="miter">
	<g transform="translate(1089.0,67.0)" stroke="none" fill="black" font-family="Helvetica" font-size="12.00"  text-anchor="start">
		<text><tspan font-family="Helvetica" >Bootstrap distribution</tspan></text>
	</g>
</g>
<g fill="none" color="black" stroke="currentColor" stroke-width="2.00" stroke-linecap="butt" stroke-linejoin="miter">
	<path stroke='rgb( 31, 120, 180)'  d='M1038.5,63.1 L1080.7,63.1 M80.2,631.6 L82.1,629.8 L83.9,628.0 L85.8,626.1 L87.7,624.2 L89.6,622.3
		L91.4,620.3 L93.3,618.2 L95.2,616.2 L97.0,614.1 L98.9,612.0 L100.8,609.8 L102.6,607.6 L104.5,605.5
		L106.4,603.2 L108.3,601.0 L110.1,598.8 L112.0,596.5 L113.9,594.3 L115.7,592.0 L117.6,589.7 L119.5,587.4
		L121.4,585.1 L123.2,582.8 L125.1,580.5 L127.0,578.2 L128.8,575.8 L130.7,573.5 L132.6,571.1 L134.4,568.7
		L136.3,566.3 L138.2,563.9 L140.1,561.4 L141.9,558.9 L143.8,556.4 L145.7,553.8 L147.5,551.1 L149.4,548.4
		L151.3,545.7 L153.2,542.9 L155.0,540.0 L156.9,537.0 L158.8,534.0 L160.6,530.9 L162.5,527.7 L164.4,524.4
		L166.2,521.0 L168.1,517.5 L170.0,514.0 L171.9,510.4 L173.7,506.7 L175.6,502.9 L177.5,499.0 L179.3,495.1
		L181.2,491.1 L183.1,487.0 L185.0,482.9 L186.8,478.7 L188.7,474.5 L190.6,470.2 L192.4,465.9 L194.3,461.6
		L196.2,457.2 L198.0,452.7 L199.9,448.3 L201.8,443.8 L203.7,439.3 L205.5,434.8 L207.4,430.3 L209.3,425.8
		L211.1,421.3 L213.0,416.8 L214.9,412.3 L216.7,407.9 L218.6,403.4 L220.5,399.0 L222.4,394.6 L224.2,390.2
		L226.1,385.8 L228.0,381.5 L229.8,377.2 L231.7,372.9 L233.6,368.7 L235.5,364.4 L237.3,360.2 L239.2,356.0
		L241.1,351.8 L242.9,347.5 L244.8,343.3 L246.7,339.1 L248.5,334.8 L250.4,330.6 L252.3,326.3 L254.2,322.1
		L256.0,317.8 L257.9,313.5 L259.8,309.2 L261.6,304.9 L263.5,300.7 L265.4,296.4 L267.3,292.2 L269.1,288.0
		L271.0,283.8 L272.9,279.6 L274.7,275.5 L276.6,271.5 L278.5,267.5 L280.3,263.5 L282.2,259.6 L284.1,255.8
		L286.0,252.0 L287.8,248.3 L289.7,244.6 L291.6,240.9 L293.4,237.4 L295.3,233.8 L297.2,230.3 L299.1,226.9
		L300.9,223.5 L302.8,220.2 L304.7,216.8 L306.5,213.6 L308.4,210.3 L310.3,207.1 L312.1,203.9 L314.0,200.7
		L315.9,197.6 L317.8,194.5 L319.6,191.4 L321.5,188.3 L323.4,185.3 L325.2,182.2 L327.1,179.2 L329.0,176.2
		L330.9,173.2 L332.7,170.3 L334.6,167.4 L336.5,164.5 L338.3,161.6 L340.2,158.8 L342.1,156.0 L343.9,153.2
		L345.8,150.5 L347.7,147.8 L349.6,145.2 L351.4,142.6 L353.3,140.1 L355.2,137.6 L357.0,135.2 L358.9,132.8
		L360.8,130.5 L362.7,128.3 L364.5,126.1 L366.4,123.9 L368.3,121.8 L370.1,119.7 L372.0,117.7 L373.9,115.8
		L375.7,113.9 L377.6,112.0 L379.5,110.1 L381.4,108.3 L383.2,106.6 L385.1,104.8 L387.0,103.1 L388.8,101.4
		L390.7,99.7 L392.6,98.1 L394.5,96.5 L396.3,94.9 L398.2,93.3 L400.1,91.7 L401.9,90.2 L403.8,88.7
		L405.7,87.2 L407.5,85.8 L409.4,84.4 L411.3,83.1 L413.2,81.9 L415.0,80.7 L416.9,79.6 L418.8,78.5
		L420.6,77.6 L422.5,76.7 L424.4,75.9 L426.3,75.2 L428.1,74.6 L430.0,74.1 L431.9,73.7 L433.7,73.4
		L435.6,73.1 L437.5,72.9 L439.3,72.8 L441.2,72.8 L443.1,72.8 L445.0,72.9 L446.8,73.1 L448.7,73.3
		L450.6,73.5 L452.4,73.8 L454.3,74.1 L456.2,74.5 L458.0,74.9 L459.9,75.4 L461.8,75.9 L463.7,76.4
		L465.5,77.0 L467.4,77.7 L469.3,78.4 L471.1,79.1 L473.0,80.0 L474.9,80.9 L476.8,81.8 L478.6,82.8
		L480.5,83.9 L482.4,85.0 L484.2,86.3 L486.1,87.5 L488.0,88.9 L489.8,90.2 L491.7,91.7 L493.6,93.2
		L495.5,94.7 L497.3,96.2 L499.2,97.8 L501.1,99.4 L502.9,101.0 L504.8,102.7 L506.7,104.4 L508.6,106.0
		L510.4,107.7 L512.3,109.4 L514.2,111.1 L516.0,112.8 L517.9,114.5 L519.8,116.2 L521.6,117.9 L523.5,119.7
		L525.4,121.4 L527.3,123.2 L529.1,125.0 L531.0,126.8 L532.9,128.7 L534.7,130.6 L536.6,132.6 L538.5,134.6
		L540.4,136.7 L542.2,138.8 L544.1,141.0 L546.0,143.2 L547.8,145.6 L549.7,148.0 L551.6,150.4 L553.4,153.0
		L555.3,155.6 L557.2,158.3 L559.1,161.0 L560.9,163.8 L562.8,166.7 L564.7,169.6 L566.5,172.5 L568.4,175.5
		L570.3,178.4 L572.2,181.4 L574.0,184.4 L575.9,187.3 L577.8,190.3 L579.6,193.2 L581.5,196.1 L583.4,199.0
		L585.2,201.8 L587.1,204.7 L589.0,207.4 L590.9,210.2 L592.7,212.9 L594.6,215.6 L596.5,218.3 L598.3,221.0
		L600.2,223.6 L602.1,226.3 L604.0,229.0 L605.8,231.6 L607.7,234.3 L609.6,237.0 L611.4,239.7 L613.3,242.5
		L615.2,245.2 L617.0,248.0 L618.9,250.8 L620.8,253.6 L622.7,256.5 L624.5,259.3 L626.4,262.2 L628.3,265.1
		L630.1,268.0 L632.0,270.8 L633.9,273.7 L635.8,276.6 L637.6,279.4 L639.5,282.3 L641.4,285.1 L643.2,287.9
		L645.1,290.7 L647.0,293.5 L648.8,296.2 L650.7,298.9 L652.6,301.6 L654.5,304.3 L656.3,307.0 L658.2,309.7
		L660.1,312.4 L661.9,315.0 L663.8,317.7 L665.7,320.3 L667.5,323.0 L669.4,325.7 L671.3,328.4 L673.2,331.1
		L675.0,333.8 L676.9,336.5 L678.8,339.2 L680.6,341.9 L682.5,344.6 L684.4,347.3 L686.3,350.1 L688.1,352.8
		L690.0,355.5 L691.9,358.2 L693.7,361.0 L695.6,363.7 L697.5,366.4 L699.3,369.1 L701.2,371.8 L703.1,374.6
		L705.0,377.3 L706.8,380.0 L708.7,382.7 L710.6,385.4 L712.4,388.1 L714.3,390.8 L716.2,393.5 L718.1,396.2
		L719.9,398.9 L721.8,401.6 L723.7,404.3 L725.5,406.9 L727.4,409.5 L729.3,412.2 L731.1,414.7 L733.0,417.3
		L734.9,419.8 L736.8,422.3 L738.6,424.8 L740.5,427.2 L742.4,429.6 L744.2,432.0 L746.1,434.3 L748.0,436.6
		L749.9,439.0 L751.7,441.2 L753.6,443.5 L755.5,445.7 L757.3,448.0 L759.2,450.2 L761.1,452.4 L762.9,454.6
		L764.8,456.8 L766.7,459.0 L768.6,461.2 L770.4,463.4 L772.3,465.6 L774.2,467.8 L776.0,469.9 L777.9,472.1
		L779.8,474.2 L781.7,476.4 L783.5,478.5 L785.4,480.6 L787.3,482.7 L789.1,484.8 L791.0,486.8 L792.9,488.9
		L794.7,490.9 L796.6,492.9 L798.5,494.9 L800.4,496.9 L802.2,498.9 L804.1,500.8 L806.0,502.7 L807.8,504.7
		L809.7,506.6 L811.6,508.4 L813.5,510.3 L815.3,512.2 L817.2,514.0 L819.1,515.8 L820.9,517.6 L822.8,519.4
		L824.7,521.1 L826.5,522.9 L828.4,524.6 L830.3,526.3 L832.2,528.0 L834.0,529.6 L835.9,531.2 L837.8,532.9
		L839.6,534.5 L841.5,536.0 L843.4,537.6 L845.3,539.1 L847.1,540.7 L849.0,542.2 L850.9,543.7 L852.7,545.2
		L854.6,546.7 L856.5,548.1 L858.3,549.6 L860.2,551.1 L862.1,552.5 L864.0,554.0 L865.8,555.5 L867.7,556.9
		L869.6,558.4 L871.4,559.8 L873.3,561.2 L875.2,562.7 L877.1,564.1 L878.9,565.5 L880.8,566.9 L882.7,568.3
		L884.5,569.7 L886.4,571.0 L888.3,572.3 L890.1,573.6 L892.0,574.8 L893.9,576.0 L895.8,577.2 L897.6,578.4
		L899.5,579.5 L901.4,580.5 L903.2,581.6 L905.1,582.6 L907.0,583.5 L908.8,584.5 L910.7,585.4 L912.6,586.2
		L914.5,587.1 L916.3,588.0 L918.2,588.8 L920.1,589.6 L921.9,590.4 L923.8,591.3 L925.7,592.1 L927.6,592.9
		L929.4,593.8 L931.3,594.7 L933.2,595.5 L935.0,596.4 L936.9,597.4 L938.8,598.3 L940.6,599.3 L942.5,600.2
		L944.4,601.2 L946.3,602.2 L948.1,603.2 L950.0,604.2 L951.9,605.3 L953.7,606.3 L955.6,607.3 L957.5,608.4
		L959.4,609.4 L961.2,610.4 L963.1,611.4 L965.0,612.4 L966.8,613.4 L968.7,614.4 L970.6,615.4 L972.4,616.3
		L974.3,617.2 L976.2,618.1 L978.1,619.0 L979.9,619.9 L981.8,620.7 L983.7,621.5 L985.5,622.3 L987.4,623.1
		L989.3,623.9 L991.2,624.6 L993.0,625.4 L994.9,626.1 L996.8,626.8 L998.6,627.5 L1000.5,628.1 L1002.4,628.8
		L1004.2,629.4 L1006.1,630.1 L1008.0,630.7 L1009.9,631.3 L1011.7,631.9 L1013.6,632.4  '/></g>
	</g>
	<g id="gnuplot_plot_2" ><title>Confidence interval</title>
<g fill="none" color="white" stroke="rgb( 31, 120, 180)" stroke-width="1.00" stroke-linecap="butt" stroke-linejoin="miter">
</g>
<g fill="none" color="black" stroke="currentColor" stroke-width="1.00" stroke-linecap="butt" stroke-linejoin="miter">
	<g transform="translate(1089.0,85.0)" stroke="none" fill="black" font-family="Helvetica" font-size="12.00"  text-anchor="start">
		<text><tspan font-family="Helvetica" >Confidence interval</tspan></text>
	</g>
</g>
<g fill="none" color="black" stroke="currentColor" stroke-width="1.00" stroke-linecap="butt" stroke-linejoin="miter">
	<g stroke='none' shape-rendering='crispEdges'>
		<polygon fill = 'rgb( 31, 120, 180)' fill-opacity = '0.250000' points = '1038.5,85.6 1080.7,85.6 1080.7,76.6 1038.5,76.6 '/>
		<polygon fill = 'rgb( 31, 120, 180)' fill-opacity = '0.250000' points = '166.2,521.0 168.1,517.5 170.0,514.0 171.9,510.4 173.7,506.7 175.6,502.9 177.5,499.0 179.3,495.1 181.2,491.1 183.1,487.0 185.0,482.9 186.8,478.7 188.7,474.5 190.6,470.2 192.4,465.9 194.3,461.6
196.2,457.2 198.0,452.7 199.9,448.3 201.8,443.8 203.7,439.3 205.5,434.8 207.4,430.3 209.3,425.8 211.1,421.3 213.0,416.8 214.9,412.3 216.7,407.9 218.6,403.4 220.5,399.0 222.4,394.6 224.2,390.2
226.1,385.8 228.0,381.5 229.8,377.2 231.7,372.9 233.6,368.7 235.5,364.4 237.3,360.2 239.2,356.0 241.1,351.8 242.9,347.5 244.8,343.3 246.7,339.1 248.5,334.8 250.4,330.6 252.3,326.3 254.2,322.1
256.0,317.8 257.9,313.5 259.8,309.2 261.6,304.9 263.5,300.7 265.4,296.4 267.3,292.2 269.1,288.0 271.0,283.8 272.9,279.6 274.7,275.5 276.6,271.5 278.5,267.5 280.3,263.5 282.2,259.6 284.1,255.8
286.0,252.0 287.8,248.3 289.7,244.6 291.6,240.9 293.4,237.4 295.3,233.8 297.2,230.3 299.1,226.9 300.9,223.5 302.8,220.2 304.7,216.8 306.5,213.6 308.4,210.3 310.3,207.1 312.1,203.9 314.0,200.7
315.9,197.6 317.8,194.5 319.6,191.4 321.5,188.3 323.4,185.3 325.2,182.2 327.1,179.2 329.0,176.2 330.9,173.2 332.7,170.3 334.6,167.4 336.5,164.5 338.3,161.6 340.2,158.8 342.1,156.0 343.9,153.2
345.8,150.5 347.7,147.8 349.6,145.2 351.4,142.6 353.3,140.1 355.2,137.6 357.0,135.2 358.9,132.8 360.8,130.5 362.7,128.3 364.5,126.1 366.4,123.9 368.3,121.8 370.1,119.7 372.0,117.7 373.9,115.8
375.7,113.9 377.6,112.0 379.5,110.1 381.4,108.3 383.2,106.6 385.1,104.8 387.0,103.1 388.8,101.4 390.7,99.7 392.6,98.1 394.5,96.5 396.3,94.9 398.2,93.3 400.1,91.7 401.9,90.2 403.8,88.7
405.7,87.2 407.5,85.8 409.4,84.4 411.3,83.1 413.2,81.9 415.0,80.7 416.9,79.6 418.8,78.5 420.6,77.6 422.5,76.7 424.4,75.9 426.3,75.2 428.1,74.6 430.0,74.1 431.9,73.7 433.7,73.4
435.6,73.1 437.5,72.9 439.3,72.8 441.2,72.8 443.1,72.8 445.0,72.9 446.8,73.1 448.7,73.3 450.6,73.5 452.4,73.8 454.3,74.1 456.2,74.5 458.0,74.9 459.9,75.4 461.8,75.9 463.7,76.4
465.5,77.0 467.4,77.7 469.3,78.4 471.1,79.1 473.0,80.0 474.9,80.9 476.8,81.8 478.6,82.8 480.5,83.9 482.4,85.0 484.2,86.3 486.1,87.5 488.0,88.9 489.8,90.2 491.7,91.7 493.6,93.2
495.5,94.7 497.3,96.2 499.2,97.8 501.1,99.4 502.9,101.0 504.8,102.7 506.7,104.4 508.6,106.0 510.4,107.7 512.3,109.4 514.2,111.1 516.0,112.8 517.9,114.5 519.8,116.2 521.6,117.9 523.5,119.7
525.4,121.4 527.3,123.2 529.1,125.0 531.0,126.8 532.9,128.7 534.7,130.6 536.6,132.6 538.5,134.6 540.4,136.7 542.2,138.8 544.1,141.0 546.0,143.2 547.8,145.6 549.7,148.0 551.6,150.4 553.4,153.0
555.3,155.6 557.2,158.3 559.1,161.0 560.9,163.8 562.8,166.7 564.7,169.6 566.5,172.5 568.4,175.5 570.3,178.4 572.2,181.4 574.0,184.4 575.9,187.3 577.8,190.3 579.6,193.2 581.5,196.1 583.4,199.0
585.2,201.8 587.1,204.7 589.0,207.4 590.9,210.2 592.7,212.9 594.6,215.6 596.5,218.3 598.3,221.0 600.2,223.6 602.1,226.3 604.0,229.0 605.8,231.6 607.7,234.3 609.6,237.0 611.4,239.7 613.3,242.5
615.2,245.2 617.0,248.0 618.9,250.8 620.8,253.6 622.7,256.5 624.5,259.3 626.4,262.2 628.3,265.1 630.1,268.0 632.0,270.8 633.9,273.7 635.8,276.6 637.6,279.4 639.5,282.3 641.4,285.1 643.2,287.9
645.1,290.7 647.0,293.5 648.8,296.2 650.7,298.9 652.6,301.6 654.5,304.3 656.3,307.0 658.2,309.7 660.1,312.4 661.9,315.0 663.8,317.7 665.7,320.3 667.5,323.0 669.4,325.7 671.3,328.4 673.2,331.1
675.0,333.8 676.9,336.5 678.8,339.2 680.6,341.9 682.5,344.6 684.4,347.3 686.3,350.1 688.1,352.8 690.0,355.5 691.9,358.2 693.7,361.0 695.6,363.7 697.5,366.4 699.3,369.1 701.2,371.8 703.1,374.6
705.0,377.3 706.8,380.0 708.7,382.7 710.6,385.4 712.4,388.1 714.3,390.8 716.2,393.5 718.1,396.2 719.9,398.9 721.8,401.6 723.7,404.3 725.5,406.9 727.4,409.5 729.3,412.2 731.1,414.7 733.0,417.3
734.9,419.8 736.8,422.3 738.6,424.8 740.5,427.2 742.4,429.6 744.2,432.0 746.1,434.3 748.0,436.6 749.9,439.0 751.7,441.2 753.6,443.5 755.5,445.7 757.3,448.0 759.2,450.2 761.1,452.4 762.9,454.6
764.8,456.8 766.7,459.0 768.6,461.2 770.4,463.4 772.3,465.6 774.2,467.8 776.0,469.9 777.9,472.1 779.8,474.2 781.7,476.4 783.5,478.5 785.4,480.6 787.3,482.7 789.1,484.8 791.0,486.8 792.9,488.9
794.7,490.9 796.6,492.9 798.5,494.9 800.4,496.9 802.2,498.9 804.1,500.8 806.0,502.7 807.8,504.7 809.7,506.6 811.6,508.4 813.5,510.3 815.3,512.2 817.2,514.0 819.1,515.8 820.9,517.6 822.8,519.4
824.7,521.1 826.5,522.9 828.4,524.6 830.3,526.3 832.2,528.0 834.0,529.6 835.9,531.2 837.8,532.9 839.6,534.5 841.5,536.0 843.4,537.6 845.3,539.1 847.1,540.7 849.0,542.2 850.9,543.7 852.7,545.2
854.6,546.7 856.5,548.1 858.3,549.6 860.2,551.1 862.1,552.5 864.0,554.0 865.8,555.5 867.7,556.9 869.6,558.4 871.4,559.8 873.3,561.2 875.2,562.7 877.1,564.1 878.9,565.5 880.8,566.9 882.7,568.3
884.5,569.7 886.4,571.0 888.3,572.3 890.1,573.6 892.0,574.8 893.9,576.0 895.8,577.2 897.6,578.4 899.5,579.5 901.4,580.5 903.2,581.6 905.1,582.6 907.0,583.5 908.8,584.5 910.7,585.4 912.6,586.2
914.5,587.1 916.3,588.0 918.2,588.8 920.1,589.6 921.9,590.4 923.8,591.3 925.7,592.1 925.7,662.4 923.8,662.4 921.9,662.4 920.1,662.4 918.2,662.4 916.3,662.4 914.5,662.4 912.6,662.4 910.7,662.4
908.8,662.4 907.0,662.4 905.1,662.4 903.2,662.4 901.4,662.4 899.5,662.4 897.6,662.4 895.8,662.4 893.9,662.4 892.0,662.4 890.1,662.4 888.3,662.4 886.4,662.4 884.5,662.4 882.7,662.4 880.8,662.4
878.9,662.4 877.1,662.4 875.2,662.4 873.3,662.4 871.4,662.4 869.6,662.4 867.7,662.4 865.8,662.4 864.0,662.4 862.1,662.4 860.2,662.4 858.3,662.4 856.5,662.4 854.6,662.4 852.7,662.4 850.9,662.4
849.0,662.4 847.1,662.4 845.3,662.4 843.4,662.4 841.5,662.4 839.6,662.4 837.8,662.4 835.9,662.4 834.0,662.4 832.2,662.4 830.3,662.4 828.4,662.4 826.5,662.4 824.7,662.4 822.8,662.4 820.9,662.4
819.1,662.4 817.2,662.4 815.3,662.4 813.5,662.4 811.6,662.4 809.7,662.4 807.8,662.4 806.0,662.4 804.1,662.4 802.2,662.4 800.4,662.4 798.5,662.4 796.6,662.4 794.7,662.4 792.9,662.4 791.0,662.4
789.1,662.4 787.3,662.4 785.4,662.4 783.5,662.4 781.7,662.4 779.8,662.4 777.9,662.4 776.0,662.4 774.2,662.4 772.3,662.4 770.4,662.4 768.6,662.4 766.7,662.4 764.8,662.4 762.9,662.4 761.1,662.4
759.2,662.4 757.3,662.4 755.5,662.4 753.6,662.4 751.7,662.4 749.9,662.4 748.0,662.4 746.1,662.4 744.2,662.4 742.4,662.4 740.5,662.4 738.6,662.4 736.8,662.4 734.9,662.4 733.0,662.4 731.1,662.4
729.3,662.4 727.4,662.4 725.5,662.4 723.7,662.4 721.8,662.4 719.9,662.4 718.1,662.4 716.2,662.4 714.3,662.4 712.4,662.4 710.6,662.4 708.7,662.4 706.8,662.4 705.0,662.4 703.1,662.4 701.2,662.4
699.3,662.4 697.5,662.4 695.6,662.4 693.7,662.4 691.9,662.4 690.0,662.4 688.1,662.4 686.3,662.4 684.4,662.4 682.5,662.4 680.6,662.4 678.8,662.4 676.9,662.4 675.0,662.4 673.2,662.4 671.3,662.4
669.4,662.4 667.5,662.4 665.7,662.4 663.8,662.4 661.9,662.4 660.1,662.4 658.2,662.4 656.3,662.4 654.5,662.4 652.6,662.4 650.7,662.4 648.8,662.4 647.0,662.4 645.1,662.4 643.2,662.4 641.4,662.4
639.5,662.4 637.6,662.4 635.8,662.4 633.9,662.4 632.0,662.4 630.1,662.4 628.3,662.4 626.4,662.4 624.5,662.4 622.7,662.4 620.8,662.4 618.9,662.4 617.0,662.4 615.2,662.4 613.3,662.4 611.4,662.4
609.6,662.4 607.7,662.4 605.8,662.4 604.0,662.4 602.1,662.4 600.2,662.4 598.3,662.4 596.5,662.4 594.6,662.4 592.7,662.4 590.9,662.4 589.0,662.4 587.1,662.4 585.2,662.4 583.4,662.4 581.5,662.4
579.6,662.4 577.8,662.4 575.9,662.4 574.0,662.4 572.2,662.4 570.3,662.4 568.4,662.4 566.5,662.4 564.7,662.4 562.8,662.4 560.9,662.4 559.1,662.4 557.2,662.4 555.3,662.4 553.4,662.4 551.6,662.4
549.7,662.4 547.8,662.4 546.0,662.4 544.1,662.4 542.2,662.4 540.4,662.4 538.5,662.4 536.6,662.4 534.7,662.4 532.9,662.4 531.0,662.4 529.1,662.4 527.3,662.4 525.4,662.4 523.5,662.4 521.6,662.4
519.8,662.4 517.9,662.4 516.0,662.4 514.2,662.4 512.3,662.4 510.4,662.4 508.6,662.4 506.7,662.4 504.8,662.4 502.9,662.4 501.1,662.4 499.2,662.4 497.3,662.4 495.5,662.4 493.6,662.4 491.7,662.4
489.8,662.4 488.0,662.4 486.1,662.4 484.2,662.4 482.4,662.4 480.5,662.4 478.6,662.4 476.8,662.4 474.9,662.4 473.0,662.4 471.1,662.4 469.3,662.4 467.4,662.4 465.5,662.4 463.7,662.4 461.8,662.4
459.9,662.4 458.0,662.4 456.2,662.4 454.3,662.4 452.4,662.4 450.6,662.4 448.7,662.4 446.8,662.4 445.0,662.4 443.1,662.4 441.2,662.4 439.3,662.4 437.5,662.4 435.6,662.4 433.7,662.4 431.9,662.4
430.0,662.4 428.1,662.4 426.3,662.4 424.4,662.4 422.5,662.4 420.6,662.4 418.8,662.4 416.9,662.4 415.0,662.4 413.2,662.4 411.3,662.4 409.4,662.4 407.5,662.4 405.7,662.4 403.8,662.4 401.9,662.4
400.1,662.4 398.2,662.4 396.3,662.4 394.5,662.4 392.6,662.4 390.7,662.4 388.8,662.4 387.0,662.4 385.1,662.4 383.2,662.4 381.4,662.4 379.5,662.4 377.6,662.4 375.7,662.4 373.9,662.4 372.0,662.4
370.1,662.4 368.3,662.4 366.4,662.4 364.5,662.4 362.7,662.4 360.8,662.4 358.9,662.4 357.0,662.4 355.2,662.4 353.3,662.4 351.4,662.4 349.6,662.4 347.7,662.4 345.8,662.4 343.9,662.4 342.1,662.4
340.2,662.4 338.3,662.4 336.5,662.4 334.6,662.4 332.7,662.4 330.9,662.4 329.0,662.4 327.1,662.4 325.2,662.4 323.4,662.4 321.5,662.4 319.6,662.4 317.8,662.4 315.9,662.4 314.0,662.4 312.1,662.4
310.3,662.4 308.4,662.4 306.5,662.4 304.7,662.4 302.8,662.4 300.9,662.4 299.1,662.4 297.2,662.4 295.3,662.4 293.4,662.4 291.6,662.4 289.7,662.4 287.8,662.4 286.0,662.4 284.1,662.4 282.2,662.4
280.3,662.4 278.5,662.4 276.6,662.4 274.7,662.4 272.9,662.4 271.0,662.4 269.1,662.4 267.3,662.4 265.4,662.4 263.5,662.4 261.6,662.4 259.8,662.4 257.9,662.4 256.0,662.4 254.2,662.4 252.3,662.4
250.4,662.4 248.5,662.4 246.7,662.4 244.8,662.4 242.9,662.4 241.1,662.4 239.2,662.4 237.3,662.4 235.5,662.4 233.6,662.4 231.7,662.4 229.8,662.4 228.0,662.4 226.1,662.4 224.2,662.4 222.4,662.4
220.5,662.4 218.6,662.4 216.7,662.4 214.9,662.4 213.0,662.4 211.1,662.4 209.3,662.4 207.4,662.4 205.5,662.4 203.7,662.4 201.8,662.4 199.9,662.4 198.0,662.4 196.2,662.4 194.3,662.4 192.4,662.4
190.6,662.4 188.7,662.4 186.8,662.4 185.0,662.4 183.1,662.4 181.2,662.4 179.3,662.4 177.5,662.4 175.6,662.4 173.7,662.4 171.9,662.4 170.0,662.4 168.1,662.4 166.2,662.4 '/>
	</g>
</g>
	</g>
	<g id="gnuplot_plot_3" ><title>Point estimate</title>
<g fill="none" color="white" stroke="rgb( 31, 120, 180)" stroke-width="2.00" stroke-linecap="butt" stroke-linejoin="miter">
</g>
<g fill="none" color="black" stroke="currentColor" stroke-width="2.00" stroke-linecap="butt" stroke-linejoin="miter">
	<g transform="translate(1089.0,103.0)" stroke="none" fill="black" font-family="Helvetica" font-size="12.00"  text-anchor="start">
		<text><tspan font-family="Helvetica" >Point estimate</tspan></text>
	</g>
</g>
<g fill="none" color="black" stroke="currentColor" stroke-width="2.00" stroke-linecap="butt" stroke-linejoin="miter">
	<path stroke='rgb( 31, 120, 180)'  d='M1038.5,99.1 L1080.7,99.1 M496.0,662.4 L496.0,95.1  '/></g>
	</g>
<g fill="none" color="black" stroke="currentColor" stroke-width="2.00" stroke-linecap="butt" stroke-linejoin="miter">
</g>
<g fill="none" color="black" stroke="black" stroke-width="1.00" stroke-linecap="butt" stroke-linejoin="miter">
</g>
<g fill="none" color="black" stroke="currentColor" stroke-width="1.00" stroke-linecap="butt" stroke-linejoin="miter">
	<path stroke='black'  d='M80.2,54.1 L80.2,662.4 L1013.6,662.4 L1013.6,54.1 L80.2,54.1 Z  '/></g>
<g fill="none" color="black" stroke="currentColor" stroke-width="1.00" stroke-linecap="butt" stroke-linejoin="miter">
</g>
</g>
</svg>

