<?xml version="1.0" encoding="utf-8"  standalone="no"?>
<svg 
 viewBox="0 0 450 300"
 xmlns="http://www.w3.org/2000/svg"
 xmlns:xlink="http://www.w3.org/1999/xlink"
>

<title>Gnuplot</title>
<desc>Produced by GNUPLOT 5.2 patchlevel 6 </desc>

<g id="gnuplot_canvas">

<rect x="0" y="0" width="450" height="300" fill="none"/>
<defs>

	<circle id='gpDot' r='0.5' stroke-width='0.5' stroke='currentColor'/>
	<path id='gpPt0' stroke-width='0.222' stroke='currentColor' d='M-1,0 h2 M0,-1 v2'/>
	<path id='gpPt1' stroke-width='0.222' stroke='currentColor' d='M-1,-1 L1,1 M1,-1 L-1,1'/>
	<path id='gpPt2' stroke-width='0.222' stroke='currentColor' d='M-1,0 L1,0 M0,-1 L0,1 M-1,-1 L1,1 M-1,1 L1,-1'/>
	<rect id='gpPt3' stroke-width='0.222' stroke='currentColor' x='-1' y='-1' width='2' height='2'/>
	<rect id='gpPt4' stroke-width='0.222' stroke='currentColor' fill='currentColor' x='-1' y='-1' width='2' height='2'/>
	<circle id='gpPt5' stroke-width='0.222' stroke='currentColor' cx='0' cy='0' r='1'/>
	<use xlink:href='#gpPt5' id='gpPt6' fill='currentColor' stroke='none'/>
	<path id='gpPt7' stroke-width='0.222' stroke='currentColor' d='M0,-1.33 L-1.33,0.67 L1.33,0.67 z'/>
	<use xlink:href='#gpPt7' id='gpPt8' fill='currentColor' stroke='none'/>
	<use xlink:href='#gpPt7' id='gpPt9' stroke='currentColor' transform='rotate(180)'/>
	<use xlink:href='#gpPt9' id='gpPt10' fill='currentColor' stroke='none'/>
	<use xlink:href='#gpPt3' id='gpPt11' stroke='currentColor' transform='rotate(45)'/>
	<use xlink:href='#gpPt11' id='gpPt12' fill='currentColor' stroke='none'/>
	<path id='gpPt13' stroke-width='0.222' stroke='currentColor' d='M0,1.330 L1.265,0.411 L0.782,-1.067 L-0.782,-1.076 L-1.265,0.411 z'/>
	<use xlink:href='#gpPt13' id='gpPt14' fill='currentColor' stroke='none'/>
	<filter id='textbox' filterUnits='objectBoundingBox' x='0' y='0' height='1' width='1'>
	  <feFlood flood-color='white' flood-opacity='1' result='bgnd'/>
	  <feComposite in='SourceGraphic' in2='bgnd' operator='atop'/>
	</filter>
	<filter id='greybox' filterUnits='objectBoundingBox' x='0' y='0' height='1' width='1'>
	  <feFlood flood-color='lightgrey' flood-opacity='1' result='grey'/>
	  <feComposite in='SourceGraphic' in2='grey' operator='atop'/>
	</filter>
</defs>
<g fill="none" color="white" stroke="currentColor" stroke-width="1.00" stroke-linecap="butt" stroke-linejoin="miter">
</g>
<g fill="none" color="black" stroke="currentColor" stroke-width="1.00" stroke-linecap="butt" stroke-linejoin="miter">
	<path stroke='black'  d='M88.5,242.4 L97.5,242.4  '/>	<g transform="translate(80.2,246.3)" stroke="none" fill="black" font-family="Helvetica" font-size="12.00"  text-anchor="end">
		<text><tspan font-family="Helvetica" > 0</tspan></text>
	</g>
</g>
<g fill="none" color="black" stroke="currentColor" stroke-width="1.00" stroke-linecap="butt" stroke-linejoin="miter">
	<path stroke='black'  d='M88.5,187.9 L97.5,187.9  '/>	<g transform="translate(80.2,191.8)" stroke="none" fill="black" font-family="Helvetica" font-size="12.00"  text-anchor="end">
		<text><tspan font-family="Helvetica" > 0.005</tspan></text>
	</g>
</g>
<g fill="none" color="black" stroke="currentColor" stroke-width="1.00" stroke-linecap="butt" stroke-linejoin="miter">
	<path stroke='black'  d='M88.5,133.3 L97.5,133.3  '/>	<g transform="translate(80.2,137.2)" stroke="none" fill="black" font-family="Helvetica" font-size="12.00"  text-anchor="end">
		<text><tspan font-family="Helvetica" > 0.01</tspan></text>
	</g>
</g>
<g fill="none" color="black" stroke="currentColor" stroke-width="1.00" stroke-linecap="butt" stroke-linejoin="miter">
	<path stroke='black'  d='M88.5,78.8 L97.5,78.8  '/>	<g transform="translate(80.2,82.7)" stroke="none" fill="black" font-family="Helvetica" font-size="12.00"  text-anchor="end">
		<text><tspan font-family="Helvetica" > 0.015</tspan></text>
	</g>
</g>
<g fill="none" color="black" stroke="currentColor" stroke-width="1.00" stroke-linecap="butt" stroke-linejoin="miter">
	<path stroke='black'  d='M88.5,24.2 L97.5,24.2  '/>	<g transform="translate(80.2,28.1)" stroke="none" fill="black" font-family="Helvetica" font-size="12.00"  text-anchor="end">
		<text><tspan font-family="Helvetica" > 0.02</tspan></text>
	</g>
</g>
<g fill="none" color="black" stroke="currentColor" stroke-width="1.00" stroke-linecap="butt" stroke-linejoin="miter">
	<path stroke='black'  d='M111.2,242.4 L111.2,233.4  '/>	<g transform="translate(111.2,264.3)" stroke="none" fill="black" font-family="Helvetica" font-size="12.00"  text-anchor="middle">
		<text><tspan font-family="Helvetica" > 400</tspan></text>
	</g>
</g>
<g fill="none" color="black" stroke="currentColor" stroke-width="1.00" stroke-linecap="butt" stroke-linejoin="miter">
	<path stroke='black'  d='M148.2,242.4 L148.2,233.4  '/>	<g transform="translate(148.2,264.3)" stroke="none" fill="black" font-family="Helvetica" font-size="12.00"  text-anchor="middle">
		<text><tspan font-family="Helvetica" > 450</tspan></text>
	</g>
</g>
<g fill="none" color="black" stroke="currentColor" stroke-width="1.00" stroke-linecap="butt" stroke-linejoin="miter">
	<path stroke='black'  d='M185.2,242.4 L185.2,233.4  '/>	<g transform="translate(185.2,264.3)" stroke="none" fill="black" font-family="Helvetica" font-size="12.00"  text-anchor="middle">
		<text><tspan font-family="Helvetica" > 500</tspan></text>
	</g>
</g>
<g fill="none" color="black" stroke="currentColor" stroke-width="1.00" stroke-linecap="butt" stroke-linejoin="miter">
	<path stroke='black'  d='M222.2,242.4 L222.2,233.4  '/>	<g transform="translate(222.2,264.3)" stroke="none" fill="black" font-family="Helvetica" font-size="12.00"  text-anchor="middle">
		<text><tspan font-family="Helvetica" > 550</tspan></text>
	</g>
</g>
<g fill="none" color="black" stroke="currentColor" stroke-width="1.00" stroke-linecap="butt" stroke-linejoin="miter">
	<path stroke='black'  d='M259.2,242.4 L259.2,233.4  '/>	<g transform="translate(259.2,264.3)" stroke="none" fill="black" font-family="Helvetica" font-size="12.00"  text-anchor="middle">
		<text><tspan font-family="Helvetica" > 600</tspan></text>
	</g>
</g>
<g fill="none" color="black" stroke="currentColor" stroke-width="1.00" stroke-linecap="butt" stroke-linejoin="miter">
	<path stroke='black'  d='M296.2,242.4 L296.2,233.4  '/>	<g transform="translate(296.2,264.3)" stroke="none" fill="black" font-family="Helvetica" font-size="12.00"  text-anchor="middle">
		<text><tspan font-family="Helvetica" > 650</tspan></text>
	</g>
</g>
<g fill="none" color="black" stroke="currentColor" stroke-width="1.00" stroke-linecap="butt" stroke-linejoin="miter">
	<path stroke='black'  d='M333.2,242.4 L333.2,233.4  '/>	<g transform="translate(333.2,264.3)" stroke="none" fill="black" font-family="Helvetica" font-size="12.00"  text-anchor="middle">
		<text><tspan font-family="Helvetica" > 700</tspan></text>
	</g>
</g>
<g fill="none" color="black" stroke="currentColor" stroke-width="1.00" stroke-linecap="butt" stroke-linejoin="miter">
	<path stroke='black'  d='M370.2,242.4 L370.2,233.4  '/>	<g transform="translate(370.2,264.3)" stroke="none" fill="black" font-family="Helvetica" font-size="12.00"  text-anchor="middle">
		<text><tspan font-family="Helvetica" > 750</tspan></text>
	</g>
</g>
<g fill="none" color="black" stroke="currentColor" stroke-width="1.00" stroke-linecap="butt" stroke-linejoin="miter">
	<path stroke='black'  d='M407.2,242.4 L407.2,233.4  '/>	<g transform="translate(407.2,264.3)" stroke="none" fill="black" font-family="Helvetica" font-size="12.00"  text-anchor="middle">
		<text><tspan font-family="Helvetica" > 800</tspan></text>
	</g>
</g>
<g fill="none" color="black" stroke="currentColor" stroke-width="1.00" stroke-linecap="butt" stroke-linejoin="miter">
</g>
<g fill="none" color="black" stroke="currentColor" stroke-width="1.00" stroke-linecap="butt" stroke-linejoin="miter">
	<path stroke='black'  d='M88.5,18.1 L88.5,242.4 L425.0,242.4 L425.0,18.1 L88.5,18.1 Z  '/></g>
<g fill="none" color="black" stroke="currentColor" stroke-width="1.00" stroke-linecap="butt" stroke-linejoin="miter">
	<g transform="translate(16.3,130.3) rotate(270)" stroke="none" fill="black" font-family="Helvetica" font-size="12.00"  text-anchor="middle">
		<text><tspan font-family="Helvetica" >Density (a.u.)</tspan></text>
	</g>
</g>
<g fill="none" color="black" stroke="currentColor" stroke-width="1.00" stroke-linecap="butt" stroke-linejoin="miter">
	<g transform="translate(256.7,291.3)" stroke="none" fill="black" font-family="Helvetica" font-size="12.00"  text-anchor="middle">
		<text><tspan font-family="Helvetica" >Average time (us)</tspan></text>
	</g>
</g>
<g fill="none" color="black" stroke="currentColor" stroke-width="1.00" stroke-linecap="butt" stroke-linejoin="miter">
</g>
	<g id="gnuplot_plot_1" ><title>PDF</title>
<g fill="none" color="black" stroke="currentColor" stroke-width="1.00" stroke-linecap="butt" stroke-linejoin="miter">
	<g stroke='none' shape-rendering='crispEdges'>
		<polygon fill = 'rgb( 31, 120, 180)' fill-opacity = '0.250000' points = '88.5,241.7 89.2,241.5 89.8,241.4 90.5,241.2 91.2,241.0 91.9,240.8 92.5,240.6 93.2,240.3 93.9,240.0 94.6,239.7 95.2,239.3 95.9,238.8 96.6,238.3 97.3,237.8 97.9,237.2 98.6,236.5
99.3,235.7 100.0,234.8 100.6,233.9 101.3,232.9 102.0,231.7 102.7,230.4 103.3,229.1 104.0,227.6 104.7,225.9 105.4,224.1 106.0,222.2 106.7,220.1 107.4,217.8 108.1,215.4 108.7,212.7 109.4,209.9
110.1,206.9 110.8,203.7 111.4,200.3 112.1,196.7 112.8,192.9 113.5,188.9 114.1,184.7 114.8,180.2 115.5,175.6 116.1,170.8 116.8,165.8 117.5,160.6 118.2,155.2 118.8,149.7 119.5,144.0 120.2,138.2
120.9,132.3 121.5,126.2 122.2,120.2 122.9,114.0 123.6,107.8 124.2,101.7 124.9,95.5 125.6,89.4 126.3,83.4 126.9,77.4 127.6,71.6 128.3,66.0 129.0,60.6 129.6,55.3 130.3,50.3 131.0,45.6
131.7,41.2 132.3,37.1 133.0,33.4 133.7,30.0 134.4,27.0 135.0,24.5 135.7,22.3 136.4,20.6 137.1,19.3 137.7,18.5 138.4,18.1 139.1,18.2 139.8,18.7 140.4,19.7 141.1,21.1 141.8,23.0
142.4,25.3 143.1,28.0 143.8,31.1 144.5,34.6 145.1,38.4 145.8,42.6 146.5,47.1 147.2,51.8 147.8,56.8 148.5,62.0 149.2,67.5 149.9,73.1 150.5,78.8 151.2,84.7 151.9,90.7 152.6,96.7
153.2,102.7 153.9,108.8 154.6,114.8 155.3,120.8 155.9,126.8 156.6,132.6 157.3,138.4 158.0,144.0 158.6,149.6 159.3,154.9 160.0,160.1 160.7,165.2 161.3,170.0 162.0,174.7 162.7,179.2 163.4,183.5
164.0,187.6 164.7,191.5 165.4,195.2 166.1,198.7 166.7,202.0 167.4,205.1 168.1,208.0 168.7,210.8 169.4,213.4 170.1,215.7 170.8,218.0 171.4,220.0 172.1,221.9 172.8,223.7 173.5,225.3 174.1,226.8
174.8,228.2 175.5,229.4 176.2,230.5 176.8,231.6 177.5,232.5 178.2,233.4 178.9,234.1 179.5,234.8 180.2,235.4 180.9,236.0 181.6,236.4 182.2,236.9 182.9,237.3 183.6,237.6 184.3,237.9 184.9,238.1
185.6,238.4 186.3,238.6 187.0,238.7 187.6,238.9 188.3,239.0 189.0,239.1 189.7,239.2 190.3,239.2 191.0,239.3 191.7,239.3 192.3,239.4 193.0,239.4 193.7,239.4 194.4,239.4 195.0,239.5 195.7,239.5
196.4,239.5 197.1,239.5 197.7,239.5 198.4,239.5 199.1,239.5 199.8,239.5 200.4,239.5 201.1,239.5 201.8,239.5 202.5,239.5 203.1,239.5 203.8,239.5 204.5,239.6 205.2,239.6 205.8,239.6 206.5,239.6
207.2,239.6 207.9,239.6 208.5,239.6 209.2,239.6 209.9,239.6 210.6,239.6 211.2,239.6 211.9,239.6 212.6,239.6 213.3,239.6 213.9,239.6 214.6,239.6 215.3,239.6 216.0,239.6 216.6,239.6 217.3,239.5
218.0,239.5 218.6,239.5 219.3,239.5 220.0,239.5 220.7,239.5 221.3,239.4 222.0,239.4 222.7,239.4 223.4,239.4 224.0,239.3 224.7,239.3 225.4,239.3 226.1,239.3 226.7,239.3 227.4,239.3 228.1,239.2
228.8,239.2 229.4,239.2 230.1,239.2 230.8,239.2 231.5,239.2 232.1,239.2 232.8,239.1 233.5,239.1 234.2,239.1 234.8,239.1 235.5,239.1 236.2,239.1 236.9,239.1 237.5,239.1 238.2,239.1 238.9,239.1
239.6,239.1 240.2,239.1 240.9,239.1 241.6,239.1 242.3,239.1 242.9,239.1 243.6,239.1 244.3,239.1 244.9,239.1 245.6,239.2 246.3,239.2 247.0,239.2 247.6,239.2 248.3,239.2 249.0,239.2 249.7,239.2
250.3,239.3 251.0,239.3 251.7,239.3 252.4,239.4 253.0,239.4 253.7,239.4 254.4,239.5 255.1,239.5 255.7,239.5 256.4,239.6 257.1,239.6 257.8,239.7 258.4,239.8 259.1,239.8 259.8,239.9 260.5,239.9
261.1,240.0 261.8,240.1 262.5,240.1 263.2,240.2 263.8,240.3 264.5,240.4 265.2,240.4 265.9,240.5 266.5,240.6 267.2,240.7 267.9,240.7 268.6,240.8 269.2,240.9 269.9,241.0 270.6,241.0 271.2,241.1
271.9,241.2 272.6,241.2 273.3,241.3 273.9,241.4 274.6,241.4 275.3,241.5 276.0,241.6 276.6,241.6 277.3,241.7 278.0,241.7 278.7,241.8 279.3,241.8 280.0,241.9 280.7,241.9 281.4,241.9 282.0,242.0
282.7,242.0 283.4,242.0 284.1,242.1 284.7,242.1 285.4,242.1 286.1,242.1 286.8,242.2 287.4,242.2 288.1,242.2 288.8,242.2 289.5,242.2 290.1,242.2 290.8,242.2 291.5,242.2 292.2,242.3 292.8,242.3
293.5,242.3 294.2,242.3 294.9,242.2 295.5,242.2 296.2,242.2 296.9,242.2 297.5,242.2 298.2,242.2 298.9,242.2 299.6,242.2 300.2,242.1 300.9,242.1 301.6,242.1 302.3,242.1 302.9,242.0 303.6,242.0
304.3,242.0 305.0,241.9 305.6,241.9 306.3,241.9 307.0,241.8 307.7,241.8 308.3,241.7 309.0,241.7 309.7,241.6 310.4,241.6 311.0,241.5 311.7,241.4 312.4,241.4 313.1,241.3 313.7,241.3 314.4,241.2
315.1,241.1 315.8,241.1 316.4,241.0 317.1,240.9 317.8,240.9 318.5,240.8 319.1,240.7 319.8,240.7 320.5,240.6 321.2,240.5 321.8,240.5 322.5,240.4 323.2,240.3 323.8,240.3 324.5,240.2 325.2,240.2
325.9,240.1 326.5,240.1 327.2,240.1 327.9,240.0 328.6,240.0 329.2,240.0 329.9,240.0 330.6,240.0 331.3,240.0 331.9,240.0 332.6,240.0 333.3,240.0 334.0,240.0 334.6,240.0 335.3,240.0 336.0,240.0
336.7,240.1 337.3,240.1 338.0,240.2 338.7,240.2 339.4,240.2 340.0,240.3 340.7,240.3 341.4,240.4 342.1,240.4 342.7,240.5 343.4,240.6 344.1,240.6 344.8,240.7 345.4,240.7 346.1,240.8 346.8,240.8
347.4,240.9 348.1,240.9 348.8,241.0 349.5,241.0 350.1,241.1 350.8,241.1 351.5,241.1 352.2,241.2 352.8,241.2 353.5,241.2 354.2,241.2 354.9,241.3 355.5,241.3 356.2,241.3 356.9,241.3 357.6,241.3
358.2,241.3 358.9,241.2 359.6,241.2 360.3,241.2 360.9,241.2 361.6,241.1 362.3,241.1 363.0,241.1 363.6,241.0 364.3,241.0 365.0,240.9 365.7,240.9 366.3,240.8 367.0,240.8 367.7,240.7 368.4,240.7
369.0,240.6 369.7,240.6 370.4,240.5 371.1,240.4 371.7,240.4 372.4,240.3 373.1,240.3 373.7,240.2 374.4,240.2 375.1,240.2 375.8,240.1 376.4,240.1 377.1,240.0 377.8,240.0 378.5,240.0 379.1,240.0
379.8,240.0 380.5,240.0 381.2,240.0 381.8,240.0 382.5,240.0 383.2,240.0 383.9,240.0 384.5,240.0 385.2,240.0 385.9,240.1 386.6,240.1 387.2,240.1 387.9,240.2 388.6,240.2 389.3,240.3 389.9,240.3
390.6,240.4 391.3,240.5 392.0,240.5 392.6,240.6 393.3,240.7 394.0,240.7 394.7,240.8 395.3,240.9 396.0,240.9 396.7,241.0 397.4,241.1 398.0,241.1 398.7,241.2 399.4,241.3 400.0,241.3 400.7,241.4
401.4,241.5 402.1,241.5 402.7,241.6 403.4,241.6 404.1,241.7 404.8,241.7 405.4,241.8 406.1,241.8 406.8,241.9 407.5,241.9 408.1,242.0 408.8,242.0 409.5,242.0 410.2,242.1 410.8,242.1 411.5,242.1
412.2,242.1 412.9,242.2 413.5,242.2 414.2,242.2 414.9,242.2 415.6,242.2 416.2,242.3 416.9,242.3 417.6,242.3 418.3,242.3 418.9,242.3 419.6,242.3 420.3,242.3 421.0,242.3 421.6,242.3 422.3,242.4
423.0,242.4 423.7,242.4 424.3,242.4 425.0,242.4 425.0,242.4 424.3,242.4 423.7,242.4 423.0,242.4 422.3,242.4 421.6,242.4 421.0,242.4 420.3,242.4 419.6,242.4 418.9,242.4 418.3,242.4 417.6,242.4
416.9,242.4 416.2,242.4 415.6,242.4 414.9,242.4 414.2,242.4 413.5,242.4 412.9,242.4 412.2,242.4 411.5,242.4 410.8,242.4 410.2,242.4 409.5,242.4 408.8,242.4 408.1,242.4 407.5,242.4 406.8,242.4
406.1,242.4 405.4,242.4 404.8,242.4 404.1,242.4 403.4,242.4 402.7,242.4 402.1,242.4 401.4,242.4 400.7,242.4 400.0,242.4 399.4,242.4 398.7,242.4 398.0,242.4 397.4,242.4 396.7,242.4 396.0,242.4
395.3,242.4 394.7,242.4 394.0,242.4 393.3,242.4 392.6,242.4 392.0,242.4 391.3,242.4 390.6,242.4 389.9,242.4 389.3,242.4 388.6,242.4 387.9,242.4 387.2,242.4 386.6,242.4 385.9,242.4 385.2,242.4
384.5,242.4 383.9,242.4 383.2,242.4 382.5,242.4 381.8,242.4 381.2,242.4 380.5,242.4 379.8,242.4 379.1,242.4 378.5,242.4 377.8,242.4 377.1,242.4 376.4,242.4 375.8,242.4 375.1,242.4 374.4,242.4
373.7,242.4 373.1,242.4 372.4,242.4 371.7,242.4 371.1,242.4 370.4,242.4 369.7,242.4 369.0,242.4 368.4,242.4 367.7,242.4 367.0,242.4 366.3,242.4 365.7,242.4 365.0,242.4 364.3,242.4 363.6,242.4
363.0,242.4 362.3,242.4 361.6,242.4 360.9,242.4 360.3,242.4 359.6,242.4 358.9,242.4 358.2,242.4 357.6,242.4 356.9,242.4 356.2,242.4 355.5,242.4 354.9,242.4 354.2,242.4 353.5,242.4 352.8,242.4
352.2,242.4 351.5,242.4 350.8,242.4 350.1,242.4 349.5,242.4 348.8,242.4 348.1,242.4 347.4,242.4 346.8,242.4 346.1,242.4 345.4,242.4 344.8,242.4 344.1,242.4 343.4,242.4 342.7,242.4 342.1,242.4
341.4,242.4 340.7,242.4 340.0,242.4 339.4,242.4 338.7,242.4 338.0,242.4 337.3,242.4 336.7,242.4 336.0,242.4 335.3,242.4 334.6,242.4 334.0,242.4 333.3,242.4 332.6,242.4 331.9,242.4 331.3,242.4
330.6,242.4 329.9,242.4 329.2,242.4 328.6,242.4 327.9,242.4 327.2,242.4 326.5,242.4 325.9,242.4 325.2,242.4 324.5,242.4 323.8,242.4 323.2,242.4 322.5,242.4 321.8,242.4 321.2,242.4 320.5,242.4
319.8,242.4 319.1,242.4 318.5,242.4 317.8,242.4 317.1,242.4 316.4,242.4 315.8,242.4 315.1,242.4 314.4,242.4 313.7,242.4 313.1,242.4 312.4,242.4 311.7,242.4 311.0,242.4 310.4,242.4 309.7,242.4
309.0,242.4 308.3,242.4 307.7,242.4 307.0,242.4 306.3,242.4 305.6,242.4 305.0,242.4 304.3,242.4 303.6,242.4 302.9,242.4 302.3,242.4 301.6,242.4 300.9,242.4 300.2,242.4 299.6,242.4 298.9,242.4
298.2,242.4 297.5,242.4 296.9,242.4 296.2,242.4 295.5,242.4 294.9,242.4 294.2,242.4 293.5,242.4 292.8,242.4 292.2,242.4 291.5,242.4 290.8,242.4 290.1,242.4 289.5,242.4 288.8,242.4 288.1,242.4
287.4,242.4 286.8,242.4 286.1,242.4 285.4,242.4 284.7,242.4 284.1,242.4 283.4,242.4 282.7,242.4 282.0,242.4 281.4,242.4 280.7,242.4 280.0,242.4 279.3,242.4 278.7,242.4 278.0,242.4 277.3,242.4
276.6,242.4 276.0,242.4 275.3,242.4 274.6,242.4 273.9,242.4 273.3,242.4 272.6,242.4 271.9,242.4 271.2,242.4 270.6,242.4 269.9,242.4 269.2,242.4 268.6,242.4 267.9,242.4 267.2,242.4 266.5,242.4
265.9,242.4 265.2,242.4 264.5,242.4 263.8,242.4 263.2,242.4 262.5,242.4 261.8,242.4 261.1,242.4 260.5,242.4 259.8,242.4 259.1,242.4 258.4,242.4 257.8,242.4 257.1,242.4 256.4,242.4 255.7,242.4
255.1,242.4 254.4,242.4 253.7,242.4 253.0,242.4 252.4,242.4 251.7,242.4 251.0,242.4 250.3,242.4 249.7,242.4 249.0,242.4 248.3,242.4 247.6,242.4 247.0,242.4 246.3,242.4 245.6,242.4 244.9,242.4
244.3,242.4 243.6,242.4 242.9,242.4 242.3,242.4 241.6,242.4 240.9,242.4 240.2,242.4 239.6,242.4 238.9,242.4 238.2,242.4 237.5,242.4 236.9,242.4 236.2,242.4 235.5,242.4 234.8,242.4 234.2,242.4
233.5,242.4 232.8,242.4 232.1,242.4 231.5,242.4 230.8,242.4 230.1,242.4 229.4,242.4 228.8,242.4 228.1,242.4 227.4,242.4 226.7,242.4 226.1,242.4 225.4,242.4 224.7,242.4 224.0,242.4 223.4,242.4
222.7,242.4 222.0,242.4 221.3,242.4 220.7,242.4 220.0,242.4 219.3,242.4 218.6,242.4 218.0,242.4 217.3,242.4 216.6,242.4 216.0,242.4 215.3,242.4 214.6,242.4 213.9,242.4 213.3,242.4 212.6,242.4
211.9,242.4 211.2,242.4 210.6,242.4 209.9,242.4 209.2,242.4 208.5,242.4 207.9,242.4 207.2,242.4 206.5,242.4 205.8,242.4 205.2,242.4 204.5,242.4 203.8,242.4 203.1,242.4 202.5,242.4 201.8,242.4
201.1,242.4 200.4,242.4 199.8,242.4 199.1,242.4 198.4,242.4 197.7,242.4 197.1,242.4 196.4,242.4 195.7,242.4 195.0,242.4 194.4,242.4 193.7,242.4 193.0,242.4 192.3,242.4 191.7,242.4 191.0,242.4
190.3,242.4 189.7,242.4 189.0,242.4 188.3,242.4 187.6,242.4 187.0,242.4 186.3,242.4 185.6,242.4 184.9,242.4 184.3,242.4 183.6,242.4 182.9,242.4 182.2,242.4 181.6,242.4 180.9,242.4 180.2,242.4
179.5,242.4 178.9,242.4 178.2,242.4 177.5,242.4 176.8,242.4 176.2,242.4 175.5,242.4 174.8,242.4 174.1,242.4 173.5,242.4 172.8,242.4 172.1,242.4 171.4,242.4 170.8,242.4 170.1,242.4 169.4,242.4
168.7,242.4 168.1,242.4 167.4,242.4 166.7,242.4 166.1,242.4 165.4,242.4 164.7,242.4 164.0,242.4 163.4,242.4 162.7,242.4 162.0,242.4 161.3,242.4 160.7,242.4 160.0,242.4 159.3,242.4 158.6,242.4
158.0,242.4 157.3,242.4 156.6,242.4 155.9,242.4 155.3,242.4 154.6,242.4 153.9,242.4 153.2,242.4 152.6,242.4 151.9,242.4 151.2,242.4 150.5,242.4 149.9,242.4 149.2,242.4 148.5,242.4 147.8,242.4
147.2,242.4 146.5,242.4 145.8,242.4 145.1,242.4 144.5,242.4 143.8,242.4 143.1,242.4 142.4,242.4 141.8,242.4 141.1,242.4 140.4,242.4 139.8,242.4 139.1,242.4 138.4,242.4 137.7,242.4 137.1,242.4
136.4,242.4 135.7,242.4 135.0,242.4 134.4,242.4 133.7,242.4 133.0,242.4 132.3,242.4 131.7,242.4 131.0,242.4 130.3,242.4 129.6,242.4 129.0,242.4 128.3,242.4 127.6,242.4 126.9,242.4 126.3,242.4
125.6,242.4 124.9,242.4 124.2,242.4 123.6,242.4 122.9,242.4 122.2,242.4 121.5,242.4 120.9,242.4 120.2,242.4 119.5,242.4 118.8,242.4 118.2,242.4 117.5,242.4 116.8,242.4 116.1,242.4 115.5,242.4
114.8,242.4 114.1,242.4 113.5,242.4 112.8,242.4 112.1,242.4 111.4,242.4 110.8,242.4 110.1,242.4 109.4,242.4 108.7,242.4 108.1,242.4 107.4,242.4 106.7,242.4 106.0,242.4 105.4,242.4 104.7,242.4
104.0,242.4 103.3,242.4 102.7,242.4 102.0,242.4 101.3,242.4 100.6,242.4 100.0,242.4 99.3,242.4 98.6,242.4 97.9,242.4 97.3,242.4 96.6,242.4 95.9,242.4 95.2,242.4 94.6,242.4 93.9,242.4
93.2,242.4 92.5,242.4 91.9,242.4 91.2,242.4 90.5,242.4 89.8,242.4 89.2,242.4 88.5,242.4 '/>
	</g>
</g>
	</g>
	<g id="gnuplot_plot_2" ><title>Mean</title>
<g fill="none" color="white" stroke="rgb( 31, 120, 180)" stroke-width="2.00" stroke-linecap="butt" stroke-linejoin="miter">
</g>
<g fill="none" color="black" stroke="currentColor" stroke-width="2.00" stroke-linecap="butt" stroke-linejoin="miter">
	<path stroke='rgb( 31, 120, 180)'  d='M145.9,242.4 L145.9,61.1  '/></g>
	</g>
<g fill="none" color="black" stroke="currentColor" stroke-width="2.00" stroke-linecap="butt" stroke-linejoin="miter">
</g>
<g fill="none" color="black" stroke="black" stroke-width="1.00" stroke-linecap="butt" stroke-linejoin="miter">
</g>
<g fill="none" color="black" stroke="currentColor" stroke-width="1.00" stroke-linecap="butt" stroke-linejoin="miter">
	<path stroke='black'  d='M88.5,18.1 L88.5,242.4 L425.0,242.4 L425.0,18.1 L88.5,18.1 Z  '/></g>
<g fill="none" color="black" stroke="currentColor" stroke-width="1.00" stroke-linecap="butt" stroke-linejoin="miter">
</g>
</g>
</svg>

