<?xml version="1.0" encoding="utf-8"  standalone="no"?>
<svg 
 viewBox="0 0 1280 720"
 xmlns="http://www.w3.org/2000/svg"
 xmlns:xlink="http://www.w3.org/1999/xlink"
>

<title>Gnuplot</title>
<desc>Produced by GNUPLOT 5.2 patchlevel 6 </desc>

<g id="gnuplot_canvas">

<rect x="0" y="0" width="1280" height="720" fill="none"/>
<defs>

	<circle id='gpDot' r='0.5' stroke-width='0.5' stroke='currentColor'/>
	<path id='gpPt0' stroke-width='0.222' stroke='currentColor' d='M-1,0 h2 M0,-1 v2'/>
	<path id='gpPt1' stroke-width='0.222' stroke='currentColor' d='M-1,-1 L1,1 M1,-1 L-1,1'/>
	<path id='gpPt2' stroke-width='0.222' stroke='currentColor' d='M-1,0 L1,0 M0,-1 L0,1 M-1,-1 L1,1 M-1,1 L1,-1'/>
	<rect id='gpPt3' stroke-width='0.222' stroke='currentColor' x='-1' y='-1' width='2' height='2'/>
	<rect id='gpPt4' stroke-width='0.222' stroke='currentColor' fill='currentColor' x='-1' y='-1' width='2' height='2'/>
	<circle id='gpPt5' stroke-width='0.222' stroke='currentColor' cx='0' cy='0' r='1'/>
	<use xlink:href='#gpPt5' id='gpPt6' fill='currentColor' stroke='none'/>
	<path id='gpPt7' stroke-width='0.222' stroke='currentColor' d='M0,-1.33 L-1.33,0.67 L1.33,0.67 z'/>
	<use xlink:href='#gpPt7' id='gpPt8' fill='currentColor' stroke='none'/>
	<use xlink:href='#gpPt7' id='gpPt9' stroke='currentColor' transform='rotate(180)'/>
	<use xlink:href='#gpPt9' id='gpPt10' fill='currentColor' stroke='none'/>
	<use xlink:href='#gpPt3' id='gpPt11' stroke='currentColor' transform='rotate(45)'/>
	<use xlink:href='#gpPt11' id='gpPt12' fill='currentColor' stroke='none'/>
	<path id='gpPt13' stroke-width='0.222' stroke='currentColor' d='M0,1.330 L1.265,0.411 L0.782,-1.067 L-0.782,-1.076 L-1.265,0.411 z'/>
	<use xlink:href='#gpPt13' id='gpPt14' fill='currentColor' stroke='none'/>
	<filter id='textbox' filterUnits='objectBoundingBox' x='0' y='0' height='1' width='1'>
	  <feFlood flood-color='white' flood-opacity='1' result='bgnd'/>
	  <feComposite in='SourceGraphic' in2='bgnd' operator='atop'/>
	</filter>
	<filter id='greybox' filterUnits='objectBoundingBox' x='0' y='0' height='1' width='1'>
	  <feFlood flood-color='lightgrey' flood-opacity='1' result='grey'/>
	  <feComposite in='SourceGraphic' in2='grey' operator='atop'/>
	</filter>
</defs>
<g fill="none" color="white" stroke="currentColor" stroke-width="1.00" stroke-linecap="butt" stroke-linejoin="miter">
</g>
<g fill="none" color="black" stroke="currentColor" stroke-width="1.00" stroke-linecap="butt" stroke-linejoin="miter">
	<path stroke='black'  d='M88.5,662.4 L97.5,662.4  '/>	<g transform="translate(80.2,666.3)" stroke="none" fill="black" font-family="Helvetica" font-size="12.00"  text-anchor="end">
		<text><tspan font-family="Helvetica" > 0</tspan></text>
	</g>
</g>
<g fill="none" color="black" stroke="currentColor" stroke-width="1.00" stroke-linecap="butt" stroke-linejoin="miter">
	<path stroke='black'  d='M88.5,561.0 L97.5,561.0  '/>	<g transform="translate(80.2,564.9)" stroke="none" fill="black" font-family="Helvetica" font-size="12.00"  text-anchor="end">
		<text><tspan font-family="Helvetica" > 0.005</tspan></text>
	</g>
</g>
<g fill="none" color="black" stroke="currentColor" stroke-width="1.00" stroke-linecap="butt" stroke-linejoin="miter">
	<path stroke='black'  d='M88.5,459.6 L97.5,459.6  '/>	<g transform="translate(80.2,463.5)" stroke="none" fill="black" font-family="Helvetica" font-size="12.00"  text-anchor="end">
		<text><tspan font-family="Helvetica" > 0.01</tspan></text>
	</g>
</g>
<g fill="none" color="black" stroke="currentColor" stroke-width="1.00" stroke-linecap="butt" stroke-linejoin="miter">
	<path stroke='black'  d='M88.5,358.2 L97.5,358.2  '/>	<g transform="translate(80.2,362.1)" stroke="none" fill="black" font-family="Helvetica" font-size="12.00"  text-anchor="end">
		<text><tspan font-family="Helvetica" > 0.015</tspan></text>
	</g>
</g>
<g fill="none" color="black" stroke="currentColor" stroke-width="1.00" stroke-linecap="butt" stroke-linejoin="miter">
	<path stroke='black'  d='M88.5,256.9 L97.5,256.9  '/>	<g transform="translate(80.2,260.8)" stroke="none" fill="black" font-family="Helvetica" font-size="12.00"  text-anchor="end">
		<text><tspan font-family="Helvetica" > 0.02</tspan></text>
	</g>
</g>
<g fill="none" color="black" stroke="currentColor" stroke-width="1.00" stroke-linecap="butt" stroke-linejoin="miter">
	<path stroke='black'  d='M88.5,155.5 L97.5,155.5  '/>	<g transform="translate(80.2,159.4)" stroke="none" fill="black" font-family="Helvetica" font-size="12.00"  text-anchor="end">
		<text><tspan font-family="Helvetica" > 0.025</tspan></text>
	</g>
</g>
<g fill="none" color="black" stroke="currentColor" stroke-width="1.00" stroke-linecap="butt" stroke-linejoin="miter">
	<path stroke='black'  d='M88.5,54.1 L97.5,54.1  '/>	<g transform="translate(80.2,58.0)" stroke="none" fill="black" font-family="Helvetica" font-size="12.00"  text-anchor="end">
		<text><tspan font-family="Helvetica" > 0.03</tspan></text>
	</g>
</g>
<g fill="none" color="black" stroke="currentColor" stroke-width="1.00" stroke-linecap="butt" stroke-linejoin="miter">
	<path stroke='black'  d='M98.0,662.4 L98.0,653.4  '/>	<g transform="translate(98.0,684.3)" stroke="none" fill="black" font-family="Helvetica" font-size="12.00"  text-anchor="middle">
		<text><tspan font-family="Helvetica" > 10</tspan></text>
	</g>
</g>
<g fill="none" color="black" stroke="currentColor" stroke-width="1.00" stroke-linecap="butt" stroke-linejoin="miter">
	<path stroke='black'  d='M238.0,662.4 L238.0,653.4  '/>	<g transform="translate(238.0,684.3)" stroke="none" fill="black" font-family="Helvetica" font-size="12.00"  text-anchor="middle">
		<text><tspan font-family="Helvetica" > 20</tspan></text>
	</g>
</g>
<g fill="none" color="black" stroke="currentColor" stroke-width="1.00" stroke-linecap="butt" stroke-linejoin="miter">
	<path stroke='black'  d='M377.9,662.4 L377.9,653.4  '/>	<g transform="translate(377.9,684.3)" stroke="none" fill="black" font-family="Helvetica" font-size="12.00"  text-anchor="middle">
		<text><tspan font-family="Helvetica" > 30</tspan></text>
	</g>
</g>
<g fill="none" color="black" stroke="currentColor" stroke-width="1.00" stroke-linecap="butt" stroke-linejoin="miter">
	<path stroke='black'  d='M517.9,662.4 L517.9,653.4  '/>	<g transform="translate(517.9,684.3)" stroke="none" fill="black" font-family="Helvetica" font-size="12.00"  text-anchor="middle">
		<text><tspan font-family="Helvetica" > 40</tspan></text>
	</g>
</g>
<g fill="none" color="black" stroke="currentColor" stroke-width="1.00" stroke-linecap="butt" stroke-linejoin="miter">
	<path stroke='black'  d='M657.8,662.4 L657.8,653.4  '/>	<g transform="translate(657.8,684.3)" stroke="none" fill="black" font-family="Helvetica" font-size="12.00"  text-anchor="middle">
		<text><tspan font-family="Helvetica" > 50</tspan></text>
	</g>
</g>
<g fill="none" color="black" stroke="currentColor" stroke-width="1.00" stroke-linecap="butt" stroke-linejoin="miter">
	<path stroke='black'  d='M797.8,662.4 L797.8,653.4  '/>	<g transform="translate(797.8,684.3)" stroke="none" fill="black" font-family="Helvetica" font-size="12.00"  text-anchor="middle">
		<text><tspan font-family="Helvetica" > 60</tspan></text>
	</g>
</g>
<g fill="none" color="black" stroke="currentColor" stroke-width="1.00" stroke-linecap="butt" stroke-linejoin="miter">
	<path stroke='black'  d='M937.8,662.4 L937.8,653.4  '/>	<g transform="translate(937.8,684.3)" stroke="none" fill="black" font-family="Helvetica" font-size="12.00"  text-anchor="middle">
		<text><tspan font-family="Helvetica" > 70</tspan></text>
	</g>
</g>
<g fill="none" color="black" stroke="currentColor" stroke-width="1.00" stroke-linecap="butt" stroke-linejoin="miter">
</g>
<g fill="none" color="black" stroke="currentColor" stroke-width="1.00" stroke-linecap="butt" stroke-linejoin="miter">
	<path stroke='black'  d='M88.5,54.1 L88.5,662.4 L1013.6,662.4 L1013.6,54.1 L88.5,54.1 Z  '/></g>
<g fill="none" color="black" stroke="currentColor" stroke-width="1.00" stroke-linecap="butt" stroke-linejoin="miter">
	<g transform="translate(16.3,358.3) rotate(270)" stroke="none" fill="black" font-family="Helvetica" font-size="12.00"  text-anchor="middle">
		<text><tspan font-family="Helvetica" >Density (a.u.)</tspan></text>
	</g>
</g>
<g fill="none" color="black" stroke="currentColor" stroke-width="1.00" stroke-linecap="butt" stroke-linejoin="miter">
	<g transform="translate(551.0,711.3)" stroke="none" fill="black" font-family="Helvetica" font-size="12.00"  text-anchor="middle">
		<text><tspan font-family="Helvetica" >Average time (us)</tspan></text>
	</g>
</g>
<g fill="none" color="black" stroke="currentColor" stroke-width="1.00" stroke-linecap="butt" stroke-linejoin="miter">
	<g transform="translate(551.0,31.0)" stroke="none" fill="black" font-family="Helvetica" font-size="12.00"  text-anchor="middle">
		<text><tspan font-family="Helvetica" >perf/instruction_and_branch_counters: SD</tspan></text>
	</g>
</g>
	<g id="gnuplot_plot_1" ><title>Bootstrap distribution</title>
<g fill="none" color="white" stroke="black" stroke-width="2.00" stroke-linecap="butt" stroke-linejoin="miter">
</g>
<g fill="none" color="black" stroke="currentColor" stroke-width="2.00" stroke-linecap="butt" stroke-linejoin="miter">
	<g transform="translate(1089.0,67.0)" stroke="none" fill="black" font-family="Helvetica" font-size="12.00"  text-anchor="start">
		<text><tspan font-family="Helvetica" >Bootstrap distribution</tspan></text>
	</g>
</g>
<g fill="none" color="black" stroke="currentColor" stroke-width="2.00" stroke-linecap="butt" stroke-linejoin="miter">
	<path stroke='rgb( 31, 120, 180)'  d='M1038.5,63.1 L1080.7,63.1 M88.5,627.2 L90.4,626.7 L92.2,626.1 L94.1,625.7 L95.9,625.3 L97.8,624.9
		L99.6,624.5 L101.5,624.1 L103.3,623.7 L105.2,623.2 L107.0,622.7 L108.9,622.1 L110.7,621.3 L112.6,620.4
		L114.5,619.4 L116.3,618.3 L118.2,617.0 L120.0,615.6 L121.9,614.0 L123.7,612.4 L125.6,610.7 L127.4,608.8
		L129.3,607.0 L131.1,605.1 L133.0,603.2 L134.8,601.4 L136.7,599.5 L138.6,597.7 L140.4,596.0 L142.3,594.3
		L144.1,592.6 L146.0,591.0 L147.8,589.4 L149.7,587.8 L151.5,586.3 L153.4,584.7 L155.2,583.1 L157.1,581.5
		L158.9,579.8 L160.8,578.0 L162.7,576.1 L164.5,574.2 L166.4,572.2 L168.2,570.1 L170.1,567.9 L171.9,565.6
		L173.8,563.2 L175.6,560.8 L177.5,558.4 L179.3,555.9 L181.2,553.5 L183.0,551.0 L184.9,548.6 L186.8,546.2
		L188.6,543.9 L190.5,541.6 L192.3,539.5 L194.2,537.4 L196.0,535.4 L197.9,533.6 L199.7,531.8 L201.6,530.2
		L203.4,528.7 L205.3,527.3 L207.2,526.0 L209.0,524.9 L210.9,523.8 L212.7,522.8 L214.6,521.9 L216.4,521.1
		L218.3,520.3 L220.1,519.5 L222.0,518.8 L223.8,518.1 L225.7,517.5 L227.5,516.8 L229.4,516.1 L231.3,515.5
		L233.1,514.8 L235.0,514.2 L236.8,513.5 L238.7,512.8 L240.5,512.1 L242.4,511.5 L244.2,510.8 L246.1,510.1
		L247.9,509.5 L249.8,508.8 L251.6,508.2 L253.5,507.6 L255.4,507.0 L257.2,506.5 L259.1,506.0 L260.9,505.5
		L262.8,505.0 L264.6,504.6 L266.5,504.2 L268.3,503.9 L270.2,503.6 L272.0,503.3 L273.9,503.1 L275.7,502.8
		L277.6,502.6 L279.5,502.5 L281.3,502.3 L283.2,502.1 L285.0,501.9 L286.9,501.7 L288.7,501.4 L290.6,501.0
		L292.4,500.6 L294.3,500.0 L296.1,499.3 L298.0,498.5 L299.8,497.5 L301.7,496.4 L303.6,495.0 L305.4,493.5
		L307.3,491.8 L309.1,489.9 L311.0,487.8 L312.8,485.5 L314.7,483.1 L316.5,480.5 L318.4,477.8 L320.2,474.9
		L322.1,472.0 L323.9,469.1 L325.8,466.1 L327.7,463.1 L329.5,460.1 L331.4,457.1 L333.2,454.2 L335.1,451.4
		L336.9,448.5 L338.8,445.8 L340.6,443.1 L342.5,440.4 L344.3,437.8 L346.2,435.2 L348.0,432.7 L349.9,430.2
		L351.8,427.6 L353.6,425.0 L355.5,422.4 L357.3,419.8 L359.2,417.1 L361.0,414.3 L362.9,411.5 L364.7,408.6
		L366.6,405.7 L368.4,402.6 L370.3,399.5 L372.1,396.4 L374.0,393.1 L375.9,389.8 L377.7,386.5 L379.6,383.1
		L381.4,379.6 L383.3,376.1 L385.1,372.5 L387.0,368.8 L388.8,365.1 L390.7,361.3 L392.5,357.4 L394.4,353.4
		L396.2,349.3 L398.1,345.1 L400.0,340.7 L401.8,336.2 L403.7,331.6 L405.5,326.9 L407.4,322.0 L409.2,317.0
		L411.1,312.0 L412.9,306.8 L414.8,301.6 L416.6,296.3 L418.5,291.1 L420.3,285.8 L422.2,280.5 L424.1,275.3
		L425.9,270.2 L427.8,265.1 L429.6,260.1 L431.5,255.2 L433.3,250.3 L435.2,245.6 L437.0,240.9 L438.9,236.3
		L440.7,231.7 L442.6,227.1 L444.5,222.5 L446.3,218.0 L448.2,213.4 L450.0,208.8 L451.9,204.1 L453.7,199.4
		L455.6,194.7 L457.4,190.0 L459.3,185.2 L461.1,180.5 L463.0,175.8 L464.8,171.3 L466.7,166.8 L468.6,162.4
		L470.4,158.3 L472.3,154.3 L474.1,150.6 L476.0,147.2 L477.8,144.1 L479.7,141.3 L481.5,138.8 L483.4,136.6
		L485.2,134.8 L487.1,133.4 L488.9,132.2 L490.8,131.4 L492.7,130.9 L494.5,130.6 L496.4,130.6 L498.2,130.8
		L500.1,131.2 L501.9,131.8 L503.8,132.5 L505.6,133.3 L507.5,134.2 L509.3,135.1 L511.2,136.1 L513.0,137.0
		L514.9,137.9 L516.8,138.8 L518.6,139.6 L520.5,140.2 L522.3,140.8 L524.2,141.2 L526.0,141.4 L527.9,141.5
		L529.7,141.3 L531.6,141.0 L533.4,140.5 L535.3,139.8 L537.1,138.9 L539.0,137.8 L540.9,136.6 L542.7,135.1
		L544.6,133.5 L546.4,131.7 L548.3,129.7 L550.1,127.6 L552.0,125.3 L553.8,122.9 L555.7,120.4 L557.5,117.8
		L559.4,115.0 L561.2,112.2 L563.1,109.2 L565.0,106.2 L566.8,103.1 L568.7,99.9 L570.5,96.7 L572.4,93.5
		L574.2,90.3 L576.1,87.1 L577.9,83.9 L579.8,80.8 L581.6,77.9 L583.5,75.0 L585.3,72.3 L587.2,69.8
		L589.1,67.4 L590.9,65.2 L592.8,63.3 L594.6,61.5 L596.5,60.0 L598.3,58.7 L600.2,57.7 L602.0,56.8
		L603.9,56.2 L605.7,55.7 L607.6,55.4 L609.4,55.2 L611.3,55.2 L613.2,55.3 L615.0,55.6 L616.9,55.9
		L618.7,56.2 L620.6,56.6 L622.4,57.1 L624.3,57.6 L626.1,58.1 L628.0,58.7 L629.8,59.3 L631.7,60.0
		L633.5,60.7 L635.4,61.4 L637.3,62.3 L639.1,63.2 L641.0,64.2 L642.8,65.4 L644.7,66.6 L646.5,68.1
		L648.4,69.6 L650.2,71.4 L652.1,73.3 L653.9,75.3 L655.8,77.6 L657.6,80.0 L659.5,82.6 L661.4,85.4
		L663.2,88.3 L665.1,91.3 L666.9,94.5 L668.8,97.7 L670.6,101.1 L672.5,104.5 L674.3,108.0 L676.2,111.5
		L678.0,115.1 L679.9,118.7 L681.8,122.2 L683.6,125.7 L685.5,129.2 L687.3,132.6 L689.2,136.0 L691.0,139.3
		L692.9,142.5 L694.7,145.7 L696.6,148.8 L698.4,151.8 L700.3,154.7 L702.1,157.5 L704.0,160.3 L705.9,163.0
		L707.7,165.7 L709.6,168.2 L711.4,170.8 L713.3,173.3 L715.1,175.7 L717.0,178.2 L718.8,180.6 L720.7,183.0
		L722.5,185.4 L724.4,187.8 L726.2,190.2 L728.1,192.7 L730.0,195.2 L731.8,197.7 L733.7,200.3 L735.5,202.9
		L737.4,205.6 L739.2,208.4 L741.1,211.3 L742.9,214.2 L744.8,217.2 L746.6,220.3 L748.5,223.5 L750.3,226.8
		L752.2,230.2 L754.1,233.6 L755.9,237.2 L757.8,240.8 L759.6,244.5 L761.5,248.2 L763.3,252.1 L765.2,256.0
		L767.0,259.9 L768.9,263.9 L770.7,268.0 L772.6,272.1 L774.4,276.3 L776.3,280.5 L778.2,284.7 L780.0,288.9
		L781.9,293.2 L783.7,297.5 L785.6,301.7 L787.4,306.0 L789.3,310.3 L791.1,314.6 L793.0,318.9 L794.8,323.1
		L796.7,327.3 L798.5,331.5 L800.4,335.6 L802.3,339.7 L804.1,343.8 L806.0,347.8 L807.8,351.8 L809.7,355.7
		L811.5,359.5 L813.4,363.3 L815.2,367.1 L817.1,370.8 L818.9,374.5 L820.8,378.1 L822.6,381.7 L824.5,385.3
		L826.4,388.9 L828.2,392.4 L830.1,395.9 L831.9,399.4 L833.8,402.9 L835.6,406.3 L837.5,409.8 L839.3,413.2
		L841.2,416.7 L843.0,420.1 L844.9,423.5 L846.7,426.8 L848.6,430.2 L850.5,433.5 L852.3,436.8 L854.2,440.0
		L856.0,443.3 L857.9,446.4 L859.7,449.6 L861.6,452.7 L863.4,455.7 L865.3,458.8 L867.1,461.7 L869.0,464.7
		L870.8,467.6 L872.7,470.5 L874.6,473.4 L876.4,476.3 L878.3,479.1 L880.1,482.0 L882.0,484.8 L883.8,487.7
		L885.7,490.5 L887.5,493.4 L889.4,496.3 L891.2,499.1 L893.1,502.0 L894.9,504.9 L896.8,507.8 L898.7,510.8
		L900.5,513.7 L902.4,516.6 L904.2,519.5 L906.1,522.4 L907.9,525.3 L909.8,528.2 L911.6,531.0 L913.5,533.8
		L915.3,536.6 L917.2,539.4 L919.1,542.1 L920.9,544.8 L922.8,547.4 L924.6,550.0 L926.5,552.5 L928.3,555.0
		L930.2,557.5 L932.0,559.9 L933.9,562.3 L935.7,564.6 L937.6,566.8 L939.4,569.1 L941.3,571.3 L943.2,573.4
		L945.0,575.5 L946.9,577.5 L948.7,579.6 L950.6,581.5 L952.4,583.5 L954.3,585.3 L956.1,587.2 L958.0,589.0
		L959.8,590.8 L961.7,592.5 L963.5,594.2 L965.4,595.8 L967.3,597.4 L969.1,599.0 L971.0,600.6 L972.8,602.1
		L974.7,603.5 L976.5,605.0 L978.4,606.4 L980.2,607.8 L982.1,609.1 L983.9,610.4 L985.8,611.7 L987.6,613.0
		L989.5,614.2 L991.4,615.4 L993.2,616.6 L995.1,617.8 L996.9,618.9 L998.8,620.1 L1000.6,621.2 L1002.5,622.3
		L1004.3,623.4 L1006.2,624.4 L1008.0,625.5 L1009.9,626.5 L1011.7,627.5 L1013.6,628.5  '/></g>
	</g>
	<g id="gnuplot_plot_2" ><title>Confidence interval</title>
<g fill="none" color="white" stroke="rgb( 31, 120, 180)" stroke-width="1.00" stroke-linecap="butt" stroke-linejoin="miter">
</g>
<g fill="none" color="black" stroke="currentColor" stroke-width="1.00" stroke-linecap="butt" stroke-linejoin="miter">
	<g transform="translate(1089.0,85.0)" stroke="none" fill="black" font-family="Helvetica" font-size="12.00"  text-anchor="start">
		<text><tspan font-family="Helvetica" >Confidence interval</tspan></text>
	</g>
</g>
<g fill="none" color="black" stroke="currentColor" stroke-width="1.00" stroke-linecap="butt" stroke-linejoin="miter">
	<g stroke='none' shape-rendering='crispEdges'>
		<polygon fill = 'rgb( 31, 120, 180)' fill-opacity = '0.250000' points = '1038.5,85.6 1080.7,85.6 1080.7,76.6 1038.5,76.6 '/>
		<polygon fill = 'rgb( 31, 120, 180)' fill-opacity = '0.250000' points = '173.8,563.2 175.6,560.8 177.5,558.4 179.3,555.9 181.2,553.5 183.0,551.0 184.9,548.6 186.8,546.2 188.6,543.9 190.5,541.6 192.3,539.5 194.2,537.4 196.0,535.4 197.9,533.6 199.7,531.8 201.6,530.2
203.4,528.7 205.3,527.3 207.2,526.0 209.0,524.9 210.9,523.8 212.7,522.8 214.6,521.9 216.4,521.1 218.3,520.3 220.1,519.5 222.0,518.8 223.8,518.1 225.7,517.5 227.5,516.8 229.4,516.1 231.3,515.5
233.1,514.8 235.0,514.2 236.8,513.5 238.7,512.8 240.5,512.1 242.4,511.5 244.2,510.8 246.1,510.1 247.9,509.5 249.8,508.8 251.6,508.2 253.5,507.6 255.4,507.0 257.2,506.5 259.1,506.0 260.9,505.5
262.8,505.0 264.6,504.6 266.5,504.2 268.3,503.9 270.2,503.6 272.0,503.3 273.9,503.1 275.7,502.8 277.6,502.6 279.5,502.5 281.3,502.3 283.2,502.1 285.0,501.9 286.9,501.7 288.7,501.4 290.6,501.0
292.4,500.6 294.3,500.0 296.1,499.3 298.0,498.5 299.8,497.5 301.7,496.4 303.6,495.0 305.4,493.5 307.3,491.8 309.1,489.9 311.0,487.8 312.8,485.5 314.7,483.1 316.5,480.5 318.4,477.8 320.2,474.9
322.1,472.0 323.9,469.1 325.8,466.1 327.7,463.1 329.5,460.1 331.4,457.1 333.2,454.2 335.1,451.4 336.9,448.5 338.8,445.8 340.6,443.1 342.5,440.4 344.3,437.8 346.2,435.2 348.0,432.7 349.9,430.2
351.8,427.6 353.6,425.0 355.5,422.4 357.3,419.8 359.2,417.1 361.0,414.3 362.9,411.5 364.7,408.6 366.6,405.7 368.4,402.6 370.3,399.5 372.1,396.4 374.0,393.1 375.9,389.8 377.7,386.5 379.6,383.1
381.4,379.6 383.3,376.1 385.1,372.5 387.0,368.8 388.8,365.1 390.7,361.3 392.5,357.4 394.4,353.4 396.2,349.3 398.1,345.1 400.0,340.7 401.8,336.2 403.7,331.6 405.5,326.9 407.4,322.0 409.2,317.0
411.1,312.0 412.9,306.8 414.8,301.6 416.6,296.3 418.5,291.1 420.3,285.8 422.2,280.5 424.1,275.3 425.9,270.2 427.8,265.1 429.6,260.1 431.5,255.2 433.3,250.3 435.2,245.6 437.0,240.9 438.9,236.3
440.7,231.7 442.6,227.1 444.5,222.5 446.3,218.0 448.2,213.4 450.0,208.8 451.9,204.1 453.7,199.4 455.6,194.7 457.4,190.0 459.3,185.2 461.1,180.5 463.0,175.8 464.8,171.3 466.7,166.8 468.6,162.4
470.4,158.3 472.3,154.3 474.1,150.6 476.0,147.2 477.8,144.1 479.7,141.3 481.5,138.8 483.4,136.6 485.2,134.8 487.1,133.4 488.9,132.2 490.8,131.4 492.7,130.9 494.5,130.6 496.4,130.6 498.2,130.8
500.1,131.2 501.9,131.8 503.8,132.5 505.6,133.3 507.5,134.2 509.3,135.1 511.2,136.1 513.0,137.0 514.9,137.9 516.8,138.8 518.6,139.6 520.5,140.2 522.3,140.8 524.2,141.2 526.0,141.4 527.9,141.5
529.7,141.3 531.6,141.0 533.4,140.5 535.3,139.8 537.1,138.9 539.0,137.8 540.9,136.6 542.7,135.1 544.6,133.5 546.4,131.7 548.3,129.7 550.1,127.6 552.0,125.3 553.8,122.9 555.7,120.4 557.5,117.8
559.4,115.0 561.2,112.2 563.1,109.2 565.0,106.2 566.8,103.1 568.7,99.9 570.5,96.7 572.4,93.5 574.2,90.3 576.1,87.1 577.9,83.9 579.8,80.8 581.6,77.9 583.5,75.0 585.3,72.3 587.2,69.8
589.1,67.4 590.9,65.2 592.8,63.3 594.6,61.5 596.5,60.0 598.3,58.7 600.2,57.7 602.0,56.8 603.9,56.2 605.7,55.7 607.6,55.4 609.4,55.2 611.3,55.2 613.2,55.3 615.0,55.6 616.9,55.9
618.7,56.2 620.6,56.6 622.4,57.1 624.3,57.6 626.1,58.1 628.0,58.7 629.8,59.3 631.7,60.0 633.5,60.7 635.4,61.4 637.3,62.3 639.1,63.2 641.0,64.2 642.8,65.4 644.7,66.6 646.5,68.1
648.4,69.6 650.2,71.4 652.1,73.3 653.9,75.3 655.8,77.6 657.6,80.0 659.5,82.6 661.4,85.4 663.2,88.3 665.1,91.3 666.9,94.5 668.8,97.7 670.6,101.1 672.5,104.5 674.3,108.0 676.2,111.5
678.0,115.1 679.9,118.7 681.8,122.2 683.6,125.7 685.5,129.2 687.3,132.6 689.2,136.0 691.0,139.3 692.9,142.5 694.7,145.7 696.6,148.8 698.4,151.8 700.3,154.7 702.1,157.5 704.0,160.3 705.9,163.0
707.7,165.7 709.6,168.2 711.4,170.8 713.3,173.3 715.1,175.7 717.0,178.2 718.8,180.6 720.7,183.0 722.5,185.4 724.4,187.8 726.2,190.2 728.1,192.7 730.0,195.2 731.8,197.7 733.7,200.3 735.5,202.9
737.4,205.6 739.2,208.4 741.1,211.3 742.9,214.2 744.8,217.2 746.6,220.3 748.5,223.5 750.3,226.8 752.2,230.2 754.1,233.6 755.9,237.2 757.8,240.8 759.6,244.5 761.5,248.2 763.3,252.1 765.2,256.0
767.0,259.9 768.9,263.9 770.7,268.0 772.6,272.1 774.4,276.3 776.3,280.5 778.2,284.7 780.0,288.9 781.9,293.2 783.7,297.5 785.6,301.7 787.4,306.0 789.3,310.3 791.1,314.6 793.0,318.9 794.8,323.1
796.7,327.3 798.5,331.5 800.4,335.6 802.3,339.7 804.1,343.8 806.0,347.8 807.8,351.8 809.7,355.7 811.5,359.5 813.4,363.3 815.2,367.1 817.1,370.8 818.9,374.5 820.8,378.1 822.6,381.7 824.5,385.3
826.4,388.9 828.2,392.4 830.1,395.9 831.9,399.4 833.8,402.9 835.6,406.3 837.5,409.8 839.3,413.2 841.2,416.7 843.0,420.1 844.9,423.5 846.7,426.8 848.6,430.2 850.5,433.5 852.3,436.8 854.2,440.0
856.0,443.3 857.9,446.4 859.7,449.6 861.6,452.7 863.4,455.7 865.3,458.8 867.1,461.7 869.0,464.7 870.8,467.6 872.7,470.5 874.6,473.4 876.4,476.3 878.3,479.1 880.1,482.0 882.0,484.8 883.8,487.7
885.7,490.5 887.5,493.4 889.4,496.3 891.2,499.1 893.1,502.0 894.9,504.9 896.8,507.8 898.7,510.8 900.5,513.7 902.4,516.6 904.2,519.5 906.1,522.4 907.9,525.3 909.8,528.2 911.6,531.0 913.5,533.8
915.3,536.6 917.2,539.4 919.1,542.1 920.9,544.8 922.8,547.4 924.6,550.0 926.5,552.5 926.5,662.4 924.6,662.4 922.8,662.4 920.9,662.4 919.1,662.4 917.2,662.4 915.3,662.4 913.5,662.4 911.6,662.4
909.8,662.4 907.9,662.4 906.1,662.4 904.2,662.4 902.4,662.4 900.5,662.4 898.7,662.4 896.8,662.4 894.9,662.4 893.1,662.4 891.2,662.4 889.4,662.4 887.5,662.4 885.7,662.4 883.8,662.4 882.0,662.4
880.1,662.4 878.3,662.4 876.4,662.4 874.6,662.4 872.7,662.4 870.8,662.4 869.0,662.4 867.1,662.4 865.3,662.4 863.4,662.4 861.6,662.4 859.7,662.4 857.9,662.4 856.0,662.4 854.2,662.4 852.3,662.4
850.5,662.4 848.6,662.4 846.7,662.4 844.9,662.4 843.0,662.4 841.2,662.4 839.3,662.4 837.5,662.4 835.6,662.4 833.8,662.4 831.9,662.4 830.1,662.4 828.2,662.4 826.4,662.4 824.5,662.4 822.6,662.4
820.8,662.4 818.9,662.4 817.1,662.4 815.2,662.4 813.4,662.4 811.5,662.4 809.7,662.4 807.8,662.4 806.0,662.4 804.1,662.4 802.3,662.4 800.4,662.4 798.5,662.4 796.7,662.4 794.8,662.4 793.0,662.4
791.1,662.4 789.3,662.4 787.4,662.4 785.6,662.4 783.7,662.4 781.9,662.4 780.0,662.4 778.2,662.4 776.3,662.4 774.4,662.4 772.6,662.4 770.7,662.4 768.9,662.4 767.0,662.4 765.2,662.4 763.3,662.4
761.5,662.4 759.6,662.4 757.8,662.4 755.9,662.4 754.1,662.4 752.2,662.4 750.3,662.4 748.5,662.4 746.6,662.4 744.8,662.4 742.9,662.4 741.1,662.4 739.2,662.4 737.4,662.4 735.5,662.4 733.7,662.4
731.8,662.4 730.0,662.4 728.1,662.4 726.2,662.4 724.4,662.4 722.5,662.4 720.7,662.4 718.8,662.4 717.0,662.4 715.1,662.4 713.3,662.4 711.4,662.4 709.6,662.4 707.7,662.4 705.9,662.4 704.0,662.4
702.1,662.4 700.3,662.4 698.4,662.4 696.6,662.4 694.7,662.4 692.9,662.4 691.0,662.4 689.2,662.4 687.3,662.4 685.5,662.4 683.6,662.4 681.8,662.4 679.9,662.4 678.0,662.4 676.2,662.4 674.3,662.4
672.5,662.4 670.6,662.4 668.8,662.4 666.9,662.4 665.1,662.4 663.2,662.4 661.4,662.4 659.5,662.4 657.6,662.4 655.8,662.4 653.9,662.4 652.1,662.4 650.2,662.4 648.4,662.4 646.5,662.4 644.7,662.4
642.8,662.4 641.0,662.4 639.1,662.4 637.3,662.4 635.4,662.4 633.5,662.4 631.7,662.4 629.8,662.4 628.0,662.4 626.1,662.4 624.3,662.4 622.4,662.4 620.6,662.4 618.7,662.4 616.9,662.4 615.0,662.4
613.2,662.4 611.3,662.4 609.4,662.4 607.6,662.4 605.7,662.4 603.9,662.4 602.0,662.4 600.2,662.4 598.3,662.4 596.5,662.4 594.6,662.4 592.8,662.4 590.9,662.4 589.1,662.4 587.2,662.4 585.3,662.4
583.5,662.4 581.6,662.4 579.8,662.4 577.9,662.4 576.1,662.4 574.2,662.4 572.4,662.4 570.5,662.4 568.7,662.4 566.8,662.4 565.0,662.4 563.1,662.4 561.2,662.4 559.4,662.4 557.5,662.4 555.7,662.4
553.8,662.4 552.0,662.4 550.1,662.4 548.3,662.4 546.4,662.4 544.6,662.4 542.7,662.4 540.9,662.4 539.0,662.4 537.1,662.4 535.3,662.4 533.4,662.4 531.6,662.4 529.7,662.4 527.9,662.4 526.0,662.4
524.2,662.4 522.3,662.4 520.5,662.4 518.6,662.4 516.8,662.4 514.9,662.4 513.0,662.4 511.2,662.4 509.3,662.4 507.5,662.4 505.6,662.4 503.8,662.4 501.9,662.4 500.1,662.4 498.2,662.4 496.4,662.4
494.5,662.4 492.7,662.4 490.8,662.4 488.9,662.4 487.1,662.4 485.2,662.4 483.4,662.4 481.5,662.4 479.7,662.4 477.8,662.4 476.0,662.4 474.1,662.4 472.3,662.4 470.4,662.4 468.6,662.4 466.7,662.4
464.8,662.4 463.0,662.4 461.1,662.4 459.3,662.4 457.4,662.4 455.6,662.4 453.7,662.4 451.9,662.4 450.0,662.4 448.2,662.4 446.3,662.4 444.5,662.4 442.6,662.4 440.7,662.4 438.9,662.4 437.0,662.4
435.2,662.4 433.3,662.4 431.5,662.4 429.6,662.4 427.8,662.4 425.9,662.4 424.1,662.4 422.2,662.4 420.3,662.4 418.5,662.4 416.6,662.4 414.8,662.4 412.9,662.4 411.1,662.4 409.2,662.4 407.4,662.4
405.5,662.4 403.7,662.4 401.8,662.4 400.0,662.4 398.1,662.4 396.2,662.4 394.4,662.4 392.5,662.4 390.7,662.4 388.8,662.4 387.0,662.4 385.1,662.4 383.3,662.4 381.4,662.4 379.6,662.4 377.7,662.4
375.9,662.4 374.0,662.4 372.1,662.4 370.3,662.4 368.4,662.4 366.6,662.4 364.7,662.4 362.9,662.4 361.0,662.4 359.2,662.4 357.3,662.4 355.5,662.4 353.6,662.4 351.8,662.4 349.9,662.4 348.0,662.4
346.2,662.4 344.3,662.4 342.5,662.4 340.6,662.4 338.8,662.4 336.9,662.4 335.1,662.4 333.2,662.4 331.4,662.4 329.5,662.4 327.7,662.4 325.8,662.4 323.9,662.4 322.1,662.4 320.2,662.4 318.4,662.4
316.5,662.4 314.7,662.4 312.8,662.4 311.0,662.4 309.1,662.4 307.3,662.4 305.4,662.4 303.6,662.4 301.7,662.4 299.8,662.4 298.0,662.4 296.1,662.4 294.3,662.4 292.4,662.4 290.6,662.4 288.7,662.4
286.9,662.4 285.0,662.4 283.2,662.4 281.3,662.4 279.5,662.4 277.6,662.4 275.7,662.4 273.9,662.4 272.0,662.4 270.2,662.4 268.3,662.4 266.5,662.4 264.6,662.4 262.8,662.4 260.9,662.4 259.1,662.4
257.2,662.4 255.4,662.4 253.5,662.4 251.6,662.4 249.8,662.4 247.9,662.4 246.1,662.4 244.2,662.4 242.4,662.4 240.5,662.4 238.7,662.4 236.8,662.4 235.0,662.4 233.1,662.4 231.3,662.4 229.4,662.4
227.5,662.4 225.7,662.4 223.8,662.4 222.0,662.4 220.1,662.4 218.3,662.4 216.4,662.4 214.6,662.4 212.7,662.4 210.9,662.4 209.0,662.4 207.2,662.4 205.3,662.4 203.4,662.4 201.6,662.4 199.7,662.4
197.9,662.4 196.0,662.4 194.2,662.4 192.3,662.4 190.5,662.4 188.6,662.4 186.8,662.4 184.9,662.4 183.0,662.4 181.2,662.4 179.3,662.4 177.5,662.4 175.6,662.4 173.8,662.4 '/>
	</g>
</g>
	</g>
	<g id="gnuplot_plot_3" ><title>Point estimate</title>
<g fill="none" color="white" stroke="rgb( 31, 120, 180)" stroke-width="2.00" stroke-linecap="butt" stroke-linejoin="miter">
</g>
<g fill="none" color="black" stroke="currentColor" stroke-width="2.00" stroke-linecap="butt" stroke-linejoin="miter">
	<g transform="translate(1089.0,103.0)" stroke="none" fill="black" font-family="Helvetica" font-size="12.00"  text-anchor="start">
		<text><tspan font-family="Helvetica" >Point estimate</tspan></text>
	</g>
</g>
<g fill="none" color="black" stroke="currentColor" stroke-width="2.00" stroke-linecap="butt" stroke-linejoin="miter">
	<path stroke='rgb( 31, 120, 180)'  d='M1038.5,99.1 L1080.7,99.1 M609.8,662.4 L609.8,55.2  '/></g>
	</g>
<g fill="none" color="black" stroke="currentColor" stroke-width="2.00" stroke-linecap="butt" stroke-linejoin="miter">
</g>
<g fill="none" color="black" stroke="black" stroke-width="1.00" stroke-linecap="butt" stroke-linejoin="miter">
</g>
<g fill="none" color="black" stroke="currentColor" stroke-width="1.00" stroke-linecap="butt" stroke-linejoin="miter">
	<path stroke='black'  d='M88.5,54.1 L88.5,662.4 L1013.6,662.4 L1013.6,54.1 L88.5,54.1 Z  '/></g>
<g fill="none" color="black" stroke="currentColor" stroke-width="1.00" stroke-linecap="butt" stroke-linejoin="miter">
</g>
</g>
</svg>

