<?xml version="1.0" encoding="utf-8"  standalone="no"?>
<svg 
 viewBox="0 0 1280 720"
 xmlns="http://www.w3.org/2000/svg"
 xmlns:xlink="http://www.w3.org/1999/xlink"
>

<title>Gnuplot</title>
<desc>Produced by GNUPLOT 5.2 patchlevel 6 </desc>

<g id="gnuplot_canvas">

<rect x="0" y="0" width="1280" height="720" fill="none"/>
<defs>

	<circle id='gpDot' r='0.5' stroke-width='0.5' stroke='currentColor'/>
	<path id='gpPt0' stroke-width='0.222' stroke='currentColor' d='M-1,0 h2 M0,-1 v2'/>
	<path id='gpPt1' stroke-width='0.222' stroke='currentColor' d='M-1,-1 L1,1 M1,-1 L-1,1'/>
	<path id='gpPt2' stroke-width='0.222' stroke='currentColor' d='M-1,0 L1,0 M0,-1 L0,1 M-1,-1 L1,1 M-1,1 L1,-1'/>
	<rect id='gpPt3' stroke-width='0.222' stroke='currentColor' x='-1' y='-1' width='2' height='2'/>
	<rect id='gpPt4' stroke-width='0.222' stroke='currentColor' fill='currentColor' x='-1' y='-1' width='2' height='2'/>
	<circle id='gpPt5' stroke-width='0.222' stroke='currentColor' cx='0' cy='0' r='1'/>
	<use xlink:href='#gpPt5' id='gpPt6' fill='currentColor' stroke='none'/>
	<path id='gpPt7' stroke-width='0.222' stroke='currentColor' d='M0,-1.33 L-1.33,0.67 L1.33,0.67 z'/>
	<use xlink:href='#gpPt7' id='gpPt8' fill='currentColor' stroke='none'/>
	<use xlink:href='#gpPt7' id='gpPt9' stroke='currentColor' transform='rotate(180)'/>
	<use xlink:href='#gpPt9' id='gpPt10' fill='currentColor' stroke='none'/>
	<use xlink:href='#gpPt3' id='gpPt11' stroke='currentColor' transform='rotate(45)'/>
	<use xlink:href='#gpPt11' id='gpPt12' fill='currentColor' stroke='none'/>
	<path id='gpPt13' stroke-width='0.222' stroke='currentColor' d='M0,1.330 L1.265,0.411 L0.782,-1.067 L-0.782,-1.076 L-1.265,0.411 z'/>
	<use xlink:href='#gpPt13' id='gpPt14' fill='currentColor' stroke='none'/>
	<filter id='textbox' filterUnits='objectBoundingBox' x='0' y='0' height='1' width='1'>
	  <feFlood flood-color='white' flood-opacity='1' result='bgnd'/>
	  <feComposite in='SourceGraphic' in2='bgnd' operator='atop'/>
	</filter>
	<filter id='greybox' filterUnits='objectBoundingBox' x='0' y='0' height='1' width='1'>
	  <feFlood flood-color='lightgrey' flood-opacity='1' result='grey'/>
	  <feComposite in='SourceGraphic' in2='grey' operator='atop'/>
	</filter>
</defs>
<g fill="none" color="white" stroke="currentColor" stroke-width="1.00" stroke-linecap="butt" stroke-linejoin="miter">
</g>
<g fill="none" color="black" stroke="currentColor" stroke-width="1.00" stroke-linecap="butt" stroke-linejoin="miter">
	<path stroke='black'  d='M71.9,662.4 L80.9,662.4  '/>	<g transform="translate(63.6,666.3)" stroke="none" fill="black" font-family="Helvetica" font-size="12.00"  text-anchor="end">
		<text><tspan font-family="Helvetica" > 0</tspan></text>
	</g>
</g>
<g fill="none" color="black" stroke="currentColor" stroke-width="1.00" stroke-linecap="butt" stroke-linejoin="miter">
	<path stroke='black'  d='M71.9,586.4 L80.9,586.4  '/>	<g transform="translate(63.6,590.3)" stroke="none" fill="black" font-family="Helvetica" font-size="12.00"  text-anchor="end">
		<text><tspan font-family="Helvetica" > 0.2</tspan></text>
	</g>
</g>
<g fill="none" color="black" stroke="currentColor" stroke-width="1.00" stroke-linecap="butt" stroke-linejoin="miter">
	<path stroke='black'  d='M71.9,510.3 L80.9,510.3  '/>	<g transform="translate(63.6,514.2)" stroke="none" fill="black" font-family="Helvetica" font-size="12.00"  text-anchor="end">
		<text><tspan font-family="Helvetica" > 0.4</tspan></text>
	</g>
</g>
<g fill="none" color="black" stroke="currentColor" stroke-width="1.00" stroke-linecap="butt" stroke-linejoin="miter">
	<path stroke='black'  d='M71.9,434.3 L80.9,434.3  '/>	<g transform="translate(63.6,438.2)" stroke="none" fill="black" font-family="Helvetica" font-size="12.00"  text-anchor="end">
		<text><tspan font-family="Helvetica" > 0.6</tspan></text>
	</g>
</g>
<g fill="none" color="black" stroke="currentColor" stroke-width="1.00" stroke-linecap="butt" stroke-linejoin="miter">
	<path stroke='black'  d='M71.9,358.2 L80.9,358.2  '/>	<g transform="translate(63.6,362.1)" stroke="none" fill="black" font-family="Helvetica" font-size="12.00"  text-anchor="end">
		<text><tspan font-family="Helvetica" > 0.8</tspan></text>
	</g>
</g>
<g fill="none" color="black" stroke="currentColor" stroke-width="1.00" stroke-linecap="butt" stroke-linejoin="miter">
	<path stroke='black'  d='M71.9,282.2 L80.9,282.2  '/>	<g transform="translate(63.6,286.1)" stroke="none" fill="black" font-family="Helvetica" font-size="12.00"  text-anchor="end">
		<text><tspan font-family="Helvetica" > 1</tspan></text>
	</g>
</g>
<g fill="none" color="black" stroke="currentColor" stroke-width="1.00" stroke-linecap="butt" stroke-linejoin="miter">
	<path stroke='black'  d='M71.9,206.2 L80.9,206.2  '/>	<g transform="translate(63.6,210.1)" stroke="none" fill="black" font-family="Helvetica" font-size="12.00"  text-anchor="end">
		<text><tspan font-family="Helvetica" > 1.2</tspan></text>
	</g>
</g>
<g fill="none" color="black" stroke="currentColor" stroke-width="1.00" stroke-linecap="butt" stroke-linejoin="miter">
	<path stroke='black'  d='M71.9,130.1 L80.9,130.1  '/>	<g transform="translate(63.6,134.0)" stroke="none" fill="black" font-family="Helvetica" font-size="12.00"  text-anchor="end">
		<text><tspan font-family="Helvetica" > 1.4</tspan></text>
	</g>
</g>
<g fill="none" color="black" stroke="currentColor" stroke-width="1.00" stroke-linecap="butt" stroke-linejoin="miter">
	<path stroke='black'  d='M71.9,54.1 L80.9,54.1  '/>	<g transform="translate(63.6,58.0)" stroke="none" fill="black" font-family="Helvetica" font-size="12.00"  text-anchor="end">
		<text><tspan font-family="Helvetica" > 1.6</tspan></text>
	</g>
</g>
<g fill="none" color="black" stroke="currentColor" stroke-width="1.00" stroke-linecap="butt" stroke-linejoin="miter">
	<path stroke='black'  d='M114.0,662.4 L114.0,653.4  '/>	<g transform="translate(114.0,684.3)" stroke="none" fill="black" font-family="Helvetica" font-size="12.00"  text-anchor="middle">
		<text><tspan font-family="Helvetica" > 1.2</tspan></text>
	</g>
</g>
<g fill="none" color="black" stroke="currentColor" stroke-width="1.00" stroke-linecap="butt" stroke-linejoin="miter">
	<path stroke='black'  d='M236.5,662.4 L236.5,653.4  '/>	<g transform="translate(236.5,684.3)" stroke="none" fill="black" font-family="Helvetica" font-size="12.00"  text-anchor="middle">
		<text><tspan font-family="Helvetica" > 1.4</tspan></text>
	</g>
</g>
<g fill="none" color="black" stroke="currentColor" stroke-width="1.00" stroke-linecap="butt" stroke-linejoin="miter">
	<path stroke='black'  d='M359.1,662.4 L359.1,653.4  '/>	<g transform="translate(359.1,684.3)" stroke="none" fill="black" font-family="Helvetica" font-size="12.00"  text-anchor="middle">
		<text><tspan font-family="Helvetica" > 1.6</tspan></text>
	</g>
</g>
<g fill="none" color="black" stroke="currentColor" stroke-width="1.00" stroke-linecap="butt" stroke-linejoin="miter">
	<path stroke='black'  d='M481.6,662.4 L481.6,653.4  '/>	<g transform="translate(481.6,684.3)" stroke="none" fill="black" font-family="Helvetica" font-size="12.00"  text-anchor="middle">
		<text><tspan font-family="Helvetica" > 1.8</tspan></text>
	</g>
</g>
<g fill="none" color="black" stroke="currentColor" stroke-width="1.00" stroke-linecap="butt" stroke-linejoin="miter">
	<path stroke='black'  d='M604.2,662.4 L604.2,653.4  '/>	<g transform="translate(604.2,684.3)" stroke="none" fill="black" font-family="Helvetica" font-size="12.00"  text-anchor="middle">
		<text><tspan font-family="Helvetica" > 2</tspan></text>
	</g>
</g>
<g fill="none" color="black" stroke="currentColor" stroke-width="1.00" stroke-linecap="butt" stroke-linejoin="miter">
	<path stroke='black'  d='M726.8,662.4 L726.8,653.4  '/>	<g transform="translate(726.8,684.3)" stroke="none" fill="black" font-family="Helvetica" font-size="12.00"  text-anchor="middle">
		<text><tspan font-family="Helvetica" > 2.2</tspan></text>
	</g>
</g>
<g fill="none" color="black" stroke="currentColor" stroke-width="1.00" stroke-linecap="butt" stroke-linejoin="miter">
	<path stroke='black'  d='M849.3,662.4 L849.3,653.4  '/>	<g transform="translate(849.3,684.3)" stroke="none" fill="black" font-family="Helvetica" font-size="12.00"  text-anchor="middle">
		<text><tspan font-family="Helvetica" > 2.4</tspan></text>
	</g>
</g>
<g fill="none" color="black" stroke="currentColor" stroke-width="1.00" stroke-linecap="butt" stroke-linejoin="miter">
	<path stroke='black'  d='M971.9,662.4 L971.9,653.4  '/>	<g transform="translate(971.9,684.3)" stroke="none" fill="black" font-family="Helvetica" font-size="12.00"  text-anchor="middle">
		<text><tspan font-family="Helvetica" > 2.6</tspan></text>
	</g>
</g>
<g fill="none" color="black" stroke="currentColor" stroke-width="1.00" stroke-linecap="butt" stroke-linejoin="miter">
</g>
<g fill="none" color="black" stroke="currentColor" stroke-width="1.00" stroke-linecap="butt" stroke-linejoin="miter">
	<path stroke='black'  d='M71.9,54.1 L71.9,662.4 L1013.6,662.4 L1013.6,54.1 L71.9,54.1 Z  '/></g>
<g fill="none" color="black" stroke="currentColor" stroke-width="1.00" stroke-linecap="butt" stroke-linejoin="miter">
	<g transform="translate(16.3,358.3) rotate(270)" stroke="none" fill="black" font-family="Helvetica" font-size="12.00"  text-anchor="middle">
		<text><tspan font-family="Helvetica" >Density (a.u.)</tspan></text>
	</g>
</g>
<g fill="none" color="black" stroke="currentColor" stroke-width="1.00" stroke-linecap="butt" stroke-linejoin="miter">
	<g transform="translate(542.7,711.3)" stroke="none" fill="black" font-family="Helvetica" font-size="12.00"  text-anchor="middle">
		<text><tspan font-family="Helvetica" >Average time (us)</tspan></text>
	</g>
</g>
<g fill="none" color="black" stroke="currentColor" stroke-width="1.00" stroke-linecap="butt" stroke-linejoin="miter">
	<g transform="translate(542.7,31.0)" stroke="none" fill="black" font-family="Helvetica" font-size="12.00"  text-anchor="middle">
		<text><tspan font-family="Helvetica" >snapshot_restore_with_dense/Sparse: Entire region + /proc/pid/mem/215: MAD</tspan></text>
	</g>
</g>
	<g id="gnuplot_plot_1" ><title>Bootstrap distribution</title>
<g fill="none" color="white" stroke="black" stroke-width="2.00" stroke-linecap="butt" stroke-linejoin="miter">
</g>
<g fill="none" color="black" stroke="currentColor" stroke-width="2.00" stroke-linecap="butt" stroke-linejoin="miter">
	<g transform="translate(1089.0,67.0)" stroke="none" fill="black" font-family="Helvetica" font-size="12.00"  text-anchor="start">
		<text><tspan font-family="Helvetica" >Bootstrap distribution</tspan></text>
	</g>
</g>
<g fill="none" color="black" stroke="currentColor" stroke-width="2.00" stroke-linecap="butt" stroke-linejoin="miter">
	<path stroke='rgb( 31, 120, 180)'  d='M1038.5,63.1 L1080.7,63.1 M71.9,635.5 L73.8,634.5 L75.7,633.5 L77.6,632.5 L79.4,631.5 L81.3,630.4
		L83.2,629.3 L85.1,628.2 L87.0,627.1 L88.9,625.9 L90.8,624.7 L92.7,623.4 L94.5,622.1 L96.4,620.7
		L98.3,619.3 L100.2,617.7 L102.1,616.1 L104.0,614.4 L105.9,612.6 L107.8,610.8 L109.6,608.8 L111.5,606.8
		L113.4,604.6 L115.3,602.4 L117.2,600.1 L119.1,597.8 L121.0,595.3 L122.9,592.8 L124.7,590.2 L126.6,587.5
		L128.5,584.7 L130.4,581.8 L132.3,578.9 L134.2,575.8 L136.1,572.6 L138.0,569.3 L139.8,565.9 L141.7,562.3
		L143.6,558.6 L145.5,554.7 L147.4,550.7 L149.3,546.5 L151.2,542.1 L153.0,537.5 L154.9,532.8 L156.8,528.0
		L158.7,522.9 L160.6,517.8 L162.5,512.5 L164.4,507.2 L166.3,501.8 L168.1,496.4 L170.0,490.9 L171.9,485.5
		L173.8,480.1 L175.7,474.8 L177.6,469.6 L179.5,464.5 L181.4,459.5 L183.2,454.6 L185.1,449.8 L187.0,445.2
		L188.9,440.7 L190.8,436.3 L192.7,431.9 L194.6,427.7 L196.5,423.4 L198.3,419.2 L200.2,414.9 L202.1,410.6
		L204.0,406.2 L205.9,401.7 L207.8,397.0 L209.7,392.2 L211.6,387.3 L213.4,382.1 L215.3,376.7 L217.2,371.2
		L219.1,365.4 L221.0,359.4 L222.9,353.2 L224.8,346.8 L226.6,340.1 L228.5,333.3 L230.4,326.3 L232.3,319.1
		L234.2,311.6 L236.1,304.0 L238.0,296.3 L239.9,288.3 L241.7,280.2 L243.6,272.0 L245.5,263.6 L247.4,255.2
		L249.3,246.6 L251.2,238.0 L253.1,229.3 L255.0,220.6 L256.8,211.9 L258.7,203.3 L260.6,194.7 L262.5,186.3
		L264.4,177.9 L266.3,169.8 L268.2,161.8 L270.1,154.0 L271.9,146.4 L273.8,139.1 L275.7,132.0 L277.6,125.2
		L279.5,118.7 L281.4,112.4 L283.3,106.5 L285.2,100.8 L287.0,95.5 L288.9,90.5 L290.8,85.8 L292.7,81.5
		L294.6,77.5 L296.5,74.0 L298.4,70.9 L300.2,68.2 L302.1,66.0 L304.0,64.3 L305.9,63.2 L307.8,62.6
		L309.7,62.5 L311.6,62.9 L313.5,63.9 L315.3,65.4 L317.2,67.4 L319.1,69.8 L321.0,72.6 L322.9,75.7
		L324.8,79.0 L326.7,82.5 L328.6,86.0 L330.4,89.5 L332.3,92.9 L334.2,96.1 L336.1,99.1 L338.0,101.7
		L339.9,103.9 L341.8,105.7 L343.7,107.0 L345.5,108.0 L347.4,108.5 L349.3,108.6 L351.2,108.4 L353.1,108.0
		L355.0,107.3 L356.9,106.6 L358.8,106.0 L360.6,105.4 L362.5,105.1 L364.4,105.1 L366.3,105.5 L368.2,106.4
		L370.1,107.9 L372.0,110.0 L373.8,112.7 L375.7,116.2 L377.6,120.3 L379.5,125.1 L381.4,130.6 L383.3,136.7
		L385.2,143.4 L387.1,150.6 L388.9,158.2 L390.8,166.2 L392.7,174.5 L394.6,183.0 L396.5,191.6 L398.4,200.2
		L400.3,208.8 L402.2,217.2 L404.0,225.4 L405.9,233.2 L407.8,240.8 L409.7,247.9 L411.6,254.5 L413.5,260.7
		L415.4,266.3 L417.3,271.3 L419.1,275.8 L421.0,279.7 L422.9,283.0 L424.8,285.7 L426.7,288.0 L428.6,289.7
		L430.5,291.0 L432.4,292.0 L434.2,292.5 L436.1,292.8 L438.0,292.8 L439.9,292.7 L441.8,292.4 L443.7,292.1
		L445.6,291.8 L447.4,291.5 L449.3,291.4 L451.2,291.4 L453.1,291.5 L455.0,291.8 L456.9,292.3 L458.8,293.0
		L460.7,293.8 L462.5,294.8 L464.4,295.9 L466.3,297.1 L468.2,298.3 L470.1,299.6 L472.0,300.8 L473.9,301.9
		L475.8,302.9 L477.6,303.7 L479.5,304.3 L481.4,304.8 L483.3,304.9 L485.2,304.8 L487.1,304.4 L489.0,303.8
		L490.9,302.9 L492.7,301.8 L494.6,300.5 L496.5,299.0 L498.4,297.3 L500.3,295.4 L502.2,293.5 L504.1,291.5
		L506.0,289.5 L507.8,287.5 L509.7,285.5 L511.6,283.5 L513.5,281.7 L515.4,279.9 L517.3,278.3 L519.2,276.8
		L521.0,275.5 L522.9,274.4 L524.8,273.5 L526.7,272.8 L528.6,272.3 L530.5,272.0 L532.4,271.9 L534.3,272.1
		L536.1,272.6 L538.0,273.2 L539.9,274.1 L541.8,275.3 L543.7,276.7 L545.6,278.4 L547.5,280.3 L549.4,282.5
		L551.2,284.9 L553.1,287.5 L555.0,290.4 L556.9,293.5 L558.8,296.8 L560.7,300.4 L562.6,304.1 L564.5,308.1
		L566.3,312.2 L568.2,316.4 L570.1,320.8 L572.0,325.3 L573.9,330.0 L575.8,334.7 L577.7,339.5 L579.5,344.3
		L581.4,349.2 L583.3,354.1 L585.2,359.0 L587.1,364.0 L589.0,368.9 L590.9,373.8 L592.8,378.6 L594.6,383.5
		L596.5,388.3 L598.4,393.1 L600.3,397.8 L602.2,402.5 L604.1,407.2 L606.0,411.9 L607.9,416.5 L609.7,421.2
		L611.6,425.8 L613.5,430.4 L615.4,435.0 L617.3,439.6 L619.2,444.3 L621.1,448.9 L623.0,453.5 L624.8,458.1
		L626.7,462.8 L628.6,467.3 L630.5,471.9 L632.4,476.4 L634.3,480.8 L636.2,485.2 L638.1,489.4 L639.9,493.6
		L641.8,497.6 L643.7,501.4 L645.6,505.0 L647.5,508.5 L649.4,511.7 L651.3,514.7 L653.1,517.5 L655.0,520.0
		L656.9,522.2 L658.8,524.1 L660.7,525.8 L662.6,527.1 L664.5,528.2 L666.4,529.0 L668.2,529.6 L670.1,529.9
		L672.0,529.9 L673.9,529.7 L675.8,529.4 L677.7,528.8 L679.6,528.1 L681.5,527.3 L683.3,526.4 L685.2,525.4
		L687.1,524.3 L689.0,523.2 L690.9,522.2 L692.8,521.1 L694.7,520.1 L696.6,519.2 L698.4,518.3 L700.3,517.4
		L702.2,516.7 L704.1,516.0 L706.0,515.5 L707.9,514.9 L709.8,514.5 L711.7,514.1 L713.5,513.8 L715.4,513.4
		L717.3,513.1 L719.2,512.8 L721.1,512.5 L723.0,512.2 L724.9,511.8 L726.7,511.4 L728.6,510.9 L730.5,510.3
		L732.4,509.7 L734.3,508.9 L736.2,508.1 L738.1,507.2 L740.0,506.3 L741.8,505.3 L743.7,504.3 L745.6,503.3
		L747.5,502.2 L749.4,501.2 L751.3,500.3 L753.2,499.5 L755.1,498.8 L756.9,498.2 L758.8,497.9 L760.7,497.8
		L762.6,498.0 L764.5,498.4 L766.4,499.2 L768.3,500.3 L770.2,501.7 L772.0,503.4 L773.9,505.5 L775.8,507.9
		L777.7,510.6 L779.6,513.6 L781.5,516.9 L783.4,520.3 L785.3,524.0 L787.1,527.7 L789.0,531.6 L790.9,535.5
		L792.8,539.4 L794.7,543.2 L796.6,547.0 L798.5,550.6 L800.3,554.1 L802.2,557.4 L804.1,560.5 L806.0,563.4
		L807.9,566.1 L809.8,568.5 L811.7,570.7 L813.6,572.6 L815.4,574.4 L817.3,575.9 L819.2,577.2 L821.1,578.3
		L823.0,579.3 L824.9,580.2 L826.8,580.9 L828.7,581.6 L830.5,582.1 L832.4,582.7 L834.3,583.2 L836.2,583.7
		L838.1,584.2 L840.0,584.7 L841.9,585.2 L843.8,585.8 L845.6,586.5 L847.5,587.2 L849.4,587.9 L851.3,588.7
		L853.2,589.6 L855.1,590.5 L857.0,591.4 L858.9,592.4 L860.7,593.4 L862.6,594.4 L864.5,595.5 L866.4,596.5
		L868.3,597.5 L870.2,598.5 L872.1,599.4 L873.9,600.3 L875.8,601.1 L877.7,601.9 L879.6,602.7 L881.5,603.3
		L883.4,603.9 L885.3,604.4 L887.2,604.8 L889.0,605.1 L890.9,605.4 L892.8,605.6 L894.7,605.8 L896.6,605.9
		L898.5,605.9 L900.4,605.9 L902.3,605.9 L904.1,605.9 L906.0,605.8 L907.9,605.7 L909.8,605.7 L911.7,605.6
		L913.6,605.5 L915.5,605.5 L917.4,605.5 L919.2,605.6 L921.1,605.7 L923.0,605.8 L924.9,606.0 L926.8,606.3
		L928.7,606.6 L930.6,607.0 L932.5,607.4 L934.3,607.9 L936.2,608.5 L938.1,609.2 L940.0,609.9 L941.9,610.7
		L943.8,611.6 L945.7,612.5 L947.5,613.5 L949.4,614.5 L951.3,615.6 L953.2,616.7 L955.1,617.8 L957.0,619.0
		L958.9,620.1 L960.8,621.3 L962.6,622.5 L964.5,623.6 L966.4,624.7 L968.3,625.9 L970.2,626.9 L972.1,627.9
		L974.0,628.9 L975.9,629.9 L977.7,630.8 L979.6,631.6 L981.5,632.4 L983.4,633.1 L985.3,633.8 L987.2,634.5
		L989.1,635.1 L991.0,635.6 L992.8,636.2 L994.7,636.7 L996.6,637.1 L998.5,637.6 L1000.4,638.0 L1002.3,638.4
		L1004.2,638.7 L1006.1,639.1 L1007.9,639.4 L1009.8,639.7 L1011.7,640.1 L1013.6,640.3  '/></g>
	</g>
	<g id="gnuplot_plot_2" ><title>Confidence interval</title>
<g fill="none" color="white" stroke="rgb( 31, 120, 180)" stroke-width="1.00" stroke-linecap="butt" stroke-linejoin="miter">
</g>
<g fill="none" color="black" stroke="currentColor" stroke-width="1.00" stroke-linecap="butt" stroke-linejoin="miter">
	<g transform="translate(1089.0,85.0)" stroke="none" fill="black" font-family="Helvetica" font-size="12.00"  text-anchor="start">
		<text><tspan font-family="Helvetica" >Confidence interval</tspan></text>
	</g>
</g>
<g fill="none" color="black" stroke="currentColor" stroke-width="1.00" stroke-linecap="butt" stroke-linejoin="miter">
	<g stroke='none' shape-rendering='crispEdges'>
		<polygon fill = 'rgb( 31, 120, 180)' fill-opacity = '0.250000' points = '1038.5,85.6 1080.7,85.6 1080.7,76.6 1038.5,76.6 '/>
		<polygon fill = 'rgb( 31, 120, 180)' fill-opacity = '0.250000' points = '158.7,522.9 160.6,517.8 162.5,512.5 164.4,507.2 166.3,501.8 168.1,496.4 170.0,490.9 171.9,485.5 173.8,480.1 175.7,474.8 177.6,469.6 179.5,464.5 181.4,459.5 183.2,454.6 185.1,449.8 187.0,445.2
188.9,440.7 190.8,436.3 192.7,431.9 194.6,427.7 196.5,423.4 198.3,419.2 200.2,414.9 202.1,410.6 204.0,406.2 205.9,401.7 207.8,397.0 209.7,392.2 211.6,387.3 213.4,382.1 215.3,376.7 217.2,371.2
219.1,365.4 221.0,359.4 222.9,353.2 224.8,346.8 226.6,340.1 228.5,333.3 230.4,326.3 232.3,319.1 234.2,311.6 236.1,304.0 238.0,296.3 239.9,288.3 241.7,280.2 243.6,272.0 245.5,263.6 247.4,255.2
249.3,246.6 251.2,238.0 253.1,229.3 255.0,220.6 256.8,211.9 258.7,203.3 260.6,194.7 262.5,186.3 264.4,177.9 266.3,169.8 268.2,161.8 270.1,154.0 271.9,146.4 273.8,139.1 275.7,132.0 277.6,125.2
279.5,118.7 281.4,112.4 283.3,106.5 285.2,100.8 287.0,95.5 288.9,90.5 290.8,85.8 292.7,81.5 294.6,77.5 296.5,74.0 298.4,70.9 300.2,68.2 302.1,66.0 304.0,64.3 305.9,63.2 307.8,62.6
309.7,62.5 311.6,62.9 313.5,63.9 315.3,65.4 317.2,67.4 319.1,69.8 321.0,72.6 322.9,75.7 324.8,79.0 326.7,82.5 328.6,86.0 330.4,89.5 332.3,92.9 334.2,96.1 336.1,99.1 338.0,101.7
339.9,103.9 341.8,105.7 343.7,107.0 345.5,108.0 347.4,108.5 349.3,108.6 351.2,108.4 353.1,108.0 355.0,107.3 356.9,106.6 358.8,106.0 360.6,105.4 362.5,105.1 364.4,105.1 366.3,105.5 368.2,106.4
370.1,107.9 372.0,110.0 373.8,112.7 375.7,116.2 377.6,120.3 379.5,125.1 381.4,130.6 383.3,136.7 385.2,143.4 387.1,150.6 388.9,158.2 390.8,166.2 392.7,174.5 394.6,183.0 396.5,191.6 398.4,200.2
400.3,208.8 402.2,217.2 404.0,225.4 405.9,233.2 407.8,240.8 409.7,247.9 411.6,254.5 413.5,260.7 415.4,266.3 417.3,271.3 419.1,275.8 421.0,279.7 422.9,283.0 424.8,285.7 426.7,288.0 428.6,289.7
430.5,291.0 432.4,292.0 434.2,292.5 436.1,292.8 438.0,292.8 439.9,292.7 441.8,292.4 443.7,292.1 445.6,291.8 447.4,291.5 449.3,291.4 451.2,291.4 453.1,291.5 455.0,291.8 456.9,292.3 458.8,293.0
460.7,293.8 462.5,294.8 464.4,295.9 466.3,297.1 468.2,298.3 470.1,299.6 472.0,300.8 473.9,301.9 475.8,302.9 477.6,303.7 479.5,304.3 481.4,304.8 483.3,304.9 485.2,304.8 487.1,304.4 489.0,303.8
490.9,302.9 492.7,301.8 494.6,300.5 496.5,299.0 498.4,297.3 500.3,295.4 502.2,293.5 504.1,291.5 506.0,289.5 507.8,287.5 509.7,285.5 511.6,283.5 513.5,281.7 515.4,279.9 517.3,278.3 519.2,276.8
521.0,275.5 522.9,274.4 524.8,273.5 526.7,272.8 528.6,272.3 530.5,272.0 532.4,271.9 534.3,272.1 536.1,272.6 538.0,273.2 539.9,274.1 541.8,275.3 543.7,276.7 545.6,278.4 547.5,280.3 549.4,282.5
551.2,284.9 553.1,287.5 555.0,290.4 556.9,293.5 558.8,296.8 560.7,300.4 562.6,304.1 564.5,308.1 566.3,312.2 568.2,316.4 570.1,320.8 572.0,325.3 573.9,330.0 575.8,334.7 577.7,339.5 579.5,344.3
581.4,349.2 583.3,354.1 585.2,359.0 587.1,364.0 589.0,368.9 590.9,373.8 592.8,378.6 594.6,383.5 596.5,388.3 598.4,393.1 600.3,397.8 602.2,402.5 604.1,407.2 606.0,411.9 607.9,416.5 609.7,421.2
611.6,425.8 613.5,430.4 615.4,435.0 617.3,439.6 619.2,444.3 621.1,448.9 623.0,453.5 624.8,458.1 626.7,462.8 628.6,467.3 630.5,471.9 632.4,476.4 634.3,480.8 636.2,485.2 638.1,489.4 639.9,493.6
641.8,497.6 643.7,501.4 645.6,505.0 647.5,508.5 649.4,511.7 651.3,514.7 653.1,517.5 655.0,520.0 656.9,522.2 658.8,524.1 660.7,525.8 662.6,527.1 664.5,528.2 666.4,529.0 668.2,529.6 670.1,529.9
672.0,529.9 673.9,529.7 675.8,529.4 677.7,528.8 679.6,528.1 681.5,527.3 683.3,526.4 685.2,525.4 687.1,524.3 689.0,523.2 690.9,522.2 692.8,521.1 694.7,520.1 696.6,519.2 698.4,518.3 700.3,517.4
702.2,516.7 704.1,516.0 706.0,515.5 707.9,514.9 709.8,514.5 711.7,514.1 713.5,513.8 715.4,513.4 717.3,513.1 719.2,512.8 721.1,512.5 723.0,512.2 724.9,511.8 726.7,511.4 728.6,510.9 730.5,510.3
732.4,509.7 734.3,508.9 736.2,508.1 738.1,507.2 740.0,506.3 741.8,505.3 743.7,504.3 745.6,503.3 747.5,502.2 749.4,501.2 751.3,500.3 753.2,499.5 755.1,498.8 756.9,498.2 758.8,497.9 760.7,497.8
762.6,498.0 764.5,498.4 766.4,499.2 768.3,500.3 770.2,501.7 772.0,503.4 773.9,505.5 775.8,507.9 777.7,510.6 779.6,513.6 781.5,516.9 783.4,520.3 785.3,524.0 787.1,527.7 789.0,531.6 790.9,535.5
792.8,539.4 794.7,543.2 796.6,547.0 798.5,550.6 800.3,554.1 802.2,557.4 804.1,560.5 806.0,563.4 807.9,566.1 809.8,568.5 811.7,570.7 813.6,572.6 815.4,574.4 817.3,575.9 819.2,577.2 821.1,578.3
823.0,579.3 824.9,580.2 826.8,580.9 828.7,581.6 830.5,582.1 832.4,582.7 834.3,583.2 836.2,583.7 838.1,584.2 840.0,584.7 841.9,585.2 843.8,585.8 845.6,586.5 847.5,587.2 849.4,587.9 851.3,588.7
853.2,589.6 855.1,590.5 857.0,591.4 858.9,592.4 860.7,593.4 862.6,594.4 864.5,595.5 866.4,596.5 868.3,597.5 870.2,598.5 872.1,599.4 873.9,600.3 875.8,601.1 877.7,601.9 879.6,602.7 881.5,603.3
883.4,603.9 885.3,604.4 887.2,604.8 889.0,605.1 890.9,605.4 892.8,605.6 894.7,605.8 896.6,605.9 898.5,605.9 900.4,605.9 902.3,605.9 904.1,605.9 906.0,605.8 907.9,605.7 909.8,605.7 911.7,605.6
913.6,605.5 915.5,605.5 917.4,605.5 919.2,605.6 921.1,605.7 923.0,605.8 924.9,606.0 924.9,662.4 923.0,662.4 921.1,662.4 919.2,662.4 917.4,662.4 915.5,662.4 913.6,662.4 911.7,662.4 909.8,662.4
907.9,662.4 906.0,662.4 904.1,662.4 902.3,662.4 900.4,662.4 898.5,662.4 896.6,662.4 894.7,662.4 892.8,662.4 890.9,662.4 889.0,662.4 887.2,662.4 885.3,662.4 883.4,662.4 881.5,662.4 879.6,662.4
877.7,662.4 875.8,662.4 873.9,662.4 872.1,662.4 870.2,662.4 868.3,662.4 866.4,662.4 864.5,662.4 862.6,662.4 860.7,662.4 858.9,662.4 857.0,662.4 855.1,662.4 853.2,662.4 851.3,662.4 849.4,662.4
847.5,662.4 845.6,662.4 843.8,662.4 841.9,662.4 840.0,662.4 838.1,662.4 836.2,662.4 834.3,662.4 832.4,662.4 830.5,662.4 828.7,662.4 826.8,662.4 824.9,662.4 823.0,662.4 821.1,662.4 819.2,662.4
817.3,662.4 815.4,662.4 813.6,662.4 811.7,662.4 809.8,662.4 807.9,662.4 806.0,662.4 804.1,662.4 802.2,662.4 800.3,662.4 798.5,662.4 796.6,662.4 794.7,662.4 792.8,662.4 790.9,662.4 789.0,662.4
787.1,662.4 785.3,662.4 783.4,662.4 781.5,662.4 779.6,662.4 777.7,662.4 775.8,662.4 773.9,662.4 772.0,662.4 770.2,662.4 768.3,662.4 766.4,662.4 764.5,662.4 762.6,662.4 760.7,662.4 758.8,662.4
756.9,662.4 755.1,662.4 753.2,662.4 751.3,662.4 749.4,662.4 747.5,662.4 745.6,662.4 743.7,662.4 741.8,662.4 740.0,662.4 738.1,662.4 736.2,662.4 734.3,662.4 732.4,662.4 730.5,662.4 728.6,662.4
726.7,662.4 724.9,662.4 723.0,662.4 721.1,662.4 719.2,662.4 717.3,662.4 715.4,662.4 713.5,662.4 711.7,662.4 709.8,662.4 707.9,662.4 706.0,662.4 704.1,662.4 702.2,662.4 700.3,662.4 698.4,662.4
696.6,662.4 694.7,662.4 692.8,662.4 690.9,662.4 689.0,662.4 687.1,662.4 685.2,662.4 683.3,662.4 681.5,662.4 679.6,662.4 677.7,662.4 675.8,662.4 673.9,662.4 672.0,662.4 670.1,662.4 668.2,662.4
666.4,662.4 664.5,662.4 662.6,662.4 660.7,662.4 658.8,662.4 656.9,662.4 655.0,662.4 653.1,662.4 651.3,662.4 649.4,662.4 647.5,662.4 645.6,662.4 643.7,662.4 641.8,662.4 639.9,662.4 638.1,662.4
636.2,662.4 634.3,662.4 632.4,662.4 630.5,662.4 628.6,662.4 626.7,662.4 624.8,662.4 623.0,662.4 621.1,662.4 619.2,662.4 617.3,662.4 615.4,662.4 613.5,662.4 611.6,662.4 609.7,662.4 607.9,662.4
606.0,662.4 604.1,662.4 602.2,662.4 600.3,662.4 598.4,662.4 596.5,662.4 594.6,662.4 592.8,662.4 590.9,662.4 589.0,662.4 587.1,662.4 585.2,662.4 583.3,662.4 581.4,662.4 579.5,662.4 577.7,662.4
575.8,662.4 573.9,662.4 572.0,662.4 570.1,662.4 568.2,662.4 566.3,662.4 564.5,662.4 562.6,662.4 560.7,662.4 558.8,662.4 556.9,662.4 555.0,662.4 553.1,662.4 551.2,662.4 549.4,662.4 547.5,662.4
545.6,662.4 543.7,662.4 541.8,662.4 539.9,662.4 538.0,662.4 536.1,662.4 534.3,662.4 532.4,662.4 530.5,662.4 528.6,662.4 526.7,662.4 524.8,662.4 522.9,662.4 521.0,662.4 519.2,662.4 517.3,662.4
515.4,662.4 513.5,662.4 511.6,662.4 509.7,662.4 507.8,662.4 506.0,662.4 504.1,662.4 502.2,662.4 500.3,662.4 498.4,662.4 496.5,662.4 494.6,662.4 492.7,662.4 490.9,662.4 489.0,662.4 487.1,662.4
485.2,662.4 483.3,662.4 481.4,662.4 479.5,662.4 477.6,662.4 475.8,662.4 473.9,662.4 472.0,662.4 470.1,662.4 468.2,662.4 466.3,662.4 464.4,662.4 462.5,662.4 460.7,662.4 458.8,662.4 456.9,662.4
455.0,662.4 453.1,662.4 451.2,662.4 449.3,662.4 447.4,662.4 445.6,662.4 443.7,662.4 441.8,662.4 439.9,662.4 438.0,662.4 436.1,662.4 434.2,662.4 432.4,662.4 430.5,662.4 428.6,662.4 426.7,662.4
424.8,662.4 422.9,662.4 421.0,662.4 419.1,662.4 417.3,662.4 415.4,662.4 413.5,662.4 411.6,662.4 409.7,662.4 407.8,662.4 405.9,662.4 404.0,662.4 402.2,662.4 400.3,662.4 398.4,662.4 396.5,662.4
394.6,662.4 392.7,662.4 390.8,662.4 388.9,662.4 387.1,662.4 385.2,662.4 383.3,662.4 381.4,662.4 379.5,662.4 377.6,662.4 375.7,662.4 373.8,662.4 372.0,662.4 370.1,662.4 368.2,662.4 366.3,662.4
364.4,662.4 362.5,662.4 360.6,662.4 358.8,662.4 356.9,662.4 355.0,662.4 353.1,662.4 351.2,662.4 349.3,662.4 347.4,662.4 345.5,662.4 343.7,662.4 341.8,662.4 339.9,662.4 338.0,662.4 336.1,662.4
334.2,662.4 332.3,662.4 330.4,662.4 328.6,662.4 326.7,662.4 324.8,662.4 322.9,662.4 321.0,662.4 319.1,662.4 317.2,662.4 315.3,662.4 313.5,662.4 311.6,662.4 309.7,662.4 307.8,662.4 305.9,662.4
304.0,662.4 302.1,662.4 300.2,662.4 298.4,662.4 296.5,662.4 294.6,662.4 292.7,662.4 290.8,662.4 288.9,662.4 287.0,662.4 285.2,662.4 283.3,662.4 281.4,662.4 279.5,662.4 277.6,662.4 275.7,662.4
273.8,662.4 271.9,662.4 270.1,662.4 268.2,662.4 266.3,662.4 264.4,662.4 262.5,662.4 260.6,662.4 258.7,662.4 256.8,662.4 255.0,662.4 253.1,662.4 251.2,662.4 249.3,662.4 247.4,662.4 245.5,662.4
243.6,662.4 241.7,662.4 239.9,662.4 238.0,662.4 236.1,662.4 234.2,662.4 232.3,662.4 230.4,662.4 228.5,662.4 226.6,662.4 224.8,662.4 222.9,662.4 221.0,662.4 219.1,662.4 217.2,662.4 215.3,662.4
213.4,662.4 211.6,662.4 209.7,662.4 207.8,662.4 205.9,662.4 204.0,662.4 202.1,662.4 200.2,662.4 198.3,662.4 196.5,662.4 194.6,662.4 192.7,662.4 190.8,662.4 188.9,662.4 187.0,662.4 185.1,662.4
183.2,662.4 181.4,662.4 179.5,662.4 177.6,662.4 175.7,662.4 173.8,662.4 171.9,662.4 170.0,662.4 168.1,662.4 166.3,662.4 164.4,662.4 162.5,662.4 160.6,662.4 158.7,662.4 '/>
	</g>
</g>
	</g>
	<g id="gnuplot_plot_3" ><title>Point estimate</title>
<g fill="none" color="white" stroke="rgb( 31, 120, 180)" stroke-width="2.00" stroke-linecap="butt" stroke-linejoin="miter">
</g>
<g fill="none" color="black" stroke="currentColor" stroke-width="2.00" stroke-linecap="butt" stroke-linejoin="miter">
	<g transform="translate(1089.0,103.0)" stroke="none" fill="black" font-family="Helvetica" font-size="12.00"  text-anchor="start">
		<text><tspan font-family="Helvetica" >Point estimate</tspan></text>
	</g>
</g>
<g fill="none" color="black" stroke="currentColor" stroke-width="2.00" stroke-linecap="butt" stroke-linejoin="miter">
	<path stroke='rgb( 31, 120, 180)'  d='M1038.5,99.1 L1080.7,99.1 M428.0,662.4 L428.0,289.2  '/></g>
	</g>
<g fill="none" color="black" stroke="currentColor" stroke-width="2.00" stroke-linecap="butt" stroke-linejoin="miter">
</g>
<g fill="none" color="black" stroke="black" stroke-width="1.00" stroke-linecap="butt" stroke-linejoin="miter">
</g>
<g fill="none" color="black" stroke="currentColor" stroke-width="1.00" stroke-linecap="butt" stroke-linejoin="miter">
	<path stroke='black'  d='M71.9,54.1 L71.9,662.4 L1013.6,662.4 L1013.6,54.1 L71.9,54.1 Z  '/></g>
<g fill="none" color="black" stroke="currentColor" stroke-width="1.00" stroke-linecap="butt" stroke-linejoin="miter">
</g>
</g>
</svg>

