<?xml version="1.0" encoding="utf-8"  standalone="no"?>
<svg 
 viewBox="0 0 1280 720"
 xmlns="http://www.w3.org/2000/svg"
 xmlns:xlink="http://www.w3.org/1999/xlink"
>

<title>Gnuplot</title>
<desc>Produced by GNUPLOT 5.2 patchlevel 6 </desc>

<g id="gnuplot_canvas">

<rect x="0" y="0" width="1280" height="720" fill="none"/>
<defs>

	<circle id='gpDot' r='0.5' stroke-width='0.5' stroke='currentColor'/>
	<path id='gpPt0' stroke-width='0.222' stroke='currentColor' d='M-1,0 h2 M0,-1 v2'/>
	<path id='gpPt1' stroke-width='0.222' stroke='currentColor' d='M-1,-1 L1,1 M1,-1 L-1,1'/>
	<path id='gpPt2' stroke-width='0.222' stroke='currentColor' d='M-1,0 L1,0 M0,-1 L0,1 M-1,-1 L1,1 M-1,1 L1,-1'/>
	<rect id='gpPt3' stroke-width='0.222' stroke='currentColor' x='-1' y='-1' width='2' height='2'/>
	<rect id='gpPt4' stroke-width='0.222' stroke='currentColor' fill='currentColor' x='-1' y='-1' width='2' height='2'/>
	<circle id='gpPt5' stroke-width='0.222' stroke='currentColor' cx='0' cy='0' r='1'/>
	<use xlink:href='#gpPt5' id='gpPt6' fill='currentColor' stroke='none'/>
	<path id='gpPt7' stroke-width='0.222' stroke='currentColor' d='M0,-1.33 L-1.33,0.67 L1.33,0.67 z'/>
	<use xlink:href='#gpPt7' id='gpPt8' fill='currentColor' stroke='none'/>
	<use xlink:href='#gpPt7' id='gpPt9' stroke='currentColor' transform='rotate(180)'/>
	<use xlink:href='#gpPt9' id='gpPt10' fill='currentColor' stroke='none'/>
	<use xlink:href='#gpPt3' id='gpPt11' stroke='currentColor' transform='rotate(45)'/>
	<use xlink:href='#gpPt11' id='gpPt12' fill='currentColor' stroke='none'/>
	<path id='gpPt13' stroke-width='0.222' stroke='currentColor' d='M0,1.330 L1.265,0.411 L0.782,-1.067 L-0.782,-1.076 L-1.265,0.411 z'/>
	<use xlink:href='#gpPt13' id='gpPt14' fill='currentColor' stroke='none'/>
	<filter id='textbox' filterUnits='objectBoundingBox' x='0' y='0' height='1' width='1'>
	  <feFlood flood-color='white' flood-opacity='1' result='bgnd'/>
	  <feComposite in='SourceGraphic' in2='bgnd' operator='atop'/>
	</filter>
	<filter id='greybox' filterUnits='objectBoundingBox' x='0' y='0' height='1' width='1'>
	  <feFlood flood-color='lightgrey' flood-opacity='1' result='grey'/>
	  <feComposite in='SourceGraphic' in2='grey' operator='atop'/>
	</filter>
</defs>
<g fill="none" color="white" stroke="currentColor" stroke-width="1.00" stroke-linecap="butt" stroke-linejoin="miter">
</g>
<g fill="none" color="black" stroke="currentColor" stroke-width="1.00" stroke-linecap="butt" stroke-linejoin="miter">
	<path stroke='black'  d='M71.9,662.4 L80.9,662.4  '/>	<g transform="translate(63.6,666.3)" stroke="none" fill="black" font-family="Helvetica" font-size="12.00"  text-anchor="end">
		<text><tspan font-family="Helvetica" > 0</tspan></text>
	</g>
</g>
<g fill="none" color="black" stroke="currentColor" stroke-width="1.00" stroke-linecap="butt" stroke-linejoin="miter">
	<path stroke='black'  d='M71.9,594.8 L80.9,594.8  '/>	<g transform="translate(63.6,598.7)" stroke="none" fill="black" font-family="Helvetica" font-size="12.00"  text-anchor="end">
		<text><tspan font-family="Helvetica" > 20</tspan></text>
	</g>
</g>
<g fill="none" color="black" stroke="currentColor" stroke-width="1.00" stroke-linecap="butt" stroke-linejoin="miter">
	<path stroke='black'  d='M71.9,527.2 L80.9,527.2  '/>	<g transform="translate(63.6,531.1)" stroke="none" fill="black" font-family="Helvetica" font-size="12.00"  text-anchor="end">
		<text><tspan font-family="Helvetica" > 40</tspan></text>
	</g>
</g>
<g fill="none" color="black" stroke="currentColor" stroke-width="1.00" stroke-linecap="butt" stroke-linejoin="miter">
	<path stroke='black'  d='M71.9,459.6 L80.9,459.6  '/>	<g transform="translate(63.6,463.5)" stroke="none" fill="black" font-family="Helvetica" font-size="12.00"  text-anchor="end">
		<text><tspan font-family="Helvetica" > 60</tspan></text>
	</g>
</g>
<g fill="none" color="black" stroke="currentColor" stroke-width="1.00" stroke-linecap="butt" stroke-linejoin="miter">
	<path stroke='black'  d='M71.9,392.0 L80.9,392.0  '/>	<g transform="translate(63.6,395.9)" stroke="none" fill="black" font-family="Helvetica" font-size="12.00"  text-anchor="end">
		<text><tspan font-family="Helvetica" > 80</tspan></text>
	</g>
</g>
<g fill="none" color="black" stroke="currentColor" stroke-width="1.00" stroke-linecap="butt" stroke-linejoin="miter">
	<path stroke='black'  d='M71.9,324.5 L80.9,324.5  '/>	<g transform="translate(63.6,328.4)" stroke="none" fill="black" font-family="Helvetica" font-size="12.00"  text-anchor="end">
		<text><tspan font-family="Helvetica" > 100</tspan></text>
	</g>
</g>
<g fill="none" color="black" stroke="currentColor" stroke-width="1.00" stroke-linecap="butt" stroke-linejoin="miter">
	<path stroke='black'  d='M71.9,256.9 L80.9,256.9  '/>	<g transform="translate(63.6,260.8)" stroke="none" fill="black" font-family="Helvetica" font-size="12.00"  text-anchor="end">
		<text><tspan font-family="Helvetica" > 120</tspan></text>
	</g>
</g>
<g fill="none" color="black" stroke="currentColor" stroke-width="1.00" stroke-linecap="butt" stroke-linejoin="miter">
	<path stroke='black'  d='M71.9,189.3 L80.9,189.3  '/>	<g transform="translate(63.6,193.2)" stroke="none" fill="black" font-family="Helvetica" font-size="12.00"  text-anchor="end">
		<text><tspan font-family="Helvetica" > 140</tspan></text>
	</g>
</g>
<g fill="none" color="black" stroke="currentColor" stroke-width="1.00" stroke-linecap="butt" stroke-linejoin="miter">
	<path stroke='black'  d='M71.9,121.7 L80.9,121.7  '/>	<g transform="translate(63.6,125.6)" stroke="none" fill="black" font-family="Helvetica" font-size="12.00"  text-anchor="end">
		<text><tspan font-family="Helvetica" > 160</tspan></text>
	</g>
</g>
<g fill="none" color="black" stroke="currentColor" stroke-width="1.00" stroke-linecap="butt" stroke-linejoin="miter">
	<path stroke='black'  d='M71.9,54.1 L80.9,54.1  '/>	<g transform="translate(63.6,58.0)" stroke="none" fill="black" font-family="Helvetica" font-size="12.00"  text-anchor="end">
		<text><tspan font-family="Helvetica" > 180</tspan></text>
	</g>
</g>
<g fill="none" color="black" stroke="currentColor" stroke-width="1.00" stroke-linecap="butt" stroke-linejoin="miter">
	<path stroke='black'  d='M187.8,662.4 L187.8,653.4  '/>	<g transform="translate(187.8,684.3)" stroke="none" fill="black" font-family="Helvetica" font-size="12.00"  text-anchor="middle">
		<text><tspan font-family="Helvetica" > 1.832</tspan></text>
	</g>
</g>
<g fill="none" color="black" stroke="currentColor" stroke-width="1.00" stroke-linecap="butt" stroke-linejoin="miter">
	<path stroke='black'  d='M358.7,662.4 L358.7,653.4  '/>	<g transform="translate(358.7,684.3)" stroke="none" fill="black" font-family="Helvetica" font-size="12.00"  text-anchor="middle">
		<text><tspan font-family="Helvetica" > 1.834</tspan></text>
	</g>
</g>
<g fill="none" color="black" stroke="currentColor" stroke-width="1.00" stroke-linecap="butt" stroke-linejoin="miter">
	<path stroke='black'  d='M529.6,662.4 L529.6,653.4  '/>	<g transform="translate(529.6,684.3)" stroke="none" fill="black" font-family="Helvetica" font-size="12.00"  text-anchor="middle">
		<text><tspan font-family="Helvetica" > 1.836</tspan></text>
	</g>
</g>
<g fill="none" color="black" stroke="currentColor" stroke-width="1.00" stroke-linecap="butt" stroke-linejoin="miter">
	<path stroke='black'  d='M700.5,662.4 L700.5,653.4  '/>	<g transform="translate(700.5,684.3)" stroke="none" fill="black" font-family="Helvetica" font-size="12.00"  text-anchor="middle">
		<text><tspan font-family="Helvetica" > 1.838</tspan></text>
	</g>
</g>
<g fill="none" color="black" stroke="currentColor" stroke-width="1.00" stroke-linecap="butt" stroke-linejoin="miter">
	<path stroke='black'  d='M871.4,662.4 L871.4,653.4  '/>	<g transform="translate(871.4,684.3)" stroke="none" fill="black" font-family="Helvetica" font-size="12.00"  text-anchor="middle">
		<text><tspan font-family="Helvetica" > 1.84</tspan></text>
	</g>
</g>
<g fill="none" color="black" stroke="currentColor" stroke-width="1.00" stroke-linecap="butt" stroke-linejoin="miter">
</g>
<g fill="none" color="black" stroke="currentColor" stroke-width="1.00" stroke-linecap="butt" stroke-linejoin="miter">
	<path stroke='black'  d='M71.9,54.1 L71.9,662.4 L1013.6,662.4 L1013.6,54.1 L71.9,54.1 Z  '/></g>
<g fill="none" color="black" stroke="currentColor" stroke-width="1.00" stroke-linecap="butt" stroke-linejoin="miter">
	<g transform="translate(16.3,358.3) rotate(270)" stroke="none" fill="black" font-family="Helvetica" font-size="12.00"  text-anchor="middle">
		<text><tspan font-family="Helvetica" >Density (a.u.)</tspan></text>
	</g>
</g>
<g fill="none" color="black" stroke="currentColor" stroke-width="1.00" stroke-linecap="butt" stroke-linejoin="miter">
	<g transform="translate(542.7,711.3)" stroke="none" fill="black" font-family="Helvetica" font-size="12.00"  text-anchor="middle">
		<text><tspan font-family="Helvetica" >Average time (ms)</tspan></text>
	</g>
</g>
<g fill="none" color="black" stroke="currentColor" stroke-width="1.00" stroke-linecap="butt" stroke-linejoin="miter">
	<g transform="translate(542.7,31.0)" stroke="none" fill="black" font-family="Helvetica" font-size="12.00"  text-anchor="middle">
		<text><tspan font-family="Helvetica" >snapshot_restore_with_dense/Sparse: Entire region + /proc/pid/mem/215: mean</tspan></text>
	</g>
</g>
	<g id="gnuplot_plot_1" ><title>Bootstrap distribution</title>
<g fill="none" color="white" stroke="black" stroke-width="2.00" stroke-linecap="butt" stroke-linejoin="miter">
</g>
<g fill="none" color="black" stroke="currentColor" stroke-width="2.00" stroke-linecap="butt" stroke-linejoin="miter">
	<g transform="translate(1089.0,67.0)" stroke="none" fill="black" font-family="Helvetica" font-size="12.00"  text-anchor="start">
		<text><tspan font-family="Helvetica" >Bootstrap distribution</tspan></text>
	</g>
</g>
<g fill="none" color="black" stroke="currentColor" stroke-width="2.00" stroke-linecap="butt" stroke-linejoin="miter">
	<path stroke='rgb( 31, 120, 180)'  d='M1038.5,63.1 L1080.7,63.1 M71.9,638.9 L73.8,637.2 L75.7,635.6 L77.6,633.8 L79.4,632.0 L81.3,630.1
		L83.2,628.1 L85.1,626.1 L87.0,623.9 L88.9,621.7 L90.8,619.5 L92.7,617.1 L94.5,614.6 L96.4,612.1
		L98.3,609.5 L100.2,606.8 L102.1,604.0 L104.0,601.2 L105.9,598.2 L107.8,595.2 L109.6,592.2 L111.5,589.0
		L113.4,585.8 L115.3,582.5 L117.2,579.1 L119.1,575.6 L121.0,572.1 L122.9,568.6 L124.7,564.9 L126.6,561.2
		L128.5,557.5 L130.4,553.6 L132.3,549.8 L134.2,545.8 L136.1,541.8 L138.0,537.8 L139.8,533.7 L141.7,529.5
		L143.6,525.3 L145.5,521.0 L147.4,516.7 L149.3,512.3 L151.2,507.9 L153.0,503.4 L154.9,498.9 L156.8,494.3
		L158.7,489.7 L160.6,485.1 L162.5,480.5 L164.4,475.8 L166.3,471.1 L168.1,466.5 L170.0,461.8 L171.9,457.1
		L173.8,452.4 L175.7,447.8 L177.6,443.2 L179.5,438.5 L181.4,434.0 L183.2,429.4 L185.1,424.9 L187.0,420.4
		L188.9,416.0 L190.8,411.5 L192.7,407.1 L194.6,402.8 L196.5,398.4 L198.3,394.1 L200.2,389.8 L202.1,385.6
		L204.0,381.3 L205.9,377.1 L207.8,372.8 L209.7,368.6 L211.6,364.4 L213.4,360.1 L215.3,355.9 L217.2,351.7
		L219.1,347.5 L221.0,343.3 L222.9,339.0 L224.8,334.8 L226.6,330.6 L228.5,326.4 L230.4,322.2 L232.3,317.9
		L234.2,313.7 L236.1,309.5 L238.0,305.3 L239.9,301.1 L241.7,296.9 L243.6,292.7 L245.5,288.5 L247.4,284.3
		L249.3,280.2 L251.2,276.0 L253.1,271.8 L255.0,267.7 L256.8,263.5 L258.7,259.4 L260.6,255.2 L262.5,251.1
		L264.4,247.0 L266.3,242.8 L268.2,238.7 L270.1,234.6 L271.9,230.5 L273.8,226.3 L275.7,222.2 L277.6,218.1
		L279.5,214.0 L281.4,209.9 L283.3,205.8 L285.2,201.7 L287.0,197.6 L288.9,193.6 L290.8,189.5 L292.7,185.4
		L294.6,181.3 L296.5,177.3 L298.4,173.2 L300.2,169.2 L302.1,165.2 L304.0,161.3 L305.9,157.4 L307.8,153.6
		L309.7,149.8 L311.6,146.1 L313.5,142.4 L315.3,138.9 L317.2,135.4 L319.1,132.1 L321.0,128.9 L322.9,125.8
		L324.8,122.8 L326.7,120.0 L328.6,117.3 L330.4,114.7 L332.3,112.3 L334.2,110.0 L336.1,107.9 L338.0,106.0
		L339.9,104.1 L341.8,102.4 L343.7,100.9 L345.5,99.4 L347.4,98.1 L349.3,96.9 L351.2,95.8 L353.1,94.7
		L355.0,93.8 L356.9,92.9 L358.8,92.0 L360.6,91.2 L362.5,90.4 L364.4,89.6 L366.3,88.9 L368.2,88.1
		L370.1,87.3 L372.0,86.5 L373.8,85.7 L375.7,84.9 L377.6,84.1 L379.5,83.3 L381.4,82.5 L383.3,81.7
		L385.2,80.9 L387.1,80.2 L388.9,79.4 L390.8,78.8 L392.7,78.1 L394.6,77.6 L396.5,77.1 L398.4,76.6
		L400.3,76.2 L402.2,75.9 L404.0,75.7 L405.9,75.6 L407.8,75.5 L409.7,75.4 L411.6,75.5 L413.5,75.6
		L415.4,75.7 L417.3,75.9 L419.1,76.1 L421.0,76.3 L422.9,76.6 L424.8,76.9 L426.7,77.2 L428.6,77.5
		L430.5,77.9 L432.4,78.2 L434.2,78.6 L436.1,79.1 L438.0,79.5 L439.9,80.0 L441.8,80.5 L443.7,81.1
		L445.6,81.8 L447.4,82.5 L449.3,83.2 L451.2,84.1 L453.1,85.0 L455.0,85.9 L456.9,87.0 L458.8,88.1
		L460.7,89.3 L462.5,90.6 L464.4,91.9 L466.3,93.3 L468.2,94.8 L470.1,96.3 L472.0,97.9 L473.9,99.6
		L475.8,101.3 L477.6,103.1 L479.5,104.9 L481.4,106.7 L483.3,108.7 L485.2,110.6 L487.1,112.6 L489.0,114.7
		L490.9,116.8 L492.7,119.0 L494.6,121.2 L496.5,123.4 L498.4,125.7 L500.3,128.0 L502.2,130.3 L504.1,132.7
		L506.0,135.1 L507.8,137.5 L509.7,139.9 L511.6,142.3 L513.5,144.7 L515.4,147.1 L517.3,149.4 L519.2,151.8
		L521.0,154.1 L522.9,156.4 L524.8,158.6 L526.7,160.8 L528.6,163.0 L530.5,165.2 L532.4,167.3 L534.3,169.4
		L536.1,171.5 L538.0,173.5 L539.9,175.6 L541.8,177.7 L543.7,179.7 L545.6,181.8 L547.5,183.9 L549.4,186.0
		L551.2,188.2 L553.1,190.4 L555.0,192.7 L556.9,195.0 L558.8,197.3 L560.7,199.8 L562.6,202.2 L564.5,204.8
		L566.3,207.4 L568.2,210.0 L570.1,212.7 L572.0,215.5 L573.9,218.3 L575.8,221.2 L577.7,224.2 L579.5,227.2
		L581.4,230.2 L583.3,233.3 L585.2,236.4 L587.1,239.6 L589.0,242.8 L590.9,246.0 L592.8,249.2 L594.6,252.5
		L596.5,255.8 L598.4,259.1 L600.3,262.3 L602.2,265.6 L604.1,268.9 L606.0,272.1 L607.9,275.3 L609.7,278.5
		L611.6,281.7 L613.5,284.8 L615.4,287.9 L617.3,290.9 L619.2,293.9 L621.1,296.8 L623.0,299.7 L624.8,302.5
		L626.7,305.3 L628.6,308.1 L630.5,310.7 L632.4,313.4 L634.3,315.9 L636.2,318.5 L638.1,321.0 L639.9,323.5
		L641.8,325.9 L643.7,328.3 L645.6,330.7 L647.5,333.0 L649.4,335.4 L651.3,337.7 L653.1,340.1 L655.0,342.4
		L656.9,344.8 L658.8,347.1 L660.7,349.5 L662.6,351.9 L664.5,354.3 L666.4,356.7 L668.2,359.1 L670.1,361.5
		L672.0,364.0 L673.9,366.5 L675.8,369.0 L677.7,371.5 L679.6,374.0 L681.5,376.5 L683.3,379.0 L685.2,381.5
		L687.1,384.0 L689.0,386.6 L690.9,389.1 L692.8,391.6 L694.7,394.1 L696.6,396.6 L698.4,399.0 L700.3,401.5
		L702.2,404.0 L704.1,406.4 L706.0,408.9 L707.9,411.3 L709.8,413.7 L711.7,416.1 L713.5,418.5 L715.4,420.9
		L717.3,423.2 L719.2,425.5 L721.1,427.8 L723.0,430.1 L724.9,432.3 L726.7,434.5 L728.6,436.7 L730.5,438.8
		L732.4,440.9 L734.3,443.0 L736.2,445.1 L738.1,447.1 L740.0,449.1 L741.8,451.1 L743.7,453.0 L745.6,455.0
		L747.5,456.9 L749.4,458.8 L751.3,460.7 L753.2,462.6 L755.1,464.6 L756.9,466.5 L758.8,468.5 L760.7,470.4
		L762.6,472.4 L764.5,474.4 L766.4,476.4 L768.3,478.5 L770.2,480.6 L772.0,482.7 L773.9,484.8 L775.8,486.9
		L777.7,489.0 L779.6,491.2 L781.5,493.3 L783.4,495.5 L785.3,497.6 L787.1,499.7 L789.0,501.8 L790.9,503.9
		L792.8,505.9 L794.7,508.0 L796.6,509.9 L798.5,511.9 L800.3,513.8 L802.2,515.6 L804.1,517.5 L806.0,519.2
		L807.9,521.0 L809.8,522.7 L811.7,524.3 L813.6,525.9 L815.4,527.5 L817.3,529.1 L819.2,530.7 L821.1,532.2
		L823.0,533.8 L824.9,535.3 L826.8,536.9 L828.7,538.4 L830.5,540.0 L832.4,541.6 L834.3,543.1 L836.2,544.7
		L838.1,546.3 L840.0,547.9 L841.9,549.5 L843.8,551.1 L845.6,552.7 L847.5,554.3 L849.4,555.9 L851.3,557.4
		L853.2,559.0 L855.1,560.5 L857.0,562.0 L858.9,563.4 L860.7,564.8 L862.6,566.2 L864.5,567.6 L866.4,568.9
		L868.3,570.3 L870.2,571.5 L872.1,572.8 L873.9,574.0 L875.8,575.2 L877.7,576.4 L879.6,577.5 L881.5,578.7
		L883.4,579.8 L885.3,580.9 L887.2,581.9 L889.0,583.0 L890.9,584.0 L892.8,585.0 L894.7,586.0 L896.6,587.0
		L898.5,588.0 L900.4,588.9 L902.3,589.8 L904.1,590.7 L906.0,591.6 L907.9,592.5 L909.8,593.3 L911.7,594.1
		L913.6,595.0 L915.5,595.8 L917.4,596.6 L919.2,597.4 L921.1,598.2 L923.0,599.0 L924.9,599.8 L926.8,600.6
		L928.7,601.3 L930.6,602.1 L932.5,602.9 L934.3,603.7 L936.2,604.5 L938.1,605.3 L940.0,606.1 L941.9,606.9
		L943.8,607.7 L945.7,608.5 L947.5,609.4 L949.4,610.2 L951.3,611.0 L953.2,611.8 L955.1,612.7 L957.0,613.5
		L958.9,614.3 L960.8,615.2 L962.6,616.0 L964.5,616.8 L966.4,617.6 L968.3,618.3 L970.2,619.1 L972.1,619.8
		L974.0,620.5 L975.9,621.2 L977.7,621.9 L979.6,622.5 L981.5,623.2 L983.4,623.8 L985.3,624.3 L987.2,624.9
		L989.1,625.4 L991.0,625.9 L992.8,626.4 L994.7,626.9 L996.6,627.3 L998.5,627.8 L1000.4,628.2 L1002.3,628.6
		L1004.2,629.0 L1006.1,629.4 L1007.9,629.8 L1009.8,630.2 L1011.7,630.5 L1013.6,630.9  '/></g>
	</g>
	<g id="gnuplot_plot_2" ><title>Confidence interval</title>
<g fill="none" color="white" stroke="rgb( 31, 120, 180)" stroke-width="1.00" stroke-linecap="butt" stroke-linejoin="miter">
</g>
<g fill="none" color="black" stroke="currentColor" stroke-width="1.00" stroke-linecap="butt" stroke-linejoin="miter">
	<g transform="translate(1089.0,85.0)" stroke="none" fill="black" font-family="Helvetica" font-size="12.00"  text-anchor="start">
		<text><tspan font-family="Helvetica" >Confidence interval</tspan></text>
	</g>
</g>
<g fill="none" color="black" stroke="currentColor" stroke-width="1.00" stroke-linecap="butt" stroke-linejoin="miter">
	<g stroke='none' shape-rendering='crispEdges'>
		<polygon fill = 'rgb( 31, 120, 180)' fill-opacity = '0.250000' points = '1038.5,85.6 1080.7,85.6 1080.7,76.6 1038.5,76.6 '/>
		<polygon fill = 'rgb( 31, 120, 180)' fill-opacity = '0.250000' points = '158.7,489.7 160.6,485.1 162.5,480.5 164.4,475.8 166.3,471.1 168.1,466.5 170.0,461.8 171.9,457.1 173.8,452.4 175.7,447.8 177.6,443.2 179.5,438.5 181.4,434.0 183.2,429.4 185.1,424.9 187.0,420.4
188.9,416.0 190.8,411.5 192.7,407.1 194.6,402.8 196.5,398.4 198.3,394.1 200.2,389.8 202.1,385.6 204.0,381.3 205.9,377.1 207.8,372.8 209.7,368.6 211.6,364.4 213.4,360.1 215.3,355.9 217.2,351.7
219.1,347.5 221.0,343.3 222.9,339.0 224.8,334.8 226.6,330.6 228.5,326.4 230.4,322.2 232.3,317.9 234.2,313.7 236.1,309.5 238.0,305.3 239.9,301.1 241.7,296.9 243.6,292.7 245.5,288.5 247.4,284.3
249.3,280.2 251.2,276.0 253.1,271.8 255.0,267.7 256.8,263.5 258.7,259.4 260.6,255.2 262.5,251.1 264.4,247.0 266.3,242.8 268.2,238.7 270.1,234.6 271.9,230.5 273.8,226.3 275.7,222.2 277.6,218.1
279.5,214.0 281.4,209.9 283.3,205.8 285.2,201.7 287.0,197.6 288.9,193.6 290.8,189.5 292.7,185.4 294.6,181.3 296.5,177.3 298.4,173.2 300.2,169.2 302.1,165.2 304.0,161.3 305.9,157.4 307.8,153.6
309.7,149.8 311.6,146.1 313.5,142.4 315.3,138.9 317.2,135.4 319.1,132.1 321.0,128.9 322.9,125.8 324.8,122.8 326.7,120.0 328.6,117.3 330.4,114.7 332.3,112.3 334.2,110.0 336.1,107.9 338.0,106.0
339.9,104.1 341.8,102.4 343.7,100.9 345.5,99.4 347.4,98.1 349.3,96.9 351.2,95.8 353.1,94.7 355.0,93.8 356.9,92.9 358.8,92.0 360.6,91.2 362.5,90.4 364.4,89.6 366.3,88.9 368.2,88.1
370.1,87.3 372.0,86.5 373.8,85.7 375.7,84.9 377.6,84.1 379.5,83.3 381.4,82.5 383.3,81.7 385.2,80.9 387.1,80.2 388.9,79.4 390.8,78.8 392.7,78.1 394.6,77.6 396.5,77.1 398.4,76.6
400.3,76.2 402.2,75.9 404.0,75.7 405.9,75.6 407.8,75.5 409.7,75.4 411.6,75.5 413.5,75.6 415.4,75.7 417.3,75.9 419.1,76.1 421.0,76.3 422.9,76.6 424.8,76.9 426.7,77.2 428.6,77.5
430.5,77.9 432.4,78.2 434.2,78.6 436.1,79.1 438.0,79.5 439.9,80.0 441.8,80.5 443.7,81.1 445.6,81.8 447.4,82.5 449.3,83.2 451.2,84.1 453.1,85.0 455.0,85.9 456.9,87.0 458.8,88.1
460.7,89.3 462.5,90.6 464.4,91.9 466.3,93.3 468.2,94.8 470.1,96.3 472.0,97.9 473.9,99.6 475.8,101.3 477.6,103.1 479.5,104.9 481.4,106.7 483.3,108.7 485.2,110.6 487.1,112.6 489.0,114.7
490.9,116.8 492.7,119.0 494.6,121.2 496.5,123.4 498.4,125.7 500.3,128.0 502.2,130.3 504.1,132.7 506.0,135.1 507.8,137.5 509.7,139.9 511.6,142.3 513.5,144.7 515.4,147.1 517.3,149.4 519.2,151.8
521.0,154.1 522.9,156.4 524.8,158.6 526.7,160.8 528.6,163.0 530.5,165.2 532.4,167.3 534.3,169.4 536.1,171.5 538.0,173.5 539.9,175.6 541.8,177.7 543.7,179.7 545.6,181.8 547.5,183.9 549.4,186.0
551.2,188.2 553.1,190.4 555.0,192.7 556.9,195.0 558.8,197.3 560.7,199.8 562.6,202.2 564.5,204.8 566.3,207.4 568.2,210.0 570.1,212.7 572.0,215.5 573.9,218.3 575.8,221.2 577.7,224.2 579.5,227.2
581.4,230.2 583.3,233.3 585.2,236.4 587.1,239.6 589.0,242.8 590.9,246.0 592.8,249.2 594.6,252.5 596.5,255.8 598.4,259.1 600.3,262.3 602.2,265.6 604.1,268.9 606.0,272.1 607.9,275.3 609.7,278.5
611.6,281.7 613.5,284.8 615.4,287.9 617.3,290.9 619.2,293.9 621.1,296.8 623.0,299.7 624.8,302.5 626.7,305.3 628.6,308.1 630.5,310.7 632.4,313.4 634.3,315.9 636.2,318.5 638.1,321.0 639.9,323.5
641.8,325.9 643.7,328.3 645.6,330.7 647.5,333.0 649.4,335.4 651.3,337.7 653.1,340.1 655.0,342.4 656.9,344.8 658.8,347.1 660.7,349.5 662.6,351.9 664.5,354.3 666.4,356.7 668.2,359.1 670.1,361.5
672.0,364.0 673.9,366.5 675.8,369.0 677.7,371.5 679.6,374.0 681.5,376.5 683.3,379.0 685.2,381.5 687.1,384.0 689.0,386.6 690.9,389.1 692.8,391.6 694.7,394.1 696.6,396.6 698.4,399.0 700.3,401.5
702.2,404.0 704.1,406.4 706.0,408.9 707.9,411.3 709.8,413.7 711.7,416.1 713.5,418.5 715.4,420.9 717.3,423.2 719.2,425.5 721.1,427.8 723.0,430.1 724.9,432.3 726.7,434.5 728.6,436.7 730.5,438.8
732.4,440.9 734.3,443.0 736.2,445.1 738.1,447.1 740.0,449.1 741.8,451.1 743.7,453.0 745.6,455.0 747.5,456.9 749.4,458.8 751.3,460.7 753.2,462.6 755.1,464.6 756.9,466.5 758.8,468.5 760.7,470.4
762.6,472.4 764.5,474.4 766.4,476.4 768.3,478.5 770.2,480.6 772.0,482.7 773.9,484.8 775.8,486.9 777.7,489.0 779.6,491.2 781.5,493.3 783.4,495.5 785.3,497.6 787.1,499.7 789.0,501.8 790.9,503.9
792.8,505.9 794.7,508.0 796.6,509.9 798.5,511.9 800.3,513.8 802.2,515.6 804.1,517.5 806.0,519.2 807.9,521.0 809.8,522.7 811.7,524.3 813.6,525.9 815.4,527.5 817.3,529.1 819.2,530.7 821.1,532.2
823.0,533.8 824.9,535.3 826.8,536.9 828.7,538.4 830.5,540.0 832.4,541.6 834.3,543.1 836.2,544.7 838.1,546.3 840.0,547.9 841.9,549.5 843.8,551.1 845.6,552.7 847.5,554.3 849.4,555.9 851.3,557.4
853.2,559.0 855.1,560.5 857.0,562.0 858.9,563.4 860.7,564.8 862.6,566.2 864.5,567.6 866.4,568.9 868.3,570.3 870.2,571.5 872.1,572.8 873.9,574.0 875.8,575.2 877.7,576.4 879.6,577.5 881.5,578.7
883.4,579.8 885.3,580.9 887.2,581.9 889.0,583.0 890.9,584.0 892.8,585.0 894.7,586.0 896.6,587.0 898.5,588.0 900.4,588.9 902.3,589.8 904.1,590.7 906.0,591.6 907.9,592.5 909.8,593.3 911.7,594.1
913.6,595.0 915.5,595.8 917.4,596.6 919.2,597.4 921.1,598.2 923.0,599.0 924.9,599.8 924.9,662.4 923.0,662.4 921.1,662.4 919.2,662.4 917.4,662.4 915.5,662.4 913.6,662.4 911.7,662.4 909.8,662.4
907.9,662.4 906.0,662.4 904.1,662.4 902.3,662.4 900.4,662.4 898.5,662.4 896.6,662.4 894.7,662.4 892.8,662.4 890.9,662.4 889.0,662.4 887.2,662.4 885.3,662.4 883.4,662.4 881.5,662.4 879.6,662.4
877.7,662.4 875.8,662.4 873.9,662.4 872.1,662.4 870.2,662.4 868.3,662.4 866.4,662.4 864.5,662.4 862.6,662.4 860.7,662.4 858.9,662.4 857.0,662.4 855.1,662.4 853.2,662.4 851.3,662.4 849.4,662.4
847.5,662.4 845.6,662.4 843.8,662.4 841.9,662.4 840.0,662.4 838.1,662.4 836.2,662.4 834.3,662.4 832.4,662.4 830.5,662.4 828.7,662.4 826.8,662.4 824.9,662.4 823.0,662.4 821.1,662.4 819.2,662.4
817.3,662.4 815.4,662.4 813.6,662.4 811.7,662.4 809.8,662.4 807.9,662.4 806.0,662.4 804.1,662.4 802.2,662.4 800.3,662.4 798.5,662.4 796.6,662.4 794.7,662.4 792.8,662.4 790.9,662.4 789.0,662.4
787.1,662.4 785.3,662.4 783.4,662.4 781.5,662.4 779.6,662.4 777.7,662.4 775.8,662.4 773.9,662.4 772.0,662.4 770.2,662.4 768.3,662.4 766.4,662.4 764.5,662.4 762.6,662.4 760.7,662.4 758.8,662.4
756.9,662.4 755.1,662.4 753.2,662.4 751.3,662.4 749.4,662.4 747.5,662.4 745.6,662.4 743.7,662.4 741.8,662.4 740.0,662.4 738.1,662.4 736.2,662.4 734.3,662.4 732.4,662.4 730.5,662.4 728.6,662.4
726.7,662.4 724.9,662.4 723.0,662.4 721.1,662.4 719.2,662.4 717.3,662.4 715.4,662.4 713.5,662.4 711.7,662.4 709.8,662.4 707.9,662.4 706.0,662.4 704.1,662.4 702.2,662.4 700.3,662.4 698.4,662.4
696.6,662.4 694.7,662.4 692.8,662.4 690.9,662.4 689.0,662.4 687.1,662.4 685.2,662.4 683.3,662.4 681.5,662.4 679.6,662.4 677.7,662.4 675.8,662.4 673.9,662.4 672.0,662.4 670.1,662.4 668.2,662.4
666.4,662.4 664.5,662.4 662.6,662.4 660.7,662.4 658.8,662.4 656.9,662.4 655.0,662.4 653.1,662.4 651.3,662.4 649.4,662.4 647.5,662.4 645.6,662.4 643.7,662.4 641.8,662.4 639.9,662.4 638.1,662.4
636.2,662.4 634.3,662.4 632.4,662.4 630.5,662.4 628.6,662.4 626.7,662.4 624.8,662.4 623.0,662.4 621.1,662.4 619.2,662.4 617.3,662.4 615.4,662.4 613.5,662.4 611.6,662.4 609.7,662.4 607.9,662.4
606.0,662.4 604.1,662.4 602.2,662.4 600.3,662.4 598.4,662.4 596.5,662.4 594.6,662.4 592.8,662.4 590.9,662.4 589.0,662.4 587.1,662.4 585.2,662.4 583.3,662.4 581.4,662.4 579.5,662.4 577.7,662.4
575.8,662.4 573.9,662.4 572.0,662.4 570.1,662.4 568.2,662.4 566.3,662.4 564.5,662.4 562.6,662.4 560.7,662.4 558.8,662.4 556.9,662.4 555.0,662.4 553.1,662.4 551.2,662.4 549.4,662.4 547.5,662.4
545.6,662.4 543.7,662.4 541.8,662.4 539.9,662.4 538.0,662.4 536.1,662.4 534.3,662.4 532.4,662.4 530.5,662.4 528.6,662.4 526.7,662.4 524.8,662.4 522.9,662.4 521.0,662.4 519.2,662.4 517.3,662.4
515.4,662.4 513.5,662.4 511.6,662.4 509.7,662.4 507.8,662.4 506.0,662.4 504.1,662.4 502.2,662.4 500.3,662.4 498.4,662.4 496.5,662.4 494.6,662.4 492.7,662.4 490.9,662.4 489.0,662.4 487.1,662.4
485.2,662.4 483.3,662.4 481.4,662.4 479.5,662.4 477.6,662.4 475.8,662.4 473.9,662.4 472.0,662.4 470.1,662.4 468.2,662.4 466.3,662.4 464.4,662.4 462.5,662.4 460.7,662.4 458.8,662.4 456.9,662.4
455.0,662.4 453.1,662.4 451.2,662.4 449.3,662.4 447.4,662.4 445.6,662.4 443.7,662.4 441.8,662.4 439.9,662.4 438.0,662.4 436.1,662.4 434.2,662.4 432.4,662.4 430.5,662.4 428.6,662.4 426.7,662.4
424.8,662.4 422.9,662.4 421.0,662.4 419.1,662.4 417.3,662.4 415.4,662.4 413.5,662.4 411.6,662.4 409.7,662.4 407.8,662.4 405.9,662.4 404.0,662.4 402.2,662.4 400.3,662.4 398.4,662.4 396.5,662.4
394.6,662.4 392.7,662.4 390.8,662.4 388.9,662.4 387.1,662.4 385.2,662.4 383.3,662.4 381.4,662.4 379.5,662.4 377.6,662.4 375.7,662.4 373.8,662.4 372.0,662.4 370.1,662.4 368.2,662.4 366.3,662.4
364.4,662.4 362.5,662.4 360.6,662.4 358.8,662.4 356.9,662.4 355.0,662.4 353.1,662.4 351.2,662.4 349.3,662.4 347.4,662.4 345.5,662.4 343.7,662.4 341.8,662.4 339.9,662.4 338.0,662.4 336.1,662.4
334.2,662.4 332.3,662.4 330.4,662.4 328.6,662.4 326.7,662.4 324.8,662.4 322.9,662.4 321.0,662.4 319.1,662.4 317.2,662.4 315.3,662.4 313.5,662.4 311.6,662.4 309.7,662.4 307.8,662.4 305.9,662.4
304.0,662.4 302.1,662.4 300.2,662.4 298.4,662.4 296.5,662.4 294.6,662.4 292.7,662.4 290.8,662.4 288.9,662.4 287.0,662.4 285.2,662.4 283.3,662.4 281.4,662.4 279.5,662.4 277.6,662.4 275.7,662.4
273.8,662.4 271.9,662.4 270.1,662.4 268.2,662.4 266.3,662.4 264.4,662.4 262.5,662.4 260.6,662.4 258.7,662.4 256.8,662.4 255.0,662.4 253.1,662.4 251.2,662.4 249.3,662.4 247.4,662.4 245.5,662.4
243.6,662.4 241.7,662.4 239.9,662.4 238.0,662.4 236.1,662.4 234.2,662.4 232.3,662.4 230.4,662.4 228.5,662.4 226.6,662.4 224.8,662.4 222.9,662.4 221.0,662.4 219.1,662.4 217.2,662.4 215.3,662.4
213.4,662.4 211.6,662.4 209.7,662.4 207.8,662.4 205.9,662.4 204.0,662.4 202.1,662.4 200.2,662.4 198.3,662.4 196.5,662.4 194.6,662.4 192.7,662.4 190.8,662.4 188.9,662.4 187.0,662.4 185.1,662.4
183.2,662.4 181.4,662.4 179.5,662.4 177.6,662.4 175.7,662.4 173.8,662.4 171.9,662.4 170.0,662.4 168.1,662.4 166.3,662.4 164.4,662.4 162.5,662.4 160.6,662.4 158.7,662.4 '/>
	</g>
</g>
	</g>
	<g id="gnuplot_plot_3" ><title>Point estimate</title>
<g fill="none" color="white" stroke="rgb( 31, 120, 180)" stroke-width="2.00" stroke-linecap="butt" stroke-linejoin="miter">
</g>
<g fill="none" color="black" stroke="currentColor" stroke-width="2.00" stroke-linecap="butt" stroke-linejoin="miter">
	<g transform="translate(1089.0,103.0)" stroke="none" fill="black" font-family="Helvetica" font-size="12.00"  text-anchor="start">
		<text><tspan font-family="Helvetica" >Point estimate</tspan></text>
	</g>
</g>
<g fill="none" color="black" stroke="currentColor" stroke-width="2.00" stroke-linecap="butt" stroke-linejoin="miter">
	<path stroke='rgb( 31, 120, 180)'  d='M1038.5,99.1 L1080.7,99.1 M478.7,662.4 L478.7,104.1  '/></g>
	</g>
<g fill="none" color="black" stroke="currentColor" stroke-width="2.00" stroke-linecap="butt" stroke-linejoin="miter">
</g>
<g fill="none" color="black" stroke="black" stroke-width="1.00" stroke-linecap="butt" stroke-linejoin="miter">
</g>
<g fill="none" color="black" stroke="currentColor" stroke-width="1.00" stroke-linecap="butt" stroke-linejoin="miter">
	<path stroke='black'  d='M71.9,54.1 L71.9,662.4 L1013.6,662.4 L1013.6,54.1 L71.9,54.1 Z  '/></g>
<g fill="none" color="black" stroke="currentColor" stroke-width="1.00" stroke-linecap="butt" stroke-linejoin="miter">
</g>
</g>
</svg>

