<?xml version="1.0" encoding="utf-8"  standalone="no"?>
<svg 
 viewBox="0 0 1280 720"
 xmlns="http://www.w3.org/2000/svg"
 xmlns:xlink="http://www.w3.org/1999/xlink"
>

<title>Gnuplot</title>
<desc>Produced by GNUPLOT 5.2 patchlevel 6 </desc>

<g id="gnuplot_canvas">

<rect x="0" y="0" width="1280" height="720" fill="none"/>
<defs>

	<circle id='gpDot' r='0.5' stroke-width='0.5' stroke='currentColor'/>
	<path id='gpPt0' stroke-width='0.222' stroke='currentColor' d='M-1,0 h2 M0,-1 v2'/>
	<path id='gpPt1' stroke-width='0.222' stroke='currentColor' d='M-1,-1 L1,1 M1,-1 L-1,1'/>
	<path id='gpPt2' stroke-width='0.222' stroke='currentColor' d='M-1,0 L1,0 M0,-1 L0,1 M-1,-1 L1,1 M-1,1 L1,-1'/>
	<rect id='gpPt3' stroke-width='0.222' stroke='currentColor' x='-1' y='-1' width='2' height='2'/>
	<rect id='gpPt4' stroke-width='0.222' stroke='currentColor' fill='currentColor' x='-1' y='-1' width='2' height='2'/>
	<circle id='gpPt5' stroke-width='0.222' stroke='currentColor' cx='0' cy='0' r='1'/>
	<use xlink:href='#gpPt5' id='gpPt6' fill='currentColor' stroke='none'/>
	<path id='gpPt7' stroke-width='0.222' stroke='currentColor' d='M0,-1.33 L-1.33,0.67 L1.33,0.67 z'/>
	<use xlink:href='#gpPt7' id='gpPt8' fill='currentColor' stroke='none'/>
	<use xlink:href='#gpPt7' id='gpPt9' stroke='currentColor' transform='rotate(180)'/>
	<use xlink:href='#gpPt9' id='gpPt10' fill='currentColor' stroke='none'/>
	<use xlink:href='#gpPt3' id='gpPt11' stroke='currentColor' transform='rotate(45)'/>
	<use xlink:href='#gpPt11' id='gpPt12' fill='currentColor' stroke='none'/>
	<path id='gpPt13' stroke-width='0.222' stroke='currentColor' d='M0,1.330 L1.265,0.411 L0.782,-1.067 L-0.782,-1.076 L-1.265,0.411 z'/>
	<use xlink:href='#gpPt13' id='gpPt14' fill='currentColor' stroke='none'/>
	<filter id='textbox' filterUnits='objectBoundingBox' x='0' y='0' height='1' width='1'>
	  <feFlood flood-color='white' flood-opacity='1' result='bgnd'/>
	  <feComposite in='SourceGraphic' in2='bgnd' operator='atop'/>
	</filter>
	<filter id='greybox' filterUnits='objectBoundingBox' x='0' y='0' height='1' width='1'>
	  <feFlood flood-color='lightgrey' flood-opacity='1' result='grey'/>
	  <feComposite in='SourceGraphic' in2='grey' operator='atop'/>
	</filter>
</defs>
<g fill="none" color="white" stroke="currentColor" stroke-width="1.00" stroke-linecap="butt" stroke-linejoin="miter">
</g>
<g fill="none" color="black" stroke="currentColor" stroke-width="1.00" stroke-linecap="butt" stroke-linejoin="miter">
	<path stroke='black'  d='M71.9,662.4 L80.9,662.4  '/>	<g transform="translate(63.6,666.3)" stroke="none" fill="black" font-family="Helvetica" font-size="12.00"  text-anchor="end">
		<text><tspan font-family="Helvetica" > 0</tspan></text>
	</g>
</g>
<g fill="none" color="black" stroke="currentColor" stroke-width="1.00" stroke-linecap="butt" stroke-linejoin="miter">
	<path stroke='black'  d='M71.9,540.7 L80.9,540.7  '/>	<g transform="translate(63.6,544.6)" stroke="none" fill="black" font-family="Helvetica" font-size="12.00"  text-anchor="end">
		<text><tspan font-family="Helvetica" > 20</tspan></text>
	</g>
</g>
<g fill="none" color="black" stroke="currentColor" stroke-width="1.00" stroke-linecap="butt" stroke-linejoin="miter">
	<path stroke='black'  d='M71.9,419.1 L80.9,419.1  '/>	<g transform="translate(63.6,423.0)" stroke="none" fill="black" font-family="Helvetica" font-size="12.00"  text-anchor="end">
		<text><tspan font-family="Helvetica" > 40</tspan></text>
	</g>
</g>
<g fill="none" color="black" stroke="currentColor" stroke-width="1.00" stroke-linecap="butt" stroke-linejoin="miter">
	<path stroke='black'  d='M71.9,297.4 L80.9,297.4  '/>	<g transform="translate(63.6,301.3)" stroke="none" fill="black" font-family="Helvetica" font-size="12.00"  text-anchor="end">
		<text><tspan font-family="Helvetica" > 60</tspan></text>
	</g>
</g>
<g fill="none" color="black" stroke="currentColor" stroke-width="1.00" stroke-linecap="butt" stroke-linejoin="miter">
	<path stroke='black'  d='M71.9,175.8 L80.9,175.8  '/>	<g transform="translate(63.6,179.7)" stroke="none" fill="black" font-family="Helvetica" font-size="12.00"  text-anchor="end">
		<text><tspan font-family="Helvetica" > 80</tspan></text>
	</g>
</g>
<g fill="none" color="black" stroke="currentColor" stroke-width="1.00" stroke-linecap="butt" stroke-linejoin="miter">
	<path stroke='black'  d='M71.9,54.1 L80.9,54.1  '/>	<g transform="translate(63.6,58.0)" stroke="none" fill="black" font-family="Helvetica" font-size="12.00"  text-anchor="end">
		<text><tspan font-family="Helvetica" > 100</tspan></text>
	</g>
</g>
<g fill="none" color="black" stroke="currentColor" stroke-width="1.00" stroke-linecap="butt" stroke-linejoin="miter">
	<path stroke='black'  d='M80.6,662.4 L80.6,653.4  '/>	<g transform="translate(80.6,684.3)" stroke="none" fill="black" font-family="Helvetica" font-size="12.00"  text-anchor="middle">
		<text><tspan font-family="Helvetica" > 1.8</tspan></text>
	</g>
</g>
<g fill="none" color="black" stroke="currentColor" stroke-width="1.00" stroke-linecap="butt" stroke-linejoin="miter">
	<path stroke='black'  d='M264.5,662.4 L264.5,653.4  '/>	<g transform="translate(264.5,684.3)" stroke="none" fill="black" font-family="Helvetica" font-size="12.00"  text-anchor="middle">
		<text><tspan font-family="Helvetica" > 1.85</tspan></text>
	</g>
</g>
<g fill="none" color="black" stroke="currentColor" stroke-width="1.00" stroke-linecap="butt" stroke-linejoin="miter">
	<path stroke='black'  d='M448.4,662.4 L448.4,653.4  '/>	<g transform="translate(448.4,684.3)" stroke="none" fill="black" font-family="Helvetica" font-size="12.00"  text-anchor="middle">
		<text><tspan font-family="Helvetica" > 1.9</tspan></text>
	</g>
</g>
<g fill="none" color="black" stroke="currentColor" stroke-width="1.00" stroke-linecap="butt" stroke-linejoin="miter">
	<path stroke='black'  d='M632.3,662.4 L632.3,653.4  '/>	<g transform="translate(632.3,684.3)" stroke="none" fill="black" font-family="Helvetica" font-size="12.00"  text-anchor="middle">
		<text><tspan font-family="Helvetica" > 1.95</tspan></text>
	</g>
</g>
<g fill="none" color="black" stroke="currentColor" stroke-width="1.00" stroke-linecap="butt" stroke-linejoin="miter">
	<path stroke='black'  d='M816.3,662.4 L816.3,653.4  '/>	<g transform="translate(816.3,684.3)" stroke="none" fill="black" font-family="Helvetica" font-size="12.00"  text-anchor="middle">
		<text><tspan font-family="Helvetica" > 2</tspan></text>
	</g>
</g>
<g fill="none" color="black" stroke="currentColor" stroke-width="1.00" stroke-linecap="butt" stroke-linejoin="miter">
	<path stroke='black'  d='M1000.2,662.4 L1000.2,653.4  '/>	<g transform="translate(1000.2,684.3)" stroke="none" fill="black" font-family="Helvetica" font-size="12.00"  text-anchor="middle">
		<text><tspan font-family="Helvetica" > 2.05</tspan></text>
	</g>
</g>
<g fill="none" color="black" stroke="currentColor" stroke-width="1.00" stroke-linecap="butt" stroke-linejoin="miter">
	<path stroke='black'  d='M1012.2,662.4 L1003.2,662.4  '/>	<g transform="translate(1020.5,666.3)" stroke="none" fill="black" font-family="Helvetica" font-size="12.00"  text-anchor="start">
		<text><tspan font-family="Helvetica" > 0</tspan></text>
	</g>
</g>
<g fill="none" color="black" stroke="currentColor" stroke-width="1.00" stroke-linecap="butt" stroke-linejoin="miter">
	<path stroke='black'  d='M1012.2,586.4 L1003.2,586.4  '/>	<g transform="translate(1020.5,590.3)" stroke="none" fill="black" font-family="Helvetica" font-size="12.00"  text-anchor="start">
		<text><tspan font-family="Helvetica" > 5</tspan></text>
	</g>
</g>
<g fill="none" color="black" stroke="currentColor" stroke-width="1.00" stroke-linecap="butt" stroke-linejoin="miter">
	<path stroke='black'  d='M1012.2,510.3 L1003.2,510.3  '/>	<g transform="translate(1020.5,514.2)" stroke="none" fill="black" font-family="Helvetica" font-size="12.00"  text-anchor="start">
		<text><tspan font-family="Helvetica" > 10</tspan></text>
	</g>
</g>
<g fill="none" color="black" stroke="currentColor" stroke-width="1.00" stroke-linecap="butt" stroke-linejoin="miter">
	<path stroke='black'  d='M1012.2,434.3 L1003.2,434.3  '/>	<g transform="translate(1020.5,438.2)" stroke="none" fill="black" font-family="Helvetica" font-size="12.00"  text-anchor="start">
		<text><tspan font-family="Helvetica" > 15</tspan></text>
	</g>
</g>
<g fill="none" color="black" stroke="currentColor" stroke-width="1.00" stroke-linecap="butt" stroke-linejoin="miter">
	<path stroke='black'  d='M1012.2,358.2 L1003.2,358.2  '/>	<g transform="translate(1020.5,362.1)" stroke="none" fill="black" font-family="Helvetica" font-size="12.00"  text-anchor="start">
		<text><tspan font-family="Helvetica" > 20</tspan></text>
	</g>
</g>
<g fill="none" color="black" stroke="currentColor" stroke-width="1.00" stroke-linecap="butt" stroke-linejoin="miter">
	<path stroke='black'  d='M1012.2,282.2 L1003.2,282.2  '/>	<g transform="translate(1020.5,286.1)" stroke="none" fill="black" font-family="Helvetica" font-size="12.00"  text-anchor="start">
		<text><tspan font-family="Helvetica" > 25</tspan></text>
	</g>
</g>
<g fill="none" color="black" stroke="currentColor" stroke-width="1.00" stroke-linecap="butt" stroke-linejoin="miter">
	<path stroke='black'  d='M1012.2,206.2 L1003.2,206.2  '/>	<g transform="translate(1020.5,210.1)" stroke="none" fill="black" font-family="Helvetica" font-size="12.00"  text-anchor="start">
		<text><tspan font-family="Helvetica" > 30</tspan></text>
	</g>
</g>
<g fill="none" color="black" stroke="currentColor" stroke-width="1.00" stroke-linecap="butt" stroke-linejoin="miter">
	<path stroke='black'  d='M1012.2,130.1 L1003.2,130.1  '/>	<g transform="translate(1020.5,134.0)" stroke="none" fill="black" font-family="Helvetica" font-size="12.00"  text-anchor="start">
		<text><tspan font-family="Helvetica" > 35</tspan></text>
	</g>
</g>
<g fill="none" color="black" stroke="currentColor" stroke-width="1.00" stroke-linecap="butt" stroke-linejoin="miter">
	<path stroke='black'  d='M1012.2,54.1 L1003.2,54.1  '/>	<g transform="translate(1020.5,58.0)" stroke="none" fill="black" font-family="Helvetica" font-size="12.00"  text-anchor="start">
		<text><tspan font-family="Helvetica" > 40</tspan></text>
	</g>
</g>
<g fill="none" color="black" stroke="currentColor" stroke-width="1.00" stroke-linecap="butt" stroke-linejoin="miter">
</g>
<g fill="none" color="black" stroke="currentColor" stroke-width="1.00" stroke-linecap="butt" stroke-linejoin="miter">
	<path stroke='black'  d='M71.9,54.1 L71.9,662.4 L1012.2,662.4 L1012.2,54.1 L71.9,54.1 Z  '/></g>
<g fill="none" color="black" stroke="currentColor" stroke-width="1.00" stroke-linecap="butt" stroke-linejoin="miter">
	<g transform="translate(16.3,358.3) rotate(270)" stroke="none" fill="black" font-family="Helvetica" font-size="12.00"  text-anchor="middle">
		<text><tspan font-family="Helvetica" >Iterations</tspan></text>
	</g>
</g>
<g fill="none" color="black" stroke="currentColor" stroke-width="1.00" stroke-linecap="butt" stroke-linejoin="miter">
	<g transform="translate(1074.2,358.3) rotate(270)" stroke="none" fill="black" font-family="Helvetica" font-size="12.00"  text-anchor="middle">
		<text><tspan font-family="Helvetica" >Density (a.u.)</tspan></text>
	</g>
</g>
<g fill="none" color="black" stroke="currentColor" stroke-width="1.00" stroke-linecap="butt" stroke-linejoin="miter">
	<g transform="translate(542.0,711.3)" stroke="none" fill="black" font-family="Helvetica" font-size="12.00"  text-anchor="middle">
		<text><tspan font-family="Helvetica" >Average time (ms)</tspan></text>
	</g>
</g>
<g fill="none" color="black" stroke="currentColor" stroke-width="1.00" stroke-linecap="butt" stroke-linejoin="miter">
	<g transform="translate(542.0,31.0)" stroke="none" fill="black" font-family="Helvetica" font-size="12.00"  text-anchor="middle">
		<text><tspan font-family="Helvetica" >snapshot_restore_with_dense/Sparse: Entire region + /proc/pid/mem/215</tspan></text>
	</g>
</g>
	<g id="gnuplot_plot_1" ><title>PDF</title>
<g fill="none" color="black" stroke="currentColor" stroke-width="1.00" stroke-linecap="butt" stroke-linejoin="miter">
	<g transform="translate(1147.1,67.0)" stroke="none" fill="black" font-family="Helvetica" font-size="12.00"  text-anchor="start">
		<text><tspan font-family="Helvetica" >PDF</tspan></text>
	</g>
</g>
<g fill="none" color="black" stroke="currentColor" stroke-width="1.00" stroke-linecap="butt" stroke-linejoin="miter">
	<g stroke='none' shape-rendering='crispEdges'>
		<polygon fill = 'rgb( 31, 120, 180)' fill-opacity = '0.250000' points = '1096.6,67.6 1138.8,67.6 1138.8,58.6 1096.6,58.6 '/>
		<polygon fill = 'rgb( 31, 120, 180)' fill-opacity = '0.250000' points = '71.9,659.4 73.8,658.9 75.7,658.3 77.6,657.6 79.4,656.7 81.3,655.8 83.2,654.7 85.1,653.5 87.0,652.1 88.9,650.5 90.7,648.8 92.6,646.8 94.5,644.5 96.4,642.0 98.3,639.2 100.2,636.0
102.0,632.5 103.9,628.7 105.8,624.4 107.7,619.7 109.6,614.6 111.5,609.0 113.4,602.9 115.2,596.2 117.1,589.0 119.0,581.3 120.9,572.9 122.8,564.0 124.7,554.4 126.5,544.2 128.4,533.4 130.3,522.0
132.2,509.9 134.1,497.3 136.0,484.1 137.9,470.3 139.7,455.9 141.6,441.1 143.5,425.8 145.4,410.2 147.3,394.2 149.2,377.9 151.0,361.4 152.9,344.7 154.8,328.0 156.7,311.4 158.6,294.8 160.5,278.5
162.3,262.4 164.2,246.8 166.1,231.6 168.0,217.0 169.9,203.1 171.8,190.0 173.7,177.8 175.5,166.4 177.4,156.1 179.3,146.9 181.2,138.9 183.1,132.1 185.0,126.5 186.8,122.2 188.7,119.3 190.6,117.7
192.5,117.5 194.4,118.6 196.3,121.0 198.2,124.8 200.0,129.9 201.9,136.2 203.8,143.6 205.7,152.3 207.6,162.0 209.5,172.7 211.3,184.3 213.2,196.7 215.1,209.9 217.0,223.7 218.9,238.1 220.8,253.0
222.6,268.2 224.5,283.7 226.4,299.4 228.3,315.3 230.2,331.1 232.1,346.9 234.0,362.5 235.8,378.0 237.7,393.1 239.6,408.0 241.5,422.4 243.4,436.4 245.3,450.0 247.1,463.0 249.0,475.5 250.9,487.5
252.8,498.8 254.7,509.6 256.6,519.8 258.5,529.4 260.3,538.4 262.2,546.8 264.1,554.6 266.0,561.9 267.9,568.6 269.8,574.8 271.6,580.5 273.5,585.7 275.4,590.5 277.3,594.8 279.2,598.8 281.1,602.3
282.9,605.6 284.8,608.4 286.7,611.0 288.6,613.4 290.5,615.4 292.4,617.3 294.3,618.9 296.1,620.4 298.0,621.7 299.9,622.9 301.8,624.0 303.7,624.9 305.6,625.8 307.4,626.6 309.3,627.3 311.2,628.0
313.1,628.7 315.0,629.3 316.9,630.0 318.8,630.6 320.6,631.2 322.5,631.8 324.4,632.4 326.3,633.0 328.2,633.6 330.1,634.2 331.9,634.9 333.8,635.6 335.7,636.2 337.6,636.9 339.5,637.6 341.4,638.3
343.2,639.1 345.1,639.8 347.0,640.6 348.9,641.3 350.8,642.1 352.7,642.8 354.6,643.6 356.4,644.3 358.3,645.1 360.2,645.8 362.1,646.6 364.0,647.3 365.9,648.0 367.7,648.7 369.6,649.4 371.5,650.1
373.4,650.8 375.3,651.4 377.2,652.0 379.1,652.7 380.9,653.2 382.8,653.8 384.7,654.3 386.6,654.9 388.5,655.4 390.4,655.9 392.2,656.3 394.1,656.7 396.0,657.2 397.9,657.6 399.8,657.9 401.7,658.3
403.5,658.6 405.4,658.9 407.3,659.2 409.2,659.5 411.1,659.7 413.0,660.0 414.9,660.2 416.7,660.4 418.6,660.6 420.5,660.8 422.4,660.9 424.3,661.1 426.2,661.2 428.0,661.3 429.9,661.4 431.8,661.6
433.7,661.6 435.6,661.7 437.5,661.8 439.4,661.9 441.2,661.9 443.1,662.0 445.0,662.0 446.9,662.1 448.8,662.1 450.7,662.2 452.5,662.2 454.4,662.2 456.3,662.2 458.2,662.3 460.1,662.3 462.0,662.3
463.8,662.3 465.7,662.3 467.6,662.3 469.5,662.3 471.4,662.3 473.3,662.3 475.2,662.3 477.0,662.4 478.9,662.3 480.8,662.3 482.7,662.3 484.6,662.3 486.5,662.3 488.3,662.3 490.2,662.3 492.1,662.3
494.0,662.3 495.9,662.3 497.8,662.3 499.7,662.2 501.5,662.2 503.4,662.2 505.3,662.2 507.2,662.1 509.1,662.1 511.0,662.1 512.8,662.0 514.7,662.0 516.6,661.9 518.5,661.8 520.4,661.8 522.3,661.7
524.1,661.6 526.0,661.6 527.9,661.5 529.8,661.4 531.7,661.3 533.6,661.1 535.5,661.0 537.3,660.9 539.2,660.8 541.1,660.6 543.0,660.5 544.9,660.3 546.8,660.2 548.6,660.0 550.5,659.8 552.4,659.6
554.3,659.5 556.2,659.3 558.1,659.1 560.0,658.9 561.8,658.7 563.7,658.5 565.6,658.3 567.5,658.1 569.4,657.9 571.3,657.7 573.1,657.6 575.0,657.4 576.9,657.2 578.8,657.1 580.7,656.9 582.6,656.8
584.4,656.7 586.3,656.6 588.2,656.5 590.1,656.4 592.0,656.4 593.9,656.3 595.8,656.3 597.6,656.3 599.5,656.3 601.4,656.3 603.3,656.3 605.2,656.4 607.1,656.4 608.9,656.5 610.8,656.6 612.7,656.7
614.6,656.8 616.5,657.0 618.4,657.1 620.3,657.3 622.1,657.4 624.0,657.6 625.9,657.8 627.8,658.0 629.7,658.2 631.6,658.4 633.4,658.5 635.3,658.7 637.2,658.9 639.1,659.1 641.0,659.3 642.9,659.5
644.7,659.7 646.6,659.9 648.5,660.0 650.4,660.2 652.3,660.4 654.2,660.5 656.1,660.7 657.9,660.8 659.8,660.9 661.7,661.1 663.6,661.2 665.5,661.3 667.4,661.4 669.2,661.5 671.1,661.6 673.0,661.7
674.9,661.7 676.8,661.8 678.7,661.9 680.6,661.9 682.4,662.0 684.3,662.0 686.2,662.1 688.1,662.1 690.0,662.1 691.9,662.2 693.7,662.2 695.6,662.2 697.5,662.3 699.4,662.3 701.3,662.3 703.2,662.3
705.0,662.3 706.9,662.3 708.8,662.3 710.7,662.3 712.6,662.4 714.5,662.4 716.4,662.4 718.2,662.4 720.1,662.4 722.0,662.4 723.9,662.4 725.8,662.4 727.7,662.4 729.5,662.4 731.4,662.4 733.3,662.4
735.2,662.4 737.1,662.4 739.0,662.4 740.9,662.4 742.7,662.4 744.6,662.4 746.5,662.4 748.4,662.4 750.3,662.4 752.2,662.4 754.0,662.4 755.9,662.4 757.8,662.4 759.7,662.4 761.6,662.4 763.5,662.4
765.3,662.4 767.2,662.4 769.1,662.4 771.0,662.4 772.9,662.4 774.8,662.4 776.7,662.4 778.5,662.4 780.4,662.4 782.3,662.4 784.2,662.4 786.1,662.4 788.0,662.4 789.8,662.4 791.7,662.3 793.6,662.3
795.5,662.3 797.4,662.3 799.3,662.3 801.2,662.3 803.0,662.3 804.9,662.2 806.8,662.2 808.7,662.2 810.6,662.2 812.5,662.1 814.3,662.1 816.2,662.0 818.1,662.0 820.0,662.0 821.9,661.9 823.8,661.8
825.6,661.8 827.5,661.7 829.4,661.6 831.3,661.5 833.2,661.4 835.1,661.3 837.0,661.2 838.8,661.1 840.7,661.0 842.6,660.9 844.5,660.7 846.4,660.6 848.3,660.4 850.1,660.3 852.0,660.1 853.9,659.9
855.8,659.8 857.7,659.6 859.6,659.4 861.5,659.2 863.3,659.0 865.2,658.8 867.1,658.6 869.0,658.5 870.9,658.3 872.8,658.1 874.6,657.9 876.5,657.7 878.4,657.5 880.3,657.4 882.2,657.2 884.1,657.1
885.9,656.9 887.8,656.8 889.7,656.7 891.6,656.6 893.5,656.5 895.4,656.4 897.3,656.3 899.1,656.3 901.0,656.3 902.9,656.3 904.8,656.3 906.7,656.3 908.6,656.3 910.4,656.4 912.3,656.5 914.2,656.5
916.1,656.6 918.0,656.8 919.9,656.9 921.8,657.0 923.6,657.2 925.5,657.3 927.4,657.5 929.3,657.7 931.2,657.8 933.1,658.0 934.9,658.2 936.8,658.4 938.7,658.6 940.6,658.8 942.5,659.0 944.4,659.2
946.2,659.4 948.1,659.5 950.0,659.7 951.9,659.9 953.8,660.1 955.7,660.2 957.6,660.4 959.4,660.5 961.3,660.7 963.2,660.8 965.1,661.0 967.0,661.1 968.9,661.2 970.7,661.3 972.6,661.4 974.5,661.5
976.4,661.6 978.3,661.7 980.2,661.7 982.1,661.8 983.9,661.9 985.8,661.9 987.7,662.0 989.6,662.0 991.5,662.1 993.4,662.1 995.2,662.2 997.1,662.2 999.0,662.2 1000.9,662.2 1002.8,662.3 1004.7,662.3
1006.5,662.3 1008.4,662.3 1010.3,662.3 1012.2,662.3 1012.2,662.4 1010.3,662.4 1008.4,662.4 1006.5,662.4 1004.7,662.4 1002.8,662.4 1000.9,662.4 999.0,662.4 997.1,662.4 995.2,662.4 993.4,662.4 991.5,662.4
989.6,662.4 987.7,662.4 985.8,662.4 983.9,662.4 982.1,662.4 980.2,662.4 978.3,662.4 976.4,662.4 974.5,662.4 972.6,662.4 970.7,662.4 968.9,662.4 967.0,662.4 965.1,662.4 963.2,662.4 961.3,662.4
959.4,662.4 957.6,662.4 955.7,662.4 953.8,662.4 951.9,662.4 950.0,662.4 948.1,662.4 946.2,662.4 944.4,662.4 942.5,662.4 940.6,662.4 938.7,662.4 936.8,662.4 934.9,662.4 933.1,662.4 931.2,662.4
929.3,662.4 927.4,662.4 925.5,662.4 923.6,662.4 921.8,662.4 919.9,662.4 918.0,662.4 916.1,662.4 914.2,662.4 912.3,662.4 910.4,662.4 908.6,662.4 906.7,662.4 904.8,662.4 902.9,662.4 901.0,662.4
899.1,662.4 897.3,662.4 895.4,662.4 893.5,662.4 891.6,662.4 889.7,662.4 887.8,662.4 885.9,662.4 884.1,662.4 882.2,662.4 880.3,662.4 878.4,662.4 876.5,662.4 874.6,662.4 872.8,662.4 870.9,662.4
869.0,662.4 867.1,662.4 865.2,662.4 863.3,662.4 861.5,662.4 859.6,662.4 857.7,662.4 855.8,662.4 853.9,662.4 852.0,662.4 850.1,662.4 848.3,662.4 846.4,662.4 844.5,662.4 842.6,662.4 840.7,662.4
838.8,662.4 837.0,662.4 835.1,662.4 833.2,662.4 831.3,662.4 829.4,662.4 827.5,662.4 825.6,662.4 823.8,662.4 821.9,662.4 820.0,662.4 818.1,662.4 816.2,662.4 814.3,662.4 812.5,662.4 810.6,662.4
808.7,662.4 806.8,662.4 804.9,662.4 803.0,662.4 801.2,662.4 799.3,662.4 797.4,662.4 795.5,662.4 793.6,662.4 791.7,662.4 789.8,662.4 788.0,662.4 786.1,662.4 784.2,662.4 782.3,662.4 780.4,662.4
778.5,662.4 776.7,662.4 774.8,662.4 772.9,662.4 771.0,662.4 769.1,662.4 767.2,662.4 765.3,662.4 763.5,662.4 761.6,662.4 759.7,662.4 757.8,662.4 755.9,662.4 754.0,662.4 752.2,662.4 750.3,662.4
748.4,662.4 746.5,662.4 744.6,662.4 742.7,662.4 740.9,662.4 739.0,662.4 737.1,662.4 735.2,662.4 733.3,662.4 731.4,662.4 729.5,662.4 727.7,662.4 725.8,662.4 723.9,662.4 722.0,662.4 720.1,662.4
718.2,662.4 716.4,662.4 714.5,662.4 712.6,662.4 710.7,662.4 708.8,662.4 706.9,662.4 705.0,662.4 703.2,662.4 701.3,662.4 699.4,662.4 697.5,662.4 695.6,662.4 693.7,662.4 691.9,662.4 690.0,662.4
688.1,662.4 686.2,662.4 684.3,662.4 682.4,662.4 680.6,662.4 678.7,662.4 676.8,662.4 674.9,662.4 673.0,662.4 671.1,662.4 669.2,662.4 667.4,662.4 665.5,662.4 663.6,662.4 661.7,662.4 659.8,662.4
657.9,662.4 656.1,662.4 654.2,662.4 652.3,662.4 650.4,662.4 648.5,662.4 646.6,662.4 644.7,662.4 642.9,662.4 641.0,662.4 639.1,662.4 637.2,662.4 635.3,662.4 633.4,662.4 631.6,662.4 629.7,662.4
627.8,662.4 625.9,662.4 624.0,662.4 622.1,662.4 620.3,662.4 618.4,662.4 616.5,662.4 614.6,662.4 612.7,662.4 610.8,662.4 608.9,662.4 607.1,662.4 605.2,662.4 603.3,662.4 601.4,662.4 599.5,662.4
597.6,662.4 595.8,662.4 593.9,662.4 592.0,662.4 590.1,662.4 588.2,662.4 586.3,662.4 584.4,662.4 582.6,662.4 580.7,662.4 578.8,662.4 576.9,662.4 575.0,662.4 573.1,662.4 571.3,662.4 569.4,662.4
567.5,662.4 565.6,662.4 563.7,662.4 561.8,662.4 560.0,662.4 558.1,662.4 556.2,662.4 554.3,662.4 552.4,662.4 550.5,662.4 548.6,662.4 546.8,662.4 544.9,662.4 543.0,662.4 541.1,662.4 539.2,662.4
537.3,662.4 535.5,662.4 533.6,662.4 531.7,662.4 529.8,662.4 527.9,662.4 526.0,662.4 524.1,662.4 522.3,662.4 520.4,662.4 518.5,662.4 516.6,662.4 514.7,662.4 512.8,662.4 511.0,662.4 509.1,662.4
507.2,662.4 505.3,662.4 503.4,662.4 501.5,662.4 499.7,662.4 497.8,662.4 495.9,662.4 494.0,662.4 492.1,662.4 490.2,662.4 488.3,662.4 486.5,662.4 484.6,662.4 482.7,662.4 480.8,662.4 478.9,662.4
477.0,662.4 475.2,662.4 473.3,662.4 471.4,662.4 469.5,662.4 467.6,662.4 465.7,662.4 463.8,662.4 462.0,662.4 460.1,662.4 458.2,662.4 456.3,662.4 454.4,662.4 452.5,662.4 450.7,662.4 448.8,662.4
446.9,662.4 445.0,662.4 443.1,662.4 441.2,662.4 439.4,662.4 437.5,662.4 435.6,662.4 433.7,662.4 431.8,662.4 429.9,662.4 428.0,662.4 426.2,662.4 424.3,662.4 422.4,662.4 420.5,662.4 418.6,662.4
416.7,662.4 414.9,662.4 413.0,662.4 411.1,662.4 409.2,662.4 407.3,662.4 405.4,662.4 403.5,662.4 401.7,662.4 399.8,662.4 397.9,662.4 396.0,662.4 394.1,662.4 392.2,662.4 390.4,662.4 388.5,662.4
386.6,662.4 384.7,662.4 382.8,662.4 380.9,662.4 379.1,662.4 377.2,662.4 375.3,662.4 373.4,662.4 371.5,662.4 369.6,662.4 367.7,662.4 365.9,662.4 364.0,662.4 362.1,662.4 360.2,662.4 358.3,662.4
356.4,662.4 354.6,662.4 352.7,662.4 350.8,662.4 348.9,662.4 347.0,662.4 345.1,662.4 343.2,662.4 341.4,662.4 339.5,662.4 337.6,662.4 335.7,662.4 333.8,662.4 331.9,662.4 330.1,662.4 328.2,662.4
326.3,662.4 324.4,662.4 322.5,662.4 320.6,662.4 318.8,662.4 316.9,662.4 315.0,662.4 313.1,662.4 311.2,662.4 309.3,662.4 307.4,662.4 305.6,662.4 303.7,662.4 301.8,662.4 299.9,662.4 298.0,662.4
296.1,662.4 294.3,662.4 292.4,662.4 290.5,662.4 288.6,662.4 286.7,662.4 284.8,662.4 282.9,662.4 281.1,662.4 279.2,662.4 277.3,662.4 275.4,662.4 273.5,662.4 271.6,662.4 269.8,662.4 267.9,662.4
266.0,662.4 264.1,662.4 262.2,662.4 260.3,662.4 258.5,662.4 256.6,662.4 254.7,662.4 252.8,662.4 250.9,662.4 249.0,662.4 247.1,662.4 245.3,662.4 243.4,662.4 241.5,662.4 239.6,662.4 237.7,662.4
235.8,662.4 234.0,662.4 232.1,662.4 230.2,662.4 228.3,662.4 226.4,662.4 224.5,662.4 222.6,662.4 220.8,662.4 218.9,662.4 217.0,662.4 215.1,662.4 213.2,662.4 211.3,662.4 209.5,662.4 207.6,662.4
205.7,662.4 203.8,662.4 201.9,662.4 200.0,662.4 198.2,662.4 196.3,662.4 194.4,662.4 192.5,662.4 190.6,662.4 188.7,662.4 186.8,662.4 185.0,662.4 183.1,662.4 181.2,662.4 179.3,662.4 177.4,662.4
175.5,662.4 173.7,662.4 171.8,662.4 169.9,662.4 168.0,662.4 166.1,662.4 164.2,662.4 162.3,662.4 160.5,662.4 158.6,662.4 156.7,662.4 154.8,662.4 152.9,662.4 151.0,662.4 149.2,662.4 147.3,662.4
145.4,662.4 143.5,662.4 141.6,662.4 139.7,662.4 137.9,662.4 136.0,662.4 134.1,662.4 132.2,662.4 130.3,662.4 128.4,662.4 126.5,662.4 124.7,662.4 122.8,662.4 120.9,662.4 119.0,662.4 117.1,662.4
115.2,662.4 113.4,662.4 111.5,662.4 109.6,662.4 107.7,662.4 105.8,662.4 103.9,662.4 102.0,662.4 100.2,662.4 98.3,662.4 96.4,662.4 94.5,662.4 92.6,662.4 90.7,662.4 88.9,662.4 87.0,662.4
85.1,662.4 83.2,662.4 81.3,662.4 79.4,662.4 77.6,662.4 75.7,662.4 73.8,662.4 71.9,662.4 '/>
	</g>
</g>
	</g>
	<g id="gnuplot_plot_2" ><title>Mean</title>
<g fill="none" color="white" stroke="rgb( 31, 120, 180)" stroke-width="2.00" stroke-linecap="butt" stroke-linejoin="miter">
</g>
<g fill="none" color="black" stroke="currentColor" stroke-width="2.00" stroke-linecap="butt" stroke-linejoin="miter">
	<g transform="translate(1147.1,85.0)" stroke="none" fill="black" font-family="Helvetica" font-size="12.00"  text-anchor="start">
		<text><tspan font-family="Helvetica" >Mean</tspan></text>
	</g>
</g>
<g fill="none" color="black" stroke="currentColor" stroke-width="2.00" stroke-linecap="butt" stroke-linejoin="miter">
	<path stroke='rgb( 31, 120, 180)'  d='M1096.6,81.1 L1138.8,81.1 M210.8,662.4 L210.8,54.1  '/></g>
	</g>
	<g id="gnuplot_plot_3" ><title>"Clean" sample</title>
<g fill="none" color="white" stroke="rgb( 31, 120, 180)" stroke-width="1.00" stroke-linecap="butt" stroke-linejoin="miter">
</g>
<g fill="none" color="black" stroke="currentColor" stroke-width="1.00" stroke-linecap="butt" stroke-linejoin="miter">
	<g transform="translate(1147.1,103.0)" stroke="none" fill="black" font-family="Helvetica" font-size="12.00"  text-anchor="start">
		<text><tspan font-family="Helvetica" >"Clean" sample</tspan></text>
	</g>
</g>
<g fill="none" color="black" stroke="currentColor" stroke-width="1.00" stroke-linecap="butt" stroke-linejoin="miter">
	<use xlink:href='#gpPt6' transform='translate(202.5,650.2) scale(3.38)' color='rgb( 31, 120, 180)'/>
	<use xlink:href='#gpPt6' transform='translate(189.8,613.7) scale(3.38)' color='rgb( 31, 120, 180)'/>
	<use xlink:href='#gpPt6' transform='translate(188.3,601.6) scale(3.38)' color='rgb( 31, 120, 180)'/>
	<use xlink:href='#gpPt6' transform='translate(214.9,595.5) scale(3.38)' color='rgb( 31, 120, 180)'/>
	<use xlink:href='#gpPt6' transform='translate(188.7,589.4) scale(3.38)' color='rgb( 31, 120, 180)'/>
	<use xlink:href='#gpPt6' transform='translate(186.2,583.3) scale(3.38)' color='rgb( 31, 120, 180)'/>
	<use xlink:href='#gpPt6' transform='translate(208.6,577.2) scale(3.38)' color='rgb( 31, 120, 180)'/>
	<use xlink:href='#gpPt6' transform='translate(182.3,571.2) scale(3.38)' color='rgb( 31, 120, 180)'/>
	<use xlink:href='#gpPt6' transform='translate(186.3,565.1) scale(3.38)' color='rgb( 31, 120, 180)'/>
	<use xlink:href='#gpPt6' transform='translate(194.0,559.0) scale(3.38)' color='rgb( 31, 120, 180)'/>
	<use xlink:href='#gpPt6' transform='translate(191.3,552.9) scale(3.38)' color='rgb( 31, 120, 180)'/>
	<use xlink:href='#gpPt6' transform='translate(185.2,546.8) scale(3.38)' color='rgb( 31, 120, 180)'/>
	<use xlink:href='#gpPt6' transform='translate(205.5,540.7) scale(3.38)' color='rgb( 31, 120, 180)'/>
	<use xlink:href='#gpPt6' transform='translate(189.0,534.7) scale(3.38)' color='rgb( 31, 120, 180)'/>
	<use xlink:href='#gpPt6' transform='translate(186.8,528.6) scale(3.38)' color='rgb( 31, 120, 180)'/>
	<use xlink:href='#gpPt6' transform='translate(200.3,522.5) scale(3.38)' color='rgb( 31, 120, 180)'/>
	<use xlink:href='#gpPt6' transform='translate(192.4,516.4) scale(3.38)' color='rgb( 31, 120, 180)'/>
	<use xlink:href='#gpPt6' transform='translate(200.0,510.3) scale(3.38)' color='rgb( 31, 120, 180)'/>
	<use xlink:href='#gpPt6' transform='translate(193.1,504.2) scale(3.38)' color='rgb( 31, 120, 180)'/>
	<use xlink:href='#gpPt6' transform='translate(196.9,498.2) scale(3.38)' color='rgb( 31, 120, 180)'/>
	<use xlink:href='#gpPt6' transform='translate(185.1,492.1) scale(3.38)' color='rgb( 31, 120, 180)'/>
	<use xlink:href='#gpPt6' transform='translate(209.2,467.7) scale(3.38)' color='rgb( 31, 120, 180)'/>
	<use xlink:href='#gpPt6' transform='translate(210.0,461.7) scale(3.38)' color='rgb( 31, 120, 180)'/>
	<use xlink:href='#gpPt6' transform='translate(197.9,455.6) scale(3.38)' color='rgb( 31, 120, 180)'/>
	<use xlink:href='#gpPt6' transform='translate(193.9,449.5) scale(3.38)' color='rgb( 31, 120, 180)'/>
	<use xlink:href='#gpPt6' transform='translate(194.5,443.4) scale(3.38)' color='rgb( 31, 120, 180)'/>
	<use xlink:href='#gpPt6' transform='translate(185.7,437.3) scale(3.38)' color='rgb( 31, 120, 180)'/>
	<use xlink:href='#gpPt6' transform='translate(190.7,431.2) scale(3.38)' color='rgb( 31, 120, 180)'/>
	<use xlink:href='#gpPt6' transform='translate(189.9,425.2) scale(3.38)' color='rgb( 31, 120, 180)'/>
	<use xlink:href='#gpPt6' transform='translate(186.6,419.1) scale(3.38)' color='rgb( 31, 120, 180)'/>
	<use xlink:href='#gpPt6' transform='translate(188.6,413.0) scale(3.38)' color='rgb( 31, 120, 180)'/>
	<use xlink:href='#gpPt6' transform='translate(197.9,406.9) scale(3.38)' color='rgb( 31, 120, 180)'/>
	<use xlink:href='#gpPt6' transform='translate(187.1,400.8) scale(3.38)' color='rgb( 31, 120, 180)'/>
	<use xlink:href='#gpPt6' transform='translate(211.9,394.7) scale(3.38)' color='rgb( 31, 120, 180)'/>
	<use xlink:href='#gpPt6' transform='translate(188.4,388.7) scale(3.38)' color='rgb( 31, 120, 180)'/>
	<use xlink:href='#gpPt6' transform='translate(185.7,382.6) scale(3.38)' color='rgb( 31, 120, 180)'/>
	<use xlink:href='#gpPt6' transform='translate(192.3,376.5) scale(3.38)' color='rgb( 31, 120, 180)'/>
	<use xlink:href='#gpPt6' transform='translate(190.6,370.4) scale(3.38)' color='rgb( 31, 120, 180)'/>
	<use xlink:href='#gpPt6' transform='translate(184.0,364.3) scale(3.38)' color='rgb( 31, 120, 180)'/>
	<use xlink:href='#gpPt6' transform='translate(206.7,358.2) scale(3.38)' color='rgb( 31, 120, 180)'/>
	<use xlink:href='#gpPt6' transform='translate(188.5,352.2) scale(3.38)' color='rgb( 31, 120, 180)'/>
	<use xlink:href='#gpPt6' transform='translate(185.9,346.1) scale(3.38)' color='rgb( 31, 120, 180)'/>
	<use xlink:href='#gpPt6' transform='translate(182.8,340.0) scale(3.38)' color='rgb( 31, 120, 180)'/>
	<use xlink:href='#gpPt6' transform='translate(186.7,333.9) scale(3.38)' color='rgb( 31, 120, 180)'/>
	<use xlink:href='#gpPt6' transform='translate(196.2,327.8) scale(3.38)' color='rgb( 31, 120, 180)'/>
	<use xlink:href='#gpPt6' transform='translate(198.5,321.8) scale(3.38)' color='rgb( 31, 120, 180)'/>
	<use xlink:href='#gpPt6' transform='translate(188.4,315.7) scale(3.38)' color='rgb( 31, 120, 180)'/>
	<use xlink:href='#gpPt6' transform='translate(184.9,309.6) scale(3.38)' color='rgb( 31, 120, 180)'/>
	<use xlink:href='#gpPt6' transform='translate(190.0,303.5) scale(3.38)' color='rgb( 31, 120, 180)'/>
	<use xlink:href='#gpPt6' transform='translate(188.8,297.4) scale(3.38)' color='rgb( 31, 120, 180)'/>
	<use xlink:href='#gpPt6' transform='translate(187.7,291.3) scale(3.38)' color='rgb( 31, 120, 180)'/>
	<use xlink:href='#gpPt6' transform='translate(192.6,285.3) scale(3.38)' color='rgb( 31, 120, 180)'/>
	<use xlink:href='#gpPt6' transform='translate(191.8,279.2) scale(3.38)' color='rgb( 31, 120, 180)'/>
	<use xlink:href='#gpPt6' transform='translate(207.0,273.1) scale(3.38)' color='rgb( 31, 120, 180)'/>
	<use xlink:href='#gpPt6' transform='translate(187.8,267.0) scale(3.38)' color='rgb( 31, 120, 180)'/>
	<use xlink:href='#gpPt6' transform='translate(186.1,260.9) scale(3.38)' color='rgb( 31, 120, 180)'/>
	<use xlink:href='#gpPt6' transform='translate(192.0,254.8) scale(3.38)' color='rgb( 31, 120, 180)'/>
	<use xlink:href='#gpPt6' transform='translate(185.0,248.8) scale(3.38)' color='rgb( 31, 120, 180)'/>
	<use xlink:href='#gpPt6' transform='translate(184.3,242.7) scale(3.38)' color='rgb( 31, 120, 180)'/>
	<use xlink:href='#gpPt6' transform='translate(183.8,236.6) scale(3.38)' color='rgb( 31, 120, 180)'/>
	<use xlink:href='#gpPt6' transform='translate(187.3,230.5) scale(3.38)' color='rgb( 31, 120, 180)'/>
	<use xlink:href='#gpPt6' transform='translate(189.7,224.4) scale(3.38)' color='rgb( 31, 120, 180)'/>
	<use xlink:href='#gpPt6' transform='translate(188.9,218.3) scale(3.38)' color='rgb( 31, 120, 180)'/>
	<use xlink:href='#gpPt6' transform='translate(187.4,212.3) scale(3.38)' color='rgb( 31, 120, 180)'/>
	<use xlink:href='#gpPt6' transform='translate(190.6,206.2) scale(3.38)' color='rgb( 31, 120, 180)'/>
	<use xlink:href='#gpPt6' transform='translate(188.8,194.0) scale(3.38)' color='rgb( 31, 120, 180)'/>
	<use xlink:href='#gpPt6' transform='translate(189.0,187.9) scale(3.38)' color='rgb( 31, 120, 180)'/>
	<use xlink:href='#gpPt6' transform='translate(197.0,181.8) scale(3.38)' color='rgb( 31, 120, 180)'/>
	<use xlink:href='#gpPt6' transform='translate(216.2,175.8) scale(3.38)' color='rgb( 31, 120, 180)'/>
	<use xlink:href='#gpPt6' transform='translate(188.1,169.7) scale(3.38)' color='rgb( 31, 120, 180)'/>
	<use xlink:href='#gpPt6' transform='translate(187.2,163.6) scale(3.38)' color='rgb( 31, 120, 180)'/>
	<use xlink:href='#gpPt6' transform='translate(199.5,157.5) scale(3.38)' color='rgb( 31, 120, 180)'/>
	<use xlink:href='#gpPt6' transform='translate(189.0,151.4) scale(3.38)' color='rgb( 31, 120, 180)'/>
	<use xlink:href='#gpPt6' transform='translate(181.4,145.3) scale(3.38)' color='rgb( 31, 120, 180)'/>
	<use xlink:href='#gpPt6' transform='translate(203.9,139.3) scale(3.38)' color='rgb( 31, 120, 180)'/>
	<use xlink:href='#gpPt6' transform='translate(184.4,133.2) scale(3.38)' color='rgb( 31, 120, 180)'/>
	<use xlink:href='#gpPt6' transform='translate(182.6,127.1) scale(3.38)' color='rgb( 31, 120, 180)'/>
	<use xlink:href='#gpPt6' transform='translate(189.8,121.0) scale(3.38)' color='rgb( 31, 120, 180)'/>
	<use xlink:href='#gpPt6' transform='translate(186.8,114.9) scale(3.38)' color='rgb( 31, 120, 180)'/>
	<use xlink:href='#gpPt6' transform='translate(185.7,108.8) scale(3.38)' color='rgb( 31, 120, 180)'/>
	<use xlink:href='#gpPt6' transform='translate(190.8,102.8) scale(3.38)' color='rgb( 31, 120, 180)'/>
	<use xlink:href='#gpPt6' transform='translate(184.9,96.7) scale(3.38)' color='rgb( 31, 120, 180)'/>
	<use xlink:href='#gpPt6' transform='translate(185.2,90.6) scale(3.38)' color='rgb( 31, 120, 180)'/>
	<use xlink:href='#gpPt6' transform='translate(181.2,84.5) scale(3.38)' color='rgb( 31, 120, 180)'/>
	<use xlink:href='#gpPt6' transform='translate(181.3,78.4) scale(3.38)' color='rgb( 31, 120, 180)'/>
	<use xlink:href='#gpPt6' transform='translate(184.9,72.3) scale(3.38)' color='rgb( 31, 120, 180)'/>
	<use xlink:href='#gpPt6' transform='translate(185.5,66.3) scale(3.38)' color='rgb( 31, 120, 180)'/>
	<use xlink:href='#gpPt6' transform='translate(181.0,60.2) scale(3.38)' color='rgb( 31, 120, 180)'/>
	<use xlink:href='#gpPt6' transform='translate(183.1,54.1) scale(3.38)' color='rgb( 31, 120, 180)'/>
	<use xlink:href='#gpPt6' transform='translate(1117.7,99.1) scale(3.38)' color='rgb( 31, 120, 180)'/>
</g>
	</g>
	<g id="gnuplot_plot_4" ><title>Mild outliers</title>
<g fill="none" color="black" stroke="currentColor" stroke-width="1.00" stroke-linecap="butt" stroke-linejoin="miter">
	<g transform="translate(1147.1,121.0)" stroke="none" fill="black" font-family="Helvetica" font-size="12.00"  text-anchor="start">
		<text><tspan font-family="Helvetica" >Mild outliers</tspan></text>
	</g>
</g>
<g fill="none" color="black" stroke="currentColor" stroke-width="1.00" stroke-linecap="butt" stroke-linejoin="miter">
	<use xlink:href='#gpPt6' transform='translate(225.2,607.7) scale(3.38)' color='rgb(255, 127,   0)'/>
	<use xlink:href='#gpPt6' transform='translate(236.2,473.8) scale(3.38)' color='rgb(255, 127,   0)'/>
	<use xlink:href='#gpPt6' transform='translate(229.8,200.1) scale(3.38)' color='rgb(255, 127,   0)'/>
	<use xlink:href='#gpPt6' transform='translate(1117.7,117.1) scale(3.38)' color='rgb(255, 127,   0)'/>
</g>
	</g>
	<g id="gnuplot_plot_5" ><title>Severe outliers</title>
<g fill="none" color="black" stroke="currentColor" stroke-width="1.00" stroke-linecap="butt" stroke-linejoin="miter">
	<g transform="translate(1147.1,139.0)" stroke="none" fill="black" font-family="Helvetica" font-size="12.00"  text-anchor="start">
		<text><tspan font-family="Helvetica" >Severe outliers</tspan></text>
	</g>
</g>
<g fill="none" color="black" stroke="currentColor" stroke-width="1.00" stroke-linecap="butt" stroke-linejoin="miter">
	<use xlink:href='#gpPt6' transform='translate(310.4,656.3) scale(3.38)' color='rgb(227,  26,  28)'/>
	<use xlink:href='#gpPt6' transform='translate(356.5,644.2) scale(3.38)' color='rgb(227,  26,  28)'/>
	<use xlink:href='#gpPt6' transform='translate(266.7,638.1) scale(3.38)' color='rgb(227,  26,  28)'/>
	<use xlink:href='#gpPt6' transform='translate(312.6,632.0) scale(3.38)' color='rgb(227,  26,  28)'/>
	<use xlink:href='#gpPt6' transform='translate(598.3,625.9) scale(3.38)' color='rgb(227,  26,  28)'/>
	<use xlink:href='#gpPt6' transform='translate(299.3,619.8) scale(3.38)' color='rgb(227,  26,  28)'/>
	<use xlink:href='#gpPt6' transform='translate(903.1,486.0) scale(3.38)' color='rgb(227,  26,  28)'/>
	<use xlink:href='#gpPt6' transform='translate(323.2,479.9) scale(3.38)' color='rgb(227,  26,  28)'/>
	<use xlink:href='#gpPt6' transform='translate(1117.7,135.1) scale(3.38)' color='rgb(227,  26,  28)'/>
</g>
	</g>
	<g id="gnuplot_plot_6" ><title>gnuplot_plot_6</title>
<g fill="none" color="white" stroke="rgb(227,  26,  28)" stroke-width="2.00" stroke-linecap="butt" stroke-linejoin="miter">
</g>
<g fill="none" color="black" stroke="currentColor" stroke-width="2.00" stroke-linecap="butt" stroke-linejoin="miter">
	<path stroke='rgb(255, 127,   0)'  d='M167.2,662.4 L167.2,54.1  '/></g>
	</g>
	<g id="gnuplot_plot_7" ><title>gnuplot_plot_7</title>
<g fill="none" color="black" stroke="currentColor" stroke-width="2.00" stroke-linecap="butt" stroke-linejoin="miter">
	<path stroke='rgb(255, 127,   0)'  d='M217.7,662.4 L217.7,54.1  '/></g>
	</g>
	<g id="gnuplot_plot_8" ><title>gnuplot_plot_8</title>
<g fill="none" color="black" stroke="currentColor" stroke-width="2.00" stroke-linecap="butt" stroke-linejoin="miter">
	<path stroke='rgb(227,  26,  28)'  d='M148.3,662.4 L148.3,54.1  '/></g>
	</g>
	<g id="gnuplot_plot_9" ><title>gnuplot_plot_9</title>
<g fill="none" color="black" stroke="currentColor" stroke-width="2.00" stroke-linecap="butt" stroke-linejoin="miter">
	<path stroke='rgb(227,  26,  28)'  d='M236.7,662.4 L236.7,54.1  '/></g>
	</g>
<g fill="none" color="black" stroke="currentColor" stroke-width="2.00" stroke-linecap="butt" stroke-linejoin="miter">
</g>
<g fill="none" color="black" stroke="black" stroke-width="1.00" stroke-linecap="butt" stroke-linejoin="miter">
</g>
<g fill="none" color="black" stroke="currentColor" stroke-width="1.00" stroke-linecap="butt" stroke-linejoin="miter">
	<path stroke='black'  d='M71.9,54.1 L71.9,662.4 L1012.2,662.4 L1012.2,54.1 L71.9,54.1 Z  '/></g>
<g fill="none" color="black" stroke="currentColor" stroke-width="1.00" stroke-linecap="butt" stroke-linejoin="miter">
</g>
</g>
</svg>

