<?xml version="1.0" encoding="utf-8"  standalone="no"?>
<svg 
 viewBox="0 0 1280 720"
 xmlns="http://www.w3.org/2000/svg"
 xmlns:xlink="http://www.w3.org/1999/xlink"
>

<title>Gnuplot</title>
<desc>Produced by GNUPLOT 5.2 patchlevel 6 </desc>

<g id="gnuplot_canvas">

<rect x="0" y="0" width="1280" height="720" fill="none"/>
<defs>

	<circle id='gpDot' r='0.5' stroke-width='0.5' stroke='currentColor'/>
	<path id='gpPt0' stroke-width='0.222' stroke='currentColor' d='M-1,0 h2 M0,-1 v2'/>
	<path id='gpPt1' stroke-width='0.222' stroke='currentColor' d='M-1,-1 L1,1 M1,-1 L-1,1'/>
	<path id='gpPt2' stroke-width='0.222' stroke='currentColor' d='M-1,0 L1,0 M0,-1 L0,1 M-1,-1 L1,1 M-1,1 L1,-1'/>
	<rect id='gpPt3' stroke-width='0.222' stroke='currentColor' x='-1' y='-1' width='2' height='2'/>
	<rect id='gpPt4' stroke-width='0.222' stroke='currentColor' fill='currentColor' x='-1' y='-1' width='2' height='2'/>
	<circle id='gpPt5' stroke-width='0.222' stroke='currentColor' cx='0' cy='0' r='1'/>
	<use xlink:href='#gpPt5' id='gpPt6' fill='currentColor' stroke='none'/>
	<path id='gpPt7' stroke-width='0.222' stroke='currentColor' d='M0,-1.33 L-1.33,0.67 L1.33,0.67 z'/>
	<use xlink:href='#gpPt7' id='gpPt8' fill='currentColor' stroke='none'/>
	<use xlink:href='#gpPt7' id='gpPt9' stroke='currentColor' transform='rotate(180)'/>
	<use xlink:href='#gpPt9' id='gpPt10' fill='currentColor' stroke='none'/>
	<use xlink:href='#gpPt3' id='gpPt11' stroke='currentColor' transform='rotate(45)'/>
	<use xlink:href='#gpPt11' id='gpPt12' fill='currentColor' stroke='none'/>
	<path id='gpPt13' stroke-width='0.222' stroke='currentColor' d='M0,1.330 L1.265,0.411 L0.782,-1.067 L-0.782,-1.076 L-1.265,0.411 z'/>
	<use xlink:href='#gpPt13' id='gpPt14' fill='currentColor' stroke='none'/>
	<filter id='textbox' filterUnits='objectBoundingBox' x='0' y='0' height='1' width='1'>
	  <feFlood flood-color='white' flood-opacity='1' result='bgnd'/>
	  <feComposite in='SourceGraphic' in2='bgnd' operator='atop'/>
	</filter>
	<filter id='greybox' filterUnits='objectBoundingBox' x='0' y='0' height='1' width='1'>
	  <feFlood flood-color='lightgrey' flood-opacity='1' result='grey'/>
	  <feComposite in='SourceGraphic' in2='grey' operator='atop'/>
	</filter>
</defs>
<g fill="none" color="white" stroke="currentColor" stroke-width="1.00" stroke-linecap="butt" stroke-linejoin="miter">
</g>
<g fill="none" color="black" stroke="currentColor" stroke-width="1.00" stroke-linecap="butt" stroke-linejoin="miter">
	<path stroke='black'  d='M71.9,662.4 L80.9,662.4  '/>	<g transform="translate(63.6,666.3)" stroke="none" fill="black" font-family="Helvetica" font-size="12.00"  text-anchor="end">
		<text><tspan font-family="Helvetica" > 0</tspan></text>
	</g>
</g>
<g fill="none" color="black" stroke="currentColor" stroke-width="1.00" stroke-linecap="butt" stroke-linejoin="miter">
	<path stroke='black'  d='M71.9,586.4 L80.9,586.4  '/>	<g transform="translate(63.6,590.3)" stroke="none" fill="black" font-family="Helvetica" font-size="12.00"  text-anchor="end">
		<text><tspan font-family="Helvetica" > 0.5</tspan></text>
	</g>
</g>
<g fill="none" color="black" stroke="currentColor" stroke-width="1.00" stroke-linecap="butt" stroke-linejoin="miter">
	<path stroke='black'  d='M71.9,510.3 L80.9,510.3  '/>	<g transform="translate(63.6,514.2)" stroke="none" fill="black" font-family="Helvetica" font-size="12.00"  text-anchor="end">
		<text><tspan font-family="Helvetica" > 1</tspan></text>
	</g>
</g>
<g fill="none" color="black" stroke="currentColor" stroke-width="1.00" stroke-linecap="butt" stroke-linejoin="miter">
	<path stroke='black'  d='M71.9,434.3 L80.9,434.3  '/>	<g transform="translate(63.6,438.2)" stroke="none" fill="black" font-family="Helvetica" font-size="12.00"  text-anchor="end">
		<text><tspan font-family="Helvetica" > 1.5</tspan></text>
	</g>
</g>
<g fill="none" color="black" stroke="currentColor" stroke-width="1.00" stroke-linecap="butt" stroke-linejoin="miter">
	<path stroke='black'  d='M71.9,358.2 L80.9,358.2  '/>	<g transform="translate(63.6,362.1)" stroke="none" fill="black" font-family="Helvetica" font-size="12.00"  text-anchor="end">
		<text><tspan font-family="Helvetica" > 2</tspan></text>
	</g>
</g>
<g fill="none" color="black" stroke="currentColor" stroke-width="1.00" stroke-linecap="butt" stroke-linejoin="miter">
	<path stroke='black'  d='M71.9,282.2 L80.9,282.2  '/>	<g transform="translate(63.6,286.1)" stroke="none" fill="black" font-family="Helvetica" font-size="12.00"  text-anchor="end">
		<text><tspan font-family="Helvetica" > 2.5</tspan></text>
	</g>
</g>
<g fill="none" color="black" stroke="currentColor" stroke-width="1.00" stroke-linecap="butt" stroke-linejoin="miter">
	<path stroke='black'  d='M71.9,206.2 L80.9,206.2  '/>	<g transform="translate(63.6,210.1)" stroke="none" fill="black" font-family="Helvetica" font-size="12.00"  text-anchor="end">
		<text><tspan font-family="Helvetica" > 3</tspan></text>
	</g>
</g>
<g fill="none" color="black" stroke="currentColor" stroke-width="1.00" stroke-linecap="butt" stroke-linejoin="miter">
	<path stroke='black'  d='M71.9,130.1 L80.9,130.1  '/>	<g transform="translate(63.6,134.0)" stroke="none" fill="black" font-family="Helvetica" font-size="12.00"  text-anchor="end">
		<text><tspan font-family="Helvetica" > 3.5</tspan></text>
	</g>
</g>
<g fill="none" color="black" stroke="currentColor" stroke-width="1.00" stroke-linecap="butt" stroke-linejoin="miter">
	<path stroke='black'  d='M71.9,54.1 L80.9,54.1  '/>	<g transform="translate(63.6,58.0)" stroke="none" fill="black" font-family="Helvetica" font-size="12.00"  text-anchor="end">
		<text><tspan font-family="Helvetica" > 4</tspan></text>
	</g>
</g>
<g fill="none" color="black" stroke="currentColor" stroke-width="1.00" stroke-linecap="butt" stroke-linejoin="miter">
	<path stroke='black'  d='M85.7,662.4 L85.7,653.4  '/>	<g transform="translate(85.7,684.3)" stroke="none" fill="black" font-family="Helvetica" font-size="12.00"  text-anchor="middle">
		<text><tspan font-family="Helvetica" > 42.65</tspan></text>
	</g>
</g>
<g fill="none" color="black" stroke="currentColor" stroke-width="1.00" stroke-linecap="butt" stroke-linejoin="miter">
	<path stroke='black'  d='M182.9,662.4 L182.9,653.4  '/>	<g transform="translate(182.9,684.3)" stroke="none" fill="black" font-family="Helvetica" font-size="12.00"  text-anchor="middle">
		<text><tspan font-family="Helvetica" > 42.7</tspan></text>
	</g>
</g>
<g fill="none" color="black" stroke="currentColor" stroke-width="1.00" stroke-linecap="butt" stroke-linejoin="miter">
	<path stroke='black'  d='M280.1,662.4 L280.1,653.4  '/>	<g transform="translate(280.1,684.3)" stroke="none" fill="black" font-family="Helvetica" font-size="12.00"  text-anchor="middle">
		<text><tspan font-family="Helvetica" > 42.75</tspan></text>
	</g>
</g>
<g fill="none" color="black" stroke="currentColor" stroke-width="1.00" stroke-linecap="butt" stroke-linejoin="miter">
	<path stroke='black'  d='M377.3,662.4 L377.3,653.4  '/>	<g transform="translate(377.3,684.3)" stroke="none" fill="black" font-family="Helvetica" font-size="12.00"  text-anchor="middle">
		<text><tspan font-family="Helvetica" > 42.8</tspan></text>
	</g>
</g>
<g fill="none" color="black" stroke="currentColor" stroke-width="1.00" stroke-linecap="butt" stroke-linejoin="miter">
	<path stroke='black'  d='M474.5,662.4 L474.5,653.4  '/>	<g transform="translate(474.5,684.3)" stroke="none" fill="black" font-family="Helvetica" font-size="12.00"  text-anchor="middle">
		<text><tspan font-family="Helvetica" > 42.85</tspan></text>
	</g>
</g>
<g fill="none" color="black" stroke="currentColor" stroke-width="1.00" stroke-linecap="butt" stroke-linejoin="miter">
	<path stroke='black'  d='M571.7,662.4 L571.7,653.4  '/>	<g transform="translate(571.7,684.3)" stroke="none" fill="black" font-family="Helvetica" font-size="12.00"  text-anchor="middle">
		<text><tspan font-family="Helvetica" > 42.9</tspan></text>
	</g>
</g>
<g fill="none" color="black" stroke="currentColor" stroke-width="1.00" stroke-linecap="butt" stroke-linejoin="miter">
	<path stroke='black'  d='M668.9,662.4 L668.9,653.4  '/>	<g transform="translate(668.9,684.3)" stroke="none" fill="black" font-family="Helvetica" font-size="12.00"  text-anchor="middle">
		<text><tspan font-family="Helvetica" > 42.95</tspan></text>
	</g>
</g>
<g fill="none" color="black" stroke="currentColor" stroke-width="1.00" stroke-linecap="butt" stroke-linejoin="miter">
	<path stroke='black'  d='M766.1,662.4 L766.1,653.4  '/>	<g transform="translate(766.1,684.3)" stroke="none" fill="black" font-family="Helvetica" font-size="12.00"  text-anchor="middle">
		<text><tspan font-family="Helvetica" > 43</tspan></text>
	</g>
</g>
<g fill="none" color="black" stroke="currentColor" stroke-width="1.00" stroke-linecap="butt" stroke-linejoin="miter">
	<path stroke='black'  d='M863.2,662.4 L863.2,653.4  '/>	<g transform="translate(863.2,684.3)" stroke="none" fill="black" font-family="Helvetica" font-size="12.00"  text-anchor="middle">
		<text><tspan font-family="Helvetica" > 43.05</tspan></text>
	</g>
</g>
<g fill="none" color="black" stroke="currentColor" stroke-width="1.00" stroke-linecap="butt" stroke-linejoin="miter">
	<path stroke='black'  d='M960.4,662.4 L960.4,653.4  '/>	<g transform="translate(960.4,684.3)" stroke="none" fill="black" font-family="Helvetica" font-size="12.00"  text-anchor="middle">
		<text><tspan font-family="Helvetica" > 43.1</tspan></text>
	</g>
</g>
<g fill="none" color="black" stroke="currentColor" stroke-width="1.00" stroke-linecap="butt" stroke-linejoin="miter">
</g>
<g fill="none" color="black" stroke="currentColor" stroke-width="1.00" stroke-linecap="butt" stroke-linejoin="miter">
	<path stroke='black'  d='M71.9,54.1 L71.9,662.4 L1013.6,662.4 L1013.6,54.1 L71.9,54.1 Z  '/></g>
<g fill="none" color="black" stroke="currentColor" stroke-width="1.00" stroke-linecap="butt" stroke-linejoin="miter">
	<g transform="translate(16.3,358.3) rotate(270)" stroke="none" fill="black" font-family="Helvetica" font-size="12.00"  text-anchor="middle">
		<text><tspan font-family="Helvetica" >Density (a.u.)</tspan></text>
	</g>
</g>
<g fill="none" color="black" stroke="currentColor" stroke-width="1.00" stroke-linecap="butt" stroke-linejoin="miter">
	<g transform="translate(542.7,711.3)" stroke="none" fill="black" font-family="Helvetica" font-size="12.00"  text-anchor="middle">
		<text><tspan font-family="Helvetica" >Average time (us)</tspan></text>
	</g>
</g>
<g fill="none" color="black" stroke="currentColor" stroke-width="1.00" stroke-linecap="butt" stroke-linejoin="miter">
	<g transform="translate(542.7,31.0)" stroke="none" fill="black" font-family="Helvetica" font-size="12.00"  text-anchor="middle">
		<text><tspan font-family="Helvetica" >snapshot_restore_with_dense/Sparse: Dirty pages + /proc/pid/mem/10: mean</tspan></text>
	</g>
</g>
	<g id="gnuplot_plot_1" ><title>Bootstrap distribution</title>
<g fill="none" color="white" stroke="black" stroke-width="2.00" stroke-linecap="butt" stroke-linejoin="miter">
</g>
<g fill="none" color="black" stroke="currentColor" stroke-width="2.00" stroke-linecap="butt" stroke-linejoin="miter">
	<g transform="translate(1089.0,67.0)" stroke="none" fill="black" font-family="Helvetica" font-size="12.00"  text-anchor="start">
		<text><tspan font-family="Helvetica" >Bootstrap distribution</tspan></text>
	</g>
</g>
<g fill="none" color="black" stroke="currentColor" stroke-width="2.00" stroke-linecap="butt" stroke-linejoin="miter">
	<path stroke='rgb( 31, 120, 180)'  d='M1038.5,63.1 L1080.7,63.1 M71.9,626.6 L73.8,625.2 L75.7,623.9 L77.6,622.5 L79.4,621.1 L81.3,619.7
		L83.2,618.3 L85.1,616.8 L87.0,615.3 L88.9,613.8 L90.8,612.3 L92.7,610.8 L94.5,609.3 L96.4,607.7
		L98.3,606.1 L100.2,604.5 L102.1,602.9 L104.0,601.2 L105.9,599.5 L107.8,597.8 L109.6,596.0 L111.5,594.3
		L113.4,592.5 L115.3,590.6 L117.2,588.8 L119.1,586.9 L121.0,585.0 L122.9,583.0 L124.7,581.0 L126.6,579.0
		L128.5,576.9 L130.4,574.8 L132.3,572.7 L134.2,570.5 L136.1,568.3 L138.0,566.1 L139.8,563.7 L141.7,561.4
		L143.6,559.0 L145.5,556.5 L147.4,554.0 L149.3,551.4 L151.2,548.8 L153.0,546.1 L154.9,543.3 L156.8,540.5
		L158.7,537.7 L160.6,534.7 L162.5,531.8 L164.4,528.8 L166.3,525.7 L168.1,522.6 L170.0,519.5 L171.9,516.3
		L173.8,513.2 L175.7,510.0 L177.6,506.8 L179.5,503.6 L181.4,500.4 L183.2,497.2 L185.1,494.0 L187.0,490.8
		L188.9,487.6 L190.8,484.4 L192.7,481.3 L194.6,478.1 L196.5,474.9 L198.3,471.8 L200.2,468.6 L202.1,465.4
		L204.0,462.2 L205.9,459.0 L207.8,455.7 L209.7,452.4 L211.6,449.1 L213.4,445.7 L215.3,442.3 L217.2,438.9
		L219.1,435.4 L221.0,431.8 L222.9,428.2 L224.8,424.6 L226.6,420.9 L228.5,417.1 L230.4,413.3 L232.3,409.5
		L234.2,405.6 L236.1,401.6 L238.0,397.6 L239.9,393.6 L241.7,389.6 L243.6,385.6 L245.5,381.5 L247.4,377.4
		L249.3,373.3 L251.2,369.2 L253.1,365.1 L255.0,361.1 L256.8,357.0 L258.7,353.0 L260.6,348.9 L262.5,344.9
		L264.4,341.0 L266.3,337.0 L268.2,333.1 L270.1,329.2 L271.9,325.4 L273.8,321.5 L275.7,317.7 L277.6,313.9
		L279.5,310.1 L281.4,306.3 L283.3,302.6 L285.2,298.8 L287.0,295.0 L288.9,291.3 L290.8,287.5 L292.7,283.7
		L294.6,279.9 L296.5,276.0 L298.4,272.2 L300.2,268.4 L302.1,264.5 L304.0,260.6 L305.9,256.8 L307.8,252.9
		L309.7,249.0 L311.6,245.2 L313.5,241.3 L315.3,237.5 L317.2,233.6 L319.1,229.8 L321.0,226.0 L322.9,222.2
		L324.8,218.4 L326.7,214.6 L328.6,210.9 L330.4,207.1 L332.3,203.4 L334.2,199.6 L336.1,195.9 L338.0,192.1
		L339.9,188.4 L341.8,184.7 L343.7,181.0 L345.5,177.3 L347.4,173.7 L349.3,170.0 L351.2,166.4 L353.1,162.8
		L355.0,159.3 L356.9,155.8 L358.8,152.3 L360.6,148.9 L362.5,145.5 L364.4,142.2 L366.3,138.9 L368.2,135.7
		L370.1,132.5 L372.0,129.4 L373.8,126.4 L375.7,123.4 L377.6,120.5 L379.5,117.7 L381.4,114.9 L383.3,112.2
		L385.2,109.6 L387.1,107.0 L388.9,104.6 L390.8,102.1 L392.7,99.8 L394.6,97.5 L396.5,95.2 L398.4,93.1
		L400.3,91.0 L402.2,89.0 L404.0,87.0 L405.9,85.1 L407.8,83.3 L409.7,81.6 L411.6,79.9 L413.5,78.4
		L415.4,76.9 L417.3,75.5 L419.1,74.1 L421.0,72.9 L422.9,71.8 L424.8,70.8 L426.7,69.8 L428.6,69.0
		L430.5,68.2 L432.4,67.6 L434.2,67.0 L436.1,66.5 L438.0,66.1 L439.9,65.8 L441.8,65.6 L443.7,65.4
		L445.6,65.2 L447.4,65.1 L449.3,65.1 L451.2,65.1 L453.1,65.1 L455.0,65.1 L456.9,65.2 L458.8,65.3
		L460.7,65.4 L462.5,65.4 L464.4,65.6 L466.3,65.7 L468.2,65.8 L470.1,66.0 L472.0,66.2 L473.9,66.4
		L475.8,66.6 L477.6,66.9 L479.5,67.3 L481.4,67.7 L483.3,68.1 L485.2,68.6 L487.1,69.2 L489.0,69.8
		L490.9,70.5 L492.7,71.3 L494.6,72.2 L496.5,73.0 L498.4,74.0 L500.3,75.0 L502.2,76.0 L504.1,77.1
		L506.0,78.2 L507.8,79.4 L509.7,80.5 L511.6,81.7 L513.5,82.9 L515.4,84.0 L517.3,85.2 L519.2,86.4
		L521.0,87.6 L522.9,88.8 L524.8,90.0 L526.7,91.3 L528.6,92.5 L530.5,93.8 L532.4,95.2 L534.3,96.6
		L536.1,98.0 L538.0,99.5 L539.9,101.1 L541.8,102.7 L543.7,104.4 L545.6,106.2 L547.5,108.0 L549.4,109.9
		L551.2,111.9 L553.1,113.9 L555.0,115.9 L556.9,118.0 L558.8,120.1 L560.7,122.3 L562.6,124.4 L564.5,126.6
		L566.3,128.8 L568.2,131.0 L570.1,133.2 L572.0,135.4 L573.9,137.6 L575.8,139.9 L577.7,142.2 L579.5,144.5
		L581.4,146.8 L583.3,149.2 L585.2,151.6 L587.1,154.1 L589.0,156.6 L590.9,159.2 L592.8,161.8 L594.6,164.5
		L596.5,167.2 L598.4,170.0 L600.3,172.9 L602.2,175.7 L604.1,178.7 L606.0,181.6 L607.9,184.6 L609.7,187.6
		L611.6,190.6 L613.5,193.7 L615.4,196.7 L617.3,199.8 L619.2,202.9 L621.1,205.9 L623.0,209.0 L624.8,212.1
		L626.7,215.2 L628.6,218.3 L630.5,221.3 L632.4,224.4 L634.3,227.5 L636.2,230.6 L638.1,233.6 L639.9,236.7
		L641.8,239.8 L643.7,242.9 L645.6,246.0 L647.5,249.1 L649.4,252.1 L651.3,255.2 L653.1,258.3 L655.0,261.4
		L656.9,264.5 L658.8,267.6 L660.7,270.7 L662.6,273.8 L664.5,276.9 L666.4,280.0 L668.2,283.1 L670.1,286.2
		L672.0,289.4 L673.9,292.5 L675.8,295.7 L677.7,298.8 L679.6,302.0 L681.5,305.3 L683.3,308.5 L685.2,311.8
		L687.1,315.1 L689.0,318.4 L690.9,321.7 L692.8,325.1 L694.7,328.5 L696.6,331.9 L698.4,335.4 L700.3,338.8
		L702.2,342.3 L704.1,345.7 L706.0,349.1 L707.9,352.5 L709.8,355.9 L711.7,359.3 L713.5,362.6 L715.4,365.8
		L717.3,369.0 L719.2,372.1 L721.1,375.1 L723.0,378.1 L724.9,381.0 L726.7,383.8 L728.6,386.6 L730.5,389.3
		L732.4,391.9 L734.3,394.4 L736.2,396.9 L738.1,399.4 L740.0,401.8 L741.8,404.2 L743.7,406.5 L745.6,408.8
		L747.5,411.2 L749.4,413.5 L751.3,415.7 L753.2,418.0 L755.1,420.3 L756.9,422.6 L758.8,424.9 L760.7,427.1
		L762.6,429.4 L764.5,431.6 L766.4,433.9 L768.3,436.1 L770.2,438.4 L772.0,440.6 L773.9,442.9 L775.8,445.1
		L777.7,447.3 L779.6,449.6 L781.5,451.8 L783.4,454.1 L785.3,456.4 L787.1,458.6 L789.0,460.9 L790.9,463.3
		L792.8,465.6 L794.7,468.0 L796.6,470.4 L798.5,472.8 L800.3,475.2 L802.2,477.6 L804.1,480.0 L806.0,482.5
		L807.9,484.9 L809.8,487.4 L811.7,489.8 L813.6,492.2 L815.4,494.6 L817.3,497.0 L819.2,499.3 L821.1,501.6
		L823.0,503.9 L824.9,506.1 L826.8,508.3 L828.7,510.5 L830.5,512.6 L832.4,514.7 L834.3,516.7 L836.2,518.8
		L838.1,520.7 L840.0,522.7 L841.9,524.6 L843.8,526.4 L845.6,528.3 L847.5,530.1 L849.4,531.8 L851.3,533.6
		L853.2,535.3 L855.1,537.0 L857.0,538.7 L858.9,540.3 L860.7,541.9 L862.6,543.5 L864.5,545.0 L866.4,546.5
		L868.3,548.0 L870.2,549.5 L872.1,550.9 L873.9,552.4 L875.8,553.7 L877.7,555.1 L879.6,556.4 L881.5,557.8
		L883.4,559.1 L885.3,560.4 L887.2,561.6 L889.0,562.9 L890.9,564.2 L892.8,565.4 L894.7,566.7 L896.6,567.9
		L898.5,569.2 L900.4,570.4 L902.3,571.7 L904.1,572.9 L906.0,574.2 L907.9,575.5 L909.8,576.8 L911.7,578.1
		L913.6,579.4 L915.5,580.7 L917.4,582.0 L919.2,583.3 L921.1,584.6 L923.0,585.9 L924.9,587.2 L926.8,588.5
		L928.7,589.8 L930.6,591.1 L932.5,592.4 L934.3,593.6 L936.2,594.8 L938.1,596.0 L940.0,597.2 L941.9,598.4
		L943.8,599.5 L945.7,600.6 L947.5,601.7 L949.4,602.8 L951.3,603.8 L953.2,604.8 L955.1,605.8 L957.0,606.7
		L958.9,607.6 L960.8,608.5 L962.6,609.4 L964.5,610.2 L966.4,611.0 L968.3,611.8 L970.2,612.6 L972.1,613.3
		L974.0,614.1 L975.9,614.8 L977.7,615.5 L979.6,616.2 L981.5,616.9 L983.4,617.5 L985.3,618.2 L987.2,618.9
		L989.1,619.5 L991.0,620.2 L992.8,620.9 L994.7,621.5 L996.6,622.2 L998.5,622.9 L1000.4,623.5 L1002.3,624.2
		L1004.2,624.9 L1006.1,625.5 L1007.9,626.2 L1009.8,626.9 L1011.7,627.5 L1013.6,628.2  '/></g>
	</g>
	<g id="gnuplot_plot_2" ><title>Confidence interval</title>
<g fill="none" color="white" stroke="rgb( 31, 120, 180)" stroke-width="1.00" stroke-linecap="butt" stroke-linejoin="miter">
</g>
<g fill="none" color="black" stroke="currentColor" stroke-width="1.00" stroke-linecap="butt" stroke-linejoin="miter">
	<g transform="translate(1089.0,85.0)" stroke="none" fill="black" font-family="Helvetica" font-size="12.00"  text-anchor="start">
		<text><tspan font-family="Helvetica" >Confidence interval</tspan></text>
	</g>
</g>
<g fill="none" color="black" stroke="currentColor" stroke-width="1.00" stroke-linecap="butt" stroke-linejoin="miter">
	<g stroke='none' shape-rendering='crispEdges'>
		<polygon fill = 'rgb( 31, 120, 180)' fill-opacity = '0.250000' points = '1038.5,85.6 1080.7,85.6 1080.7,76.6 1038.5,76.6 '/>
		<polygon fill = 'rgb( 31, 120, 180)' fill-opacity = '0.250000' points = '158.7,537.7 160.6,534.7 162.5,531.8 164.4,528.8 166.3,525.7 168.1,522.6 170.0,519.5 171.9,516.3 173.8,513.2 175.7,510.0 177.6,506.8 179.5,503.6 181.4,500.4 183.2,497.2 185.1,494.0 187.0,490.8
188.9,487.6 190.8,484.4 192.7,481.3 194.6,478.1 196.5,474.9 198.3,471.8 200.2,468.6 202.1,465.4 204.0,462.2 205.9,459.0 207.8,455.7 209.7,452.4 211.6,449.1 213.4,445.7 215.3,442.3 217.2,438.9
219.1,435.4 221.0,431.8 222.9,428.2 224.8,424.6 226.6,420.9 228.5,417.1 230.4,413.3 232.3,409.5 234.2,405.6 236.1,401.6 238.0,397.6 239.9,393.6 241.7,389.6 243.6,385.6 245.5,381.5 247.4,377.4
249.3,373.3 251.2,369.2 253.1,365.1 255.0,361.1 256.8,357.0 258.7,353.0 260.6,348.9 262.5,344.9 264.4,341.0 266.3,337.0 268.2,333.1 270.1,329.2 271.9,325.4 273.8,321.5 275.7,317.7 277.6,313.9
279.5,310.1 281.4,306.3 283.3,302.6 285.2,298.8 287.0,295.0 288.9,291.3 290.8,287.5 292.7,283.7 294.6,279.9 296.5,276.0 298.4,272.2 300.2,268.4 302.1,264.5 304.0,260.6 305.9,256.8 307.8,252.9
309.7,249.0 311.6,245.2 313.5,241.3 315.3,237.5 317.2,233.6 319.1,229.8 321.0,226.0 322.9,222.2 324.8,218.4 326.7,214.6 328.6,210.9 330.4,207.1 332.3,203.4 334.2,199.6 336.1,195.9 338.0,192.1
339.9,188.4 341.8,184.7 343.7,181.0 345.5,177.3 347.4,173.7 349.3,170.0 351.2,166.4 353.1,162.8 355.0,159.3 356.9,155.8 358.8,152.3 360.6,148.9 362.5,145.5 364.4,142.2 366.3,138.9 368.2,135.7
370.1,132.5 372.0,129.4 373.8,126.4 375.7,123.4 377.6,120.5 379.5,117.7 381.4,114.9 383.3,112.2 385.2,109.6 387.1,107.0 388.9,104.6 390.8,102.1 392.7,99.8 394.6,97.5 396.5,95.2 398.4,93.1
400.3,91.0 402.2,89.0 404.0,87.0 405.9,85.1 407.8,83.3 409.7,81.6 411.6,79.9 413.5,78.4 415.4,76.9 417.3,75.5 419.1,74.1 421.0,72.9 422.9,71.8 424.8,70.8 426.7,69.8 428.6,69.0
430.5,68.2 432.4,67.6 434.2,67.0 436.1,66.5 438.0,66.1 439.9,65.8 441.8,65.6 443.7,65.4 445.6,65.2 447.4,65.1 449.3,65.1 451.2,65.1 453.1,65.1 455.0,65.1 456.9,65.2 458.8,65.3
460.7,65.4 462.5,65.4 464.4,65.6 466.3,65.7 468.2,65.8 470.1,66.0 472.0,66.2 473.9,66.4 475.8,66.6 477.6,66.9 479.5,67.3 481.4,67.7 483.3,68.1 485.2,68.6 487.1,69.2 489.0,69.8
490.9,70.5 492.7,71.3 494.6,72.2 496.5,73.0 498.4,74.0 500.3,75.0 502.2,76.0 504.1,77.1 506.0,78.2 507.8,79.4 509.7,80.5 511.6,81.7 513.5,82.9 515.4,84.0 517.3,85.2 519.2,86.4
521.0,87.6 522.9,88.8 524.8,90.0 526.7,91.3 528.6,92.5 530.5,93.8 532.4,95.2 534.3,96.6 536.1,98.0 538.0,99.5 539.9,101.1 541.8,102.7 543.7,104.4 545.6,106.2 547.5,108.0 549.4,109.9
551.2,111.9 553.1,113.9 555.0,115.9 556.9,118.0 558.8,120.1 560.7,122.3 562.6,124.4 564.5,126.6 566.3,128.8 568.2,131.0 570.1,133.2 572.0,135.4 573.9,137.6 575.8,139.9 577.7,142.2 579.5,144.5
581.4,146.8 583.3,149.2 585.2,151.6 587.1,154.1 589.0,156.6 590.9,159.2 592.8,161.8 594.6,164.5 596.5,167.2 598.4,170.0 600.3,172.9 602.2,175.7 604.1,178.7 606.0,181.6 607.9,184.6 609.7,187.6
611.6,190.6 613.5,193.7 615.4,196.7 617.3,199.8 619.2,202.9 621.1,205.9 623.0,209.0 624.8,212.1 626.7,215.2 628.6,218.3 630.5,221.3 632.4,224.4 634.3,227.5 636.2,230.6 638.1,233.6 639.9,236.7
641.8,239.8 643.7,242.9 645.6,246.0 647.5,249.1 649.4,252.1 651.3,255.2 653.1,258.3 655.0,261.4 656.9,264.5 658.8,267.6 660.7,270.7 662.6,273.8 664.5,276.9 666.4,280.0 668.2,283.1 670.1,286.2
672.0,289.4 673.9,292.5 675.8,295.7 677.7,298.8 679.6,302.0 681.5,305.3 683.3,308.5 685.2,311.8 687.1,315.1 689.0,318.4 690.9,321.7 692.8,325.1 694.7,328.5 696.6,331.9 698.4,335.4 700.3,338.8
702.2,342.3 704.1,345.7 706.0,349.1 707.9,352.5 709.8,355.9 711.7,359.3 713.5,362.6 715.4,365.8 717.3,369.0 719.2,372.1 721.1,375.1 723.0,378.1 724.9,381.0 726.7,383.8 728.6,386.6 730.5,389.3
732.4,391.9 734.3,394.4 736.2,396.9 738.1,399.4 740.0,401.8 741.8,404.2 743.7,406.5 745.6,408.8 747.5,411.2 749.4,413.5 751.3,415.7 753.2,418.0 755.1,420.3 756.9,422.6 758.8,424.9 760.7,427.1
762.6,429.4 764.5,431.6 766.4,433.9 768.3,436.1 770.2,438.4 772.0,440.6 773.9,442.9 775.8,445.1 777.7,447.3 779.6,449.6 781.5,451.8 783.4,454.1 785.3,456.4 787.1,458.6 789.0,460.9 790.9,463.3
792.8,465.6 794.7,468.0 796.6,470.4 798.5,472.8 800.3,475.2 802.2,477.6 804.1,480.0 806.0,482.5 807.9,484.9 809.8,487.4 811.7,489.8 813.6,492.2 815.4,494.6 817.3,497.0 819.2,499.3 821.1,501.6
823.0,503.9 824.9,506.1 826.8,508.3 828.7,510.5 830.5,512.6 832.4,514.7 834.3,516.7 836.2,518.8 838.1,520.7 840.0,522.7 841.9,524.6 843.8,526.4 845.6,528.3 847.5,530.1 849.4,531.8 851.3,533.6
853.2,535.3 855.1,537.0 857.0,538.7 858.9,540.3 860.7,541.9 862.6,543.5 864.5,545.0 866.4,546.5 868.3,548.0 870.2,549.5 872.1,550.9 873.9,552.4 875.8,553.7 877.7,555.1 879.6,556.4 881.5,557.8
883.4,559.1 885.3,560.4 887.2,561.6 889.0,562.9 890.9,564.2 892.8,565.4 894.7,566.7 896.6,567.9 898.5,569.2 900.4,570.4 902.3,571.7 904.1,572.9 906.0,574.2 907.9,575.5 909.8,576.8 911.7,578.1
913.6,579.4 915.5,580.7 917.4,582.0 919.2,583.3 921.1,584.6 923.0,585.9 924.9,587.2 924.9,662.4 923.0,662.4 921.1,662.4 919.2,662.4 917.4,662.4 915.5,662.4 913.6,662.4 911.7,662.4 909.8,662.4
907.9,662.4 906.0,662.4 904.1,662.4 902.3,662.4 900.4,662.4 898.5,662.4 896.6,662.4 894.7,662.4 892.8,662.4 890.9,662.4 889.0,662.4 887.2,662.4 885.3,662.4 883.4,662.4 881.5,662.4 879.6,662.4
877.7,662.4 875.8,662.4 873.9,662.4 872.1,662.4 870.2,662.4 868.3,662.4 866.4,662.4 864.5,662.4 862.6,662.4 860.7,662.4 858.9,662.4 857.0,662.4 855.1,662.4 853.2,662.4 851.3,662.4 849.4,662.4
847.5,662.4 845.6,662.4 843.8,662.4 841.9,662.4 840.0,662.4 838.1,662.4 836.2,662.4 834.3,662.4 832.4,662.4 830.5,662.4 828.7,662.4 826.8,662.4 824.9,662.4 823.0,662.4 821.1,662.4 819.2,662.4
817.3,662.4 815.4,662.4 813.6,662.4 811.7,662.4 809.8,662.4 807.9,662.4 806.0,662.4 804.1,662.4 802.2,662.4 800.3,662.4 798.5,662.4 796.6,662.4 794.7,662.4 792.8,662.4 790.9,662.4 789.0,662.4
787.1,662.4 785.3,662.4 783.4,662.4 781.5,662.4 779.6,662.4 777.7,662.4 775.8,662.4 773.9,662.4 772.0,662.4 770.2,662.4 768.3,662.4 766.4,662.4 764.5,662.4 762.6,662.4 760.7,662.4 758.8,662.4
756.9,662.4 755.1,662.4 753.2,662.4 751.3,662.4 749.4,662.4 747.5,662.4 745.6,662.4 743.7,662.4 741.8,662.4 740.0,662.4 738.1,662.4 736.2,662.4 734.3,662.4 732.4,662.4 730.5,662.4 728.6,662.4
726.7,662.4 724.9,662.4 723.0,662.4 721.1,662.4 719.2,662.4 717.3,662.4 715.4,662.4 713.5,662.4 711.7,662.4 709.8,662.4 707.9,662.4 706.0,662.4 704.1,662.4 702.2,662.4 700.3,662.4 698.4,662.4
696.6,662.4 694.7,662.4 692.8,662.4 690.9,662.4 689.0,662.4 687.1,662.4 685.2,662.4 683.3,662.4 681.5,662.4 679.6,662.4 677.7,662.4 675.8,662.4 673.9,662.4 672.0,662.4 670.1,662.4 668.2,662.4
666.4,662.4 664.5,662.4 662.6,662.4 660.7,662.4 658.8,662.4 656.9,662.4 655.0,662.4 653.1,662.4 651.3,662.4 649.4,662.4 647.5,662.4 645.6,662.4 643.7,662.4 641.8,662.4 639.9,662.4 638.1,662.4
636.2,662.4 634.3,662.4 632.4,662.4 630.5,662.4 628.6,662.4 626.7,662.4 624.8,662.4 623.0,662.4 621.1,662.4 619.2,662.4 617.3,662.4 615.4,662.4 613.5,662.4 611.6,662.4 609.7,662.4 607.9,662.4
606.0,662.4 604.1,662.4 602.2,662.4 600.3,662.4 598.4,662.4 596.5,662.4 594.6,662.4 592.8,662.4 590.9,662.4 589.0,662.4 587.1,662.4 585.2,662.4 583.3,662.4 581.4,662.4 579.5,662.4 577.7,662.4
575.8,662.4 573.9,662.4 572.0,662.4 570.1,662.4 568.2,662.4 566.3,662.4 564.5,662.4 562.6,662.4 560.7,662.4 558.8,662.4 556.9,662.4 555.0,662.4 553.1,662.4 551.2,662.4 549.4,662.4 547.5,662.4
545.6,662.4 543.7,662.4 541.8,662.4 539.9,662.4 538.0,662.4 536.1,662.4 534.3,662.4 532.4,662.4 530.5,662.4 528.6,662.4 526.7,662.4 524.8,662.4 522.9,662.4 521.0,662.4 519.2,662.4 517.3,662.4
515.4,662.4 513.5,662.4 511.6,662.4 509.7,662.4 507.8,662.4 506.0,662.4 504.1,662.4 502.2,662.4 500.3,662.4 498.4,662.4 496.5,662.4 494.6,662.4 492.7,662.4 490.9,662.4 489.0,662.4 487.1,662.4
485.2,662.4 483.3,662.4 481.4,662.4 479.5,662.4 477.6,662.4 475.8,662.4 473.9,662.4 472.0,662.4 470.1,662.4 468.2,662.4 466.3,662.4 464.4,662.4 462.5,662.4 460.7,662.4 458.8,662.4 456.9,662.4
455.0,662.4 453.1,662.4 451.2,662.4 449.3,662.4 447.4,662.4 445.6,662.4 443.7,662.4 441.8,662.4 439.9,662.4 438.0,662.4 436.1,662.4 434.2,662.4 432.4,662.4 430.5,662.4 428.6,662.4 426.7,662.4
424.8,662.4 422.9,662.4 421.0,662.4 419.1,662.4 417.3,662.4 415.4,662.4 413.5,662.4 411.6,662.4 409.7,662.4 407.8,662.4 405.9,662.4 404.0,662.4 402.2,662.4 400.3,662.4 398.4,662.4 396.5,662.4
394.6,662.4 392.7,662.4 390.8,662.4 388.9,662.4 387.1,662.4 385.2,662.4 383.3,662.4 381.4,662.4 379.5,662.4 377.6,662.4 375.7,662.4 373.8,662.4 372.0,662.4 370.1,662.4 368.2,662.4 366.3,662.4
364.4,662.4 362.5,662.4 360.6,662.4 358.8,662.4 356.9,662.4 355.0,662.4 353.1,662.4 351.2,662.4 349.3,662.4 347.4,662.4 345.5,662.4 343.7,662.4 341.8,662.4 339.9,662.4 338.0,662.4 336.1,662.4
334.2,662.4 332.3,662.4 330.4,662.4 328.6,662.4 326.7,662.4 324.8,662.4 322.9,662.4 321.0,662.4 319.1,662.4 317.2,662.4 315.3,662.4 313.5,662.4 311.6,662.4 309.7,662.4 307.8,662.4 305.9,662.4
304.0,662.4 302.1,662.4 300.2,662.4 298.4,662.4 296.5,662.4 294.6,662.4 292.7,662.4 290.8,662.4 288.9,662.4 287.0,662.4 285.2,662.4 283.3,662.4 281.4,662.4 279.5,662.4 277.6,662.4 275.7,662.4
273.8,662.4 271.9,662.4 270.1,662.4 268.2,662.4 266.3,662.4 264.4,662.4 262.5,662.4 260.6,662.4 258.7,662.4 256.8,662.4 255.0,662.4 253.1,662.4 251.2,662.4 249.3,662.4 247.4,662.4 245.5,662.4
243.6,662.4 241.7,662.4 239.9,662.4 238.0,662.4 236.1,662.4 234.2,662.4 232.3,662.4 230.4,662.4 228.5,662.4 226.6,662.4 224.8,662.4 222.9,662.4 221.0,662.4 219.1,662.4 217.2,662.4 215.3,662.4
213.4,662.4 211.6,662.4 209.7,662.4 207.8,662.4 205.9,662.4 204.0,662.4 202.1,662.4 200.2,662.4 198.3,662.4 196.5,662.4 194.6,662.4 192.7,662.4 190.8,662.4 188.9,662.4 187.0,662.4 185.1,662.4
183.2,662.4 181.4,662.4 179.5,662.4 177.6,662.4 175.7,662.4 173.8,662.4 171.9,662.4 170.0,662.4 168.1,662.4 166.3,662.4 164.4,662.4 162.5,662.4 160.6,662.4 158.7,662.4 '/>
	</g>
</g>
	</g>
	<g id="gnuplot_plot_3" ><title>Point estimate</title>
<g fill="none" color="white" stroke="rgb( 31, 120, 180)" stroke-width="2.00" stroke-linecap="butt" stroke-linejoin="miter">
</g>
<g fill="none" color="black" stroke="currentColor" stroke-width="2.00" stroke-linecap="butt" stroke-linejoin="miter">
	<g transform="translate(1089.0,103.0)" stroke="none" fill="black" font-family="Helvetica" font-size="12.00"  text-anchor="start">
		<text><tspan font-family="Helvetica" >Point estimate</tspan></text>
	</g>
</g>
<g fill="none" color="black" stroke="currentColor" stroke-width="2.00" stroke-linecap="butt" stroke-linejoin="miter">
	<path stroke='rgb( 31, 120, 180)'  d='M1038.5,99.1 L1080.7,99.1 M505.8,662.4 L505.8,78.1  '/></g>
	</g>
<g fill="none" color="black" stroke="currentColor" stroke-width="2.00" stroke-linecap="butt" stroke-linejoin="miter">
</g>
<g fill="none" color="black" stroke="black" stroke-width="1.00" stroke-linecap="butt" stroke-linejoin="miter">
</g>
<g fill="none" color="black" stroke="currentColor" stroke-width="1.00" stroke-linecap="butt" stroke-linejoin="miter">
	<path stroke='black'  d='M71.9,54.1 L71.9,662.4 L1013.6,662.4 L1013.6,54.1 L71.9,54.1 Z  '/></g>
<g fill="none" color="black" stroke="currentColor" stroke-width="1.00" stroke-linecap="butt" stroke-linejoin="miter">
</g>
</g>
</svg>

