<?xml version="1.0" encoding="utf-8"  standalone="no"?>
<svg 
 viewBox="0 0 450 300"
 xmlns="http://www.w3.org/2000/svg"
 xmlns:xlink="http://www.w3.org/1999/xlink"
>

<title>Gnuplot</title>
<desc>Produced by GNUPLOT 5.2 patchlevel 6 </desc>

<g id="gnuplot_canvas">

<rect x="0" y="0" width="450" height="300" fill="none"/>
<defs>

	<circle id='gpDot' r='0.5' stroke-width='0.5' stroke='currentColor'/>
	<path id='gpPt0' stroke-width='0.222' stroke='currentColor' d='M-1,0 h2 M0,-1 v2'/>
	<path id='gpPt1' stroke-width='0.222' stroke='currentColor' d='M-1,-1 L1,1 M1,-1 L-1,1'/>
	<path id='gpPt2' stroke-width='0.222' stroke='currentColor' d='M-1,0 L1,0 M0,-1 L0,1 M-1,-1 L1,1 M-1,1 L1,-1'/>
	<rect id='gpPt3' stroke-width='0.222' stroke='currentColor' x='-1' y='-1' width='2' height='2'/>
	<rect id='gpPt4' stroke-width='0.222' stroke='currentColor' fill='currentColor' x='-1' y='-1' width='2' height='2'/>
	<circle id='gpPt5' stroke-width='0.222' stroke='currentColor' cx='0' cy='0' r='1'/>
	<use xlink:href='#gpPt5' id='gpPt6' fill='currentColor' stroke='none'/>
	<path id='gpPt7' stroke-width='0.222' stroke='currentColor' d='M0,-1.33 L-1.33,0.67 L1.33,0.67 z'/>
	<use xlink:href='#gpPt7' id='gpPt8' fill='currentColor' stroke='none'/>
	<use xlink:href='#gpPt7' id='gpPt9' stroke='currentColor' transform='rotate(180)'/>
	<use xlink:href='#gpPt9' id='gpPt10' fill='currentColor' stroke='none'/>
	<use xlink:href='#gpPt3' id='gpPt11' stroke='currentColor' transform='rotate(45)'/>
	<use xlink:href='#gpPt11' id='gpPt12' fill='currentColor' stroke='none'/>
	<path id='gpPt13' stroke-width='0.222' stroke='currentColor' d='M0,1.330 L1.265,0.411 L0.782,-1.067 L-0.782,-1.076 L-1.265,0.411 z'/>
	<use xlink:href='#gpPt13' id='gpPt14' fill='currentColor' stroke='none'/>
	<filter id='textbox' filterUnits='objectBoundingBox' x='0' y='0' height='1' width='1'>
	  <feFlood flood-color='white' flood-opacity='1' result='bgnd'/>
	  <feComposite in='SourceGraphic' in2='bgnd' operator='atop'/>
	</filter>
	<filter id='greybox' filterUnits='objectBoundingBox' x='0' y='0' height='1' width='1'>
	  <feFlood flood-color='lightgrey' flood-opacity='1' result='grey'/>
	  <feComposite in='SourceGraphic' in2='grey' operator='atop'/>
	</filter>
</defs>
<g fill="none" color="white" stroke="currentColor" stroke-width="1.00" stroke-linecap="butt" stroke-linejoin="miter">
</g>
<g fill="none" color="black" stroke="currentColor" stroke-width="1.00" stroke-linecap="butt" stroke-linejoin="miter">
	<path stroke='black'  d='M71.9,242.4 L80.9,242.4  '/>	<g transform="translate(63.6,246.3)" stroke="none" fill="black" font-family="Helvetica" font-size="12.00"  text-anchor="end">
		<text><tspan font-family="Helvetica" > 0</tspan></text>
	</g>
</g>
<g fill="none" color="black" stroke="currentColor" stroke-width="1.00" stroke-linecap="butt" stroke-linejoin="miter">
	<path stroke='black'  d='M71.9,217.8 L80.9,217.8  '/>	<g transform="translate(63.6,221.7)" stroke="none" fill="black" font-family="Helvetica" font-size="12.00"  text-anchor="end">
		<text><tspan font-family="Helvetica" > 0.1</tspan></text>
	</g>
</g>
<g fill="none" color="black" stroke="currentColor" stroke-width="1.00" stroke-linecap="butt" stroke-linejoin="miter">
	<path stroke='black'  d='M71.9,193.3 L80.9,193.3  '/>	<g transform="translate(63.6,197.2)" stroke="none" fill="black" font-family="Helvetica" font-size="12.00"  text-anchor="end">
		<text><tspan font-family="Helvetica" > 0.2</tspan></text>
	</g>
</g>
<g fill="none" color="black" stroke="currentColor" stroke-width="1.00" stroke-linecap="butt" stroke-linejoin="miter">
	<path stroke='black'  d='M71.9,168.7 L80.9,168.7  '/>	<g transform="translate(63.6,172.6)" stroke="none" fill="black" font-family="Helvetica" font-size="12.00"  text-anchor="end">
		<text><tspan font-family="Helvetica" > 0.3</tspan></text>
	</g>
</g>
<g fill="none" color="black" stroke="currentColor" stroke-width="1.00" stroke-linecap="butt" stroke-linejoin="miter">
	<path stroke='black'  d='M71.9,144.2 L80.9,144.2  '/>	<g transform="translate(63.6,148.1)" stroke="none" fill="black" font-family="Helvetica" font-size="12.00"  text-anchor="end">
		<text><tspan font-family="Helvetica" > 0.4</tspan></text>
	</g>
</g>
<g fill="none" color="black" stroke="currentColor" stroke-width="1.00" stroke-linecap="butt" stroke-linejoin="miter">
	<path stroke='black'  d='M71.9,119.6 L80.9,119.6  '/>	<g transform="translate(63.6,123.5)" stroke="none" fill="black" font-family="Helvetica" font-size="12.00"  text-anchor="end">
		<text><tspan font-family="Helvetica" > 0.5</tspan></text>
	</g>
</g>
<g fill="none" color="black" stroke="currentColor" stroke-width="1.00" stroke-linecap="butt" stroke-linejoin="miter">
	<path stroke='black'  d='M71.9,95.0 L80.9,95.0  '/>	<g transform="translate(63.6,98.9)" stroke="none" fill="black" font-family="Helvetica" font-size="12.00"  text-anchor="end">
		<text><tspan font-family="Helvetica" > 0.6</tspan></text>
	</g>
</g>
<g fill="none" color="black" stroke="currentColor" stroke-width="1.00" stroke-linecap="butt" stroke-linejoin="miter">
	<path stroke='black'  d='M71.9,70.5 L80.9,70.5  '/>	<g transform="translate(63.6,74.4)" stroke="none" fill="black" font-family="Helvetica" font-size="12.00"  text-anchor="end">
		<text><tspan font-family="Helvetica" > 0.7</tspan></text>
	</g>
</g>
<g fill="none" color="black" stroke="currentColor" stroke-width="1.00" stroke-linecap="butt" stroke-linejoin="miter">
	<path stroke='black'  d='M71.9,45.9 L80.9,45.9  '/>	<g transform="translate(63.6,49.8)" stroke="none" fill="black" font-family="Helvetica" font-size="12.00"  text-anchor="end">
		<text><tspan font-family="Helvetica" > 0.8</tspan></text>
	</g>
</g>
<g fill="none" color="black" stroke="currentColor" stroke-width="1.00" stroke-linecap="butt" stroke-linejoin="miter">
	<path stroke='black'  d='M71.9,21.3 L80.9,21.3  '/>	<g transform="translate(63.6,25.2)" stroke="none" fill="black" font-family="Helvetica" font-size="12.00"  text-anchor="end">
		<text><tspan font-family="Helvetica" > 0.9</tspan></text>
	</g>
</g>
<g fill="none" color="black" stroke="currentColor" stroke-width="1.00" stroke-linecap="butt" stroke-linejoin="miter">
	<path stroke='black'  d='M112.6,242.4 L112.6,233.4  '/>	<g transform="translate(112.6,264.3)" stroke="none" fill="black" font-family="Helvetica" font-size="12.00"  text-anchor="middle">
		<text><tspan font-family="Helvetica" > 42</tspan></text>
	</g>
</g>
<g fill="none" color="black" stroke="currentColor" stroke-width="1.00" stroke-linecap="butt" stroke-linejoin="miter">
	<path stroke='black'  d='M156.7,242.4 L156.7,233.4  '/>	<g transform="translate(156.7,264.3)" stroke="none" fill="black" font-family="Helvetica" font-size="12.00"  text-anchor="middle">
		<text><tspan font-family="Helvetica" > 43</tspan></text>
	</g>
</g>
<g fill="none" color="black" stroke="currentColor" stroke-width="1.00" stroke-linecap="butt" stroke-linejoin="miter">
	<path stroke='black'  d='M200.9,242.4 L200.9,233.4  '/>	<g transform="translate(200.9,264.3)" stroke="none" fill="black" font-family="Helvetica" font-size="12.00"  text-anchor="middle">
		<text><tspan font-family="Helvetica" > 44</tspan></text>
	</g>
</g>
<g fill="none" color="black" stroke="currentColor" stroke-width="1.00" stroke-linecap="butt" stroke-linejoin="miter">
	<path stroke='black'  d='M245.0,242.4 L245.0,233.4  '/>	<g transform="translate(245.0,264.3)" stroke="none" fill="black" font-family="Helvetica" font-size="12.00"  text-anchor="middle">
		<text><tspan font-family="Helvetica" > 45</tspan></text>
	</g>
</g>
<g fill="none" color="black" stroke="currentColor" stroke-width="1.00" stroke-linecap="butt" stroke-linejoin="miter">
	<path stroke='black'  d='M289.1,242.4 L289.1,233.4  '/>	<g transform="translate(289.1,264.3)" stroke="none" fill="black" font-family="Helvetica" font-size="12.00"  text-anchor="middle">
		<text><tspan font-family="Helvetica" > 46</tspan></text>
	</g>
</g>
<g fill="none" color="black" stroke="currentColor" stroke-width="1.00" stroke-linecap="butt" stroke-linejoin="miter">
	<path stroke='black'  d='M333.3,242.4 L333.3,233.4  '/>	<g transform="translate(333.3,264.3)" stroke="none" fill="black" font-family="Helvetica" font-size="12.00"  text-anchor="middle">
		<text><tspan font-family="Helvetica" > 47</tspan></text>
	</g>
</g>
<g fill="none" color="black" stroke="currentColor" stroke-width="1.00" stroke-linecap="butt" stroke-linejoin="miter">
	<path stroke='black'  d='M377.4,242.4 L377.4,233.4  '/>	<g transform="translate(377.4,264.3)" stroke="none" fill="black" font-family="Helvetica" font-size="12.00"  text-anchor="middle">
		<text><tspan font-family="Helvetica" > 48</tspan></text>
	</g>
</g>
<g fill="none" color="black" stroke="currentColor" stroke-width="1.00" stroke-linecap="butt" stroke-linejoin="miter">
	<path stroke='black'  d='M421.5,242.4 L421.5,233.4  '/>	<g transform="translate(421.5,264.3)" stroke="none" fill="black" font-family="Helvetica" font-size="12.00"  text-anchor="middle">
		<text><tspan font-family="Helvetica" > 49</tspan></text>
	</g>
</g>
<g fill="none" color="black" stroke="currentColor" stroke-width="1.00" stroke-linecap="butt" stroke-linejoin="miter">
</g>
<g fill="none" color="black" stroke="currentColor" stroke-width="1.00" stroke-linecap="butt" stroke-linejoin="miter">
	<path stroke='black'  d='M71.9,18.1 L71.9,242.4 L425.0,242.4 L425.0,18.1 L71.9,18.1 Z  '/></g>
<g fill="none" color="black" stroke="currentColor" stroke-width="1.00" stroke-linecap="butt" stroke-linejoin="miter">
	<g transform="translate(16.3,130.3) rotate(270)" stroke="none" fill="black" font-family="Helvetica" font-size="12.00"  text-anchor="middle">
		<text><tspan font-family="Helvetica" >Density (a.u.)</tspan></text>
	</g>
</g>
<g fill="none" color="black" stroke="currentColor" stroke-width="1.00" stroke-linecap="butt" stroke-linejoin="miter">
	<g transform="translate(248.4,291.3)" stroke="none" fill="black" font-family="Helvetica" font-size="12.00"  text-anchor="middle">
		<text><tspan font-family="Helvetica" >Average time (us)</tspan></text>
	</g>
</g>
<g fill="none" color="black" stroke="currentColor" stroke-width="1.00" stroke-linecap="butt" stroke-linejoin="miter">
</g>
	<g id="gnuplot_plot_1" ><title>PDF</title>
<g fill="none" color="black" stroke="currentColor" stroke-width="1.00" stroke-linecap="butt" stroke-linejoin="miter">
	<g stroke='none' shape-rendering='crispEdges'>
		<polygon fill = 'rgb( 31, 120, 180)' fill-opacity = '0.250000' points = '71.9,241.8 72.6,241.7 73.3,241.6 74.0,241.5 74.7,241.4 75.4,241.3 76.1,241.2 76.9,241.0 77.6,240.8 78.3,240.6 79.0,240.4 79.7,240.2 80.4,239.9 81.1,239.6 81.8,239.3 82.5,239.0
83.2,238.6 83.9,238.2 84.6,237.7 85.3,237.3 86.1,236.7 86.8,236.1 87.5,235.5 88.2,234.8 88.9,234.0 89.6,233.2 90.3,232.3 91.0,231.4 91.7,230.4 92.4,229.3 93.1,228.1 93.8,226.8
94.5,225.5 95.3,224.0 96.0,222.5 96.7,220.8 97.4,219.0 98.1,217.2 98.8,215.2 99.5,213.1 100.2,210.9 100.9,208.6 101.6,206.1 102.3,203.5 103.0,200.8 103.7,197.9 104.5,195.0 105.2,191.8
105.9,188.6 106.6,185.2 107.3,181.7 108.0,178.1 108.7,174.3 109.4,170.4 110.1,166.4 110.8,162.3 111.5,158.0 112.2,153.7 112.9,149.2 113.6,144.7 114.4,140.1 115.1,135.4 115.8,130.6 116.5,125.8
117.2,120.9 117.9,116.0 118.6,111.1 119.3,106.2 120.0,101.2 120.7,96.3 121.4,91.4 122.1,86.5 122.8,81.8 123.6,77.0 124.3,72.4 125.0,67.9 125.7,63.4 126.4,59.1 127.1,55.0 127.8,51.0
128.5,47.2 129.2,43.6 129.9,40.1 130.6,36.9 131.3,33.9 132.0,31.1 132.8,28.6 133.5,26.3 134.2,24.3 134.9,22.6 135.6,21.1 136.3,20.0 137.0,19.1 137.7,18.4 138.4,18.1 139.1,18.1
139.8,18.4 140.5,18.9 141.2,19.8 142.0,20.9 142.7,22.3 143.4,24.0 144.1,25.9 144.8,28.1 145.5,30.6 146.2,33.2 146.9,36.2 147.6,39.3 148.3,42.7 149.0,46.2 149.7,49.9 150.4,53.8
151.2,57.9 151.9,62.0 152.6,66.4 153.3,70.8 154.0,75.3 154.7,79.9 155.4,84.6 156.1,89.3 156.8,94.1 157.5,98.9 158.2,103.7 158.9,108.6 159.6,113.4 160.4,118.2 161.1,122.9 161.8,127.7
162.5,132.3 163.2,136.9 163.9,141.5 164.6,145.9 165.3,150.3 166.0,154.6 166.7,158.7 167.4,162.8 168.1,166.8 168.8,170.6 169.6,174.4 170.3,178.0 171.0,181.5 171.7,184.8 172.4,188.1 173.1,191.2
173.8,194.2 174.5,197.1 175.2,199.8 175.9,202.4 176.6,204.9 177.3,207.3 178.0,209.6 178.7,211.8 179.5,213.8 180.2,215.7 180.9,217.6 181.6,219.3 182.3,220.9 183.0,222.5 183.7,223.9 184.4,225.3
185.1,226.5 185.8,227.7 186.5,228.8 187.2,229.9 187.9,230.8 188.7,231.7 189.4,232.6 190.1,233.3 190.8,234.1 191.5,234.7 192.2,235.3 192.9,235.9 193.6,236.4 194.3,236.9 195.0,237.3 195.7,237.7
196.4,238.1 197.1,238.4 197.9,238.7 198.6,239.0 199.3,239.2 200.0,239.4 200.7,239.6 201.4,239.8 202.1,240.0 202.8,240.1 203.5,240.2 204.2,240.3 204.9,240.3 205.6,240.4 206.3,240.4 207.1,240.5
207.8,240.5 208.5,240.5 209.2,240.5 209.9,240.5 210.6,240.4 211.3,240.4 212.0,240.3 212.7,240.3 213.4,240.2 214.1,240.1 214.8,240.1 215.5,240.0 216.3,239.9 217.0,239.8 217.7,239.7 218.4,239.5
219.1,239.4 219.8,239.3 220.5,239.2 221.2,239.0 221.9,238.9 222.6,238.8 223.3,238.6 224.0,238.5 224.7,238.3 225.5,238.2 226.2,238.0 226.9,237.9 227.6,237.7 228.3,237.6 229.0,237.4 229.7,237.3
230.4,237.1 231.1,237.0 231.8,236.9 232.5,236.7 233.2,236.6 233.9,236.5 234.7,236.3 235.4,236.2 236.1,236.1 236.8,236.0 237.5,235.9 238.2,235.8 238.9,235.7 239.6,235.6 240.3,235.6 241.0,235.5
241.7,235.4 242.4,235.4 243.1,235.3 243.9,235.3 244.6,235.3 245.3,235.3 246.0,235.3 246.7,235.3 247.4,235.3 248.1,235.3 248.8,235.3 249.5,235.4 250.2,235.4 250.9,235.5 251.6,235.5 252.3,235.6
253.0,235.7 253.8,235.8 254.5,235.8 255.2,235.9 255.9,236.1 256.6,236.2 257.3,236.3 258.0,236.4 258.7,236.5 259.4,236.7 260.1,236.8 260.8,236.9 261.5,237.1 262.2,237.2 263.0,237.4 263.7,237.5
264.4,237.7 265.1,237.8 265.8,238.0 266.5,238.1 267.2,238.3 267.9,238.4 268.6,238.6 269.3,238.7 270.0,238.9 270.7,239.0 271.4,239.1 272.2,239.3 272.9,239.4 273.6,239.5 274.3,239.7 275.0,239.8
275.7,239.9 276.4,240.0 277.1,240.1 277.8,240.2 278.5,240.3 279.2,240.4 279.9,240.5 280.6,240.6 281.4,240.7 282.1,240.7 282.8,240.8 283.5,240.9 284.2,240.9 284.9,241.0 285.6,241.0 286.3,241.1
287.0,241.1 287.7,241.1 288.4,241.1 289.1,241.2 289.8,241.2 290.6,241.2 291.3,241.2 292.0,241.2 292.7,241.2 293.4,241.2 294.1,241.1 294.8,241.1 295.5,241.1 296.2,241.1 296.9,241.0 297.6,241.0
298.3,240.9 299.0,240.9 299.8,240.8 300.5,240.8 301.2,240.7 301.9,240.6 302.6,240.6 303.3,240.5 304.0,240.4 304.7,240.3 305.4,240.3 306.1,240.2 306.8,240.1 307.5,240.0 308.2,239.9 309.0,239.8
309.7,239.7 310.4,239.6 311.1,239.5 311.8,239.4 312.5,239.3 313.2,239.2 313.9,239.1 314.6,239.0 315.3,238.9 316.0,238.8 316.7,238.7 317.4,238.6 318.2,238.5 318.9,238.4 319.6,238.3 320.3,238.2
321.0,238.1 321.7,238.0 322.4,237.9 323.1,237.8 323.8,237.7 324.5,237.6 325.2,237.5 325.9,237.4 326.6,237.3 327.3,237.2 328.1,237.1 328.8,237.1 329.5,237.0 330.2,236.9 330.9,236.8 331.6,236.8
332.3,236.7 333.0,236.6 333.7,236.6 334.4,236.5 335.1,236.4 335.8,236.4 336.5,236.3 337.3,236.3 338.0,236.2 338.7,236.2 339.4,236.1 340.1,236.1 340.8,236.0 341.5,236.0 342.2,236.0 342.9,235.9
343.6,235.9 344.3,235.9 345.0,235.8 345.7,235.8 346.5,235.8 347.2,235.7 347.9,235.7 348.6,235.7 349.3,235.7 350.0,235.7 350.7,235.7 351.4,235.7 352.1,235.6 352.8,235.6 353.5,235.6 354.2,235.6
354.9,235.6 355.7,235.7 356.4,235.7 357.1,235.7 357.8,235.7 358.5,235.7 359.2,235.8 359.9,235.8 360.6,235.8 361.3,235.9 362.0,235.9 362.7,236.0 363.4,236.0 364.1,236.1 364.9,236.1 365.6,236.2
366.3,236.3 367.0,236.3 367.7,236.4 368.4,236.5 369.1,236.6 369.8,236.7 370.5,236.8 371.2,236.9 371.9,237.0 372.6,237.1 373.3,237.2 374.1,237.3 374.8,237.4 375.5,237.6 376.2,237.7 376.9,237.8
377.6,237.9 378.3,238.1 379.0,238.2 379.7,238.3 380.4,238.4 381.1,238.6 381.8,238.7 382.5,238.8 383.3,239.0 384.0,239.1 384.7,239.2 385.4,239.3 386.1,239.5 386.8,239.6 387.5,239.7 388.2,239.8
388.9,239.9 389.6,240.1 390.3,240.2 391.0,240.3 391.7,240.4 392.4,240.5 393.2,240.6 393.9,240.7 394.6,240.8 395.3,240.9 396.0,241.0 396.7,241.0 397.4,241.1 398.1,241.2 398.8,241.3 399.5,241.3
400.2,241.4 400.9,241.5 401.6,241.5 402.4,241.6 403.1,241.7 403.8,241.7 404.5,241.8 405.2,241.8 405.9,241.9 406.6,241.9 407.3,241.9 408.0,242.0 408.7,242.0 409.4,242.0 410.1,242.1 410.8,242.1
411.6,242.1 412.3,242.1 413.0,242.2 413.7,242.2 414.4,242.2 415.1,242.2 415.8,242.2 416.5,242.3 417.2,242.3 417.9,242.3 418.6,242.3 419.3,242.3 420.0,242.3 420.8,242.3 421.5,242.3 422.2,242.3
422.9,242.3 423.6,242.3 424.3,242.4 425.0,242.4 425.0,242.4 424.3,242.4 423.6,242.4 422.9,242.4 422.2,242.4 421.5,242.4 420.8,242.4 420.0,242.4 419.3,242.4 418.6,242.4 417.9,242.4 417.2,242.4
416.5,242.4 415.8,242.4 415.1,242.4 414.4,242.4 413.7,242.4 413.0,242.4 412.3,242.4 411.6,242.4 410.8,242.4 410.1,242.4 409.4,242.4 408.7,242.4 408.0,242.4 407.3,242.4 406.6,242.4 405.9,242.4
405.2,242.4 404.5,242.4 403.8,242.4 403.1,242.4 402.4,242.4 401.6,242.4 400.9,242.4 400.2,242.4 399.5,242.4 398.8,242.4 398.1,242.4 397.4,242.4 396.7,242.4 396.0,242.4 395.3,242.4 394.6,242.4
393.9,242.4 393.2,242.4 392.4,242.4 391.7,242.4 391.0,242.4 390.3,242.4 389.6,242.4 388.9,242.4 388.2,242.4 387.5,242.4 386.8,242.4 386.1,242.4 385.4,242.4 384.7,242.4 384.0,242.4 383.3,242.4
382.5,242.4 381.8,242.4 381.1,242.4 380.4,242.4 379.7,242.4 379.0,242.4 378.3,242.4 377.6,242.4 376.9,242.4 376.2,242.4 375.5,242.4 374.8,242.4 374.1,242.4 373.3,242.4 372.6,242.4 371.9,242.4
371.2,242.4 370.5,242.4 369.8,242.4 369.1,242.4 368.4,242.4 367.7,242.4 367.0,242.4 366.3,242.4 365.6,242.4 364.9,242.4 364.1,242.4 363.4,242.4 362.7,242.4 362.0,242.4 361.3,242.4 360.6,242.4
359.9,242.4 359.2,242.4 358.5,242.4 357.8,242.4 357.1,242.4 356.4,242.4 355.7,242.4 354.9,242.4 354.2,242.4 353.5,242.4 352.8,242.4 352.1,242.4 351.4,242.4 350.7,242.4 350.0,242.4 349.3,242.4
348.6,242.4 347.9,242.4 347.2,242.4 346.5,242.4 345.7,242.4 345.0,242.4 344.3,242.4 343.6,242.4 342.9,242.4 342.2,242.4 341.5,242.4 340.8,242.4 340.1,242.4 339.4,242.4 338.7,242.4 338.0,242.4
337.3,242.4 336.5,242.4 335.8,242.4 335.1,242.4 334.4,242.4 333.7,242.4 333.0,242.4 332.3,242.4 331.6,242.4 330.9,242.4 330.2,242.4 329.5,242.4 328.8,242.4 328.1,242.4 327.3,242.4 326.6,242.4
325.9,242.4 325.2,242.4 324.5,242.4 323.8,242.4 323.1,242.4 322.4,242.4 321.7,242.4 321.0,242.4 320.3,242.4 319.6,242.4 318.9,242.4 318.2,242.4 317.4,242.4 316.7,242.4 316.0,242.4 315.3,242.4
314.6,242.4 313.9,242.4 313.2,242.4 312.5,242.4 311.8,242.4 311.1,242.4 310.4,242.4 309.7,242.4 309.0,242.4 308.2,242.4 307.5,242.4 306.8,242.4 306.1,242.4 305.4,242.4 304.7,242.4 304.0,242.4
303.3,242.4 302.6,242.4 301.9,242.4 301.2,242.4 300.5,242.4 299.8,242.4 299.0,242.4 298.3,242.4 297.6,242.4 296.9,242.4 296.2,242.4 295.5,242.4 294.8,242.4 294.1,242.4 293.4,242.4 292.7,242.4
292.0,242.4 291.3,242.4 290.6,242.4 289.8,242.4 289.1,242.4 288.4,242.4 287.7,242.4 287.0,242.4 286.3,242.4 285.6,242.4 284.9,242.4 284.2,242.4 283.5,242.4 282.8,242.4 282.1,242.4 281.4,242.4
280.6,242.4 279.9,242.4 279.2,242.4 278.5,242.4 277.8,242.4 277.1,242.4 276.4,242.4 275.7,242.4 275.0,242.4 274.3,242.4 273.6,242.4 272.9,242.4 272.2,242.4 271.4,242.4 270.7,242.4 270.0,242.4
269.3,242.4 268.6,242.4 267.9,242.4 267.2,242.4 266.5,242.4 265.8,242.4 265.1,242.4 264.4,242.4 263.7,242.4 263.0,242.4 262.2,242.4 261.5,242.4 260.8,242.4 260.1,242.4 259.4,242.4 258.7,242.4
258.0,242.4 257.3,242.4 256.6,242.4 255.9,242.4 255.2,242.4 254.5,242.4 253.8,242.4 253.0,242.4 252.3,242.4 251.6,242.4 250.9,242.4 250.2,242.4 249.5,242.4 248.8,242.4 248.1,242.4 247.4,242.4
246.7,242.4 246.0,242.4 245.3,242.4 244.6,242.4 243.9,242.4 243.1,242.4 242.4,242.4 241.7,242.4 241.0,242.4 240.3,242.4 239.6,242.4 238.9,242.4 238.2,242.4 237.5,242.4 236.8,242.4 236.1,242.4
235.4,242.4 234.7,242.4 233.9,242.4 233.2,242.4 232.5,242.4 231.8,242.4 231.1,242.4 230.4,242.4 229.7,242.4 229.0,242.4 228.3,242.4 227.6,242.4 226.9,242.4 226.2,242.4 225.5,242.4 224.7,242.4
224.0,242.4 223.3,242.4 222.6,242.4 221.9,242.4 221.2,242.4 220.5,242.4 219.8,242.4 219.1,242.4 218.4,242.4 217.7,242.4 217.0,242.4 216.3,242.4 215.5,242.4 214.8,242.4 214.1,242.4 213.4,242.4
212.7,242.4 212.0,242.4 211.3,242.4 210.6,242.4 209.9,242.4 209.2,242.4 208.5,242.4 207.8,242.4 207.1,242.4 206.3,242.4 205.6,242.4 204.9,242.4 204.2,242.4 203.5,242.4 202.8,242.4 202.1,242.4
201.4,242.4 200.7,242.4 200.0,242.4 199.3,242.4 198.6,242.4 197.9,242.4 197.1,242.4 196.4,242.4 195.7,242.4 195.0,242.4 194.3,242.4 193.6,242.4 192.9,242.4 192.2,242.4 191.5,242.4 190.8,242.4
190.1,242.4 189.4,242.4 188.7,242.4 187.9,242.4 187.2,242.4 186.5,242.4 185.8,242.4 185.1,242.4 184.4,242.4 183.7,242.4 183.0,242.4 182.3,242.4 181.6,242.4 180.9,242.4 180.2,242.4 179.5,242.4
178.7,242.4 178.0,242.4 177.3,242.4 176.6,242.4 175.9,242.4 175.2,242.4 174.5,242.4 173.8,242.4 173.1,242.4 172.4,242.4 171.7,242.4 171.0,242.4 170.3,242.4 169.6,242.4 168.8,242.4 168.1,242.4
167.4,242.4 166.7,242.4 166.0,242.4 165.3,242.4 164.6,242.4 163.9,242.4 163.2,242.4 162.5,242.4 161.8,242.4 161.1,242.4 160.4,242.4 159.6,242.4 158.9,242.4 158.2,242.4 157.5,242.4 156.8,242.4
156.1,242.4 155.4,242.4 154.7,242.4 154.0,242.4 153.3,242.4 152.6,242.4 151.9,242.4 151.2,242.4 150.4,242.4 149.7,242.4 149.0,242.4 148.3,242.4 147.6,242.4 146.9,242.4 146.2,242.4 145.5,242.4
144.8,242.4 144.1,242.4 143.4,242.4 142.7,242.4 142.0,242.4 141.2,242.4 140.5,242.4 139.8,242.4 139.1,242.4 138.4,242.4 137.7,242.4 137.0,242.4 136.3,242.4 135.6,242.4 134.9,242.4 134.2,242.4
133.5,242.4 132.8,242.4 132.0,242.4 131.3,242.4 130.6,242.4 129.9,242.4 129.2,242.4 128.5,242.4 127.8,242.4 127.1,242.4 126.4,242.4 125.7,242.4 125.0,242.4 124.3,242.4 123.6,242.4 122.8,242.4
122.1,242.4 121.4,242.4 120.7,242.4 120.0,242.4 119.3,242.4 118.6,242.4 117.9,242.4 117.2,242.4 116.5,242.4 115.8,242.4 115.1,242.4 114.4,242.4 113.6,242.4 112.9,242.4 112.2,242.4 111.5,242.4
110.8,242.4 110.1,242.4 109.4,242.4 108.7,242.4 108.0,242.4 107.3,242.4 106.6,242.4 105.9,242.4 105.2,242.4 104.5,242.4 103.7,242.4 103.0,242.4 102.3,242.4 101.6,242.4 100.9,242.4 100.2,242.4
99.5,242.4 98.8,242.4 98.1,242.4 97.4,242.4 96.7,242.4 96.0,242.4 95.3,242.4 94.5,242.4 93.8,242.4 93.1,242.4 92.4,242.4 91.7,242.4 91.0,242.4 90.3,242.4 89.6,242.4 88.9,242.4
88.2,242.4 87.5,242.4 86.8,242.4 86.1,242.4 85.3,242.4 84.6,242.4 83.9,242.4 83.2,242.4 82.5,242.4 81.8,242.4 81.1,242.4 80.4,242.4 79.7,242.4 79.0,242.4 78.3,242.4 77.6,242.4
76.9,242.4 76.1,242.4 75.4,242.4 74.7,242.4 74.0,242.4 73.3,242.4 72.6,242.4 71.9,242.4 '/>
	</g>
</g>
	</g>
	<g id="gnuplot_plot_2" ><title>Mean</title>
<g fill="none" color="white" stroke="rgb( 31, 120, 180)" stroke-width="2.00" stroke-linecap="butt" stroke-linejoin="miter">
</g>
<g fill="none" color="black" stroke="currentColor" stroke-width="2.00" stroke-linecap="butt" stroke-linejoin="miter">
	<path stroke='rgb( 31, 120, 180)'  d='M150.8,242.4 L150.8,72.9  '/></g>
	</g>
<g fill="none" color="black" stroke="currentColor" stroke-width="2.00" stroke-linecap="butt" stroke-linejoin="miter">
</g>
<g fill="none" color="black" stroke="black" stroke-width="1.00" stroke-linecap="butt" stroke-linejoin="miter">
</g>
<g fill="none" color="black" stroke="currentColor" stroke-width="1.00" stroke-linecap="butt" stroke-linejoin="miter">
	<path stroke='black'  d='M71.9,18.1 L71.9,242.4 L425.0,242.4 L425.0,18.1 L71.9,18.1 Z  '/></g>
<g fill="none" color="black" stroke="currentColor" stroke-width="1.00" stroke-linecap="butt" stroke-linejoin="miter">
</g>
</g>
</svg>

