<?xml version="1.0" encoding="utf-8"  standalone="no"?>
<svg 
 viewBox="0 0 1280 720"
 xmlns="http://www.w3.org/2000/svg"
 xmlns:xlink="http://www.w3.org/1999/xlink"
>

<title>Gnuplot</title>
<desc>Produced by GNUPLOT 5.2 patchlevel 6 </desc>

<g id="gnuplot_canvas">

<rect x="0" y="0" width="1280" height="720" fill="none"/>
<defs>

	<circle id='gpDot' r='0.5' stroke-width='0.5' stroke='currentColor'/>
	<path id='gpPt0' stroke-width='0.222' stroke='currentColor' d='M-1,0 h2 M0,-1 v2'/>
	<path id='gpPt1' stroke-width='0.222' stroke='currentColor' d='M-1,-1 L1,1 M1,-1 L-1,1'/>
	<path id='gpPt2' stroke-width='0.222' stroke='currentColor' d='M-1,0 L1,0 M0,-1 L0,1 M-1,-1 L1,1 M-1,1 L1,-1'/>
	<rect id='gpPt3' stroke-width='0.222' stroke='currentColor' x='-1' y='-1' width='2' height='2'/>
	<rect id='gpPt4' stroke-width='0.222' stroke='currentColor' fill='currentColor' x='-1' y='-1' width='2' height='2'/>
	<circle id='gpPt5' stroke-width='0.222' stroke='currentColor' cx='0' cy='0' r='1'/>
	<use xlink:href='#gpPt5' id='gpPt6' fill='currentColor' stroke='none'/>
	<path id='gpPt7' stroke-width='0.222' stroke='currentColor' d='M0,-1.33 L-1.33,0.67 L1.33,0.67 z'/>
	<use xlink:href='#gpPt7' id='gpPt8' fill='currentColor' stroke='none'/>
	<use xlink:href='#gpPt7' id='gpPt9' stroke='currentColor' transform='rotate(180)'/>
	<use xlink:href='#gpPt9' id='gpPt10' fill='currentColor' stroke='none'/>
	<use xlink:href='#gpPt3' id='gpPt11' stroke='currentColor' transform='rotate(45)'/>
	<use xlink:href='#gpPt11' id='gpPt12' fill='currentColor' stroke='none'/>
	<path id='gpPt13' stroke-width='0.222' stroke='currentColor' d='M0,1.330 L1.265,0.411 L0.782,-1.067 L-0.782,-1.076 L-1.265,0.411 z'/>
	<use xlink:href='#gpPt13' id='gpPt14' fill='currentColor' stroke='none'/>
	<filter id='textbox' filterUnits='objectBoundingBox' x='0' y='0' height='1' width='1'>
	  <feFlood flood-color='white' flood-opacity='1' result='bgnd'/>
	  <feComposite in='SourceGraphic' in2='bgnd' operator='atop'/>
	</filter>
	<filter id='greybox' filterUnits='objectBoundingBox' x='0' y='0' height='1' width='1'>
	  <feFlood flood-color='lightgrey' flood-opacity='1' result='grey'/>
	  <feComposite in='SourceGraphic' in2='grey' operator='atop'/>
	</filter>
</defs>
<g fill="none" color="white" stroke="currentColor" stroke-width="1.00" stroke-linecap="butt" stroke-linejoin="miter">
</g>
<g fill="none" color="black" stroke="currentColor" stroke-width="1.00" stroke-linecap="butt" stroke-linejoin="miter">
	<path stroke='black'  d='M63.6,662.4 L72.6,662.4  '/>	<g transform="translate(55.3,666.3)" stroke="none" fill="black" font-family="Helvetica" font-size="12.00"  text-anchor="end">
		<text><tspan font-family="Helvetica" > 0</tspan></text>
	</g>
</g>
<g fill="none" color="black" stroke="currentColor" stroke-width="1.00" stroke-linecap="butt" stroke-linejoin="miter">
	<path stroke='black'  d='M63.6,575.5 L72.6,575.5  '/>	<g transform="translate(55.3,579.4)" stroke="none" fill="black" font-family="Helvetica" font-size="12.00"  text-anchor="end">
		<text><tspan font-family="Helvetica" > 2</tspan></text>
	</g>
</g>
<g fill="none" color="black" stroke="currentColor" stroke-width="1.00" stroke-linecap="butt" stroke-linejoin="miter">
	<path stroke='black'  d='M63.6,488.6 L72.6,488.6  '/>	<g transform="translate(55.3,492.5)" stroke="none" fill="black" font-family="Helvetica" font-size="12.00"  text-anchor="end">
		<text><tspan font-family="Helvetica" > 4</tspan></text>
	</g>
</g>
<g fill="none" color="black" stroke="currentColor" stroke-width="1.00" stroke-linecap="butt" stroke-linejoin="miter">
	<path stroke='black'  d='M63.6,401.7 L72.6,401.7  '/>	<g transform="translate(55.3,405.6)" stroke="none" fill="black" font-family="Helvetica" font-size="12.00"  text-anchor="end">
		<text><tspan font-family="Helvetica" > 6</tspan></text>
	</g>
</g>
<g fill="none" color="black" stroke="currentColor" stroke-width="1.00" stroke-linecap="butt" stroke-linejoin="miter">
	<path stroke='black'  d='M63.6,314.8 L72.6,314.8  '/>	<g transform="translate(55.3,318.7)" stroke="none" fill="black" font-family="Helvetica" font-size="12.00"  text-anchor="end">
		<text><tspan font-family="Helvetica" > 8</tspan></text>
	</g>
</g>
<g fill="none" color="black" stroke="currentColor" stroke-width="1.00" stroke-linecap="butt" stroke-linejoin="miter">
	<path stroke='black'  d='M63.6,227.9 L72.6,227.9  '/>	<g transform="translate(55.3,231.8)" stroke="none" fill="black" font-family="Helvetica" font-size="12.00"  text-anchor="end">
		<text><tspan font-family="Helvetica" > 10</tspan></text>
	</g>
</g>
<g fill="none" color="black" stroke="currentColor" stroke-width="1.00" stroke-linecap="butt" stroke-linejoin="miter">
	<path stroke='black'  d='M63.6,141.0 L72.6,141.0  '/>	<g transform="translate(55.3,144.9)" stroke="none" fill="black" font-family="Helvetica" font-size="12.00"  text-anchor="end">
		<text><tspan font-family="Helvetica" > 12</tspan></text>
	</g>
</g>
<g fill="none" color="black" stroke="currentColor" stroke-width="1.00" stroke-linecap="butt" stroke-linejoin="miter">
	<path stroke='black'  d='M63.6,54.1 L72.6,54.1  '/>	<g transform="translate(55.3,58.0)" stroke="none" fill="black" font-family="Helvetica" font-size="12.00"  text-anchor="end">
		<text><tspan font-family="Helvetica" > 14</tspan></text>
	</g>
</g>
<g fill="none" color="black" stroke="currentColor" stroke-width="1.00" stroke-linecap="butt" stroke-linejoin="miter">
	<path stroke='black'  d='M121.5,662.4 L121.5,653.4  '/>	<g transform="translate(121.5,684.3)" stroke="none" fill="black" font-family="Helvetica" font-size="12.00"  text-anchor="middle">
		<text><tspan font-family="Helvetica" > 4.92</tspan></text>
	</g>
</g>
<g fill="none" color="black" stroke="currentColor" stroke-width="1.00" stroke-linecap="butt" stroke-linejoin="miter">
	<path stroke='black'  d='M256.5,662.4 L256.5,653.4  '/>	<g transform="translate(256.5,684.3)" stroke="none" fill="black" font-family="Helvetica" font-size="12.00"  text-anchor="middle">
		<text><tspan font-family="Helvetica" > 4.94</tspan></text>
	</g>
</g>
<g fill="none" color="black" stroke="currentColor" stroke-width="1.00" stroke-linecap="butt" stroke-linejoin="miter">
	<path stroke='black'  d='M391.5,662.4 L391.5,653.4  '/>	<g transform="translate(391.5,684.3)" stroke="none" fill="black" font-family="Helvetica" font-size="12.00"  text-anchor="middle">
		<text><tspan font-family="Helvetica" > 4.96</tspan></text>
	</g>
</g>
<g fill="none" color="black" stroke="currentColor" stroke-width="1.00" stroke-linecap="butt" stroke-linejoin="miter">
	<path stroke='black'  d='M526.4,662.4 L526.4,653.4  '/>	<g transform="translate(526.4,684.3)" stroke="none" fill="black" font-family="Helvetica" font-size="12.00"  text-anchor="middle">
		<text><tspan font-family="Helvetica" > 4.98</tspan></text>
	</g>
</g>
<g fill="none" color="black" stroke="currentColor" stroke-width="1.00" stroke-linecap="butt" stroke-linejoin="miter">
	<path stroke='black'  d='M661.4,662.4 L661.4,653.4  '/>	<g transform="translate(661.4,684.3)" stroke="none" fill="black" font-family="Helvetica" font-size="12.00"  text-anchor="middle">
		<text><tspan font-family="Helvetica" > 5</tspan></text>
	</g>
</g>
<g fill="none" color="black" stroke="currentColor" stroke-width="1.00" stroke-linecap="butt" stroke-linejoin="miter">
	<path stroke='black'  d='M796.4,662.4 L796.4,653.4  '/>	<g transform="translate(796.4,684.3)" stroke="none" fill="black" font-family="Helvetica" font-size="12.00"  text-anchor="middle">
		<text><tspan font-family="Helvetica" > 5.02</tspan></text>
	</g>
</g>
<g fill="none" color="black" stroke="currentColor" stroke-width="1.00" stroke-linecap="butt" stroke-linejoin="miter">
	<path stroke='black'  d='M931.4,662.4 L931.4,653.4  '/>	<g transform="translate(931.4,684.3)" stroke="none" fill="black" font-family="Helvetica" font-size="12.00"  text-anchor="middle">
		<text><tspan font-family="Helvetica" > 5.04</tspan></text>
	</g>
</g>
<g fill="none" color="black" stroke="currentColor" stroke-width="1.00" stroke-linecap="butt" stroke-linejoin="miter">
</g>
<g fill="none" color="black" stroke="currentColor" stroke-width="1.00" stroke-linecap="butt" stroke-linejoin="miter">
	<path stroke='black'  d='M63.6,54.1 L63.6,662.4 L1013.6,662.4 L1013.6,54.1 L63.6,54.1 Z  '/></g>
<g fill="none" color="black" stroke="currentColor" stroke-width="1.00" stroke-linecap="butt" stroke-linejoin="miter">
	<g transform="translate(16.3,358.3) rotate(270)" stroke="none" fill="black" font-family="Helvetica" font-size="12.00"  text-anchor="middle">
		<text><tspan font-family="Helvetica" >Density (a.u.)</tspan></text>
	</g>
</g>
<g fill="none" color="black" stroke="currentColor" stroke-width="1.00" stroke-linecap="butt" stroke-linejoin="miter">
	<g transform="translate(538.6,711.3)" stroke="none" fill="black" font-family="Helvetica" font-size="12.00"  text-anchor="middle">
		<text><tspan font-family="Helvetica" >Average time (us)</tspan></text>
	</g>
</g>
<g fill="none" color="black" stroke="currentColor" stroke-width="1.00" stroke-linecap="butt" stroke-linejoin="miter">
	<g transform="translate(538.6,31.0)" stroke="none" fill="black" font-family="Helvetica" font-size="12.00"  text-anchor="middle">
		<text><tspan font-family="Helvetica" >snapshot_restore_with_dense/Dense: Dirty pages + process_vm_writev/10: mean</tspan></text>
	</g>
</g>
	<g id="gnuplot_plot_1" ><title>Bootstrap distribution</title>
<g fill="none" color="white" stroke="black" stroke-width="2.00" stroke-linecap="butt" stroke-linejoin="miter">
</g>
<g fill="none" color="black" stroke="currentColor" stroke-width="2.00" stroke-linecap="butt" stroke-linejoin="miter">
	<g transform="translate(1089.0,67.0)" stroke="none" fill="black" font-family="Helvetica" font-size="12.00"  text-anchor="start">
		<text><tspan font-family="Helvetica" >Bootstrap distribution</tspan></text>
	</g>
</g>
<g fill="none" color="black" stroke="currentColor" stroke-width="2.00" stroke-linecap="butt" stroke-linejoin="miter">
	<path stroke='rgb( 31, 120, 180)'  d='M1038.5,63.1 L1080.7,63.1 M63.6,649.1 L65.5,647.6 L67.4,646.0 L69.3,644.2 L71.2,642.3 L73.1,640.3
		L75.0,638.2 L76.9,635.9 L78.8,633.5 L80.7,631.0 L82.6,628.3 L84.5,625.4 L86.4,622.4 L88.3,619.3
		L90.3,616.0 L92.2,612.6 L94.1,609.0 L96.0,605.3 L97.9,601.4 L99.8,597.4 L101.7,593.3 L103.6,589.1
		L105.5,584.8 L107.4,580.3 L109.3,575.8 L111.2,571.1 L113.1,566.4 L115.0,561.5 L116.9,556.6 L118.8,551.7
		L120.7,546.7 L122.6,541.6 L124.5,536.6 L126.4,531.5 L128.3,526.4 L130.2,521.2 L132.1,516.1 L134.0,511.1
		L135.9,506.0 L137.8,501.0 L139.8,496.0 L141.7,491.1 L143.6,486.2 L145.5,481.5 L147.4,476.7 L149.3,472.1
		L151.2,467.6 L153.1,463.1 L155.0,458.8 L156.9,454.5 L158.8,450.4 L160.7,446.3 L162.6,442.4 L164.5,438.6
		L166.4,434.9 L168.3,431.2 L170.2,427.7 L172.1,424.3 L174.0,421.0 L175.9,417.8 L177.8,414.6 L179.7,411.5
		L181.6,408.5 L183.5,405.6 L185.4,402.6 L187.3,399.7 L189.3,396.8 L191.2,394.0 L193.1,391.1 L195.0,388.1
		L196.9,385.2 L198.8,382.1 L200.7,379.0 L202.6,375.9 L204.5,372.6 L206.4,369.3 L208.3,365.8 L210.2,362.3
		L212.1,358.6 L214.0,354.9 L215.9,351.0 L217.8,347.1 L219.7,343.0 L221.6,338.9 L223.5,334.7 L225.4,330.4
		L227.3,326.0 L229.2,321.6 L231.1,317.1 L233.0,312.6 L234.9,308.0 L236.8,303.4 L238.8,298.8 L240.7,294.1
		L242.6,289.4 L244.5,284.6 L246.4,279.8 L248.3,275.0 L250.2,270.2 L252.1,265.3 L254.0,260.5 L255.9,255.6
		L257.8,250.7 L259.7,245.8 L261.6,240.8 L263.5,235.9 L265.4,231.0 L267.3,226.2 L269.2,221.3 L271.1,216.5
		L273.0,211.8 L274.9,207.1 L276.8,202.5 L278.7,198.0 L280.6,193.6 L282.5,189.3 L284.4,185.1 L286.3,181.0
		L288.2,177.0 L290.2,173.1 L292.1,169.4 L294.0,165.8 L295.9,162.3 L297.8,158.9 L299.7,155.6 L301.6,152.4
		L303.5,149.4 L305.4,146.4 L307.3,143.6 L309.2,140.8 L311.1,138.2 L313.0,135.6 L314.9,133.2 L316.8,130.8
		L318.7,128.5 L320.6,126.3 L322.5,124.2 L324.4,122.1 L326.3,120.1 L328.2,118.2 L330.1,116.4 L332.0,114.6
		L333.9,112.9 L335.8,111.2 L337.7,109.6 L339.7,108.0 L341.6,106.5 L343.5,105.0 L345.4,103.6 L347.3,102.2
		L349.2,100.8 L351.1,99.5 L353.0,98.2 L354.9,96.9 L356.8,95.7 L358.7,94.6 L360.6,93.5 L362.5,92.4
		L364.4,91.5 L366.3,90.5 L368.2,89.7 L370.1,89.0 L372.0,88.3 L373.9,87.7 L375.8,87.3 L377.7,86.9
		L379.6,86.6 L381.5,86.4 L383.4,86.3 L385.3,86.3 L387.2,86.4 L389.2,86.5 L391.1,86.8 L393.0,87.0
		L394.9,87.4 L396.8,87.7 L398.7,88.1 L400.6,88.5 L402.5,88.9 L404.4,89.3 L406.3,89.7 L408.2,90.1
		L410.1,90.4 L412.0,90.7 L413.9,91.0 L415.8,91.2 L417.7,91.4 L419.6,91.5 L421.5,91.6 L423.4,91.7
		L425.3,91.7 L427.2,91.7 L429.1,91.7 L431.0,91.6 L432.9,91.6 L434.8,91.5 L436.7,91.5 L438.7,91.5
		L440.6,91.5 L442.5,91.5 L444.4,91.6 L446.3,91.7 L448.2,91.9 L450.1,92.1 L452.0,92.4 L453.9,92.8
		L455.8,93.3 L457.7,93.8 L459.6,94.4 L461.5,95.1 L463.4,95.9 L465.3,96.7 L467.2,97.7 L469.1,98.7
		L471.0,99.8 L472.9,100.9 L474.8,102.2 L476.7,103.4 L478.6,104.8 L480.5,106.2 L482.4,107.7 L484.3,109.2
		L486.2,110.8 L488.1,112.4 L490.1,114.1 L492.0,115.8 L493.9,117.6 L495.8,119.4 L497.7,121.2 L499.6,123.1
		L501.5,125.0 L503.4,127.0 L505.3,129.0 L507.2,131.1 L509.1,133.2 L511.0,135.3 L512.9,137.4 L514.8,139.6
		L516.7,141.9 L518.6,144.1 L520.5,146.4 L522.4,148.7 L524.3,151.1 L526.2,153.4 L528.1,155.8 L530.0,158.2
		L531.9,160.6 L533.8,163.1 L535.7,165.5 L537.6,167.9 L539.6,170.4 L541.5,172.8 L543.4,175.3 L545.3,177.8
		L547.2,180.2 L549.1,182.7 L551.0,185.2 L552.9,187.7 L554.8,190.2 L556.7,192.7 L558.6,195.2 L560.5,197.8
		L562.4,200.3 L564.3,202.9 L566.2,205.5 L568.1,208.1 L570.0,210.7 L571.9,213.3 L573.8,216.0 L575.7,218.6
		L577.6,221.3 L579.5,224.0 L581.4,226.7 L583.3,229.4 L585.2,232.1 L587.1,234.9 L589.1,237.6 L591.0,240.4
		L592.9,243.1 L594.8,245.9 L596.7,248.6 L598.6,251.4 L600.5,254.2 L602.4,257.0 L604.3,259.8 L606.2,262.5
		L608.1,265.3 L610.0,268.1 L611.9,270.9 L613.8,273.8 L615.7,276.6 L617.6,279.4 L619.5,282.3 L621.4,285.2
		L623.3,288.0 L625.2,290.9 L627.1,293.9 L629.0,296.8 L630.9,299.7 L632.8,302.7 L634.7,305.7 L636.6,308.6
		L638.5,311.6 L640.5,314.6 L642.4,317.6 L644.3,320.5 L646.2,323.5 L648.1,326.5 L650.0,329.4 L651.9,332.3
		L653.8,335.2 L655.7,338.1 L657.6,340.9 L659.5,343.7 L661.4,346.5 L663.3,349.3 L665.2,352.0 L667.1,354.7
		L669.0,357.4 L670.9,360.1 L672.8,362.8 L674.7,365.4 L676.6,368.0 L678.5,370.7 L680.4,373.3 L682.3,375.9
		L684.2,378.5 L686.1,381.1 L688.0,383.7 L690.0,386.4 L691.9,389.0 L693.8,391.6 L695.7,394.3 L697.6,396.9
		L699.5,399.6 L701.4,402.3 L703.3,405.0 L705.2,407.7 L707.1,410.4 L709.0,413.1 L710.9,415.9 L712.8,418.6
		L714.7,421.3 L716.6,424.0 L718.5,426.7 L720.4,429.4 L722.3,432.0 L724.2,434.7 L726.1,437.2 L728.0,439.8
		L729.9,442.3 L731.8,444.7 L733.7,447.1 L735.6,449.4 L737.5,451.7 L739.5,453.9 L741.4,456.1 L743.3,458.1
		L745.2,460.1 L747.1,462.1 L749.0,464.0 L750.9,465.9 L752.8,467.7 L754.7,469.4 L756.6,471.2 L758.5,472.8
		L760.4,474.5 L762.3,476.2 L764.2,477.8 L766.1,479.4 L768.0,481.0 L769.9,482.6 L771.8,484.2 L773.7,485.7
		L775.6,487.3 L777.5,488.9 L779.4,490.5 L781.3,492.1 L783.2,493.6 L785.1,495.2 L787.0,496.8 L789.0,498.4
		L790.9,500.0 L792.8,501.6 L794.7,503.2 L796.6,504.8 L798.5,506.5 L800.4,508.1 L802.3,509.8 L804.2,511.5
		L806.1,513.2 L808.0,514.9 L809.9,516.6 L811.8,518.3 L813.7,520.1 L815.6,521.8 L817.5,523.5 L819.4,525.3
		L821.3,527.0 L823.2,528.7 L825.1,530.4 L827.0,532.1 L828.9,533.7 L830.8,535.3 L832.7,536.9 L834.6,538.5
		L836.5,540.0 L838.4,541.6 L840.4,543.0 L842.3,544.5 L844.2,545.9 L846.1,547.3 L848.0,548.7 L849.9,550.1
		L851.8,551.5 L853.7,552.9 L855.6,554.2 L857.5,555.6 L859.4,556.9 L861.3,558.3 L863.2,559.7 L865.1,561.0
		L867.0,562.4 L868.9,563.8 L870.8,565.1 L872.7,566.5 L874.6,567.9 L876.5,569.3 L878.4,570.6 L880.3,572.0
		L882.2,573.3 L884.1,574.7 L886.0,576.0 L887.9,577.3 L889.9,578.6 L891.8,579.9 L893.7,581.2 L895.6,582.4
		L897.5,583.6 L899.4,584.8 L901.3,586.0 L903.2,587.2 L905.1,588.3 L907.0,589.4 L908.9,590.5 L910.8,591.6
		L912.7,592.7 L914.6,593.8 L916.5,594.8 L918.4,595.8 L920.3,596.9 L922.2,597.9 L924.1,598.9 L926.0,599.9
		L927.9,600.9 L929.8,601.9 L931.7,602.8 L933.6,603.8 L935.5,604.7 L937.4,605.7 L939.4,606.6 L941.3,607.5
		L943.2,608.4 L945.1,609.2 L947.0,610.1 L948.9,610.9 L950.8,611.6 L952.7,612.4 L954.6,613.1 L956.5,613.9
		L958.4,614.5 L960.3,615.2 L962.2,615.9 L964.1,616.5 L966.0,617.1 L967.9,617.7 L969.8,618.3 L971.7,618.8
		L973.6,619.4 L975.5,620.0 L977.4,620.5 L979.3,621.1 L981.2,621.6 L983.1,622.1 L985.0,622.7 L986.9,623.2
		L988.9,623.7 L990.8,624.3 L992.7,624.8 L994.6,625.3 L996.5,625.9 L998.4,626.4 L1000.3,626.9 L1002.2,627.5
		L1004.1,628.0 L1006.0,628.5 L1007.9,629.0 L1009.8,629.6 L1011.7,630.1 L1013.6,630.6  '/></g>
	</g>
	<g id="gnuplot_plot_2" ><title>Confidence interval</title>
<g fill="none" color="white" stroke="rgb( 31, 120, 180)" stroke-width="1.00" stroke-linecap="butt" stroke-linejoin="miter">
</g>
<g fill="none" color="black" stroke="currentColor" stroke-width="1.00" stroke-linecap="butt" stroke-linejoin="miter">
	<g transform="translate(1089.0,85.0)" stroke="none" fill="black" font-family="Helvetica" font-size="12.00"  text-anchor="start">
		<text><tspan font-family="Helvetica" >Confidence interval</tspan></text>
	</g>
</g>
<g fill="none" color="black" stroke="currentColor" stroke-width="1.00" stroke-linecap="butt" stroke-linejoin="miter">
	<g stroke='none' shape-rendering='crispEdges'>
		<polygon fill = 'rgb( 31, 120, 180)' fill-opacity = '0.250000' points = '1038.5,85.6 1080.7,85.6 1080.7,76.6 1038.5,76.6 '/>
		<polygon fill = 'rgb( 31, 120, 180)' fill-opacity = '0.250000' points = '151.2,467.6 153.1,463.1 155.0,458.8 156.9,454.5 158.8,450.4 160.7,446.3 162.6,442.4 164.5,438.6 166.4,434.9 168.3,431.2 170.2,427.7 172.1,424.3 174.0,421.0 175.9,417.8 177.8,414.6 179.7,411.5
181.6,408.5 183.5,405.6 185.4,402.6 187.3,399.7 189.3,396.8 191.2,394.0 193.1,391.1 195.0,388.1 196.9,385.2 198.8,382.1 200.7,379.0 202.6,375.9 204.5,372.6 206.4,369.3 208.3,365.8 210.2,362.3
212.1,358.6 214.0,354.9 215.9,351.0 217.8,347.1 219.7,343.0 221.6,338.9 223.5,334.7 225.4,330.4 227.3,326.0 229.2,321.6 231.1,317.1 233.0,312.6 234.9,308.0 236.8,303.4 238.8,298.8 240.7,294.1
242.6,289.4 244.5,284.6 246.4,279.8 248.3,275.0 250.2,270.2 252.1,265.3 254.0,260.5 255.9,255.6 257.8,250.7 259.7,245.8 261.6,240.8 263.5,235.9 265.4,231.0 267.3,226.2 269.2,221.3 271.1,216.5
273.0,211.8 274.9,207.1 276.8,202.5 278.7,198.0 280.6,193.6 282.5,189.3 284.4,185.1 286.3,181.0 288.2,177.0 290.2,173.1 292.1,169.4 294.0,165.8 295.9,162.3 297.8,158.9 299.7,155.6 301.6,152.4
303.5,149.4 305.4,146.4 307.3,143.6 309.2,140.8 311.1,138.2 313.0,135.6 314.9,133.2 316.8,130.8 318.7,128.5 320.6,126.3 322.5,124.2 324.4,122.1 326.3,120.1 328.2,118.2 330.1,116.4 332.0,114.6
333.9,112.9 335.8,111.2 337.7,109.6 339.7,108.0 341.6,106.5 343.5,105.0 345.4,103.6 347.3,102.2 349.2,100.8 351.1,99.5 353.0,98.2 354.9,96.9 356.8,95.7 358.7,94.6 360.6,93.5 362.5,92.4
364.4,91.5 366.3,90.5 368.2,89.7 370.1,89.0 372.0,88.3 373.9,87.7 375.8,87.3 377.7,86.9 379.6,86.6 381.5,86.4 383.4,86.3 385.3,86.3 387.2,86.4 389.2,86.5 391.1,86.8 393.0,87.0
394.9,87.4 396.8,87.7 398.7,88.1 400.6,88.5 402.5,88.9 404.4,89.3 406.3,89.7 408.2,90.1 410.1,90.4 412.0,90.7 413.9,91.0 415.8,91.2 417.7,91.4 419.6,91.5 421.5,91.6 423.4,91.7
425.3,91.7 427.2,91.7 429.1,91.7 431.0,91.6 432.9,91.6 434.8,91.5 436.7,91.5 438.7,91.5 440.6,91.5 442.5,91.5 444.4,91.6 446.3,91.7 448.2,91.9 450.1,92.1 452.0,92.4 453.9,92.8
455.8,93.3 457.7,93.8 459.6,94.4 461.5,95.1 463.4,95.9 465.3,96.7 467.2,97.7 469.1,98.7 471.0,99.8 472.9,100.9 474.8,102.2 476.7,103.4 478.6,104.8 480.5,106.2 482.4,107.7 484.3,109.2
486.2,110.8 488.1,112.4 490.1,114.1 492.0,115.8 493.9,117.6 495.8,119.4 497.7,121.2 499.6,123.1 501.5,125.0 503.4,127.0 505.3,129.0 507.2,131.1 509.1,133.2 511.0,135.3 512.9,137.4 514.8,139.6
516.7,141.9 518.6,144.1 520.5,146.4 522.4,148.7 524.3,151.1 526.2,153.4 528.1,155.8 530.0,158.2 531.9,160.6 533.8,163.1 535.7,165.5 537.6,167.9 539.6,170.4 541.5,172.8 543.4,175.3 545.3,177.8
547.2,180.2 549.1,182.7 551.0,185.2 552.9,187.7 554.8,190.2 556.7,192.7 558.6,195.2 560.5,197.8 562.4,200.3 564.3,202.9 566.2,205.5 568.1,208.1 570.0,210.7 571.9,213.3 573.8,216.0 575.7,218.6
577.6,221.3 579.5,224.0 581.4,226.7 583.3,229.4 585.2,232.1 587.1,234.9 589.1,237.6 591.0,240.4 592.9,243.1 594.8,245.9 596.7,248.6 598.6,251.4 600.5,254.2 602.4,257.0 604.3,259.8 606.2,262.5
608.1,265.3 610.0,268.1 611.9,270.9 613.8,273.8 615.7,276.6 617.6,279.4 619.5,282.3 621.4,285.2 623.3,288.0 625.2,290.9 627.1,293.9 629.0,296.8 630.9,299.7 632.8,302.7 634.7,305.7 636.6,308.6
638.5,311.6 640.5,314.6 642.4,317.6 644.3,320.5 646.2,323.5 648.1,326.5 650.0,329.4 651.9,332.3 653.8,335.2 655.7,338.1 657.6,340.9 659.5,343.7 661.4,346.5 663.3,349.3 665.2,352.0 667.1,354.7
669.0,357.4 670.9,360.1 672.8,362.8 674.7,365.4 676.6,368.0 678.5,370.7 680.4,373.3 682.3,375.9 684.2,378.5 686.1,381.1 688.0,383.7 690.0,386.4 691.9,389.0 693.8,391.6 695.7,394.3 697.6,396.9
699.5,399.6 701.4,402.3 703.3,405.0 705.2,407.7 707.1,410.4 709.0,413.1 710.9,415.9 712.8,418.6 714.7,421.3 716.6,424.0 718.5,426.7 720.4,429.4 722.3,432.0 724.2,434.7 726.1,437.2 728.0,439.8
729.9,442.3 731.8,444.7 733.7,447.1 735.6,449.4 737.5,451.7 739.5,453.9 741.4,456.1 743.3,458.1 745.2,460.1 747.1,462.1 749.0,464.0 750.9,465.9 752.8,467.7 754.7,469.4 756.6,471.2 758.5,472.8
760.4,474.5 762.3,476.2 764.2,477.8 766.1,479.4 768.0,481.0 769.9,482.6 771.8,484.2 773.7,485.7 775.6,487.3 777.5,488.9 779.4,490.5 781.3,492.1 783.2,493.6 785.1,495.2 787.0,496.8 789.0,498.4
790.9,500.0 792.8,501.6 794.7,503.2 796.6,504.8 798.5,506.5 800.4,508.1 802.3,509.8 804.2,511.5 806.1,513.2 808.0,514.9 809.9,516.6 811.8,518.3 813.7,520.1 815.6,521.8 817.5,523.5 819.4,525.3
821.3,527.0 823.2,528.7 825.1,530.4 827.0,532.1 828.9,533.7 830.8,535.3 832.7,536.9 834.6,538.5 836.5,540.0 838.4,541.6 840.4,543.0 842.3,544.5 844.2,545.9 846.1,547.3 848.0,548.7 849.9,550.1
851.8,551.5 853.7,552.9 855.6,554.2 857.5,555.6 859.4,556.9 861.3,558.3 863.2,559.7 865.1,561.0 867.0,562.4 868.9,563.8 870.8,565.1 872.7,566.5 874.6,567.9 876.5,569.3 878.4,570.6 880.3,572.0
882.2,573.3 884.1,574.7 886.0,576.0 887.9,577.3 889.9,578.6 891.8,579.9 893.7,581.2 895.6,582.4 897.5,583.6 899.4,584.8 901.3,586.0 903.2,587.2 905.1,588.3 907.0,589.4 908.9,590.5 910.8,591.6
912.7,592.7 914.6,593.8 916.5,594.8 918.4,595.8 920.3,596.9 922.2,597.9 924.1,598.9 924.1,662.4 922.2,662.4 920.3,662.4 918.4,662.4 916.5,662.4 914.6,662.4 912.7,662.4 910.8,662.4 908.9,662.4
907.0,662.4 905.1,662.4 903.2,662.4 901.3,662.4 899.4,662.4 897.5,662.4 895.6,662.4 893.7,662.4 891.8,662.4 889.9,662.4 887.9,662.4 886.0,662.4 884.1,662.4 882.2,662.4 880.3,662.4 878.4,662.4
876.5,662.4 874.6,662.4 872.7,662.4 870.8,662.4 868.9,662.4 867.0,662.4 865.1,662.4 863.2,662.4 861.3,662.4 859.4,662.4 857.5,662.4 855.6,662.4 853.7,662.4 851.8,662.4 849.9,662.4 848.0,662.4
846.1,662.4 844.2,662.4 842.3,662.4 840.4,662.4 838.4,662.4 836.5,662.4 834.6,662.4 832.7,662.4 830.8,662.4 828.9,662.4 827.0,662.4 825.1,662.4 823.2,662.4 821.3,662.4 819.4,662.4 817.5,662.4
815.6,662.4 813.7,662.4 811.8,662.4 809.9,662.4 808.0,662.4 806.1,662.4 804.2,662.4 802.3,662.4 800.4,662.4 798.5,662.4 796.6,662.4 794.7,662.4 792.8,662.4 790.9,662.4 789.0,662.4 787.0,662.4
785.1,662.4 783.2,662.4 781.3,662.4 779.4,662.4 777.5,662.4 775.6,662.4 773.7,662.4 771.8,662.4 769.9,662.4 768.0,662.4 766.1,662.4 764.2,662.4 762.3,662.4 760.4,662.4 758.5,662.4 756.6,662.4
754.7,662.4 752.8,662.4 750.9,662.4 749.0,662.4 747.1,662.4 745.2,662.4 743.3,662.4 741.4,662.4 739.5,662.4 737.5,662.4 735.6,662.4 733.7,662.4 731.8,662.4 729.9,662.4 728.0,662.4 726.1,662.4
724.2,662.4 722.3,662.4 720.4,662.4 718.5,662.4 716.6,662.4 714.7,662.4 712.8,662.4 710.9,662.4 709.0,662.4 707.1,662.4 705.2,662.4 703.3,662.4 701.4,662.4 699.5,662.4 697.6,662.4 695.7,662.4
693.8,662.4 691.9,662.4 690.0,662.4 688.0,662.4 686.1,662.4 684.2,662.4 682.3,662.4 680.4,662.4 678.5,662.4 676.6,662.4 674.7,662.4 672.8,662.4 670.9,662.4 669.0,662.4 667.1,662.4 665.2,662.4
663.3,662.4 661.4,662.4 659.5,662.4 657.6,662.4 655.7,662.4 653.8,662.4 651.9,662.4 650.0,662.4 648.1,662.4 646.2,662.4 644.3,662.4 642.4,662.4 640.5,662.4 638.5,662.4 636.6,662.4 634.7,662.4
632.8,662.4 630.9,662.4 629.0,662.4 627.1,662.4 625.2,662.4 623.3,662.4 621.4,662.4 619.5,662.4 617.6,662.4 615.7,662.4 613.8,662.4 611.9,662.4 610.0,662.4 608.1,662.4 606.2,662.4 604.3,662.4
602.4,662.4 600.5,662.4 598.6,662.4 596.7,662.4 594.8,662.4 592.9,662.4 591.0,662.4 589.1,662.4 587.1,662.4 585.2,662.4 583.3,662.4 581.4,662.4 579.5,662.4 577.6,662.4 575.7,662.4 573.8,662.4
571.9,662.4 570.0,662.4 568.1,662.4 566.2,662.4 564.3,662.4 562.4,662.4 560.5,662.4 558.6,662.4 556.7,662.4 554.8,662.4 552.9,662.4 551.0,662.4 549.1,662.4 547.2,662.4 545.3,662.4 543.4,662.4
541.5,662.4 539.6,662.4 537.6,662.4 535.7,662.4 533.8,662.4 531.9,662.4 530.0,662.4 528.1,662.4 526.2,662.4 524.3,662.4 522.4,662.4 520.5,662.4 518.6,662.4 516.7,662.4 514.8,662.4 512.9,662.4
511.0,662.4 509.1,662.4 507.2,662.4 505.3,662.4 503.4,662.4 501.5,662.4 499.6,662.4 497.7,662.4 495.8,662.4 493.9,662.4 492.0,662.4 490.1,662.4 488.1,662.4 486.2,662.4 484.3,662.4 482.4,662.4
480.5,662.4 478.6,662.4 476.7,662.4 474.8,662.4 472.9,662.4 471.0,662.4 469.1,662.4 467.2,662.4 465.3,662.4 463.4,662.4 461.5,662.4 459.6,662.4 457.7,662.4 455.8,662.4 453.9,662.4 452.0,662.4
450.1,662.4 448.2,662.4 446.3,662.4 444.4,662.4 442.5,662.4 440.6,662.4 438.7,662.4 436.7,662.4 434.8,662.4 432.9,662.4 431.0,662.4 429.1,662.4 427.2,662.4 425.3,662.4 423.4,662.4 421.5,662.4
419.6,662.4 417.7,662.4 415.8,662.4 413.9,662.4 412.0,662.4 410.1,662.4 408.2,662.4 406.3,662.4 404.4,662.4 402.5,662.4 400.6,662.4 398.7,662.4 396.8,662.4 394.9,662.4 393.0,662.4 391.1,662.4
389.2,662.4 387.2,662.4 385.3,662.4 383.4,662.4 381.5,662.4 379.6,662.4 377.7,662.4 375.8,662.4 373.9,662.4 372.0,662.4 370.1,662.4 368.2,662.4 366.3,662.4 364.4,662.4 362.5,662.4 360.6,662.4
358.7,662.4 356.8,662.4 354.9,662.4 353.0,662.4 351.1,662.4 349.2,662.4 347.3,662.4 345.4,662.4 343.5,662.4 341.6,662.4 339.7,662.4 337.7,662.4 335.8,662.4 333.9,662.4 332.0,662.4 330.1,662.4
328.2,662.4 326.3,662.4 324.4,662.4 322.5,662.4 320.6,662.4 318.7,662.4 316.8,662.4 314.9,662.4 313.0,662.4 311.1,662.4 309.2,662.4 307.3,662.4 305.4,662.4 303.5,662.4 301.6,662.4 299.7,662.4
297.8,662.4 295.9,662.4 294.0,662.4 292.1,662.4 290.2,662.4 288.2,662.4 286.3,662.4 284.4,662.4 282.5,662.4 280.6,662.4 278.7,662.4 276.8,662.4 274.9,662.4 273.0,662.4 271.1,662.4 269.2,662.4
267.3,662.4 265.4,662.4 263.5,662.4 261.6,662.4 259.7,662.4 257.8,662.4 255.9,662.4 254.0,662.4 252.1,662.4 250.2,662.4 248.3,662.4 246.4,662.4 244.5,662.4 242.6,662.4 240.7,662.4 238.8,662.4
236.8,662.4 234.9,662.4 233.0,662.4 231.1,662.4 229.2,662.4 227.3,662.4 225.4,662.4 223.5,662.4 221.6,662.4 219.7,662.4 217.8,662.4 215.9,662.4 214.0,662.4 212.1,662.4 210.2,662.4 208.3,662.4
206.4,662.4 204.5,662.4 202.6,662.4 200.7,662.4 198.8,662.4 196.9,662.4 195.0,662.4 193.1,662.4 191.2,662.4 189.3,662.4 187.3,662.4 185.4,662.4 183.5,662.4 181.6,662.4 179.7,662.4 177.8,662.4
175.9,662.4 174.0,662.4 172.1,662.4 170.2,662.4 168.3,662.4 166.4,662.4 164.5,662.4 162.6,662.4 160.7,662.4 158.8,662.4 156.9,662.4 155.0,662.4 153.1,662.4 151.2,662.4 '/>
	</g>
</g>
	</g>
	<g id="gnuplot_plot_3" ><title>Point estimate</title>
<g fill="none" color="white" stroke="rgb( 31, 120, 180)" stroke-width="2.00" stroke-linecap="butt" stroke-linejoin="miter">
</g>
<g fill="none" color="black" stroke="currentColor" stroke-width="2.00" stroke-linecap="butt" stroke-linejoin="miter">
	<g transform="translate(1089.0,103.0)" stroke="none" fill="black" font-family="Helvetica" font-size="12.00"  text-anchor="start">
		<text><tspan font-family="Helvetica" >Point estimate</tspan></text>
	</g>
</g>
<g fill="none" color="black" stroke="currentColor" stroke-width="2.00" stroke-linecap="butt" stroke-linejoin="miter">
	<path stroke='rgb( 31, 120, 180)'  d='M1038.5,99.1 L1080.7,99.1 M477.8,662.4 L477.8,104.2  '/></g>
	</g>
<g fill="none" color="black" stroke="currentColor" stroke-width="2.00" stroke-linecap="butt" stroke-linejoin="miter">
</g>
<g fill="none" color="black" stroke="black" stroke-width="1.00" stroke-linecap="butt" stroke-linejoin="miter">
</g>
<g fill="none" color="black" stroke="currentColor" stroke-width="1.00" stroke-linecap="butt" stroke-linejoin="miter">
	<path stroke='black'  d='M63.6,54.1 L63.6,662.4 L1013.6,662.4 L1013.6,54.1 L63.6,54.1 Z  '/></g>
<g fill="none" color="black" stroke="currentColor" stroke-width="1.00" stroke-linecap="butt" stroke-linejoin="miter">
</g>
</g>
</svg>

