<?xml version="1.0" encoding="utf-8"  standalone="no"?>
<svg 
 viewBox="0 0 450 300"
 xmlns="http://www.w3.org/2000/svg"
 xmlns:xlink="http://www.w3.org/1999/xlink"
>

<title>Gnuplot</title>
<desc>Produced by GNUPLOT 5.2 patchlevel 6 </desc>

<g id="gnuplot_canvas">

<rect x="0" y="0" width="450" height="300" fill="none"/>
<defs>

	<circle id='gpDot' r='0.5' stroke-width='0.5' stroke='currentColor'/>
	<path id='gpPt0' stroke-width='0.222' stroke='currentColor' d='M-1,0 h2 M0,-1 v2'/>
	<path id='gpPt1' stroke-width='0.222' stroke='currentColor' d='M-1,-1 L1,1 M1,-1 L-1,1'/>
	<path id='gpPt2' stroke-width='0.222' stroke='currentColor' d='M-1,0 L1,0 M0,-1 L0,1 M-1,-1 L1,1 M-1,1 L1,-1'/>
	<rect id='gpPt3' stroke-width='0.222' stroke='currentColor' x='-1' y='-1' width='2' height='2'/>
	<rect id='gpPt4' stroke-width='0.222' stroke='currentColor' fill='currentColor' x='-1' y='-1' width='2' height='2'/>
	<circle id='gpPt5' stroke-width='0.222' stroke='currentColor' cx='0' cy='0' r='1'/>
	<use xlink:href='#gpPt5' id='gpPt6' fill='currentColor' stroke='none'/>
	<path id='gpPt7' stroke-width='0.222' stroke='currentColor' d='M0,-1.33 L-1.33,0.67 L1.33,0.67 z'/>
	<use xlink:href='#gpPt7' id='gpPt8' fill='currentColor' stroke='none'/>
	<use xlink:href='#gpPt7' id='gpPt9' stroke='currentColor' transform='rotate(180)'/>
	<use xlink:href='#gpPt9' id='gpPt10' fill='currentColor' stroke='none'/>
	<use xlink:href='#gpPt3' id='gpPt11' stroke='currentColor' transform='rotate(45)'/>
	<use xlink:href='#gpPt11' id='gpPt12' fill='currentColor' stroke='none'/>
	<path id='gpPt13' stroke-width='0.222' stroke='currentColor' d='M0,1.330 L1.265,0.411 L0.782,-1.067 L-0.782,-1.076 L-1.265,0.411 z'/>
	<use xlink:href='#gpPt13' id='gpPt14' fill='currentColor' stroke='none'/>
	<filter id='textbox' filterUnits='objectBoundingBox' x='0' y='0' height='1' width='1'>
	  <feFlood flood-color='white' flood-opacity='1' result='bgnd'/>
	  <feComposite in='SourceGraphic' in2='bgnd' operator='atop'/>
	</filter>
	<filter id='greybox' filterUnits='objectBoundingBox' x='0' y='0' height='1' width='1'>
	  <feFlood flood-color='lightgrey' flood-opacity='1' result='grey'/>
	  <feComposite in='SourceGraphic' in2='grey' operator='atop'/>
	</filter>
</defs>
<g fill="none" color="white" stroke="currentColor" stroke-width="1.00" stroke-linecap="butt" stroke-linejoin="miter">
</g>
<g fill="none" color="black" stroke="currentColor" stroke-width="1.00" stroke-linecap="butt" stroke-linejoin="miter">
	<path stroke='black'  d='M71.9,242.4 L80.9,242.4  '/>	<g transform="translate(63.6,246.3)" stroke="none" fill="black" font-family="Helvetica" font-size="12.00"  text-anchor="end">
		<text><tspan font-family="Helvetica" > 0</tspan></text>
	</g>
</g>
<g fill="none" color="black" stroke="currentColor" stroke-width="1.00" stroke-linecap="butt" stroke-linejoin="miter">
	<path stroke='black'  d='M71.9,207.1 L80.9,207.1  '/>	<g transform="translate(63.6,211.0)" stroke="none" fill="black" font-family="Helvetica" font-size="12.00"  text-anchor="end">
		<text><tspan font-family="Helvetica" > 0.5</tspan></text>
	</g>
</g>
<g fill="none" color="black" stroke="currentColor" stroke-width="1.00" stroke-linecap="butt" stroke-linejoin="miter">
	<path stroke='black'  d='M71.9,171.8 L80.9,171.8  '/>	<g transform="translate(63.6,175.7)" stroke="none" fill="black" font-family="Helvetica" font-size="12.00"  text-anchor="end">
		<text><tspan font-family="Helvetica" > 1</tspan></text>
	</g>
</g>
<g fill="none" color="black" stroke="currentColor" stroke-width="1.00" stroke-linecap="butt" stroke-linejoin="miter">
	<path stroke='black'  d='M71.9,136.5 L80.9,136.5  '/>	<g transform="translate(63.6,140.4)" stroke="none" fill="black" font-family="Helvetica" font-size="12.00"  text-anchor="end">
		<text><tspan font-family="Helvetica" > 1.5</tspan></text>
	</g>
</g>
<g fill="none" color="black" stroke="currentColor" stroke-width="1.00" stroke-linecap="butt" stroke-linejoin="miter">
	<path stroke='black'  d='M71.9,101.2 L80.9,101.2  '/>	<g transform="translate(63.6,105.1)" stroke="none" fill="black" font-family="Helvetica" font-size="12.00"  text-anchor="end">
		<text><tspan font-family="Helvetica" > 2</tspan></text>
	</g>
</g>
<g fill="none" color="black" stroke="currentColor" stroke-width="1.00" stroke-linecap="butt" stroke-linejoin="miter">
	<path stroke='black'  d='M71.9,65.9 L80.9,65.9  '/>	<g transform="translate(63.6,69.8)" stroke="none" fill="black" font-family="Helvetica" font-size="12.00"  text-anchor="end">
		<text><tspan font-family="Helvetica" > 2.5</tspan></text>
	</g>
</g>
<g fill="none" color="black" stroke="currentColor" stroke-width="1.00" stroke-linecap="butt" stroke-linejoin="miter">
	<path stroke='black'  d='M71.9,30.6 L80.9,30.6  '/>	<g transform="translate(63.6,34.5)" stroke="none" fill="black" font-family="Helvetica" font-size="12.00"  text-anchor="end">
		<text><tspan font-family="Helvetica" > 3</tspan></text>
	</g>
</g>
<g fill="none" color="black" stroke="currentColor" stroke-width="1.00" stroke-linecap="butt" stroke-linejoin="miter">
	<path stroke='black'  d='M71.9,242.4 L71.9,233.4  '/>	<g transform="translate(71.9,264.3)" stroke="none" fill="black" font-family="Helvetica" font-size="12.00"  text-anchor="middle">
		<text><tspan font-family="Helvetica" > 4.5</tspan></text>
	</g>
</g>
<g fill="none" color="black" stroke="currentColor" stroke-width="1.00" stroke-linecap="butt" stroke-linejoin="miter">
	<path stroke='black'  d='M126.1,242.4 L126.1,233.4  '/>	<g transform="translate(126.1,264.3)" stroke="none" fill="black" font-family="Helvetica" font-size="12.00"  text-anchor="middle">
		<text><tspan font-family="Helvetica" > 5</tspan></text>
	</g>
</g>
<g fill="none" color="black" stroke="currentColor" stroke-width="1.00" stroke-linecap="butt" stroke-linejoin="miter">
	<path stroke='black'  d='M180.4,242.4 L180.4,233.4  '/>	<g transform="translate(180.4,264.3)" stroke="none" fill="black" font-family="Helvetica" font-size="12.00"  text-anchor="middle">
		<text><tspan font-family="Helvetica" > 5.5</tspan></text>
	</g>
</g>
<g fill="none" color="black" stroke="currentColor" stroke-width="1.00" stroke-linecap="butt" stroke-linejoin="miter">
	<path stroke='black'  d='M234.6,242.4 L234.6,233.4  '/>	<g transform="translate(234.6,264.3)" stroke="none" fill="black" font-family="Helvetica" font-size="12.00"  text-anchor="middle">
		<text><tspan font-family="Helvetica" > 6</tspan></text>
	</g>
</g>
<g fill="none" color="black" stroke="currentColor" stroke-width="1.00" stroke-linecap="butt" stroke-linejoin="miter">
	<path stroke='black'  d='M288.9,242.4 L288.9,233.4  '/>	<g transform="translate(288.9,264.3)" stroke="none" fill="black" font-family="Helvetica" font-size="12.00"  text-anchor="middle">
		<text><tspan font-family="Helvetica" > 6.5</tspan></text>
	</g>
</g>
<g fill="none" color="black" stroke="currentColor" stroke-width="1.00" stroke-linecap="butt" stroke-linejoin="miter">
	<path stroke='black'  d='M343.1,242.4 L343.1,233.4  '/>	<g transform="translate(343.1,264.3)" stroke="none" fill="black" font-family="Helvetica" font-size="12.00"  text-anchor="middle">
		<text><tspan font-family="Helvetica" > 7</tspan></text>
	</g>
</g>
<g fill="none" color="black" stroke="currentColor" stroke-width="1.00" stroke-linecap="butt" stroke-linejoin="miter">
	<path stroke='black'  d='M397.4,242.4 L397.4,233.4  '/>	<g transform="translate(397.4,264.3)" stroke="none" fill="black" font-family="Helvetica" font-size="12.00"  text-anchor="middle">
		<text><tspan font-family="Helvetica" > 7.5</tspan></text>
	</g>
</g>
<g fill="none" color="black" stroke="currentColor" stroke-width="1.00" stroke-linecap="butt" stroke-linejoin="miter">
</g>
<g fill="none" color="black" stroke="currentColor" stroke-width="1.00" stroke-linecap="butt" stroke-linejoin="miter">
	<path stroke='black'  d='M71.9,18.1 L71.9,242.4 L425.0,242.4 L425.0,18.1 L71.9,18.1 Z  '/></g>
<g fill="none" color="black" stroke="currentColor" stroke-width="1.00" stroke-linecap="butt" stroke-linejoin="miter">
	<g transform="translate(16.3,130.3) rotate(270)" stroke="none" fill="black" font-family="Helvetica" font-size="12.00"  text-anchor="middle">
		<text><tspan font-family="Helvetica" >Density (a.u.)</tspan></text>
	</g>
</g>
<g fill="none" color="black" stroke="currentColor" stroke-width="1.00" stroke-linecap="butt" stroke-linejoin="miter">
	<g transform="translate(248.4,291.3)" stroke="none" fill="black" font-family="Helvetica" font-size="12.00"  text-anchor="middle">
		<text><tspan font-family="Helvetica" >Average time (us)</tspan></text>
	</g>
</g>
<g fill="none" color="black" stroke="currentColor" stroke-width="1.00" stroke-linecap="butt" stroke-linejoin="miter">
</g>
	<g id="gnuplot_plot_1" ><title>PDF</title>
<g fill="none" color="black" stroke="currentColor" stroke-width="1.00" stroke-linecap="butt" stroke-linejoin="miter">
	<g stroke='none' shape-rendering='crispEdges'>
		<polygon fill = 'rgb( 31, 120, 180)' fill-opacity = '0.250000' points = '71.9,241.1 72.6,240.8 73.3,240.6 74.0,240.3 74.7,239.9 75.4,239.5 76.1,239.1 76.9,238.5 77.6,238.0 78.3,237.3 79.0,236.5 79.7,235.7 80.4,234.7 81.1,233.7 81.8,232.5 82.5,231.2
83.2,229.7 83.9,228.1 84.6,226.3 85.3,224.3 86.1,222.2 86.8,219.8 87.5,217.3 88.2,214.5 88.9,211.6 89.6,208.3 90.3,204.9 91.0,201.2 91.7,197.2 92.4,193.0 93.1,188.6 93.8,183.8
94.5,178.9 95.3,173.7 96.0,168.2 96.7,162.6 97.4,156.7 98.1,150.6 98.8,144.3 99.5,137.9 100.2,131.3 100.9,124.6 101.6,117.9 102.3,111.0 103.0,104.2 103.7,97.4 104.5,90.6 105.2,83.9
105.9,77.3 106.6,70.9 107.3,64.7 108.0,58.7 108.7,53.1 109.4,47.7 110.1,42.7 110.8,38.0 111.5,33.8 112.2,30.1 112.9,26.8 113.6,24.0 114.4,21.7 115.1,20.0 115.8,18.8 116.5,18.2
117.2,18.1 117.9,18.6 118.6,19.6 119.3,21.2 120.0,23.3 120.7,25.9 121.4,29.1 122.1,32.7 122.8,36.7 123.6,41.1 124.3,46.0 125.0,51.1 125.7,56.6 126.4,62.4 127.1,68.4 127.8,74.6
128.5,81.0 129.2,87.4 129.9,94.0 130.6,100.6 131.3,107.2 132.0,113.9 132.8,120.4 133.5,126.9 134.2,133.3 134.9,139.5 135.6,145.6 136.3,151.5 137.0,157.2 137.7,162.7 138.4,168.0 139.1,173.0
139.8,177.9 140.5,182.5 141.2,186.8 142.0,190.9 142.7,194.8 143.4,198.4 144.1,201.8 144.8,205.0 145.5,207.9 146.2,210.7 146.9,213.2 147.6,215.5 148.3,217.7 149.0,219.6 149.7,221.4 150.4,223.1
151.2,224.6 151.9,225.9 152.6,227.2 153.3,228.3 154.0,229.3 154.7,230.2 155.4,231.0 156.1,231.7 156.8,232.4 157.5,233.0 158.2,233.5 158.9,234.0 159.6,234.5 160.4,234.8 161.1,235.2 161.8,235.5
162.5,235.8 163.2,236.0 163.9,236.3 164.6,236.5 165.3,236.7 166.0,236.9 166.7,237.0 167.4,237.2 168.1,237.3 168.8,237.4 169.6,237.5 170.3,237.7 171.0,237.8 171.7,237.9 172.4,237.9 173.1,238.0
173.8,238.1 174.5,238.2 175.2,238.2 175.9,238.3 176.6,238.4 177.3,238.4 178.0,238.5 178.7,238.5 179.5,238.6 180.2,238.6 180.9,238.7 181.6,238.7 182.3,238.8 183.0,238.8 183.7,238.9 184.4,238.9
185.1,239.0 185.8,239.0 186.5,239.0 187.2,239.1 187.9,239.1 188.7,239.2 189.4,239.2 190.1,239.3 190.8,239.4 191.5,239.4 192.2,239.5 192.9,239.5 193.6,239.6 194.3,239.7 195.0,239.7 195.7,239.8
196.4,239.9 197.1,240.0 197.9,240.0 198.6,240.1 199.3,240.2 200.0,240.3 200.7,240.4 201.4,240.5 202.1,240.6 202.8,240.6 203.5,240.7 204.2,240.8 204.9,240.9 205.6,241.0 206.3,241.1 207.1,241.1
207.8,241.2 208.5,241.3 209.2,241.4 209.9,241.4 210.6,241.5 211.3,241.6 212.0,241.6 212.7,241.7 213.4,241.7 214.1,241.8 214.8,241.9 215.5,241.9 216.3,241.9 217.0,242.0 217.7,242.0 218.4,242.1
219.1,242.1 219.8,242.1 220.5,242.2 221.2,242.2 221.9,242.2 222.6,242.2 223.3,242.2 224.0,242.3 224.7,242.3 225.5,242.3 226.2,242.3 226.9,242.3 227.6,242.3 228.3,242.3 229.0,242.3 229.7,242.4
230.4,242.4 231.1,242.4 231.8,242.4 232.5,242.4 233.2,242.4 233.9,242.4 234.7,242.4 235.4,242.4 236.1,242.4 236.8,242.4 237.5,242.4 238.2,242.4 238.9,242.4 239.6,242.4 240.3,242.4 241.0,242.4
241.7,242.4 242.4,242.4 243.1,242.4 243.9,242.4 244.6,242.4 245.3,242.4 246.0,242.4 246.7,242.4 247.4,242.4 248.1,242.4 248.8,242.4 249.5,242.4 250.2,242.3 250.9,242.3 251.6,242.3 252.3,242.3
253.0,242.3 253.8,242.3 254.5,242.3 255.2,242.3 255.9,242.3 256.6,242.2 257.3,242.2 258.0,242.2 258.7,242.2 259.4,242.1 260.1,242.1 260.8,242.1 261.5,242.0 262.2,242.0 263.0,242.0 263.7,241.9
264.4,241.9 265.1,241.8 265.8,241.8 266.5,241.7 267.2,241.7 267.9,241.6 268.6,241.6 269.3,241.5 270.0,241.4 270.7,241.4 271.4,241.3 272.2,241.2 272.9,241.1 273.6,241.1 274.3,241.0 275.0,240.9
275.7,240.8 276.4,240.8 277.1,240.7 277.8,240.6 278.5,240.6 279.2,240.5 279.9,240.4 280.6,240.4 281.4,240.3 282.1,240.2 282.8,240.2 283.5,240.1 284.2,240.1 284.9,240.1 285.6,240.0 286.3,240.0
287.0,240.0 287.7,240.0 288.4,240.0 289.1,240.0 289.8,240.0 290.6,240.0 291.3,240.0 292.0,240.0 292.7,240.1 293.4,240.1 294.1,240.1 294.8,240.2 295.5,240.2 296.2,240.3 296.9,240.4 297.6,240.4
298.3,240.5 299.0,240.6 299.8,240.6 300.5,240.7 301.2,240.8 301.9,240.8 302.6,240.9 303.3,241.0 304.0,241.1 304.7,241.1 305.4,241.2 306.1,241.3 306.8,241.4 307.5,241.4 308.2,241.5 309.0,241.6
309.7,241.6 310.4,241.7 311.1,241.7 311.8,241.8 312.5,241.8 313.2,241.9 313.9,241.9 314.6,242.0 315.3,242.0 316.0,242.0 316.7,242.1 317.4,242.1 318.2,242.1 318.9,242.2 319.6,242.2 320.3,242.2
321.0,242.2 321.7,242.3 322.4,242.3 323.1,242.3 323.8,242.3 324.5,242.3 325.2,242.3 325.9,242.3 326.6,242.3 327.3,242.3 328.1,242.4 328.8,242.4 329.5,242.4 330.2,242.4 330.9,242.4 331.6,242.4
332.3,242.4 333.0,242.4 333.7,242.4 334.4,242.4 335.1,242.4 335.8,242.4 336.5,242.4 337.3,242.4 338.0,242.4 338.7,242.4 339.4,242.4 340.1,242.4 340.8,242.4 341.5,242.4 342.2,242.4 342.9,242.4
343.6,242.4 344.3,242.4 345.0,242.3 345.7,242.3 346.5,242.3 347.2,242.3 347.9,242.3 348.6,242.3 349.3,242.3 350.0,242.3 350.7,242.2 351.4,242.2 352.1,242.2 352.8,242.2 353.5,242.2 354.2,242.1
354.9,242.1 355.7,242.1 356.4,242.0 357.1,242.0 357.8,242.0 358.5,241.9 359.2,241.9 359.9,241.8 360.6,241.8 361.3,241.7 362.0,241.7 362.7,241.6 363.4,241.5 364.1,241.5 364.9,241.4 365.6,241.3
366.3,241.3 367.0,241.2 367.7,241.1 368.4,241.0 369.1,241.0 369.8,240.9 370.5,240.8 371.2,240.8 371.9,240.7 372.6,240.6 373.3,240.5 374.1,240.5 374.8,240.4 375.5,240.3 376.2,240.3 376.9,240.2
377.6,240.2 378.3,240.1 379.0,240.1 379.7,240.1 380.4,240.0 381.1,240.0 381.8,240.0 382.5,240.0 383.3,240.0 384.0,240.0 384.7,240.0 385.4,240.0 386.1,240.0 386.8,240.0 387.5,240.1 388.2,240.1
388.9,240.2 389.6,240.2 390.3,240.3 391.0,240.3 391.7,240.4 392.4,240.4 393.2,240.5 393.9,240.6 394.6,240.7 395.3,240.7 396.0,240.8 396.7,240.9 397.4,240.9 398.1,241.0 398.8,241.1 399.5,241.2
400.2,241.2 400.9,241.3 401.6,241.4 402.4,241.4 403.1,241.5 403.8,241.6 404.5,241.6 405.2,241.7 405.9,241.8 406.6,241.8 407.3,241.9 408.0,241.9 408.7,241.9 409.4,242.0 410.1,242.0 410.8,242.1
411.6,242.1 412.3,242.1 413.0,242.2 413.7,242.2 414.4,242.2 415.1,242.2 415.8,242.2 416.5,242.3 417.2,242.3 417.9,242.3 418.6,242.3 419.3,242.3 420.0,242.3 420.8,242.3 421.5,242.3 422.2,242.4
422.9,242.4 423.6,242.4 424.3,242.4 425.0,242.4 425.0,242.4 424.3,242.4 423.6,242.4 422.9,242.4 422.2,242.4 421.5,242.4 420.8,242.4 420.0,242.4 419.3,242.4 418.6,242.4 417.9,242.4 417.2,242.4
416.5,242.4 415.8,242.4 415.1,242.4 414.4,242.4 413.7,242.4 413.0,242.4 412.3,242.4 411.6,242.4 410.8,242.4 410.1,242.4 409.4,242.4 408.7,242.4 408.0,242.4 407.3,242.4 406.6,242.4 405.9,242.4
405.2,242.4 404.5,242.4 403.8,242.4 403.1,242.4 402.4,242.4 401.6,242.4 400.9,242.4 400.2,242.4 399.5,242.4 398.8,242.4 398.1,242.4 397.4,242.4 396.7,242.4 396.0,242.4 395.3,242.4 394.6,242.4
393.9,242.4 393.2,242.4 392.4,242.4 391.7,242.4 391.0,242.4 390.3,242.4 389.6,242.4 388.9,242.4 388.2,242.4 387.5,242.4 386.8,242.4 386.1,242.4 385.4,242.4 384.7,242.4 384.0,242.4 383.3,242.4
382.5,242.4 381.8,242.4 381.1,242.4 380.4,242.4 379.7,242.4 379.0,242.4 378.3,242.4 377.6,242.4 376.9,242.4 376.2,242.4 375.5,242.4 374.8,242.4 374.1,242.4 373.3,242.4 372.6,242.4 371.9,242.4
371.2,242.4 370.5,242.4 369.8,242.4 369.1,242.4 368.4,242.4 367.7,242.4 367.0,242.4 366.3,242.4 365.6,242.4 364.9,242.4 364.1,242.4 363.4,242.4 362.7,242.4 362.0,242.4 361.3,242.4 360.6,242.4
359.9,242.4 359.2,242.4 358.5,242.4 357.8,242.4 357.1,242.4 356.4,242.4 355.7,242.4 354.9,242.4 354.2,242.4 353.5,242.4 352.8,242.4 352.1,242.4 351.4,242.4 350.7,242.4 350.0,242.4 349.3,242.4
348.6,242.4 347.9,242.4 347.2,242.4 346.5,242.4 345.7,242.4 345.0,242.4 344.3,242.4 343.6,242.4 342.9,242.4 342.2,242.4 341.5,242.4 340.8,242.4 340.1,242.4 339.4,242.4 338.7,242.4 338.0,242.4
337.3,242.4 336.5,242.4 335.8,242.4 335.1,242.4 334.4,242.4 333.7,242.4 333.0,242.4 332.3,242.4 331.6,242.4 330.9,242.4 330.2,242.4 329.5,242.4 328.8,242.4 328.1,242.4 327.3,242.4 326.6,242.4
325.9,242.4 325.2,242.4 324.5,242.4 323.8,242.4 323.1,242.4 322.4,242.4 321.7,242.4 321.0,242.4 320.3,242.4 319.6,242.4 318.9,242.4 318.2,242.4 317.4,242.4 316.7,242.4 316.0,242.4 315.3,242.4
314.6,242.4 313.9,242.4 313.2,242.4 312.5,242.4 311.8,242.4 311.1,242.4 310.4,242.4 309.7,242.4 309.0,242.4 308.2,242.4 307.5,242.4 306.8,242.4 306.1,242.4 305.4,242.4 304.7,242.4 304.0,242.4
303.3,242.4 302.6,242.4 301.9,242.4 301.2,242.4 300.5,242.4 299.8,242.4 299.0,242.4 298.3,242.4 297.6,242.4 296.9,242.4 296.2,242.4 295.5,242.4 294.8,242.4 294.1,242.4 293.4,242.4 292.7,242.4
292.0,242.4 291.3,242.4 290.6,242.4 289.8,242.4 289.1,242.4 288.4,242.4 287.7,242.4 287.0,242.4 286.3,242.4 285.6,242.4 284.9,242.4 284.2,242.4 283.5,242.4 282.8,242.4 282.1,242.4 281.4,242.4
280.6,242.4 279.9,242.4 279.2,242.4 278.5,242.4 277.8,242.4 277.1,242.4 276.4,242.4 275.7,242.4 275.0,242.4 274.3,242.4 273.6,242.4 272.9,242.4 272.2,242.4 271.4,242.4 270.7,242.4 270.0,242.4
269.3,242.4 268.6,242.4 267.9,242.4 267.2,242.4 266.5,242.4 265.8,242.4 265.1,242.4 264.4,242.4 263.7,242.4 263.0,242.4 262.2,242.4 261.5,242.4 260.8,242.4 260.1,242.4 259.4,242.4 258.7,242.4
258.0,242.4 257.3,242.4 256.6,242.4 255.9,242.4 255.2,242.4 254.5,242.4 253.8,242.4 253.0,242.4 252.3,242.4 251.6,242.4 250.9,242.4 250.2,242.4 249.5,242.4 248.8,242.4 248.1,242.4 247.4,242.4
246.7,242.4 246.0,242.4 245.3,242.4 244.6,242.4 243.9,242.4 243.1,242.4 242.4,242.4 241.7,242.4 241.0,242.4 240.3,242.4 239.6,242.4 238.9,242.4 238.2,242.4 237.5,242.4 236.8,242.4 236.1,242.4
235.4,242.4 234.7,242.4 233.9,242.4 233.2,242.4 232.5,242.4 231.8,242.4 231.1,242.4 230.4,242.4 229.7,242.4 229.0,242.4 228.3,242.4 227.6,242.4 226.9,242.4 226.2,242.4 225.5,242.4 224.7,242.4
224.0,242.4 223.3,242.4 222.6,242.4 221.9,242.4 221.2,242.4 220.5,242.4 219.8,242.4 219.1,242.4 218.4,242.4 217.7,242.4 217.0,242.4 216.3,242.4 215.5,242.4 214.8,242.4 214.1,242.4 213.4,242.4
212.7,242.4 212.0,242.4 211.3,242.4 210.6,242.4 209.9,242.4 209.2,242.4 208.5,242.4 207.8,242.4 207.1,242.4 206.3,242.4 205.6,242.4 204.9,242.4 204.2,242.4 203.5,242.4 202.8,242.4 202.1,242.4
201.4,242.4 200.7,242.4 200.0,242.4 199.3,242.4 198.6,242.4 197.9,242.4 197.1,242.4 196.4,242.4 195.7,242.4 195.0,242.4 194.3,242.4 193.6,242.4 192.9,242.4 192.2,242.4 191.5,242.4 190.8,242.4
190.1,242.4 189.4,242.4 188.7,242.4 187.9,242.4 187.2,242.4 186.5,242.4 185.8,242.4 185.1,242.4 184.4,242.4 183.7,242.4 183.0,242.4 182.3,242.4 181.6,242.4 180.9,242.4 180.2,242.4 179.5,242.4
178.7,242.4 178.0,242.4 177.3,242.4 176.6,242.4 175.9,242.4 175.2,242.4 174.5,242.4 173.8,242.4 173.1,242.4 172.4,242.4 171.7,242.4 171.0,242.4 170.3,242.4 169.6,242.4 168.8,242.4 168.1,242.4
167.4,242.4 166.7,242.4 166.0,242.4 165.3,242.4 164.6,242.4 163.9,242.4 163.2,242.4 162.5,242.4 161.8,242.4 161.1,242.4 160.4,242.4 159.6,242.4 158.9,242.4 158.2,242.4 157.5,242.4 156.8,242.4
156.1,242.4 155.4,242.4 154.7,242.4 154.0,242.4 153.3,242.4 152.6,242.4 151.9,242.4 151.2,242.4 150.4,242.4 149.7,242.4 149.0,242.4 148.3,242.4 147.6,242.4 146.9,242.4 146.2,242.4 145.5,242.4
144.8,242.4 144.1,242.4 143.4,242.4 142.7,242.4 142.0,242.4 141.2,242.4 140.5,242.4 139.8,242.4 139.1,242.4 138.4,242.4 137.7,242.4 137.0,242.4 136.3,242.4 135.6,242.4 134.9,242.4 134.2,242.4
133.5,242.4 132.8,242.4 132.0,242.4 131.3,242.4 130.6,242.4 129.9,242.4 129.2,242.4 128.5,242.4 127.8,242.4 127.1,242.4 126.4,242.4 125.7,242.4 125.0,242.4 124.3,242.4 123.6,242.4 122.8,242.4
122.1,242.4 121.4,242.4 120.7,242.4 120.0,242.4 119.3,242.4 118.6,242.4 117.9,242.4 117.2,242.4 116.5,242.4 115.8,242.4 115.1,242.4 114.4,242.4 113.6,242.4 112.9,242.4 112.2,242.4 111.5,242.4
110.8,242.4 110.1,242.4 109.4,242.4 108.7,242.4 108.0,242.4 107.3,242.4 106.6,242.4 105.9,242.4 105.2,242.4 104.5,242.4 103.7,242.4 103.0,242.4 102.3,242.4 101.6,242.4 100.9,242.4 100.2,242.4
99.5,242.4 98.8,242.4 98.1,242.4 97.4,242.4 96.7,242.4 96.0,242.4 95.3,242.4 94.5,242.4 93.8,242.4 93.1,242.4 92.4,242.4 91.7,242.4 91.0,242.4 90.3,242.4 89.6,242.4 88.9,242.4
88.2,242.4 87.5,242.4 86.8,242.4 86.1,242.4 85.3,242.4 84.6,242.4 83.9,242.4 83.2,242.4 82.5,242.4 81.8,242.4 81.1,242.4 80.4,242.4 79.7,242.4 79.0,242.4 78.3,242.4 77.6,242.4
76.9,242.4 76.1,242.4 75.4,242.4 74.7,242.4 74.0,242.4 73.3,242.4 72.6,242.4 71.9,242.4 '/>
	</g>
</g>
	</g>
	<g id="gnuplot_plot_2" ><title>Mean</title>
<g fill="none" color="white" stroke="rgb( 31, 120, 180)" stroke-width="2.00" stroke-linecap="butt" stroke-linejoin="miter">
</g>
<g fill="none" color="black" stroke="currentColor" stroke-width="2.00" stroke-linecap="butt" stroke-linejoin="miter">
	<path stroke='rgb( 31, 120, 180)'  d='M123.2,242.4 L123.2,57.3  '/></g>
	</g>
<g fill="none" color="black" stroke="currentColor" stroke-width="2.00" stroke-linecap="butt" stroke-linejoin="miter">
</g>
<g fill="none" color="black" stroke="black" stroke-width="1.00" stroke-linecap="butt" stroke-linejoin="miter">
</g>
<g fill="none" color="black" stroke="currentColor" stroke-width="1.00" stroke-linecap="butt" stroke-linejoin="miter">
	<path stroke='black'  d='M71.9,18.1 L71.9,242.4 L425.0,242.4 L425.0,18.1 L71.9,18.1 Z  '/></g>
<g fill="none" color="black" stroke="currentColor" stroke-width="1.00" stroke-linecap="butt" stroke-linejoin="miter">
</g>
</g>
</svg>

