<?xml version="1.0" encoding="utf-8"  standalone="no"?>
<svg 
 viewBox="0 0 1280 720"
 xmlns="http://www.w3.org/2000/svg"
 xmlns:xlink="http://www.w3.org/1999/xlink"
>

<title>Gnuplot</title>
<desc>Produced by GNUPLOT 5.2 patchlevel 6 </desc>

<g id="gnuplot_canvas">

<rect x="0" y="0" width="1280" height="720" fill="none"/>
<defs>

	<circle id='gpDot' r='0.5' stroke-width='0.5' stroke='currentColor'/>
	<path id='gpPt0' stroke-width='0.222' stroke='currentColor' d='M-1,0 h2 M0,-1 v2'/>
	<path id='gpPt1' stroke-width='0.222' stroke='currentColor' d='M-1,-1 L1,1 M1,-1 L-1,1'/>
	<path id='gpPt2' stroke-width='0.222' stroke='currentColor' d='M-1,0 L1,0 M0,-1 L0,1 M-1,-1 L1,1 M-1,1 L1,-1'/>
	<rect id='gpPt3' stroke-width='0.222' stroke='currentColor' x='-1' y='-1' width='2' height='2'/>
	<rect id='gpPt4' stroke-width='0.222' stroke='currentColor' fill='currentColor' x='-1' y='-1' width='2' height='2'/>
	<circle id='gpPt5' stroke-width='0.222' stroke='currentColor' cx='0' cy='0' r='1'/>
	<use xlink:href='#gpPt5' id='gpPt6' fill='currentColor' stroke='none'/>
	<path id='gpPt7' stroke-width='0.222' stroke='currentColor' d='M0,-1.33 L-1.33,0.67 L1.33,0.67 z'/>
	<use xlink:href='#gpPt7' id='gpPt8' fill='currentColor' stroke='none'/>
	<use xlink:href='#gpPt7' id='gpPt9' stroke='currentColor' transform='rotate(180)'/>
	<use xlink:href='#gpPt9' id='gpPt10' fill='currentColor' stroke='none'/>
	<use xlink:href='#gpPt3' id='gpPt11' stroke='currentColor' transform='rotate(45)'/>
	<use xlink:href='#gpPt11' id='gpPt12' fill='currentColor' stroke='none'/>
	<path id='gpPt13' stroke-width='0.222' stroke='currentColor' d='M0,1.330 L1.265,0.411 L0.782,-1.067 L-0.782,-1.076 L-1.265,0.411 z'/>
	<use xlink:href='#gpPt13' id='gpPt14' fill='currentColor' stroke='none'/>
	<filter id='textbox' filterUnits='objectBoundingBox' x='0' y='0' height='1' width='1'>
	  <feFlood flood-color='white' flood-opacity='1' result='bgnd'/>
	  <feComposite in='SourceGraphic' in2='bgnd' operator='atop'/>
	</filter>
	<filter id='greybox' filterUnits='objectBoundingBox' x='0' y='0' height='1' width='1'>
	  <feFlood flood-color='lightgrey' flood-opacity='1' result='grey'/>
	  <feComposite in='SourceGraphic' in2='grey' operator='atop'/>
	</filter>
</defs>
<g fill="none" color="white" stroke="currentColor" stroke-width="1.00" stroke-linecap="butt" stroke-linejoin="miter">
</g>
<g fill="none" color="black" stroke="currentColor" stroke-width="1.00" stroke-linecap="butt" stroke-linejoin="miter">
	<path stroke='black'  d='M71.9,662.4 L80.9,662.4  '/>	<g transform="translate(63.6,666.3)" stroke="none" fill="black" font-family="Helvetica" font-size="12.00"  text-anchor="end">
		<text><tspan font-family="Helvetica" > 0</tspan></text>
	</g>
</g>
<g fill="none" color="black" stroke="currentColor" stroke-width="1.00" stroke-linecap="butt" stroke-linejoin="miter">
	<path stroke='black'  d='M71.9,601.6 L80.9,601.6  '/>	<g transform="translate(63.6,605.5)" stroke="none" fill="black" font-family="Helvetica" font-size="12.00"  text-anchor="end">
		<text><tspan font-family="Helvetica" > 50</tspan></text>
	</g>
</g>
<g fill="none" color="black" stroke="currentColor" stroke-width="1.00" stroke-linecap="butt" stroke-linejoin="miter">
	<path stroke='black'  d='M71.9,540.7 L80.9,540.7  '/>	<g transform="translate(63.6,544.6)" stroke="none" fill="black" font-family="Helvetica" font-size="12.00"  text-anchor="end">
		<text><tspan font-family="Helvetica" > 100</tspan></text>
	</g>
</g>
<g fill="none" color="black" stroke="currentColor" stroke-width="1.00" stroke-linecap="butt" stroke-linejoin="miter">
	<path stroke='black'  d='M71.9,479.9 L80.9,479.9  '/>	<g transform="translate(63.6,483.8)" stroke="none" fill="black" font-family="Helvetica" font-size="12.00"  text-anchor="end">
		<text><tspan font-family="Helvetica" > 150</tspan></text>
	</g>
</g>
<g fill="none" color="black" stroke="currentColor" stroke-width="1.00" stroke-linecap="butt" stroke-linejoin="miter">
	<path stroke='black'  d='M71.9,419.1 L80.9,419.1  '/>	<g transform="translate(63.6,423.0)" stroke="none" fill="black" font-family="Helvetica" font-size="12.00"  text-anchor="end">
		<text><tspan font-family="Helvetica" > 200</tspan></text>
	</g>
</g>
<g fill="none" color="black" stroke="currentColor" stroke-width="1.00" stroke-linecap="butt" stroke-linejoin="miter">
	<path stroke='black'  d='M71.9,358.2 L80.9,358.2  '/>	<g transform="translate(63.6,362.1)" stroke="none" fill="black" font-family="Helvetica" font-size="12.00"  text-anchor="end">
		<text><tspan font-family="Helvetica" > 250</tspan></text>
	</g>
</g>
<g fill="none" color="black" stroke="currentColor" stroke-width="1.00" stroke-linecap="butt" stroke-linejoin="miter">
	<path stroke='black'  d='M71.9,297.4 L80.9,297.4  '/>	<g transform="translate(63.6,301.3)" stroke="none" fill="black" font-family="Helvetica" font-size="12.00"  text-anchor="end">
		<text><tspan font-family="Helvetica" > 300</tspan></text>
	</g>
</g>
<g fill="none" color="black" stroke="currentColor" stroke-width="1.00" stroke-linecap="butt" stroke-linejoin="miter">
	<path stroke='black'  d='M71.9,236.6 L80.9,236.6  '/>	<g transform="translate(63.6,240.5)" stroke="none" fill="black" font-family="Helvetica" font-size="12.00"  text-anchor="end">
		<text><tspan font-family="Helvetica" > 350</tspan></text>
	</g>
</g>
<g fill="none" color="black" stroke="currentColor" stroke-width="1.00" stroke-linecap="butt" stroke-linejoin="miter">
	<path stroke='black'  d='M71.9,175.8 L80.9,175.8  '/>	<g transform="translate(63.6,179.7)" stroke="none" fill="black" font-family="Helvetica" font-size="12.00"  text-anchor="end">
		<text><tspan font-family="Helvetica" > 400</tspan></text>
	</g>
</g>
<g fill="none" color="black" stroke="currentColor" stroke-width="1.00" stroke-linecap="butt" stroke-linejoin="miter">
	<path stroke='black'  d='M71.9,114.9 L80.9,114.9  '/>	<g transform="translate(63.6,118.8)" stroke="none" fill="black" font-family="Helvetica" font-size="12.00"  text-anchor="end">
		<text><tspan font-family="Helvetica" > 450</tspan></text>
	</g>
</g>
<g fill="none" color="black" stroke="currentColor" stroke-width="1.00" stroke-linecap="butt" stroke-linejoin="miter">
	<path stroke='black'  d='M71.9,54.1 L80.9,54.1  '/>	<g transform="translate(63.6,58.0)" stroke="none" fill="black" font-family="Helvetica" font-size="12.00"  text-anchor="end">
		<text><tspan font-family="Helvetica" > 500</tspan></text>
	</g>
</g>
<g fill="none" color="black" stroke="currentColor" stroke-width="1.00" stroke-linecap="butt" stroke-linejoin="miter">
	<path stroke='black'  d='M86.7,662.4 L86.7,653.4  '/>	<g transform="translate(86.7,684.3)" stroke="none" fill="black" font-family="Helvetica" font-size="12.00"  text-anchor="middle">
		<text><tspan font-family="Helvetica" >-0.7</tspan></text>
	</g>
</g>
<g fill="none" color="black" stroke="currentColor" stroke-width="1.00" stroke-linecap="butt" stroke-linejoin="miter">
	<path stroke='black'  d='M226.2,662.4 L226.2,653.4  '/>	<g transform="translate(226.2,684.3)" stroke="none" fill="black" font-family="Helvetica" font-size="12.00"  text-anchor="middle">
		<text><tspan font-family="Helvetica" >-0.6</tspan></text>
	</g>
</g>
<g fill="none" color="black" stroke="currentColor" stroke-width="1.00" stroke-linecap="butt" stroke-linejoin="miter">
	<path stroke='black'  d='M365.8,662.4 L365.8,653.4  '/>	<g transform="translate(365.8,684.3)" stroke="none" fill="black" font-family="Helvetica" font-size="12.00"  text-anchor="middle">
		<text><tspan font-family="Helvetica" >-0.5</tspan></text>
	</g>
</g>
<g fill="none" color="black" stroke="currentColor" stroke-width="1.00" stroke-linecap="butt" stroke-linejoin="miter">
	<path stroke='black'  d='M505.3,662.4 L505.3,653.4  '/>	<g transform="translate(505.3,684.3)" stroke="none" fill="black" font-family="Helvetica" font-size="12.00"  text-anchor="middle">
		<text><tspan font-family="Helvetica" >-0.4</tspan></text>
	</g>
</g>
<g fill="none" color="black" stroke="currentColor" stroke-width="1.00" stroke-linecap="butt" stroke-linejoin="miter">
	<path stroke='black'  d='M644.8,662.4 L644.8,653.4  '/>	<g transform="translate(644.8,684.3)" stroke="none" fill="black" font-family="Helvetica" font-size="12.00"  text-anchor="middle">
		<text><tspan font-family="Helvetica" >-0.3</tspan></text>
	</g>
</g>
<g fill="none" color="black" stroke="currentColor" stroke-width="1.00" stroke-linecap="butt" stroke-linejoin="miter">
	<path stroke='black'  d='M784.4,662.4 L784.4,653.4  '/>	<g transform="translate(784.4,684.3)" stroke="none" fill="black" font-family="Helvetica" font-size="12.00"  text-anchor="middle">
		<text><tspan font-family="Helvetica" >-0.2</tspan></text>
	</g>
</g>
<g fill="none" color="black" stroke="currentColor" stroke-width="1.00" stroke-linecap="butt" stroke-linejoin="miter">
	<path stroke='black'  d='M923.9,662.4 L923.9,653.4  '/>	<g transform="translate(923.9,684.3)" stroke="none" fill="black" font-family="Helvetica" font-size="12.00"  text-anchor="middle">
		<text><tspan font-family="Helvetica" >-0.1</tspan></text>
	</g>
</g>
<g fill="none" color="black" stroke="currentColor" stroke-width="1.00" stroke-linecap="butt" stroke-linejoin="miter">
</g>
<g fill="none" color="black" stroke="currentColor" stroke-width="1.00" stroke-linecap="butt" stroke-linejoin="miter">
	<path stroke='black'  d='M71.9,54.1 L71.9,662.4 L1013.6,662.4 L1013.6,54.1 L71.9,54.1 Z  '/></g>
<g fill="none" color="black" stroke="currentColor" stroke-width="1.00" stroke-linecap="butt" stroke-linejoin="miter">
	<g transform="translate(16.3,358.3) rotate(270)" stroke="none" fill="black" font-family="Helvetica" font-size="12.00"  text-anchor="middle">
		<text><tspan font-family="Helvetica" >Density (a.u.)</tspan></text>
	</g>
</g>
<g fill="none" color="black" stroke="currentColor" stroke-width="1.00" stroke-linecap="butt" stroke-linejoin="miter">
	<g transform="translate(542.7,711.3)" stroke="none" fill="black" font-family="Helvetica" font-size="12.00"  text-anchor="middle">
		<text><tspan font-family="Helvetica" >Relative change (%)</tspan></text>
	</g>
</g>
<g fill="none" color="black" stroke="currentColor" stroke-width="1.00" stroke-linecap="butt" stroke-linejoin="miter">
	<g transform="translate(542.7,31.0)" stroke="none" fill="black" font-family="Helvetica" font-size="12.00"  text-anchor="middle">
		<text><tspan font-family="Helvetica" >snapshot_restore_with_dense/Sparse: Entire region + /proc/pid/mem/22: median</tspan></text>
	</g>
</g>
	<g id="gnuplot_plot_1" ><title>Bootstrap distribution</title>
<g fill="none" color="white" stroke="black" stroke-width="2.00" stroke-linecap="butt" stroke-linejoin="miter">
</g>
<g fill="none" color="black" stroke="currentColor" stroke-width="2.00" stroke-linecap="butt" stroke-linejoin="miter">
	<g transform="translate(1089.0,67.0)" stroke="none" fill="black" font-family="Helvetica" font-size="12.00"  text-anchor="start">
		<text><tspan font-family="Helvetica" >Bootstrap distribution</tspan></text>
	</g>
</g>
<g fill="none" color="black" stroke="currentColor" stroke-width="2.00" stroke-linecap="butt" stroke-linejoin="miter">
	<path stroke='rgb( 31, 120, 180)'  d='M1038.5,63.1 L1080.7,63.1 M71.9,644.1 L73.8,643.9 L75.7,643.7 L77.6,643.6 L79.4,643.5 L81.3,643.3
		L83.2,643.2 L85.1,643.1 L87.0,643.0 L88.9,642.9 L90.8,642.8 L92.7,642.7 L94.5,642.6 L96.4,642.4
		L98.3,642.3 L100.2,642.1 L102.1,641.9 L104.0,641.7 L105.9,641.4 L107.8,641.1 L109.6,640.8 L111.5,640.5
		L113.4,640.2 L115.3,639.8 L117.2,639.5 L119.1,639.1 L121.0,638.8 L122.9,638.5 L124.7,638.1 L126.6,637.8
		L128.5,637.6 L130.4,637.3 L132.3,637.1 L134.2,636.9 L136.1,636.7 L138.0,636.6 L139.8,636.4 L141.7,636.3
		L143.6,636.2 L145.5,636.0 L147.4,635.9 L149.3,635.7 L151.2,635.5 L153.0,635.3 L154.9,635.0 L156.8,634.7
		L158.7,634.4 L160.6,634.0 L162.5,633.6 L164.4,633.2 L166.3,632.8 L168.1,632.3 L170.0,631.9 L171.9,631.5
		L173.8,631.0 L175.7,630.6 L177.6,630.2 L179.5,629.9 L181.4,629.5 L183.2,629.2 L185.1,629.0 L187.0,628.8
		L188.9,628.6 L190.8,628.4 L192.7,628.2 L194.6,628.1 L196.5,628.0 L198.3,627.8 L200.2,627.7 L202.1,627.6
		L204.0,627.4 L205.9,627.3 L207.8,627.1 L209.7,626.9 L211.6,626.7 L213.4,626.5 L215.3,626.2 L217.2,626.0
		L219.1,625.7 L221.0,625.4 L222.9,625.1 L224.8,624.8 L226.6,624.4 L228.5,624.1 L230.4,623.7 L232.3,623.3
		L234.2,622.8 L236.1,622.4 L238.0,621.8 L239.9,621.3 L241.7,620.7 L243.6,620.1 L245.5,619.4 L247.4,618.7
		L249.3,618.0 L251.2,617.3 L253.1,616.5 L255.0,615.7 L256.8,615.0 L258.7,614.3 L260.6,613.6 L262.5,613.0
		L264.4,612.4 L266.3,612.0 L268.2,611.6 L270.1,611.4 L271.9,611.2 L273.8,611.2 L275.7,611.3 L277.6,611.5
		L279.5,611.9 L281.4,612.3 L283.3,612.8 L285.2,613.4 L287.0,614.1 L288.9,614.8 L290.8,615.6 L292.7,616.3
		L294.6,617.1 L296.5,617.8 L298.4,618.5 L300.2,619.1 L302.1,619.7 L304.0,620.2 L305.9,620.6 L307.8,621.0
		L309.7,621.3 L311.6,621.4 L313.5,621.5 L315.3,621.5 L317.2,621.5 L319.1,621.4 L321.0,621.2 L322.9,620.9
		L324.8,620.6 L326.7,620.2 L328.6,619.8 L330.4,619.3 L332.3,618.8 L334.2,618.3 L336.1,617.7 L338.0,617.2
		L339.9,616.6 L341.8,616.0 L343.7,615.4 L345.5,614.8 L347.4,614.2 L349.3,613.7 L351.2,613.2 L353.1,612.7
		L355.0,612.3 L356.9,611.9 L358.8,611.6 L360.6,611.4 L362.5,611.3 L364.4,611.2 L366.3,611.1 L368.2,611.2
		L370.1,611.3 L372.0,611.4 L373.8,611.5 L375.7,611.7 L377.6,611.9 L379.5,612.1 L381.4,612.3 L383.3,612.4
		L385.2,612.5 L387.1,612.5 L388.9,612.5 L390.8,612.4 L392.7,612.3 L394.6,612.1 L396.5,611.8 L398.4,611.4
		L400.3,610.9 L402.2,610.3 L404.0,609.6 L405.9,608.8 L407.8,608.0 L409.7,607.0 L411.6,605.9 L413.5,604.8
		L415.4,603.5 L417.3,602.1 L419.1,600.7 L421.0,599.2 L422.9,597.6 L424.8,595.9 L426.7,594.2 L428.6,592.4
		L430.5,590.5 L432.4,588.7 L434.2,586.8 L436.1,584.9 L438.0,583.0 L439.9,581.1 L441.8,579.2 L443.7,577.4
		L445.6,575.6 L447.4,573.9 L449.3,572.2 L451.2,570.5 L453.1,568.8 L455.0,567.2 L456.9,565.6 L458.8,564.0
		L460.7,562.5 L462.5,560.9 L464.4,559.3 L466.3,557.7 L468.2,556.0 L470.1,554.4 L472.0,552.6 L473.9,550.8
		L475.8,548.9 L477.6,547.0 L479.5,544.9 L481.4,542.8 L483.3,540.6 L485.2,538.3 L487.1,535.8 L489.0,533.3
		L490.9,530.6 L492.7,527.8 L494.6,524.8 L496.5,521.7 L498.4,518.5 L500.3,515.1 L502.2,511.6 L504.1,507.9
		L506.0,504.0 L507.8,500.1 L509.7,496.0 L511.6,491.8 L513.5,487.5 L515.4,483.1 L517.3,478.6 L519.2,474.0
		L521.0,469.4 L522.9,464.7 L524.8,460.0 L526.7,455.2 L528.6,450.4 L530.5,445.5 L532.4,440.6 L534.3,435.6
		L536.1,430.5 L538.0,425.4 L539.9,420.1 L541.8,414.7 L543.7,409.2 L545.6,403.6 L547.5,397.8 L549.4,391.9
		L551.2,385.9 L553.1,379.8 L555.0,373.6 L556.9,367.3 L558.8,361.0 L560.7,354.7 L562.6,348.3 L564.5,342.0
		L566.3,335.8 L568.2,329.6 L570.1,323.5 L572.0,317.5 L573.9,311.6 L575.8,305.8 L577.7,300.2 L579.5,294.6
		L581.4,289.2 L583.3,283.8 L585.2,278.4 L587.1,273.1 L589.0,267.8 L590.9,262.5 L592.8,257.2 L594.6,251.8
		L596.5,246.4 L598.4,240.9 L600.3,235.4 L602.2,229.8 L604.1,224.1 L606.0,218.4 L607.9,212.6 L609.7,206.8
		L611.6,201.0 L613.5,195.1 L615.4,189.3 L617.3,183.4 L619.2,177.6 L621.1,171.8 L623.0,166.0 L624.8,160.3
		L626.7,154.7 L628.6,149.2 L630.5,143.7 L632.4,138.4 L634.3,133.2 L636.2,128.3 L638.1,123.5 L639.9,118.9
		L641.8,114.6 L643.7,110.6 L645.6,107.0 L647.5,103.7 L649.4,100.8 L651.3,98.3 L653.1,96.3 L655.0,94.8
		L656.9,93.7 L658.8,93.2 L660.7,93.1 L662.6,93.5 L664.5,94.4 L666.4,95.7 L668.2,97.4 L670.1,99.4
		L672.0,101.8 L673.9,104.4 L675.8,107.2 L677.7,110.2 L679.6,113.3 L681.5,116.4 L683.3,119.5 L685.2,122.5
		L687.1,125.5 L689.0,128.4 L690.9,131.1 L692.8,133.7 L694.7,136.2 L696.6,138.5 L698.4,140.7 L700.3,142.9
		L702.2,144.9 L704.1,146.9 L706.0,148.9 L707.9,150.9 L709.8,153.0 L711.7,155.2 L713.5,157.5 L715.4,160.0
		L717.3,162.7 L719.2,165.5 L721.1,168.6 L723.0,172.0 L724.9,175.5 L726.7,179.4 L728.6,183.4 L730.5,187.7
		L732.4,192.3 L734.3,197.0 L736.2,202.0 L738.1,207.2 L740.0,212.5 L741.8,218.0 L743.7,223.7 L745.6,229.5
		L747.5,235.4 L749.4,241.4 L751.3,247.4 L753.2,253.6 L755.1,259.7 L756.9,265.8 L758.8,271.9 L760.7,278.0
		L762.6,284.0 L764.5,290.0 L766.4,295.8 L768.3,301.5 L770.2,307.1 L772.0,312.5 L773.9,317.8 L775.8,322.9
		L777.7,327.8 L779.6,332.6 L781.5,337.3 L783.4,341.9 L785.3,346.3 L787.1,350.8 L789.0,355.1 L790.9,359.5
		L792.8,363.9 L794.7,368.3 L796.6,372.9 L798.5,377.5 L800.3,382.2 L802.2,387.1 L804.1,392.0 L806.0,397.1
		L807.9,402.3 L809.8,407.6 L811.7,412.9 L813.6,418.3 L815.4,423.6 L817.3,428.9 L819.2,434.2 L821.1,439.3
		L823.0,444.3 L824.9,449.1 L826.8,453.7 L828.7,458.0 L830.5,462.2 L832.4,466.1 L834.3,469.7 L836.2,473.2
		L838.1,476.3 L840.0,479.3 L841.9,482.1 L843.8,484.7 L845.6,487.1 L847.5,489.4 L849.4,491.6 L851.3,493.8
		L853.2,495.9 L855.1,497.9 L857.0,500.0 L858.9,502.0 L860.7,504.1 L862.6,506.2 L864.5,508.4 L866.4,510.7
		L868.3,513.0 L870.2,515.5 L872.1,518.0 L873.9,520.6 L875.8,523.3 L877.7,526.1 L879.6,529.1 L881.5,532.1
		L883.4,535.2 L885.3,538.4 L887.2,541.7 L889.0,545.1 L890.9,548.5 L892.8,552.0 L894.7,555.5 L896.6,559.1
		L898.5,562.7 L900.4,566.3 L902.3,569.9 L904.1,573.4 L906.0,577.0 L907.9,580.4 L909.8,583.8 L911.7,587.1
		L913.6,590.2 L915.5,593.3 L917.4,596.3 L919.2,599.1 L921.1,601.7 L923.0,604.3 L924.9,606.7 L926.8,608.9
		L928.7,611.0 L930.6,613.0 L932.5,614.8 L934.3,616.5 L936.2,618.0 L938.1,619.5 L940.0,620.8 L941.9,622.0
		L943.8,623.2 L945.7,624.2 L947.5,625.2 L949.4,626.1 L951.3,626.9 L953.2,627.7 L955.1,628.4 L957.0,629.1
		L958.9,629.7 L960.8,630.4 L962.6,631.0 L964.5,631.6 L966.4,632.1 L968.3,632.7 L970.2,633.2 L972.1,633.7
		L974.0,634.2 L975.9,634.7 L977.7,635.1 L979.6,635.6 L981.5,636.0 L983.4,636.4 L985.3,636.8 L987.2,637.2
		L989.1,637.6 L991.0,637.9 L992.8,638.2 L994.7,638.5 L996.6,638.8 L998.5,639.0 L1000.4,639.2 L1002.3,639.4
		L1004.2,639.6 L1006.1,639.7 L1007.9,639.9 L1009.8,640.0 L1011.7,640.1 L1013.6,640.2  '/></g>
	</g>
	<g id="gnuplot_plot_2" ><title>Confidence interval</title>
<g fill="none" color="white" stroke="rgb( 31, 120, 180)" stroke-width="1.00" stroke-linecap="butt" stroke-linejoin="miter">
</g>
<g fill="none" color="black" stroke="currentColor" stroke-width="1.00" stroke-linecap="butt" stroke-linejoin="miter">
	<g transform="translate(1089.0,85.0)" stroke="none" fill="black" font-family="Helvetica" font-size="12.00"  text-anchor="start">
		<text><tspan font-family="Helvetica" >Confidence interval</tspan></text>
	</g>
</g>
<g fill="none" color="black" stroke="currentColor" stroke-width="1.00" stroke-linecap="butt" stroke-linejoin="miter">
	<g stroke='none' shape-rendering='crispEdges'>
		<polygon fill = 'rgb( 31, 120, 180)' fill-opacity = '0.250000' points = '1038.5,85.6 1080.7,85.6 1080.7,76.6 1038.5,76.6 '/>
		<polygon fill = 'rgb( 31, 120, 180)' fill-opacity = '0.250000' points = '158.7,634.4 160.6,634.0 162.5,633.6 164.4,633.2 166.3,632.8 168.1,632.3 170.0,631.9 171.9,631.5 173.8,631.0 175.7,630.6 177.6,630.2 179.5,629.9 181.4,629.5 183.2,629.2 185.1,629.0 187.0,628.8
188.9,628.6 190.8,628.4 192.7,628.2 194.6,628.1 196.5,628.0 198.3,627.8 200.2,627.7 202.1,627.6 204.0,627.4 205.9,627.3 207.8,627.1 209.7,626.9 211.6,626.7 213.4,626.5 215.3,626.2 217.2,626.0
219.1,625.7 221.0,625.4 222.9,625.1 224.8,624.8 226.6,624.4 228.5,624.1 230.4,623.7 232.3,623.3 234.2,622.8 236.1,622.4 238.0,621.8 239.9,621.3 241.7,620.7 243.6,620.1 245.5,619.4 247.4,618.7
249.3,618.0 251.2,617.3 253.1,616.5 255.0,615.7 256.8,615.0 258.7,614.3 260.6,613.6 262.5,613.0 264.4,612.4 266.3,612.0 268.2,611.6 270.1,611.4 271.9,611.2 273.8,611.2 275.7,611.3 277.6,611.5
279.5,611.9 281.4,612.3 283.3,612.8 285.2,613.4 287.0,614.1 288.9,614.8 290.8,615.6 292.7,616.3 294.6,617.1 296.5,617.8 298.4,618.5 300.2,619.1 302.1,619.7 304.0,620.2 305.9,620.6 307.8,621.0
309.7,621.3 311.6,621.4 313.5,621.5 315.3,621.5 317.2,621.5 319.1,621.4 321.0,621.2 322.9,620.9 324.8,620.6 326.7,620.2 328.6,619.8 330.4,619.3 332.3,618.8 334.2,618.3 336.1,617.7 338.0,617.2
339.9,616.6 341.8,616.0 343.7,615.4 345.5,614.8 347.4,614.2 349.3,613.7 351.2,613.2 353.1,612.7 355.0,612.3 356.9,611.9 358.8,611.6 360.6,611.4 362.5,611.3 364.4,611.2 366.3,611.1 368.2,611.2
370.1,611.3 372.0,611.4 373.8,611.5 375.7,611.7 377.6,611.9 379.5,612.1 381.4,612.3 383.3,612.4 385.2,612.5 387.1,612.5 388.9,612.5 390.8,612.4 392.7,612.3 394.6,612.1 396.5,611.8 398.4,611.4
400.3,610.9 402.2,610.3 404.0,609.6 405.9,608.8 407.8,608.0 409.7,607.0 411.6,605.9 413.5,604.8 415.4,603.5 417.3,602.1 419.1,600.7 421.0,599.2 422.9,597.6 424.8,595.9 426.7,594.2 428.6,592.4
430.5,590.5 432.4,588.7 434.2,586.8 436.1,584.9 438.0,583.0 439.9,581.1 441.8,579.2 443.7,577.4 445.6,575.6 447.4,573.9 449.3,572.2 451.2,570.5 453.1,568.8 455.0,567.2 456.9,565.6 458.8,564.0
460.7,562.5 462.5,560.9 464.4,559.3 466.3,557.7 468.2,556.0 470.1,554.4 472.0,552.6 473.9,550.8 475.8,548.9 477.6,547.0 479.5,544.9 481.4,542.8 483.3,540.6 485.2,538.3 487.1,535.8 489.0,533.3
490.9,530.6 492.7,527.8 494.6,524.8 496.5,521.7 498.4,518.5 500.3,515.1 502.2,511.6 504.1,507.9 506.0,504.0 507.8,500.1 509.7,496.0 511.6,491.8 513.5,487.5 515.4,483.1 517.3,478.6 519.2,474.0
521.0,469.4 522.9,464.7 524.8,460.0 526.7,455.2 528.6,450.4 530.5,445.5 532.4,440.6 534.3,435.6 536.1,430.5 538.0,425.4 539.9,420.1 541.8,414.7 543.7,409.2 545.6,403.6 547.5,397.8 549.4,391.9
551.2,385.9 553.1,379.8 555.0,373.6 556.9,367.3 558.8,361.0 560.7,354.7 562.6,348.3 564.5,342.0 566.3,335.8 568.2,329.6 570.1,323.5 572.0,317.5 573.9,311.6 575.8,305.8 577.7,300.2 579.5,294.6
581.4,289.2 583.3,283.8 585.2,278.4 587.1,273.1 589.0,267.8 590.9,262.5 592.8,257.2 594.6,251.8 596.5,246.4 598.4,240.9 600.3,235.4 602.2,229.8 604.1,224.1 606.0,218.4 607.9,212.6 609.7,206.8
611.6,201.0 613.5,195.1 615.4,189.3 617.3,183.4 619.2,177.6 621.1,171.8 623.0,166.0 624.8,160.3 626.7,154.7 628.6,149.2 630.5,143.7 632.4,138.4 634.3,133.2 636.2,128.3 638.1,123.5 639.9,118.9
641.8,114.6 643.7,110.6 645.6,107.0 647.5,103.7 649.4,100.8 651.3,98.3 653.1,96.3 655.0,94.8 656.9,93.7 658.8,93.2 660.7,93.1 662.6,93.5 664.5,94.4 666.4,95.7 668.2,97.4 670.1,99.4
672.0,101.8 673.9,104.4 675.8,107.2 677.7,110.2 679.6,113.3 681.5,116.4 683.3,119.5 685.2,122.5 687.1,125.5 689.0,128.4 690.9,131.1 692.8,133.7 694.7,136.2 696.6,138.5 698.4,140.7 700.3,142.9
702.2,144.9 704.1,146.9 706.0,148.9 707.9,150.9 709.8,153.0 711.7,155.2 713.5,157.5 715.4,160.0 717.3,162.7 719.2,165.5 721.1,168.6 723.0,172.0 724.9,175.5 726.7,179.4 728.6,183.4 730.5,187.7
732.4,192.3 734.3,197.0 736.2,202.0 738.1,207.2 740.0,212.5 741.8,218.0 743.7,223.7 745.6,229.5 747.5,235.4 749.4,241.4 751.3,247.4 753.2,253.6 755.1,259.7 756.9,265.8 758.8,271.9 760.7,278.0
762.6,284.0 764.5,290.0 766.4,295.8 768.3,301.5 770.2,307.1 772.0,312.5 773.9,317.8 775.8,322.9 777.7,327.8 779.6,332.6 781.5,337.3 783.4,341.9 785.3,346.3 787.1,350.8 789.0,355.1 790.9,359.5
792.8,363.9 794.7,368.3 796.6,372.9 798.5,377.5 800.3,382.2 802.2,387.1 804.1,392.0 806.0,397.1 807.9,402.3 809.8,407.6 811.7,412.9 813.6,418.3 815.4,423.6 817.3,428.9 819.2,434.2 821.1,439.3
823.0,444.3 824.9,449.1 826.8,453.7 828.7,458.0 830.5,462.2 832.4,466.1 834.3,469.7 836.2,473.2 838.1,476.3 840.0,479.3 841.9,482.1 843.8,484.7 845.6,487.1 847.5,489.4 849.4,491.6 851.3,493.8
853.2,495.9 855.1,497.9 857.0,500.0 858.9,502.0 860.7,504.1 862.6,506.2 864.5,508.4 866.4,510.7 868.3,513.0 870.2,515.5 872.1,518.0 873.9,520.6 875.8,523.3 877.7,526.1 879.6,529.1 881.5,532.1
883.4,535.2 885.3,538.4 887.2,541.7 889.0,545.1 890.9,548.5 892.8,552.0 894.7,555.5 896.6,559.1 898.5,562.7 900.4,566.3 902.3,569.9 904.1,573.4 906.0,577.0 907.9,580.4 909.8,583.8 911.7,587.1
913.6,590.2 915.5,593.3 917.4,596.3 919.2,599.1 921.1,601.7 923.0,604.3 924.9,606.7 924.9,662.4 923.0,662.4 921.1,662.4 919.2,662.4 917.4,662.4 915.5,662.4 913.6,662.4 911.7,662.4 909.8,662.4
907.9,662.4 906.0,662.4 904.1,662.4 902.3,662.4 900.4,662.4 898.5,662.4 896.6,662.4 894.7,662.4 892.8,662.4 890.9,662.4 889.0,662.4 887.2,662.4 885.3,662.4 883.4,662.4 881.5,662.4 879.6,662.4
877.7,662.4 875.8,662.4 873.9,662.4 872.1,662.4 870.2,662.4 868.3,662.4 866.4,662.4 864.5,662.4 862.6,662.4 860.7,662.4 858.9,662.4 857.0,662.4 855.1,662.4 853.2,662.4 851.3,662.4 849.4,662.4
847.5,662.4 845.6,662.4 843.8,662.4 841.9,662.4 840.0,662.4 838.1,662.4 836.2,662.4 834.3,662.4 832.4,662.4 830.5,662.4 828.7,662.4 826.8,662.4 824.9,662.4 823.0,662.4 821.1,662.4 819.2,662.4
817.3,662.4 815.4,662.4 813.6,662.4 811.7,662.4 809.8,662.4 807.9,662.4 806.0,662.4 804.1,662.4 802.2,662.4 800.3,662.4 798.5,662.4 796.6,662.4 794.7,662.4 792.8,662.4 790.9,662.4 789.0,662.4
787.1,662.4 785.3,662.4 783.4,662.4 781.5,662.4 779.6,662.4 777.7,662.4 775.8,662.4 773.9,662.4 772.0,662.4 770.2,662.4 768.3,662.4 766.4,662.4 764.5,662.4 762.6,662.4 760.7,662.4 758.8,662.4
756.9,662.4 755.1,662.4 753.2,662.4 751.3,662.4 749.4,662.4 747.5,662.4 745.6,662.4 743.7,662.4 741.8,662.4 740.0,662.4 738.1,662.4 736.2,662.4 734.3,662.4 732.4,662.4 730.5,662.4 728.6,662.4
726.7,662.4 724.9,662.4 723.0,662.4 721.1,662.4 719.2,662.4 717.3,662.4 715.4,662.4 713.5,662.4 711.7,662.4 709.8,662.4 707.9,662.4 706.0,662.4 704.1,662.4 702.2,662.4 700.3,662.4 698.4,662.4
696.6,662.4 694.7,662.4 692.8,662.4 690.9,662.4 689.0,662.4 687.1,662.4 685.2,662.4 683.3,662.4 681.5,662.4 679.6,662.4 677.7,662.4 675.8,662.4 673.9,662.4 672.0,662.4 670.1,662.4 668.2,662.4
666.4,662.4 664.5,662.4 662.6,662.4 660.7,662.4 658.8,662.4 656.9,662.4 655.0,662.4 653.1,662.4 651.3,662.4 649.4,662.4 647.5,662.4 645.6,662.4 643.7,662.4 641.8,662.4 639.9,662.4 638.1,662.4
636.2,662.4 634.3,662.4 632.4,662.4 630.5,662.4 628.6,662.4 626.7,662.4 624.8,662.4 623.0,662.4 621.1,662.4 619.2,662.4 617.3,662.4 615.4,662.4 613.5,662.4 611.6,662.4 609.7,662.4 607.9,662.4
606.0,662.4 604.1,662.4 602.2,662.4 600.3,662.4 598.4,662.4 596.5,662.4 594.6,662.4 592.8,662.4 590.9,662.4 589.0,662.4 587.1,662.4 585.2,662.4 583.3,662.4 581.4,662.4 579.5,662.4 577.7,662.4
575.8,662.4 573.9,662.4 572.0,662.4 570.1,662.4 568.2,662.4 566.3,662.4 564.5,662.4 562.6,662.4 560.7,662.4 558.8,662.4 556.9,662.4 555.0,662.4 553.1,662.4 551.2,662.4 549.4,662.4 547.5,662.4
545.6,662.4 543.7,662.4 541.8,662.4 539.9,662.4 538.0,662.4 536.1,662.4 534.3,662.4 532.4,662.4 530.5,662.4 528.6,662.4 526.7,662.4 524.8,662.4 522.9,662.4 521.0,662.4 519.2,662.4 517.3,662.4
515.4,662.4 513.5,662.4 511.6,662.4 509.7,662.4 507.8,662.4 506.0,662.4 504.1,662.4 502.2,662.4 500.3,662.4 498.4,662.4 496.5,662.4 494.6,662.4 492.7,662.4 490.9,662.4 489.0,662.4 487.1,662.4
485.2,662.4 483.3,662.4 481.4,662.4 479.5,662.4 477.6,662.4 475.8,662.4 473.9,662.4 472.0,662.4 470.1,662.4 468.2,662.4 466.3,662.4 464.4,662.4 462.5,662.4 460.7,662.4 458.8,662.4 456.9,662.4
455.0,662.4 453.1,662.4 451.2,662.4 449.3,662.4 447.4,662.4 445.6,662.4 443.7,662.4 441.8,662.4 439.9,662.4 438.0,662.4 436.1,662.4 434.2,662.4 432.4,662.4 430.5,662.4 428.6,662.4 426.7,662.4
424.8,662.4 422.9,662.4 421.0,662.4 419.1,662.4 417.3,662.4 415.4,662.4 413.5,662.4 411.6,662.4 409.7,662.4 407.8,662.4 405.9,662.4 404.0,662.4 402.2,662.4 400.3,662.4 398.4,662.4 396.5,662.4
394.6,662.4 392.7,662.4 390.8,662.4 388.9,662.4 387.1,662.4 385.2,662.4 383.3,662.4 381.4,662.4 379.5,662.4 377.6,662.4 375.7,662.4 373.8,662.4 372.0,662.4 370.1,662.4 368.2,662.4 366.3,662.4
364.4,662.4 362.5,662.4 360.6,662.4 358.8,662.4 356.9,662.4 355.0,662.4 353.1,662.4 351.2,662.4 349.3,662.4 347.4,662.4 345.5,662.4 343.7,662.4 341.8,662.4 339.9,662.4 338.0,662.4 336.1,662.4
334.2,662.4 332.3,662.4 330.4,662.4 328.6,662.4 326.7,662.4 324.8,662.4 322.9,662.4 321.0,662.4 319.1,662.4 317.2,662.4 315.3,662.4 313.5,662.4 311.6,662.4 309.7,662.4 307.8,662.4 305.9,662.4
304.0,662.4 302.1,662.4 300.2,662.4 298.4,662.4 296.5,662.4 294.6,662.4 292.7,662.4 290.8,662.4 288.9,662.4 287.0,662.4 285.2,662.4 283.3,662.4 281.4,662.4 279.5,662.4 277.6,662.4 275.7,662.4
273.8,662.4 271.9,662.4 270.1,662.4 268.2,662.4 266.3,662.4 264.4,662.4 262.5,662.4 260.6,662.4 258.7,662.4 256.8,662.4 255.0,662.4 253.1,662.4 251.2,662.4 249.3,662.4 247.4,662.4 245.5,662.4
243.6,662.4 241.7,662.4 239.9,662.4 238.0,662.4 236.1,662.4 234.2,662.4 232.3,662.4 230.4,662.4 228.5,662.4 226.6,662.4 224.8,662.4 222.9,662.4 221.0,662.4 219.1,662.4 217.2,662.4 215.3,662.4
213.4,662.4 211.6,662.4 209.7,662.4 207.8,662.4 205.9,662.4 204.0,662.4 202.1,662.4 200.2,662.4 198.3,662.4 196.5,662.4 194.6,662.4 192.7,662.4 190.8,662.4 188.9,662.4 187.0,662.4 185.1,662.4
183.2,662.4 181.4,662.4 179.5,662.4 177.6,662.4 175.7,662.4 173.8,662.4 171.9,662.4 170.0,662.4 168.1,662.4 166.3,662.4 164.4,662.4 162.5,662.4 160.6,662.4 158.7,662.4 '/>
	</g>
</g>
	</g>
	<g id="gnuplot_plot_3" ><title>Point estimate</title>
<g fill="none" color="white" stroke="rgb( 31, 120, 180)" stroke-width="2.00" stroke-linecap="butt" stroke-linejoin="miter">
</g>
<g fill="none" color="black" stroke="currentColor" stroke-width="2.00" stroke-linecap="butt" stroke-linejoin="miter">
	<g transform="translate(1089.0,103.0)" stroke="none" fill="black" font-family="Helvetica" font-size="12.00"  text-anchor="start">
		<text><tspan font-family="Helvetica" >Point estimate</tspan></text>
	</g>
</g>
<g fill="none" color="black" stroke="currentColor" stroke-width="2.00" stroke-linecap="butt" stroke-linejoin="miter">
	<path stroke='rgb( 31, 120, 180)'  d='M1038.5,99.1 L1080.7,99.1 M660.3,662.4 L660.3,93.1  '/></g>
	</g>
	<g id="gnuplot_plot_4" ><title>Noise threshold</title>
<g fill="none" color="white" stroke="rgb( 31, 120, 180)" stroke-width="1.00" stroke-linecap="butt" stroke-linejoin="miter">
</g>
<g fill="none" color="black" stroke="currentColor" stroke-width="1.00" stroke-linecap="butt" stroke-linejoin="miter">
	<g transform="translate(1089.0,121.0)" stroke="none" fill="black" font-family="Helvetica" font-size="12.00"  text-anchor="start">
		<text><tspan font-family="Helvetica" >Noise threshold</tspan></text>
	</g>
</g>
<g fill="none" color="black" stroke="currentColor" stroke-width="1.00" stroke-linecap="butt" stroke-linejoin="miter">
	<g stroke='none' shape-rendering='crispEdges'>
		<polygon fill = 'rgb(227,  26,  28)' fill-opacity = '0.100000' points = '1038.5,121.6 1080.7,121.6 1080.7,112.6 1038.5,112.6 '/>
		<polygon fill = 'rgb(227,  26,  28)' fill-opacity = '0.100000' points = '71.9,54.1 1013.6,54.1 1013.6,662.4 71.9,662.4 '/>
	</g>
</g>
	</g>
<g fill="none" color="white" stroke="rgb(227,  26,  28)" stroke-width="2.00" stroke-linecap="butt" stroke-linejoin="miter">
</g>
<g fill="none" color="black" stroke="currentColor" stroke-width="2.00" stroke-linecap="butt" stroke-linejoin="miter">
</g>
<g fill="none" color="black" stroke="black" stroke-width="1.00" stroke-linecap="butt" stroke-linejoin="miter">
</g>
<g fill="none" color="black" stroke="currentColor" stroke-width="1.00" stroke-linecap="butt" stroke-linejoin="miter">
	<path stroke='black'  d='M71.9,54.1 L71.9,662.4 L1013.6,662.4 L1013.6,54.1 L71.9,54.1 Z  '/></g>
<g fill="none" color="black" stroke="currentColor" stroke-width="1.00" stroke-linecap="butt" stroke-linejoin="miter">
</g>
</g>
</svg>

