<?xml version="1.0" encoding="utf-8"  standalone="no"?>
<svg 
 viewBox="0 0 1280 720"
 xmlns="http://www.w3.org/2000/svg"
 xmlns:xlink="http://www.w3.org/1999/xlink"
>

<title>Gnuplot</title>
<desc>Produced by GNUPLOT 5.2 patchlevel 6 </desc>

<g id="gnuplot_canvas">

<rect x="0" y="0" width="1280" height="720" fill="none"/>
<defs>

	<circle id='gpDot' r='0.5' stroke-width='0.5' stroke='currentColor'/>
	<path id='gpPt0' stroke-width='0.222' stroke='currentColor' d='M-1,0 h2 M0,-1 v2'/>
	<path id='gpPt1' stroke-width='0.222' stroke='currentColor' d='M-1,-1 L1,1 M1,-1 L-1,1'/>
	<path id='gpPt2' stroke-width='0.222' stroke='currentColor' d='M-1,0 L1,0 M0,-1 L0,1 M-1,-1 L1,1 M-1,1 L1,-1'/>
	<rect id='gpPt3' stroke-width='0.222' stroke='currentColor' x='-1' y='-1' width='2' height='2'/>
	<rect id='gpPt4' stroke-width='0.222' stroke='currentColor' fill='currentColor' x='-1' y='-1' width='2' height='2'/>
	<circle id='gpPt5' stroke-width='0.222' stroke='currentColor' cx='0' cy='0' r='1'/>
	<use xlink:href='#gpPt5' id='gpPt6' fill='currentColor' stroke='none'/>
	<path id='gpPt7' stroke-width='0.222' stroke='currentColor' d='M0,-1.33 L-1.33,0.67 L1.33,0.67 z'/>
	<use xlink:href='#gpPt7' id='gpPt8' fill='currentColor' stroke='none'/>
	<use xlink:href='#gpPt7' id='gpPt9' stroke='currentColor' transform='rotate(180)'/>
	<use xlink:href='#gpPt9' id='gpPt10' fill='currentColor' stroke='none'/>
	<use xlink:href='#gpPt3' id='gpPt11' stroke='currentColor' transform='rotate(45)'/>
	<use xlink:href='#gpPt11' id='gpPt12' fill='currentColor' stroke='none'/>
	<path id='gpPt13' stroke-width='0.222' stroke='currentColor' d='M0,1.330 L1.265,0.411 L0.782,-1.067 L-0.782,-1.076 L-1.265,0.411 z'/>
	<use xlink:href='#gpPt13' id='gpPt14' fill='currentColor' stroke='none'/>
	<filter id='textbox' filterUnits='objectBoundingBox' x='0' y='0' height='1' width='1'>
	  <feFlood flood-color='white' flood-opacity='1' result='bgnd'/>
	  <feComposite in='SourceGraphic' in2='bgnd' operator='atop'/>
	</filter>
	<filter id='greybox' filterUnits='objectBoundingBox' x='0' y='0' height='1' width='1'>
	  <feFlood flood-color='lightgrey' flood-opacity='1' result='grey'/>
	  <feComposite in='SourceGraphic' in2='grey' operator='atop'/>
	</filter>
</defs>
<g fill="none" color="white" stroke="currentColor" stroke-width="1.00" stroke-linecap="butt" stroke-linejoin="miter">
</g>
<g fill="none" color="black" stroke="currentColor" stroke-width="1.00" stroke-linecap="butt" stroke-linejoin="miter">
	<path stroke='black'  d='M96.8,662.4 L105.8,662.4  '/>	<g transform="translate(88.5,666.3)" stroke="none" fill="black" font-family="Helvetica" font-size="12.00"  text-anchor="end">
		<text><tspan font-family="Helvetica" > 0</tspan></text>
	</g>
</g>
<g fill="none" color="black" stroke="currentColor" stroke-width="1.00" stroke-linecap="butt" stroke-linejoin="miter">
	<path stroke='black'  d='M96.8,586.4 L105.8,586.4  '/>	<g transform="translate(88.5,590.3)" stroke="none" fill="black" font-family="Helvetica" font-size="12.00"  text-anchor="end">
		<text><tspan font-family="Helvetica" > 0.0005</tspan></text>
	</g>
</g>
<g fill="none" color="black" stroke="currentColor" stroke-width="1.00" stroke-linecap="butt" stroke-linejoin="miter">
	<path stroke='black'  d='M96.8,510.3 L105.8,510.3  '/>	<g transform="translate(88.5,514.2)" stroke="none" fill="black" font-family="Helvetica" font-size="12.00"  text-anchor="end">
		<text><tspan font-family="Helvetica" > 0.001</tspan></text>
	</g>
</g>
<g fill="none" color="black" stroke="currentColor" stroke-width="1.00" stroke-linecap="butt" stroke-linejoin="miter">
	<path stroke='black'  d='M96.8,434.3 L105.8,434.3  '/>	<g transform="translate(88.5,438.2)" stroke="none" fill="black" font-family="Helvetica" font-size="12.00"  text-anchor="end">
		<text><tspan font-family="Helvetica" > 0.0015</tspan></text>
	</g>
</g>
<g fill="none" color="black" stroke="currentColor" stroke-width="1.00" stroke-linecap="butt" stroke-linejoin="miter">
	<path stroke='black'  d='M96.8,358.2 L105.8,358.2  '/>	<g transform="translate(88.5,362.1)" stroke="none" fill="black" font-family="Helvetica" font-size="12.00"  text-anchor="end">
		<text><tspan font-family="Helvetica" > 0.002</tspan></text>
	</g>
</g>
<g fill="none" color="black" stroke="currentColor" stroke-width="1.00" stroke-linecap="butt" stroke-linejoin="miter">
	<path stroke='black'  d='M96.8,282.2 L105.8,282.2  '/>	<g transform="translate(88.5,286.1)" stroke="none" fill="black" font-family="Helvetica" font-size="12.00"  text-anchor="end">
		<text><tspan font-family="Helvetica" > 0.0025</tspan></text>
	</g>
</g>
<g fill="none" color="black" stroke="currentColor" stroke-width="1.00" stroke-linecap="butt" stroke-linejoin="miter">
	<path stroke='black'  d='M96.8,206.2 L105.8,206.2  '/>	<g transform="translate(88.5,210.1)" stroke="none" fill="black" font-family="Helvetica" font-size="12.00"  text-anchor="end">
		<text><tspan font-family="Helvetica" > 0.003</tspan></text>
	</g>
</g>
<g fill="none" color="black" stroke="currentColor" stroke-width="1.00" stroke-linecap="butt" stroke-linejoin="miter">
	<path stroke='black'  d='M96.8,130.1 L105.8,130.1  '/>	<g transform="translate(88.5,134.0)" stroke="none" fill="black" font-family="Helvetica" font-size="12.00"  text-anchor="end">
		<text><tspan font-family="Helvetica" > 0.0035</tspan></text>
	</g>
</g>
<g fill="none" color="black" stroke="currentColor" stroke-width="1.00" stroke-linecap="butt" stroke-linejoin="miter">
	<path stroke='black'  d='M96.8,54.1 L105.8,54.1  '/>	<g transform="translate(88.5,58.0)" stroke="none" fill="black" font-family="Helvetica" font-size="12.00"  text-anchor="end">
		<text><tspan font-family="Helvetica" > 0.004</tspan></text>
	</g>
</g>
<g fill="none" color="black" stroke="currentColor" stroke-width="1.00" stroke-linecap="butt" stroke-linejoin="miter">
	<path stroke='black'  d='M173.0,662.4 L173.0,653.4  '/>	<g transform="translate(173.0,684.3)" stroke="none" fill="black" font-family="Helvetica" font-size="12.00"  text-anchor="middle">
		<text><tspan font-family="Helvetica" > 200</tspan></text>
	</g>
</g>
<g fill="none" color="black" stroke="currentColor" stroke-width="1.00" stroke-linecap="butt" stroke-linejoin="miter">
	<path stroke='black'  d='M309.2,662.4 L309.2,653.4  '/>	<g transform="translate(309.2,684.3)" stroke="none" fill="black" font-family="Helvetica" font-size="12.00"  text-anchor="middle">
		<text><tspan font-family="Helvetica" > 300</tspan></text>
	</g>
</g>
<g fill="none" color="black" stroke="currentColor" stroke-width="1.00" stroke-linecap="butt" stroke-linejoin="miter">
	<path stroke='black'  d='M445.4,662.4 L445.4,653.4  '/>	<g transform="translate(445.4,684.3)" stroke="none" fill="black" font-family="Helvetica" font-size="12.00"  text-anchor="middle">
		<text><tspan font-family="Helvetica" > 400</tspan></text>
	</g>
</g>
<g fill="none" color="black" stroke="currentColor" stroke-width="1.00" stroke-linecap="butt" stroke-linejoin="miter">
	<path stroke='black'  d='M581.6,662.4 L581.6,653.4  '/>	<g transform="translate(581.6,684.3)" stroke="none" fill="black" font-family="Helvetica" font-size="12.00"  text-anchor="middle">
		<text><tspan font-family="Helvetica" > 500</tspan></text>
	</g>
</g>
<g fill="none" color="black" stroke="currentColor" stroke-width="1.00" stroke-linecap="butt" stroke-linejoin="miter">
	<path stroke='black'  d='M717.7,662.4 L717.7,653.4  '/>	<g transform="translate(717.7,684.3)" stroke="none" fill="black" font-family="Helvetica" font-size="12.00"  text-anchor="middle">
		<text><tspan font-family="Helvetica" > 600</tspan></text>
	</g>
</g>
<g fill="none" color="black" stroke="currentColor" stroke-width="1.00" stroke-linecap="butt" stroke-linejoin="miter">
	<path stroke='black'  d='M853.9,662.4 L853.9,653.4  '/>	<g transform="translate(853.9,684.3)" stroke="none" fill="black" font-family="Helvetica" font-size="12.00"  text-anchor="middle">
		<text><tspan font-family="Helvetica" > 700</tspan></text>
	</g>
</g>
<g fill="none" color="black" stroke="currentColor" stroke-width="1.00" stroke-linecap="butt" stroke-linejoin="miter">
	<path stroke='black'  d='M990.1,662.4 L990.1,653.4  '/>	<g transform="translate(990.1,684.3)" stroke="none" fill="black" font-family="Helvetica" font-size="12.00"  text-anchor="middle">
		<text><tspan font-family="Helvetica" > 800</tspan></text>
	</g>
</g>
<g fill="none" color="black" stroke="currentColor" stroke-width="1.00" stroke-linecap="butt" stroke-linejoin="miter">
</g>
<g fill="none" color="black" stroke="currentColor" stroke-width="1.00" stroke-linecap="butt" stroke-linejoin="miter">
	<path stroke='black'  d='M96.8,54.1 L96.8,662.4 L1013.6,662.4 L1013.6,54.1 L96.8,54.1 Z  '/></g>
<g fill="none" color="black" stroke="currentColor" stroke-width="1.00" stroke-linecap="butt" stroke-linejoin="miter">
	<g transform="translate(16.3,358.3) rotate(270)" stroke="none" fill="black" font-family="Helvetica" font-size="12.00"  text-anchor="middle">
		<text><tspan font-family="Helvetica" >Density (a.u.)</tspan></text>
	</g>
</g>
<g fill="none" color="black" stroke="currentColor" stroke-width="1.00" stroke-linecap="butt" stroke-linejoin="miter">
	<g transform="translate(555.2,711.3)" stroke="none" fill="black" font-family="Helvetica" font-size="12.00"  text-anchor="middle">
		<text><tspan font-family="Helvetica" >Average time (ns)</tspan></text>
	</g>
</g>
<g fill="none" color="black" stroke="currentColor" stroke-width="1.00" stroke-linecap="butt" stroke-linejoin="miter">
	<g transform="translate(555.2,31.0)" stroke="none" fill="black" font-family="Helvetica" font-size="12.00"  text-anchor="middle">
		<text><tspan font-family="Helvetica" >snapshot_restore_with_dense/Dense: Entire region + process_vm_writev/2: SD</tspan></text>
	</g>
</g>
	<g id="gnuplot_plot_1" ><title>Bootstrap distribution</title>
<g fill="none" color="white" stroke="black" stroke-width="2.00" stroke-linecap="butt" stroke-linejoin="miter">
</g>
<g fill="none" color="black" stroke="currentColor" stroke-width="2.00" stroke-linecap="butt" stroke-linejoin="miter">
	<g transform="translate(1089.0,67.0)" stroke="none" fill="black" font-family="Helvetica" font-size="12.00"  text-anchor="start">
		<text><tspan font-family="Helvetica" >Bootstrap distribution</tspan></text>
	</g>
</g>
<g fill="none" color="black" stroke="currentColor" stroke-width="2.00" stroke-linecap="butt" stroke-linejoin="miter">
	<path stroke='rgb( 31, 120, 180)'  d='M1038.5,63.1 L1080.7,63.1 M96.8,641.0 L98.6,640.1 L100.5,639.3 L102.3,638.4 L104.1,637.5 L106.0,636.6
		L107.8,635.6 L109.7,634.5 L111.5,633.5 L113.3,632.3 L115.2,631.2 L117.0,629.9 L118.8,628.7 L120.7,627.3
		L122.5,625.9 L124.4,624.5 L126.2,623.0 L128.0,621.4 L129.9,619.7 L131.7,618.0 L133.5,616.2 L135.4,614.4
		L137.2,612.5 L139.1,610.5 L140.9,608.5 L142.7,606.4 L144.6,604.3 L146.4,602.0 L148.2,599.8 L150.1,597.5
		L151.9,595.1 L153.8,592.7 L155.6,590.3 L157.4,587.8 L159.3,585.2 L161.1,582.7 L162.9,580.1 L164.8,577.4
		L166.6,574.7 L168.5,572.0 L170.3,569.2 L172.1,566.4 L174.0,563.5 L175.8,560.6 L177.6,557.7 L179.5,554.7
		L181.3,551.6 L183.2,548.5 L185.0,545.4 L186.8,542.2 L188.7,538.9 L190.5,535.6 L192.3,532.2 L194.2,528.8
		L196.0,525.3 L197.9,521.7 L199.7,518.1 L201.5,514.4 L203.4,510.6 L205.2,506.8 L207.0,502.9 L208.9,498.9
		L210.7,494.9 L212.5,490.8 L214.4,486.7 L216.2,482.5 L218.1,478.3 L219.9,474.0 L221.7,469.7 L223.6,465.3
		L225.4,460.9 L227.2,456.5 L229.1,452.1 L230.9,447.7 L232.8,443.2 L234.6,438.8 L236.4,434.4 L238.3,429.9
		L240.1,425.6 L241.9,421.2 L243.8,416.9 L245.6,412.6 L247.5,408.4 L249.3,404.2 L251.1,400.1 L253.0,396.1
		L254.8,392.1 L256.6,388.2 L258.5,384.4 L260.3,380.7 L262.2,377.1 L264.0,373.6 L265.8,370.1 L267.7,366.8
		L269.5,363.5 L271.3,360.4 L273.2,357.3 L275.0,354.3 L276.9,351.5 L278.7,348.7 L280.5,346.0 L282.4,343.4
		L284.2,340.9 L286.0,338.6 L287.9,336.3 L289.7,334.1 L291.6,332.1 L293.4,330.2 L295.2,328.3 L297.1,326.6
		L298.9,325.1 L300.7,323.6 L302.6,322.3 L304.4,321.1 L306.2,320.1 L308.1,319.2 L309.9,318.5 L311.8,317.9
		L313.6,317.4 L315.4,317.2 L317.3,317.0 L319.1,317.1 L320.9,317.3 L322.8,317.6 L324.6,318.2 L326.5,318.8
		L328.3,319.7 L330.1,320.7 L332.0,321.8 L333.8,323.1 L335.6,324.5 L337.5,326.1 L339.3,327.9 L341.2,329.7
		L343.0,331.7 L344.8,333.8 L346.7,336.0 L348.5,338.4 L350.3,340.8 L352.2,343.4 L354.0,346.1 L355.9,348.9
		L357.7,351.7 L359.5,354.7 L361.4,357.8 L363.2,360.9 L365.0,364.2 L366.9,367.5 L368.7,370.9 L370.6,374.4
		L372.4,378.0 L374.2,381.7 L376.1,385.5 L377.9,389.3 L379.7,393.2 L381.6,397.2 L383.4,401.3 L385.3,405.4
		L387.1,409.6 L388.9,413.9 L390.8,418.2 L392.6,422.6 L394.4,427.0 L396.3,431.4 L398.1,435.9 L400.0,440.4
		L401.8,444.9 L403.6,449.4 L405.5,453.9 L407.3,458.3 L409.1,462.8 L411.0,467.2 L412.8,471.6 L414.6,475.8
		L416.5,480.1 L418.3,484.2 L420.2,488.2 L422.0,492.1 L423.8,495.9 L425.7,499.5 L427.5,502.9 L429.3,506.2
		L431.2,509.3 L433.0,512.2 L434.9,514.9 L436.7,517.3 L438.5,519.5 L440.4,521.4 L442.2,523.1 L444.0,524.4
		L445.9,525.5 L447.7,526.2 L449.6,526.6 L451.4,526.6 L453.2,526.3 L455.1,525.7 L456.9,524.6 L458.7,523.2
		L460.6,521.3 L462.4,519.1 L464.3,516.4 L466.1,513.4 L467.9,509.9 L469.8,506.0 L471.6,501.6 L473.4,496.8
		L475.3,491.6 L477.1,486.0 L479.0,479.9 L480.8,473.4 L482.6,466.6 L484.5,459.3 L486.3,451.6 L488.1,443.6
		L490.0,435.2 L491.8,426.5 L493.7,417.4 L495.5,408.1 L497.3,398.4 L499.2,388.6 L501.0,378.4 L502.8,368.1
		L504.7,357.6 L506.5,346.9 L508.3,336.1 L510.2,325.2 L512.0,314.2 L513.9,303.2 L515.7,292.2 L517.5,281.1
		L519.4,270.1 L521.2,259.2 L523.0,248.3 L524.9,237.6 L526.7,227.1 L528.6,216.7 L530.4,206.5 L532.2,196.6
		L534.1,187.0 L535.9,177.6 L537.7,168.6 L539.6,159.9 L541.4,151.6 L543.3,143.8 L545.1,136.3 L546.9,129.3
		L548.8,122.8 L550.6,116.9 L552.4,111.4 L554.3,106.5 L556.1,102.2 L558.0,98.5 L559.8,95.3 L561.6,92.8
		L563.5,91.0 L565.3,89.7 L567.1,89.2 L569.0,89.2 L570.8,90.0 L572.7,91.3 L574.5,93.4 L576.3,96.0
		L578.2,99.3 L580.0,103.2 L581.8,107.7 L583.7,112.8 L585.5,118.5 L587.4,124.7 L589.2,131.4 L591.0,138.6
		L592.9,146.2 L594.7,154.3 L596.5,162.9 L598.4,171.8 L600.2,181.0 L602.1,190.6 L603.9,200.5 L605.7,210.7
		L607.6,221.1 L609.4,231.7 L611.2,242.5 L613.1,253.4 L614.9,264.5 L616.7,275.6 L618.6,286.9 L620.4,298.1
		L622.3,309.4 L624.1,320.6 L625.9,331.8 L627.8,342.8 L629.6,353.8 L631.4,364.6 L633.3,375.2 L635.1,385.5
		L637.0,395.6 L638.8,405.5 L640.6,415.0 L642.5,424.2 L644.3,432.9 L646.1,441.3 L648.0,449.3 L649.8,456.8
		L651.7,463.8 L653.5,470.3 L655.3,476.2 L657.2,481.6 L659.0,486.4 L660.8,490.6 L662.7,494.3 L664.5,497.2
		L666.4,499.6 L668.2,501.3 L670.0,502.4 L671.9,502.8 L673.7,502.5 L675.5,501.6 L677.4,500.1 L679.2,498.0
		L681.1,495.2 L682.9,491.8 L684.7,487.8 L686.6,483.3 L688.4,478.3 L690.2,472.7 L692.1,466.7 L693.9,460.3
		L695.8,453.5 L697.6,446.3 L699.4,438.8 L701.3,431.1 L703.1,423.1 L704.9,415.0 L706.8,406.8 L708.6,398.6
		L710.4,390.3 L712.3,382.1 L714.1,374.0 L716.0,366.0 L717.8,358.2 L719.6,350.7 L721.5,343.5 L723.3,336.6
		L725.1,330.1 L727.0,324.0 L728.8,318.4 L730.7,313.2 L732.5,308.6 L734.3,304.6 L736.2,301.1 L738.0,298.3
		L739.8,296.0 L741.7,294.4 L743.5,293.5 L745.4,293.2 L747.2,293.6 L749.0,294.6 L750.9,296.2 L752.7,298.6
		L754.5,301.5 L756.4,305.1 L758.2,309.2 L760.1,314.0 L761.9,319.2 L763.7,325.1 L765.6,331.4 L767.4,338.1
		L769.2,345.3 L771.1,352.8 L772.9,360.7 L774.8,369.0 L776.6,377.4 L778.4,386.1 L780.3,395.0 L782.1,404.0
		L783.9,413.1 L785.8,422.3 L787.6,431.4 L789.5,440.6 L791.3,449.6 L793.1,458.6 L795.0,467.5 L796.8,476.1
		L798.6,484.6 L800.5,492.8 L802.3,500.8 L804.2,508.5 L806.0,515.8 L807.8,522.9 L809.7,529.5 L811.5,535.8
		L813.3,541.7 L815.2,547.2 L817.0,552.2 L818.8,556.8 L820.7,561.0 L822.5,564.7 L824.4,568.0 L826.2,570.8
		L828.0,573.1 L829.9,575.0 L831.7,576.4 L833.5,577.4 L835.4,578.0 L837.2,578.2 L839.1,577.9 L840.9,577.3
		L842.7,576.3 L844.6,575.0 L846.4,573.3 L848.2,571.4 L850.1,569.3 L851.9,566.9 L853.8,564.3 L855.6,561.5
		L857.4,558.7 L859.3,555.7 L861.1,552.7 L862.9,549.7 L864.8,546.7 L866.6,543.7 L868.5,540.8 L870.3,538.1
		L872.1,535.5 L874.0,533.0 L875.8,530.8 L877.6,528.8 L879.5,527.0 L881.3,525.6 L883.2,524.4 L885.0,523.5
		L886.8,522.9 L888.7,522.6 L890.5,522.7 L892.3,523.1 L894.2,523.8 L896.0,524.8 L897.9,526.1 L899.7,527.8
		L901.5,529.7 L903.4,531.9 L905.2,534.4 L907.0,537.1 L908.9,540.1 L910.7,543.3 L912.5,546.6 L914.4,550.1
		L916.2,553.7 L918.1,557.5 L919.9,561.3 L921.7,565.2 L923.6,569.2 L925.4,573.1 L927.2,577.1 L929.1,581.0
		L930.9,584.9 L932.8,588.7 L934.6,592.4 L936.4,596.1 L938.3,599.6 L940.1,603.0 L941.9,606.2 L943.8,609.3
		L945.6,612.2 L947.5,614.9 L949.3,617.5 L951.1,619.9 L953.0,622.0 L954.8,624.0 L956.6,625.8 L958.5,627.4
		L960.3,628.8 L962.2,630.0 L964.0,631.0 L965.8,631.8 L967.7,632.5 L969.5,632.9 L971.3,633.2 L973.2,633.4
		L975.0,633.4 L976.9,633.3 L978.7,633.0 L980.5,632.6 L982.4,632.2 L984.2,631.6 L986.0,631.0 L987.9,630.4
		L989.7,629.7 L991.6,628.9 L993.4,628.2 L995.2,627.5 L997.1,626.8 L998.9,626.1 L1000.7,625.5 L1002.6,625.0
		L1004.4,624.5 L1006.3,624.1 L1008.1,623.8 L1009.9,623.6 L1011.8,623.4 L1013.6,623.4  '/></g>
	</g>
	<g id="gnuplot_plot_2" ><title>Confidence interval</title>
<g fill="none" color="white" stroke="rgb( 31, 120, 180)" stroke-width="1.00" stroke-linecap="butt" stroke-linejoin="miter">
</g>
<g fill="none" color="black" stroke="currentColor" stroke-width="1.00" stroke-linecap="butt" stroke-linejoin="miter">
	<g transform="translate(1089.0,85.0)" stroke="none" fill="black" font-family="Helvetica" font-size="12.00"  text-anchor="start">
		<text><tspan font-family="Helvetica" >Confidence interval</tspan></text>
	</g>
</g>
<g fill="none" color="black" stroke="currentColor" stroke-width="1.00" stroke-linecap="butt" stroke-linejoin="miter">
	<g stroke='none' shape-rendering='crispEdges'>
		<polygon fill = 'rgb( 31, 120, 180)' fill-opacity = '0.250000' points = '1038.5,85.6 1080.7,85.6 1080.7,76.6 1038.5,76.6 '/>
		<polygon fill = 'rgb( 31, 120, 180)' fill-opacity = '0.250000' points = '181.3,551.6 183.2,548.5 185.0,545.4 186.8,542.2 188.7,538.9 190.5,535.6 192.3,532.2 194.2,528.8 196.0,525.3 197.9,521.7 199.7,518.1 201.5,514.4 203.4,510.6 205.2,506.8 207.0,502.9 208.9,498.9
210.7,494.9 212.5,490.8 214.4,486.7 216.2,482.5 218.1,478.3 219.9,474.0 221.7,469.7 223.6,465.3 225.4,460.9 227.2,456.5 229.1,452.1 230.9,447.7 232.8,443.2 234.6,438.8 236.4,434.4 238.3,429.9
240.1,425.6 241.9,421.2 243.8,416.9 245.6,412.6 247.5,408.4 249.3,404.2 251.1,400.1 253.0,396.1 254.8,392.1 256.6,388.2 258.5,384.4 260.3,380.7 262.2,377.1 264.0,373.6 265.8,370.1 267.7,366.8
269.5,363.5 271.3,360.4 273.2,357.3 275.0,354.3 276.9,351.5 278.7,348.7 280.5,346.0 282.4,343.4 284.2,340.9 286.0,338.6 287.9,336.3 289.7,334.1 291.6,332.1 293.4,330.2 295.2,328.3 297.1,326.6
298.9,325.1 300.7,323.6 302.6,322.3 304.4,321.1 306.2,320.1 308.1,319.2 309.9,318.5 311.8,317.9 313.6,317.4 315.4,317.2 317.3,317.0 319.1,317.1 320.9,317.3 322.8,317.6 324.6,318.2 326.5,318.8
328.3,319.7 330.1,320.7 332.0,321.8 333.8,323.1 335.6,324.5 337.5,326.1 339.3,327.9 341.2,329.7 343.0,331.7 344.8,333.8 346.7,336.0 348.5,338.4 350.3,340.8 352.2,343.4 354.0,346.1 355.9,348.9
357.7,351.7 359.5,354.7 361.4,357.8 363.2,360.9 365.0,364.2 366.9,367.5 368.7,370.9 370.6,374.4 372.4,378.0 374.2,381.7 376.1,385.5 377.9,389.3 379.7,393.2 381.6,397.2 383.4,401.3 385.3,405.4
387.1,409.6 388.9,413.9 390.8,418.2 392.6,422.6 394.4,427.0 396.3,431.4 398.1,435.9 400.0,440.4 401.8,444.9 403.6,449.4 405.5,453.9 407.3,458.3 409.1,462.8 411.0,467.2 412.8,471.6 414.6,475.8
416.5,480.1 418.3,484.2 420.2,488.2 422.0,492.1 423.8,495.9 425.7,499.5 427.5,502.9 429.3,506.2 431.2,509.3 433.0,512.2 434.9,514.9 436.7,517.3 438.5,519.5 440.4,521.4 442.2,523.1 444.0,524.4
445.9,525.5 447.7,526.2 449.6,526.6 451.4,526.6 453.2,526.3 455.1,525.7 456.9,524.6 458.7,523.2 460.6,521.3 462.4,519.1 464.3,516.4 466.1,513.4 467.9,509.9 469.8,506.0 471.6,501.6 473.4,496.8
475.3,491.6 477.1,486.0 479.0,479.9 480.8,473.4 482.6,466.6 484.5,459.3 486.3,451.6 488.1,443.6 490.0,435.2 491.8,426.5 493.7,417.4 495.5,408.1 497.3,398.4 499.2,388.6 501.0,378.4 502.8,368.1
504.7,357.6 506.5,346.9 508.3,336.1 510.2,325.2 512.0,314.2 513.9,303.2 515.7,292.2 517.5,281.1 519.4,270.1 521.2,259.2 523.0,248.3 524.9,237.6 526.7,227.1 528.6,216.7 530.4,206.5 532.2,196.6
534.1,187.0 535.9,177.6 537.7,168.6 539.6,159.9 541.4,151.6 543.3,143.8 545.1,136.3 546.9,129.3 548.8,122.8 550.6,116.9 552.4,111.4 554.3,106.5 556.1,102.2 558.0,98.5 559.8,95.3 561.6,92.8
563.5,91.0 565.3,89.7 567.1,89.2 569.0,89.2 570.8,90.0 572.7,91.3 574.5,93.4 576.3,96.0 578.2,99.3 580.0,103.2 581.8,107.7 583.7,112.8 585.5,118.5 587.4,124.7 589.2,131.4 591.0,138.6
592.9,146.2 594.7,154.3 596.5,162.9 598.4,171.8 600.2,181.0 602.1,190.6 603.9,200.5 605.7,210.7 607.6,221.1 609.4,231.7 611.2,242.5 613.1,253.4 614.9,264.5 616.7,275.6 618.6,286.9 620.4,298.1
622.3,309.4 624.1,320.6 625.9,331.8 627.8,342.8 629.6,353.8 631.4,364.6 633.3,375.2 635.1,385.5 637.0,395.6 638.8,405.5 640.6,415.0 642.5,424.2 644.3,432.9 646.1,441.3 648.0,449.3 649.8,456.8
651.7,463.8 653.5,470.3 655.3,476.2 657.2,481.6 659.0,486.4 660.8,490.6 662.7,494.3 664.5,497.2 666.4,499.6 668.2,501.3 670.0,502.4 671.9,502.8 673.7,502.5 675.5,501.6 677.4,500.1 679.2,498.0
681.1,495.2 682.9,491.8 684.7,487.8 686.6,483.3 688.4,478.3 690.2,472.7 692.1,466.7 693.9,460.3 695.8,453.5 697.6,446.3 699.4,438.8 701.3,431.1 703.1,423.1 704.9,415.0 706.8,406.8 708.6,398.6
710.4,390.3 712.3,382.1 714.1,374.0 716.0,366.0 717.8,358.2 719.6,350.7 721.5,343.5 723.3,336.6 725.1,330.1 727.0,324.0 728.8,318.4 730.7,313.2 732.5,308.6 734.3,304.6 736.2,301.1 738.0,298.3
739.8,296.0 741.7,294.4 743.5,293.5 745.4,293.2 747.2,293.6 749.0,294.6 750.9,296.2 752.7,298.6 754.5,301.5 756.4,305.1 758.2,309.2 760.1,314.0 761.9,319.2 763.7,325.1 765.6,331.4 767.4,338.1
769.2,345.3 771.1,352.8 772.9,360.7 774.8,369.0 776.6,377.4 778.4,386.1 780.3,395.0 782.1,404.0 783.9,413.1 785.8,422.3 787.6,431.4 789.5,440.6 791.3,449.6 793.1,458.6 795.0,467.5 796.8,476.1
798.6,484.6 800.5,492.8 802.3,500.8 804.2,508.5 806.0,515.8 807.8,522.9 809.7,529.5 811.5,535.8 813.3,541.7 815.2,547.2 817.0,552.2 818.8,556.8 820.7,561.0 822.5,564.7 824.4,568.0 826.2,570.8
828.0,573.1 829.9,575.0 831.7,576.4 833.5,577.4 835.4,578.0 837.2,578.2 839.1,577.9 840.9,577.3 842.7,576.3 844.6,575.0 846.4,573.3 848.2,571.4 850.1,569.3 851.9,566.9 853.8,564.3 855.6,561.5
857.4,558.7 859.3,555.7 861.1,552.7 862.9,549.7 864.8,546.7 866.6,543.7 868.5,540.8 870.3,538.1 872.1,535.5 874.0,533.0 875.8,530.8 877.6,528.8 879.5,527.0 881.3,525.6 883.2,524.4 885.0,523.5
886.8,522.9 888.7,522.6 890.5,522.7 892.3,523.1 894.2,523.8 896.0,524.8 897.9,526.1 899.7,527.8 901.5,529.7 903.4,531.9 905.2,534.4 907.0,537.1 908.9,540.1 910.7,543.3 912.5,546.6 914.4,550.1
916.2,553.7 918.1,557.5 919.9,561.3 921.7,565.2 923.6,569.2 925.4,573.1 927.2,577.1 927.2,662.4 925.4,662.4 923.6,662.4 921.7,662.4 919.9,662.4 918.1,662.4 916.2,662.4 914.4,662.4 912.5,662.4
910.7,662.4 908.9,662.4 907.0,662.4 905.2,662.4 903.4,662.4 901.5,662.4 899.7,662.4 897.9,662.4 896.0,662.4 894.2,662.4 892.3,662.4 890.5,662.4 888.7,662.4 886.8,662.4 885.0,662.4 883.2,662.4
881.3,662.4 879.5,662.4 877.6,662.4 875.8,662.4 874.0,662.4 872.1,662.4 870.3,662.4 868.5,662.4 866.6,662.4 864.8,662.4 862.9,662.4 861.1,662.4 859.3,662.4 857.4,662.4 855.6,662.4 853.8,662.4
851.9,662.4 850.1,662.4 848.2,662.4 846.4,662.4 844.6,662.4 842.7,662.4 840.9,662.4 839.1,662.4 837.2,662.4 835.4,662.4 833.5,662.4 831.7,662.4 829.9,662.4 828.0,662.4 826.2,662.4 824.4,662.4
822.5,662.4 820.7,662.4 818.8,662.4 817.0,662.4 815.2,662.4 813.3,662.4 811.5,662.4 809.7,662.4 807.8,662.4 806.0,662.4 804.2,662.4 802.3,662.4 800.5,662.4 798.6,662.4 796.8,662.4 795.0,662.4
793.1,662.4 791.3,662.4 789.5,662.4 787.6,662.4 785.8,662.4 783.9,662.4 782.1,662.4 780.3,662.4 778.4,662.4 776.6,662.4 774.8,662.4 772.9,662.4 771.1,662.4 769.2,662.4 767.4,662.4 765.6,662.4
763.7,662.4 761.9,662.4 760.1,662.4 758.2,662.4 756.4,662.4 754.5,662.4 752.7,662.4 750.9,662.4 749.0,662.4 747.2,662.4 745.4,662.4 743.5,662.4 741.7,662.4 739.8,662.4 738.0,662.4 736.2,662.4
734.3,662.4 732.5,662.4 730.7,662.4 728.8,662.4 727.0,662.4 725.1,662.4 723.3,662.4 721.5,662.4 719.6,662.4 717.8,662.4 716.0,662.4 714.1,662.4 712.3,662.4 710.4,662.4 708.6,662.4 706.8,662.4
704.9,662.4 703.1,662.4 701.3,662.4 699.4,662.4 697.6,662.4 695.8,662.4 693.9,662.4 692.1,662.4 690.2,662.4 688.4,662.4 686.6,662.4 684.7,662.4 682.9,662.4 681.1,662.4 679.2,662.4 677.4,662.4
675.5,662.4 673.7,662.4 671.9,662.4 670.0,662.4 668.2,662.4 666.4,662.4 664.5,662.4 662.7,662.4 660.8,662.4 659.0,662.4 657.2,662.4 655.3,662.4 653.5,662.4 651.7,662.4 649.8,662.4 648.0,662.4
646.1,662.4 644.3,662.4 642.5,662.4 640.6,662.4 638.8,662.4 637.0,662.4 635.1,662.4 633.3,662.4 631.4,662.4 629.6,662.4 627.8,662.4 625.9,662.4 624.1,662.4 622.3,662.4 620.4,662.4 618.6,662.4
616.7,662.4 614.9,662.4 613.1,662.4 611.2,662.4 609.4,662.4 607.6,662.4 605.7,662.4 603.9,662.4 602.1,662.4 600.2,662.4 598.4,662.4 596.5,662.4 594.7,662.4 592.9,662.4 591.0,662.4 589.2,662.4
587.4,662.4 585.5,662.4 583.7,662.4 581.8,662.4 580.0,662.4 578.2,662.4 576.3,662.4 574.5,662.4 572.7,662.4 570.8,662.4 569.0,662.4 567.1,662.4 565.3,662.4 563.5,662.4 561.6,662.4 559.8,662.4
558.0,662.4 556.1,662.4 554.3,662.4 552.4,662.4 550.6,662.4 548.8,662.4 546.9,662.4 545.1,662.4 543.3,662.4 541.4,662.4 539.6,662.4 537.7,662.4 535.9,662.4 534.1,662.4 532.2,662.4 530.4,662.4
528.6,662.4 526.7,662.4 524.9,662.4 523.0,662.4 521.2,662.4 519.4,662.4 517.5,662.4 515.7,662.4 513.9,662.4 512.0,662.4 510.2,662.4 508.3,662.4 506.5,662.4 504.7,662.4 502.8,662.4 501.0,662.4
499.2,662.4 497.3,662.4 495.5,662.4 493.7,662.4 491.8,662.4 490.0,662.4 488.1,662.4 486.3,662.4 484.5,662.4 482.6,662.4 480.8,662.4 479.0,662.4 477.1,662.4 475.3,662.4 473.4,662.4 471.6,662.4
469.8,662.4 467.9,662.4 466.1,662.4 464.3,662.4 462.4,662.4 460.6,662.4 458.7,662.4 456.9,662.4 455.1,662.4 453.2,662.4 451.4,662.4 449.6,662.4 447.7,662.4 445.9,662.4 444.0,662.4 442.2,662.4
440.4,662.4 438.5,662.4 436.7,662.4 434.9,662.4 433.0,662.4 431.2,662.4 429.3,662.4 427.5,662.4 425.7,662.4 423.8,662.4 422.0,662.4 420.2,662.4 418.3,662.4 416.5,662.4 414.6,662.4 412.8,662.4
411.0,662.4 409.1,662.4 407.3,662.4 405.5,662.4 403.6,662.4 401.8,662.4 400.0,662.4 398.1,662.4 396.3,662.4 394.4,662.4 392.6,662.4 390.8,662.4 388.9,662.4 387.1,662.4 385.3,662.4 383.4,662.4
381.6,662.4 379.7,662.4 377.9,662.4 376.1,662.4 374.2,662.4 372.4,662.4 370.6,662.4 368.7,662.4 366.9,662.4 365.0,662.4 363.2,662.4 361.4,662.4 359.5,662.4 357.7,662.4 355.9,662.4 354.0,662.4
352.2,662.4 350.3,662.4 348.5,662.4 346.7,662.4 344.8,662.4 343.0,662.4 341.2,662.4 339.3,662.4 337.5,662.4 335.6,662.4 333.8,662.4 332.0,662.4 330.1,662.4 328.3,662.4 326.5,662.4 324.6,662.4
322.8,662.4 320.9,662.4 319.1,662.4 317.3,662.4 315.4,662.4 313.6,662.4 311.8,662.4 309.9,662.4 308.1,662.4 306.2,662.4 304.4,662.4 302.6,662.4 300.7,662.4 298.9,662.4 297.1,662.4 295.2,662.4
293.4,662.4 291.6,662.4 289.7,662.4 287.9,662.4 286.0,662.4 284.2,662.4 282.4,662.4 280.5,662.4 278.7,662.4 276.9,662.4 275.0,662.4 273.2,662.4 271.3,662.4 269.5,662.4 267.7,662.4 265.8,662.4
264.0,662.4 262.2,662.4 260.3,662.4 258.5,662.4 256.6,662.4 254.8,662.4 253.0,662.4 251.1,662.4 249.3,662.4 247.5,662.4 245.6,662.4 243.8,662.4 241.9,662.4 240.1,662.4 238.3,662.4 236.4,662.4
234.6,662.4 232.8,662.4 230.9,662.4 229.1,662.4 227.2,662.4 225.4,662.4 223.6,662.4 221.7,662.4 219.9,662.4 218.1,662.4 216.2,662.4 214.4,662.4 212.5,662.4 210.7,662.4 208.9,662.4 207.0,662.4
205.2,662.4 203.4,662.4 201.5,662.4 199.7,662.4 197.9,662.4 196.0,662.4 194.2,662.4 192.3,662.4 190.5,662.4 188.7,662.4 186.8,662.4 185.0,662.4 183.2,662.4 181.3,662.4 '/>
	</g>
</g>
	</g>
	<g id="gnuplot_plot_3" ><title>Point estimate</title>
<g fill="none" color="white" stroke="rgb( 31, 120, 180)" stroke-width="2.00" stroke-linecap="butt" stroke-linejoin="miter">
</g>
<g fill="none" color="black" stroke="currentColor" stroke-width="2.00" stroke-linecap="butt" stroke-linejoin="miter">
	<g transform="translate(1089.0,103.0)" stroke="none" fill="black" font-family="Helvetica" font-size="12.00"  text-anchor="start">
		<text><tspan font-family="Helvetica" >Point estimate</tspan></text>
	</g>
</g>
<g fill="none" color="black" stroke="currentColor" stroke-width="2.00" stroke-linecap="butt" stroke-linejoin="miter">
	<path stroke='rgb( 31, 120, 180)'  d='M1038.5,99.1 L1080.7,99.1 M573.8,662.4 L573.8,92.6  '/></g>
	</g>
<g fill="none" color="black" stroke="currentColor" stroke-width="2.00" stroke-linecap="butt" stroke-linejoin="miter">
</g>
<g fill="none" color="black" stroke="black" stroke-width="1.00" stroke-linecap="butt" stroke-linejoin="miter">
</g>
<g fill="none" color="black" stroke="currentColor" stroke-width="1.00" stroke-linecap="butt" stroke-linejoin="miter">
	<path stroke='black'  d='M96.8,54.1 L96.8,662.4 L1013.6,662.4 L1013.6,54.1 L96.8,54.1 Z  '/></g>
<g fill="none" color="black" stroke="currentColor" stroke-width="1.00" stroke-linecap="butt" stroke-linejoin="miter">
</g>
</g>
</svg>

