group,function,value,throughput_num,throughput_type,sample_measured_value,unit,iteration_count
snapshot_restore_with_dense,Dense: Entire region + process_vm_writev,100,,,1063198.0,ns,19
snapshot_restore_with_dense,Dense: Entire region + process_vm_writev,100,,,2009348.0,ns,38
snapshot_restore_with_dense,Dense: Entire region + process_vm_writev,100,,,3016064.0,ns,57
snapshot_restore_with_dense,Dense: Entire region + process_vm_writev,100,,,4006599.0,ns,76
snapshot_restore_with_dense,Dense: Entire region + process_vm_writev,100,,,5104863.0,ns,95
snapshot_restore_with_dense,Dense: Entire region + process_vm_writev,100,,,6024390.0,ns,114
snapshot_restore_with_dense,Dense: Entire region + process_vm_writev,100,,,8140395.0,ns,133
snapshot_restore_with_dense,Dense: Entire region + process_vm_writev,100,,,12416952.0,ns,152
snapshot_restore_with_dense,Dense: Entire region + process_vm_writev,100,,,9073175.0,ns,171
snapshot_restore_with_dense,Dense: Entire region + process_vm_writev,100,,,10073922.0,ns,190
snapshot_restore_with_dense,Dense: Entire region + process_vm_writev,100,,,10977775.0,ns,209
snapshot_restore_with_dense,Dense: Entire region + process_vm_writev,100,,,11982152.0,ns,228
snapshot_restore_with_dense,Dense: Entire region + process_vm_writev,100,,,13056537.0,ns,247
snapshot_restore_with_dense,Dense: Entire region + process_vm_writev,100,,,14005510.0,ns,266
snapshot_restore_with_dense,Dense: Entire region + process_vm_writev,100,,,15014834.0,ns,285
snapshot_restore_with_dense,Dense: Entire region + process_vm_writev,100,,,15968741.0,ns,304
snapshot_restore_with_dense,Dense: Entire region + process_vm_writev,100,,,16935636.0,ns,323
snapshot_restore_with_dense,Dense: Entire region + process_vm_writev,100,,,17955520.0,ns,342
snapshot_restore_with_dense,Dense: Entire region + process_vm_writev,100,,,18999253.0,ns,361
snapshot_restore_with_dense,Dense: Entire region + process_vm_writev,100,,,19983874.0,ns,380
snapshot_restore_with_dense,Dense: Entire region + process_vm_writev,100,,,20924189.0,ns,399
snapshot_restore_with_dense,Dense: Entire region + process_vm_writev,100,,,21931899.0,ns,418
snapshot_restore_with_dense,Dense: Entire region + process_vm_writev,100,,,22932759.0,ns,437
snapshot_restore_with_dense,Dense: Entire region + process_vm_writev,100,,,24020868.0,ns,456
snapshot_restore_with_dense,Dense: Entire region + process_vm_writev,100,,,24980505.0,ns,475
snapshot_restore_with_dense,Dense: Entire region + process_vm_writev,100,,,25930187.0,ns,494
snapshot_restore_with_dense,Dense: Entire region + process_vm_writev,100,,,26913884.0,ns,513
snapshot_restore_with_dense,Dense: Entire region + process_vm_writev,100,,,27987505.0,ns,532
snapshot_restore_with_dense,Dense: Entire region + process_vm_writev,100,,,28932515.0,ns,551
snapshot_restore_with_dense,Dense: Entire region + process_vm_writev,100,,,29894135.0,ns,570
snapshot_restore_with_dense,Dense: Entire region + process_vm_writev,100,,,31012048.0,ns,589
snapshot_restore_with_dense,Dense: Entire region + process_vm_writev,100,,,31898942.0,ns,608
snapshot_restore_with_dense,Dense: Entire region + process_vm_writev,100,,,34331389.0,ns,627
snapshot_restore_with_dense,Dense: Entire region + process_vm_writev,100,,,33989443.0,ns,646
snapshot_restore_with_dense,Dense: Entire region + process_vm_writev,100,,,34939771.0,ns,665
snapshot_restore_with_dense,Dense: Entire region + process_vm_writev,100,,,35877920.0,ns,684
snapshot_restore_with_dense,Dense: Entire region + process_vm_writev,100,,,36914123.0,ns,703
snapshot_restore_with_dense,Dense: Entire region + process_vm_writev,100,,,37898728.0,ns,722
snapshot_restore_with_dense,Dense: Entire region + process_vm_writev,100,,,38881985.0,ns,741
snapshot_restore_with_dense,Dense: Entire region + process_vm_writev,100,,,40005903.0,ns,760
snapshot_restore_with_dense,Dense: Entire region + process_vm_writev,100,,,45712981.0,ns,779
snapshot_restore_with_dense,Dense: Entire region + process_vm_writev,100,,,42079609.0,ns,798
snapshot_restore_with_dense,Dense: Entire region + process_vm_writev,100,,,43085081.0,ns,817
snapshot_restore_with_dense,Dense: Entire region + process_vm_writev,100,,,44011684.0,ns,836
snapshot_restore_with_dense,Dense: Entire region + process_vm_writev,100,,,45090450.0,ns,855
snapshot_restore_with_dense,Dense: Entire region + process_vm_writev,100,,,46084417.0,ns,874
snapshot_restore_with_dense,Dense: Entire region + process_vm_writev,100,,,47083433.0,ns,893
snapshot_restore_with_dense,Dense: Entire region + process_vm_writev,100,,,47991122.0,ns,912
snapshot_restore_with_dense,Dense: Entire region + process_vm_writev,100,,,48967058.0,ns,931
snapshot_restore_with_dense,Dense: Entire region + process_vm_writev,100,,,49858680.0,ns,950
snapshot_restore_with_dense,Dense: Entire region + process_vm_writev,100,,,50986229.0,ns,969
snapshot_restore_with_dense,Dense: Entire region + process_vm_writev,100,,,51936599.0,ns,988
snapshot_restore_with_dense,Dense: Entire region + process_vm_writev,100,,,52912793.0,ns,1007
snapshot_restore_with_dense,Dense: Entire region + process_vm_writev,100,,,53855060.0,ns,1026
snapshot_restore_with_dense,Dense: Entire region + process_vm_writev,100,,,54912032.0,ns,1045
snapshot_restore_with_dense,Dense: Entire region + process_vm_writev,100,,,56190859.0,ns,1064
snapshot_restore_with_dense,Dense: Entire region + process_vm_writev,100,,,57102125.0,ns,1083
snapshot_restore_with_dense,Dense: Entire region + process_vm_writev,100,,,57851842.0,ns,1102
snapshot_restore_with_dense,Dense: Entire region + process_vm_writev,100,,,58981886.0,ns,1121
snapshot_restore_with_dense,Dense: Entire region + process_vm_writev,100,,,59875329.0,ns,1140
snapshot_restore_with_dense,Dense: Entire region + process_vm_writev,100,,,60811875.0,ns,1159
snapshot_restore_with_dense,Dense: Entire region + process_vm_writev,100,,,61846101.0,ns,1178
snapshot_restore_with_dense,Dense: Entire region + process_vm_writev,100,,,62826699.0,ns,1197
snapshot_restore_with_dense,Dense: Entire region + process_vm_writev,100,,,63967715.0,ns,1216
snapshot_restore_with_dense,Dense: Entire region + process_vm_writev,100,,,64868599.0,ns,1235
snapshot_restore_with_dense,Dense: Entire region + process_vm_writev,100,,,65846855.0,ns,1254
snapshot_restore_with_dense,Dense: Entire region + process_vm_writev,100,,,66915385.0,ns,1273
snapshot_restore_with_dense,Dense: Entire region + process_vm_writev,100,,,67939707.0,ns,1292
snapshot_restore_with_dense,Dense: Entire region + process_vm_writev,100,,,68799919.0,ns,1311
snapshot_restore_with_dense,Dense: Entire region + process_vm_writev,100,,,69842502.0,ns,1330
snapshot_restore_with_dense,Dense: Entire region + process_vm_writev,100,,,70806263.0,ns,1349
snapshot_restore_with_dense,Dense: Entire region + process_vm_writev,100,,,71927177.0,ns,1368
snapshot_restore_with_dense,Dense: Entire region + process_vm_writev,100,,,72870512.0,ns,1387
snapshot_restore_with_dense,Dense: Entire region + process_vm_writev,100,,,73863676.0,ns,1406
snapshot_restore_with_dense,Dense: Entire region + process_vm_writev,100,,,74837393.0,ns,1425
snapshot_restore_with_dense,Dense: Entire region + process_vm_writev,100,,,78763091.0,ns,1444
snapshot_restore_with_dense,Dense: Entire region + process_vm_writev,100,,,78527950.0,ns,1463
snapshot_restore_with_dense,Dense: Entire region + process_vm_writev,100,,,77813083.0,ns,1482
snapshot_restore_with_dense,Dense: Entire region + process_vm_writev,100,,,78784749.0,ns,1501
snapshot_restore_with_dense,Dense: Entire region + process_vm_writev,100,,,79730478.0,ns,1520
snapshot_restore_with_dense,Dense: Entire region + process_vm_writev,100,,,80865741.0,ns,1539
snapshot_restore_with_dense,Dense: Entire region + process_vm_writev,100,,,81978045.0,ns,1558
snapshot_restore_with_dense,Dense: Entire region + process_vm_writev,100,,,82801999.0,ns,1577
snapshot_restore_with_dense,Dense: Entire region + process_vm_writev,100,,,83995974.0,ns,1596
snapshot_restore_with_dense,Dense: Entire region + process_vm_writev,100,,,85052182.0,ns,1615
snapshot_restore_with_dense,Dense: Entire region + process_vm_writev,100,,,86046288.0,ns,1634
snapshot_restore_with_dense,Dense: Entire region + process_vm_writev,100,,,86890189.0,ns,1653
snapshot_restore_with_dense,Dense: Entire region + process_vm_writev,100,,,87844136.0,ns,1672
snapshot_restore_with_dense,Dense: Entire region + process_vm_writev,100,,,88901187.0,ns,1691
snapshot_restore_with_dense,Dense: Entire region + process_vm_writev,100,,,89798890.0,ns,1710
snapshot_restore_with_dense,Dense: Entire region + process_vm_writev,100,,,90660648.0,ns,1729
snapshot_restore_with_dense,Dense: Entire region + process_vm_writev,100,,,91759793.0,ns,1748
snapshot_restore_with_dense,Dense: Entire region + process_vm_writev,100,,,92720307.0,ns,1767
snapshot_restore_with_dense,Dense: Entire region + process_vm_writev,100,,,93816819.0,ns,1786
snapshot_restore_with_dense,Dense: Entire region + process_vm_writev,100,,,94951074.0,ns,1805
snapshot_restore_with_dense,Dense: Entire region + process_vm_writev,100,,,95893674.0,ns,1824
snapshot_restore_with_dense,Dense: Entire region + process_vm_writev,100,,,96759293.0,ns,1843
snapshot_restore_with_dense,Dense: Entire region + process_vm_writev,100,,,97822474.0,ns,1862
snapshot_restore_with_dense,Dense: Entire region + process_vm_writev,100,,,98825853.0,ns,1881
snapshot_restore_with_dense,Dense: Entire region + process_vm_writev,100,,,100098650.0,ns,1900
