<?xml version="1.0" encoding="utf-8"  standalone="no"?>
<svg 
 viewBox="0 0 1280 720"
 xmlns="http://www.w3.org/2000/svg"
 xmlns:xlink="http://www.w3.org/1999/xlink"
>

<title>Gnuplot</title>
<desc>Produced by GNUPLOT 5.2 patchlevel 6 </desc>

<g id="gnuplot_canvas">

<rect x="0" y="0" width="1280" height="720" fill="none"/>
<defs>

	<circle id='gpDot' r='0.5' stroke-width='0.5' stroke='currentColor'/>
	<path id='gpPt0' stroke-width='0.222' stroke='currentColor' d='M-1,0 h2 M0,-1 v2'/>
	<path id='gpPt1' stroke-width='0.222' stroke='currentColor' d='M-1,-1 L1,1 M1,-1 L-1,1'/>
	<path id='gpPt2' stroke-width='0.222' stroke='currentColor' d='M-1,0 L1,0 M0,-1 L0,1 M-1,-1 L1,1 M-1,1 L1,-1'/>
	<rect id='gpPt3' stroke-width='0.222' stroke='currentColor' x='-1' y='-1' width='2' height='2'/>
	<rect id='gpPt4' stroke-width='0.222' stroke='currentColor' fill='currentColor' x='-1' y='-1' width='2' height='2'/>
	<circle id='gpPt5' stroke-width='0.222' stroke='currentColor' cx='0' cy='0' r='1'/>
	<use xlink:href='#gpPt5' id='gpPt6' fill='currentColor' stroke='none'/>
	<path id='gpPt7' stroke-width='0.222' stroke='currentColor' d='M0,-1.33 L-1.33,0.67 L1.33,0.67 z'/>
	<use xlink:href='#gpPt7' id='gpPt8' fill='currentColor' stroke='none'/>
	<use xlink:href='#gpPt7' id='gpPt9' stroke='currentColor' transform='rotate(180)'/>
	<use xlink:href='#gpPt9' id='gpPt10' fill='currentColor' stroke='none'/>
	<use xlink:href='#gpPt3' id='gpPt11' stroke='currentColor' transform='rotate(45)'/>
	<use xlink:href='#gpPt11' id='gpPt12' fill='currentColor' stroke='none'/>
	<path id='gpPt13' stroke-width='0.222' stroke='currentColor' d='M0,1.330 L1.265,0.411 L0.782,-1.067 L-0.782,-1.076 L-1.265,0.411 z'/>
	<use xlink:href='#gpPt13' id='gpPt14' fill='currentColor' stroke='none'/>
	<filter id='textbox' filterUnits='objectBoundingBox' x='0' y='0' height='1' width='1'>
	  <feFlood flood-color='white' flood-opacity='1' result='bgnd'/>
	  <feComposite in='SourceGraphic' in2='bgnd' operator='atop'/>
	</filter>
	<filter id='greybox' filterUnits='objectBoundingBox' x='0' y='0' height='1' width='1'>
	  <feFlood flood-color='lightgrey' flood-opacity='1' result='grey'/>
	  <feComposite in='SourceGraphic' in2='grey' operator='atop'/>
	</filter>
</defs>
<g fill="none" color="white" stroke="currentColor" stroke-width="1.00" stroke-linecap="butt" stroke-linejoin="miter">
</g>
<g fill="none" color="black" stroke="currentColor" stroke-width="1.00" stroke-linecap="butt" stroke-linejoin="miter">
	<path stroke='black'  d='M63.6,662.4 L72.6,662.4  '/>	<g transform="translate(55.3,666.3)" stroke="none" fill="black" font-family="Helvetica" font-size="12.00"  text-anchor="end">
		<text><tspan font-family="Helvetica" > 0</tspan></text>
	</g>
</g>
<g fill="none" color="black" stroke="currentColor" stroke-width="1.00" stroke-linecap="butt" stroke-linejoin="miter">
	<path stroke='black'  d='M63.6,601.6 L72.6,601.6  '/>	<g transform="translate(55.3,605.5)" stroke="none" fill="black" font-family="Helvetica" font-size="12.00"  text-anchor="end">
		<text><tspan font-family="Helvetica" > 2</tspan></text>
	</g>
</g>
<g fill="none" color="black" stroke="currentColor" stroke-width="1.00" stroke-linecap="butt" stroke-linejoin="miter">
	<path stroke='black'  d='M63.6,540.7 L72.6,540.7  '/>	<g transform="translate(55.3,544.6)" stroke="none" fill="black" font-family="Helvetica" font-size="12.00"  text-anchor="end">
		<text><tspan font-family="Helvetica" > 4</tspan></text>
	</g>
</g>
<g fill="none" color="black" stroke="currentColor" stroke-width="1.00" stroke-linecap="butt" stroke-linejoin="miter">
	<path stroke='black'  d='M63.6,479.9 L72.6,479.9  '/>	<g transform="translate(55.3,483.8)" stroke="none" fill="black" font-family="Helvetica" font-size="12.00"  text-anchor="end">
		<text><tspan font-family="Helvetica" > 6</tspan></text>
	</g>
</g>
<g fill="none" color="black" stroke="currentColor" stroke-width="1.00" stroke-linecap="butt" stroke-linejoin="miter">
	<path stroke='black'  d='M63.6,419.1 L72.6,419.1  '/>	<g transform="translate(55.3,423.0)" stroke="none" fill="black" font-family="Helvetica" font-size="12.00"  text-anchor="end">
		<text><tspan font-family="Helvetica" > 8</tspan></text>
	</g>
</g>
<g fill="none" color="black" stroke="currentColor" stroke-width="1.00" stroke-linecap="butt" stroke-linejoin="miter">
	<path stroke='black'  d='M63.6,358.2 L72.6,358.2  '/>	<g transform="translate(55.3,362.1)" stroke="none" fill="black" font-family="Helvetica" font-size="12.00"  text-anchor="end">
		<text><tspan font-family="Helvetica" > 10</tspan></text>
	</g>
</g>
<g fill="none" color="black" stroke="currentColor" stroke-width="1.00" stroke-linecap="butt" stroke-linejoin="miter">
	<path stroke='black'  d='M63.6,297.4 L72.6,297.4  '/>	<g transform="translate(55.3,301.3)" stroke="none" fill="black" font-family="Helvetica" font-size="12.00"  text-anchor="end">
		<text><tspan font-family="Helvetica" > 12</tspan></text>
	</g>
</g>
<g fill="none" color="black" stroke="currentColor" stroke-width="1.00" stroke-linecap="butt" stroke-linejoin="miter">
	<path stroke='black'  d='M63.6,236.6 L72.6,236.6  '/>	<g transform="translate(55.3,240.5)" stroke="none" fill="black" font-family="Helvetica" font-size="12.00"  text-anchor="end">
		<text><tspan font-family="Helvetica" > 14</tspan></text>
	</g>
</g>
<g fill="none" color="black" stroke="currentColor" stroke-width="1.00" stroke-linecap="butt" stroke-linejoin="miter">
	<path stroke='black'  d='M63.6,175.8 L72.6,175.8  '/>	<g transform="translate(55.3,179.7)" stroke="none" fill="black" font-family="Helvetica" font-size="12.00"  text-anchor="end">
		<text><tspan font-family="Helvetica" > 16</tspan></text>
	</g>
</g>
<g fill="none" color="black" stroke="currentColor" stroke-width="1.00" stroke-linecap="butt" stroke-linejoin="miter">
	<path stroke='black'  d='M63.6,114.9 L72.6,114.9  '/>	<g transform="translate(55.3,118.8)" stroke="none" fill="black" font-family="Helvetica" font-size="12.00"  text-anchor="end">
		<text><tspan font-family="Helvetica" > 18</tspan></text>
	</g>
</g>
<g fill="none" color="black" stroke="currentColor" stroke-width="1.00" stroke-linecap="butt" stroke-linejoin="miter">
	<path stroke='black'  d='M63.6,54.1 L72.6,54.1  '/>	<g transform="translate(55.3,58.0)" stroke="none" fill="black" font-family="Helvetica" font-size="12.00"  text-anchor="end">
		<text><tspan font-family="Helvetica" > 20</tspan></text>
	</g>
</g>
<g fill="none" color="black" stroke="currentColor" stroke-width="1.00" stroke-linecap="butt" stroke-linejoin="miter">
	<path stroke='black'  d='M265.9,662.4 L265.9,653.4  '/>	<g transform="translate(265.9,684.3)" stroke="none" fill="black" font-family="Helvetica" font-size="12.00"  text-anchor="middle">
		<text><tspan font-family="Helvetica" > 22.2</tspan></text>
	</g>
</g>
<g fill="none" color="black" stroke="currentColor" stroke-width="1.00" stroke-linecap="butt" stroke-linejoin="miter">
	<path stroke='black'  d='M488.1,662.4 L488.1,653.4  '/>	<g transform="translate(488.1,684.3)" stroke="none" fill="black" font-family="Helvetica" font-size="12.00"  text-anchor="middle">
		<text><tspan font-family="Helvetica" > 22.25</tspan></text>
	</g>
</g>
<g fill="none" color="black" stroke="currentColor" stroke-width="1.00" stroke-linecap="butt" stroke-linejoin="miter">
	<path stroke='black'  d='M710.4,662.4 L710.4,653.4  '/>	<g transform="translate(710.4,684.3)" stroke="none" fill="black" font-family="Helvetica" font-size="12.00"  text-anchor="middle">
		<text><tspan font-family="Helvetica" > 22.3</tspan></text>
	</g>
</g>
<g fill="none" color="black" stroke="currentColor" stroke-width="1.00" stroke-linecap="butt" stroke-linejoin="miter">
	<path stroke='black'  d='M932.7,662.4 L932.7,653.4  '/>	<g transform="translate(932.7,684.3)" stroke="none" fill="black" font-family="Helvetica" font-size="12.00"  text-anchor="middle">
		<text><tspan font-family="Helvetica" > 22.35</tspan></text>
	</g>
</g>
<g fill="none" color="black" stroke="currentColor" stroke-width="1.00" stroke-linecap="butt" stroke-linejoin="miter">
</g>
<g fill="none" color="black" stroke="currentColor" stroke-width="1.00" stroke-linecap="butt" stroke-linejoin="miter">
	<path stroke='black'  d='M63.6,54.1 L63.6,662.4 L1013.6,662.4 L1013.6,54.1 L63.6,54.1 Z  '/></g>
<g fill="none" color="black" stroke="currentColor" stroke-width="1.00" stroke-linecap="butt" stroke-linejoin="miter">
	<g transform="translate(16.3,358.3) rotate(270)" stroke="none" fill="black" font-family="Helvetica" font-size="12.00"  text-anchor="middle">
		<text><tspan font-family="Helvetica" >Density (a.u.)</tspan></text>
	</g>
</g>
<g fill="none" color="black" stroke="currentColor" stroke-width="1.00" stroke-linecap="butt" stroke-linejoin="miter">
	<g transform="translate(538.6,711.3)" stroke="none" fill="black" font-family="Helvetica" font-size="12.00"  text-anchor="middle">
		<text><tspan font-family="Helvetica" >Average time (us)</tspan></text>
	</g>
</g>
<g fill="none" color="black" stroke="currentColor" stroke-width="1.00" stroke-linecap="butt" stroke-linejoin="miter">
	<g transform="translate(538.6,31.0)" stroke="none" fill="black" font-family="Helvetica" font-size="12.00"  text-anchor="middle">
		<text><tspan font-family="Helvetica" >snapshot_restore_with_dense/Sparse: Dirty pages + process_vm_writev/10: slope</tspan></text>
	</g>
</g>
	<g id="gnuplot_plot_1" ><title>Bootstrap distribution</title>
<g fill="none" color="white" stroke="black" stroke-width="2.00" stroke-linecap="butt" stroke-linejoin="miter">
</g>
<g fill="none" color="black" stroke="currentColor" stroke-width="2.00" stroke-linecap="butt" stroke-linejoin="miter">
	<g transform="translate(1089.0,67.0)" stroke="none" fill="black" font-family="Helvetica" font-size="12.00"  text-anchor="start">
		<text><tspan font-family="Helvetica" >Bootstrap distribution</tspan></text>
	</g>
</g>
<g fill="none" color="black" stroke="currentColor" stroke-width="2.00" stroke-linecap="butt" stroke-linejoin="miter">
	<path stroke='rgb( 31, 120, 180)'  d='M1038.5,63.1 L1080.7,63.1 M63.6,661.5 L65.5,661.3 L67.4,661.1 L69.3,660.8 L71.2,660.4 L73.1,660.0
		L75.0,659.6 L76.9,659.0 L78.8,658.4 L80.7,657.6 L82.6,656.8 L84.5,655.7 L86.4,654.5 L88.3,653.2
		L90.3,651.6 L92.2,649.8 L94.1,647.7 L96.0,645.3 L97.9,642.6 L99.8,639.6 L101.7,636.1 L103.6,632.2
		L105.5,627.9 L107.4,623.0 L109.3,617.7 L111.2,611.7 L113.1,605.1 L115.0,597.9 L116.9,590.0 L118.8,581.3
		L120.7,571.9 L122.6,561.8 L124.5,550.8 L126.4,539.1 L128.3,526.6 L130.2,513.2 L132.1,499.1 L134.0,484.2
		L135.9,468.5 L137.8,452.1 L139.8,435.1 L141.7,417.4 L143.6,399.2 L145.5,380.6 L147.4,361.6 L149.3,342.3
		L151.2,322.8 L153.1,303.2 L155.0,283.8 L156.9,264.5 L158.8,245.5 L160.7,227.0 L162.6,209.1 L164.5,191.9
		L166.4,175.6 L168.3,160.3 L170.2,146.1 L172.1,133.1 L174.0,121.6 L175.9,111.5 L177.8,102.9 L179.7,96.0
		L181.6,90.7 L183.5,87.2 L185.4,85.5 L187.3,85.6 L189.3,87.5 L191.2,91.1 L193.1,96.5 L195.0,103.5
		L196.9,112.2 L198.8,122.4 L200.7,134.1 L202.6,147.1 L204.5,161.3 L206.4,176.7 L208.3,193.0 L210.2,210.2
		L212.1,228.1 L214.0,246.6 L215.9,265.5 L217.8,284.6 L219.7,304.0 L221.6,323.4 L223.5,342.7 L225.4,361.9
		L227.3,380.7 L229.2,399.2 L231.1,417.2 L233.0,434.7 L234.9,451.5 L236.8,467.7 L238.8,483.2 L240.7,498.0
		L242.6,512.0 L244.5,525.2 L246.4,537.6 L248.3,549.2 L250.2,560.1 L252.1,570.1 L254.0,579.4 L255.9,588.0
		L257.8,595.9 L259.7,603.1 L261.6,609.6 L263.5,615.6 L265.4,620.9 L267.3,625.7 L269.2,630.0 L271.1,633.8
		L273.0,637.1 L274.9,640.0 L276.8,642.5 L278.7,644.7 L280.6,646.5 L282.5,648.0 L284.4,649.2 L286.3,650.1
		L288.2,650.8 L290.2,651.1 L292.1,651.3 L294.0,651.2 L295.9,650.8 L297.8,650.2 L299.7,649.4 L301.6,648.4
		L303.5,647.1 L305.4,645.5 L307.3,643.7 L309.2,641.6 L311.1,639.2 L313.0,636.6 L314.9,633.6 L316.8,630.3
		L318.7,626.6 L320.6,622.6 L322.5,618.2 L324.4,613.5 L326.3,608.3 L328.2,602.7 L330.1,596.7 L332.0,590.2
		L333.9,583.3 L335.8,575.9 L337.7,568.1 L339.7,559.8 L341.6,551.1 L343.5,541.9 L345.4,532.2 L347.3,522.1
		L349.2,511.6 L351.1,500.7 L353.0,489.4 L354.9,477.8 L356.8,465.8 L358.7,453.5 L360.6,441.0 L362.5,428.3
		L364.4,415.4 L366.3,402.3 L368.2,389.2 L370.1,376.1 L372.0,363.0 L373.9,350.1 L375.8,337.2 L377.7,324.6
		L379.6,312.2 L381.5,300.2 L383.4,288.6 L385.3,277.4 L387.2,266.7 L389.2,256.7 L391.1,247.2 L393.0,238.4
		L394.9,230.3 L396.8,223.0 L398.7,216.5 L400.6,210.9 L402.5,206.1 L404.4,202.3 L406.3,199.3 L408.2,197.3
		L410.1,196.2 L412.0,196.1 L413.9,196.9 L415.8,198.6 L417.7,201.3 L419.6,204.8 L421.5,209.2 L423.4,214.4
		L425.3,220.4 L427.2,227.2 L429.1,234.7 L431.0,242.8 L432.9,251.6 L434.8,260.9 L436.7,270.7 L438.7,280.9
		L440.6,291.6 L442.5,302.6 L444.4,313.9 L446.3,325.4 L448.2,337.1 L450.1,348.9 L452.0,360.8 L453.9,372.7
		L455.8,384.6 L457.7,396.5 L459.6,408.2 L461.5,419.8 L463.4,431.3 L465.3,442.5 L467.2,453.5 L469.1,464.3
		L471.0,474.8 L472.9,485.0 L474.8,494.8 L476.7,504.3 L478.6,513.5 L480.5,522.3 L482.4,530.7 L484.3,538.7
		L486.2,546.4 L488.1,553.6 L490.1,560.5 L492.0,566.9 L493.9,573.0 L495.8,578.6 L497.7,583.9 L499.6,588.7
		L501.5,593.2 L503.4,597.2 L505.3,600.9 L507.2,604.2 L509.1,607.2 L511.0,609.8 L512.9,612.0 L514.8,613.9
		L516.7,615.4 L518.6,616.6 L520.5,617.5 L522.4,618.1 L524.3,618.4 L526.2,618.4 L528.1,618.0 L530.0,617.5
		L531.9,616.6 L533.8,615.5 L535.7,614.2 L537.6,612.6 L539.6,610.8 L541.5,608.8 L543.4,606.6 L545.3,604.2
		L547.2,601.6 L549.1,598.9 L551.0,596.0 L552.9,592.9 L554.8,589.7 L556.7,586.5 L558.6,583.1 L560.5,579.6
		L562.4,576.0 L564.3,572.4 L566.2,568.7 L568.1,564.9 L570.0,561.2 L571.9,557.4 L573.8,553.6 L575.7,549.8
		L577.6,546.0 L579.5,542.3 L581.4,538.6 L583.3,534.9 L585.2,531.3 L587.1,527.7 L589.1,524.3 L591.0,520.9
		L592.9,517.6 L594.8,514.4 L596.7,511.3 L598.6,508.4 L600.5,505.5 L602.4,502.8 L604.3,500.3 L606.2,497.9
		L608.1,495.7 L610.0,493.6 L611.9,491.7 L613.8,490.0 L615.7,488.5 L617.6,487.1 L619.5,486.0 L621.4,485.1
		L623.3,484.4 L625.2,483.8 L627.1,483.5 L629.0,483.4 L630.9,483.5 L632.8,483.8 L634.7,484.4 L636.6,485.1
		L638.5,486.0 L640.5,487.1 L642.4,488.4 L644.3,489.9 L646.2,491.6 L648.1,493.5 L650.0,495.5 L651.9,497.7
		L653.8,500.0 L655.7,502.4 L657.6,505.0 L659.5,507.7 L661.4,510.6 L663.3,513.5 L665.2,516.5 L667.1,519.6
		L669.0,522.7 L670.9,525.9 L672.8,529.2 L674.7,532.5 L676.6,535.8 L678.5,539.1 L680.4,542.5 L682.3,545.8
		L684.2,549.1 L686.1,552.4 L688.0,555.7 L690.0,558.9 L691.9,562.1 L693.8,565.3 L695.7,568.4 L697.6,571.4
		L699.5,574.3 L701.4,577.2 L703.3,580.0 L705.2,582.8 L707.1,585.4 L709.0,588.0 L710.9,590.4 L712.8,592.8
		L714.7,595.1 L716.6,597.3 L718.5,599.4 L720.4,601.4 L722.3,603.3 L724.2,605.1 L726.1,606.9 L728.0,608.5
		L729.9,610.0 L731.8,611.5 L733.7,612.8 L735.6,614.1 L737.5,615.2 L739.5,616.3 L741.4,617.2 L743.3,618.1
		L745.2,618.9 L747.1,619.6 L749.0,620.3 L750.9,620.8 L752.8,621.3 L754.7,621.7 L756.6,622.0 L758.5,622.2
		L760.4,622.4 L762.3,622.5 L764.2,622.5 L766.1,622.5 L768.0,622.5 L769.9,622.3 L771.8,622.2 L773.7,622.0
		L775.6,621.7 L777.5,621.4 L779.4,621.1 L781.3,620.8 L783.2,620.4 L785.1,620.0 L787.0,619.6 L789.0,619.2
		L790.9,618.8 L792.8,618.3 L794.7,617.9 L796.6,617.5 L798.5,617.1 L800.4,616.7 L802.3,616.3 L804.2,616.0
		L806.1,615.6 L808.0,615.3 L809.9,615.0 L811.8,614.8 L813.7,614.5 L815.6,614.3 L817.5,614.1 L819.4,614.0
		L821.3,613.9 L823.2,613.8 L825.1,613.8 L827.0,613.7 L828.9,613.8 L830.8,613.8 L832.7,613.9 L834.6,614.0
		L836.5,614.2 L838.4,614.3 L840.4,614.5 L842.3,614.8 L844.2,615.0 L846.1,615.3 L848.0,615.6 L849.9,615.9
		L851.8,616.2 L853.7,616.6 L855.6,616.9 L857.5,617.3 L859.4,617.7 L861.3,618.1 L863.2,618.6 L865.1,619.0
		L867.0,619.5 L868.9,619.9 L870.8,620.4 L872.7,620.9 L874.6,621.4 L876.5,621.9 L878.4,622.4 L880.3,622.9
		L882.2,623.5 L884.1,624.0 L886.0,624.6 L887.9,625.2 L889.9,625.8 L891.8,626.4 L893.7,627.0 L895.6,627.6
		L897.5,628.2 L899.4,628.8 L901.3,629.5 L903.2,630.1 L905.1,630.8 L907.0,631.4 L908.9,632.0 L910.8,632.7
		L912.7,633.3 L914.6,633.9 L916.5,634.5 L918.4,635.1 L920.3,635.7 L922.2,636.3 L924.1,636.9 L926.0,637.5
		L927.9,638.0 L929.8,638.5 L931.7,639.0 L933.6,639.5 L935.5,640.0 L937.4,640.4 L939.4,640.9 L941.3,641.3
		L943.2,641.7 L945.1,642.1 L947.0,642.5 L948.9,642.9 L950.8,643.2 L952.7,643.6 L954.6,643.9 L956.5,644.2
		L958.4,644.5 L960.3,644.8 L962.2,645.1 L964.1,645.3 L966.0,645.6 L967.9,645.8 L969.8,646.1 L971.7,646.3
		L973.6,646.5 L975.5,646.7 L977.4,646.9 L979.3,647.1 L981.2,647.2 L983.1,647.4 L985.0,647.5 L986.9,647.6
		L988.9,647.8 L990.8,647.9 L992.7,648.0 L994.6,648.1 L996.5,648.2 L998.4,648.3 L1000.3,648.3 L1002.2,648.4
		L1004.1,648.5 L1006.0,648.6 L1007.9,648.6 L1009.8,648.7 L1011.7,648.8 L1013.6,648.8  '/></g>
	</g>
	<g id="gnuplot_plot_2" ><title>Confidence interval</title>
<g fill="none" color="white" stroke="rgb( 31, 120, 180)" stroke-width="1.00" stroke-linecap="butt" stroke-linejoin="miter">
</g>
<g fill="none" color="black" stroke="currentColor" stroke-width="1.00" stroke-linecap="butt" stroke-linejoin="miter">
	<g transform="translate(1089.0,85.0)" stroke="none" fill="black" font-family="Helvetica" font-size="12.00"  text-anchor="start">
		<text><tspan font-family="Helvetica" >Confidence interval</tspan></text>
	</g>
</g>
<g fill="none" color="black" stroke="currentColor" stroke-width="1.00" stroke-linecap="butt" stroke-linejoin="miter">
	<g stroke='none' shape-rendering='crispEdges'>
		<polygon fill = 'rgb( 31, 120, 180)' fill-opacity = '0.250000' points = '1038.5,85.6 1080.7,85.6 1080.7,76.6 1038.5,76.6 '/>
		<polygon fill = 'rgb( 31, 120, 180)' fill-opacity = '0.250000' points = '151.2,322.8 153.1,303.2 155.0,283.8 156.9,264.5 158.8,245.5 160.7,227.0 162.6,209.1 164.5,191.9 166.4,175.6 168.3,160.3 170.2,146.1 172.1,133.1 174.0,121.6 175.9,111.5 177.8,102.9 179.7,96.0
181.6,90.7 183.5,87.2 185.4,85.5 187.3,85.6 189.3,87.5 191.2,91.1 193.1,96.5 195.0,103.5 196.9,112.2 198.8,122.4 200.7,134.1 202.6,147.1 204.5,161.3 206.4,176.7 208.3,193.0 210.2,210.2
212.1,228.1 214.0,246.6 215.9,265.5 217.8,284.6 219.7,304.0 221.6,323.4 223.5,342.7 225.4,361.9 227.3,380.7 229.2,399.2 231.1,417.2 233.0,434.7 234.9,451.5 236.8,467.7 238.8,483.2 240.7,498.0
242.6,512.0 244.5,525.2 246.4,537.6 248.3,549.2 250.2,560.1 252.1,570.1 254.0,579.4 255.9,588.0 257.8,595.9 259.7,603.1 261.6,609.6 263.5,615.6 265.4,620.9 267.3,625.7 269.2,630.0 271.1,633.8
273.0,637.1 274.9,640.0 276.8,642.5 278.7,644.7 280.6,646.5 282.5,648.0 284.4,649.2 286.3,650.1 288.2,650.8 290.2,651.1 292.1,651.3 294.0,651.2 295.9,650.8 297.8,650.2 299.7,649.4 301.6,648.4
303.5,647.1 305.4,645.5 307.3,643.7 309.2,641.6 311.1,639.2 313.0,636.6 314.9,633.6 316.8,630.3 318.7,626.6 320.6,622.6 322.5,618.2 324.4,613.5 326.3,608.3 328.2,602.7 330.1,596.7 332.0,590.2
333.9,583.3 335.8,575.9 337.7,568.1 339.7,559.8 341.6,551.1 343.5,541.9 345.4,532.2 347.3,522.1 349.2,511.6 351.1,500.7 353.0,489.4 354.9,477.8 356.8,465.8 358.7,453.5 360.6,441.0 362.5,428.3
364.4,415.4 366.3,402.3 368.2,389.2 370.1,376.1 372.0,363.0 373.9,350.1 375.8,337.2 377.7,324.6 379.6,312.2 381.5,300.2 383.4,288.6 385.3,277.4 387.2,266.7 389.2,256.7 391.1,247.2 393.0,238.4
394.9,230.3 396.8,223.0 398.7,216.5 400.6,210.9 402.5,206.1 404.4,202.3 406.3,199.3 408.2,197.3 410.1,196.2 412.0,196.1 413.9,196.9 415.8,198.6 417.7,201.3 419.6,204.8 421.5,209.2 423.4,214.4
425.3,220.4 427.2,227.2 429.1,234.7 431.0,242.8 432.9,251.6 434.8,260.9 436.7,270.7 438.7,280.9 440.6,291.6 442.5,302.6 444.4,313.9 446.3,325.4 448.2,337.1 450.1,348.9 452.0,360.8 453.9,372.7
455.8,384.6 457.7,396.5 459.6,408.2 461.5,419.8 463.4,431.3 465.3,442.5 467.2,453.5 469.1,464.3 471.0,474.8 472.9,485.0 474.8,494.8 476.7,504.3 478.6,513.5 480.5,522.3 482.4,530.7 484.3,538.7
486.2,546.4 488.1,553.6 490.1,560.5 492.0,566.9 493.9,573.0 495.8,578.6 497.7,583.9 499.6,588.7 501.5,593.2 503.4,597.2 505.3,600.9 507.2,604.2 509.1,607.2 511.0,609.8 512.9,612.0 514.8,613.9
516.7,615.4 518.6,616.6 520.5,617.5 522.4,618.1 524.3,618.4 526.2,618.4 528.1,618.0 530.0,617.5 531.9,616.6 533.8,615.5 535.7,614.2 537.6,612.6 539.6,610.8 541.5,608.8 543.4,606.6 545.3,604.2
547.2,601.6 549.1,598.9 551.0,596.0 552.9,592.9 554.8,589.7 556.7,586.5 558.6,583.1 560.5,579.6 562.4,576.0 564.3,572.4 566.2,568.7 568.1,564.9 570.0,561.2 571.9,557.4 573.8,553.6 575.7,549.8
577.6,546.0 579.5,542.3 581.4,538.6 583.3,534.9 585.2,531.3 587.1,527.7 589.1,524.3 591.0,520.9 592.9,517.6 594.8,514.4 596.7,511.3 598.6,508.4 600.5,505.5 602.4,502.8 604.3,500.3 606.2,497.9
608.1,495.7 610.0,493.6 611.9,491.7 613.8,490.0 615.7,488.5 617.6,487.1 619.5,486.0 621.4,485.1 623.3,484.4 625.2,483.8 627.1,483.5 629.0,483.4 630.9,483.5 632.8,483.8 634.7,484.4 636.6,485.1
638.5,486.0 640.5,487.1 642.4,488.4 644.3,489.9 646.2,491.6 648.1,493.5 650.0,495.5 651.9,497.7 653.8,500.0 655.7,502.4 657.6,505.0 659.5,507.7 661.4,510.6 663.3,513.5 665.2,516.5 667.1,519.6
669.0,522.7 670.9,525.9 672.8,529.2 674.7,532.5 676.6,535.8 678.5,539.1 680.4,542.5 682.3,545.8 684.2,549.1 686.1,552.4 688.0,555.7 690.0,558.9 691.9,562.1 693.8,565.3 695.7,568.4 697.6,571.4
699.5,574.3 701.4,577.2 703.3,580.0 705.2,582.8 707.1,585.4 709.0,588.0 710.9,590.4 712.8,592.8 714.7,595.1 716.6,597.3 718.5,599.4 720.4,601.4 722.3,603.3 724.2,605.1 726.1,606.9 728.0,608.5
729.9,610.0 731.8,611.5 733.7,612.8 735.6,614.1 737.5,615.2 739.5,616.3 741.4,617.2 743.3,618.1 745.2,618.9 747.1,619.6 749.0,620.3 750.9,620.8 752.8,621.3 754.7,621.7 756.6,622.0 758.5,622.2
760.4,622.4 762.3,622.5 764.2,622.5 766.1,622.5 768.0,622.5 769.9,622.3 771.8,622.2 773.7,622.0 775.6,621.7 777.5,621.4 779.4,621.1 781.3,620.8 783.2,620.4 785.1,620.0 787.0,619.6 789.0,619.2
790.9,618.8 792.8,618.3 794.7,617.9 796.6,617.5 798.5,617.1 800.4,616.7 802.3,616.3 804.2,616.0 806.1,615.6 808.0,615.3 809.9,615.0 811.8,614.8 813.7,614.5 815.6,614.3 817.5,614.1 819.4,614.0
821.3,613.9 823.2,613.8 825.1,613.8 827.0,613.7 828.9,613.8 830.8,613.8 832.7,613.9 834.6,614.0 836.5,614.2 838.4,614.3 840.4,614.5 842.3,614.8 844.2,615.0 846.1,615.3 848.0,615.6 849.9,615.9
851.8,616.2 853.7,616.6 855.6,616.9 857.5,617.3 859.4,617.7 861.3,618.1 863.2,618.6 865.1,619.0 867.0,619.5 868.9,619.9 870.8,620.4 872.7,620.9 874.6,621.4 876.5,621.9 878.4,622.4 880.3,622.9
882.2,623.5 884.1,624.0 886.0,624.6 887.9,625.2 889.9,625.8 891.8,626.4 893.7,627.0 895.6,627.6 897.5,628.2 899.4,628.8 901.3,629.5 903.2,630.1 905.1,630.8 907.0,631.4 908.9,632.0 910.8,632.7
912.7,633.3 914.6,633.9 916.5,634.5 918.4,635.1 920.3,635.7 922.2,636.3 924.1,636.9 924.1,662.4 922.2,662.4 920.3,662.4 918.4,662.4 916.5,662.4 914.6,662.4 912.7,662.4 910.8,662.4 908.9,662.4
907.0,662.4 905.1,662.4 903.2,662.4 901.3,662.4 899.4,662.4 897.5,662.4 895.6,662.4 893.7,662.4 891.8,662.4 889.9,662.4 887.9,662.4 886.0,662.4 884.1,662.4 882.2,662.4 880.3,662.4 878.4,662.4
876.5,662.4 874.6,662.4 872.7,662.4 870.8,662.4 868.9,662.4 867.0,662.4 865.1,662.4 863.2,662.4 861.3,662.4 859.4,662.4 857.5,662.4 855.6,662.4 853.7,662.4 851.8,662.4 849.9,662.4 848.0,662.4
846.1,662.4 844.2,662.4 842.3,662.4 840.4,662.4 838.4,662.4 836.5,662.4 834.6,662.4 832.7,662.4 830.8,662.4 828.9,662.4 827.0,662.4 825.1,662.4 823.2,662.4 821.3,662.4 819.4,662.4 817.5,662.4
815.6,662.4 813.7,662.4 811.8,662.4 809.9,662.4 808.0,662.4 806.1,662.4 804.2,662.4 802.3,662.4 800.4,662.4 798.5,662.4 796.6,662.4 794.7,662.4 792.8,662.4 790.9,662.4 789.0,662.4 787.0,662.4
785.1,662.4 783.2,662.4 781.3,662.4 779.4,662.4 777.5,662.4 775.6,662.4 773.7,662.4 771.8,662.4 769.9,662.4 768.0,662.4 766.1,662.4 764.2,662.4 762.3,662.4 760.4,662.4 758.5,662.4 756.6,662.4
754.7,662.4 752.8,662.4 750.9,662.4 749.0,662.4 747.1,662.4 745.2,662.4 743.3,662.4 741.4,662.4 739.5,662.4 737.5,662.4 735.6,662.4 733.7,662.4 731.8,662.4 729.9,662.4 728.0,662.4 726.1,662.4
724.2,662.4 722.3,662.4 720.4,662.4 718.5,662.4 716.6,662.4 714.7,662.4 712.8,662.4 710.9,662.4 709.0,662.4 707.1,662.4 705.2,662.4 703.3,662.4 701.4,662.4 699.5,662.4 697.6,662.4 695.7,662.4
693.8,662.4 691.9,662.4 690.0,662.4 688.0,662.4 686.1,662.4 684.2,662.4 682.3,662.4 680.4,662.4 678.5,662.4 676.6,662.4 674.7,662.4 672.8,662.4 670.9,662.4 669.0,662.4 667.1,662.4 665.2,662.4
663.3,662.4 661.4,662.4 659.5,662.4 657.6,662.4 655.7,662.4 653.8,662.4 651.9,662.4 650.0,662.4 648.1,662.4 646.2,662.4 644.3,662.4 642.4,662.4 640.5,662.4 638.5,662.4 636.6,662.4 634.7,662.4
632.8,662.4 630.9,662.4 629.0,662.4 627.1,662.4 625.2,662.4 623.3,662.4 621.4,662.4 619.5,662.4 617.6,662.4 615.7,662.4 613.8,662.4 611.9,662.4 610.0,662.4 608.1,662.4 606.2,662.4 604.3,662.4
602.4,662.4 600.5,662.4 598.6,662.4 596.7,662.4 594.8,662.4 592.9,662.4 591.0,662.4 589.1,662.4 587.1,662.4 585.2,662.4 583.3,662.4 581.4,662.4 579.5,662.4 577.6,662.4 575.7,662.4 573.8,662.4
571.9,662.4 570.0,662.4 568.1,662.4 566.2,662.4 564.3,662.4 562.4,662.4 560.5,662.4 558.6,662.4 556.7,662.4 554.8,662.4 552.9,662.4 551.0,662.4 549.1,662.4 547.2,662.4 545.3,662.4 543.4,662.4
541.5,662.4 539.6,662.4 537.6,662.4 535.7,662.4 533.8,662.4 531.9,662.4 530.0,662.4 528.1,662.4 526.2,662.4 524.3,662.4 522.4,662.4 520.5,662.4 518.6,662.4 516.7,662.4 514.8,662.4 512.9,662.4
511.0,662.4 509.1,662.4 507.2,662.4 505.3,662.4 503.4,662.4 501.5,662.4 499.6,662.4 497.7,662.4 495.8,662.4 493.9,662.4 492.0,662.4 490.1,662.4 488.1,662.4 486.2,662.4 484.3,662.4 482.4,662.4
480.5,662.4 478.6,662.4 476.7,662.4 474.8,662.4 472.9,662.4 471.0,662.4 469.1,662.4 467.2,662.4 465.3,662.4 463.4,662.4 461.5,662.4 459.6,662.4 457.7,662.4 455.8,662.4 453.9,662.4 452.0,662.4
450.1,662.4 448.2,662.4 446.3,662.4 444.4,662.4 442.5,662.4 440.6,662.4 438.7,662.4 436.7,662.4 434.8,662.4 432.9,662.4 431.0,662.4 429.1,662.4 427.2,662.4 425.3,662.4 423.4,662.4 421.5,662.4
419.6,662.4 417.7,662.4 415.8,662.4 413.9,662.4 412.0,662.4 410.1,662.4 408.2,662.4 406.3,662.4 404.4,662.4 402.5,662.4 400.6,662.4 398.7,662.4 396.8,662.4 394.9,662.4 393.0,662.4 391.1,662.4
389.2,662.4 387.2,662.4 385.3,662.4 383.4,662.4 381.5,662.4 379.6,662.4 377.7,662.4 375.8,662.4 373.9,662.4 372.0,662.4 370.1,662.4 368.2,662.4 366.3,662.4 364.4,662.4 362.5,662.4 360.6,662.4
358.7,662.4 356.8,662.4 354.9,662.4 353.0,662.4 351.1,662.4 349.2,662.4 347.3,662.4 345.4,662.4 343.5,662.4 341.6,662.4 339.7,662.4 337.7,662.4 335.8,662.4 333.9,662.4 332.0,662.4 330.1,662.4
328.2,662.4 326.3,662.4 324.4,662.4 322.5,662.4 320.6,662.4 318.7,662.4 316.8,662.4 314.9,662.4 313.0,662.4 311.1,662.4 309.2,662.4 307.3,662.4 305.4,662.4 303.5,662.4 301.6,662.4 299.7,662.4
297.8,662.4 295.9,662.4 294.0,662.4 292.1,662.4 290.2,662.4 288.2,662.4 286.3,662.4 284.4,662.4 282.5,662.4 280.6,662.4 278.7,662.4 276.8,662.4 274.9,662.4 273.0,662.4 271.1,662.4 269.2,662.4
267.3,662.4 265.4,662.4 263.5,662.4 261.6,662.4 259.7,662.4 257.8,662.4 255.9,662.4 254.0,662.4 252.1,662.4 250.2,662.4 248.3,662.4 246.4,662.4 244.5,662.4 242.6,662.4 240.7,662.4 238.8,662.4
236.8,662.4 234.9,662.4 233.0,662.4 231.1,662.4 229.2,662.4 227.3,662.4 225.4,662.4 223.5,662.4 221.6,662.4 219.7,662.4 217.8,662.4 215.9,662.4 214.0,662.4 212.1,662.4 210.2,662.4 208.3,662.4
206.4,662.4 204.5,662.4 202.6,662.4 200.7,662.4 198.8,662.4 196.9,662.4 195.0,662.4 193.1,662.4 191.2,662.4 189.3,662.4 187.3,662.4 185.4,662.4 183.5,662.4 181.6,662.4 179.7,662.4 177.8,662.4
175.9,662.4 174.0,662.4 172.1,662.4 170.2,662.4 168.3,662.4 166.4,662.4 164.5,662.4 162.6,662.4 160.7,662.4 158.8,662.4 156.9,662.4 155.0,662.4 153.1,662.4 151.2,662.4 '/>
	</g>
</g>
	</g>
	<g id="gnuplot_plot_3" ><title>Point estimate</title>
<g fill="none" color="white" stroke="rgb( 31, 120, 180)" stroke-width="2.00" stroke-linecap="butt" stroke-linejoin="miter">
</g>
<g fill="none" color="black" stroke="currentColor" stroke-width="2.00" stroke-linecap="butt" stroke-linejoin="miter">
	<g transform="translate(1089.0,103.0)" stroke="none" fill="black" font-family="Helvetica" font-size="12.00"  text-anchor="start">
		<text><tspan font-family="Helvetica" >Point estimate</tspan></text>
	</g>
</g>
<g fill="none" color="black" stroke="currentColor" stroke-width="2.00" stroke-linecap="butt" stroke-linejoin="miter">
	<path stroke='rgb( 31, 120, 180)'  d='M1038.5,99.1 L1080.7,99.1 M411.5,662.4 L411.5,196.1  '/></g>
	</g>
<g fill="none" color="black" stroke="currentColor" stroke-width="2.00" stroke-linecap="butt" stroke-linejoin="miter">
</g>
<g fill="none" color="black" stroke="black" stroke-width="1.00" stroke-linecap="butt" stroke-linejoin="miter">
</g>
<g fill="none" color="black" stroke="currentColor" stroke-width="1.00" stroke-linecap="butt" stroke-linejoin="miter">
	<path stroke='black'  d='M63.6,54.1 L63.6,662.4 L1013.6,662.4 L1013.6,54.1 L63.6,54.1 Z  '/></g>
<g fill="none" color="black" stroke="currentColor" stroke-width="1.00" stroke-linecap="butt" stroke-linejoin="miter">
</g>
</g>
</svg>

