group,function,value,throughput_num,throughput_type,sample_measured_value,unit,iteration_count
snapshot_restore_with_dense,Sparse: Entire region + /proc/pid/mem,22,,,1122311.0,ns,5
snapshot_restore_with_dense,Sparse: Entire region + /proc/pid/mem,22,,,2122660.0,ns,10
snapshot_restore_with_dense,Sparse: Entire region + /proc/pid/mem,22,,,3203438.0,ns,15
snapshot_restore_with_dense,Sparse: Entire region + /proc/pid/mem,22,,,4315555.0,ns,20
snapshot_restore_with_dense,Sparse: Entire region + /proc/pid/mem,22,,,5392367.0,ns,25
snapshot_restore_with_dense,Sparse: Entire region + /proc/pid/mem,22,,,6407921.0,ns,30
snapshot_restore_with_dense,Sparse: Entire region + /proc/pid/mem,22,,,9961905.0,ns,35
snapshot_restore_with_dense,Sparse: Entire region + /proc/pid/mem,22,,,12386571.0,ns,40
snapshot_restore_with_dense,Sparse: Entire region + /proc/pid/mem,22,,,9664528.0,ns,45
snapshot_restore_with_dense,Sparse: Entire region + /proc/pid/mem,22,,,10723300.0,ns,50
snapshot_restore_with_dense,Sparse: Entire region + /proc/pid/mem,22,,,11748929.0,ns,55
snapshot_restore_with_dense,Sparse: Entire region + /proc/pid/mem,22,,,12860201.0,ns,60
snapshot_restore_with_dense,Sparse: Entire region + /proc/pid/mem,22,,,13866772.0,ns,65
snapshot_restore_with_dense,Sparse: Entire region + /proc/pid/mem,22,,,15004727.0,ns,70
snapshot_restore_with_dense,Sparse: Entire region + /proc/pid/mem,22,,,16076766.0,ns,75
snapshot_restore_with_dense,Sparse: Entire region + /proc/pid/mem,22,,,17008476.0,ns,80
snapshot_restore_with_dense,Sparse: Entire region + /proc/pid/mem,22,,,18095548.0,ns,85
snapshot_restore_with_dense,Sparse: Entire region + /proc/pid/mem,22,,,19169766.0,ns,90
snapshot_restore_with_dense,Sparse: Entire region + /proc/pid/mem,22,,,20223134.0,ns,95
snapshot_restore_with_dense,Sparse: Entire region + /proc/pid/mem,22,,,21237119.0,ns,100
snapshot_restore_with_dense,Sparse: Entire region + /proc/pid/mem,22,,,22314711.0,ns,105
snapshot_restore_with_dense,Sparse: Entire region + /proc/pid/mem,22,,,23368437.0,ns,110
snapshot_restore_with_dense,Sparse: Entire region + /proc/pid/mem,22,,,24502494.0,ns,115
snapshot_restore_with_dense,Sparse: Entire region + /proc/pid/mem,22,,,25485113.0,ns,120
snapshot_restore_with_dense,Sparse: Entire region + /proc/pid/mem,22,,,26598988.0,ns,125
snapshot_restore_with_dense,Sparse: Entire region + /proc/pid/mem,22,,,27649339.0,ns,130
snapshot_restore_with_dense,Sparse: Entire region + /proc/pid/mem,22,,,28754265.0,ns,135
snapshot_restore_with_dense,Sparse: Entire region + /proc/pid/mem,22,,,29752323.0,ns,140
snapshot_restore_with_dense,Sparse: Entire region + /proc/pid/mem,22,,,30847530.0,ns,145
snapshot_restore_with_dense,Sparse: Entire region + /proc/pid/mem,22,,,31891062.0,ns,150
snapshot_restore_with_dense,Sparse: Entire region + /proc/pid/mem,22,,,38526896.0,ns,155
snapshot_restore_with_dense,Sparse: Entire region + /proc/pid/mem,22,,,34588261.0,ns,160
snapshot_restore_with_dense,Sparse: Entire region + /proc/pid/mem,22,,,35381376.0,ns,165
snapshot_restore_with_dense,Sparse: Entire region + /proc/pid/mem,22,,,36612382.0,ns,170
snapshot_restore_with_dense,Sparse: Entire region + /proc/pid/mem,22,,,37436964.0,ns,175
snapshot_restore_with_dense,Sparse: Entire region + /proc/pid/mem,22,,,38567247.0,ns,180
snapshot_restore_with_dense,Sparse: Entire region + /proc/pid/mem,22,,,39487584.0,ns,185
snapshot_restore_with_dense,Sparse: Entire region + /proc/pid/mem,22,,,40536314.0,ns,190
snapshot_restore_with_dense,Sparse: Entire region + /proc/pid/mem,22,,,41589914.0,ns,195
snapshot_restore_with_dense,Sparse: Entire region + /proc/pid/mem,22,,,42543307.0,ns,200
snapshot_restore_with_dense,Sparse: Entire region + /proc/pid/mem,22,,,43780653.0,ns,205
snapshot_restore_with_dense,Sparse: Entire region + /proc/pid/mem,22,,,44771796.0,ns,210
snapshot_restore_with_dense,Sparse: Entire region + /proc/pid/mem,22,,,45840285.0,ns,215
snapshot_restore_with_dense,Sparse: Entire region + /proc/pid/mem,22,,,46843199.0,ns,220
snapshot_restore_with_dense,Sparse: Entire region + /proc/pid/mem,22,,,47956501.0,ns,225
snapshot_restore_with_dense,Sparse: Entire region + /proc/pid/mem,22,,,48995317.0,ns,230
snapshot_restore_with_dense,Sparse: Entire region + /proc/pid/mem,22,,,50029062.0,ns,235
snapshot_restore_with_dense,Sparse: Entire region + /proc/pid/mem,22,,,51039456.0,ns,240
snapshot_restore_with_dense,Sparse: Entire region + /proc/pid/mem,22,,,52150343.0,ns,245
snapshot_restore_with_dense,Sparse: Entire region + /proc/pid/mem,22,,,53236379.0,ns,250
snapshot_restore_with_dense,Sparse: Entire region + /proc/pid/mem,22,,,54297824.0,ns,255
snapshot_restore_with_dense,Sparse: Entire region + /proc/pid/mem,22,,,55260790.0,ns,260
snapshot_restore_with_dense,Sparse: Entire region + /proc/pid/mem,22,,,56431236.0,ns,265
snapshot_restore_with_dense,Sparse: Entire region + /proc/pid/mem,22,,,64989263.0,ns,270
snapshot_restore_with_dense,Sparse: Entire region + /proc/pid/mem,22,,,58660200.0,ns,275
snapshot_restore_with_dense,Sparse: Entire region + /proc/pid/mem,22,,,59940011.0,ns,280
snapshot_restore_with_dense,Sparse: Entire region + /proc/pid/mem,22,,,60755621.0,ns,285
snapshot_restore_with_dense,Sparse: Entire region + /proc/pid/mem,22,,,61930197.0,ns,290
snapshot_restore_with_dense,Sparse: Entire region + /proc/pid/mem,22,,,62855131.0,ns,295
snapshot_restore_with_dense,Sparse: Entire region + /proc/pid/mem,22,,,63999000.0,ns,300
snapshot_restore_with_dense,Sparse: Entire region + /proc/pid/mem,22,,,65095485.0,ns,305
snapshot_restore_with_dense,Sparse: Entire region + /proc/pid/mem,22,,,65950373.0,ns,310
snapshot_restore_with_dense,Sparse: Entire region + /proc/pid/mem,22,,,67115184.0,ns,315
snapshot_restore_with_dense,Sparse: Entire region + /proc/pid/mem,22,,,68177425.0,ns,320
snapshot_restore_with_dense,Sparse: Entire region + /proc/pid/mem,22,,,69180165.0,ns,325
snapshot_restore_with_dense,Sparse: Entire region + /proc/pid/mem,22,,,70354885.0,ns,330
snapshot_restore_with_dense,Sparse: Entire region + /proc/pid/mem,22,,,71292077.0,ns,335
snapshot_restore_with_dense,Sparse: Entire region + /proc/pid/mem,22,,,72315386.0,ns,340
snapshot_restore_with_dense,Sparse: Entire region + /proc/pid/mem,22,,,73560737.0,ns,345
snapshot_restore_with_dense,Sparse: Entire region + /proc/pid/mem,22,,,74789647.0,ns,350
snapshot_restore_with_dense,Sparse: Entire region + /proc/pid/mem,22,,,75598471.0,ns,355
snapshot_restore_with_dense,Sparse: Entire region + /proc/pid/mem,22,,,76634402.0,ns,360
snapshot_restore_with_dense,Sparse: Entire region + /proc/pid/mem,22,,,77681708.0,ns,365
snapshot_restore_with_dense,Sparse: Entire region + /proc/pid/mem,22,,,78804380.0,ns,370
snapshot_restore_with_dense,Sparse: Entire region + /proc/pid/mem,22,,,79900072.0,ns,375
snapshot_restore_with_dense,Sparse: Entire region + /proc/pid/mem,22,,,80875643.0,ns,380
snapshot_restore_with_dense,Sparse: Entire region + /proc/pid/mem,22,,,82061431.0,ns,385
snapshot_restore_with_dense,Sparse: Entire region + /proc/pid/mem,22,,,83070275.0,ns,390
snapshot_restore_with_dense,Sparse: Entire region + /proc/pid/mem,22,,,84182495.0,ns,395
snapshot_restore_with_dense,Sparse: Entire region + /proc/pid/mem,22,,,85127965.0,ns,400
snapshot_restore_with_dense,Sparse: Entire region + /proc/pid/mem,22,,,86088509.0,ns,405
snapshot_restore_with_dense,Sparse: Entire region + /proc/pid/mem,22,,,87716685.0,ns,410
snapshot_restore_with_dense,Sparse: Entire region + /proc/pid/mem,22,,,88389006.0,ns,415
snapshot_restore_with_dense,Sparse: Entire region + /proc/pid/mem,22,,,89970718.0,ns,420
snapshot_restore_with_dense,Sparse: Entire region + /proc/pid/mem,22,,,92145034.0,ns,425
snapshot_restore_with_dense,Sparse: Entire region + /proc/pid/mem,22,,,93320611.0,ns,430
snapshot_restore_with_dense,Sparse: Entire region + /proc/pid/mem,22,,,94373727.0,ns,435
snapshot_restore_with_dense,Sparse: Entire region + /proc/pid/mem,22,,,96253160.0,ns,440
snapshot_restore_with_dense,Sparse: Entire region + /proc/pid/mem,22,,,96323372.0,ns,445
snapshot_restore_with_dense,Sparse: Entire region + /proc/pid/mem,22,,,97214271.0,ns,450
snapshot_restore_with_dense,Sparse: Entire region + /proc/pid/mem,22,,,99299909.0,ns,455
snapshot_restore_with_dense,Sparse: Entire region + /proc/pid/mem,22,,,99214617.0,ns,460
snapshot_restore_with_dense,Sparse: Entire region + /proc/pid/mem,22,,,99907520.0,ns,465
snapshot_restore_with_dense,Sparse: Entire region + /proc/pid/mem,22,,,101029726.0,ns,470
snapshot_restore_with_dense,Sparse: Entire region + /proc/pid/mem,22,,,101974796.0,ns,475
snapshot_restore_with_dense,Sparse: Entire region + /proc/pid/mem,22,,,103190269.0,ns,480
snapshot_restore_with_dense,Sparse: Entire region + /proc/pid/mem,22,,,104262044.0,ns,485
snapshot_restore_with_dense,Sparse: Entire region + /proc/pid/mem,22,,,105163974.0,ns,490
snapshot_restore_with_dense,Sparse: Entire region + /proc/pid/mem,22,,,105577430.0,ns,495
snapshot_restore_with_dense,Sparse: Entire region + /proc/pid/mem,22,,,106430343.0,ns,500
