<?xml version="1.0" encoding="utf-8"  standalone="no"?>
<svg 
 viewBox="0 0 1280 720"
 xmlns="http://www.w3.org/2000/svg"
 xmlns:xlink="http://www.w3.org/1999/xlink"
>

<title>Gnuplot</title>
<desc>Produced by GNUPLOT 5.2 patchlevel 6 </desc>

<g id="gnuplot_canvas">

<rect x="0" y="0" width="1280" height="720" fill="none"/>
<defs>

	<circle id='gpDot' r='0.5' stroke-width='0.5' stroke='currentColor'/>
	<path id='gpPt0' stroke-width='0.222' stroke='currentColor' d='M-1,0 h2 M0,-1 v2'/>
	<path id='gpPt1' stroke-width='0.222' stroke='currentColor' d='M-1,-1 L1,1 M1,-1 L-1,1'/>
	<path id='gpPt2' stroke-width='0.222' stroke='currentColor' d='M-1,0 L1,0 M0,-1 L0,1 M-1,-1 L1,1 M-1,1 L1,-1'/>
	<rect id='gpPt3' stroke-width='0.222' stroke='currentColor' x='-1' y='-1' width='2' height='2'/>
	<rect id='gpPt4' stroke-width='0.222' stroke='currentColor' fill='currentColor' x='-1' y='-1' width='2' height='2'/>
	<circle id='gpPt5' stroke-width='0.222' stroke='currentColor' cx='0' cy='0' r='1'/>
	<use xlink:href='#gpPt5' id='gpPt6' fill='currentColor' stroke='none'/>
	<path id='gpPt7' stroke-width='0.222' stroke='currentColor' d='M0,-1.33 L-1.33,0.67 L1.33,0.67 z'/>
	<use xlink:href='#gpPt7' id='gpPt8' fill='currentColor' stroke='none'/>
	<use xlink:href='#gpPt7' id='gpPt9' stroke='currentColor' transform='rotate(180)'/>
	<use xlink:href='#gpPt9' id='gpPt10' fill='currentColor' stroke='none'/>
	<use xlink:href='#gpPt3' id='gpPt11' stroke='currentColor' transform='rotate(45)'/>
	<use xlink:href='#gpPt11' id='gpPt12' fill='currentColor' stroke='none'/>
	<path id='gpPt13' stroke-width='0.222' stroke='currentColor' d='M0,1.330 L1.265,0.411 L0.782,-1.067 L-0.782,-1.076 L-1.265,0.411 z'/>
	<use xlink:href='#gpPt13' id='gpPt14' fill='currentColor' stroke='none'/>
	<filter id='textbox' filterUnits='objectBoundingBox' x='0' y='0' height='1' width='1'>
	  <feFlood flood-color='white' flood-opacity='1' result='bgnd'/>
	  <feComposite in='SourceGraphic' in2='bgnd' operator='atop'/>
	</filter>
	<filter id='greybox' filterUnits='objectBoundingBox' x='0' y='0' height='1' width='1'>
	  <feFlood flood-color='lightgrey' flood-opacity='1' result='grey'/>
	  <feComposite in='SourceGraphic' in2='grey' operator='atop'/>
	</filter>
</defs>
<g fill="none" color="white" stroke="currentColor" stroke-width="1.00" stroke-linecap="butt" stroke-linejoin="miter">
</g>
<g fill="none" color="black" stroke="currentColor" stroke-width="1.00" stroke-linecap="butt" stroke-linejoin="miter">
	<path stroke='black'  d='M88.5,662.4 L97.5,662.4  '/>	<g transform="translate(80.2,666.3)" stroke="none" fill="black" font-family="Helvetica" font-size="12.00"  text-anchor="end">
		<text><tspan font-family="Helvetica" > 0</tspan></text>
	</g>
</g>
<g fill="none" color="black" stroke="currentColor" stroke-width="1.00" stroke-linecap="butt" stroke-linejoin="miter">
	<path stroke='black'  d='M88.5,586.4 L97.5,586.4  '/>	<g transform="translate(80.2,590.3)" stroke="none" fill="black" font-family="Helvetica" font-size="12.00"  text-anchor="end">
		<text><tspan font-family="Helvetica" > 0.001</tspan></text>
	</g>
</g>
<g fill="none" color="black" stroke="currentColor" stroke-width="1.00" stroke-linecap="butt" stroke-linejoin="miter">
	<path stroke='black'  d='M88.5,510.3 L97.5,510.3  '/>	<g transform="translate(80.2,514.2)" stroke="none" fill="black" font-family="Helvetica" font-size="12.00"  text-anchor="end">
		<text><tspan font-family="Helvetica" > 0.002</tspan></text>
	</g>
</g>
<g fill="none" color="black" stroke="currentColor" stroke-width="1.00" stroke-linecap="butt" stroke-linejoin="miter">
	<path stroke='black'  d='M88.5,434.3 L97.5,434.3  '/>	<g transform="translate(80.2,438.2)" stroke="none" fill="black" font-family="Helvetica" font-size="12.00"  text-anchor="end">
		<text><tspan font-family="Helvetica" > 0.003</tspan></text>
	</g>
</g>
<g fill="none" color="black" stroke="currentColor" stroke-width="1.00" stroke-linecap="butt" stroke-linejoin="miter">
	<path stroke='black'  d='M88.5,358.2 L97.5,358.2  '/>	<g transform="translate(80.2,362.1)" stroke="none" fill="black" font-family="Helvetica" font-size="12.00"  text-anchor="end">
		<text><tspan font-family="Helvetica" > 0.004</tspan></text>
	</g>
</g>
<g fill="none" color="black" stroke="currentColor" stroke-width="1.00" stroke-linecap="butt" stroke-linejoin="miter">
	<path stroke='black'  d='M88.5,282.2 L97.5,282.2  '/>	<g transform="translate(80.2,286.1)" stroke="none" fill="black" font-family="Helvetica" font-size="12.00"  text-anchor="end">
		<text><tspan font-family="Helvetica" > 0.005</tspan></text>
	</g>
</g>
<g fill="none" color="black" stroke="currentColor" stroke-width="1.00" stroke-linecap="butt" stroke-linejoin="miter">
	<path stroke='black'  d='M88.5,206.2 L97.5,206.2  '/>	<g transform="translate(80.2,210.1)" stroke="none" fill="black" font-family="Helvetica" font-size="12.00"  text-anchor="end">
		<text><tspan font-family="Helvetica" > 0.006</tspan></text>
	</g>
</g>
<g fill="none" color="black" stroke="currentColor" stroke-width="1.00" stroke-linecap="butt" stroke-linejoin="miter">
	<path stroke='black'  d='M88.5,130.1 L97.5,130.1  '/>	<g transform="translate(80.2,134.0)" stroke="none" fill="black" font-family="Helvetica" font-size="12.00"  text-anchor="end">
		<text><tspan font-family="Helvetica" > 0.007</tspan></text>
	</g>
</g>
<g fill="none" color="black" stroke="currentColor" stroke-width="1.00" stroke-linecap="butt" stroke-linejoin="miter">
	<path stroke='black'  d='M88.5,54.1 L97.5,54.1  '/>	<g transform="translate(80.2,58.0)" stroke="none" fill="black" font-family="Helvetica" font-size="12.00"  text-anchor="end">
		<text><tspan font-family="Helvetica" > 0.008</tspan></text>
	</g>
</g>
<g fill="none" color="black" stroke="currentColor" stroke-width="1.00" stroke-linecap="butt" stroke-linejoin="miter">
	<path stroke='black'  d='M279.6,662.4 L279.6,653.4  '/>	<g transform="translate(279.6,684.3)" stroke="none" fill="black" font-family="Helvetica" font-size="12.00"  text-anchor="middle">
		<text><tspan font-family="Helvetica" > 250</tspan></text>
	</g>
</g>
<g fill="none" color="black" stroke="currentColor" stroke-width="1.00" stroke-linecap="butt" stroke-linejoin="miter">
	<path stroke='black'  d='M479.7,662.4 L479.7,653.4  '/>	<g transform="translate(479.7,684.3)" stroke="none" fill="black" font-family="Helvetica" font-size="12.00"  text-anchor="middle">
		<text><tspan font-family="Helvetica" > 300</tspan></text>
	</g>
</g>
<g fill="none" color="black" stroke="currentColor" stroke-width="1.00" stroke-linecap="butt" stroke-linejoin="miter">
	<path stroke='black'  d='M679.8,662.4 L679.8,653.4  '/>	<g transform="translate(679.8,684.3)" stroke="none" fill="black" font-family="Helvetica" font-size="12.00"  text-anchor="middle">
		<text><tspan font-family="Helvetica" > 350</tspan></text>
	</g>
</g>
<g fill="none" color="black" stroke="currentColor" stroke-width="1.00" stroke-linecap="butt" stroke-linejoin="miter">
	<path stroke='black'  d='M879.9,662.4 L879.9,653.4  '/>	<g transform="translate(879.9,684.3)" stroke="none" fill="black" font-family="Helvetica" font-size="12.00"  text-anchor="middle">
		<text><tspan font-family="Helvetica" > 400</tspan></text>
	</g>
</g>
<g fill="none" color="black" stroke="currentColor" stroke-width="1.00" stroke-linecap="butt" stroke-linejoin="miter">
</g>
<g fill="none" color="black" stroke="currentColor" stroke-width="1.00" stroke-linecap="butt" stroke-linejoin="miter">
	<path stroke='black'  d='M88.5,54.1 L88.5,662.4 L1013.6,662.4 L1013.6,54.1 L88.5,54.1 Z  '/></g>
<g fill="none" color="black" stroke="currentColor" stroke-width="1.00" stroke-linecap="butt" stroke-linejoin="miter">
	<g transform="translate(16.3,358.3) rotate(270)" stroke="none" fill="black" font-family="Helvetica" font-size="12.00"  text-anchor="middle">
		<text><tspan font-family="Helvetica" >Density (a.u.)</tspan></text>
	</g>
</g>
<g fill="none" color="black" stroke="currentColor" stroke-width="1.00" stroke-linecap="butt" stroke-linejoin="miter">
	<g transform="translate(551.0,711.3)" stroke="none" fill="black" font-family="Helvetica" font-size="12.00"  text-anchor="middle">
		<text><tspan font-family="Helvetica" >Average time (ns)</tspan></text>
	</g>
</g>
<g fill="none" color="black" stroke="currentColor" stroke-width="1.00" stroke-linecap="butt" stroke-linejoin="miter">
	<g transform="translate(551.0,31.0)" stroke="none" fill="black" font-family="Helvetica" font-size="12.00"  text-anchor="middle">
		<text><tspan font-family="Helvetica" >snapshot_restore_with_dense/Dense: Dirty pages + process_vm_writev/1000: MAD</tspan></text>
	</g>
</g>
	<g id="gnuplot_plot_1" ><title>Bootstrap distribution</title>
<g fill="none" color="white" stroke="black" stroke-width="2.00" stroke-linecap="butt" stroke-linejoin="miter">
</g>
<g fill="none" color="black" stroke="currentColor" stroke-width="2.00" stroke-linecap="butt" stroke-linejoin="miter">
	<g transform="translate(1089.0,67.0)" stroke="none" fill="black" font-family="Helvetica" font-size="12.00"  text-anchor="start">
		<text><tspan font-family="Helvetica" >Bootstrap distribution</tspan></text>
	</g>
</g>
<g fill="none" color="black" stroke="currentColor" stroke-width="2.00" stroke-linecap="butt" stroke-linejoin="miter">
	<path stroke='rgb( 31, 120, 180)'  d='M1038.5,63.1 L1080.7,63.1 M88.5,626.3 L90.4,624.9 L92.2,623.5 L94.1,622.1 L95.9,620.7 L97.8,619.2
		L99.6,617.7 L101.5,616.2 L103.3,614.7 L105.2,613.1 L107.0,611.4 L108.9,609.8 L110.7,608.1 L112.6,606.3
		L114.5,604.5 L116.3,602.7 L118.2,600.8 L120.0,598.8 L121.9,596.8 L123.7,594.8 L125.6,592.7 L127.4,590.5
		L129.3,588.3 L131.1,586.0 L133.0,583.7 L134.8,581.4 L136.7,578.9 L138.6,576.5 L140.4,574.0 L142.3,571.5
		L144.1,569.0 L146.0,566.4 L147.8,563.9 L149.7,561.3 L151.5,558.7 L153.4,556.2 L155.2,553.6 L157.1,551.1
		L158.9,548.5 L160.8,546.0 L162.7,543.6 L164.5,541.1 L166.4,538.6 L168.2,536.2 L170.1,533.8 L171.9,531.3
		L173.8,528.8 L175.6,526.3 L177.5,523.7 L179.3,521.0 L181.2,518.3 L183.0,515.3 L184.9,512.3 L186.8,509.0
		L188.6,505.6 L190.5,501.9 L192.3,497.9 L194.2,493.7 L196.0,489.1 L197.9,484.2 L199.7,479.0 L201.6,473.5
		L203.4,467.6 L205.3,461.3 L207.2,454.8 L209.0,447.9 L210.9,440.7 L212.7,433.3 L214.6,425.6 L216.4,417.7
		L218.3,409.7 L220.1,401.5 L222.0,393.2 L223.8,384.9 L225.7,376.6 L227.5,368.3 L229.4,360.1 L231.3,351.9
		L233.1,343.9 L235.0,335.9 L236.8,328.2 L238.7,320.6 L240.5,313.1 L242.4,305.8 L244.2,298.7 L246.1,291.8
		L247.9,285.0 L249.8,278.4 L251.6,271.9 L253.5,265.5 L255.4,259.2 L257.2,253.0 L259.1,246.9 L260.9,240.8
		L262.8,234.8 L264.6,228.7 L266.5,222.6 L268.3,216.5 L270.2,210.3 L272.0,204.1 L273.9,197.8 L275.7,191.4
		L277.6,184.9 L279.5,178.3 L281.3,171.6 L283.2,164.9 L285.0,158.2 L286.9,151.4 L288.7,144.7 L290.6,138.0
		L292.4,131.3 L294.3,124.9 L296.1,118.5 L298.0,112.4 L299.8,106.6 L301.7,101.0 L303.6,95.7 L305.4,90.7
		L307.3,86.1 L309.1,81.9 L311.0,78.0 L312.8,74.5 L314.7,71.4 L316.5,68.7 L318.4,66.3 L320.2,64.2
		L322.1,62.5 L323.9,61.0 L325.8,59.7 L327.7,58.7 L329.5,57.9 L331.4,57.2 L333.2,56.6 L335.1,56.2
		L336.9,55.9 L338.8,55.6 L340.6,55.3 L342.5,55.1 L344.3,55.0 L346.2,54.8 L348.0,54.7 L349.9,54.6
		L351.8,54.6 L353.6,54.6 L355.5,54.7 L357.3,54.8 L359.2,55.0 L361.0,55.2 L362.9,55.5 L364.7,55.8
		L366.6,56.2 L368.4,56.6 L370.3,57.1 L372.1,57.5 L374.0,58.0 L375.9,58.4 L377.7,58.9 L379.6,59.3
		L381.4,59.7 L383.3,60.1 L385.1,60.4 L387.0,60.7 L388.8,61.0 L390.7,61.4 L392.5,61.7 L394.4,62.1
		L396.2,62.5 L398.1,63.1 L400.0,63.7 L401.8,64.4 L403.7,65.3 L405.5,66.3 L407.4,67.4 L409.2,68.7
		L411.1,70.2 L412.9,71.8 L414.8,73.5 L416.6,75.4 L418.5,77.5 L420.3,79.6 L422.2,81.9 L424.1,84.2
		L425.9,86.6 L427.8,89.1 L429.6,91.5 L431.5,94.0 L433.3,96.4 L435.2,98.7 L437.0,100.9 L438.9,103.0
		L440.7,105.0 L442.6,106.7 L444.5,108.3 L446.3,109.6 L448.2,110.7 L450.0,111.6 L451.9,112.2 L453.7,112.6
		L455.6,112.9 L457.4,113.0 L459.3,112.9 L461.1,112.8 L463.0,112.7 L464.8,112.7 L466.7,112.7 L468.6,112.9
		L470.4,113.4 L472.3,114.1 L474.1,115.0 L476.0,116.4 L477.8,118.1 L479.7,120.2 L481.5,122.6 L483.4,125.4
		L485.2,128.6 L487.1,132.0 L488.9,135.8 L490.8,139.7 L492.7,143.8 L494.5,147.9 L496.4,152.1 L498.2,156.2
		L500.1,160.2 L501.9,164.0 L503.8,167.6 L505.6,170.9 L507.5,173.9 L509.3,176.6 L511.2,178.9 L513.0,180.8
		L514.9,182.4 L516.8,183.5 L518.6,184.3 L520.5,184.8 L522.3,184.9 L524.2,184.8 L526.0,184.4 L527.9,183.7
		L529.7,182.9 L531.6,182.0 L533.4,181.0 L535.3,179.9 L537.1,178.9 L539.0,177.8 L540.9,176.9 L542.7,176.1
		L544.6,175.4 L546.4,174.9 L548.3,174.7 L550.1,174.8 L552.0,175.1 L553.8,175.7 L555.7,176.7 L557.5,178.0
		L559.4,179.7 L561.2,181.7 L563.1,184.0 L565.0,186.6 L566.8,189.6 L568.7,192.8 L570.5,196.2 L572.4,199.9
		L574.2,203.7 L576.1,207.5 L577.9,211.5 L579.8,215.5 L581.6,219.4 L583.5,223.2 L585.3,227.0 L587.2,230.6
		L589.1,234.0 L590.9,237.3 L592.8,240.3 L594.6,243.2 L596.5,245.8 L598.3,248.2 L600.2,250.4 L602.0,252.5
		L603.9,254.3 L605.7,256.0 L607.6,257.5 L609.4,258.9 L611.3,260.1 L613.2,261.2 L615.0,262.3 L616.9,263.2
		L618.7,264.0 L620.6,264.6 L622.4,265.2 L624.3,265.7 L626.1,266.1 L628.0,266.4 L629.8,266.6 L631.7,266.8
		L633.5,266.9 L635.4,266.9 L637.3,266.9 L639.1,266.9 L641.0,266.9 L642.8,267.0 L644.7,267.2 L646.5,267.4
		L648.4,267.8 L650.2,268.3 L652.1,268.9 L653.9,269.8 L655.8,270.9 L657.6,272.1 L659.5,273.6 L661.4,275.2
		L663.2,277.1 L665.1,279.1 L666.9,281.3 L668.8,283.7 L670.6,286.3 L672.5,289.0 L674.3,291.8 L676.2,294.7
		L678.0,297.8 L679.9,300.9 L681.8,304.0 L683.6,307.2 L685.5,310.4 L687.3,313.6 L689.2,316.8 L691.0,320.0
		L692.9,323.1 L694.7,326.1 L696.6,329.1 L698.4,331.9 L700.3,334.6 L702.1,337.1 L704.0,339.5 L705.9,341.7
		L707.7,343.8 L709.6,345.7 L711.4,347.4 L713.3,348.9 L715.1,350.3 L717.0,351.6 L718.8,352.8 L720.7,353.9
		L722.5,354.9 L724.4,355.9 L726.2,356.8 L728.1,357.8 L730.0,358.7 L731.8,359.7 L733.7,360.7 L735.5,361.8
		L737.4,363.0 L739.2,364.3 L741.1,365.6 L742.9,367.0 L744.8,368.6 L746.6,370.2 L748.5,371.9 L750.3,373.7
		L752.2,375.6 L754.1,377.6 L755.9,379.6 L757.8,381.8 L759.6,384.0 L761.5,386.3 L763.3,388.6 L765.2,391.0
		L767.0,393.4 L768.9,395.8 L770.7,398.2 L772.6,400.6 L774.4,403.1 L776.3,405.4 L778.2,407.8 L780.0,410.1
		L781.9,412.3 L783.7,414.6 L785.6,416.7 L787.4,418.8 L789.3,420.9 L791.1,423.0 L793.0,425.0 L794.8,427.0
		L796.7,429.1 L798.5,431.1 L800.4,433.2 L802.3,435.3 L804.1,437.5 L806.0,439.8 L807.8,442.1 L809.7,444.5
		L811.5,447.0 L813.4,449.6 L815.2,452.3 L817.1,455.0 L818.9,457.9 L820.8,460.8 L822.6,463.7 L824.5,466.7
		L826.4,469.8 L828.2,472.9 L830.1,476.1 L831.9,479.2 L833.8,482.4 L835.6,485.6 L837.5,488.8 L839.3,492.0
		L841.2,495.1 L843.0,498.3 L844.9,501.4 L846.7,504.4 L848.6,507.4 L850.5,510.4 L852.3,513.3 L854.2,516.1
		L856.0,518.9 L857.9,521.7 L859.7,524.4 L861.6,527.0 L863.4,529.6 L865.3,532.1 L867.1,534.6 L869.0,537.1
		L870.8,539.6 L872.7,542.0 L874.6,544.5 L876.4,546.9 L878.3,549.4 L880.1,551.8 L882.0,554.3 L883.8,556.7
		L885.7,559.2 L887.5,561.6 L889.4,564.1 L891.2,566.5 L893.1,569.0 L894.9,571.4 L896.8,573.7 L898.7,576.0
		L900.5,578.3 L902.4,580.5 L904.2,582.6 L906.1,584.6 L907.9,586.5 L909.8,588.4 L911.6,590.1 L913.5,591.8
		L915.3,593.4 L917.2,594.9 L919.1,596.3 L920.9,597.6 L922.8,598.8 L924.6,600.0 L926.5,601.1 L928.3,602.2
		L930.2,603.2 L932.0,604.2 L933.9,605.1 L935.7,606.0 L937.6,606.9 L939.4,607.7 L941.3,608.5 L943.2,609.2
		L945.0,609.9 L946.9,610.5 L948.7,611.0 L950.6,611.5 L952.4,611.9 L954.3,612.2 L956.1,612.4 L958.0,612.5
		L959.8,612.6 L961.7,612.6 L963.5,612.4 L965.4,612.3 L967.3,612.0 L969.1,611.7 L971.0,611.4 L972.8,611.0
		L974.7,610.6 L976.5,610.1 L978.4,609.7 L980.2,609.4 L982.1,609.0 L983.9,608.7 L985.8,608.5 L987.6,608.3
		L989.5,608.2 L991.4,608.1 L993.2,608.2 L995.1,608.3 L996.9,608.5 L998.8,608.9 L1000.6,609.3 L1002.5,609.8
		L1004.3,610.3 L1006.2,611.0 L1008.0,611.7 L1009.9,612.5 L1011.7,613.4 L1013.6,614.3  '/></g>
	</g>
	<g id="gnuplot_plot_2" ><title>Confidence interval</title>
<g fill="none" color="white" stroke="rgb( 31, 120, 180)" stroke-width="1.00" stroke-linecap="butt" stroke-linejoin="miter">
</g>
<g fill="none" color="black" stroke="currentColor" stroke-width="1.00" stroke-linecap="butt" stroke-linejoin="miter">
	<g transform="translate(1089.0,85.0)" stroke="none" fill="black" font-family="Helvetica" font-size="12.00"  text-anchor="start">
		<text><tspan font-family="Helvetica" >Confidence interval</tspan></text>
	</g>
</g>
<g fill="none" color="black" stroke="currentColor" stroke-width="1.00" stroke-linecap="butt" stroke-linejoin="miter">
	<g stroke='none' shape-rendering='crispEdges'>
		<polygon fill = 'rgb( 31, 120, 180)' fill-opacity = '0.250000' points = '1038.5,85.6 1080.7,85.6 1080.7,76.6 1038.5,76.6 '/>
		<polygon fill = 'rgb( 31, 120, 180)' fill-opacity = '0.250000' points = '173.8,528.8 175.6,526.3 177.5,523.7 179.3,521.0 181.2,518.3 183.0,515.3 184.9,512.3 186.8,509.0 188.6,505.6 190.5,501.9 192.3,497.9 194.2,493.7 196.0,489.1 197.9,484.2 199.7,479.0 201.6,473.5
203.4,467.6 205.3,461.3 207.2,454.8 209.0,447.9 210.9,440.7 212.7,433.3 214.6,425.6 216.4,417.7 218.3,409.7 220.1,401.5 222.0,393.2 223.8,384.9 225.7,376.6 227.5,368.3 229.4,360.1 231.3,351.9
233.1,343.9 235.0,335.9 236.8,328.2 238.7,320.6 240.5,313.1 242.4,305.8 244.2,298.7 246.1,291.8 247.9,285.0 249.8,278.4 251.6,271.9 253.5,265.5 255.4,259.2 257.2,253.0 259.1,246.9 260.9,240.8
262.8,234.8 264.6,228.7 266.5,222.6 268.3,216.5 270.2,210.3 272.0,204.1 273.9,197.8 275.7,191.4 277.6,184.9 279.5,178.3 281.3,171.6 283.2,164.9 285.0,158.2 286.9,151.4 288.7,144.7 290.6,138.0
292.4,131.3 294.3,124.9 296.1,118.5 298.0,112.4 299.8,106.6 301.7,101.0 303.6,95.7 305.4,90.7 307.3,86.1 309.1,81.9 311.0,78.0 312.8,74.5 314.7,71.4 316.5,68.7 318.4,66.3 320.2,64.2
322.1,62.5 323.9,61.0 325.8,59.7 327.7,58.7 329.5,57.9 331.4,57.2 333.2,56.6 335.1,56.2 336.9,55.9 338.8,55.6 340.6,55.3 342.5,55.1 344.3,55.0 346.2,54.8 348.0,54.7 349.9,54.6
351.8,54.6 353.6,54.6 355.5,54.7 357.3,54.8 359.2,55.0 361.0,55.2 362.9,55.5 364.7,55.8 366.6,56.2 368.4,56.6 370.3,57.1 372.1,57.5 374.0,58.0 375.9,58.4 377.7,58.9 379.6,59.3
381.4,59.7 383.3,60.1 385.1,60.4 387.0,60.7 388.8,61.0 390.7,61.4 392.5,61.7 394.4,62.1 396.2,62.5 398.1,63.1 400.0,63.7 401.8,64.4 403.7,65.3 405.5,66.3 407.4,67.4 409.2,68.7
411.1,70.2 412.9,71.8 414.8,73.5 416.6,75.4 418.5,77.5 420.3,79.6 422.2,81.9 424.1,84.2 425.9,86.6 427.8,89.1 429.6,91.5 431.5,94.0 433.3,96.4 435.2,98.7 437.0,100.9 438.9,103.0
440.7,105.0 442.6,106.7 444.5,108.3 446.3,109.6 448.2,110.7 450.0,111.6 451.9,112.2 453.7,112.6 455.6,112.9 457.4,113.0 459.3,112.9 461.1,112.8 463.0,112.7 464.8,112.7 466.7,112.7 468.6,112.9
470.4,113.4 472.3,114.1 474.1,115.0 476.0,116.4 477.8,118.1 479.7,120.2 481.5,122.6 483.4,125.4 485.2,128.6 487.1,132.0 488.9,135.8 490.8,139.7 492.7,143.8 494.5,147.9 496.4,152.1 498.2,156.2
500.1,160.2 501.9,164.0 503.8,167.6 505.6,170.9 507.5,173.9 509.3,176.6 511.2,178.9 513.0,180.8 514.9,182.4 516.8,183.5 518.6,184.3 520.5,184.8 522.3,184.9 524.2,184.8 526.0,184.4 527.9,183.7
529.7,182.9 531.6,182.0 533.4,181.0 535.3,179.9 537.1,178.9 539.0,177.8 540.9,176.9 542.7,176.1 544.6,175.4 546.4,174.9 548.3,174.7 550.1,174.8 552.0,175.1 553.8,175.7 555.7,176.7 557.5,178.0
559.4,179.7 561.2,181.7 563.1,184.0 565.0,186.6 566.8,189.6 568.7,192.8 570.5,196.2 572.4,199.9 574.2,203.7 576.1,207.5 577.9,211.5 579.8,215.5 581.6,219.4 583.5,223.2 585.3,227.0 587.2,230.6
589.1,234.0 590.9,237.3 592.8,240.3 594.6,243.2 596.5,245.8 598.3,248.2 600.2,250.4 602.0,252.5 603.9,254.3 605.7,256.0 607.6,257.5 609.4,258.9 611.3,260.1 613.2,261.2 615.0,262.3 616.9,263.2
618.7,264.0 620.6,264.6 622.4,265.2 624.3,265.7 626.1,266.1 628.0,266.4 629.8,266.6 631.7,266.8 633.5,266.9 635.4,266.9 637.3,266.9 639.1,266.9 641.0,266.9 642.8,267.0 644.7,267.2 646.5,267.4
648.4,267.8 650.2,268.3 652.1,268.9 653.9,269.8 655.8,270.9 657.6,272.1 659.5,273.6 661.4,275.2 663.2,277.1 665.1,279.1 666.9,281.3 668.8,283.7 670.6,286.3 672.5,289.0 674.3,291.8 676.2,294.7
678.0,297.8 679.9,300.9 681.8,304.0 683.6,307.2 685.5,310.4 687.3,313.6 689.2,316.8 691.0,320.0 692.9,323.1 694.7,326.1 696.6,329.1 698.4,331.9 700.3,334.6 702.1,337.1 704.0,339.5 705.9,341.7
707.7,343.8 709.6,345.7 711.4,347.4 713.3,348.9 715.1,350.3 717.0,351.6 718.8,352.8 720.7,353.9 722.5,354.9 724.4,355.9 726.2,356.8 728.1,357.8 730.0,358.7 731.8,359.7 733.7,360.7 735.5,361.8
737.4,363.0 739.2,364.3 741.1,365.6 742.9,367.0 744.8,368.6 746.6,370.2 748.5,371.9 750.3,373.7 752.2,375.6 754.1,377.6 755.9,379.6 757.8,381.8 759.6,384.0 761.5,386.3 763.3,388.6 765.2,391.0
767.0,393.4 768.9,395.8 770.7,398.2 772.6,400.6 774.4,403.1 776.3,405.4 778.2,407.8 780.0,410.1 781.9,412.3 783.7,414.6 785.6,416.7 787.4,418.8 789.3,420.9 791.1,423.0 793.0,425.0 794.8,427.0
796.7,429.1 798.5,431.1 800.4,433.2 802.3,435.3 804.1,437.5 806.0,439.8 807.8,442.1 809.7,444.5 811.5,447.0 813.4,449.6 815.2,452.3 817.1,455.0 818.9,457.9 820.8,460.8 822.6,463.7 824.5,466.7
826.4,469.8 828.2,472.9 830.1,476.1 831.9,479.2 833.8,482.4 835.6,485.6 837.5,488.8 839.3,492.0 841.2,495.1 843.0,498.3 844.9,501.4 846.7,504.4 848.6,507.4 850.5,510.4 852.3,513.3 854.2,516.1
856.0,518.9 857.9,521.7 859.7,524.4 861.6,527.0 863.4,529.6 865.3,532.1 867.1,534.6 869.0,537.1 870.8,539.6 872.7,542.0 874.6,544.5 876.4,546.9 878.3,549.4 880.1,551.8 882.0,554.3 883.8,556.7
885.7,559.2 887.5,561.6 889.4,564.1 891.2,566.5 893.1,569.0 894.9,571.4 896.8,573.7 898.7,576.0 900.5,578.3 902.4,580.5 904.2,582.6 906.1,584.6 907.9,586.5 909.8,588.4 911.6,590.1 913.5,591.8
915.3,593.4 917.2,594.9 919.1,596.3 920.9,597.6 922.8,598.8 924.6,600.0 926.5,601.1 926.5,662.4 924.6,662.4 922.8,662.4 920.9,662.4 919.1,662.4 917.2,662.4 915.3,662.4 913.5,662.4 911.6,662.4
909.8,662.4 907.9,662.4 906.1,662.4 904.2,662.4 902.4,662.4 900.5,662.4 898.7,662.4 896.8,662.4 894.9,662.4 893.1,662.4 891.2,662.4 889.4,662.4 887.5,662.4 885.7,662.4 883.8,662.4 882.0,662.4
880.1,662.4 878.3,662.4 876.4,662.4 874.6,662.4 872.7,662.4 870.8,662.4 869.0,662.4 867.1,662.4 865.3,662.4 863.4,662.4 861.6,662.4 859.7,662.4 857.9,662.4 856.0,662.4 854.2,662.4 852.3,662.4
850.5,662.4 848.6,662.4 846.7,662.4 844.9,662.4 843.0,662.4 841.2,662.4 839.3,662.4 837.5,662.4 835.6,662.4 833.8,662.4 831.9,662.4 830.1,662.4 828.2,662.4 826.4,662.4 824.5,662.4 822.6,662.4
820.8,662.4 818.9,662.4 817.1,662.4 815.2,662.4 813.4,662.4 811.5,662.4 809.7,662.4 807.8,662.4 806.0,662.4 804.1,662.4 802.3,662.4 800.4,662.4 798.5,662.4 796.7,662.4 794.8,662.4 793.0,662.4
791.1,662.4 789.3,662.4 787.4,662.4 785.6,662.4 783.7,662.4 781.9,662.4 780.0,662.4 778.2,662.4 776.3,662.4 774.4,662.4 772.6,662.4 770.7,662.4 768.9,662.4 767.0,662.4 765.2,662.4 763.3,662.4
761.5,662.4 759.6,662.4 757.8,662.4 755.9,662.4 754.1,662.4 752.2,662.4 750.3,662.4 748.5,662.4 746.6,662.4 744.8,662.4 742.9,662.4 741.1,662.4 739.2,662.4 737.4,662.4 735.5,662.4 733.7,662.4
731.8,662.4 730.0,662.4 728.1,662.4 726.2,662.4 724.4,662.4 722.5,662.4 720.7,662.4 718.8,662.4 717.0,662.4 715.1,662.4 713.3,662.4 711.4,662.4 709.6,662.4 707.7,662.4 705.9,662.4 704.0,662.4
702.1,662.4 700.3,662.4 698.4,662.4 696.6,662.4 694.7,662.4 692.9,662.4 691.0,662.4 689.2,662.4 687.3,662.4 685.5,662.4 683.6,662.4 681.8,662.4 679.9,662.4 678.0,662.4 676.2,662.4 674.3,662.4
672.5,662.4 670.6,662.4 668.8,662.4 666.9,662.4 665.1,662.4 663.2,662.4 661.4,662.4 659.5,662.4 657.6,662.4 655.8,662.4 653.9,662.4 652.1,662.4 650.2,662.4 648.4,662.4 646.5,662.4 644.7,662.4
642.8,662.4 641.0,662.4 639.1,662.4 637.3,662.4 635.4,662.4 633.5,662.4 631.7,662.4 629.8,662.4 628.0,662.4 626.1,662.4 624.3,662.4 622.4,662.4 620.6,662.4 618.7,662.4 616.9,662.4 615.0,662.4
613.2,662.4 611.3,662.4 609.4,662.4 607.6,662.4 605.7,662.4 603.9,662.4 602.0,662.4 600.2,662.4 598.3,662.4 596.5,662.4 594.6,662.4 592.8,662.4 590.9,662.4 589.1,662.4 587.2,662.4 585.3,662.4
583.5,662.4 581.6,662.4 579.8,662.4 577.9,662.4 576.1,662.4 574.2,662.4 572.4,662.4 570.5,662.4 568.7,662.4 566.8,662.4 565.0,662.4 563.1,662.4 561.2,662.4 559.4,662.4 557.5,662.4 555.7,662.4
553.8,662.4 552.0,662.4 550.1,662.4 548.3,662.4 546.4,662.4 544.6,662.4 542.7,662.4 540.9,662.4 539.0,662.4 537.1,662.4 535.3,662.4 533.4,662.4 531.6,662.4 529.7,662.4 527.9,662.4 526.0,662.4
524.2,662.4 522.3,662.4 520.5,662.4 518.6,662.4 516.8,662.4 514.9,662.4 513.0,662.4 511.2,662.4 509.3,662.4 507.5,662.4 505.6,662.4 503.8,662.4 501.9,662.4 500.1,662.4 498.2,662.4 496.4,662.4
494.5,662.4 492.7,662.4 490.8,662.4 488.9,662.4 487.1,662.4 485.2,662.4 483.4,662.4 481.5,662.4 479.7,662.4 477.8,662.4 476.0,662.4 474.1,662.4 472.3,662.4 470.4,662.4 468.6,662.4 466.7,662.4
464.8,662.4 463.0,662.4 461.1,662.4 459.3,662.4 457.4,662.4 455.6,662.4 453.7,662.4 451.9,662.4 450.0,662.4 448.2,662.4 446.3,662.4 444.5,662.4 442.6,662.4 440.7,662.4 438.9,662.4 437.0,662.4
435.2,662.4 433.3,662.4 431.5,662.4 429.6,662.4 427.8,662.4 425.9,662.4 424.1,662.4 422.2,662.4 420.3,662.4 418.5,662.4 416.6,662.4 414.8,662.4 412.9,662.4 411.1,662.4 409.2,662.4 407.4,662.4
405.5,662.4 403.7,662.4 401.8,662.4 400.0,662.4 398.1,662.4 396.2,662.4 394.4,662.4 392.5,662.4 390.7,662.4 388.8,662.4 387.0,662.4 385.1,662.4 383.3,662.4 381.4,662.4 379.6,662.4 377.7,662.4
375.9,662.4 374.0,662.4 372.1,662.4 370.3,662.4 368.4,662.4 366.6,662.4 364.7,662.4 362.9,662.4 361.0,662.4 359.2,662.4 357.3,662.4 355.5,662.4 353.6,662.4 351.8,662.4 349.9,662.4 348.0,662.4
346.2,662.4 344.3,662.4 342.5,662.4 340.6,662.4 338.8,662.4 336.9,662.4 335.1,662.4 333.2,662.4 331.4,662.4 329.5,662.4 327.7,662.4 325.8,662.4 323.9,662.4 322.1,662.4 320.2,662.4 318.4,662.4
316.5,662.4 314.7,662.4 312.8,662.4 311.0,662.4 309.1,662.4 307.3,662.4 305.4,662.4 303.6,662.4 301.7,662.4 299.8,662.4 298.0,662.4 296.1,662.4 294.3,662.4 292.4,662.4 290.6,662.4 288.7,662.4
286.9,662.4 285.0,662.4 283.2,662.4 281.3,662.4 279.5,662.4 277.6,662.4 275.7,662.4 273.9,662.4 272.0,662.4 270.2,662.4 268.3,662.4 266.5,662.4 264.6,662.4 262.8,662.4 260.9,662.4 259.1,662.4
257.2,662.4 255.4,662.4 253.5,662.4 251.6,662.4 249.8,662.4 247.9,662.4 246.1,662.4 244.2,662.4 242.4,662.4 240.5,662.4 238.7,662.4 236.8,662.4 235.0,662.4 233.1,662.4 231.3,662.4 229.4,662.4
227.5,662.4 225.7,662.4 223.8,662.4 222.0,662.4 220.1,662.4 218.3,662.4 216.4,662.4 214.6,662.4 212.7,662.4 210.9,662.4 209.0,662.4 207.2,662.4 205.3,662.4 203.4,662.4 201.6,662.4 199.7,662.4
197.9,662.4 196.0,662.4 194.2,662.4 192.3,662.4 190.5,662.4 188.6,662.4 186.8,662.4 184.9,662.4 183.0,662.4 181.2,662.4 179.3,662.4 177.5,662.4 175.6,662.4 173.8,662.4 '/>
	</g>
</g>
	</g>
	<g id="gnuplot_plot_3" ><title>Point estimate</title>
<g fill="none" color="white" stroke="rgb( 31, 120, 180)" stroke-width="2.00" stroke-linecap="butt" stroke-linejoin="miter">
</g>
<g fill="none" color="black" stroke="currentColor" stroke-width="2.00" stroke-linecap="butt" stroke-linejoin="miter">
	<g transform="translate(1089.0,103.0)" stroke="none" fill="black" font-family="Helvetica" font-size="12.00"  text-anchor="start">
		<text><tspan font-family="Helvetica" >Point estimate</tspan></text>
	</g>
</g>
<g fill="none" color="black" stroke="currentColor" stroke-width="2.00" stroke-linecap="butt" stroke-linejoin="miter">
	<path stroke='rgb( 31, 120, 180)'  d='M1038.5,99.1 L1080.7,99.1 M464.9,662.4 L464.9,112.7  '/></g>
	</g>
<g fill="none" color="black" stroke="currentColor" stroke-width="2.00" stroke-linecap="butt" stroke-linejoin="miter">
</g>
<g fill="none" color="black" stroke="black" stroke-width="1.00" stroke-linecap="butt" stroke-linejoin="miter">
</g>
<g fill="none" color="black" stroke="currentColor" stroke-width="1.00" stroke-linecap="butt" stroke-linejoin="miter">
	<path stroke='black'  d='M88.5,54.1 L88.5,662.4 L1013.6,662.4 L1013.6,54.1 L88.5,54.1 Z  '/></g>
<g fill="none" color="black" stroke="currentColor" stroke-width="1.00" stroke-linecap="butt" stroke-linejoin="miter">
</g>
</g>
</svg>

