group,function,value,throughput_num,throughput_type,sample_measured_value,unit,iteration_count
snapshot_restore_with_dense,Sparse: Entire region + process_vm_writev,1,,,1043268.0,ns,37
snapshot_restore_with_dense,Sparse: Entire region + process_vm_writev,1,,,2006347.0,ns,74
snapshot_restore_with_dense,Sparse: Entire region + process_vm_writev,1,,,2974896.0,ns,111
snapshot_restore_with_dense,Sparse: Entire region + process_vm_writev,1,,,3953580.0,ns,148
snapshot_restore_with_dense,Sparse: Entire region + process_vm_writev,1,,,5337963.0,ns,185
snapshot_restore_with_dense,Sparse: Entire region + process_vm_writev,1,,,5949553.0,ns,222
snapshot_restore_with_dense,Sparse: Entire region + process_vm_writev,1,,,8160586.0,ns,259
snapshot_restore_with_dense,Sparse: Entire region + process_vm_writev,1,,,8399386.0,ns,296
snapshot_restore_with_dense,Sparse: Entire region + process_vm_writev,1,,,9086580.0,ns,333
snapshot_restore_with_dense,Sparse: Entire region + process_vm_writev,1,,,10162998.0,ns,370
snapshot_restore_with_dense,Sparse: Entire region + process_vm_writev,1,,,10968096.0,ns,407
snapshot_restore_with_dense,Sparse: Entire region + process_vm_writev,1,,,11909161.0,ns,444
snapshot_restore_with_dense,Sparse: Entire region + process_vm_writev,1,,,12907181.0,ns,481
snapshot_restore_with_dense,Sparse: Entire region + process_vm_writev,1,,,13922003.0,ns,518
snapshot_restore_with_dense,Sparse: Entire region + process_vm_writev,1,,,14869575.0,ns,555
snapshot_restore_with_dense,Sparse: Entire region + process_vm_writev,1,,,16230695.0,ns,592
snapshot_restore_with_dense,Sparse: Entire region + process_vm_writev,1,,,16875500.0,ns,629
snapshot_restore_with_dense,Sparse: Entire region + process_vm_writev,1,,,17866464.0,ns,666
snapshot_restore_with_dense,Sparse: Entire region + process_vm_writev,1,,,18781634.0,ns,703
snapshot_restore_with_dense,Sparse: Entire region + process_vm_writev,1,,,19721368.0,ns,740
snapshot_restore_with_dense,Sparse: Entire region + process_vm_writev,1,,,20721716.0,ns,777
snapshot_restore_with_dense,Sparse: Entire region + process_vm_writev,1,,,21681320.0,ns,814
snapshot_restore_with_dense,Sparse: Entire region + process_vm_writev,1,,,22740950.0,ns,851
snapshot_restore_with_dense,Sparse: Entire region + process_vm_writev,1,,,23738430.0,ns,888
snapshot_restore_with_dense,Sparse: Entire region + process_vm_writev,1,,,24657873.0,ns,925
snapshot_restore_with_dense,Sparse: Entire region + process_vm_writev,1,,,25652522.0,ns,962
snapshot_restore_with_dense,Sparse: Entire region + process_vm_writev,1,,,26687164.0,ns,999
snapshot_restore_with_dense,Sparse: Entire region + process_vm_writev,1,,,27670603.0,ns,1036
snapshot_restore_with_dense,Sparse: Entire region + process_vm_writev,1,,,28654168.0,ns,1073
snapshot_restore_with_dense,Sparse: Entire region + process_vm_writev,1,,,29743869.0,ns,1110
snapshot_restore_with_dense,Sparse: Entire region + process_vm_writev,1,,,30649188.0,ns,1147
snapshot_restore_with_dense,Sparse: Entire region + process_vm_writev,1,,,31614635.0,ns,1184
snapshot_restore_with_dense,Sparse: Entire region + process_vm_writev,1,,,32564222.0,ns,1221
snapshot_restore_with_dense,Sparse: Entire region + process_vm_writev,1,,,33596666.0,ns,1258
snapshot_restore_with_dense,Sparse: Entire region + process_vm_writev,1,,,34587554.0,ns,1295
snapshot_restore_with_dense,Sparse: Entire region + process_vm_writev,1,,,37208164.0,ns,1332
snapshot_restore_with_dense,Sparse: Entire region + process_vm_writev,1,,,36860739.0,ns,1369
snapshot_restore_with_dense,Sparse: Entire region + process_vm_writev,1,,,37480648.0,ns,1406
snapshot_restore_with_dense,Sparse: Entire region + process_vm_writev,1,,,38501806.0,ns,1443
snapshot_restore_with_dense,Sparse: Entire region + process_vm_writev,1,,,39529365.0,ns,1480
snapshot_restore_with_dense,Sparse: Entire region + process_vm_writev,1,,,40510408.0,ns,1517
snapshot_restore_with_dense,Sparse: Entire region + process_vm_writev,1,,,41562630.0,ns,1554
snapshot_restore_with_dense,Sparse: Entire region + process_vm_writev,1,,,42512546.0,ns,1591
snapshot_restore_with_dense,Sparse: Entire region + process_vm_writev,1,,,43383059.0,ns,1628
snapshot_restore_with_dense,Sparse: Entire region + process_vm_writev,1,,,44523980.0,ns,1665
snapshot_restore_with_dense,Sparse: Entire region + process_vm_writev,1,,,45403415.0,ns,1702
snapshot_restore_with_dense,Sparse: Entire region + process_vm_writev,1,,,46471807.0,ns,1739
snapshot_restore_with_dense,Sparse: Entire region + process_vm_writev,1,,,47339585.0,ns,1776
snapshot_restore_with_dense,Sparse: Entire region + process_vm_writev,1,,,48405359.0,ns,1813
snapshot_restore_with_dense,Sparse: Entire region + process_vm_writev,1,,,49353562.0,ns,1850
snapshot_restore_with_dense,Sparse: Entire region + process_vm_writev,1,,,50371462.0,ns,1887
snapshot_restore_with_dense,Sparse: Entire region + process_vm_writev,1,,,51280032.0,ns,1924
snapshot_restore_with_dense,Sparse: Entire region + process_vm_writev,1,,,52406073.0,ns,1961
snapshot_restore_with_dense,Sparse: Entire region + process_vm_writev,1,,,53270706.0,ns,1998
snapshot_restore_with_dense,Sparse: Entire region + process_vm_writev,1,,,54417906.0,ns,2035
snapshot_restore_with_dense,Sparse: Entire region + process_vm_writev,1,,,55338766.0,ns,2072
snapshot_restore_with_dense,Sparse: Entire region + process_vm_writev,1,,,56373351.0,ns,2109
snapshot_restore_with_dense,Sparse: Entire region + process_vm_writev,1,,,57465380.0,ns,2146
snapshot_restore_with_dense,Sparse: Entire region + process_vm_writev,1,,,63527644.0,ns,2183
snapshot_restore_with_dense,Sparse: Entire region + process_vm_writev,1,,,59477388.0,ns,2220
snapshot_restore_with_dense,Sparse: Entire region + process_vm_writev,1,,,60251228.0,ns,2257
snapshot_restore_with_dense,Sparse: Entire region + process_vm_writev,1,,,61435073.0,ns,2294
snapshot_restore_with_dense,Sparse: Entire region + process_vm_writev,1,,,62238034.0,ns,2331
snapshot_restore_with_dense,Sparse: Entire region + process_vm_writev,1,,,63243020.0,ns,2368
snapshot_restore_with_dense,Sparse: Entire region + process_vm_writev,1,,,64165579.0,ns,2405
snapshot_restore_with_dense,Sparse: Entire region + process_vm_writev,1,,,65203127.0,ns,2442
snapshot_restore_with_dense,Sparse: Entire region + process_vm_writev,1,,,66164010.0,ns,2479
snapshot_restore_with_dense,Sparse: Entire region + process_vm_writev,1,,,67186583.0,ns,2516
snapshot_restore_with_dense,Sparse: Entire region + process_vm_writev,1,,,68136533.0,ns,2553
snapshot_restore_with_dense,Sparse: Entire region + process_vm_writev,1,,,69169658.0,ns,2590
snapshot_restore_with_dense,Sparse: Entire region + process_vm_writev,1,,,70100490.0,ns,2627
snapshot_restore_with_dense,Sparse: Entire region + process_vm_writev,1,,,71033234.0,ns,2664
snapshot_restore_with_dense,Sparse: Entire region + process_vm_writev,1,,,72428178.0,ns,2701
snapshot_restore_with_dense,Sparse: Entire region + process_vm_writev,1,,,73461956.0,ns,2738
snapshot_restore_with_dense,Sparse: Entire region + process_vm_writev,1,,,74103765.0,ns,2775
snapshot_restore_with_dense,Sparse: Entire region + process_vm_writev,1,,,75117056.0,ns,2812
snapshot_restore_with_dense,Sparse: Entire region + process_vm_writev,1,,,76107714.0,ns,2849
snapshot_restore_with_dense,Sparse: Entire region + process_vm_writev,1,,,76993954.0,ns,2886
snapshot_restore_with_dense,Sparse: Entire region + process_vm_writev,1,,,77979726.0,ns,2923
snapshot_restore_with_dense,Sparse: Entire region + process_vm_writev,1,,,79042743.0,ns,2960
snapshot_restore_with_dense,Sparse: Entire region + process_vm_writev,1,,,80028737.0,ns,2997
snapshot_restore_with_dense,Sparse: Entire region + process_vm_writev,1,,,80951416.0,ns,3034
snapshot_restore_with_dense,Sparse: Entire region + process_vm_writev,1,,,81954555.0,ns,3071
snapshot_restore_with_dense,Sparse: Entire region + process_vm_writev,1,,,84290214.0,ns,3108
snapshot_restore_with_dense,Sparse: Entire region + process_vm_writev,1,,,83977082.0,ns,3145
snapshot_restore_with_dense,Sparse: Entire region + process_vm_writev,1,,,85148144.0,ns,3182
snapshot_restore_with_dense,Sparse: Entire region + process_vm_writev,1,,,85956654.0,ns,3219
snapshot_restore_with_dense,Sparse: Entire region + process_vm_writev,1,,,86887218.0,ns,3256
snapshot_restore_with_dense,Sparse: Entire region + process_vm_writev,1,,,88012150.0,ns,3293
snapshot_restore_with_dense,Sparse: Entire region + process_vm_writev,1,,,88856332.0,ns,3330
snapshot_restore_with_dense,Sparse: Entire region + process_vm_writev,1,,,89901916.0,ns,3367
snapshot_restore_with_dense,Sparse: Entire region + process_vm_writev,1,,,91032967.0,ns,3404
snapshot_restore_with_dense,Sparse: Entire region + process_vm_writev,1,,,91827427.0,ns,3441
snapshot_restore_with_dense,Sparse: Entire region + process_vm_writev,1,,,92805522.0,ns,3478
snapshot_restore_with_dense,Sparse: Entire region + process_vm_writev,1,,,94000680.0,ns,3515
snapshot_restore_with_dense,Sparse: Entire region + process_vm_writev,1,,,94753267.0,ns,3552
snapshot_restore_with_dense,Sparse: Entire region + process_vm_writev,1,,,95857245.0,ns,3589
snapshot_restore_with_dense,Sparse: Entire region + process_vm_writev,1,,,96809836.0,ns,3626
snapshot_restore_with_dense,Sparse: Entire region + process_vm_writev,1,,,97924747.0,ns,3663
snapshot_restore_with_dense,Sparse: Entire region + process_vm_writev,1,,,98678170.0,ns,3700
