<?xml version="1.0" encoding="utf-8"  standalone="no"?>
<svg 
 viewBox="0 0 1280 720"
 xmlns="http://www.w3.org/2000/svg"
 xmlns:xlink="http://www.w3.org/1999/xlink"
>

<title>Gnuplot</title>
<desc>Produced by GNUPLOT 5.2 patchlevel 6 </desc>

<g id="gnuplot_canvas">

<rect x="0" y="0" width="1280" height="720" fill="none"/>
<defs>

	<circle id='gpDot' r='0.5' stroke-width='0.5' stroke='currentColor'/>
	<path id='gpPt0' stroke-width='0.222' stroke='currentColor' d='M-1,0 h2 M0,-1 v2'/>
	<path id='gpPt1' stroke-width='0.222' stroke='currentColor' d='M-1,-1 L1,1 M1,-1 L-1,1'/>
	<path id='gpPt2' stroke-width='0.222' stroke='currentColor' d='M-1,0 L1,0 M0,-1 L0,1 M-1,-1 L1,1 M-1,1 L1,-1'/>
	<rect id='gpPt3' stroke-width='0.222' stroke='currentColor' x='-1' y='-1' width='2' height='2'/>
	<rect id='gpPt4' stroke-width='0.222' stroke='currentColor' fill='currentColor' x='-1' y='-1' width='2' height='2'/>
	<circle id='gpPt5' stroke-width='0.222' stroke='currentColor' cx='0' cy='0' r='1'/>
	<use xlink:href='#gpPt5' id='gpPt6' fill='currentColor' stroke='none'/>
	<path id='gpPt7' stroke-width='0.222' stroke='currentColor' d='M0,-1.33 L-1.33,0.67 L1.33,0.67 z'/>
	<use xlink:href='#gpPt7' id='gpPt8' fill='currentColor' stroke='none'/>
	<use xlink:href='#gpPt7' id='gpPt9' stroke='currentColor' transform='rotate(180)'/>
	<use xlink:href='#gpPt9' id='gpPt10' fill='currentColor' stroke='none'/>
	<use xlink:href='#gpPt3' id='gpPt11' stroke='currentColor' transform='rotate(45)'/>
	<use xlink:href='#gpPt11' id='gpPt12' fill='currentColor' stroke='none'/>
	<path id='gpPt13' stroke-width='0.222' stroke='currentColor' d='M0,1.330 L1.265,0.411 L0.782,-1.067 L-0.782,-1.076 L-1.265,0.411 z'/>
	<use xlink:href='#gpPt13' id='gpPt14' fill='currentColor' stroke='none'/>
	<filter id='textbox' filterUnits='objectBoundingBox' x='0' y='0' height='1' width='1'>
	  <feFlood flood-color='white' flood-opacity='1' result='bgnd'/>
	  <feComposite in='SourceGraphic' in2='bgnd' operator='atop'/>
	</filter>
	<filter id='greybox' filterUnits='objectBoundingBox' x='0' y='0' height='1' width='1'>
	  <feFlood flood-color='lightgrey' flood-opacity='1' result='grey'/>
	  <feComposite in='SourceGraphic' in2='grey' operator='atop'/>
	</filter>
</defs>
<g fill="none" color="white" stroke="currentColor" stroke-width="1.00" stroke-linecap="butt" stroke-linejoin="miter">
</g>
<g fill="none" color="black" stroke="currentColor" stroke-width="1.00" stroke-linecap="butt" stroke-linejoin="miter">
	<path stroke='black'  d='M88.5,662.4 L97.5,662.4  '/>	<g transform="translate(80.2,666.3)" stroke="none" fill="black" font-family="Helvetica" font-size="12.00"  text-anchor="end">
		<text><tspan font-family="Helvetica" > 0</tspan></text>
	</g>
</g>
<g fill="none" color="black" stroke="currentColor" stroke-width="1.00" stroke-linecap="butt" stroke-linejoin="miter">
	<path stroke='black'  d='M88.5,540.7 L97.5,540.7  '/>	<g transform="translate(80.2,544.6)" stroke="none" fill="black" font-family="Helvetica" font-size="12.00"  text-anchor="end">
		<text><tspan font-family="Helvetica" > 0.005</tspan></text>
	</g>
</g>
<g fill="none" color="black" stroke="currentColor" stroke-width="1.00" stroke-linecap="butt" stroke-linejoin="miter">
	<path stroke='black'  d='M88.5,419.1 L97.5,419.1  '/>	<g transform="translate(80.2,423.0)" stroke="none" fill="black" font-family="Helvetica" font-size="12.00"  text-anchor="end">
		<text><tspan font-family="Helvetica" > 0.01</tspan></text>
	</g>
</g>
<g fill="none" color="black" stroke="currentColor" stroke-width="1.00" stroke-linecap="butt" stroke-linejoin="miter">
	<path stroke='black'  d='M88.5,297.4 L97.5,297.4  '/>	<g transform="translate(80.2,301.3)" stroke="none" fill="black" font-family="Helvetica" font-size="12.00"  text-anchor="end">
		<text><tspan font-family="Helvetica" > 0.015</tspan></text>
	</g>
</g>
<g fill="none" color="black" stroke="currentColor" stroke-width="1.00" stroke-linecap="butt" stroke-linejoin="miter">
	<path stroke='black'  d='M88.5,175.8 L97.5,175.8  '/>	<g transform="translate(80.2,179.7)" stroke="none" fill="black" font-family="Helvetica" font-size="12.00"  text-anchor="end">
		<text><tspan font-family="Helvetica" > 0.02</tspan></text>
	</g>
</g>
<g fill="none" color="black" stroke="currentColor" stroke-width="1.00" stroke-linecap="butt" stroke-linejoin="miter">
	<path stroke='black'  d='M88.5,54.1 L97.5,54.1  '/>	<g transform="translate(80.2,58.0)" stroke="none" fill="black" font-family="Helvetica" font-size="12.00"  text-anchor="end">
		<text><tspan font-family="Helvetica" > 0.025</tspan></text>
	</g>
</g>
<g fill="none" color="black" stroke="currentColor" stroke-width="1.00" stroke-linecap="butt" stroke-linejoin="miter">
	<path stroke='black'  d='M140.4,662.4 L140.4,653.4  '/>	<g transform="translate(140.4,684.3)" stroke="none" fill="black" font-family="Helvetica" font-size="12.00"  text-anchor="middle">
		<text><tspan font-family="Helvetica" > 40</tspan></text>
	</g>
</g>
<g fill="none" color="black" stroke="currentColor" stroke-width="1.00" stroke-linecap="butt" stroke-linejoin="miter">
	<path stroke='black'  d='M246.7,662.4 L246.7,653.4  '/>	<g transform="translate(246.7,684.3)" stroke="none" fill="black" font-family="Helvetica" font-size="12.00"  text-anchor="middle">
		<text><tspan font-family="Helvetica" > 50</tspan></text>
	</g>
</g>
<g fill="none" color="black" stroke="currentColor" stroke-width="1.00" stroke-linecap="butt" stroke-linejoin="miter">
	<path stroke='black'  d='M353.1,662.4 L353.1,653.4  '/>	<g transform="translate(353.1,684.3)" stroke="none" fill="black" font-family="Helvetica" font-size="12.00"  text-anchor="middle">
		<text><tspan font-family="Helvetica" > 60</tspan></text>
	</g>
</g>
<g fill="none" color="black" stroke="currentColor" stroke-width="1.00" stroke-linecap="butt" stroke-linejoin="miter">
	<path stroke='black'  d='M459.4,662.4 L459.4,653.4  '/>	<g transform="translate(459.4,684.3)" stroke="none" fill="black" font-family="Helvetica" font-size="12.00"  text-anchor="middle">
		<text><tspan font-family="Helvetica" > 70</tspan></text>
	</g>
</g>
<g fill="none" color="black" stroke="currentColor" stroke-width="1.00" stroke-linecap="butt" stroke-linejoin="miter">
	<path stroke='black'  d='M565.8,662.4 L565.8,653.4  '/>	<g transform="translate(565.8,684.3)" stroke="none" fill="black" font-family="Helvetica" font-size="12.00"  text-anchor="middle">
		<text><tspan font-family="Helvetica" > 80</tspan></text>
	</g>
</g>
<g fill="none" color="black" stroke="currentColor" stroke-width="1.00" stroke-linecap="butt" stroke-linejoin="miter">
	<path stroke='black'  d='M672.1,662.4 L672.1,653.4  '/>	<g transform="translate(672.1,684.3)" stroke="none" fill="black" font-family="Helvetica" font-size="12.00"  text-anchor="middle">
		<text><tspan font-family="Helvetica" > 90</tspan></text>
	</g>
</g>
<g fill="none" color="black" stroke="currentColor" stroke-width="1.00" stroke-linecap="butt" stroke-linejoin="miter">
	<path stroke='black'  d='M778.5,662.4 L778.5,653.4  '/>	<g transform="translate(778.5,684.3)" stroke="none" fill="black" font-family="Helvetica" font-size="12.00"  text-anchor="middle">
		<text><tspan font-family="Helvetica" > 100</tspan></text>
	</g>
</g>
<g fill="none" color="black" stroke="currentColor" stroke-width="1.00" stroke-linecap="butt" stroke-linejoin="miter">
	<path stroke='black'  d='M884.8,662.4 L884.8,653.4  '/>	<g transform="translate(884.8,684.3)" stroke="none" fill="black" font-family="Helvetica" font-size="12.00"  text-anchor="middle">
		<text><tspan font-family="Helvetica" > 110</tspan></text>
	</g>
</g>
<g fill="none" color="black" stroke="currentColor" stroke-width="1.00" stroke-linecap="butt" stroke-linejoin="miter">
	<path stroke='black'  d='M991.2,662.4 L991.2,653.4  '/>	<g transform="translate(991.2,684.3)" stroke="none" fill="black" font-family="Helvetica" font-size="12.00"  text-anchor="middle">
		<text><tspan font-family="Helvetica" > 120</tspan></text>
	</g>
</g>
<g fill="none" color="black" stroke="currentColor" stroke-width="1.00" stroke-linecap="butt" stroke-linejoin="miter">
</g>
<g fill="none" color="black" stroke="currentColor" stroke-width="1.00" stroke-linecap="butt" stroke-linejoin="miter">
	<path stroke='black'  d='M88.5,54.1 L88.5,662.4 L1013.6,662.4 L1013.6,54.1 L88.5,54.1 Z  '/></g>
<g fill="none" color="black" stroke="currentColor" stroke-width="1.00" stroke-linecap="butt" stroke-linejoin="miter">
	<g transform="translate(16.3,358.3) rotate(270)" stroke="none" fill="black" font-family="Helvetica" font-size="12.00"  text-anchor="middle">
		<text><tspan font-family="Helvetica" >Density (a.u.)</tspan></text>
	</g>
</g>
<g fill="none" color="black" stroke="currentColor" stroke-width="1.00" stroke-linecap="butt" stroke-linejoin="miter">
	<g transform="translate(551.0,711.3)" stroke="none" fill="black" font-family="Helvetica" font-size="12.00"  text-anchor="middle">
		<text><tspan font-family="Helvetica" >Average time (us)</tspan></text>
	</g>
</g>
<g fill="none" color="black" stroke="currentColor" stroke-width="1.00" stroke-linecap="butt" stroke-linejoin="miter">
	<g transform="translate(551.0,31.0)" stroke="none" fill="black" font-family="Helvetica" font-size="12.00"  text-anchor="middle">
		<text><tspan font-family="Helvetica" >snapshot_restore_with_dense/Sparse: Entire region + /proc/pid/mem/1000: SD</tspan></text>
	</g>
</g>
	<g id="gnuplot_plot_1" ><title>Bootstrap distribution</title>
<g fill="none" color="white" stroke="black" stroke-width="2.00" stroke-linecap="butt" stroke-linejoin="miter">
</g>
<g fill="none" color="black" stroke="currentColor" stroke-width="2.00" stroke-linecap="butt" stroke-linejoin="miter">
	<g transform="translate(1089.0,67.0)" stroke="none" fill="black" font-family="Helvetica" font-size="12.00"  text-anchor="start">
		<text><tspan font-family="Helvetica" >Bootstrap distribution</tspan></text>
	</g>
</g>
<g fill="none" color="black" stroke="currentColor" stroke-width="2.00" stroke-linecap="butt" stroke-linejoin="miter">
	<path stroke='rgb( 31, 120, 180)'  d='M1038.5,63.1 L1080.7,63.1 M88.5,637.1 L90.4,635.9 L92.2,634.6 L94.1,633.3 L95.9,631.9 L97.8,630.5
		L99.6,629.1 L101.5,627.6 L103.3,626.0 L105.2,624.4 L107.0,622.7 L108.9,620.9 L110.7,619.1 L112.6,617.2
		L114.5,615.2 L116.3,613.2 L118.2,611.1 L120.0,608.9 L121.9,606.7 L123.7,604.4 L125.6,602.1 L127.4,599.7
		L129.3,597.2 L131.1,594.7 L133.0,592.1 L134.8,589.4 L136.7,586.8 L138.6,584.0 L140.4,581.3 L142.3,578.4
		L144.1,575.6 L146.0,572.7 L147.8,569.8 L149.7,566.8 L151.5,563.8 L153.4,560.8 L155.2,557.7 L157.1,554.6
		L158.9,551.5 L160.8,548.3 L162.7,545.1 L164.5,541.9 L166.4,538.6 L168.2,535.4 L170.1,532.1 L171.9,528.8
		L173.8,525.5 L175.6,522.2 L177.5,518.9 L179.3,515.7 L181.2,512.4 L183.0,509.2 L184.9,506.0 L186.8,502.8
		L188.6,499.8 L190.5,496.7 L192.3,493.8 L194.2,490.9 L196.0,488.1 L197.9,485.4 L199.7,482.8 L201.6,480.3
		L203.4,477.9 L205.3,475.6 L207.2,473.5 L209.0,471.4 L210.9,469.5 L212.7,467.7 L214.6,466.0 L216.4,464.4
		L218.3,462.9 L220.1,461.6 L222.0,460.4 L223.8,459.4 L225.7,458.4 L227.5,457.6 L229.4,457.0 L231.3,456.5
		L233.1,456.1 L235.0,455.9 L236.8,455.8 L238.7,455.9 L240.5,456.1 L242.4,456.5 L244.2,457.0 L246.1,457.7
		L247.9,458.5 L249.8,459.4 L251.6,460.5 L253.5,461.7 L255.4,463.0 L257.2,464.4 L259.1,465.9 L260.9,467.5
		L262.8,469.1 L264.6,470.8 L266.5,472.5 L268.3,474.3 L270.2,476.1 L272.0,477.9 L273.9,479.6 L275.7,481.3
		L277.6,483.0 L279.5,484.7 L281.3,486.3 L283.2,487.8 L285.0,489.2 L286.9,490.5 L288.7,491.8 L290.6,492.9
		L292.4,493.9 L294.3,494.8 L296.1,495.5 L298.0,496.1 L299.8,496.5 L301.7,496.8 L303.6,496.8 L305.4,496.7
		L307.3,496.5 L309.1,496.0 L311.0,495.3 L312.8,494.3 L314.7,493.2 L316.5,491.8 L318.4,490.2 L320.2,488.3
		L322.1,486.2 L323.9,483.8 L325.8,481.1 L327.7,478.2 L329.5,475.0 L331.4,471.5 L333.2,467.8 L335.1,463.7
		L336.9,459.5 L338.8,454.9 L340.6,450.1 L342.5,445.0 L344.3,439.7 L346.2,434.1 L348.0,428.2 L349.9,422.2
		L351.8,415.9 L353.6,409.4 L355.5,402.7 L357.3,395.8 L359.2,388.7 L361.0,381.5 L362.9,374.1 L364.7,366.6
		L366.6,359.0 L368.4,351.3 L370.3,343.5 L372.1,335.7 L374.0,327.8 L375.9,319.9 L377.7,311.9 L379.6,304.0
		L381.4,296.2 L383.3,288.4 L385.1,280.7 L387.0,273.0 L388.8,265.6 L390.7,258.2 L392.5,251.0 L394.4,244.0
		L396.2,237.2 L398.1,230.7 L400.0,224.3 L401.8,218.2 L403.7,212.4 L405.5,206.9 L407.4,201.7 L409.2,196.8
		L411.1,192.2 L412.9,187.9 L414.8,183.9 L416.6,180.3 L418.5,177.1 L420.3,174.1 L422.2,171.5 L424.1,169.3
		L425.9,167.4 L427.8,165.8 L429.6,164.5 L431.5,163.6 L433.3,163.1 L435.2,162.8 L437.0,162.9 L438.9,163.2
		L440.7,163.9 L442.6,164.9 L444.5,166.1 L446.3,167.7 L448.2,169.5 L450.0,171.6 L451.9,173.9 L453.7,176.5
		L455.6,179.3 L457.4,182.3 L459.3,185.4 L461.1,188.8 L463.0,192.3 L464.8,196.0 L466.7,199.7 L468.6,203.5
		L470.4,207.4 L472.3,211.4 L474.1,215.3 L476.0,219.2 L477.8,223.0 L479.7,226.7 L481.5,230.4 L483.4,233.8
		L485.2,237.2 L487.1,240.3 L488.9,243.2 L490.8,245.8 L492.7,248.2 L494.5,250.3 L496.4,252.1 L498.2,253.6
		L500.1,254.7 L501.9,255.5 L503.8,255.9 L505.6,255.9 L507.5,255.6 L509.3,254.8 L511.2,253.7 L513.0,252.2
		L514.9,250.3 L516.8,248.0 L518.6,245.3 L520.5,242.3 L522.3,238.9 L524.2,235.1 L526.0,231.1 L527.9,226.7
		L529.7,222.1 L531.6,217.2 L533.4,212.1 L535.3,206.8 L537.1,201.2 L539.0,195.6 L540.9,189.8 L542.7,183.9
		L544.6,178.0 L546.4,172.1 L548.3,166.2 L550.1,160.3 L552.0,154.5 L553.8,148.8 L555.7,143.2 L557.5,137.8
		L559.4,132.6 L561.2,127.6 L563.1,122.9 L565.0,118.5 L566.8,114.3 L568.7,110.5 L570.5,107.1 L572.4,103.9
		L574.2,101.2 L576.1,98.9 L577.9,96.9 L579.8,95.4 L581.6,94.3 L583.5,93.6 L585.3,93.4 L587.2,93.6
		L589.1,94.2 L590.9,95.3 L592.8,96.8 L594.6,98.7 L596.5,101.0 L598.3,103.7 L600.2,106.8 L602.0,110.3
		L603.9,114.2 L605.7,118.3 L607.6,122.8 L609.4,127.6 L611.3,132.6 L613.2,137.8 L615.0,143.2 L616.9,148.8
		L618.7,154.6 L620.6,160.4 L622.4,166.3 L624.3,172.2 L626.1,178.1 L628.0,183.9 L629.8,189.7 L631.7,195.3
		L633.5,200.8 L635.4,206.1 L637.3,211.3 L639.1,216.1 L641.0,220.8 L642.8,225.1 L644.7,229.2 L646.5,233.0
		L648.4,236.5 L650.2,239.6 L652.1,242.5 L653.9,245.0 L655.8,247.2 L657.6,249.2 L659.5,250.8 L661.4,252.2
		L663.2,253.3 L665.1,254.2 L666.9,254.8 L668.8,255.2 L670.6,255.5 L672.5,255.5 L674.3,255.4 L676.2,255.2
		L678.0,254.8 L679.9,254.3 L681.8,253.8 L683.6,253.2 L685.5,252.5 L687.3,251.9 L689.2,251.2 L691.0,250.5
		L692.9,249.9 L694.7,249.4 L696.6,249.0 L698.4,248.7 L700.3,248.5 L702.1,248.5 L704.0,248.7 L705.9,249.1
		L707.7,249.7 L709.6,250.6 L711.4,251.7 L713.3,253.1 L715.1,254.8 L717.0,256.8 L718.8,259.0 L720.7,261.6
		L722.5,264.4 L724.4,267.6 L726.2,271.0 L728.1,274.6 L730.0,278.5 L731.8,282.6 L733.7,286.9 L735.5,291.3
		L737.4,295.9 L739.2,300.7 L741.1,305.5 L742.9,310.4 L744.8,315.3 L746.6,320.3 L748.5,325.2 L750.3,330.2
		L752.2,335.0 L754.1,339.8 L755.9,344.5 L757.8,349.1 L759.6,353.6 L761.5,358.0 L763.3,362.2 L765.2,366.3
		L767.0,370.2 L768.9,374.0 L770.7,377.6 L772.6,381.0 L774.4,384.3 L776.3,387.4 L778.2,390.4 L780.0,393.2
		L781.9,395.9 L783.7,398.4 L785.6,400.8 L787.4,403.1 L789.3,405.4 L791.1,407.5 L793.0,409.5 L794.8,411.5
		L796.7,413.4 L798.5,415.3 L800.4,417.2 L802.3,419.0 L804.1,420.8 L806.0,422.6 L807.8,424.4 L809.7,426.3
		L811.5,428.1 L813.4,430.0 L815.2,432.0 L817.1,433.9 L818.9,436.0 L820.8,438.0 L822.6,440.2 L824.5,442.4
		L826.4,444.6 L828.2,447.0 L830.1,449.3 L831.9,451.8 L833.8,454.3 L835.6,456.9 L837.5,459.6 L839.3,462.3
		L841.2,465.1 L843.0,467.9 L844.9,470.9 L846.7,473.8 L848.6,476.8 L850.5,479.9 L852.3,482.9 L854.2,486.0
		L856.0,489.2 L857.9,492.3 L859.7,495.4 L861.6,498.5 L863.4,501.6 L865.3,504.6 L867.1,507.6 L869.0,510.6
		L870.8,513.5 L872.7,516.3 L874.6,519.1 L876.4,521.7 L878.3,524.3 L880.1,526.9 L882.0,529.3 L883.8,531.7
		L885.7,533.9 L887.5,536.1 L889.4,538.3 L891.2,540.3 L893.1,542.3 L894.9,544.3 L896.8,546.1 L898.7,548.0
		L900.5,549.8 L902.4,551.5 L904.2,553.3 L906.1,555.0 L907.9,556.6 L909.8,558.3 L911.6,560.0 L913.5,561.6
		L915.3,563.2 L917.2,564.9 L919.1,566.5 L920.9,568.1 L922.8,569.7 L924.6,571.3 L926.5,572.9 L928.3,574.5
		L930.2,576.1 L932.0,577.7 L933.9,579.3 L935.7,580.8 L937.6,582.4 L939.4,583.9 L941.3,585.5 L943.2,587.0
		L945.0,588.5 L946.9,590.0 L948.7,591.4 L950.6,592.9 L952.4,594.3 L954.3,595.7 L956.1,597.1 L958.0,598.5
		L959.8,599.9 L961.7,601.2 L963.5,602.6 L965.4,603.9 L967.3,605.2 L969.1,606.5 L971.0,607.7 L972.8,609.0
		L974.7,610.2 L976.5,611.4 L978.4,612.6 L980.2,613.8 L982.1,615.0 L983.9,616.1 L985.8,617.2 L987.6,618.3
		L989.5,619.4 L991.4,620.5 L993.2,621.5 L995.1,622.6 L996.9,623.6 L998.8,624.5 L1000.6,625.5 L1002.5,626.5
		L1004.3,627.4 L1006.2,628.3 L1008.0,629.2 L1009.9,630.0 L1011.7,630.9 L1013.6,631.7  '/></g>
	</g>
	<g id="gnuplot_plot_2" ><title>Confidence interval</title>
<g fill="none" color="white" stroke="rgb( 31, 120, 180)" stroke-width="1.00" stroke-linecap="butt" stroke-linejoin="miter">
</g>
<g fill="none" color="black" stroke="currentColor" stroke-width="1.00" stroke-linecap="butt" stroke-linejoin="miter">
	<g transform="translate(1089.0,85.0)" stroke="none" fill="black" font-family="Helvetica" font-size="12.00"  text-anchor="start">
		<text><tspan font-family="Helvetica" >Confidence interval</tspan></text>
	</g>
</g>
<g fill="none" color="black" stroke="currentColor" stroke-width="1.00" stroke-linecap="butt" stroke-linejoin="miter">
	<g stroke='none' shape-rendering='crispEdges'>
		<polygon fill = 'rgb( 31, 120, 180)' fill-opacity = '0.250000' points = '1038.5,85.6 1080.7,85.6 1080.7,76.6 1038.5,76.6 '/>
		<polygon fill = 'rgb( 31, 120, 180)' fill-opacity = '0.250000' points = '173.8,525.5 175.6,522.2 177.5,518.9 179.3,515.7 181.2,512.4 183.0,509.2 184.9,506.0 186.8,502.8 188.6,499.8 190.5,496.7 192.3,493.8 194.2,490.9 196.0,488.1 197.9,485.4 199.7,482.8 201.6,480.3
203.4,477.9 205.3,475.6 207.2,473.5 209.0,471.4 210.9,469.5 212.7,467.7 214.6,466.0 216.4,464.4 218.3,462.9 220.1,461.6 222.0,460.4 223.8,459.4 225.7,458.4 227.5,457.6 229.4,457.0 231.3,456.5
233.1,456.1 235.0,455.9 236.8,455.8 238.7,455.9 240.5,456.1 242.4,456.5 244.2,457.0 246.1,457.7 247.9,458.5 249.8,459.4 251.6,460.5 253.5,461.7 255.4,463.0 257.2,464.4 259.1,465.9 260.9,467.5
262.8,469.1 264.6,470.8 266.5,472.5 268.3,474.3 270.2,476.1 272.0,477.9 273.9,479.6 275.7,481.3 277.6,483.0 279.5,484.7 281.3,486.3 283.2,487.8 285.0,489.2 286.9,490.5 288.7,491.8 290.6,492.9
292.4,493.9 294.3,494.8 296.1,495.5 298.0,496.1 299.8,496.5 301.7,496.8 303.6,496.8 305.4,496.7 307.3,496.5 309.1,496.0 311.0,495.3 312.8,494.3 314.7,493.2 316.5,491.8 318.4,490.2 320.2,488.3
322.1,486.2 323.9,483.8 325.8,481.1 327.7,478.2 329.5,475.0 331.4,471.5 333.2,467.8 335.1,463.7 336.9,459.5 338.8,454.9 340.6,450.1 342.5,445.0 344.3,439.7 346.2,434.1 348.0,428.2 349.9,422.2
351.8,415.9 353.6,409.4 355.5,402.7 357.3,395.8 359.2,388.7 361.0,381.5 362.9,374.1 364.7,366.6 366.6,359.0 368.4,351.3 370.3,343.5 372.1,335.7 374.0,327.8 375.9,319.9 377.7,311.9 379.6,304.0
381.4,296.2 383.3,288.4 385.1,280.7 387.0,273.0 388.8,265.6 390.7,258.2 392.5,251.0 394.4,244.0 396.2,237.2 398.1,230.7 400.0,224.3 401.8,218.2 403.7,212.4 405.5,206.9 407.4,201.7 409.2,196.8
411.1,192.2 412.9,187.9 414.8,183.9 416.6,180.3 418.5,177.1 420.3,174.1 422.2,171.5 424.1,169.3 425.9,167.4 427.8,165.8 429.6,164.5 431.5,163.6 433.3,163.1 435.2,162.8 437.0,162.9 438.9,163.2
440.7,163.9 442.6,164.9 444.5,166.1 446.3,167.7 448.2,169.5 450.0,171.6 451.9,173.9 453.7,176.5 455.6,179.3 457.4,182.3 459.3,185.4 461.1,188.8 463.0,192.3 464.8,196.0 466.7,199.7 468.6,203.5
470.4,207.4 472.3,211.4 474.1,215.3 476.0,219.2 477.8,223.0 479.7,226.7 481.5,230.4 483.4,233.8 485.2,237.2 487.1,240.3 488.9,243.2 490.8,245.8 492.7,248.2 494.5,250.3 496.4,252.1 498.2,253.6
500.1,254.7 501.9,255.5 503.8,255.9 505.6,255.9 507.5,255.6 509.3,254.8 511.2,253.7 513.0,252.2 514.9,250.3 516.8,248.0 518.6,245.3 520.5,242.3 522.3,238.9 524.2,235.1 526.0,231.1 527.9,226.7
529.7,222.1 531.6,217.2 533.4,212.1 535.3,206.8 537.1,201.2 539.0,195.6 540.9,189.8 542.7,183.9 544.6,178.0 546.4,172.1 548.3,166.2 550.1,160.3 552.0,154.5 553.8,148.8 555.7,143.2 557.5,137.8
559.4,132.6 561.2,127.6 563.1,122.9 565.0,118.5 566.8,114.3 568.7,110.5 570.5,107.1 572.4,103.9 574.2,101.2 576.1,98.9 577.9,96.9 579.8,95.4 581.6,94.3 583.5,93.6 585.3,93.4 587.2,93.6
589.1,94.2 590.9,95.3 592.8,96.8 594.6,98.7 596.5,101.0 598.3,103.7 600.2,106.8 602.0,110.3 603.9,114.2 605.7,118.3 607.6,122.8 609.4,127.6 611.3,132.6 613.2,137.8 615.0,143.2 616.9,148.8
618.7,154.6 620.6,160.4 622.4,166.3 624.3,172.2 626.1,178.1 628.0,183.9 629.8,189.7 631.7,195.3 633.5,200.8 635.4,206.1 637.3,211.3 639.1,216.1 641.0,220.8 642.8,225.1 644.7,229.2 646.5,233.0
648.4,236.5 650.2,239.6 652.1,242.5 653.9,245.0 655.8,247.2 657.6,249.2 659.5,250.8 661.4,252.2 663.2,253.3 665.1,254.2 666.9,254.8 668.8,255.2 670.6,255.5 672.5,255.5 674.3,255.4 676.2,255.2
678.0,254.8 679.9,254.3 681.8,253.8 683.6,253.2 685.5,252.5 687.3,251.9 689.2,251.2 691.0,250.5 692.9,249.9 694.7,249.4 696.6,249.0 698.4,248.7 700.3,248.5 702.1,248.5 704.0,248.7 705.9,249.1
707.7,249.7 709.6,250.6 711.4,251.7 713.3,253.1 715.1,254.8 717.0,256.8 718.8,259.0 720.7,261.6 722.5,264.4 724.4,267.6 726.2,271.0 728.1,274.6 730.0,278.5 731.8,282.6 733.7,286.9 735.5,291.3
737.4,295.9 739.2,300.7 741.1,305.5 742.9,310.4 744.8,315.3 746.6,320.3 748.5,325.2 750.3,330.2 752.2,335.0 754.1,339.8 755.9,344.5 757.8,349.1 759.6,353.6 761.5,358.0 763.3,362.2 765.2,366.3
767.0,370.2 768.9,374.0 770.7,377.6 772.6,381.0 774.4,384.3 776.3,387.4 778.2,390.4 780.0,393.2 781.9,395.9 783.7,398.4 785.6,400.8 787.4,403.1 789.3,405.4 791.1,407.5 793.0,409.5 794.8,411.5
796.7,413.4 798.5,415.3 800.4,417.2 802.3,419.0 804.1,420.8 806.0,422.6 807.8,424.4 809.7,426.3 811.5,428.1 813.4,430.0 815.2,432.0 817.1,433.9 818.9,436.0 820.8,438.0 822.6,440.2 824.5,442.4
826.4,444.6 828.2,447.0 830.1,449.3 831.9,451.8 833.8,454.3 835.6,456.9 837.5,459.6 839.3,462.3 841.2,465.1 843.0,467.9 844.9,470.9 846.7,473.8 848.6,476.8 850.5,479.9 852.3,482.9 854.2,486.0
856.0,489.2 857.9,492.3 859.7,495.4 861.6,498.5 863.4,501.6 865.3,504.6 867.1,507.6 869.0,510.6 870.8,513.5 872.7,516.3 874.6,519.1 876.4,521.7 878.3,524.3 880.1,526.9 882.0,529.3 883.8,531.7
885.7,533.9 887.5,536.1 889.4,538.3 891.2,540.3 893.1,542.3 894.9,544.3 896.8,546.1 898.7,548.0 900.5,549.8 902.4,551.5 904.2,553.3 906.1,555.0 907.9,556.6 909.8,558.3 911.6,560.0 913.5,561.6
915.3,563.2 917.2,564.9 919.1,566.5 920.9,568.1 922.8,569.7 924.6,571.3 926.5,572.9 926.5,662.4 924.6,662.4 922.8,662.4 920.9,662.4 919.1,662.4 917.2,662.4 915.3,662.4 913.5,662.4 911.6,662.4
909.8,662.4 907.9,662.4 906.1,662.4 904.2,662.4 902.4,662.4 900.5,662.4 898.7,662.4 896.8,662.4 894.9,662.4 893.1,662.4 891.2,662.4 889.4,662.4 887.5,662.4 885.7,662.4 883.8,662.4 882.0,662.4
880.1,662.4 878.3,662.4 876.4,662.4 874.6,662.4 872.7,662.4 870.8,662.4 869.0,662.4 867.1,662.4 865.3,662.4 863.4,662.4 861.6,662.4 859.7,662.4 857.9,662.4 856.0,662.4 854.2,662.4 852.3,662.4
850.5,662.4 848.6,662.4 846.7,662.4 844.9,662.4 843.0,662.4 841.2,662.4 839.3,662.4 837.5,662.4 835.6,662.4 833.8,662.4 831.9,662.4 830.1,662.4 828.2,662.4 826.4,662.4 824.5,662.4 822.6,662.4
820.8,662.4 818.9,662.4 817.1,662.4 815.2,662.4 813.4,662.4 811.5,662.4 809.7,662.4 807.8,662.4 806.0,662.4 804.1,662.4 802.3,662.4 800.4,662.4 798.5,662.4 796.7,662.4 794.8,662.4 793.0,662.4
791.1,662.4 789.3,662.4 787.4,662.4 785.6,662.4 783.7,662.4 781.9,662.4 780.0,662.4 778.2,662.4 776.3,662.4 774.4,662.4 772.6,662.4 770.7,662.4 768.9,662.4 767.0,662.4 765.2,662.4 763.3,662.4
761.5,662.4 759.6,662.4 757.8,662.4 755.9,662.4 754.1,662.4 752.2,662.4 750.3,662.4 748.5,662.4 746.6,662.4 744.8,662.4 742.9,662.4 741.1,662.4 739.2,662.4 737.4,662.4 735.5,662.4 733.7,662.4
731.8,662.4 730.0,662.4 728.1,662.4 726.2,662.4 724.4,662.4 722.5,662.4 720.7,662.4 718.8,662.4 717.0,662.4 715.1,662.4 713.3,662.4 711.4,662.4 709.6,662.4 707.7,662.4 705.9,662.4 704.0,662.4
702.1,662.4 700.3,662.4 698.4,662.4 696.6,662.4 694.7,662.4 692.9,662.4 691.0,662.4 689.2,662.4 687.3,662.4 685.5,662.4 683.6,662.4 681.8,662.4 679.9,662.4 678.0,662.4 676.2,662.4 674.3,662.4
672.5,662.4 670.6,662.4 668.8,662.4 666.9,662.4 665.1,662.4 663.2,662.4 661.4,662.4 659.5,662.4 657.6,662.4 655.8,662.4 653.9,662.4 652.1,662.4 650.2,662.4 648.4,662.4 646.5,662.4 644.7,662.4
642.8,662.4 641.0,662.4 639.1,662.4 637.3,662.4 635.4,662.4 633.5,662.4 631.7,662.4 629.8,662.4 628.0,662.4 626.1,662.4 624.3,662.4 622.4,662.4 620.6,662.4 618.7,662.4 616.9,662.4 615.0,662.4
613.2,662.4 611.3,662.4 609.4,662.4 607.6,662.4 605.7,662.4 603.9,662.4 602.0,662.4 600.2,662.4 598.3,662.4 596.5,662.4 594.6,662.4 592.8,662.4 590.9,662.4 589.1,662.4 587.2,662.4 585.3,662.4
583.5,662.4 581.6,662.4 579.8,662.4 577.9,662.4 576.1,662.4 574.2,662.4 572.4,662.4 570.5,662.4 568.7,662.4 566.8,662.4 565.0,662.4 563.1,662.4 561.2,662.4 559.4,662.4 557.5,662.4 555.7,662.4
553.8,662.4 552.0,662.4 550.1,662.4 548.3,662.4 546.4,662.4 544.6,662.4 542.7,662.4 540.9,662.4 539.0,662.4 537.1,662.4 535.3,662.4 533.4,662.4 531.6,662.4 529.7,662.4 527.9,662.4 526.0,662.4
524.2,662.4 522.3,662.4 520.5,662.4 518.6,662.4 516.8,662.4 514.9,662.4 513.0,662.4 511.2,662.4 509.3,662.4 507.5,662.4 505.6,662.4 503.8,662.4 501.9,662.4 500.1,662.4 498.2,662.4 496.4,662.4
494.5,662.4 492.7,662.4 490.8,662.4 488.9,662.4 487.1,662.4 485.2,662.4 483.4,662.4 481.5,662.4 479.7,662.4 477.8,662.4 476.0,662.4 474.1,662.4 472.3,662.4 470.4,662.4 468.6,662.4 466.7,662.4
464.8,662.4 463.0,662.4 461.1,662.4 459.3,662.4 457.4,662.4 455.6,662.4 453.7,662.4 451.9,662.4 450.0,662.4 448.2,662.4 446.3,662.4 444.5,662.4 442.6,662.4 440.7,662.4 438.9,662.4 437.0,662.4
435.2,662.4 433.3,662.4 431.5,662.4 429.6,662.4 427.8,662.4 425.9,662.4 424.1,662.4 422.2,662.4 420.3,662.4 418.5,662.4 416.6,662.4 414.8,662.4 412.9,662.4 411.1,662.4 409.2,662.4 407.4,662.4
405.5,662.4 403.7,662.4 401.8,662.4 400.0,662.4 398.1,662.4 396.2,662.4 394.4,662.4 392.5,662.4 390.7,662.4 388.8,662.4 387.0,662.4 385.1,662.4 383.3,662.4 381.4,662.4 379.6,662.4 377.7,662.4
375.9,662.4 374.0,662.4 372.1,662.4 370.3,662.4 368.4,662.4 366.6,662.4 364.7,662.4 362.9,662.4 361.0,662.4 359.2,662.4 357.3,662.4 355.5,662.4 353.6,662.4 351.8,662.4 349.9,662.4 348.0,662.4
346.2,662.4 344.3,662.4 342.5,662.4 340.6,662.4 338.8,662.4 336.9,662.4 335.1,662.4 333.2,662.4 331.4,662.4 329.5,662.4 327.7,662.4 325.8,662.4 323.9,662.4 322.1,662.4 320.2,662.4 318.4,662.4
316.5,662.4 314.7,662.4 312.8,662.4 311.0,662.4 309.1,662.4 307.3,662.4 305.4,662.4 303.6,662.4 301.7,662.4 299.8,662.4 298.0,662.4 296.1,662.4 294.3,662.4 292.4,662.4 290.6,662.4 288.7,662.4
286.9,662.4 285.0,662.4 283.2,662.4 281.3,662.4 279.5,662.4 277.6,662.4 275.7,662.4 273.9,662.4 272.0,662.4 270.2,662.4 268.3,662.4 266.5,662.4 264.6,662.4 262.8,662.4 260.9,662.4 259.1,662.4
257.2,662.4 255.4,662.4 253.5,662.4 251.6,662.4 249.8,662.4 247.9,662.4 246.1,662.4 244.2,662.4 242.4,662.4 240.5,662.4 238.7,662.4 236.8,662.4 235.0,662.4 233.1,662.4 231.3,662.4 229.4,662.4
227.5,662.4 225.7,662.4 223.8,662.4 222.0,662.4 220.1,662.4 218.3,662.4 216.4,662.4 214.6,662.4 212.7,662.4 210.9,662.4 209.0,662.4 207.2,662.4 205.3,662.4 203.4,662.4 201.6,662.4 199.7,662.4
197.9,662.4 196.0,662.4 194.2,662.4 192.3,662.4 190.5,662.4 188.6,662.4 186.8,662.4 184.9,662.4 183.0,662.4 181.2,662.4 179.3,662.4 177.5,662.4 175.6,662.4 173.8,662.4 '/>
	</g>
</g>
	</g>
	<g id="gnuplot_plot_3" ><title>Point estimate</title>
<g fill="none" color="white" stroke="rgb( 31, 120, 180)" stroke-width="2.00" stroke-linecap="butt" stroke-linejoin="miter">
</g>
<g fill="none" color="black" stroke="currentColor" stroke-width="2.00" stroke-linecap="butt" stroke-linejoin="miter">
	<g transform="translate(1089.0,103.0)" stroke="none" fill="black" font-family="Helvetica" font-size="12.00"  text-anchor="start">
		<text><tspan font-family="Helvetica" >Point estimate</tspan></text>
	</g>
</g>
<g fill="none" color="black" stroke="currentColor" stroke-width="2.00" stroke-linecap="butt" stroke-linejoin="miter">
	<path stroke='rgb( 31, 120, 180)'  d='M1038.5,99.1 L1080.7,99.1 M578.7,662.4 L578.7,96.3  '/></g>
	</g>
<g fill="none" color="black" stroke="currentColor" stroke-width="2.00" stroke-linecap="butt" stroke-linejoin="miter">
</g>
<g fill="none" color="black" stroke="black" stroke-width="1.00" stroke-linecap="butt" stroke-linejoin="miter">
</g>
<g fill="none" color="black" stroke="currentColor" stroke-width="1.00" stroke-linecap="butt" stroke-linejoin="miter">
	<path stroke='black'  d='M88.5,54.1 L88.5,662.4 L1013.6,662.4 L1013.6,54.1 L88.5,54.1 Z  '/></g>
<g fill="none" color="black" stroke="currentColor" stroke-width="1.00" stroke-linecap="butt" stroke-linejoin="miter">
</g>
</g>
</svg>

