<?xml version="1.0" encoding="utf-8"  standalone="no"?>
<svg 
 viewBox="0 0 1280 720"
 xmlns="http://www.w3.org/2000/svg"
 xmlns:xlink="http://www.w3.org/1999/xlink"
>

<title>Gnuplot</title>
<desc>Produced by GNUPLOT 5.2 patchlevel 6 </desc>

<g id="gnuplot_canvas">

<rect x="0" y="0" width="1280" height="720" fill="none"/>
<defs>

	<circle id='gpDot' r='0.5' stroke-width='0.5' stroke='currentColor'/>
	<path id='gpPt0' stroke-width='0.222' stroke='currentColor' d='M-1,0 h2 M0,-1 v2'/>
	<path id='gpPt1' stroke-width='0.222' stroke='currentColor' d='M-1,-1 L1,1 M1,-1 L-1,1'/>
	<path id='gpPt2' stroke-width='0.222' stroke='currentColor' d='M-1,0 L1,0 M0,-1 L0,1 M-1,-1 L1,1 M-1,1 L1,-1'/>
	<rect id='gpPt3' stroke-width='0.222' stroke='currentColor' x='-1' y='-1' width='2' height='2'/>
	<rect id='gpPt4' stroke-width='0.222' stroke='currentColor' fill='currentColor' x='-1' y='-1' width='2' height='2'/>
	<circle id='gpPt5' stroke-width='0.222' stroke='currentColor' cx='0' cy='0' r='1'/>
	<use xlink:href='#gpPt5' id='gpPt6' fill='currentColor' stroke='none'/>
	<path id='gpPt7' stroke-width='0.222' stroke='currentColor' d='M0,-1.33 L-1.33,0.67 L1.33,0.67 z'/>
	<use xlink:href='#gpPt7' id='gpPt8' fill='currentColor' stroke='none'/>
	<use xlink:href='#gpPt7' id='gpPt9' stroke='currentColor' transform='rotate(180)'/>
	<use xlink:href='#gpPt9' id='gpPt10' fill='currentColor' stroke='none'/>
	<use xlink:href='#gpPt3' id='gpPt11' stroke='currentColor' transform='rotate(45)'/>
	<use xlink:href='#gpPt11' id='gpPt12' fill='currentColor' stroke='none'/>
	<path id='gpPt13' stroke-width='0.222' stroke='currentColor' d='M0,1.330 L1.265,0.411 L0.782,-1.067 L-0.782,-1.076 L-1.265,0.411 z'/>
	<use xlink:href='#gpPt13' id='gpPt14' fill='currentColor' stroke='none'/>
	<filter id='textbox' filterUnits='objectBoundingBox' x='0' y='0' height='1' width='1'>
	  <feFlood flood-color='white' flood-opacity='1' result='bgnd'/>
	  <feComposite in='SourceGraphic' in2='bgnd' operator='atop'/>
	</filter>
	<filter id='greybox' filterUnits='objectBoundingBox' x='0' y='0' height='1' width='1'>
	  <feFlood flood-color='lightgrey' flood-opacity='1' result='grey'/>
	  <feComposite in='SourceGraphic' in2='grey' operator='atop'/>
	</filter>
</defs>
<g fill="none" color="white" stroke="currentColor" stroke-width="1.00" stroke-linecap="butt" stroke-linejoin="miter">
</g>
<g fill="none" color="black" stroke="currentColor" stroke-width="1.00" stroke-linecap="butt" stroke-linejoin="miter">
	<path stroke='black'  d='M71.9,662.4 L80.9,662.4  '/>	<g transform="translate(63.6,666.3)" stroke="none" fill="black" font-family="Helvetica" font-size="12.00"  text-anchor="end">
		<text><tspan font-family="Helvetica" > 0</tspan></text>
	</g>
</g>
<g fill="none" color="black" stroke="currentColor" stroke-width="1.00" stroke-linecap="butt" stroke-linejoin="miter">
	<path stroke='black'  d='M71.9,561.0 L80.9,561.0  '/>	<g transform="translate(63.6,564.9)" stroke="none" fill="black" font-family="Helvetica" font-size="12.00"  text-anchor="end">
		<text><tspan font-family="Helvetica" > 20</tspan></text>
	</g>
</g>
<g fill="none" color="black" stroke="currentColor" stroke-width="1.00" stroke-linecap="butt" stroke-linejoin="miter">
	<path stroke='black'  d='M71.9,459.6 L80.9,459.6  '/>	<g transform="translate(63.6,463.5)" stroke="none" fill="black" font-family="Helvetica" font-size="12.00"  text-anchor="end">
		<text><tspan font-family="Helvetica" > 40</tspan></text>
	</g>
</g>
<g fill="none" color="black" stroke="currentColor" stroke-width="1.00" stroke-linecap="butt" stroke-linejoin="miter">
	<path stroke='black'  d='M71.9,358.2 L80.9,358.2  '/>	<g transform="translate(63.6,362.1)" stroke="none" fill="black" font-family="Helvetica" font-size="12.00"  text-anchor="end">
		<text><tspan font-family="Helvetica" > 60</tspan></text>
	</g>
</g>
<g fill="none" color="black" stroke="currentColor" stroke-width="1.00" stroke-linecap="butt" stroke-linejoin="miter">
	<path stroke='black'  d='M71.9,256.9 L80.9,256.9  '/>	<g transform="translate(63.6,260.8)" stroke="none" fill="black" font-family="Helvetica" font-size="12.00"  text-anchor="end">
		<text><tspan font-family="Helvetica" > 80</tspan></text>
	</g>
</g>
<g fill="none" color="black" stroke="currentColor" stroke-width="1.00" stroke-linecap="butt" stroke-linejoin="miter">
	<path stroke='black'  d='M71.9,155.5 L80.9,155.5  '/>	<g transform="translate(63.6,159.4)" stroke="none" fill="black" font-family="Helvetica" font-size="12.00"  text-anchor="end">
		<text><tspan font-family="Helvetica" > 100</tspan></text>
	</g>
</g>
<g fill="none" color="black" stroke="currentColor" stroke-width="1.00" stroke-linecap="butt" stroke-linejoin="miter">
	<path stroke='black'  d='M71.9,54.1 L80.9,54.1  '/>	<g transform="translate(63.6,58.0)" stroke="none" fill="black" font-family="Helvetica" font-size="12.00"  text-anchor="end">
		<text><tspan font-family="Helvetica" > 120</tspan></text>
	</g>
</g>
<g fill="none" color="black" stroke="currentColor" stroke-width="1.00" stroke-linecap="butt" stroke-linejoin="miter">
	<path stroke='black'  d='M174.3,662.4 L174.3,653.4  '/>	<g transform="translate(174.3,684.3)" stroke="none" fill="black" font-family="Helvetica" font-size="12.00"  text-anchor="middle">
		<text><tspan font-family="Helvetica" > 43.725</tspan></text>
	</g>
</g>
<g fill="none" color="black" stroke="currentColor" stroke-width="1.00" stroke-linecap="butt" stroke-linejoin="miter">
	<path stroke='black'  d='M278.4,662.4 L278.4,653.4  '/>	<g transform="translate(278.4,684.3)" stroke="none" fill="black" font-family="Helvetica" font-size="12.00"  text-anchor="middle">
		<text><tspan font-family="Helvetica" > 43.73</tspan></text>
	</g>
</g>
<g fill="none" color="black" stroke="currentColor" stroke-width="1.00" stroke-linecap="butt" stroke-linejoin="miter">
	<path stroke='black'  d='M382.5,662.4 L382.5,653.4  '/>	<g transform="translate(382.5,684.3)" stroke="none" fill="black" font-family="Helvetica" font-size="12.00"  text-anchor="middle">
		<text><tspan font-family="Helvetica" > 43.735</tspan></text>
	</g>
</g>
<g fill="none" color="black" stroke="currentColor" stroke-width="1.00" stroke-linecap="butt" stroke-linejoin="miter">
	<path stroke='black'  d='M486.7,662.4 L486.7,653.4  '/>	<g transform="translate(486.7,684.3)" stroke="none" fill="black" font-family="Helvetica" font-size="12.00"  text-anchor="middle">
		<text><tspan font-family="Helvetica" > 43.74</tspan></text>
	</g>
</g>
<g fill="none" color="black" stroke="currentColor" stroke-width="1.00" stroke-linecap="butt" stroke-linejoin="miter">
	<path stroke='black'  d='M590.8,662.4 L590.8,653.4  '/>	<g transform="translate(590.8,684.3)" stroke="none" fill="black" font-family="Helvetica" font-size="12.00"  text-anchor="middle">
		<text><tspan font-family="Helvetica" > 43.745</tspan></text>
	</g>
</g>
<g fill="none" color="black" stroke="currentColor" stroke-width="1.00" stroke-linecap="butt" stroke-linejoin="miter">
	<path stroke='black'  d='M695.0,662.4 L695.0,653.4  '/>	<g transform="translate(695.0,684.3)" stroke="none" fill="black" font-family="Helvetica" font-size="12.00"  text-anchor="middle">
		<text><tspan font-family="Helvetica" > 43.75</tspan></text>
	</g>
</g>
<g fill="none" color="black" stroke="currentColor" stroke-width="1.00" stroke-linecap="butt" stroke-linejoin="miter">
	<path stroke='black'  d='M799.1,662.4 L799.1,653.4  '/>	<g transform="translate(799.1,684.3)" stroke="none" fill="black" font-family="Helvetica" font-size="12.00"  text-anchor="middle">
		<text><tspan font-family="Helvetica" > 43.755</tspan></text>
	</g>
</g>
<g fill="none" color="black" stroke="currentColor" stroke-width="1.00" stroke-linecap="butt" stroke-linejoin="miter">
	<path stroke='black'  d='M903.2,662.4 L903.2,653.4  '/>	<g transform="translate(903.2,684.3)" stroke="none" fill="black" font-family="Helvetica" font-size="12.00"  text-anchor="middle">
		<text><tspan font-family="Helvetica" > 43.76</tspan></text>
	</g>
</g>
<g fill="none" color="black" stroke="currentColor" stroke-width="1.00" stroke-linecap="butt" stroke-linejoin="miter">
	<path stroke='black'  d='M1007.4,662.4 L1007.4,653.4  '/>	<g transform="translate(1007.4,684.3)" stroke="none" fill="black" font-family="Helvetica" font-size="12.00"  text-anchor="middle">
		<text><tspan font-family="Helvetica" > 43.765</tspan></text>
	</g>
</g>
<g fill="none" color="black" stroke="currentColor" stroke-width="1.00" stroke-linecap="butt" stroke-linejoin="miter">
</g>
<g fill="none" color="black" stroke="currentColor" stroke-width="1.00" stroke-linecap="butt" stroke-linejoin="miter">
	<path stroke='black'  d='M71.9,54.1 L71.9,662.4 L1013.6,662.4 L1013.6,54.1 L71.9,54.1 Z  '/></g>
<g fill="none" color="black" stroke="currentColor" stroke-width="1.00" stroke-linecap="butt" stroke-linejoin="miter">
	<g transform="translate(16.3,358.3) rotate(270)" stroke="none" fill="black" font-family="Helvetica" font-size="12.00"  text-anchor="middle">
		<text><tspan font-family="Helvetica" >Density (a.u.)</tspan></text>
	</g>
</g>
<g fill="none" color="black" stroke="currentColor" stroke-width="1.00" stroke-linecap="butt" stroke-linejoin="miter">
	<g transform="translate(542.7,711.3)" stroke="none" fill="black" font-family="Helvetica" font-size="12.00"  text-anchor="middle">
		<text><tspan font-family="Helvetica" >Average time (us)</tspan></text>
	</g>
</g>
<g fill="none" color="black" stroke="currentColor" stroke-width="1.00" stroke-linecap="butt" stroke-linejoin="miter">
	<g transform="translate(542.7,31.0)" stroke="none" fill="black" font-family="Helvetica" font-size="12.00"  text-anchor="middle">
		<text><tspan font-family="Helvetica" >snapshot_restore_with_dense/Dense: Dirty pages + process_vm_writev/215: median</tspan></text>
	</g>
</g>
	<g id="gnuplot_plot_1" ><title>Bootstrap distribution</title>
<g fill="none" color="white" stroke="black" stroke-width="2.00" stroke-linecap="butt" stroke-linejoin="miter">
</g>
<g fill="none" color="black" stroke="currentColor" stroke-width="2.00" stroke-linecap="butt" stroke-linejoin="miter">
	<g transform="translate(1089.0,67.0)" stroke="none" fill="black" font-family="Helvetica" font-size="12.00"  text-anchor="start">
		<text><tspan font-family="Helvetica" >Bootstrap distribution</tspan></text>
	</g>
</g>
<g fill="none" color="black" stroke="currentColor" stroke-width="2.00" stroke-linecap="butt" stroke-linejoin="miter">
	<path stroke='rgb( 31, 120, 180)'  d='M1038.5,63.1 L1080.7,63.1 M71.9,659.1 L73.8,658.9 L75.7,658.6 L77.6,658.3 L79.4,658.0 L81.3,657.7
		L83.2,657.4 L85.1,657.1 L87.0,656.7 L88.9,656.4 L90.8,656.0 L92.7,655.7 L94.5,655.3 L96.4,654.9
		L98.3,654.4 L100.2,653.9 L102.1,653.4 L104.0,652.8 L105.9,652.2 L107.8,651.5 L109.6,650.7 L111.5,649.9
		L113.4,648.9 L115.3,647.8 L117.2,646.6 L119.1,645.2 L121.0,643.7 L122.9,642.0 L124.7,640.2 L126.6,638.2
		L128.5,636.1 L130.4,633.8 L132.3,631.4 L134.2,628.9 L136.1,626.3 L138.0,623.8 L139.8,621.3 L141.7,618.8
		L143.6,616.5 L145.5,614.4 L147.4,612.4 L149.3,610.7 L151.2,609.2 L153.0,608.1 L154.9,607.2 L156.8,606.6
		L158.7,606.3 L160.6,606.3 L162.5,606.5 L164.4,606.9 L166.3,607.5 L168.1,608.3 L170.0,609.3 L171.9,610.3
		L173.8,611.5 L175.7,612.6 L177.6,613.9 L179.5,615.1 L181.4,616.3 L183.2,617.6 L185.1,618.8 L187.0,620.0
		L188.9,621.2 L190.8,622.4 L192.7,623.5 L194.6,624.5 L196.5,625.5 L198.3,626.4 L200.2,627.2 L202.1,627.8
		L204.0,628.4 L205.9,628.8 L207.8,629.1 L209.7,629.2 L211.6,629.2 L213.4,629.0 L215.3,628.7 L217.2,628.2
		L219.1,627.7 L221.0,627.0 L222.9,626.3 L224.8,625.6 L226.6,624.9 L228.5,624.3 L230.4,623.7 L232.3,623.1
		L234.2,622.7 L236.1,622.4 L238.0,622.1 L239.9,622.0 L241.7,621.8 L243.6,621.8 L245.5,621.7 L247.4,621.6
		L249.3,621.5 L251.2,621.3 L253.1,621.0 L255.0,620.6 L256.8,620.1 L258.7,619.5 L260.6,618.7 L262.5,617.8
		L264.4,616.8 L266.3,615.7 L268.2,614.5 L270.1,613.2 L271.9,611.9 L273.8,610.5 L275.7,608.9 L277.6,607.4
		L279.5,605.7 L281.4,604.0 L283.3,602.2 L285.2,600.3 L287.0,598.2 L288.9,596.1 L290.8,593.8 L292.7,591.4
		L294.6,588.9 L296.5,586.3 L298.4,583.5 L300.2,580.6 L302.1,577.5 L304.0,574.4 L305.9,571.2 L307.8,567.9
		L309.7,564.7 L311.6,561.4 L313.5,558.2 L315.3,555.1 L317.2,552.3 L319.1,549.6 L321.0,547.3 L322.9,545.4
		L324.8,543.8 L326.7,542.8 L328.6,542.2 L330.4,542.1 L332.3,542.4 L334.2,543.3 L336.1,544.5 L338.0,546.0
		L339.9,547.8 L341.8,549.8 L343.7,551.8 L345.5,553.8 L347.4,555.7 L349.3,557.3 L351.2,558.7 L353.1,559.8
		L355.0,560.5 L356.9,560.8 L358.8,560.9 L360.6,560.6 L362.5,560.0 L364.4,559.2 L366.3,558.3 L368.2,557.2
		L370.1,556.0 L372.0,554.8 L373.8,553.6 L375.7,552.3 L377.6,551.0 L379.5,549.7 L381.4,548.2 L383.3,546.6
		L385.2,544.9 L387.1,542.9 L388.9,540.8 L390.8,538.3 L392.7,535.6 L394.6,532.5 L396.5,529.2 L398.4,525.6
		L400.3,521.7 L402.2,517.5 L404.0,513.0 L405.9,508.4 L407.8,503.4 L409.7,498.3 L411.6,492.9 L413.5,487.2
		L415.4,481.3 L417.3,475.2 L419.1,468.7 L421.0,461.8 L422.9,454.6 L424.8,446.9 L426.7,438.8 L428.6,430.0
		L430.5,420.6 L432.4,410.5 L434.2,399.7 L436.1,387.9 L438.0,375.2 L439.9,361.5 L441.8,346.7 L443.7,330.8
		L445.6,313.8 L447.4,295.8 L449.3,276.9 L451.2,257.1 L453.1,236.6 L455.0,215.7 L456.9,194.7 L458.8,173.9
		L460.7,153.6 L462.5,134.3 L464.4,116.4 L466.3,100.2 L468.2,86.2 L470.1,74.7 L472.0,66.0 L473.9,60.3
		L475.8,57.7 L477.6,58.4 L479.5,62.3 L481.4,69.3 L483.3,79.1 L485.2,91.7 L487.1,106.5 L489.0,123.2
		L490.9,141.4 L492.7,160.8 L494.6,180.8 L496.5,201.0 L498.4,221.3 L500.3,241.1 L502.2,260.2 L504.1,278.5
		L506.0,295.8 L507.8,311.9 L509.7,326.9 L511.6,340.6 L513.5,353.2 L515.4,364.7 L517.3,375.1 L519.2,384.6
		L521.0,393.1 L522.9,400.8 L524.8,407.8 L526.7,414.0 L528.6,419.7 L530.5,424.8 L532.4,429.4 L534.3,433.5
		L536.1,437.2 L538.0,440.5 L539.9,443.5 L541.8,446.2 L543.7,448.6 L545.6,450.9 L547.5,453.0 L549.4,455.0
		L551.2,456.9 L553.1,458.8 L555.0,460.6 L556.9,462.3 L558.8,464.0 L560.7,465.7 L562.6,467.2 L564.5,468.7
		L566.3,470.0 L568.2,471.2 L570.1,472.2 L572.0,473.0 L573.9,473.5 L575.8,473.7 L577.7,473.6 L579.5,473.2
		L581.4,472.4 L583.3,471.4 L585.2,470.0 L587.1,468.2 L589.0,466.2 L590.9,463.9 L592.8,461.4 L594.6,458.6
		L596.5,455.8 L598.4,452.8 L600.3,449.9 L602.2,446.9 L604.1,444.1 L606.0,441.5 L607.9,439.1 L609.7,437.0
		L611.6,435.3 L613.5,434.0 L615.4,433.1 L617.3,432.7 L619.2,432.9 L621.1,433.5 L623.0,434.8 L624.8,436.5
		L626.7,438.8 L628.6,441.6 L630.5,444.9 L632.4,448.6 L634.3,452.8 L636.2,457.2 L638.1,462.0 L639.9,466.9
		L641.8,472.1 L643.7,477.3 L645.6,482.7 L647.5,488.0 L649.4,493.3 L651.3,498.5 L653.1,503.6 L655.0,508.6
		L656.9,513.4 L658.8,518.0 L660.7,522.5 L662.6,526.8 L664.5,530.9 L666.4,534.9 L668.2,538.8 L670.1,542.5
		L672.0,546.1 L673.9,549.6 L675.8,553.1 L677.7,556.4 L679.6,559.8 L681.5,563.1 L683.3,566.4 L685.2,569.7
		L687.1,573.0 L689.0,576.3 L690.9,579.6 L692.8,582.9 L694.7,586.1 L696.6,589.4 L698.4,592.6 L700.3,595.8
		L702.2,598.9 L704.1,602.0 L706.0,604.9 L707.9,607.6 L709.8,610.2 L711.7,612.6 L713.5,614.9 L715.4,616.9
		L717.3,618.6 L719.2,620.2 L721.1,621.6 L723.0,622.8 L724.9,623.9 L726.7,624.8 L728.6,625.7 L730.5,626.5
		L732.4,627.3 L734.3,628.1 L736.2,628.9 L738.1,629.8 L740.0,630.7 L741.8,631.8 L743.7,632.8 L745.6,633.9
		L747.5,635.0 L749.4,636.1 L751.3,637.1 L753.2,638.1 L755.1,639.0 L756.9,639.7 L758.8,640.3 L760.7,640.7
		L762.6,641.1 L764.5,641.2 L766.4,641.3 L768.3,641.2 L770.2,641.1 L772.0,641.0 L773.9,640.9 L775.8,640.7
		L777.7,640.6 L779.6,640.6 L781.5,640.7 L783.4,640.8 L785.3,641.1 L787.1,641.4 L789.0,641.8 L790.9,642.2
		L792.8,642.7 L794.7,643.2 L796.6,643.7 L798.5,644.3 L800.3,644.8 L802.2,645.3 L804.1,645.7 L806.0,646.2
		L807.9,646.6 L809.8,646.9 L811.7,647.3 L813.6,647.6 L815.4,647.9 L817.3,648.1 L819.2,648.2 L821.1,648.3
		L823.0,648.3 L824.9,648.3 L826.8,648.1 L828.7,647.8 L830.5,647.4 L832.4,647.0 L834.3,646.4 L836.2,645.7
		L838.1,645.0 L840.0,644.3 L841.9,643.5 L843.8,642.8 L845.6,642.1 L847.5,641.6 L849.4,641.1 L851.3,640.9
		L853.2,640.8 L855.1,640.9 L857.0,641.2 L858.9,641.7 L860.7,642.4 L862.6,643.3 L864.5,644.3 L866.4,645.4
		L868.3,646.6 L870.2,647.9 L872.1,649.1 L873.9,650.4 L875.8,651.5 L877.7,652.6 L879.6,653.6 L881.5,654.5
		L883.4,655.2 L885.3,655.8 L887.2,656.2 L889.0,656.5 L890.9,656.6 L892.8,656.5 L894.7,656.2 L896.6,655.8
		L898.5,655.1 L900.4,654.3 L902.3,653.3 L904.1,652.1 L906.0,650.7 L907.9,649.2 L909.8,647.5 L911.7,645.7
		L913.6,643.9 L915.5,642.0 L917.4,640.1 L919.2,638.2 L921.1,636.5 L923.0,634.9 L924.9,633.5 L926.8,632.4
		L928.7,631.5 L930.6,631.0 L932.5,630.7 L934.3,630.8 L936.2,631.1 L938.1,631.8 L940.0,632.6 L941.9,633.7
		L943.8,635.0 L945.7,636.3 L947.5,637.7 L949.4,639.1 L951.3,640.5 L953.2,641.8 L955.1,643.0 L957.0,644.1
		L958.9,645.1 L960.8,646.0 L962.6,646.7 L964.5,647.3 L966.4,647.8 L968.3,648.3 L970.2,648.7 L972.1,649.0
		L974.0,649.3 L975.9,649.5 L977.7,649.8 L979.6,650.0 L981.5,650.2 L983.4,650.4 L985.3,650.6 L987.2,650.8
		L989.1,650.9 L991.0,651.0 L992.8,651.1 L994.7,651.2 L996.6,651.3 L998.5,651.4 L1000.4,651.4 L1002.3,651.5
		L1004.2,651.5 L1006.1,651.6 L1007.9,651.7 L1009.8,651.8 L1011.7,652.0 L1013.6,652.1  '/></g>
	</g>
	<g id="gnuplot_plot_2" ><title>Confidence interval</title>
<g fill="none" color="white" stroke="rgb( 31, 120, 180)" stroke-width="1.00" stroke-linecap="butt" stroke-linejoin="miter">
</g>
<g fill="none" color="black" stroke="currentColor" stroke-width="1.00" stroke-linecap="butt" stroke-linejoin="miter">
	<g transform="translate(1089.0,85.0)" stroke="none" fill="black" font-family="Helvetica" font-size="12.00"  text-anchor="start">
		<text><tspan font-family="Helvetica" >Confidence interval</tspan></text>
	</g>
</g>
<g fill="none" color="black" stroke="currentColor" stroke-width="1.00" stroke-linecap="butt" stroke-linejoin="miter">
	<g stroke='none' shape-rendering='crispEdges'>
		<polygon fill = 'rgb( 31, 120, 180)' fill-opacity = '0.250000' points = '1038.5,85.6 1080.7,85.6 1080.7,76.6 1038.5,76.6 '/>
		<polygon fill = 'rgb( 31, 120, 180)' fill-opacity = '0.250000' points = '158.7,606.3 160.6,606.3 162.5,606.5 164.4,606.9 166.3,607.5 168.1,608.3 170.0,609.3 171.9,610.3 173.8,611.5 175.7,612.6 177.6,613.9 179.5,615.1 181.4,616.3 183.2,617.6 185.1,618.8 187.0,620.0
188.9,621.2 190.8,622.4 192.7,623.5 194.6,624.5 196.5,625.5 198.3,626.4 200.2,627.2 202.1,627.8 204.0,628.4 205.9,628.8 207.8,629.1 209.7,629.2 211.6,629.2 213.4,629.0 215.3,628.7 217.2,628.2
219.1,627.7 221.0,627.0 222.9,626.3 224.8,625.6 226.6,624.9 228.5,624.3 230.4,623.7 232.3,623.1 234.2,622.7 236.1,622.4 238.0,622.1 239.9,622.0 241.7,621.8 243.6,621.8 245.5,621.7 247.4,621.6
249.3,621.5 251.2,621.3 253.1,621.0 255.0,620.6 256.8,620.1 258.7,619.5 260.6,618.7 262.5,617.8 264.4,616.8 266.3,615.7 268.2,614.5 270.1,613.2 271.9,611.9 273.8,610.5 275.7,608.9 277.6,607.4
279.5,605.7 281.4,604.0 283.3,602.2 285.2,600.3 287.0,598.2 288.9,596.1 290.8,593.8 292.7,591.4 294.6,588.9 296.5,586.3 298.4,583.5 300.2,580.6 302.1,577.5 304.0,574.4 305.9,571.2 307.8,567.9
309.7,564.7 311.6,561.4 313.5,558.2 315.3,555.1 317.2,552.3 319.1,549.6 321.0,547.3 322.9,545.4 324.8,543.8 326.7,542.8 328.6,542.2 330.4,542.1 332.3,542.4 334.2,543.3 336.1,544.5 338.0,546.0
339.9,547.8 341.8,549.8 343.7,551.8 345.5,553.8 347.4,555.7 349.3,557.3 351.2,558.7 353.1,559.8 355.0,560.5 356.9,560.8 358.8,560.9 360.6,560.6 362.5,560.0 364.4,559.2 366.3,558.3 368.2,557.2
370.1,556.0 372.0,554.8 373.8,553.6 375.7,552.3 377.6,551.0 379.5,549.7 381.4,548.2 383.3,546.6 385.2,544.9 387.1,542.9 388.9,540.8 390.8,538.3 392.7,535.6 394.6,532.5 396.5,529.2 398.4,525.6
400.3,521.7 402.2,517.5 404.0,513.0 405.9,508.4 407.8,503.4 409.7,498.3 411.6,492.9 413.5,487.2 415.4,481.3 417.3,475.2 419.1,468.7 421.0,461.8 422.9,454.6 424.8,446.9 426.7,438.8 428.6,430.0
430.5,420.6 432.4,410.5 434.2,399.7 436.1,387.9 438.0,375.2 439.9,361.5 441.8,346.7 443.7,330.8 445.6,313.8 447.4,295.8 449.3,276.9 451.2,257.1 453.1,236.6 455.0,215.7 456.9,194.7 458.8,173.9
460.7,153.6 462.5,134.3 464.4,116.4 466.3,100.2 468.2,86.2 470.1,74.7 472.0,66.0 473.9,60.3 475.8,57.7 477.6,58.4 479.5,62.3 481.4,69.3 483.3,79.1 485.2,91.7 487.1,106.5 489.0,123.2
490.9,141.4 492.7,160.8 494.6,180.8 496.5,201.0 498.4,221.3 500.3,241.1 502.2,260.2 504.1,278.5 506.0,295.8 507.8,311.9 509.7,326.9 511.6,340.6 513.5,353.2 515.4,364.7 517.3,375.1 519.2,384.6
521.0,393.1 522.9,400.8 524.8,407.8 526.7,414.0 528.6,419.7 530.5,424.8 532.4,429.4 534.3,433.5 536.1,437.2 538.0,440.5 539.9,443.5 541.8,446.2 543.7,448.6 545.6,450.9 547.5,453.0 549.4,455.0
551.2,456.9 553.1,458.8 555.0,460.6 556.9,462.3 558.8,464.0 560.7,465.7 562.6,467.2 564.5,468.7 566.3,470.0 568.2,471.2 570.1,472.2 572.0,473.0 573.9,473.5 575.8,473.7 577.7,473.6 579.5,473.2
581.4,472.4 583.3,471.4 585.2,470.0 587.1,468.2 589.0,466.2 590.9,463.9 592.8,461.4 594.6,458.6 596.5,455.8 598.4,452.8 600.3,449.9 602.2,446.9 604.1,444.1 606.0,441.5 607.9,439.1 609.7,437.0
611.6,435.3 613.5,434.0 615.4,433.1 617.3,432.7 619.2,432.9 621.1,433.5 623.0,434.8 624.8,436.5 626.7,438.8 628.6,441.6 630.5,444.9 632.4,448.6 634.3,452.8 636.2,457.2 638.1,462.0 639.9,466.9
641.8,472.1 643.7,477.3 645.6,482.7 647.5,488.0 649.4,493.3 651.3,498.5 653.1,503.6 655.0,508.6 656.9,513.4 658.8,518.0 660.7,522.5 662.6,526.8 664.5,530.9 666.4,534.9 668.2,538.8 670.1,542.5
672.0,546.1 673.9,549.6 675.8,553.1 677.7,556.4 679.6,559.8 681.5,563.1 683.3,566.4 685.2,569.7 687.1,573.0 689.0,576.3 690.9,579.6 692.8,582.9 694.7,586.1 696.6,589.4 698.4,592.6 700.3,595.8
702.2,598.9 704.1,602.0 706.0,604.9 707.9,607.6 709.8,610.2 711.7,612.6 713.5,614.9 715.4,616.9 717.3,618.6 719.2,620.2 721.1,621.6 723.0,622.8 724.9,623.9 726.7,624.8 728.6,625.7 730.5,626.5
732.4,627.3 734.3,628.1 736.2,628.9 738.1,629.8 740.0,630.7 741.8,631.8 743.7,632.8 745.6,633.9 747.5,635.0 749.4,636.1 751.3,637.1 753.2,638.1 755.1,639.0 756.9,639.7 758.8,640.3 760.7,640.7
762.6,641.1 764.5,641.2 766.4,641.3 768.3,641.2 770.2,641.1 772.0,641.0 773.9,640.9 775.8,640.7 777.7,640.6 779.6,640.6 781.5,640.7 783.4,640.8 785.3,641.1 787.1,641.4 789.0,641.8 790.9,642.2
792.8,642.7 794.7,643.2 796.6,643.7 798.5,644.3 800.3,644.8 802.2,645.3 804.1,645.7 806.0,646.2 807.9,646.6 809.8,646.9 811.7,647.3 813.6,647.6 815.4,647.9 817.3,648.1 819.2,648.2 821.1,648.3
823.0,648.3 824.9,648.3 826.8,648.1 828.7,647.8 830.5,647.4 832.4,647.0 834.3,646.4 836.2,645.7 838.1,645.0 840.0,644.3 841.9,643.5 843.8,642.8 845.6,642.1 847.5,641.6 849.4,641.1 851.3,640.9
853.2,640.8 855.1,640.9 857.0,641.2 858.9,641.7 860.7,642.4 862.6,643.3 864.5,644.3 866.4,645.4 868.3,646.6 870.2,647.9 872.1,649.1 873.9,650.4 875.8,651.5 877.7,652.6 879.6,653.6 881.5,654.5
883.4,655.2 885.3,655.8 887.2,656.2 889.0,656.5 890.9,656.6 892.8,656.5 894.7,656.2 896.6,655.8 898.5,655.1 900.4,654.3 902.3,653.3 904.1,652.1 906.0,650.7 907.9,649.2 909.8,647.5 911.7,645.7
913.6,643.9 915.5,642.0 917.4,640.1 919.2,638.2 921.1,636.5 923.0,634.9 924.9,633.5 924.9,662.4 923.0,662.4 921.1,662.4 919.2,662.4 917.4,662.4 915.5,662.4 913.6,662.4 911.7,662.4 909.8,662.4
907.9,662.4 906.0,662.4 904.1,662.4 902.3,662.4 900.4,662.4 898.5,662.4 896.6,662.4 894.7,662.4 892.8,662.4 890.9,662.4 889.0,662.4 887.2,662.4 885.3,662.4 883.4,662.4 881.5,662.4 879.6,662.4
877.7,662.4 875.8,662.4 873.9,662.4 872.1,662.4 870.2,662.4 868.3,662.4 866.4,662.4 864.5,662.4 862.6,662.4 860.7,662.4 858.9,662.4 857.0,662.4 855.1,662.4 853.2,662.4 851.3,662.4 849.4,662.4
847.5,662.4 845.6,662.4 843.8,662.4 841.9,662.4 840.0,662.4 838.1,662.4 836.2,662.4 834.3,662.4 832.4,662.4 830.5,662.4 828.7,662.4 826.8,662.4 824.9,662.4 823.0,662.4 821.1,662.4 819.2,662.4
817.3,662.4 815.4,662.4 813.6,662.4 811.7,662.4 809.8,662.4 807.9,662.4 806.0,662.4 804.1,662.4 802.2,662.4 800.3,662.4 798.5,662.4 796.6,662.4 794.7,662.4 792.8,662.4 790.9,662.4 789.0,662.4
787.1,662.4 785.3,662.4 783.4,662.4 781.5,662.4 779.6,662.4 777.7,662.4 775.8,662.4 773.9,662.4 772.0,662.4 770.2,662.4 768.3,662.4 766.4,662.4 764.5,662.4 762.6,662.4 760.7,662.4 758.8,662.4
756.9,662.4 755.1,662.4 753.2,662.4 751.3,662.4 749.4,662.4 747.5,662.4 745.6,662.4 743.7,662.4 741.8,662.4 740.0,662.4 738.1,662.4 736.2,662.4 734.3,662.4 732.4,662.4 730.5,662.4 728.6,662.4
726.7,662.4 724.9,662.4 723.0,662.4 721.1,662.4 719.2,662.4 717.3,662.4 715.4,662.4 713.5,662.4 711.7,662.4 709.8,662.4 707.9,662.4 706.0,662.4 704.1,662.4 702.2,662.4 700.3,662.4 698.4,662.4
696.6,662.4 694.7,662.4 692.8,662.4 690.9,662.4 689.0,662.4 687.1,662.4 685.2,662.4 683.3,662.4 681.5,662.4 679.6,662.4 677.7,662.4 675.8,662.4 673.9,662.4 672.0,662.4 670.1,662.4 668.2,662.4
666.4,662.4 664.5,662.4 662.6,662.4 660.7,662.4 658.8,662.4 656.9,662.4 655.0,662.4 653.1,662.4 651.3,662.4 649.4,662.4 647.5,662.4 645.6,662.4 643.7,662.4 641.8,662.4 639.9,662.4 638.1,662.4
636.2,662.4 634.3,662.4 632.4,662.4 630.5,662.4 628.6,662.4 626.7,662.4 624.8,662.4 623.0,662.4 621.1,662.4 619.2,662.4 617.3,662.4 615.4,662.4 613.5,662.4 611.6,662.4 609.7,662.4 607.9,662.4
606.0,662.4 604.1,662.4 602.2,662.4 600.3,662.4 598.4,662.4 596.5,662.4 594.6,662.4 592.8,662.4 590.9,662.4 589.0,662.4 587.1,662.4 585.2,662.4 583.3,662.4 581.4,662.4 579.5,662.4 577.7,662.4
575.8,662.4 573.9,662.4 572.0,662.4 570.1,662.4 568.2,662.4 566.3,662.4 564.5,662.4 562.6,662.4 560.7,662.4 558.8,662.4 556.9,662.4 555.0,662.4 553.1,662.4 551.2,662.4 549.4,662.4 547.5,662.4
545.6,662.4 543.7,662.4 541.8,662.4 539.9,662.4 538.0,662.4 536.1,662.4 534.3,662.4 532.4,662.4 530.5,662.4 528.6,662.4 526.7,662.4 524.8,662.4 522.9,662.4 521.0,662.4 519.2,662.4 517.3,662.4
515.4,662.4 513.5,662.4 511.6,662.4 509.7,662.4 507.8,662.4 506.0,662.4 504.1,662.4 502.2,662.4 500.3,662.4 498.4,662.4 496.5,662.4 494.6,662.4 492.7,662.4 490.9,662.4 489.0,662.4 487.1,662.4
485.2,662.4 483.3,662.4 481.4,662.4 479.5,662.4 477.6,662.4 475.8,662.4 473.9,662.4 472.0,662.4 470.1,662.4 468.2,662.4 466.3,662.4 464.4,662.4 462.5,662.4 460.7,662.4 458.8,662.4 456.9,662.4
455.0,662.4 453.1,662.4 451.2,662.4 449.3,662.4 447.4,662.4 445.6,662.4 443.7,662.4 441.8,662.4 439.9,662.4 438.0,662.4 436.1,662.4 434.2,662.4 432.4,662.4 430.5,662.4 428.6,662.4 426.7,662.4
424.8,662.4 422.9,662.4 421.0,662.4 419.1,662.4 417.3,662.4 415.4,662.4 413.5,662.4 411.6,662.4 409.7,662.4 407.8,662.4 405.9,662.4 404.0,662.4 402.2,662.4 400.3,662.4 398.4,662.4 396.5,662.4
394.6,662.4 392.7,662.4 390.8,662.4 388.9,662.4 387.1,662.4 385.2,662.4 383.3,662.4 381.4,662.4 379.5,662.4 377.6,662.4 375.7,662.4 373.8,662.4 372.0,662.4 370.1,662.4 368.2,662.4 366.3,662.4
364.4,662.4 362.5,662.4 360.6,662.4 358.8,662.4 356.9,662.4 355.0,662.4 353.1,662.4 351.2,662.4 349.3,662.4 347.4,662.4 345.5,662.4 343.7,662.4 341.8,662.4 339.9,662.4 338.0,662.4 336.1,662.4
334.2,662.4 332.3,662.4 330.4,662.4 328.6,662.4 326.7,662.4 324.8,662.4 322.9,662.4 321.0,662.4 319.1,662.4 317.2,662.4 315.3,662.4 313.5,662.4 311.6,662.4 309.7,662.4 307.8,662.4 305.9,662.4
304.0,662.4 302.1,662.4 300.2,662.4 298.4,662.4 296.5,662.4 294.6,662.4 292.7,662.4 290.8,662.4 288.9,662.4 287.0,662.4 285.2,662.4 283.3,662.4 281.4,662.4 279.5,662.4 277.6,662.4 275.7,662.4
273.8,662.4 271.9,662.4 270.1,662.4 268.2,662.4 266.3,662.4 264.4,662.4 262.5,662.4 260.6,662.4 258.7,662.4 256.8,662.4 255.0,662.4 253.1,662.4 251.2,662.4 249.3,662.4 247.4,662.4 245.5,662.4
243.6,662.4 241.7,662.4 239.9,662.4 238.0,662.4 236.1,662.4 234.2,662.4 232.3,662.4 230.4,662.4 228.5,662.4 226.6,662.4 224.8,662.4 222.9,662.4 221.0,662.4 219.1,662.4 217.2,662.4 215.3,662.4
213.4,662.4 211.6,662.4 209.7,662.4 207.8,662.4 205.9,662.4 204.0,662.4 202.1,662.4 200.2,662.4 198.3,662.4 196.5,662.4 194.6,662.4 192.7,662.4 190.8,662.4 188.9,662.4 187.0,662.4 185.1,662.4
183.2,662.4 181.4,662.4 179.5,662.4 177.6,662.4 175.7,662.4 173.8,662.4 171.9,662.4 170.0,662.4 168.1,662.4 166.3,662.4 164.4,662.4 162.5,662.4 160.6,662.4 158.7,662.4 '/>
	</g>
</g>
	</g>
	<g id="gnuplot_plot_3" ><title>Point estimate</title>
<g fill="none" color="white" stroke="rgb( 31, 120, 180)" stroke-width="2.00" stroke-linecap="butt" stroke-linejoin="miter">
</g>
<g fill="none" color="black" stroke="currentColor" stroke-width="2.00" stroke-linecap="butt" stroke-linejoin="miter">
	<g transform="translate(1089.0,103.0)" stroke="none" fill="black" font-family="Helvetica" font-size="12.00"  text-anchor="start">
		<text><tspan font-family="Helvetica" >Point estimate</tspan></text>
	</g>
</g>
<g fill="none" color="black" stroke="currentColor" stroke-width="2.00" stroke-linecap="butt" stroke-linejoin="miter">
	<path stroke='rgb( 31, 120, 180)'  d='M1038.5,99.1 L1080.7,99.1 M484.1,662.4 L484.1,84.6  '/></g>
	</g>
<g fill="none" color="black" stroke="currentColor" stroke-width="2.00" stroke-linecap="butt" stroke-linejoin="miter">
</g>
<g fill="none" color="black" stroke="black" stroke-width="1.00" stroke-linecap="butt" stroke-linejoin="miter">
</g>
<g fill="none" color="black" stroke="currentColor" stroke-width="1.00" stroke-linecap="butt" stroke-linejoin="miter">
	<path stroke='black'  d='M71.9,54.1 L71.9,662.4 L1013.6,662.4 L1013.6,54.1 L71.9,54.1 Z  '/></g>
<g fill="none" color="black" stroke="currentColor" stroke-width="1.00" stroke-linecap="butt" stroke-linejoin="miter">
</g>
</g>
</svg>

