<?xml version="1.0" encoding="utf-8"  standalone="no"?>
<svg 
 viewBox="0 0 1280 720"
 xmlns="http://www.w3.org/2000/svg"
 xmlns:xlink="http://www.w3.org/1999/xlink"
>

<title>Gnuplot</title>
<desc>Produced by GNUPLOT 5.2 patchlevel 6 </desc>

<g id="gnuplot_canvas">

<rect x="0" y="0" width="1280" height="720" fill="none"/>
<defs>

	<circle id='gpDot' r='0.5' stroke-width='0.5' stroke='currentColor'/>
	<path id='gpPt0' stroke-width='0.222' stroke='currentColor' d='M-1,0 h2 M0,-1 v2'/>
	<path id='gpPt1' stroke-width='0.222' stroke='currentColor' d='M-1,-1 L1,1 M1,-1 L-1,1'/>
	<path id='gpPt2' stroke-width='0.222' stroke='currentColor' d='M-1,0 L1,0 M0,-1 L0,1 M-1,-1 L1,1 M-1,1 L1,-1'/>
	<rect id='gpPt3' stroke-width='0.222' stroke='currentColor' x='-1' y='-1' width='2' height='2'/>
	<rect id='gpPt4' stroke-width='0.222' stroke='currentColor' fill='currentColor' x='-1' y='-1' width='2' height='2'/>
	<circle id='gpPt5' stroke-width='0.222' stroke='currentColor' cx='0' cy='0' r='1'/>
	<use xlink:href='#gpPt5' id='gpPt6' fill='currentColor' stroke='none'/>
	<path id='gpPt7' stroke-width='0.222' stroke='currentColor' d='M0,-1.33 L-1.33,0.67 L1.33,0.67 z'/>
	<use xlink:href='#gpPt7' id='gpPt8' fill='currentColor' stroke='none'/>
	<use xlink:href='#gpPt7' id='gpPt9' stroke='currentColor' transform='rotate(180)'/>
	<use xlink:href='#gpPt9' id='gpPt10' fill='currentColor' stroke='none'/>
	<use xlink:href='#gpPt3' id='gpPt11' stroke='currentColor' transform='rotate(45)'/>
	<use xlink:href='#gpPt11' id='gpPt12' fill='currentColor' stroke='none'/>
	<path id='gpPt13' stroke-width='0.222' stroke='currentColor' d='M0,1.330 L1.265,0.411 L0.782,-1.067 L-0.782,-1.076 L-1.265,0.411 z'/>
	<use xlink:href='#gpPt13' id='gpPt14' fill='currentColor' stroke='none'/>
	<filter id='textbox' filterUnits='objectBoundingBox' x='0' y='0' height='1' width='1'>
	  <feFlood flood-color='white' flood-opacity='1' result='bgnd'/>
	  <feComposite in='SourceGraphic' in2='bgnd' operator='atop'/>
	</filter>
	<filter id='greybox' filterUnits='objectBoundingBox' x='0' y='0' height='1' width='1'>
	  <feFlood flood-color='lightgrey' flood-opacity='1' result='grey'/>
	  <feComposite in='SourceGraphic' in2='grey' operator='atop'/>
	</filter>
</defs>
<g fill="none" color="white" stroke="currentColor" stroke-width="1.00" stroke-linecap="butt" stroke-linejoin="miter">
</g>
<g fill="none" color="black" stroke="currentColor" stroke-width="1.00" stroke-linecap="butt" stroke-linejoin="miter">
	<path stroke='black'  d='M71.9,662.4 L80.9,662.4  '/>	<g transform="translate(63.6,666.3)" stroke="none" fill="black" font-family="Helvetica" font-size="12.00"  text-anchor="end">
		<text><tspan font-family="Helvetica" > 0</tspan></text>
	</g>
</g>
<g fill="none" color="black" stroke="currentColor" stroke-width="1.00" stroke-linecap="butt" stroke-linejoin="miter">
	<path stroke='black'  d='M71.9,530.2 L80.9,530.2  '/>	<g transform="translate(63.6,534.1)" stroke="none" fill="black" font-family="Helvetica" font-size="12.00"  text-anchor="end">
		<text><tspan font-family="Helvetica" > 0.5</tspan></text>
	</g>
</g>
<g fill="none" color="black" stroke="currentColor" stroke-width="1.00" stroke-linecap="butt" stroke-linejoin="miter">
	<path stroke='black'  d='M71.9,397.9 L80.9,397.9  '/>	<g transform="translate(63.6,401.8)" stroke="none" fill="black" font-family="Helvetica" font-size="12.00"  text-anchor="end">
		<text><tspan font-family="Helvetica" > 1</tspan></text>
	</g>
</g>
<g fill="none" color="black" stroke="currentColor" stroke-width="1.00" stroke-linecap="butt" stroke-linejoin="miter">
	<path stroke='black'  d='M71.9,265.7 L80.9,265.7  '/>	<g transform="translate(63.6,269.6)" stroke="none" fill="black" font-family="Helvetica" font-size="12.00"  text-anchor="end">
		<text><tspan font-family="Helvetica" > 1.5</tspan></text>
	</g>
</g>
<g fill="none" color="black" stroke="currentColor" stroke-width="1.00" stroke-linecap="butt" stroke-linejoin="miter">
	<path stroke='black'  d='M71.9,133.4 L80.9,133.4  '/>	<g transform="translate(63.6,137.3)" stroke="none" fill="black" font-family="Helvetica" font-size="12.00"  text-anchor="end">
		<text><tspan font-family="Helvetica" > 2</tspan></text>
	</g>
</g>
<g fill="none" color="black" stroke="currentColor" stroke-width="1.00" stroke-linecap="butt" stroke-linejoin="miter">
	<path stroke='black'  d='M239.4,662.4 L239.4,653.4  '/>	<g transform="translate(239.4,684.3)" stroke="none" fill="black" font-family="Helvetica" font-size="12.00"  text-anchor="middle">
		<text><tspan font-family="Helvetica" > 45</tspan></text>
	</g>
</g>
<g fill="none" color="black" stroke="currentColor" stroke-width="1.00" stroke-linecap="butt" stroke-linejoin="miter">
	<path stroke='black'  d='M443.5,662.4 L443.5,653.4  '/>	<g transform="translate(443.5,684.3)" stroke="none" fill="black" font-family="Helvetica" font-size="12.00"  text-anchor="middle">
		<text><tspan font-family="Helvetica" > 50</tspan></text>
	</g>
</g>
<g fill="none" color="black" stroke="currentColor" stroke-width="1.00" stroke-linecap="butt" stroke-linejoin="miter">
	<path stroke='black'  d='M647.6,662.4 L647.6,653.4  '/>	<g transform="translate(647.6,684.3)" stroke="none" fill="black" font-family="Helvetica" font-size="12.00"  text-anchor="middle">
		<text><tspan font-family="Helvetica" > 55</tspan></text>
	</g>
</g>
<g fill="none" color="black" stroke="currentColor" stroke-width="1.00" stroke-linecap="butt" stroke-linejoin="miter">
	<path stroke='black'  d='M851.6,662.4 L851.6,653.4  '/>	<g transform="translate(851.6,684.3)" stroke="none" fill="black" font-family="Helvetica" font-size="12.00"  text-anchor="middle">
		<text><tspan font-family="Helvetica" > 60</tspan></text>
	</g>
</g>
<g fill="none" color="black" stroke="currentColor" stroke-width="1.00" stroke-linecap="butt" stroke-linejoin="miter">
	<path stroke='black'  d='M995.6,662.4 L986.6,662.4  '/>	<g transform="translate(1003.9,666.3)" stroke="none" fill="black" font-family="Helvetica" font-size="12.00"  text-anchor="start">
		<text><tspan font-family="Helvetica" > 0</tspan></text>
	</g>
</g>
<g fill="none" color="black" stroke="currentColor" stroke-width="1.00" stroke-linecap="butt" stroke-linejoin="miter">
	<path stroke='black'  d='M995.6,594.8 L986.6,594.8  '/>	<g transform="translate(1003.9,598.7)" stroke="none" fill="black" font-family="Helvetica" font-size="12.00"  text-anchor="start">
		<text><tspan font-family="Helvetica" > 0.05</tspan></text>
	</g>
</g>
<g fill="none" color="black" stroke="currentColor" stroke-width="1.00" stroke-linecap="butt" stroke-linejoin="miter">
	<path stroke='black'  d='M995.6,527.2 L986.6,527.2  '/>	<g transform="translate(1003.9,531.1)" stroke="none" fill="black" font-family="Helvetica" font-size="12.00"  text-anchor="start">
		<text><tspan font-family="Helvetica" > 0.1</tspan></text>
	</g>
</g>
<g fill="none" color="black" stroke="currentColor" stroke-width="1.00" stroke-linecap="butt" stroke-linejoin="miter">
	<path stroke='black'  d='M995.6,459.6 L986.6,459.6  '/>	<g transform="translate(1003.9,463.5)" stroke="none" fill="black" font-family="Helvetica" font-size="12.00"  text-anchor="start">
		<text><tspan font-family="Helvetica" > 0.15</tspan></text>
	</g>
</g>
<g fill="none" color="black" stroke="currentColor" stroke-width="1.00" stroke-linecap="butt" stroke-linejoin="miter">
	<path stroke='black'  d='M995.6,392.0 L986.6,392.0  '/>	<g transform="translate(1003.9,395.9)" stroke="none" fill="black" font-family="Helvetica" font-size="12.00"  text-anchor="start">
		<text><tspan font-family="Helvetica" > 0.2</tspan></text>
	</g>
</g>
<g fill="none" color="black" stroke="currentColor" stroke-width="1.00" stroke-linecap="butt" stroke-linejoin="miter">
	<path stroke='black'  d='M995.6,324.5 L986.6,324.5  '/>	<g transform="translate(1003.9,328.4)" stroke="none" fill="black" font-family="Helvetica" font-size="12.00"  text-anchor="start">
		<text><tspan font-family="Helvetica" > 0.25</tspan></text>
	</g>
</g>
<g fill="none" color="black" stroke="currentColor" stroke-width="1.00" stroke-linecap="butt" stroke-linejoin="miter">
	<path stroke='black'  d='M995.6,256.9 L986.6,256.9  '/>	<g transform="translate(1003.9,260.8)" stroke="none" fill="black" font-family="Helvetica" font-size="12.00"  text-anchor="start">
		<text><tspan font-family="Helvetica" > 0.3</tspan></text>
	</g>
</g>
<g fill="none" color="black" stroke="currentColor" stroke-width="1.00" stroke-linecap="butt" stroke-linejoin="miter">
	<path stroke='black'  d='M995.6,189.3 L986.6,189.3  '/>	<g transform="translate(1003.9,193.2)" stroke="none" fill="black" font-family="Helvetica" font-size="12.00"  text-anchor="start">
		<text><tspan font-family="Helvetica" > 0.35</tspan></text>
	</g>
</g>
<g fill="none" color="black" stroke="currentColor" stroke-width="1.00" stroke-linecap="butt" stroke-linejoin="miter">
	<path stroke='black'  d='M995.6,121.7 L986.6,121.7  '/>	<g transform="translate(1003.9,125.6)" stroke="none" fill="black" font-family="Helvetica" font-size="12.00"  text-anchor="start">
		<text><tspan font-family="Helvetica" > 0.4</tspan></text>
	</g>
</g>
<g fill="none" color="black" stroke="currentColor" stroke-width="1.00" stroke-linecap="butt" stroke-linejoin="miter">
	<path stroke='black'  d='M995.6,54.1 L986.6,54.1  '/>	<g transform="translate(1003.9,58.0)" stroke="none" fill="black" font-family="Helvetica" font-size="12.00"  text-anchor="start">
		<text><tspan font-family="Helvetica" > 0.45</tspan></text>
	</g>
</g>
<g fill="none" color="black" stroke="currentColor" stroke-width="1.00" stroke-linecap="butt" stroke-linejoin="miter">
</g>
<g fill="none" color="black" stroke="currentColor" stroke-width="1.00" stroke-linecap="butt" stroke-linejoin="miter">
	<path stroke='black'  d='M71.9,54.1 L71.9,662.4 L995.6,662.4 L995.6,54.1 L71.9,54.1 Z  '/></g>
<g fill="none" color="black" stroke="currentColor" stroke-width="1.00" stroke-linecap="butt" stroke-linejoin="miter">
	<g transform="translate(16.3,358.3) rotate(270)" stroke="none" fill="black" font-family="Helvetica" font-size="12.00"  text-anchor="middle">
		<text><tspan font-family="Helvetica" >Iterations (x 10</tspan><tspan font-family="Helvetica"  font-size="9.6" dy="-6.00px">3</tspan><tspan font-family="Helvetica"  font-size="12.0" dy="6.00px">)</tspan></text>
	</g>
</g>
<g fill="none" color="black" stroke="currentColor" stroke-width="1.00" stroke-linecap="butt" stroke-linejoin="miter">
	<g transform="translate(1074.2,358.3) rotate(270)" stroke="none" fill="black" font-family="Helvetica" font-size="12.00"  text-anchor="middle">
		<text><tspan font-family="Helvetica" >Density (a.u.)</tspan></text>
	</g>
</g>
<g fill="none" color="black" stroke="currentColor" stroke-width="1.00" stroke-linecap="butt" stroke-linejoin="miter">
	<g transform="translate(533.7,711.3)" stroke="none" fill="black" font-family="Helvetica" font-size="12.00"  text-anchor="middle">
		<text><tspan font-family="Helvetica" >Average time (us)</tspan></text>
	</g>
</g>
<g fill="none" color="black" stroke="currentColor" stroke-width="1.00" stroke-linecap="butt" stroke-linejoin="miter">
	<g transform="translate(533.7,31.0)" stroke="none" fill="black" font-family="Helvetica" font-size="12.00"  text-anchor="middle">
		<text><tspan font-family="Helvetica" >snapshot_restore_with_dense/Dense: Dirty pages + process_vm_writev/215</tspan></text>
	</g>
</g>
	<g id="gnuplot_plot_1" ><title>PDF</title>
<g fill="none" color="black" stroke="currentColor" stroke-width="1.00" stroke-linecap="butt" stroke-linejoin="miter">
	<g transform="translate(1147.1,67.0)" stroke="none" fill="black" font-family="Helvetica" font-size="12.00"  text-anchor="start">
		<text><tspan font-family="Helvetica" >PDF</tspan></text>
	</g>
</g>
<g fill="none" color="black" stroke="currentColor" stroke-width="1.00" stroke-linecap="butt" stroke-linejoin="miter">
	<g stroke='none' shape-rendering='crispEdges'>
		<polygon fill = 'rgb( 31, 120, 180)' fill-opacity = '0.250000' points = '1096.6,67.6 1138.8,67.6 1138.8,58.6 1096.6,58.6 '/>
		<polygon fill = 'rgb( 31, 120, 180)' fill-opacity = '0.250000' points = '71.9,659.3 73.8,658.8 75.6,658.2 77.5,657.4 79.3,656.6 81.2,655.6 83.0,654.5 84.9,653.3 86.7,651.8 88.6,650.2 90.4,648.3 92.3,646.3 94.1,643.9 96.0,641.3 97.8,638.3 99.7,635.1
101.5,631.4 103.4,627.4 105.2,623.0 107.1,618.1 108.9,612.7 110.8,606.8 112.6,600.4 114.5,593.5 116.3,585.9 118.2,577.8 120.0,569.0 121.9,559.6 123.7,549.6 125.6,538.9 127.4,527.5 129.3,515.5
131.1,502.8 133.0,489.5 134.8,475.6 136.7,461.1 138.5,446.1 140.4,430.5 142.2,414.5 144.1,398.0 145.9,381.2 147.8,364.1 149.6,346.8 151.5,329.4 153.3,311.9 155.2,294.5 157.1,277.2 158.9,260.2
160.8,243.5 162.6,227.3 164.5,211.6 166.3,196.5 168.2,182.2 170.0,168.8 171.9,156.3 173.7,144.8 175.6,134.4 177.4,125.2 179.3,117.3 181.1,110.7 183.0,105.4 184.8,101.5 186.7,99.1 188.5,98.0
190.4,98.5 192.2,100.3 194.1,103.6 195.9,108.3 197.8,114.3 199.6,121.6 201.5,130.2 203.3,139.9 205.2,150.7 207.0,162.6 208.9,175.4 210.7,189.0 212.6,203.4 214.4,218.4 216.3,233.9 218.1,249.9
220.0,266.3 221.8,282.9 223.7,299.6 225.5,316.4 227.4,333.2 229.2,349.9 231.1,366.3 232.9,382.6 234.8,398.5 236.6,414.0 238.5,429.0 240.4,443.6 242.2,457.7 244.1,471.2 245.9,484.1 247.8,496.4
249.6,508.1 251.5,519.2 253.3,529.7 255.2,539.5 257.0,548.8 258.9,557.4 260.7,565.4 262.6,572.9 264.4,579.8 266.3,586.2 268.1,592.1 270.0,597.4 271.8,602.4 273.7,606.9 275.5,611.0 277.4,614.7
279.2,618.0 281.1,621.1 282.9,623.8 284.8,626.2 286.6,628.5 288.5,630.4 290.3,632.2 292.2,633.8 294.0,635.2 295.9,636.5 297.7,637.6 299.6,638.6 301.4,639.5 303.3,640.4 305.1,641.1 307.0,641.8
308.8,642.4 310.7,643.0 312.5,643.5 314.4,644.0 316.2,644.5 318.1,645.0 319.9,645.4 321.8,645.8 323.6,646.2 325.5,646.6 327.4,647.0 329.2,647.4 331.1,647.7 332.9,648.1 334.8,648.4 336.6,648.8
338.5,649.1 340.3,649.4 342.2,649.8 344.0,650.1 345.9,650.4 347.7,650.7 349.6,651.0 351.4,651.2 353.3,651.5 355.1,651.7 357.0,652.0 358.8,652.2 360.7,652.4 362.5,652.6 364.4,652.8 366.2,653.0
368.1,653.2 369.9,653.3 371.8,653.5 373.6,653.6 375.5,653.8 377.3,653.9 379.2,654.1 381.0,654.2 382.9,654.3 384.7,654.5 386.6,654.6 388.4,654.8 390.3,654.9 392.1,655.1 394.0,655.2 395.8,655.4
397.7,655.5 399.5,655.7 401.4,655.9 403.2,656.0 405.1,656.2 406.9,656.4 408.8,656.6 410.7,656.8 412.5,657.0 414.4,657.2 416.2,657.4 418.1,657.6 419.9,657.8 421.8,658.1 423.6,658.3 425.5,658.5
427.3,658.7 429.2,658.9 431.0,659.1 432.9,659.3 434.7,659.5 436.6,659.7 438.4,659.9 440.3,660.0 442.1,660.2 444.0,660.4 445.8,660.5 447.7,660.7 449.5,660.8 451.4,660.9 453.2,661.1 455.1,661.2
456.9,661.3 458.8,661.4 460.6,661.5 462.5,661.6 464.3,661.7 466.2,661.7 468.0,661.8 469.9,661.9 471.7,661.9 473.6,662.0 475.4,662.0 477.3,662.0 479.1,662.1 481.0,662.1 482.8,662.1 484.7,662.1
486.5,662.2 488.4,662.2 490.2,662.2 492.1,662.2 494.0,662.2 495.8,662.2 497.7,662.1 499.5,662.1 501.4,662.1 503.2,662.1 505.1,662.1 506.9,662.0 508.8,662.0 510.6,661.9 512.5,661.9 514.3,661.8
516.2,661.8 518.0,661.7 519.9,661.6 521.7,661.5 523.6,661.4 525.4,661.3 527.3,661.2 529.1,661.1 531.0,661.0 532.8,660.9 534.7,660.7 536.5,660.6 538.4,660.4 540.2,660.3 542.1,660.1 543.9,659.9
545.8,659.8 547.6,659.6 549.5,659.4 551.3,659.2 553.2,659.0 555.0,658.8 556.9,658.6 558.7,658.4 560.6,658.3 562.4,658.1 564.3,657.9 566.1,657.7 568.0,657.5 569.8,657.4 571.7,657.2 573.5,657.0
575.4,656.9 577.3,656.8 579.1,656.6 581.0,656.5 582.8,656.5 584.7,656.4 586.5,656.3 588.4,656.3 590.2,656.2 592.1,656.2 593.9,656.2 595.8,656.3 597.6,656.3 599.5,656.4 601.3,656.4 603.2,656.5
605.0,656.6 606.9,656.7 608.7,656.8 610.6,657.0 612.4,657.1 614.3,657.3 616.1,657.5 618.0,657.6 619.8,657.8 621.7,658.0 623.5,658.2 625.4,658.4 627.2,658.6 629.1,658.8 630.9,659.0 632.8,659.1
634.6,659.3 636.5,659.5 638.3,659.7 640.2,659.9 642.0,660.1 643.9,660.2 645.7,660.4 647.6,660.5 649.4,660.7 651.3,660.8 653.1,660.9 655.0,661.1 656.8,661.2 658.7,661.3 660.6,661.4 662.4,661.5
664.3,661.6 666.1,661.7 668.0,661.7 669.8,661.8 671.7,661.9 673.5,661.9 675.4,662.0 677.2,662.0 679.1,662.1 680.9,662.1 682.8,662.1 684.6,662.2 686.5,662.2 688.3,662.2 690.2,662.3 692.0,662.3
693.9,662.3 695.7,662.3 697.6,662.3 699.4,662.3 701.3,662.3 703.1,662.3 705.0,662.4 706.8,662.4 708.7,662.4 710.5,662.4 712.4,662.4 714.2,662.4 716.1,662.4 717.9,662.4 719.8,662.4 721.6,662.4
723.5,662.4 725.3,662.4 727.2,662.4 729.0,662.4 730.9,662.4 732.7,662.4 734.6,662.4 736.4,662.4 738.3,662.4 740.1,662.4 742.0,662.4 743.9,662.4 745.7,662.4 747.6,662.4 749.4,662.4 751.3,662.4
753.1,662.4 755.0,662.4 756.8,662.4 758.7,662.4 760.5,662.4 762.4,662.4 764.2,662.4 766.1,662.4 767.9,662.4 769.8,662.4 771.6,662.4 773.5,662.4 775.3,662.4 777.2,662.4 779.0,662.3 780.9,662.3
782.7,662.3 784.6,662.3 786.4,662.3 788.3,662.3 790.1,662.3 792.0,662.2 793.8,662.2 795.7,662.2 797.5,662.2 799.4,662.1 801.2,662.1 803.1,662.0 804.9,662.0 806.8,661.9 808.6,661.9 810.5,661.8
812.3,661.8 814.2,661.7 816.0,661.6 817.9,661.5 819.7,661.4 821.6,661.3 823.4,661.2 825.3,661.1 827.1,661.0 829.0,660.9 830.9,660.7 832.7,660.6 834.6,660.4 836.4,660.3 838.3,660.1 840.1,659.9
842.0,659.8 843.8,659.6 845.7,659.4 847.5,659.2 849.4,659.0 851.2,658.8 853.1,658.6 854.9,658.4 856.8,658.2 858.6,658.1 860.5,657.9 862.3,657.7 864.2,657.5 866.0,657.3 867.9,657.2 869.7,657.0
871.6,656.9 873.4,656.8 875.3,656.6 877.1,656.5 879.0,656.4 880.8,656.4 882.7,656.3 884.5,656.3 886.4,656.2 888.2,656.2 890.1,656.2 891.9,656.3 893.8,656.3 895.6,656.4 897.5,656.4 899.3,656.5
901.2,656.6 903.0,656.7 904.9,656.9 906.7,657.0 908.6,657.1 910.4,657.3 912.3,657.5 914.2,657.6 916.0,657.8 917.9,658.0 919.7,658.2 921.6,658.4 923.4,658.6 925.3,658.8 927.1,659.0 929.0,659.2
930.8,659.3 932.7,659.5 934.5,659.7 936.4,659.9 938.2,660.1 940.1,660.2 941.9,660.4 943.8,660.5 945.6,660.7 947.5,660.8 949.3,661.0 951.2,661.1 953.0,661.2 954.9,661.3 956.7,661.4 958.6,661.5
960.4,661.6 962.3,661.7 964.1,661.7 966.0,661.8 967.8,661.9 969.7,661.9 971.5,662.0 973.4,662.0 975.2,662.1 977.1,662.1 978.9,662.2 980.8,662.2 982.6,662.2 984.5,662.2 986.3,662.3 988.2,662.3
990.0,662.3 991.9,662.3 993.7,662.3 995.6,662.3 995.6,662.4 993.7,662.4 991.9,662.4 990.0,662.4 988.2,662.4 986.3,662.4 984.5,662.4 982.6,662.4 980.8,662.4 978.9,662.4 977.1,662.4 975.2,662.4
973.4,662.4 971.5,662.4 969.7,662.4 967.8,662.4 966.0,662.4 964.1,662.4 962.3,662.4 960.4,662.4 958.6,662.4 956.7,662.4 954.9,662.4 953.0,662.4 951.2,662.4 949.3,662.4 947.5,662.4 945.6,662.4
943.8,662.4 941.9,662.4 940.1,662.4 938.2,662.4 936.4,662.4 934.5,662.4 932.7,662.4 930.8,662.4 929.0,662.4 927.1,662.4 925.3,662.4 923.4,662.4 921.6,662.4 919.7,662.4 917.9,662.4 916.0,662.4
914.2,662.4 912.3,662.4 910.4,662.4 908.6,662.4 906.7,662.4 904.9,662.4 903.0,662.4 901.2,662.4 899.3,662.4 897.5,662.4 895.6,662.4 893.8,662.4 891.9,662.4 890.1,662.4 888.2,662.4 886.4,662.4
884.5,662.4 882.7,662.4 880.8,662.4 879.0,662.4 877.1,662.4 875.3,662.4 873.4,662.4 871.6,662.4 869.7,662.4 867.9,662.4 866.0,662.4 864.2,662.4 862.3,662.4 860.5,662.4 858.6,662.4 856.8,662.4
854.9,662.4 853.1,662.4 851.2,662.4 849.4,662.4 847.5,662.4 845.7,662.4 843.8,662.4 842.0,662.4 840.1,662.4 838.3,662.4 836.4,662.4 834.6,662.4 832.7,662.4 830.9,662.4 829.0,662.4 827.1,662.4
825.3,662.4 823.4,662.4 821.6,662.4 819.7,662.4 817.9,662.4 816.0,662.4 814.2,662.4 812.3,662.4 810.5,662.4 808.6,662.4 806.8,662.4 804.9,662.4 803.1,662.4 801.2,662.4 799.4,662.4 797.5,662.4
795.7,662.4 793.8,662.4 792.0,662.4 790.1,662.4 788.3,662.4 786.4,662.4 784.6,662.4 782.7,662.4 780.9,662.4 779.0,662.4 777.2,662.4 775.3,662.4 773.5,662.4 771.6,662.4 769.8,662.4 767.9,662.4
766.1,662.4 764.2,662.4 762.4,662.4 760.5,662.4 758.7,662.4 756.8,662.4 755.0,662.4 753.1,662.4 751.3,662.4 749.4,662.4 747.6,662.4 745.7,662.4 743.9,662.4 742.0,662.4 740.1,662.4 738.3,662.4
736.4,662.4 734.6,662.4 732.7,662.4 730.9,662.4 729.0,662.4 727.2,662.4 725.3,662.4 723.5,662.4 721.6,662.4 719.8,662.4 717.9,662.4 716.1,662.4 714.2,662.4 712.4,662.4 710.5,662.4 708.7,662.4
706.8,662.4 705.0,662.4 703.1,662.4 701.3,662.4 699.4,662.4 697.6,662.4 695.7,662.4 693.9,662.4 692.0,662.4 690.2,662.4 688.3,662.4 686.5,662.4 684.6,662.4 682.8,662.4 680.9,662.4 679.1,662.4
677.2,662.4 675.4,662.4 673.5,662.4 671.7,662.4 669.8,662.4 668.0,662.4 666.1,662.4 664.3,662.4 662.4,662.4 660.6,662.4 658.7,662.4 656.8,662.4 655.0,662.4 653.1,662.4 651.3,662.4 649.4,662.4
647.6,662.4 645.7,662.4 643.9,662.4 642.0,662.4 640.2,662.4 638.3,662.4 636.5,662.4 634.6,662.4 632.8,662.4 630.9,662.4 629.1,662.4 627.2,662.4 625.4,662.4 623.5,662.4 621.7,662.4 619.8,662.4
618.0,662.4 616.1,662.4 614.3,662.4 612.4,662.4 610.6,662.4 608.7,662.4 606.9,662.4 605.0,662.4 603.2,662.4 601.3,662.4 599.5,662.4 597.6,662.4 595.8,662.4 593.9,662.4 592.1,662.4 590.2,662.4
588.4,662.4 586.5,662.4 584.7,662.4 582.8,662.4 581.0,662.4 579.1,662.4 577.3,662.4 575.4,662.4 573.5,662.4 571.7,662.4 569.8,662.4 568.0,662.4 566.1,662.4 564.3,662.4 562.4,662.4 560.6,662.4
558.7,662.4 556.9,662.4 555.0,662.4 553.2,662.4 551.3,662.4 549.5,662.4 547.6,662.4 545.8,662.4 543.9,662.4 542.1,662.4 540.2,662.4 538.4,662.4 536.5,662.4 534.7,662.4 532.8,662.4 531.0,662.4
529.1,662.4 527.3,662.4 525.4,662.4 523.6,662.4 521.7,662.4 519.9,662.4 518.0,662.4 516.2,662.4 514.3,662.4 512.5,662.4 510.6,662.4 508.8,662.4 506.9,662.4 505.1,662.4 503.2,662.4 501.4,662.4
499.5,662.4 497.7,662.4 495.8,662.4 494.0,662.4 492.1,662.4 490.2,662.4 488.4,662.4 486.5,662.4 484.7,662.4 482.8,662.4 481.0,662.4 479.1,662.4 477.3,662.4 475.4,662.4 473.6,662.4 471.7,662.4
469.9,662.4 468.0,662.4 466.2,662.4 464.3,662.4 462.5,662.4 460.6,662.4 458.8,662.4 456.9,662.4 455.1,662.4 453.2,662.4 451.4,662.4 449.5,662.4 447.7,662.4 445.8,662.4 444.0,662.4 442.1,662.4
440.3,662.4 438.4,662.4 436.6,662.4 434.7,662.4 432.9,662.4 431.0,662.4 429.2,662.4 427.3,662.4 425.5,662.4 423.6,662.4 421.8,662.4 419.9,662.4 418.1,662.4 416.2,662.4 414.4,662.4 412.5,662.4
410.7,662.4 408.8,662.4 406.9,662.4 405.1,662.4 403.2,662.4 401.4,662.4 399.5,662.4 397.7,662.4 395.8,662.4 394.0,662.4 392.1,662.4 390.3,662.4 388.4,662.4 386.6,662.4 384.7,662.4 382.9,662.4
381.0,662.4 379.2,662.4 377.3,662.4 375.5,662.4 373.6,662.4 371.8,662.4 369.9,662.4 368.1,662.4 366.2,662.4 364.4,662.4 362.5,662.4 360.7,662.4 358.8,662.4 357.0,662.4 355.1,662.4 353.3,662.4
351.4,662.4 349.6,662.4 347.7,662.4 345.9,662.4 344.0,662.4 342.2,662.4 340.3,662.4 338.5,662.4 336.6,662.4 334.8,662.4 332.9,662.4 331.1,662.4 329.2,662.4 327.4,662.4 325.5,662.4 323.6,662.4
321.8,662.4 319.9,662.4 318.1,662.4 316.2,662.4 314.4,662.4 312.5,662.4 310.7,662.4 308.8,662.4 307.0,662.4 305.1,662.4 303.3,662.4 301.4,662.4 299.6,662.4 297.7,662.4 295.9,662.4 294.0,662.4
292.2,662.4 290.3,662.4 288.5,662.4 286.6,662.4 284.8,662.4 282.9,662.4 281.1,662.4 279.2,662.4 277.4,662.4 275.5,662.4 273.7,662.4 271.8,662.4 270.0,662.4 268.1,662.4 266.3,662.4 264.4,662.4
262.6,662.4 260.7,662.4 258.9,662.4 257.0,662.4 255.2,662.4 253.3,662.4 251.5,662.4 249.6,662.4 247.8,662.4 245.9,662.4 244.1,662.4 242.2,662.4 240.4,662.4 238.5,662.4 236.6,662.4 234.8,662.4
232.9,662.4 231.1,662.4 229.2,662.4 227.4,662.4 225.5,662.4 223.7,662.4 221.8,662.4 220.0,662.4 218.1,662.4 216.3,662.4 214.4,662.4 212.6,662.4 210.7,662.4 208.9,662.4 207.0,662.4 205.2,662.4
203.3,662.4 201.5,662.4 199.6,662.4 197.8,662.4 195.9,662.4 194.1,662.4 192.2,662.4 190.4,662.4 188.5,662.4 186.7,662.4 184.8,662.4 183.0,662.4 181.1,662.4 179.3,662.4 177.4,662.4 175.6,662.4
173.7,662.4 171.9,662.4 170.0,662.4 168.2,662.4 166.3,662.4 164.5,662.4 162.6,662.4 160.8,662.4 158.9,662.4 157.1,662.4 155.2,662.4 153.3,662.4 151.5,662.4 149.6,662.4 147.8,662.4 145.9,662.4
144.1,662.4 142.2,662.4 140.4,662.4 138.5,662.4 136.7,662.4 134.8,662.4 133.0,662.4 131.1,662.4 129.3,662.4 127.4,662.4 125.6,662.4 123.7,662.4 121.9,662.4 120.0,662.4 118.2,662.4 116.3,662.4
114.5,662.4 112.6,662.4 110.8,662.4 108.9,662.4 107.1,662.4 105.2,662.4 103.4,662.4 101.5,662.4 99.7,662.4 97.8,662.4 96.0,662.4 94.1,662.4 92.3,662.4 90.4,662.4 88.6,662.4 86.7,662.4
84.9,662.4 83.0,662.4 81.2,662.4 79.3,662.4 77.5,662.4 75.6,662.4 73.8,662.4 71.9,662.4 '/>
	</g>
</g>
	</g>
	<g id="gnuplot_plot_2" ><title>Mean</title>
<g fill="none" color="white" stroke="rgb( 31, 120, 180)" stroke-width="2.00" stroke-linecap="butt" stroke-linejoin="miter">
</g>
<g fill="none" color="black" stroke="currentColor" stroke-width="2.00" stroke-linecap="butt" stroke-linejoin="miter">
	<g transform="translate(1147.1,85.0)" stroke="none" fill="black" font-family="Helvetica" font-size="12.00"  text-anchor="start">
		<text><tspan font-family="Helvetica" >Mean</tspan></text>
	</g>
</g>
<g fill="none" color="black" stroke="currentColor" stroke-width="2.00" stroke-linecap="butt" stroke-linejoin="miter">
	<path stroke='rgb( 31, 120, 180)'  d='M1096.6,81.1 L1138.8,81.1 M205.9,662.4 L205.9,54.1  '/></g>
	</g>
	<g id="gnuplot_plot_3" ><title>"Clean" sample</title>
<g fill="none" color="white" stroke="rgb( 31, 120, 180)" stroke-width="1.00" stroke-linecap="butt" stroke-linejoin="miter">
</g>
<g fill="none" color="black" stroke="currentColor" stroke-width="1.00" stroke-linecap="butt" stroke-linejoin="miter">
	<g transform="translate(1147.1,103.0)" stroke="none" fill="black" font-family="Helvetica" font-size="12.00"  text-anchor="start">
		<text><tspan font-family="Helvetica" >"Clean" sample</tspan></text>
	</g>
</g>
<g fill="none" color="black" stroke="currentColor" stroke-width="1.00" stroke-linecap="butt" stroke-linejoin="miter">
	<use xlink:href='#gpPt6' transform='translate(189.4,644.2) scale(3.38)' color='rgb( 31, 120, 180)'/>
	<use xlink:href='#gpPt6' transform='translate(189.0,638.1) scale(3.38)' color='rgb( 31, 120, 180)'/>
	<use xlink:href='#gpPt6' transform='translate(193.6,625.9) scale(3.38)' color='rgb( 31, 120, 180)'/>
	<use xlink:href='#gpPt6' transform='translate(183.7,595.5) scale(3.38)' color='rgb( 31, 120, 180)'/>
	<use xlink:href='#gpPt6' transform='translate(186.4,589.4) scale(3.38)' color='rgb( 31, 120, 180)'/>
	<use xlink:href='#gpPt6' transform='translate(182.6,583.3) scale(3.38)' color='rgb( 31, 120, 180)'/>
	<use xlink:href='#gpPt6' transform='translate(187.7,577.2) scale(3.38)' color='rgb( 31, 120, 180)'/>
	<use xlink:href='#gpPt6' transform='translate(184.6,565.1) scale(3.38)' color='rgb( 31, 120, 180)'/>
	<use xlink:href='#gpPt6' transform='translate(179.0,559.0) scale(3.38)' color='rgb( 31, 120, 180)'/>
	<use xlink:href='#gpPt6' transform='translate(180.6,552.9) scale(3.38)' color='rgb( 31, 120, 180)'/>
	<use xlink:href='#gpPt6' transform='translate(183.4,546.8) scale(3.38)' color='rgb( 31, 120, 180)'/>
	<use xlink:href='#gpPt6' transform='translate(184.1,540.7) scale(3.38)' color='rgb( 31, 120, 180)'/>
	<use xlink:href='#gpPt6' transform='translate(187.9,534.7) scale(3.38)' color='rgb( 31, 120, 180)'/>
	<use xlink:href='#gpPt6' transform='translate(185.5,528.6) scale(3.38)' color='rgb( 31, 120, 180)'/>
	<use xlink:href='#gpPt6' transform='translate(181.7,522.5) scale(3.38)' color='rgb( 31, 120, 180)'/>
	<use xlink:href='#gpPt6' transform='translate(179.0,516.4) scale(3.38)' color='rgb( 31, 120, 180)'/>
	<use xlink:href='#gpPt6' transform='translate(181.0,510.3) scale(3.38)' color='rgb( 31, 120, 180)'/>
	<use xlink:href='#gpPt6' transform='translate(188.0,504.2) scale(3.38)' color='rgb( 31, 120, 180)'/>
	<use xlink:href='#gpPt6' transform='translate(189.1,498.2) scale(3.38)' color='rgb( 31, 120, 180)'/>
	<use xlink:href='#gpPt6' transform='translate(191.4,492.1) scale(3.38)' color='rgb( 31, 120, 180)'/>
	<use xlink:href='#gpPt6' transform='translate(189.5,486.0) scale(3.38)' color='rgb( 31, 120, 180)'/>
	<use xlink:href='#gpPt6' transform='translate(182.5,479.9) scale(3.38)' color='rgb( 31, 120, 180)'/>
	<use xlink:href='#gpPt6' transform='translate(182.4,473.8) scale(3.38)' color='rgb( 31, 120, 180)'/>
	<use xlink:href='#gpPt6' transform='translate(184.5,467.7) scale(3.38)' color='rgb( 31, 120, 180)'/>
	<use xlink:href='#gpPt6' transform='translate(193.1,461.7) scale(3.38)' color='rgb( 31, 120, 180)'/>
	<use xlink:href='#gpPt6' transform='translate(186.1,455.6) scale(3.38)' color='rgb( 31, 120, 180)'/>
	<use xlink:href='#gpPt6' transform='translate(186.3,449.5) scale(3.38)' color='rgb( 31, 120, 180)'/>
	<use xlink:href='#gpPt6' transform='translate(188.3,443.4) scale(3.38)' color='rgb( 31, 120, 180)'/>
	<use xlink:href='#gpPt6' transform='translate(186.5,437.3) scale(3.38)' color='rgb( 31, 120, 180)'/>
	<use xlink:href='#gpPt6' transform='translate(187.5,431.2) scale(3.38)' color='rgb( 31, 120, 180)'/>
	<use xlink:href='#gpPt6' transform='translate(191.9,425.2) scale(3.38)' color='rgb( 31, 120, 180)'/>
	<use xlink:href='#gpPt6' transform='translate(192.0,419.1) scale(3.38)' color='rgb( 31, 120, 180)'/>
	<use xlink:href='#gpPt6' transform='translate(195.3,413.0) scale(3.38)' color='rgb( 31, 120, 180)'/>
	<use xlink:href='#gpPt6' transform='translate(189.4,406.9) scale(3.38)' color='rgb( 31, 120, 180)'/>
	<use xlink:href='#gpPt6' transform='translate(189.6,400.8) scale(3.38)' color='rgb( 31, 120, 180)'/>
	<use xlink:href='#gpPt6' transform='translate(189.4,394.7) scale(3.38)' color='rgb( 31, 120, 180)'/>
	<use xlink:href='#gpPt6' transform='translate(185.5,388.7) scale(3.38)' color='rgb( 31, 120, 180)'/>
	<use xlink:href='#gpPt6' transform='translate(193.0,382.6) scale(3.38)' color='rgb( 31, 120, 180)'/>
	<use xlink:href='#gpPt6' transform='translate(182.6,376.5) scale(3.38)' color='rgb( 31, 120, 180)'/>
	<use xlink:href='#gpPt6' transform='translate(186.2,370.4) scale(3.38)' color='rgb( 31, 120, 180)'/>
	<use xlink:href='#gpPt6' transform='translate(182.4,364.3) scale(3.38)' color='rgb( 31, 120, 180)'/>
	<use xlink:href='#gpPt6' transform='translate(186.8,358.2) scale(3.38)' color='rgb( 31, 120, 180)'/>
	<use xlink:href='#gpPt6' transform='translate(182.2,352.2) scale(3.38)' color='rgb( 31, 120, 180)'/>
	<use xlink:href='#gpPt6' transform='translate(185.3,346.1) scale(3.38)' color='rgb( 31, 120, 180)'/>
	<use xlink:href='#gpPt6' transform='translate(182.9,340.0) scale(3.38)' color='rgb( 31, 120, 180)'/>
	<use xlink:href='#gpPt6' transform='translate(189.8,333.9) scale(3.38)' color='rgb( 31, 120, 180)'/>
	<use xlink:href='#gpPt6' transform='translate(187.3,327.8) scale(3.38)' color='rgb( 31, 120, 180)'/>
	<use xlink:href='#gpPt6' transform='translate(195.3,321.8) scale(3.38)' color='rgb( 31, 120, 180)'/>
	<use xlink:href='#gpPt6' transform='translate(188.0,315.7) scale(3.38)' color='rgb( 31, 120, 180)'/>
	<use xlink:href='#gpPt6' transform='translate(190.8,309.6) scale(3.38)' color='rgb( 31, 120, 180)'/>
	<use xlink:href='#gpPt6' transform='translate(190.7,303.5) scale(3.38)' color='rgb( 31, 120, 180)'/>
	<use xlink:href='#gpPt6' transform='translate(181.7,297.4) scale(3.38)' color='rgb( 31, 120, 180)'/>
	<use xlink:href='#gpPt6' transform='translate(185.7,291.3) scale(3.38)' color='rgb( 31, 120, 180)'/>
	<use xlink:href='#gpPt6' transform='translate(183.4,285.3) scale(3.38)' color='rgb( 31, 120, 180)'/>
	<use xlink:href='#gpPt6' transform='translate(185.7,279.2) scale(3.38)' color='rgb( 31, 120, 180)'/>
	<use xlink:href='#gpPt6' transform='translate(188.4,273.1) scale(3.38)' color='rgb( 31, 120, 180)'/>
	<use xlink:href='#gpPt6' transform='translate(185.6,267.0) scale(3.38)' color='rgb( 31, 120, 180)'/>
	<use xlink:href='#gpPt6' transform='translate(189.1,260.9) scale(3.38)' color='rgb( 31, 120, 180)'/>
	<use xlink:href='#gpPt6' transform='translate(188.1,254.8) scale(3.38)' color='rgb( 31, 120, 180)'/>
	<use xlink:href='#gpPt6' transform='translate(187.9,248.8) scale(3.38)' color='rgb( 31, 120, 180)'/>
	<use xlink:href='#gpPt6' transform='translate(187.8,242.7) scale(3.38)' color='rgb( 31, 120, 180)'/>
	<use xlink:href='#gpPt6' transform='translate(184.9,236.6) scale(3.38)' color='rgb( 31, 120, 180)'/>
	<use xlink:href='#gpPt6' transform='translate(188.2,230.5) scale(3.38)' color='rgb( 31, 120, 180)'/>
	<use xlink:href='#gpPt6' transform='translate(188.0,224.4) scale(3.38)' color='rgb( 31, 120, 180)'/>
	<use xlink:href='#gpPt6' transform='translate(187.2,218.3) scale(3.38)' color='rgb( 31, 120, 180)'/>
	<use xlink:href='#gpPt6' transform='translate(187.9,212.3) scale(3.38)' color='rgb( 31, 120, 180)'/>
	<use xlink:href='#gpPt6' transform='translate(188.8,206.2) scale(3.38)' color='rgb( 31, 120, 180)'/>
	<use xlink:href='#gpPt6' transform='translate(191.4,187.9) scale(3.38)' color='rgb( 31, 120, 180)'/>
	<use xlink:href='#gpPt6' transform='translate(190.6,181.8) scale(3.38)' color='rgb( 31, 120, 180)'/>
	<use xlink:href='#gpPt6' transform='translate(185.9,175.8) scale(3.38)' color='rgb( 31, 120, 180)'/>
	<use xlink:href='#gpPt6' transform='translate(186.0,163.6) scale(3.38)' color='rgb( 31, 120, 180)'/>
	<use xlink:href='#gpPt6' transform='translate(187.3,157.5) scale(3.38)' color='rgb( 31, 120, 180)'/>
	<use xlink:href='#gpPt6' transform='translate(188.8,151.4) scale(3.38)' color='rgb( 31, 120, 180)'/>
	<use xlink:href='#gpPt6' transform='translate(194.7,145.3) scale(3.38)' color='rgb( 31, 120, 180)'/>
	<use xlink:href='#gpPt6' transform='translate(190.8,139.3) scale(3.38)' color='rgb( 31, 120, 180)'/>
	<use xlink:href='#gpPt6' transform='translate(188.3,133.2) scale(3.38)' color='rgb( 31, 120, 180)'/>
	<use xlink:href='#gpPt6' transform='translate(184.9,127.1) scale(3.38)' color='rgb( 31, 120, 180)'/>
	<use xlink:href='#gpPt6' transform='translate(187.4,108.8) scale(3.38)' color='rgb( 31, 120, 180)'/>
	<use xlink:href='#gpPt6' transform='translate(191.2,102.8) scale(3.38)' color='rgb( 31, 120, 180)'/>
	<use xlink:href='#gpPt6' transform='translate(190.0,96.7) scale(3.38)' color='rgb( 31, 120, 180)'/>
	<use xlink:href='#gpPt6' transform='translate(187.3,90.6) scale(3.38)' color='rgb( 31, 120, 180)'/>
	<use xlink:href='#gpPt6' transform='translate(188.5,84.5) scale(3.38)' color='rgb( 31, 120, 180)'/>
	<use xlink:href='#gpPt6' transform='translate(186.9,78.4) scale(3.38)' color='rgb( 31, 120, 180)'/>
	<use xlink:href='#gpPt6' transform='translate(188.2,72.3) scale(3.38)' color='rgb( 31, 120, 180)'/>
	<use xlink:href='#gpPt6' transform='translate(187.6,66.3) scale(3.38)' color='rgb( 31, 120, 180)'/>
	<use xlink:href='#gpPt6' transform='translate(184.5,60.2) scale(3.38)' color='rgb( 31, 120, 180)'/>
	<use xlink:href='#gpPt6' transform='translate(1117.7,99.1) scale(3.38)' color='rgb( 31, 120, 180)'/>
</g>
	</g>
	<g id="gnuplot_plot_4" ><title>Mild outliers</title>
<g fill="none" color="black" stroke="currentColor" stroke-width="1.00" stroke-linecap="butt" stroke-linejoin="miter">
	<g transform="translate(1147.1,121.0)" stroke="none" fill="black" font-family="Helvetica" font-size="12.00"  text-anchor="start">
		<text><tspan font-family="Helvetica" >Mild outliers</tspan></text>
	</g>
</g>
<g fill="none" color="black" stroke="currentColor" stroke-width="1.00" stroke-linecap="butt" stroke-linejoin="miter">
	<use xlink:href='#gpPt6' transform='translate(204.5,650.2) scale(3.38)' color='rgb(255, 127,   0)'/>
	<use xlink:href='#gpPt6' transform='translate(204.7,194.0) scale(3.38)' color='rgb(255, 127,   0)'/>
	<use xlink:href='#gpPt6' transform='translate(201.9,54.1) scale(3.38)' color='rgb(255, 127,   0)'/>
	<use xlink:href='#gpPt6' transform='translate(1117.7,117.1) scale(3.38)' color='rgb(255, 127,   0)'/>
</g>
	</g>
	<g id="gnuplot_plot_5" ><title>Severe outliers</title>
<g fill="none" color="black" stroke="currentColor" stroke-width="1.00" stroke-linecap="butt" stroke-linejoin="miter">
	<g transform="translate(1147.1,139.0)" stroke="none" fill="black" font-family="Helvetica" font-size="12.00"  text-anchor="start">
		<text><tspan font-family="Helvetica" >Severe outliers</tspan></text>
	</g>
</g>
<g fill="none" color="black" stroke="currentColor" stroke-width="1.00" stroke-linecap="butt" stroke-linejoin="miter">
	<use xlink:href='#gpPt6' transform='translate(390.5,656.3) scale(3.38)' color='rgb(227,  26,  28)'/>
	<use xlink:href='#gpPt6' transform='translate(237.5,632.0) scale(3.38)' color='rgb(227,  26,  28)'/>
	<use xlink:href='#gpPt6' transform='translate(592.4,619.8) scale(3.38)' color='rgb(227,  26,  28)'/>
	<use xlink:href='#gpPt6' transform='translate(888.5,613.7) scale(3.38)' color='rgb(227,  26,  28)'/>
	<use xlink:href='#gpPt6' transform='translate(317.3,607.7) scale(3.38)' color='rgb(227,  26,  28)'/>
	<use xlink:href='#gpPt6' transform='translate(223.9,601.6) scale(3.38)' color='rgb(227,  26,  28)'/>
	<use xlink:href='#gpPt6' transform='translate(229.7,571.2) scale(3.38)' color='rgb(227,  26,  28)'/>
	<use xlink:href='#gpPt6' transform='translate(209.0,200.1) scale(3.38)' color='rgb(227,  26,  28)'/>
	<use xlink:href='#gpPt6' transform='translate(270.6,169.7) scale(3.38)' color='rgb(227,  26,  28)'/>
	<use xlink:href='#gpPt6' transform='translate(311.7,121.0) scale(3.38)' color='rgb(227,  26,  28)'/>
	<use xlink:href='#gpPt6' transform='translate(208.5,114.9) scale(3.38)' color='rgb(227,  26,  28)'/>
	<use xlink:href='#gpPt6' transform='translate(1117.7,135.1) scale(3.38)' color='rgb(227,  26,  28)'/>
</g>
	</g>
	<g id="gnuplot_plot_6" ><title>gnuplot_plot_6</title>
<g fill="none" color="white" stroke="rgb(227,  26,  28)" stroke-width="2.00" stroke-linecap="butt" stroke-linejoin="miter">
</g>
<g fill="none" color="black" stroke="currentColor" stroke-width="2.00" stroke-linecap="butt" stroke-linejoin="miter">
	<path stroke='rgb(255, 127,   0)'  d='M177.7,662.4 L177.7,54.1  '/></g>
	</g>
	<g id="gnuplot_plot_7" ><title>gnuplot_plot_7</title>
<g fill="none" color="black" stroke="currentColor" stroke-width="2.00" stroke-linecap="butt" stroke-linejoin="miter">
	<path stroke='rgb(255, 127,   0)'  d='M198.8,662.4 L198.8,54.1  '/></g>
	</g>
	<g id="gnuplot_plot_8" ><title>gnuplot_plot_8</title>
<g fill="none" color="black" stroke="currentColor" stroke-width="2.00" stroke-linecap="butt" stroke-linejoin="miter">
	<path stroke='rgb(227,  26,  28)'  d='M169.8,662.4 L169.8,54.1  '/></g>
	</g>
	<g id="gnuplot_plot_9" ><title>gnuplot_plot_9</title>
<g fill="none" color="black" stroke="currentColor" stroke-width="2.00" stroke-linecap="butt" stroke-linejoin="miter">
	<path stroke='rgb(227,  26,  28)'  d='M206.8,662.4 L206.8,54.1  '/></g>
	</g>
<g fill="none" color="black" stroke="currentColor" stroke-width="2.00" stroke-linecap="butt" stroke-linejoin="miter">
</g>
<g fill="none" color="black" stroke="black" stroke-width="1.00" stroke-linecap="butt" stroke-linejoin="miter">
</g>
<g fill="none" color="black" stroke="currentColor" stroke-width="1.00" stroke-linecap="butt" stroke-linejoin="miter">
	<path stroke='black'  d='M71.9,54.1 L71.9,662.4 L995.6,662.4 L995.6,54.1 L71.9,54.1 Z  '/></g>
<g fill="none" color="black" stroke="currentColor" stroke-width="1.00" stroke-linecap="butt" stroke-linejoin="miter">
</g>
</g>
</svg>

