<?xml version="1.0" encoding="utf-8"  standalone="no"?>
<svg 
 viewBox="0 0 450 300"
 xmlns="http://www.w3.org/2000/svg"
 xmlns:xlink="http://www.w3.org/1999/xlink"
>

<title>Gnuplot</title>
<desc>Produced by GNUPLOT 5.2 patchlevel 6 </desc>

<g id="gnuplot_canvas">

<rect x="0" y="0" width="450" height="300" fill="none"/>
<defs>

	<circle id='gpDot' r='0.5' stroke-width='0.5' stroke='currentColor'/>
	<path id='gpPt0' stroke-width='0.222' stroke='currentColor' d='M-1,0 h2 M0,-1 v2'/>
	<path id='gpPt1' stroke-width='0.222' stroke='currentColor' d='M-1,-1 L1,1 M1,-1 L-1,1'/>
	<path id='gpPt2' stroke-width='0.222' stroke='currentColor' d='M-1,0 L1,0 M0,-1 L0,1 M-1,-1 L1,1 M-1,1 L1,-1'/>
	<rect id='gpPt3' stroke-width='0.222' stroke='currentColor' x='-1' y='-1' width='2' height='2'/>
	<rect id='gpPt4' stroke-width='0.222' stroke='currentColor' fill='currentColor' x='-1' y='-1' width='2' height='2'/>
	<circle id='gpPt5' stroke-width='0.222' stroke='currentColor' cx='0' cy='0' r='1'/>
	<use xlink:href='#gpPt5' id='gpPt6' fill='currentColor' stroke='none'/>
	<path id='gpPt7' stroke-width='0.222' stroke='currentColor' d='M0,-1.33 L-1.33,0.67 L1.33,0.67 z'/>
	<use xlink:href='#gpPt7' id='gpPt8' fill='currentColor' stroke='none'/>
	<use xlink:href='#gpPt7' id='gpPt9' stroke='currentColor' transform='rotate(180)'/>
	<use xlink:href='#gpPt9' id='gpPt10' fill='currentColor' stroke='none'/>
	<use xlink:href='#gpPt3' id='gpPt11' stroke='currentColor' transform='rotate(45)'/>
	<use xlink:href='#gpPt11' id='gpPt12' fill='currentColor' stroke='none'/>
	<path id='gpPt13' stroke-width='0.222' stroke='currentColor' d='M0,1.330 L1.265,0.411 L0.782,-1.067 L-0.782,-1.076 L-1.265,0.411 z'/>
	<use xlink:href='#gpPt13' id='gpPt14' fill='currentColor' stroke='none'/>
	<filter id='textbox' filterUnits='objectBoundingBox' x='0' y='0' height='1' width='1'>
	  <feFlood flood-color='white' flood-opacity='1' result='bgnd'/>
	  <feComposite in='SourceGraphic' in2='bgnd' operator='atop'/>
	</filter>
	<filter id='greybox' filterUnits='objectBoundingBox' x='0' y='0' height='1' width='1'>
	  <feFlood flood-color='lightgrey' flood-opacity='1' result='grey'/>
	  <feComposite in='SourceGraphic' in2='grey' operator='atop'/>
	</filter>
</defs>
<g fill="none" color="white" stroke="currentColor" stroke-width="1.00" stroke-linecap="butt" stroke-linejoin="miter">
</g>
<g fill="none" color="black" stroke="currentColor" stroke-width="1.00" stroke-linecap="butt" stroke-linejoin="miter">
	<path stroke='black'  d='M80.2,242.4 L89.2,242.4  '/>	<g transform="translate(71.9,246.3)" stroke="none" fill="black" font-family="Helvetica" font-size="12.00"  text-anchor="end">
		<text><tspan font-family="Helvetica" > 0</tspan></text>
	</g>
</g>
<g fill="none" color="black" stroke="currentColor" stroke-width="1.00" stroke-linecap="butt" stroke-linejoin="miter">
	<path stroke='black'  d='M80.2,218.0 L89.2,218.0  '/>	<g transform="translate(71.9,221.9)" stroke="none" fill="black" font-family="Helvetica" font-size="12.00"  text-anchor="end">
		<text><tspan font-family="Helvetica" > 0.05</tspan></text>
	</g>
</g>
<g fill="none" color="black" stroke="currentColor" stroke-width="1.00" stroke-linecap="butt" stroke-linejoin="miter">
	<path stroke='black'  d='M80.2,193.6 L89.2,193.6  '/>	<g transform="translate(71.9,197.5)" stroke="none" fill="black" font-family="Helvetica" font-size="12.00"  text-anchor="end">
		<text><tspan font-family="Helvetica" > 0.1</tspan></text>
	</g>
</g>
<g fill="none" color="black" stroke="currentColor" stroke-width="1.00" stroke-linecap="butt" stroke-linejoin="miter">
	<path stroke='black'  d='M80.2,169.1 L89.2,169.1  '/>	<g transform="translate(71.9,173.0)" stroke="none" fill="black" font-family="Helvetica" font-size="12.00"  text-anchor="end">
		<text><tspan font-family="Helvetica" > 0.15</tspan></text>
	</g>
</g>
<g fill="none" color="black" stroke="currentColor" stroke-width="1.00" stroke-linecap="butt" stroke-linejoin="miter">
	<path stroke='black'  d='M80.2,144.7 L89.2,144.7  '/>	<g transform="translate(71.9,148.6)" stroke="none" fill="black" font-family="Helvetica" font-size="12.00"  text-anchor="end">
		<text><tspan font-family="Helvetica" > 0.2</tspan></text>
	</g>
</g>
<g fill="none" color="black" stroke="currentColor" stroke-width="1.00" stroke-linecap="butt" stroke-linejoin="miter">
	<path stroke='black'  d='M80.2,120.3 L89.2,120.3  '/>	<g transform="translate(71.9,124.2)" stroke="none" fill="black" font-family="Helvetica" font-size="12.00"  text-anchor="end">
		<text><tspan font-family="Helvetica" > 0.25</tspan></text>
	</g>
</g>
<g fill="none" color="black" stroke="currentColor" stroke-width="1.00" stroke-linecap="butt" stroke-linejoin="miter">
	<path stroke='black'  d='M80.2,95.9 L89.2,95.9  '/>	<g transform="translate(71.9,99.8)" stroke="none" fill="black" font-family="Helvetica" font-size="12.00"  text-anchor="end">
		<text><tspan font-family="Helvetica" > 0.3</tspan></text>
	</g>
</g>
<g fill="none" color="black" stroke="currentColor" stroke-width="1.00" stroke-linecap="butt" stroke-linejoin="miter">
	<path stroke='black'  d='M80.2,71.5 L89.2,71.5  '/>	<g transform="translate(71.9,75.4)" stroke="none" fill="black" font-family="Helvetica" font-size="12.00"  text-anchor="end">
		<text><tspan font-family="Helvetica" > 0.35</tspan></text>
	</g>
</g>
<g fill="none" color="black" stroke="currentColor" stroke-width="1.00" stroke-linecap="butt" stroke-linejoin="miter">
	<path stroke='black'  d='M80.2,47.0 L89.2,47.0  '/>	<g transform="translate(71.9,50.9)" stroke="none" fill="black" font-family="Helvetica" font-size="12.00"  text-anchor="end">
		<text><tspan font-family="Helvetica" > 0.4</tspan></text>
	</g>
</g>
<g fill="none" color="black" stroke="currentColor" stroke-width="1.00" stroke-linecap="butt" stroke-linejoin="miter">
	<path stroke='black'  d='M80.2,22.6 L89.2,22.6  '/>	<g transform="translate(71.9,26.5)" stroke="none" fill="black" font-family="Helvetica" font-size="12.00"  text-anchor="end">
		<text><tspan font-family="Helvetica" > 0.45</tspan></text>
	</g>
</g>
<g fill="none" color="black" stroke="currentColor" stroke-width="1.00" stroke-linecap="butt" stroke-linejoin="miter">
	<path stroke='black'  d='M142.7,242.4 L142.7,233.4  '/>	<g transform="translate(142.7,264.3)" stroke="none" fill="black" font-family="Helvetica" font-size="12.00"  text-anchor="middle">
		<text><tspan font-family="Helvetica" > 45</tspan></text>
	</g>
</g>
<g fill="none" color="black" stroke="currentColor" stroke-width="1.00" stroke-linecap="butt" stroke-linejoin="miter">
	<path stroke='black'  d='M218.9,242.4 L218.9,233.4  '/>	<g transform="translate(218.9,264.3)" stroke="none" fill="black" font-family="Helvetica" font-size="12.00"  text-anchor="middle">
		<text><tspan font-family="Helvetica" > 50</tspan></text>
	</g>
</g>
<g fill="none" color="black" stroke="currentColor" stroke-width="1.00" stroke-linecap="butt" stroke-linejoin="miter">
	<path stroke='black'  d='M295.1,242.4 L295.1,233.4  '/>	<g transform="translate(295.1,264.3)" stroke="none" fill="black" font-family="Helvetica" font-size="12.00"  text-anchor="middle">
		<text><tspan font-family="Helvetica" > 55</tspan></text>
	</g>
</g>
<g fill="none" color="black" stroke="currentColor" stroke-width="1.00" stroke-linecap="butt" stroke-linejoin="miter">
	<path stroke='black'  d='M371.3,242.4 L371.3,233.4  '/>	<g transform="translate(371.3,264.3)" stroke="none" fill="black" font-family="Helvetica" font-size="12.00"  text-anchor="middle">
		<text><tspan font-family="Helvetica" > 60</tspan></text>
	</g>
</g>
<g fill="none" color="black" stroke="currentColor" stroke-width="1.00" stroke-linecap="butt" stroke-linejoin="miter">
</g>
<g fill="none" color="black" stroke="currentColor" stroke-width="1.00" stroke-linecap="butt" stroke-linejoin="miter">
	<path stroke='black'  d='M80.2,18.1 L80.2,242.4 L425.0,242.4 L425.0,18.1 L80.2,18.1 Z  '/></g>
<g fill="none" color="black" stroke="currentColor" stroke-width="1.00" stroke-linecap="butt" stroke-linejoin="miter">
	<g transform="translate(16.3,130.3) rotate(270)" stroke="none" fill="black" font-family="Helvetica" font-size="12.00"  text-anchor="middle">
		<text><tspan font-family="Helvetica" >Density (a.u.)</tspan></text>
	</g>
</g>
<g fill="none" color="black" stroke="currentColor" stroke-width="1.00" stroke-linecap="butt" stroke-linejoin="miter">
	<g transform="translate(252.6,291.3)" stroke="none" fill="black" font-family="Helvetica" font-size="12.00"  text-anchor="middle">
		<text><tspan font-family="Helvetica" >Average time (us)</tspan></text>
	</g>
</g>
<g fill="none" color="black" stroke="currentColor" stroke-width="1.00" stroke-linecap="butt" stroke-linejoin="miter">
</g>
	<g id="gnuplot_plot_1" ><title>PDF</title>
<g fill="none" color="black" stroke="currentColor" stroke-width="1.00" stroke-linecap="butt" stroke-linejoin="miter">
	<g stroke='none' shape-rendering='crispEdges'>
		<polygon fill = 'rgb( 31, 120, 180)' fill-opacity = '0.250000' points = '80.2,241.2 80.9,241.0 81.6,240.7 82.3,240.4 83.0,240.1 83.7,239.7 84.3,239.3 85.0,238.8 85.7,238.2 86.4,237.5 87.1,236.8 87.8,236.0 88.5,235.1 89.2,234.0 89.9,232.8 90.6,231.5
91.3,230.1 91.9,228.5 92.6,226.7 93.3,224.8 94.0,222.6 94.7,220.3 95.4,217.8 96.1,215.0 96.8,212.0 97.5,208.8 98.2,205.3 98.9,201.5 99.5,197.6 100.2,193.3 100.9,188.8 101.6,184.0
102.3,179.0 103.0,173.7 103.7,168.2 104.4,162.4 105.1,156.4 105.8,150.2 106.5,143.9 107.1,137.3 107.8,130.6 108.5,123.9 109.2,117.0 109.9,110.1 110.6,103.1 111.3,96.2 112.0,89.3 112.7,82.6
113.4,75.9 114.1,69.5 114.7,63.2 115.4,57.2 116.1,51.6 116.8,46.2 117.5,41.2 118.2,36.7 118.9,32.6 119.6,28.9 120.3,25.8 121.0,23.1 121.7,21.0 122.3,19.5 123.0,18.5 123.7,18.1
124.4,18.3 125.1,19.0 125.8,20.3 126.5,22.2 127.2,24.6 127.9,27.5 128.6,30.9 129.3,34.7 130.0,39.0 130.6,43.8 131.3,48.8 132.0,54.2 132.7,60.0 133.4,65.9 134.1,72.1 134.8,78.5
135.5,85.0 136.2,91.6 136.9,98.2 137.6,104.9 138.2,111.6 138.9,118.2 139.6,124.7 140.3,131.2 141.0,137.5 141.7,143.7 142.4,149.6 143.1,155.4 143.8,161.0 144.5,166.4 145.2,171.5 145.8,176.4
146.5,181.1 147.2,185.5 147.9,189.7 148.6,193.6 149.3,197.2 150.0,200.7 150.7,203.9 151.4,206.8 152.1,209.6 152.8,212.1 153.4,214.4 154.1,216.6 154.8,218.5 155.5,220.3 156.2,222.0 156.9,223.4
157.6,224.8 158.3,226.0 159.0,227.1 159.7,228.0 160.4,228.9 161.0,229.7 161.7,230.4 162.4,231.0 163.1,231.6 163.8,232.1 164.5,232.5 165.2,233.0 165.9,233.3 166.6,233.6 167.3,233.9 168.0,234.2
168.6,234.5 169.3,234.7 170.0,234.9 170.7,235.1 171.4,235.3 172.1,235.5 172.8,235.6 173.5,235.8 174.2,236.0 174.9,236.1 175.6,236.3 176.2,236.4 176.9,236.6 177.6,236.7 178.3,236.9 179.0,237.0
179.7,237.1 180.4,237.3 181.1,237.4 181.8,237.5 182.5,237.6 183.2,237.7 183.8,237.9 184.5,238.0 185.2,238.1 185.9,238.2 186.6,238.3 187.3,238.3 188.0,238.4 188.7,238.5 189.4,238.6 190.1,238.7
190.8,238.7 191.4,238.8 192.1,238.9 192.8,238.9 193.5,239.0 194.2,239.0 194.9,239.1 195.6,239.1 196.3,239.2 197.0,239.3 197.7,239.3 198.4,239.4 199.0,239.4 199.7,239.5 200.4,239.5 201.1,239.6
201.8,239.7 202.5,239.7 203.2,239.8 203.9,239.9 204.6,239.9 205.3,240.0 206.0,240.1 206.6,240.2 207.3,240.3 208.0,240.3 208.7,240.4 209.4,240.5 210.1,240.6 210.8,240.7 211.5,240.8 212.2,240.8
212.9,240.9 213.6,241.0 214.3,241.1 214.9,241.2 215.6,241.2 216.3,241.3 217.0,241.4 217.7,241.5 218.4,241.5 219.1,241.6 219.8,241.7 220.5,241.7 221.2,241.8 221.9,241.8 222.5,241.9 223.2,241.9
223.9,242.0 224.6,242.0 225.3,242.0 226.0,242.1 226.7,242.1 227.4,242.1 228.1,242.2 228.8,242.2 229.5,242.2 230.1,242.2 230.8,242.2 231.5,242.3 232.2,242.3 232.9,242.3 233.6,242.3 234.3,242.3
235.0,242.3 235.7,242.3 236.4,242.3 237.1,242.3 237.7,242.3 238.4,242.3 239.1,242.3 239.8,242.3 240.5,242.3 241.2,242.3 241.9,242.3 242.6,242.2 243.3,242.2 244.0,242.2 244.7,242.2 245.3,242.2
246.0,242.1 246.7,242.1 247.4,242.1 248.1,242.1 248.8,242.0 249.5,242.0 250.2,241.9 250.9,241.9 251.6,241.8 252.3,241.8 252.9,241.7 253.6,241.7 254.3,241.6 255.0,241.6 255.7,241.5 256.4,241.4
257.1,241.4 257.8,241.3 258.5,241.2 259.2,241.1 259.9,241.1 260.5,241.0 261.2,240.9 261.9,240.8 262.6,240.8 263.3,240.7 264.0,240.6 264.7,240.5 265.4,240.5 266.1,240.4 266.8,240.3 267.5,240.3
268.1,240.2 268.8,240.2 269.5,240.1 270.2,240.1 270.9,240.0 271.6,240.0 272.3,240.0 273.0,240.0 273.7,240.0 274.4,240.0 275.1,240.0 275.7,240.0 276.4,240.0 277.1,240.0 277.8,240.0 278.5,240.1
279.2,240.1 279.9,240.1 280.6,240.2 281.3,240.2 282.0,240.3 282.7,240.4 283.3,240.4 284.0,240.5 284.7,240.6 285.4,240.6 286.1,240.7 286.8,240.8 287.5,240.9 288.2,241.0 288.9,241.0 289.6,241.1
290.3,241.2 290.9,241.3 291.6,241.3 292.3,241.4 293.0,241.5 293.7,241.5 294.4,241.6 295.1,241.7 295.8,241.7 296.5,241.8 297.2,241.8 297.9,241.9 298.6,241.9 299.2,242.0 299.9,242.0 300.6,242.0
301.3,242.1 302.0,242.1 302.7,242.1 303.4,242.2 304.1,242.2 304.8,242.2 305.5,242.2 306.2,242.3 306.8,242.3 307.5,242.3 308.2,242.3 308.9,242.3 309.6,242.3 310.3,242.3 311.0,242.3 311.7,242.3
312.4,242.4 313.1,242.4 313.8,242.4 314.4,242.4 315.1,242.4 315.8,242.4 316.5,242.4 317.2,242.4 317.9,242.4 318.6,242.4 319.3,242.4 320.0,242.4 320.7,242.4 321.4,242.4 322.0,242.4 322.7,242.4
323.4,242.4 324.1,242.4 324.8,242.4 325.5,242.4 326.2,242.4 326.9,242.4 327.6,242.4 328.3,242.4 329.0,242.4 329.6,242.4 330.3,242.4 331.0,242.4 331.7,242.4 332.4,242.4 333.1,242.4 333.8,242.4
334.5,242.4 335.2,242.4 335.9,242.4 336.6,242.4 337.2,242.4 337.9,242.4 338.6,242.4 339.3,242.4 340.0,242.4 340.7,242.4 341.4,242.4 342.1,242.4 342.8,242.4 343.5,242.4 344.2,242.4 344.8,242.4
345.5,242.4 346.2,242.4 346.9,242.4 347.6,242.4 348.3,242.3 349.0,242.3 349.7,242.3 350.4,242.3 351.1,242.3 351.8,242.3 352.4,242.3 353.1,242.3 353.8,242.2 354.5,242.2 355.2,242.2 355.9,242.2
356.6,242.1 357.3,242.1 358.0,242.1 358.7,242.1 359.4,242.0 360.0,242.0 360.7,241.9 361.4,241.9 362.1,241.8 362.8,241.8 363.5,241.7 364.2,241.7 364.9,241.6 365.6,241.6 366.3,241.5 367.0,241.4
367.6,241.4 368.3,241.3 369.0,241.2 369.7,241.1 370.4,241.1 371.1,241.0 371.8,240.9 372.5,240.8 373.2,240.7 373.9,240.7 374.6,240.6 375.2,240.5 375.9,240.5 376.6,240.4 377.3,240.3 378.0,240.3
378.7,240.2 379.4,240.2 380.1,240.1 380.8,240.1 381.5,240.0 382.2,240.0 382.9,240.0 383.5,240.0 384.2,240.0 384.9,240.0 385.6,240.0 386.3,240.0 387.0,240.0 387.7,240.0 388.4,240.0 389.1,240.1
389.8,240.1 390.5,240.1 391.1,240.2 391.8,240.3 392.5,240.3 393.2,240.4 393.9,240.4 394.6,240.5 395.3,240.6 396.0,240.7 396.7,240.7 397.4,240.8 398.1,240.9 398.7,241.0 399.4,241.0 400.1,241.1
400.8,241.2 401.5,241.3 402.2,241.3 402.9,241.4 403.6,241.5 404.3,241.5 405.0,241.6 405.7,241.7 406.3,241.7 407.0,241.8 407.7,241.8 408.4,241.9 409.1,241.9 409.8,242.0 410.5,242.0 411.2,242.0
411.9,242.1 412.6,242.1 413.3,242.1 413.9,242.2 414.6,242.2 415.3,242.2 416.0,242.2 416.7,242.3 417.4,242.3 418.1,242.3 418.8,242.3 419.5,242.3 420.2,242.3 420.9,242.3 421.5,242.3 422.2,242.4
422.9,242.4 423.6,242.4 424.3,242.4 425.0,242.4 425.0,242.4 424.3,242.4 423.6,242.4 422.9,242.4 422.2,242.4 421.5,242.4 420.9,242.4 420.2,242.4 419.5,242.4 418.8,242.4 418.1,242.4 417.4,242.4
416.7,242.4 416.0,242.4 415.3,242.4 414.6,242.4 413.9,242.4 413.3,242.4 412.6,242.4 411.9,242.4 411.2,242.4 410.5,242.4 409.8,242.4 409.1,242.4 408.4,242.4 407.7,242.4 407.0,242.4 406.3,242.4
405.7,242.4 405.0,242.4 404.3,242.4 403.6,242.4 402.9,242.4 402.2,242.4 401.5,242.4 400.8,242.4 400.1,242.4 399.4,242.4 398.7,242.4 398.1,242.4 397.4,242.4 396.7,242.4 396.0,242.4 395.3,242.4
394.6,242.4 393.9,242.4 393.2,242.4 392.5,242.4 391.8,242.4 391.1,242.4 390.5,242.4 389.8,242.4 389.1,242.4 388.4,242.4 387.7,242.4 387.0,242.4 386.3,242.4 385.6,242.4 384.9,242.4 384.2,242.4
383.5,242.4 382.9,242.4 382.2,242.4 381.5,242.4 380.8,242.4 380.1,242.4 379.4,242.4 378.7,242.4 378.0,242.4 377.3,242.4 376.6,242.4 375.9,242.4 375.2,242.4 374.6,242.4 373.9,242.4 373.2,242.4
372.5,242.4 371.8,242.4 371.1,242.4 370.4,242.4 369.7,242.4 369.0,242.4 368.3,242.4 367.6,242.4 367.0,242.4 366.3,242.4 365.6,242.4 364.9,242.4 364.2,242.4 363.5,242.4 362.8,242.4 362.1,242.4
361.4,242.4 360.7,242.4 360.0,242.4 359.4,242.4 358.7,242.4 358.0,242.4 357.3,242.4 356.6,242.4 355.9,242.4 355.2,242.4 354.5,242.4 353.8,242.4 353.1,242.4 352.4,242.4 351.8,242.4 351.1,242.4
350.4,242.4 349.7,242.4 349.0,242.4 348.3,242.4 347.6,242.4 346.9,242.4 346.2,242.4 345.5,242.4 344.8,242.4 344.2,242.4 343.5,242.4 342.8,242.4 342.1,242.4 341.4,242.4 340.7,242.4 340.0,242.4
339.3,242.4 338.6,242.4 337.9,242.4 337.2,242.4 336.6,242.4 335.9,242.4 335.2,242.4 334.5,242.4 333.8,242.4 333.1,242.4 332.4,242.4 331.7,242.4 331.0,242.4 330.3,242.4 329.6,242.4 329.0,242.4
328.3,242.4 327.6,242.4 326.9,242.4 326.2,242.4 325.5,242.4 324.8,242.4 324.1,242.4 323.4,242.4 322.7,242.4 322.0,242.4 321.4,242.4 320.7,242.4 320.0,242.4 319.3,242.4 318.6,242.4 317.9,242.4
317.2,242.4 316.5,242.4 315.8,242.4 315.1,242.4 314.4,242.4 313.8,242.4 313.1,242.4 312.4,242.4 311.7,242.4 311.0,242.4 310.3,242.4 309.6,242.4 308.9,242.4 308.2,242.4 307.5,242.4 306.8,242.4
306.2,242.4 305.5,242.4 304.8,242.4 304.1,242.4 303.4,242.4 302.7,242.4 302.0,242.4 301.3,242.4 300.6,242.4 299.9,242.4 299.2,242.4 298.6,242.4 297.9,242.4 297.2,242.4 296.5,242.4 295.8,242.4
295.1,242.4 294.4,242.4 293.7,242.4 293.0,242.4 292.3,242.4 291.6,242.4 290.9,242.4 290.3,242.4 289.6,242.4 288.9,242.4 288.2,242.4 287.5,242.4 286.8,242.4 286.1,242.4 285.4,242.4 284.7,242.4
284.0,242.4 283.3,242.4 282.7,242.4 282.0,242.4 281.3,242.4 280.6,242.4 279.9,242.4 279.2,242.4 278.5,242.4 277.8,242.4 277.1,242.4 276.4,242.4 275.7,242.4 275.1,242.4 274.4,242.4 273.7,242.4
273.0,242.4 272.3,242.4 271.6,242.4 270.9,242.4 270.2,242.4 269.5,242.4 268.8,242.4 268.1,242.4 267.5,242.4 266.8,242.4 266.1,242.4 265.4,242.4 264.7,242.4 264.0,242.4 263.3,242.4 262.6,242.4
261.9,242.4 261.2,242.4 260.5,242.4 259.9,242.4 259.2,242.4 258.5,242.4 257.8,242.4 257.1,242.4 256.4,242.4 255.7,242.4 255.0,242.4 254.3,242.4 253.6,242.4 252.9,242.4 252.3,242.4 251.6,242.4
250.9,242.4 250.2,242.4 249.5,242.4 248.8,242.4 248.1,242.4 247.4,242.4 246.7,242.4 246.0,242.4 245.3,242.4 244.7,242.4 244.0,242.4 243.3,242.4 242.6,242.4 241.9,242.4 241.2,242.4 240.5,242.4
239.8,242.4 239.1,242.4 238.4,242.4 237.7,242.4 237.1,242.4 236.4,242.4 235.7,242.4 235.0,242.4 234.3,242.4 233.6,242.4 232.9,242.4 232.2,242.4 231.5,242.4 230.8,242.4 230.1,242.4 229.5,242.4
228.8,242.4 228.1,242.4 227.4,242.4 226.7,242.4 226.0,242.4 225.3,242.4 224.6,242.4 223.9,242.4 223.2,242.4 222.5,242.4 221.9,242.4 221.2,242.4 220.5,242.4 219.8,242.4 219.1,242.4 218.4,242.4
217.7,242.4 217.0,242.4 216.3,242.4 215.6,242.4 214.9,242.4 214.3,242.4 213.6,242.4 212.9,242.4 212.2,242.4 211.5,242.4 210.8,242.4 210.1,242.4 209.4,242.4 208.7,242.4 208.0,242.4 207.3,242.4
206.6,242.4 206.0,242.4 205.3,242.4 204.6,242.4 203.9,242.4 203.2,242.4 202.5,242.4 201.8,242.4 201.1,242.4 200.4,242.4 199.7,242.4 199.0,242.4 198.4,242.4 197.7,242.4 197.0,242.4 196.3,242.4
195.6,242.4 194.9,242.4 194.2,242.4 193.5,242.4 192.8,242.4 192.1,242.4 191.4,242.4 190.8,242.4 190.1,242.4 189.4,242.4 188.7,242.4 188.0,242.4 187.3,242.4 186.6,242.4 185.9,242.4 185.2,242.4
184.5,242.4 183.8,242.4 183.2,242.4 182.5,242.4 181.8,242.4 181.1,242.4 180.4,242.4 179.7,242.4 179.0,242.4 178.3,242.4 177.6,242.4 176.9,242.4 176.2,242.4 175.6,242.4 174.9,242.4 174.2,242.4
173.5,242.4 172.8,242.4 172.1,242.4 171.4,242.4 170.7,242.4 170.0,242.4 169.3,242.4 168.6,242.4 168.0,242.4 167.3,242.4 166.6,242.4 165.9,242.4 165.2,242.4 164.5,242.4 163.8,242.4 163.1,242.4
162.4,242.4 161.7,242.4 161.0,242.4 160.4,242.4 159.7,242.4 159.0,242.4 158.3,242.4 157.6,242.4 156.9,242.4 156.2,242.4 155.5,242.4 154.8,242.4 154.1,242.4 153.4,242.4 152.8,242.4 152.1,242.4
151.4,242.4 150.7,242.4 150.0,242.4 149.3,242.4 148.6,242.4 147.9,242.4 147.2,242.4 146.5,242.4 145.8,242.4 145.2,242.4 144.5,242.4 143.8,242.4 143.1,242.4 142.4,242.4 141.7,242.4 141.0,242.4
140.3,242.4 139.6,242.4 138.9,242.4 138.2,242.4 137.6,242.4 136.9,242.4 136.2,242.4 135.5,242.4 134.8,242.4 134.1,242.4 133.4,242.4 132.7,242.4 132.0,242.4 131.3,242.4 130.6,242.4 130.0,242.4
129.3,242.4 128.6,242.4 127.9,242.4 127.2,242.4 126.5,242.4 125.8,242.4 125.1,242.4 124.4,242.4 123.7,242.4 123.0,242.4 122.3,242.4 121.7,242.4 121.0,242.4 120.3,242.4 119.6,242.4 118.9,242.4
118.2,242.4 117.5,242.4 116.8,242.4 116.1,242.4 115.4,242.4 114.7,242.4 114.1,242.4 113.4,242.4 112.7,242.4 112.0,242.4 111.3,242.4 110.6,242.4 109.9,242.4 109.2,242.4 108.5,242.4 107.8,242.4
107.1,242.4 106.5,242.4 105.8,242.4 105.1,242.4 104.4,242.4 103.7,242.4 103.0,242.4 102.3,242.4 101.6,242.4 100.9,242.4 100.2,242.4 99.5,242.4 98.9,242.4 98.2,242.4 97.5,242.4 96.8,242.4
96.1,242.4 95.4,242.4 94.7,242.4 94.0,242.4 93.3,242.4 92.6,242.4 91.9,242.4 91.3,242.4 90.6,242.4 89.9,242.4 89.2,242.4 88.5,242.4 87.8,242.4 87.1,242.4 86.4,242.4 85.7,242.4
85.0,242.4 84.3,242.4 83.7,242.4 83.0,242.4 82.3,242.4 81.6,242.4 80.9,242.4 80.2,242.4 '/>
	</g>
</g>
	</g>
	<g id="gnuplot_plot_2" ><title>Mean</title>
<g fill="none" color="white" stroke="rgb( 31, 120, 180)" stroke-width="2.00" stroke-linecap="butt" stroke-linejoin="miter">
</g>
<g fill="none" color="black" stroke="currentColor" stroke-width="2.00" stroke-linecap="butt" stroke-linejoin="miter">
	<path stroke='rgb( 31, 120, 180)'  d='M130.2,242.4 L130.2,59.2  '/></g>
	</g>
<g fill="none" color="black" stroke="currentColor" stroke-width="2.00" stroke-linecap="butt" stroke-linejoin="miter">
</g>
<g fill="none" color="black" stroke="black" stroke-width="1.00" stroke-linecap="butt" stroke-linejoin="miter">
</g>
<g fill="none" color="black" stroke="currentColor" stroke-width="1.00" stroke-linecap="butt" stroke-linejoin="miter">
	<path stroke='black'  d='M80.2,18.1 L80.2,242.4 L425.0,242.4 L425.0,18.1 L80.2,18.1 Z  '/></g>
<g fill="none" color="black" stroke="currentColor" stroke-width="1.00" stroke-linecap="butt" stroke-linejoin="miter">
</g>
</g>
</svg>

