<?xml version="1.0" encoding="utf-8"  standalone="no"?>
<svg 
 viewBox="0 0 1280 720"
 xmlns="http://www.w3.org/2000/svg"
 xmlns:xlink="http://www.w3.org/1999/xlink"
>

<title>Gnuplot</title>
<desc>Produced by GNUPLOT 5.2 patchlevel 6 </desc>

<g id="gnuplot_canvas">

<rect x="0" y="0" width="1280" height="720" fill="none"/>
<defs>

	<circle id='gpDot' r='0.5' stroke-width='0.5' stroke='currentColor'/>
	<path id='gpPt0' stroke-width='0.222' stroke='currentColor' d='M-1,0 h2 M0,-1 v2'/>
	<path id='gpPt1' stroke-width='0.222' stroke='currentColor' d='M-1,-1 L1,1 M1,-1 L-1,1'/>
	<path id='gpPt2' stroke-width='0.222' stroke='currentColor' d='M-1,0 L1,0 M0,-1 L0,1 M-1,-1 L1,1 M-1,1 L1,-1'/>
	<rect id='gpPt3' stroke-width='0.222' stroke='currentColor' x='-1' y='-1' width='2' height='2'/>
	<rect id='gpPt4' stroke-width='0.222' stroke='currentColor' fill='currentColor' x='-1' y='-1' width='2' height='2'/>
	<circle id='gpPt5' stroke-width='0.222' stroke='currentColor' cx='0' cy='0' r='1'/>
	<use xlink:href='#gpPt5' id='gpPt6' fill='currentColor' stroke='none'/>
	<path id='gpPt7' stroke-width='0.222' stroke='currentColor' d='M0,-1.33 L-1.33,0.67 L1.33,0.67 z'/>
	<use xlink:href='#gpPt7' id='gpPt8' fill='currentColor' stroke='none'/>
	<use xlink:href='#gpPt7' id='gpPt9' stroke='currentColor' transform='rotate(180)'/>
	<use xlink:href='#gpPt9' id='gpPt10' fill='currentColor' stroke='none'/>
	<use xlink:href='#gpPt3' id='gpPt11' stroke='currentColor' transform='rotate(45)'/>
	<use xlink:href='#gpPt11' id='gpPt12' fill='currentColor' stroke='none'/>
	<path id='gpPt13' stroke-width='0.222' stroke='currentColor' d='M0,1.330 L1.265,0.411 L0.782,-1.067 L-0.782,-1.076 L-1.265,0.411 z'/>
	<use xlink:href='#gpPt13' id='gpPt14' fill='currentColor' stroke='none'/>
	<filter id='textbox' filterUnits='objectBoundingBox' x='0' y='0' height='1' width='1'>
	  <feFlood flood-color='white' flood-opacity='1' result='bgnd'/>
	  <feComposite in='SourceGraphic' in2='bgnd' operator='atop'/>
	</filter>
	<filter id='greybox' filterUnits='objectBoundingBox' x='0' y='0' height='1' width='1'>
	  <feFlood flood-color='lightgrey' flood-opacity='1' result='grey'/>
	  <feComposite in='SourceGraphic' in2='grey' operator='atop'/>
	</filter>
</defs>
<g fill="none" color="white" stroke="currentColor" stroke-width="1.00" stroke-linecap="butt" stroke-linejoin="miter">
</g>
<g fill="none" color="black" stroke="currentColor" stroke-width="1.00" stroke-linecap="butt" stroke-linejoin="miter">
	<path stroke='black'  d='M80.2,662.4 L89.2,662.4  '/>	<g transform="translate(71.9,666.3)" stroke="none" fill="black" font-family="Helvetica" font-size="12.00"  text-anchor="end">
		<text><tspan font-family="Helvetica" > 0</tspan></text>
	</g>
</g>
<g fill="none" color="black" stroke="currentColor" stroke-width="1.00" stroke-linecap="butt" stroke-linejoin="miter">
	<path stroke='black'  d='M80.2,575.5 L89.2,575.5  '/>	<g transform="translate(71.9,579.4)" stroke="none" fill="black" font-family="Helvetica" font-size="12.00"  text-anchor="end">
		<text><tspan font-family="Helvetica" > 0.01</tspan></text>
	</g>
</g>
<g fill="none" color="black" stroke="currentColor" stroke-width="1.00" stroke-linecap="butt" stroke-linejoin="miter">
	<path stroke='black'  d='M80.2,488.6 L89.2,488.6  '/>	<g transform="translate(71.9,492.5)" stroke="none" fill="black" font-family="Helvetica" font-size="12.00"  text-anchor="end">
		<text><tspan font-family="Helvetica" > 0.02</tspan></text>
	</g>
</g>
<g fill="none" color="black" stroke="currentColor" stroke-width="1.00" stroke-linecap="butt" stroke-linejoin="miter">
	<path stroke='black'  d='M80.2,401.7 L89.2,401.7  '/>	<g transform="translate(71.9,405.6)" stroke="none" fill="black" font-family="Helvetica" font-size="12.00"  text-anchor="end">
		<text><tspan font-family="Helvetica" > 0.03</tspan></text>
	</g>
</g>
<g fill="none" color="black" stroke="currentColor" stroke-width="1.00" stroke-linecap="butt" stroke-linejoin="miter">
	<path stroke='black'  d='M80.2,314.8 L89.2,314.8  '/>	<g transform="translate(71.9,318.7)" stroke="none" fill="black" font-family="Helvetica" font-size="12.00"  text-anchor="end">
		<text><tspan font-family="Helvetica" > 0.04</tspan></text>
	</g>
</g>
<g fill="none" color="black" stroke="currentColor" stroke-width="1.00" stroke-linecap="butt" stroke-linejoin="miter">
	<path stroke='black'  d='M80.2,227.9 L89.2,227.9  '/>	<g transform="translate(71.9,231.8)" stroke="none" fill="black" font-family="Helvetica" font-size="12.00"  text-anchor="end">
		<text><tspan font-family="Helvetica" > 0.05</tspan></text>
	</g>
</g>
<g fill="none" color="black" stroke="currentColor" stroke-width="1.00" stroke-linecap="butt" stroke-linejoin="miter">
	<path stroke='black'  d='M80.2,141.0 L89.2,141.0  '/>	<g transform="translate(71.9,144.9)" stroke="none" fill="black" font-family="Helvetica" font-size="12.00"  text-anchor="end">
		<text><tspan font-family="Helvetica" > 0.06</tspan></text>
	</g>
</g>
<g fill="none" color="black" stroke="currentColor" stroke-width="1.00" stroke-linecap="butt" stroke-linejoin="miter">
	<path stroke='black'  d='M80.2,54.1 L89.2,54.1  '/>	<g transform="translate(71.9,58.0)" stroke="none" fill="black" font-family="Helvetica" font-size="12.00"  text-anchor="end">
		<text><tspan font-family="Helvetica" > 0.07</tspan></text>
	</g>
</g>
<g fill="none" color="black" stroke="currentColor" stroke-width="1.00" stroke-linecap="butt" stroke-linejoin="miter">
	<path stroke='black'  d='M215.4,662.4 L215.4,653.4  '/>	<g transform="translate(215.4,684.3)" stroke="none" fill="black" font-family="Helvetica" font-size="12.00"  text-anchor="middle">
		<text><tspan font-family="Helvetica" > 35</tspan></text>
	</g>
</g>
<g fill="none" color="black" stroke="currentColor" stroke-width="1.00" stroke-linecap="butt" stroke-linejoin="miter">
	<path stroke='black'  d='M355.9,662.4 L355.9,653.4  '/>	<g transform="translate(355.9,684.3)" stroke="none" fill="black" font-family="Helvetica" font-size="12.00"  text-anchor="middle">
		<text><tspan font-family="Helvetica" > 40</tspan></text>
	</g>
</g>
<g fill="none" color="black" stroke="currentColor" stroke-width="1.00" stroke-linecap="butt" stroke-linejoin="miter">
	<path stroke='black'  d='M496.4,662.4 L496.4,653.4  '/>	<g transform="translate(496.4,684.3)" stroke="none" fill="black" font-family="Helvetica" font-size="12.00"  text-anchor="middle">
		<text><tspan font-family="Helvetica" > 45</tspan></text>
	</g>
</g>
<g fill="none" color="black" stroke="currentColor" stroke-width="1.00" stroke-linecap="butt" stroke-linejoin="miter">
	<path stroke='black'  d='M636.9,662.4 L636.9,653.4  '/>	<g transform="translate(636.9,684.3)" stroke="none" fill="black" font-family="Helvetica" font-size="12.00"  text-anchor="middle">
		<text><tspan font-family="Helvetica" > 50</tspan></text>
	</g>
</g>
<g fill="none" color="black" stroke="currentColor" stroke-width="1.00" stroke-linecap="butt" stroke-linejoin="miter">
	<path stroke='black'  d='M777.4,662.4 L777.4,653.4  '/>	<g transform="translate(777.4,684.3)" stroke="none" fill="black" font-family="Helvetica" font-size="12.00"  text-anchor="middle">
		<text><tspan font-family="Helvetica" > 55</tspan></text>
	</g>
</g>
<g fill="none" color="black" stroke="currentColor" stroke-width="1.00" stroke-linecap="butt" stroke-linejoin="miter">
	<path stroke='black'  d='M917.9,662.4 L917.9,653.4  '/>	<g transform="translate(917.9,684.3)" stroke="none" fill="black" font-family="Helvetica" font-size="12.00"  text-anchor="middle">
		<text><tspan font-family="Helvetica" > 60</tspan></text>
	</g>
</g>
<g fill="none" color="black" stroke="currentColor" stroke-width="1.00" stroke-linecap="butt" stroke-linejoin="miter">
</g>
<g fill="none" color="black" stroke="currentColor" stroke-width="1.00" stroke-linecap="butt" stroke-linejoin="miter">
	<path stroke='black'  d='M80.2,54.1 L80.2,662.4 L1013.6,662.4 L1013.6,54.1 L80.2,54.1 Z  '/></g>
<g fill="none" color="black" stroke="currentColor" stroke-width="1.00" stroke-linecap="butt" stroke-linejoin="miter">
	<g transform="translate(16.3,358.3) rotate(270)" stroke="none" fill="black" font-family="Helvetica" font-size="12.00"  text-anchor="middle">
		<text><tspan font-family="Helvetica" >Density (a.u.)</tspan></text>
	</g>
</g>
<g fill="none" color="black" stroke="currentColor" stroke-width="1.00" stroke-linecap="butt" stroke-linejoin="miter">
	<g transform="translate(546.9,711.3)" stroke="none" fill="black" font-family="Helvetica" font-size="12.00"  text-anchor="middle">
		<text><tspan font-family="Helvetica" >Average time (ns)</tspan></text>
	</g>
</g>
<g fill="none" color="black" stroke="currentColor" stroke-width="1.00" stroke-linecap="butt" stroke-linejoin="miter">
	<g transform="translate(546.9,31.0)" stroke="none" fill="black" font-family="Helvetica" font-size="12.00"  text-anchor="middle">
		<text><tspan font-family="Helvetica" >snapshot_restore_with_dense/Dense: Entire region + process_vm_writev w/ page size/5: MAD</tspan></text>
	</g>
</g>
	<g id="gnuplot_plot_1" ><title>Bootstrap distribution</title>
<g fill="none" color="white" stroke="black" stroke-width="2.00" stroke-linecap="butt" stroke-linejoin="miter">
</g>
<g fill="none" color="black" stroke="currentColor" stroke-width="2.00" stroke-linecap="butt" stroke-linejoin="miter">
	<g transform="translate(1089.0,67.0)" stroke="none" fill="black" font-family="Helvetica" font-size="12.00"  text-anchor="start">
		<text><tspan font-family="Helvetica" >Bootstrap distribution</tspan></text>
	</g>
</g>
<g fill="none" color="black" stroke="currentColor" stroke-width="2.00" stroke-linecap="butt" stroke-linejoin="miter">
	<path stroke='rgb( 31, 120, 180)'  d='M1038.5,63.1 L1080.7,63.1 M80.2,634.5 L82.1,633.7 L83.9,633.0 L85.8,632.3 L87.7,631.6 L89.6,630.9
		L91.4,630.2 L93.3,629.6 L95.2,628.9 L97.0,628.2 L98.9,627.5 L100.8,626.8 L102.6,626.0 L104.5,625.1
		L106.4,624.2 L108.3,623.2 L110.1,622.2 L112.0,621.0 L113.9,619.8 L115.7,618.4 L117.6,616.9 L119.5,615.3
		L121.4,613.6 L123.2,611.8 L125.1,609.9 L127.0,608.0 L128.8,605.9 L130.7,603.8 L132.6,601.6 L134.4,599.3
		L136.3,597.1 L138.2,594.8 L140.1,592.6 L141.9,590.4 L143.8,588.2 L145.7,586.1 L147.5,584.1 L149.4,582.1
		L151.3,580.2 L153.2,578.5 L155.0,576.9 L156.9,575.3 L158.8,573.9 L160.6,572.5 L162.5,571.3 L164.4,570.1
		L166.2,569.0 L168.1,568.0 L170.0,567.0 L171.9,566.0 L173.7,565.0 L175.6,563.9 L177.5,562.8 L179.3,561.7
		L181.2,560.5 L183.1,559.2 L185.0,557.8 L186.8,556.3 L188.7,554.6 L190.6,552.9 L192.4,551.0 L194.3,548.9
		L196.2,546.8 L198.0,544.5 L199.9,542.1 L201.8,539.5 L203.7,536.9 L205.5,534.1 L207.4,531.3 L209.3,528.4
		L211.1,525.4 L213.0,522.3 L214.9,519.3 L216.7,516.2 L218.6,513.1 L220.5,510.0 L222.4,506.8 L224.2,503.7
		L226.1,500.7 L228.0,497.6 L229.8,494.6 L231.7,491.5 L233.6,488.5 L235.5,485.5 L237.3,482.5 L239.2,479.5
		L241.1,476.4 L242.9,473.3 L244.8,470.1 L246.7,466.9 L248.5,463.6 L250.4,460.2 L252.3,456.7 L254.2,453.1
		L256.0,449.4 L257.9,445.6 L259.8,441.8 L261.6,437.8 L263.5,433.9 L265.4,429.9 L267.3,425.9 L269.1,421.9
		L271.0,418.0 L272.9,414.1 L274.7,410.4 L276.6,406.7 L278.5,403.1 L280.3,399.6 L282.2,396.1 L284.1,392.8
		L286.0,389.4 L287.8,386.1 L289.7,382.8 L291.6,379.4 L293.4,375.9 L295.3,372.4 L297.2,368.7 L299.1,364.8
		L300.9,360.8 L302.8,356.7 L304.7,352.4 L306.5,347.9 L308.4,343.4 L310.3,338.7 L312.1,334.0 L314.0,329.4
		L315.9,324.7 L317.8,320.2 L319.6,315.9 L321.5,311.7 L323.4,307.8 L325.2,304.2 L327.1,300.9 L329.0,297.9
		L330.9,295.3 L332.7,293.0 L334.6,291.1 L336.5,289.5 L338.3,288.1 L340.2,286.9 L342.1,286.0 L343.9,285.1
		L345.8,284.3 L347.7,283.4 L349.6,282.5 L351.4,281.4 L353.3,280.0 L355.2,278.4 L357.0,276.4 L358.9,274.1
		L360.8,271.3 L362.7,268.1 L364.5,264.6 L366.4,260.6 L368.3,256.2 L370.1,251.6 L372.0,246.6 L373.9,241.5
		L375.7,236.1 L377.6,230.8 L379.5,225.4 L381.4,220.1 L383.2,215.0 L385.1,210.1 L387.0,205.5 L388.8,201.2
		L390.7,197.4 L392.6,193.9 L394.5,191.0 L396.3,188.4 L398.2,186.3 L400.1,184.6 L401.9,183.3 L403.8,182.2
		L405.7,181.4 L407.5,180.8 L409.4,180.3 L411.3,179.8 L413.2,179.2 L415.0,178.5 L416.9,177.5 L418.8,176.3
		L420.6,174.8 L422.5,172.9 L424.4,170.7 L426.3,168.1 L428.1,165.1 L430.0,161.8 L431.9,158.2 L433.7,154.4
		L435.6,150.4 L437.5,146.3 L439.3,142.2 L441.2,138.2 L443.1,134.3 L445.0,130.6 L446.8,127.2 L448.7,124.1
		L450.6,121.4 L452.4,119.0 L454.3,117.0 L456.2,115.4 L458.0,114.2 L459.9,113.4 L461.8,112.9 L463.7,112.7
		L465.5,112.7 L467.4,112.9 L469.3,113.3 L471.1,113.7 L473.0,114.2 L474.9,114.7 L476.8,115.1 L478.6,115.5
		L480.5,115.8 L482.4,115.9 L484.2,115.9 L486.1,115.8 L488.0,115.6 L489.8,115.3 L491.7,115.0 L493.6,114.6
		L495.5,114.3 L497.3,114.0 L499.2,113.9 L501.1,113.9 L502.9,114.3 L504.8,114.8 L506.7,115.7 L508.6,117.0
		L510.4,118.7 L512.3,120.7 L514.2,123.1 L516.0,125.9 L517.9,129.1 L519.8,132.5 L521.6,136.3 L523.5,140.2
		L525.4,144.3 L527.3,148.5 L529.1,152.7 L531.0,156.8 L532.9,160.8 L534.7,164.6 L536.6,168.2 L538.5,171.5
		L540.4,174.4 L542.2,177.1 L544.1,179.4 L546.0,181.4 L547.8,183.0 L549.7,184.4 L551.6,185.4 L553.4,186.3
		L555.3,187.0 L557.2,187.5 L559.1,188.0 L560.9,188.4 L562.8,188.8 L564.7,189.3 L566.5,189.9 L568.4,190.6
		L570.3,191.4 L572.2,192.3 L574.0,193.4 L575.9,194.7 L577.8,196.1 L579.6,197.6 L581.5,199.2 L583.4,200.9
		L585.2,202.6 L587.1,204.5 L589.0,206.3 L590.9,208.2 L592.7,210.1 L594.6,211.9 L596.5,213.8 L598.3,215.7
		L600.2,217.6 L602.1,219.5 L604.0,221.3 L605.8,223.2 L607.7,225.1 L609.6,227.0 L611.4,228.9 L613.3,230.9
		L615.2,232.8 L617.0,234.8 L618.9,236.9 L620.8,238.9 L622.7,241.0 L624.5,243.1 L626.4,245.2 L628.3,247.4
		L630.1,249.5 L632.0,251.8 L633.9,254.0 L635.8,256.3 L637.6,258.6 L639.5,261.0 L641.4,263.4 L643.2,265.9
		L645.1,268.5 L647.0,271.2 L648.8,273.9 L650.7,276.8 L652.6,279.8 L654.5,282.9 L656.3,286.1 L658.2,289.6
		L660.1,293.1 L661.9,296.9 L663.8,300.8 L665.7,304.8 L667.5,309.1 L669.4,313.5 L671.3,318.1 L673.2,322.8
		L675.0,327.6 L676.9,332.6 L678.8,337.7 L680.6,342.9 L682.5,348.2 L684.4,353.6 L686.3,359.0 L688.1,364.4
		L690.0,369.8 L691.9,375.2 L693.7,380.5 L695.6,385.8 L697.5,391.1 L699.3,396.2 L701.2,401.2 L703.1,406.1
		L705.0,410.8 L706.8,415.4 L708.7,419.9 L710.6,424.1 L712.4,428.2 L714.3,432.2 L716.2,435.9 L718.1,439.5
		L719.9,443.0 L721.8,446.2 L723.7,449.4 L725.5,452.4 L727.4,455.3 L729.3,458.1 L731.1,460.7 L733.0,463.4
		L734.9,465.9 L736.8,468.4 L738.6,470.9 L740.5,473.3 L742.4,475.7 L744.2,478.0 L746.1,480.3 L748.0,482.6
		L749.9,484.9 L751.7,487.2 L753.6,489.4 L755.5,491.5 L757.3,493.6 L759.2,495.7 L761.1,497.7 L762.9,499.7
		L764.8,501.6 L766.7,503.5 L768.6,505.3 L770.4,507.1 L772.3,508.8 L774.2,510.6 L776.0,512.3 L777.9,514.0
		L779.8,515.6 L781.7,517.3 L783.5,519.0 L785.4,520.7 L787.3,522.4 L789.1,524.0 L791.0,525.7 L792.9,527.3
		L794.7,529.0 L796.6,530.6 L798.5,532.1 L800.4,533.7 L802.2,535.1 L804.1,536.5 L806.0,537.9 L807.8,539.1
		L809.7,540.3 L811.6,541.5 L813.5,542.5 L815.3,543.5 L817.2,544.5 L819.1,545.4 L820.9,546.3 L822.8,547.1
		L824.7,548.0 L826.5,548.8 L828.4,549.6 L830.3,550.5 L832.2,551.4 L834.0,552.3 L835.9,553.3 L837.8,554.3
		L839.6,555.4 L841.5,556.5 L843.4,557.7 L845.3,558.9 L847.1,560.1 L849.0,561.4 L850.9,562.7 L852.7,564.1
		L854.6,565.5 L856.5,566.9 L858.3,568.3 L860.2,569.7 L862.1,571.1 L864.0,572.5 L865.8,573.9 L867.7,575.4
		L869.6,576.8 L871.4,578.1 L873.3,579.5 L875.2,580.9 L877.1,582.2 L878.9,583.6 L880.8,584.9 L882.7,586.2
		L884.5,587.4 L886.4,588.7 L888.3,589.9 L890.1,591.1 L892.0,592.3 L893.9,593.4 L895.8,594.5 L897.6,595.6
		L899.5,596.7 L901.4,597.7 L903.2,598.6 L905.1,599.6 L907.0,600.5 L908.8,601.4 L910.7,602.2 L912.6,603.0
		L914.5,603.8 L916.3,604.5 L918.2,605.2 L920.1,605.9 L921.9,606.6 L923.8,607.2 L925.7,607.8 L927.6,608.5
		L929.4,609.1 L931.3,609.8 L933.2,610.4 L935.0,611.1 L936.9,611.8 L938.8,612.5 L940.6,613.3 L942.5,614.1
		L944.4,614.9 L946.3,615.7 L948.1,616.5 L950.0,617.4 L951.9,618.3 L953.7,619.2 L955.6,620.0 L957.5,620.9
		L959.4,621.7 L961.2,622.6 L963.1,623.4 L965.0,624.1 L966.8,624.8 L968.7,625.5 L970.6,626.1 L972.4,626.7
		L974.3,627.2 L976.2,627.7 L978.1,628.1 L979.9,628.5 L981.8,628.9 L983.7,629.2 L985.5,629.6 L987.4,629.9
		L989.3,630.2 L991.2,630.5 L993.0,630.8 L994.9,631.1 L996.8,631.4 L998.6,631.8 L1000.5,632.2 L1002.4,632.6
		L1004.2,633.0 L1006.1,633.5 L1008.0,634.0 L1009.9,634.5 L1011.7,635.0 L1013.6,635.5  '/></g>
	</g>
	<g id="gnuplot_plot_2" ><title>Confidence interval</title>
<g fill="none" color="white" stroke="rgb( 31, 120, 180)" stroke-width="1.00" stroke-linecap="butt" stroke-linejoin="miter">
</g>
<g fill="none" color="black" stroke="currentColor" stroke-width="1.00" stroke-linecap="butt" stroke-linejoin="miter">
	<g transform="translate(1089.0,85.0)" stroke="none" fill="black" font-family="Helvetica" font-size="12.00"  text-anchor="start">
		<text><tspan font-family="Helvetica" >Confidence interval</tspan></text>
	</g>
</g>
<g fill="none" color="black" stroke="currentColor" stroke-width="1.00" stroke-linecap="butt" stroke-linejoin="miter">
	<g stroke='none' shape-rendering='crispEdges'>
		<polygon fill = 'rgb( 31, 120, 180)' fill-opacity = '0.250000' points = '1038.5,85.6 1080.7,85.6 1080.7,76.6 1038.5,76.6 '/>
		<polygon fill = 'rgb( 31, 120, 180)' fill-opacity = '0.250000' points = '166.2,569.0 168.1,568.0 170.0,567.0 171.9,566.0 173.7,565.0 175.6,563.9 177.5,562.8 179.3,561.7 181.2,560.5 183.1,559.2 185.0,557.8 186.8,556.3 188.7,554.6 190.6,552.9 192.4,551.0 194.3,548.9
196.2,546.8 198.0,544.5 199.9,542.1 201.8,539.5 203.7,536.9 205.5,534.1 207.4,531.3 209.3,528.4 211.1,525.4 213.0,522.3 214.9,519.3 216.7,516.2 218.6,513.1 220.5,510.0 222.4,506.8 224.2,503.7
226.1,500.7 228.0,497.6 229.8,494.6 231.7,491.5 233.6,488.5 235.5,485.5 237.3,482.5 239.2,479.5 241.1,476.4 242.9,473.3 244.8,470.1 246.7,466.9 248.5,463.6 250.4,460.2 252.3,456.7 254.2,453.1
256.0,449.4 257.9,445.6 259.8,441.8 261.6,437.8 263.5,433.9 265.4,429.9 267.3,425.9 269.1,421.9 271.0,418.0 272.9,414.1 274.7,410.4 276.6,406.7 278.5,403.1 280.3,399.6 282.2,396.1 284.1,392.8
286.0,389.4 287.8,386.1 289.7,382.8 291.6,379.4 293.4,375.9 295.3,372.4 297.2,368.7 299.1,364.8 300.9,360.8 302.8,356.7 304.7,352.4 306.5,347.9 308.4,343.4 310.3,338.7 312.1,334.0 314.0,329.4
315.9,324.7 317.8,320.2 319.6,315.9 321.5,311.7 323.4,307.8 325.2,304.2 327.1,300.9 329.0,297.9 330.9,295.3 332.7,293.0 334.6,291.1 336.5,289.5 338.3,288.1 340.2,286.9 342.1,286.0 343.9,285.1
345.8,284.3 347.7,283.4 349.6,282.5 351.4,281.4 353.3,280.0 355.2,278.4 357.0,276.4 358.9,274.1 360.8,271.3 362.7,268.1 364.5,264.6 366.4,260.6 368.3,256.2 370.1,251.6 372.0,246.6 373.9,241.5
375.7,236.1 377.6,230.8 379.5,225.4 381.4,220.1 383.2,215.0 385.1,210.1 387.0,205.5 388.8,201.2 390.7,197.4 392.6,193.9 394.5,191.0 396.3,188.4 398.2,186.3 400.1,184.6 401.9,183.3 403.8,182.2
405.7,181.4 407.5,180.8 409.4,180.3 411.3,179.8 413.2,179.2 415.0,178.5 416.9,177.5 418.8,176.3 420.6,174.8 422.5,172.9 424.4,170.7 426.3,168.1 428.1,165.1 430.0,161.8 431.9,158.2 433.7,154.4
435.6,150.4 437.5,146.3 439.3,142.2 441.2,138.2 443.1,134.3 445.0,130.6 446.8,127.2 448.7,124.1 450.6,121.4 452.4,119.0 454.3,117.0 456.2,115.4 458.0,114.2 459.9,113.4 461.8,112.9 463.7,112.7
465.5,112.7 467.4,112.9 469.3,113.3 471.1,113.7 473.0,114.2 474.9,114.7 476.8,115.1 478.6,115.5 480.5,115.8 482.4,115.9 484.2,115.9 486.1,115.8 488.0,115.6 489.8,115.3 491.7,115.0 493.6,114.6
495.5,114.3 497.3,114.0 499.2,113.9 501.1,113.9 502.9,114.3 504.8,114.8 506.7,115.7 508.6,117.0 510.4,118.7 512.3,120.7 514.2,123.1 516.0,125.9 517.9,129.1 519.8,132.5 521.6,136.3 523.5,140.2
525.4,144.3 527.3,148.5 529.1,152.7 531.0,156.8 532.9,160.8 534.7,164.6 536.6,168.2 538.5,171.5 540.4,174.4 542.2,177.1 544.1,179.4 546.0,181.4 547.8,183.0 549.7,184.4 551.6,185.4 553.4,186.3
555.3,187.0 557.2,187.5 559.1,188.0 560.9,188.4 562.8,188.8 564.7,189.3 566.5,189.9 568.4,190.6 570.3,191.4 572.2,192.3 574.0,193.4 575.9,194.7 577.8,196.1 579.6,197.6 581.5,199.2 583.4,200.9
585.2,202.6 587.1,204.5 589.0,206.3 590.9,208.2 592.7,210.1 594.6,211.9 596.5,213.8 598.3,215.7 600.2,217.6 602.1,219.5 604.0,221.3 605.8,223.2 607.7,225.1 609.6,227.0 611.4,228.9 613.3,230.9
615.2,232.8 617.0,234.8 618.9,236.9 620.8,238.9 622.7,241.0 624.5,243.1 626.4,245.2 628.3,247.4 630.1,249.5 632.0,251.8 633.9,254.0 635.8,256.3 637.6,258.6 639.5,261.0 641.4,263.4 643.2,265.9
645.1,268.5 647.0,271.2 648.8,273.9 650.7,276.8 652.6,279.8 654.5,282.9 656.3,286.1 658.2,289.6 660.1,293.1 661.9,296.9 663.8,300.8 665.7,304.8 667.5,309.1 669.4,313.5 671.3,318.1 673.2,322.8
675.0,327.6 676.9,332.6 678.8,337.7 680.6,342.9 682.5,348.2 684.4,353.6 686.3,359.0 688.1,364.4 690.0,369.8 691.9,375.2 693.7,380.5 695.6,385.8 697.5,391.1 699.3,396.2 701.2,401.2 703.1,406.1
705.0,410.8 706.8,415.4 708.7,419.9 710.6,424.1 712.4,428.2 714.3,432.2 716.2,435.9 718.1,439.5 719.9,443.0 721.8,446.2 723.7,449.4 725.5,452.4 727.4,455.3 729.3,458.1 731.1,460.7 733.0,463.4
734.9,465.9 736.8,468.4 738.6,470.9 740.5,473.3 742.4,475.7 744.2,478.0 746.1,480.3 748.0,482.6 749.9,484.9 751.7,487.2 753.6,489.4 755.5,491.5 757.3,493.6 759.2,495.7 761.1,497.7 762.9,499.7
764.8,501.6 766.7,503.5 768.6,505.3 770.4,507.1 772.3,508.8 774.2,510.6 776.0,512.3 777.9,514.0 779.8,515.6 781.7,517.3 783.5,519.0 785.4,520.7 787.3,522.4 789.1,524.0 791.0,525.7 792.9,527.3
794.7,529.0 796.6,530.6 798.5,532.1 800.4,533.7 802.2,535.1 804.1,536.5 806.0,537.9 807.8,539.1 809.7,540.3 811.6,541.5 813.5,542.5 815.3,543.5 817.2,544.5 819.1,545.4 820.9,546.3 822.8,547.1
824.7,548.0 826.5,548.8 828.4,549.6 830.3,550.5 832.2,551.4 834.0,552.3 835.9,553.3 837.8,554.3 839.6,555.4 841.5,556.5 843.4,557.7 845.3,558.9 847.1,560.1 849.0,561.4 850.9,562.7 852.7,564.1
854.6,565.5 856.5,566.9 858.3,568.3 860.2,569.7 862.1,571.1 864.0,572.5 865.8,573.9 867.7,575.4 869.6,576.8 871.4,578.1 873.3,579.5 875.2,580.9 877.1,582.2 878.9,583.6 880.8,584.9 882.7,586.2
884.5,587.4 886.4,588.7 888.3,589.9 890.1,591.1 892.0,592.3 893.9,593.4 895.8,594.5 897.6,595.6 899.5,596.7 901.4,597.7 903.2,598.6 905.1,599.6 907.0,600.5 908.8,601.4 910.7,602.2 912.6,603.0
914.5,603.8 916.3,604.5 918.2,605.2 920.1,605.9 921.9,606.6 923.8,607.2 925.7,607.8 925.7,662.4 923.8,662.4 921.9,662.4 920.1,662.4 918.2,662.4 916.3,662.4 914.5,662.4 912.6,662.4 910.7,662.4
908.8,662.4 907.0,662.4 905.1,662.4 903.2,662.4 901.4,662.4 899.5,662.4 897.6,662.4 895.8,662.4 893.9,662.4 892.0,662.4 890.1,662.4 888.3,662.4 886.4,662.4 884.5,662.4 882.7,662.4 880.8,662.4
878.9,662.4 877.1,662.4 875.2,662.4 873.3,662.4 871.4,662.4 869.6,662.4 867.7,662.4 865.8,662.4 864.0,662.4 862.1,662.4 860.2,662.4 858.3,662.4 856.5,662.4 854.6,662.4 852.7,662.4 850.9,662.4
849.0,662.4 847.1,662.4 845.3,662.4 843.4,662.4 841.5,662.4 839.6,662.4 837.8,662.4 835.9,662.4 834.0,662.4 832.2,662.4 830.3,662.4 828.4,662.4 826.5,662.4 824.7,662.4 822.8,662.4 820.9,662.4
819.1,662.4 817.2,662.4 815.3,662.4 813.5,662.4 811.6,662.4 809.7,662.4 807.8,662.4 806.0,662.4 804.1,662.4 802.2,662.4 800.4,662.4 798.5,662.4 796.6,662.4 794.7,662.4 792.9,662.4 791.0,662.4
789.1,662.4 787.3,662.4 785.4,662.4 783.5,662.4 781.7,662.4 779.8,662.4 777.9,662.4 776.0,662.4 774.2,662.4 772.3,662.4 770.4,662.4 768.6,662.4 766.7,662.4 764.8,662.4 762.9,662.4 761.1,662.4
759.2,662.4 757.3,662.4 755.5,662.4 753.6,662.4 751.7,662.4 749.9,662.4 748.0,662.4 746.1,662.4 744.2,662.4 742.4,662.4 740.5,662.4 738.6,662.4 736.8,662.4 734.9,662.4 733.0,662.4 731.1,662.4
729.3,662.4 727.4,662.4 725.5,662.4 723.7,662.4 721.8,662.4 719.9,662.4 718.1,662.4 716.2,662.4 714.3,662.4 712.4,662.4 710.6,662.4 708.7,662.4 706.8,662.4 705.0,662.4 703.1,662.4 701.2,662.4
699.3,662.4 697.5,662.4 695.6,662.4 693.7,662.4 691.9,662.4 690.0,662.4 688.1,662.4 686.3,662.4 684.4,662.4 682.5,662.4 680.6,662.4 678.8,662.4 676.9,662.4 675.0,662.4 673.2,662.4 671.3,662.4
669.4,662.4 667.5,662.4 665.7,662.4 663.8,662.4 661.9,662.4 660.1,662.4 658.2,662.4 656.3,662.4 654.5,662.4 652.6,662.4 650.7,662.4 648.8,662.4 647.0,662.4 645.1,662.4 643.2,662.4 641.4,662.4
639.5,662.4 637.6,662.4 635.8,662.4 633.9,662.4 632.0,662.4 630.1,662.4 628.3,662.4 626.4,662.4 624.5,662.4 622.7,662.4 620.8,662.4 618.9,662.4 617.0,662.4 615.2,662.4 613.3,662.4 611.4,662.4
609.6,662.4 607.7,662.4 605.8,662.4 604.0,662.4 602.1,662.4 600.2,662.4 598.3,662.4 596.5,662.4 594.6,662.4 592.7,662.4 590.9,662.4 589.0,662.4 587.1,662.4 585.2,662.4 583.4,662.4 581.5,662.4
579.6,662.4 577.8,662.4 575.9,662.4 574.0,662.4 572.2,662.4 570.3,662.4 568.4,662.4 566.5,662.4 564.7,662.4 562.8,662.4 560.9,662.4 559.1,662.4 557.2,662.4 555.3,662.4 553.4,662.4 551.6,662.4
549.7,662.4 547.8,662.4 546.0,662.4 544.1,662.4 542.2,662.4 540.4,662.4 538.5,662.4 536.6,662.4 534.7,662.4 532.9,662.4 531.0,662.4 529.1,662.4 527.3,662.4 525.4,662.4 523.5,662.4 521.6,662.4
519.8,662.4 517.9,662.4 516.0,662.4 514.2,662.4 512.3,662.4 510.4,662.4 508.6,662.4 506.7,662.4 504.8,662.4 502.9,662.4 501.1,662.4 499.2,662.4 497.3,662.4 495.5,662.4 493.6,662.4 491.7,662.4
489.8,662.4 488.0,662.4 486.1,662.4 484.2,662.4 482.4,662.4 480.5,662.4 478.6,662.4 476.8,662.4 474.9,662.4 473.0,662.4 471.1,662.4 469.3,662.4 467.4,662.4 465.5,662.4 463.7,662.4 461.8,662.4
459.9,662.4 458.0,662.4 456.2,662.4 454.3,662.4 452.4,662.4 450.6,662.4 448.7,662.4 446.8,662.4 445.0,662.4 443.1,662.4 441.2,662.4 439.3,662.4 437.5,662.4 435.6,662.4 433.7,662.4 431.9,662.4
430.0,662.4 428.1,662.4 426.3,662.4 424.4,662.4 422.5,662.4 420.6,662.4 418.8,662.4 416.9,662.4 415.0,662.4 413.2,662.4 411.3,662.4 409.4,662.4 407.5,662.4 405.7,662.4 403.8,662.4 401.9,662.4
400.1,662.4 398.2,662.4 396.3,662.4 394.5,662.4 392.6,662.4 390.7,662.4 388.8,662.4 387.0,662.4 385.1,662.4 383.2,662.4 381.4,662.4 379.5,662.4 377.6,662.4 375.7,662.4 373.9,662.4 372.0,662.4
370.1,662.4 368.3,662.4 366.4,662.4 364.5,662.4 362.7,662.4 360.8,662.4 358.9,662.4 357.0,662.4 355.2,662.4 353.3,662.4 351.4,662.4 349.6,662.4 347.7,662.4 345.8,662.4 343.9,662.4 342.1,662.4
340.2,662.4 338.3,662.4 336.5,662.4 334.6,662.4 332.7,662.4 330.9,662.4 329.0,662.4 327.1,662.4 325.2,662.4 323.4,662.4 321.5,662.4 319.6,662.4 317.8,662.4 315.9,662.4 314.0,662.4 312.1,662.4
310.3,662.4 308.4,662.4 306.5,662.4 304.7,662.4 302.8,662.4 300.9,662.4 299.1,662.4 297.2,662.4 295.3,662.4 293.4,662.4 291.6,662.4 289.7,662.4 287.8,662.4 286.0,662.4 284.1,662.4 282.2,662.4
280.3,662.4 278.5,662.4 276.6,662.4 274.7,662.4 272.9,662.4 271.0,662.4 269.1,662.4 267.3,662.4 265.4,662.4 263.5,662.4 261.6,662.4 259.8,662.4 257.9,662.4 256.0,662.4 254.2,662.4 252.3,662.4
250.4,662.4 248.5,662.4 246.7,662.4 244.8,662.4 242.9,662.4 241.1,662.4 239.2,662.4 237.3,662.4 235.5,662.4 233.6,662.4 231.7,662.4 229.8,662.4 228.0,662.4 226.1,662.4 224.2,662.4 222.4,662.4
220.5,662.4 218.6,662.4 216.7,662.4 214.9,662.4 213.0,662.4 211.1,662.4 209.3,662.4 207.4,662.4 205.5,662.4 203.7,662.4 201.8,662.4 199.9,662.4 198.0,662.4 196.2,662.4 194.3,662.4 192.4,662.4
190.6,662.4 188.7,662.4 186.8,662.4 185.0,662.4 183.1,662.4 181.2,662.4 179.3,662.4 177.5,662.4 175.6,662.4 173.7,662.4 171.9,662.4 170.0,662.4 168.1,662.4 166.2,662.4 '/>
	</g>
</g>
	</g>
	<g id="gnuplot_plot_3" ><title>Point estimate</title>
<g fill="none" color="white" stroke="rgb( 31, 120, 180)" stroke-width="2.00" stroke-linecap="butt" stroke-linejoin="miter">
</g>
<g fill="none" color="black" stroke="currentColor" stroke-width="2.00" stroke-linecap="butt" stroke-linejoin="miter">
	<g transform="translate(1089.0,103.0)" stroke="none" fill="black" font-family="Helvetica" font-size="12.00"  text-anchor="start">
		<text><tspan font-family="Helvetica" >Point estimate</tspan></text>
	</g>
</g>
<g fill="none" color="black" stroke="currentColor" stroke-width="2.00" stroke-linecap="butt" stroke-linejoin="miter">
	<path stroke='rgb( 31, 120, 180)'  d='M1038.5,99.1 L1080.7,99.1 M541.8,662.4 L541.8,176.5  '/></g>
	</g>
<g fill="none" color="black" stroke="currentColor" stroke-width="2.00" stroke-linecap="butt" stroke-linejoin="miter">
</g>
<g fill="none" color="black" stroke="black" stroke-width="1.00" stroke-linecap="butt" stroke-linejoin="miter">
</g>
<g fill="none" color="black" stroke="currentColor" stroke-width="1.00" stroke-linecap="butt" stroke-linejoin="miter">
	<path stroke='black'  d='M80.2,54.1 L80.2,662.4 L1013.6,662.4 L1013.6,54.1 L80.2,54.1 Z  '/></g>
<g fill="none" color="black" stroke="currentColor" stroke-width="1.00" stroke-linecap="butt" stroke-linejoin="miter">
</g>
</g>
</svg>

