<?xml version="1.0" encoding="utf-8"  standalone="no"?>
<svg 
 viewBox="0 0 1280 720"
 xmlns="http://www.w3.org/2000/svg"
 xmlns:xlink="http://www.w3.org/1999/xlink"
>

<title>Gnuplot</title>
<desc>Produced by GNUPLOT 5.2 patchlevel 6 </desc>

<g id="gnuplot_canvas">

<rect x="0" y="0" width="1280" height="720" fill="none"/>
<defs>

	<circle id='gpDot' r='0.5' stroke-width='0.5' stroke='currentColor'/>
	<path id='gpPt0' stroke-width='0.222' stroke='currentColor' d='M-1,0 h2 M0,-1 v2'/>
	<path id='gpPt1' stroke-width='0.222' stroke='currentColor' d='M-1,-1 L1,1 M1,-1 L-1,1'/>
	<path id='gpPt2' stroke-width='0.222' stroke='currentColor' d='M-1,0 L1,0 M0,-1 L0,1 M-1,-1 L1,1 M-1,1 L1,-1'/>
	<rect id='gpPt3' stroke-width='0.222' stroke='currentColor' x='-1' y='-1' width='2' height='2'/>
	<rect id='gpPt4' stroke-width='0.222' stroke='currentColor' fill='currentColor' x='-1' y='-1' width='2' height='2'/>
	<circle id='gpPt5' stroke-width='0.222' stroke='currentColor' cx='0' cy='0' r='1'/>
	<use xlink:href='#gpPt5' id='gpPt6' fill='currentColor' stroke='none'/>
	<path id='gpPt7' stroke-width='0.222' stroke='currentColor' d='M0,-1.33 L-1.33,0.67 L1.33,0.67 z'/>
	<use xlink:href='#gpPt7' id='gpPt8' fill='currentColor' stroke='none'/>
	<use xlink:href='#gpPt7' id='gpPt9' stroke='currentColor' transform='rotate(180)'/>
	<use xlink:href='#gpPt9' id='gpPt10' fill='currentColor' stroke='none'/>
	<use xlink:href='#gpPt3' id='gpPt11' stroke='currentColor' transform='rotate(45)'/>
	<use xlink:href='#gpPt11' id='gpPt12' fill='currentColor' stroke='none'/>
	<path id='gpPt13' stroke-width='0.222' stroke='currentColor' d='M0,1.330 L1.265,0.411 L0.782,-1.067 L-0.782,-1.076 L-1.265,0.411 z'/>
	<use xlink:href='#gpPt13' id='gpPt14' fill='currentColor' stroke='none'/>
	<filter id='textbox' filterUnits='objectBoundingBox' x='0' y='0' height='1' width='1'>
	  <feFlood flood-color='white' flood-opacity='1' result='bgnd'/>
	  <feComposite in='SourceGraphic' in2='bgnd' operator='atop'/>
	</filter>
	<filter id='greybox' filterUnits='objectBoundingBox' x='0' y='0' height='1' width='1'>
	  <feFlood flood-color='lightgrey' flood-opacity='1' result='grey'/>
	  <feComposite in='SourceGraphic' in2='grey' operator='atop'/>
	</filter>
</defs>
<g fill="none" color="white" stroke="currentColor" stroke-width="1.00" stroke-linecap="butt" stroke-linejoin="miter">
</g>
<g fill="none" color="black" stroke="currentColor" stroke-width="1.00" stroke-linecap="butt" stroke-linejoin="miter">
	<path stroke='black'  d='M71.9,662.4 L80.9,662.4  '/>	<g transform="translate(63.6,666.3)" stroke="none" fill="black" font-family="Helvetica" font-size="12.00"  text-anchor="end">
		<text><tspan font-family="Helvetica" > 0</tspan></text>
	</g>
</g>
<g fill="none" color="black" stroke="currentColor" stroke-width="1.00" stroke-linecap="butt" stroke-linejoin="miter">
	<path stroke='black'  d='M71.9,510.3 L80.9,510.3  '/>	<g transform="translate(63.6,514.2)" stroke="none" fill="black" font-family="Helvetica" font-size="12.00"  text-anchor="end">
		<text><tspan font-family="Helvetica" > 50</tspan></text>
	</g>
</g>
<g fill="none" color="black" stroke="currentColor" stroke-width="1.00" stroke-linecap="butt" stroke-linejoin="miter">
	<path stroke='black'  d='M71.9,358.2 L80.9,358.2  '/>	<g transform="translate(63.6,362.1)" stroke="none" fill="black" font-family="Helvetica" font-size="12.00"  text-anchor="end">
		<text><tspan font-family="Helvetica" > 100</tspan></text>
	</g>
</g>
<g fill="none" color="black" stroke="currentColor" stroke-width="1.00" stroke-linecap="butt" stroke-linejoin="miter">
	<path stroke='black'  d='M71.9,206.2 L80.9,206.2  '/>	<g transform="translate(63.6,210.1)" stroke="none" fill="black" font-family="Helvetica" font-size="12.00"  text-anchor="end">
		<text><tspan font-family="Helvetica" > 150</tspan></text>
	</g>
</g>
<g fill="none" color="black" stroke="currentColor" stroke-width="1.00" stroke-linecap="butt" stroke-linejoin="miter">
	<path stroke='black'  d='M71.9,54.1 L80.9,54.1  '/>	<g transform="translate(63.6,58.0)" stroke="none" fill="black" font-family="Helvetica" font-size="12.00"  text-anchor="end">
		<text><tspan font-family="Helvetica" > 200</tspan></text>
	</g>
</g>
<g fill="none" color="black" stroke="currentColor" stroke-width="1.00" stroke-linecap="butt" stroke-linejoin="miter">
	<path stroke='black'  d='M216.8,662.4 L216.8,653.4  '/>	<g transform="translate(216.8,684.3)" stroke="none" fill="black" font-family="Helvetica" font-size="12.00"  text-anchor="middle">
		<text><tspan font-family="Helvetica" > 600</tspan></text>
	</g>
</g>
<g fill="none" color="black" stroke="currentColor" stroke-width="1.00" stroke-linecap="butt" stroke-linejoin="miter">
	<path stroke='black'  d='M374.2,662.4 L374.2,653.4  '/>	<g transform="translate(374.2,684.3)" stroke="none" fill="black" font-family="Helvetica" font-size="12.00"  text-anchor="middle">
		<text><tspan font-family="Helvetica" > 620</tspan></text>
	</g>
</g>
<g fill="none" color="black" stroke="currentColor" stroke-width="1.00" stroke-linecap="butt" stroke-linejoin="miter">
	<path stroke='black'  d='M531.5,662.4 L531.5,653.4  '/>	<g transform="translate(531.5,684.3)" stroke="none" fill="black" font-family="Helvetica" font-size="12.00"  text-anchor="middle">
		<text><tspan font-family="Helvetica" > 640</tspan></text>
	</g>
</g>
<g fill="none" color="black" stroke="currentColor" stroke-width="1.00" stroke-linecap="butt" stroke-linejoin="miter">
	<path stroke='black'  d='M688.9,662.4 L688.9,653.4  '/>	<g transform="translate(688.9,684.3)" stroke="none" fill="black" font-family="Helvetica" font-size="12.00"  text-anchor="middle">
		<text><tspan font-family="Helvetica" > 660</tspan></text>
	</g>
</g>
<g fill="none" color="black" stroke="currentColor" stroke-width="1.00" stroke-linecap="butt" stroke-linejoin="miter">
	<path stroke='black'  d='M846.3,662.4 L846.3,653.4  '/>	<g transform="translate(846.3,684.3)" stroke="none" fill="black" font-family="Helvetica" font-size="12.00"  text-anchor="middle">
		<text><tspan font-family="Helvetica" > 680</tspan></text>
	</g>
</g>
<g fill="none" color="black" stroke="currentColor" stroke-width="1.00" stroke-linecap="butt" stroke-linejoin="miter">
	<path stroke='black'  d='M995.6,662.4 L986.6,662.4  '/>	<g transform="translate(1003.9,666.3)" stroke="none" fill="black" font-family="Helvetica" font-size="12.00"  text-anchor="start">
		<text><tspan font-family="Helvetica" > 0</tspan></text>
	</g>
</g>
<g fill="none" color="black" stroke="currentColor" stroke-width="1.00" stroke-linecap="butt" stroke-linejoin="miter">
	<path stroke='black'  d='M995.6,586.4 L986.6,586.4  '/>	<g transform="translate(1003.9,590.3)" stroke="none" fill="black" font-family="Helvetica" font-size="12.00"  text-anchor="start">
		<text><tspan font-family="Helvetica" > 0.01</tspan></text>
	</g>
</g>
<g fill="none" color="black" stroke="currentColor" stroke-width="1.00" stroke-linecap="butt" stroke-linejoin="miter">
	<path stroke='black'  d='M995.6,510.3 L986.6,510.3  '/>	<g transform="translate(1003.9,514.2)" stroke="none" fill="black" font-family="Helvetica" font-size="12.00"  text-anchor="start">
		<text><tspan font-family="Helvetica" > 0.02</tspan></text>
	</g>
</g>
<g fill="none" color="black" stroke="currentColor" stroke-width="1.00" stroke-linecap="butt" stroke-linejoin="miter">
	<path stroke='black'  d='M995.6,434.3 L986.6,434.3  '/>	<g transform="translate(1003.9,438.2)" stroke="none" fill="black" font-family="Helvetica" font-size="12.00"  text-anchor="start">
		<text><tspan font-family="Helvetica" > 0.03</tspan></text>
	</g>
</g>
<g fill="none" color="black" stroke="currentColor" stroke-width="1.00" stroke-linecap="butt" stroke-linejoin="miter">
	<path stroke='black'  d='M995.6,358.2 L986.6,358.2  '/>	<g transform="translate(1003.9,362.1)" stroke="none" fill="black" font-family="Helvetica" font-size="12.00"  text-anchor="start">
		<text><tspan font-family="Helvetica" > 0.04</tspan></text>
	</g>
</g>
<g fill="none" color="black" stroke="currentColor" stroke-width="1.00" stroke-linecap="butt" stroke-linejoin="miter">
	<path stroke='black'  d='M995.6,282.2 L986.6,282.2  '/>	<g transform="translate(1003.9,286.1)" stroke="none" fill="black" font-family="Helvetica" font-size="12.00"  text-anchor="start">
		<text><tspan font-family="Helvetica" > 0.05</tspan></text>
	</g>
</g>
<g fill="none" color="black" stroke="currentColor" stroke-width="1.00" stroke-linecap="butt" stroke-linejoin="miter">
	<path stroke='black'  d='M995.6,206.2 L986.6,206.2  '/>	<g transform="translate(1003.9,210.1)" stroke="none" fill="black" font-family="Helvetica" font-size="12.00"  text-anchor="start">
		<text><tspan font-family="Helvetica" > 0.06</tspan></text>
	</g>
</g>
<g fill="none" color="black" stroke="currentColor" stroke-width="1.00" stroke-linecap="butt" stroke-linejoin="miter">
	<path stroke='black'  d='M995.6,130.1 L986.6,130.1  '/>	<g transform="translate(1003.9,134.0)" stroke="none" fill="black" font-family="Helvetica" font-size="12.00"  text-anchor="start">
		<text><tspan font-family="Helvetica" > 0.07</tspan></text>
	</g>
</g>
<g fill="none" color="black" stroke="currentColor" stroke-width="1.00" stroke-linecap="butt" stroke-linejoin="miter">
	<path stroke='black'  d='M995.6,54.1 L986.6,54.1  '/>	<g transform="translate(1003.9,58.0)" stroke="none" fill="black" font-family="Helvetica" font-size="12.00"  text-anchor="start">
		<text><tspan font-family="Helvetica" > 0.08</tspan></text>
	</g>
</g>
<g fill="none" color="black" stroke="currentColor" stroke-width="1.00" stroke-linecap="butt" stroke-linejoin="miter">
</g>
<g fill="none" color="black" stroke="currentColor" stroke-width="1.00" stroke-linecap="butt" stroke-linejoin="miter">
	<path stroke='black'  d='M71.9,54.1 L71.9,662.4 L995.6,662.4 L995.6,54.1 L71.9,54.1 Z  '/></g>
<g fill="none" color="black" stroke="currentColor" stroke-width="1.00" stroke-linecap="butt" stroke-linejoin="miter">
	<g transform="translate(16.3,358.3) rotate(270)" stroke="none" fill="black" font-family="Helvetica" font-size="12.00"  text-anchor="middle">
		<text><tspan font-family="Helvetica" >Iterations</tspan></text>
	</g>
</g>
<g fill="none" color="black" stroke="currentColor" stroke-width="1.00" stroke-linecap="butt" stroke-linejoin="miter">
	<g transform="translate(1074.2,358.3) rotate(270)" stroke="none" fill="black" font-family="Helvetica" font-size="12.00"  text-anchor="middle">
		<text><tspan font-family="Helvetica" >Density (a.u.)</tspan></text>
	</g>
</g>
<g fill="none" color="black" stroke="currentColor" stroke-width="1.00" stroke-linecap="butt" stroke-linejoin="miter">
	<g transform="translate(533.7,711.3)" stroke="none" fill="black" font-family="Helvetica" font-size="12.00"  text-anchor="middle">
		<text><tspan font-family="Helvetica" >Average time (us)</tspan></text>
	</g>
</g>
<g fill="none" color="black" stroke="currentColor" stroke-width="1.00" stroke-linecap="butt" stroke-linejoin="miter">
	<g transform="translate(533.7,31.0)" stroke="none" fill="black" font-family="Helvetica" font-size="12.00"  text-anchor="middle">
		<text><tspan font-family="Helvetica" >snapshot_restore_with_dense/Sparse: Entire region + process_vm_writev w/ page size/100</tspan></text>
	</g>
</g>
	<g id="gnuplot_plot_1" ><title>PDF</title>
<g fill="none" color="black" stroke="currentColor" stroke-width="1.00" stroke-linecap="butt" stroke-linejoin="miter">
	<g transform="translate(1147.1,67.0)" stroke="none" fill="black" font-family="Helvetica" font-size="12.00"  text-anchor="start">
		<text><tspan font-family="Helvetica" >PDF</tspan></text>
	</g>
</g>
<g fill="none" color="black" stroke="currentColor" stroke-width="1.00" stroke-linecap="butt" stroke-linejoin="miter">
	<g stroke='none' shape-rendering='crispEdges'>
		<polygon fill = 'rgb( 31, 120, 180)' fill-opacity = '0.250000' points = '1096.6,67.6 1138.8,67.6 1138.8,58.6 1096.6,58.6 '/>
		<polygon fill = 'rgb( 31, 120, 180)' fill-opacity = '0.250000' points = '71.9,660.8 73.8,660.6 75.6,660.3 77.5,659.9 79.3,659.5 81.2,659.1 83.0,658.6 84.9,658.0 86.7,657.3 88.6,656.5 90.4,655.7 92.3,654.7 94.1,653.6 96.0,652.4 97.8,651.0 99.7,649.4
101.5,647.7 103.4,645.8 105.2,643.7 107.1,641.4 108.9,638.8 110.8,635.9 112.6,632.8 114.5,629.4 116.3,625.6 118.2,621.6 120.0,617.1 121.9,612.3 123.7,607.1 125.6,601.5 127.4,595.5 129.3,589.0
131.1,582.1 133.0,574.6 134.8,566.8 136.7,558.4 138.5,549.5 140.4,540.1 142.2,530.3 144.1,519.9 145.9,509.1 147.8,497.7 149.6,486.0 151.5,473.7 153.3,461.1 155.2,448.0 157.1,434.6 158.9,420.8
160.8,406.8 162.6,392.4 164.5,377.9 166.3,363.3 168.2,348.5 170.0,333.7 171.9,318.9 173.7,304.2 175.6,289.7 177.4,275.4 179.3,261.3 181.1,247.6 183.0,234.4 184.8,221.6 186.7,209.4 188.5,197.7
190.4,186.8 192.2,176.7 194.1,167.3 195.9,158.8 197.8,151.2 199.6,144.5 201.5,138.8 203.3,134.1 205.2,130.5 207.0,127.9 208.9,126.4 210.7,126.0 212.6,126.6 214.4,128.4 216.3,131.2 218.1,135.0
220.0,139.8 221.8,145.6 223.7,152.4 225.5,160.0 227.4,168.5 229.2,177.8 231.1,187.8 232.9,198.5 234.8,209.9 236.6,221.8 238.5,234.2 240.4,247.0 242.2,260.1 244.1,273.6 245.9,287.3 247.8,301.1
249.6,315.1 251.5,329.1 253.3,343.1 255.2,357.0 257.0,370.8 258.9,384.4 260.7,397.8 262.6,410.9 264.4,423.8 266.3,436.3 268.1,448.5 270.0,460.3 271.8,471.7 273.7,482.7 275.5,493.3 277.4,503.4
279.2,513.1 281.1,522.4 282.9,531.2 284.8,539.5 286.6,547.4 288.5,554.9 290.3,562.0 292.2,568.7 294.0,574.9 295.9,580.8 297.7,586.3 299.6,591.5 301.4,596.3 303.3,600.8 305.1,605.0 307.0,609.0
308.8,612.6 310.7,616.0 312.5,619.1 314.4,622.1 316.2,624.8 318.1,627.3 319.9,629.6 321.8,631.8 323.6,633.8 325.5,635.7 327.4,637.4 329.2,639.1 331.1,640.6 332.9,641.9 334.8,643.2 336.6,644.4
338.5,645.6 340.3,646.6 342.2,647.5 344.0,648.4 345.9,649.3 347.7,650.0 349.6,650.7 351.4,651.4 353.3,652.0 355.1,652.5 357.0,653.0 358.8,653.5 360.7,653.9 362.5,654.3 364.4,654.6 366.2,654.9
368.1,655.2 369.9,655.5 371.8,655.7 373.6,655.8 375.5,656.0 377.3,656.1 379.2,656.2 381.0,656.3 382.9,656.4 384.7,656.4 386.6,656.5 388.4,656.5 390.3,656.5 392.1,656.5 394.0,656.4 395.8,656.4
397.7,656.4 399.5,656.3 401.4,656.3 403.2,656.3 405.1,656.2 406.9,656.2 408.8,656.1 410.7,656.1 412.5,656.1 414.4,656.0 416.2,656.0 418.1,656.0 419.9,656.0 421.8,656.0 423.6,656.0 425.5,656.0
427.3,656.0 429.2,656.0 431.0,656.0 432.9,656.1 434.7,656.1 436.6,656.2 438.4,656.2 440.3,656.3 442.1,656.3 444.0,656.4 445.8,656.4 447.7,656.5 449.5,656.6 451.4,656.6 453.2,656.7 455.1,656.7
456.9,656.7 458.8,656.8 460.6,656.8 462.5,656.8 464.3,656.8 466.2,656.8 468.0,656.8 469.9,656.8 471.7,656.7 473.6,656.7 475.4,656.6 477.3,656.5 479.1,656.4 481.0,656.3 482.8,656.2 484.7,656.0
486.5,655.9 488.4,655.7 490.2,655.5 492.1,655.4 494.0,655.2 495.8,655.0 497.7,654.8 499.5,654.5 501.4,654.3 503.2,654.1 505.1,653.9 506.9,653.6 508.8,653.4 510.6,653.2 512.5,652.9 514.3,652.7
516.2,652.5 518.0,652.3 519.9,652.1 521.7,651.9 523.6,651.7 525.4,651.5 527.3,651.4 529.1,651.2 531.0,651.1 532.8,651.0 534.7,650.9 536.5,650.8 538.4,650.7 540.2,650.7 542.1,650.6 543.9,650.6
545.8,650.6 547.6,650.6 549.5,650.7 551.3,650.7 553.2,650.8 555.0,650.8 556.9,650.9 558.7,651.0 560.6,651.1 562.4,651.2 564.3,651.3 566.1,651.5 568.0,651.6 569.8,651.7 571.7,651.9 573.5,652.0
575.4,652.2 577.3,652.3 579.1,652.5 581.0,652.6 582.8,652.7 584.7,652.9 586.5,653.0 588.4,653.1 590.2,653.3 592.1,653.4 593.9,653.5 595.8,653.6 597.6,653.7 599.5,653.8 601.3,653.9 603.2,654.0
605.0,654.1 606.9,654.2 608.7,654.3 610.6,654.3 612.4,654.4 614.3,654.5 616.1,654.6 618.0,654.6 619.8,654.7 621.7,654.8 623.5,654.8 625.4,654.9 627.2,655.0 629.1,655.1 630.9,655.2 632.8,655.3
634.6,655.4 636.5,655.5 638.3,655.6 640.2,655.7 642.0,655.9 643.9,656.0 645.7,656.1 647.6,656.3 649.4,656.4 651.3,656.6 653.1,656.7 655.0,656.9 656.8,657.1 658.7,657.3 660.6,657.4 662.4,657.6
664.3,657.8 666.1,658.0 668.0,658.2 669.8,658.3 671.7,658.5 673.5,658.7 675.4,658.9 677.2,659.1 679.1,659.3 680.9,659.4 682.8,659.6 684.6,659.8 686.5,659.9 688.3,660.1 690.2,660.2 692.0,660.4
693.9,660.5 695.7,660.6 697.6,660.8 699.4,660.9 701.3,661.0 703.1,661.1 705.0,661.2 706.8,661.3 708.7,661.4 710.5,661.5 712.4,661.6 714.2,661.6 716.1,661.7 717.9,661.8 719.8,661.8 721.6,661.9
723.5,661.9 725.3,662.0 727.2,662.0 729.0,662.1 730.9,662.1 732.7,662.1 734.6,662.2 736.4,662.2 738.3,662.2 740.1,662.2 742.0,662.2 743.9,662.3 745.7,662.3 747.6,662.3 749.4,662.3 751.3,662.3
753.1,662.3 755.0,662.3 756.8,662.3 758.7,662.3 760.5,662.3 762.4,662.3 764.2,662.3 766.1,662.3 767.9,662.2 769.8,662.2 771.6,662.2 773.5,662.2 775.3,662.2 777.2,662.1 779.0,662.1 780.9,662.1
782.7,662.0 784.6,662.0 786.4,662.0 788.3,661.9 790.1,661.9 792.0,661.8 793.8,661.7 795.7,661.7 797.5,661.6 799.4,661.5 801.2,661.4 803.1,661.3 804.9,661.2 806.8,661.1 808.6,661.0 810.5,660.9
812.3,660.8 814.2,660.7 816.0,660.6 817.9,660.4 819.7,660.3 821.6,660.1 823.4,660.0 825.3,659.8 827.1,659.7 829.0,659.5 830.9,659.3 832.7,659.2 834.6,659.0 836.4,658.8 838.3,658.7 840.1,658.5
842.0,658.3 843.8,658.1 845.7,658.0 847.5,657.8 849.4,657.7 851.2,657.5 853.1,657.4 854.9,657.2 856.8,657.1 858.6,657.0 860.5,656.9 862.3,656.8 864.2,656.7 866.0,656.6 867.9,656.5 869.7,656.5
871.6,656.4 873.4,656.4 875.3,656.4 877.1,656.4 879.0,656.4 880.8,656.4 882.7,656.4 884.5,656.5 886.4,656.5 888.2,656.6 890.1,656.7 891.9,656.8 893.8,656.9 895.6,657.0 897.5,657.1 899.3,657.3
901.2,657.4 903.0,657.5 904.9,657.7 906.7,657.9 908.6,658.0 910.4,658.2 912.3,658.4 914.2,658.5 916.0,658.7 917.9,658.9 919.7,659.0 921.6,659.2 923.4,659.4 925.3,659.5 927.1,659.7 929.0,659.9
930.8,660.0 932.7,660.2 934.5,660.3 936.4,660.4 938.2,660.6 940.1,660.7 941.9,660.8 943.8,661.0 945.6,661.1 947.5,661.2 949.3,661.3 951.2,661.4 953.0,661.5 954.9,661.5 956.7,661.6 958.6,661.7
960.4,661.8 962.3,661.8 964.1,661.9 966.0,661.9 967.8,662.0 969.7,662.0 971.5,662.1 973.4,662.1 975.2,662.1 977.1,662.2 978.9,662.2 980.8,662.2 982.6,662.2 984.5,662.3 986.3,662.3 988.2,662.3
990.0,662.3 991.9,662.3 993.7,662.3 995.6,662.3 995.6,662.4 993.7,662.4 991.9,662.4 990.0,662.4 988.2,662.4 986.3,662.4 984.5,662.4 982.6,662.4 980.8,662.4 978.9,662.4 977.1,662.4 975.2,662.4
973.4,662.4 971.5,662.4 969.7,662.4 967.8,662.4 966.0,662.4 964.1,662.4 962.3,662.4 960.4,662.4 958.6,662.4 956.7,662.4 954.9,662.4 953.0,662.4 951.2,662.4 949.3,662.4 947.5,662.4 945.6,662.4
943.8,662.4 941.9,662.4 940.1,662.4 938.2,662.4 936.4,662.4 934.5,662.4 932.7,662.4 930.8,662.4 929.0,662.4 927.1,662.4 925.3,662.4 923.4,662.4 921.6,662.4 919.7,662.4 917.9,662.4 916.0,662.4
914.2,662.4 912.3,662.4 910.4,662.4 908.6,662.4 906.7,662.4 904.9,662.4 903.0,662.4 901.2,662.4 899.3,662.4 897.5,662.4 895.6,662.4 893.8,662.4 891.9,662.4 890.1,662.4 888.2,662.4 886.4,662.4
884.5,662.4 882.7,662.4 880.8,662.4 879.0,662.4 877.1,662.4 875.3,662.4 873.4,662.4 871.6,662.4 869.7,662.4 867.9,662.4 866.0,662.4 864.2,662.4 862.3,662.4 860.5,662.4 858.6,662.4 856.8,662.4
854.9,662.4 853.1,662.4 851.2,662.4 849.4,662.4 847.5,662.4 845.7,662.4 843.8,662.4 842.0,662.4 840.1,662.4 838.3,662.4 836.4,662.4 834.6,662.4 832.7,662.4 830.9,662.4 829.0,662.4 827.1,662.4
825.3,662.4 823.4,662.4 821.6,662.4 819.7,662.4 817.9,662.4 816.0,662.4 814.2,662.4 812.3,662.4 810.5,662.4 808.6,662.4 806.8,662.4 804.9,662.4 803.1,662.4 801.2,662.4 799.4,662.4 797.5,662.4
795.7,662.4 793.8,662.4 792.0,662.4 790.1,662.4 788.3,662.4 786.4,662.4 784.6,662.4 782.7,662.4 780.9,662.4 779.0,662.4 777.2,662.4 775.3,662.4 773.5,662.4 771.6,662.4 769.8,662.4 767.9,662.4
766.1,662.4 764.2,662.4 762.4,662.4 760.5,662.4 758.7,662.4 756.8,662.4 755.0,662.4 753.1,662.4 751.3,662.4 749.4,662.4 747.6,662.4 745.7,662.4 743.9,662.4 742.0,662.4 740.1,662.4 738.3,662.4
736.4,662.4 734.6,662.4 732.7,662.4 730.9,662.4 729.0,662.4 727.2,662.4 725.3,662.4 723.5,662.4 721.6,662.4 719.8,662.4 717.9,662.4 716.1,662.4 714.2,662.4 712.4,662.4 710.5,662.4 708.7,662.4
706.8,662.4 705.0,662.4 703.1,662.4 701.3,662.4 699.4,662.4 697.6,662.4 695.7,662.4 693.9,662.4 692.0,662.4 690.2,662.4 688.3,662.4 686.5,662.4 684.6,662.4 682.8,662.4 680.9,662.4 679.1,662.4
677.2,662.4 675.4,662.4 673.5,662.4 671.7,662.4 669.8,662.4 668.0,662.4 666.1,662.4 664.3,662.4 662.4,662.4 660.6,662.4 658.7,662.4 656.8,662.4 655.0,662.4 653.1,662.4 651.3,662.4 649.4,662.4
647.6,662.4 645.7,662.4 643.9,662.4 642.0,662.4 640.2,662.4 638.3,662.4 636.5,662.4 634.6,662.4 632.8,662.4 630.9,662.4 629.1,662.4 627.2,662.4 625.4,662.4 623.5,662.4 621.7,662.4 619.8,662.4
618.0,662.4 616.1,662.4 614.3,662.4 612.4,662.4 610.6,662.4 608.7,662.4 606.9,662.4 605.0,662.4 603.2,662.4 601.3,662.4 599.5,662.4 597.6,662.4 595.8,662.4 593.9,662.4 592.1,662.4 590.2,662.4
588.4,662.4 586.5,662.4 584.7,662.4 582.8,662.4 581.0,662.4 579.1,662.4 577.3,662.4 575.4,662.4 573.5,662.4 571.7,662.4 569.8,662.4 568.0,662.4 566.1,662.4 564.3,662.4 562.4,662.4 560.6,662.4
558.7,662.4 556.9,662.4 555.0,662.4 553.2,662.4 551.3,662.4 549.5,662.4 547.6,662.4 545.8,662.4 543.9,662.4 542.1,662.4 540.2,662.4 538.4,662.4 536.5,662.4 534.7,662.4 532.8,662.4 531.0,662.4
529.1,662.4 527.3,662.4 525.4,662.4 523.6,662.4 521.7,662.4 519.9,662.4 518.0,662.4 516.2,662.4 514.3,662.4 512.5,662.4 510.6,662.4 508.8,662.4 506.9,662.4 505.1,662.4 503.2,662.4 501.4,662.4
499.5,662.4 497.7,662.4 495.8,662.4 494.0,662.4 492.1,662.4 490.2,662.4 488.4,662.4 486.5,662.4 484.7,662.4 482.8,662.4 481.0,662.4 479.1,662.4 477.3,662.4 475.4,662.4 473.6,662.4 471.7,662.4
469.9,662.4 468.0,662.4 466.2,662.4 464.3,662.4 462.5,662.4 460.6,662.4 458.8,662.4 456.9,662.4 455.1,662.4 453.2,662.4 451.4,662.4 449.5,662.4 447.7,662.4 445.8,662.4 444.0,662.4 442.1,662.4
440.3,662.4 438.4,662.4 436.6,662.4 434.7,662.4 432.9,662.4 431.0,662.4 429.2,662.4 427.3,662.4 425.5,662.4 423.6,662.4 421.8,662.4 419.9,662.4 418.1,662.4 416.2,662.4 414.4,662.4 412.5,662.4
410.7,662.4 408.8,662.4 406.9,662.4 405.1,662.4 403.2,662.4 401.4,662.4 399.5,662.4 397.7,662.4 395.8,662.4 394.0,662.4 392.1,662.4 390.3,662.4 388.4,662.4 386.6,662.4 384.7,662.4 382.9,662.4
381.0,662.4 379.2,662.4 377.3,662.4 375.5,662.4 373.6,662.4 371.8,662.4 369.9,662.4 368.1,662.4 366.2,662.4 364.4,662.4 362.5,662.4 360.7,662.4 358.8,662.4 357.0,662.4 355.1,662.4 353.3,662.4
351.4,662.4 349.6,662.4 347.7,662.4 345.9,662.4 344.0,662.4 342.2,662.4 340.3,662.4 338.5,662.4 336.6,662.4 334.8,662.4 332.9,662.4 331.1,662.4 329.2,662.4 327.4,662.4 325.5,662.4 323.6,662.4
321.8,662.4 319.9,662.4 318.1,662.4 316.2,662.4 314.4,662.4 312.5,662.4 310.7,662.4 308.8,662.4 307.0,662.4 305.1,662.4 303.3,662.4 301.4,662.4 299.6,662.4 297.7,662.4 295.9,662.4 294.0,662.4
292.2,662.4 290.3,662.4 288.5,662.4 286.6,662.4 284.8,662.4 282.9,662.4 281.1,662.4 279.2,662.4 277.4,662.4 275.5,662.4 273.7,662.4 271.8,662.4 270.0,662.4 268.1,662.4 266.3,662.4 264.4,662.4
262.6,662.4 260.7,662.4 258.9,662.4 257.0,662.4 255.2,662.4 253.3,662.4 251.5,662.4 249.6,662.4 247.8,662.4 245.9,662.4 244.1,662.4 242.2,662.4 240.4,662.4 238.5,662.4 236.6,662.4 234.8,662.4
232.9,662.4 231.1,662.4 229.2,662.4 227.4,662.4 225.5,662.4 223.7,662.4 221.8,662.4 220.0,662.4 218.1,662.4 216.3,662.4 214.4,662.4 212.6,662.4 210.7,662.4 208.9,662.4 207.0,662.4 205.2,662.4
203.3,662.4 201.5,662.4 199.6,662.4 197.8,662.4 195.9,662.4 194.1,662.4 192.2,662.4 190.4,662.4 188.5,662.4 186.7,662.4 184.8,662.4 183.0,662.4 181.1,662.4 179.3,662.4 177.4,662.4 175.6,662.4
173.7,662.4 171.9,662.4 170.0,662.4 168.2,662.4 166.3,662.4 164.5,662.4 162.6,662.4 160.8,662.4 158.9,662.4 157.1,662.4 155.2,662.4 153.3,662.4 151.5,662.4 149.6,662.4 147.8,662.4 145.9,662.4
144.1,662.4 142.2,662.4 140.4,662.4 138.5,662.4 136.7,662.4 134.8,662.4 133.0,662.4 131.1,662.4 129.3,662.4 127.4,662.4 125.6,662.4 123.7,662.4 121.9,662.4 120.0,662.4 118.2,662.4 116.3,662.4
114.5,662.4 112.6,662.4 110.8,662.4 108.9,662.4 107.1,662.4 105.2,662.4 103.4,662.4 101.5,662.4 99.7,662.4 97.8,662.4 96.0,662.4 94.1,662.4 92.3,662.4 90.4,662.4 88.6,662.4 86.7,662.4
84.9,662.4 83.0,662.4 81.2,662.4 79.3,662.4 77.5,662.4 75.6,662.4 73.8,662.4 71.9,662.4 '/>
	</g>
</g>
	</g>
	<g id="gnuplot_plot_2" ><title>Mean</title>
<g fill="none" color="white" stroke="rgb( 31, 120, 180)" stroke-width="2.00" stroke-linecap="butt" stroke-linejoin="miter">
</g>
<g fill="none" color="black" stroke="currentColor" stroke-width="2.00" stroke-linecap="butt" stroke-linejoin="miter">
	<g transform="translate(1147.1,85.0)" stroke="none" fill="black" font-family="Helvetica" font-size="12.00"  text-anchor="start">
		<text><tspan font-family="Helvetica" >Mean</tspan></text>
	</g>
</g>
<g fill="none" color="black" stroke="currentColor" stroke-width="2.00" stroke-linecap="butt" stroke-linejoin="miter">
	<path stroke='rgb( 31, 120, 180)'  d='M1096.6,81.1 L1138.8,81.1 M233.2,662.4 L233.2,54.1  '/></g>
	</g>
	<g id="gnuplot_plot_3" ><title>"Clean" sample</title>
<g fill="none" color="white" stroke="rgb( 31, 120, 180)" stroke-width="1.00" stroke-linecap="butt" stroke-linejoin="miter">
</g>
<g fill="none" color="black" stroke="currentColor" stroke-width="1.00" stroke-linecap="butt" stroke-linejoin="miter">
	<g transform="translate(1147.1,103.0)" stroke="none" fill="black" font-family="Helvetica" font-size="12.00"  text-anchor="start">
		<text><tspan font-family="Helvetica" >"Clean" sample</tspan></text>
	</g>
</g>
<g fill="none" color="black" stroke="currentColor" stroke-width="1.00" stroke-linecap="butt" stroke-linejoin="miter">
	<use xlink:href='#gpPt6' transform='translate(190.6,650.2) scale(3.38)' color='rgb( 31, 120, 180)'/>
	<use xlink:href='#gpPt6' transform='translate(219.6,644.2) scale(3.38)' color='rgb( 31, 120, 180)'/>
	<use xlink:href='#gpPt6' transform='translate(238.4,632.0) scale(3.38)' color='rgb( 31, 120, 180)'/>
	<use xlink:href='#gpPt6' transform='translate(217.3,625.9) scale(3.38)' color='rgb( 31, 120, 180)'/>
	<use xlink:href='#gpPt6' transform='translate(232.2,601.6) scale(3.38)' color='rgb( 31, 120, 180)'/>
	<use xlink:href='#gpPt6' transform='translate(224.5,595.5) scale(3.38)' color='rgb( 31, 120, 180)'/>
	<use xlink:href='#gpPt6' transform='translate(218.3,583.3) scale(3.38)' color='rgb( 31, 120, 180)'/>
	<use xlink:href='#gpPt6' transform='translate(218.9,571.2) scale(3.38)' color='rgb( 31, 120, 180)'/>
	<use xlink:href='#gpPt6' transform='translate(199.6,565.1) scale(3.38)' color='rgb( 31, 120, 180)'/>
	<use xlink:href='#gpPt6' transform='translate(201.0,559.0) scale(3.38)' color='rgb( 31, 120, 180)'/>
	<use xlink:href='#gpPt6' transform='translate(219.1,552.9) scale(3.38)' color='rgb( 31, 120, 180)'/>
	<use xlink:href='#gpPt6' transform='translate(202.7,546.8) scale(3.38)' color='rgb( 31, 120, 180)'/>
	<use xlink:href='#gpPt6' transform='translate(210.1,540.7) scale(3.38)' color='rgb( 31, 120, 180)'/>
	<use xlink:href='#gpPt6' transform='translate(214.5,534.7) scale(3.38)' color='rgb( 31, 120, 180)'/>
	<use xlink:href='#gpPt6' transform='translate(239.0,528.6) scale(3.38)' color='rgb( 31, 120, 180)'/>
	<use xlink:href='#gpPt6' transform='translate(203.4,522.5) scale(3.38)' color='rgb( 31, 120, 180)'/>
	<use xlink:href='#gpPt6' transform='translate(233.9,516.4) scale(3.38)' color='rgb( 31, 120, 180)'/>
	<use xlink:href='#gpPt6' transform='translate(201.0,510.3) scale(3.38)' color='rgb( 31, 120, 180)'/>
	<use xlink:href='#gpPt6' transform='translate(209.0,504.2) scale(3.38)' color='rgb( 31, 120, 180)'/>
	<use xlink:href='#gpPt6' transform='translate(201.8,498.2) scale(3.38)' color='rgb( 31, 120, 180)'/>
	<use xlink:href='#gpPt6' transform='translate(202.2,492.1) scale(3.38)' color='rgb( 31, 120, 180)'/>
	<use xlink:href='#gpPt6' transform='translate(211.8,486.0) scale(3.38)' color='rgb( 31, 120, 180)'/>
	<use xlink:href='#gpPt6' transform='translate(200.2,479.9) scale(3.38)' color='rgb( 31, 120, 180)'/>
	<use xlink:href='#gpPt6' transform='translate(200.2,473.8) scale(3.38)' color='rgb( 31, 120, 180)'/>
	<use xlink:href='#gpPt6' transform='translate(217.9,467.7) scale(3.38)' color='rgb( 31, 120, 180)'/>
	<use xlink:href='#gpPt6' transform='translate(204.4,461.7) scale(3.38)' color='rgb( 31, 120, 180)'/>
	<use xlink:href='#gpPt6' transform='translate(209.1,455.6) scale(3.38)' color='rgb( 31, 120, 180)'/>
	<use xlink:href='#gpPt6' transform='translate(204.5,449.5) scale(3.38)' color='rgb( 31, 120, 180)'/>
	<use xlink:href='#gpPt6' transform='translate(199.1,443.4) scale(3.38)' color='rgb( 31, 120, 180)'/>
	<use xlink:href='#gpPt6' transform='translate(209.2,437.3) scale(3.38)' color='rgb( 31, 120, 180)'/>
	<use xlink:href='#gpPt6' transform='translate(204.0,431.2) scale(3.38)' color='rgb( 31, 120, 180)'/>
	<use xlink:href='#gpPt6' transform='translate(206.9,425.2) scale(3.38)' color='rgb( 31, 120, 180)'/>
	<use xlink:href='#gpPt6' transform='translate(204.2,419.1) scale(3.38)' color='rgb( 31, 120, 180)'/>
	<use xlink:href='#gpPt6' transform='translate(204.7,413.0) scale(3.38)' color='rgb( 31, 120, 180)'/>
	<use xlink:href='#gpPt6' transform='translate(199.2,406.9) scale(3.38)' color='rgb( 31, 120, 180)'/>
	<use xlink:href='#gpPt6' transform='translate(204.0,400.8) scale(3.38)' color='rgb( 31, 120, 180)'/>
	<use xlink:href='#gpPt6' transform='translate(200.7,394.7) scale(3.38)' color='rgb( 31, 120, 180)'/>
	<use xlink:href='#gpPt6' transform='translate(210.8,388.7) scale(3.38)' color='rgb( 31, 120, 180)'/>
	<use xlink:href='#gpPt6' transform='translate(207.8,376.5) scale(3.38)' color='rgb( 31, 120, 180)'/>
	<use xlink:href='#gpPt6' transform='translate(202.0,370.4) scale(3.38)' color='rgb( 31, 120, 180)'/>
	<use xlink:href='#gpPt6' transform='translate(206.1,364.3) scale(3.38)' color='rgb( 31, 120, 180)'/>
	<use xlink:href='#gpPt6' transform='translate(203.7,358.2) scale(3.38)' color='rgb( 31, 120, 180)'/>
	<use xlink:href='#gpPt6' transform='translate(201.2,352.2) scale(3.38)' color='rgb( 31, 120, 180)'/>
	<use xlink:href='#gpPt6' transform='translate(204.5,346.1) scale(3.38)' color='rgb( 31, 120, 180)'/>
	<use xlink:href='#gpPt6' transform='translate(199.5,340.0) scale(3.38)' color='rgb( 31, 120, 180)'/>
	<use xlink:href='#gpPt6' transform='translate(207.6,327.8) scale(3.38)' color='rgb( 31, 120, 180)'/>
	<use xlink:href='#gpPt6' transform='translate(205.2,321.8) scale(3.38)' color='rgb( 31, 120, 180)'/>
	<use xlink:href='#gpPt6' transform='translate(208.4,315.7) scale(3.38)' color='rgb( 31, 120, 180)'/>
	<use xlink:href='#gpPt6' transform='translate(207.4,309.6) scale(3.38)' color='rgb( 31, 120, 180)'/>
	<use xlink:href='#gpPt6' transform='translate(200.4,303.5) scale(3.38)' color='rgb( 31, 120, 180)'/>
	<use xlink:href='#gpPt6' transform='translate(208.4,297.4) scale(3.38)' color='rgb( 31, 120, 180)'/>
	<use xlink:href='#gpPt6' transform='translate(210.1,291.3) scale(3.38)' color='rgb( 31, 120, 180)'/>
	<use xlink:href='#gpPt6' transform='translate(214.8,285.3) scale(3.38)' color='rgb( 31, 120, 180)'/>
	<use xlink:href='#gpPt6' transform='translate(204.8,279.2) scale(3.38)' color='rgb( 31, 120, 180)'/>
	<use xlink:href='#gpPt6' transform='translate(208.4,273.1) scale(3.38)' color='rgb( 31, 120, 180)'/>
	<use xlink:href='#gpPt6' transform='translate(206.6,267.0) scale(3.38)' color='rgb( 31, 120, 180)'/>
	<use xlink:href='#gpPt6' transform='translate(203.9,260.9) scale(3.38)' color='rgb( 31, 120, 180)'/>
	<use xlink:href='#gpPt6' transform='translate(202.9,254.8) scale(3.38)' color='rgb( 31, 120, 180)'/>
	<use xlink:href='#gpPt6' transform='translate(203.9,248.8) scale(3.38)' color='rgb( 31, 120, 180)'/>
	<use xlink:href='#gpPt6' transform='translate(214.6,242.7) scale(3.38)' color='rgb( 31, 120, 180)'/>
	<use xlink:href='#gpPt6' transform='translate(206.4,236.6) scale(3.38)' color='rgb( 31, 120, 180)'/>
	<use xlink:href='#gpPt6' transform='translate(207.3,230.5) scale(3.38)' color='rgb( 31, 120, 180)'/>
	<use xlink:href='#gpPt6' transform='translate(201.1,224.4) scale(3.38)' color='rgb( 31, 120, 180)'/>
	<use xlink:href='#gpPt6' transform='translate(207.1,218.3) scale(3.38)' color='rgb( 31, 120, 180)'/>
	<use xlink:href='#gpPt6' transform='translate(215.1,212.3) scale(3.38)' color='rgb( 31, 120, 180)'/>
	<use xlink:href='#gpPt6' transform='translate(209.4,206.2) scale(3.38)' color='rgb( 31, 120, 180)'/>
	<use xlink:href='#gpPt6' transform='translate(204.2,200.1) scale(3.38)' color='rgb( 31, 120, 180)'/>
	<use xlink:href='#gpPt6' transform='translate(208.0,194.0) scale(3.38)' color='rgb( 31, 120, 180)'/>
	<use xlink:href='#gpPt6' transform='translate(212.6,187.9) scale(3.38)' color='rgb( 31, 120, 180)'/>
	<use xlink:href='#gpPt6' transform='translate(220.9,181.8) scale(3.38)' color='rgb( 31, 120, 180)'/>
	<use xlink:href='#gpPt6' transform='translate(208.4,175.8) scale(3.38)' color='rgb( 31, 120, 180)'/>
	<use xlink:href='#gpPt6' transform='translate(206.5,169.7) scale(3.38)' color='rgb( 31, 120, 180)'/>
	<use xlink:href='#gpPt6' transform='translate(218.3,163.6) scale(3.38)' color='rgb( 31, 120, 180)'/>
	<use xlink:href='#gpPt6' transform='translate(218.8,157.5) scale(3.38)' color='rgb( 31, 120, 180)'/>
	<use xlink:href='#gpPt6' transform='translate(232.1,145.3) scale(3.38)' color='rgb( 31, 120, 180)'/>
	<use xlink:href='#gpPt6' transform='translate(231.1,139.3) scale(3.38)' color='rgb( 31, 120, 180)'/>
	<use xlink:href='#gpPt6' transform='translate(218.0,133.2) scale(3.38)' color='rgb( 31, 120, 180)'/>
	<use xlink:href='#gpPt6' transform='translate(206.4,127.1) scale(3.38)' color='rgb( 31, 120, 180)'/>
	<use xlink:href='#gpPt6' transform='translate(210.1,121.0) scale(3.38)' color='rgb( 31, 120, 180)'/>
	<use xlink:href='#gpPt6' transform='translate(206.5,114.9) scale(3.38)' color='rgb( 31, 120, 180)'/>
	<use xlink:href='#gpPt6' transform='translate(206.9,108.8) scale(3.38)' color='rgb( 31, 120, 180)'/>
	<use xlink:href='#gpPt6' transform='translate(206.7,102.8) scale(3.38)' color='rgb( 31, 120, 180)'/>
	<use xlink:href='#gpPt6' transform='translate(226.7,96.7) scale(3.38)' color='rgb( 31, 120, 180)'/>
	<use xlink:href='#gpPt6' transform='translate(211.8,90.6) scale(3.38)' color='rgb( 31, 120, 180)'/>
	<use xlink:href='#gpPt6' transform='translate(208.7,84.5) scale(3.38)' color='rgb( 31, 120, 180)'/>
	<use xlink:href='#gpPt6' transform='translate(208.1,72.3) scale(3.38)' color='rgb( 31, 120, 180)'/>
	<use xlink:href='#gpPt6' transform='translate(207.1,66.3) scale(3.38)' color='rgb( 31, 120, 180)'/>
	<use xlink:href='#gpPt6' transform='translate(208.9,60.2) scale(3.38)' color='rgb( 31, 120, 180)'/>
	<use xlink:href='#gpPt6' transform='translate(210.2,54.1) scale(3.38)' color='rgb( 31, 120, 180)'/>
	<use xlink:href='#gpPt6' transform='translate(1117.7,99.1) scale(3.38)' color='rgb( 31, 120, 180)'/>
</g>
	</g>
	<g id="gnuplot_plot_4" ><title>Mild outliers</title>
<g fill="none" color="black" stroke="currentColor" stroke-width="1.00" stroke-linecap="butt" stroke-linejoin="miter">
	<g transform="translate(1147.1,121.0)" stroke="none" fill="black" font-family="Helvetica" font-size="12.00"  text-anchor="start">
		<text><tspan font-family="Helvetica" >Mild outliers</tspan></text>
	</g>
</g>
<g fill="none" color="black" stroke="currentColor" stroke-width="1.00" stroke-linecap="butt" stroke-linejoin="miter">
	<use xlink:href='#gpPt6' transform='translate(245.5,589.4) scale(3.38)' color='rgb(255, 127,   0)'/>
	<use xlink:href='#gpPt6' transform='translate(249.2,577.2) scale(3.38)' color='rgb(255, 127,   0)'/>
	<use xlink:href='#gpPt6' transform='translate(248.8,78.4) scale(3.38)' color='rgb(255, 127,   0)'/>
	<use xlink:href='#gpPt6' transform='translate(1117.7,117.1) scale(3.38)' color='rgb(255, 127,   0)'/>
</g>
	</g>
	<g id="gnuplot_plot_5" ><title>Severe outliers</title>
<g fill="none" color="black" stroke="currentColor" stroke-width="1.00" stroke-linecap="butt" stroke-linejoin="miter">
	<g transform="translate(1147.1,139.0)" stroke="none" fill="black" font-family="Helvetica" font-size="12.00"  text-anchor="start">
		<text><tspan font-family="Helvetica" >Severe outliers</tspan></text>
	</g>
</g>
<g fill="none" color="black" stroke="currentColor" stroke-width="1.00" stroke-linecap="butt" stroke-linejoin="miter">
	<use xlink:href='#gpPt6' transform='translate(526.7,656.3) scale(3.38)' color='rgb(227,  26,  28)'/>
	<use xlink:href='#gpPt6' transform='translate(301.8,638.1) scale(3.38)' color='rgb(227,  26,  28)'/>
	<use xlink:href='#gpPt6' transform='translate(633.4,619.8) scale(3.38)' color='rgb(227,  26,  28)'/>
	<use xlink:href='#gpPt6' transform='translate(422.3,613.7) scale(3.38)' color='rgb(227,  26,  28)'/>
	<use xlink:href='#gpPt6' transform='translate(311.1,607.7) scale(3.38)' color='rgb(227,  26,  28)'/>
	<use xlink:href='#gpPt6' transform='translate(286.7,382.6) scale(3.38)' color='rgb(227,  26,  28)'/>
	<use xlink:href='#gpPt6' transform='translate(555.9,333.9) scale(3.38)' color='rgb(227,  26,  28)'/>
	<use xlink:href='#gpPt6' transform='translate(876.9,151.4) scale(3.38)' color='rgb(227,  26,  28)'/>
	<use xlink:href='#gpPt6' transform='translate(1117.7,135.1) scale(3.38)' color='rgb(227,  26,  28)'/>
</g>
	</g>
	<g id="gnuplot_plot_6" ><title>gnuplot_plot_6</title>
<g fill="none" color="white" stroke="rgb(227,  26,  28)" stroke-width="2.00" stroke-linecap="butt" stroke-linejoin="miter">
</g>
<g fill="none" color="black" stroke="currentColor" stroke-width="2.00" stroke-linecap="butt" stroke-linejoin="miter">
	<path stroke='rgb(255, 127,   0)'  d='M183.1,662.4 L183.1,54.1  '/></g>
	</g>
	<g id="gnuplot_plot_7" ><title>gnuplot_plot_7</title>
<g fill="none" color="black" stroke="currentColor" stroke-width="2.00" stroke-linecap="butt" stroke-linejoin="miter">
	<path stroke='rgb(255, 127,   0)'  d='M239.4,662.4 L239.4,54.1  '/></g>
	</g>
	<g id="gnuplot_plot_8" ><title>gnuplot_plot_8</title>
<g fill="none" color="black" stroke="currentColor" stroke-width="2.00" stroke-linecap="butt" stroke-linejoin="miter">
	<path stroke='rgb(227,  26,  28)'  d='M162.0,662.4 L162.0,54.1  '/></g>
	</g>
	<g id="gnuplot_plot_9" ><title>gnuplot_plot_9</title>
<g fill="none" color="black" stroke="currentColor" stroke-width="2.00" stroke-linecap="butt" stroke-linejoin="miter">
	<path stroke='rgb(227,  26,  28)'  d='M260.5,662.4 L260.5,54.1  '/></g>
	</g>
<g fill="none" color="black" stroke="currentColor" stroke-width="2.00" stroke-linecap="butt" stroke-linejoin="miter">
</g>
<g fill="none" color="black" stroke="black" stroke-width="1.00" stroke-linecap="butt" stroke-linejoin="miter">
</g>
<g fill="none" color="black" stroke="currentColor" stroke-width="1.00" stroke-linecap="butt" stroke-linejoin="miter">
	<path stroke='black'  d='M71.9,54.1 L71.9,662.4 L995.6,662.4 L995.6,54.1 L71.9,54.1 Z  '/></g>
<g fill="none" color="black" stroke="currentColor" stroke-width="1.00" stroke-linecap="butt" stroke-linejoin="miter">
</g>
</g>
</svg>

