<?xml version="1.0" encoding="utf-8"  standalone="no"?>
<svg 
 viewBox="0 0 1280 720"
 xmlns="http://www.w3.org/2000/svg"
 xmlns:xlink="http://www.w3.org/1999/xlink"
>

<title>Gnuplot</title>
<desc>Produced by GNUPLOT 5.2 patchlevel 6 </desc>

<g id="gnuplot_canvas">

<rect x="0" y="0" width="1280" height="720" fill="none"/>
<defs>

	<circle id='gpDot' r='0.5' stroke-width='0.5' stroke='currentColor'/>
	<path id='gpPt0' stroke-width='0.222' stroke='currentColor' d='M-1,0 h2 M0,-1 v2'/>
	<path id='gpPt1' stroke-width='0.222' stroke='currentColor' d='M-1,-1 L1,1 M1,-1 L-1,1'/>
	<path id='gpPt2' stroke-width='0.222' stroke='currentColor' d='M-1,0 L1,0 M0,-1 L0,1 M-1,-1 L1,1 M-1,1 L1,-1'/>
	<rect id='gpPt3' stroke-width='0.222' stroke='currentColor' x='-1' y='-1' width='2' height='2'/>
	<rect id='gpPt4' stroke-width='0.222' stroke='currentColor' fill='currentColor' x='-1' y='-1' width='2' height='2'/>
	<circle id='gpPt5' stroke-width='0.222' stroke='currentColor' cx='0' cy='0' r='1'/>
	<use xlink:href='#gpPt5' id='gpPt6' fill='currentColor' stroke='none'/>
	<path id='gpPt7' stroke-width='0.222' stroke='currentColor' d='M0,-1.33 L-1.33,0.67 L1.33,0.67 z'/>
	<use xlink:href='#gpPt7' id='gpPt8' fill='currentColor' stroke='none'/>
	<use xlink:href='#gpPt7' id='gpPt9' stroke='currentColor' transform='rotate(180)'/>
	<use xlink:href='#gpPt9' id='gpPt10' fill='currentColor' stroke='none'/>
	<use xlink:href='#gpPt3' id='gpPt11' stroke='currentColor' transform='rotate(45)'/>
	<use xlink:href='#gpPt11' id='gpPt12' fill='currentColor' stroke='none'/>
	<path id='gpPt13' stroke-width='0.222' stroke='currentColor' d='M0,1.330 L1.265,0.411 L0.782,-1.067 L-0.782,-1.076 L-1.265,0.411 z'/>
	<use xlink:href='#gpPt13' id='gpPt14' fill='currentColor' stroke='none'/>
	<filter id='textbox' filterUnits='objectBoundingBox' x='0' y='0' height='1' width='1'>
	  <feFlood flood-color='white' flood-opacity='1' result='bgnd'/>
	  <feComposite in='SourceGraphic' in2='bgnd' operator='atop'/>
	</filter>
	<filter id='greybox' filterUnits='objectBoundingBox' x='0' y='0' height='1' width='1'>
	  <feFlood flood-color='lightgrey' flood-opacity='1' result='grey'/>
	  <feComposite in='SourceGraphic' in2='grey' operator='atop'/>
	</filter>
</defs>
<g fill="none" color="white" stroke="currentColor" stroke-width="1.00" stroke-linecap="butt" stroke-linejoin="miter">
</g>
<g fill="none" color="black" stroke="currentColor" stroke-width="1.00" stroke-linecap="butt" stroke-linejoin="miter">
	<path stroke='black'  d='M80.2,662.4 L89.2,662.4  '/>	<g transform="translate(71.9,666.3)" stroke="none" fill="black" font-family="Helvetica" font-size="12.00"  text-anchor="end">
		<text><tspan font-family="Helvetica" > 0</tspan></text>
	</g>
</g>
<g fill="none" color="black" stroke="currentColor" stroke-width="1.00" stroke-linecap="butt" stroke-linejoin="miter">
	<path stroke='black'  d='M80.2,575.5 L89.2,575.5  '/>	<g transform="translate(71.9,579.4)" stroke="none" fill="black" font-family="Helvetica" font-size="12.00"  text-anchor="end">
		<text><tspan font-family="Helvetica" > 0.02</tspan></text>
	</g>
</g>
<g fill="none" color="black" stroke="currentColor" stroke-width="1.00" stroke-linecap="butt" stroke-linejoin="miter">
	<path stroke='black'  d='M80.2,488.6 L89.2,488.6  '/>	<g transform="translate(71.9,492.5)" stroke="none" fill="black" font-family="Helvetica" font-size="12.00"  text-anchor="end">
		<text><tspan font-family="Helvetica" > 0.04</tspan></text>
	</g>
</g>
<g fill="none" color="black" stroke="currentColor" stroke-width="1.00" stroke-linecap="butt" stroke-linejoin="miter">
	<path stroke='black'  d='M80.2,401.7 L89.2,401.7  '/>	<g transform="translate(71.9,405.6)" stroke="none" fill="black" font-family="Helvetica" font-size="12.00"  text-anchor="end">
		<text><tspan font-family="Helvetica" > 0.06</tspan></text>
	</g>
</g>
<g fill="none" color="black" stroke="currentColor" stroke-width="1.00" stroke-linecap="butt" stroke-linejoin="miter">
	<path stroke='black'  d='M80.2,314.8 L89.2,314.8  '/>	<g transform="translate(71.9,318.7)" stroke="none" fill="black" font-family="Helvetica" font-size="12.00"  text-anchor="end">
		<text><tspan font-family="Helvetica" > 0.08</tspan></text>
	</g>
</g>
<g fill="none" color="black" stroke="currentColor" stroke-width="1.00" stroke-linecap="butt" stroke-linejoin="miter">
	<path stroke='black'  d='M80.2,227.9 L89.2,227.9  '/>	<g transform="translate(71.9,231.8)" stroke="none" fill="black" font-family="Helvetica" font-size="12.00"  text-anchor="end">
		<text><tspan font-family="Helvetica" > 0.1</tspan></text>
	</g>
</g>
<g fill="none" color="black" stroke="currentColor" stroke-width="1.00" stroke-linecap="butt" stroke-linejoin="miter">
	<path stroke='black'  d='M80.2,141.0 L89.2,141.0  '/>	<g transform="translate(71.9,144.9)" stroke="none" fill="black" font-family="Helvetica" font-size="12.00"  text-anchor="end">
		<text><tspan font-family="Helvetica" > 0.12</tspan></text>
	</g>
</g>
<g fill="none" color="black" stroke="currentColor" stroke-width="1.00" stroke-linecap="butt" stroke-linejoin="miter">
	<path stroke='black'  d='M80.2,54.1 L89.2,54.1  '/>	<g transform="translate(71.9,58.0)" stroke="none" fill="black" font-family="Helvetica" font-size="12.00"  text-anchor="end">
		<text><tspan font-family="Helvetica" > 0.14</tspan></text>
	</g>
</g>
<g fill="none" color="black" stroke="currentColor" stroke-width="1.00" stroke-linecap="butt" stroke-linejoin="miter">
	<path stroke='black'  d='M101.7,662.4 L101.7,653.4  '/>	<g transform="translate(101.7,684.3)" stroke="none" fill="black" font-family="Helvetica" font-size="12.00"  text-anchor="middle">
		<text><tspan font-family="Helvetica" > 4</tspan></text>
	</g>
</g>
<g fill="none" color="black" stroke="currentColor" stroke-width="1.00" stroke-linecap="butt" stroke-linejoin="miter">
	<path stroke='black'  d='M224.0,662.4 L224.0,653.4  '/>	<g transform="translate(224.0,684.3)" stroke="none" fill="black" font-family="Helvetica" font-size="12.00"  text-anchor="middle">
		<text><tspan font-family="Helvetica" > 6</tspan></text>
	</g>
</g>
<g fill="none" color="black" stroke="currentColor" stroke-width="1.00" stroke-linecap="butt" stroke-linejoin="miter">
	<path stroke='black'  d='M346.3,662.4 L346.3,653.4  '/>	<g transform="translate(346.3,684.3)" stroke="none" fill="black" font-family="Helvetica" font-size="12.00"  text-anchor="middle">
		<text><tspan font-family="Helvetica" > 8</tspan></text>
	</g>
</g>
<g fill="none" color="black" stroke="currentColor" stroke-width="1.00" stroke-linecap="butt" stroke-linejoin="miter">
	<path stroke='black'  d='M468.5,662.4 L468.5,653.4  '/>	<g transform="translate(468.5,684.3)" stroke="none" fill="black" font-family="Helvetica" font-size="12.00"  text-anchor="middle">
		<text><tspan font-family="Helvetica" > 10</tspan></text>
	</g>
</g>
<g fill="none" color="black" stroke="currentColor" stroke-width="1.00" stroke-linecap="butt" stroke-linejoin="miter">
	<path stroke='black'  d='M590.8,662.4 L590.8,653.4  '/>	<g transform="translate(590.8,684.3)" stroke="none" fill="black" font-family="Helvetica" font-size="12.00"  text-anchor="middle">
		<text><tspan font-family="Helvetica" > 12</tspan></text>
	</g>
</g>
<g fill="none" color="black" stroke="currentColor" stroke-width="1.00" stroke-linecap="butt" stroke-linejoin="miter">
	<path stroke='black'  d='M713.1,662.4 L713.1,653.4  '/>	<g transform="translate(713.1,684.3)" stroke="none" fill="black" font-family="Helvetica" font-size="12.00"  text-anchor="middle">
		<text><tspan font-family="Helvetica" > 14</tspan></text>
	</g>
</g>
<g fill="none" color="black" stroke="currentColor" stroke-width="1.00" stroke-linecap="butt" stroke-linejoin="miter">
	<path stroke='black'  d='M835.4,662.4 L835.4,653.4  '/>	<g transform="translate(835.4,684.3)" stroke="none" fill="black" font-family="Helvetica" font-size="12.00"  text-anchor="middle">
		<text><tspan font-family="Helvetica" > 16</tspan></text>
	</g>
</g>
<g fill="none" color="black" stroke="currentColor" stroke-width="1.00" stroke-linecap="butt" stroke-linejoin="miter">
	<path stroke='black'  d='M957.6,662.4 L957.6,653.4  '/>	<g transform="translate(957.6,684.3)" stroke="none" fill="black" font-family="Helvetica" font-size="12.00"  text-anchor="middle">
		<text><tspan font-family="Helvetica" > 18</tspan></text>
	</g>
</g>
<g fill="none" color="black" stroke="currentColor" stroke-width="1.00" stroke-linecap="butt" stroke-linejoin="miter">
</g>
<g fill="none" color="black" stroke="currentColor" stroke-width="1.00" stroke-linecap="butt" stroke-linejoin="miter">
	<path stroke='black'  d='M80.2,54.1 L80.2,662.4 L1013.6,662.4 L1013.6,54.1 L80.2,54.1 Z  '/></g>
<g fill="none" color="black" stroke="currentColor" stroke-width="1.00" stroke-linecap="butt" stroke-linejoin="miter">
	<g transform="translate(16.3,358.3) rotate(270)" stroke="none" fill="black" font-family="Helvetica" font-size="12.00"  text-anchor="middle">
		<text><tspan font-family="Helvetica" >Density (a.u.)</tspan></text>
	</g>
</g>
<g fill="none" color="black" stroke="currentColor" stroke-width="1.00" stroke-linecap="butt" stroke-linejoin="miter">
	<g transform="translate(546.9,711.3)" stroke="none" fill="black" font-family="Helvetica" font-size="12.00"  text-anchor="middle">
		<text><tspan font-family="Helvetica" >Average time (us)</tspan></text>
	</g>
</g>
<g fill="none" color="black" stroke="currentColor" stroke-width="1.00" stroke-linecap="butt" stroke-linejoin="miter">
	<g transform="translate(546.9,31.0)" stroke="none" fill="black" font-family="Helvetica" font-size="12.00"  text-anchor="middle">
		<text><tspan font-family="Helvetica" >snapshot_restore_with_dense/Sparse: Entire region + process_vm_writev w/ page size/100: SD</tspan></text>
	</g>
</g>
	<g id="gnuplot_plot_1" ><title>Bootstrap distribution</title>
<g fill="none" color="white" stroke="black" stroke-width="2.00" stroke-linecap="butt" stroke-linejoin="miter">
</g>
<g fill="none" color="black" stroke="currentColor" stroke-width="2.00" stroke-linecap="butt" stroke-linejoin="miter">
	<g transform="translate(1089.0,67.0)" stroke="none" fill="black" font-family="Helvetica" font-size="12.00"  text-anchor="start">
		<text><tspan font-family="Helvetica" >Bootstrap distribution</tspan></text>
	</g>
</g>
<g fill="none" color="black" stroke="currentColor" stroke-width="2.00" stroke-linecap="butt" stroke-linejoin="miter">
	<path stroke='rgb( 31, 120, 180)'  d='M1038.5,63.1 L1080.7,63.1 M80.2,634.2 L82.1,634.0 L83.9,633.9 L85.8,633.8 L87.7,633.6 L89.6,633.4
		L91.4,633.1 L93.3,632.8 L95.2,632.4 L97.0,631.9 L98.9,631.3 L100.8,630.6 L102.6,629.8 L104.5,628.8
		L106.4,627.8 L108.3,626.6 L110.1,625.3 L112.0,623.8 L113.9,622.3 L115.7,620.6 L117.6,618.9 L119.5,617.1
		L121.4,615.2 L123.2,613.2 L125.1,611.2 L127.0,609.2 L128.8,607.2 L130.7,605.2 L132.6,603.1 L134.4,601.2
		L136.3,599.2 L138.2,597.3 L140.1,595.4 L141.9,593.6 L143.8,591.9 L145.7,590.2 L147.5,588.5 L149.4,586.9
		L151.3,585.3 L153.2,583.7 L155.0,582.2 L156.9,580.7 L158.8,579.2 L160.6,577.7 L162.5,576.1 L164.4,574.6
		L166.2,573.0 L168.1,571.5 L170.0,569.8 L171.9,568.2 L173.7,566.5 L175.6,564.7 L177.5,562.9 L179.3,561.1
		L181.2,559.2 L183.1,557.3 L185.0,555.4 L186.8,553.4 L188.7,551.4 L190.6,549.3 L192.4,547.3 L194.3,545.2
		L196.2,543.0 L198.0,540.9 L199.9,538.8 L201.8,536.6 L203.7,534.4 L205.5,532.3 L207.4,530.1 L209.3,527.9
		L211.1,525.7 L213.0,523.5 L214.9,521.3 L216.7,519.2 L218.6,517.0 L220.5,514.8 L222.4,512.7 L224.2,510.5
		L226.1,508.4 L228.0,506.3 L229.8,504.3 L231.7,502.2 L233.6,500.3 L235.5,498.3 L237.3,496.4 L239.2,494.6
		L241.1,492.8 L242.9,491.1 L244.8,489.4 L246.7,487.7 L248.5,486.0 L250.4,484.3 L252.3,482.7 L254.2,481.0
		L256.0,479.3 L257.9,477.5 L259.8,475.6 L261.6,473.7 L263.5,471.7 L265.4,469.6 L267.3,467.3 L269.1,465.0
		L271.0,462.5 L272.9,460.0 L274.7,457.3 L276.6,454.5 L278.5,451.7 L280.3,448.7 L282.2,445.8 L284.1,442.7
		L286.0,439.7 L287.8,436.6 L289.7,433.6 L291.6,430.5 L293.4,427.6 L295.3,424.6 L297.2,421.8 L299.1,419.0
		L300.9,416.3 L302.8,413.7 L304.7,411.2 L306.5,408.8 L308.4,406.4 L310.3,404.2 L312.1,402.1 L314.0,400.0
		L315.9,398.1 L317.8,396.2 L319.6,394.4 L321.5,392.6 L323.4,390.9 L325.2,389.3 L327.1,387.7 L329.0,386.1
		L330.9,384.6 L332.7,383.1 L334.6,381.6 L336.5,380.1 L338.3,378.5 L340.2,377.0 L342.1,375.5 L343.9,373.9
		L345.8,372.3 L347.7,370.6 L349.6,368.9 L351.4,367.2 L353.3,365.4 L355.2,363.5 L357.0,361.6 L358.9,359.6
		L360.8,357.5 L362.7,355.4 L364.5,353.2 L366.4,351.0 L368.3,348.7 L370.1,346.3 L372.0,343.9 L373.9,341.5
		L375.7,339.1 L377.6,336.6 L379.5,334.2 L381.4,331.8 L383.2,329.4 L385.1,327.0 L387.0,324.7 L388.8,322.5
		L390.7,320.3 L392.6,318.2 L394.5,316.2 L396.3,314.2 L398.2,312.3 L400.1,310.4 L401.9,308.6 L403.8,306.8
		L405.7,304.9 L407.5,303.1 L409.4,301.3 L411.3,299.4 L413.2,297.4 L415.0,295.3 L416.9,293.1 L418.8,290.8
		L420.6,288.4 L422.5,285.9 L424.4,283.2 L426.3,280.4 L428.1,277.5 L430.0,274.4 L431.9,271.2 L433.7,268.0
		L435.6,264.7 L437.5,261.3 L439.3,257.9 L441.2,254.5 L443.1,251.1 L445.0,247.7 L446.8,244.4 L448.7,241.1
		L450.6,237.9 L452.4,234.7 L454.3,231.6 L456.2,228.6 L458.0,225.6 L459.9,222.7 L461.8,219.9 L463.7,217.1
		L465.5,214.3 L467.4,211.5 L469.3,208.8 L471.1,206.0 L473.0,203.2 L474.9,200.5 L476.8,197.7 L478.6,194.8
		L480.5,192.0 L482.4,189.1 L484.2,186.2 L486.1,183.4 L488.0,180.5 L489.8,177.7 L491.7,174.8 L493.6,172.0
		L495.5,169.2 L497.3,166.5 L499.2,163.9 L501.1,161.2 L502.9,158.7 L504.8,156.2 L506.7,153.8 L508.6,151.4
		L510.4,149.1 L512.3,146.8 L514.2,144.6 L516.0,142.5 L517.9,140.4 L519.8,138.4 L521.6,136.5 L523.5,134.6
		L525.4,132.8 L527.3,131.1 L529.1,129.4 L531.0,127.9 L532.9,126.4 L534.7,125.1 L536.6,123.8 L538.5,122.7
		L540.4,121.6 L542.2,120.7 L544.1,120.0 L546.0,119.3 L547.8,118.8 L549.7,118.4 L551.6,118.1 L553.4,118.0
		L555.3,117.9 L557.2,118.0 L559.1,118.3 L560.9,118.6 L562.8,119.0 L564.7,119.6 L566.5,120.2 L568.4,120.9
		L570.3,121.6 L572.2,122.5 L574.0,123.3 L575.9,124.2 L577.8,125.2 L579.6,126.2 L581.5,127.2 L583.4,128.2
		L585.2,129.2 L587.1,130.3 L589.0,131.3 L590.9,132.4 L592.7,133.4 L594.6,134.5 L596.5,135.7 L598.3,136.8
		L600.2,138.0 L602.1,139.2 L604.0,140.5 L605.8,141.8 L607.7,143.1 L609.6,144.5 L611.4,145.9 L613.3,147.3
		L615.2,148.7 L617.0,150.2 L618.9,151.6 L620.8,153.1 L622.7,154.5 L624.5,156.0 L626.4,157.4 L628.3,158.8
		L630.1,160.2 L632.0,161.5 L633.9,162.8 L635.8,164.1 L637.6,165.4 L639.5,166.7 L641.4,167.9 L643.2,169.1
		L645.1,170.4 L647.0,171.6 L648.8,172.9 L650.7,174.1 L652.6,175.4 L654.5,176.7 L656.3,178.0 L658.2,179.4
		L660.1,180.8 L661.9,182.2 L663.8,183.7 L665.7,185.2 L667.5,186.8 L669.4,188.4 L671.3,190.1 L673.2,191.9
		L675.0,193.7 L676.9,195.7 L678.8,197.7 L680.6,199.7 L682.5,201.9 L684.4,204.1 L686.3,206.5 L688.1,208.9
		L690.0,211.4 L691.9,214.0 L693.7,216.7 L695.6,219.5 L697.5,222.3 L699.3,225.3 L701.2,228.3 L703.1,231.4
		L705.0,234.6 L706.8,237.8 L708.7,241.0 L710.6,244.3 L712.4,247.7 L714.3,251.0 L716.2,254.3 L718.1,257.7
		L719.9,261.0 L721.8,264.4 L723.7,267.7 L725.5,271.0 L727.4,274.2 L729.3,277.5 L731.1,280.7 L733.0,283.9
		L734.9,287.0 L736.8,290.2 L738.6,293.4 L740.5,296.5 L742.4,299.7 L744.2,302.8 L746.1,306.0 L748.0,309.2
		L749.9,312.5 L751.7,315.7 L753.6,319.0 L755.5,322.4 L757.3,325.7 L759.2,329.1 L761.1,332.5 L762.9,335.9
		L764.8,339.3 L766.7,342.8 L768.6,346.2 L770.4,349.7 L772.3,353.1 L774.2,356.5 L776.0,359.8 L777.9,363.2
		L779.8,366.5 L781.7,369.8 L783.5,373.0 L785.4,376.2 L787.3,379.3 L789.1,382.4 L791.0,385.5 L792.9,388.5
		L794.7,391.4 L796.6,394.4 L798.5,397.3 L800.4,400.1 L802.2,403.0 L804.1,405.8 L806.0,408.7 L807.8,411.5
		L809.7,414.3 L811.6,417.1 L813.5,419.9 L815.3,422.8 L817.2,425.6 L819.1,428.5 L820.9,431.4 L822.8,434.3
		L824.7,437.2 L826.5,440.2 L828.4,443.1 L830.3,446.1 L832.2,449.1 L834.0,452.1 L835.9,455.1 L837.8,458.1
		L839.6,461.1 L841.5,464.1 L843.4,467.1 L845.3,470.0 L847.1,472.9 L849.0,475.8 L850.9,478.7 L852.7,481.5
		L854.6,484.3 L856.5,487.1 L858.3,489.8 L860.2,492.5 L862.1,495.2 L864.0,497.8 L865.8,500.5 L867.7,503.1
		L869.6,505.6 L871.4,508.2 L873.3,510.7 L875.2,513.2 L877.1,515.8 L878.9,518.2 L880.8,520.7 L882.7,523.2
		L884.5,525.6 L886.4,528.0 L888.3,530.4 L890.1,532.8 L892.0,535.1 L893.9,537.4 L895.8,539.7 L897.6,541.9
		L899.5,544.1 L901.4,546.3 L903.2,548.4 L905.1,550.5 L907.0,552.6 L908.8,554.7 L910.7,556.7 L912.6,558.6
		L914.5,560.6 L916.3,562.5 L918.2,564.4 L920.1,566.3 L921.9,568.1 L923.8,569.9 L925.7,571.7 L927.6,573.5
		L929.4,575.3 L931.3,577.0 L933.2,578.7 L935.0,580.4 L936.9,582.1 L938.8,583.8 L940.6,585.4 L942.5,587.0
		L944.4,588.5 L946.3,590.1 L948.1,591.6 L950.0,593.1 L951.9,594.5 L953.7,595.9 L955.6,597.3 L957.5,598.7
		L959.4,600.0 L961.2,601.3 L963.1,602.6 L965.0,603.8 L966.8,605.0 L968.7,606.2 L970.6,607.4 L972.4,608.5
		L974.3,609.7 L976.2,610.8 L978.1,611.8 L979.9,612.9 L981.8,613.9 L983.7,615.0 L985.5,616.0 L987.4,616.9
		L989.3,617.9 L991.2,618.8 L993.0,619.7 L994.9,620.6 L996.8,621.5 L998.6,622.3 L1000.5,623.2 L1002.4,624.0
		L1004.2,624.8 L1006.1,625.6 L1008.0,626.4 L1009.9,627.1 L1011.7,627.9 L1013.6,628.7  '/></g>
	</g>
	<g id="gnuplot_plot_2" ><title>Confidence interval</title>
<g fill="none" color="white" stroke="rgb( 31, 120, 180)" stroke-width="1.00" stroke-linecap="butt" stroke-linejoin="miter">
</g>
<g fill="none" color="black" stroke="currentColor" stroke-width="1.00" stroke-linecap="butt" stroke-linejoin="miter">
	<g transform="translate(1089.0,85.0)" stroke="none" fill="black" font-family="Helvetica" font-size="12.00"  text-anchor="start">
		<text><tspan font-family="Helvetica" >Confidence interval</tspan></text>
	</g>
</g>
<g fill="none" color="black" stroke="currentColor" stroke-width="1.00" stroke-linecap="butt" stroke-linejoin="miter">
	<g stroke='none' shape-rendering='crispEdges'>
		<polygon fill = 'rgb( 31, 120, 180)' fill-opacity = '0.250000' points = '1038.5,85.6 1080.7,85.6 1080.7,76.6 1038.5,76.6 '/>
		<polygon fill = 'rgb( 31, 120, 180)' fill-opacity = '0.250000' points = '166.2,573.0 168.1,571.5 170.0,569.8 171.9,568.2 173.7,566.5 175.6,564.7 177.5,562.9 179.3,561.1 181.2,559.2 183.1,557.3 185.0,555.4 186.8,553.4 188.7,551.4 190.6,549.3 192.4,547.3 194.3,545.2
196.2,543.0 198.0,540.9 199.9,538.8 201.8,536.6 203.7,534.4 205.5,532.3 207.4,530.1 209.3,527.9 211.1,525.7 213.0,523.5 214.9,521.3 216.7,519.2 218.6,517.0 220.5,514.8 222.4,512.7 224.2,510.5
226.1,508.4 228.0,506.3 229.8,504.3 231.7,502.2 233.6,500.3 235.5,498.3 237.3,496.4 239.2,494.6 241.1,492.8 242.9,491.1 244.8,489.4 246.7,487.7 248.5,486.0 250.4,484.3 252.3,482.7 254.2,481.0
256.0,479.3 257.9,477.5 259.8,475.6 261.6,473.7 263.5,471.7 265.4,469.6 267.3,467.3 269.1,465.0 271.0,462.5 272.9,460.0 274.7,457.3 276.6,454.5 278.5,451.7 280.3,448.7 282.2,445.8 284.1,442.7
286.0,439.7 287.8,436.6 289.7,433.6 291.6,430.5 293.4,427.6 295.3,424.6 297.2,421.8 299.1,419.0 300.9,416.3 302.8,413.7 304.7,411.2 306.5,408.8 308.4,406.4 310.3,404.2 312.1,402.1 314.0,400.0
315.9,398.1 317.8,396.2 319.6,394.4 321.5,392.6 323.4,390.9 325.2,389.3 327.1,387.7 329.0,386.1 330.9,384.6 332.7,383.1 334.6,381.6 336.5,380.1 338.3,378.5 340.2,377.0 342.1,375.5 343.9,373.9
345.8,372.3 347.7,370.6 349.6,368.9 351.4,367.2 353.3,365.4 355.2,363.5 357.0,361.6 358.9,359.6 360.8,357.5 362.7,355.4 364.5,353.2 366.4,351.0 368.3,348.7 370.1,346.3 372.0,343.9 373.9,341.5
375.7,339.1 377.6,336.6 379.5,334.2 381.4,331.8 383.2,329.4 385.1,327.0 387.0,324.7 388.8,322.5 390.7,320.3 392.6,318.2 394.5,316.2 396.3,314.2 398.2,312.3 400.1,310.4 401.9,308.6 403.8,306.8
405.7,304.9 407.5,303.1 409.4,301.3 411.3,299.4 413.2,297.4 415.0,295.3 416.9,293.1 418.8,290.8 420.6,288.4 422.5,285.9 424.4,283.2 426.3,280.4 428.1,277.5 430.0,274.4 431.9,271.2 433.7,268.0
435.6,264.7 437.5,261.3 439.3,257.9 441.2,254.5 443.1,251.1 445.0,247.7 446.8,244.4 448.7,241.1 450.6,237.9 452.4,234.7 454.3,231.6 456.2,228.6 458.0,225.6 459.9,222.7 461.8,219.9 463.7,217.1
465.5,214.3 467.4,211.5 469.3,208.8 471.1,206.0 473.0,203.2 474.9,200.5 476.8,197.7 478.6,194.8 480.5,192.0 482.4,189.1 484.2,186.2 486.1,183.4 488.0,180.5 489.8,177.7 491.7,174.8 493.6,172.0
495.5,169.2 497.3,166.5 499.2,163.9 501.1,161.2 502.9,158.7 504.8,156.2 506.7,153.8 508.6,151.4 510.4,149.1 512.3,146.8 514.2,144.6 516.0,142.5 517.9,140.4 519.8,138.4 521.6,136.5 523.5,134.6
525.4,132.8 527.3,131.1 529.1,129.4 531.0,127.9 532.9,126.4 534.7,125.1 536.6,123.8 538.5,122.7 540.4,121.6 542.2,120.7 544.1,120.0 546.0,119.3 547.8,118.8 549.7,118.4 551.6,118.1 553.4,118.0
555.3,117.9 557.2,118.0 559.1,118.3 560.9,118.6 562.8,119.0 564.7,119.6 566.5,120.2 568.4,120.9 570.3,121.6 572.2,122.5 574.0,123.3 575.9,124.2 577.8,125.2 579.6,126.2 581.5,127.2 583.4,128.2
585.2,129.2 587.1,130.3 589.0,131.3 590.9,132.4 592.7,133.4 594.6,134.5 596.5,135.7 598.3,136.8 600.2,138.0 602.1,139.2 604.0,140.5 605.8,141.8 607.7,143.1 609.6,144.5 611.4,145.9 613.3,147.3
615.2,148.7 617.0,150.2 618.9,151.6 620.8,153.1 622.7,154.5 624.5,156.0 626.4,157.4 628.3,158.8 630.1,160.2 632.0,161.5 633.9,162.8 635.8,164.1 637.6,165.4 639.5,166.7 641.4,167.9 643.2,169.1
645.1,170.4 647.0,171.6 648.8,172.9 650.7,174.1 652.6,175.4 654.5,176.7 656.3,178.0 658.2,179.4 660.1,180.8 661.9,182.2 663.8,183.7 665.7,185.2 667.5,186.8 669.4,188.4 671.3,190.1 673.2,191.9
675.0,193.7 676.9,195.7 678.8,197.7 680.6,199.7 682.5,201.9 684.4,204.1 686.3,206.5 688.1,208.9 690.0,211.4 691.9,214.0 693.7,216.7 695.6,219.5 697.5,222.3 699.3,225.3 701.2,228.3 703.1,231.4
705.0,234.6 706.8,237.8 708.7,241.0 710.6,244.3 712.4,247.7 714.3,251.0 716.2,254.3 718.1,257.7 719.9,261.0 721.8,264.4 723.7,267.7 725.5,271.0 727.4,274.2 729.3,277.5 731.1,280.7 733.0,283.9
734.9,287.0 736.8,290.2 738.6,293.4 740.5,296.5 742.4,299.7 744.2,302.8 746.1,306.0 748.0,309.2 749.9,312.5 751.7,315.7 753.6,319.0 755.5,322.4 757.3,325.7 759.2,329.1 761.1,332.5 762.9,335.9
764.8,339.3 766.7,342.8 768.6,346.2 770.4,349.7 772.3,353.1 774.2,356.5 776.0,359.8 777.9,363.2 779.8,366.5 781.7,369.8 783.5,373.0 785.4,376.2 787.3,379.3 789.1,382.4 791.0,385.5 792.9,388.5
794.7,391.4 796.6,394.4 798.5,397.3 800.4,400.1 802.2,403.0 804.1,405.8 806.0,408.7 807.8,411.5 809.7,414.3 811.6,417.1 813.5,419.9 815.3,422.8 817.2,425.6 819.1,428.5 820.9,431.4 822.8,434.3
824.7,437.2 826.5,440.2 828.4,443.1 830.3,446.1 832.2,449.1 834.0,452.1 835.9,455.1 837.8,458.1 839.6,461.1 841.5,464.1 843.4,467.1 845.3,470.0 847.1,472.9 849.0,475.8 850.9,478.7 852.7,481.5
854.6,484.3 856.5,487.1 858.3,489.8 860.2,492.5 862.1,495.2 864.0,497.8 865.8,500.5 867.7,503.1 869.6,505.6 871.4,508.2 873.3,510.7 875.2,513.2 877.1,515.8 878.9,518.2 880.8,520.7 882.7,523.2
884.5,525.6 886.4,528.0 888.3,530.4 890.1,532.8 892.0,535.1 893.9,537.4 895.8,539.7 897.6,541.9 899.5,544.1 901.4,546.3 903.2,548.4 905.1,550.5 907.0,552.6 908.8,554.7 910.7,556.7 912.6,558.6
914.5,560.6 916.3,562.5 918.2,564.4 920.1,566.3 921.9,568.1 923.8,569.9 925.7,571.7 925.7,662.4 923.8,662.4 921.9,662.4 920.1,662.4 918.2,662.4 916.3,662.4 914.5,662.4 912.6,662.4 910.7,662.4
908.8,662.4 907.0,662.4 905.1,662.4 903.2,662.4 901.4,662.4 899.5,662.4 897.6,662.4 895.8,662.4 893.9,662.4 892.0,662.4 890.1,662.4 888.3,662.4 886.4,662.4 884.5,662.4 882.7,662.4 880.8,662.4
878.9,662.4 877.1,662.4 875.2,662.4 873.3,662.4 871.4,662.4 869.6,662.4 867.7,662.4 865.8,662.4 864.0,662.4 862.1,662.4 860.2,662.4 858.3,662.4 856.5,662.4 854.6,662.4 852.7,662.4 850.9,662.4
849.0,662.4 847.1,662.4 845.3,662.4 843.4,662.4 841.5,662.4 839.6,662.4 837.8,662.4 835.9,662.4 834.0,662.4 832.2,662.4 830.3,662.4 828.4,662.4 826.5,662.4 824.7,662.4 822.8,662.4 820.9,662.4
819.1,662.4 817.2,662.4 815.3,662.4 813.5,662.4 811.6,662.4 809.7,662.4 807.8,662.4 806.0,662.4 804.1,662.4 802.2,662.4 800.4,662.4 798.5,662.4 796.6,662.4 794.7,662.4 792.9,662.4 791.0,662.4
789.1,662.4 787.3,662.4 785.4,662.4 783.5,662.4 781.7,662.4 779.8,662.4 777.9,662.4 776.0,662.4 774.2,662.4 772.3,662.4 770.4,662.4 768.6,662.4 766.7,662.4 764.8,662.4 762.9,662.4 761.1,662.4
759.2,662.4 757.3,662.4 755.5,662.4 753.6,662.4 751.7,662.4 749.9,662.4 748.0,662.4 746.1,662.4 744.2,662.4 742.4,662.4 740.5,662.4 738.6,662.4 736.8,662.4 734.9,662.4 733.0,662.4 731.1,662.4
729.3,662.4 727.4,662.4 725.5,662.4 723.7,662.4 721.8,662.4 719.9,662.4 718.1,662.4 716.2,662.4 714.3,662.4 712.4,662.4 710.6,662.4 708.7,662.4 706.8,662.4 705.0,662.4 703.1,662.4 701.2,662.4
699.3,662.4 697.5,662.4 695.6,662.4 693.7,662.4 691.9,662.4 690.0,662.4 688.1,662.4 686.3,662.4 684.4,662.4 682.5,662.4 680.6,662.4 678.8,662.4 676.9,662.4 675.0,662.4 673.2,662.4 671.3,662.4
669.4,662.4 667.5,662.4 665.7,662.4 663.8,662.4 661.9,662.4 660.1,662.4 658.2,662.4 656.3,662.4 654.5,662.4 652.6,662.4 650.7,662.4 648.8,662.4 647.0,662.4 645.1,662.4 643.2,662.4 641.4,662.4
639.5,662.4 637.6,662.4 635.8,662.4 633.9,662.4 632.0,662.4 630.1,662.4 628.3,662.4 626.4,662.4 624.5,662.4 622.7,662.4 620.8,662.4 618.9,662.4 617.0,662.4 615.2,662.4 613.3,662.4 611.4,662.4
609.6,662.4 607.7,662.4 605.8,662.4 604.0,662.4 602.1,662.4 600.2,662.4 598.3,662.4 596.5,662.4 594.6,662.4 592.7,662.4 590.9,662.4 589.0,662.4 587.1,662.4 585.2,662.4 583.4,662.4 581.5,662.4
579.6,662.4 577.8,662.4 575.9,662.4 574.0,662.4 572.2,662.4 570.3,662.4 568.4,662.4 566.5,662.4 564.7,662.4 562.8,662.4 560.9,662.4 559.1,662.4 557.2,662.4 555.3,662.4 553.4,662.4 551.6,662.4
549.7,662.4 547.8,662.4 546.0,662.4 544.1,662.4 542.2,662.4 540.4,662.4 538.5,662.4 536.6,662.4 534.7,662.4 532.9,662.4 531.0,662.4 529.1,662.4 527.3,662.4 525.4,662.4 523.5,662.4 521.6,662.4
519.8,662.4 517.9,662.4 516.0,662.4 514.2,662.4 512.3,662.4 510.4,662.4 508.6,662.4 506.7,662.4 504.8,662.4 502.9,662.4 501.1,662.4 499.2,662.4 497.3,662.4 495.5,662.4 493.6,662.4 491.7,662.4
489.8,662.4 488.0,662.4 486.1,662.4 484.2,662.4 482.4,662.4 480.5,662.4 478.6,662.4 476.8,662.4 474.9,662.4 473.0,662.4 471.1,662.4 469.3,662.4 467.4,662.4 465.5,662.4 463.7,662.4 461.8,662.4
459.9,662.4 458.0,662.4 456.2,662.4 454.3,662.4 452.4,662.4 450.6,662.4 448.7,662.4 446.8,662.4 445.0,662.4 443.1,662.4 441.2,662.4 439.3,662.4 437.5,662.4 435.6,662.4 433.7,662.4 431.9,662.4
430.0,662.4 428.1,662.4 426.3,662.4 424.4,662.4 422.5,662.4 420.6,662.4 418.8,662.4 416.9,662.4 415.0,662.4 413.2,662.4 411.3,662.4 409.4,662.4 407.5,662.4 405.7,662.4 403.8,662.4 401.9,662.4
400.1,662.4 398.2,662.4 396.3,662.4 394.5,662.4 392.6,662.4 390.7,662.4 388.8,662.4 387.0,662.4 385.1,662.4 383.2,662.4 381.4,662.4 379.5,662.4 377.6,662.4 375.7,662.4 373.9,662.4 372.0,662.4
370.1,662.4 368.3,662.4 366.4,662.4 364.5,662.4 362.7,662.4 360.8,662.4 358.9,662.4 357.0,662.4 355.2,662.4 353.3,662.4 351.4,662.4 349.6,662.4 347.7,662.4 345.8,662.4 343.9,662.4 342.1,662.4
340.2,662.4 338.3,662.4 336.5,662.4 334.6,662.4 332.7,662.4 330.9,662.4 329.0,662.4 327.1,662.4 325.2,662.4 323.4,662.4 321.5,662.4 319.6,662.4 317.8,662.4 315.9,662.4 314.0,662.4 312.1,662.4
310.3,662.4 308.4,662.4 306.5,662.4 304.7,662.4 302.8,662.4 300.9,662.4 299.1,662.4 297.2,662.4 295.3,662.4 293.4,662.4 291.6,662.4 289.7,662.4 287.8,662.4 286.0,662.4 284.1,662.4 282.2,662.4
280.3,662.4 278.5,662.4 276.6,662.4 274.7,662.4 272.9,662.4 271.0,662.4 269.1,662.4 267.3,662.4 265.4,662.4 263.5,662.4 261.6,662.4 259.8,662.4 257.9,662.4 256.0,662.4 254.2,662.4 252.3,662.4
250.4,662.4 248.5,662.4 246.7,662.4 244.8,662.4 242.9,662.4 241.1,662.4 239.2,662.4 237.3,662.4 235.5,662.4 233.6,662.4 231.7,662.4 229.8,662.4 228.0,662.4 226.1,662.4 224.2,662.4 222.4,662.4
220.5,662.4 218.6,662.4 216.7,662.4 214.9,662.4 213.0,662.4 211.1,662.4 209.3,662.4 207.4,662.4 205.5,662.4 203.7,662.4 201.8,662.4 199.9,662.4 198.0,662.4 196.2,662.4 194.3,662.4 192.4,662.4
190.6,662.4 188.7,662.4 186.8,662.4 185.0,662.4 183.1,662.4 181.2,662.4 179.3,662.4 177.5,662.4 175.6,662.4 173.7,662.4 171.9,662.4 170.0,662.4 168.1,662.4 166.2,662.4 '/>
	</g>
</g>
	</g>
	<g id="gnuplot_plot_3" ><title>Point estimate</title>
<g fill="none" color="white" stroke="rgb( 31, 120, 180)" stroke-width="2.00" stroke-linecap="butt" stroke-linejoin="miter">
</g>
<g fill="none" color="black" stroke="currentColor" stroke-width="2.00" stroke-linecap="butt" stroke-linejoin="miter">
	<g transform="translate(1089.0,103.0)" stroke="none" fill="black" font-family="Helvetica" font-size="12.00"  text-anchor="start">
		<text><tspan font-family="Helvetica" >Point estimate</tspan></text>
	</g>
</g>
<g fill="none" color="black" stroke="currentColor" stroke-width="2.00" stroke-linecap="butt" stroke-linejoin="miter">
	<path stroke='rgb( 31, 120, 180)'  d='M1038.5,99.1 L1080.7,99.1 M586.2,662.4 L586.2,129.7  '/></g>
	</g>
<g fill="none" color="black" stroke="currentColor" stroke-width="2.00" stroke-linecap="butt" stroke-linejoin="miter">
</g>
<g fill="none" color="black" stroke="black" stroke-width="1.00" stroke-linecap="butt" stroke-linejoin="miter">
</g>
<g fill="none" color="black" stroke="currentColor" stroke-width="1.00" stroke-linecap="butt" stroke-linejoin="miter">
	<path stroke='black'  d='M80.2,54.1 L80.2,662.4 L1013.6,662.4 L1013.6,54.1 L80.2,54.1 Z  '/></g>
<g fill="none" color="black" stroke="currentColor" stroke-width="1.00" stroke-linecap="butt" stroke-linejoin="miter">
</g>
</g>
</svg>

