<?xml version="1.0" encoding="utf-8"  standalone="no"?>
<svg 
 viewBox="0 0 1280 720"
 xmlns="http://www.w3.org/2000/svg"
 xmlns:xlink="http://www.w3.org/1999/xlink"
>

<title>Gnuplot</title>
<desc>Produced by GNUPLOT 5.2 patchlevel 6 </desc>

<g id="gnuplot_canvas">

<rect x="0" y="0" width="1280" height="720" fill="none"/>
<defs>

	<circle id='gpDot' r='0.5' stroke-width='0.5' stroke='currentColor'/>
	<path id='gpPt0' stroke-width='0.222' stroke='currentColor' d='M-1,0 h2 M0,-1 v2'/>
	<path id='gpPt1' stroke-width='0.222' stroke='currentColor' d='M-1,-1 L1,1 M1,-1 L-1,1'/>
	<path id='gpPt2' stroke-width='0.222' stroke='currentColor' d='M-1,0 L1,0 M0,-1 L0,1 M-1,-1 L1,1 M-1,1 L1,-1'/>
	<rect id='gpPt3' stroke-width='0.222' stroke='currentColor' x='-1' y='-1' width='2' height='2'/>
	<rect id='gpPt4' stroke-width='0.222' stroke='currentColor' fill='currentColor' x='-1' y='-1' width='2' height='2'/>
	<circle id='gpPt5' stroke-width='0.222' stroke='currentColor' cx='0' cy='0' r='1'/>
	<use xlink:href='#gpPt5' id='gpPt6' fill='currentColor' stroke='none'/>
	<path id='gpPt7' stroke-width='0.222' stroke='currentColor' d='M0,-1.33 L-1.33,0.67 L1.33,0.67 z'/>
	<use xlink:href='#gpPt7' id='gpPt8' fill='currentColor' stroke='none'/>
	<use xlink:href='#gpPt7' id='gpPt9' stroke='currentColor' transform='rotate(180)'/>
	<use xlink:href='#gpPt9' id='gpPt10' fill='currentColor' stroke='none'/>
	<use xlink:href='#gpPt3' id='gpPt11' stroke='currentColor' transform='rotate(45)'/>
	<use xlink:href='#gpPt11' id='gpPt12' fill='currentColor' stroke='none'/>
	<path id='gpPt13' stroke-width='0.222' stroke='currentColor' d='M0,1.330 L1.265,0.411 L0.782,-1.067 L-0.782,-1.076 L-1.265,0.411 z'/>
	<use xlink:href='#gpPt13' id='gpPt14' fill='currentColor' stroke='none'/>
	<filter id='textbox' filterUnits='objectBoundingBox' x='0' y='0' height='1' width='1'>
	  <feFlood flood-color='white' flood-opacity='1' result='bgnd'/>
	  <feComposite in='SourceGraphic' in2='bgnd' operator='atop'/>
	</filter>
	<filter id='greybox' filterUnits='objectBoundingBox' x='0' y='0' height='1' width='1'>
	  <feFlood flood-color='lightgrey' flood-opacity='1' result='grey'/>
	  <feComposite in='SourceGraphic' in2='grey' operator='atop'/>
	</filter>
</defs>
<g fill="none" color="white" stroke="currentColor" stroke-width="1.00" stroke-linecap="butt" stroke-linejoin="miter">
</g>
<g fill="none" color="black" stroke="currentColor" stroke-width="1.00" stroke-linecap="butt" stroke-linejoin="miter">
	<path stroke='black'  d='M80.2,662.4 L89.2,662.4  '/>	<g transform="translate(71.9,666.3)" stroke="none" fill="black" font-family="Helvetica" font-size="12.00"  text-anchor="end">
		<text><tspan font-family="Helvetica" > 0</tspan></text>
	</g>
</g>
<g fill="none" color="black" stroke="currentColor" stroke-width="1.00" stroke-linecap="butt" stroke-linejoin="miter">
	<path stroke='black'  d='M80.2,561.0 L89.2,561.0  '/>	<g transform="translate(71.9,564.9)" stroke="none" fill="black" font-family="Helvetica" font-size="12.00"  text-anchor="end">
		<text><tspan font-family="Helvetica" > 0.05</tspan></text>
	</g>
</g>
<g fill="none" color="black" stroke="currentColor" stroke-width="1.00" stroke-linecap="butt" stroke-linejoin="miter">
	<path stroke='black'  d='M80.2,459.6 L89.2,459.6  '/>	<g transform="translate(71.9,463.5)" stroke="none" fill="black" font-family="Helvetica" font-size="12.00"  text-anchor="end">
		<text><tspan font-family="Helvetica" > 0.1</tspan></text>
	</g>
</g>
<g fill="none" color="black" stroke="currentColor" stroke-width="1.00" stroke-linecap="butt" stroke-linejoin="miter">
	<path stroke='black'  d='M80.2,358.2 L89.2,358.2  '/>	<g transform="translate(71.9,362.1)" stroke="none" fill="black" font-family="Helvetica" font-size="12.00"  text-anchor="end">
		<text><tspan font-family="Helvetica" > 0.15</tspan></text>
	</g>
</g>
<g fill="none" color="black" stroke="currentColor" stroke-width="1.00" stroke-linecap="butt" stroke-linejoin="miter">
	<path stroke='black'  d='M80.2,256.9 L89.2,256.9  '/>	<g transform="translate(71.9,260.8)" stroke="none" fill="black" font-family="Helvetica" font-size="12.00"  text-anchor="end">
		<text><tspan font-family="Helvetica" > 0.2</tspan></text>
	</g>
</g>
<g fill="none" color="black" stroke="currentColor" stroke-width="1.00" stroke-linecap="butt" stroke-linejoin="miter">
	<path stroke='black'  d='M80.2,155.5 L89.2,155.5  '/>	<g transform="translate(71.9,159.4)" stroke="none" fill="black" font-family="Helvetica" font-size="12.00"  text-anchor="end">
		<text><tspan font-family="Helvetica" > 0.25</tspan></text>
	</g>
</g>
<g fill="none" color="black" stroke="currentColor" stroke-width="1.00" stroke-linecap="butt" stroke-linejoin="miter">
	<path stroke='black'  d='M80.2,54.1 L89.2,54.1  '/>	<g transform="translate(71.9,58.0)" stroke="none" fill="black" font-family="Helvetica" font-size="12.00"  text-anchor="end">
		<text><tspan font-family="Helvetica" > 0.3</tspan></text>
	</g>
</g>
<g fill="none" color="black" stroke="currentColor" stroke-width="1.00" stroke-linecap="butt" stroke-linejoin="miter">
	<path stroke='black'  d='M122.3,662.4 L122.3,653.4  '/>	<g transform="translate(122.3,684.3)" stroke="none" fill="black" font-family="Helvetica" font-size="12.00"  text-anchor="middle">
		<text><tspan font-family="Helvetica" > 2</tspan></text>
	</g>
</g>
<g fill="none" color="black" stroke="currentColor" stroke-width="1.00" stroke-linecap="butt" stroke-linejoin="miter">
	<path stroke='black'  d='M239.6,662.4 L239.6,653.4  '/>	<g transform="translate(239.6,684.3)" stroke="none" fill="black" font-family="Helvetica" font-size="12.00"  text-anchor="middle">
		<text><tspan font-family="Helvetica" > 3</tspan></text>
	</g>
</g>
<g fill="none" color="black" stroke="currentColor" stroke-width="1.00" stroke-linecap="butt" stroke-linejoin="miter">
	<path stroke='black'  d='M356.9,662.4 L356.9,653.4  '/>	<g transform="translate(356.9,684.3)" stroke="none" fill="black" font-family="Helvetica" font-size="12.00"  text-anchor="middle">
		<text><tspan font-family="Helvetica" > 4</tspan></text>
	</g>
</g>
<g fill="none" color="black" stroke="currentColor" stroke-width="1.00" stroke-linecap="butt" stroke-linejoin="miter">
	<path stroke='black'  d='M474.3,662.4 L474.3,653.4  '/>	<g transform="translate(474.3,684.3)" stroke="none" fill="black" font-family="Helvetica" font-size="12.00"  text-anchor="middle">
		<text><tspan font-family="Helvetica" > 5</tspan></text>
	</g>
</g>
<g fill="none" color="black" stroke="currentColor" stroke-width="1.00" stroke-linecap="butt" stroke-linejoin="miter">
	<path stroke='black'  d='M591.6,662.4 L591.6,653.4  '/>	<g transform="translate(591.6,684.3)" stroke="none" fill="black" font-family="Helvetica" font-size="12.00"  text-anchor="middle">
		<text><tspan font-family="Helvetica" > 6</tspan></text>
	</g>
</g>
<g fill="none" color="black" stroke="currentColor" stroke-width="1.00" stroke-linecap="butt" stroke-linejoin="miter">
	<path stroke='black'  d='M708.9,662.4 L708.9,653.4  '/>	<g transform="translate(708.9,684.3)" stroke="none" fill="black" font-family="Helvetica" font-size="12.00"  text-anchor="middle">
		<text><tspan font-family="Helvetica" > 7</tspan></text>
	</g>
</g>
<g fill="none" color="black" stroke="currentColor" stroke-width="1.00" stroke-linecap="butt" stroke-linejoin="miter">
	<path stroke='black'  d='M826.2,662.4 L826.2,653.4  '/>	<g transform="translate(826.2,684.3)" stroke="none" fill="black" font-family="Helvetica" font-size="12.00"  text-anchor="middle">
		<text><tspan font-family="Helvetica" > 8</tspan></text>
	</g>
</g>
<g fill="none" color="black" stroke="currentColor" stroke-width="1.00" stroke-linecap="butt" stroke-linejoin="miter">
	<path stroke='black'  d='M943.5,662.4 L943.5,653.4  '/>	<g transform="translate(943.5,684.3)" stroke="none" fill="black" font-family="Helvetica" font-size="12.00"  text-anchor="middle">
		<text><tspan font-family="Helvetica" > 9</tspan></text>
	</g>
</g>
<g fill="none" color="black" stroke="currentColor" stroke-width="1.00" stroke-linecap="butt" stroke-linejoin="miter">
</g>
<g fill="none" color="black" stroke="currentColor" stroke-width="1.00" stroke-linecap="butt" stroke-linejoin="miter">
	<path stroke='black'  d='M80.2,54.1 L80.2,662.4 L1013.6,662.4 L1013.6,54.1 L80.2,54.1 Z  '/></g>
<g fill="none" color="black" stroke="currentColor" stroke-width="1.00" stroke-linecap="butt" stroke-linejoin="miter">
	<g transform="translate(16.3,358.3) rotate(270)" stroke="none" fill="black" font-family="Helvetica" font-size="12.00"  text-anchor="middle">
		<text><tspan font-family="Helvetica" >Density (a.u.)</tspan></text>
	</g>
</g>
<g fill="none" color="black" stroke="currentColor" stroke-width="1.00" stroke-linecap="butt" stroke-linejoin="miter">
	<g transform="translate(546.9,711.3)" stroke="none" fill="black" font-family="Helvetica" font-size="12.00"  text-anchor="middle">
		<text><tspan font-family="Helvetica" >Average time (us)</tspan></text>
	</g>
</g>
<g fill="none" color="black" stroke="currentColor" stroke-width="1.00" stroke-linecap="butt" stroke-linejoin="miter">
	<g transform="translate(546.9,31.0)" stroke="none" fill="black" font-family="Helvetica" font-size="12.00"  text-anchor="middle">
		<text><tspan font-family="Helvetica" >snapshot_restore_with_dense/Dense: Dirty pages + /proc/pid/mem/100: SD</tspan></text>
	</g>
</g>
	<g id="gnuplot_plot_1" ><title>Bootstrap distribution</title>
<g fill="none" color="white" stroke="black" stroke-width="2.00" stroke-linecap="butt" stroke-linejoin="miter">
</g>
<g fill="none" color="black" stroke="currentColor" stroke-width="2.00" stroke-linecap="butt" stroke-linejoin="miter">
	<g transform="translate(1089.0,67.0)" stroke="none" fill="black" font-family="Helvetica" font-size="12.00"  text-anchor="start">
		<text><tspan font-family="Helvetica" >Bootstrap distribution</tspan></text>
	</g>
</g>
<g fill="none" color="black" stroke="currentColor" stroke-width="2.00" stroke-linecap="butt" stroke-linejoin="miter">
	<path stroke='rgb( 31, 120, 180)'  d='M1038.5,63.1 L1080.7,63.1 M80.2,632.5 L82.1,631.4 L83.9,630.2 L85.8,629.1 L87.7,627.9 L89.6,626.6
		L91.4,625.4 L93.3,624.1 L95.2,622.8 L97.0,621.5 L98.9,620.1 L100.8,618.8 L102.6,617.4 L104.5,616.0
		L106.4,614.6 L108.3,613.2 L110.1,611.8 L112.0,610.4 L113.9,609.0 L115.7,607.6 L117.6,606.2 L119.5,604.8
		L121.4,603.5 L123.2,602.2 L125.1,600.9 L127.0,599.7 L128.8,598.5 L130.7,597.3 L132.6,596.2 L134.4,595.2
		L136.3,594.2 L138.2,593.2 L140.1,592.3 L141.9,591.5 L143.8,590.8 L145.7,590.1 L147.5,589.4 L149.4,588.9
		L151.3,588.4 L153.2,587.9 L155.0,587.6 L156.9,587.3 L158.8,587.0 L160.6,586.8 L162.5,586.7 L164.4,586.6
		L166.2,586.6 L168.1,586.6 L170.0,586.7 L171.9,586.8 L173.7,586.9 L175.6,587.1 L177.5,587.3 L179.3,587.5
		L181.2,587.8 L183.1,588.1 L185.0,588.4 L186.8,588.8 L188.7,589.1 L190.6,589.5 L192.4,589.8 L194.3,590.2
		L196.2,590.5 L198.0,590.8 L199.9,591.2 L201.8,591.4 L203.7,591.7 L205.5,591.9 L207.4,592.0 L209.3,592.1
		L211.1,592.1 L213.0,592.0 L214.9,591.8 L216.7,591.6 L218.6,591.2 L220.5,590.7 L222.4,590.2 L224.2,589.5
		L226.1,588.7 L228.0,587.8 L229.8,586.7 L231.7,585.6 L233.6,584.3 L235.5,583.0 L237.3,581.5 L239.2,579.9
		L241.1,578.2 L242.9,576.4 L244.8,574.5 L246.7,572.5 L248.5,570.4 L250.4,568.2 L252.3,566.0 L254.2,563.7
		L256.0,561.3 L257.9,558.8 L259.8,556.3 L261.6,553.7 L263.5,551.1 L265.4,548.5 L267.3,545.8 L269.1,543.1
		L271.0,540.4 L272.9,537.6 L274.7,534.9 L276.6,532.1 L278.5,529.4 L280.3,526.6 L282.2,523.9 L284.1,521.2
		L286.0,518.4 L287.8,515.7 L289.7,513.0 L291.6,510.3 L293.4,507.7 L295.3,505.0 L297.2,502.3 L299.1,499.7
		L300.9,497.1 L302.8,494.5 L304.7,491.9 L306.5,489.3 L308.4,486.8 L310.3,484.2 L312.1,481.8 L314.0,479.3
		L315.9,477.0 L317.8,474.6 L319.6,472.4 L321.5,470.2 L323.4,468.1 L325.2,466.1 L327.1,464.1 L329.0,462.3
		L330.9,460.5 L332.7,458.9 L334.6,457.3 L336.5,455.9 L338.3,454.5 L340.2,453.3 L342.1,452.1 L343.9,451.0
		L345.8,449.9 L347.7,448.9 L349.6,448.0 L351.4,447.0 L353.3,446.1 L355.2,445.2 L357.0,444.2 L358.9,443.2
		L360.8,442.2 L362.7,441.0 L364.5,439.7 L366.4,438.3 L368.3,436.7 L370.1,434.9 L372.0,433.0 L373.9,430.8
		L375.7,428.3 L377.6,425.6 L379.5,422.6 L381.4,419.3 L383.2,415.7 L385.1,411.9 L387.0,407.7 L388.8,403.2
		L390.7,398.4 L392.6,393.4 L394.5,388.1 L396.3,382.6 L398.2,376.9 L400.1,371.0 L401.9,365.0 L403.8,359.0
		L405.7,352.9 L407.5,346.8 L409.4,340.8 L411.3,334.9 L413.2,329.1 L415.0,323.6 L416.9,318.3 L418.8,313.3
		L420.6,308.6 L422.5,304.3 L424.4,300.4 L426.3,296.9 L428.1,293.8 L430.0,291.1 L431.9,288.8 L433.7,287.0
		L435.6,285.5 L437.5,284.5 L439.3,283.8 L441.2,283.4 L443.1,283.3 L445.0,283.5 L446.8,283.8 L448.7,284.4
		L450.6,285.0 L452.4,285.7 L454.3,286.4 L456.2,287.1 L458.0,287.7 L459.9,288.1 L461.8,288.5 L463.7,288.6
		L465.5,288.5 L467.4,288.1 L469.3,287.5 L471.1,286.6 L473.0,285.4 L474.9,283.9 L476.8,282.2 L478.6,280.1
		L480.5,277.8 L482.4,275.2 L484.2,272.4 L486.1,269.3 L488.0,266.1 L489.8,262.7 L491.7,259.1 L493.6,255.4
		L495.5,251.6 L497.3,247.7 L499.2,243.8 L501.1,239.8 L502.9,235.8 L504.8,231.8 L506.7,227.8 L508.6,223.9
		L510.4,220.0 L512.3,216.2 L514.2,212.5 L516.0,208.9 L517.9,205.5 L519.8,202.2 L521.6,199.1 L523.5,196.2
		L525.4,193.5 L527.3,191.0 L529.1,188.9 L531.0,187.0 L532.9,185.4 L534.7,184.1 L536.6,183.1 L538.5,182.4
		L540.4,182.0 L542.2,181.9 L544.1,182.0 L546.0,182.4 L547.8,183.0 L549.7,183.8 L551.6,184.7 L553.4,185.7
		L555.3,186.6 L557.2,187.6 L559.1,188.4 L560.9,189.1 L562.8,189.7 L564.7,189.9 L566.5,189.9 L568.4,189.6
		L570.3,188.9 L572.2,187.9 L574.0,186.6 L575.9,184.9 L577.8,182.9 L579.6,180.5 L581.5,178.0 L583.4,175.2
		L585.2,172.3 L587.1,169.3 L589.0,166.2 L590.9,163.3 L592.7,160.4 L594.6,157.7 L596.5,155.2 L598.3,153.0
		L600.2,151.2 L602.1,149.7 L604.0,148.6 L605.8,148.0 L607.7,147.7 L609.6,147.9 L611.4,148.4 L613.3,149.3
		L615.2,150.6 L617.0,152.1 L618.9,153.9 L620.8,155.9 L622.7,158.1 L624.5,160.4 L626.4,162.7 L628.3,165.1
		L630.1,167.4 L632.0,169.7 L633.9,171.9 L635.8,174.0 L637.6,175.9 L639.5,177.8 L641.4,179.4 L643.2,180.9
		L645.1,182.3 L647.0,183.5 L648.8,184.6 L650.7,185.5 L652.6,186.3 L654.5,187.1 L656.3,187.8 L658.2,188.4
		L660.1,189.0 L661.9,189.6 L663.8,190.2 L665.7,190.8 L667.5,191.4 L669.4,192.2 L671.3,193.0 L673.2,193.9
		L675.0,194.9 L676.9,196.1 L678.8,197.4 L680.6,198.9 L682.5,200.6 L684.4,202.4 L686.3,204.4 L688.1,206.7
		L690.0,209.1 L691.9,211.6 L693.7,214.4 L695.6,217.3 L697.5,220.3 L699.3,223.3 L701.2,226.5 L703.1,229.7
		L705.0,232.9 L706.8,236.1 L708.7,239.2 L710.6,242.2 L712.4,245.2 L714.3,248.0 L716.2,250.7 L718.1,253.3
		L719.9,255.8 L721.8,258.2 L723.7,260.5 L725.5,262.6 L727.4,264.8 L729.3,266.8 L731.1,268.9 L733.0,271.0
		L734.9,273.1 L736.8,275.3 L738.6,277.6 L740.5,279.9 L742.4,282.4 L744.2,285.1 L746.1,287.8 L748.0,290.7
		L749.9,293.7 L751.7,296.9 L753.6,300.1 L755.5,303.5 L757.3,306.9 L759.2,310.4 L761.1,313.9 L762.9,317.5
		L764.8,321.0 L766.7,324.6 L768.6,328.1 L770.4,331.5 L772.3,335.0 L774.2,338.3 L776.0,341.6 L777.9,344.9
		L779.8,348.1 L781.7,351.2 L783.5,354.2 L785.4,357.2 L787.3,360.2 L789.1,363.1 L791.0,366.0 L792.9,368.9
		L794.7,371.7 L796.6,374.6 L798.5,377.5 L800.4,380.4 L802.2,383.3 L804.1,386.3 L806.0,389.3 L807.8,392.4
		L809.7,395.5 L811.6,398.7 L813.5,401.9 L815.3,405.2 L817.2,408.5 L819.1,411.9 L820.9,415.3 L822.8,418.7
		L824.7,422.2 L826.5,425.6 L828.4,429.1 L830.3,432.5 L832.2,435.9 L834.0,439.3 L835.9,442.6 L837.8,445.9
		L839.6,449.2 L841.5,452.5 L843.4,455.7 L845.3,458.9 L847.1,462.1 L849.0,465.2 L850.9,468.4 L852.7,471.5
		L854.6,474.7 L856.5,477.8 L858.3,481.0 L860.2,484.1 L862.1,487.3 L864.0,490.5 L865.8,493.7 L867.7,496.9
		L869.6,500.1 L871.4,503.3 L873.3,506.5 L875.2,509.6 L877.1,512.7 L878.9,515.8 L880.8,518.8 L882.7,521.8
		L884.5,524.7 L886.4,527.5 L888.3,530.3 L890.1,533.0 L892.0,535.6 L893.9,538.2 L895.8,540.6 L897.6,543.1
		L899.5,545.4 L901.4,547.7 L903.2,549.9 L905.1,552.0 L907.0,554.1 L908.8,556.1 L910.7,558.1 L912.6,560.1
		L914.5,562.0 L916.3,563.9 L918.2,565.8 L920.1,567.6 L921.9,569.5 L923.8,571.3 L925.7,573.1 L927.6,574.8
		L929.4,576.6 L931.3,578.3 L933.2,580.0 L935.0,581.7 L936.9,583.3 L938.8,584.9 L940.6,586.5 L942.5,588.1
		L944.4,589.6 L946.3,591.1 L948.1,592.6 L950.0,594.1 L951.9,595.5 L953.7,596.9 L955.6,598.3 L957.5,599.7
		L959.4,601.0 L961.2,602.4 L963.1,603.7 L965.0,605.0 L966.8,606.3 L968.7,607.6 L970.6,608.9 L972.4,610.1
		L974.3,611.4 L976.2,612.6 L978.1,613.8 L979.9,615.0 L981.8,616.2 L983.7,617.4 L985.5,618.5 L987.4,619.6
		L989.3,620.7 L991.2,621.8 L993.0,622.8 L994.9,623.8 L996.8,624.8 L998.6,625.8 L1000.5,626.7 L1002.4,627.7
		L1004.2,628.6 L1006.1,629.5 L1008.0,630.4 L1009.9,631.2 L1011.7,632.1 L1013.6,632.9  '/></g>
	</g>
	<g id="gnuplot_plot_2" ><title>Confidence interval</title>
<g fill="none" color="white" stroke="rgb( 31, 120, 180)" stroke-width="1.00" stroke-linecap="butt" stroke-linejoin="miter">
</g>
<g fill="none" color="black" stroke="currentColor" stroke-width="1.00" stroke-linecap="butt" stroke-linejoin="miter">
	<g transform="translate(1089.0,85.0)" stroke="none" fill="black" font-family="Helvetica" font-size="12.00"  text-anchor="start">
		<text><tspan font-family="Helvetica" >Confidence interval</tspan></text>
	</g>
</g>
<g fill="none" color="black" stroke="currentColor" stroke-width="1.00" stroke-linecap="butt" stroke-linejoin="miter">
	<g stroke='none' shape-rendering='crispEdges'>
		<polygon fill = 'rgb( 31, 120, 180)' fill-opacity = '0.250000' points = '1038.5,85.6 1080.7,85.6 1080.7,76.6 1038.5,76.6 '/>
		<polygon fill = 'rgb( 31, 120, 180)' fill-opacity = '0.250000' points = '166.2,586.6 168.1,586.6 170.0,586.7 171.9,586.8 173.7,586.9 175.6,587.1 177.5,587.3 179.3,587.5 181.2,587.8 183.1,588.1 185.0,588.4 186.8,588.8 188.7,589.1 190.6,589.5 192.4,589.8 194.3,590.2
196.2,590.5 198.0,590.8 199.9,591.2 201.8,591.4 203.7,591.7 205.5,591.9 207.4,592.0 209.3,592.1 211.1,592.1 213.0,592.0 214.9,591.8 216.7,591.6 218.6,591.2 220.5,590.7 222.4,590.2 224.2,589.5
226.1,588.7 228.0,587.8 229.8,586.7 231.7,585.6 233.6,584.3 235.5,583.0 237.3,581.5 239.2,579.9 241.1,578.2 242.9,576.4 244.8,574.5 246.7,572.5 248.5,570.4 250.4,568.2 252.3,566.0 254.2,563.7
256.0,561.3 257.9,558.8 259.8,556.3 261.6,553.7 263.5,551.1 265.4,548.5 267.3,545.8 269.1,543.1 271.0,540.4 272.9,537.6 274.7,534.9 276.6,532.1 278.5,529.4 280.3,526.6 282.2,523.9 284.1,521.2
286.0,518.4 287.8,515.7 289.7,513.0 291.6,510.3 293.4,507.7 295.3,505.0 297.2,502.3 299.1,499.7 300.9,497.1 302.8,494.5 304.7,491.9 306.5,489.3 308.4,486.8 310.3,484.2 312.1,481.8 314.0,479.3
315.9,477.0 317.8,474.6 319.6,472.4 321.5,470.2 323.4,468.1 325.2,466.1 327.1,464.1 329.0,462.3 330.9,460.5 332.7,458.9 334.6,457.3 336.5,455.9 338.3,454.5 340.2,453.3 342.1,452.1 343.9,451.0
345.8,449.9 347.7,448.9 349.6,448.0 351.4,447.0 353.3,446.1 355.2,445.2 357.0,444.2 358.9,443.2 360.8,442.2 362.7,441.0 364.5,439.7 366.4,438.3 368.3,436.7 370.1,434.9 372.0,433.0 373.9,430.8
375.7,428.3 377.6,425.6 379.5,422.6 381.4,419.3 383.2,415.7 385.1,411.9 387.0,407.7 388.8,403.2 390.7,398.4 392.6,393.4 394.5,388.1 396.3,382.6 398.2,376.9 400.1,371.0 401.9,365.0 403.8,359.0
405.7,352.9 407.5,346.8 409.4,340.8 411.3,334.9 413.2,329.1 415.0,323.6 416.9,318.3 418.8,313.3 420.6,308.6 422.5,304.3 424.4,300.4 426.3,296.9 428.1,293.8 430.0,291.1 431.9,288.8 433.7,287.0
435.6,285.5 437.5,284.5 439.3,283.8 441.2,283.4 443.1,283.3 445.0,283.5 446.8,283.8 448.7,284.4 450.6,285.0 452.4,285.7 454.3,286.4 456.2,287.1 458.0,287.7 459.9,288.1 461.8,288.5 463.7,288.6
465.5,288.5 467.4,288.1 469.3,287.5 471.1,286.6 473.0,285.4 474.9,283.9 476.8,282.2 478.6,280.1 480.5,277.8 482.4,275.2 484.2,272.4 486.1,269.3 488.0,266.1 489.8,262.7 491.7,259.1 493.6,255.4
495.5,251.6 497.3,247.7 499.2,243.8 501.1,239.8 502.9,235.8 504.8,231.8 506.7,227.8 508.6,223.9 510.4,220.0 512.3,216.2 514.2,212.5 516.0,208.9 517.9,205.5 519.8,202.2 521.6,199.1 523.5,196.2
525.4,193.5 527.3,191.0 529.1,188.9 531.0,187.0 532.9,185.4 534.7,184.1 536.6,183.1 538.5,182.4 540.4,182.0 542.2,181.9 544.1,182.0 546.0,182.4 547.8,183.0 549.7,183.8 551.6,184.7 553.4,185.7
555.3,186.6 557.2,187.6 559.1,188.4 560.9,189.1 562.8,189.7 564.7,189.9 566.5,189.9 568.4,189.6 570.3,188.9 572.2,187.9 574.0,186.6 575.9,184.9 577.8,182.9 579.6,180.5 581.5,178.0 583.4,175.2
585.2,172.3 587.1,169.3 589.0,166.2 590.9,163.3 592.7,160.4 594.6,157.7 596.5,155.2 598.3,153.0 600.2,151.2 602.1,149.7 604.0,148.6 605.8,148.0 607.7,147.7 609.6,147.9 611.4,148.4 613.3,149.3
615.2,150.6 617.0,152.1 618.9,153.9 620.8,155.9 622.7,158.1 624.5,160.4 626.4,162.7 628.3,165.1 630.1,167.4 632.0,169.7 633.9,171.9 635.8,174.0 637.6,175.9 639.5,177.8 641.4,179.4 643.2,180.9
645.1,182.3 647.0,183.5 648.8,184.6 650.7,185.5 652.6,186.3 654.5,187.1 656.3,187.8 658.2,188.4 660.1,189.0 661.9,189.6 663.8,190.2 665.7,190.8 667.5,191.4 669.4,192.2 671.3,193.0 673.2,193.9
675.0,194.9 676.9,196.1 678.8,197.4 680.6,198.9 682.5,200.6 684.4,202.4 686.3,204.4 688.1,206.7 690.0,209.1 691.9,211.6 693.7,214.4 695.6,217.3 697.5,220.3 699.3,223.3 701.2,226.5 703.1,229.7
705.0,232.9 706.8,236.1 708.7,239.2 710.6,242.2 712.4,245.2 714.3,248.0 716.2,250.7 718.1,253.3 719.9,255.8 721.8,258.2 723.7,260.5 725.5,262.6 727.4,264.8 729.3,266.8 731.1,268.9 733.0,271.0
734.9,273.1 736.8,275.3 738.6,277.6 740.5,279.9 742.4,282.4 744.2,285.1 746.1,287.8 748.0,290.7 749.9,293.7 751.7,296.9 753.6,300.1 755.5,303.5 757.3,306.9 759.2,310.4 761.1,313.9 762.9,317.5
764.8,321.0 766.7,324.6 768.6,328.1 770.4,331.5 772.3,335.0 774.2,338.3 776.0,341.6 777.9,344.9 779.8,348.1 781.7,351.2 783.5,354.2 785.4,357.2 787.3,360.2 789.1,363.1 791.0,366.0 792.9,368.9
794.7,371.7 796.6,374.6 798.5,377.5 800.4,380.4 802.2,383.3 804.1,386.3 806.0,389.3 807.8,392.4 809.7,395.5 811.6,398.7 813.5,401.9 815.3,405.2 817.2,408.5 819.1,411.9 820.9,415.3 822.8,418.7
824.7,422.2 826.5,425.6 828.4,429.1 830.3,432.5 832.2,435.9 834.0,439.3 835.9,442.6 837.8,445.9 839.6,449.2 841.5,452.5 843.4,455.7 845.3,458.9 847.1,462.1 849.0,465.2 850.9,468.4 852.7,471.5
854.6,474.7 856.5,477.8 858.3,481.0 860.2,484.1 862.1,487.3 864.0,490.5 865.8,493.7 867.7,496.9 869.6,500.1 871.4,503.3 873.3,506.5 875.2,509.6 877.1,512.7 878.9,515.8 880.8,518.8 882.7,521.8
884.5,524.7 886.4,527.5 888.3,530.3 890.1,533.0 892.0,535.6 893.9,538.2 895.8,540.6 897.6,543.1 899.5,545.4 901.4,547.7 903.2,549.9 905.1,552.0 907.0,554.1 908.8,556.1 910.7,558.1 912.6,560.1
914.5,562.0 916.3,563.9 918.2,565.8 920.1,567.6 921.9,569.5 923.8,571.3 925.7,573.1 925.7,662.4 923.8,662.4 921.9,662.4 920.1,662.4 918.2,662.4 916.3,662.4 914.5,662.4 912.6,662.4 910.7,662.4
908.8,662.4 907.0,662.4 905.1,662.4 903.2,662.4 901.4,662.4 899.5,662.4 897.6,662.4 895.8,662.4 893.9,662.4 892.0,662.4 890.1,662.4 888.3,662.4 886.4,662.4 884.5,662.4 882.7,662.4 880.8,662.4
878.9,662.4 877.1,662.4 875.2,662.4 873.3,662.4 871.4,662.4 869.6,662.4 867.7,662.4 865.8,662.4 864.0,662.4 862.1,662.4 860.2,662.4 858.3,662.4 856.5,662.4 854.6,662.4 852.7,662.4 850.9,662.4
849.0,662.4 847.1,662.4 845.3,662.4 843.4,662.4 841.5,662.4 839.6,662.4 837.8,662.4 835.9,662.4 834.0,662.4 832.2,662.4 830.3,662.4 828.4,662.4 826.5,662.4 824.7,662.4 822.8,662.4 820.9,662.4
819.1,662.4 817.2,662.4 815.3,662.4 813.5,662.4 811.6,662.4 809.7,662.4 807.8,662.4 806.0,662.4 804.1,662.4 802.2,662.4 800.4,662.4 798.5,662.4 796.6,662.4 794.7,662.4 792.9,662.4 791.0,662.4
789.1,662.4 787.3,662.4 785.4,662.4 783.5,662.4 781.7,662.4 779.8,662.4 777.9,662.4 776.0,662.4 774.2,662.4 772.3,662.4 770.4,662.4 768.6,662.4 766.7,662.4 764.8,662.4 762.9,662.4 761.1,662.4
759.2,662.4 757.3,662.4 755.5,662.4 753.6,662.4 751.7,662.4 749.9,662.4 748.0,662.4 746.1,662.4 744.2,662.4 742.4,662.4 740.5,662.4 738.6,662.4 736.8,662.4 734.9,662.4 733.0,662.4 731.1,662.4
729.3,662.4 727.4,662.4 725.5,662.4 723.7,662.4 721.8,662.4 719.9,662.4 718.1,662.4 716.2,662.4 714.3,662.4 712.4,662.4 710.6,662.4 708.7,662.4 706.8,662.4 705.0,662.4 703.1,662.4 701.2,662.4
699.3,662.4 697.5,662.4 695.6,662.4 693.7,662.4 691.9,662.4 690.0,662.4 688.1,662.4 686.3,662.4 684.4,662.4 682.5,662.4 680.6,662.4 678.8,662.4 676.9,662.4 675.0,662.4 673.2,662.4 671.3,662.4
669.4,662.4 667.5,662.4 665.7,662.4 663.8,662.4 661.9,662.4 660.1,662.4 658.2,662.4 656.3,662.4 654.5,662.4 652.6,662.4 650.7,662.4 648.8,662.4 647.0,662.4 645.1,662.4 643.2,662.4 641.4,662.4
639.5,662.4 637.6,662.4 635.8,662.4 633.9,662.4 632.0,662.4 630.1,662.4 628.3,662.4 626.4,662.4 624.5,662.4 622.7,662.4 620.8,662.4 618.9,662.4 617.0,662.4 615.2,662.4 613.3,662.4 611.4,662.4
609.6,662.4 607.7,662.4 605.8,662.4 604.0,662.4 602.1,662.4 600.2,662.4 598.3,662.4 596.5,662.4 594.6,662.4 592.7,662.4 590.9,662.4 589.0,662.4 587.1,662.4 585.2,662.4 583.4,662.4 581.5,662.4
579.6,662.4 577.8,662.4 575.9,662.4 574.0,662.4 572.2,662.4 570.3,662.4 568.4,662.4 566.5,662.4 564.7,662.4 562.8,662.4 560.9,662.4 559.1,662.4 557.2,662.4 555.3,662.4 553.4,662.4 551.6,662.4
549.7,662.4 547.8,662.4 546.0,662.4 544.1,662.4 542.2,662.4 540.4,662.4 538.5,662.4 536.6,662.4 534.7,662.4 532.9,662.4 531.0,662.4 529.1,662.4 527.3,662.4 525.4,662.4 523.5,662.4 521.6,662.4
519.8,662.4 517.9,662.4 516.0,662.4 514.2,662.4 512.3,662.4 510.4,662.4 508.6,662.4 506.7,662.4 504.8,662.4 502.9,662.4 501.1,662.4 499.2,662.4 497.3,662.4 495.5,662.4 493.6,662.4 491.7,662.4
489.8,662.4 488.0,662.4 486.1,662.4 484.2,662.4 482.4,662.4 480.5,662.4 478.6,662.4 476.8,662.4 474.9,662.4 473.0,662.4 471.1,662.4 469.3,662.4 467.4,662.4 465.5,662.4 463.7,662.4 461.8,662.4
459.9,662.4 458.0,662.4 456.2,662.4 454.3,662.4 452.4,662.4 450.6,662.4 448.7,662.4 446.8,662.4 445.0,662.4 443.1,662.4 441.2,662.4 439.3,662.4 437.5,662.4 435.6,662.4 433.7,662.4 431.9,662.4
430.0,662.4 428.1,662.4 426.3,662.4 424.4,662.4 422.5,662.4 420.6,662.4 418.8,662.4 416.9,662.4 415.0,662.4 413.2,662.4 411.3,662.4 409.4,662.4 407.5,662.4 405.7,662.4 403.8,662.4 401.9,662.4
400.1,662.4 398.2,662.4 396.3,662.4 394.5,662.4 392.6,662.4 390.7,662.4 388.8,662.4 387.0,662.4 385.1,662.4 383.2,662.4 381.4,662.4 379.5,662.4 377.6,662.4 375.7,662.4 373.9,662.4 372.0,662.4
370.1,662.4 368.3,662.4 366.4,662.4 364.5,662.4 362.7,662.4 360.8,662.4 358.9,662.4 357.0,662.4 355.2,662.4 353.3,662.4 351.4,662.4 349.6,662.4 347.7,662.4 345.8,662.4 343.9,662.4 342.1,662.4
340.2,662.4 338.3,662.4 336.5,662.4 334.6,662.4 332.7,662.4 330.9,662.4 329.0,662.4 327.1,662.4 325.2,662.4 323.4,662.4 321.5,662.4 319.6,662.4 317.8,662.4 315.9,662.4 314.0,662.4 312.1,662.4
310.3,662.4 308.4,662.4 306.5,662.4 304.7,662.4 302.8,662.4 300.9,662.4 299.1,662.4 297.2,662.4 295.3,662.4 293.4,662.4 291.6,662.4 289.7,662.4 287.8,662.4 286.0,662.4 284.1,662.4 282.2,662.4
280.3,662.4 278.5,662.4 276.6,662.4 274.7,662.4 272.9,662.4 271.0,662.4 269.1,662.4 267.3,662.4 265.4,662.4 263.5,662.4 261.6,662.4 259.8,662.4 257.9,662.4 256.0,662.4 254.2,662.4 252.3,662.4
250.4,662.4 248.5,662.4 246.7,662.4 244.8,662.4 242.9,662.4 241.1,662.4 239.2,662.4 237.3,662.4 235.5,662.4 233.6,662.4 231.7,662.4 229.8,662.4 228.0,662.4 226.1,662.4 224.2,662.4 222.4,662.4
220.5,662.4 218.6,662.4 216.7,662.4 214.9,662.4 213.0,662.4 211.1,662.4 209.3,662.4 207.4,662.4 205.5,662.4 203.7,662.4 201.8,662.4 199.9,662.4 198.0,662.4 196.2,662.4 194.3,662.4 192.4,662.4
190.6,662.4 188.7,662.4 186.8,662.4 185.0,662.4 183.1,662.4 181.2,662.4 179.3,662.4 177.5,662.4 175.6,662.4 173.7,662.4 171.9,662.4 170.0,662.4 168.1,662.4 166.2,662.4 '/>
	</g>
</g>
	</g>
	<g id="gnuplot_plot_3" ><title>Point estimate</title>
<g fill="none" color="white" stroke="rgb( 31, 120, 180)" stroke-width="2.00" stroke-linecap="butt" stroke-linejoin="miter">
</g>
<g fill="none" color="black" stroke="currentColor" stroke-width="2.00" stroke-linecap="butt" stroke-linejoin="miter">
	<g transform="translate(1089.0,103.0)" stroke="none" fill="black" font-family="Helvetica" font-size="12.00"  text-anchor="start">
		<text><tspan font-family="Helvetica" >Point estimate</tspan></text>
	</g>
</g>
<g fill="none" color="black" stroke="currentColor" stroke-width="2.00" stroke-linecap="butt" stroke-linejoin="miter">
	<path stroke='rgb( 31, 120, 180)'  d='M1038.5,99.1 L1080.7,99.1 M609.0,662.4 L609.0,147.8  '/></g>
	</g>
<g fill="none" color="black" stroke="currentColor" stroke-width="2.00" stroke-linecap="butt" stroke-linejoin="miter">
</g>
<g fill="none" color="black" stroke="black" stroke-width="1.00" stroke-linecap="butt" stroke-linejoin="miter">
</g>
<g fill="none" color="black" stroke="currentColor" stroke-width="1.00" stroke-linecap="butt" stroke-linejoin="miter">
	<path stroke='black'  d='M80.2,54.1 L80.2,662.4 L1013.6,662.4 L1013.6,54.1 L80.2,54.1 Z  '/></g>
<g fill="none" color="black" stroke="currentColor" stroke-width="1.00" stroke-linecap="butt" stroke-linejoin="miter">
</g>
</g>
</svg>

