<?xml version="1.0" encoding="utf-8"  standalone="no"?>
<svg 
 viewBox="0 0 1280 720"
 xmlns="http://www.w3.org/2000/svg"
 xmlns:xlink="http://www.w3.org/1999/xlink"
>

<title>Gnuplot</title>
<desc>Produced by GNUPLOT 5.2 patchlevel 6 </desc>

<g id="gnuplot_canvas">

<rect x="0" y="0" width="1280" height="720" fill="none"/>
<defs>

	<circle id='gpDot' r='0.5' stroke-width='0.5' stroke='currentColor'/>
	<path id='gpPt0' stroke-width='0.222' stroke='currentColor' d='M-1,0 h2 M0,-1 v2'/>
	<path id='gpPt1' stroke-width='0.222' stroke='currentColor' d='M-1,-1 L1,1 M1,-1 L-1,1'/>
	<path id='gpPt2' stroke-width='0.222' stroke='currentColor' d='M-1,0 L1,0 M0,-1 L0,1 M-1,-1 L1,1 M-1,1 L1,-1'/>
	<rect id='gpPt3' stroke-width='0.222' stroke='currentColor' x='-1' y='-1' width='2' height='2'/>
	<rect id='gpPt4' stroke-width='0.222' stroke='currentColor' fill='currentColor' x='-1' y='-1' width='2' height='2'/>
	<circle id='gpPt5' stroke-width='0.222' stroke='currentColor' cx='0' cy='0' r='1'/>
	<use xlink:href='#gpPt5' id='gpPt6' fill='currentColor' stroke='none'/>
	<path id='gpPt7' stroke-width='0.222' stroke='currentColor' d='M0,-1.33 L-1.33,0.67 L1.33,0.67 z'/>
	<use xlink:href='#gpPt7' id='gpPt8' fill='currentColor' stroke='none'/>
	<use xlink:href='#gpPt7' id='gpPt9' stroke='currentColor' transform='rotate(180)'/>
	<use xlink:href='#gpPt9' id='gpPt10' fill='currentColor' stroke='none'/>
	<use xlink:href='#gpPt3' id='gpPt11' stroke='currentColor' transform='rotate(45)'/>
	<use xlink:href='#gpPt11' id='gpPt12' fill='currentColor' stroke='none'/>
	<path id='gpPt13' stroke-width='0.222' stroke='currentColor' d='M0,1.330 L1.265,0.411 L0.782,-1.067 L-0.782,-1.076 L-1.265,0.411 z'/>
	<use xlink:href='#gpPt13' id='gpPt14' fill='currentColor' stroke='none'/>
	<filter id='textbox' filterUnits='objectBoundingBox' x='0' y='0' height='1' width='1'>
	  <feFlood flood-color='white' flood-opacity='1' result='bgnd'/>
	  <feComposite in='SourceGraphic' in2='bgnd' operator='atop'/>
	</filter>
	<filter id='greybox' filterUnits='objectBoundingBox' x='0' y='0' height='1' width='1'>
	  <feFlood flood-color='lightgrey' flood-opacity='1' result='grey'/>
	  <feComposite in='SourceGraphic' in2='grey' operator='atop'/>
	</filter>
</defs>
<g fill="none" color="white" stroke="currentColor" stroke-width="1.00" stroke-linecap="butt" stroke-linejoin="miter">
</g>
<g fill="none" color="black" stroke="currentColor" stroke-width="1.00" stroke-linecap="butt" stroke-linejoin="miter">
	<path stroke='black'  d='M80.2,662.4 L89.2,662.4  '/>	<g transform="translate(71.9,666.3)" stroke="none" fill="black" font-family="Helvetica" font-size="12.00"  text-anchor="end">
		<text><tspan font-family="Helvetica" > 0</tspan></text>
	</g>
</g>
<g fill="none" color="black" stroke="currentColor" stroke-width="1.00" stroke-linecap="butt" stroke-linejoin="miter">
	<path stroke='black'  d='M80.2,561.0 L89.2,561.0  '/>	<g transform="translate(71.9,564.9)" stroke="none" fill="black" font-family="Helvetica" font-size="12.00"  text-anchor="end">
		<text><tspan font-family="Helvetica" > 200</tspan></text>
	</g>
</g>
<g fill="none" color="black" stroke="currentColor" stroke-width="1.00" stroke-linecap="butt" stroke-linejoin="miter">
	<path stroke='black'  d='M80.2,459.6 L89.2,459.6  '/>	<g transform="translate(71.9,463.5)" stroke="none" fill="black" font-family="Helvetica" font-size="12.00"  text-anchor="end">
		<text><tspan font-family="Helvetica" > 400</tspan></text>
	</g>
</g>
<g fill="none" color="black" stroke="currentColor" stroke-width="1.00" stroke-linecap="butt" stroke-linejoin="miter">
	<path stroke='black'  d='M80.2,358.2 L89.2,358.2  '/>	<g transform="translate(71.9,362.1)" stroke="none" fill="black" font-family="Helvetica" font-size="12.00"  text-anchor="end">
		<text><tspan font-family="Helvetica" > 600</tspan></text>
	</g>
</g>
<g fill="none" color="black" stroke="currentColor" stroke-width="1.00" stroke-linecap="butt" stroke-linejoin="miter">
	<path stroke='black'  d='M80.2,256.9 L89.2,256.9  '/>	<g transform="translate(71.9,260.8)" stroke="none" fill="black" font-family="Helvetica" font-size="12.00"  text-anchor="end">
		<text><tspan font-family="Helvetica" > 800</tspan></text>
	</g>
</g>
<g fill="none" color="black" stroke="currentColor" stroke-width="1.00" stroke-linecap="butt" stroke-linejoin="miter">
	<path stroke='black'  d='M80.2,155.5 L89.2,155.5  '/>	<g transform="translate(71.9,159.4)" stroke="none" fill="black" font-family="Helvetica" font-size="12.00"  text-anchor="end">
		<text><tspan font-family="Helvetica" > 1000</tspan></text>
	</g>
</g>
<g fill="none" color="black" stroke="currentColor" stroke-width="1.00" stroke-linecap="butt" stroke-linejoin="miter">
	<path stroke='black'  d='M80.2,54.1 L89.2,54.1  '/>	<g transform="translate(71.9,58.0)" stroke="none" fill="black" font-family="Helvetica" font-size="12.00"  text-anchor="end">
		<text><tspan font-family="Helvetica" > 1200</tspan></text>
	</g>
</g>
<g fill="none" color="black" stroke="currentColor" stroke-width="1.00" stroke-linecap="butt" stroke-linejoin="miter">
	<path stroke='black'  d='M121.7,662.4 L121.7,653.4  '/>	<g transform="translate(121.7,684.3)" stroke="none" fill="black" font-family="Helvetica" font-size="12.00"  text-anchor="middle">
		<text><tspan font-family="Helvetica" >-30.3</tspan></text>
	</g>
</g>
<g fill="none" color="black" stroke="currentColor" stroke-width="1.00" stroke-linecap="butt" stroke-linejoin="miter">
	<path stroke='black'  d='M296.1,662.4 L296.1,653.4  '/>	<g transform="translate(296.1,684.3)" stroke="none" fill="black" font-family="Helvetica" font-size="12.00"  text-anchor="middle">
		<text><tspan font-family="Helvetica" >-30.25</tspan></text>
	</g>
</g>
<g fill="none" color="black" stroke="currentColor" stroke-width="1.00" stroke-linecap="butt" stroke-linejoin="miter">
	<path stroke='black'  d='M470.6,662.4 L470.6,653.4  '/>	<g transform="translate(470.6,684.3)" stroke="none" fill="black" font-family="Helvetica" font-size="12.00"  text-anchor="middle">
		<text><tspan font-family="Helvetica" >-30.2</tspan></text>
	</g>
</g>
<g fill="none" color="black" stroke="currentColor" stroke-width="1.00" stroke-linecap="butt" stroke-linejoin="miter">
	<path stroke='black'  d='M645.0,662.4 L645.0,653.4  '/>	<g transform="translate(645.0,684.3)" stroke="none" fill="black" font-family="Helvetica" font-size="12.00"  text-anchor="middle">
		<text><tspan font-family="Helvetica" >-30.15</tspan></text>
	</g>
</g>
<g fill="none" color="black" stroke="currentColor" stroke-width="1.00" stroke-linecap="butt" stroke-linejoin="miter">
	<path stroke='black'  d='M819.4,662.4 L819.4,653.4  '/>	<g transform="translate(819.4,684.3)" stroke="none" fill="black" font-family="Helvetica" font-size="12.00"  text-anchor="middle">
		<text><tspan font-family="Helvetica" >-30.1</tspan></text>
	</g>
</g>
<g fill="none" color="black" stroke="currentColor" stroke-width="1.00" stroke-linecap="butt" stroke-linejoin="miter">
	<path stroke='black'  d='M993.9,662.4 L993.9,653.4  '/>	<g transform="translate(993.9,684.3)" stroke="none" fill="black" font-family="Helvetica" font-size="12.00"  text-anchor="middle">
		<text><tspan font-family="Helvetica" >-30.05</tspan></text>
	</g>
</g>
<g fill="none" color="black" stroke="currentColor" stroke-width="1.00" stroke-linecap="butt" stroke-linejoin="miter">
</g>
<g fill="none" color="black" stroke="currentColor" stroke-width="1.00" stroke-linecap="butt" stroke-linejoin="miter">
	<path stroke='black'  d='M80.2,54.1 L80.2,662.4 L1013.6,662.4 L1013.6,54.1 L80.2,54.1 Z  '/></g>
<g fill="none" color="black" stroke="currentColor" stroke-width="1.00" stroke-linecap="butt" stroke-linejoin="miter">
	<g transform="translate(16.3,358.3) rotate(270)" stroke="none" fill="black" font-family="Helvetica" font-size="12.00"  text-anchor="middle">
		<text><tspan font-family="Helvetica" >Density (a.u.)</tspan></text>
	</g>
</g>
<g fill="none" color="black" stroke="currentColor" stroke-width="1.00" stroke-linecap="butt" stroke-linejoin="miter">
	<g transform="translate(546.9,711.3)" stroke="none" fill="black" font-family="Helvetica" font-size="12.00"  text-anchor="middle">
		<text><tspan font-family="Helvetica" >Relative change (%)</tspan></text>
	</g>
</g>
<g fill="none" color="black" stroke="currentColor" stroke-width="1.00" stroke-linecap="butt" stroke-linejoin="miter">
	<g transform="translate(546.9,31.0)" stroke="none" fill="black" font-family="Helvetica" font-size="12.00"  text-anchor="middle">
		<text><tspan font-family="Helvetica" >snapshot_restore_with_dense/Sparse: Dirty pages + process_vm_writev/22: median</tspan></text>
	</g>
</g>
	<g id="gnuplot_plot_1" ><title>Bootstrap distribution</title>
<g fill="none" color="white" stroke="black" stroke-width="2.00" stroke-linecap="butt" stroke-linejoin="miter">
</g>
<g fill="none" color="black" stroke="currentColor" stroke-width="2.00" stroke-linecap="butt" stroke-linejoin="miter">
	<g transform="translate(1089.0,67.0)" stroke="none" fill="black" font-family="Helvetica" font-size="12.00"  text-anchor="start">
		<text><tspan font-family="Helvetica" >Bootstrap distribution</tspan></text>
	</g>
</g>
<g fill="none" color="black" stroke="currentColor" stroke-width="2.00" stroke-linecap="butt" stroke-linejoin="miter">
	<path stroke='rgb( 31, 120, 180)'  d='M1038.5,63.1 L1080.7,63.1 M80.2,638.6 L82.1,637.4 L83.9,636.1 L85.8,634.9 L87.7,633.6 L89.6,632.4
		L91.4,631.2 L93.3,630.1 L95.2,629.0 L97.0,627.9 L98.9,626.9 L100.8,626.0 L102.6,625.1 L104.5,624.2
		L106.4,623.5 L108.3,622.8 L110.1,622.1 L112.0,621.5 L113.9,621.0 L115.7,620.5 L117.6,620.1 L119.5,619.7
		L121.4,619.3 L123.2,619.0 L125.1,618.7 L127.0,618.4 L128.8,618.1 L130.7,617.9 L132.6,617.6 L134.4,617.4
		L136.3,617.1 L138.2,616.9 L140.1,616.6 L141.9,616.4 L143.8,616.1 L145.7,615.8 L147.5,615.5 L149.4,615.2
		L151.3,614.8 L153.2,614.5 L155.0,614.1 L156.9,613.7 L158.8,613.3 L160.6,612.8 L162.5,612.4 L164.4,611.9
		L166.2,611.4 L168.1,610.9 L170.0,610.3 L171.9,609.7 L173.7,609.1 L175.6,608.5 L177.5,607.9 L179.3,607.2
		L181.2,606.5 L183.1,605.7 L185.0,605.0 L186.8,604.1 L188.7,603.3 L190.6,602.4 L192.4,601.4 L194.3,600.4
		L196.2,599.4 L198.0,598.4 L199.9,597.3 L201.8,596.2 L203.7,595.1 L205.5,593.9 L207.4,592.7 L209.3,591.6
		L211.1,590.4 L213.0,589.2 L214.9,588.0 L216.7,586.8 L218.6,585.6 L220.5,584.3 L222.4,583.1 L224.2,581.9
		L226.1,580.7 L228.0,579.5 L229.8,578.3 L231.7,577.1 L233.6,575.8 L235.5,574.6 L237.3,573.3 L239.2,572.1
		L241.1,570.8 L242.9,569.5 L244.8,568.2 L246.7,566.8 L248.5,565.4 L250.4,564.0 L252.3,562.6 L254.2,561.1
		L256.0,559.7 L257.9,558.2 L259.8,556.7 L261.6,555.2 L263.5,553.8 L265.4,552.3 L267.3,550.9 L269.1,549.5
		L271.0,548.2 L272.9,547.0 L274.7,545.8 L276.6,544.7 L278.5,543.7 L280.3,542.7 L282.2,541.8 L284.1,541.0
		L286.0,540.2 L287.8,539.4 L289.7,538.7 L291.6,538.0 L293.4,537.2 L295.3,536.5 L297.2,535.7 L299.1,534.8
		L300.9,533.9 L302.8,532.9 L304.7,531.9 L306.5,530.7 L308.4,529.5 L310.3,528.1 L312.1,526.7 L314.0,525.1
		L315.9,523.5 L317.8,521.7 L319.6,519.9 L321.5,518.0 L323.4,515.9 L325.2,513.8 L327.1,511.6 L329.0,509.2
		L330.9,506.8 L332.7,504.4 L334.6,501.9 L336.5,499.4 L338.3,496.8 L340.2,494.3 L342.1,491.9 L343.9,489.6
		L345.8,487.4 L347.7,485.4 L349.6,483.5 L351.4,481.9 L353.3,480.6 L355.2,479.6 L357.0,478.8 L358.9,478.3
		L360.8,478.1 L362.7,478.1 L364.5,478.4 L366.4,478.8 L368.3,479.4 L370.1,480.1 L372.0,480.8 L373.9,481.5
		L375.7,482.1 L377.6,482.6 L379.5,483.0 L381.4,483.1 L383.2,483.0 L385.1,482.7 L387.0,482.1 L388.8,481.2
		L390.7,480.0 L392.6,478.6 L394.5,477.0 L396.3,475.2 L398.2,473.3 L400.1,471.3 L401.9,469.3 L403.8,467.3
		L405.7,465.4 L407.5,463.7 L409.4,462.1 L411.3,460.7 L413.2,459.6 L415.0,458.8 L416.9,458.3 L418.8,458.0
		L420.6,457.9 L422.5,458.1 L424.4,458.4 L426.3,458.9 L428.1,459.4 L430.0,459.9 L431.9,460.2 L433.7,460.4
		L435.6,460.2 L437.5,459.7 L439.3,458.7 L441.2,457.2 L443.1,455.1 L445.0,452.2 L446.8,448.7 L448.7,444.3
		L450.6,439.1 L452.4,433.1 L454.3,426.3 L456.2,418.7 L458.0,410.3 L459.9,401.1 L461.8,391.2 L463.7,380.7
		L465.5,369.6 L467.4,357.9 L469.3,345.9 L471.1,333.5 L473.0,320.8 L474.9,308.0 L476.8,295.0 L478.6,282.0
		L480.5,269.0 L482.4,256.2 L484.2,243.5 L486.1,231.1 L488.0,218.9 L489.8,207.0 L491.7,195.5 L493.6,184.4
		L495.5,173.7 L497.3,163.4 L499.2,153.6 L501.1,144.3 L502.9,135.4 L504.8,127.1 L506.7,119.2 L508.6,111.9
		L510.4,105.2 L512.3,99.0 L514.2,93.4 L516.0,88.5 L517.9,84.2 L519.8,80.6 L521.6,77.7 L523.5,75.5
		L525.4,74.1 L527.3,73.4 L529.1,73.6 L531.0,74.5 L532.9,76.1 L534.7,78.6 L536.6,81.7 L538.5,85.6
		L540.4,90.1 L542.2,95.1 L544.1,100.7 L546.0,106.8 L547.8,113.2 L549.7,119.8 L551.6,126.7 L553.4,133.6
		L555.3,140.6 L557.2,147.4 L559.1,154.1 L560.9,160.6 L562.8,166.8 L564.7,172.5 L566.5,177.9 L568.4,182.7
		L570.3,187.1 L572.2,190.9 L574.0,194.2 L575.9,196.8 L577.8,199.0 L579.6,200.6 L581.5,201.7 L583.4,202.3
		L585.2,202.5 L587.1,202.3 L589.0,201.8 L590.9,201.1 L592.7,200.1 L594.6,199.0 L596.5,197.8 L598.3,196.5
		L600.2,195.3 L602.1,194.2 L604.0,193.2 L605.8,192.3 L607.7,191.6 L609.6,191.1 L611.4,190.9 L613.3,190.8
		L615.2,191.1 L617.0,191.6 L618.9,192.3 L620.8,193.3 L622.7,194.6 L624.5,196.1 L626.4,197.8 L628.3,199.8
		L630.1,202.0 L632.0,204.4 L633.9,207.1 L635.8,210.0 L637.6,213.1 L639.5,216.6 L641.4,220.3 L643.2,224.3
		L645.1,228.7 L647.0,233.3 L648.8,238.4 L650.7,243.8 L652.6,249.6 L654.5,255.8 L656.3,262.4 L658.2,269.4
		L660.1,276.8 L661.9,284.6 L663.8,292.8 L665.7,301.4 L667.5,310.2 L669.4,319.4 L671.3,328.8 L673.2,338.3
		L675.0,348.0 L676.9,357.8 L678.8,367.7 L680.6,377.4 L682.5,387.1 L684.4,396.6 L686.3,406.0 L688.1,415.0
		L690.0,423.8 L691.9,432.1 L693.7,440.1 L695.6,447.7 L697.5,454.8 L699.3,461.4 L701.2,467.6 L703.1,473.3
		L705.0,478.5 L706.8,483.3 L708.7,487.6 L710.6,491.6 L712.4,495.1 L714.3,498.4 L716.2,501.3 L718.1,503.9
		L719.9,506.3 L721.8,508.5 L723.7,510.6 L725.5,512.5 L727.4,514.4 L729.3,516.2 L731.1,518.0 L733.0,519.8
		L734.9,521.6 L736.8,523.5 L738.6,525.4 L740.5,527.4 L742.4,529.5 L744.2,531.6 L746.1,533.7 L748.0,536.0
		L749.9,538.2 L751.7,540.5 L753.6,542.8 L755.5,545.0 L757.3,547.2 L759.2,549.4 L761.1,551.5 L762.9,553.5
		L764.8,555.3 L766.7,557.1 L768.6,558.7 L770.4,560.1 L772.3,561.3 L774.2,562.4 L776.0,563.4 L777.9,564.1
		L779.8,564.7 L781.7,565.2 L783.5,565.5 L785.4,565.7 L787.3,565.9 L789.1,565.9 L791.0,565.9 L792.9,565.8
		L794.7,565.8 L796.6,565.7 L798.5,565.7 L800.4,565.8 L802.2,565.9 L804.1,566.2 L806.0,566.6 L807.8,567.0
		L809.7,567.7 L811.6,568.4 L813.5,569.4 L815.3,570.4 L817.2,571.6 L819.1,573.0 L820.9,574.5 L822.8,576.1
		L824.7,577.8 L826.5,579.5 L828.4,581.4 L830.3,583.3 L832.2,585.2 L834.0,587.1 L835.9,589.0 L837.8,590.9
		L839.6,592.8 L841.5,594.5 L843.4,596.2 L845.3,597.8 L847.1,599.3 L849.0,600.7 L850.9,602.0 L852.7,603.2
		L854.6,604.3 L856.5,605.3 L858.3,606.1 L860.2,606.9 L862.1,607.6 L864.0,608.3 L865.8,608.9 L867.7,609.5
		L869.6,610.1 L871.4,610.7 L873.3,611.3 L875.2,611.9 L877.1,612.6 L878.9,613.3 L880.8,614.0 L882.7,614.9
		L884.5,615.7 L886.4,616.7 L888.3,617.7 L890.1,618.7 L892.0,619.7 L893.9,620.8 L895.8,621.9 L897.6,622.9
		L899.5,624.0 L901.4,625.0 L903.2,625.9 L905.1,626.8 L907.0,627.6 L908.8,628.3 L910.7,629.0 L912.6,629.5
		L914.5,630.0 L916.3,630.4 L918.2,630.7 L920.1,631.0 L921.9,631.1 L923.8,631.3 L925.7,631.4 L927.6,631.5
		L929.4,631.5 L931.3,631.6 L933.2,631.7 L935.0,631.8 L936.9,631.9 L938.8,632.1 L940.6,632.3 L942.5,632.5
		L944.4,632.8 L946.3,633.1 L948.1,633.5 L950.0,633.9 L951.9,634.3 L953.7,634.8 L955.6,635.3 L957.5,635.7
		L959.4,636.2 L961.2,636.6 L963.1,637.1 L965.0,637.5 L966.8,637.9 L968.7,638.2 L970.6,638.5 L972.4,638.7
		L974.3,638.9 L976.2,639.1 L978.1,639.3 L979.9,639.4 L981.8,639.4 L983.7,639.5 L985.5,639.5 L987.4,639.5
		L989.3,639.5 L991.2,639.5 L993.0,639.6 L994.9,639.6 L996.8,639.7 L998.6,639.8 L1000.5,639.9 L1002.4,640.0
		L1004.2,640.2 L1006.1,640.4 L1008.0,640.7 L1009.9,641.0 L1011.7,641.3 L1013.6,641.7  '/></g>
	</g>
	<g id="gnuplot_plot_2" ><title>Confidence interval</title>
<g fill="none" color="white" stroke="rgb( 31, 120, 180)" stroke-width="1.00" stroke-linecap="butt" stroke-linejoin="miter">
</g>
<g fill="none" color="black" stroke="currentColor" stroke-width="1.00" stroke-linecap="butt" stroke-linejoin="miter">
	<g transform="translate(1089.0,85.0)" stroke="none" fill="black" font-family="Helvetica" font-size="12.00"  text-anchor="start">
		<text><tspan font-family="Helvetica" >Confidence interval</tspan></text>
	</g>
</g>
<g fill="none" color="black" stroke="currentColor" stroke-width="1.00" stroke-linecap="butt" stroke-linejoin="miter">
	<g stroke='none' shape-rendering='crispEdges'>
		<polygon fill = 'rgb( 31, 120, 180)' fill-opacity = '0.250000' points = '1038.5,85.6 1080.7,85.6 1080.7,76.6 1038.5,76.6 '/>
		<polygon fill = 'rgb( 31, 120, 180)' fill-opacity = '0.250000' points = '166.2,611.4 168.1,610.9 170.0,610.3 171.9,609.7 173.7,609.1 175.6,608.5 177.5,607.9 179.3,607.2 181.2,606.5 183.1,605.7 185.0,605.0 186.8,604.1 188.7,603.3 190.6,602.4 192.4,601.4 194.3,600.4
196.2,599.4 198.0,598.4 199.9,597.3 201.8,596.2 203.7,595.1 205.5,593.9 207.4,592.7 209.3,591.6 211.1,590.4 213.0,589.2 214.9,588.0 216.7,586.8 218.6,585.6 220.5,584.3 222.4,583.1 224.2,581.9
226.1,580.7 228.0,579.5 229.8,578.3 231.7,577.1 233.6,575.8 235.5,574.6 237.3,573.3 239.2,572.1 241.1,570.8 242.9,569.5 244.8,568.2 246.7,566.8 248.5,565.4 250.4,564.0 252.3,562.6 254.2,561.1
256.0,559.7 257.9,558.2 259.8,556.7 261.6,555.2 263.5,553.8 265.4,552.3 267.3,550.9 269.1,549.5 271.0,548.2 272.9,547.0 274.7,545.8 276.6,544.7 278.5,543.7 280.3,542.7 282.2,541.8 284.1,541.0
286.0,540.2 287.8,539.4 289.7,538.7 291.6,538.0 293.4,537.2 295.3,536.5 297.2,535.7 299.1,534.8 300.9,533.9 302.8,532.9 304.7,531.9 306.5,530.7 308.4,529.5 310.3,528.1 312.1,526.7 314.0,525.1
315.9,523.5 317.8,521.7 319.6,519.9 321.5,518.0 323.4,515.9 325.2,513.8 327.1,511.6 329.0,509.2 330.9,506.8 332.7,504.4 334.6,501.9 336.5,499.4 338.3,496.8 340.2,494.3 342.1,491.9 343.9,489.6
345.8,487.4 347.7,485.4 349.6,483.5 351.4,481.9 353.3,480.6 355.2,479.6 357.0,478.8 358.9,478.3 360.8,478.1 362.7,478.1 364.5,478.4 366.4,478.8 368.3,479.4 370.1,480.1 372.0,480.8 373.9,481.5
375.7,482.1 377.6,482.6 379.5,483.0 381.4,483.1 383.2,483.0 385.1,482.7 387.0,482.1 388.8,481.2 390.7,480.0 392.6,478.6 394.5,477.0 396.3,475.2 398.2,473.3 400.1,471.3 401.9,469.3 403.8,467.3
405.7,465.4 407.5,463.7 409.4,462.1 411.3,460.7 413.2,459.6 415.0,458.8 416.9,458.3 418.8,458.0 420.6,457.9 422.5,458.1 424.4,458.4 426.3,458.9 428.1,459.4 430.0,459.9 431.9,460.2 433.7,460.4
435.6,460.2 437.5,459.7 439.3,458.7 441.2,457.2 443.1,455.1 445.0,452.2 446.8,448.7 448.7,444.3 450.6,439.1 452.4,433.1 454.3,426.3 456.2,418.7 458.0,410.3 459.9,401.1 461.8,391.2 463.7,380.7
465.5,369.6 467.4,357.9 469.3,345.9 471.1,333.5 473.0,320.8 474.9,308.0 476.8,295.0 478.6,282.0 480.5,269.0 482.4,256.2 484.2,243.5 486.1,231.1 488.0,218.9 489.8,207.0 491.7,195.5 493.6,184.4
495.5,173.7 497.3,163.4 499.2,153.6 501.1,144.3 502.9,135.4 504.8,127.1 506.7,119.2 508.6,111.9 510.4,105.2 512.3,99.0 514.2,93.4 516.0,88.5 517.9,84.2 519.8,80.6 521.6,77.7 523.5,75.5
525.4,74.1 527.3,73.4 529.1,73.6 531.0,74.5 532.9,76.1 534.7,78.6 536.6,81.7 538.5,85.6 540.4,90.1 542.2,95.1 544.1,100.7 546.0,106.8 547.8,113.2 549.7,119.8 551.6,126.7 553.4,133.6
555.3,140.6 557.2,147.4 559.1,154.1 560.9,160.6 562.8,166.8 564.7,172.5 566.5,177.9 568.4,182.7 570.3,187.1 572.2,190.9 574.0,194.2 575.9,196.8 577.8,199.0 579.6,200.6 581.5,201.7 583.4,202.3
585.2,202.5 587.1,202.3 589.0,201.8 590.9,201.1 592.7,200.1 594.6,199.0 596.5,197.8 598.3,196.5 600.2,195.3 602.1,194.2 604.0,193.2 605.8,192.3 607.7,191.6 609.6,191.1 611.4,190.9 613.3,190.8
615.2,191.1 617.0,191.6 618.9,192.3 620.8,193.3 622.7,194.6 624.5,196.1 626.4,197.8 628.3,199.8 630.1,202.0 632.0,204.4 633.9,207.1 635.8,210.0 637.6,213.1 639.5,216.6 641.4,220.3 643.2,224.3
645.1,228.7 647.0,233.3 648.8,238.4 650.7,243.8 652.6,249.6 654.5,255.8 656.3,262.4 658.2,269.4 660.1,276.8 661.9,284.6 663.8,292.8 665.7,301.4 667.5,310.2 669.4,319.4 671.3,328.8 673.2,338.3
675.0,348.0 676.9,357.8 678.8,367.7 680.6,377.4 682.5,387.1 684.4,396.6 686.3,406.0 688.1,415.0 690.0,423.8 691.9,432.1 693.7,440.1 695.6,447.7 697.5,454.8 699.3,461.4 701.2,467.6 703.1,473.3
705.0,478.5 706.8,483.3 708.7,487.6 710.6,491.6 712.4,495.1 714.3,498.4 716.2,501.3 718.1,503.9 719.9,506.3 721.8,508.5 723.7,510.6 725.5,512.5 727.4,514.4 729.3,516.2 731.1,518.0 733.0,519.8
734.9,521.6 736.8,523.5 738.6,525.4 740.5,527.4 742.4,529.5 744.2,531.6 746.1,533.7 748.0,536.0 749.9,538.2 751.7,540.5 753.6,542.8 755.5,545.0 757.3,547.2 759.2,549.4 761.1,551.5 762.9,553.5
764.8,555.3 766.7,557.1 768.6,558.7 770.4,560.1 772.3,561.3 774.2,562.4 776.0,563.4 777.9,564.1 779.8,564.7 781.7,565.2 783.5,565.5 785.4,565.7 787.3,565.9 789.1,565.9 791.0,565.9 792.9,565.8
794.7,565.8 796.6,565.7 798.5,565.7 800.4,565.8 802.2,565.9 804.1,566.2 806.0,566.6 807.8,567.0 809.7,567.7 811.6,568.4 813.5,569.4 815.3,570.4 817.2,571.6 819.1,573.0 820.9,574.5 822.8,576.1
824.7,577.8 826.5,579.5 828.4,581.4 830.3,583.3 832.2,585.2 834.0,587.1 835.9,589.0 837.8,590.9 839.6,592.8 841.5,594.5 843.4,596.2 845.3,597.8 847.1,599.3 849.0,600.7 850.9,602.0 852.7,603.2
854.6,604.3 856.5,605.3 858.3,606.1 860.2,606.9 862.1,607.6 864.0,608.3 865.8,608.9 867.7,609.5 869.6,610.1 871.4,610.7 873.3,611.3 875.2,611.9 877.1,612.6 878.9,613.3 880.8,614.0 882.7,614.9
884.5,615.7 886.4,616.7 888.3,617.7 890.1,618.7 892.0,619.7 893.9,620.8 895.8,621.9 897.6,622.9 899.5,624.0 901.4,625.0 903.2,625.9 905.1,626.8 907.0,627.6 908.8,628.3 910.7,629.0 912.6,629.5
914.5,630.0 916.3,630.4 918.2,630.7 920.1,631.0 921.9,631.1 923.8,631.3 925.7,631.4 925.7,662.4 923.8,662.4 921.9,662.4 920.1,662.4 918.2,662.4 916.3,662.4 914.5,662.4 912.6,662.4 910.7,662.4
908.8,662.4 907.0,662.4 905.1,662.4 903.2,662.4 901.4,662.4 899.5,662.4 897.6,662.4 895.8,662.4 893.9,662.4 892.0,662.4 890.1,662.4 888.3,662.4 886.4,662.4 884.5,662.4 882.7,662.4 880.8,662.4
878.9,662.4 877.1,662.4 875.2,662.4 873.3,662.4 871.4,662.4 869.6,662.4 867.7,662.4 865.8,662.4 864.0,662.4 862.1,662.4 860.2,662.4 858.3,662.4 856.5,662.4 854.6,662.4 852.7,662.4 850.9,662.4
849.0,662.4 847.1,662.4 845.3,662.4 843.4,662.4 841.5,662.4 839.6,662.4 837.8,662.4 835.9,662.4 834.0,662.4 832.2,662.4 830.3,662.4 828.4,662.4 826.5,662.4 824.7,662.4 822.8,662.4 820.9,662.4
819.1,662.4 817.2,662.4 815.3,662.4 813.5,662.4 811.6,662.4 809.7,662.4 807.8,662.4 806.0,662.4 804.1,662.4 802.2,662.4 800.4,662.4 798.5,662.4 796.6,662.4 794.7,662.4 792.9,662.4 791.0,662.4
789.1,662.4 787.3,662.4 785.4,662.4 783.5,662.4 781.7,662.4 779.8,662.4 777.9,662.4 776.0,662.4 774.2,662.4 772.3,662.4 770.4,662.4 768.6,662.4 766.7,662.4 764.8,662.4 762.9,662.4 761.1,662.4
759.2,662.4 757.3,662.4 755.5,662.4 753.6,662.4 751.7,662.4 749.9,662.4 748.0,662.4 746.1,662.4 744.2,662.4 742.4,662.4 740.5,662.4 738.6,662.4 736.8,662.4 734.9,662.4 733.0,662.4 731.1,662.4
729.3,662.4 727.4,662.4 725.5,662.4 723.7,662.4 721.8,662.4 719.9,662.4 718.1,662.4 716.2,662.4 714.3,662.4 712.4,662.4 710.6,662.4 708.7,662.4 706.8,662.4 705.0,662.4 703.1,662.4 701.2,662.4
699.3,662.4 697.5,662.4 695.6,662.4 693.7,662.4 691.9,662.4 690.0,662.4 688.1,662.4 686.3,662.4 684.4,662.4 682.5,662.4 680.6,662.4 678.8,662.4 676.9,662.4 675.0,662.4 673.2,662.4 671.3,662.4
669.4,662.4 667.5,662.4 665.7,662.4 663.8,662.4 661.9,662.4 660.1,662.4 658.2,662.4 656.3,662.4 654.5,662.4 652.6,662.4 650.7,662.4 648.8,662.4 647.0,662.4 645.1,662.4 643.2,662.4 641.4,662.4
639.5,662.4 637.6,662.4 635.8,662.4 633.9,662.4 632.0,662.4 630.1,662.4 628.3,662.4 626.4,662.4 624.5,662.4 622.7,662.4 620.8,662.4 618.9,662.4 617.0,662.4 615.2,662.4 613.3,662.4 611.4,662.4
609.6,662.4 607.7,662.4 605.8,662.4 604.0,662.4 602.1,662.4 600.2,662.4 598.3,662.4 596.5,662.4 594.6,662.4 592.7,662.4 590.9,662.4 589.0,662.4 587.1,662.4 585.2,662.4 583.4,662.4 581.5,662.4
579.6,662.4 577.8,662.4 575.9,662.4 574.0,662.4 572.2,662.4 570.3,662.4 568.4,662.4 566.5,662.4 564.7,662.4 562.8,662.4 560.9,662.4 559.1,662.4 557.2,662.4 555.3,662.4 553.4,662.4 551.6,662.4
549.7,662.4 547.8,662.4 546.0,662.4 544.1,662.4 542.2,662.4 540.4,662.4 538.5,662.4 536.6,662.4 534.7,662.4 532.9,662.4 531.0,662.4 529.1,662.4 527.3,662.4 525.4,662.4 523.5,662.4 521.6,662.4
519.8,662.4 517.9,662.4 516.0,662.4 514.2,662.4 512.3,662.4 510.4,662.4 508.6,662.4 506.7,662.4 504.8,662.4 502.9,662.4 501.1,662.4 499.2,662.4 497.3,662.4 495.5,662.4 493.6,662.4 491.7,662.4
489.8,662.4 488.0,662.4 486.1,662.4 484.2,662.4 482.4,662.4 480.5,662.4 478.6,662.4 476.8,662.4 474.9,662.4 473.0,662.4 471.1,662.4 469.3,662.4 467.4,662.4 465.5,662.4 463.7,662.4 461.8,662.4
459.9,662.4 458.0,662.4 456.2,662.4 454.3,662.4 452.4,662.4 450.6,662.4 448.7,662.4 446.8,662.4 445.0,662.4 443.1,662.4 441.2,662.4 439.3,662.4 437.5,662.4 435.6,662.4 433.7,662.4 431.9,662.4
430.0,662.4 428.1,662.4 426.3,662.4 424.4,662.4 422.5,662.4 420.6,662.4 418.8,662.4 416.9,662.4 415.0,662.4 413.2,662.4 411.3,662.4 409.4,662.4 407.5,662.4 405.7,662.4 403.8,662.4 401.9,662.4
400.1,662.4 398.2,662.4 396.3,662.4 394.5,662.4 392.6,662.4 390.7,662.4 388.8,662.4 387.0,662.4 385.1,662.4 383.2,662.4 381.4,662.4 379.5,662.4 377.6,662.4 375.7,662.4 373.9,662.4 372.0,662.4
370.1,662.4 368.3,662.4 366.4,662.4 364.5,662.4 362.7,662.4 360.8,662.4 358.9,662.4 357.0,662.4 355.2,662.4 353.3,662.4 351.4,662.4 349.6,662.4 347.7,662.4 345.8,662.4 343.9,662.4 342.1,662.4
340.2,662.4 338.3,662.4 336.5,662.4 334.6,662.4 332.7,662.4 330.9,662.4 329.0,662.4 327.1,662.4 325.2,662.4 323.4,662.4 321.5,662.4 319.6,662.4 317.8,662.4 315.9,662.4 314.0,662.4 312.1,662.4
310.3,662.4 308.4,662.4 306.5,662.4 304.7,662.4 302.8,662.4 300.9,662.4 299.1,662.4 297.2,662.4 295.3,662.4 293.4,662.4 291.6,662.4 289.7,662.4 287.8,662.4 286.0,662.4 284.1,662.4 282.2,662.4
280.3,662.4 278.5,662.4 276.6,662.4 274.7,662.4 272.9,662.4 271.0,662.4 269.1,662.4 267.3,662.4 265.4,662.4 263.5,662.4 261.6,662.4 259.8,662.4 257.9,662.4 256.0,662.4 254.2,662.4 252.3,662.4
250.4,662.4 248.5,662.4 246.7,662.4 244.8,662.4 242.9,662.4 241.1,662.4 239.2,662.4 237.3,662.4 235.5,662.4 233.6,662.4 231.7,662.4 229.8,662.4 228.0,662.4 226.1,662.4 224.2,662.4 222.4,662.4
220.5,662.4 218.6,662.4 216.7,662.4 214.9,662.4 213.0,662.4 211.1,662.4 209.3,662.4 207.4,662.4 205.5,662.4 203.7,662.4 201.8,662.4 199.9,662.4 198.0,662.4 196.2,662.4 194.3,662.4 192.4,662.4
190.6,662.4 188.7,662.4 186.8,662.4 185.0,662.4 183.1,662.4 181.2,662.4 179.3,662.4 177.5,662.4 175.6,662.4 173.7,662.4 171.9,662.4 170.0,662.4 168.1,662.4 166.2,662.4 '/>
	</g>
</g>
	</g>
	<g id="gnuplot_plot_3" ><title>Point estimate</title>
<g fill="none" color="white" stroke="rgb( 31, 120, 180)" stroke-width="2.00" stroke-linecap="butt" stroke-linejoin="miter">
</g>
<g fill="none" color="black" stroke="currentColor" stroke-width="2.00" stroke-linecap="butt" stroke-linejoin="miter">
	<g transform="translate(1089.0,103.0)" stroke="none" fill="black" font-family="Helvetica" font-size="12.00"  text-anchor="start">
		<text><tspan font-family="Helvetica" >Point estimate</tspan></text>
	</g>
</g>
<g fill="none" color="black" stroke="currentColor" stroke-width="2.00" stroke-linecap="butt" stroke-linejoin="miter">
	<path stroke='rgb( 31, 120, 180)'  d='M1038.5,99.1 L1080.7,99.1 M564.1,662.4 L564.1,170.7  '/></g>
	</g>
	<g id="gnuplot_plot_4" ><title>Noise threshold</title>
<g fill="none" color="white" stroke="rgb( 31, 120, 180)" stroke-width="1.00" stroke-linecap="butt" stroke-linejoin="miter">
</g>
<g fill="none" color="black" stroke="currentColor" stroke-width="1.00" stroke-linecap="butt" stroke-linejoin="miter">
	<g transform="translate(1089.0,121.0)" stroke="none" fill="black" font-family="Helvetica" font-size="12.00"  text-anchor="start">
		<text><tspan font-family="Helvetica" >Noise threshold</tspan></text>
	</g>
</g>
<g fill="none" color="black" stroke="currentColor" stroke-width="1.00" stroke-linecap="butt" stroke-linejoin="miter">
	<g stroke='none' shape-rendering='crispEdges'>
		<polygon fill = 'rgb(227,  26,  28)' fill-opacity = '0.100000' points = '1038.5,121.6 1080.7,121.6 1080.7,112.6 1038.5,112.6 '/>
		<polygon fill = 'rgb(227,  26,  28)' fill-opacity = '0.100000' points = '546.9,54.1 546.9,54.1 546.9,662.4 546.9,662.4 '/>
	</g>
</g>
	</g>
<g fill="none" color="white" stroke="rgb(227,  26,  28)" stroke-width="2.00" stroke-linecap="butt" stroke-linejoin="miter">
</g>
<g fill="none" color="black" stroke="currentColor" stroke-width="2.00" stroke-linecap="butt" stroke-linejoin="miter">
</g>
<g fill="none" color="black" stroke="black" stroke-width="1.00" stroke-linecap="butt" stroke-linejoin="miter">
</g>
<g fill="none" color="black" stroke="currentColor" stroke-width="1.00" stroke-linecap="butt" stroke-linejoin="miter">
	<path stroke='black'  d='M80.2,54.1 L80.2,662.4 L1013.6,662.4 L1013.6,54.1 L80.2,54.1 Z  '/></g>
<g fill="none" color="black" stroke="currentColor" stroke-width="1.00" stroke-linecap="butt" stroke-linejoin="miter">
</g>
</g>
</svg>

