<?xml version="1.0" encoding="utf-8"  standalone="no"?>
<svg 
 viewBox="0 0 1280 720"
 xmlns="http://www.w3.org/2000/svg"
 xmlns:xlink="http://www.w3.org/1999/xlink"
>

<title>Gnuplot</title>
<desc>Produced by GNUPLOT 5.2 patchlevel 6 </desc>

<g id="gnuplot_canvas">

<rect x="0" y="0" width="1280" height="720" fill="none"/>
<defs>

	<circle id='gpDot' r='0.5' stroke-width='0.5' stroke='currentColor'/>
	<path id='gpPt0' stroke-width='0.222' stroke='currentColor' d='M-1,0 h2 M0,-1 v2'/>
	<path id='gpPt1' stroke-width='0.222' stroke='currentColor' d='M-1,-1 L1,1 M1,-1 L-1,1'/>
	<path id='gpPt2' stroke-width='0.222' stroke='currentColor' d='M-1,0 L1,0 M0,-1 L0,1 M-1,-1 L1,1 M-1,1 L1,-1'/>
	<rect id='gpPt3' stroke-width='0.222' stroke='currentColor' x='-1' y='-1' width='2' height='2'/>
	<rect id='gpPt4' stroke-width='0.222' stroke='currentColor' fill='currentColor' x='-1' y='-1' width='2' height='2'/>
	<circle id='gpPt5' stroke-width='0.222' stroke='currentColor' cx='0' cy='0' r='1'/>
	<use xlink:href='#gpPt5' id='gpPt6' fill='currentColor' stroke='none'/>
	<path id='gpPt7' stroke-width='0.222' stroke='currentColor' d='M0,-1.33 L-1.33,0.67 L1.33,0.67 z'/>
	<use xlink:href='#gpPt7' id='gpPt8' fill='currentColor' stroke='none'/>
	<use xlink:href='#gpPt7' id='gpPt9' stroke='currentColor' transform='rotate(180)'/>
	<use xlink:href='#gpPt9' id='gpPt10' fill='currentColor' stroke='none'/>
	<use xlink:href='#gpPt3' id='gpPt11' stroke='currentColor' transform='rotate(45)'/>
	<use xlink:href='#gpPt11' id='gpPt12' fill='currentColor' stroke='none'/>
	<path id='gpPt13' stroke-width='0.222' stroke='currentColor' d='M0,1.330 L1.265,0.411 L0.782,-1.067 L-0.782,-1.076 L-1.265,0.411 z'/>
	<use xlink:href='#gpPt13' id='gpPt14' fill='currentColor' stroke='none'/>
	<filter id='textbox' filterUnits='objectBoundingBox' x='0' y='0' height='1' width='1'>
	  <feFlood flood-color='white' flood-opacity='1' result='bgnd'/>
	  <feComposite in='SourceGraphic' in2='bgnd' operator='atop'/>
	</filter>
	<filter id='greybox' filterUnits='objectBoundingBox' x='0' y='0' height='1' width='1'>
	  <feFlood flood-color='lightgrey' flood-opacity='1' result='grey'/>
	  <feComposite in='SourceGraphic' in2='grey' operator='atop'/>
	</filter>
</defs>
<g fill="none" color="white" stroke="currentColor" stroke-width="1.00" stroke-linecap="butt" stroke-linejoin="miter">
</g>
<g fill="none" color="black" stroke="currentColor" stroke-width="1.00" stroke-linecap="butt" stroke-linejoin="miter">
	<path stroke='black'  d='M71.9,662.4 L80.9,662.4  '/>	<g transform="translate(63.6,666.3)" stroke="none" fill="black" font-family="Helvetica" font-size="12.00"  text-anchor="end">
		<text><tspan font-family="Helvetica" > 0</tspan></text>
	</g>
</g>
<g fill="none" color="black" stroke="currentColor" stroke-width="1.00" stroke-linecap="butt" stroke-linejoin="miter">
	<path stroke='black'  d='M71.9,540.7 L80.9,540.7  '/>	<g transform="translate(63.6,544.6)" stroke="none" fill="black" font-family="Helvetica" font-size="12.00"  text-anchor="end">
		<text><tspan font-family="Helvetica" > 50</tspan></text>
	</g>
</g>
<g fill="none" color="black" stroke="currentColor" stroke-width="1.00" stroke-linecap="butt" stroke-linejoin="miter">
	<path stroke='black'  d='M71.9,419.1 L80.9,419.1  '/>	<g transform="translate(63.6,423.0)" stroke="none" fill="black" font-family="Helvetica" font-size="12.00"  text-anchor="end">
		<text><tspan font-family="Helvetica" > 100</tspan></text>
	</g>
</g>
<g fill="none" color="black" stroke="currentColor" stroke-width="1.00" stroke-linecap="butt" stroke-linejoin="miter">
	<path stroke='black'  d='M71.9,297.4 L80.9,297.4  '/>	<g transform="translate(63.6,301.3)" stroke="none" fill="black" font-family="Helvetica" font-size="12.00"  text-anchor="end">
		<text><tspan font-family="Helvetica" > 150</tspan></text>
	</g>
</g>
<g fill="none" color="black" stroke="currentColor" stroke-width="1.00" stroke-linecap="butt" stroke-linejoin="miter">
	<path stroke='black'  d='M71.9,175.8 L80.9,175.8  '/>	<g transform="translate(63.6,179.7)" stroke="none" fill="black" font-family="Helvetica" font-size="12.00"  text-anchor="end">
		<text><tspan font-family="Helvetica" > 200</tspan></text>
	</g>
</g>
<g fill="none" color="black" stroke="currentColor" stroke-width="1.00" stroke-linecap="butt" stroke-linejoin="miter">
	<path stroke='black'  d='M71.9,54.1 L80.9,54.1  '/>	<g transform="translate(63.6,58.0)" stroke="none" fill="black" font-family="Helvetica" font-size="12.00"  text-anchor="end">
		<text><tspan font-family="Helvetica" > 250</tspan></text>
	</g>
</g>
<g fill="none" color="black" stroke="currentColor" stroke-width="1.00" stroke-linecap="butt" stroke-linejoin="miter">
	<path stroke='black'  d='M94.0,662.4 L94.0,653.4  '/>	<g transform="translate(94.0,684.3)" stroke="none" fill="black" font-family="Helvetica" font-size="12.00"  text-anchor="middle">
		<text><tspan font-family="Helvetica" > 10.248</tspan></text>
	</g>
</g>
<g fill="none" color="black" stroke="currentColor" stroke-width="1.00" stroke-linecap="butt" stroke-linejoin="miter">
	<path stroke='black'  d='M193.0,662.4 L193.0,653.4  '/>	<g transform="translate(193.0,684.3)" stroke="none" fill="black" font-family="Helvetica" font-size="12.00"  text-anchor="middle">
		<text><tspan font-family="Helvetica" > 10.25</tspan></text>
	</g>
</g>
<g fill="none" color="black" stroke="currentColor" stroke-width="1.00" stroke-linecap="butt" stroke-linejoin="miter">
	<path stroke='black'  d='M292.0,662.4 L292.0,653.4  '/>	<g transform="translate(292.0,684.3)" stroke="none" fill="black" font-family="Helvetica" font-size="12.00"  text-anchor="middle">
		<text><tspan font-family="Helvetica" > 10.252</tspan></text>
	</g>
</g>
<g fill="none" color="black" stroke="currentColor" stroke-width="1.00" stroke-linecap="butt" stroke-linejoin="miter">
	<path stroke='black'  d='M391.1,662.4 L391.1,653.4  '/>	<g transform="translate(391.1,684.3)" stroke="none" fill="black" font-family="Helvetica" font-size="12.00"  text-anchor="middle">
		<text><tspan font-family="Helvetica" > 10.254</tspan></text>
	</g>
</g>
<g fill="none" color="black" stroke="currentColor" stroke-width="1.00" stroke-linecap="butt" stroke-linejoin="miter">
	<path stroke='black'  d='M490.1,662.4 L490.1,653.4  '/>	<g transform="translate(490.1,684.3)" stroke="none" fill="black" font-family="Helvetica" font-size="12.00"  text-anchor="middle">
		<text><tspan font-family="Helvetica" > 10.256</tspan></text>
	</g>
</g>
<g fill="none" color="black" stroke="currentColor" stroke-width="1.00" stroke-linecap="butt" stroke-linejoin="miter">
	<path stroke='black'  d='M589.1,662.4 L589.1,653.4  '/>	<g transform="translate(589.1,684.3)" stroke="none" fill="black" font-family="Helvetica" font-size="12.00"  text-anchor="middle">
		<text><tspan font-family="Helvetica" > 10.258</tspan></text>
	</g>
</g>
<g fill="none" color="black" stroke="currentColor" stroke-width="1.00" stroke-linecap="butt" stroke-linejoin="miter">
	<path stroke='black'  d='M688.1,662.4 L688.1,653.4  '/>	<g transform="translate(688.1,684.3)" stroke="none" fill="black" font-family="Helvetica" font-size="12.00"  text-anchor="middle">
		<text><tspan font-family="Helvetica" > 10.26</tspan></text>
	</g>
</g>
<g fill="none" color="black" stroke="currentColor" stroke-width="1.00" stroke-linecap="butt" stroke-linejoin="miter">
	<path stroke='black'  d='M787.2,662.4 L787.2,653.4  '/>	<g transform="translate(787.2,684.3)" stroke="none" fill="black" font-family="Helvetica" font-size="12.00"  text-anchor="middle">
		<text><tspan font-family="Helvetica" > 10.262</tspan></text>
	</g>
</g>
<g fill="none" color="black" stroke="currentColor" stroke-width="1.00" stroke-linecap="butt" stroke-linejoin="miter">
	<path stroke='black'  d='M886.2,662.4 L886.2,653.4  '/>	<g transform="translate(886.2,684.3)" stroke="none" fill="black" font-family="Helvetica" font-size="12.00"  text-anchor="middle">
		<text><tspan font-family="Helvetica" > 10.264</tspan></text>
	</g>
</g>
<g fill="none" color="black" stroke="currentColor" stroke-width="1.00" stroke-linecap="butt" stroke-linejoin="miter">
	<path stroke='black'  d='M985.2,662.4 L985.2,653.4  '/>	<g transform="translate(985.2,684.3)" stroke="none" fill="black" font-family="Helvetica" font-size="12.00"  text-anchor="middle">
		<text><tspan font-family="Helvetica" > 10.266</tspan></text>
	</g>
</g>
<g fill="none" color="black" stroke="currentColor" stroke-width="1.00" stroke-linecap="butt" stroke-linejoin="miter">
</g>
<g fill="none" color="black" stroke="currentColor" stroke-width="1.00" stroke-linecap="butt" stroke-linejoin="miter">
	<path stroke='black'  d='M71.9,54.1 L71.9,662.4 L1013.6,662.4 L1013.6,54.1 L71.9,54.1 Z  '/></g>
<g fill="none" color="black" stroke="currentColor" stroke-width="1.00" stroke-linecap="butt" stroke-linejoin="miter">
	<g transform="translate(16.3,358.3) rotate(270)" stroke="none" fill="black" font-family="Helvetica" font-size="12.00"  text-anchor="middle">
		<text><tspan font-family="Helvetica" >Density (a.u.)</tspan></text>
	</g>
</g>
<g fill="none" color="black" stroke="currentColor" stroke-width="1.00" stroke-linecap="butt" stroke-linejoin="miter">
	<g transform="translate(542.7,711.3)" stroke="none" fill="black" font-family="Helvetica" font-size="12.00"  text-anchor="middle">
		<text><tspan font-family="Helvetica" >Average time (us)</tspan></text>
	</g>
</g>
<g fill="none" color="black" stroke="currentColor" stroke-width="1.00" stroke-linecap="butt" stroke-linejoin="miter">
	<g transform="translate(542.7,31.0)" stroke="none" fill="black" font-family="Helvetica" font-size="12.00"  text-anchor="middle">
		<text><tspan font-family="Helvetica" >snapshot_restore_with_dense/Sparse: Dirty pages + /proc/pid/mem/2: median</tspan></text>
	</g>
</g>
	<g id="gnuplot_plot_1" ><title>Bootstrap distribution</title>
<g fill="none" color="white" stroke="black" stroke-width="2.00" stroke-linecap="butt" stroke-linejoin="miter">
</g>
<g fill="none" color="black" stroke="currentColor" stroke-width="2.00" stroke-linecap="butt" stroke-linejoin="miter">
	<g transform="translate(1089.0,67.0)" stroke="none" fill="black" font-family="Helvetica" font-size="12.00"  text-anchor="start">
		<text><tspan font-family="Helvetica" >Bootstrap distribution</tspan></text>
	</g>
</g>
<g fill="none" color="black" stroke="currentColor" stroke-width="2.00" stroke-linecap="butt" stroke-linejoin="miter">
	<path stroke='rgb( 31, 120, 180)'  d='M1038.5,63.1 L1080.7,63.1 M71.9,654.3 L73.8,654.2 L75.7,654.3 L77.6,654.3 L79.4,654.4 L81.3,654.4
		L83.2,654.5 L85.1,654.6 L87.0,654.6 L88.9,654.7 L90.8,654.7 L92.7,654.6 L94.5,654.5 L96.4,654.3
		L98.3,654.1 L100.2,653.7 L102.1,653.3 L104.0,652.8 L105.9,652.2 L107.8,651.5 L109.6,650.8 L111.5,649.9
		L113.4,648.9 L115.3,647.8 L117.2,646.7 L119.1,645.4 L121.0,644.0 L122.9,642.6 L124.7,641.0 L126.6,639.4
		L128.5,637.6 L130.4,635.8 L132.3,634.0 L134.2,632.1 L136.1,630.1 L138.0,628.2 L139.8,626.3 L141.7,624.4
		L143.6,622.6 L145.5,620.9 L147.4,619.2 L149.3,617.8 L151.2,616.5 L153.0,615.3 L154.9,614.4 L156.8,613.6
		L158.7,613.0 L160.6,612.6 L162.5,612.4 L164.4,612.3 L166.3,612.3 L168.1,612.5 L170.0,612.7 L171.9,613.0
		L173.8,613.3 L175.7,613.6 L177.6,613.9 L179.5,614.2 L181.4,614.4 L183.2,614.6 L185.1,614.7 L187.0,614.7
		L188.9,614.6 L190.8,614.4 L192.7,614.2 L194.6,613.9 L196.5,613.5 L198.3,613.0 L200.2,612.5 L202.1,612.0
		L204.0,611.5 L205.9,610.9 L207.8,610.3 L209.7,609.6 L211.6,609.0 L213.4,608.3 L215.3,607.6 L217.2,606.9
		L219.1,606.1 L221.0,605.3 L222.9,604.4 L224.8,603.5 L226.6,602.5 L228.5,601.4 L230.4,600.1 L232.3,598.8
		L234.2,597.3 L236.1,595.8 L238.0,594.1 L239.9,592.3 L241.7,590.3 L243.6,588.3 L245.5,586.2 L247.4,584.1
		L249.3,582.0 L251.2,579.9 L253.1,577.9 L255.0,576.0 L256.8,574.3 L258.7,572.8 L260.6,571.7 L262.5,570.9
		L264.4,570.5 L266.3,570.5 L268.2,571.0 L270.1,571.9 L271.9,573.4 L273.8,575.2 L275.7,577.6 L277.6,580.3
		L279.5,583.3 L281.4,586.6 L283.3,590.1 L285.2,593.7 L287.0,597.3 L288.9,600.8 L290.8,604.2 L292.7,607.3
		L294.6,610.0 L296.5,612.3 L298.4,614.2 L300.2,615.5 L302.1,616.3 L304.0,616.4 L305.9,616.1 L307.8,615.1
		L309.7,613.7 L311.6,611.7 L313.5,609.4 L315.3,606.8 L317.2,603.9 L319.1,600.9 L321.0,597.9 L322.9,595.0
		L324.8,592.3 L326.7,589.9 L328.6,587.9 L330.4,586.4 L332.3,585.4 L334.2,584.9 L336.1,585.0 L338.0,585.6
		L339.9,586.7 L341.8,588.2 L343.7,590.1 L345.5,592.2 L347.4,594.5 L349.3,596.7 L351.2,598.8 L353.1,600.6
		L355.0,602.0 L356.9,602.8 L358.8,603.0 L360.6,602.4 L362.5,600.9 L364.4,598.6 L366.3,595.4 L368.2,591.2
		L370.1,586.2 L372.0,580.4 L373.8,574.0 L375.7,566.9 L377.6,559.5 L379.5,551.9 L381.4,544.2 L383.3,536.7
		L385.2,529.6 L387.1,523.0 L388.9,517.1 L390.8,512.1 L392.7,508.1 L394.6,505.1 L396.5,503.2 L398.4,502.4
		L400.3,502.7 L402.2,503.8 L404.0,505.8 L405.9,508.4 L407.8,511.5 L409.7,514.9 L411.6,518.4 L413.5,521.8
		L415.4,525.0 L417.3,527.8 L419.1,530.2 L421.0,532.0 L422.9,533.3 L424.8,534.0 L426.7,534.2 L428.6,533.9
		L430.5,533.2 L432.4,532.2 L434.2,531.0 L436.1,529.6 L438.0,528.2 L439.9,526.8 L441.8,525.4 L443.7,524.0
		L445.6,522.8 L447.4,521.5 L449.3,520.2 L451.2,518.8 L453.1,517.3 L455.0,515.5 L456.9,513.4 L458.8,510.8
		L460.7,507.7 L462.5,504.0 L464.4,499.7 L466.3,494.8 L468.2,489.1 L470.1,482.7 L472.0,475.7 L473.9,467.9
		L475.8,459.6 L477.6,450.7 L479.5,441.3 L481.4,431.5 L483.3,421.4 L485.2,411.1 L487.1,400.6 L489.0,390.2
		L490.9,379.9 L492.7,369.9 L494.6,360.2 L496.5,351.0 L498.4,342.4 L500.3,334.5 L502.2,327.3 L504.1,321.1
		L506.0,315.7 L507.8,311.4 L509.7,308.1 L511.6,305.7 L513.5,304.4 L515.4,304.1 L517.3,304.7 L519.2,306.1
		L521.0,308.3 L522.9,311.2 L524.8,314.6 L526.7,318.5 L528.6,322.8 L530.5,327.2 L532.4,331.9 L534.3,336.6
		L536.1,341.2 L538.0,345.8 L539.9,350.2 L541.8,354.4 L543.7,358.3 L545.6,361.9 L547.5,365.2 L549.4,368.2
		L551.2,370.8 L553.1,373.1 L555.0,374.9 L556.9,376.3 L558.8,377.3 L560.7,377.8 L562.6,377.7 L564.5,377.0
		L566.3,375.7 L568.2,373.6 L570.1,370.8 L572.0,367.1 L573.9,362.5 L575.8,356.9 L577.7,350.2 L579.5,342.5
		L581.4,333.6 L583.3,323.7 L585.2,312.8 L587.1,300.9 L589.0,288.1 L590.9,274.7 L592.8,260.7 L594.6,246.4
		L596.5,232.1 L598.4,218.1 L600.3,204.6 L602.2,191.9 L604.1,180.4 L606.0,170.4 L607.9,162.2 L609.7,156.0
		L611.6,152.0 L613.5,150.5 L615.4,151.4 L617.3,154.9 L619.2,161.0 L621.1,169.5 L623.0,180.3 L624.8,193.3
		L626.7,208.1 L628.6,224.4 L630.5,242.0 L632.4,260.4 L634.3,279.3 L636.2,298.3 L638.1,317.1 L639.9,335.5
		L641.8,353.0 L643.7,369.7 L645.6,385.1 L647.5,399.4 L649.4,412.3 L651.3,424.0 L653.1,434.4 L655.0,443.5
		L656.9,451.5 L658.8,458.4 L660.7,464.4 L662.6,469.4 L664.5,473.6 L666.4,477.1 L668.2,479.9 L670.1,482.0
		L672.0,483.5 L673.9,484.4 L675.8,484.8 L677.7,484.7 L679.6,484.2 L681.5,483.4 L683.3,482.3 L685.2,481.2
		L687.1,480.1 L689.0,479.1 L690.9,478.5 L692.8,478.3 L694.7,478.6 L696.6,479.5 L698.4,481.2 L700.3,483.6
		L702.2,486.7 L704.1,490.5 L706.0,494.8 L707.9,499.7 L709.8,505.0 L711.7,510.5 L713.5,516.1 L715.4,521.8
		L717.3,527.2 L719.2,532.5 L721.1,537.4 L723.0,541.9 L724.9,546.0 L726.7,549.7 L728.6,552.9 L730.5,555.8
		L732.4,558.4 L734.3,560.6 L736.2,562.6 L738.1,564.4 L740.0,566.0 L741.8,567.5 L743.7,568.9 L745.6,570.2
		L747.5,571.3 L749.4,572.3 L751.3,573.2 L753.2,573.8 L755.1,574.3 L756.9,574.7 L758.8,574.8 L760.7,574.7
		L762.6,574.4 L764.5,573.9 L766.4,573.4 L768.3,572.7 L770.2,572.1 L772.0,571.4 L773.9,570.9 L775.8,570.5
		L777.7,570.3 L779.6,570.4 L781.5,570.8 L783.4,571.5 L785.3,572.6 L787.1,574.0 L789.0,575.8 L790.9,577.9
		L792.8,580.3 L794.7,582.9 L796.6,585.8 L798.5,588.7 L800.3,591.8 L802.2,594.8 L804.1,597.8 L806.0,600.7
		L807.9,603.4 L809.8,605.9 L811.7,608.2 L813.6,610.2 L815.4,612.0 L817.3,613.4 L819.2,614.6 L821.1,615.6
		L823.0,616.4 L824.9,616.9 L826.8,617.4 L828.7,617.7 L830.5,617.9 L832.4,618.2 L834.3,618.4 L836.2,618.6
		L838.1,618.9 L840.0,619.3 L841.9,619.7 L843.8,620.1 L845.6,620.6 L847.5,621.1 L849.4,621.7 L851.3,622.2
		L853.2,622.7 L855.1,623.2 L857.0,623.6 L858.9,624.0 L860.7,624.3 L862.6,624.5 L864.5,624.7 L866.4,624.8
		L868.3,624.9 L870.2,624.9 L872.1,624.9 L873.9,624.9 L875.8,624.9 L877.7,624.9 L879.6,624.9 L881.5,624.9
		L883.4,624.9 L885.3,625.0 L887.2,625.1 L889.0,625.2 L890.9,625.3 L892.8,625.4 L894.7,625.4 L896.6,625.5
		L898.5,625.5 L900.4,625.5 L902.3,625.5 L904.1,625.4 L906.0,625.3 L907.9,625.1 L909.8,624.9 L911.7,624.7
		L913.6,624.4 L915.5,624.1 L917.4,623.7 L919.2,623.3 L921.1,622.9 L923.0,622.5 L924.9,622.1 L926.8,621.8
		L928.7,621.4 L930.6,621.1 L932.5,620.8 L934.3,620.5 L936.2,620.3 L938.1,620.2 L940.0,620.2 L941.9,620.3
		L943.8,620.4 L945.7,620.7 L947.5,621.1 L949.4,621.6 L951.3,622.2 L953.2,622.9 L955.1,623.7 L957.0,624.6
		L958.9,625.5 L960.8,626.6 L962.6,627.7 L964.5,628.9 L966.4,630.1 L968.3,631.3 L970.2,632.6 L972.1,633.8
		L974.0,635.0 L975.9,636.2 L977.7,637.3 L979.6,638.4 L981.5,639.5 L983.4,640.5 L985.3,641.4 L987.2,642.3
		L989.1,643.1 L991.0,643.8 L992.8,644.5 L994.7,645.1 L996.6,645.6 L998.5,646.1 L1000.4,646.5 L1002.3,646.9
		L1004.2,647.3 L1006.1,647.6 L1007.9,647.9 L1009.8,648.2 L1011.7,648.5 L1013.6,648.7  '/></g>
	</g>
	<g id="gnuplot_plot_2" ><title>Confidence interval</title>
<g fill="none" color="white" stroke="rgb( 31, 120, 180)" stroke-width="1.00" stroke-linecap="butt" stroke-linejoin="miter">
</g>
<g fill="none" color="black" stroke="currentColor" stroke-width="1.00" stroke-linecap="butt" stroke-linejoin="miter">
	<g transform="translate(1089.0,85.0)" stroke="none" fill="black" font-family="Helvetica" font-size="12.00"  text-anchor="start">
		<text><tspan font-family="Helvetica" >Confidence interval</tspan></text>
	</g>
</g>
<g fill="none" color="black" stroke="currentColor" stroke-width="1.00" stroke-linecap="butt" stroke-linejoin="miter">
	<g stroke='none' shape-rendering='crispEdges'>
		<polygon fill = 'rgb( 31, 120, 180)' fill-opacity = '0.250000' points = '1038.5,85.6 1080.7,85.6 1080.7,76.6 1038.5,76.6 '/>
		<polygon fill = 'rgb( 31, 120, 180)' fill-opacity = '0.250000' points = '158.7,613.0 160.6,612.6 162.5,612.4 164.4,612.3 166.3,612.3 168.1,612.5 170.0,612.7 171.9,613.0 173.8,613.3 175.7,613.6 177.6,613.9 179.5,614.2 181.4,614.4 183.2,614.6 185.1,614.7 187.0,614.7
188.9,614.6 190.8,614.4 192.7,614.2 194.6,613.9 196.5,613.5 198.3,613.0 200.2,612.5 202.1,612.0 204.0,611.5 205.9,610.9 207.8,610.3 209.7,609.6 211.6,609.0 213.4,608.3 215.3,607.6 217.2,606.9
219.1,606.1 221.0,605.3 222.9,604.4 224.8,603.5 226.6,602.5 228.5,601.4 230.4,600.1 232.3,598.8 234.2,597.3 236.1,595.8 238.0,594.1 239.9,592.3 241.7,590.3 243.6,588.3 245.5,586.2 247.4,584.1
249.3,582.0 251.2,579.9 253.1,577.9 255.0,576.0 256.8,574.3 258.7,572.8 260.6,571.7 262.5,570.9 264.4,570.5 266.3,570.5 268.2,571.0 270.1,571.9 271.9,573.4 273.8,575.2 275.7,577.6 277.6,580.3
279.5,583.3 281.4,586.6 283.3,590.1 285.2,593.7 287.0,597.3 288.9,600.8 290.8,604.2 292.7,607.3 294.6,610.0 296.5,612.3 298.4,614.2 300.2,615.5 302.1,616.3 304.0,616.4 305.9,616.1 307.8,615.1
309.7,613.7 311.6,611.7 313.5,609.4 315.3,606.8 317.2,603.9 319.1,600.9 321.0,597.9 322.9,595.0 324.8,592.3 326.7,589.9 328.6,587.9 330.4,586.4 332.3,585.4 334.2,584.9 336.1,585.0 338.0,585.6
339.9,586.7 341.8,588.2 343.7,590.1 345.5,592.2 347.4,594.5 349.3,596.7 351.2,598.8 353.1,600.6 355.0,602.0 356.9,602.8 358.8,603.0 360.6,602.4 362.5,600.9 364.4,598.6 366.3,595.4 368.2,591.2
370.1,586.2 372.0,580.4 373.8,574.0 375.7,566.9 377.6,559.5 379.5,551.9 381.4,544.2 383.3,536.7 385.2,529.6 387.1,523.0 388.9,517.1 390.8,512.1 392.7,508.1 394.6,505.1 396.5,503.2 398.4,502.4
400.3,502.7 402.2,503.8 404.0,505.8 405.9,508.4 407.8,511.5 409.7,514.9 411.6,518.4 413.5,521.8 415.4,525.0 417.3,527.8 419.1,530.2 421.0,532.0 422.9,533.3 424.8,534.0 426.7,534.2 428.6,533.9
430.5,533.2 432.4,532.2 434.2,531.0 436.1,529.6 438.0,528.2 439.9,526.8 441.8,525.4 443.7,524.0 445.6,522.8 447.4,521.5 449.3,520.2 451.2,518.8 453.1,517.3 455.0,515.5 456.9,513.4 458.8,510.8
460.7,507.7 462.5,504.0 464.4,499.7 466.3,494.8 468.2,489.1 470.1,482.7 472.0,475.7 473.9,467.9 475.8,459.6 477.6,450.7 479.5,441.3 481.4,431.5 483.3,421.4 485.2,411.1 487.1,400.6 489.0,390.2
490.9,379.9 492.7,369.9 494.6,360.2 496.5,351.0 498.4,342.4 500.3,334.5 502.2,327.3 504.1,321.1 506.0,315.7 507.8,311.4 509.7,308.1 511.6,305.7 513.5,304.4 515.4,304.1 517.3,304.7 519.2,306.1
521.0,308.3 522.9,311.2 524.8,314.6 526.7,318.5 528.6,322.8 530.5,327.2 532.4,331.9 534.3,336.6 536.1,341.2 538.0,345.8 539.9,350.2 541.8,354.4 543.7,358.3 545.6,361.9 547.5,365.2 549.4,368.2
551.2,370.8 553.1,373.1 555.0,374.9 556.9,376.3 558.8,377.3 560.7,377.8 562.6,377.7 564.5,377.0 566.3,375.7 568.2,373.6 570.1,370.8 572.0,367.1 573.9,362.5 575.8,356.9 577.7,350.2 579.5,342.5
581.4,333.6 583.3,323.7 585.2,312.8 587.1,300.9 589.0,288.1 590.9,274.7 592.8,260.7 594.6,246.4 596.5,232.1 598.4,218.1 600.3,204.6 602.2,191.9 604.1,180.4 606.0,170.4 607.9,162.2 609.7,156.0
611.6,152.0 613.5,150.5 615.4,151.4 617.3,154.9 619.2,161.0 621.1,169.5 623.0,180.3 624.8,193.3 626.7,208.1 628.6,224.4 630.5,242.0 632.4,260.4 634.3,279.3 636.2,298.3 638.1,317.1 639.9,335.5
641.8,353.0 643.7,369.7 645.6,385.1 647.5,399.4 649.4,412.3 651.3,424.0 653.1,434.4 655.0,443.5 656.9,451.5 658.8,458.4 660.7,464.4 662.6,469.4 664.5,473.6 666.4,477.1 668.2,479.9 670.1,482.0
672.0,483.5 673.9,484.4 675.8,484.8 677.7,484.7 679.6,484.2 681.5,483.4 683.3,482.3 685.2,481.2 687.1,480.1 689.0,479.1 690.9,478.5 692.8,478.3 694.7,478.6 696.6,479.5 698.4,481.2 700.3,483.6
702.2,486.7 704.1,490.5 706.0,494.8 707.9,499.7 709.8,505.0 711.7,510.5 713.5,516.1 715.4,521.8 717.3,527.2 719.2,532.5 721.1,537.4 723.0,541.9 724.9,546.0 726.7,549.7 728.6,552.9 730.5,555.8
732.4,558.4 734.3,560.6 736.2,562.6 738.1,564.4 740.0,566.0 741.8,567.5 743.7,568.9 745.6,570.2 747.5,571.3 749.4,572.3 751.3,573.2 753.2,573.8 755.1,574.3 756.9,574.7 758.8,574.8 760.7,574.7
762.6,574.4 764.5,573.9 766.4,573.4 768.3,572.7 770.2,572.1 772.0,571.4 773.9,570.9 775.8,570.5 777.7,570.3 779.6,570.4 781.5,570.8 783.4,571.5 785.3,572.6 787.1,574.0 789.0,575.8 790.9,577.9
792.8,580.3 794.7,582.9 796.6,585.8 798.5,588.7 800.3,591.8 802.2,594.8 804.1,597.8 806.0,600.7 807.9,603.4 809.8,605.9 811.7,608.2 813.6,610.2 815.4,612.0 817.3,613.4 819.2,614.6 821.1,615.6
823.0,616.4 824.9,616.9 826.8,617.4 828.7,617.7 830.5,617.9 832.4,618.2 834.3,618.4 836.2,618.6 838.1,618.9 840.0,619.3 841.9,619.7 843.8,620.1 845.6,620.6 847.5,621.1 849.4,621.7 851.3,622.2
853.2,622.7 855.1,623.2 857.0,623.6 858.9,624.0 860.7,624.3 862.6,624.5 864.5,624.7 866.4,624.8 868.3,624.9 870.2,624.9 872.1,624.9 873.9,624.9 875.8,624.9 877.7,624.9 879.6,624.9 881.5,624.9
883.4,624.9 885.3,625.0 887.2,625.1 889.0,625.2 890.9,625.3 892.8,625.4 894.7,625.4 896.6,625.5 898.5,625.5 900.4,625.5 902.3,625.5 904.1,625.4 906.0,625.3 907.9,625.1 909.8,624.9 911.7,624.7
913.6,624.4 915.5,624.1 917.4,623.7 919.2,623.3 921.1,622.9 923.0,622.5 924.9,622.1 924.9,662.4 923.0,662.4 921.1,662.4 919.2,662.4 917.4,662.4 915.5,662.4 913.6,662.4 911.7,662.4 909.8,662.4
907.9,662.4 906.0,662.4 904.1,662.4 902.3,662.4 900.4,662.4 898.5,662.4 896.6,662.4 894.7,662.4 892.8,662.4 890.9,662.4 889.0,662.4 887.2,662.4 885.3,662.4 883.4,662.4 881.5,662.4 879.6,662.4
877.7,662.4 875.8,662.4 873.9,662.4 872.1,662.4 870.2,662.4 868.3,662.4 866.4,662.4 864.5,662.4 862.6,662.4 860.7,662.4 858.9,662.4 857.0,662.4 855.1,662.4 853.2,662.4 851.3,662.4 849.4,662.4
847.5,662.4 845.6,662.4 843.8,662.4 841.9,662.4 840.0,662.4 838.1,662.4 836.2,662.4 834.3,662.4 832.4,662.4 830.5,662.4 828.7,662.4 826.8,662.4 824.9,662.4 823.0,662.4 821.1,662.4 819.2,662.4
817.3,662.4 815.4,662.4 813.6,662.4 811.7,662.4 809.8,662.4 807.9,662.4 806.0,662.4 804.1,662.4 802.2,662.4 800.3,662.4 798.5,662.4 796.6,662.4 794.7,662.4 792.8,662.4 790.9,662.4 789.0,662.4
787.1,662.4 785.3,662.4 783.4,662.4 781.5,662.4 779.6,662.4 777.7,662.4 775.8,662.4 773.9,662.4 772.0,662.4 770.2,662.4 768.3,662.4 766.4,662.4 764.5,662.4 762.6,662.4 760.7,662.4 758.8,662.4
756.9,662.4 755.1,662.4 753.2,662.4 751.3,662.4 749.4,662.4 747.5,662.4 745.6,662.4 743.7,662.4 741.8,662.4 740.0,662.4 738.1,662.4 736.2,662.4 734.3,662.4 732.4,662.4 730.5,662.4 728.6,662.4
726.7,662.4 724.9,662.4 723.0,662.4 721.1,662.4 719.2,662.4 717.3,662.4 715.4,662.4 713.5,662.4 711.7,662.4 709.8,662.4 707.9,662.4 706.0,662.4 704.1,662.4 702.2,662.4 700.3,662.4 698.4,662.4
696.6,662.4 694.7,662.4 692.8,662.4 690.9,662.4 689.0,662.4 687.1,662.4 685.2,662.4 683.3,662.4 681.5,662.4 679.6,662.4 677.7,662.4 675.8,662.4 673.9,662.4 672.0,662.4 670.1,662.4 668.2,662.4
666.4,662.4 664.5,662.4 662.6,662.4 660.7,662.4 658.8,662.4 656.9,662.4 655.0,662.4 653.1,662.4 651.3,662.4 649.4,662.4 647.5,662.4 645.6,662.4 643.7,662.4 641.8,662.4 639.9,662.4 638.1,662.4
636.2,662.4 634.3,662.4 632.4,662.4 630.5,662.4 628.6,662.4 626.7,662.4 624.8,662.4 623.0,662.4 621.1,662.4 619.2,662.4 617.3,662.4 615.4,662.4 613.5,662.4 611.6,662.4 609.7,662.4 607.9,662.4
606.0,662.4 604.1,662.4 602.2,662.4 600.3,662.4 598.4,662.4 596.5,662.4 594.6,662.4 592.8,662.4 590.9,662.4 589.0,662.4 587.1,662.4 585.2,662.4 583.3,662.4 581.4,662.4 579.5,662.4 577.7,662.4
575.8,662.4 573.9,662.4 572.0,662.4 570.1,662.4 568.2,662.4 566.3,662.4 564.5,662.4 562.6,662.4 560.7,662.4 558.8,662.4 556.9,662.4 555.0,662.4 553.1,662.4 551.2,662.4 549.4,662.4 547.5,662.4
545.6,662.4 543.7,662.4 541.8,662.4 539.9,662.4 538.0,662.4 536.1,662.4 534.3,662.4 532.4,662.4 530.5,662.4 528.6,662.4 526.7,662.4 524.8,662.4 522.9,662.4 521.0,662.4 519.2,662.4 517.3,662.4
515.4,662.4 513.5,662.4 511.6,662.4 509.7,662.4 507.8,662.4 506.0,662.4 504.1,662.4 502.2,662.4 500.3,662.4 498.4,662.4 496.5,662.4 494.6,662.4 492.7,662.4 490.9,662.4 489.0,662.4 487.1,662.4
485.2,662.4 483.3,662.4 481.4,662.4 479.5,662.4 477.6,662.4 475.8,662.4 473.9,662.4 472.0,662.4 470.1,662.4 468.2,662.4 466.3,662.4 464.4,662.4 462.5,662.4 460.7,662.4 458.8,662.4 456.9,662.4
455.0,662.4 453.1,662.4 451.2,662.4 449.3,662.4 447.4,662.4 445.6,662.4 443.7,662.4 441.8,662.4 439.9,662.4 438.0,662.4 436.1,662.4 434.2,662.4 432.4,662.4 430.5,662.4 428.6,662.4 426.7,662.4
424.8,662.4 422.9,662.4 421.0,662.4 419.1,662.4 417.3,662.4 415.4,662.4 413.5,662.4 411.6,662.4 409.7,662.4 407.8,662.4 405.9,662.4 404.0,662.4 402.2,662.4 400.3,662.4 398.4,662.4 396.5,662.4
394.6,662.4 392.7,662.4 390.8,662.4 388.9,662.4 387.1,662.4 385.2,662.4 383.3,662.4 381.4,662.4 379.5,662.4 377.6,662.4 375.7,662.4 373.8,662.4 372.0,662.4 370.1,662.4 368.2,662.4 366.3,662.4
364.4,662.4 362.5,662.4 360.6,662.4 358.8,662.4 356.9,662.4 355.0,662.4 353.1,662.4 351.2,662.4 349.3,662.4 347.4,662.4 345.5,662.4 343.7,662.4 341.8,662.4 339.9,662.4 338.0,662.4 336.1,662.4
334.2,662.4 332.3,662.4 330.4,662.4 328.6,662.4 326.7,662.4 324.8,662.4 322.9,662.4 321.0,662.4 319.1,662.4 317.2,662.4 315.3,662.4 313.5,662.4 311.6,662.4 309.7,662.4 307.8,662.4 305.9,662.4
304.0,662.4 302.1,662.4 300.2,662.4 298.4,662.4 296.5,662.4 294.6,662.4 292.7,662.4 290.8,662.4 288.9,662.4 287.0,662.4 285.2,662.4 283.3,662.4 281.4,662.4 279.5,662.4 277.6,662.4 275.7,662.4
273.8,662.4 271.9,662.4 270.1,662.4 268.2,662.4 266.3,662.4 264.4,662.4 262.5,662.4 260.6,662.4 258.7,662.4 256.8,662.4 255.0,662.4 253.1,662.4 251.2,662.4 249.3,662.4 247.4,662.4 245.5,662.4
243.6,662.4 241.7,662.4 239.9,662.4 238.0,662.4 236.1,662.4 234.2,662.4 232.3,662.4 230.4,662.4 228.5,662.4 226.6,662.4 224.8,662.4 222.9,662.4 221.0,662.4 219.1,662.4 217.2,662.4 215.3,662.4
213.4,662.4 211.6,662.4 209.7,662.4 207.8,662.4 205.9,662.4 204.0,662.4 202.1,662.4 200.2,662.4 198.3,662.4 196.5,662.4 194.6,662.4 192.7,662.4 190.8,662.4 188.9,662.4 187.0,662.4 185.1,662.4
183.2,662.4 181.4,662.4 179.5,662.4 177.6,662.4 175.7,662.4 173.8,662.4 171.9,662.4 170.0,662.4 168.1,662.4 166.3,662.4 164.4,662.4 162.5,662.4 160.6,662.4 158.7,662.4 '/>
	</g>
</g>
	</g>
	<g id="gnuplot_plot_3" ><title>Point estimate</title>
<g fill="none" color="white" stroke="rgb( 31, 120, 180)" stroke-width="2.00" stroke-linecap="butt" stroke-linejoin="miter">
</g>
<g fill="none" color="black" stroke="currentColor" stroke-width="2.00" stroke-linecap="butt" stroke-linejoin="miter">
	<g transform="translate(1089.0,103.0)" stroke="none" fill="black" font-family="Helvetica" font-size="12.00"  text-anchor="start">
		<text><tspan font-family="Helvetica" >Point estimate</tspan></text>
	</g>
</g>
<g fill="none" color="black" stroke="currentColor" stroke-width="2.00" stroke-linecap="butt" stroke-linejoin="miter">
	<path stroke='rgb( 31, 120, 180)'  d='M1038.5,99.1 L1080.7,99.1 M574.3,662.4 L574.3,361.2  '/></g>
	</g>
<g fill="none" color="black" stroke="currentColor" stroke-width="2.00" stroke-linecap="butt" stroke-linejoin="miter">
</g>
<g fill="none" color="black" stroke="black" stroke-width="1.00" stroke-linecap="butt" stroke-linejoin="miter">
</g>
<g fill="none" color="black" stroke="currentColor" stroke-width="1.00" stroke-linecap="butt" stroke-linejoin="miter">
	<path stroke='black'  d='M71.9,54.1 L71.9,662.4 L1013.6,662.4 L1013.6,54.1 L71.9,54.1 Z  '/></g>
<g fill="none" color="black" stroke="currentColor" stroke-width="1.00" stroke-linecap="butt" stroke-linejoin="miter">
</g>
</g>
</svg>

