<?xml version="1.0" encoding="utf-8"  standalone="no"?>
<svg 
 viewBox="0 0 1280 720"
 xmlns="http://www.w3.org/2000/svg"
 xmlns:xlink="http://www.w3.org/1999/xlink"
>

<title>Gnuplot</title>
<desc>Produced by GNUPLOT 5.2 patchlevel 6 </desc>

<g id="gnuplot_canvas">

<rect x="0" y="0" width="1280" height="720" fill="none"/>
<defs>

	<circle id='gpDot' r='0.5' stroke-width='0.5' stroke='currentColor'/>
	<path id='gpPt0' stroke-width='0.222' stroke='currentColor' d='M-1,0 h2 M0,-1 v2'/>
	<path id='gpPt1' stroke-width='0.222' stroke='currentColor' d='M-1,-1 L1,1 M1,-1 L-1,1'/>
	<path id='gpPt2' stroke-width='0.222' stroke='currentColor' d='M-1,0 L1,0 M0,-1 L0,1 M-1,-1 L1,1 M-1,1 L1,-1'/>
	<rect id='gpPt3' stroke-width='0.222' stroke='currentColor' x='-1' y='-1' width='2' height='2'/>
	<rect id='gpPt4' stroke-width='0.222' stroke='currentColor' fill='currentColor' x='-1' y='-1' width='2' height='2'/>
	<circle id='gpPt5' stroke-width='0.222' stroke='currentColor' cx='0' cy='0' r='1'/>
	<use xlink:href='#gpPt5' id='gpPt6' fill='currentColor' stroke='none'/>
	<path id='gpPt7' stroke-width='0.222' stroke='currentColor' d='M0,-1.33 L-1.33,0.67 L1.33,0.67 z'/>
	<use xlink:href='#gpPt7' id='gpPt8' fill='currentColor' stroke='none'/>
	<use xlink:href='#gpPt7' id='gpPt9' stroke='currentColor' transform='rotate(180)'/>
	<use xlink:href='#gpPt9' id='gpPt10' fill='currentColor' stroke='none'/>
	<use xlink:href='#gpPt3' id='gpPt11' stroke='currentColor' transform='rotate(45)'/>
	<use xlink:href='#gpPt11' id='gpPt12' fill='currentColor' stroke='none'/>
	<path id='gpPt13' stroke-width='0.222' stroke='currentColor' d='M0,1.330 L1.265,0.411 L0.782,-1.067 L-0.782,-1.076 L-1.265,0.411 z'/>
	<use xlink:href='#gpPt13' id='gpPt14' fill='currentColor' stroke='none'/>
	<filter id='textbox' filterUnits='objectBoundingBox' x='0' y='0' height='1' width='1'>
	  <feFlood flood-color='white' flood-opacity='1' result='bgnd'/>
	  <feComposite in='SourceGraphic' in2='bgnd' operator='atop'/>
	</filter>
	<filter id='greybox' filterUnits='objectBoundingBox' x='0' y='0' height='1' width='1'>
	  <feFlood flood-color='lightgrey' flood-opacity='1' result='grey'/>
	  <feComposite in='SourceGraphic' in2='grey' operator='atop'/>
	</filter>
</defs>
<g fill="none" color="white" stroke="currentColor" stroke-width="1.00" stroke-linecap="butt" stroke-linejoin="miter">
</g>
<g fill="none" color="black" stroke="currentColor" stroke-width="1.00" stroke-linecap="butt" stroke-linejoin="miter">
	<path stroke='black'  d='M88.5,662.4 L97.5,662.4  '/>	<g transform="translate(80.2,666.3)" stroke="none" fill="black" font-family="Helvetica" font-size="12.00"  text-anchor="end">
		<text><tspan font-family="Helvetica" > 0</tspan></text>
	</g>
</g>
<g fill="none" color="black" stroke="currentColor" stroke-width="1.00" stroke-linecap="butt" stroke-linejoin="miter">
	<path stroke='black'  d='M88.5,575.5 L97.5,575.5  '/>	<g transform="translate(80.2,579.4)" stroke="none" fill="black" font-family="Helvetica" font-size="12.00"  text-anchor="end">
		<text><tspan font-family="Helvetica" > 0.001</tspan></text>
	</g>
</g>
<g fill="none" color="black" stroke="currentColor" stroke-width="1.00" stroke-linecap="butt" stroke-linejoin="miter">
	<path stroke='black'  d='M88.5,488.6 L97.5,488.6  '/>	<g transform="translate(80.2,492.5)" stroke="none" fill="black" font-family="Helvetica" font-size="12.00"  text-anchor="end">
		<text><tspan font-family="Helvetica" > 0.002</tspan></text>
	</g>
</g>
<g fill="none" color="black" stroke="currentColor" stroke-width="1.00" stroke-linecap="butt" stroke-linejoin="miter">
	<path stroke='black'  d='M88.5,401.7 L97.5,401.7  '/>	<g transform="translate(80.2,405.6)" stroke="none" fill="black" font-family="Helvetica" font-size="12.00"  text-anchor="end">
		<text><tspan font-family="Helvetica" > 0.003</tspan></text>
	</g>
</g>
<g fill="none" color="black" stroke="currentColor" stroke-width="1.00" stroke-linecap="butt" stroke-linejoin="miter">
	<path stroke='black'  d='M88.5,314.8 L97.5,314.8  '/>	<g transform="translate(80.2,318.7)" stroke="none" fill="black" font-family="Helvetica" font-size="12.00"  text-anchor="end">
		<text><tspan font-family="Helvetica" > 0.004</tspan></text>
	</g>
</g>
<g fill="none" color="black" stroke="currentColor" stroke-width="1.00" stroke-linecap="butt" stroke-linejoin="miter">
	<path stroke='black'  d='M88.5,227.9 L97.5,227.9  '/>	<g transform="translate(80.2,231.8)" stroke="none" fill="black" font-family="Helvetica" font-size="12.00"  text-anchor="end">
		<text><tspan font-family="Helvetica" > 0.005</tspan></text>
	</g>
</g>
<g fill="none" color="black" stroke="currentColor" stroke-width="1.00" stroke-linecap="butt" stroke-linejoin="miter">
	<path stroke='black'  d='M88.5,141.0 L97.5,141.0  '/>	<g transform="translate(80.2,144.9)" stroke="none" fill="black" font-family="Helvetica" font-size="12.00"  text-anchor="end">
		<text><tspan font-family="Helvetica" > 0.006</tspan></text>
	</g>
</g>
<g fill="none" color="black" stroke="currentColor" stroke-width="1.00" stroke-linecap="butt" stroke-linejoin="miter">
	<path stroke='black'  d='M88.5,54.1 L97.5,54.1  '/>	<g transform="translate(80.2,58.0)" stroke="none" fill="black" font-family="Helvetica" font-size="12.00"  text-anchor="end">
		<text><tspan font-family="Helvetica" > 0.007</tspan></text>
	</g>
</g>
<g fill="none" color="black" stroke="currentColor" stroke-width="1.00" stroke-linecap="butt" stroke-linejoin="miter">
	<path stroke='black'  d='M199.1,662.4 L199.1,653.4  '/>	<g transform="translate(199.1,684.3)" stroke="none" fill="black" font-family="Helvetica" font-size="12.00"  text-anchor="middle">
		<text><tspan font-family="Helvetica" > 100</tspan></text>
	</g>
</g>
<g fill="none" color="black" stroke="currentColor" stroke-width="1.00" stroke-linecap="butt" stroke-linejoin="miter">
	<path stroke='black'  d='M350.2,662.4 L350.2,653.4  '/>	<g transform="translate(350.2,684.3)" stroke="none" fill="black" font-family="Helvetica" font-size="12.00"  text-anchor="middle">
		<text><tspan font-family="Helvetica" > 150</tspan></text>
	</g>
</g>
<g fill="none" color="black" stroke="currentColor" stroke-width="1.00" stroke-linecap="butt" stroke-linejoin="miter">
	<path stroke='black'  d='M501.3,662.4 L501.3,653.4  '/>	<g transform="translate(501.3,684.3)" stroke="none" fill="black" font-family="Helvetica" font-size="12.00"  text-anchor="middle">
		<text><tspan font-family="Helvetica" > 200</tspan></text>
	</g>
</g>
<g fill="none" color="black" stroke="currentColor" stroke-width="1.00" stroke-linecap="butt" stroke-linejoin="miter">
	<path stroke='black'  d='M652.4,662.4 L652.4,653.4  '/>	<g transform="translate(652.4,684.3)" stroke="none" fill="black" font-family="Helvetica" font-size="12.00"  text-anchor="middle">
		<text><tspan font-family="Helvetica" > 250</tspan></text>
	</g>
</g>
<g fill="none" color="black" stroke="currentColor" stroke-width="1.00" stroke-linecap="butt" stroke-linejoin="miter">
	<path stroke='black'  d='M803.5,662.4 L803.5,653.4  '/>	<g transform="translate(803.5,684.3)" stroke="none" fill="black" font-family="Helvetica" font-size="12.00"  text-anchor="middle">
		<text><tspan font-family="Helvetica" > 300</tspan></text>
	</g>
</g>
<g fill="none" color="black" stroke="currentColor" stroke-width="1.00" stroke-linecap="butt" stroke-linejoin="miter">
	<path stroke='black'  d='M954.7,662.4 L954.7,653.4  '/>	<g transform="translate(954.7,684.3)" stroke="none" fill="black" font-family="Helvetica" font-size="12.00"  text-anchor="middle">
		<text><tspan font-family="Helvetica" > 350</tspan></text>
	</g>
</g>
<g fill="none" color="black" stroke="currentColor" stroke-width="1.00" stroke-linecap="butt" stroke-linejoin="miter">
</g>
<g fill="none" color="black" stroke="currentColor" stroke-width="1.00" stroke-linecap="butt" stroke-linejoin="miter">
	<path stroke='black'  d='M88.5,54.1 L88.5,662.4 L1013.6,662.4 L1013.6,54.1 L88.5,54.1 Z  '/></g>
<g fill="none" color="black" stroke="currentColor" stroke-width="1.00" stroke-linecap="butt" stroke-linejoin="miter">
	<g transform="translate(16.3,358.3) rotate(270)" stroke="none" fill="black" font-family="Helvetica" font-size="12.00"  text-anchor="middle">
		<text><tspan font-family="Helvetica" >Density (a.u.)</tspan></text>
	</g>
</g>
<g fill="none" color="black" stroke="currentColor" stroke-width="1.00" stroke-linecap="butt" stroke-linejoin="miter">
	<g transform="translate(551.0,711.3)" stroke="none" fill="black" font-family="Helvetica" font-size="12.00"  text-anchor="middle">
		<text><tspan font-family="Helvetica" >Average time (ns)</tspan></text>
	</g>
</g>
<g fill="none" color="black" stroke="currentColor" stroke-width="1.00" stroke-linecap="butt" stroke-linejoin="miter">
	<g transform="translate(551.0,31.0)" stroke="none" fill="black" font-family="Helvetica" font-size="12.00"  text-anchor="middle">
		<text><tspan font-family="Helvetica" >snapshot_restore_with_dense/Sparse: Dirty pages + /proc/pid/mem/2: SD</tspan></text>
	</g>
</g>
	<g id="gnuplot_plot_1" ><title>Bootstrap distribution</title>
<g fill="none" color="white" stroke="black" stroke-width="2.00" stroke-linecap="butt" stroke-linejoin="miter">
</g>
<g fill="none" color="black" stroke="currentColor" stroke-width="2.00" stroke-linecap="butt" stroke-linejoin="miter">
	<g transform="translate(1089.0,67.0)" stroke="none" fill="black" font-family="Helvetica" font-size="12.00"  text-anchor="start">
		<text><tspan font-family="Helvetica" >Bootstrap distribution</tspan></text>
	</g>
</g>
<g fill="none" color="black" stroke="currentColor" stroke-width="2.00" stroke-linecap="butt" stroke-linejoin="miter">
	<path stroke='rgb( 31, 120, 180)'  d='M1038.5,63.1 L1080.7,63.1 M88.5,628.8 L90.4,626.9 L92.2,625.0 L94.1,623.1 L95.9,621.2 L97.8,619.4
		L99.6,617.7 L101.5,616.1 L103.3,614.6 L105.2,613.3 L107.0,612.1 L108.9,611.1 L110.7,610.2 L112.6,609.6
		L114.5,609.0 L116.3,608.7 L118.2,608.4 L120.0,608.3 L121.9,608.3 L123.7,608.3 L125.6,608.4 L127.4,608.5
		L129.3,608.6 L131.1,608.6 L133.0,608.4 L134.8,608.2 L136.7,607.8 L138.6,607.1 L140.4,606.3 L142.3,605.3
		L144.1,604.0 L146.0,602.5 L147.8,600.8 L149.7,598.9 L151.5,596.8 L153.4,594.5 L155.2,592.1 L157.1,589.6
		L158.9,587.0 L160.8,584.5 L162.7,581.9 L164.5,579.5 L166.4,577.1 L168.2,574.9 L170.1,572.9 L171.9,571.1
		L173.8,569.5 L175.6,568.1 L177.5,566.9 L179.3,565.9 L181.2,565.1 L183.0,564.5 L184.9,564.0 L186.8,563.5
		L188.6,563.2 L190.5,562.9 L192.3,562.5 L194.2,562.1 L196.0,561.6 L197.9,560.9 L199.7,560.2 L201.6,559.3
		L203.4,558.2 L205.3,557.0 L207.2,555.7 L209.0,554.2 L210.9,552.7 L212.7,551.1 L214.6,549.5 L216.4,547.8
		L218.3,546.3 L220.1,544.8 L222.0,543.4 L223.8,542.1 L225.7,541.0 L227.5,540.1 L229.4,539.3 L231.3,538.6
		L233.1,538.1 L235.0,537.7 L236.8,537.3 L238.7,537.1 L240.5,536.8 L242.4,536.6 L244.2,536.4 L246.1,536.1
		L247.9,535.7 L249.8,535.3 L251.6,534.7 L253.5,534.1 L255.4,533.4 L257.2,532.6 L259.1,531.7 L260.9,530.8
		L262.8,529.8 L264.6,528.8 L266.5,527.7 L268.3,526.7 L270.2,525.6 L272.0,524.5 L273.9,523.4 L275.7,522.3
		L277.6,521.1 L279.5,519.9 L281.3,518.6 L283.2,517.3 L285.0,515.9 L286.9,514.4 L288.7,512.8 L290.6,511.1
		L292.4,509.4 L294.3,507.5 L296.1,505.5 L298.0,503.5 L299.8,501.4 L301.7,499.3 L303.6,497.1 L305.4,494.9
		L307.3,492.7 L309.1,490.5 L311.0,488.2 L312.8,486.0 L314.7,483.8 L316.5,481.6 L318.4,479.4 L320.2,477.2
		L322.1,474.9 L323.9,472.6 L325.8,470.3 L327.7,468.0 L329.5,465.6 L331.4,463.2 L333.2,460.8 L335.1,458.3
		L336.9,455.8 L338.8,453.3 L340.6,450.7 L342.5,448.0 L344.3,445.3 L346.2,442.6 L348.0,439.7 L349.9,436.8
		L351.8,433.8 L353.6,430.7 L355.5,427.5 L357.3,424.2 L359.2,420.8 L361.0,417.2 L362.9,413.5 L364.7,409.7
		L366.6,405.8 L368.4,401.8 L370.3,397.7 L372.1,393.5 L374.0,389.2 L375.9,384.9 L377.7,380.6 L379.6,376.2
		L381.4,371.9 L383.3,367.5 L385.1,363.1 L387.0,358.8 L388.8,354.4 L390.7,350.1 L392.5,345.8 L394.4,341.5
		L396.2,337.2 L398.1,333.0 L400.0,328.8 L401.8,324.6 L403.7,320.4 L405.5,316.4 L407.4,312.3 L409.2,308.3
		L411.1,304.4 L412.9,300.5 L414.8,296.6 L416.6,292.9 L418.5,289.1 L420.3,285.5 L422.2,281.9 L424.1,278.3
		L425.9,274.8 L427.8,271.3 L429.6,267.9 L431.5,264.5 L433.3,261.2 L435.2,258.0 L437.0,254.8 L438.9,251.7
		L440.7,248.7 L442.6,245.7 L444.5,242.8 L446.3,240.0 L448.2,237.3 L450.0,234.7 L451.9,232.2 L453.7,229.8
		L455.6,227.5 L457.4,225.3 L459.3,223.2 L461.1,221.2 L463.0,219.3 L464.8,217.5 L466.7,215.9 L468.6,214.3
		L470.4,212.8 L472.3,211.5 L474.1,210.2 L476.0,208.9 L477.8,207.7 L479.7,206.6 L481.5,205.5 L483.4,204.4
		L485.2,203.3 L487.1,202.2 L488.9,201.1 L490.8,199.9 L492.7,198.7 L494.5,197.4 L496.4,196.0 L498.2,194.6
		L500.1,193.1 L501.9,191.6 L503.8,190.0 L505.6,188.3 L507.5,186.5 L509.3,184.8 L511.2,182.9 L513.0,181.1
		L514.9,179.2 L516.8,177.3 L518.6,175.4 L520.5,173.5 L522.3,171.6 L524.2,169.7 L526.0,167.9 L527.9,166.0
		L529.7,164.2 L531.6,162.4 L533.4,160.6 L535.3,158.8 L537.1,157.0 L539.0,155.2 L540.9,153.4 L542.7,151.5
		L544.6,149.7 L546.4,147.8 L548.3,145.9 L550.1,143.9 L552.0,141.9 L553.8,139.9 L555.7,137.9 L557.5,135.8
		L559.4,133.7 L561.2,131.7 L563.1,129.7 L565.0,127.7 L566.8,125.7 L568.7,123.8 L570.5,121.9 L572.4,120.1
		L574.2,118.4 L576.1,116.8 L577.9,115.2 L579.8,113.8 L581.6,112.5 L583.5,111.2 L585.3,110.1 L587.2,109.1
		L589.1,108.2 L590.9,107.4 L592.8,106.6 L594.6,106.0 L596.5,105.5 L598.3,105.1 L600.2,104.8 L602.0,104.6
		L603.9,104.5 L605.7,104.4 L607.6,104.5 L609.4,104.7 L611.3,105.0 L613.2,105.4 L615.0,106.0 L616.9,106.6
		L618.7,107.4 L620.6,108.3 L622.4,109.4 L624.3,110.6 L626.1,112.0 L628.0,113.5 L629.8,115.2 L631.7,117.0
		L633.5,118.9 L635.4,120.9 L637.3,123.1 L639.1,125.3 L641.0,127.7 L642.8,130.1 L644.7,132.5 L646.5,135.0
		L648.4,137.4 L650.2,139.9 L652.1,142.3 L653.9,144.7 L655.8,147.0 L657.6,149.3 L659.5,151.4 L661.4,153.5
		L663.2,155.4 L665.1,157.3 L666.9,159.0 L668.8,160.7 L670.6,162.2 L672.5,163.7 L674.3,165.0 L676.2,166.4
		L678.0,167.6 L679.9,168.8 L681.8,170.0 L683.6,171.1 L685.5,172.3 L687.3,173.5 L689.2,174.6 L691.0,175.9
		L692.9,177.1 L694.7,178.5 L696.6,179.9 L698.4,181.3 L700.3,182.9 L702.1,184.6 L704.0,186.4 L705.9,188.3
		L707.7,190.3 L709.6,192.5 L711.4,194.8 L713.3,197.2 L715.1,199.8 L717.0,202.5 L718.8,205.3 L720.7,208.3
		L722.5,211.4 L724.4,214.7 L726.2,218.0 L728.1,221.4 L730.0,225.0 L731.8,228.6 L733.7,232.3 L735.5,236.0
		L737.4,239.8 L739.2,243.5 L741.1,247.3 L742.9,251.1 L744.8,254.9 L746.6,258.7 L748.5,262.5 L750.3,266.2
		L752.2,269.9 L754.1,273.6 L755.9,277.3 L757.8,280.9 L759.6,284.6 L761.5,288.2 L763.3,291.8 L765.2,295.4
		L767.0,299.0 L768.9,302.6 L770.7,306.3 L772.6,309.9 L774.4,313.5 L776.3,317.1 L778.2,320.7 L780.0,324.4
		L781.9,328.0 L783.7,331.6 L785.6,335.2 L787.4,338.8 L789.3,342.3 L791.1,345.9 L793.0,349.4 L794.8,352.9
		L796.7,356.4 L798.5,359.8 L800.4,363.2 L802.3,366.6 L804.1,370.0 L806.0,373.3 L807.8,376.6 L809.7,379.9
		L811.5,383.1 L813.4,386.4 L815.2,389.6 L817.1,392.8 L818.9,396.1 L820.8,399.3 L822.6,402.5 L824.5,405.7
		L826.4,408.9 L828.2,412.2 L830.1,415.4 L831.9,418.7 L833.8,422.0 L835.6,425.3 L837.5,428.6 L839.3,432.0
		L841.2,435.4 L843.0,438.8 L844.9,442.2 L846.7,445.7 L848.6,449.2 L850.5,452.6 L852.3,456.1 L854.2,459.6
		L856.0,463.0 L857.9,466.5 L859.7,469.9 L861.6,473.3 L863.4,476.6 L865.3,479.9 L867.1,483.2 L869.0,486.4
		L870.8,489.6 L872.7,492.7 L874.6,495.7 L876.4,498.7 L878.3,501.7 L880.1,504.6 L882.0,507.4 L883.8,510.2
		L885.7,512.9 L887.5,515.6 L889.4,518.2 L891.2,520.8 L893.1,523.3 L894.9,525.9 L896.8,528.3 L898.7,530.8
		L900.5,533.2 L902.4,535.5 L904.2,537.9 L906.1,540.2 L907.9,542.4 L909.8,544.7 L911.6,546.9 L913.5,549.1
		L915.3,551.3 L917.2,553.4 L919.1,555.5 L920.9,557.6 L922.8,559.6 L924.6,561.7 L926.5,563.7 L928.3,565.6
		L930.2,567.6 L932.0,569.5 L933.9,571.3 L935.7,573.2 L937.6,575.0 L939.4,576.8 L941.3,578.5 L943.2,580.3
		L945.0,582.0 L946.9,583.7 L948.7,585.3 L950.6,586.9 L952.4,588.5 L954.3,590.1 L956.1,591.7 L958.0,593.2
		L959.8,594.8 L961.7,596.3 L963.5,597.7 L965.4,599.2 L967.3,600.6 L969.1,602.0 L971.0,603.4 L972.8,604.8
		L974.7,606.1 L976.5,607.4 L978.4,608.7 L980.2,610.0 L982.1,611.3 L983.9,612.5 L985.8,613.7 L987.6,614.9
		L989.5,616.1 L991.4,617.3 L993.2,618.4 L995.1,619.6 L996.9,620.7 L998.8,621.8 L1000.6,622.9 L1002.5,623.9
		L1004.3,625.0 L1006.2,626.0 L1008.0,627.1 L1009.9,628.1 L1011.7,629.1 L1013.6,630.1  '/></g>
	</g>
	<g id="gnuplot_plot_2" ><title>Confidence interval</title>
<g fill="none" color="white" stroke="rgb( 31, 120, 180)" stroke-width="1.00" stroke-linecap="butt" stroke-linejoin="miter">
</g>
<g fill="none" color="black" stroke="currentColor" stroke-width="1.00" stroke-linecap="butt" stroke-linejoin="miter">
	<g transform="translate(1089.0,85.0)" stroke="none" fill="black" font-family="Helvetica" font-size="12.00"  text-anchor="start">
		<text><tspan font-family="Helvetica" >Confidence interval</tspan></text>
	</g>
</g>
<g fill="none" color="black" stroke="currentColor" stroke-width="1.00" stroke-linecap="butt" stroke-linejoin="miter">
	<g stroke='none' shape-rendering='crispEdges'>
		<polygon fill = 'rgb( 31, 120, 180)' fill-opacity = '0.250000' points = '1038.5,85.6 1080.7,85.6 1080.7,76.6 1038.5,76.6 '/>
		<polygon fill = 'rgb( 31, 120, 180)' fill-opacity = '0.250000' points = '173.8,569.5 175.6,568.1 177.5,566.9 179.3,565.9 181.2,565.1 183.0,564.5 184.9,564.0 186.8,563.5 188.6,563.2 190.5,562.9 192.3,562.5 194.2,562.1 196.0,561.6 197.9,560.9 199.7,560.2 201.6,559.3
203.4,558.2 205.3,557.0 207.2,555.7 209.0,554.2 210.9,552.7 212.7,551.1 214.6,549.5 216.4,547.8 218.3,546.3 220.1,544.8 222.0,543.4 223.8,542.1 225.7,541.0 227.5,540.1 229.4,539.3 231.3,538.6
233.1,538.1 235.0,537.7 236.8,537.3 238.7,537.1 240.5,536.8 242.4,536.6 244.2,536.4 246.1,536.1 247.9,535.7 249.8,535.3 251.6,534.7 253.5,534.1 255.4,533.4 257.2,532.6 259.1,531.7 260.9,530.8
262.8,529.8 264.6,528.8 266.5,527.7 268.3,526.7 270.2,525.6 272.0,524.5 273.9,523.4 275.7,522.3 277.6,521.1 279.5,519.9 281.3,518.6 283.2,517.3 285.0,515.9 286.9,514.4 288.7,512.8 290.6,511.1
292.4,509.4 294.3,507.5 296.1,505.5 298.0,503.5 299.8,501.4 301.7,499.3 303.6,497.1 305.4,494.9 307.3,492.7 309.1,490.5 311.0,488.2 312.8,486.0 314.7,483.8 316.5,481.6 318.4,479.4 320.2,477.2
322.1,474.9 323.9,472.6 325.8,470.3 327.7,468.0 329.5,465.6 331.4,463.2 333.2,460.8 335.1,458.3 336.9,455.8 338.8,453.3 340.6,450.7 342.5,448.0 344.3,445.3 346.2,442.6 348.0,439.7 349.9,436.8
351.8,433.8 353.6,430.7 355.5,427.5 357.3,424.2 359.2,420.8 361.0,417.2 362.9,413.5 364.7,409.7 366.6,405.8 368.4,401.8 370.3,397.7 372.1,393.5 374.0,389.2 375.9,384.9 377.7,380.6 379.6,376.2
381.4,371.9 383.3,367.5 385.1,363.1 387.0,358.8 388.8,354.4 390.7,350.1 392.5,345.8 394.4,341.5 396.2,337.2 398.1,333.0 400.0,328.8 401.8,324.6 403.7,320.4 405.5,316.4 407.4,312.3 409.2,308.3
411.1,304.4 412.9,300.5 414.8,296.6 416.6,292.9 418.5,289.1 420.3,285.5 422.2,281.9 424.1,278.3 425.9,274.8 427.8,271.3 429.6,267.9 431.5,264.5 433.3,261.2 435.2,258.0 437.0,254.8 438.9,251.7
440.7,248.7 442.6,245.7 444.5,242.8 446.3,240.0 448.2,237.3 450.0,234.7 451.9,232.2 453.7,229.8 455.6,227.5 457.4,225.3 459.3,223.2 461.1,221.2 463.0,219.3 464.8,217.5 466.7,215.9 468.6,214.3
470.4,212.8 472.3,211.5 474.1,210.2 476.0,208.9 477.8,207.7 479.7,206.6 481.5,205.5 483.4,204.4 485.2,203.3 487.1,202.2 488.9,201.1 490.8,199.9 492.7,198.7 494.5,197.4 496.4,196.0 498.2,194.6
500.1,193.1 501.9,191.6 503.8,190.0 505.6,188.3 507.5,186.5 509.3,184.8 511.2,182.9 513.0,181.1 514.9,179.2 516.8,177.3 518.6,175.4 520.5,173.5 522.3,171.6 524.2,169.7 526.0,167.9 527.9,166.0
529.7,164.2 531.6,162.4 533.4,160.6 535.3,158.8 537.1,157.0 539.0,155.2 540.9,153.4 542.7,151.5 544.6,149.7 546.4,147.8 548.3,145.9 550.1,143.9 552.0,141.9 553.8,139.9 555.7,137.9 557.5,135.8
559.4,133.7 561.2,131.7 563.1,129.7 565.0,127.7 566.8,125.7 568.7,123.8 570.5,121.9 572.4,120.1 574.2,118.4 576.1,116.8 577.9,115.2 579.8,113.8 581.6,112.5 583.5,111.2 585.3,110.1 587.2,109.1
589.1,108.2 590.9,107.4 592.8,106.6 594.6,106.0 596.5,105.5 598.3,105.1 600.2,104.8 602.0,104.6 603.9,104.5 605.7,104.4 607.6,104.5 609.4,104.7 611.3,105.0 613.2,105.4 615.0,106.0 616.9,106.6
618.7,107.4 620.6,108.3 622.4,109.4 624.3,110.6 626.1,112.0 628.0,113.5 629.8,115.2 631.7,117.0 633.5,118.9 635.4,120.9 637.3,123.1 639.1,125.3 641.0,127.7 642.8,130.1 644.7,132.5 646.5,135.0
648.4,137.4 650.2,139.9 652.1,142.3 653.9,144.7 655.8,147.0 657.6,149.3 659.5,151.4 661.4,153.5 663.2,155.4 665.1,157.3 666.9,159.0 668.8,160.7 670.6,162.2 672.5,163.7 674.3,165.0 676.2,166.4
678.0,167.6 679.9,168.8 681.8,170.0 683.6,171.1 685.5,172.3 687.3,173.5 689.2,174.6 691.0,175.9 692.9,177.1 694.7,178.5 696.6,179.9 698.4,181.3 700.3,182.9 702.1,184.6 704.0,186.4 705.9,188.3
707.7,190.3 709.6,192.5 711.4,194.8 713.3,197.2 715.1,199.8 717.0,202.5 718.8,205.3 720.7,208.3 722.5,211.4 724.4,214.7 726.2,218.0 728.1,221.4 730.0,225.0 731.8,228.6 733.7,232.3 735.5,236.0
737.4,239.8 739.2,243.5 741.1,247.3 742.9,251.1 744.8,254.9 746.6,258.7 748.5,262.5 750.3,266.2 752.2,269.9 754.1,273.6 755.9,277.3 757.8,280.9 759.6,284.6 761.5,288.2 763.3,291.8 765.2,295.4
767.0,299.0 768.9,302.6 770.7,306.3 772.6,309.9 774.4,313.5 776.3,317.1 778.2,320.7 780.0,324.4 781.9,328.0 783.7,331.6 785.6,335.2 787.4,338.8 789.3,342.3 791.1,345.9 793.0,349.4 794.8,352.9
796.7,356.4 798.5,359.8 800.4,363.2 802.3,366.6 804.1,370.0 806.0,373.3 807.8,376.6 809.7,379.9 811.5,383.1 813.4,386.4 815.2,389.6 817.1,392.8 818.9,396.1 820.8,399.3 822.6,402.5 824.5,405.7
826.4,408.9 828.2,412.2 830.1,415.4 831.9,418.7 833.8,422.0 835.6,425.3 837.5,428.6 839.3,432.0 841.2,435.4 843.0,438.8 844.9,442.2 846.7,445.7 848.6,449.2 850.5,452.6 852.3,456.1 854.2,459.6
856.0,463.0 857.9,466.5 859.7,469.9 861.6,473.3 863.4,476.6 865.3,479.9 867.1,483.2 869.0,486.4 870.8,489.6 872.7,492.7 874.6,495.7 876.4,498.7 878.3,501.7 880.1,504.6 882.0,507.4 883.8,510.2
885.7,512.9 887.5,515.6 889.4,518.2 891.2,520.8 893.1,523.3 894.9,525.9 896.8,528.3 898.7,530.8 900.5,533.2 902.4,535.5 904.2,537.9 906.1,540.2 907.9,542.4 909.8,544.7 911.6,546.9 913.5,549.1
915.3,551.3 917.2,553.4 919.1,555.5 920.9,557.6 922.8,559.6 924.6,561.7 926.5,563.7 926.5,662.4 924.6,662.4 922.8,662.4 920.9,662.4 919.1,662.4 917.2,662.4 915.3,662.4 913.5,662.4 911.6,662.4
909.8,662.4 907.9,662.4 906.1,662.4 904.2,662.4 902.4,662.4 900.5,662.4 898.7,662.4 896.8,662.4 894.9,662.4 893.1,662.4 891.2,662.4 889.4,662.4 887.5,662.4 885.7,662.4 883.8,662.4 882.0,662.4
880.1,662.4 878.3,662.4 876.4,662.4 874.6,662.4 872.7,662.4 870.8,662.4 869.0,662.4 867.1,662.4 865.3,662.4 863.4,662.4 861.6,662.4 859.7,662.4 857.9,662.4 856.0,662.4 854.2,662.4 852.3,662.4
850.5,662.4 848.6,662.4 846.7,662.4 844.9,662.4 843.0,662.4 841.2,662.4 839.3,662.4 837.5,662.4 835.6,662.4 833.8,662.4 831.9,662.4 830.1,662.4 828.2,662.4 826.4,662.4 824.5,662.4 822.6,662.4
820.8,662.4 818.9,662.4 817.1,662.4 815.2,662.4 813.4,662.4 811.5,662.4 809.7,662.4 807.8,662.4 806.0,662.4 804.1,662.4 802.3,662.4 800.4,662.4 798.5,662.4 796.7,662.4 794.8,662.4 793.0,662.4
791.1,662.4 789.3,662.4 787.4,662.4 785.6,662.4 783.7,662.4 781.9,662.4 780.0,662.4 778.2,662.4 776.3,662.4 774.4,662.4 772.6,662.4 770.7,662.4 768.9,662.4 767.0,662.4 765.2,662.4 763.3,662.4
761.5,662.4 759.6,662.4 757.8,662.4 755.9,662.4 754.1,662.4 752.2,662.4 750.3,662.4 748.5,662.4 746.6,662.4 744.8,662.4 742.9,662.4 741.1,662.4 739.2,662.4 737.4,662.4 735.5,662.4 733.7,662.4
731.8,662.4 730.0,662.4 728.1,662.4 726.2,662.4 724.4,662.4 722.5,662.4 720.7,662.4 718.8,662.4 717.0,662.4 715.1,662.4 713.3,662.4 711.4,662.4 709.6,662.4 707.7,662.4 705.9,662.4 704.0,662.4
702.1,662.4 700.3,662.4 698.4,662.4 696.6,662.4 694.7,662.4 692.9,662.4 691.0,662.4 689.2,662.4 687.3,662.4 685.5,662.4 683.6,662.4 681.8,662.4 679.9,662.4 678.0,662.4 676.2,662.4 674.3,662.4
672.5,662.4 670.6,662.4 668.8,662.4 666.9,662.4 665.1,662.4 663.2,662.4 661.4,662.4 659.5,662.4 657.6,662.4 655.8,662.4 653.9,662.4 652.1,662.4 650.2,662.4 648.4,662.4 646.5,662.4 644.7,662.4
642.8,662.4 641.0,662.4 639.1,662.4 637.3,662.4 635.4,662.4 633.5,662.4 631.7,662.4 629.8,662.4 628.0,662.4 626.1,662.4 624.3,662.4 622.4,662.4 620.6,662.4 618.7,662.4 616.9,662.4 615.0,662.4
613.2,662.4 611.3,662.4 609.4,662.4 607.6,662.4 605.7,662.4 603.9,662.4 602.0,662.4 600.2,662.4 598.3,662.4 596.5,662.4 594.6,662.4 592.8,662.4 590.9,662.4 589.1,662.4 587.2,662.4 585.3,662.4
583.5,662.4 581.6,662.4 579.8,662.4 577.9,662.4 576.1,662.4 574.2,662.4 572.4,662.4 570.5,662.4 568.7,662.4 566.8,662.4 565.0,662.4 563.1,662.4 561.2,662.4 559.4,662.4 557.5,662.4 555.7,662.4
553.8,662.4 552.0,662.4 550.1,662.4 548.3,662.4 546.4,662.4 544.6,662.4 542.7,662.4 540.9,662.4 539.0,662.4 537.1,662.4 535.3,662.4 533.4,662.4 531.6,662.4 529.7,662.4 527.9,662.4 526.0,662.4
524.2,662.4 522.3,662.4 520.5,662.4 518.6,662.4 516.8,662.4 514.9,662.4 513.0,662.4 511.2,662.4 509.3,662.4 507.5,662.4 505.6,662.4 503.8,662.4 501.9,662.4 500.1,662.4 498.2,662.4 496.4,662.4
494.5,662.4 492.7,662.4 490.8,662.4 488.9,662.4 487.1,662.4 485.2,662.4 483.4,662.4 481.5,662.4 479.7,662.4 477.8,662.4 476.0,662.4 474.1,662.4 472.3,662.4 470.4,662.4 468.6,662.4 466.7,662.4
464.8,662.4 463.0,662.4 461.1,662.4 459.3,662.4 457.4,662.4 455.6,662.4 453.7,662.4 451.9,662.4 450.0,662.4 448.2,662.4 446.3,662.4 444.5,662.4 442.6,662.4 440.7,662.4 438.9,662.4 437.0,662.4
435.2,662.4 433.3,662.4 431.5,662.4 429.6,662.4 427.8,662.4 425.9,662.4 424.1,662.4 422.2,662.4 420.3,662.4 418.5,662.4 416.6,662.4 414.8,662.4 412.9,662.4 411.1,662.4 409.2,662.4 407.4,662.4
405.5,662.4 403.7,662.4 401.8,662.4 400.0,662.4 398.1,662.4 396.2,662.4 394.4,662.4 392.5,662.4 390.7,662.4 388.8,662.4 387.0,662.4 385.1,662.4 383.3,662.4 381.4,662.4 379.6,662.4 377.7,662.4
375.9,662.4 374.0,662.4 372.1,662.4 370.3,662.4 368.4,662.4 366.6,662.4 364.7,662.4 362.9,662.4 361.0,662.4 359.2,662.4 357.3,662.4 355.5,662.4 353.6,662.4 351.8,662.4 349.9,662.4 348.0,662.4
346.2,662.4 344.3,662.4 342.5,662.4 340.6,662.4 338.8,662.4 336.9,662.4 335.1,662.4 333.2,662.4 331.4,662.4 329.5,662.4 327.7,662.4 325.8,662.4 323.9,662.4 322.1,662.4 320.2,662.4 318.4,662.4
316.5,662.4 314.7,662.4 312.8,662.4 311.0,662.4 309.1,662.4 307.3,662.4 305.4,662.4 303.6,662.4 301.7,662.4 299.8,662.4 298.0,662.4 296.1,662.4 294.3,662.4 292.4,662.4 290.6,662.4 288.7,662.4
286.9,662.4 285.0,662.4 283.2,662.4 281.3,662.4 279.5,662.4 277.6,662.4 275.7,662.4 273.9,662.4 272.0,662.4 270.2,662.4 268.3,662.4 266.5,662.4 264.6,662.4 262.8,662.4 260.9,662.4 259.1,662.4
257.2,662.4 255.4,662.4 253.5,662.4 251.6,662.4 249.8,662.4 247.9,662.4 246.1,662.4 244.2,662.4 242.4,662.4 240.5,662.4 238.7,662.4 236.8,662.4 235.0,662.4 233.1,662.4 231.3,662.4 229.4,662.4
227.5,662.4 225.7,662.4 223.8,662.4 222.0,662.4 220.1,662.4 218.3,662.4 216.4,662.4 214.6,662.4 212.7,662.4 210.9,662.4 209.0,662.4 207.2,662.4 205.3,662.4 203.4,662.4 201.6,662.4 199.7,662.4
197.9,662.4 196.0,662.4 194.2,662.4 192.3,662.4 190.5,662.4 188.6,662.4 186.8,662.4 184.9,662.4 183.0,662.4 181.2,662.4 179.3,662.4 177.5,662.4 175.6,662.4 173.8,662.4 '/>
	</g>
</g>
	</g>
	<g id="gnuplot_plot_3" ><title>Point estimate</title>
<g fill="none" color="white" stroke="rgb( 31, 120, 180)" stroke-width="2.00" stroke-linecap="butt" stroke-linejoin="miter">
</g>
<g fill="none" color="black" stroke="currentColor" stroke-width="2.00" stroke-linecap="butt" stroke-linejoin="miter">
	<g transform="translate(1089.0,103.0)" stroke="none" fill="black" font-family="Helvetica" font-size="12.00"  text-anchor="start">
		<text><tspan font-family="Helvetica" >Point estimate</tspan></text>
	</g>
</g>
<g fill="none" color="black" stroke="currentColor" stroke-width="2.00" stroke-linecap="butt" stroke-linejoin="miter">
	<path stroke='rgb( 31, 120, 180)'  d='M1038.5,99.1 L1080.7,99.1 M605.4,662.4 L605.4,104.4  '/></g>
	</g>
<g fill="none" color="black" stroke="currentColor" stroke-width="2.00" stroke-linecap="butt" stroke-linejoin="miter">
</g>
<g fill="none" color="black" stroke="black" stroke-width="1.00" stroke-linecap="butt" stroke-linejoin="miter">
</g>
<g fill="none" color="black" stroke="currentColor" stroke-width="1.00" stroke-linecap="butt" stroke-linejoin="miter">
	<path stroke='black'  d='M88.5,54.1 L88.5,662.4 L1013.6,662.4 L1013.6,54.1 L88.5,54.1 Z  '/></g>
<g fill="none" color="black" stroke="currentColor" stroke-width="1.00" stroke-linecap="butt" stroke-linejoin="miter">
</g>
</g>
</svg>

