<?xml version="1.0" encoding="utf-8"  standalone="no"?>
<svg 
 viewBox="0 0 1280 720"
 xmlns="http://www.w3.org/2000/svg"
 xmlns:xlink="http://www.w3.org/1999/xlink"
>

<title>Gnuplot</title>
<desc>Produced by GNUPLOT 5.2 patchlevel 6 </desc>

<g id="gnuplot_canvas">

<rect x="0" y="0" width="1280" height="720" fill="none"/>
<defs>

	<circle id='gpDot' r='0.5' stroke-width='0.5' stroke='currentColor'/>
	<path id='gpPt0' stroke-width='0.222' stroke='currentColor' d='M-1,0 h2 M0,-1 v2'/>
	<path id='gpPt1' stroke-width='0.222' stroke='currentColor' d='M-1,-1 L1,1 M1,-1 L-1,1'/>
	<path id='gpPt2' stroke-width='0.222' stroke='currentColor' d='M-1,0 L1,0 M0,-1 L0,1 M-1,-1 L1,1 M-1,1 L1,-1'/>
	<rect id='gpPt3' stroke-width='0.222' stroke='currentColor' x='-1' y='-1' width='2' height='2'/>
	<rect id='gpPt4' stroke-width='0.222' stroke='currentColor' fill='currentColor' x='-1' y='-1' width='2' height='2'/>
	<circle id='gpPt5' stroke-width='0.222' stroke='currentColor' cx='0' cy='0' r='1'/>
	<use xlink:href='#gpPt5' id='gpPt6' fill='currentColor' stroke='none'/>
	<path id='gpPt7' stroke-width='0.222' stroke='currentColor' d='M0,-1.33 L-1.33,0.67 L1.33,0.67 z'/>
	<use xlink:href='#gpPt7' id='gpPt8' fill='currentColor' stroke='none'/>
	<use xlink:href='#gpPt7' id='gpPt9' stroke='currentColor' transform='rotate(180)'/>
	<use xlink:href='#gpPt9' id='gpPt10' fill='currentColor' stroke='none'/>
	<use xlink:href='#gpPt3' id='gpPt11' stroke='currentColor' transform='rotate(45)'/>
	<use xlink:href='#gpPt11' id='gpPt12' fill='currentColor' stroke='none'/>
	<path id='gpPt13' stroke-width='0.222' stroke='currentColor' d='M0,1.330 L1.265,0.411 L0.782,-1.067 L-0.782,-1.076 L-1.265,0.411 z'/>
	<use xlink:href='#gpPt13' id='gpPt14' fill='currentColor' stroke='none'/>
	<filter id='textbox' filterUnits='objectBoundingBox' x='0' y='0' height='1' width='1'>
	  <feFlood flood-color='white' flood-opacity='1' result='bgnd'/>
	  <feComposite in='SourceGraphic' in2='bgnd' operator='atop'/>
	</filter>
	<filter id='greybox' filterUnits='objectBoundingBox' x='0' y='0' height='1' width='1'>
	  <feFlood flood-color='lightgrey' flood-opacity='1' result='grey'/>
	  <feComposite in='SourceGraphic' in2='grey' operator='atop'/>
	</filter>
</defs>
<g fill="none" color="white" stroke="currentColor" stroke-width="1.00" stroke-linecap="butt" stroke-linejoin="miter">
</g>
<g fill="none" color="black" stroke="currentColor" stroke-width="1.00" stroke-linecap="butt" stroke-linejoin="miter">
	<path stroke='black'  d='M71.9,662.4 L80.9,662.4  '/>	<g transform="translate(63.6,666.3)" stroke="none" fill="black" font-family="Helvetica" font-size="12.00"  text-anchor="end">
		<text><tspan font-family="Helvetica" > 0</tspan></text>
	</g>
</g>
<g fill="none" color="black" stroke="currentColor" stroke-width="1.00" stroke-linecap="butt" stroke-linejoin="miter">
	<path stroke='black'  d='M71.9,601.6 L80.9,601.6  '/>	<g transform="translate(63.6,605.5)" stroke="none" fill="black" font-family="Helvetica" font-size="12.00"  text-anchor="end">
		<text><tspan font-family="Helvetica" > 0.5</tspan></text>
	</g>
</g>
<g fill="none" color="black" stroke="currentColor" stroke-width="1.00" stroke-linecap="butt" stroke-linejoin="miter">
	<path stroke='black'  d='M71.9,540.7 L80.9,540.7  '/>	<g transform="translate(63.6,544.6)" stroke="none" fill="black" font-family="Helvetica" font-size="12.00"  text-anchor="end">
		<text><tspan font-family="Helvetica" > 1</tspan></text>
	</g>
</g>
<g fill="none" color="black" stroke="currentColor" stroke-width="1.00" stroke-linecap="butt" stroke-linejoin="miter">
	<path stroke='black'  d='M71.9,479.9 L80.9,479.9  '/>	<g transform="translate(63.6,483.8)" stroke="none" fill="black" font-family="Helvetica" font-size="12.00"  text-anchor="end">
		<text><tspan font-family="Helvetica" > 1.5</tspan></text>
	</g>
</g>
<g fill="none" color="black" stroke="currentColor" stroke-width="1.00" stroke-linecap="butt" stroke-linejoin="miter">
	<path stroke='black'  d='M71.9,419.1 L80.9,419.1  '/>	<g transform="translate(63.6,423.0)" stroke="none" fill="black" font-family="Helvetica" font-size="12.00"  text-anchor="end">
		<text><tspan font-family="Helvetica" > 2</tspan></text>
	</g>
</g>
<g fill="none" color="black" stroke="currentColor" stroke-width="1.00" stroke-linecap="butt" stroke-linejoin="miter">
	<path stroke='black'  d='M71.9,358.2 L80.9,358.2  '/>	<g transform="translate(63.6,362.1)" stroke="none" fill="black" font-family="Helvetica" font-size="12.00"  text-anchor="end">
		<text><tspan font-family="Helvetica" > 2.5</tspan></text>
	</g>
</g>
<g fill="none" color="black" stroke="currentColor" stroke-width="1.00" stroke-linecap="butt" stroke-linejoin="miter">
	<path stroke='black'  d='M71.9,297.4 L80.9,297.4  '/>	<g transform="translate(63.6,301.3)" stroke="none" fill="black" font-family="Helvetica" font-size="12.00"  text-anchor="end">
		<text><tspan font-family="Helvetica" > 3</tspan></text>
	</g>
</g>
<g fill="none" color="black" stroke="currentColor" stroke-width="1.00" stroke-linecap="butt" stroke-linejoin="miter">
	<path stroke='black'  d='M71.9,236.6 L80.9,236.6  '/>	<g transform="translate(63.6,240.5)" stroke="none" fill="black" font-family="Helvetica" font-size="12.00"  text-anchor="end">
		<text><tspan font-family="Helvetica" > 3.5</tspan></text>
	</g>
</g>
<g fill="none" color="black" stroke="currentColor" stroke-width="1.00" stroke-linecap="butt" stroke-linejoin="miter">
	<path stroke='black'  d='M71.9,175.8 L80.9,175.8  '/>	<g transform="translate(63.6,179.7)" stroke="none" fill="black" font-family="Helvetica" font-size="12.00"  text-anchor="end">
		<text><tspan font-family="Helvetica" > 4</tspan></text>
	</g>
</g>
<g fill="none" color="black" stroke="currentColor" stroke-width="1.00" stroke-linecap="butt" stroke-linejoin="miter">
	<path stroke='black'  d='M71.9,114.9 L80.9,114.9  '/>	<g transform="translate(63.6,118.8)" stroke="none" fill="black" font-family="Helvetica" font-size="12.00"  text-anchor="end">
		<text><tspan font-family="Helvetica" > 4.5</tspan></text>
	</g>
</g>
<g fill="none" color="black" stroke="currentColor" stroke-width="1.00" stroke-linecap="butt" stroke-linejoin="miter">
	<path stroke='black'  d='M71.9,54.1 L80.9,54.1  '/>	<g transform="translate(63.6,58.0)" stroke="none" fill="black" font-family="Helvetica" font-size="12.00"  text-anchor="end">
		<text><tspan font-family="Helvetica" > 5</tspan></text>
	</g>
</g>
<g fill="none" color="black" stroke="currentColor" stroke-width="1.00" stroke-linecap="butt" stroke-linejoin="miter">
	<path stroke='black'  d='M157.0,662.4 L157.0,653.4  '/>	<g transform="translate(157.0,684.3)" stroke="none" fill="black" font-family="Helvetica" font-size="12.00"  text-anchor="middle">
		<text><tspan font-family="Helvetica" > 52.6</tspan></text>
	</g>
</g>
<g fill="none" color="black" stroke="currentColor" stroke-width="1.00" stroke-linecap="butt" stroke-linejoin="miter">
	<path stroke='black'  d='M274.1,662.4 L274.1,653.4  '/>	<g transform="translate(274.1,684.3)" stroke="none" fill="black" font-family="Helvetica" font-size="12.00"  text-anchor="middle">
		<text><tspan font-family="Helvetica" > 52.65</tspan></text>
	</g>
</g>
<g fill="none" color="black" stroke="currentColor" stroke-width="1.00" stroke-linecap="butt" stroke-linejoin="miter">
	<path stroke='black'  d='M391.2,662.4 L391.2,653.4  '/>	<g transform="translate(391.2,684.3)" stroke="none" fill="black" font-family="Helvetica" font-size="12.00"  text-anchor="middle">
		<text><tspan font-family="Helvetica" > 52.7</tspan></text>
	</g>
</g>
<g fill="none" color="black" stroke="currentColor" stroke-width="1.00" stroke-linecap="butt" stroke-linejoin="miter">
	<path stroke='black'  d='M508.3,662.4 L508.3,653.4  '/>	<g transform="translate(508.3,684.3)" stroke="none" fill="black" font-family="Helvetica" font-size="12.00"  text-anchor="middle">
		<text><tspan font-family="Helvetica" > 52.75</tspan></text>
	</g>
</g>
<g fill="none" color="black" stroke="currentColor" stroke-width="1.00" stroke-linecap="butt" stroke-linejoin="miter">
	<path stroke='black'  d='M625.5,662.4 L625.5,653.4  '/>	<g transform="translate(625.5,684.3)" stroke="none" fill="black" font-family="Helvetica" font-size="12.00"  text-anchor="middle">
		<text><tspan font-family="Helvetica" > 52.8</tspan></text>
	</g>
</g>
<g fill="none" color="black" stroke="currentColor" stroke-width="1.00" stroke-linecap="butt" stroke-linejoin="miter">
	<path stroke='black'  d='M742.6,662.4 L742.6,653.4  '/>	<g transform="translate(742.6,684.3)" stroke="none" fill="black" font-family="Helvetica" font-size="12.00"  text-anchor="middle">
		<text><tspan font-family="Helvetica" > 52.85</tspan></text>
	</g>
</g>
<g fill="none" color="black" stroke="currentColor" stroke-width="1.00" stroke-linecap="butt" stroke-linejoin="miter">
	<path stroke='black'  d='M859.7,662.4 L859.7,653.4  '/>	<g transform="translate(859.7,684.3)" stroke="none" fill="black" font-family="Helvetica" font-size="12.00"  text-anchor="middle">
		<text><tspan font-family="Helvetica" > 52.9</tspan></text>
	</g>
</g>
<g fill="none" color="black" stroke="currentColor" stroke-width="1.00" stroke-linecap="butt" stroke-linejoin="miter">
	<path stroke='black'  d='M976.8,662.4 L976.8,653.4  '/>	<g transform="translate(976.8,684.3)" stroke="none" fill="black" font-family="Helvetica" font-size="12.00"  text-anchor="middle">
		<text><tspan font-family="Helvetica" > 52.95</tspan></text>
	</g>
</g>
<g fill="none" color="black" stroke="currentColor" stroke-width="1.00" stroke-linecap="butt" stroke-linejoin="miter">
</g>
<g fill="none" color="black" stroke="currentColor" stroke-width="1.00" stroke-linecap="butt" stroke-linejoin="miter">
	<path stroke='black'  d='M71.9,54.1 L71.9,662.4 L1013.6,662.4 L1013.6,54.1 L71.9,54.1 Z  '/></g>
<g fill="none" color="black" stroke="currentColor" stroke-width="1.00" stroke-linecap="butt" stroke-linejoin="miter">
	<g transform="translate(16.3,358.3) rotate(270)" stroke="none" fill="black" font-family="Helvetica" font-size="12.00"  text-anchor="middle">
		<text><tspan font-family="Helvetica" >Density (a.u.)</tspan></text>
	</g>
</g>
<g fill="none" color="black" stroke="currentColor" stroke-width="1.00" stroke-linecap="butt" stroke-linejoin="miter">
	<g transform="translate(542.7,711.3)" stroke="none" fill="black" font-family="Helvetica" font-size="12.00"  text-anchor="middle">
		<text><tspan font-family="Helvetica" >Average time (us)</tspan></text>
	</g>
</g>
<g fill="none" color="black" stroke="currentColor" stroke-width="1.00" stroke-linecap="butt" stroke-linejoin="miter">
	<g transform="translate(542.7,31.0)" stroke="none" fill="black" font-family="Helvetica" font-size="12.00"  text-anchor="middle">
		<text><tspan font-family="Helvetica" >snapshot_restore_with_dense/Sparse: Entire region + process_vm_writev/10: mean</tspan></text>
	</g>
</g>
	<g id="gnuplot_plot_1" ><title>Bootstrap distribution</title>
<g fill="none" color="white" stroke="black" stroke-width="2.00" stroke-linecap="butt" stroke-linejoin="miter">
</g>
<g fill="none" color="black" stroke="currentColor" stroke-width="2.00" stroke-linecap="butt" stroke-linejoin="miter">
	<g transform="translate(1089.0,67.0)" stroke="none" fill="black" font-family="Helvetica" font-size="12.00"  text-anchor="start">
		<text><tspan font-family="Helvetica" >Bootstrap distribution</tspan></text>
	</g>
</g>
<g fill="none" color="black" stroke="currentColor" stroke-width="2.00" stroke-linecap="butt" stroke-linejoin="miter">
	<path stroke='rgb( 31, 120, 180)'  d='M1038.5,63.1 L1080.7,63.1 M71.9,628.9 L73.8,627.6 L75.7,626.3 L77.6,625.1 L79.4,623.8 L81.3,622.4
		L83.2,621.1 L85.1,619.7 L87.0,618.3 L88.9,616.9 L90.8,615.5 L92.7,614.0 L94.5,612.5 L96.4,610.9
		L98.3,609.4 L100.2,607.8 L102.1,606.1 L104.0,604.4 L105.9,602.7 L107.8,600.9 L109.6,599.1 L111.5,597.2
		L113.4,595.3 L115.3,593.3 L117.2,591.2 L119.1,589.1 L121.0,587.0 L122.9,584.7 L124.7,582.5 L126.6,580.1
		L128.5,577.7 L130.4,575.3 L132.3,572.7 L134.2,570.2 L136.1,567.5 L138.0,564.8 L139.8,562.1 L141.7,559.3
		L143.6,556.5 L145.5,553.6 L147.4,550.8 L149.3,547.8 L151.2,544.9 L153.0,541.9 L154.9,538.9 L156.8,535.9
		L158.7,532.9 L160.6,529.8 L162.5,526.7 L164.4,523.7 L166.3,520.6 L168.1,517.5 L170.0,514.3 L171.9,511.2
		L173.8,508.0 L175.7,504.8 L177.6,501.6 L179.5,498.4 L181.4,495.1 L183.2,491.8 L185.1,488.4 L187.0,485.0
		L188.9,481.5 L190.8,478.0 L192.7,474.5 L194.6,470.9 L196.5,467.2 L198.3,463.5 L200.2,459.8 L202.1,456.0
		L204.0,452.2 L205.9,448.4 L207.8,444.5 L209.7,440.6 L211.6,436.8 L213.4,432.9 L215.3,429.0 L217.2,425.1
		L219.1,421.2 L221.0,417.3 L222.9,413.4 L224.8,409.6 L226.6,405.8 L228.5,402.0 L230.4,398.2 L232.3,394.4
		L234.2,390.6 L236.1,386.9 L238.0,383.2 L239.9,379.4 L241.7,375.7 L243.6,372.0 L245.5,368.2 L247.4,364.4
		L249.3,360.7 L251.2,356.9 L253.1,353.1 L255.0,349.2 L256.8,345.4 L258.7,341.5 L260.6,337.6 L262.5,333.7
		L264.4,329.8 L266.3,325.8 L268.2,321.9 L270.1,317.9 L271.9,313.9 L273.8,309.9 L275.7,305.9 L277.6,301.9
		L279.5,297.8 L281.4,293.8 L283.3,289.7 L285.2,285.7 L287.0,281.6 L288.9,277.5 L290.8,273.4 L292.7,269.3
		L294.6,265.2 L296.5,261.2 L298.4,257.1 L300.2,253.0 L302.1,248.9 L304.0,244.8 L305.9,240.8 L307.8,236.8
		L309.7,232.8 L311.6,228.8 L313.5,224.9 L315.3,221.0 L317.2,217.2 L319.1,213.4 L321.0,209.7 L322.9,206.0
		L324.8,202.4 L326.7,198.9 L328.6,195.4 L330.4,192.0 L332.3,188.7 L334.2,185.4 L336.1,182.3 L338.0,179.2
		L339.9,176.1 L341.8,173.2 L343.7,170.3 L345.5,167.5 L347.4,164.7 L349.3,162.1 L351.2,159.5 L353.1,156.9
		L355.0,154.5 L356.9,152.0 L358.8,149.7 L360.6,147.4 L362.5,145.1 L364.4,142.9 L366.3,140.8 L368.2,138.7
		L370.1,136.6 L372.0,134.5 L373.8,132.5 L375.7,130.5 L377.6,128.5 L379.5,126.5 L381.4,124.5 L383.3,122.6
		L385.2,120.7 L387.1,118.8 L388.9,116.9 L390.8,115.0 L392.7,113.2 L394.6,111.4 L396.5,109.6 L398.4,107.8
		L400.3,106.1 L402.2,104.4 L404.0,102.8 L405.9,101.2 L407.8,99.7 L409.7,98.2 L411.6,96.8 L413.5,95.5
		L415.4,94.2 L417.3,93.0 L419.1,91.9 L421.0,90.8 L422.9,89.8 L424.8,88.9 L426.7,88.0 L428.6,87.2
		L430.5,86.4 L432.4,85.8 L434.2,85.1 L436.1,84.6 L438.0,84.0 L439.9,83.6 L441.8,83.1 L443.7,82.8
		L445.6,82.4 L447.4,82.1 L449.3,81.8 L451.2,81.5 L453.1,81.3 L455.0,81.1 L456.9,80.9 L458.8,80.7
		L460.7,80.6 L462.5,80.4 L464.4,80.3 L466.3,80.3 L468.2,80.2 L470.1,80.2 L472.0,80.2 L473.9,80.3
		L475.8,80.4 L477.6,80.6 L479.5,80.8 L481.4,81.1 L483.3,81.5 L485.2,81.9 L487.1,82.5 L489.0,83.1
		L490.9,83.8 L492.7,84.7 L494.6,85.6 L496.5,86.7 L498.4,87.8 L500.3,89.1 L502.2,90.5 L504.1,92.0
		L506.0,93.6 L507.8,95.3 L509.7,97.2 L511.6,99.1 L513.5,101.0 L515.4,103.1 L517.3,105.2 L519.2,107.4
		L521.0,109.7 L522.9,112.0 L524.8,114.4 L526.7,116.8 L528.6,119.2 L530.5,121.7 L532.4,124.2 L534.3,126.8
		L536.1,129.3 L538.0,131.9 L539.9,134.6 L541.8,137.3 L543.7,140.0 L545.6,142.7 L547.5,145.4 L549.4,148.2
		L551.2,151.0 L553.1,153.8 L555.0,156.6 L556.9,159.4 L558.8,162.2 L560.7,165.0 L562.6,167.8 L564.5,170.6
		L566.3,173.3 L568.2,176.0 L570.1,178.7 L572.0,181.3 L573.9,183.9 L575.8,186.5 L577.7,189.0 L579.5,191.5
		L581.4,193.9 L583.3,196.2 L585.2,198.6 L587.1,200.9 L589.0,203.1 L590.9,205.4 L592.8,207.6 L594.6,209.8
		L596.5,212.0 L598.4,214.1 L600.3,216.3 L602.2,218.5 L604.1,220.8 L606.0,223.0 L607.9,225.3 L609.7,227.6
		L611.6,230.0 L613.5,232.5 L615.4,235.0 L617.3,237.5 L619.2,240.1 L621.1,242.8 L623.0,245.6 L624.8,248.4
		L626.7,251.3 L628.6,254.3 L630.5,257.3 L632.4,260.3 L634.3,263.4 L636.2,266.6 L638.1,269.7 L639.9,272.9
		L641.8,276.1 L643.7,279.3 L645.6,282.5 L647.5,285.7 L649.4,288.9 L651.3,292.0 L653.1,295.1 L655.0,298.2
		L656.9,301.3 L658.8,304.3 L660.7,307.3 L662.6,310.2 L664.5,313.1 L666.4,316.0 L668.2,318.9 L670.1,321.8
		L672.0,324.6 L673.9,327.5 L675.8,330.4 L677.7,333.2 L679.6,336.1 L681.5,339.0 L683.3,341.8 L685.2,344.7
		L687.1,347.6 L689.0,350.5 L690.9,353.4 L692.8,356.2 L694.7,359.1 L696.6,361.9 L698.4,364.7 L700.3,367.4
		L702.2,370.1 L704.1,372.8 L706.0,375.4 L707.9,378.0 L709.8,380.6 L711.7,383.1 L713.5,385.6 L715.4,388.0
		L717.3,390.5 L719.2,392.9 L721.1,395.3 L723.0,397.7 L724.9,400.1 L726.7,402.5 L728.6,404.9 L730.5,407.3
		L732.4,409.8 L734.3,412.2 L736.2,414.7 L738.1,417.2 L740.0,419.6 L741.8,422.1 L743.7,424.6 L745.6,427.1
		L747.5,429.7 L749.4,432.1 L751.3,434.6 L753.2,437.1 L755.1,439.6 L756.9,442.0 L758.8,444.5 L760.7,446.9
		L762.6,449.3 L764.5,451.6 L766.4,453.9 L768.3,456.3 L770.2,458.5 L772.0,460.8 L773.9,463.0 L775.8,465.3
		L777.7,467.5 L779.6,469.6 L781.5,471.8 L783.4,473.9 L785.3,476.0 L787.1,478.1 L789.0,480.2 L790.9,482.3
		L792.8,484.3 L794.7,486.4 L796.6,488.4 L798.5,490.4 L800.3,492.4 L802.2,494.5 L804.1,496.5 L806.0,498.5
		L807.9,500.5 L809.8,502.4 L811.7,504.4 L813.6,506.4 L815.4,508.4 L817.3,510.3 L819.2,512.3 L821.1,514.2
		L823.0,516.2 L824.9,518.1 L826.8,520.0 L828.7,521.9 L830.5,523.8 L832.4,525.6 L834.3,527.5 L836.2,529.3
		L838.1,531.1 L840.0,532.9 L841.9,534.6 L843.8,536.4 L845.6,538.1 L847.5,539.8 L849.4,541.5 L851.3,543.2
		L853.2,544.8 L855.1,546.5 L857.0,548.1 L858.9,549.7 L860.7,551.3 L862.6,552.9 L864.5,554.5 L866.4,556.0
		L868.3,557.5 L870.2,559.1 L872.1,560.6 L873.9,562.1 L875.8,563.5 L877.7,565.0 L879.6,566.4 L881.5,567.9
		L883.4,569.3 L885.3,570.7 L887.2,572.1 L889.0,573.4 L890.9,574.8 L892.8,576.1 L894.7,577.4 L896.6,578.7
		L898.5,580.0 L900.4,581.3 L902.3,582.5 L904.1,583.8 L906.0,585.0 L907.9,586.2 L909.8,587.3 L911.7,588.5
		L913.6,589.6 L915.5,590.7 L917.4,591.8 L919.2,592.9 L921.1,593.9 L923.0,595.0 L924.9,596.0 L926.8,597.0
		L928.7,598.0 L930.6,598.9 L932.5,599.9 L934.3,600.8 L936.2,601.7 L938.1,602.6 L940.0,603.5 L941.9,604.4
		L943.8,605.3 L945.7,606.2 L947.5,607.0 L949.4,607.8 L951.3,608.6 L953.2,609.4 L955.1,610.2 L957.0,611.0
		L958.9,611.7 L960.8,612.4 L962.6,613.1 L964.5,613.8 L966.4,614.4 L968.3,615.1 L970.2,615.7 L972.1,616.3
		L974.0,616.9 L975.9,617.5 L977.7,618.1 L979.6,618.7 L981.5,619.2 L983.4,619.8 L985.3,620.4 L987.2,621.0
		L989.1,621.5 L991.0,622.1 L992.8,622.7 L994.7,623.3 L996.6,623.9 L998.5,624.5 L1000.4,625.2 L1002.3,625.8
		L1004.2,626.5 L1006.1,627.1 L1007.9,627.8 L1009.8,628.5 L1011.7,629.1 L1013.6,629.8  '/></g>
	</g>
	<g id="gnuplot_plot_2" ><title>Confidence interval</title>
<g fill="none" color="white" stroke="rgb( 31, 120, 180)" stroke-width="1.00" stroke-linecap="butt" stroke-linejoin="miter">
</g>
<g fill="none" color="black" stroke="currentColor" stroke-width="1.00" stroke-linecap="butt" stroke-linejoin="miter">
	<g transform="translate(1089.0,85.0)" stroke="none" fill="black" font-family="Helvetica" font-size="12.00"  text-anchor="start">
		<text><tspan font-family="Helvetica" >Confidence interval</tspan></text>
	</g>
</g>
<g fill="none" color="black" stroke="currentColor" stroke-width="1.00" stroke-linecap="butt" stroke-linejoin="miter">
	<g stroke='none' shape-rendering='crispEdges'>
		<polygon fill = 'rgb( 31, 120, 180)' fill-opacity = '0.250000' points = '1038.5,85.6 1080.7,85.6 1080.7,76.6 1038.5,76.6 '/>
		<polygon fill = 'rgb( 31, 120, 180)' fill-opacity = '0.250000' points = '158.7,532.9 160.6,529.8 162.5,526.7 164.4,523.7 166.3,520.6 168.1,517.5 170.0,514.3 171.9,511.2 173.8,508.0 175.7,504.8 177.6,501.6 179.5,498.4 181.4,495.1 183.2,491.8 185.1,488.4 187.0,485.0
188.9,481.5 190.8,478.0 192.7,474.5 194.6,470.9 196.5,467.2 198.3,463.5 200.2,459.8 202.1,456.0 204.0,452.2 205.9,448.4 207.8,444.5 209.7,440.6 211.6,436.8 213.4,432.9 215.3,429.0 217.2,425.1
219.1,421.2 221.0,417.3 222.9,413.4 224.8,409.6 226.6,405.8 228.5,402.0 230.4,398.2 232.3,394.4 234.2,390.6 236.1,386.9 238.0,383.2 239.9,379.4 241.7,375.7 243.6,372.0 245.5,368.2 247.4,364.4
249.3,360.7 251.2,356.9 253.1,353.1 255.0,349.2 256.8,345.4 258.7,341.5 260.6,337.6 262.5,333.7 264.4,329.8 266.3,325.8 268.2,321.9 270.1,317.9 271.9,313.9 273.8,309.9 275.7,305.9 277.6,301.9
279.5,297.8 281.4,293.8 283.3,289.7 285.2,285.7 287.0,281.6 288.9,277.5 290.8,273.4 292.7,269.3 294.6,265.2 296.5,261.2 298.4,257.1 300.2,253.0 302.1,248.9 304.0,244.8 305.9,240.8 307.8,236.8
309.7,232.8 311.6,228.8 313.5,224.9 315.3,221.0 317.2,217.2 319.1,213.4 321.0,209.7 322.9,206.0 324.8,202.4 326.7,198.9 328.6,195.4 330.4,192.0 332.3,188.7 334.2,185.4 336.1,182.3 338.0,179.2
339.9,176.1 341.8,173.2 343.7,170.3 345.5,167.5 347.4,164.7 349.3,162.1 351.2,159.5 353.1,156.9 355.0,154.5 356.9,152.0 358.8,149.7 360.6,147.4 362.5,145.1 364.4,142.9 366.3,140.8 368.2,138.7
370.1,136.6 372.0,134.5 373.8,132.5 375.7,130.5 377.6,128.5 379.5,126.5 381.4,124.5 383.3,122.6 385.2,120.7 387.1,118.8 388.9,116.9 390.8,115.0 392.7,113.2 394.6,111.4 396.5,109.6 398.4,107.8
400.3,106.1 402.2,104.4 404.0,102.8 405.9,101.2 407.8,99.7 409.7,98.2 411.6,96.8 413.5,95.5 415.4,94.2 417.3,93.0 419.1,91.9 421.0,90.8 422.9,89.8 424.8,88.9 426.7,88.0 428.6,87.2
430.5,86.4 432.4,85.8 434.2,85.1 436.1,84.6 438.0,84.0 439.9,83.6 441.8,83.1 443.7,82.8 445.6,82.4 447.4,82.1 449.3,81.8 451.2,81.5 453.1,81.3 455.0,81.1 456.9,80.9 458.8,80.7
460.7,80.6 462.5,80.4 464.4,80.3 466.3,80.3 468.2,80.2 470.1,80.2 472.0,80.2 473.9,80.3 475.8,80.4 477.6,80.6 479.5,80.8 481.4,81.1 483.3,81.5 485.2,81.9 487.1,82.5 489.0,83.1
490.9,83.8 492.7,84.7 494.6,85.6 496.5,86.7 498.4,87.8 500.3,89.1 502.2,90.5 504.1,92.0 506.0,93.6 507.8,95.3 509.7,97.2 511.6,99.1 513.5,101.0 515.4,103.1 517.3,105.2 519.2,107.4
521.0,109.7 522.9,112.0 524.8,114.4 526.7,116.8 528.6,119.2 530.5,121.7 532.4,124.2 534.3,126.8 536.1,129.3 538.0,131.9 539.9,134.6 541.8,137.3 543.7,140.0 545.6,142.7 547.5,145.4 549.4,148.2
551.2,151.0 553.1,153.8 555.0,156.6 556.9,159.4 558.8,162.2 560.7,165.0 562.6,167.8 564.5,170.6 566.3,173.3 568.2,176.0 570.1,178.7 572.0,181.3 573.9,183.9 575.8,186.5 577.7,189.0 579.5,191.5
581.4,193.9 583.3,196.2 585.2,198.6 587.1,200.9 589.0,203.1 590.9,205.4 592.8,207.6 594.6,209.8 596.5,212.0 598.4,214.1 600.3,216.3 602.2,218.5 604.1,220.8 606.0,223.0 607.9,225.3 609.7,227.6
611.6,230.0 613.5,232.5 615.4,235.0 617.3,237.5 619.2,240.1 621.1,242.8 623.0,245.6 624.8,248.4 626.7,251.3 628.6,254.3 630.5,257.3 632.4,260.3 634.3,263.4 636.2,266.6 638.1,269.7 639.9,272.9
641.8,276.1 643.7,279.3 645.6,282.5 647.5,285.7 649.4,288.9 651.3,292.0 653.1,295.1 655.0,298.2 656.9,301.3 658.8,304.3 660.7,307.3 662.6,310.2 664.5,313.1 666.4,316.0 668.2,318.9 670.1,321.8
672.0,324.6 673.9,327.5 675.8,330.4 677.7,333.2 679.6,336.1 681.5,339.0 683.3,341.8 685.2,344.7 687.1,347.6 689.0,350.5 690.9,353.4 692.8,356.2 694.7,359.1 696.6,361.9 698.4,364.7 700.3,367.4
702.2,370.1 704.1,372.8 706.0,375.4 707.9,378.0 709.8,380.6 711.7,383.1 713.5,385.6 715.4,388.0 717.3,390.5 719.2,392.9 721.1,395.3 723.0,397.7 724.9,400.1 726.7,402.5 728.6,404.9 730.5,407.3
732.4,409.8 734.3,412.2 736.2,414.7 738.1,417.2 740.0,419.6 741.8,422.1 743.7,424.6 745.6,427.1 747.5,429.7 749.4,432.1 751.3,434.6 753.2,437.1 755.1,439.6 756.9,442.0 758.8,444.5 760.7,446.9
762.6,449.3 764.5,451.6 766.4,453.9 768.3,456.3 770.2,458.5 772.0,460.8 773.9,463.0 775.8,465.3 777.7,467.5 779.6,469.6 781.5,471.8 783.4,473.9 785.3,476.0 787.1,478.1 789.0,480.2 790.9,482.3
792.8,484.3 794.7,486.4 796.6,488.4 798.5,490.4 800.3,492.4 802.2,494.5 804.1,496.5 806.0,498.5 807.9,500.5 809.8,502.4 811.7,504.4 813.6,506.4 815.4,508.4 817.3,510.3 819.2,512.3 821.1,514.2
823.0,516.2 824.9,518.1 826.8,520.0 828.7,521.9 830.5,523.8 832.4,525.6 834.3,527.5 836.2,529.3 838.1,531.1 840.0,532.9 841.9,534.6 843.8,536.4 845.6,538.1 847.5,539.8 849.4,541.5 851.3,543.2
853.2,544.8 855.1,546.5 857.0,548.1 858.9,549.7 860.7,551.3 862.6,552.9 864.5,554.5 866.4,556.0 868.3,557.5 870.2,559.1 872.1,560.6 873.9,562.1 875.8,563.5 877.7,565.0 879.6,566.4 881.5,567.9
883.4,569.3 885.3,570.7 887.2,572.1 889.0,573.4 890.9,574.8 892.8,576.1 894.7,577.4 896.6,578.7 898.5,580.0 900.4,581.3 902.3,582.5 904.1,583.8 906.0,585.0 907.9,586.2 909.8,587.3 911.7,588.5
913.6,589.6 915.5,590.7 917.4,591.8 919.2,592.9 921.1,593.9 923.0,595.0 924.9,596.0 924.9,662.4 923.0,662.4 921.1,662.4 919.2,662.4 917.4,662.4 915.5,662.4 913.6,662.4 911.7,662.4 909.8,662.4
907.9,662.4 906.0,662.4 904.1,662.4 902.3,662.4 900.4,662.4 898.5,662.4 896.6,662.4 894.7,662.4 892.8,662.4 890.9,662.4 889.0,662.4 887.2,662.4 885.3,662.4 883.4,662.4 881.5,662.4 879.6,662.4
877.7,662.4 875.8,662.4 873.9,662.4 872.1,662.4 870.2,662.4 868.3,662.4 866.4,662.4 864.5,662.4 862.6,662.4 860.7,662.4 858.9,662.4 857.0,662.4 855.1,662.4 853.2,662.4 851.3,662.4 849.4,662.4
847.5,662.4 845.6,662.4 843.8,662.4 841.9,662.4 840.0,662.4 838.1,662.4 836.2,662.4 834.3,662.4 832.4,662.4 830.5,662.4 828.7,662.4 826.8,662.4 824.9,662.4 823.0,662.4 821.1,662.4 819.2,662.4
817.3,662.4 815.4,662.4 813.6,662.4 811.7,662.4 809.8,662.4 807.9,662.4 806.0,662.4 804.1,662.4 802.2,662.4 800.3,662.4 798.5,662.4 796.6,662.4 794.7,662.4 792.8,662.4 790.9,662.4 789.0,662.4
787.1,662.4 785.3,662.4 783.4,662.4 781.5,662.4 779.6,662.4 777.7,662.4 775.8,662.4 773.9,662.4 772.0,662.4 770.2,662.4 768.3,662.4 766.4,662.4 764.5,662.4 762.6,662.4 760.7,662.4 758.8,662.4
756.9,662.4 755.1,662.4 753.2,662.4 751.3,662.4 749.4,662.4 747.5,662.4 745.6,662.4 743.7,662.4 741.8,662.4 740.0,662.4 738.1,662.4 736.2,662.4 734.3,662.4 732.4,662.4 730.5,662.4 728.6,662.4
726.7,662.4 724.9,662.4 723.0,662.4 721.1,662.4 719.2,662.4 717.3,662.4 715.4,662.4 713.5,662.4 711.7,662.4 709.8,662.4 707.9,662.4 706.0,662.4 704.1,662.4 702.2,662.4 700.3,662.4 698.4,662.4
696.6,662.4 694.7,662.4 692.8,662.4 690.9,662.4 689.0,662.4 687.1,662.4 685.2,662.4 683.3,662.4 681.5,662.4 679.6,662.4 677.7,662.4 675.8,662.4 673.9,662.4 672.0,662.4 670.1,662.4 668.2,662.4
666.4,662.4 664.5,662.4 662.6,662.4 660.7,662.4 658.8,662.4 656.9,662.4 655.0,662.4 653.1,662.4 651.3,662.4 649.4,662.4 647.5,662.4 645.6,662.4 643.7,662.4 641.8,662.4 639.9,662.4 638.1,662.4
636.2,662.4 634.3,662.4 632.4,662.4 630.5,662.4 628.6,662.4 626.7,662.4 624.8,662.4 623.0,662.4 621.1,662.4 619.2,662.4 617.3,662.4 615.4,662.4 613.5,662.4 611.6,662.4 609.7,662.4 607.9,662.4
606.0,662.4 604.1,662.4 602.2,662.4 600.3,662.4 598.4,662.4 596.5,662.4 594.6,662.4 592.8,662.4 590.9,662.4 589.0,662.4 587.1,662.4 585.2,662.4 583.3,662.4 581.4,662.4 579.5,662.4 577.7,662.4
575.8,662.4 573.9,662.4 572.0,662.4 570.1,662.4 568.2,662.4 566.3,662.4 564.5,662.4 562.6,662.4 560.7,662.4 558.8,662.4 556.9,662.4 555.0,662.4 553.1,662.4 551.2,662.4 549.4,662.4 547.5,662.4
545.6,662.4 543.7,662.4 541.8,662.4 539.9,662.4 538.0,662.4 536.1,662.4 534.3,662.4 532.4,662.4 530.5,662.4 528.6,662.4 526.7,662.4 524.8,662.4 522.9,662.4 521.0,662.4 519.2,662.4 517.3,662.4
515.4,662.4 513.5,662.4 511.6,662.4 509.7,662.4 507.8,662.4 506.0,662.4 504.1,662.4 502.2,662.4 500.3,662.4 498.4,662.4 496.5,662.4 494.6,662.4 492.7,662.4 490.9,662.4 489.0,662.4 487.1,662.4
485.2,662.4 483.3,662.4 481.4,662.4 479.5,662.4 477.6,662.4 475.8,662.4 473.9,662.4 472.0,662.4 470.1,662.4 468.2,662.4 466.3,662.4 464.4,662.4 462.5,662.4 460.7,662.4 458.8,662.4 456.9,662.4
455.0,662.4 453.1,662.4 451.2,662.4 449.3,662.4 447.4,662.4 445.6,662.4 443.7,662.4 441.8,662.4 439.9,662.4 438.0,662.4 436.1,662.4 434.2,662.4 432.4,662.4 430.5,662.4 428.6,662.4 426.7,662.4
424.8,662.4 422.9,662.4 421.0,662.4 419.1,662.4 417.3,662.4 415.4,662.4 413.5,662.4 411.6,662.4 409.7,662.4 407.8,662.4 405.9,662.4 404.0,662.4 402.2,662.4 400.3,662.4 398.4,662.4 396.5,662.4
394.6,662.4 392.7,662.4 390.8,662.4 388.9,662.4 387.1,662.4 385.2,662.4 383.3,662.4 381.4,662.4 379.5,662.4 377.6,662.4 375.7,662.4 373.8,662.4 372.0,662.4 370.1,662.4 368.2,662.4 366.3,662.4
364.4,662.4 362.5,662.4 360.6,662.4 358.8,662.4 356.9,662.4 355.0,662.4 353.1,662.4 351.2,662.4 349.3,662.4 347.4,662.4 345.5,662.4 343.7,662.4 341.8,662.4 339.9,662.4 338.0,662.4 336.1,662.4
334.2,662.4 332.3,662.4 330.4,662.4 328.6,662.4 326.7,662.4 324.8,662.4 322.9,662.4 321.0,662.4 319.1,662.4 317.2,662.4 315.3,662.4 313.5,662.4 311.6,662.4 309.7,662.4 307.8,662.4 305.9,662.4
304.0,662.4 302.1,662.4 300.2,662.4 298.4,662.4 296.5,662.4 294.6,662.4 292.7,662.4 290.8,662.4 288.9,662.4 287.0,662.4 285.2,662.4 283.3,662.4 281.4,662.4 279.5,662.4 277.6,662.4 275.7,662.4
273.8,662.4 271.9,662.4 270.1,662.4 268.2,662.4 266.3,662.4 264.4,662.4 262.5,662.4 260.6,662.4 258.7,662.4 256.8,662.4 255.0,662.4 253.1,662.4 251.2,662.4 249.3,662.4 247.4,662.4 245.5,662.4
243.6,662.4 241.7,662.4 239.9,662.4 238.0,662.4 236.1,662.4 234.2,662.4 232.3,662.4 230.4,662.4 228.5,662.4 226.6,662.4 224.8,662.4 222.9,662.4 221.0,662.4 219.1,662.4 217.2,662.4 215.3,662.4
213.4,662.4 211.6,662.4 209.7,662.4 207.8,662.4 205.9,662.4 204.0,662.4 202.1,662.4 200.2,662.4 198.3,662.4 196.5,662.4 194.6,662.4 192.7,662.4 190.8,662.4 188.9,662.4 187.0,662.4 185.1,662.4
183.2,662.4 181.4,662.4 179.5,662.4 177.6,662.4 175.7,662.4 173.8,662.4 171.9,662.4 170.0,662.4 168.1,662.4 166.3,662.4 164.4,662.4 162.5,662.4 160.6,662.4 158.7,662.4 '/>
	</g>
</g>
	</g>
	<g id="gnuplot_plot_3" ><title>Point estimate</title>
<g fill="none" color="white" stroke="rgb( 31, 120, 180)" stroke-width="2.00" stroke-linecap="butt" stroke-linejoin="miter">
</g>
<g fill="none" color="black" stroke="currentColor" stroke-width="2.00" stroke-linecap="butt" stroke-linejoin="miter">
	<g transform="translate(1089.0,103.0)" stroke="none" fill="black" font-family="Helvetica" font-size="12.00"  text-anchor="start">
		<text><tspan font-family="Helvetica" >Point estimate</tspan></text>
	</g>
</g>
<g fill="none" color="black" stroke="currentColor" stroke-width="2.00" stroke-linecap="butt" stroke-linejoin="miter">
	<path stroke='rgb( 31, 120, 180)'  d='M1038.5,99.1 L1080.7,99.1 M499.2,662.4 L499.2,88.4  '/></g>
	</g>
<g fill="none" color="black" stroke="currentColor" stroke-width="2.00" stroke-linecap="butt" stroke-linejoin="miter">
</g>
<g fill="none" color="black" stroke="black" stroke-width="1.00" stroke-linecap="butt" stroke-linejoin="miter">
</g>
<g fill="none" color="black" stroke="currentColor" stroke-width="1.00" stroke-linecap="butt" stroke-linejoin="miter">
	<path stroke='black'  d='M71.9,54.1 L71.9,662.4 L1013.6,662.4 L1013.6,54.1 L71.9,54.1 Z  '/></g>
<g fill="none" color="black" stroke="currentColor" stroke-width="1.00" stroke-linecap="butt" stroke-linejoin="miter">
</g>
</g>
</svg>

