<?xml version="1.0" encoding="utf-8"  standalone="no"?>
<svg 
 viewBox="0 0 450 300"
 xmlns="http://www.w3.org/2000/svg"
 xmlns:xlink="http://www.w3.org/1999/xlink"
>

<title>Gnuplot</title>
<desc>Produced by GNUPLOT 5.2 patchlevel 6 </desc>

<g id="gnuplot_canvas">

<rect x="0" y="0" width="450" height="300" fill="none"/>
<defs>

	<circle id='gpDot' r='0.5' stroke-width='0.5' stroke='currentColor'/>
	<path id='gpPt0' stroke-width='0.222' stroke='currentColor' d='M-1,0 h2 M0,-1 v2'/>
	<path id='gpPt1' stroke-width='0.222' stroke='currentColor' d='M-1,-1 L1,1 M1,-1 L-1,1'/>
	<path id='gpPt2' stroke-width='0.222' stroke='currentColor' d='M-1,0 L1,0 M0,-1 L0,1 M-1,-1 L1,1 M-1,1 L1,-1'/>
	<rect id='gpPt3' stroke-width='0.222' stroke='currentColor' x='-1' y='-1' width='2' height='2'/>
	<rect id='gpPt4' stroke-width='0.222' stroke='currentColor' fill='currentColor' x='-1' y='-1' width='2' height='2'/>
	<circle id='gpPt5' stroke-width='0.222' stroke='currentColor' cx='0' cy='0' r='1'/>
	<use xlink:href='#gpPt5' id='gpPt6' fill='currentColor' stroke='none'/>
	<path id='gpPt7' stroke-width='0.222' stroke='currentColor' d='M0,-1.33 L-1.33,0.67 L1.33,0.67 z'/>
	<use xlink:href='#gpPt7' id='gpPt8' fill='currentColor' stroke='none'/>
	<use xlink:href='#gpPt7' id='gpPt9' stroke='currentColor' transform='rotate(180)'/>
	<use xlink:href='#gpPt9' id='gpPt10' fill='currentColor' stroke='none'/>
	<use xlink:href='#gpPt3' id='gpPt11' stroke='currentColor' transform='rotate(45)'/>
	<use xlink:href='#gpPt11' id='gpPt12' fill='currentColor' stroke='none'/>
	<path id='gpPt13' stroke-width='0.222' stroke='currentColor' d='M0,1.330 L1.265,0.411 L0.782,-1.067 L-0.782,-1.076 L-1.265,0.411 z'/>
	<use xlink:href='#gpPt13' id='gpPt14' fill='currentColor' stroke='none'/>
	<filter id='textbox' filterUnits='objectBoundingBox' x='0' y='0' height='1' width='1'>
	  <feFlood flood-color='white' flood-opacity='1' result='bgnd'/>
	  <feComposite in='SourceGraphic' in2='bgnd' operator='atop'/>
	</filter>
	<filter id='greybox' filterUnits='objectBoundingBox' x='0' y='0' height='1' width='1'>
	  <feFlood flood-color='lightgrey' flood-opacity='1' result='grey'/>
	  <feComposite in='SourceGraphic' in2='grey' operator='atop'/>
	</filter>
</defs>
<g fill="none" color="white" stroke="currentColor" stroke-width="1.00" stroke-linecap="butt" stroke-linejoin="miter">
</g>
<g fill="none" color="black" stroke="currentColor" stroke-width="1.00" stroke-linecap="butt" stroke-linejoin="miter">
	<path stroke='black'  d='M71.9,242.4 L80.9,242.4  '/>	<g transform="translate(63.6,246.3)" stroke="none" fill="black" font-family="Helvetica" font-size="12.00"  text-anchor="end">
		<text><tspan font-family="Helvetica" > 0</tspan></text>
	</g>
</g>
<g fill="none" color="black" stroke="currentColor" stroke-width="1.00" stroke-linecap="butt" stroke-linejoin="miter">
	<path stroke='black'  d='M71.9,220.0 L80.9,220.0  '/>	<g transform="translate(63.6,223.9)" stroke="none" fill="black" font-family="Helvetica" font-size="12.00"  text-anchor="end">
		<text><tspan font-family="Helvetica" > 0.1</tspan></text>
	</g>
</g>
<g fill="none" color="black" stroke="currentColor" stroke-width="1.00" stroke-linecap="butt" stroke-linejoin="miter">
	<path stroke='black'  d='M71.9,197.5 L80.9,197.5  '/>	<g transform="translate(63.6,201.4)" stroke="none" fill="black" font-family="Helvetica" font-size="12.00"  text-anchor="end">
		<text><tspan font-family="Helvetica" > 0.2</tspan></text>
	</g>
</g>
<g fill="none" color="black" stroke="currentColor" stroke-width="1.00" stroke-linecap="butt" stroke-linejoin="miter">
	<path stroke='black'  d='M71.9,175.1 L80.9,175.1  '/>	<g transform="translate(63.6,179.0)" stroke="none" fill="black" font-family="Helvetica" font-size="12.00"  text-anchor="end">
		<text><tspan font-family="Helvetica" > 0.3</tspan></text>
	</g>
</g>
<g fill="none" color="black" stroke="currentColor" stroke-width="1.00" stroke-linecap="butt" stroke-linejoin="miter">
	<path stroke='black'  d='M71.9,152.7 L80.9,152.7  '/>	<g transform="translate(63.6,156.6)" stroke="none" fill="black" font-family="Helvetica" font-size="12.00"  text-anchor="end">
		<text><tspan font-family="Helvetica" > 0.4</tspan></text>
	</g>
</g>
<g fill="none" color="black" stroke="currentColor" stroke-width="1.00" stroke-linecap="butt" stroke-linejoin="miter">
	<path stroke='black'  d='M71.9,130.2 L80.9,130.2  '/>	<g transform="translate(63.6,134.1)" stroke="none" fill="black" font-family="Helvetica" font-size="12.00"  text-anchor="end">
		<text><tspan font-family="Helvetica" > 0.5</tspan></text>
	</g>
</g>
<g fill="none" color="black" stroke="currentColor" stroke-width="1.00" stroke-linecap="butt" stroke-linejoin="miter">
	<path stroke='black'  d='M71.9,107.8 L80.9,107.8  '/>	<g transform="translate(63.6,111.7)" stroke="none" fill="black" font-family="Helvetica" font-size="12.00"  text-anchor="end">
		<text><tspan font-family="Helvetica" > 0.6</tspan></text>
	</g>
</g>
<g fill="none" color="black" stroke="currentColor" stroke-width="1.00" stroke-linecap="butt" stroke-linejoin="miter">
	<path stroke='black'  d='M71.9,85.4 L80.9,85.4  '/>	<g transform="translate(63.6,89.3)" stroke="none" fill="black" font-family="Helvetica" font-size="12.00"  text-anchor="end">
		<text><tspan font-family="Helvetica" > 0.7</tspan></text>
	</g>
</g>
<g fill="none" color="black" stroke="currentColor" stroke-width="1.00" stroke-linecap="butt" stroke-linejoin="miter">
	<path stroke='black'  d='M71.9,63.0 L80.9,63.0  '/>	<g transform="translate(63.6,66.9)" stroke="none" fill="black" font-family="Helvetica" font-size="12.00"  text-anchor="end">
		<text><tspan font-family="Helvetica" > 0.8</tspan></text>
	</g>
</g>
<g fill="none" color="black" stroke="currentColor" stroke-width="1.00" stroke-linecap="butt" stroke-linejoin="miter">
	<path stroke='black'  d='M71.9,40.5 L80.9,40.5  '/>	<g transform="translate(63.6,44.4)" stroke="none" fill="black" font-family="Helvetica" font-size="12.00"  text-anchor="end">
		<text><tspan font-family="Helvetica" > 0.9</tspan></text>
	</g>
</g>
<g fill="none" color="black" stroke="currentColor" stroke-width="1.00" stroke-linecap="butt" stroke-linejoin="miter">
	<path stroke='black'  d='M71.9,18.1 L80.9,18.1  '/>	<g transform="translate(63.6,22.0)" stroke="none" fill="black" font-family="Helvetica" font-size="12.00"  text-anchor="end">
		<text><tspan font-family="Helvetica" > 1</tspan></text>
	</g>
</g>
<g fill="none" color="black" stroke="currentColor" stroke-width="1.00" stroke-linecap="butt" stroke-linejoin="miter">
	<path stroke='black'  d='M71.9,242.4 L71.9,233.4  '/>	<g transform="translate(71.9,264.3)" stroke="none" fill="black" font-family="Helvetica" font-size="12.00"  text-anchor="middle">
		<text><tspan font-family="Helvetica" > 50</tspan></text>
	</g>
</g>
<g fill="none" color="black" stroke="currentColor" stroke-width="1.00" stroke-linecap="butt" stroke-linejoin="miter">
	<path stroke='black'  d='M142.5,242.4 L142.5,233.4  '/>	<g transform="translate(142.5,264.3)" stroke="none" fill="black" font-family="Helvetica" font-size="12.00"  text-anchor="middle">
		<text><tspan font-family="Helvetica" > 55</tspan></text>
	</g>
</g>
<g fill="none" color="black" stroke="currentColor" stroke-width="1.00" stroke-linecap="butt" stroke-linejoin="miter">
	<path stroke='black'  d='M213.1,242.4 L213.1,233.4  '/>	<g transform="translate(213.1,264.3)" stroke="none" fill="black" font-family="Helvetica" font-size="12.00"  text-anchor="middle">
		<text><tspan font-family="Helvetica" > 60</tspan></text>
	</g>
</g>
<g fill="none" color="black" stroke="currentColor" stroke-width="1.00" stroke-linecap="butt" stroke-linejoin="miter">
	<path stroke='black'  d='M283.8,242.4 L283.8,233.4  '/>	<g transform="translate(283.8,264.3)" stroke="none" fill="black" font-family="Helvetica" font-size="12.00"  text-anchor="middle">
		<text><tspan font-family="Helvetica" > 65</tspan></text>
	</g>
</g>
<g fill="none" color="black" stroke="currentColor" stroke-width="1.00" stroke-linecap="butt" stroke-linejoin="miter">
	<path stroke='black'  d='M354.4,242.4 L354.4,233.4  '/>	<g transform="translate(354.4,264.3)" stroke="none" fill="black" font-family="Helvetica" font-size="12.00"  text-anchor="middle">
		<text><tspan font-family="Helvetica" > 70</tspan></text>
	</g>
</g>
<g fill="none" color="black" stroke="currentColor" stroke-width="1.00" stroke-linecap="butt" stroke-linejoin="miter">
	<path stroke='black'  d='M425.0,242.4 L425.0,233.4  '/>	<g transform="translate(425.0,264.3)" stroke="none" fill="black" font-family="Helvetica" font-size="12.00"  text-anchor="middle">
		<text><tspan font-family="Helvetica" > 75</tspan></text>
	</g>
</g>
<g fill="none" color="black" stroke="currentColor" stroke-width="1.00" stroke-linecap="butt" stroke-linejoin="miter">
</g>
<g fill="none" color="black" stroke="currentColor" stroke-width="1.00" stroke-linecap="butt" stroke-linejoin="miter">
	<path stroke='black'  d='M71.9,18.1 L71.9,242.4 L425.0,242.4 L425.0,18.1 L71.9,18.1 Z  '/></g>
<g fill="none" color="black" stroke="currentColor" stroke-width="1.00" stroke-linecap="butt" stroke-linejoin="miter">
	<g transform="translate(16.3,130.3) rotate(270)" stroke="none" fill="black" font-family="Helvetica" font-size="12.00"  text-anchor="middle">
		<text><tspan font-family="Helvetica" >Density (a.u.)</tspan></text>
	</g>
</g>
<g fill="none" color="black" stroke="currentColor" stroke-width="1.00" stroke-linecap="butt" stroke-linejoin="miter">
	<g transform="translate(248.4,291.3)" stroke="none" fill="black" font-family="Helvetica" font-size="12.00"  text-anchor="middle">
		<text><tspan font-family="Helvetica" >Average time (us)</tspan></text>
	</g>
</g>
<g fill="none" color="black" stroke="currentColor" stroke-width="1.00" stroke-linecap="butt" stroke-linejoin="miter">
</g>
	<g id="gnuplot_plot_1" ><title>Base PDF</title>
<g fill="none" color="black" stroke="currentColor" stroke-width="1.00" stroke-linecap="butt" stroke-linejoin="miter">
	<g stroke='none' shape-rendering='crispEdges'>
		<polygon fill = 'rgb(227,  26,  28)' fill-opacity = '0.500000' points = '72.5,242.0 73.1,241.9 73.7,241.9 74.2,241.8 74.8,241.6 75.4,241.5 75.9,241.3 76.5,241.2 77.1,240.9 77.7,240.7 78.2,240.4 78.8,240.1 79.4,239.7 80.0,239.3 80.5,238.9 81.1,238.4
81.7,237.8 82.2,237.1 82.8,236.4 83.4,235.6 84.0,234.7 84.5,233.7 85.1,232.6 85.7,231.5 86.3,230.2 86.8,228.8 87.4,227.2 88.0,225.6 88.5,223.8 89.1,221.9 89.7,219.9 90.3,217.7
90.8,215.5 91.4,213.0 92.0,210.5 92.6,207.8 93.1,205.1 93.7,202.2 94.3,199.2 94.8,196.1 95.4,192.9 96.0,189.7 96.6,186.4 97.1,183.1 97.7,179.8 98.3,176.4 98.9,173.1 99.4,169.8
100.0,166.6 100.6,163.5 101.1,160.4 101.7,157.5 102.3,154.7 102.9,152.1 103.4,149.6 104.0,147.4 104.6,145.3 105.2,143.5 105.7,142.0 106.3,140.7 106.9,139.6 107.4,138.9 108.0,138.4 108.6,138.2
109.2,138.2 109.7,138.6 110.3,139.2 110.9,140.1 111.5,141.3 112.0,142.7 112.6,144.3 113.2,146.2 113.7,148.2 114.3,150.5 114.9,152.9 115.5,155.5 116.0,158.2 116.6,161.1 117.2,164.0 117.8,167.0
118.3,170.0 118.9,173.1 119.5,176.2 120.0,179.3 120.6,182.4 121.2,185.4 121.8,188.4 122.3,191.4 122.9,194.2 123.5,197.0 124.1,199.7 124.6,202.3 125.2,204.8 125.8,207.2 126.3,209.4 126.9,211.6
127.5,213.6 128.1,215.6 128.6,217.4 129.2,219.0 129.8,220.6 130.4,222.1 130.9,223.5 131.5,224.7 132.1,225.9 132.6,227.0 133.2,228.0 133.8,228.9 134.4,229.7 134.9,230.5 135.5,231.2 136.1,231.8
136.7,232.4 137.2,232.9 137.8,233.4 138.4,233.8 138.9,234.2 139.5,234.6 140.1,234.9 140.7,235.2 141.2,235.4 141.8,235.6 142.4,235.8 143.0,236.0 143.5,236.2 144.1,236.3 144.7,236.5 145.2,236.6
145.8,236.7 146.4,236.8 147.0,236.9 147.5,237.0 148.1,237.1 148.7,237.2 149.3,237.2 149.8,237.3 150.4,237.4 151.0,237.4 151.5,237.5 152.1,237.6 152.7,237.6 153.3,237.7 153.8,237.8 154.4,237.8
155.0,237.9 155.6,238.0 156.1,238.0 156.7,238.1 157.3,238.2 157.8,238.2 158.4,238.3 159.0,238.4 159.6,238.4 160.1,238.5 160.7,238.6 161.3,238.6 161.9,238.7 162.4,238.8 163.0,238.8 163.6,238.9
164.1,238.9 164.7,239.0 165.3,239.1 165.9,239.1 166.4,239.2 167.0,239.2 167.6,239.3 168.2,239.3 168.7,239.3 169.3,239.4 169.9,239.4 170.4,239.5 171.0,239.5 171.6,239.6 172.2,239.6 172.7,239.6
173.3,239.7 173.9,239.7 174.5,239.8 175.0,239.8 175.6,239.8 176.2,239.9 176.7,239.9 177.3,240.0 177.9,240.0 178.5,240.1 179.0,240.2 179.6,240.2 180.2,240.3 180.8,240.3 181.3,240.4 181.9,240.5
182.5,240.5 183.0,240.6 183.6,240.7 184.2,240.7 184.8,240.8 185.3,240.9 185.9,241.0 186.5,241.0 187.1,241.1 187.6,241.2 188.2,241.2 188.8,241.3 189.3,241.4 189.9,241.4 190.5,241.5 191.1,241.6
191.6,241.6 192.2,241.7 192.8,241.7 193.4,241.8 193.9,241.8 194.5,241.9 195.1,241.9 195.6,242.0 196.2,242.0 196.8,242.0 197.4,242.1 197.9,242.1 198.5,242.1 199.1,242.2 199.6,242.2 200.2,242.2
200.8,242.2 201.4,242.2 201.9,242.3 202.5,242.3 203.1,242.3 203.7,242.3 204.2,242.3 204.8,242.3 205.4,242.3 205.9,242.3 206.5,242.4 207.1,242.4 207.7,242.4 208.2,242.4 208.8,242.4 209.4,242.4
210.0,242.4 210.5,242.4 211.1,242.4 211.7,242.4 212.2,242.4 212.8,242.4 213.4,242.4 214.0,242.4 214.5,242.4 215.1,242.4 215.7,242.4 216.3,242.4 216.8,242.4 217.4,242.4 218.0,242.4 218.5,242.4
219.1,242.4 219.7,242.4 220.3,242.4 220.8,242.4 221.4,242.4 222.0,242.4 222.6,242.4 223.1,242.4 223.7,242.4 224.3,242.4 224.8,242.4 225.4,242.4 226.0,242.4 226.6,242.4 227.1,242.4 227.7,242.4
228.3,242.4 228.9,242.4 229.4,242.4 230.0,242.4 230.6,242.4 231.1,242.4 231.7,242.4 232.3,242.4 232.9,242.4 233.4,242.4 234.0,242.4 234.6,242.4 235.2,242.4 235.7,242.4 236.3,242.4 236.9,242.4
237.4,242.4 238.0,242.4 238.6,242.4 239.2,242.4 239.7,242.4 240.3,242.4 240.9,242.4 241.5,242.4 242.0,242.4 242.6,242.4 243.2,242.4 243.7,242.4 244.3,242.4 244.9,242.4 245.5,242.4 246.0,242.4
246.6,242.4 247.2,242.4 247.8,242.4 248.3,242.4 248.9,242.4 249.5,242.4 250.0,242.4 250.6,242.4 251.2,242.4 251.8,242.4 252.3,242.4 252.9,242.4 253.5,242.4 254.1,242.4 254.6,242.4 255.2,242.4
255.8,242.4 256.3,242.4 256.9,242.4 257.5,242.4 258.1,242.4 258.6,242.4 259.2,242.4 259.8,242.4 260.4,242.4 260.9,242.4 261.5,242.4 262.1,242.4 262.6,242.4 263.2,242.4 263.8,242.4 264.4,242.4
264.9,242.4 265.5,242.4 266.1,242.4 266.7,242.4 267.2,242.4 267.8,242.4 268.4,242.4 268.9,242.4 269.5,242.4 270.1,242.4 270.7,242.4 271.2,242.4 271.8,242.4 272.4,242.4 273.0,242.4 273.5,242.4
274.1,242.4 274.7,242.4 275.2,242.4 275.8,242.4 276.4,242.4 277.0,242.4 277.5,242.4 278.1,242.4 278.7,242.4 279.3,242.4 279.8,242.4 280.4,242.4 281.0,242.4 281.5,242.4 282.1,242.4 282.7,242.4
283.3,242.4 283.8,242.4 284.4,242.4 285.0,242.4 285.6,242.4 286.1,242.4 286.7,242.4 287.3,242.4 287.8,242.4 288.4,242.4 289.0,242.4 289.6,242.4 290.1,242.4 290.7,242.4 291.3,242.4 291.9,242.4
292.4,242.4 293.0,242.4 293.6,242.4 294.1,242.4 294.7,242.4 295.3,242.4 295.9,242.4 296.4,242.4 297.0,242.4 297.6,242.4 298.2,242.4 298.7,242.4 299.3,242.4 299.9,242.4 300.4,242.3 301.0,242.3
301.6,242.3 302.2,242.3 302.7,242.3 303.3,242.3 303.9,242.3 304.5,242.3 305.0,242.3 305.6,242.2 306.2,242.2 306.7,242.2 307.3,242.2 307.9,242.2 308.5,242.1 309.0,242.1 309.6,242.1 310.2,242.0
310.8,242.0 311.3,242.0 311.9,242.0 312.5,241.9 313.0,241.9 313.6,241.8 314.2,241.8 314.8,241.8 315.3,241.7 315.9,241.7 316.5,241.6 317.1,241.6 317.6,241.6 318.2,241.5 318.8,241.5 319.3,241.5
319.9,241.4 320.5,241.4 321.1,241.4 321.6,241.3 322.2,241.3 322.8,241.3 323.4,241.3 323.9,241.2 324.5,241.2 325.1,241.2 325.6,241.2 326.2,241.2 326.8,241.2 327.4,241.2 327.9,241.2 328.5,241.2
329.1,241.2 329.7,241.2 330.2,241.3 330.8,241.3 331.4,241.3 331.9,241.3 332.5,241.4 333.1,241.4 333.7,241.4 334.2,241.5 334.8,241.5 335.4,241.5 336.0,241.6 336.5,241.6 337.1,241.7 337.7,241.7
338.2,241.7 338.8,241.8 339.4,241.8 340.0,241.9 340.5,241.9 341.1,241.9 341.7,242.0 342.2,242.0 342.8,242.0 343.4,242.1 344.0,242.1 344.5,242.1 345.1,242.1 345.7,242.2 346.3,242.2 346.8,242.2
347.4,242.2 348.0,242.2 348.5,242.3 349.1,242.3 349.7,242.3 350.3,242.3 350.8,242.3 351.4,242.3 352.0,242.3 352.6,242.3 353.1,242.3 353.7,242.4 354.3,242.4 354.8,242.4 355.4,242.4 356.0,242.4
356.6,242.4 357.1,242.4 357.7,242.4 358.3,242.4 358.3,242.4 357.7,242.4 357.1,242.4 356.6,242.4 356.0,242.4 355.4,242.4 354.8,242.4 354.3,242.4 353.7,242.4 353.1,242.4 352.6,242.4 352.0,242.4
351.4,242.4 350.8,242.4 350.3,242.4 349.7,242.4 349.1,242.4 348.5,242.4 348.0,242.4 347.4,242.4 346.8,242.4 346.3,242.4 345.7,242.4 345.1,242.4 344.5,242.4 344.0,242.4 343.4,242.4 342.8,242.4
342.2,242.4 341.7,242.4 341.1,242.4 340.5,242.4 340.0,242.4 339.4,242.4 338.8,242.4 338.2,242.4 337.7,242.4 337.1,242.4 336.5,242.4 336.0,242.4 335.4,242.4 334.8,242.4 334.2,242.4 333.7,242.4
333.1,242.4 332.5,242.4 331.9,242.4 331.4,242.4 330.8,242.4 330.2,242.4 329.7,242.4 329.1,242.4 328.5,242.4 327.9,242.4 327.4,242.4 326.8,242.4 326.2,242.4 325.6,242.4 325.1,242.4 324.5,242.4
323.9,242.4 323.4,242.4 322.8,242.4 322.2,242.4 321.6,242.4 321.1,242.4 320.5,242.4 319.9,242.4 319.3,242.4 318.8,242.4 318.2,242.4 317.6,242.4 317.1,242.4 316.5,242.4 315.9,242.4 315.3,242.4
314.8,242.4 314.2,242.4 313.6,242.4 313.0,242.4 312.5,242.4 311.9,242.4 311.3,242.4 310.8,242.4 310.2,242.4 309.6,242.4 309.0,242.4 308.5,242.4 307.9,242.4 307.3,242.4 306.7,242.4 306.2,242.4
305.6,242.4 305.0,242.4 304.5,242.4 303.9,242.4 303.3,242.4 302.7,242.4 302.2,242.4 301.6,242.4 301.0,242.4 300.4,242.4 299.9,242.4 299.3,242.4 298.7,242.4 298.2,242.4 297.6,242.4 297.0,242.4
296.4,242.4 295.9,242.4 295.3,242.4 294.7,242.4 294.1,242.4 293.6,242.4 293.0,242.4 292.4,242.4 291.9,242.4 291.3,242.4 290.7,242.4 290.1,242.4 289.6,242.4 289.0,242.4 288.4,242.4 287.8,242.4
287.3,242.4 286.7,242.4 286.1,242.4 285.6,242.4 285.0,242.4 284.4,242.4 283.8,242.4 283.3,242.4 282.7,242.4 282.1,242.4 281.5,242.4 281.0,242.4 280.4,242.4 279.8,242.4 279.3,242.4 278.7,242.4
278.1,242.4 277.5,242.4 277.0,242.4 276.4,242.4 275.8,242.4 275.2,242.4 274.7,242.4 274.1,242.4 273.5,242.4 273.0,242.4 272.4,242.4 271.8,242.4 271.2,242.4 270.7,242.4 270.1,242.4 269.5,242.4
268.9,242.4 268.4,242.4 267.8,242.4 267.2,242.4 266.7,242.4 266.1,242.4 265.5,242.4 264.9,242.4 264.4,242.4 263.8,242.4 263.2,242.4 262.6,242.4 262.1,242.4 261.5,242.4 260.9,242.4 260.4,242.4
259.8,242.4 259.2,242.4 258.6,242.4 258.1,242.4 257.5,242.4 256.9,242.4 256.3,242.4 255.8,242.4 255.2,242.4 254.6,242.4 254.1,242.4 253.5,242.4 252.9,242.4 252.3,242.4 251.8,242.4 251.2,242.4
250.6,242.4 250.0,242.4 249.5,242.4 248.9,242.4 248.3,242.4 247.8,242.4 247.2,242.4 246.6,242.4 246.0,242.4 245.5,242.4 244.9,242.4 244.3,242.4 243.7,242.4 243.2,242.4 242.6,242.4 242.0,242.4
241.5,242.4 240.9,242.4 240.3,242.4 239.7,242.4 239.2,242.4 238.6,242.4 238.0,242.4 237.4,242.4 236.9,242.4 236.3,242.4 235.7,242.4 235.2,242.4 234.6,242.4 234.0,242.4 233.4,242.4 232.9,242.4
232.3,242.4 231.7,242.4 231.1,242.4 230.6,242.4 230.0,242.4 229.4,242.4 228.9,242.4 228.3,242.4 227.7,242.4 227.1,242.4 226.6,242.4 226.0,242.4 225.4,242.4 224.8,242.4 224.3,242.4 223.7,242.4
223.1,242.4 222.6,242.4 222.0,242.4 221.4,242.4 220.8,242.4 220.3,242.4 219.7,242.4 219.1,242.4 218.5,242.4 218.0,242.4 217.4,242.4 216.8,242.4 216.3,242.4 215.7,242.4 215.1,242.4 214.5,242.4
214.0,242.4 213.4,242.4 212.8,242.4 212.2,242.4 211.7,242.4 211.1,242.4 210.5,242.4 210.0,242.4 209.4,242.4 208.8,242.4 208.2,242.4 207.7,242.4 207.1,242.4 206.5,242.4 205.9,242.4 205.4,242.4
204.8,242.4 204.2,242.4 203.7,242.4 203.1,242.4 202.5,242.4 201.9,242.4 201.4,242.4 200.8,242.4 200.2,242.4 199.6,242.4 199.1,242.4 198.5,242.4 197.9,242.4 197.4,242.4 196.8,242.4 196.2,242.4
195.6,242.4 195.1,242.4 194.5,242.4 193.9,242.4 193.4,242.4 192.8,242.4 192.2,242.4 191.6,242.4 191.1,242.4 190.5,242.4 189.9,242.4 189.3,242.4 188.8,242.4 188.2,242.4 187.6,242.4 187.1,242.4
186.5,242.4 185.9,242.4 185.3,242.4 184.8,242.4 184.2,242.4 183.6,242.4 183.0,242.4 182.5,242.4 181.9,242.4 181.3,242.4 180.8,242.4 180.2,242.4 179.6,242.4 179.0,242.4 178.5,242.4 177.9,242.4
177.3,242.4 176.7,242.4 176.2,242.4 175.6,242.4 175.0,242.4 174.5,242.4 173.9,242.4 173.3,242.4 172.7,242.4 172.2,242.4 171.6,242.4 171.0,242.4 170.4,242.4 169.9,242.4 169.3,242.4 168.7,242.4
168.2,242.4 167.6,242.4 167.0,242.4 166.4,242.4 165.9,242.4 165.3,242.4 164.7,242.4 164.1,242.4 163.6,242.4 163.0,242.4 162.4,242.4 161.9,242.4 161.3,242.4 160.7,242.4 160.1,242.4 159.6,242.4
159.0,242.4 158.4,242.4 157.8,242.4 157.3,242.4 156.7,242.4 156.1,242.4 155.6,242.4 155.0,242.4 154.4,242.4 153.8,242.4 153.3,242.4 152.7,242.4 152.1,242.4 151.5,242.4 151.0,242.4 150.4,242.4
149.8,242.4 149.3,242.4 148.7,242.4 148.1,242.4 147.5,242.4 147.0,242.4 146.4,242.4 145.8,242.4 145.2,242.4 144.7,242.4 144.1,242.4 143.5,242.4 143.0,242.4 142.4,242.4 141.8,242.4 141.2,242.4
140.7,242.4 140.1,242.4 139.5,242.4 138.9,242.4 138.4,242.4 137.8,242.4 137.2,242.4 136.7,242.4 136.1,242.4 135.5,242.4 134.9,242.4 134.4,242.4 133.8,242.4 133.2,242.4 132.6,242.4 132.1,242.4
131.5,242.4 130.9,242.4 130.4,242.4 129.8,242.4 129.2,242.4 128.6,242.4 128.1,242.4 127.5,242.4 126.9,242.4 126.3,242.4 125.8,242.4 125.2,242.4 124.6,242.4 124.1,242.4 123.5,242.4 122.9,242.4
122.3,242.4 121.8,242.4 121.2,242.4 120.6,242.4 120.0,242.4 119.5,242.4 118.9,242.4 118.3,242.4 117.8,242.4 117.2,242.4 116.6,242.4 116.0,242.4 115.5,242.4 114.9,242.4 114.3,242.4 113.7,242.4
113.2,242.4 112.6,242.4 112.0,242.4 111.5,242.4 110.9,242.4 110.3,242.4 109.7,242.4 109.2,242.4 108.6,242.4 108.0,242.4 107.4,242.4 106.9,242.4 106.3,242.4 105.7,242.4 105.2,242.4 104.6,242.4
104.0,242.4 103.4,242.4 102.9,242.4 102.3,242.4 101.7,242.4 101.1,242.4 100.6,242.4 100.0,242.4 99.4,242.4 98.9,242.4 98.3,242.4 97.7,242.4 97.1,242.4 96.6,242.4 96.0,242.4 95.4,242.4
94.8,242.4 94.3,242.4 93.7,242.4 93.1,242.4 92.6,242.4 92.0,242.4 91.4,242.4 90.8,242.4 90.3,242.4 89.7,242.4 89.1,242.4 88.5,242.4 88.0,242.4 87.4,242.4 86.8,242.4 86.3,242.4
85.7,242.4 85.1,242.4 84.5,242.4 84.0,242.4 83.4,242.4 82.8,242.4 82.2,242.4 81.7,242.4 81.1,242.4 80.5,242.4 80.0,242.4 79.4,242.4 78.8,242.4 78.2,242.4 77.7,242.4 77.1,242.4
76.5,242.4 75.9,242.4 75.4,242.4 74.8,242.4 74.2,242.4 73.7,242.4 73.1,242.4 72.5,242.4 '/>
	</g>
</g>
	</g>
	<g id="gnuplot_plot_2" ><title>Base Mean</title>
<g fill="none" color="white" stroke="rgb(227,  26,  28)" stroke-width="2.00" stroke-linecap="butt" stroke-linejoin="miter">
</g>
<g fill="none" color="black" stroke="currentColor" stroke-width="2.00" stroke-linecap="butt" stroke-linejoin="miter">
	<path stroke='rgb(227,  26,  28)'  d='M114.6,242.4 L114.6,151.8  '/></g>
	</g>
	<g id="gnuplot_plot_3" ><title>New PDF</title>
<g fill="none" color="white" stroke="rgb(227,  26,  28)" stroke-width="1.00" stroke-linecap="butt" stroke-linejoin="miter">
</g>
<g fill="none" color="black" stroke="currentColor" stroke-width="1.00" stroke-linecap="butt" stroke-linejoin="miter">
	<g stroke='none' shape-rendering='crispEdges'>
		<polygon fill = 'rgb( 31, 120, 180)' fill-opacity = '0.500000' points = '89.0,241.9 89.2,241.8 89.4,241.7 89.7,241.6 89.9,241.5 90.1,241.3 90.4,241.1 90.6,240.9 90.9,240.7 91.1,240.4 91.3,240.2 91.6,239.8 91.8,239.5 92.0,239.0 92.3,238.6 92.5,238.1
92.8,237.5 93.0,236.8 93.2,236.1 93.5,235.3 93.7,234.4 93.9,233.5 94.2,232.4 94.4,231.2 94.7,230.0 94.9,228.6 95.1,227.0 95.4,225.4 95.6,223.6 95.8,221.6 96.1,219.5 96.3,217.2
96.6,214.8 96.8,212.2 97.0,209.4 97.3,206.5 97.5,203.3 97.7,200.0 98.0,196.5 98.2,192.8 98.5,188.9 98.7,184.8 98.9,180.5 99.2,176.1 99.4,171.5 99.6,166.7 99.9,161.7 100.1,156.6
100.4,151.4 100.6,146.1 100.8,140.6 101.1,135.1 101.3,129.5 101.5,123.8 101.8,118.1 102.0,112.4 102.3,106.8 102.5,101.1 102.7,95.5 103.0,90.1 103.2,84.7 103.4,79.5 103.7,74.4 103.9,69.5
104.2,64.9 104.4,60.5 104.6,56.3 104.9,52.5 105.1,48.9 105.3,45.7 105.6,42.8 105.8,40.3 106.0,38.2 106.3,36.4 106.5,35.0 106.8,34.1 107.0,33.5 107.2,33.4 107.5,33.6 107.7,34.3
107.9,35.4 108.2,36.8 108.4,38.7 108.7,40.9 108.9,43.4 109.1,46.3 109.4,49.6 109.6,53.1 109.8,56.9 110.1,60.9 110.3,65.2 110.6,69.7 110.8,74.4 111.0,79.3 111.3,84.3 111.5,89.4
111.7,94.6 112.0,99.8 112.2,105.1 112.5,110.4 112.7,115.7 112.9,121.0 113.2,126.2 113.4,131.3 113.6,136.4 113.9,141.4 114.1,146.2 114.4,151.0 114.6,155.5 114.8,160.0 115.1,164.3 115.3,168.4
115.5,172.3 115.8,176.1 116.0,179.7 116.3,183.1 116.5,186.4 116.7,189.5 117.0,192.3 117.2,195.1 117.4,197.6 117.7,200.0 117.9,202.2 118.2,204.3 118.4,206.2 118.6,208.0 118.9,209.6 119.1,211.1
119.3,212.5 119.6,213.8 119.8,215.0 120.1,216.0 120.3,217.0 120.5,217.9 120.8,218.8 121.0,219.5 121.2,220.2 121.5,220.8 121.7,221.4 122.0,222.0 122.2,222.5 122.4,222.9 122.7,223.4 122.9,223.8
123.1,224.2 123.4,224.6 123.6,224.9 123.9,225.3 124.1,225.6 124.3,225.9 124.6,226.3 124.8,226.6 125.0,226.9 125.3,227.2 125.5,227.5 125.8,227.9 126.0,228.2 126.2,228.5 126.5,228.8 126.7,229.1
126.9,229.4 127.2,229.7 127.4,230.0 127.7,230.3 127.9,230.6 128.1,230.9 128.4,231.2 128.6,231.5 128.8,231.8 129.1,232.1 129.3,232.4 129.5,232.6 129.8,232.9 130.0,233.1 130.3,233.4 130.5,233.6
130.7,233.8 131.0,234.0 131.2,234.3 131.4,234.5 131.7,234.7 131.9,234.8 132.2,235.0 132.4,235.2 132.6,235.4 132.9,235.5 133.1,235.7 133.3,235.8 133.6,236.0 133.8,236.1 134.1,236.2 134.3,236.4
134.5,236.5 134.8,236.6 135.0,236.7 135.2,236.8 135.5,237.0 135.7,237.1 136.0,237.2 136.2,237.3 136.4,237.4 136.7,237.5 136.9,237.6 137.1,237.8 137.4,237.9 137.6,238.0 137.9,238.1 138.1,238.2
138.3,238.3 138.6,238.4 138.8,238.6 139.0,238.7 139.3,238.8 139.5,238.9 139.8,239.0 140.0,239.1 140.2,239.2 140.5,239.3 140.7,239.4 140.9,239.5 141.2,239.6 141.4,239.7 141.7,239.8 141.9,239.9
142.1,240.0 142.4,240.1 142.6,240.2 142.8,240.3 143.1,240.3 143.3,240.4 143.6,240.4 143.8,240.5 144.0,240.5 144.3,240.6 144.5,240.6 144.7,240.6 145.0,240.7 145.2,240.7 145.5,240.7 145.7,240.7
145.9,240.7 146.2,240.6 146.4,240.6 146.6,240.6 146.9,240.6 147.1,240.5 147.4,240.5 147.6,240.4 147.8,240.4 148.1,240.3 148.3,240.3 148.5,240.2 148.8,240.1 149.0,240.0 149.3,240.0 149.5,239.9
149.7,239.8 150.0,239.7 150.2,239.6 150.4,239.6 150.7,239.5 150.9,239.4 151.2,239.3 151.4,239.2 151.6,239.1 151.9,239.1 152.1,239.0 152.3,238.9 152.6,238.8 152.8,238.8 153.0,238.7 153.3,238.6
153.5,238.6 153.8,238.5 154.0,238.5 154.2,238.4 154.5,238.4 154.7,238.3 154.9,238.3 155.2,238.3 155.4,238.3 155.7,238.2 155.9,238.2 156.1,238.2 156.4,238.2 156.6,238.2 156.8,238.3 157.1,238.3
157.3,238.3 157.6,238.3 157.8,238.4 158.0,238.4 158.3,238.5 158.5,238.5 158.7,238.6 159.0,238.6 159.2,238.7 159.5,238.8 159.7,238.9 159.9,238.9 160.2,239.0 160.4,239.1 160.6,239.2 160.9,239.3
161.1,239.4 161.4,239.5 161.6,239.6 161.8,239.7 162.1,239.8 162.3,239.9 162.5,240.0 162.8,240.1 163.0,240.2 163.3,240.3 163.5,240.4 163.7,240.5 164.0,240.6 164.2,240.6 164.4,240.7 164.7,240.8
164.9,240.9 165.2,241.0 165.4,241.1 165.6,241.2 165.9,241.2 166.1,241.3 166.3,241.4 166.6,241.5 166.8,241.5 167.1,241.6 167.3,241.7 167.5,241.7 167.8,241.8 168.0,241.8 168.2,241.9 168.5,241.9
168.7,242.0 169.0,242.0 169.2,242.0 169.4,242.1 169.7,242.1 169.9,242.1 170.1,242.1 170.4,242.2 170.6,242.2 170.9,242.2 171.1,242.2 171.3,242.3 171.6,242.3 171.8,242.3 172.0,242.3 172.3,242.3
172.5,242.3 172.8,242.3 173.0,242.3 173.2,242.3 173.5,242.3 173.7,242.4 173.9,242.4 174.2,242.4 174.4,242.4 174.7,242.4 174.9,242.4 175.1,242.4 175.4,242.4 175.6,242.4 175.8,242.4 176.1,242.4
176.3,242.4 176.6,242.4 176.8,242.4 177.0,242.4 177.3,242.4 177.5,242.4 177.7,242.4 178.0,242.3 178.2,242.3 178.4,242.3 178.7,242.3 178.9,242.3 179.2,242.3 179.4,242.3 179.6,242.3 179.9,242.3
180.1,242.3 180.3,242.2 180.6,242.2 180.8,242.2 181.1,242.2 181.3,242.2 181.5,242.1 181.8,242.1 182.0,242.1 182.2,242.0 182.5,242.0 182.7,242.0 183.0,241.9 183.2,241.9 183.4,241.8 183.7,241.8
183.9,241.8 184.1,241.7 184.4,241.6 184.6,241.6 184.9,241.5 185.1,241.5 185.3,241.4 185.6,241.3 185.8,241.3 186.0,241.2 186.3,241.1 186.5,241.1 186.8,241.0 187.0,240.9 187.2,240.9 187.5,240.8
187.7,240.7 187.9,240.7 188.2,240.6 188.4,240.5 188.7,240.5 188.9,240.4 189.1,240.3 189.4,240.3 189.6,240.2 189.8,240.2 190.1,240.1 190.3,240.1 190.6,240.0 190.8,240.0 191.0,240.0 191.3,239.9
191.5,239.9 191.7,239.9 192.0,239.9 192.2,239.9 192.5,239.9 192.7,239.9 192.9,239.9 193.2,239.9 193.4,240.0 193.6,240.0 193.9,240.0 194.1,240.1 194.4,240.1 194.6,240.2 194.8,240.2 195.1,240.3
195.3,240.3 195.5,240.4 195.8,240.4 196.0,240.5 196.3,240.6 196.5,240.7 196.7,240.7 197.0,240.8 197.2,240.9 197.4,240.9 197.7,241.0 197.9,241.1 198.2,241.1 198.4,241.2 198.6,241.3 198.9,241.3
199.1,241.4 199.3,241.5 199.6,241.5 199.8,241.6 200.1,241.6 200.3,241.7 200.5,241.7 200.8,241.8 201.0,241.8 201.2,241.9 201.5,241.9 201.7,242.0 201.9,242.0 202.2,242.0 202.4,242.1 202.7,242.1
202.9,242.1 203.1,242.2 203.4,242.2 203.6,242.2 203.8,242.2 204.1,242.2 204.3,242.3 204.6,242.3 204.8,242.3 205.0,242.3 205.3,242.3 205.5,242.3 205.7,242.3 206.0,242.3 206.2,242.3 206.5,242.4
206.7,242.4 206.9,242.4 207.2,242.4 207.4,242.4 207.4,242.4 207.2,242.4 206.9,242.4 206.7,242.4 206.5,242.4 206.2,242.4 206.0,242.4 205.7,242.4 205.5,242.4 205.3,242.4 205.0,242.4 204.8,242.4
204.6,242.4 204.3,242.4 204.1,242.4 203.8,242.4 203.6,242.4 203.4,242.4 203.1,242.4 202.9,242.4 202.7,242.4 202.4,242.4 202.2,242.4 201.9,242.4 201.7,242.4 201.5,242.4 201.2,242.4 201.0,242.4
200.8,242.4 200.5,242.4 200.3,242.4 200.1,242.4 199.8,242.4 199.6,242.4 199.3,242.4 199.1,242.4 198.9,242.4 198.6,242.4 198.4,242.4 198.2,242.4 197.9,242.4 197.7,242.4 197.4,242.4 197.2,242.4
197.0,242.4 196.7,242.4 196.5,242.4 196.3,242.4 196.0,242.4 195.8,242.4 195.5,242.4 195.3,242.4 195.1,242.4 194.8,242.4 194.6,242.4 194.4,242.4 194.1,242.4 193.9,242.4 193.6,242.4 193.4,242.4
193.2,242.4 192.9,242.4 192.7,242.4 192.5,242.4 192.2,242.4 192.0,242.4 191.7,242.4 191.5,242.4 191.3,242.4 191.0,242.4 190.8,242.4 190.6,242.4 190.3,242.4 190.1,242.4 189.8,242.4 189.6,242.4
189.4,242.4 189.1,242.4 188.9,242.4 188.7,242.4 188.4,242.4 188.2,242.4 187.9,242.4 187.7,242.4 187.5,242.4 187.2,242.4 187.0,242.4 186.8,242.4 186.5,242.4 186.3,242.4 186.0,242.4 185.8,242.4
185.6,242.4 185.3,242.4 185.1,242.4 184.9,242.4 184.6,242.4 184.4,242.4 184.1,242.4 183.9,242.4 183.7,242.4 183.4,242.4 183.2,242.4 183.0,242.4 182.7,242.4 182.5,242.4 182.2,242.4 182.0,242.4
181.8,242.4 181.5,242.4 181.3,242.4 181.1,242.4 180.8,242.4 180.6,242.4 180.3,242.4 180.1,242.4 179.9,242.4 179.6,242.4 179.4,242.4 179.2,242.4 178.9,242.4 178.7,242.4 178.4,242.4 178.2,242.4
178.0,242.4 177.7,242.4 177.5,242.4 177.3,242.4 177.0,242.4 176.8,242.4 176.6,242.4 176.3,242.4 176.1,242.4 175.8,242.4 175.6,242.4 175.4,242.4 175.1,242.4 174.9,242.4 174.7,242.4 174.4,242.4
174.2,242.4 173.9,242.4 173.7,242.4 173.5,242.4 173.2,242.4 173.0,242.4 172.8,242.4 172.5,242.4 172.3,242.4 172.0,242.4 171.8,242.4 171.6,242.4 171.3,242.4 171.1,242.4 170.9,242.4 170.6,242.4
170.4,242.4 170.1,242.4 169.9,242.4 169.7,242.4 169.4,242.4 169.2,242.4 169.0,242.4 168.7,242.4 168.5,242.4 168.2,242.4 168.0,242.4 167.8,242.4 167.5,242.4 167.3,242.4 167.1,242.4 166.8,242.4
166.6,242.4 166.3,242.4 166.1,242.4 165.9,242.4 165.6,242.4 165.4,242.4 165.2,242.4 164.9,242.4 164.7,242.4 164.4,242.4 164.2,242.4 164.0,242.4 163.7,242.4 163.5,242.4 163.3,242.4 163.0,242.4
162.8,242.4 162.5,242.4 162.3,242.4 162.1,242.4 161.8,242.4 161.6,242.4 161.4,242.4 161.1,242.4 160.9,242.4 160.6,242.4 160.4,242.4 160.2,242.4 159.9,242.4 159.7,242.4 159.5,242.4 159.2,242.4
159.0,242.4 158.7,242.4 158.5,242.4 158.3,242.4 158.0,242.4 157.8,242.4 157.6,242.4 157.3,242.4 157.1,242.4 156.8,242.4 156.6,242.4 156.4,242.4 156.1,242.4 155.9,242.4 155.7,242.4 155.4,242.4
155.2,242.4 154.9,242.4 154.7,242.4 154.5,242.4 154.2,242.4 154.0,242.4 153.8,242.4 153.5,242.4 153.3,242.4 153.0,242.4 152.8,242.4 152.6,242.4 152.3,242.4 152.1,242.4 151.9,242.4 151.6,242.4
151.4,242.4 151.2,242.4 150.9,242.4 150.7,242.4 150.4,242.4 150.2,242.4 150.0,242.4 149.7,242.4 149.5,242.4 149.3,242.4 149.0,242.4 148.8,242.4 148.5,242.4 148.3,242.4 148.1,242.4 147.8,242.4
147.6,242.4 147.4,242.4 147.1,242.4 146.9,242.4 146.6,242.4 146.4,242.4 146.2,242.4 145.9,242.4 145.7,242.4 145.5,242.4 145.2,242.4 145.0,242.4 144.7,242.4 144.5,242.4 144.3,242.4 144.0,242.4
143.8,242.4 143.6,242.4 143.3,242.4 143.1,242.4 142.8,242.4 142.6,242.4 142.4,242.4 142.1,242.4 141.9,242.4 141.7,242.4 141.4,242.4 141.2,242.4 140.9,242.4 140.7,242.4 140.5,242.4 140.2,242.4
140.0,242.4 139.8,242.4 139.5,242.4 139.3,242.4 139.0,242.4 138.8,242.4 138.6,242.4 138.3,242.4 138.1,242.4 137.9,242.4 137.6,242.4 137.4,242.4 137.1,242.4 136.9,242.4 136.7,242.4 136.4,242.4
136.2,242.4 136.0,242.4 135.7,242.4 135.5,242.4 135.2,242.4 135.0,242.4 134.8,242.4 134.5,242.4 134.3,242.4 134.1,242.4 133.8,242.4 133.6,242.4 133.3,242.4 133.1,242.4 132.9,242.4 132.6,242.4
132.4,242.4 132.2,242.4 131.9,242.4 131.7,242.4 131.4,242.4 131.2,242.4 131.0,242.4 130.7,242.4 130.5,242.4 130.3,242.4 130.0,242.4 129.8,242.4 129.5,242.4 129.3,242.4 129.1,242.4 128.8,242.4
128.6,242.4 128.4,242.4 128.1,242.4 127.9,242.4 127.7,242.4 127.4,242.4 127.2,242.4 126.9,242.4 126.7,242.4 126.5,242.4 126.2,242.4 126.0,242.4 125.8,242.4 125.5,242.4 125.3,242.4 125.0,242.4
124.8,242.4 124.6,242.4 124.3,242.4 124.1,242.4 123.9,242.4 123.6,242.4 123.4,242.4 123.1,242.4 122.9,242.4 122.7,242.4 122.4,242.4 122.2,242.4 122.0,242.4 121.7,242.4 121.5,242.4 121.2,242.4
121.0,242.4 120.8,242.4 120.5,242.4 120.3,242.4 120.1,242.4 119.8,242.4 119.6,242.4 119.3,242.4 119.1,242.4 118.9,242.4 118.6,242.4 118.4,242.4 118.2,242.4 117.9,242.4 117.7,242.4 117.4,242.4
117.2,242.4 117.0,242.4 116.7,242.4 116.5,242.4 116.3,242.4 116.0,242.4 115.8,242.4 115.5,242.4 115.3,242.4 115.1,242.4 114.8,242.4 114.6,242.4 114.4,242.4 114.1,242.4 113.9,242.4 113.6,242.4
113.4,242.4 113.2,242.4 112.9,242.4 112.7,242.4 112.5,242.4 112.2,242.4 112.0,242.4 111.7,242.4 111.5,242.4 111.3,242.4 111.0,242.4 110.8,242.4 110.6,242.4 110.3,242.4 110.1,242.4 109.8,242.4
109.6,242.4 109.4,242.4 109.1,242.4 108.9,242.4 108.7,242.4 108.4,242.4 108.2,242.4 107.9,242.4 107.7,242.4 107.5,242.4 107.2,242.4 107.0,242.4 106.8,242.4 106.5,242.4 106.3,242.4 106.0,242.4
105.8,242.4 105.6,242.4 105.3,242.4 105.1,242.4 104.9,242.4 104.6,242.4 104.4,242.4 104.2,242.4 103.9,242.4 103.7,242.4 103.4,242.4 103.2,242.4 103.0,242.4 102.7,242.4 102.5,242.4 102.3,242.4
102.0,242.4 101.8,242.4 101.5,242.4 101.3,242.4 101.1,242.4 100.8,242.4 100.6,242.4 100.4,242.4 100.1,242.4 99.9,242.4 99.6,242.4 99.4,242.4 99.2,242.4 98.9,242.4 98.7,242.4 98.5,242.4
98.2,242.4 98.0,242.4 97.7,242.4 97.5,242.4 97.3,242.4 97.0,242.4 96.8,242.4 96.6,242.4 96.3,242.4 96.1,242.4 95.8,242.4 95.6,242.4 95.4,242.4 95.1,242.4 94.9,242.4 94.7,242.4
94.4,242.4 94.2,242.4 93.9,242.4 93.7,242.4 93.5,242.4 93.2,242.4 93.0,242.4 92.8,242.4 92.5,242.4 92.3,242.4 92.0,242.4 91.8,242.4 91.6,242.4 91.3,242.4 91.1,242.4 90.9,242.4
90.6,242.4 90.4,242.4 90.1,242.4 89.9,242.4 89.7,242.4 89.4,242.4 89.2,242.4 89.0,242.4 '/>
	</g>
</g>
	</g>
	<g id="gnuplot_plot_4" ><title>New Mean</title>
<g fill="none" color="white" stroke="rgb( 31, 120, 180)" stroke-width="2.00" stroke-linecap="butt" stroke-linejoin="miter">
</g>
<g fill="none" color="black" stroke="currentColor" stroke-width="2.00" stroke-linecap="butt" stroke-linejoin="miter">
	<path stroke='rgb( 31, 120, 180)'  d='M110.7,242.4 L110.7,72.2  '/></g>
	</g>
<g fill="none" color="black" stroke="currentColor" stroke-width="2.00" stroke-linecap="butt" stroke-linejoin="miter">
</g>
<g fill="none" color="black" stroke="black" stroke-width="1.00" stroke-linecap="butt" stroke-linejoin="miter">
</g>
<g fill="none" color="black" stroke="currentColor" stroke-width="1.00" stroke-linecap="butt" stroke-linejoin="miter">
	<path stroke='black'  d='M71.9,18.1 L71.9,242.4 L425.0,242.4 L425.0,18.1 L71.9,18.1 Z  '/></g>
<g fill="none" color="black" stroke="currentColor" stroke-width="1.00" stroke-linecap="butt" stroke-linejoin="miter">
</g>
</g>
</svg>

