<?xml version="1.0" encoding="utf-8"  standalone="no"?>
<svg 
 viewBox="0 0 1280 720"
 xmlns="http://www.w3.org/2000/svg"
 xmlns:xlink="http://www.w3.org/1999/xlink"
>

<title>Gnuplot</title>
<desc>Produced by GNUPLOT 5.2 patchlevel 6 </desc>

<g id="gnuplot_canvas">

<rect x="0" y="0" width="1280" height="720" fill="none"/>
<defs>

	<circle id='gpDot' r='0.5' stroke-width='0.5' stroke='currentColor'/>
	<path id='gpPt0' stroke-width='0.222' stroke='currentColor' d='M-1,0 h2 M0,-1 v2'/>
	<path id='gpPt1' stroke-width='0.222' stroke='currentColor' d='M-1,-1 L1,1 M1,-1 L-1,1'/>
	<path id='gpPt2' stroke-width='0.222' stroke='currentColor' d='M-1,0 L1,0 M0,-1 L0,1 M-1,-1 L1,1 M-1,1 L1,-1'/>
	<rect id='gpPt3' stroke-width='0.222' stroke='currentColor' x='-1' y='-1' width='2' height='2'/>
	<rect id='gpPt4' stroke-width='0.222' stroke='currentColor' fill='currentColor' x='-1' y='-1' width='2' height='2'/>
	<circle id='gpPt5' stroke-width='0.222' stroke='currentColor' cx='0' cy='0' r='1'/>
	<use xlink:href='#gpPt5' id='gpPt6' fill='currentColor' stroke='none'/>
	<path id='gpPt7' stroke-width='0.222' stroke='currentColor' d='M0,-1.33 L-1.33,0.67 L1.33,0.67 z'/>
	<use xlink:href='#gpPt7' id='gpPt8' fill='currentColor' stroke='none'/>
	<use xlink:href='#gpPt7' id='gpPt9' stroke='currentColor' transform='rotate(180)'/>
	<use xlink:href='#gpPt9' id='gpPt10' fill='currentColor' stroke='none'/>
	<use xlink:href='#gpPt3' id='gpPt11' stroke='currentColor' transform='rotate(45)'/>
	<use xlink:href='#gpPt11' id='gpPt12' fill='currentColor' stroke='none'/>
	<path id='gpPt13' stroke-width='0.222' stroke='currentColor' d='M0,1.330 L1.265,0.411 L0.782,-1.067 L-0.782,-1.076 L-1.265,0.411 z'/>
	<use xlink:href='#gpPt13' id='gpPt14' fill='currentColor' stroke='none'/>
	<filter id='textbox' filterUnits='objectBoundingBox' x='0' y='0' height='1' width='1'>
	  <feFlood flood-color='white' flood-opacity='1' result='bgnd'/>
	  <feComposite in='SourceGraphic' in2='bgnd' operator='atop'/>
	</filter>
	<filter id='greybox' filterUnits='objectBoundingBox' x='0' y='0' height='1' width='1'>
	  <feFlood flood-color='lightgrey' flood-opacity='1' result='grey'/>
	  <feComposite in='SourceGraphic' in2='grey' operator='atop'/>
	</filter>
</defs>
<g fill="none" color="white" stroke="currentColor" stroke-width="1.00" stroke-linecap="butt" stroke-linejoin="miter">
</g>
<g fill="none" color="black" stroke="currentColor" stroke-width="1.00" stroke-linecap="butt" stroke-linejoin="miter">
	<path stroke='black'  d='M88.5,662.4 L97.5,662.4  '/>	<g transform="translate(80.2,666.3)" stroke="none" fill="black" font-family="Helvetica" font-size="12.00"  text-anchor="end">
		<text><tspan font-family="Helvetica" > 0</tspan></text>
	</g>
</g>
<g fill="none" color="black" stroke="currentColor" stroke-width="1.00" stroke-linecap="butt" stroke-linejoin="miter">
	<path stroke='black'  d='M88.5,586.4 L97.5,586.4  '/>	<g transform="translate(80.2,590.3)" stroke="none" fill="black" font-family="Helvetica" font-size="12.00"  text-anchor="end">
		<text><tspan font-family="Helvetica" > 0.002</tspan></text>
	</g>
</g>
<g fill="none" color="black" stroke="currentColor" stroke-width="1.00" stroke-linecap="butt" stroke-linejoin="miter">
	<path stroke='black'  d='M88.5,510.3 L97.5,510.3  '/>	<g transform="translate(80.2,514.2)" stroke="none" fill="black" font-family="Helvetica" font-size="12.00"  text-anchor="end">
		<text><tspan font-family="Helvetica" > 0.004</tspan></text>
	</g>
</g>
<g fill="none" color="black" stroke="currentColor" stroke-width="1.00" stroke-linecap="butt" stroke-linejoin="miter">
	<path stroke='black'  d='M88.5,434.3 L97.5,434.3  '/>	<g transform="translate(80.2,438.2)" stroke="none" fill="black" font-family="Helvetica" font-size="12.00"  text-anchor="end">
		<text><tspan font-family="Helvetica" > 0.006</tspan></text>
	</g>
</g>
<g fill="none" color="black" stroke="currentColor" stroke-width="1.00" stroke-linecap="butt" stroke-linejoin="miter">
	<path stroke='black'  d='M88.5,358.2 L97.5,358.2  '/>	<g transform="translate(80.2,362.1)" stroke="none" fill="black" font-family="Helvetica" font-size="12.00"  text-anchor="end">
		<text><tspan font-family="Helvetica" > 0.008</tspan></text>
	</g>
</g>
<g fill="none" color="black" stroke="currentColor" stroke-width="1.00" stroke-linecap="butt" stroke-linejoin="miter">
	<path stroke='black'  d='M88.5,282.2 L97.5,282.2  '/>	<g transform="translate(80.2,286.1)" stroke="none" fill="black" font-family="Helvetica" font-size="12.00"  text-anchor="end">
		<text><tspan font-family="Helvetica" > 0.01</tspan></text>
	</g>
</g>
<g fill="none" color="black" stroke="currentColor" stroke-width="1.00" stroke-linecap="butt" stroke-linejoin="miter">
	<path stroke='black'  d='M88.5,206.2 L97.5,206.2  '/>	<g transform="translate(80.2,210.1)" stroke="none" fill="black" font-family="Helvetica" font-size="12.00"  text-anchor="end">
		<text><tspan font-family="Helvetica" > 0.012</tspan></text>
	</g>
</g>
<g fill="none" color="black" stroke="currentColor" stroke-width="1.00" stroke-linecap="butt" stroke-linejoin="miter">
	<path stroke='black'  d='M88.5,130.1 L97.5,130.1  '/>	<g transform="translate(80.2,134.0)" stroke="none" fill="black" font-family="Helvetica" font-size="12.00"  text-anchor="end">
		<text><tspan font-family="Helvetica" > 0.014</tspan></text>
	</g>
</g>
<g fill="none" color="black" stroke="currentColor" stroke-width="1.00" stroke-linecap="butt" stroke-linejoin="miter">
	<path stroke='black'  d='M88.5,54.1 L97.5,54.1  '/>	<g transform="translate(80.2,58.0)" stroke="none" fill="black" font-family="Helvetica" font-size="12.00"  text-anchor="end">
		<text><tspan font-family="Helvetica" > 0.016</tspan></text>
	</g>
</g>
<g fill="none" color="black" stroke="currentColor" stroke-width="1.00" stroke-linecap="butt" stroke-linejoin="miter">
	<path stroke='black'  d='M138.8,662.4 L138.8,653.4  '/>	<g transform="translate(138.8,684.3)" stroke="none" fill="black" font-family="Helvetica" font-size="12.00"  text-anchor="middle">
		<text><tspan font-family="Helvetica" > 40</tspan></text>
	</g>
</g>
<g fill="none" color="black" stroke="currentColor" stroke-width="1.00" stroke-linecap="butt" stroke-linejoin="miter">
	<path stroke='black'  d='M263.9,662.4 L263.9,653.4  '/>	<g transform="translate(263.9,684.3)" stroke="none" fill="black" font-family="Helvetica" font-size="12.00"  text-anchor="middle">
		<text><tspan font-family="Helvetica" > 60</tspan></text>
	</g>
</g>
<g fill="none" color="black" stroke="currentColor" stroke-width="1.00" stroke-linecap="butt" stroke-linejoin="miter">
	<path stroke='black'  d='M389.1,662.4 L389.1,653.4  '/>	<g transform="translate(389.1,684.3)" stroke="none" fill="black" font-family="Helvetica" font-size="12.00"  text-anchor="middle">
		<text><tspan font-family="Helvetica" > 80</tspan></text>
	</g>
</g>
<g fill="none" color="black" stroke="currentColor" stroke-width="1.00" stroke-linecap="butt" stroke-linejoin="miter">
	<path stroke='black'  d='M514.2,662.4 L514.2,653.4  '/>	<g transform="translate(514.2,684.3)" stroke="none" fill="black" font-family="Helvetica" font-size="12.00"  text-anchor="middle">
		<text><tspan font-family="Helvetica" > 100</tspan></text>
	</g>
</g>
<g fill="none" color="black" stroke="currentColor" stroke-width="1.00" stroke-linecap="butt" stroke-linejoin="miter">
	<path stroke='black'  d='M639.4,662.4 L639.4,653.4  '/>	<g transform="translate(639.4,684.3)" stroke="none" fill="black" font-family="Helvetica" font-size="12.00"  text-anchor="middle">
		<text><tspan font-family="Helvetica" > 120</tspan></text>
	</g>
</g>
<g fill="none" color="black" stroke="currentColor" stroke-width="1.00" stroke-linecap="butt" stroke-linejoin="miter">
	<path stroke='black'  d='M764.5,662.4 L764.5,653.4  '/>	<g transform="translate(764.5,684.3)" stroke="none" fill="black" font-family="Helvetica" font-size="12.00"  text-anchor="middle">
		<text><tspan font-family="Helvetica" > 140</tspan></text>
	</g>
</g>
<g fill="none" color="black" stroke="currentColor" stroke-width="1.00" stroke-linecap="butt" stroke-linejoin="miter">
	<path stroke='black'  d='M889.7,662.4 L889.7,653.4  '/>	<g transform="translate(889.7,684.3)" stroke="none" fill="black" font-family="Helvetica" font-size="12.00"  text-anchor="middle">
		<text><tspan font-family="Helvetica" > 160</tspan></text>
	</g>
</g>
<g fill="none" color="black" stroke="currentColor" stroke-width="1.00" stroke-linecap="butt" stroke-linejoin="miter">
</g>
<g fill="none" color="black" stroke="currentColor" stroke-width="1.00" stroke-linecap="butt" stroke-linejoin="miter">
	<path stroke='black'  d='M88.5,54.1 L88.5,662.4 L1013.6,662.4 L1013.6,54.1 L88.5,54.1 Z  '/></g>
<g fill="none" color="black" stroke="currentColor" stroke-width="1.00" stroke-linecap="butt" stroke-linejoin="miter">
	<g transform="translate(16.3,358.3) rotate(270)" stroke="none" fill="black" font-family="Helvetica" font-size="12.00"  text-anchor="middle">
		<text><tspan font-family="Helvetica" >Density (a.u.)</tspan></text>
	</g>
</g>
<g fill="none" color="black" stroke="currentColor" stroke-width="1.00" stroke-linecap="butt" stroke-linejoin="miter">
	<g transform="translate(551.0,711.3)" stroke="none" fill="black" font-family="Helvetica" font-size="12.00"  text-anchor="middle">
		<text><tspan font-family="Helvetica" >Average time (ns)</tspan></text>
	</g>
</g>
<g fill="none" color="black" stroke="currentColor" stroke-width="1.00" stroke-linecap="butt" stroke-linejoin="miter">
	<g transform="translate(551.0,31.0)" stroke="none" fill="black" font-family="Helvetica" font-size="12.00"  text-anchor="middle">
		<text><tspan font-family="Helvetica" >snapshot_restore_with_dense/Dense: Dirty pages + process_vm_writev/1: SD</tspan></text>
	</g>
</g>
	<g id="gnuplot_plot_1" ><title>Bootstrap distribution</title>
<g fill="none" color="white" stroke="black" stroke-width="2.00" stroke-linecap="butt" stroke-linejoin="miter">
</g>
<g fill="none" color="black" stroke="currentColor" stroke-width="2.00" stroke-linecap="butt" stroke-linejoin="miter">
	<g transform="translate(1089.0,67.0)" stroke="none" fill="black" font-family="Helvetica" font-size="12.00"  text-anchor="start">
		<text><tspan font-family="Helvetica" >Bootstrap distribution</tspan></text>
	</g>
</g>
<g fill="none" color="black" stroke="currentColor" stroke-width="2.00" stroke-linecap="butt" stroke-linejoin="miter">
	<path stroke='rgb( 31, 120, 180)'  d='M1038.5,63.1 L1080.7,63.1 M88.5,638.4 L90.4,637.1 L92.2,635.8 L94.1,634.4 L95.9,633.0 L97.8,631.6
		L99.6,630.1 L101.5,628.6 L103.3,627.0 L105.2,625.4 L107.0,623.8 L108.9,622.1 L110.7,620.4 L112.6,618.6
		L114.5,616.8 L116.3,614.9 L118.2,613.0 L120.0,611.0 L121.9,608.9 L123.7,606.8 L125.6,604.7 L127.4,602.5
		L129.3,600.2 L131.1,597.9 L133.0,595.5 L134.8,593.0 L136.7,590.5 L138.6,588.0 L140.4,585.4 L142.3,582.7
		L144.1,580.1 L146.0,577.3 L147.8,574.6 L149.7,571.7 L151.5,568.9 L153.4,566.0 L155.2,563.1 L157.1,560.2
		L158.9,557.3 L160.8,554.3 L162.7,551.4 L164.5,548.4 L166.4,545.4 L168.2,542.5 L170.1,539.5 L171.9,536.5
		L173.8,533.6 L175.6,530.7 L177.5,527.7 L179.3,524.8 L181.2,521.9 L183.0,519.1 L184.9,516.2 L186.8,513.4
		L188.6,510.5 L190.5,507.7 L192.3,504.9 L194.2,502.1 L196.0,499.4 L197.9,496.6 L199.7,493.8 L201.6,491.0
		L203.4,488.3 L205.3,485.5 L207.2,482.7 L209.0,479.9 L210.9,477.0 L212.7,474.2 L214.6,471.3 L216.4,468.4
		L218.3,465.5 L220.1,462.5 L222.0,459.5 L223.8,456.5 L225.7,453.4 L227.5,450.3 L229.4,447.2 L231.3,444.1
		L233.1,440.9 L235.0,437.6 L236.8,434.4 L238.7,431.1 L240.5,427.8 L242.4,424.4 L244.2,421.1 L246.1,417.7
		L247.9,414.2 L249.8,410.8 L251.6,407.3 L253.5,403.9 L255.4,400.4 L257.2,396.9 L259.1,393.4 L260.9,389.9
		L262.8,386.5 L264.6,383.0 L266.5,379.6 L268.3,376.2 L270.2,372.9 L272.0,369.6 L273.9,366.4 L275.7,363.3
		L277.6,360.3 L279.5,357.3 L281.3,354.5 L283.2,351.7 L285.0,349.1 L286.9,346.7 L288.7,344.3 L290.6,342.1
		L292.4,340.1 L294.3,338.1 L296.1,336.4 L298.0,334.8 L299.8,333.3 L301.7,332.0 L303.6,330.9 L305.4,329.9
		L307.3,329.0 L309.1,328.3 L311.0,327.7 L312.8,327.3 L314.7,327.0 L316.5,326.8 L318.4,326.7 L320.2,326.8
		L322.1,326.9 L323.9,327.2 L325.8,327.6 L327.7,328.0 L329.5,328.6 L331.4,329.2 L333.2,330.0 L335.1,330.8
		L336.9,331.7 L338.8,332.7 L340.6,333.7 L342.5,334.8 L344.3,336.0 L346.2,337.3 L348.0,338.6 L349.9,339.9
		L351.8,341.4 L353.6,342.9 L355.5,344.4 L357.3,346.0 L359.2,347.6 L361.0,349.3 L362.9,351.1 L364.7,352.9
		L366.6,354.8 L368.4,356.7 L370.3,358.7 L372.1,360.8 L374.0,362.9 L375.9,365.1 L377.7,367.4 L379.6,369.7
		L381.4,372.1 L383.3,374.5 L385.1,377.1 L387.0,379.7 L388.8,382.3 L390.7,385.0 L392.5,387.8 L394.4,390.6
		L396.2,393.4 L398.1,396.2 L400.0,399.1 L401.8,401.9 L403.7,404.8 L405.5,407.6 L407.4,410.3 L409.2,413.1
		L411.1,415.7 L412.9,418.2 L414.8,420.6 L416.6,422.9 L418.5,425.1 L420.3,427.0 L422.2,428.8 L424.1,430.3
		L425.9,431.6 L427.8,432.6 L429.6,433.3 L431.5,433.7 L433.3,433.8 L435.2,433.5 L437.0,432.9 L438.9,431.9
		L440.7,430.4 L442.6,428.6 L444.5,426.4 L446.3,423.7 L448.2,420.7 L450.0,417.2 L451.9,413.3 L453.7,409.0
		L455.6,404.3 L457.4,399.2 L459.3,393.7 L461.1,387.9 L463.0,381.8 L464.8,375.3 L466.7,368.6 L468.6,361.6
		L470.4,354.4 L472.3,347.0 L474.1,339.5 L476.0,331.8 L477.8,324.0 L479.7,316.1 L481.5,308.2 L483.4,300.3
		L485.2,292.4 L487.1,284.5 L488.9,276.6 L490.8,268.9 L492.7,261.2 L494.5,253.6 L496.4,246.2 L498.2,238.8
		L500.1,231.6 L501.9,224.5 L503.8,217.6 L505.6,210.8 L507.5,204.1 L509.3,197.6 L511.2,191.2 L513.0,184.9
		L514.9,178.8 L516.8,172.8 L518.6,166.9 L520.5,161.2 L522.3,155.6 L524.2,150.2 L526.0,145.0 L527.9,140.0
		L529.7,135.1 L531.6,130.5 L533.4,126.1 L535.3,122.0 L537.1,118.2 L539.0,114.6 L540.9,111.4 L542.7,108.5
		L544.6,105.9 L546.4,103.8 L548.3,102.0 L550.1,100.6 L552.0,99.7 L553.8,99.1 L555.7,99.0 L557.5,99.3
		L559.4,100.0 L561.2,101.1 L563.1,102.7 L565.0,104.6 L566.8,107.0 L568.7,109.7 L570.5,112.8 L572.4,116.2
		L574.2,120.0 L576.1,124.0 L577.9,128.4 L579.8,133.0 L581.6,138.0 L583.5,143.1 L585.3,148.5 L587.2,154.2
		L589.1,160.0 L590.9,166.1 L592.8,172.3 L594.6,178.7 L596.5,185.3 L598.3,192.1 L600.2,199.0 L602.0,206.0
		L603.9,213.2 L605.7,220.4 L607.6,227.8 L609.4,235.2 L611.3,242.8 L613.2,250.3 L615.0,257.9 L616.9,265.5
		L618.7,273.0 L620.6,280.5 L622.4,287.8 L624.3,295.1 L626.1,302.2 L628.0,309.0 L629.8,315.7 L631.7,322.1
		L633.5,328.1 L635.4,333.9 L637.3,339.2 L639.1,344.2 L641.0,348.7 L642.8,352.8 L644.7,356.4 L646.5,359.5
		L648.4,362.1 L650.2,364.2 L652.1,365.8 L653.9,366.9 L655.8,367.5 L657.6,367.6 L659.5,367.2 L661.4,366.4
		L663.2,365.1 L665.1,363.5 L666.9,361.5 L668.8,359.2 L670.6,356.6 L672.5,353.8 L674.3,350.8 L676.2,347.6
		L678.0,344.2 L679.9,340.8 L681.8,337.3 L683.6,333.8 L685.5,330.3 L687.3,326.8 L689.2,323.4 L691.0,320.0
		L692.9,316.7 L694.7,313.6 L696.6,310.5 L698.4,307.7 L700.3,304.9 L702.1,302.3 L704.0,299.9 L705.9,297.7
		L707.7,295.7 L709.6,293.9 L711.4,292.2 L713.3,290.9 L715.1,289.7 L717.0,288.8 L718.8,288.2 L720.7,287.8
		L722.5,287.7 L724.4,287.9 L726.2,288.4 L728.1,289.3 L730.0,290.4 L731.8,291.9 L733.7,293.7 L735.5,295.8
		L737.4,298.3 L739.2,301.1 L741.1,304.2 L742.9,307.6 L744.8,311.4 L746.6,315.4 L748.5,319.7 L750.3,324.4
		L752.2,329.2 L754.1,334.4 L755.9,339.7 L757.8,345.3 L759.6,351.0 L761.5,356.9 L763.3,363.0 L765.2,369.2
		L767.0,375.5 L768.9,382.0 L770.7,388.4 L772.6,394.9 L774.4,401.5 L776.3,408.0 L778.2,414.5 L780.0,420.9
		L781.9,427.3 L783.7,433.5 L785.6,439.7 L787.4,445.6 L789.3,451.4 L791.1,457.0 L793.0,462.3 L794.8,467.5
		L796.7,472.3 L798.5,476.8 L800.4,481.1 L802.3,485.0 L804.1,488.7 L806.0,492.0 L807.8,494.9 L809.7,497.6
		L811.5,499.9 L813.4,501.9 L815.2,503.6 L817.1,505.0 L818.9,506.1 L820.8,506.9 L822.6,507.6 L824.5,507.9
		L826.4,508.1 L828.2,508.2 L830.1,508.0 L831.9,507.8 L833.8,507.4 L835.6,506.9 L837.5,506.4 L839.3,505.8
		L841.2,505.2 L843.0,504.6 L844.9,504.0 L846.7,503.4 L848.6,502.8 L850.5,502.3 L852.3,501.9 L854.2,501.5
		L856.0,501.2 L857.9,501.1 L859.7,501.0 L861.6,501.0 L863.4,501.2 L865.3,501.6 L867.1,502.0 L869.0,502.7
		L870.8,503.5 L872.7,504.4 L874.6,505.6 L876.4,506.9 L878.3,508.4 L880.1,510.1 L882.0,511.9 L883.8,514.0
		L885.7,516.2 L887.5,518.6 L889.4,521.1 L891.2,523.8 L893.1,526.7 L894.9,529.6 L896.8,532.7 L898.7,535.9
		L900.5,539.2 L902.4,542.6 L904.2,546.0 L906.1,549.4 L907.9,552.9 L909.8,556.4 L911.6,559.9 L913.5,563.3
		L915.3,566.7 L917.2,570.1 L919.1,573.3 L920.9,576.5 L922.8,579.6 L924.6,582.6 L926.5,585.4 L928.3,588.2
		L930.2,590.7 L932.0,593.2 L933.9,595.5 L935.7,597.6 L937.6,599.6 L939.4,601.4 L941.3,603.1 L943.2,604.6
		L945.0,606.0 L946.9,607.2 L948.7,608.3 L950.6,609.2 L952.4,610.1 L954.3,610.8 L956.1,611.5 L958.0,612.0
		L959.8,612.5 L961.7,612.9 L963.5,613.2 L965.4,613.5 L967.3,613.7 L969.1,614.0 L971.0,614.2 L972.8,614.4
		L974.7,614.6 L976.5,614.8 L978.4,615.0 L980.2,615.2 L982.1,615.4 L983.9,615.7 L985.8,616.0 L987.6,616.4
		L989.5,616.8 L991.4,617.2 L993.2,617.7 L995.1,618.2 L996.9,618.7 L998.8,619.3 L1000.6,620.0 L1002.5,620.7
		L1004.3,621.4 L1006.2,622.2 L1008.0,623.0 L1009.9,623.8 L1011.7,624.7 L1013.6,625.6  '/></g>
	</g>
	<g id="gnuplot_plot_2" ><title>Confidence interval</title>
<g fill="none" color="white" stroke="rgb( 31, 120, 180)" stroke-width="1.00" stroke-linecap="butt" stroke-linejoin="miter">
</g>
<g fill="none" color="black" stroke="currentColor" stroke-width="1.00" stroke-linecap="butt" stroke-linejoin="miter">
	<g transform="translate(1089.0,85.0)" stroke="none" fill="black" font-family="Helvetica" font-size="12.00"  text-anchor="start">
		<text><tspan font-family="Helvetica" >Confidence interval</tspan></text>
	</g>
</g>
<g fill="none" color="black" stroke="currentColor" stroke-width="1.00" stroke-linecap="butt" stroke-linejoin="miter">
	<g stroke='none' shape-rendering='crispEdges'>
		<polygon fill = 'rgb( 31, 120, 180)' fill-opacity = '0.250000' points = '1038.5,85.6 1080.7,85.6 1080.7,76.6 1038.5,76.6 '/>
		<polygon fill = 'rgb( 31, 120, 180)' fill-opacity = '0.250000' points = '173.8,533.6 175.6,530.7 177.5,527.7 179.3,524.8 181.2,521.9 183.0,519.1 184.9,516.2 186.8,513.4 188.6,510.5 190.5,507.7 192.3,504.9 194.2,502.1 196.0,499.4 197.9,496.6 199.7,493.8 201.6,491.0
203.4,488.3 205.3,485.5 207.2,482.7 209.0,479.9 210.9,477.0 212.7,474.2 214.6,471.3 216.4,468.4 218.3,465.5 220.1,462.5 222.0,459.5 223.8,456.5 225.7,453.4 227.5,450.3 229.4,447.2 231.3,444.1
233.1,440.9 235.0,437.6 236.8,434.4 238.7,431.1 240.5,427.8 242.4,424.4 244.2,421.1 246.1,417.7 247.9,414.2 249.8,410.8 251.6,407.3 253.5,403.9 255.4,400.4 257.2,396.9 259.1,393.4 260.9,389.9
262.8,386.5 264.6,383.0 266.5,379.6 268.3,376.2 270.2,372.9 272.0,369.6 273.9,366.4 275.7,363.3 277.6,360.3 279.5,357.3 281.3,354.5 283.2,351.7 285.0,349.1 286.9,346.7 288.7,344.3 290.6,342.1
292.4,340.1 294.3,338.1 296.1,336.4 298.0,334.8 299.8,333.3 301.7,332.0 303.6,330.9 305.4,329.9 307.3,329.0 309.1,328.3 311.0,327.7 312.8,327.3 314.7,327.0 316.5,326.8 318.4,326.7 320.2,326.8
322.1,326.9 323.9,327.2 325.8,327.6 327.7,328.0 329.5,328.6 331.4,329.2 333.2,330.0 335.1,330.8 336.9,331.7 338.8,332.7 340.6,333.7 342.5,334.8 344.3,336.0 346.2,337.3 348.0,338.6 349.9,339.9
351.8,341.4 353.6,342.9 355.5,344.4 357.3,346.0 359.2,347.6 361.0,349.3 362.9,351.1 364.7,352.9 366.6,354.8 368.4,356.7 370.3,358.7 372.1,360.8 374.0,362.9 375.9,365.1 377.7,367.4 379.6,369.7
381.4,372.1 383.3,374.5 385.1,377.1 387.0,379.7 388.8,382.3 390.7,385.0 392.5,387.8 394.4,390.6 396.2,393.4 398.1,396.2 400.0,399.1 401.8,401.9 403.7,404.8 405.5,407.6 407.4,410.3 409.2,413.1
411.1,415.7 412.9,418.2 414.8,420.6 416.6,422.9 418.5,425.1 420.3,427.0 422.2,428.8 424.1,430.3 425.9,431.6 427.8,432.6 429.6,433.3 431.5,433.7 433.3,433.8 435.2,433.5 437.0,432.9 438.9,431.9
440.7,430.4 442.6,428.6 444.5,426.4 446.3,423.7 448.2,420.7 450.0,417.2 451.9,413.3 453.7,409.0 455.6,404.3 457.4,399.2 459.3,393.7 461.1,387.9 463.0,381.8 464.8,375.3 466.7,368.6 468.6,361.6
470.4,354.4 472.3,347.0 474.1,339.5 476.0,331.8 477.8,324.0 479.7,316.1 481.5,308.2 483.4,300.3 485.2,292.4 487.1,284.5 488.9,276.6 490.8,268.9 492.7,261.2 494.5,253.6 496.4,246.2 498.2,238.8
500.1,231.6 501.9,224.5 503.8,217.6 505.6,210.8 507.5,204.1 509.3,197.6 511.2,191.2 513.0,184.9 514.9,178.8 516.8,172.8 518.6,166.9 520.5,161.2 522.3,155.6 524.2,150.2 526.0,145.0 527.9,140.0
529.7,135.1 531.6,130.5 533.4,126.1 535.3,122.0 537.1,118.2 539.0,114.6 540.9,111.4 542.7,108.5 544.6,105.9 546.4,103.8 548.3,102.0 550.1,100.6 552.0,99.7 553.8,99.1 555.7,99.0 557.5,99.3
559.4,100.0 561.2,101.1 563.1,102.7 565.0,104.6 566.8,107.0 568.7,109.7 570.5,112.8 572.4,116.2 574.2,120.0 576.1,124.0 577.9,128.4 579.8,133.0 581.6,138.0 583.5,143.1 585.3,148.5 587.2,154.2
589.1,160.0 590.9,166.1 592.8,172.3 594.6,178.7 596.5,185.3 598.3,192.1 600.2,199.0 602.0,206.0 603.9,213.2 605.7,220.4 607.6,227.8 609.4,235.2 611.3,242.8 613.2,250.3 615.0,257.9 616.9,265.5
618.7,273.0 620.6,280.5 622.4,287.8 624.3,295.1 626.1,302.2 628.0,309.0 629.8,315.7 631.7,322.1 633.5,328.1 635.4,333.9 637.3,339.2 639.1,344.2 641.0,348.7 642.8,352.8 644.7,356.4 646.5,359.5
648.4,362.1 650.2,364.2 652.1,365.8 653.9,366.9 655.8,367.5 657.6,367.6 659.5,367.2 661.4,366.4 663.2,365.1 665.1,363.5 666.9,361.5 668.8,359.2 670.6,356.6 672.5,353.8 674.3,350.8 676.2,347.6
678.0,344.2 679.9,340.8 681.8,337.3 683.6,333.8 685.5,330.3 687.3,326.8 689.2,323.4 691.0,320.0 692.9,316.7 694.7,313.6 696.6,310.5 698.4,307.7 700.3,304.9 702.1,302.3 704.0,299.9 705.9,297.7
707.7,295.7 709.6,293.9 711.4,292.2 713.3,290.9 715.1,289.7 717.0,288.8 718.8,288.2 720.7,287.8 722.5,287.7 724.4,287.9 726.2,288.4 728.1,289.3 730.0,290.4 731.8,291.9 733.7,293.7 735.5,295.8
737.4,298.3 739.2,301.1 741.1,304.2 742.9,307.6 744.8,311.4 746.6,315.4 748.5,319.7 750.3,324.4 752.2,329.2 754.1,334.4 755.9,339.7 757.8,345.3 759.6,351.0 761.5,356.9 763.3,363.0 765.2,369.2
767.0,375.5 768.9,382.0 770.7,388.4 772.6,394.9 774.4,401.5 776.3,408.0 778.2,414.5 780.0,420.9 781.9,427.3 783.7,433.5 785.6,439.7 787.4,445.6 789.3,451.4 791.1,457.0 793.0,462.3 794.8,467.5
796.7,472.3 798.5,476.8 800.4,481.1 802.3,485.0 804.1,488.7 806.0,492.0 807.8,494.9 809.7,497.6 811.5,499.9 813.4,501.9 815.2,503.6 817.1,505.0 818.9,506.1 820.8,506.9 822.6,507.6 824.5,507.9
826.4,508.1 828.2,508.2 830.1,508.0 831.9,507.8 833.8,507.4 835.6,506.9 837.5,506.4 839.3,505.8 841.2,505.2 843.0,504.6 844.9,504.0 846.7,503.4 848.6,502.8 850.5,502.3 852.3,501.9 854.2,501.5
856.0,501.2 857.9,501.1 859.7,501.0 861.6,501.0 863.4,501.2 865.3,501.6 867.1,502.0 869.0,502.7 870.8,503.5 872.7,504.4 874.6,505.6 876.4,506.9 878.3,508.4 880.1,510.1 882.0,511.9 883.8,514.0
885.7,516.2 887.5,518.6 889.4,521.1 891.2,523.8 893.1,526.7 894.9,529.6 896.8,532.7 898.7,535.9 900.5,539.2 902.4,542.6 904.2,546.0 906.1,549.4 907.9,552.9 909.8,556.4 911.6,559.9 913.5,563.3
915.3,566.7 917.2,570.1 919.1,573.3 920.9,576.5 922.8,579.6 924.6,582.6 926.5,585.4 926.5,662.4 924.6,662.4 922.8,662.4 920.9,662.4 919.1,662.4 917.2,662.4 915.3,662.4 913.5,662.4 911.6,662.4
909.8,662.4 907.9,662.4 906.1,662.4 904.2,662.4 902.4,662.4 900.5,662.4 898.7,662.4 896.8,662.4 894.9,662.4 893.1,662.4 891.2,662.4 889.4,662.4 887.5,662.4 885.7,662.4 883.8,662.4 882.0,662.4
880.1,662.4 878.3,662.4 876.4,662.4 874.6,662.4 872.7,662.4 870.8,662.4 869.0,662.4 867.1,662.4 865.3,662.4 863.4,662.4 861.6,662.4 859.7,662.4 857.9,662.4 856.0,662.4 854.2,662.4 852.3,662.4
850.5,662.4 848.6,662.4 846.7,662.4 844.9,662.4 843.0,662.4 841.2,662.4 839.3,662.4 837.5,662.4 835.6,662.4 833.8,662.4 831.9,662.4 830.1,662.4 828.2,662.4 826.4,662.4 824.5,662.4 822.6,662.4
820.8,662.4 818.9,662.4 817.1,662.4 815.2,662.4 813.4,662.4 811.5,662.4 809.7,662.4 807.8,662.4 806.0,662.4 804.1,662.4 802.3,662.4 800.4,662.4 798.5,662.4 796.7,662.4 794.8,662.4 793.0,662.4
791.1,662.4 789.3,662.4 787.4,662.4 785.6,662.4 783.7,662.4 781.9,662.4 780.0,662.4 778.2,662.4 776.3,662.4 774.4,662.4 772.6,662.4 770.7,662.4 768.9,662.4 767.0,662.4 765.2,662.4 763.3,662.4
761.5,662.4 759.6,662.4 757.8,662.4 755.9,662.4 754.1,662.4 752.2,662.4 750.3,662.4 748.5,662.4 746.6,662.4 744.8,662.4 742.9,662.4 741.1,662.4 739.2,662.4 737.4,662.4 735.5,662.4 733.7,662.4
731.8,662.4 730.0,662.4 728.1,662.4 726.2,662.4 724.4,662.4 722.5,662.4 720.7,662.4 718.8,662.4 717.0,662.4 715.1,662.4 713.3,662.4 711.4,662.4 709.6,662.4 707.7,662.4 705.9,662.4 704.0,662.4
702.1,662.4 700.3,662.4 698.4,662.4 696.6,662.4 694.7,662.4 692.9,662.4 691.0,662.4 689.2,662.4 687.3,662.4 685.5,662.4 683.6,662.4 681.8,662.4 679.9,662.4 678.0,662.4 676.2,662.4 674.3,662.4
672.5,662.4 670.6,662.4 668.8,662.4 666.9,662.4 665.1,662.4 663.2,662.4 661.4,662.4 659.5,662.4 657.6,662.4 655.8,662.4 653.9,662.4 652.1,662.4 650.2,662.4 648.4,662.4 646.5,662.4 644.7,662.4
642.8,662.4 641.0,662.4 639.1,662.4 637.3,662.4 635.4,662.4 633.5,662.4 631.7,662.4 629.8,662.4 628.0,662.4 626.1,662.4 624.3,662.4 622.4,662.4 620.6,662.4 618.7,662.4 616.9,662.4 615.0,662.4
613.2,662.4 611.3,662.4 609.4,662.4 607.6,662.4 605.7,662.4 603.9,662.4 602.0,662.4 600.2,662.4 598.3,662.4 596.5,662.4 594.6,662.4 592.8,662.4 590.9,662.4 589.1,662.4 587.2,662.4 585.3,662.4
583.5,662.4 581.6,662.4 579.8,662.4 577.9,662.4 576.1,662.4 574.2,662.4 572.4,662.4 570.5,662.4 568.7,662.4 566.8,662.4 565.0,662.4 563.1,662.4 561.2,662.4 559.4,662.4 557.5,662.4 555.7,662.4
553.8,662.4 552.0,662.4 550.1,662.4 548.3,662.4 546.4,662.4 544.6,662.4 542.7,662.4 540.9,662.4 539.0,662.4 537.1,662.4 535.3,662.4 533.4,662.4 531.6,662.4 529.7,662.4 527.9,662.4 526.0,662.4
524.2,662.4 522.3,662.4 520.5,662.4 518.6,662.4 516.8,662.4 514.9,662.4 513.0,662.4 511.2,662.4 509.3,662.4 507.5,662.4 505.6,662.4 503.8,662.4 501.9,662.4 500.1,662.4 498.2,662.4 496.4,662.4
494.5,662.4 492.7,662.4 490.8,662.4 488.9,662.4 487.1,662.4 485.2,662.4 483.4,662.4 481.5,662.4 479.7,662.4 477.8,662.4 476.0,662.4 474.1,662.4 472.3,662.4 470.4,662.4 468.6,662.4 466.7,662.4
464.8,662.4 463.0,662.4 461.1,662.4 459.3,662.4 457.4,662.4 455.6,662.4 453.7,662.4 451.9,662.4 450.0,662.4 448.2,662.4 446.3,662.4 444.5,662.4 442.6,662.4 440.7,662.4 438.9,662.4 437.0,662.4
435.2,662.4 433.3,662.4 431.5,662.4 429.6,662.4 427.8,662.4 425.9,662.4 424.1,662.4 422.2,662.4 420.3,662.4 418.5,662.4 416.6,662.4 414.8,662.4 412.9,662.4 411.1,662.4 409.2,662.4 407.4,662.4
405.5,662.4 403.7,662.4 401.8,662.4 400.0,662.4 398.1,662.4 396.2,662.4 394.4,662.4 392.5,662.4 390.7,662.4 388.8,662.4 387.0,662.4 385.1,662.4 383.3,662.4 381.4,662.4 379.6,662.4 377.7,662.4
375.9,662.4 374.0,662.4 372.1,662.4 370.3,662.4 368.4,662.4 366.6,662.4 364.7,662.4 362.9,662.4 361.0,662.4 359.2,662.4 357.3,662.4 355.5,662.4 353.6,662.4 351.8,662.4 349.9,662.4 348.0,662.4
346.2,662.4 344.3,662.4 342.5,662.4 340.6,662.4 338.8,662.4 336.9,662.4 335.1,662.4 333.2,662.4 331.4,662.4 329.5,662.4 327.7,662.4 325.8,662.4 323.9,662.4 322.1,662.4 320.2,662.4 318.4,662.4
316.5,662.4 314.7,662.4 312.8,662.4 311.0,662.4 309.1,662.4 307.3,662.4 305.4,662.4 303.6,662.4 301.7,662.4 299.8,662.4 298.0,662.4 296.1,662.4 294.3,662.4 292.4,662.4 290.6,662.4 288.7,662.4
286.9,662.4 285.0,662.4 283.2,662.4 281.3,662.4 279.5,662.4 277.6,662.4 275.7,662.4 273.9,662.4 272.0,662.4 270.2,662.4 268.3,662.4 266.5,662.4 264.6,662.4 262.8,662.4 260.9,662.4 259.1,662.4
257.2,662.4 255.4,662.4 253.5,662.4 251.6,662.4 249.8,662.4 247.9,662.4 246.1,662.4 244.2,662.4 242.4,662.4 240.5,662.4 238.7,662.4 236.8,662.4 235.0,662.4 233.1,662.4 231.3,662.4 229.4,662.4
227.5,662.4 225.7,662.4 223.8,662.4 222.0,662.4 220.1,662.4 218.3,662.4 216.4,662.4 214.6,662.4 212.7,662.4 210.9,662.4 209.0,662.4 207.2,662.4 205.3,662.4 203.4,662.4 201.6,662.4 199.7,662.4
197.9,662.4 196.0,662.4 194.2,662.4 192.3,662.4 190.5,662.4 188.6,662.4 186.8,662.4 184.9,662.4 183.0,662.4 181.2,662.4 179.3,662.4 177.5,662.4 175.6,662.4 173.8,662.4 '/>
	</g>
</g>
	</g>
	<g id="gnuplot_plot_3" ><title>Point estimate</title>
<g fill="none" color="white" stroke="rgb( 31, 120, 180)" stroke-width="2.00" stroke-linecap="butt" stroke-linejoin="miter">
</g>
<g fill="none" color="black" stroke="currentColor" stroke-width="2.00" stroke-linecap="butt" stroke-linejoin="miter">
	<g transform="translate(1089.0,103.0)" stroke="none" fill="black" font-family="Helvetica" font-size="12.00"  text-anchor="start">
		<text><tspan font-family="Helvetica" >Point estimate</tspan></text>
	</g>
</g>
<g fill="none" color="black" stroke="currentColor" stroke-width="2.00" stroke-linecap="butt" stroke-linejoin="miter">
	<path stroke='rgb( 31, 120, 180)'  d='M1038.5,99.1 L1080.7,99.1 M574.3,662.4 L574.3,120.1  '/></g>
	</g>
<g fill="none" color="black" stroke="currentColor" stroke-width="2.00" stroke-linecap="butt" stroke-linejoin="miter">
</g>
<g fill="none" color="black" stroke="black" stroke-width="1.00" stroke-linecap="butt" stroke-linejoin="miter">
</g>
<g fill="none" color="black" stroke="currentColor" stroke-width="1.00" stroke-linecap="butt" stroke-linejoin="miter">
	<path stroke='black'  d='M88.5,54.1 L88.5,662.4 L1013.6,662.4 L1013.6,54.1 L88.5,54.1 Z  '/></g>
<g fill="none" color="black" stroke="currentColor" stroke-width="1.00" stroke-linecap="butt" stroke-linejoin="miter">
</g>
</g>
</svg>

