group,function,value,throughput_num,throughput_type,sample_measured_value,unit,iteration_count
snapshot_restore_with_dense,Sparse: Entire region + process_vm_writev w/ page size,463,,,2822803.0,ns,1
snapshot_restore_with_dense,Sparse: Entire region + process_vm_writev w/ page size,463,,,5563409.0,ns,2
snapshot_restore_with_dense,Sparse: Entire region + process_vm_writev w/ page size,463,,,8966417.0,ns,3
snapshot_restore_with_dense,Sparse: Entire region + process_vm_writev w/ page size,463,,,11767096.0,ns,4
snapshot_restore_with_dense,Sparse: Entire region + process_vm_writev w/ page size,463,,,14704568.0,ns,5
snapshot_restore_with_dense,Sparse: Entire region + process_vm_writev w/ page size,463,,,16881192.0,ns,6
snapshot_restore_with_dense,Sparse: Entire region + process_vm_writev w/ page size,463,,,19367994.0,ns,7
snapshot_restore_with_dense,Sparse: Entire region + process_vm_writev w/ page size,463,,,22126448.0,ns,8
snapshot_restore_with_dense,Sparse: Entire region + process_vm_writev w/ page size,463,,,24904257.0,ns,9
snapshot_restore_with_dense,Sparse: Entire region + process_vm_writev w/ page size,463,,,27729339.0,ns,10
snapshot_restore_with_dense,Sparse: Entire region + process_vm_writev w/ page size,463,,,30464605.0,ns,11
snapshot_restore_with_dense,Sparse: Entire region + process_vm_writev w/ page size,463,,,33165584.0,ns,12
snapshot_restore_with_dense,Sparse: Entire region + process_vm_writev w/ page size,463,,,35948327.0,ns,13
snapshot_restore_with_dense,Sparse: Entire region + process_vm_writev w/ page size,463,,,38715810.0,ns,14
snapshot_restore_with_dense,Sparse: Entire region + process_vm_writev w/ page size,463,,,41454091.0,ns,15
snapshot_restore_with_dense,Sparse: Entire region + process_vm_writev w/ page size,463,,,44255681.0,ns,16
snapshot_restore_with_dense,Sparse: Entire region + process_vm_writev w/ page size,463,,,47049051.0,ns,17
snapshot_restore_with_dense,Sparse: Entire region + process_vm_writev w/ page size,463,,,49973341.0,ns,18
snapshot_restore_with_dense,Sparse: Entire region + process_vm_writev w/ page size,463,,,52699473.0,ns,19
snapshot_restore_with_dense,Sparse: Entire region + process_vm_writev w/ page size,463,,,55535791.0,ns,20
snapshot_restore_with_dense,Sparse: Entire region + process_vm_writev w/ page size,463,,,58064001.0,ns,21
snapshot_restore_with_dense,Sparse: Entire region + process_vm_writev w/ page size,463,,,60891466.0,ns,22
snapshot_restore_with_dense,Sparse: Entire region + process_vm_writev w/ page size,463,,,63566177.0,ns,23
snapshot_restore_with_dense,Sparse: Entire region + process_vm_writev w/ page size,463,,,66383388.0,ns,24
snapshot_restore_with_dense,Sparse: Entire region + process_vm_writev w/ page size,463,,,69135982.0,ns,25
snapshot_restore_with_dense,Sparse: Entire region + process_vm_writev w/ page size,463,,,71943035.0,ns,26
snapshot_restore_with_dense,Sparse: Entire region + process_vm_writev w/ page size,463,,,74674263.0,ns,27
snapshot_restore_with_dense,Sparse: Entire region + process_vm_writev w/ page size,463,,,77513302.0,ns,28
snapshot_restore_with_dense,Sparse: Entire region + process_vm_writev w/ page size,463,,,80265325.0,ns,29
snapshot_restore_with_dense,Sparse: Entire region + process_vm_writev w/ page size,463,,,82974039.0,ns,30
snapshot_restore_with_dense,Sparse: Entire region + process_vm_writev w/ page size,463,,,85776597.0,ns,31
snapshot_restore_with_dense,Sparse: Entire region + process_vm_writev w/ page size,463,,,88638762.0,ns,32
snapshot_restore_with_dense,Sparse: Entire region + process_vm_writev w/ page size,463,,,91305770.0,ns,33
snapshot_restore_with_dense,Sparse: Entire region + process_vm_writev w/ page size,463,,,94086377.0,ns,34
snapshot_restore_with_dense,Sparse: Entire region + process_vm_writev w/ page size,463,,,96822106.0,ns,35
snapshot_restore_with_dense,Sparse: Entire region + process_vm_writev w/ page size,463,,,99642566.0,ns,36
snapshot_restore_with_dense,Sparse: Entire region + process_vm_writev w/ page size,463,,,102362814.0,ns,37
snapshot_restore_with_dense,Sparse: Entire region + process_vm_writev w/ page size,463,,,105078423.0,ns,38
snapshot_restore_with_dense,Sparse: Entire region + process_vm_writev w/ page size,463,,,107890457.0,ns,39
snapshot_restore_with_dense,Sparse: Entire region + process_vm_writev w/ page size,463,,,110723240.0,ns,40
snapshot_restore_with_dense,Sparse: Entire region + process_vm_writev w/ page size,463,,,113420286.0,ns,41
snapshot_restore_with_dense,Sparse: Entire region + process_vm_writev w/ page size,463,,,116219206.0,ns,42
snapshot_restore_with_dense,Sparse: Entire region + process_vm_writev w/ page size,463,,,118930458.0,ns,43
snapshot_restore_with_dense,Sparse: Entire region + process_vm_writev w/ page size,463,,,121663150.0,ns,44
snapshot_restore_with_dense,Sparse: Entire region + process_vm_writev w/ page size,463,,,124468392.0,ns,45
snapshot_restore_with_dense,Sparse: Entire region + process_vm_writev w/ page size,463,,,127257472.0,ns,46
snapshot_restore_with_dense,Sparse: Entire region + process_vm_writev w/ page size,463,,,130143189.0,ns,47
snapshot_restore_with_dense,Sparse: Entire region + process_vm_writev w/ page size,463,,,133262505.0,ns,48
snapshot_restore_with_dense,Sparse: Entire region + process_vm_writev w/ page size,463,,,135658813.0,ns,49
snapshot_restore_with_dense,Sparse: Entire region + process_vm_writev w/ page size,463,,,138411844.0,ns,50
snapshot_restore_with_dense,Sparse: Entire region + process_vm_writev w/ page size,463,,,141107767.0,ns,51
snapshot_restore_with_dense,Sparse: Entire region + process_vm_writev w/ page size,463,,,143772377.0,ns,52
snapshot_restore_with_dense,Sparse: Entire region + process_vm_writev w/ page size,463,,,146598866.0,ns,53
snapshot_restore_with_dense,Sparse: Entire region + process_vm_writev w/ page size,463,,,149308234.0,ns,54
snapshot_restore_with_dense,Sparse: Entire region + process_vm_writev w/ page size,463,,,152166015.0,ns,55
snapshot_restore_with_dense,Sparse: Entire region + process_vm_writev w/ page size,463,,,154887103.0,ns,56
snapshot_restore_with_dense,Sparse: Entire region + process_vm_writev w/ page size,463,,,158201079.0,ns,57
snapshot_restore_with_dense,Sparse: Entire region + process_vm_writev w/ page size,463,,,160344882.0,ns,58
snapshot_restore_with_dense,Sparse: Entire region + process_vm_writev w/ page size,463,,,163168319.0,ns,59
snapshot_restore_with_dense,Sparse: Entire region + process_vm_writev w/ page size,463,,,165951956.0,ns,60
snapshot_restore_with_dense,Sparse: Entire region + process_vm_writev w/ page size,463,,,170664375.0,ns,61
snapshot_restore_with_dense,Sparse: Entire region + process_vm_writev w/ page size,463,,,180291167.0,ns,62
snapshot_restore_with_dense,Sparse: Entire region + process_vm_writev w/ page size,463,,,177099361.0,ns,63
snapshot_restore_with_dense,Sparse: Entire region + process_vm_writev w/ page size,463,,,180633357.0,ns,64
snapshot_restore_with_dense,Sparse: Entire region + process_vm_writev w/ page size,463,,,183493065.0,ns,65
snapshot_restore_with_dense,Sparse: Entire region + process_vm_writev w/ page size,463,,,185286813.0,ns,66
snapshot_restore_with_dense,Sparse: Entire region + process_vm_writev w/ page size,463,,,186965342.0,ns,67
snapshot_restore_with_dense,Sparse: Entire region + process_vm_writev w/ page size,463,,,196726369.0,ns,68
snapshot_restore_with_dense,Sparse: Entire region + process_vm_writev w/ page size,463,,,194181844.0,ns,69
snapshot_restore_with_dense,Sparse: Entire region + process_vm_writev w/ page size,463,,,195468468.0,ns,70
snapshot_restore_with_dense,Sparse: Entire region + process_vm_writev w/ page size,463,,,197962200.0,ns,71
snapshot_restore_with_dense,Sparse: Entire region + process_vm_writev w/ page size,463,,,201167288.0,ns,72
snapshot_restore_with_dense,Sparse: Entire region + process_vm_writev w/ page size,463,,,204674435.0,ns,73
snapshot_restore_with_dense,Sparse: Entire region + process_vm_writev w/ page size,463,,,205379036.0,ns,74
snapshot_restore_with_dense,Sparse: Entire region + process_vm_writev w/ page size,463,,,207405586.0,ns,75
snapshot_restore_with_dense,Sparse: Entire region + process_vm_writev w/ page size,463,,,210245946.0,ns,76
snapshot_restore_with_dense,Sparse: Entire region + process_vm_writev w/ page size,463,,,212963088.0,ns,77
snapshot_restore_with_dense,Sparse: Entire region + process_vm_writev w/ page size,463,,,216277743.0,ns,78
snapshot_restore_with_dense,Sparse: Entire region + process_vm_writev w/ page size,463,,,218448808.0,ns,79
snapshot_restore_with_dense,Sparse: Entire region + process_vm_writev w/ page size,463,,,221233052.0,ns,80
snapshot_restore_with_dense,Sparse: Entire region + process_vm_writev w/ page size,463,,,224126853.0,ns,81
snapshot_restore_with_dense,Sparse: Entire region + process_vm_writev w/ page size,463,,,226919904.0,ns,82
snapshot_restore_with_dense,Sparse: Entire region + process_vm_writev w/ page size,463,,,229813978.0,ns,83
snapshot_restore_with_dense,Sparse: Entire region + process_vm_writev w/ page size,463,,,232237539.0,ns,84
snapshot_restore_with_dense,Sparse: Entire region + process_vm_writev w/ page size,463,,,235123597.0,ns,85
snapshot_restore_with_dense,Sparse: Entire region + process_vm_writev w/ page size,463,,,239617844.0,ns,86
snapshot_restore_with_dense,Sparse: Entire region + process_vm_writev w/ page size,463,,,240633485.0,ns,87
snapshot_restore_with_dense,Sparse: Entire region + process_vm_writev w/ page size,463,,,243401919.0,ns,88
snapshot_restore_with_dense,Sparse: Entire region + process_vm_writev w/ page size,463,,,246350253.0,ns,89
snapshot_restore_with_dense,Sparse: Entire region + process_vm_writev w/ page size,463,,,249413730.0,ns,90
snapshot_restore_with_dense,Sparse: Entire region + process_vm_writev w/ page size,463,,,251915540.0,ns,91
snapshot_restore_with_dense,Sparse: Entire region + process_vm_writev w/ page size,463,,,254320304.0,ns,92
snapshot_restore_with_dense,Sparse: Entire region + process_vm_writev w/ page size,463,,,257141511.0,ns,93
snapshot_restore_with_dense,Sparse: Entire region + process_vm_writev w/ page size,463,,,259941519.0,ns,94
snapshot_restore_with_dense,Sparse: Entire region + process_vm_writev w/ page size,463,,,263227093.0,ns,95
snapshot_restore_with_dense,Sparse: Entire region + process_vm_writev w/ page size,463,,,265326220.0,ns,96
snapshot_restore_with_dense,Sparse: Entire region + process_vm_writev w/ page size,463,,,268543181.0,ns,97
snapshot_restore_with_dense,Sparse: Entire region + process_vm_writev w/ page size,463,,,272211803.0,ns,98
snapshot_restore_with_dense,Sparse: Entire region + process_vm_writev w/ page size,463,,,273818231.0,ns,99
snapshot_restore_with_dense,Sparse: Entire region + process_vm_writev w/ page size,463,,,276569873.0,ns,100
