<?xml version="1.0" encoding="utf-8"  standalone="no"?>
<svg 
 viewBox="0 0 1280 720"
 xmlns="http://www.w3.org/2000/svg"
 xmlns:xlink="http://www.w3.org/1999/xlink"
>

<title>Gnuplot</title>
<desc>Produced by GNUPLOT 5.2 patchlevel 6 </desc>

<g id="gnuplot_canvas">

<rect x="0" y="0" width="1280" height="720" fill="none"/>
<defs>

	<circle id='gpDot' r='0.5' stroke-width='0.5' stroke='currentColor'/>
	<path id='gpPt0' stroke-width='0.222' stroke='currentColor' d='M-1,0 h2 M0,-1 v2'/>
	<path id='gpPt1' stroke-width='0.222' stroke='currentColor' d='M-1,-1 L1,1 M1,-1 L-1,1'/>
	<path id='gpPt2' stroke-width='0.222' stroke='currentColor' d='M-1,0 L1,0 M0,-1 L0,1 M-1,-1 L1,1 M-1,1 L1,-1'/>
	<rect id='gpPt3' stroke-width='0.222' stroke='currentColor' x='-1' y='-1' width='2' height='2'/>
	<rect id='gpPt4' stroke-width='0.222' stroke='currentColor' fill='currentColor' x='-1' y='-1' width='2' height='2'/>
	<circle id='gpPt5' stroke-width='0.222' stroke='currentColor' cx='0' cy='0' r='1'/>
	<use xlink:href='#gpPt5' id='gpPt6' fill='currentColor' stroke='none'/>
	<path id='gpPt7' stroke-width='0.222' stroke='currentColor' d='M0,-1.33 L-1.33,0.67 L1.33,0.67 z'/>
	<use xlink:href='#gpPt7' id='gpPt8' fill='currentColor' stroke='none'/>
	<use xlink:href='#gpPt7' id='gpPt9' stroke='currentColor' transform='rotate(180)'/>
	<use xlink:href='#gpPt9' id='gpPt10' fill='currentColor' stroke='none'/>
	<use xlink:href='#gpPt3' id='gpPt11' stroke='currentColor' transform='rotate(45)'/>
	<use xlink:href='#gpPt11' id='gpPt12' fill='currentColor' stroke='none'/>
	<path id='gpPt13' stroke-width='0.222' stroke='currentColor' d='M0,1.330 L1.265,0.411 L0.782,-1.067 L-0.782,-1.076 L-1.265,0.411 z'/>
	<use xlink:href='#gpPt13' id='gpPt14' fill='currentColor' stroke='none'/>
	<filter id='textbox' filterUnits='objectBoundingBox' x='0' y='0' height='1' width='1'>
	  <feFlood flood-color='white' flood-opacity='1' result='bgnd'/>
	  <feComposite in='SourceGraphic' in2='bgnd' operator='atop'/>
	</filter>
	<filter id='greybox' filterUnits='objectBoundingBox' x='0' y='0' height='1' width='1'>
	  <feFlood flood-color='lightgrey' flood-opacity='1' result='grey'/>
	  <feComposite in='SourceGraphic' in2='grey' operator='atop'/>
	</filter>
</defs>
<g fill="none" color="white" stroke="currentColor" stroke-width="1.00" stroke-linecap="butt" stroke-linejoin="miter">
</g>
<g fill="none" color="black" stroke="currentColor" stroke-width="1.00" stroke-linecap="butt" stroke-linejoin="miter">
	<path stroke='black'  d='M71.9,662.4 L80.9,662.4  '/>	<g transform="translate(63.6,666.3)" stroke="none" fill="black" font-family="Helvetica" font-size="12.00"  text-anchor="end">
		<text><tspan font-family="Helvetica" > 0</tspan></text>
	</g>
</g>
<g fill="none" color="black" stroke="currentColor" stroke-width="1.00" stroke-linecap="butt" stroke-linejoin="miter">
	<path stroke='black'  d='M71.9,586.4 L80.9,586.4  '/>	<g transform="translate(63.6,590.3)" stroke="none" fill="black" font-family="Helvetica" font-size="12.00"  text-anchor="end">
		<text><tspan font-family="Helvetica" > 20</tspan></text>
	</g>
</g>
<g fill="none" color="black" stroke="currentColor" stroke-width="1.00" stroke-linecap="butt" stroke-linejoin="miter">
	<path stroke='black'  d='M71.9,510.3 L80.9,510.3  '/>	<g transform="translate(63.6,514.2)" stroke="none" fill="black" font-family="Helvetica" font-size="12.00"  text-anchor="end">
		<text><tspan font-family="Helvetica" > 40</tspan></text>
	</g>
</g>
<g fill="none" color="black" stroke="currentColor" stroke-width="1.00" stroke-linecap="butt" stroke-linejoin="miter">
	<path stroke='black'  d='M71.9,434.3 L80.9,434.3  '/>	<g transform="translate(63.6,438.2)" stroke="none" fill="black" font-family="Helvetica" font-size="12.00"  text-anchor="end">
		<text><tspan font-family="Helvetica" > 60</tspan></text>
	</g>
</g>
<g fill="none" color="black" stroke="currentColor" stroke-width="1.00" stroke-linecap="butt" stroke-linejoin="miter">
	<path stroke='black'  d='M71.9,358.2 L80.9,358.2  '/>	<g transform="translate(63.6,362.1)" stroke="none" fill="black" font-family="Helvetica" font-size="12.00"  text-anchor="end">
		<text><tspan font-family="Helvetica" > 80</tspan></text>
	</g>
</g>
<g fill="none" color="black" stroke="currentColor" stroke-width="1.00" stroke-linecap="butt" stroke-linejoin="miter">
	<path stroke='black'  d='M71.9,282.2 L80.9,282.2  '/>	<g transform="translate(63.6,286.1)" stroke="none" fill="black" font-family="Helvetica" font-size="12.00"  text-anchor="end">
		<text><tspan font-family="Helvetica" > 100</tspan></text>
	</g>
</g>
<g fill="none" color="black" stroke="currentColor" stroke-width="1.00" stroke-linecap="butt" stroke-linejoin="miter">
	<path stroke='black'  d='M71.9,206.2 L80.9,206.2  '/>	<g transform="translate(63.6,210.1)" stroke="none" fill="black" font-family="Helvetica" font-size="12.00"  text-anchor="end">
		<text><tspan font-family="Helvetica" > 120</tspan></text>
	</g>
</g>
<g fill="none" color="black" stroke="currentColor" stroke-width="1.00" stroke-linecap="butt" stroke-linejoin="miter">
	<path stroke='black'  d='M71.9,130.1 L80.9,130.1  '/>	<g transform="translate(63.6,134.0)" stroke="none" fill="black" font-family="Helvetica" font-size="12.00"  text-anchor="end">
		<text><tspan font-family="Helvetica" > 140</tspan></text>
	</g>
</g>
<g fill="none" color="black" stroke="currentColor" stroke-width="1.00" stroke-linecap="butt" stroke-linejoin="miter">
	<path stroke='black'  d='M71.9,54.1 L80.9,54.1  '/>	<g transform="translate(63.6,58.0)" stroke="none" fill="black" font-family="Helvetica" font-size="12.00"  text-anchor="end">
		<text><tspan font-family="Helvetica" > 160</tspan></text>
	</g>
</g>
<g fill="none" color="black" stroke="currentColor" stroke-width="1.00" stroke-linecap="butt" stroke-linejoin="miter">
	<path stroke='black'  d='M186.8,662.4 L186.8,653.4  '/>	<g transform="translate(186.8,684.3)" stroke="none" fill="black" font-family="Helvetica" font-size="12.00"  text-anchor="middle">
		<text><tspan font-family="Helvetica" > 42.63</tspan></text>
	</g>
</g>
<g fill="none" color="black" stroke="currentColor" stroke-width="1.00" stroke-linecap="butt" stroke-linejoin="miter">
	<path stroke='black'  d='M373.9,662.4 L373.9,653.4  '/>	<g transform="translate(373.9,684.3)" stroke="none" fill="black" font-family="Helvetica" font-size="12.00"  text-anchor="middle">
		<text><tspan font-family="Helvetica" > 42.635</tspan></text>
	</g>
</g>
<g fill="none" color="black" stroke="currentColor" stroke-width="1.00" stroke-linecap="butt" stroke-linejoin="miter">
	<path stroke='black'  d='M561.0,662.4 L561.0,653.4  '/>	<g transform="translate(561.0,684.3)" stroke="none" fill="black" font-family="Helvetica" font-size="12.00"  text-anchor="middle">
		<text><tspan font-family="Helvetica" > 42.64</tspan></text>
	</g>
</g>
<g fill="none" color="black" stroke="currentColor" stroke-width="1.00" stroke-linecap="butt" stroke-linejoin="miter">
	<path stroke='black'  d='M748.1,662.4 L748.1,653.4  '/>	<g transform="translate(748.1,684.3)" stroke="none" fill="black" font-family="Helvetica" font-size="12.00"  text-anchor="middle">
		<text><tspan font-family="Helvetica" > 42.645</tspan></text>
	</g>
</g>
<g fill="none" color="black" stroke="currentColor" stroke-width="1.00" stroke-linecap="butt" stroke-linejoin="miter">
	<path stroke='black'  d='M935.3,662.4 L935.3,653.4  '/>	<g transform="translate(935.3,684.3)" stroke="none" fill="black" font-family="Helvetica" font-size="12.00"  text-anchor="middle">
		<text><tspan font-family="Helvetica" > 42.65</tspan></text>
	</g>
</g>
<g fill="none" color="black" stroke="currentColor" stroke-width="1.00" stroke-linecap="butt" stroke-linejoin="miter">
</g>
<g fill="none" color="black" stroke="currentColor" stroke-width="1.00" stroke-linecap="butt" stroke-linejoin="miter">
	<path stroke='black'  d='M71.9,54.1 L71.9,662.4 L1013.6,662.4 L1013.6,54.1 L71.9,54.1 Z  '/></g>
<g fill="none" color="black" stroke="currentColor" stroke-width="1.00" stroke-linecap="butt" stroke-linejoin="miter">
	<g transform="translate(16.3,358.3) rotate(270)" stroke="none" fill="black" font-family="Helvetica" font-size="12.00"  text-anchor="middle">
		<text><tspan font-family="Helvetica" >Density (a.u.)</tspan></text>
	</g>
</g>
<g fill="none" color="black" stroke="currentColor" stroke-width="1.00" stroke-linecap="butt" stroke-linejoin="miter">
	<g transform="translate(542.7,711.3)" stroke="none" fill="black" font-family="Helvetica" font-size="12.00"  text-anchor="middle">
		<text><tspan font-family="Helvetica" >Average time (us)</tspan></text>
	</g>
</g>
<g fill="none" color="black" stroke="currentColor" stroke-width="1.00" stroke-linecap="butt" stroke-linejoin="miter">
	<g transform="translate(542.7,31.0)" stroke="none" fill="black" font-family="Helvetica" font-size="12.00"  text-anchor="middle">
		<text><tspan font-family="Helvetica" >snapshot_restore_with_dense/Dense: Entire region + /proc/pid/mem/22: median</tspan></text>
	</g>
</g>
	<g id="gnuplot_plot_1" ><title>Bootstrap distribution</title>
<g fill="none" color="white" stroke="black" stroke-width="2.00" stroke-linecap="butt" stroke-linejoin="miter">
</g>
<g fill="none" color="black" stroke="currentColor" stroke-width="2.00" stroke-linecap="butt" stroke-linejoin="miter">
	<g transform="translate(1089.0,67.0)" stroke="none" fill="black" font-family="Helvetica" font-size="12.00"  text-anchor="start">
		<text><tspan font-family="Helvetica" >Bootstrap distribution</tspan></text>
	</g>
</g>
<g fill="none" color="black" stroke="currentColor" stroke-width="2.00" stroke-linecap="butt" stroke-linejoin="miter">
	<path stroke='rgb( 31, 120, 180)'  d='M1038.5,63.1 L1080.7,63.1 M71.9,656.0 L73.8,655.9 L75.7,655.7 L77.6,655.6 L79.4,655.4 L81.3,655.2
		L83.2,655.1 L85.1,654.9 L87.0,654.7 L88.9,654.4 L90.8,654.1 L92.7,653.8 L94.5,653.4 L96.4,652.9
		L98.3,652.3 L100.2,651.6 L102.1,650.9 L104.0,649.9 L105.9,648.9 L107.8,647.7 L109.6,646.4 L111.5,644.8
		L113.4,643.2 L115.3,641.3 L117.2,639.3 L119.1,637.1 L121.0,634.7 L122.9,632.2 L124.7,629.6 L126.6,626.8
		L128.5,623.9 L130.4,620.9 L132.3,617.8 L134.2,614.6 L136.1,611.4 L138.0,608.2 L139.8,605.0 L141.7,601.8
		L143.6,598.6 L145.5,595.5 L147.4,592.5 L149.3,589.5 L151.2,586.6 L153.0,583.8 L154.9,581.1 L156.8,578.4
		L158.7,575.9 L160.6,573.3 L162.5,570.8 L164.4,568.3 L166.3,565.9 L168.1,563.4 L170.0,560.8 L171.9,558.3
		L173.8,555.6 L175.7,552.9 L177.6,550.0 L179.5,547.1 L181.4,544.0 L183.2,540.9 L185.1,537.7 L187.0,534.3
		L188.9,530.9 L190.8,527.5 L192.7,524.0 L194.6,520.5 L196.5,517.1 L198.3,513.6 L200.2,510.3 L202.1,507.0
		L204.0,503.9 L205.9,500.9 L207.8,498.0 L209.7,495.4 L211.6,492.9 L213.4,490.6 L215.3,488.5 L217.2,486.5
		L219.1,484.8 L221.0,483.2 L222.9,481.7 L224.8,480.4 L226.6,479.2 L228.5,478.1 L230.4,477.1 L232.3,476.1
		L234.2,475.2 L236.1,474.3 L238.0,473.5 L239.9,472.6 L241.7,471.8 L243.6,471.0 L245.5,470.2 L247.4,469.5
		L249.3,468.8 L251.2,468.1 L253.1,467.6 L255.0,467.2 L256.8,466.9 L258.7,466.8 L260.6,466.9 L262.5,467.3
		L264.4,467.9 L266.3,468.7 L268.2,469.9 L270.1,471.3 L271.9,473.0 L273.8,475.1 L275.7,477.4 L277.6,480.0
		L279.5,482.8 L281.4,485.9 L283.3,489.2 L285.2,492.6 L287.0,496.1 L288.9,499.6 L290.8,503.2 L292.7,506.7
		L294.6,510.2 L296.5,513.6 L298.4,516.9 L300.2,520.0 L302.1,522.9 L304.0,525.7 L305.9,528.3 L307.8,530.6
		L309.7,532.8 L311.6,534.9 L313.5,536.8 L315.3,538.5 L317.2,540.1 L319.1,541.5 L321.0,542.8 L322.9,544.0
		L324.8,545.1 L326.7,546.1 L328.6,547.0 L330.4,547.7 L332.3,548.3 L334.2,548.7 L336.1,549.0 L338.0,549.1
		L339.9,549.0 L341.8,548.9 L343.7,548.5 L345.5,548.1 L347.4,547.6 L349.3,547.0 L351.2,546.4 L353.1,545.7
		L355.0,545.2 L356.9,544.7 L358.8,544.2 L360.6,544.0 L362.5,543.9 L364.4,543.9 L366.3,544.1 L368.2,544.5
		L370.1,545.0 L372.0,545.7 L373.8,546.5 L375.7,547.3 L377.6,548.2 L379.5,549.1 L381.4,549.9 L383.3,550.6
		L385.2,551.3 L387.1,551.7 L388.9,552.0 L390.8,552.1 L392.7,552.1 L394.6,551.9 L396.5,551.5 L398.4,551.0
		L400.3,550.3 L402.2,549.7 L404.0,548.9 L405.9,548.2 L407.8,547.5 L409.7,546.8 L411.6,546.3 L413.5,545.8
		L415.4,545.4 L417.3,545.1 L419.1,544.8 L421.0,544.7 L422.9,544.5 L424.8,544.4 L426.7,544.2 L428.6,544.0
		L430.5,543.6 L432.4,543.1 L434.2,542.4 L436.1,541.5 L438.0,540.3 L439.9,538.9 L441.8,537.2 L443.7,535.2
		L445.6,533.0 L447.4,530.5 L449.3,527.8 L451.2,524.8 L453.1,521.7 L455.0,518.5 L456.9,515.1 L458.8,511.7
		L460.7,508.2 L462.5,504.6 L464.4,501.1 L466.3,497.6 L468.2,494.1 L470.1,490.7 L472.0,487.2 L473.9,483.8
		L475.8,480.5 L477.6,477.1 L479.5,473.8 L481.4,470.4 L483.3,467.0 L485.2,463.6 L487.1,460.1 L489.0,456.5
		L490.9,452.8 L492.7,449.1 L494.6,445.2 L496.5,441.2 L498.4,437.1 L500.3,432.9 L502.2,428.5 L504.1,423.9
		L506.0,419.1 L507.8,414.1 L509.7,408.9 L511.6,403.4 L513.5,397.5 L515.4,391.3 L517.3,384.6 L519.2,377.4
		L521.0,369.7 L522.9,361.5 L524.8,352.5 L526.7,342.9 L528.6,332.5 L530.5,321.3 L532.4,309.4 L534.3,296.6
		L536.1,283.1 L538.0,269.0 L539.9,254.1 L541.8,238.8 L543.7,223.0 L545.6,206.9 L547.5,190.8 L549.4,174.8
		L551.2,159.1 L553.1,144.0 L555.0,129.7 L556.9,116.5 L558.8,104.7 L560.7,94.3 L562.6,85.8 L564.5,79.2
		L566.3,74.8 L568.2,72.7 L570.1,72.9 L572.0,75.6 L573.9,80.7 L575.8,88.2 L577.7,98.0 L579.5,110.0
		L581.4,124.0 L583.3,139.7 L585.2,156.9 L587.1,175.3 L589.0,194.7 L590.9,214.6 L592.8,235.0 L594.6,255.3
		L596.5,275.4 L598.4,295.0 L600.3,313.9 L602.2,331.8 L604.1,348.7 L606.0,364.3 L607.9,378.7 L609.7,391.7
		L611.6,403.4 L613.5,413.7 L615.4,422.9 L617.3,430.8 L619.2,437.7 L621.1,443.7 L623.0,448.8 L624.8,453.1
		L626.7,456.8 L628.6,460.0 L630.5,462.8 L632.4,465.2 L634.3,467.2 L636.2,469.0 L638.1,470.4 L639.9,471.6
		L641.8,472.5 L643.7,473.1 L645.6,473.4 L647.5,473.3 L649.4,472.8 L651.3,471.9 L653.1,470.6 L655.0,468.9
		L656.9,466.8 L658.8,464.3 L660.7,461.4 L662.6,458.2 L664.5,454.8 L666.4,451.2 L668.2,447.6 L670.1,444.0
		L672.0,440.4 L673.9,437.1 L675.8,434.0 L677.7,431.4 L679.6,429.1 L681.5,427.4 L683.3,426.3 L685.2,425.9
		L687.1,426.1 L689.0,427.0 L690.9,428.7 L692.8,431.1 L694.7,434.3 L696.6,438.2 L698.4,442.7 L700.3,447.9
		L702.2,453.7 L704.1,460.1 L706.0,466.9 L707.9,474.2 L709.8,481.8 L711.7,489.7 L713.5,497.8 L715.4,506.0
		L717.3,514.2 L719.2,522.4 L721.1,530.4 L723.0,538.2 L724.9,545.7 L726.7,552.8 L728.6,559.5 L730.5,565.7
		L732.4,571.4 L734.3,576.4 L736.2,580.9 L738.1,584.6 L740.0,587.7 L741.8,590.2 L743.7,592.0 L745.6,593.2
		L747.5,593.7 L749.4,593.8 L751.3,593.3 L753.2,592.4 L755.1,591.2 L756.9,589.7 L758.8,588.0 L760.7,586.1
		L762.6,584.3 L764.5,582.4 L766.4,580.7 L768.3,579.2 L770.2,578.0 L772.0,577.1 L773.9,576.5 L775.8,576.3
		L777.7,576.5 L779.6,577.1 L781.5,578.1 L783.4,579.5 L785.3,581.1 L787.1,583.1 L789.0,585.2 L790.9,587.5
		L792.8,589.8 L794.7,592.1 L796.6,594.3 L798.5,596.2 L800.3,597.8 L802.2,599.1 L804.1,599.8 L806.0,600.1
		L807.9,599.7 L809.8,598.7 L811.7,597.0 L813.6,594.7 L815.4,591.7 L817.3,588.0 L819.2,583.8 L821.1,579.0
		L823.0,573.8 L824.9,568.3 L826.8,562.4 L828.7,556.5 L830.5,550.6 L832.4,544.8 L834.3,539.2 L836.2,534.1
		L838.1,529.4 L840.0,525.4 L841.9,522.1 L843.8,519.6 L845.6,517.9 L847.5,517.1 L849.4,517.1 L851.3,518.1
		L853.2,519.8 L855.1,522.4 L857.0,525.6 L858.9,529.5 L860.7,533.9 L862.6,538.8 L864.5,544.0 L866.4,549.3
		L868.3,554.8 L870.2,560.4 L872.1,565.8 L873.9,571.1 L875.8,576.2 L877.7,581.1 L879.6,585.6 L881.5,589.9
		L883.4,593.8 L885.3,597.4 L887.2,600.6 L889.0,603.5 L890.9,606.2 L892.8,608.5 L894.7,610.6 L896.6,612.4
		L898.5,614.1 L900.4,615.5 L902.3,616.8 L904.1,617.9 L906.0,618.9 L907.9,619.8 L909.8,620.5 L911.7,621.1
		L913.6,621.7 L915.5,622.2 L917.4,622.6 L919.2,622.9 L921.1,623.2 L923.0,623.4 L924.9,623.6 L926.8,623.7
		L928.7,623.8 L930.6,623.9 L932.5,624.0 L934.3,624.0 L936.2,624.1 L938.1,624.2 L940.0,624.2 L941.9,624.3
		L943.8,624.4 L945.7,624.6 L947.5,624.7 L949.4,624.9 L951.3,625.1 L953.2,625.3 L955.1,625.6 L957.0,625.9
		L958.9,626.2 L960.8,626.6 L962.6,627.0 L964.5,627.4 L966.4,627.9 L968.3,628.4 L970.2,628.9 L972.1,629.5
		L974.0,630.0 L975.9,630.7 L977.7,631.3 L979.6,632.0 L981.5,632.7 L983.4,633.4 L985.3,634.1 L987.2,634.9
		L989.1,635.7 L991.0,636.5 L992.8,637.3 L994.7,638.2 L996.6,639.0 L998.5,639.9 L1000.4,640.7 L1002.3,641.6
		L1004.2,642.4 L1006.1,643.3 L1007.9,644.2 L1009.8,645.0 L1011.7,645.9 L1013.6,646.7  '/></g>
	</g>
	<g id="gnuplot_plot_2" ><title>Confidence interval</title>
<g fill="none" color="white" stroke="rgb( 31, 120, 180)" stroke-width="1.00" stroke-linecap="butt" stroke-linejoin="miter">
</g>
<g fill="none" color="black" stroke="currentColor" stroke-width="1.00" stroke-linecap="butt" stroke-linejoin="miter">
	<g transform="translate(1089.0,85.0)" stroke="none" fill="black" font-family="Helvetica" font-size="12.00"  text-anchor="start">
		<text><tspan font-family="Helvetica" >Confidence interval</tspan></text>
	</g>
</g>
<g fill="none" color="black" stroke="currentColor" stroke-width="1.00" stroke-linecap="butt" stroke-linejoin="miter">
	<g stroke='none' shape-rendering='crispEdges'>
		<polygon fill = 'rgb( 31, 120, 180)' fill-opacity = '0.250000' points = '1038.5,85.6 1080.7,85.6 1080.7,76.6 1038.5,76.6 '/>
		<polygon fill = 'rgb( 31, 120, 180)' fill-opacity = '0.250000' points = '158.7,575.9 160.6,573.3 162.5,570.8 164.4,568.3 166.3,565.9 168.1,563.4 170.0,560.8 171.9,558.3 173.8,555.6 175.7,552.9 177.6,550.0 179.5,547.1 181.4,544.0 183.2,540.9 185.1,537.7 187.0,534.3
188.9,530.9 190.8,527.5 192.7,524.0 194.6,520.5 196.5,517.1 198.3,513.6 200.2,510.3 202.1,507.0 204.0,503.9 205.9,500.9 207.8,498.0 209.7,495.4 211.6,492.9 213.4,490.6 215.3,488.5 217.2,486.5
219.1,484.8 221.0,483.2 222.9,481.7 224.8,480.4 226.6,479.2 228.5,478.1 230.4,477.1 232.3,476.1 234.2,475.2 236.1,474.3 238.0,473.5 239.9,472.6 241.7,471.8 243.6,471.0 245.5,470.2 247.4,469.5
249.3,468.8 251.2,468.1 253.1,467.6 255.0,467.2 256.8,466.9 258.7,466.8 260.6,466.9 262.5,467.3 264.4,467.9 266.3,468.7 268.2,469.9 270.1,471.3 271.9,473.0 273.8,475.1 275.7,477.4 277.6,480.0
279.5,482.8 281.4,485.9 283.3,489.2 285.2,492.6 287.0,496.1 288.9,499.6 290.8,503.2 292.7,506.7 294.6,510.2 296.5,513.6 298.4,516.9 300.2,520.0 302.1,522.9 304.0,525.7 305.9,528.3 307.8,530.6
309.7,532.8 311.6,534.9 313.5,536.8 315.3,538.5 317.2,540.1 319.1,541.5 321.0,542.8 322.9,544.0 324.8,545.1 326.7,546.1 328.6,547.0 330.4,547.7 332.3,548.3 334.2,548.7 336.1,549.0 338.0,549.1
339.9,549.0 341.8,548.9 343.7,548.5 345.5,548.1 347.4,547.6 349.3,547.0 351.2,546.4 353.1,545.7 355.0,545.2 356.9,544.7 358.8,544.2 360.6,544.0 362.5,543.9 364.4,543.9 366.3,544.1 368.2,544.5
370.1,545.0 372.0,545.7 373.8,546.5 375.7,547.3 377.6,548.2 379.5,549.1 381.4,549.9 383.3,550.6 385.2,551.3 387.1,551.7 388.9,552.0 390.8,552.1 392.7,552.1 394.6,551.9 396.5,551.5 398.4,551.0
400.3,550.3 402.2,549.7 404.0,548.9 405.9,548.2 407.8,547.5 409.7,546.8 411.6,546.3 413.5,545.8 415.4,545.4 417.3,545.1 419.1,544.8 421.0,544.7 422.9,544.5 424.8,544.4 426.7,544.2 428.6,544.0
430.5,543.6 432.4,543.1 434.2,542.4 436.1,541.5 438.0,540.3 439.9,538.9 441.8,537.2 443.7,535.2 445.6,533.0 447.4,530.5 449.3,527.8 451.2,524.8 453.1,521.7 455.0,518.5 456.9,515.1 458.8,511.7
460.7,508.2 462.5,504.6 464.4,501.1 466.3,497.6 468.2,494.1 470.1,490.7 472.0,487.2 473.9,483.8 475.8,480.5 477.6,477.1 479.5,473.8 481.4,470.4 483.3,467.0 485.2,463.6 487.1,460.1 489.0,456.5
490.9,452.8 492.7,449.1 494.6,445.2 496.5,441.2 498.4,437.1 500.3,432.9 502.2,428.5 504.1,423.9 506.0,419.1 507.8,414.1 509.7,408.9 511.6,403.4 513.5,397.5 515.4,391.3 517.3,384.6 519.2,377.4
521.0,369.7 522.9,361.5 524.8,352.5 526.7,342.9 528.6,332.5 530.5,321.3 532.4,309.4 534.3,296.6 536.1,283.1 538.0,269.0 539.9,254.1 541.8,238.8 543.7,223.0 545.6,206.9 547.5,190.8 549.4,174.8
551.2,159.1 553.1,144.0 555.0,129.7 556.9,116.5 558.8,104.7 560.7,94.3 562.6,85.8 564.5,79.2 566.3,74.8 568.2,72.7 570.1,72.9 572.0,75.6 573.9,80.7 575.8,88.2 577.7,98.0 579.5,110.0
581.4,124.0 583.3,139.7 585.2,156.9 587.1,175.3 589.0,194.7 590.9,214.6 592.8,235.0 594.6,255.3 596.5,275.4 598.4,295.0 600.3,313.9 602.2,331.8 604.1,348.7 606.0,364.3 607.9,378.7 609.7,391.7
611.6,403.4 613.5,413.7 615.4,422.9 617.3,430.8 619.2,437.7 621.1,443.7 623.0,448.8 624.8,453.1 626.7,456.8 628.6,460.0 630.5,462.8 632.4,465.2 634.3,467.2 636.2,469.0 638.1,470.4 639.9,471.6
641.8,472.5 643.7,473.1 645.6,473.4 647.5,473.3 649.4,472.8 651.3,471.9 653.1,470.6 655.0,468.9 656.9,466.8 658.8,464.3 660.7,461.4 662.6,458.2 664.5,454.8 666.4,451.2 668.2,447.6 670.1,444.0
672.0,440.4 673.9,437.1 675.8,434.0 677.7,431.4 679.6,429.1 681.5,427.4 683.3,426.3 685.2,425.9 687.1,426.1 689.0,427.0 690.9,428.7 692.8,431.1 694.7,434.3 696.6,438.2 698.4,442.7 700.3,447.9
702.2,453.7 704.1,460.1 706.0,466.9 707.9,474.2 709.8,481.8 711.7,489.7 713.5,497.8 715.4,506.0 717.3,514.2 719.2,522.4 721.1,530.4 723.0,538.2 724.9,545.7 726.7,552.8 728.6,559.5 730.5,565.7
732.4,571.4 734.3,576.4 736.2,580.9 738.1,584.6 740.0,587.7 741.8,590.2 743.7,592.0 745.6,593.2 747.5,593.7 749.4,593.8 751.3,593.3 753.2,592.4 755.1,591.2 756.9,589.7 758.8,588.0 760.7,586.1
762.6,584.3 764.5,582.4 766.4,580.7 768.3,579.2 770.2,578.0 772.0,577.1 773.9,576.5 775.8,576.3 777.7,576.5 779.6,577.1 781.5,578.1 783.4,579.5 785.3,581.1 787.1,583.1 789.0,585.2 790.9,587.5
792.8,589.8 794.7,592.1 796.6,594.3 798.5,596.2 800.3,597.8 802.2,599.1 804.1,599.8 806.0,600.1 807.9,599.7 809.8,598.7 811.7,597.0 813.6,594.7 815.4,591.7 817.3,588.0 819.2,583.8 821.1,579.0
823.0,573.8 824.9,568.3 826.8,562.4 828.7,556.5 830.5,550.6 832.4,544.8 834.3,539.2 836.2,534.1 838.1,529.4 840.0,525.4 841.9,522.1 843.8,519.6 845.6,517.9 847.5,517.1 849.4,517.1 851.3,518.1
853.2,519.8 855.1,522.4 857.0,525.6 858.9,529.5 860.7,533.9 862.6,538.8 864.5,544.0 866.4,549.3 868.3,554.8 870.2,560.4 872.1,565.8 873.9,571.1 875.8,576.2 877.7,581.1 879.6,585.6 881.5,589.9
883.4,593.8 885.3,597.4 887.2,600.6 889.0,603.5 890.9,606.2 892.8,608.5 894.7,610.6 896.6,612.4 898.5,614.1 900.4,615.5 902.3,616.8 904.1,617.9 906.0,618.9 907.9,619.8 909.8,620.5 911.7,621.1
913.6,621.7 915.5,622.2 917.4,622.6 919.2,622.9 921.1,623.2 923.0,623.4 924.9,623.6 924.9,662.4 923.0,662.4 921.1,662.4 919.2,662.4 917.4,662.4 915.5,662.4 913.6,662.4 911.7,662.4 909.8,662.4
907.9,662.4 906.0,662.4 904.1,662.4 902.3,662.4 900.4,662.4 898.5,662.4 896.6,662.4 894.7,662.4 892.8,662.4 890.9,662.4 889.0,662.4 887.2,662.4 885.3,662.4 883.4,662.4 881.5,662.4 879.6,662.4
877.7,662.4 875.8,662.4 873.9,662.4 872.1,662.4 870.2,662.4 868.3,662.4 866.4,662.4 864.5,662.4 862.6,662.4 860.7,662.4 858.9,662.4 857.0,662.4 855.1,662.4 853.2,662.4 851.3,662.4 849.4,662.4
847.5,662.4 845.6,662.4 843.8,662.4 841.9,662.4 840.0,662.4 838.1,662.4 836.2,662.4 834.3,662.4 832.4,662.4 830.5,662.4 828.7,662.4 826.8,662.4 824.9,662.4 823.0,662.4 821.1,662.4 819.2,662.4
817.3,662.4 815.4,662.4 813.6,662.4 811.7,662.4 809.8,662.4 807.9,662.4 806.0,662.4 804.1,662.4 802.2,662.4 800.3,662.4 798.5,662.4 796.6,662.4 794.7,662.4 792.8,662.4 790.9,662.4 789.0,662.4
787.1,662.4 785.3,662.4 783.4,662.4 781.5,662.4 779.6,662.4 777.7,662.4 775.8,662.4 773.9,662.4 772.0,662.4 770.2,662.4 768.3,662.4 766.4,662.4 764.5,662.4 762.6,662.4 760.7,662.4 758.8,662.4
756.9,662.4 755.1,662.4 753.2,662.4 751.3,662.4 749.4,662.4 747.5,662.4 745.6,662.4 743.7,662.4 741.8,662.4 740.0,662.4 738.1,662.4 736.2,662.4 734.3,662.4 732.4,662.4 730.5,662.4 728.6,662.4
726.7,662.4 724.9,662.4 723.0,662.4 721.1,662.4 719.2,662.4 717.3,662.4 715.4,662.4 713.5,662.4 711.7,662.4 709.8,662.4 707.9,662.4 706.0,662.4 704.1,662.4 702.2,662.4 700.3,662.4 698.4,662.4
696.6,662.4 694.7,662.4 692.8,662.4 690.9,662.4 689.0,662.4 687.1,662.4 685.2,662.4 683.3,662.4 681.5,662.4 679.6,662.4 677.7,662.4 675.8,662.4 673.9,662.4 672.0,662.4 670.1,662.4 668.2,662.4
666.4,662.4 664.5,662.4 662.6,662.4 660.7,662.4 658.8,662.4 656.9,662.4 655.0,662.4 653.1,662.4 651.3,662.4 649.4,662.4 647.5,662.4 645.6,662.4 643.7,662.4 641.8,662.4 639.9,662.4 638.1,662.4
636.2,662.4 634.3,662.4 632.4,662.4 630.5,662.4 628.6,662.4 626.7,662.4 624.8,662.4 623.0,662.4 621.1,662.4 619.2,662.4 617.3,662.4 615.4,662.4 613.5,662.4 611.6,662.4 609.7,662.4 607.9,662.4
606.0,662.4 604.1,662.4 602.2,662.4 600.3,662.4 598.4,662.4 596.5,662.4 594.6,662.4 592.8,662.4 590.9,662.4 589.0,662.4 587.1,662.4 585.2,662.4 583.3,662.4 581.4,662.4 579.5,662.4 577.7,662.4
575.8,662.4 573.9,662.4 572.0,662.4 570.1,662.4 568.2,662.4 566.3,662.4 564.5,662.4 562.6,662.4 560.7,662.4 558.8,662.4 556.9,662.4 555.0,662.4 553.1,662.4 551.2,662.4 549.4,662.4 547.5,662.4
545.6,662.4 543.7,662.4 541.8,662.4 539.9,662.4 538.0,662.4 536.1,662.4 534.3,662.4 532.4,662.4 530.5,662.4 528.6,662.4 526.7,662.4 524.8,662.4 522.9,662.4 521.0,662.4 519.2,662.4 517.3,662.4
515.4,662.4 513.5,662.4 511.6,662.4 509.7,662.4 507.8,662.4 506.0,662.4 504.1,662.4 502.2,662.4 500.3,662.4 498.4,662.4 496.5,662.4 494.6,662.4 492.7,662.4 490.9,662.4 489.0,662.4 487.1,662.4
485.2,662.4 483.3,662.4 481.4,662.4 479.5,662.4 477.6,662.4 475.8,662.4 473.9,662.4 472.0,662.4 470.1,662.4 468.2,662.4 466.3,662.4 464.4,662.4 462.5,662.4 460.7,662.4 458.8,662.4 456.9,662.4
455.0,662.4 453.1,662.4 451.2,662.4 449.3,662.4 447.4,662.4 445.6,662.4 443.7,662.4 441.8,662.4 439.9,662.4 438.0,662.4 436.1,662.4 434.2,662.4 432.4,662.4 430.5,662.4 428.6,662.4 426.7,662.4
424.8,662.4 422.9,662.4 421.0,662.4 419.1,662.4 417.3,662.4 415.4,662.4 413.5,662.4 411.6,662.4 409.7,662.4 407.8,662.4 405.9,662.4 404.0,662.4 402.2,662.4 400.3,662.4 398.4,662.4 396.5,662.4
394.6,662.4 392.7,662.4 390.8,662.4 388.9,662.4 387.1,662.4 385.2,662.4 383.3,662.4 381.4,662.4 379.5,662.4 377.6,662.4 375.7,662.4 373.8,662.4 372.0,662.4 370.1,662.4 368.2,662.4 366.3,662.4
364.4,662.4 362.5,662.4 360.6,662.4 358.8,662.4 356.9,662.4 355.0,662.4 353.1,662.4 351.2,662.4 349.3,662.4 347.4,662.4 345.5,662.4 343.7,662.4 341.8,662.4 339.9,662.4 338.0,662.4 336.1,662.4
334.2,662.4 332.3,662.4 330.4,662.4 328.6,662.4 326.7,662.4 324.8,662.4 322.9,662.4 321.0,662.4 319.1,662.4 317.2,662.4 315.3,662.4 313.5,662.4 311.6,662.4 309.7,662.4 307.8,662.4 305.9,662.4
304.0,662.4 302.1,662.4 300.2,662.4 298.4,662.4 296.5,662.4 294.6,662.4 292.7,662.4 290.8,662.4 288.9,662.4 287.0,662.4 285.2,662.4 283.3,662.4 281.4,662.4 279.5,662.4 277.6,662.4 275.7,662.4
273.8,662.4 271.9,662.4 270.1,662.4 268.2,662.4 266.3,662.4 264.4,662.4 262.5,662.4 260.6,662.4 258.7,662.4 256.8,662.4 255.0,662.4 253.1,662.4 251.2,662.4 249.3,662.4 247.4,662.4 245.5,662.4
243.6,662.4 241.7,662.4 239.9,662.4 238.0,662.4 236.1,662.4 234.2,662.4 232.3,662.4 230.4,662.4 228.5,662.4 226.6,662.4 224.8,662.4 222.9,662.4 221.0,662.4 219.1,662.4 217.2,662.4 215.3,662.4
213.4,662.4 211.6,662.4 209.7,662.4 207.8,662.4 205.9,662.4 204.0,662.4 202.1,662.4 200.2,662.4 198.3,662.4 196.5,662.4 194.6,662.4 192.7,662.4 190.8,662.4 188.9,662.4 187.0,662.4 185.1,662.4
183.2,662.4 181.4,662.4 179.5,662.4 177.6,662.4 175.7,662.4 173.8,662.4 171.9,662.4 170.0,662.4 168.1,662.4 166.3,662.4 164.4,662.4 162.5,662.4 160.6,662.4 158.7,662.4 '/>
	</g>
</g>
	</g>
	<g id="gnuplot_plot_3" ><title>Point estimate</title>
<g fill="none" color="white" stroke="rgb( 31, 120, 180)" stroke-width="2.00" stroke-linecap="butt" stroke-linejoin="miter">
</g>
<g fill="none" color="black" stroke="currentColor" stroke-width="2.00" stroke-linecap="butt" stroke-linejoin="miter">
	<g transform="translate(1089.0,103.0)" stroke="none" fill="black" font-family="Helvetica" font-size="12.00"  text-anchor="start">
		<text><tspan font-family="Helvetica" >Point estimate</tspan></text>
	</g>
</g>
<g fill="none" color="black" stroke="currentColor" stroke-width="2.00" stroke-linecap="butt" stroke-linejoin="miter">
	<path stroke='rgb( 31, 120, 180)'  d='M1038.5,99.1 L1080.7,99.1 M561.1,662.4 L561.1,92.2  '/></g>
	</g>
<g fill="none" color="black" stroke="currentColor" stroke-width="2.00" stroke-linecap="butt" stroke-linejoin="miter">
</g>
<g fill="none" color="black" stroke="black" stroke-width="1.00" stroke-linecap="butt" stroke-linejoin="miter">
</g>
<g fill="none" color="black" stroke="currentColor" stroke-width="1.00" stroke-linecap="butt" stroke-linejoin="miter">
	<path stroke='black'  d='M71.9,54.1 L71.9,662.4 L1013.6,662.4 L1013.6,54.1 L71.9,54.1 Z  '/></g>
<g fill="none" color="black" stroke="currentColor" stroke-width="1.00" stroke-linecap="butt" stroke-linejoin="miter">
</g>
</g>
</svg>

