<?xml version="1.0" encoding="utf-8"  standalone="no"?>
<svg 
 viewBox="0 0 1280 720"
 xmlns="http://www.w3.org/2000/svg"
 xmlns:xlink="http://www.w3.org/1999/xlink"
>

<title>Gnuplot</title>
<desc>Produced by GNUPLOT 5.2 patchlevel 6 </desc>

<g id="gnuplot_canvas">

<rect x="0" y="0" width="1280" height="720" fill="none"/>
<defs>

	<circle id='gpDot' r='0.5' stroke-width='0.5' stroke='currentColor'/>
	<path id='gpPt0' stroke-width='0.222' stroke='currentColor' d='M-1,0 h2 M0,-1 v2'/>
	<path id='gpPt1' stroke-width='0.222' stroke='currentColor' d='M-1,-1 L1,1 M1,-1 L-1,1'/>
	<path id='gpPt2' stroke-width='0.222' stroke='currentColor' d='M-1,0 L1,0 M0,-1 L0,1 M-1,-1 L1,1 M-1,1 L1,-1'/>
	<rect id='gpPt3' stroke-width='0.222' stroke='currentColor' x='-1' y='-1' width='2' height='2'/>
	<rect id='gpPt4' stroke-width='0.222' stroke='currentColor' fill='currentColor' x='-1' y='-1' width='2' height='2'/>
	<circle id='gpPt5' stroke-width='0.222' stroke='currentColor' cx='0' cy='0' r='1'/>
	<use xlink:href='#gpPt5' id='gpPt6' fill='currentColor' stroke='none'/>
	<path id='gpPt7' stroke-width='0.222' stroke='currentColor' d='M0,-1.33 L-1.33,0.67 L1.33,0.67 z'/>
	<use xlink:href='#gpPt7' id='gpPt8' fill='currentColor' stroke='none'/>
	<use xlink:href='#gpPt7' id='gpPt9' stroke='currentColor' transform='rotate(180)'/>
	<use xlink:href='#gpPt9' id='gpPt10' fill='currentColor' stroke='none'/>
	<use xlink:href='#gpPt3' id='gpPt11' stroke='currentColor' transform='rotate(45)'/>
	<use xlink:href='#gpPt11' id='gpPt12' fill='currentColor' stroke='none'/>
	<path id='gpPt13' stroke-width='0.222' stroke='currentColor' d='M0,1.330 L1.265,0.411 L0.782,-1.067 L-0.782,-1.076 L-1.265,0.411 z'/>
	<use xlink:href='#gpPt13' id='gpPt14' fill='currentColor' stroke='none'/>
	<filter id='textbox' filterUnits='objectBoundingBox' x='0' y='0' height='1' width='1'>
	  <feFlood flood-color='white' flood-opacity='1' result='bgnd'/>
	  <feComposite in='SourceGraphic' in2='bgnd' operator='atop'/>
	</filter>
	<filter id='greybox' filterUnits='objectBoundingBox' x='0' y='0' height='1' width='1'>
	  <feFlood flood-color='lightgrey' flood-opacity='1' result='grey'/>
	  <feComposite in='SourceGraphic' in2='grey' operator='atop'/>
	</filter>
</defs>
<g fill="none" color="white" stroke="currentColor" stroke-width="1.00" stroke-linecap="butt" stroke-linejoin="miter">
</g>
<g fill="none" color="black" stroke="currentColor" stroke-width="1.00" stroke-linecap="butt" stroke-linejoin="miter">
	<path stroke='black'  d='M63.6,662.4 L72.6,662.4  '/>	<g transform="translate(55.3,666.3)" stroke="none" fill="black" font-family="Helvetica" font-size="12.00"  text-anchor="end">
		<text><tspan font-family="Helvetica" > 0</tspan></text>
	</g>
</g>
<g fill="none" color="black" stroke="currentColor" stroke-width="1.00" stroke-linecap="butt" stroke-linejoin="miter">
	<path stroke='black'  d='M63.6,594.8 L72.6,594.8  '/>	<g transform="translate(55.3,598.7)" stroke="none" fill="black" font-family="Helvetica" font-size="12.00"  text-anchor="end">
		<text><tspan font-family="Helvetica" > 5</tspan></text>
	</g>
</g>
<g fill="none" color="black" stroke="currentColor" stroke-width="1.00" stroke-linecap="butt" stroke-linejoin="miter">
	<path stroke='black'  d='M63.6,527.2 L72.6,527.2  '/>	<g transform="translate(55.3,531.1)" stroke="none" fill="black" font-family="Helvetica" font-size="12.00"  text-anchor="end">
		<text><tspan font-family="Helvetica" > 10</tspan></text>
	</g>
</g>
<g fill="none" color="black" stroke="currentColor" stroke-width="1.00" stroke-linecap="butt" stroke-linejoin="miter">
	<path stroke='black'  d='M63.6,459.6 L72.6,459.6  '/>	<g transform="translate(55.3,463.5)" stroke="none" fill="black" font-family="Helvetica" font-size="12.00"  text-anchor="end">
		<text><tspan font-family="Helvetica" > 15</tspan></text>
	</g>
</g>
<g fill="none" color="black" stroke="currentColor" stroke-width="1.00" stroke-linecap="butt" stroke-linejoin="miter">
	<path stroke='black'  d='M63.6,392.0 L72.6,392.0  '/>	<g transform="translate(55.3,395.9)" stroke="none" fill="black" font-family="Helvetica" font-size="12.00"  text-anchor="end">
		<text><tspan font-family="Helvetica" > 20</tspan></text>
	</g>
</g>
<g fill="none" color="black" stroke="currentColor" stroke-width="1.00" stroke-linecap="butt" stroke-linejoin="miter">
	<path stroke='black'  d='M63.6,324.5 L72.6,324.5  '/>	<g transform="translate(55.3,328.4)" stroke="none" fill="black" font-family="Helvetica" font-size="12.00"  text-anchor="end">
		<text><tspan font-family="Helvetica" > 25</tspan></text>
	</g>
</g>
<g fill="none" color="black" stroke="currentColor" stroke-width="1.00" stroke-linecap="butt" stroke-linejoin="miter">
	<path stroke='black'  d='M63.6,256.9 L72.6,256.9  '/>	<g transform="translate(55.3,260.8)" stroke="none" fill="black" font-family="Helvetica" font-size="12.00"  text-anchor="end">
		<text><tspan font-family="Helvetica" > 30</tspan></text>
	</g>
</g>
<g fill="none" color="black" stroke="currentColor" stroke-width="1.00" stroke-linecap="butt" stroke-linejoin="miter">
	<path stroke='black'  d='M63.6,189.3 L72.6,189.3  '/>	<g transform="translate(55.3,193.2)" stroke="none" fill="black" font-family="Helvetica" font-size="12.00"  text-anchor="end">
		<text><tspan font-family="Helvetica" > 35</tspan></text>
	</g>
</g>
<g fill="none" color="black" stroke="currentColor" stroke-width="1.00" stroke-linecap="butt" stroke-linejoin="miter">
	<path stroke='black'  d='M63.6,121.7 L72.6,121.7  '/>	<g transform="translate(55.3,125.6)" stroke="none" fill="black" font-family="Helvetica" font-size="12.00"  text-anchor="end">
		<text><tspan font-family="Helvetica" > 40</tspan></text>
	</g>
</g>
<g fill="none" color="black" stroke="currentColor" stroke-width="1.00" stroke-linecap="butt" stroke-linejoin="miter">
	<path stroke='black'  d='M63.6,54.1 L72.6,54.1  '/>	<g transform="translate(55.3,58.0)" stroke="none" fill="black" font-family="Helvetica" font-size="12.00"  text-anchor="end">
		<text><tspan font-family="Helvetica" > 45</tspan></text>
	</g>
</g>
<g fill="none" color="black" stroke="currentColor" stroke-width="1.00" stroke-linecap="butt" stroke-linejoin="miter">
	<path stroke='black'  d='M107.2,662.4 L107.2,653.4  '/>	<g transform="translate(107.2,684.3)" stroke="none" fill="black" font-family="Helvetica" font-size="12.00"  text-anchor="middle">
		<text><tspan font-family="Helvetica" >-14</tspan></text>
	</g>
</g>
<g fill="none" color="black" stroke="currentColor" stroke-width="1.00" stroke-linecap="butt" stroke-linejoin="miter">
	<path stroke='black'  d='M218.4,662.4 L218.4,653.4  '/>	<g transform="translate(218.4,684.3)" stroke="none" fill="black" font-family="Helvetica" font-size="12.00"  text-anchor="middle">
		<text><tspan font-family="Helvetica" >-13.5</tspan></text>
	</g>
</g>
<g fill="none" color="black" stroke="currentColor" stroke-width="1.00" stroke-linecap="butt" stroke-linejoin="miter">
	<path stroke='black'  d='M329.6,662.4 L329.6,653.4  '/>	<g transform="translate(329.6,684.3)" stroke="none" fill="black" font-family="Helvetica" font-size="12.00"  text-anchor="middle">
		<text><tspan font-family="Helvetica" >-13</tspan></text>
	</g>
</g>
<g fill="none" color="black" stroke="currentColor" stroke-width="1.00" stroke-linecap="butt" stroke-linejoin="miter">
	<path stroke='black'  d='M440.8,662.4 L440.8,653.4  '/>	<g transform="translate(440.8,684.3)" stroke="none" fill="black" font-family="Helvetica" font-size="12.00"  text-anchor="middle">
		<text><tspan font-family="Helvetica" >-12.5</tspan></text>
	</g>
</g>
<g fill="none" color="black" stroke="currentColor" stroke-width="1.00" stroke-linecap="butt" stroke-linejoin="miter">
	<path stroke='black'  d='M552.0,662.4 L552.0,653.4  '/>	<g transform="translate(552.0,684.3)" stroke="none" fill="black" font-family="Helvetica" font-size="12.00"  text-anchor="middle">
		<text><tspan font-family="Helvetica" >-12</tspan></text>
	</g>
</g>
<g fill="none" color="black" stroke="currentColor" stroke-width="1.00" stroke-linecap="butt" stroke-linejoin="miter">
	<path stroke='black'  d='M663.2,662.4 L663.2,653.4  '/>	<g transform="translate(663.2,684.3)" stroke="none" fill="black" font-family="Helvetica" font-size="12.00"  text-anchor="middle">
		<text><tspan font-family="Helvetica" >-11.5</tspan></text>
	</g>
</g>
<g fill="none" color="black" stroke="currentColor" stroke-width="1.00" stroke-linecap="butt" stroke-linejoin="miter">
	<path stroke='black'  d='M774.4,662.4 L774.4,653.4  '/>	<g transform="translate(774.4,684.3)" stroke="none" fill="black" font-family="Helvetica" font-size="12.00"  text-anchor="middle">
		<text><tspan font-family="Helvetica" >-11</tspan></text>
	</g>
</g>
<g fill="none" color="black" stroke="currentColor" stroke-width="1.00" stroke-linecap="butt" stroke-linejoin="miter">
	<path stroke='black'  d='M885.6,662.4 L885.6,653.4  '/>	<g transform="translate(885.6,684.3)" stroke="none" fill="black" font-family="Helvetica" font-size="12.00"  text-anchor="middle">
		<text><tspan font-family="Helvetica" >-10.5</tspan></text>
	</g>
</g>
<g fill="none" color="black" stroke="currentColor" stroke-width="1.00" stroke-linecap="butt" stroke-linejoin="miter">
	<path stroke='black'  d='M996.8,662.4 L996.8,653.4  '/>	<g transform="translate(996.8,684.3)" stroke="none" fill="black" font-family="Helvetica" font-size="12.00"  text-anchor="middle">
		<text><tspan font-family="Helvetica" >-10</tspan></text>
	</g>
</g>
<g fill="none" color="black" stroke="currentColor" stroke-width="1.00" stroke-linecap="butt" stroke-linejoin="miter">
</g>
<g fill="none" color="black" stroke="currentColor" stroke-width="1.00" stroke-linecap="butt" stroke-linejoin="miter">
	<path stroke='black'  d='M63.6,54.1 L63.6,662.4 L1013.6,662.4 L1013.6,54.1 L63.6,54.1 Z  '/></g>
<g fill="none" color="black" stroke="currentColor" stroke-width="1.00" stroke-linecap="butt" stroke-linejoin="miter">
	<g transform="translate(16.3,358.3) rotate(270)" stroke="none" fill="black" font-family="Helvetica" font-size="12.00"  text-anchor="middle">
		<text><tspan font-family="Helvetica" >Density (a.u.)</tspan></text>
	</g>
</g>
<g fill="none" color="black" stroke="currentColor" stroke-width="1.00" stroke-linecap="butt" stroke-linejoin="miter">
	<g transform="translate(538.6,711.3)" stroke="none" fill="black" font-family="Helvetica" font-size="12.00"  text-anchor="middle">
		<text><tspan font-family="Helvetica" >Relative change (%)</tspan></text>
	</g>
</g>
<g fill="none" color="black" stroke="currentColor" stroke-width="1.00" stroke-linecap="butt" stroke-linejoin="miter">
	<g transform="translate(538.6,31.0)" stroke="none" fill="black" font-family="Helvetica" font-size="12.00"  text-anchor="middle">
		<text><tspan font-family="Helvetica" >snapshot_restore_with_dense/Dense: Dirty pages + /proc/pid/mem/46: mean</tspan></text>
	</g>
</g>
	<g id="gnuplot_plot_1" ><title>Bootstrap distribution</title>
<g fill="none" color="white" stroke="black" stroke-width="2.00" stroke-linecap="butt" stroke-linejoin="miter">
</g>
<g fill="none" color="black" stroke="currentColor" stroke-width="2.00" stroke-linecap="butt" stroke-linejoin="miter">
	<g transform="translate(1089.0,67.0)" stroke="none" fill="black" font-family="Helvetica" font-size="12.00"  text-anchor="start">
		<text><tspan font-family="Helvetica" >Bootstrap distribution</tspan></text>
	</g>
</g>
<g fill="none" color="black" stroke="currentColor" stroke-width="2.00" stroke-linecap="butt" stroke-linejoin="miter">
	<path stroke='rgb( 31, 120, 180)'  d='M1038.5,63.1 L1080.7,63.1 M63.6,626.6 L65.5,625.7 L67.4,624.8 L69.3,623.9 L71.2,622.9 L73.1,622.0
		L75.0,621.0 L76.9,620.0 L78.8,619.0 L80.7,618.0 L82.6,617.0 L84.5,616.0 L86.4,614.9 L88.3,613.9
		L90.3,612.9 L92.2,611.8 L94.1,610.8 L96.0,609.7 L97.9,608.7 L99.8,607.6 L101.7,606.6 L103.6,605.5
		L105.5,604.4 L107.4,603.3 L109.3,602.1 L111.2,601.0 L113.1,599.8 L115.0,598.6 L116.9,597.4 L118.8,596.1
		L120.7,594.9 L122.6,593.6 L124.5,592.2 L126.4,590.9 L128.3,589.5 L130.2,588.0 L132.1,586.6 L134.0,585.1
		L135.9,583.6 L137.8,582.1 L139.8,580.5 L141.7,578.9 L143.6,577.3 L145.5,575.7 L147.4,574.0 L149.3,572.3
		L151.2,570.6 L153.1,568.9 L155.0,567.1 L156.9,565.3 L158.8,563.4 L160.7,561.6 L162.6,559.7 L164.5,557.7
		L166.4,555.7 L168.3,553.7 L170.2,551.6 L172.1,549.5 L174.0,547.4 L175.9,545.2 L177.8,543.0 L179.7,540.7
		L181.6,538.4 L183.5,536.1 L185.4,533.8 L187.3,531.4 L189.3,529.0 L191.2,526.6 L193.1,524.2 L195.0,521.8
		L196.9,519.4 L198.8,517.0 L200.7,514.6 L202.6,512.1 L204.5,509.7 L206.4,507.3 L208.3,504.8 L210.2,502.4
		L212.1,499.9 L214.0,497.4 L215.9,494.9 L217.8,492.4 L219.7,489.9 L221.6,487.3 L223.5,484.6 L225.4,482.0
		L227.3,479.3 L229.2,476.5 L231.1,473.7 L233.0,470.9 L234.9,468.0 L236.8,465.1 L238.8,462.1 L240.7,459.1
		L242.6,456.0 L244.5,452.9 L246.4,449.8 L248.3,446.6 L250.2,443.4 L252.1,440.1 L254.0,436.9 L255.9,433.5
		L257.8,430.2 L259.7,426.8 L261.6,423.4 L263.5,419.9 L265.4,416.5 L267.3,413.0 L269.2,409.4 L271.1,405.9
		L273.0,402.3 L274.9,398.6 L276.8,395.0 L278.7,391.4 L280.6,387.7 L282.5,384.0 L284.4,380.4 L286.3,376.7
		L288.2,373.0 L290.2,369.3 L292.1,365.6 L294.0,361.9 L295.9,358.3 L297.8,354.6 L299.7,350.9 L301.6,347.3
		L303.5,343.6 L305.4,340.0 L307.3,336.4 L309.2,332.8 L311.1,329.2 L313.0,325.6 L314.9,322.0 L316.8,318.5
		L318.7,314.9 L320.6,311.4 L322.5,308.0 L324.4,304.5 L326.3,301.1 L328.2,297.8 L330.1,294.4 L332.0,291.1
		L333.9,287.9 L335.8,284.6 L337.7,281.4 L339.7,278.2 L341.6,275.1 L343.5,271.9 L345.4,268.8 L347.3,265.7
		L349.2,262.5 L351.1,259.4 L353.0,256.3 L354.9,253.1 L356.8,249.9 L358.7,246.8 L360.6,243.6 L362.5,240.3
		L364.4,237.1 L366.3,233.9 L368.2,230.6 L370.1,227.3 L372.0,224.0 L373.9,220.7 L375.8,217.4 L377.7,214.1
		L379.6,210.8 L381.5,207.5 L383.4,204.3 L385.3,201.0 L387.2,197.8 L389.2,194.6 L391.1,191.5 L393.0,188.4
		L394.9,185.3 L396.8,182.2 L398.7,179.2 L400.6,176.2 L402.5,173.3 L404.4,170.4 L406.3,167.5 L408.2,164.7
		L410.1,161.9 L412.0,159.1 L413.9,156.4 L415.8,153.7 L417.7,151.0 L419.6,148.3 L421.5,145.6 L423.4,143.0
		L425.3,140.3 L427.2,137.7 L429.1,135.2 L431.0,132.6 L432.9,130.1 L434.8,127.6 L436.7,125.1 L438.7,122.7
		L440.6,120.3 L442.5,117.9 L444.4,115.6 L446.3,113.3 L448.2,111.1 L450.1,108.9 L452.0,106.8 L453.9,104.8
		L455.8,102.8 L457.7,100.9 L459.6,99.1 L461.5,97.4 L463.4,95.7 L465.3,94.1 L467.2,92.5 L469.1,91.1
		L471.0,89.7 L472.9,88.4 L474.8,87.2 L476.7,86.0 L478.6,84.9 L480.5,83.8 L482.4,82.8 L484.3,81.8
		L486.2,80.9 L488.1,80.0 L490.1,79.1 L492.0,78.2 L493.9,77.3 L495.8,76.4 L497.7,75.6 L499.6,74.7
		L501.5,73.8 L503.4,72.9 L505.3,72.0 L507.2,71.1 L509.1,70.2 L511.0,69.3 L512.9,68.4 L514.8,67.5
		L516.7,66.7 L518.6,65.9 L520.5,65.1 L522.4,64.4 L524.3,63.7 L526.2,63.1 L528.1,62.5 L530.0,62.0
		L531.9,61.6 L533.8,61.2 L535.7,60.9 L537.6,60.7 L539.6,60.6 L541.5,60.5 L543.4,60.5 L545.3,60.6
		L547.2,60.7 L549.1,60.8 L551.0,61.1 L552.9,61.4 L554.8,61.7 L556.7,62.1 L558.6,62.6 L560.5,63.1
		L562.4,63.7 L564.3,64.3 L566.2,65.0 L568.1,65.8 L570.0,66.7 L571.9,67.6 L573.8,68.6 L575.7,69.7
		L577.6,70.9 L579.5,72.2 L581.4,73.6 L583.3,75.0 L585.2,76.5 L587.1,78.1 L589.1,79.8 L591.0,81.5
		L592.9,83.4 L594.8,85.3 L596.7,87.2 L598.6,89.2 L600.5,91.3 L602.4,93.5 L604.3,95.7 L606.2,98.0
		L608.1,100.4 L610.0,102.8 L611.9,105.3 L613.8,107.8 L615.7,110.5 L617.6,113.2 L619.5,115.9 L621.4,118.7
		L623.3,121.6 L625.2,124.6 L627.1,127.5 L629.0,130.6 L630.9,133.7 L632.8,136.8 L634.7,140.0 L636.6,143.2
		L638.5,146.4 L640.5,149.7 L642.4,152.9 L644.3,156.2 L646.2,159.5 L648.1,162.7 L650.0,166.0 L651.9,169.2
		L653.8,172.4 L655.7,175.6 L657.6,178.7 L659.5,181.8 L661.4,184.8 L663.3,187.8 L665.2,190.8 L667.1,193.7
		L669.0,196.6 L670.9,199.5 L672.8,202.3 L674.7,205.1 L676.6,207.9 L678.5,210.6 L680.4,213.4 L682.3,216.1
		L684.2,218.9 L686.1,221.7 L688.0,224.5 L690.0,227.3 L691.9,230.1 L693.8,233.0 L695.7,235.9 L697.6,238.9
		L699.5,241.8 L701.4,244.8 L703.3,247.9 L705.2,250.9 L707.1,254.0 L709.0,257.1 L710.9,260.2 L712.8,263.3
		L714.7,266.5 L716.6,269.6 L718.5,272.8 L720.4,276.0 L722.3,279.1 L724.2,282.3 L726.1,285.5 L728.0,288.8
		L729.9,292.0 L731.8,295.3 L733.7,298.6 L735.6,301.9 L737.5,305.2 L739.5,308.6 L741.4,312.0 L743.3,315.4
		L745.2,318.8 L747.1,322.3 L749.0,325.7 L750.9,329.3 L752.8,332.8 L754.7,336.3 L756.6,339.9 L758.5,343.4
		L760.4,347.0 L762.3,350.6 L764.2,354.2 L766.1,357.8 L768.0,361.4 L769.9,365.0 L771.8,368.5 L773.7,372.1
		L775.6,375.7 L777.5,379.2 L779.4,382.7 L781.3,386.2 L783.2,389.7 L785.1,393.2 L787.0,396.7 L789.0,400.1
		L790.9,403.5 L792.8,406.8 L794.7,410.1 L796.6,413.4 L798.5,416.7 L800.4,419.9 L802.3,423.1 L804.2,426.2
		L806.1,429.3 L808.0,432.3 L809.9,435.3 L811.8,438.2 L813.7,441.1 L815.6,444.0 L817.5,446.8 L819.4,449.6
		L821.3,452.4 L823.2,455.1 L825.1,457.8 L827.0,460.5 L828.9,463.1 L830.8,465.7 L832.7,468.3 L834.6,470.9
		L836.5,473.5 L838.4,476.1 L840.4,478.6 L842.3,481.2 L844.2,483.7 L846.1,486.3 L848.0,488.8 L849.9,491.4
		L851.8,494.0 L853.7,496.5 L855.6,499.1 L857.5,501.6 L859.4,504.2 L861.3,506.8 L863.2,509.4 L865.1,511.9
		L867.0,514.5 L868.9,517.0 L870.8,519.6 L872.7,522.1 L874.6,524.6 L876.5,527.1 L878.4,529.5 L880.3,531.9
		L882.2,534.3 L884.1,536.6 L886.0,538.8 L887.9,541.0 L889.9,543.1 L891.8,545.2 L893.7,547.2 L895.6,549.2
		L897.5,551.1 L899.4,552.9 L901.3,554.7 L903.2,556.4 L905.1,558.1 L907.0,559.7 L908.9,561.3 L910.8,562.8
		L912.7,564.4 L914.6,565.8 L916.5,567.3 L918.4,568.8 L920.3,570.2 L922.2,571.6 L924.1,573.1 L926.0,574.5
		L927.9,575.9 L929.8,577.3 L931.7,578.7 L933.6,580.1 L935.5,581.6 L937.4,583.0 L939.4,584.4 L941.3,585.7
		L943.2,587.1 L945.1,588.5 L947.0,589.9 L948.9,591.2 L950.8,592.6 L952.7,593.9 L954.6,595.3 L956.5,596.6
		L958.4,597.9 L960.3,599.2 L962.2,600.5 L964.1,601.7 L966.0,603.0 L967.9,604.2 L969.8,605.5 L971.7,606.7
		L973.6,607.9 L975.5,609.1 L977.4,610.3 L979.3,611.5 L981.2,612.6 L983.1,613.8 L985.0,614.9 L986.9,616.0
		L988.9,617.1 L990.8,618.1 L992.7,619.1 L994.6,620.2 L996.5,621.2 L998.4,622.1 L1000.3,623.1 L1002.2,624.0
		L1004.1,624.9 L1006.0,625.8 L1007.9,626.6 L1009.8,627.4 L1011.7,628.2 L1013.6,629.0  '/></g>
	</g>
	<g id="gnuplot_plot_2" ><title>Confidence interval</title>
<g fill="none" color="white" stroke="rgb( 31, 120, 180)" stroke-width="1.00" stroke-linecap="butt" stroke-linejoin="miter">
</g>
<g fill="none" color="black" stroke="currentColor" stroke-width="1.00" stroke-linecap="butt" stroke-linejoin="miter">
	<g transform="translate(1089.0,85.0)" stroke="none" fill="black" font-family="Helvetica" font-size="12.00"  text-anchor="start">
		<text><tspan font-family="Helvetica" >Confidence interval</tspan></text>
	</g>
</g>
<g fill="none" color="black" stroke="currentColor" stroke-width="1.00" stroke-linecap="butt" stroke-linejoin="miter">
	<g stroke='none' shape-rendering='crispEdges'>
		<polygon fill = 'rgb( 31, 120, 180)' fill-opacity = '0.250000' points = '1038.5,85.6 1080.7,85.6 1080.7,76.6 1038.5,76.6 '/>
		<polygon fill = 'rgb( 31, 120, 180)' fill-opacity = '0.250000' points = '151.2,570.6 153.1,568.9 155.0,567.1 156.9,565.3 158.8,563.4 160.7,561.6 162.6,559.7 164.5,557.7 166.4,555.7 168.3,553.7 170.2,551.6 172.1,549.5 174.0,547.4 175.9,545.2 177.8,543.0 179.7,540.7
181.6,538.4 183.5,536.1 185.4,533.8 187.3,531.4 189.3,529.0 191.2,526.6 193.1,524.2 195.0,521.8 196.9,519.4 198.8,517.0 200.7,514.6 202.6,512.1 204.5,509.7 206.4,507.3 208.3,504.8 210.2,502.4
212.1,499.9 214.0,497.4 215.9,494.9 217.8,492.4 219.7,489.9 221.6,487.3 223.5,484.6 225.4,482.0 227.3,479.3 229.2,476.5 231.1,473.7 233.0,470.9 234.9,468.0 236.8,465.1 238.8,462.1 240.7,459.1
242.6,456.0 244.5,452.9 246.4,449.8 248.3,446.6 250.2,443.4 252.1,440.1 254.0,436.9 255.9,433.5 257.8,430.2 259.7,426.8 261.6,423.4 263.5,419.9 265.4,416.5 267.3,413.0 269.2,409.4 271.1,405.9
273.0,402.3 274.9,398.6 276.8,395.0 278.7,391.4 280.6,387.7 282.5,384.0 284.4,380.4 286.3,376.7 288.2,373.0 290.2,369.3 292.1,365.6 294.0,361.9 295.9,358.3 297.8,354.6 299.7,350.9 301.6,347.3
303.5,343.6 305.4,340.0 307.3,336.4 309.2,332.8 311.1,329.2 313.0,325.6 314.9,322.0 316.8,318.5 318.7,314.9 320.6,311.4 322.5,308.0 324.4,304.5 326.3,301.1 328.2,297.8 330.1,294.4 332.0,291.1
333.9,287.9 335.8,284.6 337.7,281.4 339.7,278.2 341.6,275.1 343.5,271.9 345.4,268.8 347.3,265.7 349.2,262.5 351.1,259.4 353.0,256.3 354.9,253.1 356.8,249.9 358.7,246.8 360.6,243.6 362.5,240.3
364.4,237.1 366.3,233.9 368.2,230.6 370.1,227.3 372.0,224.0 373.9,220.7 375.8,217.4 377.7,214.1 379.6,210.8 381.5,207.5 383.4,204.3 385.3,201.0 387.2,197.8 389.2,194.6 391.1,191.5 393.0,188.4
394.9,185.3 396.8,182.2 398.7,179.2 400.6,176.2 402.5,173.3 404.4,170.4 406.3,167.5 408.2,164.7 410.1,161.9 412.0,159.1 413.9,156.4 415.8,153.7 417.7,151.0 419.6,148.3 421.5,145.6 423.4,143.0
425.3,140.3 427.2,137.7 429.1,135.2 431.0,132.6 432.9,130.1 434.8,127.6 436.7,125.1 438.7,122.7 440.6,120.3 442.5,117.9 444.4,115.6 446.3,113.3 448.2,111.1 450.1,108.9 452.0,106.8 453.9,104.8
455.8,102.8 457.7,100.9 459.6,99.1 461.5,97.4 463.4,95.7 465.3,94.1 467.2,92.5 469.1,91.1 471.0,89.7 472.9,88.4 474.8,87.2 476.7,86.0 478.6,84.9 480.5,83.8 482.4,82.8 484.3,81.8
486.2,80.9 488.1,80.0 490.1,79.1 492.0,78.2 493.9,77.3 495.8,76.4 497.7,75.6 499.6,74.7 501.5,73.8 503.4,72.9 505.3,72.0 507.2,71.1 509.1,70.2 511.0,69.3 512.9,68.4 514.8,67.5
516.7,66.7 518.6,65.9 520.5,65.1 522.4,64.4 524.3,63.7 526.2,63.1 528.1,62.5 530.0,62.0 531.9,61.6 533.8,61.2 535.7,60.9 537.6,60.7 539.6,60.6 541.5,60.5 543.4,60.5 545.3,60.6
547.2,60.7 549.1,60.8 551.0,61.1 552.9,61.4 554.8,61.7 556.7,62.1 558.6,62.6 560.5,63.1 562.4,63.7 564.3,64.3 566.2,65.0 568.1,65.8 570.0,66.7 571.9,67.6 573.8,68.6 575.7,69.7
577.6,70.9 579.5,72.2 581.4,73.6 583.3,75.0 585.2,76.5 587.1,78.1 589.1,79.8 591.0,81.5 592.9,83.4 594.8,85.3 596.7,87.2 598.6,89.2 600.5,91.3 602.4,93.5 604.3,95.7 606.2,98.0
608.1,100.4 610.0,102.8 611.9,105.3 613.8,107.8 615.7,110.5 617.6,113.2 619.5,115.9 621.4,118.7 623.3,121.6 625.2,124.6 627.1,127.5 629.0,130.6 630.9,133.7 632.8,136.8 634.7,140.0 636.6,143.2
638.5,146.4 640.5,149.7 642.4,152.9 644.3,156.2 646.2,159.5 648.1,162.7 650.0,166.0 651.9,169.2 653.8,172.4 655.7,175.6 657.6,178.7 659.5,181.8 661.4,184.8 663.3,187.8 665.2,190.8 667.1,193.7
669.0,196.6 670.9,199.5 672.8,202.3 674.7,205.1 676.6,207.9 678.5,210.6 680.4,213.4 682.3,216.1 684.2,218.9 686.1,221.7 688.0,224.5 690.0,227.3 691.9,230.1 693.8,233.0 695.7,235.9 697.6,238.9
699.5,241.8 701.4,244.8 703.3,247.9 705.2,250.9 707.1,254.0 709.0,257.1 710.9,260.2 712.8,263.3 714.7,266.5 716.6,269.6 718.5,272.8 720.4,276.0 722.3,279.1 724.2,282.3 726.1,285.5 728.0,288.8
729.9,292.0 731.8,295.3 733.7,298.6 735.6,301.9 737.5,305.2 739.5,308.6 741.4,312.0 743.3,315.4 745.2,318.8 747.1,322.3 749.0,325.7 750.9,329.3 752.8,332.8 754.7,336.3 756.6,339.9 758.5,343.4
760.4,347.0 762.3,350.6 764.2,354.2 766.1,357.8 768.0,361.4 769.9,365.0 771.8,368.5 773.7,372.1 775.6,375.7 777.5,379.2 779.4,382.7 781.3,386.2 783.2,389.7 785.1,393.2 787.0,396.7 789.0,400.1
790.9,403.5 792.8,406.8 794.7,410.1 796.6,413.4 798.5,416.7 800.4,419.9 802.3,423.1 804.2,426.2 806.1,429.3 808.0,432.3 809.9,435.3 811.8,438.2 813.7,441.1 815.6,444.0 817.5,446.8 819.4,449.6
821.3,452.4 823.2,455.1 825.1,457.8 827.0,460.5 828.9,463.1 830.8,465.7 832.7,468.3 834.6,470.9 836.5,473.5 838.4,476.1 840.4,478.6 842.3,481.2 844.2,483.7 846.1,486.3 848.0,488.8 849.9,491.4
851.8,494.0 853.7,496.5 855.6,499.1 857.5,501.6 859.4,504.2 861.3,506.8 863.2,509.4 865.1,511.9 867.0,514.5 868.9,517.0 870.8,519.6 872.7,522.1 874.6,524.6 876.5,527.1 878.4,529.5 880.3,531.9
882.2,534.3 884.1,536.6 886.0,538.8 887.9,541.0 889.9,543.1 891.8,545.2 893.7,547.2 895.6,549.2 897.5,551.1 899.4,552.9 901.3,554.7 903.2,556.4 905.1,558.1 907.0,559.7 908.9,561.3 910.8,562.8
912.7,564.4 914.6,565.8 916.5,567.3 918.4,568.8 920.3,570.2 922.2,571.6 924.1,573.1 924.1,662.4 922.2,662.4 920.3,662.4 918.4,662.4 916.5,662.4 914.6,662.4 912.7,662.4 910.8,662.4 908.9,662.4
907.0,662.4 905.1,662.4 903.2,662.4 901.3,662.4 899.4,662.4 897.5,662.4 895.6,662.4 893.7,662.4 891.8,662.4 889.9,662.4 887.9,662.4 886.0,662.4 884.1,662.4 882.2,662.4 880.3,662.4 878.4,662.4
876.5,662.4 874.6,662.4 872.7,662.4 870.8,662.4 868.9,662.4 867.0,662.4 865.1,662.4 863.2,662.4 861.3,662.4 859.4,662.4 857.5,662.4 855.6,662.4 853.7,662.4 851.8,662.4 849.9,662.4 848.0,662.4
846.1,662.4 844.2,662.4 842.3,662.4 840.4,662.4 838.4,662.4 836.5,662.4 834.6,662.4 832.7,662.4 830.8,662.4 828.9,662.4 827.0,662.4 825.1,662.4 823.2,662.4 821.3,662.4 819.4,662.4 817.5,662.4
815.6,662.4 813.7,662.4 811.8,662.4 809.9,662.4 808.0,662.4 806.1,662.4 804.2,662.4 802.3,662.4 800.4,662.4 798.5,662.4 796.6,662.4 794.7,662.4 792.8,662.4 790.9,662.4 789.0,662.4 787.0,662.4
785.1,662.4 783.2,662.4 781.3,662.4 779.4,662.4 777.5,662.4 775.6,662.4 773.7,662.4 771.8,662.4 769.9,662.4 768.0,662.4 766.1,662.4 764.2,662.4 762.3,662.4 760.4,662.4 758.5,662.4 756.6,662.4
754.7,662.4 752.8,662.4 750.9,662.4 749.0,662.4 747.1,662.4 745.2,662.4 743.3,662.4 741.4,662.4 739.5,662.4 737.5,662.4 735.6,662.4 733.7,662.4 731.8,662.4 729.9,662.4 728.0,662.4 726.1,662.4
724.2,662.4 722.3,662.4 720.4,662.4 718.5,662.4 716.6,662.4 714.7,662.4 712.8,662.4 710.9,662.4 709.0,662.4 707.1,662.4 705.2,662.4 703.3,662.4 701.4,662.4 699.5,662.4 697.6,662.4 695.7,662.4
693.8,662.4 691.9,662.4 690.0,662.4 688.0,662.4 686.1,662.4 684.2,662.4 682.3,662.4 680.4,662.4 678.5,662.4 676.6,662.4 674.7,662.4 672.8,662.4 670.9,662.4 669.0,662.4 667.1,662.4 665.2,662.4
663.3,662.4 661.4,662.4 659.5,662.4 657.6,662.4 655.7,662.4 653.8,662.4 651.9,662.4 650.0,662.4 648.1,662.4 646.2,662.4 644.3,662.4 642.4,662.4 640.5,662.4 638.5,662.4 636.6,662.4 634.7,662.4
632.8,662.4 630.9,662.4 629.0,662.4 627.1,662.4 625.2,662.4 623.3,662.4 621.4,662.4 619.5,662.4 617.6,662.4 615.7,662.4 613.8,662.4 611.9,662.4 610.0,662.4 608.1,662.4 606.2,662.4 604.3,662.4
602.4,662.4 600.5,662.4 598.6,662.4 596.7,662.4 594.8,662.4 592.9,662.4 591.0,662.4 589.1,662.4 587.1,662.4 585.2,662.4 583.3,662.4 581.4,662.4 579.5,662.4 577.6,662.4 575.7,662.4 573.8,662.4
571.9,662.4 570.0,662.4 568.1,662.4 566.2,662.4 564.3,662.4 562.4,662.4 560.5,662.4 558.6,662.4 556.7,662.4 554.8,662.4 552.9,662.4 551.0,662.4 549.1,662.4 547.2,662.4 545.3,662.4 543.4,662.4
541.5,662.4 539.6,662.4 537.6,662.4 535.7,662.4 533.8,662.4 531.9,662.4 530.0,662.4 528.1,662.4 526.2,662.4 524.3,662.4 522.4,662.4 520.5,662.4 518.6,662.4 516.7,662.4 514.8,662.4 512.9,662.4
511.0,662.4 509.1,662.4 507.2,662.4 505.3,662.4 503.4,662.4 501.5,662.4 499.6,662.4 497.7,662.4 495.8,662.4 493.9,662.4 492.0,662.4 490.1,662.4 488.1,662.4 486.2,662.4 484.3,662.4 482.4,662.4
480.5,662.4 478.6,662.4 476.7,662.4 474.8,662.4 472.9,662.4 471.0,662.4 469.1,662.4 467.2,662.4 465.3,662.4 463.4,662.4 461.5,662.4 459.6,662.4 457.7,662.4 455.8,662.4 453.9,662.4 452.0,662.4
450.1,662.4 448.2,662.4 446.3,662.4 444.4,662.4 442.5,662.4 440.6,662.4 438.7,662.4 436.7,662.4 434.8,662.4 432.9,662.4 431.0,662.4 429.1,662.4 427.2,662.4 425.3,662.4 423.4,662.4 421.5,662.4
419.6,662.4 417.7,662.4 415.8,662.4 413.9,662.4 412.0,662.4 410.1,662.4 408.2,662.4 406.3,662.4 404.4,662.4 402.5,662.4 400.6,662.4 398.7,662.4 396.8,662.4 394.9,662.4 393.0,662.4 391.1,662.4
389.2,662.4 387.2,662.4 385.3,662.4 383.4,662.4 381.5,662.4 379.6,662.4 377.7,662.4 375.8,662.4 373.9,662.4 372.0,662.4 370.1,662.4 368.2,662.4 366.3,662.4 364.4,662.4 362.5,662.4 360.6,662.4
358.7,662.4 356.8,662.4 354.9,662.4 353.0,662.4 351.1,662.4 349.2,662.4 347.3,662.4 345.4,662.4 343.5,662.4 341.6,662.4 339.7,662.4 337.7,662.4 335.8,662.4 333.9,662.4 332.0,662.4 330.1,662.4
328.2,662.4 326.3,662.4 324.4,662.4 322.5,662.4 320.6,662.4 318.7,662.4 316.8,662.4 314.9,662.4 313.0,662.4 311.1,662.4 309.2,662.4 307.3,662.4 305.4,662.4 303.5,662.4 301.6,662.4 299.7,662.4
297.8,662.4 295.9,662.4 294.0,662.4 292.1,662.4 290.2,662.4 288.2,662.4 286.3,662.4 284.4,662.4 282.5,662.4 280.6,662.4 278.7,662.4 276.8,662.4 274.9,662.4 273.0,662.4 271.1,662.4 269.2,662.4
267.3,662.4 265.4,662.4 263.5,662.4 261.6,662.4 259.7,662.4 257.8,662.4 255.9,662.4 254.0,662.4 252.1,662.4 250.2,662.4 248.3,662.4 246.4,662.4 244.5,662.4 242.6,662.4 240.7,662.4 238.8,662.4
236.8,662.4 234.9,662.4 233.0,662.4 231.1,662.4 229.2,662.4 227.3,662.4 225.4,662.4 223.5,662.4 221.6,662.4 219.7,662.4 217.8,662.4 215.9,662.4 214.0,662.4 212.1,662.4 210.2,662.4 208.3,662.4
206.4,662.4 204.5,662.4 202.6,662.4 200.7,662.4 198.8,662.4 196.9,662.4 195.0,662.4 193.1,662.4 191.2,662.4 189.3,662.4 187.3,662.4 185.4,662.4 183.5,662.4 181.6,662.4 179.7,662.4 177.8,662.4
175.9,662.4 174.0,662.4 172.1,662.4 170.2,662.4 168.3,662.4 166.4,662.4 164.5,662.4 162.6,662.4 160.7,662.4 158.8,662.4 156.9,662.4 155.0,662.4 153.1,662.4 151.2,662.4 '/>
	</g>
</g>
	</g>
	<g id="gnuplot_plot_3" ><title>Point estimate</title>
<g fill="none" color="white" stroke="rgb( 31, 120, 180)" stroke-width="2.00" stroke-linecap="butt" stroke-linejoin="miter">
</g>
<g fill="none" color="black" stroke="currentColor" stroke-width="2.00" stroke-linecap="butt" stroke-linejoin="miter">
	<g transform="translate(1089.0,103.0)" stroke="none" fill="black" font-family="Helvetica" font-size="12.00"  text-anchor="start">
		<text><tspan font-family="Helvetica" >Point estimate</tspan></text>
	</g>
</g>
<g fill="none" color="black" stroke="currentColor" stroke-width="2.00" stroke-linecap="butt" stroke-linejoin="miter">
	<path stroke='rgb( 31, 120, 180)'  d='M1038.5,99.1 L1080.7,99.1 M533.4,662.4 L533.4,61.3  '/></g>
	</g>
	<g id="gnuplot_plot_4" ><title>Noise threshold</title>
<g fill="none" color="white" stroke="rgb( 31, 120, 180)" stroke-width="1.00" stroke-linecap="butt" stroke-linejoin="miter">
</g>
<g fill="none" color="black" stroke="currentColor" stroke-width="1.00" stroke-linecap="butt" stroke-linejoin="miter">
	<g transform="translate(1089.0,121.0)" stroke="none" fill="black" font-family="Helvetica" font-size="12.00"  text-anchor="start">
		<text><tspan font-family="Helvetica" >Noise threshold</tspan></text>
	</g>
</g>
<g fill="none" color="black" stroke="currentColor" stroke-width="1.00" stroke-linecap="butt" stroke-linejoin="miter">
	<g stroke='none' shape-rendering='crispEdges'>
		<polygon fill = 'rgb(227,  26,  28)' fill-opacity = '0.100000' points = '1038.5,121.6 1080.7,121.6 1080.7,112.6 1038.5,112.6 '/>
		<polygon fill = 'rgb(227,  26,  28)' fill-opacity = '0.100000' points = '538.6,54.1 538.6,54.1 538.6,662.4 538.6,662.4 '/>
	</g>
</g>
	</g>
<g fill="none" color="white" stroke="rgb(227,  26,  28)" stroke-width="2.00" stroke-linecap="butt" stroke-linejoin="miter">
</g>
<g fill="none" color="black" stroke="currentColor" stroke-width="2.00" stroke-linecap="butt" stroke-linejoin="miter">
</g>
<g fill="none" color="black" stroke="black" stroke-width="1.00" stroke-linecap="butt" stroke-linejoin="miter">
</g>
<g fill="none" color="black" stroke="currentColor" stroke-width="1.00" stroke-linecap="butt" stroke-linejoin="miter">
	<path stroke='black'  d='M63.6,54.1 L63.6,662.4 L1013.6,662.4 L1013.6,54.1 L63.6,54.1 Z  '/></g>
<g fill="none" color="black" stroke="currentColor" stroke-width="1.00" stroke-linecap="butt" stroke-linejoin="miter">
</g>
</g>
</svg>

