<?xml version="1.0" encoding="utf-8"  standalone="no"?>
<svg 
 viewBox="0 0 1280 720"
 xmlns="http://www.w3.org/2000/svg"
 xmlns:xlink="http://www.w3.org/1999/xlink"
>

<title>Gnuplot</title>
<desc>Produced by GNUPLOT 5.2 patchlevel 6 </desc>

<g id="gnuplot_canvas">

<rect x="0" y="0" width="1280" height="720" fill="none"/>
<defs>

	<circle id='gpDot' r='0.5' stroke-width='0.5' stroke='currentColor'/>
	<path id='gpPt0' stroke-width='0.222' stroke='currentColor' d='M-1,0 h2 M0,-1 v2'/>
	<path id='gpPt1' stroke-width='0.222' stroke='currentColor' d='M-1,-1 L1,1 M1,-1 L-1,1'/>
	<path id='gpPt2' stroke-width='0.222' stroke='currentColor' d='M-1,0 L1,0 M0,-1 L0,1 M-1,-1 L1,1 M-1,1 L1,-1'/>
	<rect id='gpPt3' stroke-width='0.222' stroke='currentColor' x='-1' y='-1' width='2' height='2'/>
	<rect id='gpPt4' stroke-width='0.222' stroke='currentColor' fill='currentColor' x='-1' y='-1' width='2' height='2'/>
	<circle id='gpPt5' stroke-width='0.222' stroke='currentColor' cx='0' cy='0' r='1'/>
	<use xlink:href='#gpPt5' id='gpPt6' fill='currentColor' stroke='none'/>
	<path id='gpPt7' stroke-width='0.222' stroke='currentColor' d='M0,-1.33 L-1.33,0.67 L1.33,0.67 z'/>
	<use xlink:href='#gpPt7' id='gpPt8' fill='currentColor' stroke='none'/>
	<use xlink:href='#gpPt7' id='gpPt9' stroke='currentColor' transform='rotate(180)'/>
	<use xlink:href='#gpPt9' id='gpPt10' fill='currentColor' stroke='none'/>
	<use xlink:href='#gpPt3' id='gpPt11' stroke='currentColor' transform='rotate(45)'/>
	<use xlink:href='#gpPt11' id='gpPt12' fill='currentColor' stroke='none'/>
	<path id='gpPt13' stroke-width='0.222' stroke='currentColor' d='M0,1.330 L1.265,0.411 L0.782,-1.067 L-0.782,-1.076 L-1.265,0.411 z'/>
	<use xlink:href='#gpPt13' id='gpPt14' fill='currentColor' stroke='none'/>
	<filter id='textbox' filterUnits='objectBoundingBox' x='0' y='0' height='1' width='1'>
	  <feFlood flood-color='white' flood-opacity='1' result='bgnd'/>
	  <feComposite in='SourceGraphic' in2='bgnd' operator='atop'/>
	</filter>
	<filter id='greybox' filterUnits='objectBoundingBox' x='0' y='0' height='1' width='1'>
	  <feFlood flood-color='lightgrey' flood-opacity='1' result='grey'/>
	  <feComposite in='SourceGraphic' in2='grey' operator='atop'/>
	</filter>
</defs>
<g fill="none" color="white" stroke="currentColor" stroke-width="1.00" stroke-linecap="butt" stroke-linejoin="miter">
</g>
<g fill="none" color="black" stroke="currentColor" stroke-width="1.00" stroke-linecap="butt" stroke-linejoin="miter">
	<path stroke='black'  d='M80.2,662.4 L89.2,662.4  '/>	<g transform="translate(71.9,666.3)" stroke="none" fill="black" font-family="Helvetica" font-size="12.00"  text-anchor="end">
		<text><tspan font-family="Helvetica" > 0</tspan></text>
	</g>
</g>
<g fill="none" color="black" stroke="currentColor" stroke-width="1.00" stroke-linecap="butt" stroke-linejoin="miter">
	<path stroke='black'  d='M80.2,586.4 L89.2,586.4  '/>	<g transform="translate(71.9,590.3)" stroke="none" fill="black" font-family="Helvetica" font-size="12.00"  text-anchor="end">
		<text><tspan font-family="Helvetica" > 0.02</tspan></text>
	</g>
</g>
<g fill="none" color="black" stroke="currentColor" stroke-width="1.00" stroke-linecap="butt" stroke-linejoin="miter">
	<path stroke='black'  d='M80.2,510.3 L89.2,510.3  '/>	<g transform="translate(71.9,514.2)" stroke="none" fill="black" font-family="Helvetica" font-size="12.00"  text-anchor="end">
		<text><tspan font-family="Helvetica" > 0.04</tspan></text>
	</g>
</g>
<g fill="none" color="black" stroke="currentColor" stroke-width="1.00" stroke-linecap="butt" stroke-linejoin="miter">
	<path stroke='black'  d='M80.2,434.3 L89.2,434.3  '/>	<g transform="translate(71.9,438.2)" stroke="none" fill="black" font-family="Helvetica" font-size="12.00"  text-anchor="end">
		<text><tspan font-family="Helvetica" > 0.06</tspan></text>
	</g>
</g>
<g fill="none" color="black" stroke="currentColor" stroke-width="1.00" stroke-linecap="butt" stroke-linejoin="miter">
	<path stroke='black'  d='M80.2,358.2 L89.2,358.2  '/>	<g transform="translate(71.9,362.1)" stroke="none" fill="black" font-family="Helvetica" font-size="12.00"  text-anchor="end">
		<text><tspan font-family="Helvetica" > 0.08</tspan></text>
	</g>
</g>
<g fill="none" color="black" stroke="currentColor" stroke-width="1.00" stroke-linecap="butt" stroke-linejoin="miter">
	<path stroke='black'  d='M80.2,282.2 L89.2,282.2  '/>	<g transform="translate(71.9,286.1)" stroke="none" fill="black" font-family="Helvetica" font-size="12.00"  text-anchor="end">
		<text><tspan font-family="Helvetica" > 0.1</tspan></text>
	</g>
</g>
<g fill="none" color="black" stroke="currentColor" stroke-width="1.00" stroke-linecap="butt" stroke-linejoin="miter">
	<path stroke='black'  d='M80.2,206.2 L89.2,206.2  '/>	<g transform="translate(71.9,210.1)" stroke="none" fill="black" font-family="Helvetica" font-size="12.00"  text-anchor="end">
		<text><tspan font-family="Helvetica" > 0.12</tspan></text>
	</g>
</g>
<g fill="none" color="black" stroke="currentColor" stroke-width="1.00" stroke-linecap="butt" stroke-linejoin="miter">
	<path stroke='black'  d='M80.2,130.1 L89.2,130.1  '/>	<g transform="translate(71.9,134.0)" stroke="none" fill="black" font-family="Helvetica" font-size="12.00"  text-anchor="end">
		<text><tspan font-family="Helvetica" > 0.14</tspan></text>
	</g>
</g>
<g fill="none" color="black" stroke="currentColor" stroke-width="1.00" stroke-linecap="butt" stroke-linejoin="miter">
	<path stroke='black'  d='M80.2,54.1 L89.2,54.1  '/>	<g transform="translate(71.9,58.0)" stroke="none" fill="black" font-family="Helvetica" font-size="12.00"  text-anchor="end">
		<text><tspan font-family="Helvetica" > 0.16</tspan></text>
	</g>
</g>
<g fill="none" color="black" stroke="currentColor" stroke-width="1.00" stroke-linecap="butt" stroke-linejoin="miter">
	<path stroke='black'  d='M220.6,662.4 L220.6,653.4  '/>	<g transform="translate(220.6,684.3)" stroke="none" fill="black" font-family="Helvetica" font-size="12.00"  text-anchor="middle">
		<text><tspan font-family="Helvetica" > 10</tspan></text>
	</g>
</g>
<g fill="none" color="black" stroke="currentColor" stroke-width="1.00" stroke-linecap="butt" stroke-linejoin="miter">
	<path stroke='black'  d='M366.8,662.4 L366.8,653.4  '/>	<g transform="translate(366.8,684.3)" stroke="none" fill="black" font-family="Helvetica" font-size="12.00"  text-anchor="middle">
		<text><tspan font-family="Helvetica" > 12</tspan></text>
	</g>
</g>
<g fill="none" color="black" stroke="currentColor" stroke-width="1.00" stroke-linecap="butt" stroke-linejoin="miter">
	<path stroke='black'  d='M513.0,662.4 L513.0,653.4  '/>	<g transform="translate(513.0,684.3)" stroke="none" fill="black" font-family="Helvetica" font-size="12.00"  text-anchor="middle">
		<text><tspan font-family="Helvetica" > 14</tspan></text>
	</g>
</g>
<g fill="none" color="black" stroke="currentColor" stroke-width="1.00" stroke-linecap="butt" stroke-linejoin="miter">
	<path stroke='black'  d='M659.2,662.4 L659.2,653.4  '/>	<g transform="translate(659.2,684.3)" stroke="none" fill="black" font-family="Helvetica" font-size="12.00"  text-anchor="middle">
		<text><tspan font-family="Helvetica" > 16</tspan></text>
	</g>
</g>
<g fill="none" color="black" stroke="currentColor" stroke-width="1.00" stroke-linecap="butt" stroke-linejoin="miter">
	<path stroke='black'  d='M805.4,662.4 L805.4,653.4  '/>	<g transform="translate(805.4,684.3)" stroke="none" fill="black" font-family="Helvetica" font-size="12.00"  text-anchor="middle">
		<text><tspan font-family="Helvetica" > 18</tspan></text>
	</g>
</g>
<g fill="none" color="black" stroke="currentColor" stroke-width="1.00" stroke-linecap="butt" stroke-linejoin="miter">
	<path stroke='black'  d='M951.6,662.4 L951.6,653.4  '/>	<g transform="translate(951.6,684.3)" stroke="none" fill="black" font-family="Helvetica" font-size="12.00"  text-anchor="middle">
		<text><tspan font-family="Helvetica" > 20</tspan></text>
	</g>
</g>
<g fill="none" color="black" stroke="currentColor" stroke-width="1.00" stroke-linecap="butt" stroke-linejoin="miter">
</g>
<g fill="none" color="black" stroke="currentColor" stroke-width="1.00" stroke-linecap="butt" stroke-linejoin="miter">
	<path stroke='black'  d='M80.2,54.1 L80.2,662.4 L1013.6,662.4 L1013.6,54.1 L80.2,54.1 Z  '/></g>
<g fill="none" color="black" stroke="currentColor" stroke-width="1.00" stroke-linecap="butt" stroke-linejoin="miter">
	<g transform="translate(16.3,358.3) rotate(270)" stroke="none" fill="black" font-family="Helvetica" font-size="12.00"  text-anchor="middle">
		<text><tspan font-family="Helvetica" >Density (a.u.)</tspan></text>
	</g>
</g>
<g fill="none" color="black" stroke="currentColor" stroke-width="1.00" stroke-linecap="butt" stroke-linejoin="miter">
	<g transform="translate(546.9,711.3)" stroke="none" fill="black" font-family="Helvetica" font-size="12.00"  text-anchor="middle">
		<text><tspan font-family="Helvetica" >Average time (ns)</tspan></text>
	</g>
</g>
<g fill="none" color="black" stroke="currentColor" stroke-width="1.00" stroke-linecap="butt" stroke-linejoin="miter">
	<g transform="translate(546.9,31.0)" stroke="none" fill="black" font-family="Helvetica" font-size="12.00"  text-anchor="middle">
		<text><tspan font-family="Helvetica" >snapshot_restore_with_dense/Sparse: Dirty pages + /proc/pid/mem/1: MAD</tspan></text>
	</g>
</g>
	<g id="gnuplot_plot_1" ><title>Bootstrap distribution</title>
<g fill="none" color="white" stroke="black" stroke-width="2.00" stroke-linecap="butt" stroke-linejoin="miter">
</g>
<g fill="none" color="black" stroke="currentColor" stroke-width="2.00" stroke-linecap="butt" stroke-linejoin="miter">
	<g transform="translate(1089.0,67.0)" stroke="none" fill="black" font-family="Helvetica" font-size="12.00"  text-anchor="start">
		<text><tspan font-family="Helvetica" >Bootstrap distribution</tspan></text>
	</g>
</g>
<g fill="none" color="black" stroke="currentColor" stroke-width="2.00" stroke-linecap="butt" stroke-linejoin="miter">
	<path stroke='rgb( 31, 120, 180)'  d='M1038.5,63.1 L1080.7,63.1 M80.2,636.4 L82.1,634.9 L83.9,633.4 L85.8,631.8 L87.7,630.1 L89.6,628.4
		L91.4,626.7 L93.3,624.8 L95.2,622.9 L97.0,621.0 L98.9,619.0 L100.8,616.9 L102.6,614.8 L104.5,612.6
		L106.4,610.3 L108.3,608.0 L110.1,605.7 L112.0,603.2 L113.9,600.8 L115.7,598.2 L117.6,595.6 L119.5,592.8
		L121.4,590.0 L123.2,587.2 L125.1,584.2 L127.0,581.1 L128.8,578.0 L130.7,574.7 L132.6,571.3 L134.4,567.9
		L136.3,564.3 L138.2,560.6 L140.1,556.9 L141.9,553.0 L143.8,549.1 L145.7,545.1 L147.5,541.0 L149.4,536.8
		L151.3,532.6 L153.2,528.2 L155.0,523.9 L156.9,519.4 L158.8,515.0 L160.6,510.5 L162.5,505.9 L164.4,501.3
		L166.2,496.6 L168.1,491.9 L170.0,487.2 L171.9,482.4 L173.7,477.6 L175.6,472.8 L177.5,467.9 L179.3,463.0
		L181.2,458.0 L183.1,453.0 L185.0,448.0 L186.8,442.9 L188.7,437.8 L190.6,432.7 L192.4,427.6 L194.3,422.4
		L196.2,417.2 L198.0,412.0 L199.9,406.8 L201.8,401.7 L203.7,396.5 L205.5,391.4 L207.4,386.2 L209.3,381.1
		L211.1,376.0 L213.0,371.0 L214.9,365.9 L216.7,360.9 L218.6,355.9 L220.5,350.8 L222.4,345.7 L224.2,340.5
		L226.1,335.2 L228.0,329.8 L229.8,324.2 L231.7,318.5 L233.6,312.5 L235.5,306.3 L237.3,299.7 L239.2,292.9
		L241.1,285.7 L242.9,278.1 L244.8,270.2 L246.7,261.9 L248.5,253.2 L250.4,244.1 L252.3,234.7 L254.2,225.0
		L256.0,215.1 L257.9,205.0 L259.8,194.7 L261.6,184.4 L263.5,174.2 L265.4,164.1 L267.3,154.2 L269.1,144.7
		L271.0,135.7 L272.9,127.2 L274.7,119.4 L276.6,112.3 L278.5,106.1 L280.3,100.8 L282.2,96.4 L284.1,93.1
		L286.0,90.8 L287.8,89.6 L289.7,89.4 L291.6,90.3 L293.4,92.1 L295.3,94.9 L297.2,98.5 L299.1,102.9
		L300.9,107.8 L302.8,113.3 L304.7,119.2 L306.5,125.3 L308.4,131.5 L310.3,137.6 L312.1,143.5 L314.0,149.1
		L315.9,154.2 L317.8,158.7 L319.6,162.4 L321.5,165.4 L323.4,167.5 L325.2,168.7 L327.1,168.9 L329.0,168.2
		L330.9,166.5 L332.7,164.0 L334.6,160.8 L336.5,156.9 L338.3,152.4 L340.2,147.5 L342.1,142.4 L343.9,137.2
		L345.8,132.0 L347.7,127.2 L349.6,122.7 L351.4,118.8 L353.3,115.5 L355.2,113.0 L357.0,111.4 L358.9,110.7
		L360.8,110.9 L362.7,111.9 L364.5,113.9 L366.4,116.6 L368.3,120.0 L370.1,124.0 L372.0,128.5 L373.9,133.2
		L375.7,138.1 L377.6,143.1 L379.5,147.9 L381.4,152.5 L383.2,156.6 L385.1,160.4 L387.0,163.5 L388.8,166.1
		L390.7,168.0 L392.6,169.3 L394.5,169.8 L396.3,169.7 L398.2,169.0 L400.1,167.7 L401.9,165.9 L403.8,163.6
		L405.7,160.9 L407.5,158.0 L409.4,154.8 L411.3,151.4 L413.2,148.0 L415.0,144.7 L416.9,141.5 L418.8,138.4
		L420.6,135.6 L422.5,133.2 L424.4,131.1 L426.3,129.5 L428.1,128.3 L430.0,127.6 L431.9,127.5 L433.7,127.9
		L435.6,128.8 L437.5,130.2 L439.3,132.1 L441.2,134.4 L443.1,137.1 L445.0,140.1 L446.8,143.4 L448.7,146.9
		L450.6,150.4 L452.4,154.0 L454.3,157.6 L456.2,161.1 L458.0,164.5 L459.9,167.6 L461.8,170.5 L463.7,173.2
		L465.5,175.5 L467.4,177.6 L469.3,179.3 L471.1,180.8 L473.0,182.0 L474.9,183.0 L476.8,183.7 L478.6,184.2
		L480.5,184.6 L482.4,184.9 L484.2,185.0 L486.1,185.2 L488.0,185.2 L489.8,185.3 L491.7,185.5 L493.6,185.6
		L495.5,185.9 L497.3,186.2 L499.2,186.5 L501.1,187.0 L502.9,187.4 L504.8,188.0 L506.7,188.6 L508.6,189.1
		L510.4,189.7 L512.3,190.2 L514.2,190.6 L516.0,190.9 L517.9,191.0 L519.8,190.9 L521.6,190.7 L523.5,190.2
		L525.4,189.5 L527.3,188.5 L529.1,187.3 L531.0,185.9 L532.9,184.3 L534.7,182.6 L536.6,180.7 L538.5,178.8
		L540.4,176.9 L542.2,175.1 L544.1,173.4 L546.0,171.9 L547.8,170.7 L549.7,169.9 L551.6,169.3 L553.4,169.2
		L555.3,169.6 L557.2,170.3 L559.1,171.5 L560.9,173.1 L562.8,175.0 L564.7,177.3 L566.5,179.8 L568.4,182.5
		L570.3,185.3 L572.2,188.1 L574.0,190.9 L575.9,193.6 L577.8,196.1 L579.6,198.3 L581.5,200.2 L583.4,201.7
		L585.2,202.8 L587.1,203.6 L589.0,204.0 L590.9,204.0 L592.7,203.8 L594.6,203.3 L596.5,202.6 L598.3,201.7
		L600.2,200.9 L602.1,200.1 L604.0,199.6 L605.8,199.2 L607.7,199.3 L609.6,199.8 L611.4,200.8 L613.3,202.4
		L615.2,204.6 L617.0,207.5 L618.9,211.1 L620.8,215.3 L622.7,220.2 L624.5,225.8 L626.4,231.9 L628.3,238.5
		L630.1,245.6 L632.0,253.1 L633.9,260.8 L635.8,268.7 L637.6,276.7 L639.5,284.6 L641.4,292.5 L643.2,300.3
		L645.1,307.8 L647.0,315.1 L648.8,322.1 L650.7,328.7 L652.6,335.0 L654.5,341.0 L656.3,346.6 L658.2,351.8
		L660.1,356.8 L661.9,361.6 L663.8,366.0 L665.7,370.3 L667.5,374.4 L669.4,378.4 L671.3,382.3 L673.2,386.0
		L675.0,389.7 L676.9,393.3 L678.8,396.9 L680.6,400.3 L682.5,403.7 L684.4,407.1 L686.3,410.3 L688.1,413.4
		L690.0,416.4 L691.9,419.3 L693.7,422.0 L695.6,424.6 L697.5,427.0 L699.3,429.3 L701.2,431.4 L703.1,433.4
		L705.0,435.2 L706.8,437.0 L708.7,438.6 L710.6,440.1 L712.4,441.6 L714.3,443.1 L716.2,444.5 L718.1,446.0
		L719.9,447.4 L721.8,448.9 L723.7,450.5 L725.5,452.1 L727.4,453.8 L729.3,455.5 L731.1,457.3 L733.0,459.2
		L734.9,461.1 L736.8,463.2 L738.6,465.2 L740.5,467.4 L742.4,469.6 L744.2,471.8 L746.1,474.1 L748.0,476.5
		L749.9,478.9 L751.7,481.4 L753.6,483.9 L755.5,486.5 L757.3,489.2 L759.2,492.0 L761.1,494.9 L762.9,497.8
		L764.8,500.8 L766.7,503.9 L768.6,507.1 L770.4,510.3 L772.3,513.5 L774.2,516.8 L776.0,520.1 L777.9,523.3
		L779.8,526.5 L781.7,529.5 L783.5,532.5 L785.4,535.3 L787.3,537.9 L789.1,540.3 L791.0,542.5 L792.9,544.5
		L794.7,546.2 L796.6,547.6 L798.5,548.8 L800.4,549.8 L802.2,550.4 L804.1,550.9 L806.0,551.2 L807.8,551.2
		L809.7,551.1 L811.6,550.9 L813.5,550.6 L815.3,550.2 L817.2,549.7 L819.1,549.2 L820.9,548.8 L822.8,548.3
		L824.7,547.9 L826.5,547.6 L828.4,547.4 L830.3,547.3 L832.2,547.3 L834.0,547.5 L835.9,547.8 L837.8,548.3
		L839.6,549.0 L841.5,549.8 L843.4,550.8 L845.3,552.0 L847.1,553.3 L849.0,554.8 L850.9,556.4 L852.7,558.2
		L854.6,560.1 L856.5,562.1 L858.3,564.2 L860.2,566.4 L862.1,568.7 L864.0,571.0 L865.8,573.4 L867.7,575.7
		L869.6,578.1 L871.4,580.4 L873.3,582.7 L875.2,585.0 L877.1,587.2 L878.9,589.3 L880.8,591.3 L882.7,593.3
		L884.5,595.1 L886.4,596.9 L888.3,598.5 L890.1,600.0 L892.0,601.4 L893.9,602.7 L895.8,603.8 L897.6,604.9
		L899.5,605.9 L901.4,606.7 L903.2,607.5 L905.1,608.3 L907.0,608.9 L908.8,609.5 L910.7,610.1 L912.6,610.6
		L914.5,611.1 L916.3,611.5 L918.2,612.0 L920.1,612.5 L921.9,613.0 L923.8,613.4 L925.7,614.0 L927.6,614.5
		L929.4,615.0 L931.3,615.6 L933.2,616.2 L935.0,616.8 L936.9,617.4 L938.8,618.1 L940.6,618.7 L942.5,619.3
		L944.4,619.9 L946.3,620.5 L948.1,621.1 L950.0,621.6 L951.9,622.1 L953.7,622.5 L955.6,623.0 L957.5,623.3
		L959.4,623.7 L961.2,623.9 L963.1,624.2 L965.0,624.4 L966.8,624.6 L968.7,624.8 L970.6,625.0 L972.4,625.1
		L974.3,625.3 L976.2,625.5 L978.1,625.7 L979.9,625.9 L981.8,626.1 L983.7,626.4 L985.5,626.8 L987.4,627.2
		L989.3,627.6 L991.2,628.0 L993.0,628.5 L994.9,629.1 L996.8,629.7 L998.6,630.3 L1000.5,630.9 L1002.4,631.5
		L1004.2,632.1 L1006.1,632.8 L1008.0,633.4 L1009.9,633.9 L1011.7,634.5 L1013.6,635.0  '/></g>
	</g>
	<g id="gnuplot_plot_2" ><title>Confidence interval</title>
<g fill="none" color="white" stroke="rgb( 31, 120, 180)" stroke-width="1.00" stroke-linecap="butt" stroke-linejoin="miter">
</g>
<g fill="none" color="black" stroke="currentColor" stroke-width="1.00" stroke-linecap="butt" stroke-linejoin="miter">
	<g transform="translate(1089.0,85.0)" stroke="none" fill="black" font-family="Helvetica" font-size="12.00"  text-anchor="start">
		<text><tspan font-family="Helvetica" >Confidence interval</tspan></text>
	</g>
</g>
<g fill="none" color="black" stroke="currentColor" stroke-width="1.00" stroke-linecap="butt" stroke-linejoin="miter">
	<g stroke='none' shape-rendering='crispEdges'>
		<polygon fill = 'rgb( 31, 120, 180)' fill-opacity = '0.250000' points = '1038.5,85.6 1080.7,85.6 1080.7,76.6 1038.5,76.6 '/>
		<polygon fill = 'rgb( 31, 120, 180)' fill-opacity = '0.250000' points = '166.2,496.6 168.1,491.9 170.0,487.2 171.9,482.4 173.7,477.6 175.6,472.8 177.5,467.9 179.3,463.0 181.2,458.0 183.1,453.0 185.0,448.0 186.8,442.9 188.7,437.8 190.6,432.7 192.4,427.6 194.3,422.4
196.2,417.2 198.0,412.0 199.9,406.8 201.8,401.7 203.7,396.5 205.5,391.4 207.4,386.2 209.3,381.1 211.1,376.0 213.0,371.0 214.9,365.9 216.7,360.9 218.6,355.9 220.5,350.8 222.4,345.7 224.2,340.5
226.1,335.2 228.0,329.8 229.8,324.2 231.7,318.5 233.6,312.5 235.5,306.3 237.3,299.7 239.2,292.9 241.1,285.7 242.9,278.1 244.8,270.2 246.7,261.9 248.5,253.2 250.4,244.1 252.3,234.7 254.2,225.0
256.0,215.1 257.9,205.0 259.8,194.7 261.6,184.4 263.5,174.2 265.4,164.1 267.3,154.2 269.1,144.7 271.0,135.7 272.9,127.2 274.7,119.4 276.6,112.3 278.5,106.1 280.3,100.8 282.2,96.4 284.1,93.1
286.0,90.8 287.8,89.6 289.7,89.4 291.6,90.3 293.4,92.1 295.3,94.9 297.2,98.5 299.1,102.9 300.9,107.8 302.8,113.3 304.7,119.2 306.5,125.3 308.4,131.5 310.3,137.6 312.1,143.5 314.0,149.1
315.9,154.2 317.8,158.7 319.6,162.4 321.5,165.4 323.4,167.5 325.2,168.7 327.1,168.9 329.0,168.2 330.9,166.5 332.7,164.0 334.6,160.8 336.5,156.9 338.3,152.4 340.2,147.5 342.1,142.4 343.9,137.2
345.8,132.0 347.7,127.2 349.6,122.7 351.4,118.8 353.3,115.5 355.2,113.0 357.0,111.4 358.9,110.7 360.8,110.9 362.7,111.9 364.5,113.9 366.4,116.6 368.3,120.0 370.1,124.0 372.0,128.5 373.9,133.2
375.7,138.1 377.6,143.1 379.5,147.9 381.4,152.5 383.2,156.6 385.1,160.4 387.0,163.5 388.8,166.1 390.7,168.0 392.6,169.3 394.5,169.8 396.3,169.7 398.2,169.0 400.1,167.7 401.9,165.9 403.8,163.6
405.7,160.9 407.5,158.0 409.4,154.8 411.3,151.4 413.2,148.0 415.0,144.7 416.9,141.5 418.8,138.4 420.6,135.6 422.5,133.2 424.4,131.1 426.3,129.5 428.1,128.3 430.0,127.6 431.9,127.5 433.7,127.9
435.6,128.8 437.5,130.2 439.3,132.1 441.2,134.4 443.1,137.1 445.0,140.1 446.8,143.4 448.7,146.9 450.6,150.4 452.4,154.0 454.3,157.6 456.2,161.1 458.0,164.5 459.9,167.6 461.8,170.5 463.7,173.2
465.5,175.5 467.4,177.6 469.3,179.3 471.1,180.8 473.0,182.0 474.9,183.0 476.8,183.7 478.6,184.2 480.5,184.6 482.4,184.9 484.2,185.0 486.1,185.2 488.0,185.2 489.8,185.3 491.7,185.5 493.6,185.6
495.5,185.9 497.3,186.2 499.2,186.5 501.1,187.0 502.9,187.4 504.8,188.0 506.7,188.6 508.6,189.1 510.4,189.7 512.3,190.2 514.2,190.6 516.0,190.9 517.9,191.0 519.8,190.9 521.6,190.7 523.5,190.2
525.4,189.5 527.3,188.5 529.1,187.3 531.0,185.9 532.9,184.3 534.7,182.6 536.6,180.7 538.5,178.8 540.4,176.9 542.2,175.1 544.1,173.4 546.0,171.9 547.8,170.7 549.7,169.9 551.6,169.3 553.4,169.2
555.3,169.6 557.2,170.3 559.1,171.5 560.9,173.1 562.8,175.0 564.7,177.3 566.5,179.8 568.4,182.5 570.3,185.3 572.2,188.1 574.0,190.9 575.9,193.6 577.8,196.1 579.6,198.3 581.5,200.2 583.4,201.7
585.2,202.8 587.1,203.6 589.0,204.0 590.9,204.0 592.7,203.8 594.6,203.3 596.5,202.6 598.3,201.7 600.2,200.9 602.1,200.1 604.0,199.6 605.8,199.2 607.7,199.3 609.6,199.8 611.4,200.8 613.3,202.4
615.2,204.6 617.0,207.5 618.9,211.1 620.8,215.3 622.7,220.2 624.5,225.8 626.4,231.9 628.3,238.5 630.1,245.6 632.0,253.1 633.9,260.8 635.8,268.7 637.6,276.7 639.5,284.6 641.4,292.5 643.2,300.3
645.1,307.8 647.0,315.1 648.8,322.1 650.7,328.7 652.6,335.0 654.5,341.0 656.3,346.6 658.2,351.8 660.1,356.8 661.9,361.6 663.8,366.0 665.7,370.3 667.5,374.4 669.4,378.4 671.3,382.3 673.2,386.0
675.0,389.7 676.9,393.3 678.8,396.9 680.6,400.3 682.5,403.7 684.4,407.1 686.3,410.3 688.1,413.4 690.0,416.4 691.9,419.3 693.7,422.0 695.6,424.6 697.5,427.0 699.3,429.3 701.2,431.4 703.1,433.4
705.0,435.2 706.8,437.0 708.7,438.6 710.6,440.1 712.4,441.6 714.3,443.1 716.2,444.5 718.1,446.0 719.9,447.4 721.8,448.9 723.7,450.5 725.5,452.1 727.4,453.8 729.3,455.5 731.1,457.3 733.0,459.2
734.9,461.1 736.8,463.2 738.6,465.2 740.5,467.4 742.4,469.6 744.2,471.8 746.1,474.1 748.0,476.5 749.9,478.9 751.7,481.4 753.6,483.9 755.5,486.5 757.3,489.2 759.2,492.0 761.1,494.9 762.9,497.8
764.8,500.8 766.7,503.9 768.6,507.1 770.4,510.3 772.3,513.5 774.2,516.8 776.0,520.1 777.9,523.3 779.8,526.5 781.7,529.5 783.5,532.5 785.4,535.3 787.3,537.9 789.1,540.3 791.0,542.5 792.9,544.5
794.7,546.2 796.6,547.6 798.5,548.8 800.4,549.8 802.2,550.4 804.1,550.9 806.0,551.2 807.8,551.2 809.7,551.1 811.6,550.9 813.5,550.6 815.3,550.2 817.2,549.7 819.1,549.2 820.9,548.8 822.8,548.3
824.7,547.9 826.5,547.6 828.4,547.4 830.3,547.3 832.2,547.3 834.0,547.5 835.9,547.8 837.8,548.3 839.6,549.0 841.5,549.8 843.4,550.8 845.3,552.0 847.1,553.3 849.0,554.8 850.9,556.4 852.7,558.2
854.6,560.1 856.5,562.1 858.3,564.2 860.2,566.4 862.1,568.7 864.0,571.0 865.8,573.4 867.7,575.7 869.6,578.1 871.4,580.4 873.3,582.7 875.2,585.0 877.1,587.2 878.9,589.3 880.8,591.3 882.7,593.3
884.5,595.1 886.4,596.9 888.3,598.5 890.1,600.0 892.0,601.4 893.9,602.7 895.8,603.8 897.6,604.9 899.5,605.9 901.4,606.7 903.2,607.5 905.1,608.3 907.0,608.9 908.8,609.5 910.7,610.1 912.6,610.6
914.5,611.1 916.3,611.5 918.2,612.0 920.1,612.5 921.9,613.0 923.8,613.4 925.7,614.0 925.7,662.4 923.8,662.4 921.9,662.4 920.1,662.4 918.2,662.4 916.3,662.4 914.5,662.4 912.6,662.4 910.7,662.4
908.8,662.4 907.0,662.4 905.1,662.4 903.2,662.4 901.4,662.4 899.5,662.4 897.6,662.4 895.8,662.4 893.9,662.4 892.0,662.4 890.1,662.4 888.3,662.4 886.4,662.4 884.5,662.4 882.7,662.4 880.8,662.4
878.9,662.4 877.1,662.4 875.2,662.4 873.3,662.4 871.4,662.4 869.6,662.4 867.7,662.4 865.8,662.4 864.0,662.4 862.1,662.4 860.2,662.4 858.3,662.4 856.5,662.4 854.6,662.4 852.7,662.4 850.9,662.4
849.0,662.4 847.1,662.4 845.3,662.4 843.4,662.4 841.5,662.4 839.6,662.4 837.8,662.4 835.9,662.4 834.0,662.4 832.2,662.4 830.3,662.4 828.4,662.4 826.5,662.4 824.7,662.4 822.8,662.4 820.9,662.4
819.1,662.4 817.2,662.4 815.3,662.4 813.5,662.4 811.6,662.4 809.7,662.4 807.8,662.4 806.0,662.4 804.1,662.4 802.2,662.4 800.4,662.4 798.5,662.4 796.6,662.4 794.7,662.4 792.9,662.4 791.0,662.4
789.1,662.4 787.3,662.4 785.4,662.4 783.5,662.4 781.7,662.4 779.8,662.4 777.9,662.4 776.0,662.4 774.2,662.4 772.3,662.4 770.4,662.4 768.6,662.4 766.7,662.4 764.8,662.4 762.9,662.4 761.1,662.4
759.2,662.4 757.3,662.4 755.5,662.4 753.6,662.4 751.7,662.4 749.9,662.4 748.0,662.4 746.1,662.4 744.2,662.4 742.4,662.4 740.5,662.4 738.6,662.4 736.8,662.4 734.9,662.4 733.0,662.4 731.1,662.4
729.3,662.4 727.4,662.4 725.5,662.4 723.7,662.4 721.8,662.4 719.9,662.4 718.1,662.4 716.2,662.4 714.3,662.4 712.4,662.4 710.6,662.4 708.7,662.4 706.8,662.4 705.0,662.4 703.1,662.4 701.2,662.4
699.3,662.4 697.5,662.4 695.6,662.4 693.7,662.4 691.9,662.4 690.0,662.4 688.1,662.4 686.3,662.4 684.4,662.4 682.5,662.4 680.6,662.4 678.8,662.4 676.9,662.4 675.0,662.4 673.2,662.4 671.3,662.4
669.4,662.4 667.5,662.4 665.7,662.4 663.8,662.4 661.9,662.4 660.1,662.4 658.2,662.4 656.3,662.4 654.5,662.4 652.6,662.4 650.7,662.4 648.8,662.4 647.0,662.4 645.1,662.4 643.2,662.4 641.4,662.4
639.5,662.4 637.6,662.4 635.8,662.4 633.9,662.4 632.0,662.4 630.1,662.4 628.3,662.4 626.4,662.4 624.5,662.4 622.7,662.4 620.8,662.4 618.9,662.4 617.0,662.4 615.2,662.4 613.3,662.4 611.4,662.4
609.6,662.4 607.7,662.4 605.8,662.4 604.0,662.4 602.1,662.4 600.2,662.4 598.3,662.4 596.5,662.4 594.6,662.4 592.7,662.4 590.9,662.4 589.0,662.4 587.1,662.4 585.2,662.4 583.4,662.4 581.5,662.4
579.6,662.4 577.8,662.4 575.9,662.4 574.0,662.4 572.2,662.4 570.3,662.4 568.4,662.4 566.5,662.4 564.7,662.4 562.8,662.4 560.9,662.4 559.1,662.4 557.2,662.4 555.3,662.4 553.4,662.4 551.6,662.4
549.7,662.4 547.8,662.4 546.0,662.4 544.1,662.4 542.2,662.4 540.4,662.4 538.5,662.4 536.6,662.4 534.7,662.4 532.9,662.4 531.0,662.4 529.1,662.4 527.3,662.4 525.4,662.4 523.5,662.4 521.6,662.4
519.8,662.4 517.9,662.4 516.0,662.4 514.2,662.4 512.3,662.4 510.4,662.4 508.6,662.4 506.7,662.4 504.8,662.4 502.9,662.4 501.1,662.4 499.2,662.4 497.3,662.4 495.5,662.4 493.6,662.4 491.7,662.4
489.8,662.4 488.0,662.4 486.1,662.4 484.2,662.4 482.4,662.4 480.5,662.4 478.6,662.4 476.8,662.4 474.9,662.4 473.0,662.4 471.1,662.4 469.3,662.4 467.4,662.4 465.5,662.4 463.7,662.4 461.8,662.4
459.9,662.4 458.0,662.4 456.2,662.4 454.3,662.4 452.4,662.4 450.6,662.4 448.7,662.4 446.8,662.4 445.0,662.4 443.1,662.4 441.2,662.4 439.3,662.4 437.5,662.4 435.6,662.4 433.7,662.4 431.9,662.4
430.0,662.4 428.1,662.4 426.3,662.4 424.4,662.4 422.5,662.4 420.6,662.4 418.8,662.4 416.9,662.4 415.0,662.4 413.2,662.4 411.3,662.4 409.4,662.4 407.5,662.4 405.7,662.4 403.8,662.4 401.9,662.4
400.1,662.4 398.2,662.4 396.3,662.4 394.5,662.4 392.6,662.4 390.7,662.4 388.8,662.4 387.0,662.4 385.1,662.4 383.2,662.4 381.4,662.4 379.5,662.4 377.6,662.4 375.7,662.4 373.9,662.4 372.0,662.4
370.1,662.4 368.3,662.4 366.4,662.4 364.5,662.4 362.7,662.4 360.8,662.4 358.9,662.4 357.0,662.4 355.2,662.4 353.3,662.4 351.4,662.4 349.6,662.4 347.7,662.4 345.8,662.4 343.9,662.4 342.1,662.4
340.2,662.4 338.3,662.4 336.5,662.4 334.6,662.4 332.7,662.4 330.9,662.4 329.0,662.4 327.1,662.4 325.2,662.4 323.4,662.4 321.5,662.4 319.6,662.4 317.8,662.4 315.9,662.4 314.0,662.4 312.1,662.4
310.3,662.4 308.4,662.4 306.5,662.4 304.7,662.4 302.8,662.4 300.9,662.4 299.1,662.4 297.2,662.4 295.3,662.4 293.4,662.4 291.6,662.4 289.7,662.4 287.8,662.4 286.0,662.4 284.1,662.4 282.2,662.4
280.3,662.4 278.5,662.4 276.6,662.4 274.7,662.4 272.9,662.4 271.0,662.4 269.1,662.4 267.3,662.4 265.4,662.4 263.5,662.4 261.6,662.4 259.8,662.4 257.9,662.4 256.0,662.4 254.2,662.4 252.3,662.4
250.4,662.4 248.5,662.4 246.7,662.4 244.8,662.4 242.9,662.4 241.1,662.4 239.2,662.4 237.3,662.4 235.5,662.4 233.6,662.4 231.7,662.4 229.8,662.4 228.0,662.4 226.1,662.4 224.2,662.4 222.4,662.4
220.5,662.4 218.6,662.4 216.7,662.4 214.9,662.4 213.0,662.4 211.1,662.4 209.3,662.4 207.4,662.4 205.5,662.4 203.7,662.4 201.8,662.4 199.9,662.4 198.0,662.4 196.2,662.4 194.3,662.4 192.4,662.4
190.6,662.4 188.7,662.4 186.8,662.4 185.0,662.4 183.1,662.4 181.2,662.4 179.3,662.4 177.5,662.4 175.6,662.4 173.7,662.4 171.9,662.4 170.0,662.4 168.1,662.4 166.2,662.4 '/>
	</g>
</g>
	</g>
	<g id="gnuplot_plot_3" ><title>Point estimate</title>
<g fill="none" color="white" stroke="rgb( 31, 120, 180)" stroke-width="2.00" stroke-linecap="butt" stroke-linejoin="miter">
</g>
<g fill="none" color="black" stroke="currentColor" stroke-width="2.00" stroke-linecap="butt" stroke-linejoin="miter">
	<g transform="translate(1089.0,103.0)" stroke="none" fill="black" font-family="Helvetica" font-size="12.00"  text-anchor="start">
		<text><tspan font-family="Helvetica" >Point estimate</tspan></text>
	</g>
</g>
<g fill="none" color="black" stroke="currentColor" stroke-width="2.00" stroke-linecap="butt" stroke-linejoin="miter">
	<path stroke='rgb( 31, 120, 180)'  d='M1038.5,99.1 L1080.7,99.1 M397.0,662.4 L397.0,169.5  '/></g>
	</g>
<g fill="none" color="black" stroke="currentColor" stroke-width="2.00" stroke-linecap="butt" stroke-linejoin="miter">
</g>
<g fill="none" color="black" stroke="black" stroke-width="1.00" stroke-linecap="butt" stroke-linejoin="miter">
</g>
<g fill="none" color="black" stroke="currentColor" stroke-width="1.00" stroke-linecap="butt" stroke-linejoin="miter">
	<path stroke='black'  d='M80.2,54.1 L80.2,662.4 L1013.6,662.4 L1013.6,54.1 L80.2,54.1 Z  '/></g>
<g fill="none" color="black" stroke="currentColor" stroke-width="1.00" stroke-linecap="butt" stroke-linejoin="miter">
</g>
</g>
</svg>

