<?xml version="1.0" encoding="utf-8"  standalone="no"?>
<svg 
 viewBox="0 0 1280 720"
 xmlns="http://www.w3.org/2000/svg"
 xmlns:xlink="http://www.w3.org/1999/xlink"
>

<title>Gnuplot</title>
<desc>Produced by GNUPLOT 5.2 patchlevel 6 </desc>

<g id="gnuplot_canvas">

<rect x="0" y="0" width="1280" height="720" fill="none"/>
<defs>

	<circle id='gpDot' r='0.5' stroke-width='0.5' stroke='currentColor'/>
	<path id='gpPt0' stroke-width='0.222' stroke='currentColor' d='M-1,0 h2 M0,-1 v2'/>
	<path id='gpPt1' stroke-width='0.222' stroke='currentColor' d='M-1,-1 L1,1 M1,-1 L-1,1'/>
	<path id='gpPt2' stroke-width='0.222' stroke='currentColor' d='M-1,0 L1,0 M0,-1 L0,1 M-1,-1 L1,1 M-1,1 L1,-1'/>
	<rect id='gpPt3' stroke-width='0.222' stroke='currentColor' x='-1' y='-1' width='2' height='2'/>
	<rect id='gpPt4' stroke-width='0.222' stroke='currentColor' fill='currentColor' x='-1' y='-1' width='2' height='2'/>
	<circle id='gpPt5' stroke-width='0.222' stroke='currentColor' cx='0' cy='0' r='1'/>
	<use xlink:href='#gpPt5' id='gpPt6' fill='currentColor' stroke='none'/>
	<path id='gpPt7' stroke-width='0.222' stroke='currentColor' d='M0,-1.33 L-1.33,0.67 L1.33,0.67 z'/>
	<use xlink:href='#gpPt7' id='gpPt8' fill='currentColor' stroke='none'/>
	<use xlink:href='#gpPt7' id='gpPt9' stroke='currentColor' transform='rotate(180)'/>
	<use xlink:href='#gpPt9' id='gpPt10' fill='currentColor' stroke='none'/>
	<use xlink:href='#gpPt3' id='gpPt11' stroke='currentColor' transform='rotate(45)'/>
	<use xlink:href='#gpPt11' id='gpPt12' fill='currentColor' stroke='none'/>
	<path id='gpPt13' stroke-width='0.222' stroke='currentColor' d='M0,1.330 L1.265,0.411 L0.782,-1.067 L-0.782,-1.076 L-1.265,0.411 z'/>
	<use xlink:href='#gpPt13' id='gpPt14' fill='currentColor' stroke='none'/>
	<filter id='textbox' filterUnits='objectBoundingBox' x='0' y='0' height='1' width='1'>
	  <feFlood flood-color='white' flood-opacity='1' result='bgnd'/>
	  <feComposite in='SourceGraphic' in2='bgnd' operator='atop'/>
	</filter>
	<filter id='greybox' filterUnits='objectBoundingBox' x='0' y='0' height='1' width='1'>
	  <feFlood flood-color='lightgrey' flood-opacity='1' result='grey'/>
	  <feComposite in='SourceGraphic' in2='grey' operator='atop'/>
	</filter>
</defs>
<g fill="none" color="white" stroke="currentColor" stroke-width="1.00" stroke-linecap="butt" stroke-linejoin="miter">
</g>
<g fill="none" color="black" stroke="currentColor" stroke-width="1.00" stroke-linecap="butt" stroke-linejoin="miter">
	<path stroke='black'  d='M63.6,662.4 L72.6,662.4  '/>	<g transform="translate(55.3,666.3)" stroke="none" fill="black" font-family="Helvetica" font-size="12.00"  text-anchor="end">
		<text><tspan font-family="Helvetica" > 0</tspan></text>
	</g>
</g>
<g fill="none" color="black" stroke="currentColor" stroke-width="1.00" stroke-linecap="butt" stroke-linejoin="miter">
	<path stroke='black'  d='M63.6,581.8 L72.6,581.8  '/>	<g transform="translate(55.3,585.7)" stroke="none" fill="black" font-family="Helvetica" font-size="12.00"  text-anchor="end">
		<text><tspan font-family="Helvetica" > 2</tspan></text>
	</g>
</g>
<g fill="none" color="black" stroke="currentColor" stroke-width="1.00" stroke-linecap="butt" stroke-linejoin="miter">
	<path stroke='black'  d='M63.6,501.3 L72.6,501.3  '/>	<g transform="translate(55.3,505.2)" stroke="none" fill="black" font-family="Helvetica" font-size="12.00"  text-anchor="end">
		<text><tspan font-family="Helvetica" > 4</tspan></text>
	</g>
</g>
<g fill="none" color="black" stroke="currentColor" stroke-width="1.00" stroke-linecap="butt" stroke-linejoin="miter">
	<path stroke='black'  d='M63.6,420.7 L72.6,420.7  '/>	<g transform="translate(55.3,424.6)" stroke="none" fill="black" font-family="Helvetica" font-size="12.00"  text-anchor="end">
		<text><tspan font-family="Helvetica" > 6</tspan></text>
	</g>
</g>
<g fill="none" color="black" stroke="currentColor" stroke-width="1.00" stroke-linecap="butt" stroke-linejoin="miter">
	<path stroke='black'  d='M63.6,340.1 L72.6,340.1  '/>	<g transform="translate(55.3,344.0)" stroke="none" fill="black" font-family="Helvetica" font-size="12.00"  text-anchor="end">
		<text><tspan font-family="Helvetica" > 8</tspan></text>
	</g>
</g>
<g fill="none" color="black" stroke="currentColor" stroke-width="1.00" stroke-linecap="butt" stroke-linejoin="miter">
	<path stroke='black'  d='M63.6,259.6 L72.6,259.6  '/>	<g transform="translate(55.3,263.5)" stroke="none" fill="black" font-family="Helvetica" font-size="12.00"  text-anchor="end">
		<text><tspan font-family="Helvetica" > 10</tspan></text>
	</g>
</g>
<g fill="none" color="black" stroke="currentColor" stroke-width="1.00" stroke-linecap="butt" stroke-linejoin="miter">
	<path stroke='black'  d='M63.6,179.0 L72.6,179.0  '/>	<g transform="translate(55.3,182.9)" stroke="none" fill="black" font-family="Helvetica" font-size="12.00"  text-anchor="end">
		<text><tspan font-family="Helvetica" > 12</tspan></text>
	</g>
</g>
<g fill="none" color="black" stroke="currentColor" stroke-width="1.00" stroke-linecap="butt" stroke-linejoin="miter">
	<path stroke='black'  d='M63.6,98.4 L72.6,98.4  '/>	<g transform="translate(55.3,102.3)" stroke="none" fill="black" font-family="Helvetica" font-size="12.00"  text-anchor="end">
		<text><tspan font-family="Helvetica" > 14</tspan></text>
	</g>
</g>
<g fill="none" color="black" stroke="currentColor" stroke-width="1.00" stroke-linecap="butt" stroke-linejoin="miter">
	<path stroke='black'  d='M158.2,662.4 L158.2,653.4  '/>	<g transform="translate(158.2,684.3)" stroke="none" fill="black" font-family="Helvetica" font-size="12.00"  text-anchor="middle">
		<text><tspan font-family="Helvetica" > 6.5</tspan></text>
	</g>
</g>
<g fill="none" color="black" stroke="currentColor" stroke-width="1.00" stroke-linecap="butt" stroke-linejoin="miter">
	<path stroke='black'  d='M277.1,662.4 L277.1,653.4  '/>	<g transform="translate(277.1,684.3)" stroke="none" fill="black" font-family="Helvetica" font-size="12.00"  text-anchor="middle">
		<text><tspan font-family="Helvetica" > 7</tspan></text>
	</g>
</g>
<g fill="none" color="black" stroke="currentColor" stroke-width="1.00" stroke-linecap="butt" stroke-linejoin="miter">
	<path stroke='black'  d='M396.1,662.4 L396.1,653.4  '/>	<g transform="translate(396.1,684.3)" stroke="none" fill="black" font-family="Helvetica" font-size="12.00"  text-anchor="middle">
		<text><tspan font-family="Helvetica" > 7.5</tspan></text>
	</g>
</g>
<g fill="none" color="black" stroke="currentColor" stroke-width="1.00" stroke-linecap="butt" stroke-linejoin="miter">
	<path stroke='black'  d='M515.0,662.4 L515.0,653.4  '/>	<g transform="translate(515.0,684.3)" stroke="none" fill="black" font-family="Helvetica" font-size="12.00"  text-anchor="middle">
		<text><tspan font-family="Helvetica" > 8</tspan></text>
	</g>
</g>
<g fill="none" color="black" stroke="currentColor" stroke-width="1.00" stroke-linecap="butt" stroke-linejoin="miter">
	<path stroke='black'  d='M633.9,662.4 L633.9,653.4  '/>	<g transform="translate(633.9,684.3)" stroke="none" fill="black" font-family="Helvetica" font-size="12.00"  text-anchor="middle">
		<text><tspan font-family="Helvetica" > 8.5</tspan></text>
	</g>
</g>
<g fill="none" color="black" stroke="currentColor" stroke-width="1.00" stroke-linecap="butt" stroke-linejoin="miter">
	<path stroke='black'  d='M752.9,662.4 L752.9,653.4  '/>	<g transform="translate(752.9,684.3)" stroke="none" fill="black" font-family="Helvetica" font-size="12.00"  text-anchor="middle">
		<text><tspan font-family="Helvetica" > 9</tspan></text>
	</g>
</g>
<g fill="none" color="black" stroke="currentColor" stroke-width="1.00" stroke-linecap="butt" stroke-linejoin="miter">
	<path stroke='black'  d='M871.8,662.4 L871.8,653.4  '/>	<g transform="translate(871.8,684.3)" stroke="none" fill="black" font-family="Helvetica" font-size="12.00"  text-anchor="middle">
		<text><tspan font-family="Helvetica" > 9.5</tspan></text>
	</g>
</g>
<g fill="none" color="black" stroke="currentColor" stroke-width="1.00" stroke-linecap="butt" stroke-linejoin="miter">
	<path stroke='black'  d='M990.7,662.4 L990.7,653.4  '/>	<g transform="translate(990.7,684.3)" stroke="none" fill="black" font-family="Helvetica" font-size="12.00"  text-anchor="middle">
		<text><tspan font-family="Helvetica" > 10</tspan></text>
	</g>
</g>
<g fill="none" color="black" stroke="currentColor" stroke-width="1.00" stroke-linecap="butt" stroke-linejoin="miter">
	<path stroke='black'  d='M1003.9,662.4 L994.9,662.4  '/>	<g transform="translate(1012.2,666.3)" stroke="none" fill="black" font-family="Helvetica" font-size="12.00"  text-anchor="start">
		<text><tspan font-family="Helvetica" > 0</tspan></text>
	</g>
</g>
<g fill="none" color="black" stroke="currentColor" stroke-width="1.00" stroke-linecap="butt" stroke-linejoin="miter">
	<path stroke='black'  d='M1003.9,561.0 L994.9,561.0  '/>	<g transform="translate(1012.2,564.9)" stroke="none" fill="black" font-family="Helvetica" font-size="12.00"  text-anchor="start">
		<text><tspan font-family="Helvetica" > 0.5</tspan></text>
	</g>
</g>
<g fill="none" color="black" stroke="currentColor" stroke-width="1.00" stroke-linecap="butt" stroke-linejoin="miter">
	<path stroke='black'  d='M1003.9,459.6 L994.9,459.6  '/>	<g transform="translate(1012.2,463.5)" stroke="none" fill="black" font-family="Helvetica" font-size="12.00"  text-anchor="start">
		<text><tspan font-family="Helvetica" > 1</tspan></text>
	</g>
</g>
<g fill="none" color="black" stroke="currentColor" stroke-width="1.00" stroke-linecap="butt" stroke-linejoin="miter">
	<path stroke='black'  d='M1003.9,358.2 L994.9,358.2  '/>	<g transform="translate(1012.2,362.1)" stroke="none" fill="black" font-family="Helvetica" font-size="12.00"  text-anchor="start">
		<text><tspan font-family="Helvetica" > 1.5</tspan></text>
	</g>
</g>
<g fill="none" color="black" stroke="currentColor" stroke-width="1.00" stroke-linecap="butt" stroke-linejoin="miter">
	<path stroke='black'  d='M1003.9,256.9 L994.9,256.9  '/>	<g transform="translate(1012.2,260.8)" stroke="none" fill="black" font-family="Helvetica" font-size="12.00"  text-anchor="start">
		<text><tspan font-family="Helvetica" > 2</tspan></text>
	</g>
</g>
<g fill="none" color="black" stroke="currentColor" stroke-width="1.00" stroke-linecap="butt" stroke-linejoin="miter">
	<path stroke='black'  d='M1003.9,155.5 L994.9,155.5  '/>	<g transform="translate(1012.2,159.4)" stroke="none" fill="black" font-family="Helvetica" font-size="12.00"  text-anchor="start">
		<text><tspan font-family="Helvetica" > 2.5</tspan></text>
	</g>
</g>
<g fill="none" color="black" stroke="currentColor" stroke-width="1.00" stroke-linecap="butt" stroke-linejoin="miter">
	<path stroke='black'  d='M1003.9,54.1 L994.9,54.1  '/>	<g transform="translate(1012.2,58.0)" stroke="none" fill="black" font-family="Helvetica" font-size="12.00"  text-anchor="start">
		<text><tspan font-family="Helvetica" > 3</tspan></text>
	</g>
</g>
<g fill="none" color="black" stroke="currentColor" stroke-width="1.00" stroke-linecap="butt" stroke-linejoin="miter">
</g>
<g fill="none" color="black" stroke="currentColor" stroke-width="1.00" stroke-linecap="butt" stroke-linejoin="miter">
	<path stroke='black'  d='M63.6,54.1 L63.6,662.4 L1003.9,662.4 L1003.9,54.1 L63.6,54.1 Z  '/></g>
<g fill="none" color="black" stroke="currentColor" stroke-width="1.00" stroke-linecap="butt" stroke-linejoin="miter">
	<g transform="translate(16.3,358.3) rotate(270)" stroke="none" fill="black" font-family="Helvetica" font-size="12.00"  text-anchor="middle">
		<text><tspan font-family="Helvetica" >Iterations (x 10</tspan><tspan font-family="Helvetica"  font-size="9.6" dy="-6.00px">3</tspan><tspan font-family="Helvetica"  font-size="12.0" dy="6.00px">)</tspan></text>
	</g>
</g>
<g fill="none" color="black" stroke="currentColor" stroke-width="1.00" stroke-linecap="butt" stroke-linejoin="miter">
	<g transform="translate(1074.2,358.3) rotate(270)" stroke="none" fill="black" font-family="Helvetica" font-size="12.00"  text-anchor="middle">
		<text><tspan font-family="Helvetica" >Density (a.u.)</tspan></text>
	</g>
</g>
<g fill="none" color="black" stroke="currentColor" stroke-width="1.00" stroke-linecap="butt" stroke-linejoin="miter">
	<g transform="translate(533.7,711.3)" stroke="none" fill="black" font-family="Helvetica" font-size="12.00"  text-anchor="middle">
		<text><tspan font-family="Helvetica" >Average time (us)</tspan></text>
	</g>
</g>
<g fill="none" color="black" stroke="currentColor" stroke-width="1.00" stroke-linecap="butt" stroke-linejoin="miter">
	<g transform="translate(533.7,31.0)" stroke="none" fill="black" font-family="Helvetica" font-size="12.00"  text-anchor="middle">
		<text><tspan font-family="Helvetica" >snapshot_restore_with_dense/Sparse: Dirty pages + /proc/pid/mem/1</tspan></text>
	</g>
</g>
	<g id="gnuplot_plot_1" ><title>PDF</title>
<g fill="none" color="black" stroke="currentColor" stroke-width="1.00" stroke-linecap="butt" stroke-linejoin="miter">
	<g transform="translate(1147.1,67.0)" stroke="none" fill="black" font-family="Helvetica" font-size="12.00"  text-anchor="start">
		<text><tspan font-family="Helvetica" >PDF</tspan></text>
	</g>
</g>
<g fill="none" color="black" stroke="currentColor" stroke-width="1.00" stroke-linecap="butt" stroke-linejoin="miter">
	<g stroke='none' shape-rendering='crispEdges'>
		<polygon fill = 'rgb( 31, 120, 180)' fill-opacity = '0.250000' points = '1096.6,67.6 1138.8,67.6 1138.8,58.6 1096.6,58.6 '/>
		<polygon fill = 'rgb( 31, 120, 180)' fill-opacity = '0.250000' points = '63.6,659.7 65.5,659.2 67.4,658.6 69.3,657.9 71.1,657.1 73.0,656.1 74.9,655.1 76.8,653.8 78.7,652.4 80.6,650.7 82.4,648.8 84.3,646.7 86.2,644.3 88.1,641.6 90.0,638.6 91.9,635.1
93.7,631.3 95.6,627.1 97.5,622.4 99.4,617.2 101.3,611.5 103.2,605.2 105.1,598.4 106.9,591.0 108.8,582.9 110.7,574.2 112.6,564.8 114.5,554.8 116.4,544.0 118.2,532.6 120.1,520.5 122.0,507.7
123.9,494.3 125.8,480.3 127.7,465.6 129.6,450.5 131.4,434.8 133.3,418.7 135.2,402.2 137.1,385.4 139.0,368.5 140.9,351.4 142.7,334.2 144.6,317.2 146.5,300.4 148.4,283.8 150.3,267.6 152.2,252.0
154.0,237.0 155.9,222.8 157.8,209.4 159.7,197.0 161.6,185.6 163.5,175.4 165.4,166.4 167.2,158.7 169.1,152.4 171.0,147.6 172.9,144.2 174.8,142.2 176.7,141.8 178.5,142.9 180.4,145.5 182.3,149.6
184.2,155.1 186.1,162.0 188.0,170.2 189.9,179.6 191.7,190.2 193.6,201.9 195.5,214.6 197.4,228.2 199.3,242.5 201.2,257.6 203.0,273.1 204.9,289.1 206.8,305.5 208.7,322.1 210.6,338.8 212.5,355.5
214.3,372.1 216.2,388.6 218.1,404.9 220.0,420.8 221.9,436.3 223.8,451.4 225.7,466.0 227.5,480.0 229.4,493.4 231.3,506.3 233.2,518.5 235.1,530.0 237.0,540.9 238.8,551.1 240.7,560.7 242.6,569.6
244.5,577.9 246.4,585.6 248.3,592.7 250.2,599.2 252.0,605.1 253.9,610.6 255.8,615.5 257.7,619.9 259.6,624.0 261.5,627.6 263.3,630.8 265.2,633.6 267.1,636.2 269.0,638.4 270.9,640.4 272.8,642.1
274.6,643.6 276.5,644.9 278.4,646.0 280.3,647.0 282.2,647.8 284.1,648.5 286.0,649.0 287.8,649.5 289.7,649.9 291.6,650.2 293.5,650.4 295.4,650.6 297.3,650.8 299.1,650.9 301.0,651.0 302.9,651.0
304.8,651.1 306.7,651.1 308.6,651.1 310.5,651.1 312.3,651.1 314.2,651.1 316.1,651.1 318.0,651.1 319.9,651.1 321.8,651.1 323.6,651.1 325.5,651.1 327.4,651.1 329.3,651.1 331.2,651.2 333.1,651.2
334.9,651.2 336.8,651.3 338.7,651.3 340.6,651.4 342.5,651.5 344.4,651.5 346.3,651.6 348.1,651.7 350.0,651.8 351.9,651.9 353.8,652.0 355.7,652.1 357.6,652.2 359.4,652.3 361.3,652.4 363.2,652.5
365.1,652.6 367.0,652.7 368.9,652.9 370.8,653.0 372.6,653.1 374.5,653.2 376.4,653.3 378.3,653.5 380.2,653.6 382.1,653.7 383.9,653.8 385.8,654.0 387.7,654.1 389.6,654.2 391.5,654.3 393.4,654.4
395.2,654.5 397.1,654.6 399.0,654.6 400.9,654.7 402.8,654.8 404.7,654.9 406.6,654.9 408.4,655.0 410.3,655.0 412.2,655.1 414.1,655.1 416.0,655.2 417.9,655.2 419.7,655.2 421.6,655.3 423.5,655.3
425.4,655.4 427.3,655.4 429.2,655.5 431.1,655.5 432.9,655.6 434.8,655.7 436.7,655.7 438.6,655.8 440.5,655.9 442.4,656.0 444.2,656.1 446.1,656.3 448.0,656.4 449.9,656.5 451.8,656.7 453.7,656.8
455.5,657.0 457.4,657.2 459.3,657.3 461.2,657.5 463.1,657.7 465.0,657.9 466.9,658.1 468.7,658.3 470.6,658.5 472.5,658.7 474.4,658.9 476.3,659.1 478.2,659.3 480.0,659.5 481.9,659.7 483.8,659.9
485.7,660.1 487.6,660.2 489.5,660.4 491.4,660.5 493.2,660.7 495.1,660.8 497.0,661.0 498.9,661.1 500.8,661.2 502.7,661.3 504.5,661.4 506.4,661.5 508.3,661.6 510.2,661.7 512.1,661.8 514.0,661.8
515.8,661.9 517.7,662.0 519.6,662.0 521.5,662.1 523.4,662.1 525.3,662.1 527.2,662.2 529.0,662.2 530.9,662.2 532.8,662.3 534.7,662.3 536.6,662.3 538.5,662.3 540.3,662.3 542.2,662.3 544.1,662.3
546.0,662.4 547.9,662.4 549.8,662.4 551.7,662.4 553.5,662.4 555.4,662.4 557.3,662.4 559.2,662.4 561.1,662.4 563.0,662.4 564.8,662.4 566.7,662.4 568.6,662.4 570.5,662.4 572.4,662.4 574.3,662.4
576.1,662.4 578.0,662.4 579.9,662.4 581.8,662.4 583.7,662.4 585.6,662.4 587.5,662.4 589.3,662.4 591.2,662.4 593.1,662.4 595.0,662.4 596.9,662.4 598.8,662.4 600.6,662.4 602.5,662.4 604.4,662.4
606.3,662.4 608.2,662.4 610.1,662.4 612.0,662.4 613.8,662.4 615.7,662.4 617.6,662.4 619.5,662.4 621.4,662.4 623.3,662.4 625.1,662.4 627.0,662.4 628.9,662.4 630.8,662.4 632.7,662.4 634.6,662.4
636.4,662.4 638.3,662.4 640.2,662.4 642.1,662.4 644.0,662.4 645.9,662.4 647.8,662.4 649.6,662.4 651.5,662.4 653.4,662.4 655.3,662.4 657.2,662.4 659.1,662.4 660.9,662.4 662.8,662.4 664.7,662.4
666.6,662.4 668.5,662.4 670.4,662.4 672.3,662.4 674.1,662.4 676.0,662.4 677.9,662.4 679.8,662.4 681.7,662.4 683.6,662.4 685.4,662.4 687.3,662.4 689.2,662.4 691.1,662.4 693.0,662.4 694.9,662.4
696.7,662.4 698.6,662.4 700.5,662.4 702.4,662.4 704.3,662.4 706.2,662.4 708.1,662.4 709.9,662.4 711.8,662.4 713.7,662.4 715.6,662.4 717.5,662.4 719.4,662.4 721.2,662.4 723.1,662.4 725.0,662.4
726.9,662.4 728.8,662.4 730.7,662.4 732.6,662.4 734.4,662.4 736.3,662.4 738.2,662.4 740.1,662.4 742.0,662.4 743.9,662.4 745.7,662.4 747.6,662.4 749.5,662.4 751.4,662.4 753.3,662.4 755.2,662.4
757.0,662.4 758.9,662.4 760.8,662.4 762.7,662.4 764.6,662.4 766.5,662.4 768.4,662.4 770.2,662.4 772.1,662.4 774.0,662.4 775.9,662.4 777.8,662.4 779.7,662.4 781.5,662.4 783.4,662.4 785.3,662.4
787.2,662.4 789.1,662.4 791.0,662.4 792.9,662.4 794.7,662.4 796.6,662.3 798.5,662.3 800.4,662.3 802.3,662.3 804.2,662.3 806.0,662.3 807.9,662.3 809.8,662.2 811.7,662.2 813.6,662.2 815.5,662.2
817.3,662.1 819.2,662.1 821.1,662.0 823.0,662.0 824.9,661.9 826.8,661.9 828.7,661.8 830.5,661.7 832.4,661.6 834.3,661.6 836.2,661.5 838.1,661.4 840.0,661.3 841.8,661.1 843.7,661.0 845.6,660.9
847.5,660.7 849.4,660.6 851.3,660.4 853.2,660.3 855.0,660.1 856.9,659.9 858.8,659.8 860.7,659.6 862.6,659.4 864.5,659.2 866.3,659.0 868.2,658.9 870.1,658.7 872.0,658.5 873.9,658.3 875.8,658.1
877.6,658.0 879.5,657.8 881.4,657.6 883.3,657.5 885.2,657.4 887.1,657.2 889.0,657.1 890.8,657.0 892.7,657.0 894.6,656.9 896.5,656.8 898.4,656.8 900.3,656.8 902.1,656.8 904.0,656.8 905.9,656.8
907.8,656.9 909.7,657.0 911.6,657.0 913.5,657.1 915.3,657.3 917.2,657.4 919.1,657.5 921.0,657.7 922.9,657.8 924.8,658.0 926.6,658.2 928.5,658.3 930.4,658.5 932.3,658.7 934.2,658.9 936.1,659.1
937.9,659.3 939.8,659.4 941.7,659.6 943.6,659.8 945.5,660.0 947.4,660.1 949.3,660.3 951.1,660.5 953.0,660.6 954.9,660.8 956.8,660.9 958.7,661.0 960.6,661.2 962.4,661.3 964.3,661.4 966.2,661.5
968.1,661.6 970.0,661.7 971.9,661.7 973.8,661.8 975.6,661.9 977.5,661.9 979.4,662.0 981.3,662.0 983.2,662.1 985.1,662.1 986.9,662.2 988.8,662.2 990.7,662.2 992.6,662.2 994.5,662.3 996.4,662.3
998.2,662.3 1000.1,662.3 1002.0,662.3 1003.9,662.3 1003.9,662.4 1002.0,662.4 1000.1,662.4 998.2,662.4 996.4,662.4 994.5,662.4 992.6,662.4 990.7,662.4 988.8,662.4 986.9,662.4 985.1,662.4 983.2,662.4
981.3,662.4 979.4,662.4 977.5,662.4 975.6,662.4 973.8,662.4 971.9,662.4 970.0,662.4 968.1,662.4 966.2,662.4 964.3,662.4 962.4,662.4 960.6,662.4 958.7,662.4 956.8,662.4 954.9,662.4 953.0,662.4
951.1,662.4 949.3,662.4 947.4,662.4 945.5,662.4 943.6,662.4 941.7,662.4 939.8,662.4 937.9,662.4 936.1,662.4 934.2,662.4 932.3,662.4 930.4,662.4 928.5,662.4 926.6,662.4 924.8,662.4 922.9,662.4
921.0,662.4 919.1,662.4 917.2,662.4 915.3,662.4 913.5,662.4 911.6,662.4 909.7,662.4 907.8,662.4 905.9,662.4 904.0,662.4 902.1,662.4 900.3,662.4 898.4,662.4 896.5,662.4 894.6,662.4 892.7,662.4
890.8,662.4 889.0,662.4 887.1,662.4 885.2,662.4 883.3,662.4 881.4,662.4 879.5,662.4 877.6,662.4 875.8,662.4 873.9,662.4 872.0,662.4 870.1,662.4 868.2,662.4 866.3,662.4 864.5,662.4 862.6,662.4
860.7,662.4 858.8,662.4 856.9,662.4 855.0,662.4 853.2,662.4 851.3,662.4 849.4,662.4 847.5,662.4 845.6,662.4 843.7,662.4 841.8,662.4 840.0,662.4 838.1,662.4 836.2,662.4 834.3,662.4 832.4,662.4
830.5,662.4 828.7,662.4 826.8,662.4 824.9,662.4 823.0,662.4 821.1,662.4 819.2,662.4 817.3,662.4 815.5,662.4 813.6,662.4 811.7,662.4 809.8,662.4 807.9,662.4 806.0,662.4 804.2,662.4 802.3,662.4
800.4,662.4 798.5,662.4 796.6,662.4 794.7,662.4 792.9,662.4 791.0,662.4 789.1,662.4 787.2,662.4 785.3,662.4 783.4,662.4 781.5,662.4 779.7,662.4 777.8,662.4 775.9,662.4 774.0,662.4 772.1,662.4
770.2,662.4 768.4,662.4 766.5,662.4 764.6,662.4 762.7,662.4 760.8,662.4 758.9,662.4 757.0,662.4 755.2,662.4 753.3,662.4 751.4,662.4 749.5,662.4 747.6,662.4 745.7,662.4 743.9,662.4 742.0,662.4
740.1,662.4 738.2,662.4 736.3,662.4 734.4,662.4 732.6,662.4 730.7,662.4 728.8,662.4 726.9,662.4 725.0,662.4 723.1,662.4 721.2,662.4 719.4,662.4 717.5,662.4 715.6,662.4 713.7,662.4 711.8,662.4
709.9,662.4 708.1,662.4 706.2,662.4 704.3,662.4 702.4,662.4 700.5,662.4 698.6,662.4 696.7,662.4 694.9,662.4 693.0,662.4 691.1,662.4 689.2,662.4 687.3,662.4 685.4,662.4 683.6,662.4 681.7,662.4
679.8,662.4 677.9,662.4 676.0,662.4 674.1,662.4 672.3,662.4 670.4,662.4 668.5,662.4 666.6,662.4 664.7,662.4 662.8,662.4 660.9,662.4 659.1,662.4 657.2,662.4 655.3,662.4 653.4,662.4 651.5,662.4
649.6,662.4 647.8,662.4 645.9,662.4 644.0,662.4 642.1,662.4 640.2,662.4 638.3,662.4 636.4,662.4 634.6,662.4 632.7,662.4 630.8,662.4 628.9,662.4 627.0,662.4 625.1,662.4 623.3,662.4 621.4,662.4
619.5,662.4 617.6,662.4 615.7,662.4 613.8,662.4 612.0,662.4 610.1,662.4 608.2,662.4 606.3,662.4 604.4,662.4 602.5,662.4 600.6,662.4 598.8,662.4 596.9,662.4 595.0,662.4 593.1,662.4 591.2,662.4
589.3,662.4 587.5,662.4 585.6,662.4 583.7,662.4 581.8,662.4 579.9,662.4 578.0,662.4 576.1,662.4 574.3,662.4 572.4,662.4 570.5,662.4 568.6,662.4 566.7,662.4 564.8,662.4 563.0,662.4 561.1,662.4
559.2,662.4 557.3,662.4 555.4,662.4 553.5,662.4 551.7,662.4 549.8,662.4 547.9,662.4 546.0,662.4 544.1,662.4 542.2,662.4 540.3,662.4 538.5,662.4 536.6,662.4 534.7,662.4 532.8,662.4 530.9,662.4
529.0,662.4 527.2,662.4 525.3,662.4 523.4,662.4 521.5,662.4 519.6,662.4 517.7,662.4 515.8,662.4 514.0,662.4 512.1,662.4 510.2,662.4 508.3,662.4 506.4,662.4 504.5,662.4 502.7,662.4 500.8,662.4
498.9,662.4 497.0,662.4 495.1,662.4 493.2,662.4 491.4,662.4 489.5,662.4 487.6,662.4 485.7,662.4 483.8,662.4 481.9,662.4 480.0,662.4 478.2,662.4 476.3,662.4 474.4,662.4 472.5,662.4 470.6,662.4
468.7,662.4 466.9,662.4 465.0,662.4 463.1,662.4 461.2,662.4 459.3,662.4 457.4,662.4 455.5,662.4 453.7,662.4 451.8,662.4 449.9,662.4 448.0,662.4 446.1,662.4 444.2,662.4 442.4,662.4 440.5,662.4
438.6,662.4 436.7,662.4 434.8,662.4 432.9,662.4 431.1,662.4 429.2,662.4 427.3,662.4 425.4,662.4 423.5,662.4 421.6,662.4 419.7,662.4 417.9,662.4 416.0,662.4 414.1,662.4 412.2,662.4 410.3,662.4
408.4,662.4 406.6,662.4 404.7,662.4 402.8,662.4 400.9,662.4 399.0,662.4 397.1,662.4 395.2,662.4 393.4,662.4 391.5,662.4 389.6,662.4 387.7,662.4 385.8,662.4 383.9,662.4 382.1,662.4 380.2,662.4
378.3,662.4 376.4,662.4 374.5,662.4 372.6,662.4 370.8,662.4 368.9,662.4 367.0,662.4 365.1,662.4 363.2,662.4 361.3,662.4 359.4,662.4 357.6,662.4 355.7,662.4 353.8,662.4 351.9,662.4 350.0,662.4
348.1,662.4 346.3,662.4 344.4,662.4 342.5,662.4 340.6,662.4 338.7,662.4 336.8,662.4 334.9,662.4 333.1,662.4 331.2,662.4 329.3,662.4 327.4,662.4 325.5,662.4 323.6,662.4 321.8,662.4 319.9,662.4
318.0,662.4 316.1,662.4 314.2,662.4 312.3,662.4 310.5,662.4 308.6,662.4 306.7,662.4 304.8,662.4 302.9,662.4 301.0,662.4 299.1,662.4 297.3,662.4 295.4,662.4 293.5,662.4 291.6,662.4 289.7,662.4
287.8,662.4 286.0,662.4 284.1,662.4 282.2,662.4 280.3,662.4 278.4,662.4 276.5,662.4 274.6,662.4 272.8,662.4 270.9,662.4 269.0,662.4 267.1,662.4 265.2,662.4 263.3,662.4 261.5,662.4 259.6,662.4
257.7,662.4 255.8,662.4 253.9,662.4 252.0,662.4 250.2,662.4 248.3,662.4 246.4,662.4 244.5,662.4 242.6,662.4 240.7,662.4 238.8,662.4 237.0,662.4 235.1,662.4 233.2,662.4 231.3,662.4 229.4,662.4
227.5,662.4 225.7,662.4 223.8,662.4 221.9,662.4 220.0,662.4 218.1,662.4 216.2,662.4 214.3,662.4 212.5,662.4 210.6,662.4 208.7,662.4 206.8,662.4 204.9,662.4 203.0,662.4 201.2,662.4 199.3,662.4
197.4,662.4 195.5,662.4 193.6,662.4 191.7,662.4 189.9,662.4 188.0,662.4 186.1,662.4 184.2,662.4 182.3,662.4 180.4,662.4 178.5,662.4 176.7,662.4 174.8,662.4 172.9,662.4 171.0,662.4 169.1,662.4
167.2,662.4 165.4,662.4 163.5,662.4 161.6,662.4 159.7,662.4 157.8,662.4 155.9,662.4 154.0,662.4 152.2,662.4 150.3,662.4 148.4,662.4 146.5,662.4 144.6,662.4 142.7,662.4 140.9,662.4 139.0,662.4
137.1,662.4 135.2,662.4 133.3,662.4 131.4,662.4 129.6,662.4 127.7,662.4 125.8,662.4 123.9,662.4 122.0,662.4 120.1,662.4 118.2,662.4 116.4,662.4 114.5,662.4 112.6,662.4 110.7,662.4 108.8,662.4
106.9,662.4 105.1,662.4 103.2,662.4 101.3,662.4 99.4,662.4 97.5,662.4 95.6,662.4 93.7,662.4 91.9,662.4 90.0,662.4 88.1,662.4 86.2,662.4 84.3,662.4 82.4,662.4 80.6,662.4 78.7,662.4
76.8,662.4 74.9,662.4 73.0,662.4 71.1,662.4 69.3,662.4 67.4,662.4 65.5,662.4 63.6,662.4 '/>
	</g>
</g>
	</g>
	<g id="gnuplot_plot_2" ><title>Mean</title>
<g fill="none" color="white" stroke="rgb( 31, 120, 180)" stroke-width="2.00" stroke-linecap="butt" stroke-linejoin="miter">
</g>
<g fill="none" color="black" stroke="currentColor" stroke-width="2.00" stroke-linecap="butt" stroke-linejoin="miter">
	<g transform="translate(1147.1,85.0)" stroke="none" fill="black" font-family="Helvetica" font-size="12.00"  text-anchor="start">
		<text><tspan font-family="Helvetica" >Mean</tspan></text>
	</g>
</g>
<g fill="none" color="black" stroke="currentColor" stroke-width="2.00" stroke-linecap="butt" stroke-linejoin="miter">
	<path stroke='rgb( 31, 120, 180)'  d='M1096.6,81.1 L1138.8,81.1 M191.4,662.4 L191.4,54.1  '/></g>
	</g>
	<g id="gnuplot_plot_3" ><title>"Clean" sample</title>
<g fill="none" color="white" stroke="rgb( 31, 120, 180)" stroke-width="1.00" stroke-linecap="butt" stroke-linejoin="miter">
</g>
<g fill="none" color="black" stroke="currentColor" stroke-width="1.00" stroke-linecap="butt" stroke-linejoin="miter">
	<g transform="translate(1147.1,103.0)" stroke="none" fill="black" font-family="Helvetica" font-size="12.00"  text-anchor="start">
		<text><tspan font-family="Helvetica" >"Clean" sample</tspan></text>
	</g>
</g>
<g fill="none" color="black" stroke="currentColor" stroke-width="1.00" stroke-linecap="butt" stroke-linejoin="miter">
	<use xlink:href='#gpPt6' transform='translate(180.7,638.1) scale(3.38)' color='rgb( 31, 120, 180)'/>
	<use xlink:href='#gpPt6' transform='translate(180.6,625.9) scale(3.38)' color='rgb( 31, 120, 180)'/>
	<use xlink:href='#gpPt6' transform='translate(174.6,589.4) scale(3.38)' color='rgb( 31, 120, 180)'/>
	<use xlink:href='#gpPt6' transform='translate(175.7,583.3) scale(3.38)' color='rgb( 31, 120, 180)'/>
	<use xlink:href='#gpPt6' transform='translate(175.9,577.2) scale(3.38)' color='rgb( 31, 120, 180)'/>
	<use xlink:href='#gpPt6' transform='translate(174.6,565.1) scale(3.38)' color='rgb( 31, 120, 180)'/>
	<use xlink:href='#gpPt6' transform='translate(178.1,559.0) scale(3.38)' color='rgb( 31, 120, 180)'/>
	<use xlink:href='#gpPt6' transform='translate(170.9,552.9) scale(3.38)' color='rgb( 31, 120, 180)'/>
	<use xlink:href='#gpPt6' transform='translate(166.5,546.8) scale(3.38)' color='rgb( 31, 120, 180)'/>
	<use xlink:href='#gpPt6' transform='translate(181.1,540.7) scale(3.38)' color='rgb( 31, 120, 180)'/>
	<use xlink:href='#gpPt6' transform='translate(178.0,534.7) scale(3.38)' color='rgb( 31, 120, 180)'/>
	<use xlink:href='#gpPt6' transform='translate(177.5,528.6) scale(3.38)' color='rgb( 31, 120, 180)'/>
	<use xlink:href='#gpPt6' transform='translate(170.3,522.5) scale(3.38)' color='rgb( 31, 120, 180)'/>
	<use xlink:href='#gpPt6' transform='translate(179.6,516.4) scale(3.38)' color='rgb( 31, 120, 180)'/>
	<use xlink:href='#gpPt6' transform='translate(174.4,510.3) scale(3.38)' color='rgb( 31, 120, 180)'/>
	<use xlink:href='#gpPt6' transform='translate(175.5,498.2) scale(3.38)' color='rgb( 31, 120, 180)'/>
	<use xlink:href='#gpPt6' transform='translate(173.9,492.1) scale(3.38)' color='rgb( 31, 120, 180)'/>
	<use xlink:href='#gpPt6' transform='translate(175.1,486.0) scale(3.38)' color='rgb( 31, 120, 180)'/>
	<use xlink:href='#gpPt6' transform='translate(173.7,479.9) scale(3.38)' color='rgb( 31, 120, 180)'/>
	<use xlink:href='#gpPt6' transform='translate(173.4,473.8) scale(3.38)' color='rgb( 31, 120, 180)'/>
	<use xlink:href='#gpPt6' transform='translate(173.2,467.7) scale(3.38)' color='rgb( 31, 120, 180)'/>
	<use xlink:href='#gpPt6' transform='translate(174.3,461.7) scale(3.38)' color='rgb( 31, 120, 180)'/>
	<use xlink:href='#gpPt6' transform='translate(182.1,455.6) scale(3.38)' color='rgb( 31, 120, 180)'/>
	<use xlink:href='#gpPt6' transform='translate(174.1,449.5) scale(3.38)' color='rgb( 31, 120, 180)'/>
	<use xlink:href='#gpPt6' transform='translate(181.2,443.4) scale(3.38)' color='rgb( 31, 120, 180)'/>
	<use xlink:href='#gpPt6' transform='translate(177.5,437.3) scale(3.38)' color='rgb( 31, 120, 180)'/>
	<use xlink:href='#gpPt6' transform='translate(173.7,431.2) scale(3.38)' color='rgb( 31, 120, 180)'/>
	<use xlink:href='#gpPt6' transform='translate(175.8,425.2) scale(3.38)' color='rgb( 31, 120, 180)'/>
	<use xlink:href='#gpPt6' transform='translate(181.1,419.1) scale(3.38)' color='rgb( 31, 120, 180)'/>
	<use xlink:href='#gpPt6' transform='translate(178.5,413.0) scale(3.38)' color='rgb( 31, 120, 180)'/>
	<use xlink:href='#gpPt6' transform='translate(173.3,406.9) scale(3.38)' color='rgb( 31, 120, 180)'/>
	<use xlink:href='#gpPt6' transform='translate(175.5,400.8) scale(3.38)' color='rgb( 31, 120, 180)'/>
	<use xlink:href='#gpPt6' transform='translate(173.8,394.7) scale(3.38)' color='rgb( 31, 120, 180)'/>
	<use xlink:href='#gpPt6' transform='translate(169.2,388.7) scale(3.38)' color='rgb( 31, 120, 180)'/>
	<use xlink:href='#gpPt6' transform='translate(174.0,382.6) scale(3.38)' color='rgb( 31, 120, 180)'/>
	<use xlink:href='#gpPt6' transform='translate(174.5,376.5) scale(3.38)' color='rgb( 31, 120, 180)'/>
	<use xlink:href='#gpPt6' transform='translate(172.6,370.4) scale(3.38)' color='rgb( 31, 120, 180)'/>
	<use xlink:href='#gpPt6' transform='translate(175.6,364.3) scale(3.38)' color='rgb( 31, 120, 180)'/>
	<use xlink:href='#gpPt6' transform='translate(176.2,358.2) scale(3.38)' color='rgb( 31, 120, 180)'/>
	<use xlink:href='#gpPt6' transform='translate(172.9,352.2) scale(3.38)' color='rgb( 31, 120, 180)'/>
	<use xlink:href='#gpPt6' transform='translate(183.5,346.1) scale(3.38)' color='rgb( 31, 120, 180)'/>
	<use xlink:href='#gpPt6' transform='translate(176.1,340.0) scale(3.38)' color='rgb( 31, 120, 180)'/>
	<use xlink:href='#gpPt6' transform='translate(176.3,333.9) scale(3.38)' color='rgb( 31, 120, 180)'/>
	<use xlink:href='#gpPt6' transform='translate(179.1,327.8) scale(3.38)' color='rgb( 31, 120, 180)'/>
	<use xlink:href='#gpPt6' transform='translate(179.4,321.8) scale(3.38)' color='rgb( 31, 120, 180)'/>
	<use xlink:href='#gpPt6' transform='translate(174.3,315.7) scale(3.38)' color='rgb( 31, 120, 180)'/>
	<use xlink:href='#gpPt6' transform='translate(180.9,309.6) scale(3.38)' color='rgb( 31, 120, 180)'/>
	<use xlink:href='#gpPt6' transform='translate(176.3,303.5) scale(3.38)' color='rgb( 31, 120, 180)'/>
	<use xlink:href='#gpPt6' transform='translate(176.0,297.4) scale(3.38)' color='rgb( 31, 120, 180)'/>
	<use xlink:href='#gpPt6' transform='translate(173.5,291.3) scale(3.38)' color='rgb( 31, 120, 180)'/>
	<use xlink:href='#gpPt6' transform='translate(171.9,285.3) scale(3.38)' color='rgb( 31, 120, 180)'/>
	<use xlink:href='#gpPt6' transform='translate(176.7,279.2) scale(3.38)' color='rgb( 31, 120, 180)'/>
	<use xlink:href='#gpPt6' transform='translate(174.3,273.1) scale(3.38)' color='rgb( 31, 120, 180)'/>
	<use xlink:href='#gpPt6' transform='translate(176.9,267.0) scale(3.38)' color='rgb( 31, 120, 180)'/>
	<use xlink:href='#gpPt6' transform='translate(175.8,260.9) scale(3.38)' color='rgb( 31, 120, 180)'/>
	<use xlink:href='#gpPt6' transform='translate(170.4,254.8) scale(3.38)' color='rgb( 31, 120, 180)'/>
	<use xlink:href='#gpPt6' transform='translate(171.6,248.8) scale(3.38)' color='rgb( 31, 120, 180)'/>
	<use xlink:href='#gpPt6' transform='translate(171.7,236.6) scale(3.38)' color='rgb( 31, 120, 180)'/>
	<use xlink:href='#gpPt6' transform='translate(173.0,230.5) scale(3.38)' color='rgb( 31, 120, 180)'/>
	<use xlink:href='#gpPt6' transform='translate(171.2,224.4) scale(3.38)' color='rgb( 31, 120, 180)'/>
	<use xlink:href='#gpPt6' transform='translate(172.5,218.3) scale(3.38)' color='rgb( 31, 120, 180)'/>
	<use xlink:href='#gpPt6' transform='translate(176.8,212.3) scale(3.38)' color='rgb( 31, 120, 180)'/>
	<use xlink:href='#gpPt6' transform='translate(174.3,206.2) scale(3.38)' color='rgb( 31, 120, 180)'/>
	<use xlink:href='#gpPt6' transform='translate(174.9,200.1) scale(3.38)' color='rgb( 31, 120, 180)'/>
	<use xlink:href='#gpPt6' transform='translate(173.1,194.0) scale(3.38)' color='rgb( 31, 120, 180)'/>
	<use xlink:href='#gpPt6' transform='translate(174.0,187.9) scale(3.38)' color='rgb( 31, 120, 180)'/>
	<use xlink:href='#gpPt6' transform='translate(174.5,181.8) scale(3.38)' color='rgb( 31, 120, 180)'/>
	<use xlink:href='#gpPt6' transform='translate(175.6,175.8) scale(3.38)' color='rgb( 31, 120, 180)'/>
	<use xlink:href='#gpPt6' transform='translate(171.1,169.7) scale(3.38)' color='rgb( 31, 120, 180)'/>
	<use xlink:href='#gpPt6' transform='translate(181.6,163.6) scale(3.38)' color='rgb( 31, 120, 180)'/>
	<use xlink:href='#gpPt6' transform='translate(171.4,157.5) scale(3.38)' color='rgb( 31, 120, 180)'/>
	<use xlink:href='#gpPt6' transform='translate(172.0,151.4) scale(3.38)' color='rgb( 31, 120, 180)'/>
	<use xlink:href='#gpPt6' transform='translate(174.0,145.3) scale(3.38)' color='rgb( 31, 120, 180)'/>
	<use xlink:href='#gpPt6' transform='translate(168.6,139.3) scale(3.38)' color='rgb( 31, 120, 180)'/>
	<use xlink:href='#gpPt6' transform='translate(173.7,133.2) scale(3.38)' color='rgb( 31, 120, 180)'/>
	<use xlink:href='#gpPt6' transform='translate(172.9,127.1) scale(3.38)' color='rgb( 31, 120, 180)'/>
	<use xlink:href='#gpPt6' transform='translate(175.6,121.0) scale(3.38)' color='rgb( 31, 120, 180)'/>
	<use xlink:href='#gpPt6' transform='translate(175.0,114.9) scale(3.38)' color='rgb( 31, 120, 180)'/>
	<use xlink:href='#gpPt6' transform='translate(174.5,108.8) scale(3.38)' color='rgb( 31, 120, 180)'/>
	<use xlink:href='#gpPt6' transform='translate(173.2,102.8) scale(3.38)' color='rgb( 31, 120, 180)'/>
	<use xlink:href='#gpPt6' transform='translate(174.7,96.7) scale(3.38)' color='rgb( 31, 120, 180)'/>
	<use xlink:href='#gpPt6' transform='translate(176.0,90.6) scale(3.38)' color='rgb( 31, 120, 180)'/>
	<use xlink:href='#gpPt6' transform='translate(176.4,84.5) scale(3.38)' color='rgb( 31, 120, 180)'/>
	<use xlink:href='#gpPt6' transform='translate(169.5,78.4) scale(3.38)' color='rgb( 31, 120, 180)'/>
	<use xlink:href='#gpPt6' transform='translate(168.2,72.3) scale(3.38)' color='rgb( 31, 120, 180)'/>
	<use xlink:href='#gpPt6' transform='translate(172.1,66.3) scale(3.38)' color='rgb( 31, 120, 180)'/>
	<use xlink:href='#gpPt6' transform='translate(173.9,60.2) scale(3.38)' color='rgb( 31, 120, 180)'/>
	<use xlink:href='#gpPt6' transform='translate(172.2,54.1) scale(3.38)' color='rgb( 31, 120, 180)'/>
	<use xlink:href='#gpPt6' transform='translate(1117.7,99.1) scale(3.38)' color='rgb( 31, 120, 180)'/>
</g>
	</g>
	<g id="gnuplot_plot_4" ><title>Mild outliers</title>
<g fill="none" color="black" stroke="currentColor" stroke-width="1.00" stroke-linecap="butt" stroke-linejoin="miter">
	<g transform="translate(1147.1,121.0)" stroke="none" fill="black" font-family="Helvetica" font-size="12.00"  text-anchor="start">
		<text><tspan font-family="Helvetica" >Mild outliers</tspan></text>
	</g>
</g>
<g fill="none" color="black" stroke="currentColor" stroke-width="1.00" stroke-linecap="butt" stroke-linejoin="miter">
	<use xlink:href='#gpPt6' transform='translate(186.3,644.2) scale(3.38)' color='rgb(255, 127,   0)'/>
	<use xlink:href='#gpPt6' transform='translate(188.0,595.5) scale(3.38)' color='rgb(255, 127,   0)'/>
	<use xlink:href='#gpPt6' transform='translate(1117.7,117.1) scale(3.38)' color='rgb(255, 127,   0)'/>
</g>
	</g>
	<g id="gnuplot_plot_5" ><title>Severe outliers</title>
<g fill="none" color="black" stroke="currentColor" stroke-width="1.00" stroke-linecap="butt" stroke-linejoin="miter">
	<g transform="translate(1147.1,139.0)" stroke="none" fill="black" font-family="Helvetica" font-size="12.00"  text-anchor="start">
		<text><tspan font-family="Helvetica" >Severe outliers</tspan></text>
	</g>
</g>
<g fill="none" color="black" stroke="currentColor" stroke-width="1.00" stroke-linecap="butt" stroke-linejoin="miter">
	<use xlink:href='#gpPt6' transform='translate(373.7,656.3) scale(3.38)' color='rgb(227,  26,  28)'/>
	<use xlink:href='#gpPt6' transform='translate(199.1,650.2) scale(3.38)' color='rgb(227,  26,  28)'/>
	<use xlink:href='#gpPt6' transform='translate(213.3,632.0) scale(3.38)' color='rgb(227,  26,  28)'/>
	<use xlink:href='#gpPt6' transform='translate(440.2,619.8) scale(3.38)' color='rgb(227,  26,  28)'/>
	<use xlink:href='#gpPt6' transform='translate(901.0,613.7) scale(3.38)' color='rgb(227,  26,  28)'/>
	<use xlink:href='#gpPt6' transform='translate(329.4,607.7) scale(3.38)' color='rgb(227,  26,  28)'/>
	<use xlink:href='#gpPt6' transform='translate(211.8,601.6) scale(3.38)' color='rgb(227,  26,  28)'/>
	<use xlink:href='#gpPt6' transform='translate(216.1,571.2) scale(3.38)' color='rgb(227,  26,  28)'/>
	<use xlink:href='#gpPt6' transform='translate(194.0,504.2) scale(3.38)' color='rgb(227,  26,  28)'/>
	<use xlink:href='#gpPt6' transform='translate(291.9,242.7) scale(3.38)' color='rgb(227,  26,  28)'/>
	<use xlink:href='#gpPt6' transform='translate(1117.7,135.1) scale(3.38)' color='rgb(227,  26,  28)'/>
</g>
	</g>
	<g id="gnuplot_plot_6" ><title>gnuplot_plot_6</title>
<g fill="none" color="white" stroke="rgb(227,  26,  28)" stroke-width="2.00" stroke-linecap="butt" stroke-linejoin="miter">
</g>
<g fill="none" color="black" stroke="currentColor" stroke-width="2.00" stroke-linecap="butt" stroke-linejoin="miter">
	<path stroke='rgb(255, 127,   0)'  d='M166.0,662.4 L166.0,54.1  '/></g>
	</g>
	<g id="gnuplot_plot_7" ><title>gnuplot_plot_7</title>
<g fill="none" color="black" stroke="currentColor" stroke-width="2.00" stroke-linecap="butt" stroke-linejoin="miter">
	<path stroke='rgb(255, 127,   0)'  d='M185.5,662.4 L185.5,54.1  '/></g>
	</g>
	<g id="gnuplot_plot_8" ><title>gnuplot_plot_8</title>
<g fill="none" color="black" stroke="currentColor" stroke-width="2.00" stroke-linecap="butt" stroke-linejoin="miter">
	<path stroke='rgb(227,  26,  28)'  d='M158.7,662.4 L158.7,54.1  '/></g>
	</g>
	<g id="gnuplot_plot_9" ><title>gnuplot_plot_9</title>
<g fill="none" color="black" stroke="currentColor" stroke-width="2.00" stroke-linecap="butt" stroke-linejoin="miter">
	<path stroke='rgb(227,  26,  28)'  d='M192.8,662.4 L192.8,54.1  '/></g>
	</g>
<g fill="none" color="black" stroke="currentColor" stroke-width="2.00" stroke-linecap="butt" stroke-linejoin="miter">
</g>
<g fill="none" color="black" stroke="black" stroke-width="1.00" stroke-linecap="butt" stroke-linejoin="miter">
</g>
<g fill="none" color="black" stroke="currentColor" stroke-width="1.00" stroke-linecap="butt" stroke-linejoin="miter">
	<path stroke='black'  d='M63.6,54.1 L63.6,662.4 L1003.9,662.4 L1003.9,54.1 L63.6,54.1 Z  '/></g>
<g fill="none" color="black" stroke="currentColor" stroke-width="1.00" stroke-linecap="butt" stroke-linejoin="miter">
</g>
</g>
</svg>

