<?xml version="1.0" encoding="utf-8"  standalone="no"?>
<svg 
 viewBox="0 0 1280 720"
 xmlns="http://www.w3.org/2000/svg"
 xmlns:xlink="http://www.w3.org/1999/xlink"
>

<title>Gnuplot</title>
<desc>Produced by GNUPLOT 5.2 patchlevel 6 </desc>

<g id="gnuplot_canvas">

<rect x="0" y="0" width="1280" height="720" fill="none"/>
<defs>

	<circle id='gpDot' r='0.5' stroke-width='0.5' stroke='currentColor'/>
	<path id='gpPt0' stroke-width='0.222' stroke='currentColor' d='M-1,0 h2 M0,-1 v2'/>
	<path id='gpPt1' stroke-width='0.222' stroke='currentColor' d='M-1,-1 L1,1 M1,-1 L-1,1'/>
	<path id='gpPt2' stroke-width='0.222' stroke='currentColor' d='M-1,0 L1,0 M0,-1 L0,1 M-1,-1 L1,1 M-1,1 L1,-1'/>
	<rect id='gpPt3' stroke-width='0.222' stroke='currentColor' x='-1' y='-1' width='2' height='2'/>
	<rect id='gpPt4' stroke-width='0.222' stroke='currentColor' fill='currentColor' x='-1' y='-1' width='2' height='2'/>
	<circle id='gpPt5' stroke-width='0.222' stroke='currentColor' cx='0' cy='0' r='1'/>
	<use xlink:href='#gpPt5' id='gpPt6' fill='currentColor' stroke='none'/>
	<path id='gpPt7' stroke-width='0.222' stroke='currentColor' d='M0,-1.33 L-1.33,0.67 L1.33,0.67 z'/>
	<use xlink:href='#gpPt7' id='gpPt8' fill='currentColor' stroke='none'/>
	<use xlink:href='#gpPt7' id='gpPt9' stroke='currentColor' transform='rotate(180)'/>
	<use xlink:href='#gpPt9' id='gpPt10' fill='currentColor' stroke='none'/>
	<use xlink:href='#gpPt3' id='gpPt11' stroke='currentColor' transform='rotate(45)'/>
	<use xlink:href='#gpPt11' id='gpPt12' fill='currentColor' stroke='none'/>
	<path id='gpPt13' stroke-width='0.222' stroke='currentColor' d='M0,1.330 L1.265,0.411 L0.782,-1.067 L-0.782,-1.076 L-1.265,0.411 z'/>
	<use xlink:href='#gpPt13' id='gpPt14' fill='currentColor' stroke='none'/>
	<filter id='textbox' filterUnits='objectBoundingBox' x='0' y='0' height='1' width='1'>
	  <feFlood flood-color='white' flood-opacity='1' result='bgnd'/>
	  <feComposite in='SourceGraphic' in2='bgnd' operator='atop'/>
	</filter>
	<filter id='greybox' filterUnits='objectBoundingBox' x='0' y='0' height='1' width='1'>
	  <feFlood flood-color='lightgrey' flood-opacity='1' result='grey'/>
	  <feComposite in='SourceGraphic' in2='grey' operator='atop'/>
	</filter>
</defs>
<g fill="none" color="white" stroke="currentColor" stroke-width="1.00" stroke-linecap="butt" stroke-linejoin="miter">
</g>
<g fill="none" color="black" stroke="currentColor" stroke-width="1.00" stroke-linecap="butt" stroke-linejoin="miter">
	<path stroke='black'  d='M63.6,662.4 L72.6,662.4  '/>	<g transform="translate(55.3,666.3)" stroke="none" fill="black" font-family="Helvetica" font-size="12.00"  text-anchor="end">
		<text><tspan font-family="Helvetica" > 0</tspan></text>
	</g>
</g>
<g fill="none" color="black" stroke="currentColor" stroke-width="1.00" stroke-linecap="butt" stroke-linejoin="miter">
	<path stroke='black'  d='M63.6,586.4 L72.6,586.4  '/>	<g transform="translate(55.3,590.3)" stroke="none" fill="black" font-family="Helvetica" font-size="12.00"  text-anchor="end">
		<text><tspan font-family="Helvetica" > 10</tspan></text>
	</g>
</g>
<g fill="none" color="black" stroke="currentColor" stroke-width="1.00" stroke-linecap="butt" stroke-linejoin="miter">
	<path stroke='black'  d='M63.6,510.3 L72.6,510.3  '/>	<g transform="translate(55.3,514.2)" stroke="none" fill="black" font-family="Helvetica" font-size="12.00"  text-anchor="end">
		<text><tspan font-family="Helvetica" > 20</tspan></text>
	</g>
</g>
<g fill="none" color="black" stroke="currentColor" stroke-width="1.00" stroke-linecap="butt" stroke-linejoin="miter">
	<path stroke='black'  d='M63.6,434.3 L72.6,434.3  '/>	<g transform="translate(55.3,438.2)" stroke="none" fill="black" font-family="Helvetica" font-size="12.00"  text-anchor="end">
		<text><tspan font-family="Helvetica" > 30</tspan></text>
	</g>
</g>
<g fill="none" color="black" stroke="currentColor" stroke-width="1.00" stroke-linecap="butt" stroke-linejoin="miter">
	<path stroke='black'  d='M63.6,358.2 L72.6,358.2  '/>	<g transform="translate(55.3,362.1)" stroke="none" fill="black" font-family="Helvetica" font-size="12.00"  text-anchor="end">
		<text><tspan font-family="Helvetica" > 40</tspan></text>
	</g>
</g>
<g fill="none" color="black" stroke="currentColor" stroke-width="1.00" stroke-linecap="butt" stroke-linejoin="miter">
	<path stroke='black'  d='M63.6,282.2 L72.6,282.2  '/>	<g transform="translate(55.3,286.1)" stroke="none" fill="black" font-family="Helvetica" font-size="12.00"  text-anchor="end">
		<text><tspan font-family="Helvetica" > 50</tspan></text>
	</g>
</g>
<g fill="none" color="black" stroke="currentColor" stroke-width="1.00" stroke-linecap="butt" stroke-linejoin="miter">
	<path stroke='black'  d='M63.6,206.2 L72.6,206.2  '/>	<g transform="translate(55.3,210.1)" stroke="none" fill="black" font-family="Helvetica" font-size="12.00"  text-anchor="end">
		<text><tspan font-family="Helvetica" > 60</tspan></text>
	</g>
</g>
<g fill="none" color="black" stroke="currentColor" stroke-width="1.00" stroke-linecap="butt" stroke-linejoin="miter">
	<path stroke='black'  d='M63.6,130.1 L72.6,130.1  '/>	<g transform="translate(55.3,134.0)" stroke="none" fill="black" font-family="Helvetica" font-size="12.00"  text-anchor="end">
		<text><tspan font-family="Helvetica" > 70</tspan></text>
	</g>
</g>
<g fill="none" color="black" stroke="currentColor" stroke-width="1.00" stroke-linecap="butt" stroke-linejoin="miter">
	<path stroke='black'  d='M63.6,54.1 L72.6,54.1  '/>	<g transform="translate(55.3,58.0)" stroke="none" fill="black" font-family="Helvetica" font-size="12.00"  text-anchor="end">
		<text><tspan font-family="Helvetica" > 80</tspan></text>
	</g>
</g>
<g fill="none" color="black" stroke="currentColor" stroke-width="1.00" stroke-linecap="butt" stroke-linejoin="miter">
	<path stroke='black'  d='M136.0,662.4 L136.0,653.4  '/>	<g transform="translate(136.0,684.3)" stroke="none" fill="black" font-family="Helvetica" font-size="12.00"  text-anchor="middle">
		<text><tspan font-family="Helvetica" > 6.565</tspan></text>
	</g>
</g>
<g fill="none" color="black" stroke="currentColor" stroke-width="1.00" stroke-linecap="butt" stroke-linejoin="miter">
	<path stroke='black'  d='M282.5,662.4 L282.5,653.4  '/>	<g transform="translate(282.5,684.3)" stroke="none" fill="black" font-family="Helvetica" font-size="12.00"  text-anchor="middle">
		<text><tspan font-family="Helvetica" > 6.57</tspan></text>
	</g>
</g>
<g fill="none" color="black" stroke="currentColor" stroke-width="1.00" stroke-linecap="butt" stroke-linejoin="miter">
	<path stroke='black'  d='M429.1,662.4 L429.1,653.4  '/>	<g transform="translate(429.1,684.3)" stroke="none" fill="black" font-family="Helvetica" font-size="12.00"  text-anchor="middle">
		<text><tspan font-family="Helvetica" > 6.575</tspan></text>
	</g>
</g>
<g fill="none" color="black" stroke="currentColor" stroke-width="1.00" stroke-linecap="butt" stroke-linejoin="miter">
	<path stroke='black'  d='M575.6,662.4 L575.6,653.4  '/>	<g transform="translate(575.6,684.3)" stroke="none" fill="black" font-family="Helvetica" font-size="12.00"  text-anchor="middle">
		<text><tspan font-family="Helvetica" > 6.58</tspan></text>
	</g>
</g>
<g fill="none" color="black" stroke="currentColor" stroke-width="1.00" stroke-linecap="butt" stroke-linejoin="miter">
	<path stroke='black'  d='M722.1,662.4 L722.1,653.4  '/>	<g transform="translate(722.1,684.3)" stroke="none" fill="black" font-family="Helvetica" font-size="12.00"  text-anchor="middle">
		<text><tspan font-family="Helvetica" > 6.585</tspan></text>
	</g>
</g>
<g fill="none" color="black" stroke="currentColor" stroke-width="1.00" stroke-linecap="butt" stroke-linejoin="miter">
	<path stroke='black'  d='M868.6,662.4 L868.6,653.4  '/>	<g transform="translate(868.6,684.3)" stroke="none" fill="black" font-family="Helvetica" font-size="12.00"  text-anchor="middle">
		<text><tspan font-family="Helvetica" > 6.59</tspan></text>
	</g>
</g>
<g fill="none" color="black" stroke="currentColor" stroke-width="1.00" stroke-linecap="butt" stroke-linejoin="miter">
</g>
<g fill="none" color="black" stroke="currentColor" stroke-width="1.00" stroke-linecap="butt" stroke-linejoin="miter">
	<path stroke='black'  d='M63.6,54.1 L63.6,662.4 L1013.6,662.4 L1013.6,54.1 L63.6,54.1 Z  '/></g>
<g fill="none" color="black" stroke="currentColor" stroke-width="1.00" stroke-linecap="butt" stroke-linejoin="miter">
	<g transform="translate(16.3,358.3) rotate(270)" stroke="none" fill="black" font-family="Helvetica" font-size="12.00"  text-anchor="middle">
		<text><tspan font-family="Helvetica" >Density (a.u.)</tspan></text>
	</g>
</g>
<g fill="none" color="black" stroke="currentColor" stroke-width="1.00" stroke-linecap="butt" stroke-linejoin="miter">
	<g transform="translate(538.6,711.3)" stroke="none" fill="black" font-family="Helvetica" font-size="12.00"  text-anchor="middle">
		<text><tspan font-family="Helvetica" >Average time (us)</tspan></text>
	</g>
</g>
<g fill="none" color="black" stroke="currentColor" stroke-width="1.00" stroke-linecap="butt" stroke-linejoin="miter">
	<g transform="translate(538.6,31.0)" stroke="none" fill="black" font-family="Helvetica" font-size="12.00"  text-anchor="middle">
		<text><tspan font-family="Helvetica" >snapshot_restore_with_dense/Sparse: Dirty pages + /proc/pid/mem/1: slope</tspan></text>
	</g>
</g>
	<g id="gnuplot_plot_1" ><title>Bootstrap distribution</title>
<g fill="none" color="white" stroke="black" stroke-width="2.00" stroke-linecap="butt" stroke-linejoin="miter">
</g>
<g fill="none" color="black" stroke="currentColor" stroke-width="2.00" stroke-linecap="butt" stroke-linejoin="miter">
	<g transform="translate(1089.0,67.0)" stroke="none" fill="black" font-family="Helvetica" font-size="12.00"  text-anchor="start">
		<text><tspan font-family="Helvetica" >Bootstrap distribution</tspan></text>
	</g>
</g>
<g fill="none" color="black" stroke="currentColor" stroke-width="2.00" stroke-linecap="butt" stroke-linejoin="miter">
	<path stroke='rgb( 31, 120, 180)'  d='M1038.5,63.1 L1080.7,63.1 M63.6,655.3 L65.5,654.5 L67.4,653.6 L69.3,652.6 L71.2,651.5 L73.1,650.3
		L75.0,649.0 L76.9,647.6 L78.8,646.0 L80.7,644.3 L82.6,642.5 L84.5,640.5 L86.4,638.4 L88.3,636.0
		L90.3,633.5 L92.2,630.9 L94.1,628.0 L96.0,624.9 L97.9,621.6 L99.8,618.1 L101.7,614.3 L103.6,610.3
		L105.5,606.1 L107.4,601.6 L109.3,596.8 L111.2,591.8 L113.1,586.4 L115.0,580.8 L116.9,574.9 L118.8,568.7
		L120.7,562.2 L122.6,555.4 L124.5,548.2 L126.4,540.8 L128.3,533.0 L130.2,524.9 L132.1,516.5 L134.0,507.7
		L135.9,498.7 L137.8,489.3 L139.8,479.6 L141.7,469.5 L143.6,459.2 L145.5,448.6 L147.4,437.7 L149.3,426.5
		L151.2,415.1 L153.1,403.4 L155.0,391.6 L156.9,379.5 L158.8,367.2 L160.7,354.8 L162.6,342.3 L164.5,329.7
		L166.4,317.0 L168.3,304.3 L170.2,291.6 L172.1,278.9 L174.0,266.4 L175.9,253.9 L177.8,241.6 L179.7,229.4
		L181.6,217.6 L183.5,205.9 L185.4,194.6 L187.3,183.6 L189.3,173.0 L191.2,162.8 L193.1,153.1 L195.0,143.8
		L196.9,135.1 L198.8,126.9 L200.7,119.2 L202.6,112.2 L204.5,105.7 L206.4,99.9 L208.3,94.7 L210.2,90.2
		L212.1,86.3 L214.0,83.2 L215.9,80.7 L217.8,78.8 L219.7,77.7 L221.6,77.2 L223.5,77.4 L225.4,78.2
		L227.3,79.7 L229.2,81.8 L231.1,84.5 L233.0,87.7 L234.9,91.6 L236.8,96.0 L238.8,100.9 L240.7,106.4
		L242.6,112.3 L244.5,118.6 L246.4,125.4 L248.3,132.7 L250.2,140.3 L252.1,148.2 L254.0,156.5 L255.9,165.1
		L257.8,173.9 L259.7,183.1 L261.6,192.4 L263.5,201.9 L265.4,211.5 L267.3,221.3 L269.2,231.2 L271.1,241.1
		L273.0,251.0 L274.9,260.9 L276.8,270.7 L278.7,280.4 L280.6,290.1 L282.5,299.5 L284.4,308.7 L286.3,317.7
		L288.2,326.4 L290.2,334.9 L292.1,342.9 L294.0,350.7 L295.9,358.0 L297.8,365.0 L299.7,371.5 L301.6,377.5
		L303.5,383.1 L305.4,388.2 L307.3,392.9 L309.2,397.0 L311.1,400.7 L313.0,403.8 L314.9,406.4 L316.8,408.5
		L318.7,410.1 L320.6,411.2 L322.5,411.8 L324.4,411.9 L326.3,411.5 L328.2,410.6 L330.1,409.2 L332.0,407.4
		L333.9,405.0 L335.8,402.3 L337.7,399.1 L339.7,395.4 L341.6,391.4 L343.5,386.9 L345.4,382.1 L347.3,376.9
		L349.2,371.3 L351.1,365.4 L353.0,359.2 L354.9,352.7 L356.8,346.0 L358.7,339.0 L360.6,331.8 L362.5,324.4
		L364.4,316.9 L366.3,309.2 L368.2,301.4 L370.1,293.5 L372.0,285.6 L373.9,277.7 L375.8,269.7 L377.7,261.8
		L379.6,254.0 L381.5,246.2 L383.4,238.5 L385.3,231.0 L387.2,223.6 L389.2,216.4 L391.1,209.5 L393.0,202.7
		L394.9,196.3 L396.8,190.1 L398.7,184.2 L400.6,178.6 L402.5,173.4 L404.4,168.5 L406.3,164.1 L408.2,160.0
		L410.1,156.3 L412.0,153.0 L413.9,150.2 L415.8,147.7 L417.7,145.8 L419.6,144.2 L421.5,143.1 L423.4,142.5
		L425.3,142.2 L427.2,142.5 L429.1,143.1 L431.0,144.2 L432.9,145.7 L434.8,147.6 L436.7,149.9 L438.7,152.6
		L440.6,155.6 L442.5,159.0 L444.4,162.8 L446.3,166.9 L448.2,171.3 L450.1,176.0 L452.0,180.9 L453.9,186.2
		L455.8,191.6 L457.7,197.3 L459.6,203.3 L461.5,209.4 L463.4,215.7 L465.3,222.1 L467.2,228.8 L469.1,235.5
		L471.0,242.4 L472.9,249.3 L474.8,256.4 L476.7,263.5 L478.6,270.7 L480.5,277.9 L482.4,285.1 L484.3,292.3
		L486.2,299.5 L488.1,306.6 L490.1,313.7 L492.0,320.7 L493.9,327.6 L495.8,334.4 L497.7,341.1 L499.6,347.6
		L501.5,354.0 L503.4,360.2 L505.3,366.2 L507.2,372.0 L509.1,377.6 L511.0,383.0 L512.9,388.2 L514.8,393.2
		L516.7,397.9 L518.6,402.5 L520.5,406.8 L522.4,410.8 L524.3,414.6 L526.2,418.3 L528.1,421.6 L530.0,424.8
		L531.9,427.8 L533.8,430.5 L535.7,433.0 L537.6,435.3 L539.6,437.5 L541.5,439.4 L543.4,441.1 L545.3,442.7
		L547.2,444.0 L549.1,445.2 L551.0,446.2 L552.9,447.0 L554.8,447.7 L556.7,448.2 L558.6,448.5 L560.5,448.8
		L562.4,448.8 L564.3,448.8 L566.2,448.6 L568.1,448.3 L570.0,447.9 L571.9,447.4 L573.8,446.8 L575.7,446.2
		L577.6,445.5 L579.5,444.7 L581.4,443.9 L583.3,443.1 L585.2,442.2 L587.1,441.3 L589.1,440.5 L591.0,439.6
		L592.9,438.7 L594.8,437.9 L596.7,437.1 L598.6,436.3 L600.5,435.6 L602.4,434.9 L604.3,434.3 L606.2,433.7
		L608.1,433.1 L610.0,432.7 L611.9,432.3 L613.8,431.9 L615.7,431.7 L617.6,431.5 L619.5,431.4 L621.4,431.3
		L623.3,431.4 L625.2,431.5 L627.1,431.7 L629.0,432.1 L630.9,432.5 L632.8,433.0 L634.7,433.7 L636.6,434.4
		L638.5,435.3 L640.5,436.2 L642.4,437.3 L644.3,438.5 L646.2,439.8 L648.1,441.2 L650.0,442.7 L651.9,444.3
		L653.8,446.0 L655.7,447.8 L657.6,449.7 L659.5,451.6 L661.4,453.7 L663.3,455.8 L665.2,458.0 L667.1,460.2
		L669.0,462.5 L670.9,464.9 L672.8,467.3 L674.7,469.7 L676.6,472.1 L678.5,474.6 L680.4,477.2 L682.3,479.7
		L684.2,482.3 L686.1,484.8 L688.0,487.4 L690.0,490.0 L691.9,492.6 L693.8,495.2 L695.7,497.7 L697.6,500.3
		L699.5,502.9 L701.4,505.4 L703.3,508.0 L705.2,510.5 L707.1,513.0 L709.0,515.5 L710.9,517.9 L712.8,520.3
		L714.7,522.7 L716.6,525.0 L718.5,527.3 L720.4,529.6 L722.3,531.8 L724.2,534.0 L726.1,536.1 L728.0,538.1
		L729.9,540.2 L731.8,542.1 L733.7,544.0 L735.6,545.8 L737.5,547.6 L739.5,549.3 L741.4,551.0 L743.3,552.5
		L745.2,554.1 L747.1,555.5 L749.0,556.9 L750.9,558.3 L752.8,559.5 L754.7,560.8 L756.6,561.9 L758.5,563.1
		L760.4,564.1 L762.3,565.1 L764.2,566.1 L766.1,567.1 L768.0,568.0 L769.9,568.8 L771.8,569.7 L773.7,570.5
		L775.6,571.2 L777.5,572.0 L779.4,572.7 L781.3,573.4 L783.2,574.1 L785.1,574.7 L787.0,575.4 L789.0,576.0
		L790.9,576.6 L792.8,577.2 L794.7,577.8 L796.6,578.4 L798.5,579.0 L800.4,579.6 L802.3,580.1 L804.2,580.7
		L806.1,581.3 L808.0,581.9 L809.9,582.4 L811.8,583.0 L813.7,583.6 L815.6,584.2 L817.5,584.8 L819.4,585.4
		L821.3,586.0 L823.2,586.6 L825.1,587.3 L827.0,587.9 L828.9,588.6 L830.8,589.3 L832.7,590.0 L834.6,590.6
		L836.5,591.3 L838.4,592.0 L840.4,592.7 L842.3,593.4 L844.2,594.1 L846.1,594.8 L848.0,595.5 L849.9,596.2
		L851.8,596.8 L853.7,597.5 L855.6,598.2 L857.5,598.8 L859.4,599.5 L861.3,600.1 L863.2,600.8 L865.1,601.4
		L867.0,602.0 L868.9,602.7 L870.8,603.3 L872.7,603.9 L874.6,604.5 L876.5,605.2 L878.4,605.8 L880.3,606.4
		L882.2,607.0 L884.1,607.7 L886.0,608.3 L887.9,609.0 L889.9,609.6 L891.8,610.2 L893.7,610.9 L895.6,611.5
		L897.5,612.2 L899.4,612.8 L901.3,613.5 L903.2,614.1 L905.1,614.7 L907.0,615.4 L908.9,616.0 L910.8,616.6
		L912.7,617.2 L914.6,617.8 L916.5,618.4 L918.4,619.0 L920.3,619.5 L922.2,620.1 L924.1,620.6 L926.0,621.1
		L927.9,621.6 L929.8,622.1 L931.7,622.6 L933.6,623.1 L935.5,623.5 L937.4,624.0 L939.4,624.5 L941.3,624.9
		L943.2,625.4 L945.1,625.9 L947.0,626.3 L948.9,626.8 L950.8,627.3 L952.7,627.8 L954.6,628.3 L956.5,628.8
		L958.4,629.3 L960.3,629.8 L962.2,630.3 L964.1,630.8 L966.0,631.3 L967.9,631.8 L969.8,632.3 L971.7,632.8
		L973.6,633.3 L975.5,633.8 L977.4,634.3 L979.3,634.7 L981.2,635.2 L983.1,635.6 L985.0,636.0 L986.9,636.4
		L988.9,636.8 L990.8,637.2 L992.7,637.5 L994.6,637.9 L996.5,638.2 L998.4,638.5 L1000.3,638.8 L1002.2,639.1
		L1004.1,639.4 L1006.0,639.7 L1007.9,640.0 L1009.8,640.3 L1011.7,640.5 L1013.6,640.8  '/></g>
	</g>
	<g id="gnuplot_plot_2" ><title>Confidence interval</title>
<g fill="none" color="white" stroke="rgb( 31, 120, 180)" stroke-width="1.00" stroke-linecap="butt" stroke-linejoin="miter">
</g>
<g fill="none" color="black" stroke="currentColor" stroke-width="1.00" stroke-linecap="butt" stroke-linejoin="miter">
	<g transform="translate(1089.0,85.0)" stroke="none" fill="black" font-family="Helvetica" font-size="12.00"  text-anchor="start">
		<text><tspan font-family="Helvetica" >Confidence interval</tspan></text>
	</g>
</g>
<g fill="none" color="black" stroke="currentColor" stroke-width="1.00" stroke-linecap="butt" stroke-linejoin="miter">
	<g stroke='none' shape-rendering='crispEdges'>
		<polygon fill = 'rgb( 31, 120, 180)' fill-opacity = '0.250000' points = '1038.5,85.6 1080.7,85.6 1080.7,76.6 1038.5,76.6 '/>
		<polygon fill = 'rgb( 31, 120, 180)' fill-opacity = '0.250000' points = '151.2,415.1 153.1,403.4 155.0,391.6 156.9,379.5 158.8,367.2 160.7,354.8 162.6,342.3 164.5,329.7 166.4,317.0 168.3,304.3 170.2,291.6 172.1,278.9 174.0,266.4 175.9,253.9 177.8,241.6 179.7,229.4
181.6,217.6 183.5,205.9 185.4,194.6 187.3,183.6 189.3,173.0 191.2,162.8 193.1,153.1 195.0,143.8 196.9,135.1 198.8,126.9 200.7,119.2 202.6,112.2 204.5,105.7 206.4,99.9 208.3,94.7 210.2,90.2
212.1,86.3 214.0,83.2 215.9,80.7 217.8,78.8 219.7,77.7 221.6,77.2 223.5,77.4 225.4,78.2 227.3,79.7 229.2,81.8 231.1,84.5 233.0,87.7 234.9,91.6 236.8,96.0 238.8,100.9 240.7,106.4
242.6,112.3 244.5,118.6 246.4,125.4 248.3,132.7 250.2,140.3 252.1,148.2 254.0,156.5 255.9,165.1 257.8,173.9 259.7,183.1 261.6,192.4 263.5,201.9 265.4,211.5 267.3,221.3 269.2,231.2 271.1,241.1
273.0,251.0 274.9,260.9 276.8,270.7 278.7,280.4 280.6,290.1 282.5,299.5 284.4,308.7 286.3,317.7 288.2,326.4 290.2,334.9 292.1,342.9 294.0,350.7 295.9,358.0 297.8,365.0 299.7,371.5 301.6,377.5
303.5,383.1 305.4,388.2 307.3,392.9 309.2,397.0 311.1,400.7 313.0,403.8 314.9,406.4 316.8,408.5 318.7,410.1 320.6,411.2 322.5,411.8 324.4,411.9 326.3,411.5 328.2,410.6 330.1,409.2 332.0,407.4
333.9,405.0 335.8,402.3 337.7,399.1 339.7,395.4 341.6,391.4 343.5,386.9 345.4,382.1 347.3,376.9 349.2,371.3 351.1,365.4 353.0,359.2 354.9,352.7 356.8,346.0 358.7,339.0 360.6,331.8 362.5,324.4
364.4,316.9 366.3,309.2 368.2,301.4 370.1,293.5 372.0,285.6 373.9,277.7 375.8,269.7 377.7,261.8 379.6,254.0 381.5,246.2 383.4,238.5 385.3,231.0 387.2,223.6 389.2,216.4 391.1,209.5 393.0,202.7
394.9,196.3 396.8,190.1 398.7,184.2 400.6,178.6 402.5,173.4 404.4,168.5 406.3,164.1 408.2,160.0 410.1,156.3 412.0,153.0 413.9,150.2 415.8,147.7 417.7,145.8 419.6,144.2 421.5,143.1 423.4,142.5
425.3,142.2 427.2,142.5 429.1,143.1 431.0,144.2 432.9,145.7 434.8,147.6 436.7,149.9 438.7,152.6 440.6,155.6 442.5,159.0 444.4,162.8 446.3,166.9 448.2,171.3 450.1,176.0 452.0,180.9 453.9,186.2
455.8,191.6 457.7,197.3 459.6,203.3 461.5,209.4 463.4,215.7 465.3,222.1 467.2,228.8 469.1,235.5 471.0,242.4 472.9,249.3 474.8,256.4 476.7,263.5 478.6,270.7 480.5,277.9 482.4,285.1 484.3,292.3
486.2,299.5 488.1,306.6 490.1,313.7 492.0,320.7 493.9,327.6 495.8,334.4 497.7,341.1 499.6,347.6 501.5,354.0 503.4,360.2 505.3,366.2 507.2,372.0 509.1,377.6 511.0,383.0 512.9,388.2 514.8,393.2
516.7,397.9 518.6,402.5 520.5,406.8 522.4,410.8 524.3,414.6 526.2,418.3 528.1,421.6 530.0,424.8 531.9,427.8 533.8,430.5 535.7,433.0 537.6,435.3 539.6,437.5 541.5,439.4 543.4,441.1 545.3,442.7
547.2,444.0 549.1,445.2 551.0,446.2 552.9,447.0 554.8,447.7 556.7,448.2 558.6,448.5 560.5,448.8 562.4,448.8 564.3,448.8 566.2,448.6 568.1,448.3 570.0,447.9 571.9,447.4 573.8,446.8 575.7,446.2
577.6,445.5 579.5,444.7 581.4,443.9 583.3,443.1 585.2,442.2 587.1,441.3 589.1,440.5 591.0,439.6 592.9,438.7 594.8,437.9 596.7,437.1 598.6,436.3 600.5,435.6 602.4,434.9 604.3,434.3 606.2,433.7
608.1,433.1 610.0,432.7 611.9,432.3 613.8,431.9 615.7,431.7 617.6,431.5 619.5,431.4 621.4,431.3 623.3,431.4 625.2,431.5 627.1,431.7 629.0,432.1 630.9,432.5 632.8,433.0 634.7,433.7 636.6,434.4
638.5,435.3 640.5,436.2 642.4,437.3 644.3,438.5 646.2,439.8 648.1,441.2 650.0,442.7 651.9,444.3 653.8,446.0 655.7,447.8 657.6,449.7 659.5,451.6 661.4,453.7 663.3,455.8 665.2,458.0 667.1,460.2
669.0,462.5 670.9,464.9 672.8,467.3 674.7,469.7 676.6,472.1 678.5,474.6 680.4,477.2 682.3,479.7 684.2,482.3 686.1,484.8 688.0,487.4 690.0,490.0 691.9,492.6 693.8,495.2 695.7,497.7 697.6,500.3
699.5,502.9 701.4,505.4 703.3,508.0 705.2,510.5 707.1,513.0 709.0,515.5 710.9,517.9 712.8,520.3 714.7,522.7 716.6,525.0 718.5,527.3 720.4,529.6 722.3,531.8 724.2,534.0 726.1,536.1 728.0,538.1
729.9,540.2 731.8,542.1 733.7,544.0 735.6,545.8 737.5,547.6 739.5,549.3 741.4,551.0 743.3,552.5 745.2,554.1 747.1,555.5 749.0,556.9 750.9,558.3 752.8,559.5 754.7,560.8 756.6,561.9 758.5,563.1
760.4,564.1 762.3,565.1 764.2,566.1 766.1,567.1 768.0,568.0 769.9,568.8 771.8,569.7 773.7,570.5 775.6,571.2 777.5,572.0 779.4,572.7 781.3,573.4 783.2,574.1 785.1,574.7 787.0,575.4 789.0,576.0
790.9,576.6 792.8,577.2 794.7,577.8 796.6,578.4 798.5,579.0 800.4,579.6 802.3,580.1 804.2,580.7 806.1,581.3 808.0,581.9 809.9,582.4 811.8,583.0 813.7,583.6 815.6,584.2 817.5,584.8 819.4,585.4
821.3,586.0 823.2,586.6 825.1,587.3 827.0,587.9 828.9,588.6 830.8,589.3 832.7,590.0 834.6,590.6 836.5,591.3 838.4,592.0 840.4,592.7 842.3,593.4 844.2,594.1 846.1,594.8 848.0,595.5 849.9,596.2
851.8,596.8 853.7,597.5 855.6,598.2 857.5,598.8 859.4,599.5 861.3,600.1 863.2,600.8 865.1,601.4 867.0,602.0 868.9,602.7 870.8,603.3 872.7,603.9 874.6,604.5 876.5,605.2 878.4,605.8 880.3,606.4
882.2,607.0 884.1,607.7 886.0,608.3 887.9,609.0 889.9,609.6 891.8,610.2 893.7,610.9 895.6,611.5 897.5,612.2 899.4,612.8 901.3,613.5 903.2,614.1 905.1,614.7 907.0,615.4 908.9,616.0 910.8,616.6
912.7,617.2 914.6,617.8 916.5,618.4 918.4,619.0 920.3,619.5 922.2,620.1 924.1,620.6 924.1,662.4 922.2,662.4 920.3,662.4 918.4,662.4 916.5,662.4 914.6,662.4 912.7,662.4 910.8,662.4 908.9,662.4
907.0,662.4 905.1,662.4 903.2,662.4 901.3,662.4 899.4,662.4 897.5,662.4 895.6,662.4 893.7,662.4 891.8,662.4 889.9,662.4 887.9,662.4 886.0,662.4 884.1,662.4 882.2,662.4 880.3,662.4 878.4,662.4
876.5,662.4 874.6,662.4 872.7,662.4 870.8,662.4 868.9,662.4 867.0,662.4 865.1,662.4 863.2,662.4 861.3,662.4 859.4,662.4 857.5,662.4 855.6,662.4 853.7,662.4 851.8,662.4 849.9,662.4 848.0,662.4
846.1,662.4 844.2,662.4 842.3,662.4 840.4,662.4 838.4,662.4 836.5,662.4 834.6,662.4 832.7,662.4 830.8,662.4 828.9,662.4 827.0,662.4 825.1,662.4 823.2,662.4 821.3,662.4 819.4,662.4 817.5,662.4
815.6,662.4 813.7,662.4 811.8,662.4 809.9,662.4 808.0,662.4 806.1,662.4 804.2,662.4 802.3,662.4 800.4,662.4 798.5,662.4 796.6,662.4 794.7,662.4 792.8,662.4 790.9,662.4 789.0,662.4 787.0,662.4
785.1,662.4 783.2,662.4 781.3,662.4 779.4,662.4 777.5,662.4 775.6,662.4 773.7,662.4 771.8,662.4 769.9,662.4 768.0,662.4 766.1,662.4 764.2,662.4 762.3,662.4 760.4,662.4 758.5,662.4 756.6,662.4
754.7,662.4 752.8,662.4 750.9,662.4 749.0,662.4 747.1,662.4 745.2,662.4 743.3,662.4 741.4,662.4 739.5,662.4 737.5,662.4 735.6,662.4 733.7,662.4 731.8,662.4 729.9,662.4 728.0,662.4 726.1,662.4
724.2,662.4 722.3,662.4 720.4,662.4 718.5,662.4 716.6,662.4 714.7,662.4 712.8,662.4 710.9,662.4 709.0,662.4 707.1,662.4 705.2,662.4 703.3,662.4 701.4,662.4 699.5,662.4 697.6,662.4 695.7,662.4
693.8,662.4 691.9,662.4 690.0,662.4 688.0,662.4 686.1,662.4 684.2,662.4 682.3,662.4 680.4,662.4 678.5,662.4 676.6,662.4 674.7,662.4 672.8,662.4 670.9,662.4 669.0,662.4 667.1,662.4 665.2,662.4
663.3,662.4 661.4,662.4 659.5,662.4 657.6,662.4 655.7,662.4 653.8,662.4 651.9,662.4 650.0,662.4 648.1,662.4 646.2,662.4 644.3,662.4 642.4,662.4 640.5,662.4 638.5,662.4 636.6,662.4 634.7,662.4
632.8,662.4 630.9,662.4 629.0,662.4 627.1,662.4 625.2,662.4 623.3,662.4 621.4,662.4 619.5,662.4 617.6,662.4 615.7,662.4 613.8,662.4 611.9,662.4 610.0,662.4 608.1,662.4 606.2,662.4 604.3,662.4
602.4,662.4 600.5,662.4 598.6,662.4 596.7,662.4 594.8,662.4 592.9,662.4 591.0,662.4 589.1,662.4 587.1,662.4 585.2,662.4 583.3,662.4 581.4,662.4 579.5,662.4 577.6,662.4 575.7,662.4 573.8,662.4
571.9,662.4 570.0,662.4 568.1,662.4 566.2,662.4 564.3,662.4 562.4,662.4 560.5,662.4 558.6,662.4 556.7,662.4 554.8,662.4 552.9,662.4 551.0,662.4 549.1,662.4 547.2,662.4 545.3,662.4 543.4,662.4
541.5,662.4 539.6,662.4 537.6,662.4 535.7,662.4 533.8,662.4 531.9,662.4 530.0,662.4 528.1,662.4 526.2,662.4 524.3,662.4 522.4,662.4 520.5,662.4 518.6,662.4 516.7,662.4 514.8,662.4 512.9,662.4
511.0,662.4 509.1,662.4 507.2,662.4 505.3,662.4 503.4,662.4 501.5,662.4 499.6,662.4 497.7,662.4 495.8,662.4 493.9,662.4 492.0,662.4 490.1,662.4 488.1,662.4 486.2,662.4 484.3,662.4 482.4,662.4
480.5,662.4 478.6,662.4 476.7,662.4 474.8,662.4 472.9,662.4 471.0,662.4 469.1,662.4 467.2,662.4 465.3,662.4 463.4,662.4 461.5,662.4 459.6,662.4 457.7,662.4 455.8,662.4 453.9,662.4 452.0,662.4
450.1,662.4 448.2,662.4 446.3,662.4 444.4,662.4 442.5,662.4 440.6,662.4 438.7,662.4 436.7,662.4 434.8,662.4 432.9,662.4 431.0,662.4 429.1,662.4 427.2,662.4 425.3,662.4 423.4,662.4 421.5,662.4
419.6,662.4 417.7,662.4 415.8,662.4 413.9,662.4 412.0,662.4 410.1,662.4 408.2,662.4 406.3,662.4 404.4,662.4 402.5,662.4 400.6,662.4 398.7,662.4 396.8,662.4 394.9,662.4 393.0,662.4 391.1,662.4
389.2,662.4 387.2,662.4 385.3,662.4 383.4,662.4 381.5,662.4 379.6,662.4 377.7,662.4 375.8,662.4 373.9,662.4 372.0,662.4 370.1,662.4 368.2,662.4 366.3,662.4 364.4,662.4 362.5,662.4 360.6,662.4
358.7,662.4 356.8,662.4 354.9,662.4 353.0,662.4 351.1,662.4 349.2,662.4 347.3,662.4 345.4,662.4 343.5,662.4 341.6,662.4 339.7,662.4 337.7,662.4 335.8,662.4 333.9,662.4 332.0,662.4 330.1,662.4
328.2,662.4 326.3,662.4 324.4,662.4 322.5,662.4 320.6,662.4 318.7,662.4 316.8,662.4 314.9,662.4 313.0,662.4 311.1,662.4 309.2,662.4 307.3,662.4 305.4,662.4 303.5,662.4 301.6,662.4 299.7,662.4
297.8,662.4 295.9,662.4 294.0,662.4 292.1,662.4 290.2,662.4 288.2,662.4 286.3,662.4 284.4,662.4 282.5,662.4 280.6,662.4 278.7,662.4 276.8,662.4 274.9,662.4 273.0,662.4 271.1,662.4 269.2,662.4
267.3,662.4 265.4,662.4 263.5,662.4 261.6,662.4 259.7,662.4 257.8,662.4 255.9,662.4 254.0,662.4 252.1,662.4 250.2,662.4 248.3,662.4 246.4,662.4 244.5,662.4 242.6,662.4 240.7,662.4 238.8,662.4
236.8,662.4 234.9,662.4 233.0,662.4 231.1,662.4 229.2,662.4 227.3,662.4 225.4,662.4 223.5,662.4 221.6,662.4 219.7,662.4 217.8,662.4 215.9,662.4 214.0,662.4 212.1,662.4 210.2,662.4 208.3,662.4
206.4,662.4 204.5,662.4 202.6,662.4 200.7,662.4 198.8,662.4 196.9,662.4 195.0,662.4 193.1,662.4 191.2,662.4 189.3,662.4 187.3,662.4 185.4,662.4 183.5,662.4 181.6,662.4 179.7,662.4 177.8,662.4
175.9,662.4 174.0,662.4 172.1,662.4 170.2,662.4 168.3,662.4 166.4,662.4 164.5,662.4 162.6,662.4 160.7,662.4 158.8,662.4 156.9,662.4 155.0,662.4 153.1,662.4 151.2,662.4 '/>
	</g>
</g>
	</g>
	<g id="gnuplot_plot_3" ><title>Point estimate</title>
<g fill="none" color="white" stroke="rgb( 31, 120, 180)" stroke-width="2.00" stroke-linecap="butt" stroke-linejoin="miter">
</g>
<g fill="none" color="black" stroke="currentColor" stroke-width="2.00" stroke-linecap="butt" stroke-linejoin="miter">
	<g transform="translate(1089.0,103.0)" stroke="none" fill="black" font-family="Helvetica" font-size="12.00"  text-anchor="start">
		<text><tspan font-family="Helvetica" >Point estimate</tspan></text>
	</g>
</g>
<g fill="none" color="black" stroke="currentColor" stroke-width="2.00" stroke-linecap="butt" stroke-linejoin="miter">
	<path stroke='rgb( 31, 120, 180)'  d='M1038.5,99.1 L1080.7,99.1 M427.1,662.4 L427.1,142.4  '/></g>
	</g>
<g fill="none" color="black" stroke="currentColor" stroke-width="2.00" stroke-linecap="butt" stroke-linejoin="miter">
</g>
<g fill="none" color="black" stroke="black" stroke-width="1.00" stroke-linecap="butt" stroke-linejoin="miter">
</g>
<g fill="none" color="black" stroke="currentColor" stroke-width="1.00" stroke-linecap="butt" stroke-linejoin="miter">
	<path stroke='black'  d='M63.6,54.1 L63.6,662.4 L1013.6,662.4 L1013.6,54.1 L63.6,54.1 Z  '/></g>
<g fill="none" color="black" stroke="currentColor" stroke-width="1.00" stroke-linecap="butt" stroke-linejoin="miter">
</g>
</g>
</svg>

