<?xml version="1.0" encoding="utf-8"  standalone="no"?>
<svg 
 viewBox="0 0 450 300"
 xmlns="http://www.w3.org/2000/svg"
 xmlns:xlink="http://www.w3.org/1999/xlink"
>

<title>Gnuplot</title>
<desc>Produced by GNUPLOT 5.2 patchlevel 6 </desc>

<g id="gnuplot_canvas">

<rect x="0" y="0" width="450" height="300" fill="none"/>
<defs>

	<circle id='gpDot' r='0.5' stroke-width='0.5' stroke='currentColor'/>
	<path id='gpPt0' stroke-width='0.222' stroke='currentColor' d='M-1,0 h2 M0,-1 v2'/>
	<path id='gpPt1' stroke-width='0.222' stroke='currentColor' d='M-1,-1 L1,1 M1,-1 L-1,1'/>
	<path id='gpPt2' stroke-width='0.222' stroke='currentColor' d='M-1,0 L1,0 M0,-1 L0,1 M-1,-1 L1,1 M-1,1 L1,-1'/>
	<rect id='gpPt3' stroke-width='0.222' stroke='currentColor' x='-1' y='-1' width='2' height='2'/>
	<rect id='gpPt4' stroke-width='0.222' stroke='currentColor' fill='currentColor' x='-1' y='-1' width='2' height='2'/>
	<circle id='gpPt5' stroke-width='0.222' stroke='currentColor' cx='0' cy='0' r='1'/>
	<use xlink:href='#gpPt5' id='gpPt6' fill='currentColor' stroke='none'/>
	<path id='gpPt7' stroke-width='0.222' stroke='currentColor' d='M0,-1.33 L-1.33,0.67 L1.33,0.67 z'/>
	<use xlink:href='#gpPt7' id='gpPt8' fill='currentColor' stroke='none'/>
	<use xlink:href='#gpPt7' id='gpPt9' stroke='currentColor' transform='rotate(180)'/>
	<use xlink:href='#gpPt9' id='gpPt10' fill='currentColor' stroke='none'/>
	<use xlink:href='#gpPt3' id='gpPt11' stroke='currentColor' transform='rotate(45)'/>
	<use xlink:href='#gpPt11' id='gpPt12' fill='currentColor' stroke='none'/>
	<path id='gpPt13' stroke-width='0.222' stroke='currentColor' d='M0,1.330 L1.265,0.411 L0.782,-1.067 L-0.782,-1.076 L-1.265,0.411 z'/>
	<use xlink:href='#gpPt13' id='gpPt14' fill='currentColor' stroke='none'/>
	<filter id='textbox' filterUnits='objectBoundingBox' x='0' y='0' height='1' width='1'>
	  <feFlood flood-color='white' flood-opacity='1' result='bgnd'/>
	  <feComposite in='SourceGraphic' in2='bgnd' operator='atop'/>
	</filter>
	<filter id='greybox' filterUnits='objectBoundingBox' x='0' y='0' height='1' width='1'>
	  <feFlood flood-color='lightgrey' flood-opacity='1' result='grey'/>
	  <feComposite in='SourceGraphic' in2='grey' operator='atop'/>
	</filter>
</defs>
<g fill="none" color="white" stroke="currentColor" stroke-width="1.00" stroke-linecap="butt" stroke-linejoin="miter">
</g>
<g fill="none" color="black" stroke="currentColor" stroke-width="1.00" stroke-linecap="butt" stroke-linejoin="miter">
	<path stroke='black'  d='M71.9,242.4 L80.9,242.4  '/>	<g transform="translate(63.6,246.3)" stroke="none" fill="black" font-family="Helvetica" font-size="12.00"  text-anchor="end">
		<text><tspan font-family="Helvetica" > 0</tspan></text>
	</g>
</g>
<g fill="none" color="black" stroke="currentColor" stroke-width="1.00" stroke-linecap="butt" stroke-linejoin="miter">
	<path stroke='black'  d='M71.9,203.1 L80.9,203.1  '/>	<g transform="translate(63.6,207.0)" stroke="none" fill="black" font-family="Helvetica" font-size="12.00"  text-anchor="end">
		<text><tspan font-family="Helvetica" > 0.2</tspan></text>
	</g>
</g>
<g fill="none" color="black" stroke="currentColor" stroke-width="1.00" stroke-linecap="butt" stroke-linejoin="miter">
	<path stroke='black'  d='M71.9,163.8 L80.9,163.8  '/>	<g transform="translate(63.6,167.7)" stroke="none" fill="black" font-family="Helvetica" font-size="12.00"  text-anchor="end">
		<text><tspan font-family="Helvetica" > 0.4</tspan></text>
	</g>
</g>
<g fill="none" color="black" stroke="currentColor" stroke-width="1.00" stroke-linecap="butt" stroke-linejoin="miter">
	<path stroke='black'  d='M71.9,124.5 L80.9,124.5  '/>	<g transform="translate(63.6,128.4)" stroke="none" fill="black" font-family="Helvetica" font-size="12.00"  text-anchor="end">
		<text><tspan font-family="Helvetica" > 0.6</tspan></text>
	</g>
</g>
<g fill="none" color="black" stroke="currentColor" stroke-width="1.00" stroke-linecap="butt" stroke-linejoin="miter">
	<path stroke='black'  d='M71.9,85.2 L80.9,85.2  '/>	<g transform="translate(63.6,89.1)" stroke="none" fill="black" font-family="Helvetica" font-size="12.00"  text-anchor="end">
		<text><tspan font-family="Helvetica" > 0.8</tspan></text>
	</g>
</g>
<g fill="none" color="black" stroke="currentColor" stroke-width="1.00" stroke-linecap="butt" stroke-linejoin="miter">
	<path stroke='black'  d='M71.9,45.9 L80.9,45.9  '/>	<g transform="translate(63.6,49.8)" stroke="none" fill="black" font-family="Helvetica" font-size="12.00"  text-anchor="end">
		<text><tspan font-family="Helvetica" > 1</tspan></text>
	</g>
</g>
<g fill="none" color="black" stroke="currentColor" stroke-width="1.00" stroke-linecap="butt" stroke-linejoin="miter">
	<path stroke='black'  d='M86.3,242.4 L86.3,233.4  '/>	<g transform="translate(86.3,264.3)" stroke="none" fill="black" font-family="Helvetica" font-size="12.00"  text-anchor="middle">
		<text><tspan font-family="Helvetica" > 26</tspan></text>
	</g>
</g>
<g fill="none" color="black" stroke="currentColor" stroke-width="1.00" stroke-linecap="butt" stroke-linejoin="miter">
	<path stroke='black'  d='M134.7,242.4 L134.7,233.4  '/>	<g transform="translate(134.7,264.3)" stroke="none" fill="black" font-family="Helvetica" font-size="12.00"  text-anchor="middle">
		<text><tspan font-family="Helvetica" > 27</tspan></text>
	</g>
</g>
<g fill="none" color="black" stroke="currentColor" stroke-width="1.00" stroke-linecap="butt" stroke-linejoin="miter">
	<path stroke='black'  d='M183.1,242.4 L183.1,233.4  '/>	<g transform="translate(183.1,264.3)" stroke="none" fill="black" font-family="Helvetica" font-size="12.00"  text-anchor="middle">
		<text><tspan font-family="Helvetica" > 28</tspan></text>
	</g>
</g>
<g fill="none" color="black" stroke="currentColor" stroke-width="1.00" stroke-linecap="butt" stroke-linejoin="miter">
	<path stroke='black'  d='M231.4,242.4 L231.4,233.4  '/>	<g transform="translate(231.4,264.3)" stroke="none" fill="black" font-family="Helvetica" font-size="12.00"  text-anchor="middle">
		<text><tspan font-family="Helvetica" > 29</tspan></text>
	</g>
</g>
<g fill="none" color="black" stroke="currentColor" stroke-width="1.00" stroke-linecap="butt" stroke-linejoin="miter">
	<path stroke='black'  d='M279.8,242.4 L279.8,233.4  '/>	<g transform="translate(279.8,264.3)" stroke="none" fill="black" font-family="Helvetica" font-size="12.00"  text-anchor="middle">
		<text><tspan font-family="Helvetica" > 30</tspan></text>
	</g>
</g>
<g fill="none" color="black" stroke="currentColor" stroke-width="1.00" stroke-linecap="butt" stroke-linejoin="miter">
	<path stroke='black'  d='M328.2,242.4 L328.2,233.4  '/>	<g transform="translate(328.2,264.3)" stroke="none" fill="black" font-family="Helvetica" font-size="12.00"  text-anchor="middle">
		<text><tspan font-family="Helvetica" > 31</tspan></text>
	</g>
</g>
<g fill="none" color="black" stroke="currentColor" stroke-width="1.00" stroke-linecap="butt" stroke-linejoin="miter">
	<path stroke='black'  d='M376.6,242.4 L376.6,233.4  '/>	<g transform="translate(376.6,264.3)" stroke="none" fill="black" font-family="Helvetica" font-size="12.00"  text-anchor="middle">
		<text><tspan font-family="Helvetica" > 32</tspan></text>
	</g>
</g>
<g fill="none" color="black" stroke="currentColor" stroke-width="1.00" stroke-linecap="butt" stroke-linejoin="miter">
	<path stroke='black'  d='M425.0,242.4 L425.0,233.4  '/>	<g transform="translate(425.0,264.3)" stroke="none" fill="black" font-family="Helvetica" font-size="12.00"  text-anchor="middle">
		<text><tspan font-family="Helvetica" > 33</tspan></text>
	</g>
</g>
<g fill="none" color="black" stroke="currentColor" stroke-width="1.00" stroke-linecap="butt" stroke-linejoin="miter">
</g>
<g fill="none" color="black" stroke="currentColor" stroke-width="1.00" stroke-linecap="butt" stroke-linejoin="miter">
	<path stroke='black'  d='M71.9,18.1 L71.9,242.4 L425.0,242.4 L425.0,18.1 L71.9,18.1 Z  '/></g>
<g fill="none" color="black" stroke="currentColor" stroke-width="1.00" stroke-linecap="butt" stroke-linejoin="miter">
	<g transform="translate(16.3,130.3) rotate(270)" stroke="none" fill="black" font-family="Helvetica" font-size="12.00"  text-anchor="middle">
		<text><tspan font-family="Helvetica" >Density (a.u.)</tspan></text>
	</g>
</g>
<g fill="none" color="black" stroke="currentColor" stroke-width="1.00" stroke-linecap="butt" stroke-linejoin="miter">
	<g transform="translate(248.4,291.3)" stroke="none" fill="black" font-family="Helvetica" font-size="12.00"  text-anchor="middle">
		<text><tspan font-family="Helvetica" >Average time (us)</tspan></text>
	</g>
</g>
<g fill="none" color="black" stroke="currentColor" stroke-width="1.00" stroke-linecap="butt" stroke-linejoin="miter">
</g>
	<g id="gnuplot_plot_1" ><title>PDF</title>
<g fill="none" color="black" stroke="currentColor" stroke-width="1.00" stroke-linecap="butt" stroke-linejoin="miter">
	<g stroke='none' shape-rendering='crispEdges'>
		<polygon fill = 'rgb( 31, 120, 180)' fill-opacity = '0.250000' points = '71.9,241.3 72.6,241.2 73.3,241.0 74.0,240.7 74.7,240.5 75.4,240.2 76.1,239.9 76.9,239.5 77.6,239.1 78.3,238.7 79.0,238.2 79.7,237.6 80.4,237.0 81.1,236.3 81.8,235.5 82.5,234.6
83.2,233.7 83.9,232.6 84.6,231.5 85.3,230.2 86.1,228.9 86.8,227.4 87.5,225.7 88.2,224.0 88.9,222.0 89.6,220.0 90.3,217.7 91.0,215.3 91.7,212.8 92.4,210.0 93.1,207.1 93.8,203.9
94.5,200.6 95.3,197.1 96.0,193.4 96.7,189.4 97.4,185.3 98.1,181.0 98.8,176.5 99.5,171.8 100.2,166.9 100.9,161.9 101.6,156.7 102.3,151.3 103.0,145.8 103.7,140.2 104.5,134.4 105.2,128.6
105.9,122.6 106.6,116.7 107.3,110.6 108.0,104.6 108.7,98.6 109.4,92.6 110.1,86.7 110.8,80.8 111.5,75.1 112.2,69.5 112.9,64.1 113.6,58.9 114.4,53.9 115.1,49.1 115.8,44.6 116.5,40.4
117.2,36.5 117.9,32.9 118.6,29.7 119.3,26.8 120.0,24.3 120.7,22.3 121.4,20.6 122.1,19.3 122.8,18.5 123.6,18.1 124.3,18.1 125.0,18.5 125.7,19.4 126.4,20.6 127.1,22.3 127.8,24.3
128.5,26.8 129.2,29.5 129.9,32.6 130.6,36.1 131.3,39.8 132.0,43.9 132.8,48.1 133.5,52.6 134.2,57.4 134.9,62.3 135.6,67.3 136.3,72.5 137.0,77.9 137.7,83.3 138.4,88.7 139.1,94.2
139.8,99.7 140.5,105.3 141.2,110.7 142.0,116.2 142.7,121.6 143.4,126.9 144.1,132.1 144.8,137.2 145.5,142.2 146.2,147.1 146.9,151.8 147.6,156.4 148.3,160.8 149.0,165.1 149.7,169.2 150.4,173.2
151.2,177.0 151.9,180.6 152.6,184.1 153.3,187.4 154.0,190.5 154.7,193.5 155.4,196.4 156.1,199.0 156.8,201.6 157.5,204.0 158.2,206.2 158.9,208.3 159.6,210.3 160.4,212.2 161.1,213.9 161.8,215.6
162.5,217.1 163.2,218.5 163.9,219.8 164.6,221.1 165.3,222.2 166.0,223.2 166.7,224.2 167.4,225.1 168.1,226.0 168.8,226.7 169.6,227.4 170.3,228.0 171.0,228.6 171.7,229.1 172.4,229.6 173.1,230.0
173.8,230.4 174.5,230.7 175.2,231.0 175.9,231.2 176.6,231.4 177.3,231.5 178.0,231.7 178.7,231.7 179.5,231.8 180.2,231.8 180.9,231.8 181.6,231.8 182.3,231.7 183.0,231.6 183.7,231.5 184.4,231.4
185.1,231.2 185.8,231.0 186.5,230.8 187.2,230.6 187.9,230.4 188.7,230.2 189.4,229.9 190.1,229.7 190.8,229.4 191.5,229.2 192.2,228.9 192.9,228.7 193.6,228.4 194.3,228.1 195.0,227.9 195.7,227.6
196.4,227.4 197.1,227.2 197.9,227.0 198.6,226.8 199.3,226.6 200.0,226.4 200.7,226.2 201.4,226.1 202.1,226.0 202.8,225.9 203.5,225.8 204.2,225.7 204.9,225.7 205.6,225.7 206.3,225.7 207.1,225.7
207.8,225.7 208.5,225.8 209.2,225.9 209.9,226.0 210.6,226.2 211.3,226.3 212.0,226.5 212.7,226.7 213.4,227.0 214.1,227.2 214.8,227.5 215.5,227.7 216.3,228.0 217.0,228.3 217.7,228.6 218.4,229.0
219.1,229.3 219.8,229.7 220.5,230.0 221.2,230.4 221.9,230.7 222.6,231.1 223.3,231.5 224.0,231.9 224.7,232.2 225.5,232.6 226.2,233.0 226.9,233.4 227.6,233.7 228.3,234.1 229.0,234.5 229.7,234.8
230.4,235.2 231.1,235.5 231.8,235.9 232.5,236.2 233.2,236.5 233.9,236.8 234.7,237.1 235.4,237.4 236.1,237.7 236.8,238.0 237.5,238.2 238.2,238.5 238.9,238.7 239.6,238.9 240.3,239.2 241.0,239.4
241.7,239.6 242.4,239.7 243.1,239.9 243.9,240.1 244.6,240.2 245.3,240.4 246.0,240.5 246.7,240.7 247.4,240.8 248.1,240.9 248.8,241.0 249.5,241.1 250.2,241.2 250.9,241.2 251.6,241.3 252.3,241.4
253.0,241.4 253.8,241.4 254.5,241.5 255.2,241.5 255.9,241.5 256.6,241.5 257.3,241.6 258.0,241.6 258.7,241.6 259.4,241.5 260.1,241.5 260.8,241.5 261.5,241.5 262.2,241.5 263.0,241.4 263.7,241.4
264.4,241.3 265.1,241.3 265.8,241.2 266.5,241.2 267.2,241.1 267.9,241.1 268.6,241.0 269.3,240.9 270.0,240.9 270.7,240.8 271.4,240.7 272.2,240.7 272.9,240.6 273.6,240.5 274.3,240.5 275.0,240.4
275.7,240.3 276.4,240.3 277.1,240.2 277.8,240.1 278.5,240.1 279.2,240.0 279.9,240.0 280.6,239.9 281.4,239.9 282.1,239.8 282.8,239.8 283.5,239.8 284.2,239.8 284.9,239.7 285.6,239.7 286.3,239.7
287.0,239.7 287.7,239.7 288.4,239.7 289.1,239.7 289.8,239.8 290.6,239.8 291.3,239.8 292.0,239.9 292.7,239.9 293.4,239.9 294.1,240.0 294.8,240.0 295.5,240.1 296.2,240.2 296.9,240.2 297.6,240.3
298.3,240.3 299.0,240.4 299.8,240.5 300.5,240.6 301.2,240.6 301.9,240.7 302.6,240.8 303.3,240.9 304.0,240.9 304.7,241.0 305.4,241.1 306.1,241.1 306.8,241.2 307.5,241.3 308.2,241.3 309.0,241.4
309.7,241.5 310.4,241.5 311.1,241.6 311.8,241.6 312.5,241.7 313.2,241.8 313.9,241.8 314.6,241.8 315.3,241.9 316.0,241.9 316.7,242.0 317.4,242.0 318.2,242.0 318.9,242.1 319.6,242.1 320.3,242.1
321.0,242.2 321.7,242.2 322.4,242.2 323.1,242.2 323.8,242.2 324.5,242.2 325.2,242.3 325.9,242.3 326.6,242.3 327.3,242.3 328.1,242.3 328.8,242.3 329.5,242.3 330.2,242.3 330.9,242.3 331.6,242.3
332.3,242.3 333.0,242.3 333.7,242.3 334.4,242.3 335.1,242.3 335.8,242.3 336.5,242.3 337.3,242.3 338.0,242.3 338.7,242.3 339.4,242.3 340.1,242.3 340.8,242.2 341.5,242.2 342.2,242.2 342.9,242.2
343.6,242.2 344.3,242.1 345.0,242.1 345.7,242.1 346.5,242.1 347.2,242.0 347.9,242.0 348.6,242.0 349.3,241.9 350.0,241.9 350.7,241.8 351.4,241.8 352.1,241.7 352.8,241.7 353.5,241.6 354.2,241.6
354.9,241.5 355.7,241.5 356.4,241.4 357.1,241.3 357.8,241.3 358.5,241.2 359.2,241.1 359.9,241.1 360.6,241.0 361.3,240.9 362.0,240.8 362.7,240.8 363.4,240.7 364.1,240.6 364.9,240.6 365.6,240.5
366.3,240.4 367.0,240.3 367.7,240.3 368.4,240.2 369.1,240.1 369.8,240.1 370.5,240.0 371.2,240.0 371.9,239.9 372.6,239.9 373.3,239.9 374.1,239.8 374.8,239.8 375.5,239.8 376.2,239.7 376.9,239.7
377.6,239.7 378.3,239.7 379.0,239.7 379.7,239.7 380.4,239.7 381.1,239.8 381.8,239.8 382.5,239.8 383.3,239.9 384.0,239.9 384.7,239.9 385.4,240.0 386.1,240.0 386.8,240.1 387.5,240.1 388.2,240.2
388.9,240.3 389.6,240.3 390.3,240.4 391.0,240.5 391.7,240.6 392.4,240.6 393.2,240.7 393.9,240.8 394.6,240.8 395.3,240.9 396.0,241.0 396.7,241.1 397.4,241.1 398.1,241.2 398.8,241.3 399.5,241.3
400.2,241.4 400.9,241.5 401.6,241.5 402.4,241.6 403.1,241.6 403.8,241.7 404.5,241.7 405.2,241.8 405.9,241.8 406.6,241.9 407.3,241.9 408.0,242.0 408.7,242.0 409.4,242.0 410.1,242.1 410.8,242.1
411.6,242.1 412.3,242.2 413.0,242.2 413.7,242.2 414.4,242.2 415.1,242.2 415.8,242.3 416.5,242.3 417.2,242.3 417.9,242.3 418.6,242.3 419.3,242.3 420.0,242.3 420.8,242.3 421.5,242.3 422.2,242.3
422.9,242.4 423.6,242.4 424.3,242.4 425.0,242.4 425.0,242.4 424.3,242.4 423.6,242.4 422.9,242.4 422.2,242.4 421.5,242.4 420.8,242.4 420.0,242.4 419.3,242.4 418.6,242.4 417.9,242.4 417.2,242.4
416.5,242.4 415.8,242.4 415.1,242.4 414.4,242.4 413.7,242.4 413.0,242.4 412.3,242.4 411.6,242.4 410.8,242.4 410.1,242.4 409.4,242.4 408.7,242.4 408.0,242.4 407.3,242.4 406.6,242.4 405.9,242.4
405.2,242.4 404.5,242.4 403.8,242.4 403.1,242.4 402.4,242.4 401.6,242.4 400.9,242.4 400.2,242.4 399.5,242.4 398.8,242.4 398.1,242.4 397.4,242.4 396.7,242.4 396.0,242.4 395.3,242.4 394.6,242.4
393.9,242.4 393.2,242.4 392.4,242.4 391.7,242.4 391.0,242.4 390.3,242.4 389.6,242.4 388.9,242.4 388.2,242.4 387.5,242.4 386.8,242.4 386.1,242.4 385.4,242.4 384.7,242.4 384.0,242.4 383.3,242.4
382.5,242.4 381.8,242.4 381.1,242.4 380.4,242.4 379.7,242.4 379.0,242.4 378.3,242.4 377.6,242.4 376.9,242.4 376.2,242.4 375.5,242.4 374.8,242.4 374.1,242.4 373.3,242.4 372.6,242.4 371.9,242.4
371.2,242.4 370.5,242.4 369.8,242.4 369.1,242.4 368.4,242.4 367.7,242.4 367.0,242.4 366.3,242.4 365.6,242.4 364.9,242.4 364.1,242.4 363.4,242.4 362.7,242.4 362.0,242.4 361.3,242.4 360.6,242.4
359.9,242.4 359.2,242.4 358.5,242.4 357.8,242.4 357.1,242.4 356.4,242.4 355.7,242.4 354.9,242.4 354.2,242.4 353.5,242.4 352.8,242.4 352.1,242.4 351.4,242.4 350.7,242.4 350.0,242.4 349.3,242.4
348.6,242.4 347.9,242.4 347.2,242.4 346.5,242.4 345.7,242.4 345.0,242.4 344.3,242.4 343.6,242.4 342.9,242.4 342.2,242.4 341.5,242.4 340.8,242.4 340.1,242.4 339.4,242.4 338.7,242.4 338.0,242.4
337.3,242.4 336.5,242.4 335.8,242.4 335.1,242.4 334.4,242.4 333.7,242.4 333.0,242.4 332.3,242.4 331.6,242.4 330.9,242.4 330.2,242.4 329.5,242.4 328.8,242.4 328.1,242.4 327.3,242.4 326.6,242.4
325.9,242.4 325.2,242.4 324.5,242.4 323.8,242.4 323.1,242.4 322.4,242.4 321.7,242.4 321.0,242.4 320.3,242.4 319.6,242.4 318.9,242.4 318.2,242.4 317.4,242.4 316.7,242.4 316.0,242.4 315.3,242.4
314.6,242.4 313.9,242.4 313.2,242.4 312.5,242.4 311.8,242.4 311.1,242.4 310.4,242.4 309.7,242.4 309.0,242.4 308.2,242.4 307.5,242.4 306.8,242.4 306.1,242.4 305.4,242.4 304.7,242.4 304.0,242.4
303.3,242.4 302.6,242.4 301.9,242.4 301.2,242.4 300.5,242.4 299.8,242.4 299.0,242.4 298.3,242.4 297.6,242.4 296.9,242.4 296.2,242.4 295.5,242.4 294.8,242.4 294.1,242.4 293.4,242.4 292.7,242.4
292.0,242.4 291.3,242.4 290.6,242.4 289.8,242.4 289.1,242.4 288.4,242.4 287.7,242.4 287.0,242.4 286.3,242.4 285.6,242.4 284.9,242.4 284.2,242.4 283.5,242.4 282.8,242.4 282.1,242.4 281.4,242.4
280.6,242.4 279.9,242.4 279.2,242.4 278.5,242.4 277.8,242.4 277.1,242.4 276.4,242.4 275.7,242.4 275.0,242.4 274.3,242.4 273.6,242.4 272.9,242.4 272.2,242.4 271.4,242.4 270.7,242.4 270.0,242.4
269.3,242.4 268.6,242.4 267.9,242.4 267.2,242.4 266.5,242.4 265.8,242.4 265.1,242.4 264.4,242.4 263.7,242.4 263.0,242.4 262.2,242.4 261.5,242.4 260.8,242.4 260.1,242.4 259.4,242.4 258.7,242.4
258.0,242.4 257.3,242.4 256.6,242.4 255.9,242.4 255.2,242.4 254.5,242.4 253.8,242.4 253.0,242.4 252.3,242.4 251.6,242.4 250.9,242.4 250.2,242.4 249.5,242.4 248.8,242.4 248.1,242.4 247.4,242.4
246.7,242.4 246.0,242.4 245.3,242.4 244.6,242.4 243.9,242.4 243.1,242.4 242.4,242.4 241.7,242.4 241.0,242.4 240.3,242.4 239.6,242.4 238.9,242.4 238.2,242.4 237.5,242.4 236.8,242.4 236.1,242.4
235.4,242.4 234.7,242.4 233.9,242.4 233.2,242.4 232.5,242.4 231.8,242.4 231.1,242.4 230.4,242.4 229.7,242.4 229.0,242.4 228.3,242.4 227.6,242.4 226.9,242.4 226.2,242.4 225.5,242.4 224.7,242.4
224.0,242.4 223.3,242.4 222.6,242.4 221.9,242.4 221.2,242.4 220.5,242.4 219.8,242.4 219.1,242.4 218.4,242.4 217.7,242.4 217.0,242.4 216.3,242.4 215.5,242.4 214.8,242.4 214.1,242.4 213.4,242.4
212.7,242.4 212.0,242.4 211.3,242.4 210.6,242.4 209.9,242.4 209.2,242.4 208.5,242.4 207.8,242.4 207.1,242.4 206.3,242.4 205.6,242.4 204.9,242.4 204.2,242.4 203.5,242.4 202.8,242.4 202.1,242.4
201.4,242.4 200.7,242.4 200.0,242.4 199.3,242.4 198.6,242.4 197.9,242.4 197.1,242.4 196.4,242.4 195.7,242.4 195.0,242.4 194.3,242.4 193.6,242.4 192.9,242.4 192.2,242.4 191.5,242.4 190.8,242.4
190.1,242.4 189.4,242.4 188.7,242.4 187.9,242.4 187.2,242.4 186.5,242.4 185.8,242.4 185.1,242.4 184.4,242.4 183.7,242.4 183.0,242.4 182.3,242.4 181.6,242.4 180.9,242.4 180.2,242.4 179.5,242.4
178.7,242.4 178.0,242.4 177.3,242.4 176.6,242.4 175.9,242.4 175.2,242.4 174.5,242.4 173.8,242.4 173.1,242.4 172.4,242.4 171.7,242.4 171.0,242.4 170.3,242.4 169.6,242.4 168.8,242.4 168.1,242.4
167.4,242.4 166.7,242.4 166.0,242.4 165.3,242.4 164.6,242.4 163.9,242.4 163.2,242.4 162.5,242.4 161.8,242.4 161.1,242.4 160.4,242.4 159.6,242.4 158.9,242.4 158.2,242.4 157.5,242.4 156.8,242.4
156.1,242.4 155.4,242.4 154.7,242.4 154.0,242.4 153.3,242.4 152.6,242.4 151.9,242.4 151.2,242.4 150.4,242.4 149.7,242.4 149.0,242.4 148.3,242.4 147.6,242.4 146.9,242.4 146.2,242.4 145.5,242.4
144.8,242.4 144.1,242.4 143.4,242.4 142.7,242.4 142.0,242.4 141.2,242.4 140.5,242.4 139.8,242.4 139.1,242.4 138.4,242.4 137.7,242.4 137.0,242.4 136.3,242.4 135.6,242.4 134.9,242.4 134.2,242.4
133.5,242.4 132.8,242.4 132.0,242.4 131.3,242.4 130.6,242.4 129.9,242.4 129.2,242.4 128.5,242.4 127.8,242.4 127.1,242.4 126.4,242.4 125.7,242.4 125.0,242.4 124.3,242.4 123.6,242.4 122.8,242.4
122.1,242.4 121.4,242.4 120.7,242.4 120.0,242.4 119.3,242.4 118.6,242.4 117.9,242.4 117.2,242.4 116.5,242.4 115.8,242.4 115.1,242.4 114.4,242.4 113.6,242.4 112.9,242.4 112.2,242.4 111.5,242.4
110.8,242.4 110.1,242.4 109.4,242.4 108.7,242.4 108.0,242.4 107.3,242.4 106.6,242.4 105.9,242.4 105.2,242.4 104.5,242.4 103.7,242.4 103.0,242.4 102.3,242.4 101.6,242.4 100.9,242.4 100.2,242.4
99.5,242.4 98.8,242.4 98.1,242.4 97.4,242.4 96.7,242.4 96.0,242.4 95.3,242.4 94.5,242.4 93.8,242.4 93.1,242.4 92.4,242.4 91.7,242.4 91.0,242.4 90.3,242.4 89.6,242.4 88.9,242.4
88.2,242.4 87.5,242.4 86.8,242.4 86.1,242.4 85.3,242.4 84.6,242.4 83.9,242.4 83.2,242.4 82.5,242.4 81.8,242.4 81.1,242.4 80.4,242.4 79.7,242.4 79.0,242.4 78.3,242.4 77.6,242.4
76.9,242.4 76.1,242.4 75.4,242.4 74.7,242.4 74.0,242.4 73.3,242.4 72.6,242.4 71.9,242.4 '/>
	</g>
</g>
	</g>
	<g id="gnuplot_plot_2" ><title>Mean</title>
<g fill="none" color="white" stroke="rgb( 31, 120, 180)" stroke-width="2.00" stroke-linecap="butt" stroke-linejoin="miter">
</g>
<g fill="none" color="black" stroke="currentColor" stroke-width="2.00" stroke-linecap="butt" stroke-linejoin="miter">
	<path stroke='rgb( 31, 120, 180)'  d='M135.7,242.4 L135.7,84.2  '/></g>
	</g>
<g fill="none" color="black" stroke="currentColor" stroke-width="2.00" stroke-linecap="butt" stroke-linejoin="miter">
</g>
<g fill="none" color="black" stroke="black" stroke-width="1.00" stroke-linecap="butt" stroke-linejoin="miter">
</g>
<g fill="none" color="black" stroke="currentColor" stroke-width="1.00" stroke-linecap="butt" stroke-linejoin="miter">
	<path stroke='black'  d='M71.9,18.1 L71.9,242.4 L425.0,242.4 L425.0,18.1 L71.9,18.1 Z  '/></g>
<g fill="none" color="black" stroke="currentColor" stroke-width="1.00" stroke-linecap="butt" stroke-linejoin="miter">
</g>
</g>
</svg>

