<?xml version="1.0" encoding="utf-8"  standalone="no"?>
<svg 
 viewBox="0 0 1280 720"
 xmlns="http://www.w3.org/2000/svg"
 xmlns:xlink="http://www.w3.org/1999/xlink"
>

<title>Gnuplot</title>
<desc>Produced by GNUPLOT 5.2 patchlevel 6 </desc>

<g id="gnuplot_canvas">

<rect x="0" y="0" width="1280" height="720" fill="none"/>
<defs>

	<circle id='gpDot' r='0.5' stroke-width='0.5' stroke='currentColor'/>
	<path id='gpPt0' stroke-width='0.222' stroke='currentColor' d='M-1,0 h2 M0,-1 v2'/>
	<path id='gpPt1' stroke-width='0.222' stroke='currentColor' d='M-1,-1 L1,1 M1,-1 L-1,1'/>
	<path id='gpPt2' stroke-width='0.222' stroke='currentColor' d='M-1,0 L1,0 M0,-1 L0,1 M-1,-1 L1,1 M-1,1 L1,-1'/>
	<rect id='gpPt3' stroke-width='0.222' stroke='currentColor' x='-1' y='-1' width='2' height='2'/>
	<rect id='gpPt4' stroke-width='0.222' stroke='currentColor' fill='currentColor' x='-1' y='-1' width='2' height='2'/>
	<circle id='gpPt5' stroke-width='0.222' stroke='currentColor' cx='0' cy='0' r='1'/>
	<use xlink:href='#gpPt5' id='gpPt6' fill='currentColor' stroke='none'/>
	<path id='gpPt7' stroke-width='0.222' stroke='currentColor' d='M0,-1.33 L-1.33,0.67 L1.33,0.67 z'/>
	<use xlink:href='#gpPt7' id='gpPt8' fill='currentColor' stroke='none'/>
	<use xlink:href='#gpPt7' id='gpPt9' stroke='currentColor' transform='rotate(180)'/>
	<use xlink:href='#gpPt9' id='gpPt10' fill='currentColor' stroke='none'/>
	<use xlink:href='#gpPt3' id='gpPt11' stroke='currentColor' transform='rotate(45)'/>
	<use xlink:href='#gpPt11' id='gpPt12' fill='currentColor' stroke='none'/>
	<path id='gpPt13' stroke-width='0.222' stroke='currentColor' d='M0,1.330 L1.265,0.411 L0.782,-1.067 L-0.782,-1.076 L-1.265,0.411 z'/>
	<use xlink:href='#gpPt13' id='gpPt14' fill='currentColor' stroke='none'/>
	<filter id='textbox' filterUnits='objectBoundingBox' x='0' y='0' height='1' width='1'>
	  <feFlood flood-color='white' flood-opacity='1' result='bgnd'/>
	  <feComposite in='SourceGraphic' in2='bgnd' operator='atop'/>
	</filter>
	<filter id='greybox' filterUnits='objectBoundingBox' x='0' y='0' height='1' width='1'>
	  <feFlood flood-color='lightgrey' flood-opacity='1' result='grey'/>
	  <feComposite in='SourceGraphic' in2='grey' operator='atop'/>
	</filter>
</defs>
<g fill="none" color="white" stroke="currentColor" stroke-width="1.00" stroke-linecap="butt" stroke-linejoin="miter">
</g>
<g fill="none" color="black" stroke="currentColor" stroke-width="1.00" stroke-linecap="butt" stroke-linejoin="miter">
	<path stroke='black'  d='M71.9,662.4 L80.9,662.4  '/>	<g transform="translate(63.6,666.3)" stroke="none" fill="black" font-family="Helvetica" font-size="12.00"  text-anchor="end">
		<text><tspan font-family="Helvetica" > 0</tspan></text>
	</g>
</g>
<g fill="none" color="black" stroke="currentColor" stroke-width="1.00" stroke-linecap="butt" stroke-linejoin="miter">
	<path stroke='black'  d='M71.9,575.5 L80.9,575.5  '/>	<g transform="translate(63.6,579.4)" stroke="none" fill="black" font-family="Helvetica" font-size="12.00"  text-anchor="end">
		<text><tspan font-family="Helvetica" > 20</tspan></text>
	</g>
</g>
<g fill="none" color="black" stroke="currentColor" stroke-width="1.00" stroke-linecap="butt" stroke-linejoin="miter">
	<path stroke='black'  d='M71.9,488.6 L80.9,488.6  '/>	<g transform="translate(63.6,492.5)" stroke="none" fill="black" font-family="Helvetica" font-size="12.00"  text-anchor="end">
		<text><tspan font-family="Helvetica" > 40</tspan></text>
	</g>
</g>
<g fill="none" color="black" stroke="currentColor" stroke-width="1.00" stroke-linecap="butt" stroke-linejoin="miter">
	<path stroke='black'  d='M71.9,401.7 L80.9,401.7  '/>	<g transform="translate(63.6,405.6)" stroke="none" fill="black" font-family="Helvetica" font-size="12.00"  text-anchor="end">
		<text><tspan font-family="Helvetica" > 60</tspan></text>
	</g>
</g>
<g fill="none" color="black" stroke="currentColor" stroke-width="1.00" stroke-linecap="butt" stroke-linejoin="miter">
	<path stroke='black'  d='M71.9,314.8 L80.9,314.8  '/>	<g transform="translate(63.6,318.7)" stroke="none" fill="black" font-family="Helvetica" font-size="12.00"  text-anchor="end">
		<text><tspan font-family="Helvetica" > 80</tspan></text>
	</g>
</g>
<g fill="none" color="black" stroke="currentColor" stroke-width="1.00" stroke-linecap="butt" stroke-linejoin="miter">
	<path stroke='black'  d='M71.9,227.9 L80.9,227.9  '/>	<g transform="translate(63.6,231.8)" stroke="none" fill="black" font-family="Helvetica" font-size="12.00"  text-anchor="end">
		<text><tspan font-family="Helvetica" > 100</tspan></text>
	</g>
</g>
<g fill="none" color="black" stroke="currentColor" stroke-width="1.00" stroke-linecap="butt" stroke-linejoin="miter">
	<path stroke='black'  d='M71.9,141.0 L80.9,141.0  '/>	<g transform="translate(63.6,144.9)" stroke="none" fill="black" font-family="Helvetica" font-size="12.00"  text-anchor="end">
		<text><tspan font-family="Helvetica" > 120</tspan></text>
	</g>
</g>
<g fill="none" color="black" stroke="currentColor" stroke-width="1.00" stroke-linecap="butt" stroke-linejoin="miter">
	<path stroke='black'  d='M71.9,54.1 L80.9,54.1  '/>	<g transform="translate(63.6,58.0)" stroke="none" fill="black" font-family="Helvetica" font-size="12.00"  text-anchor="end">
		<text><tspan font-family="Helvetica" > 140</tspan></text>
	</g>
</g>
<g fill="none" color="black" stroke="currentColor" stroke-width="1.00" stroke-linecap="butt" stroke-linejoin="miter">
	<path stroke='black'  d='M119.3,662.4 L119.3,653.4  '/>	<g transform="translate(119.3,684.3)" stroke="none" fill="black" font-family="Helvetica" font-size="12.00"  text-anchor="middle">
		<text><tspan font-family="Helvetica" > 26.755</tspan></text>
	</g>
</g>
<g fill="none" color="black" stroke="currentColor" stroke-width="1.00" stroke-linecap="butt" stroke-linejoin="miter">
	<path stroke='black'  d='M292.6,662.4 L292.6,653.4  '/>	<g transform="translate(292.6,684.3)" stroke="none" fill="black" font-family="Helvetica" font-size="12.00"  text-anchor="middle">
		<text><tspan font-family="Helvetica" > 26.76</tspan></text>
	</g>
</g>
<g fill="none" color="black" stroke="currentColor" stroke-width="1.00" stroke-linecap="butt" stroke-linejoin="miter">
	<path stroke='black'  d='M465.9,662.4 L465.9,653.4  '/>	<g transform="translate(465.9,684.3)" stroke="none" fill="black" font-family="Helvetica" font-size="12.00"  text-anchor="middle">
		<text><tspan font-family="Helvetica" > 26.765</tspan></text>
	</g>
</g>
<g fill="none" color="black" stroke="currentColor" stroke-width="1.00" stroke-linecap="butt" stroke-linejoin="miter">
	<path stroke='black'  d='M639.2,662.4 L639.2,653.4  '/>	<g transform="translate(639.2,684.3)" stroke="none" fill="black" font-family="Helvetica" font-size="12.00"  text-anchor="middle">
		<text><tspan font-family="Helvetica" > 26.77</tspan></text>
	</g>
</g>
<g fill="none" color="black" stroke="currentColor" stroke-width="1.00" stroke-linecap="butt" stroke-linejoin="miter">
	<path stroke='black'  d='M812.5,662.4 L812.5,653.4  '/>	<g transform="translate(812.5,684.3)" stroke="none" fill="black" font-family="Helvetica" font-size="12.00"  text-anchor="middle">
		<text><tspan font-family="Helvetica" > 26.775</tspan></text>
	</g>
</g>
<g fill="none" color="black" stroke="currentColor" stroke-width="1.00" stroke-linecap="butt" stroke-linejoin="miter">
	<path stroke='black'  d='M985.8,662.4 L985.8,653.4  '/>	<g transform="translate(985.8,684.3)" stroke="none" fill="black" font-family="Helvetica" font-size="12.00"  text-anchor="middle">
		<text><tspan font-family="Helvetica" > 26.78</tspan></text>
	</g>
</g>
<g fill="none" color="black" stroke="currentColor" stroke-width="1.00" stroke-linecap="butt" stroke-linejoin="miter">
</g>
<g fill="none" color="black" stroke="currentColor" stroke-width="1.00" stroke-linecap="butt" stroke-linejoin="miter">
	<path stroke='black'  d='M71.9,54.1 L71.9,662.4 L1013.6,662.4 L1013.6,54.1 L71.9,54.1 Z  '/></g>
<g fill="none" color="black" stroke="currentColor" stroke-width="1.00" stroke-linecap="butt" stroke-linejoin="miter">
	<g transform="translate(16.3,358.3) rotate(270)" stroke="none" fill="black" font-family="Helvetica" font-size="12.00"  text-anchor="middle">
		<text><tspan font-family="Helvetica" >Density (a.u.)</tspan></text>
	</g>
</g>
<g fill="none" color="black" stroke="currentColor" stroke-width="1.00" stroke-linecap="butt" stroke-linejoin="miter">
	<g transform="translate(542.7,711.3)" stroke="none" fill="black" font-family="Helvetica" font-size="12.00"  text-anchor="middle">
		<text><tspan font-family="Helvetica" >Average time (us)</tspan></text>
	</g>
</g>
<g fill="none" color="black" stroke="currentColor" stroke-width="1.00" stroke-linecap="butt" stroke-linejoin="miter">
	<g transform="translate(542.7,31.0)" stroke="none" fill="black" font-family="Helvetica" font-size="12.00"  text-anchor="middle">
		<text><tspan font-family="Helvetica" >snapshot_restore_with_dense/Dense: Entire region + process_vm_writev/46: median</tspan></text>
	</g>
</g>
	<g id="gnuplot_plot_1" ><title>Bootstrap distribution</title>
<g fill="none" color="white" stroke="black" stroke-width="2.00" stroke-linecap="butt" stroke-linejoin="miter">
</g>
<g fill="none" color="black" stroke="currentColor" stroke-width="2.00" stroke-linecap="butt" stroke-linejoin="miter">
	<g transform="translate(1089.0,67.0)" stroke="none" fill="black" font-family="Helvetica" font-size="12.00"  text-anchor="start">
		<text><tspan font-family="Helvetica" >Bootstrap distribution</tspan></text>
	</g>
</g>
<g fill="none" color="black" stroke="currentColor" stroke-width="2.00" stroke-linecap="butt" stroke-linejoin="miter">
	<path stroke='rgb( 31, 120, 180)'  d='M1038.5,63.1 L1080.7,63.1 M71.9,656.8 L73.8,656.6 L75.7,656.4 L77.6,656.2 L79.4,655.8 L81.3,655.4
		L83.2,654.8 L85.1,654.2 L87.0,653.4 L88.9,652.5 L90.8,651.4 L92.7,650.3 L94.5,649.0 L96.4,647.5
		L98.3,646.0 L100.2,644.3 L102.1,642.5 L104.0,640.6 L105.9,638.5 L107.8,636.4 L109.6,634.3 L111.5,632.0
		L113.4,629.8 L115.3,627.5 L117.2,625.2 L119.1,623.0 L121.0,620.8 L122.9,618.7 L124.7,616.6 L126.6,614.7
		L128.5,613.0 L130.4,611.4 L132.3,609.9 L134.2,608.7 L136.1,607.6 L138.0,606.8 L139.8,606.1 L141.7,605.7
		L143.6,605.4 L145.5,605.3 L147.4,605.4 L149.3,605.6 L151.2,605.9 L153.0,606.3 L154.9,606.8 L156.8,607.3
		L158.7,607.8 L160.6,608.3 L162.5,608.7 L164.4,609.0 L166.3,609.3 L168.1,609.4 L170.0,609.4 L171.9,609.2
		L173.8,608.9 L175.7,608.4 L177.6,607.8 L179.5,607.0 L181.4,605.9 L183.2,604.7 L185.1,603.3 L187.0,601.6
		L188.9,599.6 L190.8,597.3 L192.7,594.6 L194.6,591.5 L196.5,587.9 L198.3,583.8 L200.2,579.1 L202.1,573.7
		L204.0,567.6 L205.9,560.8 L207.8,553.2 L209.7,544.8 L211.6,535.6 L213.4,525.7 L215.3,515.1 L217.2,503.9
		L219.1,492.2 L221.0,480.1 L222.9,467.8 L224.8,455.4 L226.6,443.2 L228.5,431.3 L230.4,420.0 L232.3,409.4
		L234.2,399.7 L236.1,391.1 L238.0,383.6 L239.9,377.4 L241.7,372.6 L243.6,369.1 L245.5,367.0 L247.4,366.2
		L249.3,366.6 L251.2,368.2 L253.1,370.7 L255.0,374.0 L256.8,378.0 L258.7,382.5 L260.6,387.2 L262.5,392.0
		L264.4,396.7 L266.3,401.2 L268.2,405.3 L270.1,409.0 L271.9,412.0 L273.8,414.3 L275.7,415.9 L277.6,416.6
		L279.5,416.5 L281.4,415.4 L283.3,413.5 L285.2,410.6 L287.0,406.9 L288.9,402.2 L290.8,396.7 L292.7,390.3
		L294.6,383.2 L296.5,375.4 L298.4,366.9 L300.2,357.9 L302.1,348.5 L304.0,338.7 L305.9,328.8 L307.8,318.7
		L309.7,308.8 L311.6,299.1 L313.5,289.8 L315.3,281.0 L317.2,273.0 L319.1,265.8 L321.0,259.5 L322.9,254.3
		L324.8,250.3 L326.7,247.6 L328.6,246.1 L330.4,246.0 L332.3,247.2 L334.2,249.6 L336.1,253.4 L338.0,258.3
		L339.9,264.3 L341.8,271.4 L343.7,279.3 L345.5,288.1 L347.4,297.4 L349.3,307.3 L351.2,317.6 L353.1,328.2
		L355.0,338.9 L356.9,349.6 L358.8,360.1 L360.6,370.5 L362.5,380.5 L364.4,390.1 L366.3,399.1 L368.2,407.6
		L370.1,415.3 L372.0,422.3 L373.8,428.5 L375.7,433.9 L377.6,438.5 L379.5,442.2 L381.4,445.1 L383.3,447.2
		L385.2,448.5 L387.1,449.2 L388.9,449.3 L390.8,449.0 L392.7,448.2 L394.6,447.1 L396.5,445.9 L398.4,444.6
		L400.3,443.3 L402.2,442.2 L404.0,441.2 L405.9,440.4 L407.8,439.8 L409.7,439.4 L411.6,439.2 L413.5,439.0
		L415.4,438.8 L417.3,438.4 L419.1,437.6 L421.0,436.3 L422.9,434.3 L424.8,431.4 L426.7,427.4 L428.6,422.2
		L430.5,415.5 L432.4,407.4 L434.2,397.6 L436.1,386.3 L438.0,373.3 L439.9,358.7 L441.8,342.6 L443.7,325.3
		L445.6,306.8 L447.4,287.5 L449.3,267.5 L451.2,247.3 L453.1,227.2 L455.0,207.5 L456.9,188.7 L458.8,170.9
		L460.7,154.6 L462.5,140.1 L464.4,127.7 L466.3,117.6 L468.2,110.0 L470.1,105.0 L472.0,102.8 L473.9,103.3
		L475.8,106.5 L477.6,112.4 L479.5,120.8 L481.4,131.6 L483.3,144.4 L485.2,159.1 L487.1,175.4 L489.0,193.0
		L490.9,211.6 L492.7,230.9 L494.6,250.5 L496.5,270.2 L498.4,289.7 L500.3,308.8 L502.2,327.2 L504.1,344.7
		L506.0,361.2 L507.8,376.5 L509.7,390.5 L511.6,403.3 L513.5,414.7 L515.4,424.7 L517.3,433.5 L519.2,441.1
		L521.0,447.5 L522.9,452.9 L524.8,457.4 L526.7,461.2 L528.6,464.3 L530.5,466.9 L532.4,469.1 L534.3,471.1
		L536.1,473.0 L538.0,474.8 L539.9,476.6 L541.8,478.4 L543.7,480.3 L545.6,482.2 L547.5,484.2 L549.4,486.1
		L551.2,487.9 L553.1,489.6 L555.0,491.0 L556.9,492.2 L558.8,493.0 L560.7,493.5 L562.6,493.4 L564.5,492.9
		L566.3,491.9 L568.2,490.5 L570.1,488.6 L572.0,486.4 L573.9,483.8 L575.8,481.1 L577.7,478.2 L579.5,475.3
		L581.4,472.5 L583.3,469.9 L585.2,467.6 L587.1,465.7 L589.0,464.3 L590.9,463.4 L592.8,463.2 L594.6,463.6
		L596.5,464.6 L598.4,466.2 L600.3,468.5 L602.2,471.3 L604.1,474.6 L606.0,478.4 L607.9,482.4 L609.7,486.7
		L611.6,491.1 L613.5,495.6 L615.4,500.0 L617.3,504.3 L619.2,508.3 L621.1,512.1 L623.0,515.5 L624.8,518.6
		L626.7,521.3 L628.6,523.6 L630.5,525.6 L632.4,527.2 L634.3,528.5 L636.2,529.6 L638.1,530.5 L639.9,531.3
		L641.8,532.0 L643.7,532.7 L645.6,533.3 L647.5,534.0 L649.4,534.8 L651.3,535.6 L653.1,536.4 L655.0,537.3
		L656.9,538.1 L658.8,538.9 L660.7,539.6 L662.6,540.1 L664.5,540.5 L666.4,540.6 L668.2,540.4 L670.1,540.0
		L672.0,539.2 L673.9,538.2 L675.8,536.9 L677.7,535.3 L679.6,533.5 L681.5,531.6 L683.3,529.6 L685.2,527.7
		L687.1,525.8 L689.0,524.1 L690.9,522.7 L692.8,521.6 L694.7,520.8 L696.6,520.5 L698.4,520.6 L700.3,521.3
		L702.2,522.4 L704.1,524.0 L706.0,526.1 L707.9,528.5 L709.8,531.4 L711.7,534.5 L713.5,537.9 L715.4,541.5
		L717.3,545.2 L719.2,549.0 L721.1,552.7 L723.0,556.5 L724.9,560.1 L726.7,563.6 L728.6,567.0 L730.5,570.2
		L732.4,573.2 L734.3,576.1 L736.2,578.8 L738.1,581.3 L740.0,583.8 L741.8,586.0 L743.7,588.2 L745.6,590.3
		L747.5,592.3 L749.4,594.2 L751.3,596.0 L753.2,597.7 L755.1,599.4 L756.9,601.0 L758.8,602.6 L760.7,604.1
		L762.6,605.4 L764.5,606.8 L766.4,608.0 L768.3,609.1 L770.2,610.2 L772.0,611.3 L773.9,612.2 L775.8,613.1
		L777.7,614.0 L779.6,614.8 L781.5,615.7 L783.4,616.4 L785.3,617.2 L787.1,618.0 L789.0,618.7 L790.9,619.4
		L792.8,620.1 L794.7,620.8 L796.6,621.4 L798.5,622.0 L800.3,622.5 L802.2,623.0 L804.1,623.4 L806.0,623.7
		L807.9,624.0 L809.8,624.2 L811.7,624.2 L813.6,624.2 L815.4,624.0 L817.3,623.8 L819.2,623.4 L821.1,623.0
		L823.0,622.5 L824.9,621.9 L826.8,621.3 L828.7,620.6 L830.5,619.9 L832.4,619.3 L834.3,618.7 L836.2,618.2
		L838.1,617.8 L840.0,617.6 L841.9,617.5 L843.8,617.6 L845.6,617.9 L847.5,618.4 L849.4,619.1 L851.3,620.1
		L853.2,621.2 L855.1,622.6 L857.0,624.0 L858.9,625.6 L860.7,627.3 L862.6,629.0 L864.5,630.7 L866.4,632.3
		L868.3,633.9 L870.2,635.2 L872.1,636.4 L873.9,637.2 L875.8,637.8 L877.7,638.0 L879.6,637.9 L881.5,637.3
		L883.4,636.3 L885.3,634.8 L887.2,632.9 L889.0,630.6 L890.9,627.9 L892.8,624.7 L894.7,621.2 L896.6,617.3
		L898.5,613.2 L900.4,608.8 L902.3,604.3 L904.1,599.7 L906.0,595.2 L907.9,590.7 L909.8,586.4 L911.7,582.4
		L913.6,578.8 L915.5,575.5 L917.4,572.8 L919.2,570.6 L921.1,569.1 L923.0,568.2 L924.9,567.9 L926.8,568.4
		L928.7,569.5 L930.6,571.3 L932.5,573.7 L934.3,576.7 L936.2,580.2 L938.1,584.1 L940.0,588.4 L941.9,593.0
		L943.8,597.8 L945.7,602.7 L947.5,607.7 L949.4,612.6 L951.3,617.4 L953.2,622.1 L955.1,626.5 L957.0,630.7
		L958.9,634.6 L960.8,638.2 L962.6,641.5 L964.5,644.5 L966.4,647.2 L968.3,649.6 L970.2,651.6 L972.1,653.4
		L974.0,654.9 L975.9,656.2 L977.7,657.3 L979.6,658.2 L981.5,659.0 L983.4,659.5 L985.3,660.0 L987.2,660.3
		L989.1,660.5 L991.0,660.7 L992.8,660.7 L994.7,660.7 L996.6,660.6 L998.5,660.4 L1000.4,660.2 L1002.3,659.9
		L1004.2,659.6 L1006.1,659.2 L1007.9,658.7 L1009.8,658.3 L1011.7,657.8 L1013.6,657.3  '/></g>
	</g>
	<g id="gnuplot_plot_2" ><title>Confidence interval</title>
<g fill="none" color="white" stroke="rgb( 31, 120, 180)" stroke-width="1.00" stroke-linecap="butt" stroke-linejoin="miter">
</g>
<g fill="none" color="black" stroke="currentColor" stroke-width="1.00" stroke-linecap="butt" stroke-linejoin="miter">
	<g transform="translate(1089.0,85.0)" stroke="none" fill="black" font-family="Helvetica" font-size="12.00"  text-anchor="start">
		<text><tspan font-family="Helvetica" >Confidence interval</tspan></text>
	</g>
</g>
<g fill="none" color="black" stroke="currentColor" stroke-width="1.00" stroke-linecap="butt" stroke-linejoin="miter">
	<g stroke='none' shape-rendering='crispEdges'>
		<polygon fill = 'rgb( 31, 120, 180)' fill-opacity = '0.250000' points = '1038.5,85.6 1080.7,85.6 1080.7,76.6 1038.5,76.6 '/>
		<polygon fill = 'rgb( 31, 120, 180)' fill-opacity = '0.250000' points = '158.7,607.8 160.6,608.3 162.5,608.7 164.4,609.0 166.3,609.3 168.1,609.4 170.0,609.4 171.9,609.2 173.8,608.9 175.7,608.4 177.6,607.8 179.5,607.0 181.4,605.9 183.2,604.7 185.1,603.3 187.0,601.6
188.9,599.6 190.8,597.3 192.7,594.6 194.6,591.5 196.5,587.9 198.3,583.8 200.2,579.1 202.1,573.7 204.0,567.6 205.9,560.8 207.8,553.2 209.7,544.8 211.6,535.6 213.4,525.7 215.3,515.1 217.2,503.9
219.1,492.2 221.0,480.1 222.9,467.8 224.8,455.4 226.6,443.2 228.5,431.3 230.4,420.0 232.3,409.4 234.2,399.7 236.1,391.1 238.0,383.6 239.9,377.4 241.7,372.6 243.6,369.1 245.5,367.0 247.4,366.2
249.3,366.6 251.2,368.2 253.1,370.7 255.0,374.0 256.8,378.0 258.7,382.5 260.6,387.2 262.5,392.0 264.4,396.7 266.3,401.2 268.2,405.3 270.1,409.0 271.9,412.0 273.8,414.3 275.7,415.9 277.6,416.6
279.5,416.5 281.4,415.4 283.3,413.5 285.2,410.6 287.0,406.9 288.9,402.2 290.8,396.7 292.7,390.3 294.6,383.2 296.5,375.4 298.4,366.9 300.2,357.9 302.1,348.5 304.0,338.7 305.9,328.8 307.8,318.7
309.7,308.8 311.6,299.1 313.5,289.8 315.3,281.0 317.2,273.0 319.1,265.8 321.0,259.5 322.9,254.3 324.8,250.3 326.7,247.6 328.6,246.1 330.4,246.0 332.3,247.2 334.2,249.6 336.1,253.4 338.0,258.3
339.9,264.3 341.8,271.4 343.7,279.3 345.5,288.1 347.4,297.4 349.3,307.3 351.2,317.6 353.1,328.2 355.0,338.9 356.9,349.6 358.8,360.1 360.6,370.5 362.5,380.5 364.4,390.1 366.3,399.1 368.2,407.6
370.1,415.3 372.0,422.3 373.8,428.5 375.7,433.9 377.6,438.5 379.5,442.2 381.4,445.1 383.3,447.2 385.2,448.5 387.1,449.2 388.9,449.3 390.8,449.0 392.7,448.2 394.6,447.1 396.5,445.9 398.4,444.6
400.3,443.3 402.2,442.2 404.0,441.2 405.9,440.4 407.8,439.8 409.7,439.4 411.6,439.2 413.5,439.0 415.4,438.8 417.3,438.4 419.1,437.6 421.0,436.3 422.9,434.3 424.8,431.4 426.7,427.4 428.6,422.2
430.5,415.5 432.4,407.4 434.2,397.6 436.1,386.3 438.0,373.3 439.9,358.7 441.8,342.6 443.7,325.3 445.6,306.8 447.4,287.5 449.3,267.5 451.2,247.3 453.1,227.2 455.0,207.5 456.9,188.7 458.8,170.9
460.7,154.6 462.5,140.1 464.4,127.7 466.3,117.6 468.2,110.0 470.1,105.0 472.0,102.8 473.9,103.3 475.8,106.5 477.6,112.4 479.5,120.8 481.4,131.6 483.3,144.4 485.2,159.1 487.1,175.4 489.0,193.0
490.9,211.6 492.7,230.9 494.6,250.5 496.5,270.2 498.4,289.7 500.3,308.8 502.2,327.2 504.1,344.7 506.0,361.2 507.8,376.5 509.7,390.5 511.6,403.3 513.5,414.7 515.4,424.7 517.3,433.5 519.2,441.1
521.0,447.5 522.9,452.9 524.8,457.4 526.7,461.2 528.6,464.3 530.5,466.9 532.4,469.1 534.3,471.1 536.1,473.0 538.0,474.8 539.9,476.6 541.8,478.4 543.7,480.3 545.6,482.2 547.5,484.2 549.4,486.1
551.2,487.9 553.1,489.6 555.0,491.0 556.9,492.2 558.8,493.0 560.7,493.5 562.6,493.4 564.5,492.9 566.3,491.9 568.2,490.5 570.1,488.6 572.0,486.4 573.9,483.8 575.8,481.1 577.7,478.2 579.5,475.3
581.4,472.5 583.3,469.9 585.2,467.6 587.1,465.7 589.0,464.3 590.9,463.4 592.8,463.2 594.6,463.6 596.5,464.6 598.4,466.2 600.3,468.5 602.2,471.3 604.1,474.6 606.0,478.4 607.9,482.4 609.7,486.7
611.6,491.1 613.5,495.6 615.4,500.0 617.3,504.3 619.2,508.3 621.1,512.1 623.0,515.5 624.8,518.6 626.7,521.3 628.6,523.6 630.5,525.6 632.4,527.2 634.3,528.5 636.2,529.6 638.1,530.5 639.9,531.3
641.8,532.0 643.7,532.7 645.6,533.3 647.5,534.0 649.4,534.8 651.3,535.6 653.1,536.4 655.0,537.3 656.9,538.1 658.8,538.9 660.7,539.6 662.6,540.1 664.5,540.5 666.4,540.6 668.2,540.4 670.1,540.0
672.0,539.2 673.9,538.2 675.8,536.9 677.7,535.3 679.6,533.5 681.5,531.6 683.3,529.6 685.2,527.7 687.1,525.8 689.0,524.1 690.9,522.7 692.8,521.6 694.7,520.8 696.6,520.5 698.4,520.6 700.3,521.3
702.2,522.4 704.1,524.0 706.0,526.1 707.9,528.5 709.8,531.4 711.7,534.5 713.5,537.9 715.4,541.5 717.3,545.2 719.2,549.0 721.1,552.7 723.0,556.5 724.9,560.1 726.7,563.6 728.6,567.0 730.5,570.2
732.4,573.2 734.3,576.1 736.2,578.8 738.1,581.3 740.0,583.8 741.8,586.0 743.7,588.2 745.6,590.3 747.5,592.3 749.4,594.2 751.3,596.0 753.2,597.7 755.1,599.4 756.9,601.0 758.8,602.6 760.7,604.1
762.6,605.4 764.5,606.8 766.4,608.0 768.3,609.1 770.2,610.2 772.0,611.3 773.9,612.2 775.8,613.1 777.7,614.0 779.6,614.8 781.5,615.7 783.4,616.4 785.3,617.2 787.1,618.0 789.0,618.7 790.9,619.4
792.8,620.1 794.7,620.8 796.6,621.4 798.5,622.0 800.3,622.5 802.2,623.0 804.1,623.4 806.0,623.7 807.9,624.0 809.8,624.2 811.7,624.2 813.6,624.2 815.4,624.0 817.3,623.8 819.2,623.4 821.1,623.0
823.0,622.5 824.9,621.9 826.8,621.3 828.7,620.6 830.5,619.9 832.4,619.3 834.3,618.7 836.2,618.2 838.1,617.8 840.0,617.6 841.9,617.5 843.8,617.6 845.6,617.9 847.5,618.4 849.4,619.1 851.3,620.1
853.2,621.2 855.1,622.6 857.0,624.0 858.9,625.6 860.7,627.3 862.6,629.0 864.5,630.7 866.4,632.3 868.3,633.9 870.2,635.2 872.1,636.4 873.9,637.2 875.8,637.8 877.7,638.0 879.6,637.9 881.5,637.3
883.4,636.3 885.3,634.8 887.2,632.9 889.0,630.6 890.9,627.9 892.8,624.7 894.7,621.2 896.6,617.3 898.5,613.2 900.4,608.8 902.3,604.3 904.1,599.7 906.0,595.2 907.9,590.7 909.8,586.4 911.7,582.4
913.6,578.8 915.5,575.5 917.4,572.8 919.2,570.6 921.1,569.1 923.0,568.2 924.9,567.9 924.9,662.4 923.0,662.4 921.1,662.4 919.2,662.4 917.4,662.4 915.5,662.4 913.6,662.4 911.7,662.4 909.8,662.4
907.9,662.4 906.0,662.4 904.1,662.4 902.3,662.4 900.4,662.4 898.5,662.4 896.6,662.4 894.7,662.4 892.8,662.4 890.9,662.4 889.0,662.4 887.2,662.4 885.3,662.4 883.4,662.4 881.5,662.4 879.6,662.4
877.7,662.4 875.8,662.4 873.9,662.4 872.1,662.4 870.2,662.4 868.3,662.4 866.4,662.4 864.5,662.4 862.6,662.4 860.7,662.4 858.9,662.4 857.0,662.4 855.1,662.4 853.2,662.4 851.3,662.4 849.4,662.4
847.5,662.4 845.6,662.4 843.8,662.4 841.9,662.4 840.0,662.4 838.1,662.4 836.2,662.4 834.3,662.4 832.4,662.4 830.5,662.4 828.7,662.4 826.8,662.4 824.9,662.4 823.0,662.4 821.1,662.4 819.2,662.4
817.3,662.4 815.4,662.4 813.6,662.4 811.7,662.4 809.8,662.4 807.9,662.4 806.0,662.4 804.1,662.4 802.2,662.4 800.3,662.4 798.5,662.4 796.6,662.4 794.7,662.4 792.8,662.4 790.9,662.4 789.0,662.4
787.1,662.4 785.3,662.4 783.4,662.4 781.5,662.4 779.6,662.4 777.7,662.4 775.8,662.4 773.9,662.4 772.0,662.4 770.2,662.4 768.3,662.4 766.4,662.4 764.5,662.4 762.6,662.4 760.7,662.4 758.8,662.4
756.9,662.4 755.1,662.4 753.2,662.4 751.3,662.4 749.4,662.4 747.5,662.4 745.6,662.4 743.7,662.4 741.8,662.4 740.0,662.4 738.1,662.4 736.2,662.4 734.3,662.4 732.4,662.4 730.5,662.4 728.6,662.4
726.7,662.4 724.9,662.4 723.0,662.4 721.1,662.4 719.2,662.4 717.3,662.4 715.4,662.4 713.5,662.4 711.7,662.4 709.8,662.4 707.9,662.4 706.0,662.4 704.1,662.4 702.2,662.4 700.3,662.4 698.4,662.4
696.6,662.4 694.7,662.4 692.8,662.4 690.9,662.4 689.0,662.4 687.1,662.4 685.2,662.4 683.3,662.4 681.5,662.4 679.6,662.4 677.7,662.4 675.8,662.4 673.9,662.4 672.0,662.4 670.1,662.4 668.2,662.4
666.4,662.4 664.5,662.4 662.6,662.4 660.7,662.4 658.8,662.4 656.9,662.4 655.0,662.4 653.1,662.4 651.3,662.4 649.4,662.4 647.5,662.4 645.6,662.4 643.7,662.4 641.8,662.4 639.9,662.4 638.1,662.4
636.2,662.4 634.3,662.4 632.4,662.4 630.5,662.4 628.6,662.4 626.7,662.4 624.8,662.4 623.0,662.4 621.1,662.4 619.2,662.4 617.3,662.4 615.4,662.4 613.5,662.4 611.6,662.4 609.7,662.4 607.9,662.4
606.0,662.4 604.1,662.4 602.2,662.4 600.3,662.4 598.4,662.4 596.5,662.4 594.6,662.4 592.8,662.4 590.9,662.4 589.0,662.4 587.1,662.4 585.2,662.4 583.3,662.4 581.4,662.4 579.5,662.4 577.7,662.4
575.8,662.4 573.9,662.4 572.0,662.4 570.1,662.4 568.2,662.4 566.3,662.4 564.5,662.4 562.6,662.4 560.7,662.4 558.8,662.4 556.9,662.4 555.0,662.4 553.1,662.4 551.2,662.4 549.4,662.4 547.5,662.4
545.6,662.4 543.7,662.4 541.8,662.4 539.9,662.4 538.0,662.4 536.1,662.4 534.3,662.4 532.4,662.4 530.5,662.4 528.6,662.4 526.7,662.4 524.8,662.4 522.9,662.4 521.0,662.4 519.2,662.4 517.3,662.4
515.4,662.4 513.5,662.4 511.6,662.4 509.7,662.4 507.8,662.4 506.0,662.4 504.1,662.4 502.2,662.4 500.3,662.4 498.4,662.4 496.5,662.4 494.6,662.4 492.7,662.4 490.9,662.4 489.0,662.4 487.1,662.4
485.2,662.4 483.3,662.4 481.4,662.4 479.5,662.4 477.6,662.4 475.8,662.4 473.9,662.4 472.0,662.4 470.1,662.4 468.2,662.4 466.3,662.4 464.4,662.4 462.5,662.4 460.7,662.4 458.8,662.4 456.9,662.4
455.0,662.4 453.1,662.4 451.2,662.4 449.3,662.4 447.4,662.4 445.6,662.4 443.7,662.4 441.8,662.4 439.9,662.4 438.0,662.4 436.1,662.4 434.2,662.4 432.4,662.4 430.5,662.4 428.6,662.4 426.7,662.4
424.8,662.4 422.9,662.4 421.0,662.4 419.1,662.4 417.3,662.4 415.4,662.4 413.5,662.4 411.6,662.4 409.7,662.4 407.8,662.4 405.9,662.4 404.0,662.4 402.2,662.4 400.3,662.4 398.4,662.4 396.5,662.4
394.6,662.4 392.7,662.4 390.8,662.4 388.9,662.4 387.1,662.4 385.2,662.4 383.3,662.4 381.4,662.4 379.5,662.4 377.6,662.4 375.7,662.4 373.8,662.4 372.0,662.4 370.1,662.4 368.2,662.4 366.3,662.4
364.4,662.4 362.5,662.4 360.6,662.4 358.8,662.4 356.9,662.4 355.0,662.4 353.1,662.4 351.2,662.4 349.3,662.4 347.4,662.4 345.5,662.4 343.7,662.4 341.8,662.4 339.9,662.4 338.0,662.4 336.1,662.4
334.2,662.4 332.3,662.4 330.4,662.4 328.6,662.4 326.7,662.4 324.8,662.4 322.9,662.4 321.0,662.4 319.1,662.4 317.2,662.4 315.3,662.4 313.5,662.4 311.6,662.4 309.7,662.4 307.8,662.4 305.9,662.4
304.0,662.4 302.1,662.4 300.2,662.4 298.4,662.4 296.5,662.4 294.6,662.4 292.7,662.4 290.8,662.4 288.9,662.4 287.0,662.4 285.2,662.4 283.3,662.4 281.4,662.4 279.5,662.4 277.6,662.4 275.7,662.4
273.8,662.4 271.9,662.4 270.1,662.4 268.2,662.4 266.3,662.4 264.4,662.4 262.5,662.4 260.6,662.4 258.7,662.4 256.8,662.4 255.0,662.4 253.1,662.4 251.2,662.4 249.3,662.4 247.4,662.4 245.5,662.4
243.6,662.4 241.7,662.4 239.9,662.4 238.0,662.4 236.1,662.4 234.2,662.4 232.3,662.4 230.4,662.4 228.5,662.4 226.6,662.4 224.8,662.4 222.9,662.4 221.0,662.4 219.1,662.4 217.2,662.4 215.3,662.4
213.4,662.4 211.6,662.4 209.7,662.4 207.8,662.4 205.9,662.4 204.0,662.4 202.1,662.4 200.2,662.4 198.3,662.4 196.5,662.4 194.6,662.4 192.7,662.4 190.8,662.4 188.9,662.4 187.0,662.4 185.1,662.4
183.2,662.4 181.4,662.4 179.5,662.4 177.6,662.4 175.7,662.4 173.8,662.4 171.9,662.4 170.0,662.4 168.1,662.4 166.3,662.4 164.4,662.4 162.5,662.4 160.6,662.4 158.7,662.4 '/>
	</g>
</g>
	</g>
	<g id="gnuplot_plot_3" ><title>Point estimate</title>
<g fill="none" color="white" stroke="rgb( 31, 120, 180)" stroke-width="2.00" stroke-linecap="butt" stroke-linejoin="miter">
</g>
<g fill="none" color="black" stroke="currentColor" stroke-width="2.00" stroke-linecap="butt" stroke-linejoin="miter">
	<g transform="translate(1089.0,103.0)" stroke="none" fill="black" font-family="Helvetica" font-size="12.00"  text-anchor="start">
		<text><tspan font-family="Helvetica" >Point estimate</tspan></text>
	</g>
</g>
<g fill="none" color="black" stroke="currentColor" stroke-width="2.00" stroke-linecap="butt" stroke-linejoin="miter">
	<path stroke='rgb( 31, 120, 180)'  d='M1038.5,99.1 L1080.7,99.1 M461.1,662.4 L461.1,151.3  '/></g>
	</g>
<g fill="none" color="black" stroke="currentColor" stroke-width="2.00" stroke-linecap="butt" stroke-linejoin="miter">
</g>
<g fill="none" color="black" stroke="black" stroke-width="1.00" stroke-linecap="butt" stroke-linejoin="miter">
</g>
<g fill="none" color="black" stroke="currentColor" stroke-width="1.00" stroke-linecap="butt" stroke-linejoin="miter">
	<path stroke='black'  d='M71.9,54.1 L71.9,662.4 L1013.6,662.4 L1013.6,54.1 L71.9,54.1 Z  '/></g>
<g fill="none" color="black" stroke="currentColor" stroke-width="1.00" stroke-linecap="butt" stroke-linejoin="miter">
</g>
</g>
</svg>

