<?xml version="1.0" encoding="utf-8"  standalone="no"?>
<svg 
 viewBox="0 0 1280 720"
 xmlns="http://www.w3.org/2000/svg"
 xmlns:xlink="http://www.w3.org/1999/xlink"
>

<title>Gnuplot</title>
<desc>Produced by GNUPLOT 5.2 patchlevel 6 </desc>

<g id="gnuplot_canvas">

<rect x="0" y="0" width="1280" height="720" fill="none"/>
<defs>

	<circle id='gpDot' r='0.5' stroke-width='0.5' stroke='currentColor'/>
	<path id='gpPt0' stroke-width='0.222' stroke='currentColor' d='M-1,0 h2 M0,-1 v2'/>
	<path id='gpPt1' stroke-width='0.222' stroke='currentColor' d='M-1,-1 L1,1 M1,-1 L-1,1'/>
	<path id='gpPt2' stroke-width='0.222' stroke='currentColor' d='M-1,0 L1,0 M0,-1 L0,1 M-1,-1 L1,1 M-1,1 L1,-1'/>
	<rect id='gpPt3' stroke-width='0.222' stroke='currentColor' x='-1' y='-1' width='2' height='2'/>
	<rect id='gpPt4' stroke-width='0.222' stroke='currentColor' fill='currentColor' x='-1' y='-1' width='2' height='2'/>
	<circle id='gpPt5' stroke-width='0.222' stroke='currentColor' cx='0' cy='0' r='1'/>
	<use xlink:href='#gpPt5' id='gpPt6' fill='currentColor' stroke='none'/>
	<path id='gpPt7' stroke-width='0.222' stroke='currentColor' d='M0,-1.33 L-1.33,0.67 L1.33,0.67 z'/>
	<use xlink:href='#gpPt7' id='gpPt8' fill='currentColor' stroke='none'/>
	<use xlink:href='#gpPt7' id='gpPt9' stroke='currentColor' transform='rotate(180)'/>
	<use xlink:href='#gpPt9' id='gpPt10' fill='currentColor' stroke='none'/>
	<use xlink:href='#gpPt3' id='gpPt11' stroke='currentColor' transform='rotate(45)'/>
	<use xlink:href='#gpPt11' id='gpPt12' fill='currentColor' stroke='none'/>
	<path id='gpPt13' stroke-width='0.222' stroke='currentColor' d='M0,1.330 L1.265,0.411 L0.782,-1.067 L-0.782,-1.076 L-1.265,0.411 z'/>
	<use xlink:href='#gpPt13' id='gpPt14' fill='currentColor' stroke='none'/>
	<filter id='textbox' filterUnits='objectBoundingBox' x='0' y='0' height='1' width='1'>
	  <feFlood flood-color='white' flood-opacity='1' result='bgnd'/>
	  <feComposite in='SourceGraphic' in2='bgnd' operator='atop'/>
	</filter>
	<filter id='greybox' filterUnits='objectBoundingBox' x='0' y='0' height='1' width='1'>
	  <feFlood flood-color='lightgrey' flood-opacity='1' result='grey'/>
	  <feComposite in='SourceGraphic' in2='grey' operator='atop'/>
	</filter>
</defs>
<g fill="none" color="white" stroke="currentColor" stroke-width="1.00" stroke-linecap="butt" stroke-linejoin="miter">
</g>
<g fill="none" color="black" stroke="currentColor" stroke-width="1.00" stroke-linecap="butt" stroke-linejoin="miter">
</g>
<g fill="none" color="black" stroke="black" stroke-width="0.50" stroke-linecap="butt" stroke-linejoin="miter">
</g>
<g fill="none" color="gray" stroke="currentColor" stroke-width="0.50" stroke-linecap="butt" stroke-linejoin="miter">
	<path stroke='gray' stroke-dasharray='2,4' class="gridline"  d='M71.9,644.4 L1255.0,644.4  '/></g>
<g fill="none" color="gray" stroke="gray" stroke-width="1.00" stroke-linecap="butt" stroke-linejoin="miter">
</g>
<g fill="none" color="black" stroke="currentColor" stroke-width="1.00" stroke-linecap="butt" stroke-linejoin="miter">
	<path stroke='black'  d='M71.9,644.4 L80.9,644.4  '/>	<g transform="translate(63.6,648.3)" stroke="none" fill="black" font-family="Helvetica" font-size="12.00"  text-anchor="end">
		<text><tspan font-family="Helvetica" > 0</tspan></text>
	</g>
</g>
<g fill="none" color="black" stroke="currentColor" stroke-width="1.00" stroke-linecap="butt" stroke-linejoin="miter">
</g>
<g fill="none" color="black" stroke="black" stroke-width="0.50" stroke-linecap="butt" stroke-linejoin="miter">
</g>
<g fill="none" color="gray" stroke="currentColor" stroke-width="0.50" stroke-linecap="butt" stroke-linejoin="miter">
	<path stroke='gray' stroke-dasharray='2,4' class="gridline"  d='M71.9,585.4 L1255.0,585.4  '/></g>
<g fill="none" color="gray" stroke="gray" stroke-width="1.00" stroke-linecap="butt" stroke-linejoin="miter">
</g>
<g fill="none" color="black" stroke="currentColor" stroke-width="1.00" stroke-linecap="butt" stroke-linejoin="miter">
	<path stroke='black'  d='M71.9,585.4 L80.9,585.4  '/>	<g transform="translate(63.6,589.3)" stroke="none" fill="black" font-family="Helvetica" font-size="12.00"  text-anchor="end">
		<text><tspan font-family="Helvetica" > 10</tspan></text>
	</g>
</g>
<g fill="none" color="black" stroke="currentColor" stroke-width="1.00" stroke-linecap="butt" stroke-linejoin="miter">
</g>
<g fill="none" color="black" stroke="black" stroke-width="0.50" stroke-linecap="butt" stroke-linejoin="miter">
</g>
<g fill="none" color="gray" stroke="currentColor" stroke-width="0.50" stroke-linecap="butt" stroke-linejoin="miter">
	<path stroke='gray' stroke-dasharray='2,4' class="gridline"  d='M71.9,526.3 L1255.0,526.3  '/></g>
<g fill="none" color="gray" stroke="gray" stroke-width="1.00" stroke-linecap="butt" stroke-linejoin="miter">
</g>
<g fill="none" color="black" stroke="currentColor" stroke-width="1.00" stroke-linecap="butt" stroke-linejoin="miter">
	<path stroke='black'  d='M71.9,526.3 L80.9,526.3  '/>	<g transform="translate(63.6,530.2)" stroke="none" fill="black" font-family="Helvetica" font-size="12.00"  text-anchor="end">
		<text><tspan font-family="Helvetica" > 20</tspan></text>
	</g>
</g>
<g fill="none" color="black" stroke="currentColor" stroke-width="1.00" stroke-linecap="butt" stroke-linejoin="miter">
</g>
<g fill="none" color="black" stroke="black" stroke-width="0.50" stroke-linecap="butt" stroke-linejoin="miter">
</g>
<g fill="none" color="gray" stroke="currentColor" stroke-width="0.50" stroke-linecap="butt" stroke-linejoin="miter">
	<path stroke='gray' stroke-dasharray='2,4' class="gridline"  d='M71.9,467.3 L1255.0,467.3  '/></g>
<g fill="none" color="gray" stroke="gray" stroke-width="1.00" stroke-linecap="butt" stroke-linejoin="miter">
</g>
<g fill="none" color="black" stroke="currentColor" stroke-width="1.00" stroke-linecap="butt" stroke-linejoin="miter">
	<path stroke='black'  d='M71.9,467.3 L80.9,467.3  '/>	<g transform="translate(63.6,471.2)" stroke="none" fill="black" font-family="Helvetica" font-size="12.00"  text-anchor="end">
		<text><tspan font-family="Helvetica" > 30</tspan></text>
	</g>
</g>
<g fill="none" color="black" stroke="currentColor" stroke-width="1.00" stroke-linecap="butt" stroke-linejoin="miter">
</g>
<g fill="none" color="black" stroke="black" stroke-width="0.50" stroke-linecap="butt" stroke-linejoin="miter">
</g>
<g fill="none" color="gray" stroke="currentColor" stroke-width="0.50" stroke-linecap="butt" stroke-linejoin="miter">
	<path stroke='gray' stroke-dasharray='2,4' class="gridline"  d='M71.9,408.3 L1255.0,408.3  '/></g>
<g fill="none" color="gray" stroke="gray" stroke-width="1.00" stroke-linecap="butt" stroke-linejoin="miter">
</g>
<g fill="none" color="black" stroke="currentColor" stroke-width="1.00" stroke-linecap="butt" stroke-linejoin="miter">
	<path stroke='black'  d='M71.9,408.3 L80.9,408.3  '/>	<g transform="translate(63.6,412.2)" stroke="none" fill="black" font-family="Helvetica" font-size="12.00"  text-anchor="end">
		<text><tspan font-family="Helvetica" > 40</tspan></text>
	</g>
</g>
<g fill="none" color="black" stroke="currentColor" stroke-width="1.00" stroke-linecap="butt" stroke-linejoin="miter">
</g>
<g fill="none" color="black" stroke="black" stroke-width="0.50" stroke-linecap="butt" stroke-linejoin="miter">
</g>
<g fill="none" color="gray" stroke="currentColor" stroke-width="0.50" stroke-linecap="butt" stroke-linejoin="miter">
	<path stroke='gray' stroke-dasharray='2,4' class="gridline"  d='M71.9,349.2 L1255.0,349.2  '/></g>
<g fill="none" color="gray" stroke="gray" stroke-width="1.00" stroke-linecap="butt" stroke-linejoin="miter">
</g>
<g fill="none" color="black" stroke="currentColor" stroke-width="1.00" stroke-linecap="butt" stroke-linejoin="miter">
	<path stroke='black'  d='M71.9,349.2 L80.9,349.2  '/>	<g transform="translate(63.6,353.1)" stroke="none" fill="black" font-family="Helvetica" font-size="12.00"  text-anchor="end">
		<text><tspan font-family="Helvetica" > 50</tspan></text>
	</g>
</g>
<g fill="none" color="black" stroke="currentColor" stroke-width="1.00" stroke-linecap="butt" stroke-linejoin="miter">
</g>
<g fill="none" color="black" stroke="black" stroke-width="0.50" stroke-linecap="butt" stroke-linejoin="miter">
</g>
<g fill="none" color="gray" stroke="currentColor" stroke-width="0.50" stroke-linecap="butt" stroke-linejoin="miter">
	<path stroke='gray' stroke-dasharray='2,4' class="gridline"  d='M71.9,290.2 L1255.0,290.2  '/></g>
<g fill="none" color="gray" stroke="gray" stroke-width="1.00" stroke-linecap="butt" stroke-linejoin="miter">
</g>
<g fill="none" color="black" stroke="currentColor" stroke-width="1.00" stroke-linecap="butt" stroke-linejoin="miter">
	<path stroke='black'  d='M71.9,290.2 L80.9,290.2  '/>	<g transform="translate(63.6,294.1)" stroke="none" fill="black" font-family="Helvetica" font-size="12.00"  text-anchor="end">
		<text><tspan font-family="Helvetica" > 60</tspan></text>
	</g>
</g>
<g fill="none" color="black" stroke="currentColor" stroke-width="1.00" stroke-linecap="butt" stroke-linejoin="miter">
</g>
<g fill="none" color="black" stroke="black" stroke-width="0.50" stroke-linecap="butt" stroke-linejoin="miter">
</g>
<g fill="none" color="gray" stroke="currentColor" stroke-width="0.50" stroke-linecap="butt" stroke-linejoin="miter">
	<path stroke='gray' stroke-dasharray='2,4' class="gridline"  d='M71.9,231.2 L1255.0,231.2  '/></g>
<g fill="none" color="gray" stroke="gray" stroke-width="1.00" stroke-linecap="butt" stroke-linejoin="miter">
</g>
<g fill="none" color="black" stroke="currentColor" stroke-width="1.00" stroke-linecap="butt" stroke-linejoin="miter">
	<path stroke='black'  d='M71.9,231.2 L80.9,231.2  '/>	<g transform="translate(63.6,235.1)" stroke="none" fill="black" font-family="Helvetica" font-size="12.00"  text-anchor="end">
		<text><tspan font-family="Helvetica" > 70</tspan></text>
	</g>
</g>
<g fill="none" color="black" stroke="currentColor" stroke-width="1.00" stroke-linecap="butt" stroke-linejoin="miter">
</g>
<g fill="none" color="black" stroke="black" stroke-width="0.50" stroke-linecap="butt" stroke-linejoin="miter">
</g>
<g fill="none" color="gray" stroke="currentColor" stroke-width="0.50" stroke-linecap="butt" stroke-linejoin="miter">
	<path stroke='gray' stroke-dasharray='2,4' class="gridline"  d='M71.9,172.2 L1255.0,172.2  '/></g>
<g fill="none" color="gray" stroke="gray" stroke-width="1.00" stroke-linecap="butt" stroke-linejoin="miter">
</g>
<g fill="none" color="black" stroke="currentColor" stroke-width="1.00" stroke-linecap="butt" stroke-linejoin="miter">
	<path stroke='black'  d='M71.9,172.2 L80.9,172.2  '/>	<g transform="translate(63.6,176.1)" stroke="none" fill="black" font-family="Helvetica" font-size="12.00"  text-anchor="end">
		<text><tspan font-family="Helvetica" > 80</tspan></text>
	</g>
</g>
<g fill="none" color="black" stroke="currentColor" stroke-width="1.00" stroke-linecap="butt" stroke-linejoin="miter">
</g>
<g fill="none" color="black" stroke="black" stroke-width="0.50" stroke-linecap="butt" stroke-linejoin="miter">
</g>
<g fill="none" color="gray" stroke="currentColor" stroke-width="0.50" stroke-linecap="butt" stroke-linejoin="miter">
	<path stroke='gray' stroke-dasharray='2,4' class="gridline"  d='M71.9,113.1 L80.2,113.1 M296.7,113.1 L1255.0,113.1  '/></g>
<g fill="none" color="gray" stroke="gray" stroke-width="1.00" stroke-linecap="butt" stroke-linejoin="miter">
</g>
<g fill="none" color="black" stroke="currentColor" stroke-width="1.00" stroke-linecap="butt" stroke-linejoin="miter">
	<path stroke='black'  d='M71.9,113.1 L80.9,113.1  '/>	<g transform="translate(63.6,117.0)" stroke="none" fill="black" font-family="Helvetica" font-size="12.00"  text-anchor="end">
		<text><tspan font-family="Helvetica" > 90</tspan></text>
	</g>
</g>
<g fill="none" color="black" stroke="currentColor" stroke-width="1.00" stroke-linecap="butt" stroke-linejoin="miter">
</g>
<g fill="none" color="black" stroke="black" stroke-width="0.50" stroke-linecap="butt" stroke-linejoin="miter">
</g>
<g fill="none" color="gray" stroke="currentColor" stroke-width="0.50" stroke-linecap="butt" stroke-linejoin="miter">
	<path stroke='gray' stroke-dasharray='2,4' class="gridline"  d='M71.9,54.1 L1255.0,54.1  '/></g>
<g fill="none" color="gray" stroke="gray" stroke-width="1.00" stroke-linecap="butt" stroke-linejoin="miter">
</g>
<g fill="none" color="black" stroke="currentColor" stroke-width="1.00" stroke-linecap="butt" stroke-linejoin="miter">
	<path stroke='black'  d='M71.9,54.1 L80.9,54.1  '/>	<g transform="translate(63.6,58.0)" stroke="none" fill="black" font-family="Helvetica" font-size="12.00"  text-anchor="end">
		<text><tspan font-family="Helvetica" > 100</tspan></text>
	</g>
</g>
<g fill="none" color="black" stroke="currentColor" stroke-width="1.00" stroke-linecap="butt" stroke-linejoin="miter">
</g>
<g fill="none" color="black" stroke="black" stroke-width="0.50" stroke-linecap="butt" stroke-linejoin="miter">
</g>
<g fill="none" color="gray" stroke="currentColor" stroke-width="0.50" stroke-linecap="butt" stroke-linejoin="miter">
	<path stroke='gray' stroke-dasharray='2,4' class="gridline"  d='M71.9,644.4 L71.9,54.1  '/></g>
<g fill="none" color="gray" stroke="gray" stroke-width="1.00" stroke-linecap="butt" stroke-linejoin="miter">
</g>
<g fill="none" color="black" stroke="currentColor" stroke-width="1.00" stroke-linecap="butt" stroke-linejoin="miter">
	<path stroke='black'  d='M71.9,644.4 L71.9,635.4  '/>	<g transform="translate(71.9,666.3)" stroke="none" fill="black" font-family="Helvetica" font-size="12.00"  text-anchor="middle">
		<text><tspan font-family="Helvetica" > 0</tspan></text>
	</g>
</g>
<g fill="none" color="black" stroke="currentColor" stroke-width="1.00" stroke-linecap="butt" stroke-linejoin="miter">
</g>
<g fill="none" color="black" stroke="black" stroke-width="0.50" stroke-linecap="butt" stroke-linejoin="miter">
</g>
<g fill="none" color="gray" stroke="currentColor" stroke-width="0.50" stroke-linecap="butt" stroke-linejoin="miter">
	<path stroke='gray' stroke-dasharray='2,4' class="gridline"  d='M219.8,644.4 L219.8,117.1 M219.8,63.1 L219.8,54.1  '/></g>
<g fill="none" color="gray" stroke="gray" stroke-width="1.00" stroke-linecap="butt" stroke-linejoin="miter">
</g>
<g fill="none" color="black" stroke="currentColor" stroke-width="1.00" stroke-linecap="butt" stroke-linejoin="miter">
	<path stroke='black'  d='M219.8,644.4 L219.8,635.4  '/>	<g transform="translate(219.8,666.3)" stroke="none" fill="black" font-family="Helvetica" font-size="12.00"  text-anchor="middle">
		<text><tspan font-family="Helvetica" > 0.5</tspan></text>
	</g>
</g>
<g fill="none" color="black" stroke="currentColor" stroke-width="1.00" stroke-linecap="butt" stroke-linejoin="miter">
</g>
<g fill="none" color="black" stroke="black" stroke-width="0.50" stroke-linecap="butt" stroke-linejoin="miter">
</g>
<g fill="none" color="gray" stroke="currentColor" stroke-width="0.50" stroke-linecap="butt" stroke-linejoin="miter">
	<path stroke='gray' stroke-dasharray='2,4' class="gridline"  d='M367.7,644.4 L367.7,54.1  '/></g>
<g fill="none" color="gray" stroke="gray" stroke-width="1.00" stroke-linecap="butt" stroke-linejoin="miter">
</g>
<g fill="none" color="black" stroke="currentColor" stroke-width="1.00" stroke-linecap="butt" stroke-linejoin="miter">
	<path stroke='black'  d='M367.7,644.4 L367.7,635.4  '/>	<g transform="translate(367.7,666.3)" stroke="none" fill="black" font-family="Helvetica" font-size="12.00"  text-anchor="middle">
		<text><tspan font-family="Helvetica" > 1</tspan></text>
	</g>
</g>
<g fill="none" color="black" stroke="currentColor" stroke-width="1.00" stroke-linecap="butt" stroke-linejoin="miter">
</g>
<g fill="none" color="black" stroke="black" stroke-width="0.50" stroke-linecap="butt" stroke-linejoin="miter">
</g>
<g fill="none" color="gray" stroke="currentColor" stroke-width="0.50" stroke-linecap="butt" stroke-linejoin="miter">
	<path stroke='gray' stroke-dasharray='2,4' class="gridline"  d='M515.6,644.4 L515.6,54.1  '/></g>
<g fill="none" color="gray" stroke="gray" stroke-width="1.00" stroke-linecap="butt" stroke-linejoin="miter">
</g>
<g fill="none" color="black" stroke="currentColor" stroke-width="1.00" stroke-linecap="butt" stroke-linejoin="miter">
	<path stroke='black'  d='M515.6,644.4 L515.6,635.4  '/>	<g transform="translate(515.6,666.3)" stroke="none" fill="black" font-family="Helvetica" font-size="12.00"  text-anchor="middle">
		<text><tspan font-family="Helvetica" > 1.5</tspan></text>
	</g>
</g>
<g fill="none" color="black" stroke="currentColor" stroke-width="1.00" stroke-linecap="butt" stroke-linejoin="miter">
</g>
<g fill="none" color="black" stroke="black" stroke-width="0.50" stroke-linecap="butt" stroke-linejoin="miter">
</g>
<g fill="none" color="gray" stroke="currentColor" stroke-width="0.50" stroke-linecap="butt" stroke-linejoin="miter">
	<path stroke='gray' stroke-dasharray='2,4' class="gridline"  d='M663.5,644.4 L663.5,54.1  '/></g>
<g fill="none" color="gray" stroke="gray" stroke-width="1.00" stroke-linecap="butt" stroke-linejoin="miter">
</g>
<g fill="none" color="black" stroke="currentColor" stroke-width="1.00" stroke-linecap="butt" stroke-linejoin="miter">
	<path stroke='black'  d='M663.5,644.4 L663.5,635.4  '/>	<g transform="translate(663.5,666.3)" stroke="none" fill="black" font-family="Helvetica" font-size="12.00"  text-anchor="middle">
		<text><tspan font-family="Helvetica" > 2</tspan></text>
	</g>
</g>
<g fill="none" color="black" stroke="currentColor" stroke-width="1.00" stroke-linecap="butt" stroke-linejoin="miter">
</g>
<g fill="none" color="black" stroke="black" stroke-width="0.50" stroke-linecap="butt" stroke-linejoin="miter">
</g>
<g fill="none" color="gray" stroke="currentColor" stroke-width="0.50" stroke-linecap="butt" stroke-linejoin="miter">
	<path stroke='gray' stroke-dasharray='2,4' class="gridline"  d='M811.3,644.4 L811.3,54.1  '/></g>
<g fill="none" color="gray" stroke="gray" stroke-width="1.00" stroke-linecap="butt" stroke-linejoin="miter">
</g>
<g fill="none" color="black" stroke="currentColor" stroke-width="1.00" stroke-linecap="butt" stroke-linejoin="miter">
	<path stroke='black'  d='M811.3,644.4 L811.3,635.4  '/>	<g transform="translate(811.3,666.3)" stroke="none" fill="black" font-family="Helvetica" font-size="12.00"  text-anchor="middle">
		<text><tspan font-family="Helvetica" > 2.5</tspan></text>
	</g>
</g>
<g fill="none" color="black" stroke="currentColor" stroke-width="1.00" stroke-linecap="butt" stroke-linejoin="miter">
</g>
<g fill="none" color="black" stroke="black" stroke-width="0.50" stroke-linecap="butt" stroke-linejoin="miter">
</g>
<g fill="none" color="gray" stroke="currentColor" stroke-width="0.50" stroke-linecap="butt" stroke-linejoin="miter">
	<path stroke='gray' stroke-dasharray='2,4' class="gridline"  d='M959.2,644.4 L959.2,54.1  '/></g>
<g fill="none" color="gray" stroke="gray" stroke-width="1.00" stroke-linecap="butt" stroke-linejoin="miter">
</g>
<g fill="none" color="black" stroke="currentColor" stroke-width="1.00" stroke-linecap="butt" stroke-linejoin="miter">
	<path stroke='black'  d='M959.2,644.4 L959.2,635.4  '/>	<g transform="translate(959.2,666.3)" stroke="none" fill="black" font-family="Helvetica" font-size="12.00"  text-anchor="middle">
		<text><tspan font-family="Helvetica" > 3</tspan></text>
	</g>
</g>
<g fill="none" color="black" stroke="currentColor" stroke-width="1.00" stroke-linecap="butt" stroke-linejoin="miter">
</g>
<g fill="none" color="black" stroke="black" stroke-width="0.50" stroke-linecap="butt" stroke-linejoin="miter">
</g>
<g fill="none" color="gray" stroke="currentColor" stroke-width="0.50" stroke-linecap="butt" stroke-linejoin="miter">
	<path stroke='gray' stroke-dasharray='2,4' class="gridline"  d='M1107.1,644.4 L1107.1,54.1  '/></g>
<g fill="none" color="gray" stroke="gray" stroke-width="1.00" stroke-linecap="butt" stroke-linejoin="miter">
</g>
<g fill="none" color="black" stroke="currentColor" stroke-width="1.00" stroke-linecap="butt" stroke-linejoin="miter">
	<path stroke='black'  d='M1107.1,644.4 L1107.1,635.4  '/>	<g transform="translate(1107.1,666.3)" stroke="none" fill="black" font-family="Helvetica" font-size="12.00"  text-anchor="middle">
		<text><tspan font-family="Helvetica" > 3.5</tspan></text>
	</g>
</g>
<g fill="none" color="black" stroke="currentColor" stroke-width="1.00" stroke-linecap="butt" stroke-linejoin="miter">
</g>
<g fill="none" color="black" stroke="black" stroke-width="0.50" stroke-linecap="butt" stroke-linejoin="miter">
</g>
<g fill="none" color="gray" stroke="currentColor" stroke-width="0.50" stroke-linecap="butt" stroke-linejoin="miter">
	<path stroke='gray' stroke-dasharray='2,4' class="gridline"  d='M1255.0,644.4 L1255.0,54.1  '/></g>
<g fill="none" color="gray" stroke="gray" stroke-width="1.00" stroke-linecap="butt" stroke-linejoin="miter">
</g>
<g fill="none" color="black" stroke="currentColor" stroke-width="1.00" stroke-linecap="butt" stroke-linejoin="miter">
	<path stroke='black'  d='M1255.0,644.4 L1255.0,635.4  '/>	<g transform="translate(1255.0,666.3)" stroke="none" fill="black" font-family="Helvetica" font-size="12.00"  text-anchor="middle">
		<text><tspan font-family="Helvetica" > 4</tspan></text>
	</g>
</g>
<g fill="none" color="black" stroke="currentColor" stroke-width="1.00" stroke-linecap="butt" stroke-linejoin="miter">
</g>
<g fill="none" color="black" stroke="currentColor" stroke-width="1.00" stroke-linecap="butt" stroke-linejoin="miter">
	<path stroke='black'  d='M71.9,54.1 L71.9,644.4 L1255.0,644.4 L1255.0,54.1 L71.9,54.1 Z  '/></g>
<g fill="none" color="black" stroke="currentColor" stroke-width="1.00" stroke-linecap="butt" stroke-linejoin="miter">
	<g transform="translate(16.3,349.3) rotate(270)" stroke="none" fill="black" font-family="Helvetica" font-size="12.00"  text-anchor="middle">
		<text><tspan font-family="Helvetica" >Total sample time (ms)</tspan></text>
	</g>
</g>
<g fill="none" color="black" stroke="currentColor" stroke-width="1.00" stroke-linecap="butt" stroke-linejoin="miter">
	<g transform="translate(663.4,693.3)" stroke="none" fill="black" font-family="Helvetica" font-size="12.00"  text-anchor="middle">
		<text><tspan font-family="Helvetica" >Iterations (x 10</tspan><tspan font-family="Helvetica"  font-size="9.6" dy="-6.00px">3</tspan><tspan font-family="Helvetica"  font-size="12.0" dy="6.00px">)</tspan></text>
	</g>
</g>
<g fill="none" color="black" stroke="currentColor" stroke-width="1.00" stroke-linecap="butt" stroke-linejoin="miter">
	<g transform="translate(663.4,31.0)" stroke="none" fill="black" font-family="Helvetica" font-size="12.00"  text-anchor="middle">
		<text><tspan font-family="Helvetica" >snapshot_restore_with_dense/Dense: Entire region + process_vm_writev/46</tspan></text>
	</g>
</g>
	<g id="gnuplot_plot_1" ><title>Sample</title>
<g fill="none" color="black" stroke="currentColor" stroke-width="1.00" stroke-linecap="butt" stroke-linejoin="miter">
	<g transform="translate(139.0,76.0)" stroke="none" fill="black" font-family="Helvetica" font-size="12.00"  text-anchor="start">
		<text><tspan font-family="Helvetica" >Sample</tspan></text>
	</g>
</g>
<g fill="none" color="black" stroke="currentColor" stroke-width="1.00" stroke-linecap="butt" stroke-linejoin="miter">
	<use xlink:href='#gpPt6' transform='translate(82.8,638.3) scale(2.25)' color='rgb( 31, 120, 180)'/>
	<use xlink:href='#gpPt6' transform='translate(93.8,632.7) scale(2.25)' color='rgb( 31, 120, 180)'/>
	<use xlink:href='#gpPt6' transform='translate(104.7,626.7) scale(2.25)' color='rgb( 31, 120, 180)'/>
	<use xlink:href='#gpPt6' transform='translate(115.7,620.9) scale(2.25)' color='rgb( 31, 120, 180)'/>
	<use xlink:href='#gpPt6' transform='translate(126.6,614.5) scale(2.25)' color='rgb( 31, 120, 180)'/>
	<use xlink:href='#gpPt6' transform='translate(137.6,609.1) scale(2.25)' color='rgb( 31, 120, 180)'/>
	<use xlink:href='#gpPt6' transform='translate(148.5,600.5) scale(2.25)' color='rgb( 31, 120, 180)'/>
	<use xlink:href='#gpPt6' transform='translate(159.4,594.6) scale(2.25)' color='rgb( 31, 120, 180)'/>
	<use xlink:href='#gpPt6' transform='translate(170.4,589.9) scale(2.25)' color='rgb( 31, 120, 180)'/>
	<use xlink:href='#gpPt6' transform='translate(181.3,585.0) scale(2.25)' color='rgb( 31, 120, 180)'/>
	<use xlink:href='#gpPt6' transform='translate(192.3,579.9) scale(2.25)' color='rgb( 31, 120, 180)'/>
	<use xlink:href='#gpPt6' transform='translate(203.2,574.1) scale(2.25)' color='rgb( 31, 120, 180)'/>
	<use xlink:href='#gpPt6' transform='translate(214.2,568.5) scale(2.25)' color='rgb( 31, 120, 180)'/>
	<use xlink:href='#gpPt6' transform='translate(225.1,562.7) scale(2.25)' color='rgb( 31, 120, 180)'/>
	<use xlink:href='#gpPt6' transform='translate(236.1,556.9) scale(2.25)' color='rgb( 31, 120, 180)'/>
	<use xlink:href='#gpPt6' transform='translate(247.0,549.7) scale(2.25)' color='rgb( 31, 120, 180)'/>
	<use xlink:href='#gpPt6' transform='translate(257.9,544.9) scale(2.25)' color='rgb( 31, 120, 180)'/>
	<use xlink:href='#gpPt6' transform='translate(268.9,539.4) scale(2.25)' color='rgb( 31, 120, 180)'/>
	<use xlink:href='#gpPt6' transform='translate(279.8,533.2) scale(2.25)' color='rgb( 31, 120, 180)'/>
	<use xlink:href='#gpPt6' transform='translate(290.8,527.2) scale(2.25)' color='rgb( 31, 120, 180)'/>
	<use xlink:href='#gpPt6' transform='translate(301.7,521.4) scale(2.25)' color='rgb( 31, 120, 180)'/>
	<use xlink:href='#gpPt6' transform='translate(312.7,515.7) scale(2.25)' color='rgb( 31, 120, 180)'/>
	<use xlink:href='#gpPt6' transform='translate(323.6,510.0) scale(2.25)' color='rgb( 31, 120, 180)'/>
	<use xlink:href='#gpPt6' transform='translate(334.5,504.2) scale(2.25)' color='rgb( 31, 120, 180)'/>
	<use xlink:href='#gpPt6' transform='translate(345.5,497.7) scale(2.25)' color='rgb( 31, 120, 180)'/>
	<use xlink:href='#gpPt6' transform='translate(356.4,491.8) scale(2.25)' color='rgb( 31, 120, 180)'/>
	<use xlink:href='#gpPt6' transform='translate(367.4,486.6) scale(2.25)' color='rgb( 31, 120, 180)'/>
	<use xlink:href='#gpPt6' transform='translate(378.3,481.0) scale(2.25)' color='rgb( 31, 120, 180)'/>
	<use xlink:href='#gpPt6' transform='translate(389.3,475.1) scale(2.25)' color='rgb( 31, 120, 180)'/>
	<use xlink:href='#gpPt6' transform='translate(400.2,468.6) scale(2.25)' color='rgb( 31, 120, 180)'/>
	<use xlink:href='#gpPt6' transform='translate(411.2,463.3) scale(2.25)' color='rgb( 31, 120, 180)'/>
	<use xlink:href='#gpPt6' transform='translate(422.1,457.5) scale(2.25)' color='rgb( 31, 120, 180)'/>
	<use xlink:href='#gpPt6' transform='translate(433.0,450.5) scale(2.25)' color='rgb( 31, 120, 180)'/>
	<use xlink:href='#gpPt6' transform='translate(444.0,445.4) scale(2.25)' color='rgb( 31, 120, 180)'/>
	<use xlink:href='#gpPt6' transform='translate(454.9,439.9) scale(2.25)' color='rgb( 31, 120, 180)'/>
	<use xlink:href='#gpPt6' transform='translate(465.9,433.9) scale(2.25)' color='rgb( 31, 120, 180)'/>
	<use xlink:href='#gpPt6' transform='translate(476.8,428.6) scale(2.25)' color='rgb( 31, 120, 180)'/>
	<use xlink:href='#gpPt6' transform='translate(487.8,422.5) scale(2.25)' color='rgb( 31, 120, 180)'/>
	<use xlink:href='#gpPt6' transform='translate(498.7,416.1) scale(2.25)' color='rgb( 31, 120, 180)'/>
	<use xlink:href='#gpPt6' transform='translate(509.6,410.8) scale(2.25)' color='rgb( 31, 120, 180)'/>
	<use xlink:href='#gpPt6' transform='translate(520.6,404.5) scale(2.25)' color='rgb( 31, 120, 180)'/>
	<use xlink:href='#gpPt6' transform='translate(531.5,398.8) scale(2.25)' color='rgb( 31, 120, 180)'/>
	<use xlink:href='#gpPt6' transform='translate(542.5,393.3) scale(2.25)' color='rgb( 31, 120, 180)'/>
	<use xlink:href='#gpPt6' transform='translate(553.4,386.8) scale(2.25)' color='rgb( 31, 120, 180)'/>
	<use xlink:href='#gpPt6' transform='translate(564.4,381.7) scale(2.25)' color='rgb( 31, 120, 180)'/>
	<use xlink:href='#gpPt6' transform='translate(575.3,374.8) scale(2.25)' color='rgb( 31, 120, 180)'/>
	<use xlink:href='#gpPt6' transform='translate(586.3,369.5) scale(2.25)' color='rgb( 31, 120, 180)'/>
	<use xlink:href='#gpPt6' transform='translate(597.2,363.6) scale(2.25)' color='rgb( 31, 120, 180)'/>
	<use xlink:href='#gpPt6' transform='translate(608.1,357.9) scale(2.25)' color='rgb( 31, 120, 180)'/>
	<use xlink:href='#gpPt6' transform='translate(619.1,352.0) scale(2.25)' color='rgb( 31, 120, 180)'/>
	<use xlink:href='#gpPt6' transform='translate(630.0,346.1) scale(2.25)' color='rgb( 31, 120, 180)'/>
	<use xlink:href='#gpPt6' transform='translate(641.0,340.3) scale(2.25)' color='rgb( 31, 120, 180)'/>
	<use xlink:href='#gpPt6' transform='translate(651.9,334.1) scale(2.25)' color='rgb( 31, 120, 180)'/>
	<use xlink:href='#gpPt6' transform='translate(662.9,327.2) scale(2.25)' color='rgb( 31, 120, 180)'/>
	<use xlink:href='#gpPt6' transform='translate(673.8,318.4) scale(2.25)' color='rgb( 31, 120, 180)'/>
	<use xlink:href='#gpPt6' transform='translate(684.7,317.2) scale(2.25)' color='rgb( 31, 120, 180)'/>
	<use xlink:href='#gpPt6' transform='translate(695.7,311.9) scale(2.25)' color='rgb( 31, 120, 180)'/>
	<use xlink:href='#gpPt6' transform='translate(706.6,305.8) scale(2.25)' color='rgb( 31, 120, 180)'/>
	<use xlink:href='#gpPt6' transform='translate(717.6,299.8) scale(2.25)' color='rgb( 31, 120, 180)'/>
	<use xlink:href='#gpPt6' transform='translate(728.5,293.4) scale(2.25)' color='rgb( 31, 120, 180)'/>
	<use xlink:href='#gpPt6' transform='translate(739.5,288.1) scale(2.25)' color='rgb( 31, 120, 180)'/>
	<use xlink:href='#gpPt6' transform='translate(750.4,283.0) scale(2.25)' color='rgb( 31, 120, 180)'/>
	<use xlink:href='#gpPt6' transform='translate(761.4,276.6) scale(2.25)' color='rgb( 31, 120, 180)'/>
	<use xlink:href='#gpPt6' transform='translate(772.3,270.9) scale(2.25)' color='rgb( 31, 120, 180)'/>
	<use xlink:href='#gpPt6' transform='translate(783.2,264.4) scale(2.25)' color='rgb( 31, 120, 180)'/>
	<use xlink:href='#gpPt6' transform='translate(794.2,258.2) scale(2.25)' color='rgb( 31, 120, 180)'/>
	<use xlink:href='#gpPt6' transform='translate(805.1,252.5) scale(2.25)' color='rgb( 31, 120, 180)'/>
	<use xlink:href='#gpPt6' transform='translate(816.1,246.3) scale(2.25)' color='rgb( 31, 120, 180)'/>
	<use xlink:href='#gpPt6' transform='translate(827.0,240.7) scale(2.25)' color='rgb( 31, 120, 180)'/>
	<use xlink:href='#gpPt6' transform='translate(838.0,235.5) scale(2.25)' color='rgb( 31, 120, 180)'/>
	<use xlink:href='#gpPt6' transform='translate(848.9,229.8) scale(2.25)' color='rgb( 31, 120, 180)'/>
	<use xlink:href='#gpPt6' transform='translate(859.8,224.2) scale(2.25)' color='rgb( 31, 120, 180)'/>
	<use xlink:href='#gpPt6' transform='translate(870.8,218.3) scale(2.25)' color='rgb( 31, 120, 180)'/>
	<use xlink:href='#gpPt6' transform='translate(881.7,211.9) scale(2.25)' color='rgb( 31, 120, 180)'/>
	<use xlink:href='#gpPt6' transform='translate(892.7,206.0) scale(2.25)' color='rgb( 31, 120, 180)'/>
	<use xlink:href='#gpPt6' transform='translate(903.6,200.2) scale(2.25)' color='rgb( 31, 120, 180)'/>
	<use xlink:href='#gpPt6' transform='translate(914.6,195.3) scale(2.25)' color='rgb( 31, 120, 180)'/>
	<use xlink:href='#gpPt6' transform='translate(925.5,188.9) scale(2.25)' color='rgb( 31, 120, 180)'/>
	<use xlink:href='#gpPt6' transform='translate(936.5,182.6) scale(2.25)' color='rgb( 31, 120, 180)'/>
	<use xlink:href='#gpPt6' transform='translate(947.4,176.7) scale(2.25)' color='rgb( 31, 120, 180)'/>
	<use xlink:href='#gpPt6' transform='translate(958.3,171.7) scale(2.25)' color='rgb( 31, 120, 180)'/>
	<use xlink:href='#gpPt6' transform='translate(969.3,165.6) scale(2.25)' color='rgb( 31, 120, 180)'/>
	<use xlink:href='#gpPt6' transform='translate(980.2,159.3) scale(2.25)' color='rgb( 31, 120, 180)'/>
	<use xlink:href='#gpPt6' transform='translate(991.2,153.4) scale(2.25)' color='rgb( 31, 120, 180)'/>
	<use xlink:href='#gpPt6' transform='translate(1002.1,148.0) scale(2.25)' color='rgb( 31, 120, 180)'/>
	<use xlink:href='#gpPt6' transform='translate(1013.1,140.8) scale(2.25)' color='rgb( 31, 120, 180)'/>
	<use xlink:href='#gpPt6' transform='translate(1024.0,135.9) scale(2.25)' color='rgb( 31, 120, 180)'/>
	<use xlink:href='#gpPt6' transform='translate(1034.9,130.1) scale(2.25)' color='rgb( 31, 120, 180)'/>
	<use xlink:href='#gpPt6' transform='translate(1045.9,124.5) scale(2.25)' color='rgb( 31, 120, 180)'/>
	<use xlink:href='#gpPt6' transform='translate(1056.8,119.0) scale(2.25)' color='rgb( 31, 120, 180)'/>
	<use xlink:href='#gpPt6' transform='translate(1067.8,63.8) scale(2.25)' color='rgb( 31, 120, 180)'/>
	<use xlink:href='#gpPt6' transform='translate(1078.7,102.6) scale(2.25)' color='rgb( 31, 120, 180)'/>
	<use xlink:href='#gpPt6' transform='translate(1089.7,101.2) scale(2.25)' color='rgb( 31, 120, 180)'/>
	<use xlink:href='#gpPt6' transform='translate(1100.6,94.2) scale(2.25)' color='rgb( 31, 120, 180)'/>
	<use xlink:href='#gpPt6' transform='translate(1111.5,90.1) scale(2.25)' color='rgb( 31, 120, 180)'/>
	<use xlink:href='#gpPt6' transform='translate(1122.5,83.8) scale(2.25)' color='rgb( 31, 120, 180)'/>
	<use xlink:href='#gpPt6' transform='translate(1133.4,77.8) scale(2.25)' color='rgb( 31, 120, 180)'/>
	<use xlink:href='#gpPt6' transform='translate(1144.4,71.7) scale(2.25)' color='rgb( 31, 120, 180)'/>
	<use xlink:href='#gpPt6' transform='translate(1155.3,65.5) scale(2.25)' color='rgb( 31, 120, 180)'/>
	<use xlink:href='#gpPt6' transform='translate(1166.3,60.7) scale(2.25)' color='rgb( 31, 120, 180)'/>
	<use xlink:href='#gpPt6' transform='translate(109.6,72.1) scale(2.25)' color='rgb( 31, 120, 180)'/>
</g>
	</g>
	<g id="gnuplot_plot_2" ><title>Linear regression</title>
<g fill="none" color="white" stroke="rgb( 31, 120, 180)" stroke-width="2.00" stroke-linecap="butt" stroke-linejoin="miter">
</g>
<g fill="none" color="black" stroke="currentColor" stroke-width="2.00" stroke-linecap="butt" stroke-linejoin="miter">
	<g transform="translate(139.0,94.0)" stroke="none" fill="black" font-family="Helvetica" font-size="12.00"  text-anchor="start">
		<text><tspan font-family="Helvetica" >Linear regression</tspan></text>
	</g>
</g>
<g fill="none" color="black" stroke="currentColor" stroke-width="2.00" stroke-linecap="butt" stroke-linejoin="miter">
	<path stroke='rgb( 31, 120, 180)'  d='M88.5,90.1 L130.7,90.1 M71.9,644.4 L1166.3,58.5  '/></g>
	</g>
	<g id="gnuplot_plot_3" ><title>Confidence interval</title>
<g fill="none" color="white" stroke="rgb( 31, 120, 180)" stroke-width="1.00" stroke-linecap="butt" stroke-linejoin="miter">
</g>
<g fill="none" color="black" stroke="currentColor" stroke-width="1.00" stroke-linecap="butt" stroke-linejoin="miter">
	<g transform="translate(139.0,112.0)" stroke="none" fill="black" font-family="Helvetica" font-size="12.00"  text-anchor="start">
		<text><tspan font-family="Helvetica" >Confidence interval</tspan></text>
	</g>
</g>
<g fill="none" color="black" stroke="currentColor" stroke-width="1.00" stroke-linecap="butt" stroke-linejoin="miter">
	<g stroke='none' shape-rendering='crispEdges'>
		<polygon fill = 'rgb( 31, 120, 180)' fill-opacity = '0.250000' points = '88.5,112.6 130.7,112.6 130.7,103.6 88.5,103.6 '/>
		<polygon fill = 'rgb( 31, 120, 180)' fill-opacity = '0.250000' points = '71.9,644.4 71.9,644.4 71.9,644.4 '/>
		<polygon fill = 'rgb( 31, 120, 180)' fill-opacity = '0.250000' points = '71.9,644.4 1166.3,60.0 1166.3,55.5 '/>
	</g>
</g>
	</g>
<g fill="none" color="white" stroke="rgb( 31, 120, 180)" stroke-width="2.00" stroke-linecap="butt" stroke-linejoin="miter">
</g>
<g fill="none" color="black" stroke="currentColor" stroke-width="2.00" stroke-linecap="butt" stroke-linejoin="miter">
</g>
<g fill="none" color="black" stroke="black" stroke-width="1.00" stroke-linecap="butt" stroke-linejoin="miter">
</g>
<g fill="none" color="black" stroke="currentColor" stroke-width="1.00" stroke-linecap="butt" stroke-linejoin="miter">
	<path stroke='black'  d='M71.9,54.1 L71.9,644.4 L1255.0,644.4 L1255.0,54.1 L71.9,54.1 Z  '/></g>
<g fill="none" color="black" stroke="currentColor" stroke-width="1.00" stroke-linecap="butt" stroke-linejoin="miter">
</g>
</g>
</svg>

