<?xml version="1.0" encoding="utf-8"  standalone="no"?>
<svg 
 viewBox="0 0 450 300"
 xmlns="http://www.w3.org/2000/svg"
 xmlns:xlink="http://www.w3.org/1999/xlink"
>

<title>Gnuplot</title>
<desc>Produced by GNUPLOT 5.2 patchlevel 6 </desc>

<g id="gnuplot_canvas">

<rect x="0" y="0" width="450" height="300" fill="none"/>
<defs>

	<circle id='gpDot' r='0.5' stroke-width='0.5' stroke='currentColor'/>
	<path id='gpPt0' stroke-width='0.222' stroke='currentColor' d='M-1,0 h2 M0,-1 v2'/>
	<path id='gpPt1' stroke-width='0.222' stroke='currentColor' d='M-1,-1 L1,1 M1,-1 L-1,1'/>
	<path id='gpPt2' stroke-width='0.222' stroke='currentColor' d='M-1,0 L1,0 M0,-1 L0,1 M-1,-1 L1,1 M-1,1 L1,-1'/>
	<rect id='gpPt3' stroke-width='0.222' stroke='currentColor' x='-1' y='-1' width='2' height='2'/>
	<rect id='gpPt4' stroke-width='0.222' stroke='currentColor' fill='currentColor' x='-1' y='-1' width='2' height='2'/>
	<circle id='gpPt5' stroke-width='0.222' stroke='currentColor' cx='0' cy='0' r='1'/>
	<use xlink:href='#gpPt5' id='gpPt6' fill='currentColor' stroke='none'/>
	<path id='gpPt7' stroke-width='0.222' stroke='currentColor' d='M0,-1.33 L-1.33,0.67 L1.33,0.67 z'/>
	<use xlink:href='#gpPt7' id='gpPt8' fill='currentColor' stroke='none'/>
	<use xlink:href='#gpPt7' id='gpPt9' stroke='currentColor' transform='rotate(180)'/>
	<use xlink:href='#gpPt9' id='gpPt10' fill='currentColor' stroke='none'/>
	<use xlink:href='#gpPt3' id='gpPt11' stroke='currentColor' transform='rotate(45)'/>
	<use xlink:href='#gpPt11' id='gpPt12' fill='currentColor' stroke='none'/>
	<path id='gpPt13' stroke-width='0.222' stroke='currentColor' d='M0,1.330 L1.265,0.411 L0.782,-1.067 L-0.782,-1.076 L-1.265,0.411 z'/>
	<use xlink:href='#gpPt13' id='gpPt14' fill='currentColor' stroke='none'/>
	<filter id='textbox' filterUnits='objectBoundingBox' x='0' y='0' height='1' width='1'>
	  <feFlood flood-color='white' flood-opacity='1' result='bgnd'/>
	  <feComposite in='SourceGraphic' in2='bgnd' operator='atop'/>
	</filter>
	<filter id='greybox' filterUnits='objectBoundingBox' x='0' y='0' height='1' width='1'>
	  <feFlood flood-color='lightgrey' flood-opacity='1' result='grey'/>
	  <feComposite in='SourceGraphic' in2='grey' operator='atop'/>
	</filter>
</defs>
<g fill="none" color="white" stroke="currentColor" stroke-width="1.00" stroke-linecap="butt" stroke-linejoin="miter">
</g>
<g fill="none" color="black" stroke="currentColor" stroke-width="1.00" stroke-linecap="butt" stroke-linejoin="miter">
	<path stroke='black'  d='M71.9,242.4 L80.9,242.4  '/>	<g transform="translate(63.6,246.3)" stroke="none" fill="black" font-family="Helvetica" font-size="12.00"  text-anchor="end">
		<text><tspan font-family="Helvetica" > 0</tspan></text>
	</g>
</g>
<g fill="none" color="black" stroke="currentColor" stroke-width="1.00" stroke-linecap="butt" stroke-linejoin="miter">
	<path stroke='black'  d='M71.9,197.5 L80.9,197.5  '/>	<g transform="translate(63.6,201.4)" stroke="none" fill="black" font-family="Helvetica" font-size="12.00"  text-anchor="end">
		<text><tspan font-family="Helvetica" > 0.5</tspan></text>
	</g>
</g>
<g fill="none" color="black" stroke="currentColor" stroke-width="1.00" stroke-linecap="butt" stroke-linejoin="miter">
	<path stroke='black'  d='M71.9,152.7 L80.9,152.7  '/>	<g transform="translate(63.6,156.6)" stroke="none" fill="black" font-family="Helvetica" font-size="12.00"  text-anchor="end">
		<text><tspan font-family="Helvetica" > 1</tspan></text>
	</g>
</g>
<g fill="none" color="black" stroke="currentColor" stroke-width="1.00" stroke-linecap="butt" stroke-linejoin="miter">
	<path stroke='black'  d='M71.9,107.8 L80.9,107.8  '/>	<g transform="translate(63.6,111.7)" stroke="none" fill="black" font-family="Helvetica" font-size="12.00"  text-anchor="end">
		<text><tspan font-family="Helvetica" > 1.5</tspan></text>
	</g>
</g>
<g fill="none" color="black" stroke="currentColor" stroke-width="1.00" stroke-linecap="butt" stroke-linejoin="miter">
	<path stroke='black'  d='M71.9,63.0 L80.9,63.0  '/>	<g transform="translate(63.6,66.9)" stroke="none" fill="black" font-family="Helvetica" font-size="12.00"  text-anchor="end">
		<text><tspan font-family="Helvetica" > 2</tspan></text>
	</g>
</g>
<g fill="none" color="black" stroke="currentColor" stroke-width="1.00" stroke-linecap="butt" stroke-linejoin="miter">
	<path stroke='black'  d='M71.9,18.1 L80.9,18.1  '/>	<g transform="translate(63.6,22.0)" stroke="none" fill="black" font-family="Helvetica" font-size="12.00"  text-anchor="end">
		<text><tspan font-family="Helvetica" > 2.5</tspan></text>
	</g>
</g>
<g fill="none" color="black" stroke="currentColor" stroke-width="1.00" stroke-linecap="butt" stroke-linejoin="miter">
	<path stroke='black'  d='M71.9,242.4 L71.9,233.4  '/>	<g transform="translate(71.9,264.3)" stroke="none" fill="black" font-family="Helvetica" font-size="12.00"  text-anchor="middle">
		<text><tspan font-family="Helvetica" > 25</tspan></text>
	</g>
</g>
<g fill="none" color="black" stroke="currentColor" stroke-width="1.00" stroke-linecap="butt" stroke-linejoin="miter">
	<path stroke='black'  d='M142.5,242.4 L142.5,233.4  '/>	<g transform="translate(142.5,264.3)" stroke="none" fill="black" font-family="Helvetica" font-size="12.00"  text-anchor="middle">
		<text><tspan font-family="Helvetica" > 30</tspan></text>
	</g>
</g>
<g fill="none" color="black" stroke="currentColor" stroke-width="1.00" stroke-linecap="butt" stroke-linejoin="miter">
	<path stroke='black'  d='M213.1,242.4 L213.1,233.4  '/>	<g transform="translate(213.1,264.3)" stroke="none" fill="black" font-family="Helvetica" font-size="12.00"  text-anchor="middle">
		<text><tspan font-family="Helvetica" > 35</tspan></text>
	</g>
</g>
<g fill="none" color="black" stroke="currentColor" stroke-width="1.00" stroke-linecap="butt" stroke-linejoin="miter">
	<path stroke='black'  d='M283.8,242.4 L283.8,233.4  '/>	<g transform="translate(283.8,264.3)" stroke="none" fill="black" font-family="Helvetica" font-size="12.00"  text-anchor="middle">
		<text><tspan font-family="Helvetica" > 40</tspan></text>
	</g>
</g>
<g fill="none" color="black" stroke="currentColor" stroke-width="1.00" stroke-linecap="butt" stroke-linejoin="miter">
	<path stroke='black'  d='M354.4,242.4 L354.4,233.4  '/>	<g transform="translate(354.4,264.3)" stroke="none" fill="black" font-family="Helvetica" font-size="12.00"  text-anchor="middle">
		<text><tspan font-family="Helvetica" > 45</tspan></text>
	</g>
</g>
<g fill="none" color="black" stroke="currentColor" stroke-width="1.00" stroke-linecap="butt" stroke-linejoin="miter">
	<path stroke='black'  d='M425.0,242.4 L425.0,233.4  '/>	<g transform="translate(425.0,264.3)" stroke="none" fill="black" font-family="Helvetica" font-size="12.00"  text-anchor="middle">
		<text><tspan font-family="Helvetica" > 50</tspan></text>
	</g>
</g>
<g fill="none" color="black" stroke="currentColor" stroke-width="1.00" stroke-linecap="butt" stroke-linejoin="miter">
</g>
<g fill="none" color="black" stroke="currentColor" stroke-width="1.00" stroke-linecap="butt" stroke-linejoin="miter">
	<path stroke='black'  d='M71.9,18.1 L71.9,242.4 L425.0,242.4 L425.0,18.1 L71.9,18.1 Z  '/></g>
<g fill="none" color="black" stroke="currentColor" stroke-width="1.00" stroke-linecap="butt" stroke-linejoin="miter">
	<g transform="translate(16.3,130.3) rotate(270)" stroke="none" fill="black" font-family="Helvetica" font-size="12.00"  text-anchor="middle">
		<text><tspan font-family="Helvetica" >Density (a.u.)</tspan></text>
	</g>
</g>
<g fill="none" color="black" stroke="currentColor" stroke-width="1.00" stroke-linecap="butt" stroke-linejoin="miter">
	<g transform="translate(248.4,291.3)" stroke="none" fill="black" font-family="Helvetica" font-size="12.00"  text-anchor="middle">
		<text><tspan font-family="Helvetica" >Average time (us)</tspan></text>
	</g>
</g>
<g fill="none" color="black" stroke="currentColor" stroke-width="1.00" stroke-linecap="butt" stroke-linejoin="miter">
</g>
	<g id="gnuplot_plot_1" ><title>Base PDF</title>
<g fill="none" color="black" stroke="currentColor" stroke-width="1.00" stroke-linecap="butt" stroke-linejoin="miter">
	<g stroke='none' shape-rendering='crispEdges'>
		<polygon fill = 'rgb(227,  26,  28)' fill-opacity = '0.500000' points = '136.3,242.1 136.9,242.1 137.4,242.1 138.0,242.0 138.5,242.0 139.1,241.9 139.6,241.9 140.2,241.8 140.7,241.7 141.3,241.7 141.8,241.6 142.4,241.5 142.9,241.4 143.5,241.2 144.0,241.1 144.6,241.0
145.1,240.8 145.7,240.7 146.2,240.5 146.8,240.3 147.3,240.1 147.9,239.9 148.4,239.6 149.0,239.3 149.5,239.1 150.1,238.8 150.6,238.4 151.2,238.1 151.8,237.7 152.3,237.3 152.9,236.9 153.4,236.5
154.0,236.0 154.5,235.5 155.1,235.0 155.6,234.5 156.2,234.0 156.7,233.4 157.3,232.8 157.8,232.1 158.4,231.5 158.9,230.8 159.5,230.1 160.0,229.4 160.6,228.7 161.1,228.0 161.7,227.2 162.2,226.4
162.8,225.6 163.3,224.8 163.9,224.0 164.4,223.2 165.0,222.4 165.5,221.6 166.1,220.8 166.6,220.0 167.2,219.2 167.7,218.5 168.3,217.7 168.8,217.0 169.4,216.2 169.9,215.5 170.5,214.9 171.0,214.2
171.6,213.6 172.1,213.0 172.7,212.5 173.3,212.0 173.8,211.6 174.4,211.1 174.9,210.8 175.5,210.5 176.0,210.2 176.6,210.0 177.1,209.8 177.7,209.7 178.2,209.6 178.8,209.6 179.3,209.6 179.9,209.7
180.4,209.8 181.0,210.0 181.5,210.3 182.1,210.5 182.6,210.9 183.2,211.2 183.7,211.6 184.3,212.1 184.8,212.6 185.4,213.1 185.9,213.6 186.5,214.2 187.0,214.8 187.6,215.5 188.1,216.1 188.7,216.8
189.2,217.5 189.8,218.2 190.3,218.9 190.9,219.6 191.4,220.3 192.0,221.1 192.5,221.8 193.1,222.5 193.7,223.2 194.2,223.9 194.8,224.6 195.3,225.3 195.9,226.0 196.4,226.7 197.0,227.3 197.5,228.0
198.1,228.6 198.6,229.2 199.2,229.8 199.7,230.4 200.3,230.9 200.8,231.4 201.4,231.9 201.9,232.4 202.5,232.9 203.0,233.4 203.6,233.8 204.1,234.2 204.7,234.6 205.2,235.0 205.8,235.3 206.3,235.7
206.9,236.0 207.4,236.3 208.0,236.6 208.5,236.9 209.1,237.1 209.6,237.4 210.2,237.6 210.7,237.8 211.3,238.0 211.8,238.2 212.4,238.4 212.9,238.6 213.5,238.7 214.1,238.9 214.6,239.0 215.2,239.2
215.7,239.3 216.3,239.4 216.8,239.6 217.4,239.7 217.9,239.8 218.5,239.9 219.0,240.0 219.6,240.1 220.1,240.1 220.7,240.2 221.2,240.3 221.8,240.4 222.3,240.4 222.9,240.5 223.4,240.6 224.0,240.6
224.5,240.7 225.1,240.8 225.6,240.8 226.2,240.9 226.7,240.9 227.3,241.0 227.8,241.0 228.4,241.1 228.9,241.1 229.5,241.1 230.0,241.2 230.6,241.2 231.1,241.3 231.7,241.3 232.2,241.4 232.8,241.4
233.3,241.4 233.9,241.5 234.4,241.5 235.0,241.5 235.6,241.6 236.1,241.6 236.7,241.6 237.2,241.7 237.8,241.7 238.3,241.7 238.9,241.8 239.4,241.8 240.0,241.8 240.5,241.9 241.1,241.9 241.6,241.9
242.2,241.9 242.7,242.0 243.3,242.0 243.8,242.0 244.4,242.0 244.9,242.0 245.5,242.1 246.0,242.1 246.6,242.1 247.1,242.1 247.7,242.1 248.2,242.2 248.8,242.2 249.3,242.2 249.9,242.2 250.4,242.2
251.0,242.2 251.5,242.2 252.1,242.3 252.6,242.3 253.2,242.3 253.7,242.3 254.3,242.3 254.8,242.3 255.4,242.3 256.0,242.3 256.5,242.3 257.1,242.3 257.6,242.3 258.2,242.3 258.7,242.3 259.3,242.4
259.8,242.4 260.4,242.4 260.9,242.4 261.5,242.4 262.0,242.4 262.6,242.4 263.1,242.4 263.7,242.4 264.2,242.4 264.8,242.4 265.3,242.4 265.9,242.4 266.4,242.4 267.0,242.4 267.5,242.4 268.1,242.4
268.6,242.4 269.2,242.4 269.7,242.4 270.3,242.4 270.8,242.4 271.4,242.4 271.9,242.4 272.5,242.3 273.0,242.3 273.6,242.3 274.1,242.3 274.7,242.3 275.2,242.3 275.8,242.3 276.4,242.3 276.9,242.3
277.5,242.3 278.0,242.3 278.6,242.3 279.1,242.3 279.7,242.3 280.2,242.3 280.8,242.3 281.3,242.2 281.9,242.2 282.4,242.2 283.0,242.2 283.5,242.2 284.1,242.2 284.6,242.2 285.2,242.2 285.7,242.2
286.3,242.1 286.8,242.1 287.4,242.1 287.9,242.1 288.5,242.1 289.0,242.1 289.6,242.1 290.1,242.0 290.7,242.0 291.2,242.0 291.8,242.0 292.3,242.0 292.9,242.0 293.4,242.0 294.0,241.9 294.5,241.9
295.1,241.9 295.6,241.9 296.2,241.9 296.7,241.9 297.3,241.9 297.9,241.9 298.4,241.8 299.0,241.8 299.5,241.8 300.1,241.8 300.6,241.8 301.2,241.8 301.7,241.8 302.3,241.8 302.8,241.8 303.4,241.8
303.9,241.8 304.5,241.8 305.0,241.7 305.6,241.7 306.1,241.7 306.7,241.7 307.2,241.7 307.8,241.7 308.3,241.7 308.9,241.7 309.4,241.7 310.0,241.7 310.5,241.7 311.1,241.7 311.6,241.7 312.2,241.7
312.7,241.7 313.3,241.7 313.8,241.7 314.4,241.7 314.9,241.7 315.5,241.7 316.0,241.8 316.6,241.8 317.1,241.8 317.7,241.8 318.3,241.8 318.8,241.8 319.4,241.8 319.9,241.8 320.5,241.8 321.0,241.8
321.6,241.8 322.1,241.8 322.7,241.8 323.2,241.8 323.8,241.8 324.3,241.8 324.9,241.8 325.4,241.8 326.0,241.8 326.5,241.8 327.1,241.8 327.6,241.8 328.2,241.8 328.7,241.8 329.3,241.9 329.8,241.9
330.4,241.9 330.9,241.9 331.5,241.9 332.0,241.9 332.6,241.9 333.1,241.9 333.7,241.9 334.2,241.9 334.8,241.9 335.3,241.9 335.9,241.9 336.4,241.9 337.0,241.9 337.5,241.9 338.1,241.9 338.7,241.9
339.2,241.9 339.8,241.9 340.3,241.9 340.9,241.9 341.4,241.9 342.0,241.9 342.5,242.0 343.1,242.0 343.6,242.0 344.2,242.0 344.7,242.0 345.3,242.0 345.8,242.0 346.4,242.0 346.9,242.0 347.5,242.0
348.0,242.0 348.6,242.0 349.1,242.0 349.7,242.0 350.2,242.0 350.8,242.0 351.3,242.0 351.9,242.0 352.4,242.0 353.0,242.0 353.5,242.0 354.1,242.0 354.6,242.0 355.2,242.0 355.7,242.0 356.3,242.0
356.8,242.0 357.4,242.0 357.9,242.0 358.5,242.0 359.0,242.0 359.6,242.0 360.2,242.0 360.7,242.0 361.3,242.0 361.8,242.0 362.4,242.0 362.9,242.0 363.5,242.0 364.0,242.0 364.6,242.0 365.1,242.0
365.7,242.0 366.2,242.0 366.8,242.0 367.3,242.0 367.9,242.0 368.4,242.0 369.0,242.0 369.5,242.0 370.1,242.0 370.6,242.0 371.2,242.0 371.7,242.0 372.3,242.0 372.8,242.0 373.4,242.0 373.9,242.0
374.5,242.0 375.0,242.0 375.6,242.0 376.1,242.0 376.7,242.0 377.2,242.0 377.8,242.1 378.3,242.1 378.9,242.1 379.4,242.1 380.0,242.1 380.6,242.1 381.1,242.1 381.7,242.1 382.2,242.1 382.8,242.1
383.3,242.1 383.9,242.2 384.4,242.2 385.0,242.2 385.5,242.2 386.1,242.2 386.6,242.2 387.2,242.2 387.7,242.2 388.3,242.2 388.8,242.2 389.4,242.2 389.9,242.3 390.5,242.3 391.0,242.3 391.6,242.3
392.1,242.3 392.7,242.3 393.2,242.3 393.8,242.3 394.3,242.3 394.9,242.3 395.4,242.3 396.0,242.3 396.5,242.3 397.1,242.3 397.6,242.3 398.2,242.3 398.7,242.4 399.3,242.4 399.8,242.4 400.4,242.4
401.0,242.4 401.5,242.4 402.1,242.4 402.6,242.4 403.2,242.4 403.7,242.4 404.3,242.4 404.8,242.4 405.4,242.4 405.9,242.4 406.5,242.4 407.0,242.4 407.6,242.4 408.1,242.4 408.7,242.4 409.2,242.4
409.8,242.4 410.3,242.4 410.9,242.4 411.4,242.4 411.4,242.4 410.9,242.4 410.3,242.4 409.8,242.4 409.2,242.4 408.7,242.4 408.1,242.4 407.6,242.4 407.0,242.4 406.5,242.4 405.9,242.4 405.4,242.4
404.8,242.4 404.3,242.4 403.7,242.4 403.2,242.4 402.6,242.4 402.1,242.4 401.5,242.4 401.0,242.4 400.4,242.4 399.8,242.4 399.3,242.4 398.7,242.4 398.2,242.4 397.6,242.4 397.1,242.4 396.5,242.4
396.0,242.4 395.4,242.4 394.9,242.4 394.3,242.4 393.8,242.4 393.2,242.4 392.7,242.4 392.1,242.4 391.6,242.4 391.0,242.4 390.5,242.4 389.9,242.4 389.4,242.4 388.8,242.4 388.3,242.4 387.7,242.4
387.2,242.4 386.6,242.4 386.1,242.4 385.5,242.4 385.0,242.4 384.4,242.4 383.9,242.4 383.3,242.4 382.8,242.4 382.2,242.4 381.7,242.4 381.1,242.4 380.6,242.4 380.0,242.4 379.4,242.4 378.9,242.4
378.3,242.4 377.8,242.4 377.2,242.4 376.7,242.4 376.1,242.4 375.6,242.4 375.0,242.4 374.5,242.4 373.9,242.4 373.4,242.4 372.8,242.4 372.3,242.4 371.7,242.4 371.2,242.4 370.6,242.4 370.1,242.4
369.5,242.4 369.0,242.4 368.4,242.4 367.9,242.4 367.3,242.4 366.8,242.4 366.2,242.4 365.7,242.4 365.1,242.4 364.6,242.4 364.0,242.4 363.5,242.4 362.9,242.4 362.4,242.4 361.8,242.4 361.3,242.4
360.7,242.4 360.2,242.4 359.6,242.4 359.0,242.4 358.5,242.4 357.9,242.4 357.4,242.4 356.8,242.4 356.3,242.4 355.7,242.4 355.2,242.4 354.6,242.4 354.1,242.4 353.5,242.4 353.0,242.4 352.4,242.4
351.9,242.4 351.3,242.4 350.8,242.4 350.2,242.4 349.7,242.4 349.1,242.4 348.6,242.4 348.0,242.4 347.5,242.4 346.9,242.4 346.4,242.4 345.8,242.4 345.3,242.4 344.7,242.4 344.2,242.4 343.6,242.4
343.1,242.4 342.5,242.4 342.0,242.4 341.4,242.4 340.9,242.4 340.3,242.4 339.8,242.4 339.2,242.4 338.7,242.4 338.1,242.4 337.5,242.4 337.0,242.4 336.4,242.4 335.9,242.4 335.3,242.4 334.8,242.4
334.2,242.4 333.7,242.4 333.1,242.4 332.6,242.4 332.0,242.4 331.5,242.4 330.9,242.4 330.4,242.4 329.8,242.4 329.3,242.4 328.7,242.4 328.2,242.4 327.6,242.4 327.1,242.4 326.5,242.4 326.0,242.4
325.4,242.4 324.9,242.4 324.3,242.4 323.8,242.4 323.2,242.4 322.7,242.4 322.1,242.4 321.6,242.4 321.0,242.4 320.5,242.4 319.9,242.4 319.4,242.4 318.8,242.4 318.3,242.4 317.7,242.4 317.1,242.4
316.6,242.4 316.0,242.4 315.5,242.4 314.9,242.4 314.4,242.4 313.8,242.4 313.3,242.4 312.7,242.4 312.2,242.4 311.6,242.4 311.1,242.4 310.5,242.4 310.0,242.4 309.4,242.4 308.9,242.4 308.3,242.4
307.8,242.4 307.2,242.4 306.7,242.4 306.1,242.4 305.6,242.4 305.0,242.4 304.5,242.4 303.9,242.4 303.4,242.4 302.8,242.4 302.3,242.4 301.7,242.4 301.2,242.4 300.6,242.4 300.1,242.4 299.5,242.4
299.0,242.4 298.4,242.4 297.9,242.4 297.3,242.4 296.7,242.4 296.2,242.4 295.6,242.4 295.1,242.4 294.5,242.4 294.0,242.4 293.4,242.4 292.9,242.4 292.3,242.4 291.8,242.4 291.2,242.4 290.7,242.4
290.1,242.4 289.6,242.4 289.0,242.4 288.5,242.4 287.9,242.4 287.4,242.4 286.8,242.4 286.3,242.4 285.7,242.4 285.2,242.4 284.6,242.4 284.1,242.4 283.5,242.4 283.0,242.4 282.4,242.4 281.9,242.4
281.3,242.4 280.8,242.4 280.2,242.4 279.7,242.4 279.1,242.4 278.6,242.4 278.0,242.4 277.5,242.4 276.9,242.4 276.4,242.4 275.8,242.4 275.2,242.4 274.7,242.4 274.1,242.4 273.6,242.4 273.0,242.4
272.5,242.4 271.9,242.4 271.4,242.4 270.8,242.4 270.3,242.4 269.7,242.4 269.2,242.4 268.6,242.4 268.1,242.4 267.5,242.4 267.0,242.4 266.4,242.4 265.9,242.4 265.3,242.4 264.8,242.4 264.2,242.4
263.7,242.4 263.1,242.4 262.6,242.4 262.0,242.4 261.5,242.4 260.9,242.4 260.4,242.4 259.8,242.4 259.3,242.4 258.7,242.4 258.2,242.4 257.6,242.4 257.1,242.4 256.5,242.4 256.0,242.4 255.4,242.4
254.8,242.4 254.3,242.4 253.7,242.4 253.2,242.4 252.6,242.4 252.1,242.4 251.5,242.4 251.0,242.4 250.4,242.4 249.9,242.4 249.3,242.4 248.8,242.4 248.2,242.4 247.7,242.4 247.1,242.4 246.6,242.4
246.0,242.4 245.5,242.4 244.9,242.4 244.4,242.4 243.8,242.4 243.3,242.4 242.7,242.4 242.2,242.4 241.6,242.4 241.1,242.4 240.5,242.4 240.0,242.4 239.4,242.4 238.9,242.4 238.3,242.4 237.8,242.4
237.2,242.4 236.7,242.4 236.1,242.4 235.6,242.4 235.0,242.4 234.4,242.4 233.9,242.4 233.3,242.4 232.8,242.4 232.2,242.4 231.7,242.4 231.1,242.4 230.6,242.4 230.0,242.4 229.5,242.4 228.9,242.4
228.4,242.4 227.8,242.4 227.3,242.4 226.7,242.4 226.2,242.4 225.6,242.4 225.1,242.4 224.5,242.4 224.0,242.4 223.4,242.4 222.9,242.4 222.3,242.4 221.8,242.4 221.2,242.4 220.7,242.4 220.1,242.4
219.6,242.4 219.0,242.4 218.5,242.4 217.9,242.4 217.4,242.4 216.8,242.4 216.3,242.4 215.7,242.4 215.2,242.4 214.6,242.4 214.1,242.4 213.5,242.4 212.9,242.4 212.4,242.4 211.8,242.4 211.3,242.4
210.7,242.4 210.2,242.4 209.6,242.4 209.1,242.4 208.5,242.4 208.0,242.4 207.4,242.4 206.9,242.4 206.3,242.4 205.8,242.4 205.2,242.4 204.7,242.4 204.1,242.4 203.6,242.4 203.0,242.4 202.5,242.4
201.9,242.4 201.4,242.4 200.8,242.4 200.3,242.4 199.7,242.4 199.2,242.4 198.6,242.4 198.1,242.4 197.5,242.4 197.0,242.4 196.4,242.4 195.9,242.4 195.3,242.4 194.8,242.4 194.2,242.4 193.7,242.4
193.1,242.4 192.5,242.4 192.0,242.4 191.4,242.4 190.9,242.4 190.3,242.4 189.8,242.4 189.2,242.4 188.7,242.4 188.1,242.4 187.6,242.4 187.0,242.4 186.5,242.4 185.9,242.4 185.4,242.4 184.8,242.4
184.3,242.4 183.7,242.4 183.2,242.4 182.6,242.4 182.1,242.4 181.5,242.4 181.0,242.4 180.4,242.4 179.9,242.4 179.3,242.4 178.8,242.4 178.2,242.4 177.7,242.4 177.1,242.4 176.6,242.4 176.0,242.4
175.5,242.4 174.9,242.4 174.4,242.4 173.8,242.4 173.3,242.4 172.7,242.4 172.1,242.4 171.6,242.4 171.0,242.4 170.5,242.4 169.9,242.4 169.4,242.4 168.8,242.4 168.3,242.4 167.7,242.4 167.2,242.4
166.6,242.4 166.1,242.4 165.5,242.4 165.0,242.4 164.4,242.4 163.9,242.4 163.3,242.4 162.8,242.4 162.2,242.4 161.7,242.4 161.1,242.4 160.6,242.4 160.0,242.4 159.5,242.4 158.9,242.4 158.4,242.4
157.8,242.4 157.3,242.4 156.7,242.4 156.2,242.4 155.6,242.4 155.1,242.4 154.5,242.4 154.0,242.4 153.4,242.4 152.9,242.4 152.3,242.4 151.8,242.4 151.2,242.4 150.6,242.4 150.1,242.4 149.5,242.4
149.0,242.4 148.4,242.4 147.9,242.4 147.3,242.4 146.8,242.4 146.2,242.4 145.7,242.4 145.1,242.4 144.6,242.4 144.0,242.4 143.5,242.4 142.9,242.4 142.4,242.4 141.8,242.4 141.3,242.4 140.7,242.4
140.2,242.4 139.6,242.4 139.1,242.4 138.5,242.4 138.0,242.4 137.4,242.4 136.9,242.4 136.3,242.4 '/>
	</g>
</g>
	</g>
	<g id="gnuplot_plot_2" ><title>Base Mean</title>
<g fill="none" color="white" stroke="rgb(227,  26,  28)" stroke-width="2.00" stroke-linecap="butt" stroke-linejoin="miter">
</g>
<g fill="none" color="black" stroke="currentColor" stroke-width="2.00" stroke-linecap="butt" stroke-linejoin="miter">
	<path stroke='rgb(227,  26,  28)'  d='M187.3,242.4 L187.3,215.2  '/></g>
	</g>
	<g id="gnuplot_plot_3" ><title>New PDF</title>
<g fill="none" color="white" stroke="rgb(227,  26,  28)" stroke-width="1.00" stroke-linecap="butt" stroke-linejoin="miter">
</g>
<g fill="none" color="black" stroke="currentColor" stroke-width="1.00" stroke-linecap="butt" stroke-linejoin="miter">
	<g stroke='none' shape-rendering='crispEdges'>
		<polygon fill = 'rgb( 31, 120, 180)' fill-opacity = '0.500000' points = '88.8,241.8 88.9,241.7 89.0,241.6 89.1,241.4 89.2,241.3 89.3,241.1 89.4,241.0 89.5,240.8 89.6,240.6 89.7,240.3 89.8,240.0 89.9,239.7 90.0,239.4 90.1,239.0 90.2,238.6 90.3,238.1
90.4,237.6 90.5,237.0 90.6,236.4 90.7,235.7 90.8,234.9 90.9,234.1 91.0,233.2 91.1,232.2 91.2,231.2 91.3,230.0 91.4,228.7 91.5,227.4 91.6,225.9 91.7,224.4 91.8,222.7 91.9,220.9
92.0,219.0 92.1,216.9 92.2,214.7 92.3,212.4 92.4,210.0 92.5,207.4 92.6,204.6 92.7,201.7 92.8,198.7 92.9,195.6 93.0,192.2 93.1,188.8 93.2,185.2 93.2,181.5 93.3,177.6 93.4,173.7
93.5,169.6 93.6,165.4 93.7,161.1 93.8,156.7 93.9,152.2 94.0,147.7 94.1,143.0 94.2,138.4 94.3,133.7 94.4,129.0 94.5,124.3 94.6,119.6 94.7,115.0 94.8,110.4 94.9,105.9 95.0,101.4
95.1,97.1 95.2,92.9 95.3,88.8 95.4,84.8 95.5,81.1 95.6,77.5 95.7,74.2 95.8,71.0 95.9,68.1 96.0,65.5 96.1,63.1 96.2,60.9 96.3,59.1 96.4,57.5 96.5,56.3 96.6,55.3
96.7,54.7 96.8,54.3 96.9,54.3 97.0,54.5 97.1,55.1 97.2,56.0 97.3,57.1 97.4,58.6 97.5,60.3 97.6,62.3 97.7,64.6 97.8,67.1 97.9,69.8 98.0,72.8 98.1,76.0 98.2,79.3
98.3,82.8 98.4,86.5 98.5,90.4 98.6,94.3 98.7,98.4 98.8,102.6 98.9,106.8 99.0,111.1 99.1,115.4 99.2,119.8 99.3,124.1 99.4,128.5 99.5,132.9 99.6,137.2 99.7,141.4 99.8,145.7
99.9,149.8 100.0,153.9 100.1,157.9 100.2,161.8 100.3,165.6 100.4,169.3 100.5,172.8 100.6,176.3 100.7,179.7 100.8,182.9 100.9,186.0 101.0,189.0 101.1,191.8 101.2,194.6 101.3,197.2 101.4,199.7
101.5,202.0 101.6,204.3 101.7,206.4 101.8,208.4 101.9,210.3 102.0,212.1 102.1,213.8 102.2,215.4 102.3,217.0 102.4,218.4 102.5,219.7 102.6,221.0 102.7,222.1 102.8,223.2 102.9,224.3 103.0,225.3
103.1,226.2 103.2,227.0 103.3,227.8 103.4,228.5 103.5,229.2 103.6,229.9 103.7,230.5 103.8,231.1 103.9,231.6 104.0,232.1 104.1,232.6 104.2,233.1 104.3,233.5 104.4,233.9 104.5,234.3 104.6,234.6
104.7,234.9 104.8,235.3 104.9,235.6 105.0,235.8 105.1,236.1 105.2,236.4 105.3,236.6 105.4,236.8 105.5,237.1 105.6,237.3 105.7,237.5 105.8,237.6 105.9,237.8 106.0,238.0 106.1,238.2 106.2,238.3
106.3,238.4 106.4,238.6 106.5,238.7 106.6,238.8 106.7,238.9 106.8,239.0 106.9,239.1 107.0,239.2 107.1,239.3 107.2,239.4 107.3,239.5 107.4,239.5 107.5,239.6 107.6,239.7 107.7,239.7 107.8,239.7
107.9,239.8 108.0,239.8 108.1,239.8 108.2,239.9 108.3,239.9 108.4,239.9 108.5,239.9 108.6,239.9 108.7,239.9 108.8,239.9 108.9,239.9 109.0,239.9 109.1,239.9 109.2,239.8 109.3,239.8 109.4,239.8
109.5,239.8 109.6,239.8 109.7,239.7 109.8,239.7 109.9,239.7 110.0,239.7 110.1,239.6 110.2,239.6 110.3,239.6 110.4,239.6 110.5,239.5 110.6,239.5 110.7,239.5 110.8,239.5 110.9,239.4 111.0,239.4
111.1,239.4 111.2,239.4 111.3,239.4 111.3,239.4 111.4,239.3 111.5,239.3 111.6,239.3 111.7,239.3 111.8,239.3 111.9,239.3 112.0,239.3 112.1,239.3 112.2,239.3 112.3,239.3 112.4,239.3 112.5,239.3
112.6,239.3 112.7,239.3 112.8,239.3 112.9,239.3 113.0,239.3 113.1,239.3 113.2,239.3 113.3,239.3 113.4,239.4 113.5,239.4 113.6,239.4 113.7,239.4 113.8,239.4 113.9,239.5 114.0,239.5 114.1,239.5
114.2,239.6 114.3,239.6 114.4,239.6 114.5,239.7 114.6,239.7 114.7,239.7 114.8,239.8 114.9,239.8 115.0,239.9 115.1,239.9 115.2,240.0 115.3,240.0 115.4,240.1 115.5,240.1 115.6,240.2 115.7,240.2
115.8,240.2 115.9,240.3 116.0,240.3 116.1,240.4 116.2,240.4 116.3,240.5 116.4,240.5 116.5,240.5 116.6,240.6 116.7,240.6 116.8,240.6 116.9,240.7 117.0,240.7 117.1,240.7 117.2,240.7 117.3,240.8
117.4,240.8 117.5,240.8 117.6,240.8 117.7,240.8 117.8,240.8 117.9,240.8 118.0,240.8 118.1,240.7 118.2,240.7 118.3,240.7 118.4,240.7 118.5,240.6 118.6,240.6 118.7,240.6 118.8,240.5 118.9,240.5
119.0,240.5 119.1,240.4 119.2,240.4 119.3,240.3 119.4,240.3 119.5,240.2 119.6,240.2 119.7,240.1 119.8,240.1 119.9,240.0 120.0,240.0 120.1,239.9 120.2,239.8 120.3,239.8 120.4,239.7 120.5,239.7
120.6,239.6 120.7,239.6 120.8,239.5 120.9,239.5 121.0,239.4 121.1,239.4 121.2,239.4 121.3,239.3 121.4,239.3 121.5,239.2 121.6,239.2 121.7,239.2 121.8,239.2 121.9,239.1 122.0,239.1 122.1,239.1
122.2,239.1 122.3,239.1 122.4,239.1 122.5,239.0 122.6,239.0 122.7,239.0 122.8,239.0 122.9,239.0 123.0,239.1 123.1,239.1 123.2,239.1 123.3,239.1 123.4,239.1 123.5,239.1 123.6,239.1 123.7,239.2
123.8,239.2 123.9,239.2 124.0,239.3 124.1,239.3 124.2,239.3 124.3,239.4 124.4,239.4 124.5,239.5 124.6,239.5 124.7,239.6 124.8,239.6 124.9,239.7 125.0,239.7 125.1,239.8 125.2,239.8 125.3,239.9
125.4,239.9 125.5,240.0 125.6,240.1 125.7,240.1 125.8,240.2 125.9,240.2 126.0,240.3 126.1,240.4 126.2,240.4 126.3,240.5 126.4,240.5 126.5,240.6 126.6,240.6 126.7,240.7 126.8,240.7 126.9,240.7
127.0,240.8 127.1,240.8 127.2,240.8 127.3,240.9 127.4,240.9 127.5,240.9 127.6,240.9 127.7,241.0 127.8,241.0 127.9,241.0 128.0,241.0 128.1,241.0 128.2,241.0 128.3,241.0 128.4,241.0 128.5,240.9
128.6,240.9 128.7,240.9 128.8,240.9 128.9,240.9 129.0,240.8 129.1,240.8 129.2,240.8 129.3,240.7 129.3,240.7 129.4,240.7 129.5,240.6 129.6,240.6 129.7,240.6 129.8,240.5 129.9,240.5 130.0,240.5
130.1,240.4 130.2,240.4 130.3,240.4 130.4,240.3 130.5,240.3 130.6,240.3 130.7,240.3 130.8,240.2 130.9,240.2 131.0,240.2 131.1,240.2 131.2,240.2 131.3,240.2 131.4,240.2 131.5,240.2 131.6,240.2
131.7,240.2 131.8,240.3 131.9,240.3 132.0,240.3 132.1,240.3 132.2,240.4 132.3,240.4 132.4,240.4 132.5,240.5 132.6,240.5 132.7,240.5 132.8,240.6 132.9,240.6 133.0,240.7 133.1,240.7 133.2,240.8
133.3,240.9 133.4,240.9 133.5,241.0 133.6,241.0 133.7,241.1 133.8,241.1 133.9,241.2 134.0,241.2 134.1,241.3 134.2,241.4 134.3,241.4 134.4,241.5 134.5,241.5 134.6,241.6 134.7,241.6 134.8,241.7
134.9,241.7 135.0,241.7 135.1,241.8 135.2,241.8 135.3,241.9 135.4,241.9 135.5,241.9 135.6,242.0 135.7,242.0 135.8,242.0 135.9,242.1 136.0,242.1 136.1,242.1 136.2,242.1 136.3,242.2 136.4,242.2
136.5,242.2 136.6,242.2 136.7,242.2 136.8,242.3 136.9,242.3 137.0,242.3 137.1,242.3 137.2,242.3 137.3,242.3 137.4,242.3 137.5,242.3 137.6,242.3 137.7,242.3 137.8,242.3 137.9,242.4 138.0,242.4
138.1,242.4 138.2,242.4 138.3,242.4 138.4,242.4 138.4,242.4 138.3,242.4 138.2,242.4 138.1,242.4 138.0,242.4 137.9,242.4 137.8,242.4 137.7,242.4 137.6,242.4 137.5,242.4 137.4,242.4 137.3,242.4
137.2,242.4 137.1,242.4 137.0,242.4 136.9,242.4 136.8,242.4 136.7,242.4 136.6,242.4 136.5,242.4 136.4,242.4 136.3,242.4 136.2,242.4 136.1,242.4 136.0,242.4 135.9,242.4 135.8,242.4 135.7,242.4
135.6,242.4 135.5,242.4 135.4,242.4 135.3,242.4 135.2,242.4 135.1,242.4 135.0,242.4 134.9,242.4 134.8,242.4 134.7,242.4 134.6,242.4 134.5,242.4 134.4,242.4 134.3,242.4 134.2,242.4 134.1,242.4
134.0,242.4 133.9,242.4 133.8,242.4 133.7,242.4 133.6,242.4 133.5,242.4 133.4,242.4 133.3,242.4 133.2,242.4 133.1,242.4 133.0,242.4 132.9,242.4 132.8,242.4 132.7,242.4 132.6,242.4 132.5,242.4
132.4,242.4 132.3,242.4 132.2,242.4 132.1,242.4 132.0,242.4 131.9,242.4 131.8,242.4 131.7,242.4 131.6,242.4 131.5,242.4 131.4,242.4 131.3,242.4 131.2,242.4 131.1,242.4 131.0,242.4 130.9,242.4
130.8,242.4 130.7,242.4 130.6,242.4 130.5,242.4 130.4,242.4 130.3,242.4 130.2,242.4 130.1,242.4 130.0,242.4 129.9,242.4 129.8,242.4 129.7,242.4 129.6,242.4 129.5,242.4 129.4,242.4 129.3,242.4
129.3,242.4 129.2,242.4 129.1,242.4 129.0,242.4 128.9,242.4 128.8,242.4 128.7,242.4 128.6,242.4 128.5,242.4 128.4,242.4 128.3,242.4 128.2,242.4 128.1,242.4 128.0,242.4 127.9,242.4 127.8,242.4
127.7,242.4 127.6,242.4 127.5,242.4 127.4,242.4 127.3,242.4 127.2,242.4 127.1,242.4 127.0,242.4 126.9,242.4 126.8,242.4 126.7,242.4 126.6,242.4 126.5,242.4 126.4,242.4 126.3,242.4 126.2,242.4
126.1,242.4 126.0,242.4 125.9,242.4 125.8,242.4 125.7,242.4 125.6,242.4 125.5,242.4 125.4,242.4 125.3,242.4 125.2,242.4 125.1,242.4 125.0,242.4 124.9,242.4 124.8,242.4 124.7,242.4 124.6,242.4
124.5,242.4 124.4,242.4 124.3,242.4 124.2,242.4 124.1,242.4 124.0,242.4 123.9,242.4 123.8,242.4 123.7,242.4 123.6,242.4 123.5,242.4 123.4,242.4 123.3,242.4 123.2,242.4 123.1,242.4 123.0,242.4
122.9,242.4 122.8,242.4 122.7,242.4 122.6,242.4 122.5,242.4 122.4,242.4 122.3,242.4 122.2,242.4 122.1,242.4 122.0,242.4 121.9,242.4 121.8,242.4 121.7,242.4 121.6,242.4 121.5,242.4 121.4,242.4
121.3,242.4 121.2,242.4 121.1,242.4 121.0,242.4 120.9,242.4 120.8,242.4 120.7,242.4 120.6,242.4 120.5,242.4 120.4,242.4 120.3,242.4 120.2,242.4 120.1,242.4 120.0,242.4 119.9,242.4 119.8,242.4
119.7,242.4 119.6,242.4 119.5,242.4 119.4,242.4 119.3,242.4 119.2,242.4 119.1,242.4 119.0,242.4 118.9,242.4 118.8,242.4 118.7,242.4 118.6,242.4 118.5,242.4 118.4,242.4 118.3,242.4 118.2,242.4
118.1,242.4 118.0,242.4 117.9,242.4 117.8,242.4 117.7,242.4 117.6,242.4 117.5,242.4 117.4,242.4 117.3,242.4 117.2,242.4 117.1,242.4 117.0,242.4 116.9,242.4 116.8,242.4 116.7,242.4 116.6,242.4
116.5,242.4 116.4,242.4 116.3,242.4 116.2,242.4 116.1,242.4 116.0,242.4 115.9,242.4 115.8,242.4 115.7,242.4 115.6,242.4 115.5,242.4 115.4,242.4 115.3,242.4 115.2,242.4 115.1,242.4 115.0,242.4
114.9,242.4 114.8,242.4 114.7,242.4 114.6,242.4 114.5,242.4 114.4,242.4 114.3,242.4 114.2,242.4 114.1,242.4 114.0,242.4 113.9,242.4 113.8,242.4 113.7,242.4 113.6,242.4 113.5,242.4 113.4,242.4
113.3,242.4 113.2,242.4 113.1,242.4 113.0,242.4 112.9,242.4 112.8,242.4 112.7,242.4 112.6,242.4 112.5,242.4 112.4,242.4 112.3,242.4 112.2,242.4 112.1,242.4 112.0,242.4 111.9,242.4 111.8,242.4
111.7,242.4 111.6,242.4 111.5,242.4 111.4,242.4 111.3,242.4 111.3,242.4 111.2,242.4 111.1,242.4 111.0,242.4 110.9,242.4 110.8,242.4 110.7,242.4 110.6,242.4 110.5,242.4 110.4,242.4 110.3,242.4
110.2,242.4 110.1,242.4 110.0,242.4 109.9,242.4 109.8,242.4 109.7,242.4 109.6,242.4 109.5,242.4 109.4,242.4 109.3,242.4 109.2,242.4 109.1,242.4 109.0,242.4 108.9,242.4 108.8,242.4 108.7,242.4
108.6,242.4 108.5,242.4 108.4,242.4 108.3,242.4 108.2,242.4 108.1,242.4 108.0,242.4 107.9,242.4 107.8,242.4 107.7,242.4 107.6,242.4 107.5,242.4 107.4,242.4 107.3,242.4 107.2,242.4 107.1,242.4
107.0,242.4 106.9,242.4 106.8,242.4 106.7,242.4 106.6,242.4 106.5,242.4 106.4,242.4 106.3,242.4 106.2,242.4 106.1,242.4 106.0,242.4 105.9,242.4 105.8,242.4 105.7,242.4 105.6,242.4 105.5,242.4
105.4,242.4 105.3,242.4 105.2,242.4 105.1,242.4 105.0,242.4 104.9,242.4 104.8,242.4 104.7,242.4 104.6,242.4 104.5,242.4 104.4,242.4 104.3,242.4 104.2,242.4 104.1,242.4 104.0,242.4 103.9,242.4
103.8,242.4 103.7,242.4 103.6,242.4 103.5,242.4 103.4,242.4 103.3,242.4 103.2,242.4 103.1,242.4 103.0,242.4 102.9,242.4 102.8,242.4 102.7,242.4 102.6,242.4 102.5,242.4 102.4,242.4 102.3,242.4
102.2,242.4 102.1,242.4 102.0,242.4 101.9,242.4 101.8,242.4 101.7,242.4 101.6,242.4 101.5,242.4 101.4,242.4 101.3,242.4 101.2,242.4 101.1,242.4 101.0,242.4 100.9,242.4 100.8,242.4 100.7,242.4
100.6,242.4 100.5,242.4 100.4,242.4 100.3,242.4 100.2,242.4 100.1,242.4 100.0,242.4 99.9,242.4 99.8,242.4 99.7,242.4 99.6,242.4 99.5,242.4 99.4,242.4 99.3,242.4 99.2,242.4 99.1,242.4
99.0,242.4 98.9,242.4 98.8,242.4 98.7,242.4 98.6,242.4 98.5,242.4 98.4,242.4 98.3,242.4 98.2,242.4 98.1,242.4 98.0,242.4 97.9,242.4 97.8,242.4 97.7,242.4 97.6,242.4 97.5,242.4
97.4,242.4 97.3,242.4 97.2,242.4 97.1,242.4 97.0,242.4 96.9,242.4 96.8,242.4 96.7,242.4 96.6,242.4 96.5,242.4 96.4,242.4 96.3,242.4 96.2,242.4 96.1,242.4 96.0,242.4 95.9,242.4
95.8,242.4 95.7,242.4 95.6,242.4 95.5,242.4 95.4,242.4 95.3,242.4 95.2,242.4 95.1,242.4 95.0,242.4 94.9,242.4 94.8,242.4 94.7,242.4 94.6,242.4 94.5,242.4 94.4,242.4 94.3,242.4
94.2,242.4 94.1,242.4 94.0,242.4 93.9,242.4 93.8,242.4 93.7,242.4 93.6,242.4 93.5,242.4 93.4,242.4 93.3,242.4 93.2,242.4 93.2,242.4 93.1,242.4 93.0,242.4 92.9,242.4 92.8,242.4
92.7,242.4 92.6,242.4 92.5,242.4 92.4,242.4 92.3,242.4 92.2,242.4 92.1,242.4 92.0,242.4 91.9,242.4 91.8,242.4 91.7,242.4 91.6,242.4 91.5,242.4 91.4,242.4 91.3,242.4 91.2,242.4
91.1,242.4 91.0,242.4 90.9,242.4 90.8,242.4 90.7,242.4 90.6,242.4 90.5,242.4 90.4,242.4 90.3,242.4 90.2,242.4 90.1,242.4 90.0,242.4 89.9,242.4 89.8,242.4 89.7,242.4 89.6,242.4
89.5,242.4 89.4,242.4 89.3,242.4 89.2,242.4 89.1,242.4 89.0,242.4 88.9,242.4 88.8,242.4 '/>
	</g>
</g>
	</g>
	<g id="gnuplot_plot_4" ><title>New Mean</title>
<g fill="none" color="white" stroke="rgb( 31, 120, 180)" stroke-width="2.00" stroke-linecap="butt" stroke-linejoin="miter">
</g>
<g fill="none" color="black" stroke="currentColor" stroke-width="2.00" stroke-linecap="butt" stroke-linejoin="miter">
	<path stroke='rgb( 31, 120, 180)'  d='M98.4,242.4 L98.4,84.0  '/></g>
	</g>
<g fill="none" color="black" stroke="currentColor" stroke-width="2.00" stroke-linecap="butt" stroke-linejoin="miter">
</g>
<g fill="none" color="black" stroke="black" stroke-width="1.00" stroke-linecap="butt" stroke-linejoin="miter">
</g>
<g fill="none" color="black" stroke="currentColor" stroke-width="1.00" stroke-linecap="butt" stroke-linejoin="miter">
	<path stroke='black'  d='M71.9,18.1 L71.9,242.4 L425.0,242.4 L425.0,18.1 L71.9,18.1 Z  '/></g>
<g fill="none" color="black" stroke="currentColor" stroke-width="1.00" stroke-linecap="butt" stroke-linejoin="miter">
</g>
</g>
</svg>

