<?xml version="1.0" encoding="utf-8"  standalone="no"?>
<svg 
 viewBox="0 0 1280 720"
 xmlns="http://www.w3.org/2000/svg"
 xmlns:xlink="http://www.w3.org/1999/xlink"
>

<title>Gnuplot</title>
<desc>Produced by GNUPLOT 5.2 patchlevel 6 </desc>

<g id="gnuplot_canvas">

<rect x="0" y="0" width="1280" height="720" fill="none"/>
<defs>

	<circle id='gpDot' r='0.5' stroke-width='0.5' stroke='currentColor'/>
	<path id='gpPt0' stroke-width='0.222' stroke='currentColor' d='M-1,0 h2 M0,-1 v2'/>
	<path id='gpPt1' stroke-width='0.222' stroke='currentColor' d='M-1,-1 L1,1 M1,-1 L-1,1'/>
	<path id='gpPt2' stroke-width='0.222' stroke='currentColor' d='M-1,0 L1,0 M0,-1 L0,1 M-1,-1 L1,1 M-1,1 L1,-1'/>
	<rect id='gpPt3' stroke-width='0.222' stroke='currentColor' x='-1' y='-1' width='2' height='2'/>
	<rect id='gpPt4' stroke-width='0.222' stroke='currentColor' fill='currentColor' x='-1' y='-1' width='2' height='2'/>
	<circle id='gpPt5' stroke-width='0.222' stroke='currentColor' cx='0' cy='0' r='1'/>
	<use xlink:href='#gpPt5' id='gpPt6' fill='currentColor' stroke='none'/>
	<path id='gpPt7' stroke-width='0.222' stroke='currentColor' d='M0,-1.33 L-1.33,0.67 L1.33,0.67 z'/>
	<use xlink:href='#gpPt7' id='gpPt8' fill='currentColor' stroke='none'/>
	<use xlink:href='#gpPt7' id='gpPt9' stroke='currentColor' transform='rotate(180)'/>
	<use xlink:href='#gpPt9' id='gpPt10' fill='currentColor' stroke='none'/>
	<use xlink:href='#gpPt3' id='gpPt11' stroke='currentColor' transform='rotate(45)'/>
	<use xlink:href='#gpPt11' id='gpPt12' fill='currentColor' stroke='none'/>
	<path id='gpPt13' stroke-width='0.222' stroke='currentColor' d='M0,1.330 L1.265,0.411 L0.782,-1.067 L-0.782,-1.076 L-1.265,0.411 z'/>
	<use xlink:href='#gpPt13' id='gpPt14' fill='currentColor' stroke='none'/>
	<filter id='textbox' filterUnits='objectBoundingBox' x='0' y='0' height='1' width='1'>
	  <feFlood flood-color='white' flood-opacity='1' result='bgnd'/>
	  <feComposite in='SourceGraphic' in2='bgnd' operator='atop'/>
	</filter>
	<filter id='greybox' filterUnits='objectBoundingBox' x='0' y='0' height='1' width='1'>
	  <feFlood flood-color='lightgrey' flood-opacity='1' result='grey'/>
	  <feComposite in='SourceGraphic' in2='grey' operator='atop'/>
	</filter>
</defs>
<g fill="none" color="white" stroke="currentColor" stroke-width="1.00" stroke-linecap="butt" stroke-linejoin="miter">
</g>
<g fill="none" color="black" stroke="currentColor" stroke-width="1.00" stroke-linecap="butt" stroke-linejoin="miter">
	<path stroke='black'  d='M80.2,662.4 L89.2,662.4  '/>	<g transform="translate(71.9,666.3)" stroke="none" fill="black" font-family="Helvetica" font-size="12.00"  text-anchor="end">
		<text><tspan font-family="Helvetica" > 0</tspan></text>
	</g>
</g>
<g fill="none" color="black" stroke="currentColor" stroke-width="1.00" stroke-linecap="butt" stroke-linejoin="miter">
	<path stroke='black'  d='M80.2,575.5 L89.2,575.5  '/>	<g transform="translate(71.9,579.4)" stroke="none" fill="black" font-family="Helvetica" font-size="12.00"  text-anchor="end">
		<text><tspan font-family="Helvetica" > 0.02</tspan></text>
	</g>
</g>
<g fill="none" color="black" stroke="currentColor" stroke-width="1.00" stroke-linecap="butt" stroke-linejoin="miter">
	<path stroke='black'  d='M80.2,488.6 L89.2,488.6  '/>	<g transform="translate(71.9,492.5)" stroke="none" fill="black" font-family="Helvetica" font-size="12.00"  text-anchor="end">
		<text><tspan font-family="Helvetica" > 0.04</tspan></text>
	</g>
</g>
<g fill="none" color="black" stroke="currentColor" stroke-width="1.00" stroke-linecap="butt" stroke-linejoin="miter">
	<path stroke='black'  d='M80.2,401.7 L89.2,401.7  '/>	<g transform="translate(71.9,405.6)" stroke="none" fill="black" font-family="Helvetica" font-size="12.00"  text-anchor="end">
		<text><tspan font-family="Helvetica" > 0.06</tspan></text>
	</g>
</g>
<g fill="none" color="black" stroke="currentColor" stroke-width="1.00" stroke-linecap="butt" stroke-linejoin="miter">
	<path stroke='black'  d='M80.2,314.8 L89.2,314.8  '/>	<g transform="translate(71.9,318.7)" stroke="none" fill="black" font-family="Helvetica" font-size="12.00"  text-anchor="end">
		<text><tspan font-family="Helvetica" > 0.08</tspan></text>
	</g>
</g>
<g fill="none" color="black" stroke="currentColor" stroke-width="1.00" stroke-linecap="butt" stroke-linejoin="miter">
	<path stroke='black'  d='M80.2,227.9 L89.2,227.9  '/>	<g transform="translate(71.9,231.8)" stroke="none" fill="black" font-family="Helvetica" font-size="12.00"  text-anchor="end">
		<text><tspan font-family="Helvetica" > 0.1</tspan></text>
	</g>
</g>
<g fill="none" color="black" stroke="currentColor" stroke-width="1.00" stroke-linecap="butt" stroke-linejoin="miter">
	<path stroke='black'  d='M80.2,141.0 L89.2,141.0  '/>	<g transform="translate(71.9,144.9)" stroke="none" fill="black" font-family="Helvetica" font-size="12.00"  text-anchor="end">
		<text><tspan font-family="Helvetica" > 0.12</tspan></text>
	</g>
</g>
<g fill="none" color="black" stroke="currentColor" stroke-width="1.00" stroke-linecap="butt" stroke-linejoin="miter">
	<path stroke='black'  d='M80.2,54.1 L89.2,54.1  '/>	<g transform="translate(71.9,58.0)" stroke="none" fill="black" font-family="Helvetica" font-size="12.00"  text-anchor="end">
		<text><tspan font-family="Helvetica" > 0.14</tspan></text>
	</g>
</g>
<g fill="none" color="black" stroke="currentColor" stroke-width="1.00" stroke-linecap="butt" stroke-linejoin="miter">
	<path stroke='black'  d='M118.9,662.4 L118.9,653.4  '/>	<g transform="translate(118.9,684.3)" stroke="none" fill="black" font-family="Helvetica" font-size="12.00"  text-anchor="middle">
		<text><tspan font-family="Helvetica" > 724</tspan></text>
	</g>
</g>
<g fill="none" color="black" stroke="currentColor" stroke-width="1.00" stroke-linecap="butt" stroke-linejoin="miter">
	<path stroke='black'  d='M217.5,662.4 L217.5,653.4  '/>	<g transform="translate(217.5,684.3)" stroke="none" fill="black" font-family="Helvetica" font-size="12.00"  text-anchor="middle">
		<text><tspan font-family="Helvetica" > 726</tspan></text>
	</g>
</g>
<g fill="none" color="black" stroke="currentColor" stroke-width="1.00" stroke-linecap="butt" stroke-linejoin="miter">
	<path stroke='black'  d='M316.1,662.4 L316.1,653.4  '/>	<g transform="translate(316.1,684.3)" stroke="none" fill="black" font-family="Helvetica" font-size="12.00"  text-anchor="middle">
		<text><tspan font-family="Helvetica" > 728</tspan></text>
	</g>
</g>
<g fill="none" color="black" stroke="currentColor" stroke-width="1.00" stroke-linecap="butt" stroke-linejoin="miter">
	<path stroke='black'  d='M414.7,662.4 L414.7,653.4  '/>	<g transform="translate(414.7,684.3)" stroke="none" fill="black" font-family="Helvetica" font-size="12.00"  text-anchor="middle">
		<text><tspan font-family="Helvetica" > 730</tspan></text>
	</g>
</g>
<g fill="none" color="black" stroke="currentColor" stroke-width="1.00" stroke-linecap="butt" stroke-linejoin="miter">
	<path stroke='black'  d='M513.2,662.4 L513.2,653.4  '/>	<g transform="translate(513.2,684.3)" stroke="none" fill="black" font-family="Helvetica" font-size="12.00"  text-anchor="middle">
		<text><tspan font-family="Helvetica" > 732</tspan></text>
	</g>
</g>
<g fill="none" color="black" stroke="currentColor" stroke-width="1.00" stroke-linecap="butt" stroke-linejoin="miter">
	<path stroke='black'  d='M611.8,662.4 L611.8,653.4  '/>	<g transform="translate(611.8,684.3)" stroke="none" fill="black" font-family="Helvetica" font-size="12.00"  text-anchor="middle">
		<text><tspan font-family="Helvetica" > 734</tspan></text>
	</g>
</g>
<g fill="none" color="black" stroke="currentColor" stroke-width="1.00" stroke-linecap="butt" stroke-linejoin="miter">
	<path stroke='black'  d='M710.4,662.4 L710.4,653.4  '/>	<g transform="translate(710.4,684.3)" stroke="none" fill="black" font-family="Helvetica" font-size="12.00"  text-anchor="middle">
		<text><tspan font-family="Helvetica" > 736</tspan></text>
	</g>
</g>
<g fill="none" color="black" stroke="currentColor" stroke-width="1.00" stroke-linecap="butt" stroke-linejoin="miter">
	<path stroke='black'  d='M809.0,662.4 L809.0,653.4  '/>	<g transform="translate(809.0,684.3)" stroke="none" fill="black" font-family="Helvetica" font-size="12.00"  text-anchor="middle">
		<text><tspan font-family="Helvetica" > 738</tspan></text>
	</g>
</g>
<g fill="none" color="black" stroke="currentColor" stroke-width="1.00" stroke-linecap="butt" stroke-linejoin="miter">
	<path stroke='black'  d='M907.6,662.4 L907.6,653.4  '/>	<g transform="translate(907.6,684.3)" stroke="none" fill="black" font-family="Helvetica" font-size="12.00"  text-anchor="middle">
		<text><tspan font-family="Helvetica" > 740</tspan></text>
	</g>
</g>
<g fill="none" color="black" stroke="currentColor" stroke-width="1.00" stroke-linecap="butt" stroke-linejoin="miter">
	<path stroke='black'  d='M1006.2,662.4 L1006.2,653.4  '/>	<g transform="translate(1006.2,684.3)" stroke="none" fill="black" font-family="Helvetica" font-size="12.00"  text-anchor="middle">
		<text><tspan font-family="Helvetica" > 742</tspan></text>
	</g>
</g>
<g fill="none" color="black" stroke="currentColor" stroke-width="1.00" stroke-linecap="butt" stroke-linejoin="miter">
</g>
<g fill="none" color="black" stroke="currentColor" stroke-width="1.00" stroke-linecap="butt" stroke-linejoin="miter">
	<path stroke='black'  d='M80.2,54.1 L80.2,662.4 L1013.6,662.4 L1013.6,54.1 L80.2,54.1 Z  '/></g>
<g fill="none" color="black" stroke="currentColor" stroke-width="1.00" stroke-linecap="butt" stroke-linejoin="miter">
	<g transform="translate(16.3,358.3) rotate(270)" stroke="none" fill="black" font-family="Helvetica" font-size="12.00"  text-anchor="middle">
		<text><tspan font-family="Helvetica" >Density (a.u.)</tspan></text>
	</g>
</g>
<g fill="none" color="black" stroke="currentColor" stroke-width="1.00" stroke-linecap="butt" stroke-linejoin="miter">
	<g transform="translate(546.9,711.3)" stroke="none" fill="black" font-family="Helvetica" font-size="12.00"  text-anchor="middle">
		<text><tspan font-family="Helvetica" >Average time (us)</tspan></text>
	</g>
</g>
<g fill="none" color="black" stroke="currentColor" stroke-width="1.00" stroke-linecap="butt" stroke-linejoin="miter">
	<g transform="translate(546.9,31.0)" stroke="none" fill="black" font-family="Helvetica" font-size="12.00"  text-anchor="middle">
		<text><tspan font-family="Helvetica" >snapshot_restore_with_dense/Dense: Entire region + /proc/pid/mem/1000: mean</tspan></text>
	</g>
</g>
	<g id="gnuplot_plot_1" ><title>Bootstrap distribution</title>
<g fill="none" color="white" stroke="black" stroke-width="2.00" stroke-linecap="butt" stroke-linejoin="miter">
</g>
<g fill="none" color="black" stroke="currentColor" stroke-width="2.00" stroke-linecap="butt" stroke-linejoin="miter">
	<g transform="translate(1089.0,67.0)" stroke="none" fill="black" font-family="Helvetica" font-size="12.00"  text-anchor="start">
		<text><tspan font-family="Helvetica" >Bootstrap distribution</tspan></text>
	</g>
</g>
<g fill="none" color="black" stroke="currentColor" stroke-width="2.00" stroke-linecap="butt" stroke-linejoin="miter">
	<path stroke='rgb( 31, 120, 180)'  d='M1038.5,63.1 L1080.7,63.1 M80.2,660.0 L82.1,659.5 L83.9,659.0 L85.8,658.3 L87.7,657.5 L89.6,656.7
		L91.4,655.7 L93.3,654.5 L95.2,653.2 L97.0,651.7 L98.9,650.1 L100.8,648.2 L102.6,646.1 L104.5,643.8
		L106.4,641.3 L108.3,638.5 L110.1,635.4 L112.0,632.0 L113.9,628.3 L115.7,624.3 L117.6,620.0 L119.5,615.4
		L121.4,610.4 L123.2,605.1 L125.1,599.4 L127.0,593.3 L128.8,586.9 L130.7,580.1 L132.6,573.0 L134.4,565.5
		L136.3,557.6 L138.2,549.4 L140.1,540.8 L141.9,532.0 L143.8,522.8 L145.7,513.3 L147.5,503.5 L149.4,493.4
		L151.3,483.1 L153.2,472.6 L155.0,461.8 L156.9,450.9 L158.8,439.7 L160.6,428.5 L162.5,417.1 L164.4,405.7
		L166.2,394.2 L168.1,382.6 L170.0,371.1 L171.9,359.5 L173.7,348.1 L175.6,336.7 L177.5,325.4 L179.3,314.3
		L181.2,303.3 L183.1,292.5 L185.0,282.0 L186.8,271.6 L188.7,261.6 L190.6,251.8 L192.4,242.4 L194.3,233.3
		L196.2,224.6 L198.0,216.2 L199.9,208.3 L201.8,200.7 L203.7,193.6 L205.5,186.9 L207.4,180.7 L209.3,175.0
		L211.1,169.7 L213.0,164.9 L214.9,160.6 L216.7,156.7 L218.6,153.4 L220.5,150.6 L222.4,148.2 L224.2,146.4
		L226.1,145.1 L228.0,144.2 L229.8,143.9 L231.7,144.0 L233.6,144.6 L235.5,145.7 L237.3,147.3 L239.2,149.3
		L241.1,151.8 L242.9,154.7 L244.8,158.1 L246.7,161.9 L248.5,166.1 L250.4,170.7 L252.3,175.6 L254.2,180.9
		L256.0,186.6 L257.9,192.6 L259.8,198.8 L261.6,205.4 L263.5,212.2 L265.4,219.2 L267.3,226.4 L269.1,233.8
		L271.0,241.4 L272.9,249.1 L274.7,256.8 L276.6,264.7 L278.5,272.6 L280.3,280.5 L282.2,288.5 L284.1,296.4
		L286.0,304.3 L287.8,312.1 L289.7,319.8 L291.6,327.4 L293.4,334.9 L295.3,342.3 L297.2,349.4 L299.1,356.4
		L300.9,363.2 L302.8,369.7 L304.7,376.0 L306.5,382.0 L308.4,387.7 L310.3,393.1 L312.1,398.1 L314.0,402.8
		L315.9,407.1 L317.8,411.1 L319.6,414.6 L321.5,417.6 L323.4,420.3 L325.2,422.4 L327.1,424.1 L329.0,425.3
		L330.9,426.0 L332.7,426.2 L334.6,425.9 L336.5,425.0 L338.3,423.7 L340.2,421.8 L342.1,419.4 L343.9,416.4
		L345.8,413.0 L347.7,409.0 L349.6,404.6 L351.4,399.7 L353.3,394.3 L355.2,388.5 L357.0,382.2 L358.9,375.5
		L360.8,368.5 L362.7,361.1 L364.5,353.4 L366.4,345.3 L368.3,337.0 L370.1,328.5 L372.0,319.8 L373.9,310.9
		L375.7,301.8 L377.6,292.7 L379.5,283.6 L381.4,274.4 L383.2,265.2 L385.1,256.1 L387.0,247.1 L388.8,238.2
		L390.7,229.5 L392.6,220.9 L394.5,212.6 L396.3,204.5 L398.2,196.7 L400.1,189.2 L401.9,182.1 L403.8,175.2
		L405.7,168.8 L407.5,162.7 L409.4,157.1 L411.3,151.8 L413.2,147.1 L415.0,142.7 L416.9,138.8 L418.8,135.4
		L420.6,132.4 L422.5,130.0 L424.4,128.0 L426.3,126.5 L428.1,125.5 L430.0,124.9 L431.9,124.9 L433.7,125.3
		L435.6,126.2 L437.5,127.6 L439.3,129.5 L441.2,131.8 L443.1,134.5 L445.0,137.7 L446.8,141.3 L448.7,145.3
		L450.6,149.7 L452.4,154.4 L454.3,159.6 L456.2,165.1 L458.0,170.9 L459.9,177.0 L461.8,183.4 L463.7,190.2
		L465.5,197.1 L467.4,204.4 L469.3,211.8 L471.1,219.4 L473.0,227.3 L474.9,235.3 L476.8,243.4 L478.6,251.7
		L480.5,260.1 L482.4,268.5 L484.2,277.0 L486.1,285.6 L488.0,294.2 L489.8,302.7 L491.7,311.3 L493.6,319.8
		L495.5,328.2 L497.3,336.6 L499.2,344.9 L501.1,353.0 L502.9,361.0 L504.8,368.8 L506.7,376.5 L508.6,384.0
		L510.4,391.3 L512.3,398.3 L514.2,405.2 L516.0,411.8 L517.9,418.1 L519.8,424.2 L521.6,430.0 L523.5,435.5
		L525.4,440.7 L527.3,445.7 L529.1,450.3 L531.0,454.6 L532.9,458.6 L534.7,462.2 L536.6,465.5 L538.5,468.5
		L540.4,471.1 L542.2,473.4 L544.1,475.3 L546.0,476.9 L547.8,478.2 L549.7,479.1 L551.6,479.7 L553.4,480.0
		L555.3,479.9 L557.2,479.5 L559.1,478.9 L560.9,478.0 L562.8,476.7 L564.7,475.3 L566.5,473.5 L568.4,471.6
		L570.3,469.4 L572.2,467.1 L574.0,464.5 L575.9,461.8 L577.8,458.9 L579.6,455.9 L581.5,452.8 L583.4,449.6
		L585.2,446.3 L587.1,442.9 L589.0,439.5 L590.9,436.0 L592.7,432.5 L594.6,429.0 L596.5,425.5 L598.3,422.1
		L600.2,418.7 L602.1,415.4 L604.0,412.2 L605.8,409.0 L607.7,406.0 L609.6,403.2 L611.4,400.4 L613.3,397.9
		L615.2,395.5 L617.0,393.3 L618.9,391.4 L620.8,389.6 L622.7,388.1 L624.5,386.8 L626.4,385.8 L628.3,385.0
		L630.1,384.4 L632.0,384.1 L633.9,384.1 L635.8,384.3 L637.6,384.8 L639.5,385.5 L641.4,386.5 L643.2,387.7
		L645.1,389.2 L647.0,390.9 L648.8,392.8 L650.7,394.9 L652.6,397.2 L654.5,399.8 L656.3,402.5 L658.2,405.4
		L660.1,408.5 L661.9,411.7 L663.8,415.1 L665.7,418.6 L667.5,422.2 L669.4,426.0 L671.3,429.9 L673.2,433.9
		L675.0,437.9 L676.9,442.1 L678.8,446.3 L680.6,450.6 L682.5,455.0 L684.4,459.4 L686.3,463.8 L688.1,468.3
		L690.0,472.8 L691.9,477.3 L693.7,481.9 L695.6,486.4 L697.5,490.9 L699.3,495.4 L701.2,499.9 L703.1,504.4
		L705.0,508.8 L706.8,513.1 L708.7,517.4 L710.6,521.6 L712.4,525.7 L714.3,529.7 L716.2,533.7 L718.1,537.5
		L719.9,541.2 L721.8,544.8 L723.7,548.3 L725.5,551.6 L727.4,554.8 L729.3,557.9 L731.1,560.8 L733.0,563.6
		L734.9,566.2 L736.8,568.6 L738.6,570.9 L740.5,573.1 L742.4,575.0 L744.2,576.9 L746.1,578.5 L748.0,580.0
		L749.9,581.4 L751.7,582.6 L753.6,583.6 L755.5,584.5 L757.3,585.3 L759.2,585.9 L761.1,586.4 L762.9,586.8
		L764.8,587.0 L766.7,587.2 L768.6,587.2 L770.4,587.2 L772.3,587.1 L774.2,586.8 L776.0,586.5 L777.9,586.2
		L779.8,585.7 L781.7,585.2 L783.5,584.7 L785.4,584.1 L787.3,583.4 L789.1,582.7 L791.0,582.0 L792.9,581.2
		L794.7,580.5 L796.6,579.7 L798.5,578.9 L800.4,578.1 L802.2,577.2 L804.1,576.4 L806.0,575.6 L807.8,574.8
		L809.7,574.1 L811.6,573.3 L813.5,572.6 L815.3,571.9 L817.2,571.3 L819.1,570.7 L820.9,570.1 L822.8,569.7
		L824.7,569.2 L826.5,568.8 L828.4,568.5 L830.3,568.3 L832.2,568.1 L834.0,568.0 L835.9,568.0 L837.8,568.1
		L839.6,568.2 L841.5,568.4 L843.4,568.7 L845.3,569.1 L847.1,569.6 L849.0,570.1 L850.9,570.8 L852.7,571.5
		L854.6,572.2 L856.5,573.1 L858.3,574.0 L860.2,575.0 L862.1,576.0 L864.0,577.1 L865.8,578.3 L867.7,579.5
		L869.6,580.7 L871.4,582.0 L873.3,583.3 L875.2,584.6 L877.1,585.9 L878.9,587.3 L880.8,588.7 L882.7,590.1
		L884.5,591.5 L886.4,592.9 L888.3,594.3 L890.1,595.8 L892.0,597.2 L893.9,598.6 L895.8,600.1 L897.6,601.5
		L899.5,602.9 L901.4,604.4 L903.2,605.8 L905.1,607.2 L907.0,608.6 L908.8,610.0 L910.7,611.4 L912.6,612.8
		L914.5,614.1 L916.3,615.5 L918.2,616.8 L920.1,618.1 L921.9,619.4 L923.8,620.7 L925.7,621.9 L927.6,623.1
		L929.4,624.3 L931.3,625.4 L933.2,626.5 L935.0,627.5 L936.9,628.6 L938.8,629.5 L940.6,630.5 L942.5,631.3
		L944.4,632.2 L946.3,633.0 L948.1,633.7 L950.0,634.5 L951.9,635.1 L953.7,635.8 L955.6,636.3 L957.5,636.9
		L959.4,637.4 L961.2,637.9 L963.1,638.3 L965.0,638.7 L966.8,639.1 L968.7,639.5 L970.6,639.8 L972.4,640.1
		L974.3,640.3 L976.2,640.5 L978.1,640.7 L979.9,640.9 L981.8,641.0 L983.7,641.1 L985.5,641.2 L987.4,641.3
		L989.3,641.3 L991.2,641.3 L993.0,641.3 L994.9,641.3 L996.8,641.2 L998.6,641.1 L1000.5,641.1 L1002.4,641.0
		L1004.2,640.9 L1006.1,640.7 L1008.0,640.6 L1009.9,640.5 L1011.7,640.3 L1013.6,640.2  '/></g>
	</g>
	<g id="gnuplot_plot_2" ><title>Confidence interval</title>
<g fill="none" color="white" stroke="rgb( 31, 120, 180)" stroke-width="1.00" stroke-linecap="butt" stroke-linejoin="miter">
</g>
<g fill="none" color="black" stroke="currentColor" stroke-width="1.00" stroke-linecap="butt" stroke-linejoin="miter">
	<g transform="translate(1089.0,85.0)" stroke="none" fill="black" font-family="Helvetica" font-size="12.00"  text-anchor="start">
		<text><tspan font-family="Helvetica" >Confidence interval</tspan></text>
	</g>
</g>
<g fill="none" color="black" stroke="currentColor" stroke-width="1.00" stroke-linecap="butt" stroke-linejoin="miter">
	<g stroke='none' shape-rendering='crispEdges'>
		<polygon fill = 'rgb( 31, 120, 180)' fill-opacity = '0.250000' points = '1038.5,85.6 1080.7,85.6 1080.7,76.6 1038.5,76.6 '/>
		<polygon fill = 'rgb( 31, 120, 180)' fill-opacity = '0.250000' points = '166.2,394.2 168.1,382.6 170.0,371.1 171.9,359.5 173.7,348.1 175.6,336.7 177.5,325.4 179.3,314.3 181.2,303.3 183.1,292.5 185.0,282.0 186.8,271.6 188.7,261.6 190.6,251.8 192.4,242.4 194.3,233.3
196.2,224.6 198.0,216.2 199.9,208.3 201.8,200.7 203.7,193.6 205.5,186.9 207.4,180.7 209.3,175.0 211.1,169.7 213.0,164.9 214.9,160.6 216.7,156.7 218.6,153.4 220.5,150.6 222.4,148.2 224.2,146.4
226.1,145.1 228.0,144.2 229.8,143.9 231.7,144.0 233.6,144.6 235.5,145.7 237.3,147.3 239.2,149.3 241.1,151.8 242.9,154.7 244.8,158.1 246.7,161.9 248.5,166.1 250.4,170.7 252.3,175.6 254.2,180.9
256.0,186.6 257.9,192.6 259.8,198.8 261.6,205.4 263.5,212.2 265.4,219.2 267.3,226.4 269.1,233.8 271.0,241.4 272.9,249.1 274.7,256.8 276.6,264.7 278.5,272.6 280.3,280.5 282.2,288.5 284.1,296.4
286.0,304.3 287.8,312.1 289.7,319.8 291.6,327.4 293.4,334.9 295.3,342.3 297.2,349.4 299.1,356.4 300.9,363.2 302.8,369.7 304.7,376.0 306.5,382.0 308.4,387.7 310.3,393.1 312.1,398.1 314.0,402.8
315.9,407.1 317.8,411.1 319.6,414.6 321.5,417.6 323.4,420.3 325.2,422.4 327.1,424.1 329.0,425.3 330.9,426.0 332.7,426.2 334.6,425.9 336.5,425.0 338.3,423.7 340.2,421.8 342.1,419.4 343.9,416.4
345.8,413.0 347.7,409.0 349.6,404.6 351.4,399.7 353.3,394.3 355.2,388.5 357.0,382.2 358.9,375.5 360.8,368.5 362.7,361.1 364.5,353.4 366.4,345.3 368.3,337.0 370.1,328.5 372.0,319.8 373.9,310.9
375.7,301.8 377.6,292.7 379.5,283.6 381.4,274.4 383.2,265.2 385.1,256.1 387.0,247.1 388.8,238.2 390.7,229.5 392.6,220.9 394.5,212.6 396.3,204.5 398.2,196.7 400.1,189.2 401.9,182.1 403.8,175.2
405.7,168.8 407.5,162.7 409.4,157.1 411.3,151.8 413.2,147.1 415.0,142.7 416.9,138.8 418.8,135.4 420.6,132.4 422.5,130.0 424.4,128.0 426.3,126.5 428.1,125.5 430.0,124.9 431.9,124.9 433.7,125.3
435.6,126.2 437.5,127.6 439.3,129.5 441.2,131.8 443.1,134.5 445.0,137.7 446.8,141.3 448.7,145.3 450.6,149.7 452.4,154.4 454.3,159.6 456.2,165.1 458.0,170.9 459.9,177.0 461.8,183.4 463.7,190.2
465.5,197.1 467.4,204.4 469.3,211.8 471.1,219.4 473.0,227.3 474.9,235.3 476.8,243.4 478.6,251.7 480.5,260.1 482.4,268.5 484.2,277.0 486.1,285.6 488.0,294.2 489.8,302.7 491.7,311.3 493.6,319.8
495.5,328.2 497.3,336.6 499.2,344.9 501.1,353.0 502.9,361.0 504.8,368.8 506.7,376.5 508.6,384.0 510.4,391.3 512.3,398.3 514.2,405.2 516.0,411.8 517.9,418.1 519.8,424.2 521.6,430.0 523.5,435.5
525.4,440.7 527.3,445.7 529.1,450.3 531.0,454.6 532.9,458.6 534.7,462.2 536.6,465.5 538.5,468.5 540.4,471.1 542.2,473.4 544.1,475.3 546.0,476.9 547.8,478.2 549.7,479.1 551.6,479.7 553.4,480.0
555.3,479.9 557.2,479.5 559.1,478.9 560.9,478.0 562.8,476.7 564.7,475.3 566.5,473.5 568.4,471.6 570.3,469.4 572.2,467.1 574.0,464.5 575.9,461.8 577.8,458.9 579.6,455.9 581.5,452.8 583.4,449.6
585.2,446.3 587.1,442.9 589.0,439.5 590.9,436.0 592.7,432.5 594.6,429.0 596.5,425.5 598.3,422.1 600.2,418.7 602.1,415.4 604.0,412.2 605.8,409.0 607.7,406.0 609.6,403.2 611.4,400.4 613.3,397.9
615.2,395.5 617.0,393.3 618.9,391.4 620.8,389.6 622.7,388.1 624.5,386.8 626.4,385.8 628.3,385.0 630.1,384.4 632.0,384.1 633.9,384.1 635.8,384.3 637.6,384.8 639.5,385.5 641.4,386.5 643.2,387.7
645.1,389.2 647.0,390.9 648.8,392.8 650.7,394.9 652.6,397.2 654.5,399.8 656.3,402.5 658.2,405.4 660.1,408.5 661.9,411.7 663.8,415.1 665.7,418.6 667.5,422.2 669.4,426.0 671.3,429.9 673.2,433.9
675.0,437.9 676.9,442.1 678.8,446.3 680.6,450.6 682.5,455.0 684.4,459.4 686.3,463.8 688.1,468.3 690.0,472.8 691.9,477.3 693.7,481.9 695.6,486.4 697.5,490.9 699.3,495.4 701.2,499.9 703.1,504.4
705.0,508.8 706.8,513.1 708.7,517.4 710.6,521.6 712.4,525.7 714.3,529.7 716.2,533.7 718.1,537.5 719.9,541.2 721.8,544.8 723.7,548.3 725.5,551.6 727.4,554.8 729.3,557.9 731.1,560.8 733.0,563.6
734.9,566.2 736.8,568.6 738.6,570.9 740.5,573.1 742.4,575.0 744.2,576.9 746.1,578.5 748.0,580.0 749.9,581.4 751.7,582.6 753.6,583.6 755.5,584.5 757.3,585.3 759.2,585.9 761.1,586.4 762.9,586.8
764.8,587.0 766.7,587.2 768.6,587.2 770.4,587.2 772.3,587.1 774.2,586.8 776.0,586.5 777.9,586.2 779.8,585.7 781.7,585.2 783.5,584.7 785.4,584.1 787.3,583.4 789.1,582.7 791.0,582.0 792.9,581.2
794.7,580.5 796.6,579.7 798.5,578.9 800.4,578.1 802.2,577.2 804.1,576.4 806.0,575.6 807.8,574.8 809.7,574.1 811.6,573.3 813.5,572.6 815.3,571.9 817.2,571.3 819.1,570.7 820.9,570.1 822.8,569.7
824.7,569.2 826.5,568.8 828.4,568.5 830.3,568.3 832.2,568.1 834.0,568.0 835.9,568.0 837.8,568.1 839.6,568.2 841.5,568.4 843.4,568.7 845.3,569.1 847.1,569.6 849.0,570.1 850.9,570.8 852.7,571.5
854.6,572.2 856.5,573.1 858.3,574.0 860.2,575.0 862.1,576.0 864.0,577.1 865.8,578.3 867.7,579.5 869.6,580.7 871.4,582.0 873.3,583.3 875.2,584.6 877.1,585.9 878.9,587.3 880.8,588.7 882.7,590.1
884.5,591.5 886.4,592.9 888.3,594.3 890.1,595.8 892.0,597.2 893.9,598.6 895.8,600.1 897.6,601.5 899.5,602.9 901.4,604.4 903.2,605.8 905.1,607.2 907.0,608.6 908.8,610.0 910.7,611.4 912.6,612.8
914.5,614.1 916.3,615.5 918.2,616.8 920.1,618.1 921.9,619.4 923.8,620.7 925.7,621.9 925.7,662.4 923.8,662.4 921.9,662.4 920.1,662.4 918.2,662.4 916.3,662.4 914.5,662.4 912.6,662.4 910.7,662.4
908.8,662.4 907.0,662.4 905.1,662.4 903.2,662.4 901.4,662.4 899.5,662.4 897.6,662.4 895.8,662.4 893.9,662.4 892.0,662.4 890.1,662.4 888.3,662.4 886.4,662.4 884.5,662.4 882.7,662.4 880.8,662.4
878.9,662.4 877.1,662.4 875.2,662.4 873.3,662.4 871.4,662.4 869.6,662.4 867.7,662.4 865.8,662.4 864.0,662.4 862.1,662.4 860.2,662.4 858.3,662.4 856.5,662.4 854.6,662.4 852.7,662.4 850.9,662.4
849.0,662.4 847.1,662.4 845.3,662.4 843.4,662.4 841.5,662.4 839.6,662.4 837.8,662.4 835.9,662.4 834.0,662.4 832.2,662.4 830.3,662.4 828.4,662.4 826.5,662.4 824.7,662.4 822.8,662.4 820.9,662.4
819.1,662.4 817.2,662.4 815.3,662.4 813.5,662.4 811.6,662.4 809.7,662.4 807.8,662.4 806.0,662.4 804.1,662.4 802.2,662.4 800.4,662.4 798.5,662.4 796.6,662.4 794.7,662.4 792.9,662.4 791.0,662.4
789.1,662.4 787.3,662.4 785.4,662.4 783.5,662.4 781.7,662.4 779.8,662.4 777.9,662.4 776.0,662.4 774.2,662.4 772.3,662.4 770.4,662.4 768.6,662.4 766.7,662.4 764.8,662.4 762.9,662.4 761.1,662.4
759.2,662.4 757.3,662.4 755.5,662.4 753.6,662.4 751.7,662.4 749.9,662.4 748.0,662.4 746.1,662.4 744.2,662.4 742.4,662.4 740.5,662.4 738.6,662.4 736.8,662.4 734.9,662.4 733.0,662.4 731.1,662.4
729.3,662.4 727.4,662.4 725.5,662.4 723.7,662.4 721.8,662.4 719.9,662.4 718.1,662.4 716.2,662.4 714.3,662.4 712.4,662.4 710.6,662.4 708.7,662.4 706.8,662.4 705.0,662.4 703.1,662.4 701.2,662.4
699.3,662.4 697.5,662.4 695.6,662.4 693.7,662.4 691.9,662.4 690.0,662.4 688.1,662.4 686.3,662.4 684.4,662.4 682.5,662.4 680.6,662.4 678.8,662.4 676.9,662.4 675.0,662.4 673.2,662.4 671.3,662.4
669.4,662.4 667.5,662.4 665.7,662.4 663.8,662.4 661.9,662.4 660.1,662.4 658.2,662.4 656.3,662.4 654.5,662.4 652.6,662.4 650.7,662.4 648.8,662.4 647.0,662.4 645.1,662.4 643.2,662.4 641.4,662.4
639.5,662.4 637.6,662.4 635.8,662.4 633.9,662.4 632.0,662.4 630.1,662.4 628.3,662.4 626.4,662.4 624.5,662.4 622.7,662.4 620.8,662.4 618.9,662.4 617.0,662.4 615.2,662.4 613.3,662.4 611.4,662.4
609.6,662.4 607.7,662.4 605.8,662.4 604.0,662.4 602.1,662.4 600.2,662.4 598.3,662.4 596.5,662.4 594.6,662.4 592.7,662.4 590.9,662.4 589.0,662.4 587.1,662.4 585.2,662.4 583.4,662.4 581.5,662.4
579.6,662.4 577.8,662.4 575.9,662.4 574.0,662.4 572.2,662.4 570.3,662.4 568.4,662.4 566.5,662.4 564.7,662.4 562.8,662.4 560.9,662.4 559.1,662.4 557.2,662.4 555.3,662.4 553.4,662.4 551.6,662.4
549.7,662.4 547.8,662.4 546.0,662.4 544.1,662.4 542.2,662.4 540.4,662.4 538.5,662.4 536.6,662.4 534.7,662.4 532.9,662.4 531.0,662.4 529.1,662.4 527.3,662.4 525.4,662.4 523.5,662.4 521.6,662.4
519.8,662.4 517.9,662.4 516.0,662.4 514.2,662.4 512.3,662.4 510.4,662.4 508.6,662.4 506.7,662.4 504.8,662.4 502.9,662.4 501.1,662.4 499.2,662.4 497.3,662.4 495.5,662.4 493.6,662.4 491.7,662.4
489.8,662.4 488.0,662.4 486.1,662.4 484.2,662.4 482.4,662.4 480.5,662.4 478.6,662.4 476.8,662.4 474.9,662.4 473.0,662.4 471.1,662.4 469.3,662.4 467.4,662.4 465.5,662.4 463.7,662.4 461.8,662.4
459.9,662.4 458.0,662.4 456.2,662.4 454.3,662.4 452.4,662.4 450.6,662.4 448.7,662.4 446.8,662.4 445.0,662.4 443.1,662.4 441.2,662.4 439.3,662.4 437.5,662.4 435.6,662.4 433.7,662.4 431.9,662.4
430.0,662.4 428.1,662.4 426.3,662.4 424.4,662.4 422.5,662.4 420.6,662.4 418.8,662.4 416.9,662.4 415.0,662.4 413.2,662.4 411.3,662.4 409.4,662.4 407.5,662.4 405.7,662.4 403.8,662.4 401.9,662.4
400.1,662.4 398.2,662.4 396.3,662.4 394.5,662.4 392.6,662.4 390.7,662.4 388.8,662.4 387.0,662.4 385.1,662.4 383.2,662.4 381.4,662.4 379.5,662.4 377.6,662.4 375.7,662.4 373.9,662.4 372.0,662.4
370.1,662.4 368.3,662.4 366.4,662.4 364.5,662.4 362.7,662.4 360.8,662.4 358.9,662.4 357.0,662.4 355.2,662.4 353.3,662.4 351.4,662.4 349.6,662.4 347.7,662.4 345.8,662.4 343.9,662.4 342.1,662.4
340.2,662.4 338.3,662.4 336.5,662.4 334.6,662.4 332.7,662.4 330.9,662.4 329.0,662.4 327.1,662.4 325.2,662.4 323.4,662.4 321.5,662.4 319.6,662.4 317.8,662.4 315.9,662.4 314.0,662.4 312.1,662.4
310.3,662.4 308.4,662.4 306.5,662.4 304.7,662.4 302.8,662.4 300.9,662.4 299.1,662.4 297.2,662.4 295.3,662.4 293.4,662.4 291.6,662.4 289.7,662.4 287.8,662.4 286.0,662.4 284.1,662.4 282.2,662.4
280.3,662.4 278.5,662.4 276.6,662.4 274.7,662.4 272.9,662.4 271.0,662.4 269.1,662.4 267.3,662.4 265.4,662.4 263.5,662.4 261.6,662.4 259.8,662.4 257.9,662.4 256.0,662.4 254.2,662.4 252.3,662.4
250.4,662.4 248.5,662.4 246.7,662.4 244.8,662.4 242.9,662.4 241.1,662.4 239.2,662.4 237.3,662.4 235.5,662.4 233.6,662.4 231.7,662.4 229.8,662.4 228.0,662.4 226.1,662.4 224.2,662.4 222.4,662.4
220.5,662.4 218.6,662.4 216.7,662.4 214.9,662.4 213.0,662.4 211.1,662.4 209.3,662.4 207.4,662.4 205.5,662.4 203.7,662.4 201.8,662.4 199.9,662.4 198.0,662.4 196.2,662.4 194.3,662.4 192.4,662.4
190.6,662.4 188.7,662.4 186.8,662.4 185.0,662.4 183.1,662.4 181.2,662.4 179.3,662.4 177.5,662.4 175.6,662.4 173.7,662.4 171.9,662.4 170.0,662.4 168.1,662.4 166.2,662.4 '/>
	</g>
</g>
	</g>
	<g id="gnuplot_plot_3" ><title>Point estimate</title>
<g fill="none" color="white" stroke="rgb( 31, 120, 180)" stroke-width="2.00" stroke-linecap="butt" stroke-linejoin="miter">
</g>
<g fill="none" color="black" stroke="currentColor" stroke-width="2.00" stroke-linecap="butt" stroke-linejoin="miter">
	<g transform="translate(1089.0,103.0)" stroke="none" fill="black" font-family="Helvetica" font-size="12.00"  text-anchor="start">
		<text><tspan font-family="Helvetica" >Point estimate</tspan></text>
	</g>
</g>
<g fill="none" color="black" stroke="currentColor" stroke-width="2.00" stroke-linecap="butt" stroke-linejoin="miter">
	<path stroke='rgb( 31, 120, 180)'  d='M1038.5,99.1 L1080.7,99.1 M447.8,662.4 L447.8,143.3  '/></g>
	</g>
<g fill="none" color="black" stroke="currentColor" stroke-width="2.00" stroke-linecap="butt" stroke-linejoin="miter">
</g>
<g fill="none" color="black" stroke="black" stroke-width="1.00" stroke-linecap="butt" stroke-linejoin="miter">
</g>
<g fill="none" color="black" stroke="currentColor" stroke-width="1.00" stroke-linecap="butt" stroke-linejoin="miter">
	<path stroke='black'  d='M80.2,54.1 L80.2,662.4 L1013.6,662.4 L1013.6,54.1 L80.2,54.1 Z  '/></g>
<g fill="none" color="black" stroke="currentColor" stroke-width="1.00" stroke-linecap="butt" stroke-linejoin="miter">
</g>
</g>
</svg>

