<?xml version="1.0" encoding="utf-8"  standalone="no"?>
<svg 
 viewBox="0 0 1280 720"
 xmlns="http://www.w3.org/2000/svg"
 xmlns:xlink="http://www.w3.org/1999/xlink"
>

<title>Gnuplot</title>
<desc>Produced by GNUPLOT 5.2 patchlevel 6 </desc>

<g id="gnuplot_canvas">

<rect x="0" y="0" width="1280" height="720" fill="none"/>
<defs>

	<circle id='gpDot' r='0.5' stroke-width='0.5' stroke='currentColor'/>
	<path id='gpPt0' stroke-width='0.222' stroke='currentColor' d='M-1,0 h2 M0,-1 v2'/>
	<path id='gpPt1' stroke-width='0.222' stroke='currentColor' d='M-1,-1 L1,1 M1,-1 L-1,1'/>
	<path id='gpPt2' stroke-width='0.222' stroke='currentColor' d='M-1,0 L1,0 M0,-1 L0,1 M-1,-1 L1,1 M-1,1 L1,-1'/>
	<rect id='gpPt3' stroke-width='0.222' stroke='currentColor' x='-1' y='-1' width='2' height='2'/>
	<rect id='gpPt4' stroke-width='0.222' stroke='currentColor' fill='currentColor' x='-1' y='-1' width='2' height='2'/>
	<circle id='gpPt5' stroke-width='0.222' stroke='currentColor' cx='0' cy='0' r='1'/>
	<use xlink:href='#gpPt5' id='gpPt6' fill='currentColor' stroke='none'/>
	<path id='gpPt7' stroke-width='0.222' stroke='currentColor' d='M0,-1.33 L-1.33,0.67 L1.33,0.67 z'/>
	<use xlink:href='#gpPt7' id='gpPt8' fill='currentColor' stroke='none'/>
	<use xlink:href='#gpPt7' id='gpPt9' stroke='currentColor' transform='rotate(180)'/>
	<use xlink:href='#gpPt9' id='gpPt10' fill='currentColor' stroke='none'/>
	<use xlink:href='#gpPt3' id='gpPt11' stroke='currentColor' transform='rotate(45)'/>
	<use xlink:href='#gpPt11' id='gpPt12' fill='currentColor' stroke='none'/>
	<path id='gpPt13' stroke-width='0.222' stroke='currentColor' d='M0,1.330 L1.265,0.411 L0.782,-1.067 L-0.782,-1.076 L-1.265,0.411 z'/>
	<use xlink:href='#gpPt13' id='gpPt14' fill='currentColor' stroke='none'/>
	<filter id='textbox' filterUnits='objectBoundingBox' x='0' y='0' height='1' width='1'>
	  <feFlood flood-color='white' flood-opacity='1' result='bgnd'/>
	  <feComposite in='SourceGraphic' in2='bgnd' operator='atop'/>
	</filter>
	<filter id='greybox' filterUnits='objectBoundingBox' x='0' y='0' height='1' width='1'>
	  <feFlood flood-color='lightgrey' flood-opacity='1' result='grey'/>
	  <feComposite in='SourceGraphic' in2='grey' operator='atop'/>
	</filter>
</defs>
<g fill="none" color="white" stroke="currentColor" stroke-width="1.00" stroke-linecap="butt" stroke-linejoin="miter">
</g>
<g fill="none" color="black" stroke="currentColor" stroke-width="1.00" stroke-linecap="butt" stroke-linejoin="miter">
	<path stroke='black'  d='M80.2,662.4 L89.2,662.4  '/>	<g transform="translate(71.9,666.3)" stroke="none" fill="black" font-family="Helvetica" font-size="12.00"  text-anchor="end">
		<text><tspan font-family="Helvetica" > 0</tspan></text>
	</g>
</g>
<g fill="none" color="black" stroke="currentColor" stroke-width="1.00" stroke-linecap="butt" stroke-linejoin="miter">
	<path stroke='black'  d='M80.2,575.5 L89.2,575.5  '/>	<g transform="translate(71.9,579.4)" stroke="none" fill="black" font-family="Helvetica" font-size="12.00"  text-anchor="end">
		<text><tspan font-family="Helvetica" > 0.05</tspan></text>
	</g>
</g>
<g fill="none" color="black" stroke="currentColor" stroke-width="1.00" stroke-linecap="butt" stroke-linejoin="miter">
	<path stroke='black'  d='M80.2,488.6 L89.2,488.6  '/>	<g transform="translate(71.9,492.5)" stroke="none" fill="black" font-family="Helvetica" font-size="12.00"  text-anchor="end">
		<text><tspan font-family="Helvetica" > 0.1</tspan></text>
	</g>
</g>
<g fill="none" color="black" stroke="currentColor" stroke-width="1.00" stroke-linecap="butt" stroke-linejoin="miter">
	<path stroke='black'  d='M80.2,401.7 L89.2,401.7  '/>	<g transform="translate(71.9,405.6)" stroke="none" fill="black" font-family="Helvetica" font-size="12.00"  text-anchor="end">
		<text><tspan font-family="Helvetica" > 0.15</tspan></text>
	</g>
</g>
<g fill="none" color="black" stroke="currentColor" stroke-width="1.00" stroke-linecap="butt" stroke-linejoin="miter">
	<path stroke='black'  d='M80.2,314.8 L89.2,314.8  '/>	<g transform="translate(71.9,318.7)" stroke="none" fill="black" font-family="Helvetica" font-size="12.00"  text-anchor="end">
		<text><tspan font-family="Helvetica" > 0.2</tspan></text>
	</g>
</g>
<g fill="none" color="black" stroke="currentColor" stroke-width="1.00" stroke-linecap="butt" stroke-linejoin="miter">
	<path stroke='black'  d='M80.2,227.9 L89.2,227.9  '/>	<g transform="translate(71.9,231.8)" stroke="none" fill="black" font-family="Helvetica" font-size="12.00"  text-anchor="end">
		<text><tspan font-family="Helvetica" > 0.25</tspan></text>
	</g>
</g>
<g fill="none" color="black" stroke="currentColor" stroke-width="1.00" stroke-linecap="butt" stroke-linejoin="miter">
	<path stroke='black'  d='M80.2,141.0 L89.2,141.0  '/>	<g transform="translate(71.9,144.9)" stroke="none" fill="black" font-family="Helvetica" font-size="12.00"  text-anchor="end">
		<text><tspan font-family="Helvetica" > 0.3</tspan></text>
	</g>
</g>
<g fill="none" color="black" stroke="currentColor" stroke-width="1.00" stroke-linecap="butt" stroke-linejoin="miter">
	<path stroke='black'  d='M80.2,54.1 L89.2,54.1  '/>	<g transform="translate(71.9,58.0)" stroke="none" fill="black" font-family="Helvetica" font-size="12.00"  text-anchor="end">
		<text><tspan font-family="Helvetica" > 0.35</tspan></text>
	</g>
</g>
<g fill="none" color="black" stroke="currentColor" stroke-width="1.00" stroke-linecap="butt" stroke-linejoin="miter">
	<path stroke='black'  d='M104.1,662.4 L104.1,653.4  '/>	<g transform="translate(104.1,684.3)" stroke="none" fill="black" font-family="Helvetica" font-size="12.00"  text-anchor="middle">
		<text><tspan font-family="Helvetica" > 0</tspan></text>
	</g>
</g>
<g fill="none" color="black" stroke="currentColor" stroke-width="1.00" stroke-linecap="butt" stroke-linejoin="miter">
	<path stroke='black'  d='M226.4,662.4 L226.4,653.4  '/>	<g transform="translate(226.4,684.3)" stroke="none" fill="black" font-family="Helvetica" font-size="12.00"  text-anchor="middle">
		<text><tspan font-family="Helvetica" > 2</tspan></text>
	</g>
</g>
<g fill="none" color="black" stroke="currentColor" stroke-width="1.00" stroke-linecap="butt" stroke-linejoin="miter">
	<path stroke='black'  d='M348.7,662.4 L348.7,653.4  '/>	<g transform="translate(348.7,684.3)" stroke="none" fill="black" font-family="Helvetica" font-size="12.00"  text-anchor="middle">
		<text><tspan font-family="Helvetica" > 4</tspan></text>
	</g>
</g>
<g fill="none" color="black" stroke="currentColor" stroke-width="1.00" stroke-linecap="butt" stroke-linejoin="miter">
	<path stroke='black'  d='M471.0,662.4 L471.0,653.4  '/>	<g transform="translate(471.0,684.3)" stroke="none" fill="black" font-family="Helvetica" font-size="12.00"  text-anchor="middle">
		<text><tspan font-family="Helvetica" > 6</tspan></text>
	</g>
</g>
<g fill="none" color="black" stroke="currentColor" stroke-width="1.00" stroke-linecap="butt" stroke-linejoin="miter">
	<path stroke='black'  d='M593.3,662.4 L593.3,653.4  '/>	<g transform="translate(593.3,684.3)" stroke="none" fill="black" font-family="Helvetica" font-size="12.00"  text-anchor="middle">
		<text><tspan font-family="Helvetica" > 8</tspan></text>
	</g>
</g>
<g fill="none" color="black" stroke="currentColor" stroke-width="1.00" stroke-linecap="butt" stroke-linejoin="miter">
	<path stroke='black'  d='M715.6,662.4 L715.6,653.4  '/>	<g transform="translate(715.6,684.3)" stroke="none" fill="black" font-family="Helvetica" font-size="12.00"  text-anchor="middle">
		<text><tspan font-family="Helvetica" > 10</tspan></text>
	</g>
</g>
<g fill="none" color="black" stroke="currentColor" stroke-width="1.00" stroke-linecap="butt" stroke-linejoin="miter">
	<path stroke='black'  d='M837.9,662.4 L837.9,653.4  '/>	<g transform="translate(837.9,684.3)" stroke="none" fill="black" font-family="Helvetica" font-size="12.00"  text-anchor="middle">
		<text><tspan font-family="Helvetica" > 12</tspan></text>
	</g>
</g>
<g fill="none" color="black" stroke="currentColor" stroke-width="1.00" stroke-linecap="butt" stroke-linejoin="miter">
	<path stroke='black'  d='M960.2,662.4 L960.2,653.4  '/>	<g transform="translate(960.2,684.3)" stroke="none" fill="black" font-family="Helvetica" font-size="12.00"  text-anchor="middle">
		<text><tspan font-family="Helvetica" > 14</tspan></text>
	</g>
</g>
<g fill="none" color="black" stroke="currentColor" stroke-width="1.00" stroke-linecap="butt" stroke-linejoin="miter">
</g>
<g fill="none" color="black" stroke="currentColor" stroke-width="1.00" stroke-linecap="butt" stroke-linejoin="miter">
	<path stroke='black'  d='M80.2,54.1 L80.2,662.4 L1013.6,662.4 L1013.6,54.1 L80.2,54.1 Z  '/></g>
<g fill="none" color="black" stroke="currentColor" stroke-width="1.00" stroke-linecap="butt" stroke-linejoin="miter">
	<g transform="translate(16.3,358.3) rotate(270)" stroke="none" fill="black" font-family="Helvetica" font-size="12.00"  text-anchor="middle">
		<text><tspan font-family="Helvetica" >Density (a.u.)</tspan></text>
	</g>
</g>
<g fill="none" color="black" stroke="currentColor" stroke-width="1.00" stroke-linecap="butt" stroke-linejoin="miter">
	<g transform="translate(546.9,711.3)" stroke="none" fill="black" font-family="Helvetica" font-size="12.00"  text-anchor="middle">
		<text><tspan font-family="Helvetica" >Average time (us)</tspan></text>
	</g>
</g>
<g fill="none" color="black" stroke="currentColor" stroke-width="1.00" stroke-linecap="butt" stroke-linejoin="miter">
	<g transform="translate(546.9,31.0)" stroke="none" fill="black" font-family="Helvetica" font-size="12.00"  text-anchor="middle">
		<text><tspan font-family="Helvetica" >snapshot_restore_with_dense/Sparse: Entire region + /proc/pid/mem/10: SD</tspan></text>
	</g>
</g>
	<g id="gnuplot_plot_1" ><title>Bootstrap distribution</title>
<g fill="none" color="white" stroke="black" stroke-width="2.00" stroke-linecap="butt" stroke-linejoin="miter">
</g>
<g fill="none" color="black" stroke="currentColor" stroke-width="2.00" stroke-linecap="butt" stroke-linejoin="miter">
	<g transform="translate(1089.0,67.0)" stroke="none" fill="black" font-family="Helvetica" font-size="12.00"  text-anchor="start">
		<text><tspan font-family="Helvetica" >Bootstrap distribution</tspan></text>
	</g>
</g>
<g fill="none" color="black" stroke="currentColor" stroke-width="2.00" stroke-linecap="butt" stroke-linejoin="miter">
	<path stroke='rgb( 31, 120, 180)'  d='M1038.5,63.1 L1080.7,63.1 M80.2,657.7 L82.1,657.0 L83.9,656.3 L85.8,655.5 L87.7,654.6 L89.6,653.6
		L91.4,652.6 L93.3,651.5 L95.2,650.2 L97.0,648.9 L98.9,647.5 L100.8,646.0 L102.6,644.4 L104.5,642.7
		L106.4,640.9 L108.3,639.0 L110.1,637.0 L112.0,634.9 L113.9,632.7 L115.7,630.4 L117.6,628.0 L119.5,625.4
		L121.4,622.7 L123.2,619.9 L125.1,617.0 L127.0,613.9 L128.8,610.7 L130.7,607.3 L132.6,603.8 L134.4,600.1
		L136.3,596.2 L138.2,592.2 L140.1,588.0 L141.9,583.5 L143.8,578.9 L145.7,574.1 L147.5,569.1 L149.4,563.9
		L151.3,558.4 L153.2,552.8 L155.0,546.9 L156.9,540.9 L158.8,534.6 L160.6,528.2 L162.5,521.5 L164.4,514.7
		L166.2,507.8 L168.1,500.7 L170.0,493.4 L171.9,486.1 L173.7,478.6 L175.6,471.1 L177.5,463.5 L179.3,455.8
		L181.2,448.2 L183.1,440.5 L185.0,432.9 L186.8,425.4 L188.7,417.9 L190.6,410.6 L192.4,403.4 L194.3,396.4
		L196.2,389.6 L198.0,383.1 L199.9,376.8 L201.8,370.8 L203.7,365.1 L205.5,359.8 L207.4,354.8 L209.3,350.3
		L211.1,346.2 L213.0,342.5 L214.9,339.3 L216.7,336.6 L218.6,334.4 L220.5,332.7 L222.4,331.6 L224.2,331.0
		L226.1,330.9 L228.0,331.4 L229.8,332.4 L231.7,334.0 L233.6,336.1 L235.5,338.8 L237.3,342.0 L239.2,345.8
		L241.1,350.0 L242.9,354.7 L244.8,359.9 L246.7,365.5 L248.5,371.5 L250.4,378.0 L252.3,384.7 L254.2,391.9
		L256.0,399.3 L257.9,407.0 L259.8,414.9 L261.6,423.0 L263.5,431.3 L265.4,439.7 L267.3,448.3 L269.1,456.9
		L271.0,465.5 L272.9,474.1 L274.7,482.7 L276.6,491.3 L278.5,499.7 L280.3,508.0 L282.2,516.3 L284.1,524.3
		L286.0,532.2 L287.8,539.8 L289.7,547.3 L291.6,554.5 L293.4,561.4 L295.3,568.1 L297.2,574.6 L299.1,580.7
		L300.9,586.6 L302.8,592.2 L304.7,597.6 L306.5,602.6 L308.4,607.4 L310.3,611.9 L312.1,616.1 L314.0,620.1
		L315.9,623.8 L317.8,627.3 L319.6,630.5 L321.5,633.5 L323.4,636.2 L325.2,638.8 L327.1,641.2 L329.0,643.3
		L330.9,645.3 L332.7,647.1 L334.6,648.7 L336.5,650.2 L338.3,651.6 L340.2,652.8 L342.1,653.9 L343.9,654.9
		L345.8,655.8 L347.7,656.6 L349.6,657.3 L351.4,658.0 L353.3,658.6 L355.2,659.1 L357.0,659.5 L358.9,659.9
		L360.8,660.2 L362.7,660.5 L364.5,660.8 L366.4,661.0 L368.3,661.2 L370.1,661.4 L372.0,661.5 L373.9,661.7
		L375.7,661.8 L377.6,661.9 L379.5,662.0 L381.4,662.0 L383.2,662.1 L385.1,662.1 L387.0,662.2 L388.8,662.2
		L390.7,662.2 L392.6,662.3 L394.5,662.3 L396.3,662.3 L398.2,662.3 L400.1,662.3 L401.9,662.4 L403.8,662.4
		L405.7,662.4 L407.5,662.4 L409.4,662.4 L411.3,662.4 L413.2,662.4 L415.0,662.4 L416.9,662.4 L418.8,662.4
		L420.6,662.4 L422.5,662.4 L424.4,662.4 L426.3,662.4 L428.1,662.4 L430.0,662.4 L431.9,662.4 L433.7,662.4
		L435.6,662.4 L437.5,662.4 L439.3,662.4 L441.2,662.4 L443.1,662.4 L445.0,662.4 L446.8,662.4 L448.7,662.4
		L450.6,662.4 L452.4,662.4 L454.3,662.4 L456.2,662.4 L458.0,662.4 L459.9,662.4 L461.8,662.4 L463.7,662.4
		L465.5,662.4 L467.4,662.4 L469.3,662.4 L471.1,662.4 L473.0,662.4 L474.9,662.3 L476.8,662.3 L478.6,662.3
		L480.5,662.3 L482.4,662.2 L484.2,662.2 L486.1,662.1 L488.0,662.0 L489.8,661.9 L491.7,661.7 L493.6,661.5
		L495.5,661.3 L497.3,661.0 L499.2,660.6 L501.1,660.1 L502.9,659.6 L504.8,658.9 L506.7,658.0 L508.6,657.0
		L510.4,655.7 L512.3,654.3 L514.2,652.5 L516.0,650.4 L517.9,647.9 L519.8,645.0 L521.6,641.6 L523.5,637.7
		L525.4,633.2 L527.3,628.0 L529.1,622.1 L531.0,615.3 L532.9,607.7 L534.7,599.2 L536.6,589.7 L538.5,579.1
		L540.4,567.4 L542.2,554.7 L544.1,540.7 L546.0,525.6 L547.8,509.3 L549.7,491.9 L551.6,473.4 L553.4,453.8
		L555.3,433.3 L557.2,412.0 L559.1,389.9 L560.9,367.2 L562.8,344.1 L564.7,320.8 L566.5,297.4 L568.4,274.3
		L570.3,251.6 L572.2,229.5 L574.0,208.4 L575.9,188.4 L577.8,169.8 L579.6,152.8 L581.5,137.7 L583.4,124.5
		L585.2,113.6 L587.1,104.9 L589.0,98.7 L590.9,95.1 L592.7,94.0 L594.6,95.5 L596.5,99.5 L598.3,106.1
		L600.2,115.1 L602.1,126.4 L604.0,139.8 L605.8,155.1 L607.7,172.3 L609.6,191.0 L611.4,211.0 L613.3,232.1
		L615.2,254.1 L617.0,276.7 L618.9,299.7 L620.8,322.8 L622.7,345.9 L624.5,368.7 L626.4,391.1 L628.3,413.0
		L630.1,434.0 L632.0,454.3 L633.9,473.6 L635.8,491.8 L637.6,509.0 L639.5,525.1 L641.4,540.0 L643.2,553.8
		L645.1,566.4 L647.0,578.0 L648.8,588.5 L650.7,597.9 L652.6,606.5 L654.5,614.1 L656.3,620.8 L658.2,626.8
		L660.1,632.0 L661.9,636.6 L663.8,640.6 L665.7,644.0 L667.5,647.0 L669.4,649.5 L671.3,651.7 L673.2,653.5
		L675.0,655.0 L676.9,656.3 L678.8,657.3 L680.6,658.2 L682.5,658.8 L684.4,659.3 L686.3,659.7 L688.1,660.0
		L690.0,660.1 L691.9,660.1 L693.7,660.0 L695.6,659.8 L697.5,659.4 L699.3,659.0 L701.2,658.4 L703.1,657.6
		L705.0,656.7 L706.8,655.5 L708.7,654.1 L710.6,652.5 L712.4,650.6 L714.3,648.4 L716.2,645.9 L718.1,643.0
		L719.9,639.7 L721.8,635.9 L723.7,631.6 L725.5,626.8 L727.4,621.5 L729.3,615.6 L731.1,609.1 L733.0,602.0
		L734.9,594.3 L736.8,585.9 L738.6,577.0 L740.5,567.4 L742.4,557.3 L744.2,546.7 L746.1,535.6 L748.0,524.1
		L749.9,512.3 L751.7,500.3 L753.6,488.1 L755.5,475.9 L757.3,463.9 L759.2,452.0 L761.1,440.5 L762.9,429.5
		L764.8,419.2 L766.7,409.6 L768.6,400.8 L770.4,393.1 L772.3,386.4 L774.2,380.9 L776.0,376.7 L777.9,373.8
		L779.8,372.3 L781.7,372.1 L783.5,373.4 L785.4,376.0 L787.3,379.9 L789.1,385.1 L791.0,391.5 L792.9,399.0
		L794.7,407.6 L796.6,417.0 L798.5,427.2 L800.4,438.0 L802.2,449.4 L804.1,461.2 L806.0,473.2 L807.8,485.3
		L809.7,497.4 L811.6,509.5 L813.5,521.3 L815.3,532.8 L817.2,544.0 L819.1,554.7 L820.9,564.9 L822.8,574.5
		L824.7,583.6 L826.5,592.0 L828.4,599.8 L830.3,607.0 L832.2,613.6 L834.0,619.6 L835.9,624.9 L837.8,629.7
		L839.6,634.0 L841.5,637.7 L843.4,641.0 L845.3,643.8 L847.1,646.2 L849.0,648.1 L850.9,649.7 L852.7,651.0
		L854.6,651.9 L856.5,652.5 L858.3,652.8 L860.2,652.8 L862.1,652.5 L864.0,652.0 L865.8,651.2 L867.7,650.2
		L869.6,648.9 L871.4,647.4 L873.3,645.6 L875.2,643.5 L877.1,641.3 L878.9,638.7 L880.8,636.0 L882.7,633.0
		L884.5,629.8 L886.4,626.4 L888.3,622.8 L890.1,619.1 L892.0,615.2 L893.9,611.2 L895.8,607.1 L897.6,603.0
		L899.5,598.9 L901.4,594.8 L903.2,590.8 L905.1,587.0 L907.0,583.3 L908.8,579.9 L910.7,576.7 L912.6,573.8
		L914.5,571.3 L916.3,569.2 L918.2,567.4 L920.1,566.1 L921.9,565.3 L923.8,564.9 L925.7,565.0 L927.6,565.6
		L929.4,566.6 L931.3,568.1 L933.2,570.0 L935.0,572.4 L936.9,575.0 L938.8,578.0 L940.6,581.3 L942.5,584.9
		L944.4,588.6 L946.3,592.5 L948.1,596.6 L950.0,600.6 L951.9,604.7 L953.7,608.8 L955.6,612.9 L957.5,616.8
		L959.4,620.6 L961.2,624.3 L963.1,627.8 L965.0,631.1 L966.8,634.2 L968.7,637.1 L970.6,639.7 L972.4,642.2
		L974.3,644.4 L976.2,646.3 L978.1,648.1 L979.9,649.6 L981.8,650.9 L983.7,652.0 L985.5,653.0 L987.4,653.7
		L989.3,654.2 L991.2,654.6 L993.0,654.8 L994.9,654.9 L996.8,654.8 L998.6,654.6 L1000.5,654.3 L1002.4,653.9
		L1004.2,653.3 L1006.1,652.7 L1008.0,652.0 L1009.9,651.3 L1011.7,650.4 L1013.6,649.6  '/></g>
	</g>
	<g id="gnuplot_plot_2" ><title>Confidence interval</title>
<g fill="none" color="white" stroke="rgb( 31, 120, 180)" stroke-width="1.00" stroke-linecap="butt" stroke-linejoin="miter">
</g>
<g fill="none" color="black" stroke="currentColor" stroke-width="1.00" stroke-linecap="butt" stroke-linejoin="miter">
	<g transform="translate(1089.0,85.0)" stroke="none" fill="black" font-family="Helvetica" font-size="12.00"  text-anchor="start">
		<text><tspan font-family="Helvetica" >Confidence interval</tspan></text>
	</g>
</g>
<g fill="none" color="black" stroke="currentColor" stroke-width="1.00" stroke-linecap="butt" stroke-linejoin="miter">
	<g stroke='none' shape-rendering='crispEdges'>
		<polygon fill = 'rgb( 31, 120, 180)' fill-opacity = '0.250000' points = '1038.5,85.6 1080.7,85.6 1080.7,76.6 1038.5,76.6 '/>
		<polygon fill = 'rgb( 31, 120, 180)' fill-opacity = '0.250000' points = '166.2,507.8 168.1,500.7 170.0,493.4 171.9,486.1 173.7,478.6 175.6,471.1 177.5,463.5 179.3,455.8 181.2,448.2 183.1,440.5 185.0,432.9 186.8,425.4 188.7,417.9 190.6,410.6 192.4,403.4 194.3,396.4
196.2,389.6 198.0,383.1 199.9,376.8 201.8,370.8 203.7,365.1 205.5,359.8 207.4,354.8 209.3,350.3 211.1,346.2 213.0,342.5 214.9,339.3 216.7,336.6 218.6,334.4 220.5,332.7 222.4,331.6 224.2,331.0
226.1,330.9 228.0,331.4 229.8,332.4 231.7,334.0 233.6,336.1 235.5,338.8 237.3,342.0 239.2,345.8 241.1,350.0 242.9,354.7 244.8,359.9 246.7,365.5 248.5,371.5 250.4,378.0 252.3,384.7 254.2,391.9
256.0,399.3 257.9,407.0 259.8,414.9 261.6,423.0 263.5,431.3 265.4,439.7 267.3,448.3 269.1,456.9 271.0,465.5 272.9,474.1 274.7,482.7 276.6,491.3 278.5,499.7 280.3,508.0 282.2,516.3 284.1,524.3
286.0,532.2 287.8,539.8 289.7,547.3 291.6,554.5 293.4,561.4 295.3,568.1 297.2,574.6 299.1,580.7 300.9,586.6 302.8,592.2 304.7,597.6 306.5,602.6 308.4,607.4 310.3,611.9 312.1,616.1 314.0,620.1
315.9,623.8 317.8,627.3 319.6,630.5 321.5,633.5 323.4,636.2 325.2,638.8 327.1,641.2 329.0,643.3 330.9,645.3 332.7,647.1 334.6,648.7 336.5,650.2 338.3,651.6 340.2,652.8 342.1,653.9 343.9,654.9
345.8,655.8 347.7,656.6 349.6,657.3 351.4,658.0 353.3,658.6 355.2,659.1 357.0,659.5 358.9,659.9 360.8,660.2 362.7,660.5 364.5,660.8 366.4,661.0 368.3,661.2 370.1,661.4 372.0,661.5 373.9,661.7
375.7,661.8 377.6,661.9 379.5,662.0 381.4,662.0 383.2,662.1 385.1,662.1 387.0,662.2 388.8,662.2 390.7,662.2 392.6,662.3 394.5,662.3 396.3,662.3 398.2,662.3 400.1,662.3 401.9,662.4 403.8,662.4
405.7,662.4 407.5,662.4 409.4,662.4 411.3,662.4 413.2,662.4 415.0,662.4 416.9,662.4 418.8,662.4 420.6,662.4 422.5,662.4 424.4,662.4 426.3,662.4 428.1,662.4 430.0,662.4 431.9,662.4 433.7,662.4
435.6,662.4 437.5,662.4 439.3,662.4 441.2,662.4 443.1,662.4 445.0,662.4 446.8,662.4 448.7,662.4 450.6,662.4 452.4,662.4 454.3,662.4 456.2,662.4 458.0,662.4 459.9,662.4 461.8,662.4 463.7,662.4
465.5,662.4 467.4,662.4 469.3,662.4 471.1,662.4 473.0,662.4 474.9,662.3 476.8,662.3 478.6,662.3 480.5,662.3 482.4,662.2 484.2,662.2 486.1,662.1 488.0,662.0 489.8,661.9 491.7,661.7 493.6,661.5
495.5,661.3 497.3,661.0 499.2,660.6 501.1,660.1 502.9,659.6 504.8,658.9 506.7,658.0 508.6,657.0 510.4,655.7 512.3,654.3 514.2,652.5 516.0,650.4 517.9,647.9 519.8,645.0 521.6,641.6 523.5,637.7
525.4,633.2 527.3,628.0 529.1,622.1 531.0,615.3 532.9,607.7 534.7,599.2 536.6,589.7 538.5,579.1 540.4,567.4 542.2,554.7 544.1,540.7 546.0,525.6 547.8,509.3 549.7,491.9 551.6,473.4 553.4,453.8
555.3,433.3 557.2,412.0 559.1,389.9 560.9,367.2 562.8,344.1 564.7,320.8 566.5,297.4 568.4,274.3 570.3,251.6 572.2,229.5 574.0,208.4 575.9,188.4 577.8,169.8 579.6,152.8 581.5,137.7 583.4,124.5
585.2,113.6 587.1,104.9 589.0,98.7 590.9,95.1 592.7,94.0 594.6,95.5 596.5,99.5 598.3,106.1 600.2,115.1 602.1,126.4 604.0,139.8 605.8,155.1 607.7,172.3 609.6,191.0 611.4,211.0 613.3,232.1
615.2,254.1 617.0,276.7 618.9,299.7 620.8,322.8 622.7,345.9 624.5,368.7 626.4,391.1 628.3,413.0 630.1,434.0 632.0,454.3 633.9,473.6 635.8,491.8 637.6,509.0 639.5,525.1 641.4,540.0 643.2,553.8
645.1,566.4 647.0,578.0 648.8,588.5 650.7,597.9 652.6,606.5 654.5,614.1 656.3,620.8 658.2,626.8 660.1,632.0 661.9,636.6 663.8,640.6 665.7,644.0 667.5,647.0 669.4,649.5 671.3,651.7 673.2,653.5
675.0,655.0 676.9,656.3 678.8,657.3 680.6,658.2 682.5,658.8 684.4,659.3 686.3,659.7 688.1,660.0 690.0,660.1 691.9,660.1 693.7,660.0 695.6,659.8 697.5,659.4 699.3,659.0 701.2,658.4 703.1,657.6
705.0,656.7 706.8,655.5 708.7,654.1 710.6,652.5 712.4,650.6 714.3,648.4 716.2,645.9 718.1,643.0 719.9,639.7 721.8,635.9 723.7,631.6 725.5,626.8 727.4,621.5 729.3,615.6 731.1,609.1 733.0,602.0
734.9,594.3 736.8,585.9 738.6,577.0 740.5,567.4 742.4,557.3 744.2,546.7 746.1,535.6 748.0,524.1 749.9,512.3 751.7,500.3 753.6,488.1 755.5,475.9 757.3,463.9 759.2,452.0 761.1,440.5 762.9,429.5
764.8,419.2 766.7,409.6 768.6,400.8 770.4,393.1 772.3,386.4 774.2,380.9 776.0,376.7 777.9,373.8 779.8,372.3 781.7,372.1 783.5,373.4 785.4,376.0 787.3,379.9 789.1,385.1 791.0,391.5 792.9,399.0
794.7,407.6 796.6,417.0 798.5,427.2 800.4,438.0 802.2,449.4 804.1,461.2 806.0,473.2 807.8,485.3 809.7,497.4 811.6,509.5 813.5,521.3 815.3,532.8 817.2,544.0 819.1,554.7 820.9,564.9 822.8,574.5
824.7,583.6 826.5,592.0 828.4,599.8 830.3,607.0 832.2,613.6 834.0,619.6 835.9,624.9 837.8,629.7 839.6,634.0 841.5,637.7 843.4,641.0 845.3,643.8 847.1,646.2 849.0,648.1 850.9,649.7 852.7,651.0
854.6,651.9 856.5,652.5 858.3,652.8 860.2,652.8 862.1,652.5 864.0,652.0 865.8,651.2 867.7,650.2 869.6,648.9 871.4,647.4 873.3,645.6 875.2,643.5 877.1,641.3 878.9,638.7 880.8,636.0 882.7,633.0
884.5,629.8 886.4,626.4 888.3,622.8 890.1,619.1 892.0,615.2 893.9,611.2 895.8,607.1 897.6,603.0 899.5,598.9 901.4,594.8 903.2,590.8 905.1,587.0 907.0,583.3 908.8,579.9 910.7,576.7 912.6,573.8
914.5,571.3 916.3,569.2 918.2,567.4 920.1,566.1 921.9,565.3 923.8,564.9 925.7,565.0 925.7,662.4 923.8,662.4 921.9,662.4 920.1,662.4 918.2,662.4 916.3,662.4 914.5,662.4 912.6,662.4 910.7,662.4
908.8,662.4 907.0,662.4 905.1,662.4 903.2,662.4 901.4,662.4 899.5,662.4 897.6,662.4 895.8,662.4 893.9,662.4 892.0,662.4 890.1,662.4 888.3,662.4 886.4,662.4 884.5,662.4 882.7,662.4 880.8,662.4
878.9,662.4 877.1,662.4 875.2,662.4 873.3,662.4 871.4,662.4 869.6,662.4 867.7,662.4 865.8,662.4 864.0,662.4 862.1,662.4 860.2,662.4 858.3,662.4 856.5,662.4 854.6,662.4 852.7,662.4 850.9,662.4
849.0,662.4 847.1,662.4 845.3,662.4 843.4,662.4 841.5,662.4 839.6,662.4 837.8,662.4 835.9,662.4 834.0,662.4 832.2,662.4 830.3,662.4 828.4,662.4 826.5,662.4 824.7,662.4 822.8,662.4 820.9,662.4
819.1,662.4 817.2,662.4 815.3,662.4 813.5,662.4 811.6,662.4 809.7,662.4 807.8,662.4 806.0,662.4 804.1,662.4 802.2,662.4 800.4,662.4 798.5,662.4 796.6,662.4 794.7,662.4 792.9,662.4 791.0,662.4
789.1,662.4 787.3,662.4 785.4,662.4 783.5,662.4 781.7,662.4 779.8,662.4 777.9,662.4 776.0,662.4 774.2,662.4 772.3,662.4 770.4,662.4 768.6,662.4 766.7,662.4 764.8,662.4 762.9,662.4 761.1,662.4
759.2,662.4 757.3,662.4 755.5,662.4 753.6,662.4 751.7,662.4 749.9,662.4 748.0,662.4 746.1,662.4 744.2,662.4 742.4,662.4 740.5,662.4 738.6,662.4 736.8,662.4 734.9,662.4 733.0,662.4 731.1,662.4
729.3,662.4 727.4,662.4 725.5,662.4 723.7,662.4 721.8,662.4 719.9,662.4 718.1,662.4 716.2,662.4 714.3,662.4 712.4,662.4 710.6,662.4 708.7,662.4 706.8,662.4 705.0,662.4 703.1,662.4 701.2,662.4
699.3,662.4 697.5,662.4 695.6,662.4 693.7,662.4 691.9,662.4 690.0,662.4 688.1,662.4 686.3,662.4 684.4,662.4 682.5,662.4 680.6,662.4 678.8,662.4 676.9,662.4 675.0,662.4 673.2,662.4 671.3,662.4
669.4,662.4 667.5,662.4 665.7,662.4 663.8,662.4 661.9,662.4 660.1,662.4 658.2,662.4 656.3,662.4 654.5,662.4 652.6,662.4 650.7,662.4 648.8,662.4 647.0,662.4 645.1,662.4 643.2,662.4 641.4,662.4
639.5,662.4 637.6,662.4 635.8,662.4 633.9,662.4 632.0,662.4 630.1,662.4 628.3,662.4 626.4,662.4 624.5,662.4 622.7,662.4 620.8,662.4 618.9,662.4 617.0,662.4 615.2,662.4 613.3,662.4 611.4,662.4
609.6,662.4 607.7,662.4 605.8,662.4 604.0,662.4 602.1,662.4 600.2,662.4 598.3,662.4 596.5,662.4 594.6,662.4 592.7,662.4 590.9,662.4 589.0,662.4 587.1,662.4 585.2,662.4 583.4,662.4 581.5,662.4
579.6,662.4 577.8,662.4 575.9,662.4 574.0,662.4 572.2,662.4 570.3,662.4 568.4,662.4 566.5,662.4 564.7,662.4 562.8,662.4 560.9,662.4 559.1,662.4 557.2,662.4 555.3,662.4 553.4,662.4 551.6,662.4
549.7,662.4 547.8,662.4 546.0,662.4 544.1,662.4 542.2,662.4 540.4,662.4 538.5,662.4 536.6,662.4 534.7,662.4 532.9,662.4 531.0,662.4 529.1,662.4 527.3,662.4 525.4,662.4 523.5,662.4 521.6,662.4
519.8,662.4 517.9,662.4 516.0,662.4 514.2,662.4 512.3,662.4 510.4,662.4 508.6,662.4 506.7,662.4 504.8,662.4 502.9,662.4 501.1,662.4 499.2,662.4 497.3,662.4 495.5,662.4 493.6,662.4 491.7,662.4
489.8,662.4 488.0,662.4 486.1,662.4 484.2,662.4 482.4,662.4 480.5,662.4 478.6,662.4 476.8,662.4 474.9,662.4 473.0,662.4 471.1,662.4 469.3,662.4 467.4,662.4 465.5,662.4 463.7,662.4 461.8,662.4
459.9,662.4 458.0,662.4 456.2,662.4 454.3,662.4 452.4,662.4 450.6,662.4 448.7,662.4 446.8,662.4 445.0,662.4 443.1,662.4 441.2,662.4 439.3,662.4 437.5,662.4 435.6,662.4 433.7,662.4 431.9,662.4
430.0,662.4 428.1,662.4 426.3,662.4 424.4,662.4 422.5,662.4 420.6,662.4 418.8,662.4 416.9,662.4 415.0,662.4 413.2,662.4 411.3,662.4 409.4,662.4 407.5,662.4 405.7,662.4 403.8,662.4 401.9,662.4
400.1,662.4 398.2,662.4 396.3,662.4 394.5,662.4 392.6,662.4 390.7,662.4 388.8,662.4 387.0,662.4 385.1,662.4 383.2,662.4 381.4,662.4 379.5,662.4 377.6,662.4 375.7,662.4 373.9,662.4 372.0,662.4
370.1,662.4 368.3,662.4 366.4,662.4 364.5,662.4 362.7,662.4 360.8,662.4 358.9,662.4 357.0,662.4 355.2,662.4 353.3,662.4 351.4,662.4 349.6,662.4 347.7,662.4 345.8,662.4 343.9,662.4 342.1,662.4
340.2,662.4 338.3,662.4 336.5,662.4 334.6,662.4 332.7,662.4 330.9,662.4 329.0,662.4 327.1,662.4 325.2,662.4 323.4,662.4 321.5,662.4 319.6,662.4 317.8,662.4 315.9,662.4 314.0,662.4 312.1,662.4
310.3,662.4 308.4,662.4 306.5,662.4 304.7,662.4 302.8,662.4 300.9,662.4 299.1,662.4 297.2,662.4 295.3,662.4 293.4,662.4 291.6,662.4 289.7,662.4 287.8,662.4 286.0,662.4 284.1,662.4 282.2,662.4
280.3,662.4 278.5,662.4 276.6,662.4 274.7,662.4 272.9,662.4 271.0,662.4 269.1,662.4 267.3,662.4 265.4,662.4 263.5,662.4 261.6,662.4 259.8,662.4 257.9,662.4 256.0,662.4 254.2,662.4 252.3,662.4
250.4,662.4 248.5,662.4 246.7,662.4 244.8,662.4 242.9,662.4 241.1,662.4 239.2,662.4 237.3,662.4 235.5,662.4 233.6,662.4 231.7,662.4 229.8,662.4 228.0,662.4 226.1,662.4 224.2,662.4 222.4,662.4
220.5,662.4 218.6,662.4 216.7,662.4 214.9,662.4 213.0,662.4 211.1,662.4 209.3,662.4 207.4,662.4 205.5,662.4 203.7,662.4 201.8,662.4 199.9,662.4 198.0,662.4 196.2,662.4 194.3,662.4 192.4,662.4
190.6,662.4 188.7,662.4 186.8,662.4 185.0,662.4 183.1,662.4 181.2,662.4 179.3,662.4 177.5,662.4 175.6,662.4 173.7,662.4 171.9,662.4 170.0,662.4 168.1,662.4 166.2,662.4 '/>
	</g>
</g>
	</g>
	<g id="gnuplot_plot_3" ><title>Point estimate</title>
<g fill="none" color="white" stroke="rgb( 31, 120, 180)" stroke-width="2.00" stroke-linecap="butt" stroke-linejoin="miter">
</g>
<g fill="none" color="black" stroke="currentColor" stroke-width="2.00" stroke-linecap="butt" stroke-linejoin="miter">
	<g transform="translate(1089.0,103.0)" stroke="none" fill="black" font-family="Helvetica" font-size="12.00"  text-anchor="start">
		<text><tspan font-family="Helvetica" >Point estimate</tspan></text>
	</g>
</g>
<g fill="none" color="black" stroke="currentColor" stroke-width="2.00" stroke-linecap="butt" stroke-linejoin="miter">
	<path stroke='rgb( 31, 120, 180)'  d='M1038.5,99.1 L1080.7,99.1 M593.0,662.4 L593.0,94.2  '/></g>
	</g>
<g fill="none" color="black" stroke="currentColor" stroke-width="2.00" stroke-linecap="butt" stroke-linejoin="miter">
</g>
<g fill="none" color="black" stroke="black" stroke-width="1.00" stroke-linecap="butt" stroke-linejoin="miter">
</g>
<g fill="none" color="black" stroke="currentColor" stroke-width="1.00" stroke-linecap="butt" stroke-linejoin="miter">
	<path stroke='black'  d='M80.2,54.1 L80.2,662.4 L1013.6,662.4 L1013.6,54.1 L80.2,54.1 Z  '/></g>
<g fill="none" color="black" stroke="currentColor" stroke-width="1.00" stroke-linecap="butt" stroke-linejoin="miter">
</g>
</g>
</svg>

