<?xml version="1.0" encoding="utf-8"  standalone="no"?>
<svg 
 viewBox="0 0 1280 720"
 xmlns="http://www.w3.org/2000/svg"
 xmlns:xlink="http://www.w3.org/1999/xlink"
>

<title>Gnuplot</title>
<desc>Produced by GNUPLOT 5.2 patchlevel 6 </desc>

<g id="gnuplot_canvas">

<rect x="0" y="0" width="1280" height="720" fill="none"/>
<defs>

	<circle id='gpDot' r='0.5' stroke-width='0.5' stroke='currentColor'/>
	<path id='gpPt0' stroke-width='0.222' stroke='currentColor' d='M-1,0 h2 M0,-1 v2'/>
	<path id='gpPt1' stroke-width='0.222' stroke='currentColor' d='M-1,-1 L1,1 M1,-1 L-1,1'/>
	<path id='gpPt2' stroke-width='0.222' stroke='currentColor' d='M-1,0 L1,0 M0,-1 L0,1 M-1,-1 L1,1 M-1,1 L1,-1'/>
	<rect id='gpPt3' stroke-width='0.222' stroke='currentColor' x='-1' y='-1' width='2' height='2'/>
	<rect id='gpPt4' stroke-width='0.222' stroke='currentColor' fill='currentColor' x='-1' y='-1' width='2' height='2'/>
	<circle id='gpPt5' stroke-width='0.222' stroke='currentColor' cx='0' cy='0' r='1'/>
	<use xlink:href='#gpPt5' id='gpPt6' fill='currentColor' stroke='none'/>
	<path id='gpPt7' stroke-width='0.222' stroke='currentColor' d='M0,-1.33 L-1.33,0.67 L1.33,0.67 z'/>
	<use xlink:href='#gpPt7' id='gpPt8' fill='currentColor' stroke='none'/>
	<use xlink:href='#gpPt7' id='gpPt9' stroke='currentColor' transform='rotate(180)'/>
	<use xlink:href='#gpPt9' id='gpPt10' fill='currentColor' stroke='none'/>
	<use xlink:href='#gpPt3' id='gpPt11' stroke='currentColor' transform='rotate(45)'/>
	<use xlink:href='#gpPt11' id='gpPt12' fill='currentColor' stroke='none'/>
	<path id='gpPt13' stroke-width='0.222' stroke='currentColor' d='M0,1.330 L1.265,0.411 L0.782,-1.067 L-0.782,-1.076 L-1.265,0.411 z'/>
	<use xlink:href='#gpPt13' id='gpPt14' fill='currentColor' stroke='none'/>
	<filter id='textbox' filterUnits='objectBoundingBox' x='0' y='0' height='1' width='1'>
	  <feFlood flood-color='white' flood-opacity='1' result='bgnd'/>
	  <feComposite in='SourceGraphic' in2='bgnd' operator='atop'/>
	</filter>
	<filter id='greybox' filterUnits='objectBoundingBox' x='0' y='0' height='1' width='1'>
	  <feFlood flood-color='lightgrey' flood-opacity='1' result='grey'/>
	  <feComposite in='SourceGraphic' in2='grey' operator='atop'/>
	</filter>
</defs>
<g fill="none" color="white" stroke="currentColor" stroke-width="1.00" stroke-linecap="butt" stroke-linejoin="miter">
</g>
<g fill="none" color="black" stroke="currentColor" stroke-width="1.00" stroke-linecap="butt" stroke-linejoin="miter">
	<path stroke='black'  d='M55.3,662.4 L64.3,662.4  '/>	<g transform="translate(47.0,666.3)" stroke="none" fill="black" font-family="Helvetica" font-size="12.00"  text-anchor="end">
		<text><tspan font-family="Helvetica" > 0</tspan></text>
	</g>
</g>
<g fill="none" color="black" stroke="currentColor" stroke-width="1.00" stroke-linecap="butt" stroke-linejoin="miter">
	<path stroke='black'  d='M55.3,575.5 L64.3,575.5  '/>	<g transform="translate(47.0,579.4)" stroke="none" fill="black" font-family="Helvetica" font-size="12.00"  text-anchor="end">
		<text><tspan font-family="Helvetica" > 1</tspan></text>
	</g>
</g>
<g fill="none" color="black" stroke="currentColor" stroke-width="1.00" stroke-linecap="butt" stroke-linejoin="miter">
	<path stroke='black'  d='M55.3,488.6 L64.3,488.6  '/>	<g transform="translate(47.0,492.5)" stroke="none" fill="black" font-family="Helvetica" font-size="12.00"  text-anchor="end">
		<text><tspan font-family="Helvetica" > 2</tspan></text>
	</g>
</g>
<g fill="none" color="black" stroke="currentColor" stroke-width="1.00" stroke-linecap="butt" stroke-linejoin="miter">
	<path stroke='black'  d='M55.3,401.7 L64.3,401.7  '/>	<g transform="translate(47.0,405.6)" stroke="none" fill="black" font-family="Helvetica" font-size="12.00"  text-anchor="end">
		<text><tspan font-family="Helvetica" > 3</tspan></text>
	</g>
</g>
<g fill="none" color="black" stroke="currentColor" stroke-width="1.00" stroke-linecap="butt" stroke-linejoin="miter">
	<path stroke='black'  d='M55.3,314.8 L64.3,314.8  '/>	<g transform="translate(47.0,318.7)" stroke="none" fill="black" font-family="Helvetica" font-size="12.00"  text-anchor="end">
		<text><tspan font-family="Helvetica" > 4</tspan></text>
	</g>
</g>
<g fill="none" color="black" stroke="currentColor" stroke-width="1.00" stroke-linecap="butt" stroke-linejoin="miter">
	<path stroke='black'  d='M55.3,227.9 L64.3,227.9  '/>	<g transform="translate(47.0,231.8)" stroke="none" fill="black" font-family="Helvetica" font-size="12.00"  text-anchor="end">
		<text><tspan font-family="Helvetica" > 5</tspan></text>
	</g>
</g>
<g fill="none" color="black" stroke="currentColor" stroke-width="1.00" stroke-linecap="butt" stroke-linejoin="miter">
	<path stroke='black'  d='M55.3,141.0 L64.3,141.0  '/>	<g transform="translate(47.0,144.9)" stroke="none" fill="black" font-family="Helvetica" font-size="12.00"  text-anchor="end">
		<text><tspan font-family="Helvetica" > 6</tspan></text>
	</g>
</g>
<g fill="none" color="black" stroke="currentColor" stroke-width="1.00" stroke-linecap="butt" stroke-linejoin="miter">
	<path stroke='black'  d='M55.3,54.1 L64.3,54.1  '/>	<g transform="translate(47.0,58.0)" stroke="none" fill="black" font-family="Helvetica" font-size="12.00"  text-anchor="end">
		<text><tspan font-family="Helvetica" > 7</tspan></text>
	</g>
</g>
<g fill="none" color="black" stroke="currentColor" stroke-width="1.00" stroke-linecap="butt" stroke-linejoin="miter">
	<path stroke='black'  d='M136.0,662.4 L136.0,653.4  '/>	<g transform="translate(136.0,684.3)" stroke="none" fill="black" font-family="Helvetica" font-size="12.00"  text-anchor="middle">
		<text><tspan font-family="Helvetica" > 85.2</tspan></text>
	</g>
</g>
<g fill="none" color="black" stroke="currentColor" stroke-width="1.00" stroke-linecap="butt" stroke-linejoin="miter">
	<path stroke='black'  d='M241.8,662.4 L241.8,653.4  '/>	<g transform="translate(241.8,684.3)" stroke="none" fill="black" font-family="Helvetica" font-size="12.00"  text-anchor="middle">
		<text><tspan font-family="Helvetica" > 85.25</tspan></text>
	</g>
</g>
<g fill="none" color="black" stroke="currentColor" stroke-width="1.00" stroke-linecap="butt" stroke-linejoin="miter">
	<path stroke='black'  d='M347.6,662.4 L347.6,653.4  '/>	<g transform="translate(347.6,684.3)" stroke="none" fill="black" font-family="Helvetica" font-size="12.00"  text-anchor="middle">
		<text><tspan font-family="Helvetica" > 85.3</tspan></text>
	</g>
</g>
<g fill="none" color="black" stroke="currentColor" stroke-width="1.00" stroke-linecap="butt" stroke-linejoin="miter">
	<path stroke='black'  d='M453.4,662.4 L453.4,653.4  '/>	<g transform="translate(453.4,684.3)" stroke="none" fill="black" font-family="Helvetica" font-size="12.00"  text-anchor="middle">
		<text><tspan font-family="Helvetica" > 85.35</tspan></text>
	</g>
</g>
<g fill="none" color="black" stroke="currentColor" stroke-width="1.00" stroke-linecap="butt" stroke-linejoin="miter">
	<path stroke='black'  d='M559.2,662.4 L559.2,653.4  '/>	<g transform="translate(559.2,684.3)" stroke="none" fill="black" font-family="Helvetica" font-size="12.00"  text-anchor="middle">
		<text><tspan font-family="Helvetica" > 85.4</tspan></text>
	</g>
</g>
<g fill="none" color="black" stroke="currentColor" stroke-width="1.00" stroke-linecap="butt" stroke-linejoin="miter">
	<path stroke='black'  d='M665.0,662.4 L665.0,653.4  '/>	<g transform="translate(665.0,684.3)" stroke="none" fill="black" font-family="Helvetica" font-size="12.00"  text-anchor="middle">
		<text><tspan font-family="Helvetica" > 85.45</tspan></text>
	</g>
</g>
<g fill="none" color="black" stroke="currentColor" stroke-width="1.00" stroke-linecap="butt" stroke-linejoin="miter">
	<path stroke='black'  d='M770.8,662.4 L770.8,653.4  '/>	<g transform="translate(770.8,684.3)" stroke="none" fill="black" font-family="Helvetica" font-size="12.00"  text-anchor="middle">
		<text><tspan font-family="Helvetica" > 85.5</tspan></text>
	</g>
</g>
<g fill="none" color="black" stroke="currentColor" stroke-width="1.00" stroke-linecap="butt" stroke-linejoin="miter">
	<path stroke='black'  d='M876.6,662.4 L876.6,653.4  '/>	<g transform="translate(876.6,684.3)" stroke="none" fill="black" font-family="Helvetica" font-size="12.00"  text-anchor="middle">
		<text><tspan font-family="Helvetica" > 85.55</tspan></text>
	</g>
</g>
<g fill="none" color="black" stroke="currentColor" stroke-width="1.00" stroke-linecap="butt" stroke-linejoin="miter">
	<path stroke='black'  d='M982.4,662.4 L982.4,653.4  '/>	<g transform="translate(982.4,684.3)" stroke="none" fill="black" font-family="Helvetica" font-size="12.00"  text-anchor="middle">
		<text><tspan font-family="Helvetica" > 85.6</tspan></text>
	</g>
</g>
<g fill="none" color="black" stroke="currentColor" stroke-width="1.00" stroke-linecap="butt" stroke-linejoin="miter">
</g>
<g fill="none" color="black" stroke="currentColor" stroke-width="1.00" stroke-linecap="butt" stroke-linejoin="miter">
	<path stroke='black'  d='M55.3,54.1 L55.3,662.4 L1013.6,662.4 L1013.6,54.1 L55.3,54.1 Z  '/></g>
<g fill="none" color="black" stroke="currentColor" stroke-width="1.00" stroke-linecap="butt" stroke-linejoin="miter">
	<g transform="translate(16.3,358.3) rotate(270)" stroke="none" fill="black" font-family="Helvetica" font-size="12.00"  text-anchor="middle">
		<text><tspan font-family="Helvetica" >Density (a.u.)</tspan></text>
	</g>
</g>
<g fill="none" color="black" stroke="currentColor" stroke-width="1.00" stroke-linecap="butt" stroke-linejoin="miter">
	<g transform="translate(534.4,711.3)" stroke="none" fill="black" font-family="Helvetica" font-size="12.00"  text-anchor="middle">
		<text><tspan font-family="Helvetica" >Average time (us)</tspan></text>
	</g>
</g>
<g fill="none" color="black" stroke="currentColor" stroke-width="1.00" stroke-linecap="butt" stroke-linejoin="miter">
	<g transform="translate(534.4,31.0)" stroke="none" fill="black" font-family="Helvetica" font-size="12.00"  text-anchor="middle">
		<text><tspan font-family="Helvetica" >snapshot_restore_with_dense/Sparse: Entire region + /proc/pid/mem/10: slope</tspan></text>
	</g>
</g>
	<g id="gnuplot_plot_1" ><title>Bootstrap distribution</title>
<g fill="none" color="white" stroke="black" stroke-width="2.00" stroke-linecap="butt" stroke-linejoin="miter">
</g>
<g fill="none" color="black" stroke="currentColor" stroke-width="2.00" stroke-linecap="butt" stroke-linejoin="miter">
	<g transform="translate(1089.0,67.0)" stroke="none" fill="black" font-family="Helvetica" font-size="12.00"  text-anchor="start">
		<text><tspan font-family="Helvetica" >Bootstrap distribution</tspan></text>
	</g>
</g>
<g fill="none" color="black" stroke="currentColor" stroke-width="2.00" stroke-linecap="butt" stroke-linejoin="miter">
	<path stroke='rgb( 31, 120, 180)'  d='M1038.5,63.1 L1080.7,63.1 M55.3,661.0 L57.2,660.7 L59.1,660.3 L61.1,659.9 L63.0,659.4 L64.9,658.9
		L66.8,658.2 L68.7,657.4 L70.7,656.5 L72.6,655.5 L74.5,654.3 L76.4,653.0 L78.3,651.4 L80.3,649.7
		L82.2,647.7 L84.1,645.5 L86.0,642.9 L87.9,640.1 L89.9,637.0 L91.8,633.5 L93.7,629.7 L95.6,625.5
		L97.5,620.8 L99.5,615.7 L101.4,610.2 L103.3,604.2 L105.2,597.7 L107.2,590.6 L109.1,583.1 L111.0,575.0
		L112.9,566.4 L114.8,557.2 L116.8,547.4 L118.7,537.1 L120.6,526.3 L122.5,514.9 L124.4,503.0 L126.4,490.6
		L128.3,477.8 L130.2,464.4 L132.1,450.7 L134.0,436.5 L136.0,422.1 L137.9,407.3 L139.8,392.2 L141.7,376.9
		L143.6,361.5 L145.6,346.0 L147.5,330.4 L149.4,314.8 L151.3,299.3 L153.2,284.0 L155.2,268.8 L157.1,253.9
		L159.0,239.4 L160.9,225.2 L162.8,211.4 L164.8,198.2 L166.7,185.5 L168.6,173.4 L170.5,162.0 L172.4,151.3
		L174.4,141.4 L176.3,132.2 L178.2,123.9 L180.1,116.5 L182.0,110.0 L184.0,104.4 L185.9,99.7 L187.8,96.0
		L189.7,93.3 L191.7,91.5 L193.6,90.7 L195.5,90.9 L197.4,92.0 L199.3,94.1 L201.3,97.1 L203.2,101.0
		L205.1,105.7 L207.0,111.3 L208.9,117.7 L210.9,124.9 L212.8,132.7 L214.7,141.3 L216.6,150.4 L218.5,160.2
		L220.5,170.5 L222.4,181.3 L224.3,192.5 L226.2,204.1 L228.1,216.1 L230.1,228.4 L232.0,240.9 L233.9,253.5
		L235.8,266.4 L237.7,279.3 L239.7,292.3 L241.6,305.4 L243.5,318.3 L245.4,331.3 L247.3,344.1 L249.3,356.7
		L251.2,369.2 L253.1,381.4 L255.0,393.4 L256.9,405.1 L258.9,416.4 L260.8,427.4 L262.7,438.1 L264.6,448.3
		L266.5,458.1 L268.5,467.4 L270.4,476.3 L272.3,484.7 L274.2,492.6 L276.2,499.9 L278.1,506.8 L280.0,513.0
		L281.9,518.8 L283.8,523.9 L285.8,528.5 L287.7,532.5 L289.6,536.0 L291.5,538.8 L293.4,541.0 L295.4,542.7
		L297.3,543.7 L299.2,544.2 L301.1,544.0 L303.0,543.3 L305.0,541.9 L306.9,540.0 L308.8,537.5 L310.7,534.3
		L312.6,530.7 L314.6,526.4 L316.5,521.6 L318.4,516.2 L320.3,510.3 L322.2,503.9 L324.2,496.9 L326.1,489.5
		L328.0,481.6 L329.9,473.3 L331.8,464.5 L333.8,455.4 L335.7,445.9 L337.6,436.0 L339.5,425.9 L341.4,415.5
		L343.4,404.9 L345.3,394.0 L347.2,383.0 L349.1,371.9 L351.0,360.7 L353.0,349.5 L354.9,338.2 L356.8,327.0
		L358.7,315.9 L360.7,304.9 L362.6,294.1 L364.5,283.5 L366.4,273.2 L368.3,263.1 L370.3,253.3 L372.2,243.9
		L374.1,234.9 L376.0,226.3 L377.9,218.1 L379.9,210.5 L381.8,203.3 L383.7,196.6 L385.6,190.5 L387.5,185.0
		L389.5,180.0 L391.4,175.6 L393.3,171.8 L395.2,168.6 L397.1,166.1 L399.1,164.2 L401.0,162.9 L402.9,162.2
		L404.8,162.1 L406.7,162.7 L408.7,163.9 L410.6,165.6 L412.5,168.0 L414.4,170.9 L416.3,174.4 L418.3,178.5
		L420.2,183.1 L422.1,188.1 L424.0,193.7 L425.9,199.7 L427.9,206.1 L429.8,212.9 L431.7,220.2 L433.6,227.7
		L435.5,235.6 L437.5,243.8 L439.4,252.2 L441.3,260.9 L443.2,269.8 L445.1,278.8 L447.1,288.0 L449.0,297.3
		L450.9,306.7 L452.8,316.1 L454.8,325.6 L456.7,335.0 L458.6,344.4 L460.5,353.7 L462.4,363.0 L464.4,372.1
		L466.3,381.1 L468.2,389.9 L470.1,398.6 L472.0,407.0 L474.0,415.2 L475.9,423.1 L477.8,430.8 L479.7,438.3
		L481.6,445.4 L483.6,452.2 L485.5,458.7 L487.4,465.0 L489.3,470.8 L491.2,476.4 L493.2,481.6 L495.1,486.5
		L497.0,491.0 L498.9,495.2 L500.8,499.1 L502.8,502.6 L504.7,505.8 L506.6,508.7 L508.5,511.2 L510.4,513.5
		L512.4,515.4 L514.3,517.0 L516.2,518.3 L518.1,519.3 L520.0,520.1 L522.0,520.6 L523.9,520.8 L525.8,520.8
		L527.7,520.5 L529.6,520.1 L531.6,519.4 L533.5,518.5 L535.4,517.4 L537.3,516.2 L539.3,514.8 L541.2,513.3
		L543.1,511.6 L545.0,509.9 L546.9,508.0 L548.9,506.0 L550.8,504.0 L552.7,501.9 L554.6,499.7 L556.5,497.5
		L558.5,495.3 L560.4,493.1 L562.3,490.8 L564.2,488.6 L566.1,486.3 L568.1,484.1 L570.0,481.9 L571.9,479.8
		L573.8,477.6 L575.7,475.5 L577.7,473.5 L579.6,471.5 L581.5,469.6 L583.4,467.8 L585.3,466.0 L587.3,464.3
		L589.2,462.7 L591.1,461.2 L593.0,459.8 L594.9,458.4 L596.9,457.2 L598.8,456.1 L600.7,455.2 L602.6,454.3
		L604.5,453.6 L606.5,453.0 L608.4,452.6 L610.3,452.3 L612.2,452.1 L614.1,452.2 L616.1,452.4 L618.0,452.7
		L619.9,453.3 L621.8,454.0 L623.8,454.9 L625.7,456.0 L627.6,457.2 L629.5,458.6 L631.4,460.2 L633.4,461.9
		L635.3,463.8 L637.2,465.9 L639.1,468.0 L641.0,470.3 L643.0,472.8 L644.9,475.3 L646.8,477.9 L648.7,480.7
		L650.6,483.5 L652.6,486.3 L654.5,489.2 L656.4,492.2 L658.3,495.1 L660.2,498.1 L662.2,501.1 L664.1,504.1
		L666.0,507.1 L667.9,510.1 L669.8,513.1 L671.8,516.0 L673.7,519.0 L675.6,521.8 L677.5,524.7 L679.4,527.5
		L681.4,530.3 L683.3,533.0 L685.2,535.7 L687.1,538.3 L689.0,540.9 L691.0,543.4 L692.9,545.9 L694.8,548.3
		L696.7,550.7 L698.6,553.0 L700.6,555.2 L702.5,557.4 L704.4,559.5 L706.3,561.6 L708.2,563.6 L710.2,565.5
		L712.1,567.4 L714.0,569.2 L715.9,571.0 L717.9,572.7 L719.8,574.3 L721.7,575.9 L723.6,577.4 L725.5,578.8
		L727.5,580.2 L729.4,581.6 L731.3,582.9 L733.2,584.1 L735.1,585.3 L737.1,586.4 L739.0,587.5 L740.9,588.5
		L742.8,589.5 L744.7,590.4 L746.7,591.3 L748.6,592.2 L750.5,592.9 L752.4,593.7 L754.3,594.4 L756.3,595.0
		L758.2,595.6 L760.1,596.1 L762.0,596.6 L763.9,597.1 L765.9,597.5 L767.8,597.8 L769.7,598.1 L771.6,598.4
		L773.5,598.6 L775.5,598.9 L777.4,599.0 L779.3,599.2 L781.2,599.3 L783.1,599.4 L785.1,599.5 L787.0,599.5
		L788.9,599.6 L790.8,599.6 L792.7,599.7 L794.7,599.7 L796.6,599.8 L798.5,599.8 L800.4,599.9 L802.4,600.0
		L804.3,600.1 L806.2,600.2 L808.1,600.4 L810.0,600.5 L812.0,600.7 L813.9,600.9 L815.8,601.1 L817.7,601.4
		L819.6,601.7 L821.6,602.0 L823.5,602.3 L825.4,602.6 L827.3,603.0 L829.2,603.4 L831.2,603.7 L833.1,604.1
		L835.0,604.5 L836.9,605.0 L838.8,605.4 L840.8,605.8 L842.7,606.3 L844.6,606.8 L846.5,607.2 L848.4,607.7
		L850.4,608.2 L852.3,608.7 L854.2,609.2 L856.1,609.7 L858.0,610.3 L860.0,610.8 L861.9,611.4 L863.8,612.0
		L865.7,612.6 L867.6,613.2 L869.6,613.8 L871.5,614.4 L873.4,615.0 L875.3,615.7 L877.2,616.3 L879.2,617.0
		L881.1,617.7 L883.0,618.3 L884.9,619.0 L886.9,619.7 L888.8,620.4 L890.7,621.1 L892.6,621.7 L894.5,622.4
		L896.5,623.1 L898.4,623.7 L900.3,624.4 L902.2,625.0 L904.1,625.7 L906.1,626.3 L908.0,626.9 L909.9,627.5
		L911.8,628.1 L913.7,628.7 L915.7,629.2 L917.6,629.8 L919.5,630.3 L921.4,630.8 L923.3,631.3 L925.3,631.8
		L927.2,632.2 L929.1,632.7 L931.0,633.1 L932.9,633.5 L934.9,634.0 L936.8,634.4 L938.7,634.7 L940.6,635.1
		L942.5,635.5 L944.5,635.8 L946.4,636.2 L948.3,636.5 L950.2,636.8 L952.1,637.2 L954.1,637.5 L956.0,637.8
		L957.9,638.1 L959.8,638.3 L961.7,638.6 L963.7,638.9 L965.6,639.1 L967.5,639.4 L969.4,639.6 L971.4,639.9
		L973.3,640.1 L975.2,640.4 L977.1,640.6 L979.0,640.8 L981.0,641.1 L982.9,641.3 L984.8,641.5 L986.7,641.8
		L988.6,642.0 L990.6,642.3 L992.5,642.5 L994.4,642.7 L996.3,643.0 L998.2,643.2 L1000.2,643.5 L1002.1,643.7
		L1004.0,643.9 L1005.9,644.2 L1007.8,644.4 L1009.8,644.6 L1011.7,644.8 L1013.6,645.0  '/></g>
	</g>
	<g id="gnuplot_plot_2" ><title>Confidence interval</title>
<g fill="none" color="white" stroke="rgb( 31, 120, 180)" stroke-width="1.00" stroke-linecap="butt" stroke-linejoin="miter">
</g>
<g fill="none" color="black" stroke="currentColor" stroke-width="1.00" stroke-linecap="butt" stroke-linejoin="miter">
	<g transform="translate(1089.0,85.0)" stroke="none" fill="black" font-family="Helvetica" font-size="12.00"  text-anchor="start">
		<text><tspan font-family="Helvetica" >Confidence interval</tspan></text>
	</g>
</g>
<g fill="none" color="black" stroke="currentColor" stroke-width="1.00" stroke-linecap="butt" stroke-linejoin="miter">
	<g stroke='none' shape-rendering='crispEdges'>
		<polygon fill = 'rgb( 31, 120, 180)' fill-opacity = '0.250000' points = '1038.5,85.6 1080.7,85.6 1080.7,76.6 1038.5,76.6 '/>
		<polygon fill = 'rgb( 31, 120, 180)' fill-opacity = '0.250000' points = '143.6,361.5 145.6,346.0 147.5,330.4 149.4,314.8 151.3,299.3 153.2,284.0 155.2,268.8 157.1,253.9 159.0,239.4 160.9,225.2 162.8,211.4 164.8,198.2 166.7,185.5 168.6,173.4 170.5,162.0 172.4,151.3
174.4,141.4 176.3,132.2 178.2,123.9 180.1,116.5 182.0,110.0 184.0,104.4 185.9,99.7 187.8,96.0 189.7,93.3 191.7,91.5 193.6,90.7 195.5,90.9 197.4,92.0 199.3,94.1 201.3,97.1 203.2,101.0
205.1,105.7 207.0,111.3 208.9,117.7 210.9,124.9 212.8,132.7 214.7,141.3 216.6,150.4 218.5,160.2 220.5,170.5 222.4,181.3 224.3,192.5 226.2,204.1 228.1,216.1 230.1,228.4 232.0,240.9 233.9,253.5
235.8,266.4 237.7,279.3 239.7,292.3 241.6,305.4 243.5,318.3 245.4,331.3 247.3,344.1 249.3,356.7 251.2,369.2 253.1,381.4 255.0,393.4 256.9,405.1 258.9,416.4 260.8,427.4 262.7,438.1 264.6,448.3
266.5,458.1 268.5,467.4 270.4,476.3 272.3,484.7 274.2,492.6 276.2,499.9 278.1,506.8 280.0,513.0 281.9,518.8 283.8,523.9 285.8,528.5 287.7,532.5 289.6,536.0 291.5,538.8 293.4,541.0 295.4,542.7
297.3,543.7 299.2,544.2 301.1,544.0 303.0,543.3 305.0,541.9 306.9,540.0 308.8,537.5 310.7,534.3 312.6,530.7 314.6,526.4 316.5,521.6 318.4,516.2 320.3,510.3 322.2,503.9 324.2,496.9 326.1,489.5
328.0,481.6 329.9,473.3 331.8,464.5 333.8,455.4 335.7,445.9 337.6,436.0 339.5,425.9 341.4,415.5 343.4,404.9 345.3,394.0 347.2,383.0 349.1,371.9 351.0,360.7 353.0,349.5 354.9,338.2 356.8,327.0
358.7,315.9 360.7,304.9 362.6,294.1 364.5,283.5 366.4,273.2 368.3,263.1 370.3,253.3 372.2,243.9 374.1,234.9 376.0,226.3 377.9,218.1 379.9,210.5 381.8,203.3 383.7,196.6 385.6,190.5 387.5,185.0
389.5,180.0 391.4,175.6 393.3,171.8 395.2,168.6 397.1,166.1 399.1,164.2 401.0,162.9 402.9,162.2 404.8,162.1 406.7,162.7 408.7,163.9 410.6,165.6 412.5,168.0 414.4,170.9 416.3,174.4 418.3,178.5
420.2,183.1 422.1,188.1 424.0,193.7 425.9,199.7 427.9,206.1 429.8,212.9 431.7,220.2 433.6,227.7 435.5,235.6 437.5,243.8 439.4,252.2 441.3,260.9 443.2,269.8 445.1,278.8 447.1,288.0 449.0,297.3
450.9,306.7 452.8,316.1 454.8,325.6 456.7,335.0 458.6,344.4 460.5,353.7 462.4,363.0 464.4,372.1 466.3,381.1 468.2,389.9 470.1,398.6 472.0,407.0 474.0,415.2 475.9,423.1 477.8,430.8 479.7,438.3
481.6,445.4 483.6,452.2 485.5,458.7 487.4,465.0 489.3,470.8 491.2,476.4 493.2,481.6 495.1,486.5 497.0,491.0 498.9,495.2 500.8,499.1 502.8,502.6 504.7,505.8 506.6,508.7 508.5,511.2 510.4,513.5
512.4,515.4 514.3,517.0 516.2,518.3 518.1,519.3 520.0,520.1 522.0,520.6 523.9,520.8 525.8,520.8 527.7,520.5 529.6,520.1 531.6,519.4 533.5,518.5 535.4,517.4 537.3,516.2 539.3,514.8 541.2,513.3
543.1,511.6 545.0,509.9 546.9,508.0 548.9,506.0 550.8,504.0 552.7,501.9 554.6,499.7 556.5,497.5 558.5,495.3 560.4,493.1 562.3,490.8 564.2,488.6 566.1,486.3 568.1,484.1 570.0,481.9 571.9,479.8
573.8,477.6 575.7,475.5 577.7,473.5 579.6,471.5 581.5,469.6 583.4,467.8 585.3,466.0 587.3,464.3 589.2,462.7 591.1,461.2 593.0,459.8 594.9,458.4 596.9,457.2 598.8,456.1 600.7,455.2 602.6,454.3
604.5,453.6 606.5,453.0 608.4,452.6 610.3,452.3 612.2,452.1 614.1,452.2 616.1,452.4 618.0,452.7 619.9,453.3 621.8,454.0 623.8,454.9 625.7,456.0 627.6,457.2 629.5,458.6 631.4,460.2 633.4,461.9
635.3,463.8 637.2,465.9 639.1,468.0 641.0,470.3 643.0,472.8 644.9,475.3 646.8,477.9 648.7,480.7 650.6,483.5 652.6,486.3 654.5,489.2 656.4,492.2 658.3,495.1 660.2,498.1 662.2,501.1 664.1,504.1
666.0,507.1 667.9,510.1 669.8,513.1 671.8,516.0 673.7,519.0 675.6,521.8 677.5,524.7 679.4,527.5 681.4,530.3 683.3,533.0 685.2,535.7 687.1,538.3 689.0,540.9 691.0,543.4 692.9,545.9 694.8,548.3
696.7,550.7 698.6,553.0 700.6,555.2 702.5,557.4 704.4,559.5 706.3,561.6 708.2,563.6 710.2,565.5 712.1,567.4 714.0,569.2 715.9,571.0 717.9,572.7 719.8,574.3 721.7,575.9 723.6,577.4 725.5,578.8
727.5,580.2 729.4,581.6 731.3,582.9 733.2,584.1 735.1,585.3 737.1,586.4 739.0,587.5 740.9,588.5 742.8,589.5 744.7,590.4 746.7,591.3 748.6,592.2 750.5,592.9 752.4,593.7 754.3,594.4 756.3,595.0
758.2,595.6 760.1,596.1 762.0,596.6 763.9,597.1 765.9,597.5 767.8,597.8 769.7,598.1 771.6,598.4 773.5,598.6 775.5,598.9 777.4,599.0 779.3,599.2 781.2,599.3 783.1,599.4 785.1,599.5 787.0,599.5
788.9,599.6 790.8,599.6 792.7,599.7 794.7,599.7 796.6,599.8 798.5,599.8 800.4,599.9 802.4,600.0 804.3,600.1 806.2,600.2 808.1,600.4 810.0,600.5 812.0,600.7 813.9,600.9 815.8,601.1 817.7,601.4
819.6,601.7 821.6,602.0 823.5,602.3 825.4,602.6 827.3,603.0 829.2,603.4 831.2,603.7 833.1,604.1 835.0,604.5 836.9,605.0 838.8,605.4 840.8,605.8 842.7,606.3 844.6,606.8 846.5,607.2 848.4,607.7
850.4,608.2 852.3,608.7 854.2,609.2 856.1,609.7 858.0,610.3 860.0,610.8 861.9,611.4 863.8,612.0 865.7,612.6 867.6,613.2 869.6,613.8 871.5,614.4 873.4,615.0 875.3,615.7 877.2,616.3 879.2,617.0
881.1,617.7 883.0,618.3 884.9,619.0 886.9,619.7 888.8,620.4 890.7,621.1 892.6,621.7 894.5,622.4 896.5,623.1 898.4,623.7 900.3,624.4 902.2,625.0 904.1,625.7 906.1,626.3 908.0,626.9 909.9,627.5
911.8,628.1 913.7,628.7 915.7,629.2 917.6,629.8 919.5,630.3 921.4,630.8 923.3,631.3 923.3,662.4 921.4,662.4 919.5,662.4 917.6,662.4 915.7,662.4 913.7,662.4 911.8,662.4 909.9,662.4 908.0,662.4
906.1,662.4 904.1,662.4 902.2,662.4 900.3,662.4 898.4,662.4 896.5,662.4 894.5,662.4 892.6,662.4 890.7,662.4 888.8,662.4 886.9,662.4 884.9,662.4 883.0,662.4 881.1,662.4 879.2,662.4 877.2,662.4
875.3,662.4 873.4,662.4 871.5,662.4 869.6,662.4 867.6,662.4 865.7,662.4 863.8,662.4 861.9,662.4 860.0,662.4 858.0,662.4 856.1,662.4 854.2,662.4 852.3,662.4 850.4,662.4 848.4,662.4 846.5,662.4
844.6,662.4 842.7,662.4 840.8,662.4 838.8,662.4 836.9,662.4 835.0,662.4 833.1,662.4 831.2,662.4 829.2,662.4 827.3,662.4 825.4,662.4 823.5,662.4 821.6,662.4 819.6,662.4 817.7,662.4 815.8,662.4
813.9,662.4 812.0,662.4 810.0,662.4 808.1,662.4 806.2,662.4 804.3,662.4 802.4,662.4 800.4,662.4 798.5,662.4 796.6,662.4 794.7,662.4 792.7,662.4 790.8,662.4 788.9,662.4 787.0,662.4 785.1,662.4
783.1,662.4 781.2,662.4 779.3,662.4 777.4,662.4 775.5,662.4 773.5,662.4 771.6,662.4 769.7,662.4 767.8,662.4 765.9,662.4 763.9,662.4 762.0,662.4 760.1,662.4 758.2,662.4 756.3,662.4 754.3,662.4
752.4,662.4 750.5,662.4 748.6,662.4 746.7,662.4 744.7,662.4 742.8,662.4 740.9,662.4 739.0,662.4 737.1,662.4 735.1,662.4 733.2,662.4 731.3,662.4 729.4,662.4 727.5,662.4 725.5,662.4 723.6,662.4
721.7,662.4 719.8,662.4 717.9,662.4 715.9,662.4 714.0,662.4 712.1,662.4 710.2,662.4 708.2,662.4 706.3,662.4 704.4,662.4 702.5,662.4 700.6,662.4 698.6,662.4 696.7,662.4 694.8,662.4 692.9,662.4
691.0,662.4 689.0,662.4 687.1,662.4 685.2,662.4 683.3,662.4 681.4,662.4 679.4,662.4 677.5,662.4 675.6,662.4 673.7,662.4 671.8,662.4 669.8,662.4 667.9,662.4 666.0,662.4 664.1,662.4 662.2,662.4
660.2,662.4 658.3,662.4 656.4,662.4 654.5,662.4 652.6,662.4 650.6,662.4 648.7,662.4 646.8,662.4 644.9,662.4 643.0,662.4 641.0,662.4 639.1,662.4 637.2,662.4 635.3,662.4 633.4,662.4 631.4,662.4
629.5,662.4 627.6,662.4 625.7,662.4 623.8,662.4 621.8,662.4 619.9,662.4 618.0,662.4 616.1,662.4 614.1,662.4 612.2,662.4 610.3,662.4 608.4,662.4 606.5,662.4 604.5,662.4 602.6,662.4 600.7,662.4
598.8,662.4 596.9,662.4 594.9,662.4 593.0,662.4 591.1,662.4 589.2,662.4 587.3,662.4 585.3,662.4 583.4,662.4 581.5,662.4 579.6,662.4 577.7,662.4 575.7,662.4 573.8,662.4 571.9,662.4 570.0,662.4
568.1,662.4 566.1,662.4 564.2,662.4 562.3,662.4 560.4,662.4 558.5,662.4 556.5,662.4 554.6,662.4 552.7,662.4 550.8,662.4 548.9,662.4 546.9,662.4 545.0,662.4 543.1,662.4 541.2,662.4 539.3,662.4
537.3,662.4 535.4,662.4 533.5,662.4 531.6,662.4 529.6,662.4 527.7,662.4 525.8,662.4 523.9,662.4 522.0,662.4 520.0,662.4 518.1,662.4 516.2,662.4 514.3,662.4 512.4,662.4 510.4,662.4 508.5,662.4
506.6,662.4 504.7,662.4 502.8,662.4 500.8,662.4 498.9,662.4 497.0,662.4 495.1,662.4 493.2,662.4 491.2,662.4 489.3,662.4 487.4,662.4 485.5,662.4 483.6,662.4 481.6,662.4 479.7,662.4 477.8,662.4
475.9,662.4 474.0,662.4 472.0,662.4 470.1,662.4 468.2,662.4 466.3,662.4 464.4,662.4 462.4,662.4 460.5,662.4 458.6,662.4 456.7,662.4 454.8,662.4 452.8,662.4 450.9,662.4 449.0,662.4 447.1,662.4
445.1,662.4 443.2,662.4 441.3,662.4 439.4,662.4 437.5,662.4 435.5,662.4 433.6,662.4 431.7,662.4 429.8,662.4 427.9,662.4 425.9,662.4 424.0,662.4 422.1,662.4 420.2,662.4 418.3,662.4 416.3,662.4
414.4,662.4 412.5,662.4 410.6,662.4 408.7,662.4 406.7,662.4 404.8,662.4 402.9,662.4 401.0,662.4 399.1,662.4 397.1,662.4 395.2,662.4 393.3,662.4 391.4,662.4 389.5,662.4 387.5,662.4 385.6,662.4
383.7,662.4 381.8,662.4 379.9,662.4 377.9,662.4 376.0,662.4 374.1,662.4 372.2,662.4 370.3,662.4 368.3,662.4 366.4,662.4 364.5,662.4 362.6,662.4 360.7,662.4 358.7,662.4 356.8,662.4 354.9,662.4
353.0,662.4 351.0,662.4 349.1,662.4 347.2,662.4 345.3,662.4 343.4,662.4 341.4,662.4 339.5,662.4 337.6,662.4 335.7,662.4 333.8,662.4 331.8,662.4 329.9,662.4 328.0,662.4 326.1,662.4 324.2,662.4
322.2,662.4 320.3,662.4 318.4,662.4 316.5,662.4 314.6,662.4 312.6,662.4 310.7,662.4 308.8,662.4 306.9,662.4 305.0,662.4 303.0,662.4 301.1,662.4 299.2,662.4 297.3,662.4 295.4,662.4 293.4,662.4
291.5,662.4 289.6,662.4 287.7,662.4 285.8,662.4 283.8,662.4 281.9,662.4 280.0,662.4 278.1,662.4 276.2,662.4 274.2,662.4 272.3,662.4 270.4,662.4 268.5,662.4 266.5,662.4 264.6,662.4 262.7,662.4
260.8,662.4 258.9,662.4 256.9,662.4 255.0,662.4 253.1,662.4 251.2,662.4 249.3,662.4 247.3,662.4 245.4,662.4 243.5,662.4 241.6,662.4 239.7,662.4 237.7,662.4 235.8,662.4 233.9,662.4 232.0,662.4
230.1,662.4 228.1,662.4 226.2,662.4 224.3,662.4 222.4,662.4 220.5,662.4 218.5,662.4 216.6,662.4 214.7,662.4 212.8,662.4 210.9,662.4 208.9,662.4 207.0,662.4 205.1,662.4 203.2,662.4 201.3,662.4
199.3,662.4 197.4,662.4 195.5,662.4 193.6,662.4 191.7,662.4 189.7,662.4 187.8,662.4 185.9,662.4 184.0,662.4 182.0,662.4 180.1,662.4 178.2,662.4 176.3,662.4 174.4,662.4 172.4,662.4 170.5,662.4
168.6,662.4 166.7,662.4 164.8,662.4 162.8,662.4 160.9,662.4 159.0,662.4 157.1,662.4 155.2,662.4 153.2,662.4 151.3,662.4 149.4,662.4 147.5,662.4 145.6,662.4 143.6,662.4 '/>
	</g>
</g>
	</g>
	<g id="gnuplot_plot_3" ><title>Point estimate</title>
<g fill="none" color="white" stroke="rgb( 31, 120, 180)" stroke-width="2.00" stroke-linecap="butt" stroke-linejoin="miter">
</g>
<g fill="none" color="black" stroke="currentColor" stroke-width="2.00" stroke-linecap="butt" stroke-linejoin="miter">
	<g transform="translate(1089.0,103.0)" stroke="none" fill="black" font-family="Helvetica" font-size="12.00"  text-anchor="start">
		<text><tspan font-family="Helvetica" >Point estimate</tspan></text>
	</g>
</g>
<g fill="none" color="black" stroke="currentColor" stroke-width="2.00" stroke-linecap="butt" stroke-linejoin="miter">
	<path stroke='rgb( 31, 120, 180)'  d='M1038.5,99.1 L1080.7,99.1 M410.4,662.4 L410.4,165.5  '/></g>
	</g>
<g fill="none" color="black" stroke="currentColor" stroke-width="2.00" stroke-linecap="butt" stroke-linejoin="miter">
</g>
<g fill="none" color="black" stroke="black" stroke-width="1.00" stroke-linecap="butt" stroke-linejoin="miter">
</g>
<g fill="none" color="black" stroke="currentColor" stroke-width="1.00" stroke-linecap="butt" stroke-linejoin="miter">
	<path stroke='black'  d='M55.3,54.1 L55.3,662.4 L1013.6,662.4 L1013.6,54.1 L55.3,54.1 Z  '/></g>
<g fill="none" color="black" stroke="currentColor" stroke-width="1.00" stroke-linecap="butt" stroke-linejoin="miter">
</g>
</g>
</svg>

