<?xml version="1.0" encoding="utf-8"  standalone="no"?>
<svg 
 viewBox="0 0 1280 720"
 xmlns="http://www.w3.org/2000/svg"
 xmlns:xlink="http://www.w3.org/1999/xlink"
>

<title>Gnuplot</title>
<desc>Produced by GNUPLOT 5.2 patchlevel 6 </desc>

<g id="gnuplot_canvas">

<rect x="0" y="0" width="1280" height="720" fill="none"/>
<defs>

	<circle id='gpDot' r='0.5' stroke-width='0.5' stroke='currentColor'/>
	<path id='gpPt0' stroke-width='0.222' stroke='currentColor' d='M-1,0 h2 M0,-1 v2'/>
	<path id='gpPt1' stroke-width='0.222' stroke='currentColor' d='M-1,-1 L1,1 M1,-1 L-1,1'/>
	<path id='gpPt2' stroke-width='0.222' stroke='currentColor' d='M-1,0 L1,0 M0,-1 L0,1 M-1,-1 L1,1 M-1,1 L1,-1'/>
	<rect id='gpPt3' stroke-width='0.222' stroke='currentColor' x='-1' y='-1' width='2' height='2'/>
	<rect id='gpPt4' stroke-width='0.222' stroke='currentColor' fill='currentColor' x='-1' y='-1' width='2' height='2'/>
	<circle id='gpPt5' stroke-width='0.222' stroke='currentColor' cx='0' cy='0' r='1'/>
	<use xlink:href='#gpPt5' id='gpPt6' fill='currentColor' stroke='none'/>
	<path id='gpPt7' stroke-width='0.222' stroke='currentColor' d='M0,-1.33 L-1.33,0.67 L1.33,0.67 z'/>
	<use xlink:href='#gpPt7' id='gpPt8' fill='currentColor' stroke='none'/>
	<use xlink:href='#gpPt7' id='gpPt9' stroke='currentColor' transform='rotate(180)'/>
	<use xlink:href='#gpPt9' id='gpPt10' fill='currentColor' stroke='none'/>
	<use xlink:href='#gpPt3' id='gpPt11' stroke='currentColor' transform='rotate(45)'/>
	<use xlink:href='#gpPt11' id='gpPt12' fill='currentColor' stroke='none'/>
	<path id='gpPt13' stroke-width='0.222' stroke='currentColor' d='M0,1.330 L1.265,0.411 L0.782,-1.067 L-0.782,-1.076 L-1.265,0.411 z'/>
	<use xlink:href='#gpPt13' id='gpPt14' fill='currentColor' stroke='none'/>
	<filter id='textbox' filterUnits='objectBoundingBox' x='0' y='0' height='1' width='1'>
	  <feFlood flood-color='white' flood-opacity='1' result='bgnd'/>
	  <feComposite in='SourceGraphic' in2='bgnd' operator='atop'/>
	</filter>
	<filter id='greybox' filterUnits='objectBoundingBox' x='0' y='0' height='1' width='1'>
	  <feFlood flood-color='lightgrey' flood-opacity='1' result='grey'/>
	  <feComposite in='SourceGraphic' in2='grey' operator='atop'/>
	</filter>
</defs>
<g fill="none" color="white" stroke="currentColor" stroke-width="1.00" stroke-linecap="butt" stroke-linejoin="miter">
</g>
<g fill="none" color="black" stroke="currentColor" stroke-width="1.00" stroke-linecap="butt" stroke-linejoin="miter">
	<path stroke='black'  d='M80.2,662.4 L89.2,662.4  '/>	<g transform="translate(71.9,666.3)" stroke="none" fill="black" font-family="Helvetica" font-size="12.00"  text-anchor="end">
		<text><tspan font-family="Helvetica" > 0</tspan></text>
	</g>
</g>
<g fill="none" color="black" stroke="currentColor" stroke-width="1.00" stroke-linecap="butt" stroke-linejoin="miter">
	<path stroke='black'  d='M80.2,561.0 L89.2,561.0  '/>	<g transform="translate(71.9,564.9)" stroke="none" fill="black" font-family="Helvetica" font-size="12.00"  text-anchor="end">
		<text><tspan font-family="Helvetica" > 0.02</tspan></text>
	</g>
</g>
<g fill="none" color="black" stroke="currentColor" stroke-width="1.00" stroke-linecap="butt" stroke-linejoin="miter">
	<path stroke='black'  d='M80.2,459.6 L89.2,459.6  '/>	<g transform="translate(71.9,463.5)" stroke="none" fill="black" font-family="Helvetica" font-size="12.00"  text-anchor="end">
		<text><tspan font-family="Helvetica" > 0.04</tspan></text>
	</g>
</g>
<g fill="none" color="black" stroke="currentColor" stroke-width="1.00" stroke-linecap="butt" stroke-linejoin="miter">
	<path stroke='black'  d='M80.2,358.2 L89.2,358.2  '/>	<g transform="translate(71.9,362.1)" stroke="none" fill="black" font-family="Helvetica" font-size="12.00"  text-anchor="end">
		<text><tspan font-family="Helvetica" > 0.06</tspan></text>
	</g>
</g>
<g fill="none" color="black" stroke="currentColor" stroke-width="1.00" stroke-linecap="butt" stroke-linejoin="miter">
	<path stroke='black'  d='M80.2,256.9 L89.2,256.9  '/>	<g transform="translate(71.9,260.8)" stroke="none" fill="black" font-family="Helvetica" font-size="12.00"  text-anchor="end">
		<text><tspan font-family="Helvetica" > 0.08</tspan></text>
	</g>
</g>
<g fill="none" color="black" stroke="currentColor" stroke-width="1.00" stroke-linecap="butt" stroke-linejoin="miter">
	<path stroke='black'  d='M80.2,155.5 L89.2,155.5  '/>	<g transform="translate(71.9,159.4)" stroke="none" fill="black" font-family="Helvetica" font-size="12.00"  text-anchor="end">
		<text><tspan font-family="Helvetica" > 0.1</tspan></text>
	</g>
</g>
<g fill="none" color="black" stroke="currentColor" stroke-width="1.00" stroke-linecap="butt" stroke-linejoin="miter">
	<path stroke='black'  d='M80.2,54.1 L89.2,54.1  '/>	<g transform="translate(71.9,58.0)" stroke="none" fill="black" font-family="Helvetica" font-size="12.00"  text-anchor="end">
		<text><tspan font-family="Helvetica" > 0.12</tspan></text>
	</g>
</g>
<g fill="none" color="black" stroke="currentColor" stroke-width="1.00" stroke-linecap="butt" stroke-linejoin="miter">
	<path stroke='black'  d='M138.2,662.4 L138.2,653.4  '/>	<g transform="translate(138.2,684.3)" stroke="none" fill="black" font-family="Helvetica" font-size="12.00"  text-anchor="middle">
		<text><tspan font-family="Helvetica" > 20</tspan></text>
	</g>
</g>
<g fill="none" color="black" stroke="currentColor" stroke-width="1.00" stroke-linecap="butt" stroke-linejoin="miter">
	<path stroke='black'  d='M362.2,662.4 L362.2,653.4  '/>	<g transform="translate(362.2,684.3)" stroke="none" fill="black" font-family="Helvetica" font-size="12.00"  text-anchor="middle">
		<text><tspan font-family="Helvetica" > 25</tspan></text>
	</g>
</g>
<g fill="none" color="black" stroke="currentColor" stroke-width="1.00" stroke-linecap="butt" stroke-linejoin="miter">
	<path stroke='black'  d='M586.3,662.4 L586.3,653.4  '/>	<g transform="translate(586.3,684.3)" stroke="none" fill="black" font-family="Helvetica" font-size="12.00"  text-anchor="middle">
		<text><tspan font-family="Helvetica" > 30</tspan></text>
	</g>
</g>
<g fill="none" color="black" stroke="currentColor" stroke-width="1.00" stroke-linecap="butt" stroke-linejoin="miter">
	<path stroke='black'  d='M810.3,662.4 L810.3,653.4  '/>	<g transform="translate(810.3,684.3)" stroke="none" fill="black" font-family="Helvetica" font-size="12.00"  text-anchor="middle">
		<text><tspan font-family="Helvetica" > 35</tspan></text>
	</g>
</g>
<g fill="none" color="black" stroke="currentColor" stroke-width="1.00" stroke-linecap="butt" stroke-linejoin="miter">
</g>
<g fill="none" color="black" stroke="currentColor" stroke-width="1.00" stroke-linecap="butt" stroke-linejoin="miter">
	<path stroke='black'  d='M80.2,54.1 L80.2,662.4 L1013.6,662.4 L1013.6,54.1 L80.2,54.1 Z  '/></g>
<g fill="none" color="black" stroke="currentColor" stroke-width="1.00" stroke-linecap="butt" stroke-linejoin="miter">
	<g transform="translate(16.3,358.3) rotate(270)" stroke="none" fill="black" font-family="Helvetica" font-size="12.00"  text-anchor="middle">
		<text><tspan font-family="Helvetica" >Density (a.u.)</tspan></text>
	</g>
</g>
<g fill="none" color="black" stroke="currentColor" stroke-width="1.00" stroke-linecap="butt" stroke-linejoin="miter">
	<g transform="translate(546.9,711.3)" stroke="none" fill="black" font-family="Helvetica" font-size="12.00"  text-anchor="middle">
		<text><tspan font-family="Helvetica" >Average time (ns)</tspan></text>
	</g>
</g>
<g fill="none" color="black" stroke="currentColor" stroke-width="1.00" stroke-linecap="butt" stroke-linejoin="miter">
	<g transform="translate(546.9,31.0)" stroke="none" fill="black" font-family="Helvetica" font-size="12.00"  text-anchor="middle">
		<text><tspan font-family="Helvetica" >snapshot_restore_with_dense/Sparse: Dirty pages + process_vm_writev/5: MAD</tspan></text>
	</g>
</g>
	<g id="gnuplot_plot_1" ><title>Bootstrap distribution</title>
<g fill="none" color="white" stroke="black" stroke-width="2.00" stroke-linecap="butt" stroke-linejoin="miter">
</g>
<g fill="none" color="black" stroke="currentColor" stroke-width="2.00" stroke-linecap="butt" stroke-linejoin="miter">
	<g transform="translate(1089.0,67.0)" stroke="none" fill="black" font-family="Helvetica" font-size="12.00"  text-anchor="start">
		<text><tspan font-family="Helvetica" >Bootstrap distribution</tspan></text>
	</g>
</g>
<g fill="none" color="black" stroke="currentColor" stroke-width="2.00" stroke-linecap="butt" stroke-linejoin="miter">
	<path stroke='rgb( 31, 120, 180)'  d='M1038.5,63.1 L1080.7,63.1 M80.2,642.5 L82.1,641.8 L83.9,641.0 L85.8,640.2 L87.7,639.4 L89.6,638.4
		L91.4,637.5 L93.3,636.4 L95.2,635.4 L97.0,634.2 L98.9,633.1 L100.8,631.9 L102.6,630.6 L104.5,629.3
		L106.4,627.9 L108.3,626.6 L110.1,625.1 L112.0,623.7 L113.9,622.1 L115.7,620.6 L117.6,619.0 L119.5,617.3
		L121.4,615.6 L123.2,613.8 L125.1,611.9 L127.0,609.9 L128.8,607.9 L130.7,605.7 L132.6,603.5 L134.4,601.1
		L136.3,598.6 L138.2,596.1 L140.1,593.4 L141.9,590.6 L143.8,587.8 L145.7,584.9 L147.5,581.9 L149.4,578.8
		L151.3,575.7 L153.2,572.6 L155.0,569.5 L156.9,566.4 L158.8,563.4 L160.6,560.3 L162.5,557.4 L164.4,554.4
		L166.2,551.6 L168.1,548.8 L170.0,546.1 L171.9,543.4 L173.7,540.9 L175.6,538.5 L177.5,536.1 L179.3,533.8
		L181.2,531.6 L183.1,529.5 L185.0,527.4 L186.8,525.4 L188.7,523.5 L190.6,521.6 L192.4,519.8 L194.3,517.9
		L196.2,516.1 L198.0,514.3 L199.9,512.5 L201.8,510.7 L203.7,508.9 L205.5,507.0 L207.4,505.1 L209.3,503.1
		L211.1,501.1 L213.0,499.1 L214.9,497.0 L216.7,494.8 L218.6,492.6 L220.5,490.4 L222.4,488.1 L224.2,485.7
		L226.1,483.3 L228.0,480.9 L229.8,478.4 L231.7,475.8 L233.6,473.2 L235.5,470.5 L237.3,467.7 L239.2,464.9
		L241.1,461.9 L242.9,458.8 L244.8,455.7 L246.7,452.4 L248.5,449.0 L250.4,445.5 L252.3,441.9 L254.2,438.2
		L256.0,434.5 L257.9,430.7 L259.8,427.0 L261.6,423.3 L263.5,419.7 L265.4,416.2 L267.3,412.9 L269.1,409.7
		L271.0,406.6 L272.9,403.8 L274.7,401.2 L276.6,398.8 L278.5,396.5 L280.3,394.5 L282.2,392.6 L284.1,390.8
		L286.0,389.1 L287.8,387.4 L289.7,385.8 L291.6,384.2 L293.4,382.5 L295.3,380.7 L297.2,378.9 L299.1,377.0
		L300.9,374.9 L302.8,372.7 L304.7,370.4 L306.5,368.0 L308.4,365.5 L310.3,362.9 L312.1,360.1 L314.0,357.3
		L315.9,354.3 L317.8,351.2 L319.6,348.0 L321.5,344.7 L323.4,341.2 L325.2,337.6 L327.1,333.7 L329.0,329.6
		L330.9,325.4 L332.7,320.9 L334.6,316.1 L336.5,311.2 L338.3,306.0 L340.2,300.7 L342.1,295.2 L343.9,289.5
		L345.8,283.8 L347.7,278.0 L349.6,272.2 L351.4,266.5 L353.3,260.8 L355.2,255.4 L357.0,250.1 L358.9,245.0
		L360.8,240.1 L362.7,235.5 L364.5,231.2 L366.4,227.2 L368.3,223.4 L370.1,219.8 L372.0,216.4 L373.9,213.3
		L375.7,210.2 L377.6,207.2 L379.5,204.3 L381.4,201.3 L383.2,198.2 L385.1,195.0 L387.0,191.7 L388.8,188.1
		L390.7,184.2 L392.6,180.1 L394.5,175.7 L396.3,171.1 L398.2,166.1 L400.1,160.9 L401.9,155.5 L403.8,149.9
		L405.7,144.3 L407.5,138.6 L409.4,133.0 L411.3,127.5 L413.2,122.3 L415.0,117.3 L416.9,112.8 L418.8,108.7
		L420.6,105.2 L422.5,102.3 L424.4,100.0 L426.3,98.5 L428.1,97.6 L430.0,97.5 L431.9,98.2 L433.7,99.6
		L435.6,101.8 L437.5,104.7 L439.3,108.2 L441.2,112.5 L443.1,117.3 L445.0,122.7 L446.8,128.7 L448.7,135.1
		L450.6,142.0 L452.4,149.2 L454.3,156.7 L456.2,164.4 L458.0,172.3 L459.9,180.3 L461.8,188.2 L463.7,196.1
		L465.5,203.8 L467.4,211.2 L469.3,218.3 L471.1,224.9 L473.0,231.1 L474.9,236.7 L476.8,241.6 L478.6,245.9
		L480.5,249.4 L482.4,252.2 L484.2,254.3 L486.1,255.7 L488.0,256.3 L489.8,256.3 L491.7,255.7 L493.6,254.5
		L495.5,252.8 L497.3,250.6 L499.2,248.1 L501.1,245.4 L502.9,242.4 L504.8,239.3 L506.7,236.2 L508.6,233.1
		L510.4,230.1 L512.3,227.3 L514.2,224.6 L516.0,222.2 L517.9,220.1 L519.8,218.3 L521.6,216.9 L523.5,215.8
		L525.4,215.1 L527.3,214.9 L529.1,215.0 L531.0,215.6 L532.9,216.6 L534.7,218.1 L536.6,219.9 L538.5,222.2
		L540.4,224.8 L542.2,227.8 L544.1,231.2 L546.0,234.9 L547.8,238.8 L549.7,243.0 L551.6,247.5 L553.4,252.0
		L555.3,256.7 L557.2,261.3 L559.1,266.0 L560.9,270.6 L562.8,275.1 L564.7,279.4 L566.5,283.5 L568.4,287.4
		L570.3,290.9 L572.2,294.2 L574.0,297.1 L575.9,299.6 L577.8,301.9 L579.6,303.8 L581.5,305.4 L583.4,306.7
		L585.2,307.7 L587.1,308.5 L589.0,309.1 L590.9,309.4 L592.7,309.6 L594.6,309.6 L596.5,309.4 L598.3,309.0
		L600.2,308.4 L602.1,307.7 L604.0,306.8 L605.8,305.8 L607.7,304.5 L609.6,303.1 L611.4,301.5 L613.3,299.8
		L615.2,297.9 L617.0,296.0 L618.9,294.0 L620.8,292.0 L622.7,290.1 L624.5,288.3 L626.4,286.8 L628.3,285.4
		L630.1,284.4 L632.0,283.8 L633.9,283.7 L635.8,284.0 L637.6,284.8 L639.5,286.2 L641.4,288.2 L643.2,290.7
		L645.1,293.8 L647.0,297.5 L648.8,301.7 L650.7,306.4 L652.6,311.5 L654.5,317.1 L656.3,323.1 L658.2,329.3
		L660.1,335.9 L661.9,342.6 L663.8,349.6 L665.7,356.6 L667.5,363.8 L669.4,371.0 L671.3,378.1 L673.2,385.2
		L675.0,392.3 L676.9,399.2 L678.8,405.9 L680.6,412.4 L682.5,418.8 L684.4,424.8 L686.3,430.6 L688.1,436.1
		L690.0,441.3 L691.9,446.2 L693.7,450.7 L695.6,454.8 L697.5,458.6 L699.3,462.0 L701.2,465.0 L703.1,467.7
		L705.0,470.0 L706.8,471.9 L708.7,473.5 L710.6,474.8 L712.4,475.8 L714.3,476.6 L716.2,477.1 L718.1,477.4
		L719.9,477.5 L721.8,477.4 L723.7,477.3 L725.5,477.1 L727.4,476.9 L729.3,476.7 L731.1,476.5 L733.0,476.4
		L734.9,476.5 L736.8,476.6 L738.6,476.9 L740.5,477.4 L742.4,478.0 L744.2,478.8 L746.1,479.9 L748.0,481.1
		L749.9,482.5 L751.7,484.1 L753.6,485.9 L755.5,487.8 L757.3,489.8 L759.2,492.0 L761.1,494.2 L762.9,496.6
		L764.8,498.9 L766.7,501.3 L768.6,503.6 L770.4,506.0 L772.3,508.3 L774.2,510.5 L776.0,512.7 L777.9,514.8
		L779.8,516.8 L781.7,518.7 L783.5,520.6 L785.4,522.3 L787.3,524.0 L789.1,525.7 L791.0,527.2 L792.9,528.8
		L794.7,530.3 L796.6,531.7 L798.5,533.2 L800.4,534.7 L802.2,536.2 L804.1,537.7 L806.0,539.2 L807.8,540.7
		L809.7,542.2 L811.6,543.8 L813.5,545.3 L815.3,546.8 L817.2,548.3 L819.1,549.7 L820.9,551.1 L822.8,552.4
		L824.7,553.6 L826.5,554.8 L828.4,555.9 L830.3,556.9 L832.2,557.8 L834.0,558.6 L835.9,559.4 L837.8,560.1
		L839.6,560.7 L841.5,561.3 L843.4,561.8 L845.3,562.3 L847.1,562.8 L849.0,563.3 L850.9,563.8 L852.7,564.3
		L854.6,564.8 L856.5,565.3 L858.3,565.9 L860.2,566.6 L862.1,567.3 L864.0,568.0 L865.8,568.9 L867.7,569.8
		L869.6,570.8 L871.4,571.8 L873.3,573.0 L875.2,574.2 L877.1,575.5 L878.9,576.9 L880.8,578.4 L882.7,579.9
		L884.5,581.5 L886.4,583.1 L888.3,584.8 L890.1,586.5 L892.0,588.2 L893.9,590.0 L895.8,591.8 L897.6,593.5
		L899.5,595.3 L901.4,597.1 L903.2,598.8 L905.1,600.5 L907.0,602.2 L908.8,603.8 L910.7,605.4 L912.6,607.0
		L914.5,608.4 L916.3,609.8 L918.2,611.1 L920.1,612.4 L921.9,613.6 L923.8,614.7 L925.7,615.7 L927.6,616.7
		L929.4,617.6 L931.3,618.4 L933.2,619.2 L935.0,619.9 L936.9,620.5 L938.8,621.1 L940.6,621.6 L942.5,622.0
		L944.4,622.5 L946.3,622.8 L948.1,623.2 L950.0,623.5 L951.9,623.8 L953.7,624.1 L955.6,624.3 L957.5,624.6
		L959.4,624.8 L961.2,625.1 L963.1,625.3 L965.0,625.6 L966.8,625.8 L968.7,626.1 L970.6,626.3 L972.4,626.6
		L974.3,627.0 L976.2,627.3 L978.1,627.7 L979.9,628.1 L981.8,628.5 L983.7,628.9 L985.5,629.4 L987.4,629.9
		L989.3,630.5 L991.2,631.0 L993.0,631.6 L994.9,632.2 L996.8,632.9 L998.6,633.5 L1000.5,634.1 L1002.4,634.8
		L1004.2,635.4 L1006.1,636.1 L1008.0,636.7 L1009.9,637.3 L1011.7,637.9 L1013.6,638.5  '/></g>
	</g>
	<g id="gnuplot_plot_2" ><title>Confidence interval</title>
<g fill="none" color="white" stroke="rgb( 31, 120, 180)" stroke-width="1.00" stroke-linecap="butt" stroke-linejoin="miter">
</g>
<g fill="none" color="black" stroke="currentColor" stroke-width="1.00" stroke-linecap="butt" stroke-linejoin="miter">
	<g transform="translate(1089.0,85.0)" stroke="none" fill="black" font-family="Helvetica" font-size="12.00"  text-anchor="start">
		<text><tspan font-family="Helvetica" >Confidence interval</tspan></text>
	</g>
</g>
<g fill="none" color="black" stroke="currentColor" stroke-width="1.00" stroke-linecap="butt" stroke-linejoin="miter">
	<g stroke='none' shape-rendering='crispEdges'>
		<polygon fill = 'rgb( 31, 120, 180)' fill-opacity = '0.250000' points = '1038.5,85.6 1080.7,85.6 1080.7,76.6 1038.5,76.6 '/>
		<polygon fill = 'rgb( 31, 120, 180)' fill-opacity = '0.250000' points = '166.2,551.6 168.1,548.8 170.0,546.1 171.9,543.4 173.7,540.9 175.6,538.5 177.5,536.1 179.3,533.8 181.2,531.6 183.1,529.5 185.0,527.4 186.8,525.4 188.7,523.5 190.6,521.6 192.4,519.8 194.3,517.9
196.2,516.1 198.0,514.3 199.9,512.5 201.8,510.7 203.7,508.9 205.5,507.0 207.4,505.1 209.3,503.1 211.1,501.1 213.0,499.1 214.9,497.0 216.7,494.8 218.6,492.6 220.5,490.4 222.4,488.1 224.2,485.7
226.1,483.3 228.0,480.9 229.8,478.4 231.7,475.8 233.6,473.2 235.5,470.5 237.3,467.7 239.2,464.9 241.1,461.9 242.9,458.8 244.8,455.7 246.7,452.4 248.5,449.0 250.4,445.5 252.3,441.9 254.2,438.2
256.0,434.5 257.9,430.7 259.8,427.0 261.6,423.3 263.5,419.7 265.4,416.2 267.3,412.9 269.1,409.7 271.0,406.6 272.9,403.8 274.7,401.2 276.6,398.8 278.5,396.5 280.3,394.5 282.2,392.6 284.1,390.8
286.0,389.1 287.8,387.4 289.7,385.8 291.6,384.2 293.4,382.5 295.3,380.7 297.2,378.9 299.1,377.0 300.9,374.9 302.8,372.7 304.7,370.4 306.5,368.0 308.4,365.5 310.3,362.9 312.1,360.1 314.0,357.3
315.9,354.3 317.8,351.2 319.6,348.0 321.5,344.7 323.4,341.2 325.2,337.6 327.1,333.7 329.0,329.6 330.9,325.4 332.7,320.9 334.6,316.1 336.5,311.2 338.3,306.0 340.2,300.7 342.1,295.2 343.9,289.5
345.8,283.8 347.7,278.0 349.6,272.2 351.4,266.5 353.3,260.8 355.2,255.4 357.0,250.1 358.9,245.0 360.8,240.1 362.7,235.5 364.5,231.2 366.4,227.2 368.3,223.4 370.1,219.8 372.0,216.4 373.9,213.3
375.7,210.2 377.6,207.2 379.5,204.3 381.4,201.3 383.2,198.2 385.1,195.0 387.0,191.7 388.8,188.1 390.7,184.2 392.6,180.1 394.5,175.7 396.3,171.1 398.2,166.1 400.1,160.9 401.9,155.5 403.8,149.9
405.7,144.3 407.5,138.6 409.4,133.0 411.3,127.5 413.2,122.3 415.0,117.3 416.9,112.8 418.8,108.7 420.6,105.2 422.5,102.3 424.4,100.0 426.3,98.5 428.1,97.6 430.0,97.5 431.9,98.2 433.7,99.6
435.6,101.8 437.5,104.7 439.3,108.2 441.2,112.5 443.1,117.3 445.0,122.7 446.8,128.7 448.7,135.1 450.6,142.0 452.4,149.2 454.3,156.7 456.2,164.4 458.0,172.3 459.9,180.3 461.8,188.2 463.7,196.1
465.5,203.8 467.4,211.2 469.3,218.3 471.1,224.9 473.0,231.1 474.9,236.7 476.8,241.6 478.6,245.9 480.5,249.4 482.4,252.2 484.2,254.3 486.1,255.7 488.0,256.3 489.8,256.3 491.7,255.7 493.6,254.5
495.5,252.8 497.3,250.6 499.2,248.1 501.1,245.4 502.9,242.4 504.8,239.3 506.7,236.2 508.6,233.1 510.4,230.1 512.3,227.3 514.2,224.6 516.0,222.2 517.9,220.1 519.8,218.3 521.6,216.9 523.5,215.8
525.4,215.1 527.3,214.9 529.1,215.0 531.0,215.6 532.9,216.6 534.7,218.1 536.6,219.9 538.5,222.2 540.4,224.8 542.2,227.8 544.1,231.2 546.0,234.9 547.8,238.8 549.7,243.0 551.6,247.5 553.4,252.0
555.3,256.7 557.2,261.3 559.1,266.0 560.9,270.6 562.8,275.1 564.7,279.4 566.5,283.5 568.4,287.4 570.3,290.9 572.2,294.2 574.0,297.1 575.9,299.6 577.8,301.9 579.6,303.8 581.5,305.4 583.4,306.7
585.2,307.7 587.1,308.5 589.0,309.1 590.9,309.4 592.7,309.6 594.6,309.6 596.5,309.4 598.3,309.0 600.2,308.4 602.1,307.7 604.0,306.8 605.8,305.8 607.7,304.5 609.6,303.1 611.4,301.5 613.3,299.8
615.2,297.9 617.0,296.0 618.9,294.0 620.8,292.0 622.7,290.1 624.5,288.3 626.4,286.8 628.3,285.4 630.1,284.4 632.0,283.8 633.9,283.7 635.8,284.0 637.6,284.8 639.5,286.2 641.4,288.2 643.2,290.7
645.1,293.8 647.0,297.5 648.8,301.7 650.7,306.4 652.6,311.5 654.5,317.1 656.3,323.1 658.2,329.3 660.1,335.9 661.9,342.6 663.8,349.6 665.7,356.6 667.5,363.8 669.4,371.0 671.3,378.1 673.2,385.2
675.0,392.3 676.9,399.2 678.8,405.9 680.6,412.4 682.5,418.8 684.4,424.8 686.3,430.6 688.1,436.1 690.0,441.3 691.9,446.2 693.7,450.7 695.6,454.8 697.5,458.6 699.3,462.0 701.2,465.0 703.1,467.7
705.0,470.0 706.8,471.9 708.7,473.5 710.6,474.8 712.4,475.8 714.3,476.6 716.2,477.1 718.1,477.4 719.9,477.5 721.8,477.4 723.7,477.3 725.5,477.1 727.4,476.9 729.3,476.7 731.1,476.5 733.0,476.4
734.9,476.5 736.8,476.6 738.6,476.9 740.5,477.4 742.4,478.0 744.2,478.8 746.1,479.9 748.0,481.1 749.9,482.5 751.7,484.1 753.6,485.9 755.5,487.8 757.3,489.8 759.2,492.0 761.1,494.2 762.9,496.6
764.8,498.9 766.7,501.3 768.6,503.6 770.4,506.0 772.3,508.3 774.2,510.5 776.0,512.7 777.9,514.8 779.8,516.8 781.7,518.7 783.5,520.6 785.4,522.3 787.3,524.0 789.1,525.7 791.0,527.2 792.9,528.8
794.7,530.3 796.6,531.7 798.5,533.2 800.4,534.7 802.2,536.2 804.1,537.7 806.0,539.2 807.8,540.7 809.7,542.2 811.6,543.8 813.5,545.3 815.3,546.8 817.2,548.3 819.1,549.7 820.9,551.1 822.8,552.4
824.7,553.6 826.5,554.8 828.4,555.9 830.3,556.9 832.2,557.8 834.0,558.6 835.9,559.4 837.8,560.1 839.6,560.7 841.5,561.3 843.4,561.8 845.3,562.3 847.1,562.8 849.0,563.3 850.9,563.8 852.7,564.3
854.6,564.8 856.5,565.3 858.3,565.9 860.2,566.6 862.1,567.3 864.0,568.0 865.8,568.9 867.7,569.8 869.6,570.8 871.4,571.8 873.3,573.0 875.2,574.2 877.1,575.5 878.9,576.9 880.8,578.4 882.7,579.9
884.5,581.5 886.4,583.1 888.3,584.8 890.1,586.5 892.0,588.2 893.9,590.0 895.8,591.8 897.6,593.5 899.5,595.3 901.4,597.1 903.2,598.8 905.1,600.5 907.0,602.2 908.8,603.8 910.7,605.4 912.6,607.0
914.5,608.4 916.3,609.8 918.2,611.1 920.1,612.4 921.9,613.6 923.8,614.7 925.7,615.7 925.7,662.4 923.8,662.4 921.9,662.4 920.1,662.4 918.2,662.4 916.3,662.4 914.5,662.4 912.6,662.4 910.7,662.4
908.8,662.4 907.0,662.4 905.1,662.4 903.2,662.4 901.4,662.4 899.5,662.4 897.6,662.4 895.8,662.4 893.9,662.4 892.0,662.4 890.1,662.4 888.3,662.4 886.4,662.4 884.5,662.4 882.7,662.4 880.8,662.4
878.9,662.4 877.1,662.4 875.2,662.4 873.3,662.4 871.4,662.4 869.6,662.4 867.7,662.4 865.8,662.4 864.0,662.4 862.1,662.4 860.2,662.4 858.3,662.4 856.5,662.4 854.6,662.4 852.7,662.4 850.9,662.4
849.0,662.4 847.1,662.4 845.3,662.4 843.4,662.4 841.5,662.4 839.6,662.4 837.8,662.4 835.9,662.4 834.0,662.4 832.2,662.4 830.3,662.4 828.4,662.4 826.5,662.4 824.7,662.4 822.8,662.4 820.9,662.4
819.1,662.4 817.2,662.4 815.3,662.4 813.5,662.4 811.6,662.4 809.7,662.4 807.8,662.4 806.0,662.4 804.1,662.4 802.2,662.4 800.4,662.4 798.5,662.4 796.6,662.4 794.7,662.4 792.9,662.4 791.0,662.4
789.1,662.4 787.3,662.4 785.4,662.4 783.5,662.4 781.7,662.4 779.8,662.4 777.9,662.4 776.0,662.4 774.2,662.4 772.3,662.4 770.4,662.4 768.6,662.4 766.7,662.4 764.8,662.4 762.9,662.4 761.1,662.4
759.2,662.4 757.3,662.4 755.5,662.4 753.6,662.4 751.7,662.4 749.9,662.4 748.0,662.4 746.1,662.4 744.2,662.4 742.4,662.4 740.5,662.4 738.6,662.4 736.8,662.4 734.9,662.4 733.0,662.4 731.1,662.4
729.3,662.4 727.4,662.4 725.5,662.4 723.7,662.4 721.8,662.4 719.9,662.4 718.1,662.4 716.2,662.4 714.3,662.4 712.4,662.4 710.6,662.4 708.7,662.4 706.8,662.4 705.0,662.4 703.1,662.4 701.2,662.4
699.3,662.4 697.5,662.4 695.6,662.4 693.7,662.4 691.9,662.4 690.0,662.4 688.1,662.4 686.3,662.4 684.4,662.4 682.5,662.4 680.6,662.4 678.8,662.4 676.9,662.4 675.0,662.4 673.2,662.4 671.3,662.4
669.4,662.4 667.5,662.4 665.7,662.4 663.8,662.4 661.9,662.4 660.1,662.4 658.2,662.4 656.3,662.4 654.5,662.4 652.6,662.4 650.7,662.4 648.8,662.4 647.0,662.4 645.1,662.4 643.2,662.4 641.4,662.4
639.5,662.4 637.6,662.4 635.8,662.4 633.9,662.4 632.0,662.4 630.1,662.4 628.3,662.4 626.4,662.4 624.5,662.4 622.7,662.4 620.8,662.4 618.9,662.4 617.0,662.4 615.2,662.4 613.3,662.4 611.4,662.4
609.6,662.4 607.7,662.4 605.8,662.4 604.0,662.4 602.1,662.4 600.2,662.4 598.3,662.4 596.5,662.4 594.6,662.4 592.7,662.4 590.9,662.4 589.0,662.4 587.1,662.4 585.2,662.4 583.4,662.4 581.5,662.4
579.6,662.4 577.8,662.4 575.9,662.4 574.0,662.4 572.2,662.4 570.3,662.4 568.4,662.4 566.5,662.4 564.7,662.4 562.8,662.4 560.9,662.4 559.1,662.4 557.2,662.4 555.3,662.4 553.4,662.4 551.6,662.4
549.7,662.4 547.8,662.4 546.0,662.4 544.1,662.4 542.2,662.4 540.4,662.4 538.5,662.4 536.6,662.4 534.7,662.4 532.9,662.4 531.0,662.4 529.1,662.4 527.3,662.4 525.4,662.4 523.5,662.4 521.6,662.4
519.8,662.4 517.9,662.4 516.0,662.4 514.2,662.4 512.3,662.4 510.4,662.4 508.6,662.4 506.7,662.4 504.8,662.4 502.9,662.4 501.1,662.4 499.2,662.4 497.3,662.4 495.5,662.4 493.6,662.4 491.7,662.4
489.8,662.4 488.0,662.4 486.1,662.4 484.2,662.4 482.4,662.4 480.5,662.4 478.6,662.4 476.8,662.4 474.9,662.4 473.0,662.4 471.1,662.4 469.3,662.4 467.4,662.4 465.5,662.4 463.7,662.4 461.8,662.4
459.9,662.4 458.0,662.4 456.2,662.4 454.3,662.4 452.4,662.4 450.6,662.4 448.7,662.4 446.8,662.4 445.0,662.4 443.1,662.4 441.2,662.4 439.3,662.4 437.5,662.4 435.6,662.4 433.7,662.4 431.9,662.4
430.0,662.4 428.1,662.4 426.3,662.4 424.4,662.4 422.5,662.4 420.6,662.4 418.8,662.4 416.9,662.4 415.0,662.4 413.2,662.4 411.3,662.4 409.4,662.4 407.5,662.4 405.7,662.4 403.8,662.4 401.9,662.4
400.1,662.4 398.2,662.4 396.3,662.4 394.5,662.4 392.6,662.4 390.7,662.4 388.8,662.4 387.0,662.4 385.1,662.4 383.2,662.4 381.4,662.4 379.5,662.4 377.6,662.4 375.7,662.4 373.9,662.4 372.0,662.4
370.1,662.4 368.3,662.4 366.4,662.4 364.5,662.4 362.7,662.4 360.8,662.4 358.9,662.4 357.0,662.4 355.2,662.4 353.3,662.4 351.4,662.4 349.6,662.4 347.7,662.4 345.8,662.4 343.9,662.4 342.1,662.4
340.2,662.4 338.3,662.4 336.5,662.4 334.6,662.4 332.7,662.4 330.9,662.4 329.0,662.4 327.1,662.4 325.2,662.4 323.4,662.4 321.5,662.4 319.6,662.4 317.8,662.4 315.9,662.4 314.0,662.4 312.1,662.4
310.3,662.4 308.4,662.4 306.5,662.4 304.7,662.4 302.8,662.4 300.9,662.4 299.1,662.4 297.2,662.4 295.3,662.4 293.4,662.4 291.6,662.4 289.7,662.4 287.8,662.4 286.0,662.4 284.1,662.4 282.2,662.4
280.3,662.4 278.5,662.4 276.6,662.4 274.7,662.4 272.9,662.4 271.0,662.4 269.1,662.4 267.3,662.4 265.4,662.4 263.5,662.4 261.6,662.4 259.8,662.4 257.9,662.4 256.0,662.4 254.2,662.4 252.3,662.4
250.4,662.4 248.5,662.4 246.7,662.4 244.8,662.4 242.9,662.4 241.1,662.4 239.2,662.4 237.3,662.4 235.5,662.4 233.6,662.4 231.7,662.4 229.8,662.4 228.0,662.4 226.1,662.4 224.2,662.4 222.4,662.4
220.5,662.4 218.6,662.4 216.7,662.4 214.9,662.4 213.0,662.4 211.1,662.4 209.3,662.4 207.4,662.4 205.5,662.4 203.7,662.4 201.8,662.4 199.9,662.4 198.0,662.4 196.2,662.4 194.3,662.4 192.4,662.4
190.6,662.4 188.7,662.4 186.8,662.4 185.0,662.4 183.1,662.4 181.2,662.4 179.3,662.4 177.5,662.4 175.6,662.4 173.7,662.4 171.9,662.4 170.0,662.4 168.1,662.4 166.2,662.4 '/>
	</g>
</g>
	</g>
	<g id="gnuplot_plot_3" ><title>Point estimate</title>
<g fill="none" color="white" stroke="rgb( 31, 120, 180)" stroke-width="2.00" stroke-linecap="butt" stroke-linejoin="miter">
</g>
<g fill="none" color="black" stroke="currentColor" stroke-width="2.00" stroke-linecap="butt" stroke-linejoin="miter">
	<g transform="translate(1089.0,103.0)" stroke="none" fill="black" font-family="Helvetica" font-size="12.00"  text-anchor="start">
		<text><tspan font-family="Helvetica" >Point estimate</tspan></text>
	</g>
</g>
<g fill="none" color="black" stroke="currentColor" stroke-width="2.00" stroke-linecap="butt" stroke-linejoin="miter">
	<path stroke='rgb( 31, 120, 180)'  d='M1038.5,99.1 L1080.7,99.1 M441.4,662.4 L441.4,113.0  '/></g>
	</g>
<g fill="none" color="black" stroke="currentColor" stroke-width="2.00" stroke-linecap="butt" stroke-linejoin="miter">
</g>
<g fill="none" color="black" stroke="black" stroke-width="1.00" stroke-linecap="butt" stroke-linejoin="miter">
</g>
<g fill="none" color="black" stroke="currentColor" stroke-width="1.00" stroke-linecap="butt" stroke-linejoin="miter">
	<path stroke='black'  d='M80.2,54.1 L80.2,662.4 L1013.6,662.4 L1013.6,54.1 L80.2,54.1 Z  '/></g>
<g fill="none" color="black" stroke="currentColor" stroke-width="1.00" stroke-linecap="butt" stroke-linejoin="miter">
</g>
</g>
</svg>

