<?xml version="1.0" encoding="utf-8"  standalone="no"?>
<svg 
 viewBox="0 0 1280 720"
 xmlns="http://www.w3.org/2000/svg"
 xmlns:xlink="http://www.w3.org/1999/xlink"
>

<title>Gnuplot</title>
<desc>Produced by GNUPLOT 5.2 patchlevel 6 </desc>

<g id="gnuplot_canvas">

<rect x="0" y="0" width="1280" height="720" fill="none"/>
<defs>

	<circle id='gpDot' r='0.5' stroke-width='0.5' stroke='currentColor'/>
	<path id='gpPt0' stroke-width='0.222' stroke='currentColor' d='M-1,0 h2 M0,-1 v2'/>
	<path id='gpPt1' stroke-width='0.222' stroke='currentColor' d='M-1,-1 L1,1 M1,-1 L-1,1'/>
	<path id='gpPt2' stroke-width='0.222' stroke='currentColor' d='M-1,0 L1,0 M0,-1 L0,1 M-1,-1 L1,1 M-1,1 L1,-1'/>
	<rect id='gpPt3' stroke-width='0.222' stroke='currentColor' x='-1' y='-1' width='2' height='2'/>
	<rect id='gpPt4' stroke-width='0.222' stroke='currentColor' fill='currentColor' x='-1' y='-1' width='2' height='2'/>
	<circle id='gpPt5' stroke-width='0.222' stroke='currentColor' cx='0' cy='0' r='1'/>
	<use xlink:href='#gpPt5' id='gpPt6' fill='currentColor' stroke='none'/>
	<path id='gpPt7' stroke-width='0.222' stroke='currentColor' d='M0,-1.33 L-1.33,0.67 L1.33,0.67 z'/>
	<use xlink:href='#gpPt7' id='gpPt8' fill='currentColor' stroke='none'/>
	<use xlink:href='#gpPt7' id='gpPt9' stroke='currentColor' transform='rotate(180)'/>
	<use xlink:href='#gpPt9' id='gpPt10' fill='currentColor' stroke='none'/>
	<use xlink:href='#gpPt3' id='gpPt11' stroke='currentColor' transform='rotate(45)'/>
	<use xlink:href='#gpPt11' id='gpPt12' fill='currentColor' stroke='none'/>
	<path id='gpPt13' stroke-width='0.222' stroke='currentColor' d='M0,1.330 L1.265,0.411 L0.782,-1.067 L-0.782,-1.076 L-1.265,0.411 z'/>
	<use xlink:href='#gpPt13' id='gpPt14' fill='currentColor' stroke='none'/>
	<filter id='textbox' filterUnits='objectBoundingBox' x='0' y='0' height='1' width='1'>
	  <feFlood flood-color='white' flood-opacity='1' result='bgnd'/>
	  <feComposite in='SourceGraphic' in2='bgnd' operator='atop'/>
	</filter>
	<filter id='greybox' filterUnits='objectBoundingBox' x='0' y='0' height='1' width='1'>
	  <feFlood flood-color='lightgrey' flood-opacity='1' result='grey'/>
	  <feComposite in='SourceGraphic' in2='grey' operator='atop'/>
	</filter>
</defs>
<g fill="none" color="white" stroke="currentColor" stroke-width="1.00" stroke-linecap="butt" stroke-linejoin="miter">
</g>
<g fill="none" color="black" stroke="currentColor" stroke-width="1.00" stroke-linecap="butt" stroke-linejoin="miter">
	<path stroke='black'  d='M71.9,662.4 L80.9,662.4  '/>	<g transform="translate(63.6,666.3)" stroke="none" fill="black" font-family="Helvetica" font-size="12.00"  text-anchor="end">
		<text><tspan font-family="Helvetica" > 0</tspan></text>
	</g>
</g>
<g fill="none" color="black" stroke="currentColor" stroke-width="1.00" stroke-linecap="butt" stroke-linejoin="miter">
	<path stroke='black'  d='M71.9,540.7 L80.9,540.7  '/>	<g transform="translate(63.6,544.6)" stroke="none" fill="black" font-family="Helvetica" font-size="12.00"  text-anchor="end">
		<text><tspan font-family="Helvetica" > 50</tspan></text>
	</g>
</g>
<g fill="none" color="black" stroke="currentColor" stroke-width="1.00" stroke-linecap="butt" stroke-linejoin="miter">
	<path stroke='black'  d='M71.9,419.1 L80.9,419.1  '/>	<g transform="translate(63.6,423.0)" stroke="none" fill="black" font-family="Helvetica" font-size="12.00"  text-anchor="end">
		<text><tspan font-family="Helvetica" > 100</tspan></text>
	</g>
</g>
<g fill="none" color="black" stroke="currentColor" stroke-width="1.00" stroke-linecap="butt" stroke-linejoin="miter">
	<path stroke='black'  d='M71.9,297.4 L80.9,297.4  '/>	<g transform="translate(63.6,301.3)" stroke="none" fill="black" font-family="Helvetica" font-size="12.00"  text-anchor="end">
		<text><tspan font-family="Helvetica" > 150</tspan></text>
	</g>
</g>
<g fill="none" color="black" stroke="currentColor" stroke-width="1.00" stroke-linecap="butt" stroke-linejoin="miter">
	<path stroke='black'  d='M71.9,175.8 L80.9,175.8  '/>	<g transform="translate(63.6,179.7)" stroke="none" fill="black" font-family="Helvetica" font-size="12.00"  text-anchor="end">
		<text><tspan font-family="Helvetica" > 200</tspan></text>
	</g>
</g>
<g fill="none" color="black" stroke="currentColor" stroke-width="1.00" stroke-linecap="butt" stroke-linejoin="miter">
	<path stroke='black'  d='M71.9,54.1 L80.9,54.1  '/>	<g transform="translate(63.6,58.0)" stroke="none" fill="black" font-family="Helvetica" font-size="12.00"  text-anchor="end">
		<text><tspan font-family="Helvetica" > 250</tspan></text>
	</g>
</g>
<g fill="none" color="black" stroke="currentColor" stroke-width="1.00" stroke-linecap="butt" stroke-linejoin="miter">
	<path stroke='black'  d='M73.0,662.4 L73.0,653.4  '/>	<g transform="translate(73.0,684.3)" stroke="none" fill="black" font-family="Helvetica" font-size="12.00"  text-anchor="middle">
		<text><tspan font-family="Helvetica" > 12.502</tspan></text>
	</g>
</g>
<g fill="none" color="black" stroke="currentColor" stroke-width="1.00" stroke-linecap="butt" stroke-linejoin="miter">
	<path stroke='black'  d='M181.2,662.4 L181.2,653.4  '/>	<g transform="translate(181.2,684.3)" stroke="none" fill="black" font-family="Helvetica" font-size="12.00"  text-anchor="middle">
		<text><tspan font-family="Helvetica" > 12.504</tspan></text>
	</g>
</g>
<g fill="none" color="black" stroke="currentColor" stroke-width="1.00" stroke-linecap="butt" stroke-linejoin="miter">
	<path stroke='black'  d='M289.5,662.4 L289.5,653.4  '/>	<g transform="translate(289.5,684.3)" stroke="none" fill="black" font-family="Helvetica" font-size="12.00"  text-anchor="middle">
		<text><tspan font-family="Helvetica" > 12.506</tspan></text>
	</g>
</g>
<g fill="none" color="black" stroke="currentColor" stroke-width="1.00" stroke-linecap="butt" stroke-linejoin="miter">
	<path stroke='black'  d='M397.8,662.4 L397.8,653.4  '/>	<g transform="translate(397.8,684.3)" stroke="none" fill="black" font-family="Helvetica" font-size="12.00"  text-anchor="middle">
		<text><tspan font-family="Helvetica" > 12.508</tspan></text>
	</g>
</g>
<g fill="none" color="black" stroke="currentColor" stroke-width="1.00" stroke-linecap="butt" stroke-linejoin="miter">
	<path stroke='black'  d='M506.0,662.4 L506.0,653.4  '/>	<g transform="translate(506.0,684.3)" stroke="none" fill="black" font-family="Helvetica" font-size="12.00"  text-anchor="middle">
		<text><tspan font-family="Helvetica" > 12.51</tspan></text>
	</g>
</g>
<g fill="none" color="black" stroke="currentColor" stroke-width="1.00" stroke-linecap="butt" stroke-linejoin="miter">
	<path stroke='black'  d='M614.3,662.4 L614.3,653.4  '/>	<g transform="translate(614.3,684.3)" stroke="none" fill="black" font-family="Helvetica" font-size="12.00"  text-anchor="middle">
		<text><tspan font-family="Helvetica" > 12.512</tspan></text>
	</g>
</g>
<g fill="none" color="black" stroke="currentColor" stroke-width="1.00" stroke-linecap="butt" stroke-linejoin="miter">
	<path stroke='black'  d='M722.5,662.4 L722.5,653.4  '/>	<g transform="translate(722.5,684.3)" stroke="none" fill="black" font-family="Helvetica" font-size="12.00"  text-anchor="middle">
		<text><tspan font-family="Helvetica" > 12.514</tspan></text>
	</g>
</g>
<g fill="none" color="black" stroke="currentColor" stroke-width="1.00" stroke-linecap="butt" stroke-linejoin="miter">
	<path stroke='black'  d='M830.8,662.4 L830.8,653.4  '/>	<g transform="translate(830.8,684.3)" stroke="none" fill="black" font-family="Helvetica" font-size="12.00"  text-anchor="middle">
		<text><tspan font-family="Helvetica" > 12.516</tspan></text>
	</g>
</g>
<g fill="none" color="black" stroke="currentColor" stroke-width="1.00" stroke-linecap="butt" stroke-linejoin="miter">
	<path stroke='black'  d='M939.0,662.4 L939.0,653.4  '/>	<g transform="translate(939.0,684.3)" stroke="none" fill="black" font-family="Helvetica" font-size="12.00"  text-anchor="middle">
		<text><tspan font-family="Helvetica" > 12.518</tspan></text>
	</g>
</g>
<g fill="none" color="black" stroke="currentColor" stroke-width="1.00" stroke-linecap="butt" stroke-linejoin="miter">
</g>
<g fill="none" color="black" stroke="currentColor" stroke-width="1.00" stroke-linecap="butt" stroke-linejoin="miter">
	<path stroke='black'  d='M71.9,54.1 L71.9,662.4 L1013.6,662.4 L1013.6,54.1 L71.9,54.1 Z  '/></g>
<g fill="none" color="black" stroke="currentColor" stroke-width="1.00" stroke-linecap="butt" stroke-linejoin="miter">
	<g transform="translate(16.3,358.3) rotate(270)" stroke="none" fill="black" font-family="Helvetica" font-size="12.00"  text-anchor="middle">
		<text><tspan font-family="Helvetica" >Density (a.u.)</tspan></text>
	</g>
</g>
<g fill="none" color="black" stroke="currentColor" stroke-width="1.00" stroke-linecap="butt" stroke-linejoin="miter">
	<g transform="translate(542.7,711.3)" stroke="none" fill="black" font-family="Helvetica" font-size="12.00"  text-anchor="middle">
		<text><tspan font-family="Helvetica" >Average time (us)</tspan></text>
	</g>
</g>
<g fill="none" color="black" stroke="currentColor" stroke-width="1.00" stroke-linecap="butt" stroke-linejoin="miter">
	<g transform="translate(542.7,31.0)" stroke="none" fill="black" font-family="Helvetica" font-size="12.00"  text-anchor="middle">
		<text><tspan font-family="Helvetica" >snapshot_restore_with_dense/Sparse: Dirty pages + process_vm_writev/5: median</tspan></text>
	</g>
</g>
	<g id="gnuplot_plot_1" ><title>Bootstrap distribution</title>
<g fill="none" color="white" stroke="black" stroke-width="2.00" stroke-linecap="butt" stroke-linejoin="miter">
</g>
<g fill="none" color="black" stroke="currentColor" stroke-width="2.00" stroke-linecap="butt" stroke-linejoin="miter">
	<g transform="translate(1089.0,67.0)" stroke="none" fill="black" font-family="Helvetica" font-size="12.00"  text-anchor="start">
		<text><tspan font-family="Helvetica" >Bootstrap distribution</tspan></text>
	</g>
</g>
<g fill="none" color="black" stroke="currentColor" stroke-width="2.00" stroke-linecap="butt" stroke-linejoin="miter">
	<path stroke='rgb( 31, 120, 180)'  d='M1038.5,63.1 L1080.7,63.1 M71.9,649.2 L73.8,648.9 L75.7,648.7 L77.6,648.4 L79.4,648.1 L81.3,647.7
		L83.2,647.4 L85.1,647.0 L87.0,646.6 L88.9,646.1 L90.8,645.6 L92.7,645.0 L94.5,644.4 L96.4,643.7
		L98.3,642.9 L100.2,642.0 L102.1,641.1 L104.0,640.0 L105.9,638.7 L107.8,637.4 L109.6,635.8 L111.5,634.1
		L113.4,632.1 L115.3,629.9 L117.2,627.4 L119.1,624.7 L121.0,621.7 L122.9,618.3 L124.7,614.6 L126.6,610.6
		L128.5,606.3 L130.4,601.7 L132.3,596.7 L134.2,591.5 L136.1,586.0 L138.0,580.3 L139.8,574.5 L141.7,568.6
		L143.6,562.7 L145.5,556.8 L147.4,551.1 L149.3,545.6 L151.2,540.4 L153.0,535.6 L154.9,531.2 L156.8,527.3
		L158.7,524.1 L160.6,521.4 L162.5,519.3 L164.4,518.0 L166.3,517.2 L168.1,517.2 L170.0,517.8 L171.9,518.9
		L173.8,520.7 L175.7,522.9 L177.6,525.6 L179.5,528.6 L181.4,532.0 L183.2,535.6 L185.1,539.4 L187.0,543.3
		L188.9,547.3 L190.8,551.3 L192.7,555.3 L194.6,559.3 L196.5,563.1 L198.3,566.8 L200.2,570.4 L202.1,573.8
		L204.0,577.0 L205.9,580.1 L207.8,583.0 L209.7,585.7 L211.6,588.3 L213.4,590.6 L215.3,592.8 L217.2,594.8
		L219.1,596.6 L221.0,598.1 L222.9,599.5 L224.8,600.7 L226.6,601.6 L228.5,602.4 L230.4,602.9 L232.3,603.2
		L234.2,603.3 L236.1,603.1 L238.0,602.8 L239.9,602.2 L241.7,601.5 L243.6,600.6 L245.5,599.6 L247.4,598.5
		L249.3,597.3 L251.2,596.1 L253.1,594.8 L255.0,593.6 L256.8,592.4 L258.7,591.3 L260.6,590.3 L262.5,589.5
		L264.4,588.8 L266.3,588.2 L268.2,587.9 L270.1,587.7 L271.9,587.6 L273.8,587.8 L275.7,588.0 L277.6,588.4
		L279.5,588.8 L281.4,589.3 L283.3,589.7 L285.2,590.1 L287.0,590.4 L288.9,590.6 L290.8,590.6 L292.7,590.4
		L294.6,589.9 L296.5,589.1 L298.4,588.0 L300.2,586.5 L302.1,584.6 L304.0,582.4 L305.9,579.8 L307.8,576.8
		L309.7,573.4 L311.6,569.7 L313.5,565.6 L315.3,561.2 L317.2,556.4 L319.1,551.4 L321.0,546.1 L322.9,540.6
		L324.8,534.9 L326.7,529.1 L328.6,523.1 L330.4,517.1 L332.3,511.0 L334.2,504.8 L336.1,498.7 L338.0,492.7
		L339.9,486.8 L341.8,481.0 L343.7,475.4 L345.5,470.0 L347.4,464.8 L349.3,460.0 L351.2,455.5 L353.1,451.3
		L355.0,447.6 L356.9,444.2 L358.8,441.4 L360.6,439.0 L362.5,437.0 L364.4,435.6 L366.3,434.7 L368.2,434.2
		L370.1,434.3 L372.0,434.8 L373.8,435.8 L375.7,437.3 L377.6,439.1 L379.5,441.3 L381.4,443.8 L383.3,446.7
		L385.2,449.8 L387.1,453.1 L388.9,456.7 L390.8,460.4 L392.7,464.3 L394.6,468.3 L396.5,472.5 L398.4,476.7
		L400.3,481.0 L402.2,485.3 L404.0,489.8 L405.9,494.3 L407.8,498.8 L409.7,503.4 L411.6,508.1 L413.5,512.8
		L415.4,517.5 L417.3,522.3 L419.1,527.2 L421.0,532.0 L422.9,536.9 L424.8,541.7 L426.7,546.5 L428.6,551.2
		L430.5,555.8 L432.4,560.3 L434.2,564.5 L436.1,568.5 L438.0,572.1 L439.9,575.5 L441.8,578.4 L443.7,580.9
		L445.6,583.0 L447.4,584.5 L449.3,585.5 L451.2,586.0 L453.1,585.9 L455.0,585.3 L456.9,584.1 L458.8,582.4
		L460.7,580.2 L462.5,577.4 L464.4,574.3 L466.3,570.7 L468.2,566.8 L470.1,562.6 L472.0,558.2 L473.9,553.7
		L475.8,549.1 L477.6,544.5 L479.5,540.0 L481.4,535.7 L483.3,531.7 L485.2,528.0 L487.1,524.8 L489.0,522.0
		L490.9,519.9 L492.7,518.3 L494.6,517.5 L496.5,517.3 L498.4,517.9 L500.3,519.2 L502.2,521.2 L504.1,524.0
		L506.0,527.3 L507.8,531.3 L509.7,535.8 L511.6,540.7 L513.5,545.8 L515.4,551.2 L517.3,556.5 L519.2,561.8
		L521.0,566.8 L522.9,571.4 L524.8,575.4 L526.7,578.6 L528.6,580.9 L530.5,582.1 L532.4,582.1 L534.3,580.7
		L536.1,577.7 L538.0,573.1 L539.9,566.7 L541.8,558.5 L543.7,548.3 L545.6,536.1 L547.5,521.8 L549.4,505.6
		L551.2,487.4 L553.1,467.4 L555.0,445.6 L556.9,422.2 L558.8,397.6 L560.7,371.8 L562.6,345.2 L564.5,318.1
		L566.3,290.9 L568.2,263.9 L570.1,237.6 L572.0,212.2 L573.9,188.3 L575.8,166.1 L577.7,146.0 L579.5,128.2
		L581.4,113.1 L583.3,100.8 L585.2,91.4 L587.1,85.1 L589.0,81.8 L590.9,81.6 L592.8,84.2 L594.6,89.6
		L596.5,97.6 L598.4,107.8 L600.3,120.2 L602.2,134.2 L604.1,149.8 L606.0,166.4 L607.9,184.0 L609.7,202.0
		L611.6,220.4 L613.5,238.8 L615.4,257.0 L617.3,274.8 L619.2,292.1 L621.1,308.7 L623.0,324.6 L624.8,339.5
		L626.7,353.6 L628.6,366.8 L630.5,379.0 L632.4,390.2 L634.3,400.6 L636.2,410.1 L638.1,418.8 L639.9,426.7
		L641.8,433.8 L643.7,440.3 L645.6,446.1 L647.5,451.3 L649.4,456.1 L651.3,460.3 L653.1,464.1 L655.0,467.5
		L656.9,470.5 L658.8,473.2 L660.7,475.6 L662.6,477.7 L664.5,479.6 L666.4,481.3 L668.2,482.7 L670.1,483.9
		L672.0,484.9 L673.9,485.7 L675.8,486.3 L677.7,486.7 L679.6,486.8 L681.5,486.6 L683.3,486.2 L685.2,485.4
		L687.1,484.3 L689.0,483.0 L690.9,481.3 L692.8,479.3 L694.7,477.0 L696.6,474.5 L698.4,471.7 L700.3,468.9
		L702.2,465.9 L704.1,462.9 L706.0,460.0 L707.9,457.3 L709.8,454.8 L711.7,452.6 L713.5,450.9 L715.4,449.6
		L717.3,448.8 L719.2,448.6 L721.1,448.9 L723.0,449.8 L724.9,451.2 L726.7,453.2 L728.6,455.6 L730.5,458.4
		L732.4,461.5 L734.3,464.9 L736.2,468.4 L738.1,472.0 L740.0,475.7 L741.8,479.2 L743.7,482.6 L745.6,485.9
		L747.5,488.9 L749.4,491.6 L751.3,493.9 L753.2,496.0 L755.1,497.7 L756.9,499.0 L758.8,499.9 L760.7,500.5
		L762.6,500.8 L764.5,500.6 L766.4,500.2 L768.3,499.5 L770.2,498.5 L772.0,497.3 L773.9,495.9 L775.8,494.3
		L777.7,492.7 L779.6,491.1 L781.5,489.6 L783.4,488.2 L785.3,487.0 L787.1,486.0 L789.0,485.4 L790.9,485.2
		L792.8,485.5 L794.7,486.3 L796.6,487.7 L798.5,489.7 L800.3,492.2 L802.2,495.3 L804.1,499.0 L806.0,503.3
		L807.9,508.0 L809.8,513.2 L811.7,518.8 L813.6,524.7 L815.4,530.8 L817.3,537.0 L819.2,543.3 L821.1,549.6
		L823.0,555.8 L824.9,561.8 L826.8,567.5 L828.7,573.0 L830.5,578.1 L832.4,582.8 L834.3,587.0 L836.2,590.9
		L838.1,594.3 L840.0,597.2 L841.9,599.8 L843.8,601.9 L845.6,603.7 L847.5,605.1 L849.4,606.2 L851.3,607.1
		L853.2,607.8 L855.1,608.3 L857.0,608.7 L858.9,609.1 L860.7,609.4 L862.6,609.7 L864.5,610.1 L866.4,610.5
		L868.3,610.9 L870.2,611.4 L872.1,611.9 L873.9,612.5 L875.8,613.0 L877.7,613.5 L879.6,614.0 L881.5,614.4
		L883.4,614.6 L885.3,614.7 L887.2,614.5 L889.0,614.2 L890.9,613.6 L892.8,612.7 L894.7,611.6 L896.6,610.2
		L898.5,608.6 L900.4,606.7 L902.3,604.6 L904.1,602.4 L906.0,600.0 L907.9,597.5 L909.8,595.1 L911.7,592.7
		L913.6,590.4 L915.5,588.2 L917.4,586.3 L919.2,584.7 L921.1,583.4 L923.0,582.4 L924.9,581.8 L926.8,581.7
		L928.7,582.0 L930.6,582.7 L932.5,583.8 L934.3,585.3 L936.2,587.2 L938.1,589.4 L940.0,591.9 L941.9,594.7
		L943.8,597.7 L945.7,600.8 L947.5,604.0 L949.4,607.3 L951.3,610.6 L953.2,613.8 L955.1,617.0 L957.0,620.1
		L958.9,623.0 L960.8,625.8 L962.6,628.5 L964.5,630.9 L966.4,633.2 L968.3,635.2 L970.2,637.1 L972.1,638.8
		L974.0,640.3 L975.9,641.7 L977.7,642.9 L979.6,643.9 L981.5,644.8 L983.4,645.6 L985.3,646.3 L987.2,646.9
		L989.1,647.4 L991.0,647.8 L992.8,648.2 L994.7,648.5 L996.6,648.8 L998.5,649.0 L1000.4,649.2 L1002.3,649.4
		L1004.2,649.5 L1006.1,649.7 L1007.9,649.8 L1009.8,650.0 L1011.7,650.2 L1013.6,650.4  '/></g>
	</g>
	<g id="gnuplot_plot_2" ><title>Confidence interval</title>
<g fill="none" color="white" stroke="rgb( 31, 120, 180)" stroke-width="1.00" stroke-linecap="butt" stroke-linejoin="miter">
</g>
<g fill="none" color="black" stroke="currentColor" stroke-width="1.00" stroke-linecap="butt" stroke-linejoin="miter">
	<g transform="translate(1089.0,85.0)" stroke="none" fill="black" font-family="Helvetica" font-size="12.00"  text-anchor="start">
		<text><tspan font-family="Helvetica" >Confidence interval</tspan></text>
	</g>
</g>
<g fill="none" color="black" stroke="currentColor" stroke-width="1.00" stroke-linecap="butt" stroke-linejoin="miter">
	<g stroke='none' shape-rendering='crispEdges'>
		<polygon fill = 'rgb( 31, 120, 180)' fill-opacity = '0.250000' points = '1038.5,85.6 1080.7,85.6 1080.7,76.6 1038.5,76.6 '/>
		<polygon fill = 'rgb( 31, 120, 180)' fill-opacity = '0.250000' points = '158.7,524.1 160.6,521.4 162.5,519.3 164.4,518.0 166.3,517.2 168.1,517.2 170.0,517.8 171.9,518.9 173.8,520.7 175.7,522.9 177.6,525.6 179.5,528.6 181.4,532.0 183.2,535.6 185.1,539.4 187.0,543.3
188.9,547.3 190.8,551.3 192.7,555.3 194.6,559.3 196.5,563.1 198.3,566.8 200.2,570.4 202.1,573.8 204.0,577.0 205.9,580.1 207.8,583.0 209.7,585.7 211.6,588.3 213.4,590.6 215.3,592.8 217.2,594.8
219.1,596.6 221.0,598.1 222.9,599.5 224.8,600.7 226.6,601.6 228.5,602.4 230.4,602.9 232.3,603.2 234.2,603.3 236.1,603.1 238.0,602.8 239.9,602.2 241.7,601.5 243.6,600.6 245.5,599.6 247.4,598.5
249.3,597.3 251.2,596.1 253.1,594.8 255.0,593.6 256.8,592.4 258.7,591.3 260.6,590.3 262.5,589.5 264.4,588.8 266.3,588.2 268.2,587.9 270.1,587.7 271.9,587.6 273.8,587.8 275.7,588.0 277.6,588.4
279.5,588.8 281.4,589.3 283.3,589.7 285.2,590.1 287.0,590.4 288.9,590.6 290.8,590.6 292.7,590.4 294.6,589.9 296.5,589.1 298.4,588.0 300.2,586.5 302.1,584.6 304.0,582.4 305.9,579.8 307.8,576.8
309.7,573.4 311.6,569.7 313.5,565.6 315.3,561.2 317.2,556.4 319.1,551.4 321.0,546.1 322.9,540.6 324.8,534.9 326.7,529.1 328.6,523.1 330.4,517.1 332.3,511.0 334.2,504.8 336.1,498.7 338.0,492.7
339.9,486.8 341.8,481.0 343.7,475.4 345.5,470.0 347.4,464.8 349.3,460.0 351.2,455.5 353.1,451.3 355.0,447.6 356.9,444.2 358.8,441.4 360.6,439.0 362.5,437.0 364.4,435.6 366.3,434.7 368.2,434.2
370.1,434.3 372.0,434.8 373.8,435.8 375.7,437.3 377.6,439.1 379.5,441.3 381.4,443.8 383.3,446.7 385.2,449.8 387.1,453.1 388.9,456.7 390.8,460.4 392.7,464.3 394.6,468.3 396.5,472.5 398.4,476.7
400.3,481.0 402.2,485.3 404.0,489.8 405.9,494.3 407.8,498.8 409.7,503.4 411.6,508.1 413.5,512.8 415.4,517.5 417.3,522.3 419.1,527.2 421.0,532.0 422.9,536.9 424.8,541.7 426.7,546.5 428.6,551.2
430.5,555.8 432.4,560.3 434.2,564.5 436.1,568.5 438.0,572.1 439.9,575.5 441.8,578.4 443.7,580.9 445.6,583.0 447.4,584.5 449.3,585.5 451.2,586.0 453.1,585.9 455.0,585.3 456.9,584.1 458.8,582.4
460.7,580.2 462.5,577.4 464.4,574.3 466.3,570.7 468.2,566.8 470.1,562.6 472.0,558.2 473.9,553.7 475.8,549.1 477.6,544.5 479.5,540.0 481.4,535.7 483.3,531.7 485.2,528.0 487.1,524.8 489.0,522.0
490.9,519.9 492.7,518.3 494.6,517.5 496.5,517.3 498.4,517.9 500.3,519.2 502.2,521.2 504.1,524.0 506.0,527.3 507.8,531.3 509.7,535.8 511.6,540.7 513.5,545.8 515.4,551.2 517.3,556.5 519.2,561.8
521.0,566.8 522.9,571.4 524.8,575.4 526.7,578.6 528.6,580.9 530.5,582.1 532.4,582.1 534.3,580.7 536.1,577.7 538.0,573.1 539.9,566.7 541.8,558.5 543.7,548.3 545.6,536.1 547.5,521.8 549.4,505.6
551.2,487.4 553.1,467.4 555.0,445.6 556.9,422.2 558.8,397.6 560.7,371.8 562.6,345.2 564.5,318.1 566.3,290.9 568.2,263.9 570.1,237.6 572.0,212.2 573.9,188.3 575.8,166.1 577.7,146.0 579.5,128.2
581.4,113.1 583.3,100.8 585.2,91.4 587.1,85.1 589.0,81.8 590.9,81.6 592.8,84.2 594.6,89.6 596.5,97.6 598.4,107.8 600.3,120.2 602.2,134.2 604.1,149.8 606.0,166.4 607.9,184.0 609.7,202.0
611.6,220.4 613.5,238.8 615.4,257.0 617.3,274.8 619.2,292.1 621.1,308.7 623.0,324.6 624.8,339.5 626.7,353.6 628.6,366.8 630.5,379.0 632.4,390.2 634.3,400.6 636.2,410.1 638.1,418.8 639.9,426.7
641.8,433.8 643.7,440.3 645.6,446.1 647.5,451.3 649.4,456.1 651.3,460.3 653.1,464.1 655.0,467.5 656.9,470.5 658.8,473.2 660.7,475.6 662.6,477.7 664.5,479.6 666.4,481.3 668.2,482.7 670.1,483.9
672.0,484.9 673.9,485.7 675.8,486.3 677.7,486.7 679.6,486.8 681.5,486.6 683.3,486.2 685.2,485.4 687.1,484.3 689.0,483.0 690.9,481.3 692.8,479.3 694.7,477.0 696.6,474.5 698.4,471.7 700.3,468.9
702.2,465.9 704.1,462.9 706.0,460.0 707.9,457.3 709.8,454.8 711.7,452.6 713.5,450.9 715.4,449.6 717.3,448.8 719.2,448.6 721.1,448.9 723.0,449.8 724.9,451.2 726.7,453.2 728.6,455.6 730.5,458.4
732.4,461.5 734.3,464.9 736.2,468.4 738.1,472.0 740.0,475.7 741.8,479.2 743.7,482.6 745.6,485.9 747.5,488.9 749.4,491.6 751.3,493.9 753.2,496.0 755.1,497.7 756.9,499.0 758.8,499.9 760.7,500.5
762.6,500.8 764.5,500.6 766.4,500.2 768.3,499.5 770.2,498.5 772.0,497.3 773.9,495.9 775.8,494.3 777.7,492.7 779.6,491.1 781.5,489.6 783.4,488.2 785.3,487.0 787.1,486.0 789.0,485.4 790.9,485.2
792.8,485.5 794.7,486.3 796.6,487.7 798.5,489.7 800.3,492.2 802.2,495.3 804.1,499.0 806.0,503.3 807.9,508.0 809.8,513.2 811.7,518.8 813.6,524.7 815.4,530.8 817.3,537.0 819.2,543.3 821.1,549.6
823.0,555.8 824.9,561.8 826.8,567.5 828.7,573.0 830.5,578.1 832.4,582.8 834.3,587.0 836.2,590.9 838.1,594.3 840.0,597.2 841.9,599.8 843.8,601.9 845.6,603.7 847.5,605.1 849.4,606.2 851.3,607.1
853.2,607.8 855.1,608.3 857.0,608.7 858.9,609.1 860.7,609.4 862.6,609.7 864.5,610.1 866.4,610.5 868.3,610.9 870.2,611.4 872.1,611.9 873.9,612.5 875.8,613.0 877.7,613.5 879.6,614.0 881.5,614.4
883.4,614.6 885.3,614.7 887.2,614.5 889.0,614.2 890.9,613.6 892.8,612.7 894.7,611.6 896.6,610.2 898.5,608.6 900.4,606.7 902.3,604.6 904.1,602.4 906.0,600.0 907.9,597.5 909.8,595.1 911.7,592.7
913.6,590.4 915.5,588.2 917.4,586.3 919.2,584.7 921.1,583.4 923.0,582.4 924.9,581.8 924.9,662.4 923.0,662.4 921.1,662.4 919.2,662.4 917.4,662.4 915.5,662.4 913.6,662.4 911.7,662.4 909.8,662.4
907.9,662.4 906.0,662.4 904.1,662.4 902.3,662.4 900.4,662.4 898.5,662.4 896.6,662.4 894.7,662.4 892.8,662.4 890.9,662.4 889.0,662.4 887.2,662.4 885.3,662.4 883.4,662.4 881.5,662.4 879.6,662.4
877.7,662.4 875.8,662.4 873.9,662.4 872.1,662.4 870.2,662.4 868.3,662.4 866.4,662.4 864.5,662.4 862.6,662.4 860.7,662.4 858.9,662.4 857.0,662.4 855.1,662.4 853.2,662.4 851.3,662.4 849.4,662.4
847.5,662.4 845.6,662.4 843.8,662.4 841.9,662.4 840.0,662.4 838.1,662.4 836.2,662.4 834.3,662.4 832.4,662.4 830.5,662.4 828.7,662.4 826.8,662.4 824.9,662.4 823.0,662.4 821.1,662.4 819.2,662.4
817.3,662.4 815.4,662.4 813.6,662.4 811.7,662.4 809.8,662.4 807.9,662.4 806.0,662.4 804.1,662.4 802.2,662.4 800.3,662.4 798.5,662.4 796.6,662.4 794.7,662.4 792.8,662.4 790.9,662.4 789.0,662.4
787.1,662.4 785.3,662.4 783.4,662.4 781.5,662.4 779.6,662.4 777.7,662.4 775.8,662.4 773.9,662.4 772.0,662.4 770.2,662.4 768.3,662.4 766.4,662.4 764.5,662.4 762.6,662.4 760.7,662.4 758.8,662.4
756.9,662.4 755.1,662.4 753.2,662.4 751.3,662.4 749.4,662.4 747.5,662.4 745.6,662.4 743.7,662.4 741.8,662.4 740.0,662.4 738.1,662.4 736.2,662.4 734.3,662.4 732.4,662.4 730.5,662.4 728.6,662.4
726.7,662.4 724.9,662.4 723.0,662.4 721.1,662.4 719.2,662.4 717.3,662.4 715.4,662.4 713.5,662.4 711.7,662.4 709.8,662.4 707.9,662.4 706.0,662.4 704.1,662.4 702.2,662.4 700.3,662.4 698.4,662.4
696.6,662.4 694.7,662.4 692.8,662.4 690.9,662.4 689.0,662.4 687.1,662.4 685.2,662.4 683.3,662.4 681.5,662.4 679.6,662.4 677.7,662.4 675.8,662.4 673.9,662.4 672.0,662.4 670.1,662.4 668.2,662.4
666.4,662.4 664.5,662.4 662.6,662.4 660.7,662.4 658.8,662.4 656.9,662.4 655.0,662.4 653.1,662.4 651.3,662.4 649.4,662.4 647.5,662.4 645.6,662.4 643.7,662.4 641.8,662.4 639.9,662.4 638.1,662.4
636.2,662.4 634.3,662.4 632.4,662.4 630.5,662.4 628.6,662.4 626.7,662.4 624.8,662.4 623.0,662.4 621.1,662.4 619.2,662.4 617.3,662.4 615.4,662.4 613.5,662.4 611.6,662.4 609.7,662.4 607.9,662.4
606.0,662.4 604.1,662.4 602.2,662.4 600.3,662.4 598.4,662.4 596.5,662.4 594.6,662.4 592.8,662.4 590.9,662.4 589.0,662.4 587.1,662.4 585.2,662.4 583.3,662.4 581.4,662.4 579.5,662.4 577.7,662.4
575.8,662.4 573.9,662.4 572.0,662.4 570.1,662.4 568.2,662.4 566.3,662.4 564.5,662.4 562.6,662.4 560.7,662.4 558.8,662.4 556.9,662.4 555.0,662.4 553.1,662.4 551.2,662.4 549.4,662.4 547.5,662.4
545.6,662.4 543.7,662.4 541.8,662.4 539.9,662.4 538.0,662.4 536.1,662.4 534.3,662.4 532.4,662.4 530.5,662.4 528.6,662.4 526.7,662.4 524.8,662.4 522.9,662.4 521.0,662.4 519.2,662.4 517.3,662.4
515.4,662.4 513.5,662.4 511.6,662.4 509.7,662.4 507.8,662.4 506.0,662.4 504.1,662.4 502.2,662.4 500.3,662.4 498.4,662.4 496.5,662.4 494.6,662.4 492.7,662.4 490.9,662.4 489.0,662.4 487.1,662.4
485.2,662.4 483.3,662.4 481.4,662.4 479.5,662.4 477.6,662.4 475.8,662.4 473.9,662.4 472.0,662.4 470.1,662.4 468.2,662.4 466.3,662.4 464.4,662.4 462.5,662.4 460.7,662.4 458.8,662.4 456.9,662.4
455.0,662.4 453.1,662.4 451.2,662.4 449.3,662.4 447.4,662.4 445.6,662.4 443.7,662.4 441.8,662.4 439.9,662.4 438.0,662.4 436.1,662.4 434.2,662.4 432.4,662.4 430.5,662.4 428.6,662.4 426.7,662.4
424.8,662.4 422.9,662.4 421.0,662.4 419.1,662.4 417.3,662.4 415.4,662.4 413.5,662.4 411.6,662.4 409.7,662.4 407.8,662.4 405.9,662.4 404.0,662.4 402.2,662.4 400.3,662.4 398.4,662.4 396.5,662.4
394.6,662.4 392.7,662.4 390.8,662.4 388.9,662.4 387.1,662.4 385.2,662.4 383.3,662.4 381.4,662.4 379.5,662.4 377.6,662.4 375.7,662.4 373.8,662.4 372.0,662.4 370.1,662.4 368.2,662.4 366.3,662.4
364.4,662.4 362.5,662.4 360.6,662.4 358.8,662.4 356.9,662.4 355.0,662.4 353.1,662.4 351.2,662.4 349.3,662.4 347.4,662.4 345.5,662.4 343.7,662.4 341.8,662.4 339.9,662.4 338.0,662.4 336.1,662.4
334.2,662.4 332.3,662.4 330.4,662.4 328.6,662.4 326.7,662.4 324.8,662.4 322.9,662.4 321.0,662.4 319.1,662.4 317.2,662.4 315.3,662.4 313.5,662.4 311.6,662.4 309.7,662.4 307.8,662.4 305.9,662.4
304.0,662.4 302.1,662.4 300.2,662.4 298.4,662.4 296.5,662.4 294.6,662.4 292.7,662.4 290.8,662.4 288.9,662.4 287.0,662.4 285.2,662.4 283.3,662.4 281.4,662.4 279.5,662.4 277.6,662.4 275.7,662.4
273.8,662.4 271.9,662.4 270.1,662.4 268.2,662.4 266.3,662.4 264.4,662.4 262.5,662.4 260.6,662.4 258.7,662.4 256.8,662.4 255.0,662.4 253.1,662.4 251.2,662.4 249.3,662.4 247.4,662.4 245.5,662.4
243.6,662.4 241.7,662.4 239.9,662.4 238.0,662.4 236.1,662.4 234.2,662.4 232.3,662.4 230.4,662.4 228.5,662.4 226.6,662.4 224.8,662.4 222.9,662.4 221.0,662.4 219.1,662.4 217.2,662.4 215.3,662.4
213.4,662.4 211.6,662.4 209.7,662.4 207.8,662.4 205.9,662.4 204.0,662.4 202.1,662.4 200.2,662.4 198.3,662.4 196.5,662.4 194.6,662.4 192.7,662.4 190.8,662.4 188.9,662.4 187.0,662.4 185.1,662.4
183.2,662.4 181.4,662.4 179.5,662.4 177.6,662.4 175.7,662.4 173.8,662.4 171.9,662.4 170.0,662.4 168.1,662.4 166.3,662.4 164.4,662.4 162.5,662.4 160.6,662.4 158.7,662.4 '/>
	</g>
</g>
	</g>
	<g id="gnuplot_plot_3" ><title>Point estimate</title>
<g fill="none" color="white" stroke="rgb( 31, 120, 180)" stroke-width="2.00" stroke-linecap="butt" stroke-linejoin="miter">
</g>
<g fill="none" color="black" stroke="currentColor" stroke-width="2.00" stroke-linecap="butt" stroke-linejoin="miter">
	<g transform="translate(1089.0,103.0)" stroke="none" fill="black" font-family="Helvetica" font-size="12.00"  text-anchor="start">
		<text><tspan font-family="Helvetica" >Point estimate</tspan></text>
	</g>
</g>
<g fill="none" color="black" stroke="currentColor" stroke-width="2.00" stroke-linecap="butt" stroke-linejoin="miter">
	<path stroke='rgb( 31, 120, 180)'  d='M1038.5,99.1 L1080.7,99.1 M584.9,662.4 L584.9,92.8  '/></g>
	</g>
<g fill="none" color="black" stroke="currentColor" stroke-width="2.00" stroke-linecap="butt" stroke-linejoin="miter">
</g>
<g fill="none" color="black" stroke="black" stroke-width="1.00" stroke-linecap="butt" stroke-linejoin="miter">
</g>
<g fill="none" color="black" stroke="currentColor" stroke-width="1.00" stroke-linecap="butt" stroke-linejoin="miter">
	<path stroke='black'  d='M71.9,54.1 L71.9,662.4 L1013.6,662.4 L1013.6,54.1 L71.9,54.1 Z  '/></g>
<g fill="none" color="black" stroke="currentColor" stroke-width="1.00" stroke-linecap="butt" stroke-linejoin="miter">
</g>
</g>
</svg>

