group,function,value,throughput_num,throughput_type,sample_measured_value,unit,iteration_count
snapshot_restore_with_dense,Dense: Entire region + process_vm_writev,1,,,1128646.0,ns,37
snapshot_restore_with_dense,Dense: Entire region + process_vm_writev,1,,,1996704.0,ns,74
snapshot_restore_with_dense,Dense: Entire region + process_vm_writev,1,,,2962898.0,ns,111
snapshot_restore_with_dense,Dense: Entire region + process_vm_writev,1,,,3971634.0,ns,148
snapshot_restore_with_dense,Dense: Entire region + process_vm_writev,1,,,5440963.0,ns,185
snapshot_restore_with_dense,Dense: Entire region + process_vm_writev,1,,,5948480.0,ns,222
snapshot_restore_with_dense,Dense: Entire region + process_vm_writev,1,,,8263358.0,ns,259
snapshot_restore_with_dense,Dense: Entire region + process_vm_writev,1,,,8428111.0,ns,296
snapshot_restore_with_dense,Dense: Entire region + process_vm_writev,1,,,9162170.0,ns,333
snapshot_restore_with_dense,Dense: Entire region + process_vm_writev,1,,,10135555.0,ns,370
snapshot_restore_with_dense,Dense: Entire region + process_vm_writev,1,,,10881803.0,ns,407
snapshot_restore_with_dense,Dense: Entire region + process_vm_writev,1,,,11833694.0,ns,444
snapshot_restore_with_dense,Dense: Entire region + process_vm_writev,1,,,12852703.0,ns,481
snapshot_restore_with_dense,Dense: Entire region + process_vm_writev,1,,,13849428.0,ns,518
snapshot_restore_with_dense,Dense: Entire region + process_vm_writev,1,,,15146646.0,ns,555
snapshot_restore_with_dense,Dense: Entire region + process_vm_writev,1,,,15805288.0,ns,592
snapshot_restore_with_dense,Dense: Entire region + process_vm_writev,1,,,16839594.0,ns,629
snapshot_restore_with_dense,Dense: Entire region + process_vm_writev,1,,,17789833.0,ns,666
snapshot_restore_with_dense,Dense: Entire region + process_vm_writev,1,,,18784974.0,ns,703
snapshot_restore_with_dense,Dense: Entire region + process_vm_writev,1,,,19808202.0,ns,740
snapshot_restore_with_dense,Dense: Entire region + process_vm_writev,1,,,20739941.0,ns,777
snapshot_restore_with_dense,Dense: Entire region + process_vm_writev,1,,,21761311.0,ns,814
snapshot_restore_with_dense,Dense: Entire region + process_vm_writev,1,,,22728956.0,ns,851
snapshot_restore_with_dense,Dense: Entire region + process_vm_writev,1,,,23722493.0,ns,888
snapshot_restore_with_dense,Dense: Entire region + process_vm_writev,1,,,24699819.0,ns,925
snapshot_restore_with_dense,Dense: Entire region + process_vm_writev,1,,,25748815.0,ns,962
snapshot_restore_with_dense,Dense: Entire region + process_vm_writev,1,,,26702732.0,ns,999
snapshot_restore_with_dense,Dense: Entire region + process_vm_writev,1,,,27672408.0,ns,1036
snapshot_restore_with_dense,Dense: Entire region + process_vm_writev,1,,,28634601.0,ns,1073
snapshot_restore_with_dense,Dense: Entire region + process_vm_writev,1,,,29681592.0,ns,1110
snapshot_restore_with_dense,Dense: Entire region + process_vm_writev,1,,,30635671.0,ns,1147
snapshot_restore_with_dense,Dense: Entire region + process_vm_writev,1,,,31658319.0,ns,1184
snapshot_restore_with_dense,Dense: Entire region + process_vm_writev,1,,,32884268.0,ns,1221
snapshot_restore_with_dense,Dense: Entire region + process_vm_writev,1,,,33668905.0,ns,1258
snapshot_restore_with_dense,Dense: Entire region + process_vm_writev,1,,,39664428.0,ns,1295
snapshot_restore_with_dense,Dense: Entire region + process_vm_writev,1,,,35812831.0,ns,1332
snapshot_restore_with_dense,Dense: Entire region + process_vm_writev,1,,,36690506.0,ns,1369
snapshot_restore_with_dense,Dense: Entire region + process_vm_writev,1,,,37547072.0,ns,1406
snapshot_restore_with_dense,Dense: Entire region + process_vm_writev,1,,,38604392.0,ns,1443
snapshot_restore_with_dense,Dense: Entire region + process_vm_writev,1,,,39567843.0,ns,1480
snapshot_restore_with_dense,Dense: Entire region + process_vm_writev,1,,,40565832.0,ns,1517
snapshot_restore_with_dense,Dense: Entire region + process_vm_writev,1,,,41542232.0,ns,1554
snapshot_restore_with_dense,Dense: Entire region + process_vm_writev,1,,,42542022.0,ns,1591
snapshot_restore_with_dense,Dense: Entire region + process_vm_writev,1,,,43535752.0,ns,1628
snapshot_restore_with_dense,Dense: Entire region + process_vm_writev,1,,,44496388.0,ns,1665
snapshot_restore_with_dense,Dense: Entire region + process_vm_writev,1,,,45533345.0,ns,1702
snapshot_restore_with_dense,Dense: Entire region + process_vm_writev,1,,,46477005.0,ns,1739
snapshot_restore_with_dense,Dense: Entire region + process_vm_writev,1,,,47451780.0,ns,1776
snapshot_restore_with_dense,Dense: Entire region + process_vm_writev,1,,,48516328.0,ns,1813
snapshot_restore_with_dense,Dense: Entire region + process_vm_writev,1,,,49435803.0,ns,1850
snapshot_restore_with_dense,Dense: Entire region + process_vm_writev,1,,,50466450.0,ns,1887
snapshot_restore_with_dense,Dense: Entire region + process_vm_writev,1,,,51546071.0,ns,1924
snapshot_restore_with_dense,Dense: Entire region + process_vm_writev,1,,,52530201.0,ns,1961
snapshot_restore_with_dense,Dense: Entire region + process_vm_writev,1,,,53556235.0,ns,1998
snapshot_restore_with_dense,Dense: Entire region + process_vm_writev,1,,,54418425.0,ns,2035
snapshot_restore_with_dense,Dense: Entire region + process_vm_writev,1,,,61511874.0,ns,2072
snapshot_restore_with_dense,Dense: Entire region + process_vm_writev,1,,,58162309.0,ns,2109
snapshot_restore_with_dense,Dense: Entire region + process_vm_writev,1,,,57362985.0,ns,2146
snapshot_restore_with_dense,Dense: Entire region + process_vm_writev,1,,,58576134.0,ns,2183
snapshot_restore_with_dense,Dense: Entire region + process_vm_writev,1,,,59404363.0,ns,2220
snapshot_restore_with_dense,Dense: Entire region + process_vm_writev,1,,,60379523.0,ns,2257
snapshot_restore_with_dense,Dense: Entire region + process_vm_writev,1,,,61362873.0,ns,2294
snapshot_restore_with_dense,Dense: Entire region + process_vm_writev,1,,,62421327.0,ns,2331
snapshot_restore_with_dense,Dense: Entire region + process_vm_writev,1,,,63457901.0,ns,2368
snapshot_restore_with_dense,Dense: Entire region + process_vm_writev,1,,,64256736.0,ns,2405
snapshot_restore_with_dense,Dense: Entire region + process_vm_writev,1,,,65336065.0,ns,2442
snapshot_restore_with_dense,Dense: Entire region + process_vm_writev,1,,,66246613.0,ns,2479
snapshot_restore_with_dense,Dense: Entire region + process_vm_writev,1,,,67301351.0,ns,2516
snapshot_restore_with_dense,Dense: Entire region + process_vm_writev,1,,,68284917.0,ns,2553
snapshot_restore_with_dense,Dense: Entire region + process_vm_writev,1,,,69215346.0,ns,2590
snapshot_restore_with_dense,Dense: Entire region + process_vm_writev,1,,,71628310.0,ns,2627
snapshot_restore_with_dense,Dense: Entire region + process_vm_writev,1,,,71491032.0,ns,2664
snapshot_restore_with_dense,Dense: Entire region + process_vm_writev,1,,,72256241.0,ns,2701
snapshot_restore_with_dense,Dense: Entire region + process_vm_writev,1,,,73291062.0,ns,2738
snapshot_restore_with_dense,Dense: Entire region + process_vm_writev,1,,,74283463.0,ns,2775
snapshot_restore_with_dense,Dense: Entire region + process_vm_writev,1,,,79873524.0,ns,2812
snapshot_restore_with_dense,Dense: Entire region + process_vm_writev,1,,,79388046.0,ns,2849
snapshot_restore_with_dense,Dense: Entire region + process_vm_writev,1,,,79640258.0,ns,2886
snapshot_restore_with_dense,Dense: Entire region + process_vm_writev,1,,,78258701.0,ns,2923
snapshot_restore_with_dense,Dense: Entire region + process_vm_writev,1,,,79281510.0,ns,2960
snapshot_restore_with_dense,Dense: Entire region + process_vm_writev,1,,,80337898.0,ns,2997
snapshot_restore_with_dense,Dense: Entire region + process_vm_writev,1,,,81080951.0,ns,3034
snapshot_restore_with_dense,Dense: Entire region + process_vm_writev,1,,,82128150.0,ns,3071
snapshot_restore_with_dense,Dense: Entire region + process_vm_writev,1,,,83468168.0,ns,3108
snapshot_restore_with_dense,Dense: Entire region + process_vm_writev,1,,,84453478.0,ns,3145
snapshot_restore_with_dense,Dense: Entire region + process_vm_writev,1,,,85159597.0,ns,3182
snapshot_restore_with_dense,Dense: Entire region + process_vm_writev,1,,,86135046.0,ns,3219
snapshot_restore_with_dense,Dense: Entire region + process_vm_writev,1,,,87185133.0,ns,3256
snapshot_restore_with_dense,Dense: Entire region + process_vm_writev,1,,,88212408.0,ns,3293
snapshot_restore_with_dense,Dense: Entire region + process_vm_writev,1,,,89179385.0,ns,3330
snapshot_restore_with_dense,Dense: Entire region + process_vm_writev,1,,,90191636.0,ns,3367
snapshot_restore_with_dense,Dense: Entire region + process_vm_writev,1,,,91173973.0,ns,3404
snapshot_restore_with_dense,Dense: Entire region + process_vm_writev,1,,,92161629.0,ns,3441
snapshot_restore_with_dense,Dense: Entire region + process_vm_writev,1,,,93151927.0,ns,3478
snapshot_restore_with_dense,Dense: Entire region + process_vm_writev,1,,,94078867.0,ns,3515
snapshot_restore_with_dense,Dense: Entire region + process_vm_writev,1,,,100849358.0,ns,3552
snapshot_restore_with_dense,Dense: Entire region + process_vm_writev,1,,,96027140.0,ns,3589
snapshot_restore_with_dense,Dense: Entire region + process_vm_writev,1,,,96995589.0,ns,3626
snapshot_restore_with_dense,Dense: Entire region + process_vm_writev,1,,,97881569.0,ns,3663
snapshot_restore_with_dense,Dense: Entire region + process_vm_writev,1,,,98884548.0,ns,3700
