<?xml version="1.0" encoding="utf-8"  standalone="no"?>
<svg 
 viewBox="0 0 1280 720"
 xmlns="http://www.w3.org/2000/svg"
 xmlns:xlink="http://www.w3.org/1999/xlink"
>

<title>Gnuplot</title>
<desc>Produced by GNUPLOT 5.2 patchlevel 6 </desc>

<g id="gnuplot_canvas">

<rect x="0" y="0" width="1280" height="720" fill="none"/>
<defs>

	<circle id='gpDot' r='0.5' stroke-width='0.5' stroke='currentColor'/>
	<path id='gpPt0' stroke-width='0.222' stroke='currentColor' d='M-1,0 h2 M0,-1 v2'/>
	<path id='gpPt1' stroke-width='0.222' stroke='currentColor' d='M-1,-1 L1,1 M1,-1 L-1,1'/>
	<path id='gpPt2' stroke-width='0.222' stroke='currentColor' d='M-1,0 L1,0 M0,-1 L0,1 M-1,-1 L1,1 M-1,1 L1,-1'/>
	<rect id='gpPt3' stroke-width='0.222' stroke='currentColor' x='-1' y='-1' width='2' height='2'/>
	<rect id='gpPt4' stroke-width='0.222' stroke='currentColor' fill='currentColor' x='-1' y='-1' width='2' height='2'/>
	<circle id='gpPt5' stroke-width='0.222' stroke='currentColor' cx='0' cy='0' r='1'/>
	<use xlink:href='#gpPt5' id='gpPt6' fill='currentColor' stroke='none'/>
	<path id='gpPt7' stroke-width='0.222' stroke='currentColor' d='M0,-1.33 L-1.33,0.67 L1.33,0.67 z'/>
	<use xlink:href='#gpPt7' id='gpPt8' fill='currentColor' stroke='none'/>
	<use xlink:href='#gpPt7' id='gpPt9' stroke='currentColor' transform='rotate(180)'/>
	<use xlink:href='#gpPt9' id='gpPt10' fill='currentColor' stroke='none'/>
	<use xlink:href='#gpPt3' id='gpPt11' stroke='currentColor' transform='rotate(45)'/>
	<use xlink:href='#gpPt11' id='gpPt12' fill='currentColor' stroke='none'/>
	<path id='gpPt13' stroke-width='0.222' stroke='currentColor' d='M0,1.330 L1.265,0.411 L0.782,-1.067 L-0.782,-1.076 L-1.265,0.411 z'/>
	<use xlink:href='#gpPt13' id='gpPt14' fill='currentColor' stroke='none'/>
	<filter id='textbox' filterUnits='objectBoundingBox' x='0' y='0' height='1' width='1'>
	  <feFlood flood-color='white' flood-opacity='1' result='bgnd'/>
	  <feComposite in='SourceGraphic' in2='bgnd' operator='atop'/>
	</filter>
	<filter id='greybox' filterUnits='objectBoundingBox' x='0' y='0' height='1' width='1'>
	  <feFlood flood-color='lightgrey' flood-opacity='1' result='grey'/>
	  <feComposite in='SourceGraphic' in2='grey' operator='atop'/>
	</filter>
</defs>
<g fill="none" color="white" stroke="currentColor" stroke-width="1.00" stroke-linecap="butt" stroke-linejoin="miter">
</g>
<g fill="none" color="black" stroke="currentColor" stroke-width="1.00" stroke-linecap="butt" stroke-linejoin="miter">
	<path stroke='black'  d='M71.9,662.4 L80.9,662.4  '/>	<g transform="translate(63.6,666.3)" stroke="none" fill="black" font-family="Helvetica" font-size="12.00"  text-anchor="end">
		<text><tspan font-family="Helvetica" > 0</tspan></text>
	</g>
</g>
<g fill="none" color="black" stroke="currentColor" stroke-width="1.00" stroke-linecap="butt" stroke-linejoin="miter">
	<path stroke='black'  d='M71.9,575.5 L80.9,575.5  '/>	<g transform="translate(63.6,579.4)" stroke="none" fill="black" font-family="Helvetica" font-size="12.00"  text-anchor="end">
		<text><tspan font-family="Helvetica" > 20</tspan></text>
	</g>
</g>
<g fill="none" color="black" stroke="currentColor" stroke-width="1.00" stroke-linecap="butt" stroke-linejoin="miter">
	<path stroke='black'  d='M71.9,488.6 L80.9,488.6  '/>	<g transform="translate(63.6,492.5)" stroke="none" fill="black" font-family="Helvetica" font-size="12.00"  text-anchor="end">
		<text><tspan font-family="Helvetica" > 40</tspan></text>
	</g>
</g>
<g fill="none" color="black" stroke="currentColor" stroke-width="1.00" stroke-linecap="butt" stroke-linejoin="miter">
	<path stroke='black'  d='M71.9,401.7 L80.9,401.7  '/>	<g transform="translate(63.6,405.6)" stroke="none" fill="black" font-family="Helvetica" font-size="12.00"  text-anchor="end">
		<text><tspan font-family="Helvetica" > 60</tspan></text>
	</g>
</g>
<g fill="none" color="black" stroke="currentColor" stroke-width="1.00" stroke-linecap="butt" stroke-linejoin="miter">
	<path stroke='black'  d='M71.9,314.8 L80.9,314.8  '/>	<g transform="translate(63.6,318.7)" stroke="none" fill="black" font-family="Helvetica" font-size="12.00"  text-anchor="end">
		<text><tspan font-family="Helvetica" > 80</tspan></text>
	</g>
</g>
<g fill="none" color="black" stroke="currentColor" stroke-width="1.00" stroke-linecap="butt" stroke-linejoin="miter">
	<path stroke='black'  d='M71.9,227.9 L80.9,227.9  '/>	<g transform="translate(63.6,231.8)" stroke="none" fill="black" font-family="Helvetica" font-size="12.00"  text-anchor="end">
		<text><tspan font-family="Helvetica" > 100</tspan></text>
	</g>
</g>
<g fill="none" color="black" stroke="currentColor" stroke-width="1.00" stroke-linecap="butt" stroke-linejoin="miter">
	<path stroke='black'  d='M71.9,141.0 L80.9,141.0  '/>	<g transform="translate(63.6,144.9)" stroke="none" fill="black" font-family="Helvetica" font-size="12.00"  text-anchor="end">
		<text><tspan font-family="Helvetica" > 120</tspan></text>
	</g>
</g>
<g fill="none" color="black" stroke="currentColor" stroke-width="1.00" stroke-linecap="butt" stroke-linejoin="miter">
	<path stroke='black'  d='M71.9,54.1 L80.9,54.1  '/>	<g transform="translate(63.6,58.0)" stroke="none" fill="black" font-family="Helvetica" font-size="12.00"  text-anchor="end">
		<text><tspan font-family="Helvetica" > 140</tspan></text>
	</g>
</g>
<g fill="none" color="black" stroke="currentColor" stroke-width="1.00" stroke-linecap="butt" stroke-linejoin="miter">
	<path stroke='black'  d='M80.6,662.4 L80.6,653.4  '/>	<g transform="translate(80.6,684.3)" stroke="none" fill="black" font-family="Helvetica" font-size="12.00"  text-anchor="middle">
		<text><tspan font-family="Helvetica" >-10.4</tspan></text>
	</g>
</g>
<g fill="none" color="black" stroke="currentColor" stroke-width="1.00" stroke-linecap="butt" stroke-linejoin="miter">
	<path stroke='black'  d='M204.3,662.4 L204.3,653.4  '/>	<g transform="translate(204.3,684.3)" stroke="none" fill="black" font-family="Helvetica" font-size="12.00"  text-anchor="middle">
		<text><tspan font-family="Helvetica" >-10.2</tspan></text>
	</g>
</g>
<g fill="none" color="black" stroke="currentColor" stroke-width="1.00" stroke-linecap="butt" stroke-linejoin="miter">
	<path stroke='black'  d='M328.0,662.4 L328.0,653.4  '/>	<g transform="translate(328.0,684.3)" stroke="none" fill="black" font-family="Helvetica" font-size="12.00"  text-anchor="middle">
		<text><tspan font-family="Helvetica" >-10</tspan></text>
	</g>
</g>
<g fill="none" color="black" stroke="currentColor" stroke-width="1.00" stroke-linecap="butt" stroke-linejoin="miter">
	<path stroke='black'  d='M451.7,662.4 L451.7,653.4  '/>	<g transform="translate(451.7,684.3)" stroke="none" fill="black" font-family="Helvetica" font-size="12.00"  text-anchor="middle">
		<text><tspan font-family="Helvetica" >-9.8</tspan></text>
	</g>
</g>
<g fill="none" color="black" stroke="currentColor" stroke-width="1.00" stroke-linecap="butt" stroke-linejoin="miter">
	<path stroke='black'  d='M575.4,662.4 L575.4,653.4  '/>	<g transform="translate(575.4,684.3)" stroke="none" fill="black" font-family="Helvetica" font-size="12.00"  text-anchor="middle">
		<text><tspan font-family="Helvetica" >-9.6</tspan></text>
	</g>
</g>
<g fill="none" color="black" stroke="currentColor" stroke-width="1.00" stroke-linecap="butt" stroke-linejoin="miter">
	<path stroke='black'  d='M699.1,662.4 L699.1,653.4  '/>	<g transform="translate(699.1,684.3)" stroke="none" fill="black" font-family="Helvetica" font-size="12.00"  text-anchor="middle">
		<text><tspan font-family="Helvetica" >-9.4</tspan></text>
	</g>
</g>
<g fill="none" color="black" stroke="currentColor" stroke-width="1.00" stroke-linecap="butt" stroke-linejoin="miter">
	<path stroke='black'  d='M822.8,662.4 L822.8,653.4  '/>	<g transform="translate(822.8,684.3)" stroke="none" fill="black" font-family="Helvetica" font-size="12.00"  text-anchor="middle">
		<text><tspan font-family="Helvetica" >-9.2</tspan></text>
	</g>
</g>
<g fill="none" color="black" stroke="currentColor" stroke-width="1.00" stroke-linecap="butt" stroke-linejoin="miter">
	<path stroke='black'  d='M946.5,662.4 L946.5,653.4  '/>	<g transform="translate(946.5,684.3)" stroke="none" fill="black" font-family="Helvetica" font-size="12.00"  text-anchor="middle">
		<text><tspan font-family="Helvetica" >-9</tspan></text>
	</g>
</g>
<g fill="none" color="black" stroke="currentColor" stroke-width="1.00" stroke-linecap="butt" stroke-linejoin="miter">
</g>
<g fill="none" color="black" stroke="currentColor" stroke-width="1.00" stroke-linecap="butt" stroke-linejoin="miter">
	<path stroke='black'  d='M71.9,54.1 L71.9,662.4 L1013.6,662.4 L1013.6,54.1 L71.9,54.1 Z  '/></g>
<g fill="none" color="black" stroke="currentColor" stroke-width="1.00" stroke-linecap="butt" stroke-linejoin="miter">
	<g transform="translate(16.3,358.3) rotate(270)" stroke="none" fill="black" font-family="Helvetica" font-size="12.00"  text-anchor="middle">
		<text><tspan font-family="Helvetica" >Density (a.u.)</tspan></text>
	</g>
</g>
<g fill="none" color="black" stroke="currentColor" stroke-width="1.00" stroke-linecap="butt" stroke-linejoin="miter">
	<g transform="translate(542.7,711.3)" stroke="none" fill="black" font-family="Helvetica" font-size="12.00"  text-anchor="middle">
		<text><tspan font-family="Helvetica" >Relative change (%)</tspan></text>
	</g>
</g>
<g fill="none" color="black" stroke="currentColor" stroke-width="1.00" stroke-linecap="butt" stroke-linejoin="miter">
	<g transform="translate(542.7,31.0)" stroke="none" fill="black" font-family="Helvetica" font-size="12.00"  text-anchor="middle">
		<text><tspan font-family="Helvetica" >snapshot_restore_with_dense/Dense: Dirty pages + process_vm_writev/2: mean</tspan></text>
	</g>
</g>
	<g id="gnuplot_plot_1" ><title>Bootstrap distribution</title>
<g fill="none" color="white" stroke="black" stroke-width="2.00" stroke-linecap="butt" stroke-linejoin="miter">
</g>
<g fill="none" color="black" stroke="currentColor" stroke-width="2.00" stroke-linecap="butt" stroke-linejoin="miter">
	<g transform="translate(1089.0,67.0)" stroke="none" fill="black" font-family="Helvetica" font-size="12.00"  text-anchor="start">
		<text><tspan font-family="Helvetica" >Bootstrap distribution</tspan></text>
	</g>
</g>
<g fill="none" color="black" stroke="currentColor" stroke-width="2.00" stroke-linecap="butt" stroke-linejoin="miter">
	<path stroke='rgb( 31, 120, 180)'  d='M1038.5,63.1 L1080.7,63.1 M71.9,628.2 L73.8,627.5 L75.7,626.8 L77.6,626.2 L79.4,625.5 L81.3,624.9
		L83.2,624.3 L85.1,623.7 L87.0,623.1 L88.9,622.5 L90.8,621.9 L92.7,621.4 L94.5,620.8 L96.4,620.2
		L98.3,619.6 L100.2,619.1 L102.1,618.5 L104.0,617.9 L105.9,617.3 L107.8,616.7 L109.6,616.1 L111.5,615.4
		L113.4,614.7 L115.3,614.0 L117.2,613.3 L119.1,612.5 L121.0,611.7 L122.9,610.8 L124.7,609.9 L126.6,608.9
		L128.5,607.9 L130.4,606.8 L132.3,605.7 L134.2,604.5 L136.1,603.2 L138.0,601.9 L139.8,600.5 L141.7,599.1
		L143.6,597.6 L145.5,596.0 L147.4,594.4 L149.3,592.7 L151.2,591.0 L153.0,589.3 L154.9,587.5 L156.8,585.6
		L158.7,583.8 L160.6,581.9 L162.5,580.0 L164.4,578.1 L166.3,576.1 L168.1,574.2 L170.0,572.2 L171.9,570.3
		L173.8,568.3 L175.7,566.3 L177.6,564.3 L179.5,562.4 L181.4,560.4 L183.2,558.5 L185.1,556.5 L187.0,554.6
		L188.9,552.6 L190.8,550.7 L192.7,548.7 L194.6,546.8 L196.5,544.8 L198.3,542.9 L200.2,541.0 L202.1,539.0
		L204.0,537.1 L205.9,535.1 L207.8,533.2 L209.7,531.2 L211.6,529.3 L213.4,527.3 L215.3,525.4 L217.2,523.4
		L219.1,521.4 L221.0,519.4 L222.9,517.4 L224.8,515.3 L226.6,513.2 L228.5,511.2 L230.4,509.0 L232.3,506.9
		L234.2,504.7 L236.1,502.5 L238.0,500.3 L239.9,498.0 L241.7,495.7 L243.6,493.3 L245.5,490.9 L247.4,488.5
		L249.3,486.0 L251.2,483.4 L253.1,480.8 L255.0,478.2 L256.8,475.5 L258.7,472.7 L260.6,469.9 L262.5,467.0
		L264.4,464.1 L266.3,461.1 L268.2,458.0 L270.1,454.9 L271.9,451.7 L273.8,448.5 L275.7,445.3 L277.6,442.0
		L279.5,438.7 L281.4,435.3 L283.3,432.0 L285.2,428.6 L287.0,425.2 L288.9,421.8 L290.8,418.4 L292.7,415.0
		L294.6,411.7 L296.5,408.3 L298.4,405.0 L300.2,401.7 L302.1,398.5 L304.0,395.3 L305.9,392.1 L307.8,389.0
		L309.7,385.9 L311.6,382.8 L313.5,379.8 L315.3,376.8 L317.2,373.9 L319.1,370.9 L321.0,368.1 L322.9,365.2
		L324.8,362.4 L326.7,359.6 L328.6,356.8 L330.4,354.1 L332.3,351.4 L334.2,348.7 L336.1,346.0 L338.0,343.4
		L339.9,340.7 L341.8,338.1 L343.7,335.5 L345.5,332.9 L347.4,330.4 L349.3,327.8 L351.2,325.2 L353.1,322.7
		L355.0,320.1 L356.9,317.6 L358.8,315.1 L360.6,312.6 L362.5,310.1 L364.4,307.6 L366.3,305.1 L368.2,302.6
		L370.1,300.1 L372.0,297.6 L373.8,295.1 L375.7,292.6 L377.6,290.1 L379.5,287.5 L381.4,284.9 L383.3,282.2
		L385.2,279.5 L387.1,276.7 L388.9,273.9 L390.8,271.0 L392.7,268.1 L394.6,265.0 L396.5,261.9 L398.4,258.7
		L400.3,255.4 L402.2,252.1 L404.0,248.6 L405.9,245.1 L407.8,241.5 L409.7,237.9 L411.6,234.1 L413.5,230.3
		L415.4,226.5 L417.3,222.6 L419.1,218.6 L421.0,214.6 L422.9,210.6 L424.8,206.6 L426.7,202.5 L428.6,198.5
		L430.5,194.5 L432.4,190.6 L434.2,186.7 L436.1,182.9 L438.0,179.1 L439.9,175.5 L441.8,171.9 L443.7,168.5
		L445.6,165.2 L447.4,162.0 L449.3,159.0 L451.2,156.2 L453.1,153.5 L455.0,151.0 L456.9,148.6 L458.8,146.5
		L460.7,144.5 L462.5,142.7 L464.4,141.0 L466.3,139.5 L468.2,138.2 L470.1,137.1 L472.0,136.1 L473.9,135.2
		L475.8,134.5 L477.6,133.9 L479.5,133.5 L481.4,133.1 L483.3,132.8 L485.2,132.7 L487.1,132.6 L489.0,132.6
		L490.9,132.6 L492.7,132.7 L494.6,132.8 L496.5,132.9 L498.4,133.1 L500.3,133.3 L502.2,133.5 L504.1,133.7
		L506.0,133.9 L507.8,134.1 L509.7,134.3 L511.6,134.5 L513.5,134.6 L515.4,134.8 L517.3,134.9 L519.2,134.9
		L521.0,134.9 L522.9,134.9 L524.8,134.8 L526.7,134.7 L528.6,134.5 L530.5,134.2 L532.4,133.8 L534.3,133.4
		L536.1,132.9 L538.0,132.3 L539.9,131.6 L541.8,130.8 L543.7,130.0 L545.6,129.2 L547.5,128.3 L549.4,127.3
		L551.2,126.3 L553.1,125.4 L555.0,124.4 L556.9,123.5 L558.8,122.7 L560.7,121.9 L562.6,121.2 L564.5,120.7
		L566.3,120.2 L568.2,119.9 L570.1,119.7 L572.0,119.7 L573.9,119.9 L575.8,120.2 L577.7,120.7 L579.5,121.4
		L581.4,122.2 L583.3,123.2 L585.2,124.4 L587.1,125.6 L589.0,127.0 L590.9,128.6 L592.8,130.2 L594.6,131.9
		L596.5,133.7 L598.4,135.6 L600.3,137.5 L602.2,139.5 L604.1,141.5 L606.0,143.5 L607.9,145.5 L609.7,147.5
		L611.6,149.5 L613.5,151.5 L615.4,153.5 L617.3,155.4 L619.2,157.4 L621.1,159.2 L623.0,161.1 L624.8,162.9
		L626.7,164.7 L628.6,166.4 L630.5,168.1 L632.4,169.8 L634.3,171.4 L636.2,172.9 L638.1,174.4 L639.9,175.9
		L641.8,177.3 L643.7,178.7 L645.6,180.1 L647.5,181.4 L649.4,182.8 L651.3,184.1 L653.1,185.5 L655.0,186.8
		L656.9,188.3 L658.8,189.7 L660.7,191.3 L662.6,192.9 L664.5,194.6 L666.4,196.4 L668.2,198.3 L670.1,200.4
		L672.0,202.5 L673.9,204.9 L675.8,207.4 L677.7,210.1 L679.6,212.9 L681.5,215.9 L683.3,219.1 L685.2,222.5
		L687.1,226.0 L689.0,229.7 L690.9,233.5 L692.8,237.5 L694.7,241.6 L696.6,245.9 L698.4,250.2 L700.3,254.6
		L702.2,259.1 L704.1,263.6 L706.0,268.2 L707.9,272.8 L709.8,277.4 L711.7,282.0 L713.5,286.5 L715.4,291.1
		L717.3,295.5 L719.2,300.0 L721.1,304.3 L723.0,308.6 L724.9,312.8 L726.7,316.8 L728.6,320.8 L730.5,324.8
		L732.4,328.6 L734.3,332.3 L736.2,335.9 L738.1,339.4 L740.0,342.9 L741.8,346.2 L743.7,349.5 L745.6,352.7
		L747.5,355.7 L749.4,358.8 L751.3,361.7 L753.2,364.6 L755.1,367.5 L756.9,370.2 L758.8,373.0 L760.7,375.7
		L762.6,378.3 L764.5,381.0 L766.4,383.6 L768.3,386.1 L770.2,388.7 L772.0,391.3 L773.9,393.9 L775.8,396.4
		L777.7,399.0 L779.6,401.6 L781.5,404.3 L783.4,406.9 L785.3,409.6 L787.1,412.3 L789.0,415.0 L790.9,417.8
		L792.8,420.6 L794.7,423.4 L796.6,426.3 L798.5,429.2 L800.3,432.1 L802.2,435.0 L804.1,438.0 L806.0,441.0
		L807.9,443.9 L809.8,446.9 L811.7,449.9 L813.6,452.9 L815.4,455.9 L817.3,458.9 L819.2,461.9 L821.1,464.9
		L823.0,467.8 L824.9,470.7 L826.8,473.6 L828.7,476.5 L830.5,479.4 L832.4,482.2 L834.3,485.1 L836.2,487.9
		L838.1,490.6 L840.0,493.4 L841.9,496.1 L843.8,498.9 L845.6,501.6 L847.5,504.3 L849.4,507.0 L851.3,509.6
		L853.2,512.3 L855.1,514.9 L857.0,517.5 L858.9,520.1 L860.7,522.6 L862.6,525.1 L864.5,527.6 L866.4,530.1
		L868.3,532.5 L870.2,534.9 L872.1,537.3 L873.9,539.6 L875.8,541.8 L877.7,544.0 L879.6,546.2 L881.5,548.3
		L883.4,550.3 L885.3,552.3 L887.2,554.2 L889.0,556.1 L890.9,557.9 L892.8,559.6 L894.7,561.3 L896.6,563.0
		L898.5,564.5 L900.4,566.1 L902.3,567.5 L904.1,568.9 L906.0,570.3 L907.9,571.6 L909.8,572.9 L911.7,574.1
		L913.6,575.2 L915.5,576.3 L917.4,577.4 L919.2,578.5 L921.1,579.5 L923.0,580.5 L924.9,581.5 L926.8,582.4
		L928.7,583.4 L930.6,584.3 L932.5,585.2 L934.3,586.1 L936.2,587.1 L938.1,588.0 L940.0,588.9 L941.9,589.9
		L943.8,590.8 L945.7,591.8 L947.5,592.8 L949.4,593.8 L951.3,594.8 L953.2,595.9 L955.1,597.0 L957.0,598.2
		L958.9,599.4 L960.8,600.6 L962.6,601.8 L964.5,603.1 L966.4,604.5 L968.3,605.8 L970.2,607.2 L972.1,608.6
		L974.0,610.1 L975.9,611.6 L977.7,613.1 L979.6,614.6 L981.5,616.1 L983.4,617.6 L985.3,619.1 L987.2,620.6
		L989.1,622.1 L991.0,623.6 L992.8,625.0 L994.7,626.4 L996.6,627.8 L998.5,629.1 L1000.4,630.4 L1002.3,631.6
		L1004.2,632.8 L1006.1,634.0 L1007.9,635.1 L1009.8,636.1 L1011.7,637.1 L1013.6,638.0  '/></g>
	</g>
	<g id="gnuplot_plot_2" ><title>Confidence interval</title>
<g fill="none" color="white" stroke="rgb( 31, 120, 180)" stroke-width="1.00" stroke-linecap="butt" stroke-linejoin="miter">
</g>
<g fill="none" color="black" stroke="currentColor" stroke-width="1.00" stroke-linecap="butt" stroke-linejoin="miter">
	<g transform="translate(1089.0,85.0)" stroke="none" fill="black" font-family="Helvetica" font-size="12.00"  text-anchor="start">
		<text><tspan font-family="Helvetica" >Confidence interval</tspan></text>
	</g>
</g>
<g fill="none" color="black" stroke="currentColor" stroke-width="1.00" stroke-linecap="butt" stroke-linejoin="miter">
	<g stroke='none' shape-rendering='crispEdges'>
		<polygon fill = 'rgb( 31, 120, 180)' fill-opacity = '0.250000' points = '1038.5,85.6 1080.7,85.6 1080.7,76.6 1038.5,76.6 '/>
		<polygon fill = 'rgb( 31, 120, 180)' fill-opacity = '0.250000' points = '158.7,583.8 160.6,581.9 162.5,580.0 164.4,578.1 166.3,576.1 168.1,574.2 170.0,572.2 171.9,570.3 173.8,568.3 175.7,566.3 177.6,564.3 179.5,562.4 181.4,560.4 183.2,558.5 185.1,556.5 187.0,554.6
188.9,552.6 190.8,550.7 192.7,548.7 194.6,546.8 196.5,544.8 198.3,542.9 200.2,541.0 202.1,539.0 204.0,537.1 205.9,535.1 207.8,533.2 209.7,531.2 211.6,529.3 213.4,527.3 215.3,525.4 217.2,523.4
219.1,521.4 221.0,519.4 222.9,517.4 224.8,515.3 226.6,513.2 228.5,511.2 230.4,509.0 232.3,506.9 234.2,504.7 236.1,502.5 238.0,500.3 239.9,498.0 241.7,495.7 243.6,493.3 245.5,490.9 247.4,488.5
249.3,486.0 251.2,483.4 253.1,480.8 255.0,478.2 256.8,475.5 258.7,472.7 260.6,469.9 262.5,467.0 264.4,464.1 266.3,461.1 268.2,458.0 270.1,454.9 271.9,451.7 273.8,448.5 275.7,445.3 277.6,442.0
279.5,438.7 281.4,435.3 283.3,432.0 285.2,428.6 287.0,425.2 288.9,421.8 290.8,418.4 292.7,415.0 294.6,411.7 296.5,408.3 298.4,405.0 300.2,401.7 302.1,398.5 304.0,395.3 305.9,392.1 307.8,389.0
309.7,385.9 311.6,382.8 313.5,379.8 315.3,376.8 317.2,373.9 319.1,370.9 321.0,368.1 322.9,365.2 324.8,362.4 326.7,359.6 328.6,356.8 330.4,354.1 332.3,351.4 334.2,348.7 336.1,346.0 338.0,343.4
339.9,340.7 341.8,338.1 343.7,335.5 345.5,332.9 347.4,330.4 349.3,327.8 351.2,325.2 353.1,322.7 355.0,320.1 356.9,317.6 358.8,315.1 360.6,312.6 362.5,310.1 364.4,307.6 366.3,305.1 368.2,302.6
370.1,300.1 372.0,297.6 373.8,295.1 375.7,292.6 377.6,290.1 379.5,287.5 381.4,284.9 383.3,282.2 385.2,279.5 387.1,276.7 388.9,273.9 390.8,271.0 392.7,268.1 394.6,265.0 396.5,261.9 398.4,258.7
400.3,255.4 402.2,252.1 404.0,248.6 405.9,245.1 407.8,241.5 409.7,237.9 411.6,234.1 413.5,230.3 415.4,226.5 417.3,222.6 419.1,218.6 421.0,214.6 422.9,210.6 424.8,206.6 426.7,202.5 428.6,198.5
430.5,194.5 432.4,190.6 434.2,186.7 436.1,182.9 438.0,179.1 439.9,175.5 441.8,171.9 443.7,168.5 445.6,165.2 447.4,162.0 449.3,159.0 451.2,156.2 453.1,153.5 455.0,151.0 456.9,148.6 458.8,146.5
460.7,144.5 462.5,142.7 464.4,141.0 466.3,139.5 468.2,138.2 470.1,137.1 472.0,136.1 473.9,135.2 475.8,134.5 477.6,133.9 479.5,133.5 481.4,133.1 483.3,132.8 485.2,132.7 487.1,132.6 489.0,132.6
490.9,132.6 492.7,132.7 494.6,132.8 496.5,132.9 498.4,133.1 500.3,133.3 502.2,133.5 504.1,133.7 506.0,133.9 507.8,134.1 509.7,134.3 511.6,134.5 513.5,134.6 515.4,134.8 517.3,134.9 519.2,134.9
521.0,134.9 522.9,134.9 524.8,134.8 526.7,134.7 528.6,134.5 530.5,134.2 532.4,133.8 534.3,133.4 536.1,132.9 538.0,132.3 539.9,131.6 541.8,130.8 543.7,130.0 545.6,129.2 547.5,128.3 549.4,127.3
551.2,126.3 553.1,125.4 555.0,124.4 556.9,123.5 558.8,122.7 560.7,121.9 562.6,121.2 564.5,120.7 566.3,120.2 568.2,119.9 570.1,119.7 572.0,119.7 573.9,119.9 575.8,120.2 577.7,120.7 579.5,121.4
581.4,122.2 583.3,123.2 585.2,124.4 587.1,125.6 589.0,127.0 590.9,128.6 592.8,130.2 594.6,131.9 596.5,133.7 598.4,135.6 600.3,137.5 602.2,139.5 604.1,141.5 606.0,143.5 607.9,145.5 609.7,147.5
611.6,149.5 613.5,151.5 615.4,153.5 617.3,155.4 619.2,157.4 621.1,159.2 623.0,161.1 624.8,162.9 626.7,164.7 628.6,166.4 630.5,168.1 632.4,169.8 634.3,171.4 636.2,172.9 638.1,174.4 639.9,175.9
641.8,177.3 643.7,178.7 645.6,180.1 647.5,181.4 649.4,182.8 651.3,184.1 653.1,185.5 655.0,186.8 656.9,188.3 658.8,189.7 660.7,191.3 662.6,192.9 664.5,194.6 666.4,196.4 668.2,198.3 670.1,200.4
672.0,202.5 673.9,204.9 675.8,207.4 677.7,210.1 679.6,212.9 681.5,215.9 683.3,219.1 685.2,222.5 687.1,226.0 689.0,229.7 690.9,233.5 692.8,237.5 694.7,241.6 696.6,245.9 698.4,250.2 700.3,254.6
702.2,259.1 704.1,263.6 706.0,268.2 707.9,272.8 709.8,277.4 711.7,282.0 713.5,286.5 715.4,291.1 717.3,295.5 719.2,300.0 721.1,304.3 723.0,308.6 724.9,312.8 726.7,316.8 728.6,320.8 730.5,324.8
732.4,328.6 734.3,332.3 736.2,335.9 738.1,339.4 740.0,342.9 741.8,346.2 743.7,349.5 745.6,352.7 747.5,355.7 749.4,358.8 751.3,361.7 753.2,364.6 755.1,367.5 756.9,370.2 758.8,373.0 760.7,375.7
762.6,378.3 764.5,381.0 766.4,383.6 768.3,386.1 770.2,388.7 772.0,391.3 773.9,393.9 775.8,396.4 777.7,399.0 779.6,401.6 781.5,404.3 783.4,406.9 785.3,409.6 787.1,412.3 789.0,415.0 790.9,417.8
792.8,420.6 794.7,423.4 796.6,426.3 798.5,429.2 800.3,432.1 802.2,435.0 804.1,438.0 806.0,441.0 807.9,443.9 809.8,446.9 811.7,449.9 813.6,452.9 815.4,455.9 817.3,458.9 819.2,461.9 821.1,464.9
823.0,467.8 824.9,470.7 826.8,473.6 828.7,476.5 830.5,479.4 832.4,482.2 834.3,485.1 836.2,487.9 838.1,490.6 840.0,493.4 841.9,496.1 843.8,498.9 845.6,501.6 847.5,504.3 849.4,507.0 851.3,509.6
853.2,512.3 855.1,514.9 857.0,517.5 858.9,520.1 860.7,522.6 862.6,525.1 864.5,527.6 866.4,530.1 868.3,532.5 870.2,534.9 872.1,537.3 873.9,539.6 875.8,541.8 877.7,544.0 879.6,546.2 881.5,548.3
883.4,550.3 885.3,552.3 887.2,554.2 889.0,556.1 890.9,557.9 892.8,559.6 894.7,561.3 896.6,563.0 898.5,564.5 900.4,566.1 902.3,567.5 904.1,568.9 906.0,570.3 907.9,571.6 909.8,572.9 911.7,574.1
913.6,575.2 915.5,576.3 917.4,577.4 919.2,578.5 921.1,579.5 923.0,580.5 924.9,581.5 924.9,662.4 923.0,662.4 921.1,662.4 919.2,662.4 917.4,662.4 915.5,662.4 913.6,662.4 911.7,662.4 909.8,662.4
907.9,662.4 906.0,662.4 904.1,662.4 902.3,662.4 900.4,662.4 898.5,662.4 896.6,662.4 894.7,662.4 892.8,662.4 890.9,662.4 889.0,662.4 887.2,662.4 885.3,662.4 883.4,662.4 881.5,662.4 879.6,662.4
877.7,662.4 875.8,662.4 873.9,662.4 872.1,662.4 870.2,662.4 868.3,662.4 866.4,662.4 864.5,662.4 862.6,662.4 860.7,662.4 858.9,662.4 857.0,662.4 855.1,662.4 853.2,662.4 851.3,662.4 849.4,662.4
847.5,662.4 845.6,662.4 843.8,662.4 841.9,662.4 840.0,662.4 838.1,662.4 836.2,662.4 834.3,662.4 832.4,662.4 830.5,662.4 828.7,662.4 826.8,662.4 824.9,662.4 823.0,662.4 821.1,662.4 819.2,662.4
817.3,662.4 815.4,662.4 813.6,662.4 811.7,662.4 809.8,662.4 807.9,662.4 806.0,662.4 804.1,662.4 802.2,662.4 800.3,662.4 798.5,662.4 796.6,662.4 794.7,662.4 792.8,662.4 790.9,662.4 789.0,662.4
787.1,662.4 785.3,662.4 783.4,662.4 781.5,662.4 779.6,662.4 777.7,662.4 775.8,662.4 773.9,662.4 772.0,662.4 770.2,662.4 768.3,662.4 766.4,662.4 764.5,662.4 762.6,662.4 760.7,662.4 758.8,662.4
756.9,662.4 755.1,662.4 753.2,662.4 751.3,662.4 749.4,662.4 747.5,662.4 745.6,662.4 743.7,662.4 741.8,662.4 740.0,662.4 738.1,662.4 736.2,662.4 734.3,662.4 732.4,662.4 730.5,662.4 728.6,662.4
726.7,662.4 724.9,662.4 723.0,662.4 721.1,662.4 719.2,662.4 717.3,662.4 715.4,662.4 713.5,662.4 711.7,662.4 709.8,662.4 707.9,662.4 706.0,662.4 704.1,662.4 702.2,662.4 700.3,662.4 698.4,662.4
696.6,662.4 694.7,662.4 692.8,662.4 690.9,662.4 689.0,662.4 687.1,662.4 685.2,662.4 683.3,662.4 681.5,662.4 679.6,662.4 677.7,662.4 675.8,662.4 673.9,662.4 672.0,662.4 670.1,662.4 668.2,662.4
666.4,662.4 664.5,662.4 662.6,662.4 660.7,662.4 658.8,662.4 656.9,662.4 655.0,662.4 653.1,662.4 651.3,662.4 649.4,662.4 647.5,662.4 645.6,662.4 643.7,662.4 641.8,662.4 639.9,662.4 638.1,662.4
636.2,662.4 634.3,662.4 632.4,662.4 630.5,662.4 628.6,662.4 626.7,662.4 624.8,662.4 623.0,662.4 621.1,662.4 619.2,662.4 617.3,662.4 615.4,662.4 613.5,662.4 611.6,662.4 609.7,662.4 607.9,662.4
606.0,662.4 604.1,662.4 602.2,662.4 600.3,662.4 598.4,662.4 596.5,662.4 594.6,662.4 592.8,662.4 590.9,662.4 589.0,662.4 587.1,662.4 585.2,662.4 583.3,662.4 581.4,662.4 579.5,662.4 577.7,662.4
575.8,662.4 573.9,662.4 572.0,662.4 570.1,662.4 568.2,662.4 566.3,662.4 564.5,662.4 562.6,662.4 560.7,662.4 558.8,662.4 556.9,662.4 555.0,662.4 553.1,662.4 551.2,662.4 549.4,662.4 547.5,662.4
545.6,662.4 543.7,662.4 541.8,662.4 539.9,662.4 538.0,662.4 536.1,662.4 534.3,662.4 532.4,662.4 530.5,662.4 528.6,662.4 526.7,662.4 524.8,662.4 522.9,662.4 521.0,662.4 519.2,662.4 517.3,662.4
515.4,662.4 513.5,662.4 511.6,662.4 509.7,662.4 507.8,662.4 506.0,662.4 504.1,662.4 502.2,662.4 500.3,662.4 498.4,662.4 496.5,662.4 494.6,662.4 492.7,662.4 490.9,662.4 489.0,662.4 487.1,662.4
485.2,662.4 483.3,662.4 481.4,662.4 479.5,662.4 477.6,662.4 475.8,662.4 473.9,662.4 472.0,662.4 470.1,662.4 468.2,662.4 466.3,662.4 464.4,662.4 462.5,662.4 460.7,662.4 458.8,662.4 456.9,662.4
455.0,662.4 453.1,662.4 451.2,662.4 449.3,662.4 447.4,662.4 445.6,662.4 443.7,662.4 441.8,662.4 439.9,662.4 438.0,662.4 436.1,662.4 434.2,662.4 432.4,662.4 430.5,662.4 428.6,662.4 426.7,662.4
424.8,662.4 422.9,662.4 421.0,662.4 419.1,662.4 417.3,662.4 415.4,662.4 413.5,662.4 411.6,662.4 409.7,662.4 407.8,662.4 405.9,662.4 404.0,662.4 402.2,662.4 400.3,662.4 398.4,662.4 396.5,662.4
394.6,662.4 392.7,662.4 390.8,662.4 388.9,662.4 387.1,662.4 385.2,662.4 383.3,662.4 381.4,662.4 379.5,662.4 377.6,662.4 375.7,662.4 373.8,662.4 372.0,662.4 370.1,662.4 368.2,662.4 366.3,662.4
364.4,662.4 362.5,662.4 360.6,662.4 358.8,662.4 356.9,662.4 355.0,662.4 353.1,662.4 351.2,662.4 349.3,662.4 347.4,662.4 345.5,662.4 343.7,662.4 341.8,662.4 339.9,662.4 338.0,662.4 336.1,662.4
334.2,662.4 332.3,662.4 330.4,662.4 328.6,662.4 326.7,662.4 324.8,662.4 322.9,662.4 321.0,662.4 319.1,662.4 317.2,662.4 315.3,662.4 313.5,662.4 311.6,662.4 309.7,662.4 307.8,662.4 305.9,662.4
304.0,662.4 302.1,662.4 300.2,662.4 298.4,662.4 296.5,662.4 294.6,662.4 292.7,662.4 290.8,662.4 288.9,662.4 287.0,662.4 285.2,662.4 283.3,662.4 281.4,662.4 279.5,662.4 277.6,662.4 275.7,662.4
273.8,662.4 271.9,662.4 270.1,662.4 268.2,662.4 266.3,662.4 264.4,662.4 262.5,662.4 260.6,662.4 258.7,662.4 256.8,662.4 255.0,662.4 253.1,662.4 251.2,662.4 249.3,662.4 247.4,662.4 245.5,662.4
243.6,662.4 241.7,662.4 239.9,662.4 238.0,662.4 236.1,662.4 234.2,662.4 232.3,662.4 230.4,662.4 228.5,662.4 226.6,662.4 224.8,662.4 222.9,662.4 221.0,662.4 219.1,662.4 217.2,662.4 215.3,662.4
213.4,662.4 211.6,662.4 209.7,662.4 207.8,662.4 205.9,662.4 204.0,662.4 202.1,662.4 200.2,662.4 198.3,662.4 196.5,662.4 194.6,662.4 192.7,662.4 190.8,662.4 188.9,662.4 187.0,662.4 185.1,662.4
183.2,662.4 181.4,662.4 179.5,662.4 177.6,662.4 175.7,662.4 173.8,662.4 171.9,662.4 170.0,662.4 168.1,662.4 166.3,662.4 164.4,662.4 162.5,662.4 160.6,662.4 158.7,662.4 '/>
	</g>
</g>
	</g>
	<g id="gnuplot_plot_3" ><title>Point estimate</title>
<g fill="none" color="white" stroke="rgb( 31, 120, 180)" stroke-width="2.00" stroke-linecap="butt" stroke-linejoin="miter">
</g>
<g fill="none" color="black" stroke="currentColor" stroke-width="2.00" stroke-linecap="butt" stroke-linejoin="miter">
	<g transform="translate(1089.0,103.0)" stroke="none" fill="black" font-family="Helvetica" font-size="12.00"  text-anchor="start">
		<text><tspan font-family="Helvetica" >Point estimate</tspan></text>
	</g>
</g>
<g fill="none" color="black" stroke="currentColor" stroke-width="2.00" stroke-linecap="butt" stroke-linejoin="miter">
	<path stroke='rgb( 31, 120, 180)'  d='M1038.5,99.1 L1080.7,99.1 M555.1,662.4 L555.1,124.4  '/></g>
	</g>
	<g id="gnuplot_plot_4" ><title>Noise threshold</title>
<g fill="none" color="white" stroke="rgb( 31, 120, 180)" stroke-width="1.00" stroke-linecap="butt" stroke-linejoin="miter">
</g>
<g fill="none" color="black" stroke="currentColor" stroke-width="1.00" stroke-linecap="butt" stroke-linejoin="miter">
	<g transform="translate(1089.0,121.0)" stroke="none" fill="black" font-family="Helvetica" font-size="12.00"  text-anchor="start">
		<text><tspan font-family="Helvetica" >Noise threshold</tspan></text>
	</g>
</g>
<g fill="none" color="black" stroke="currentColor" stroke-width="1.00" stroke-linecap="butt" stroke-linejoin="miter">
	<g stroke='none' shape-rendering='crispEdges'>
		<polygon fill = 'rgb(227,  26,  28)' fill-opacity = '0.100000' points = '1038.5,121.6 1080.7,121.6 1080.7,112.6 1038.5,112.6 '/>
		<polygon fill = 'rgb(227,  26,  28)' fill-opacity = '0.100000' points = '542.8,54.1 542.8,54.1 542.8,662.4 542.8,662.4 '/>
	</g>
</g>
	</g>
<g fill="none" color="white" stroke="rgb(227,  26,  28)" stroke-width="2.00" stroke-linecap="butt" stroke-linejoin="miter">
</g>
<g fill="none" color="black" stroke="currentColor" stroke-width="2.00" stroke-linecap="butt" stroke-linejoin="miter">
</g>
<g fill="none" color="black" stroke="black" stroke-width="1.00" stroke-linecap="butt" stroke-linejoin="miter">
</g>
<g fill="none" color="black" stroke="currentColor" stroke-width="1.00" stroke-linecap="butt" stroke-linejoin="miter">
	<path stroke='black'  d='M71.9,54.1 L71.9,662.4 L1013.6,662.4 L1013.6,54.1 L71.9,54.1 Z  '/></g>
<g fill="none" color="black" stroke="currentColor" stroke-width="1.00" stroke-linecap="butt" stroke-linejoin="miter">
</g>
</g>
</svg>

