<?xml version="1.0" encoding="utf-8"  standalone="no"?>
<svg 
 viewBox="0 0 1280 720"
 xmlns="http://www.w3.org/2000/svg"
 xmlns:xlink="http://www.w3.org/1999/xlink"
>

<title>Gnuplot</title>
<desc>Produced by GNUPLOT 5.2 patchlevel 6 </desc>

<g id="gnuplot_canvas">

<rect x="0" y="0" width="1280" height="720" fill="none"/>
<defs>

	<circle id='gpDot' r='0.5' stroke-width='0.5' stroke='currentColor'/>
	<path id='gpPt0' stroke-width='0.222' stroke='currentColor' d='M-1,0 h2 M0,-1 v2'/>
	<path id='gpPt1' stroke-width='0.222' stroke='currentColor' d='M-1,-1 L1,1 M1,-1 L-1,1'/>
	<path id='gpPt2' stroke-width='0.222' stroke='currentColor' d='M-1,0 L1,0 M0,-1 L0,1 M-1,-1 L1,1 M-1,1 L1,-1'/>
	<rect id='gpPt3' stroke-width='0.222' stroke='currentColor' x='-1' y='-1' width='2' height='2'/>
	<rect id='gpPt4' stroke-width='0.222' stroke='currentColor' fill='currentColor' x='-1' y='-1' width='2' height='2'/>
	<circle id='gpPt5' stroke-width='0.222' stroke='currentColor' cx='0' cy='0' r='1'/>
	<use xlink:href='#gpPt5' id='gpPt6' fill='currentColor' stroke='none'/>
	<path id='gpPt7' stroke-width='0.222' stroke='currentColor' d='M0,-1.33 L-1.33,0.67 L1.33,0.67 z'/>
	<use xlink:href='#gpPt7' id='gpPt8' fill='currentColor' stroke='none'/>
	<use xlink:href='#gpPt7' id='gpPt9' stroke='currentColor' transform='rotate(180)'/>
	<use xlink:href='#gpPt9' id='gpPt10' fill='currentColor' stroke='none'/>
	<use xlink:href='#gpPt3' id='gpPt11' stroke='currentColor' transform='rotate(45)'/>
	<use xlink:href='#gpPt11' id='gpPt12' fill='currentColor' stroke='none'/>
	<path id='gpPt13' stroke-width='0.222' stroke='currentColor' d='M0,1.330 L1.265,0.411 L0.782,-1.067 L-0.782,-1.076 L-1.265,0.411 z'/>
	<use xlink:href='#gpPt13' id='gpPt14' fill='currentColor' stroke='none'/>
	<filter id='textbox' filterUnits='objectBoundingBox' x='0' y='0' height='1' width='1'>
	  <feFlood flood-color='white' flood-opacity='1' result='bgnd'/>
	  <feComposite in='SourceGraphic' in2='bgnd' operator='atop'/>
	</filter>
	<filter id='greybox' filterUnits='objectBoundingBox' x='0' y='0' height='1' width='1'>
	  <feFlood flood-color='lightgrey' flood-opacity='1' result='grey'/>
	  <feComposite in='SourceGraphic' in2='grey' operator='atop'/>
	</filter>
</defs>
<g fill="none" color="white" stroke="currentColor" stroke-width="1.00" stroke-linecap="butt" stroke-linejoin="miter">
</g>
<g fill="none" color="black" stroke="currentColor" stroke-width="1.00" stroke-linecap="butt" stroke-linejoin="miter">
	<path stroke='black'  d='M63.6,662.4 L72.6,662.4  '/>	<g transform="translate(55.3,666.3)" stroke="none" fill="black" font-family="Helvetica" font-size="12.00"  text-anchor="end">
		<text><tspan font-family="Helvetica" > 0</tspan></text>
	</g>
</g>
<g fill="none" color="black" stroke="currentColor" stroke-width="1.00" stroke-linecap="butt" stroke-linejoin="miter">
	<path stroke='black'  d='M63.6,575.5 L72.6,575.5  '/>	<g transform="translate(55.3,579.4)" stroke="none" fill="black" font-family="Helvetica" font-size="12.00"  text-anchor="end">
		<text><tspan font-family="Helvetica" > 5</tspan></text>
	</g>
</g>
<g fill="none" color="black" stroke="currentColor" stroke-width="1.00" stroke-linecap="butt" stroke-linejoin="miter">
	<path stroke='black'  d='M63.6,488.6 L72.6,488.6  '/>	<g transform="translate(55.3,492.5)" stroke="none" fill="black" font-family="Helvetica" font-size="12.00"  text-anchor="end">
		<text><tspan font-family="Helvetica" > 10</tspan></text>
	</g>
</g>
<g fill="none" color="black" stroke="currentColor" stroke-width="1.00" stroke-linecap="butt" stroke-linejoin="miter">
	<path stroke='black'  d='M63.6,401.7 L72.6,401.7  '/>	<g transform="translate(55.3,405.6)" stroke="none" fill="black" font-family="Helvetica" font-size="12.00"  text-anchor="end">
		<text><tspan font-family="Helvetica" > 15</tspan></text>
	</g>
</g>
<g fill="none" color="black" stroke="currentColor" stroke-width="1.00" stroke-linecap="butt" stroke-linejoin="miter">
	<path stroke='black'  d='M63.6,314.8 L72.6,314.8  '/>	<g transform="translate(55.3,318.7)" stroke="none" fill="black" font-family="Helvetica" font-size="12.00"  text-anchor="end">
		<text><tspan font-family="Helvetica" > 20</tspan></text>
	</g>
</g>
<g fill="none" color="black" stroke="currentColor" stroke-width="1.00" stroke-linecap="butt" stroke-linejoin="miter">
	<path stroke='black'  d='M63.6,227.9 L72.6,227.9  '/>	<g transform="translate(55.3,231.8)" stroke="none" fill="black" font-family="Helvetica" font-size="12.00"  text-anchor="end">
		<text><tspan font-family="Helvetica" > 25</tspan></text>
	</g>
</g>
<g fill="none" color="black" stroke="currentColor" stroke-width="1.00" stroke-linecap="butt" stroke-linejoin="miter">
	<path stroke='black'  d='M63.6,141.0 L72.6,141.0  '/>	<g transform="translate(55.3,144.9)" stroke="none" fill="black" font-family="Helvetica" font-size="12.00"  text-anchor="end">
		<text><tspan font-family="Helvetica" > 30</tspan></text>
	</g>
</g>
<g fill="none" color="black" stroke="currentColor" stroke-width="1.00" stroke-linecap="butt" stroke-linejoin="miter">
	<path stroke='black'  d='M63.6,54.1 L72.6,54.1  '/>	<g transform="translate(55.3,58.0)" stroke="none" fill="black" font-family="Helvetica" font-size="12.00"  text-anchor="end">
		<text><tspan font-family="Helvetica" > 35</tspan></text>
	</g>
</g>
<g fill="none" color="black" stroke="currentColor" stroke-width="1.00" stroke-linecap="butt" stroke-linejoin="miter">
	<path stroke='black'  d='M131.8,662.4 L131.8,653.4  '/>	<g transform="translate(131.8,684.3)" stroke="none" fill="black" font-family="Helvetica" font-size="12.00"  text-anchor="middle">
		<text><tspan font-family="Helvetica" > 96.98</tspan></text>
	</g>
</g>
<g fill="none" color="black" stroke="currentColor" stroke-width="1.00" stroke-linecap="butt" stroke-linejoin="miter">
	<path stroke='black'  d='M264.2,662.4 L264.2,653.4  '/>	<g transform="translate(264.2,684.3)" stroke="none" fill="black" font-family="Helvetica" font-size="12.00"  text-anchor="middle">
		<text><tspan font-family="Helvetica" > 97</tspan></text>
	</g>
</g>
<g fill="none" color="black" stroke="currentColor" stroke-width="1.00" stroke-linecap="butt" stroke-linejoin="miter">
	<path stroke='black'  d='M396.6,662.4 L396.6,653.4  '/>	<g transform="translate(396.6,684.3)" stroke="none" fill="black" font-family="Helvetica" font-size="12.00"  text-anchor="middle">
		<text><tspan font-family="Helvetica" > 97.02</tspan></text>
	</g>
</g>
<g fill="none" color="black" stroke="currentColor" stroke-width="1.00" stroke-linecap="butt" stroke-linejoin="miter">
	<path stroke='black'  d='M529.1,662.4 L529.1,653.4  '/>	<g transform="translate(529.1,684.3)" stroke="none" fill="black" font-family="Helvetica" font-size="12.00"  text-anchor="middle">
		<text><tspan font-family="Helvetica" > 97.04</tspan></text>
	</g>
</g>
<g fill="none" color="black" stroke="currentColor" stroke-width="1.00" stroke-linecap="butt" stroke-linejoin="miter">
	<path stroke='black'  d='M661.5,662.4 L661.5,653.4  '/>	<g transform="translate(661.5,684.3)" stroke="none" fill="black" font-family="Helvetica" font-size="12.00"  text-anchor="middle">
		<text><tspan font-family="Helvetica" > 97.06</tspan></text>
	</g>
</g>
<g fill="none" color="black" stroke="currentColor" stroke-width="1.00" stroke-linecap="butt" stroke-linejoin="miter">
	<path stroke='black'  d='M793.9,662.4 L793.9,653.4  '/>	<g transform="translate(793.9,684.3)" stroke="none" fill="black" font-family="Helvetica" font-size="12.00"  text-anchor="middle">
		<text><tspan font-family="Helvetica" > 97.08</tspan></text>
	</g>
</g>
<g fill="none" color="black" stroke="currentColor" stroke-width="1.00" stroke-linecap="butt" stroke-linejoin="miter">
	<path stroke='black'  d='M926.4,662.4 L926.4,653.4  '/>	<g transform="translate(926.4,684.3)" stroke="none" fill="black" font-family="Helvetica" font-size="12.00"  text-anchor="middle">
		<text><tspan font-family="Helvetica" > 97.1</tspan></text>
	</g>
</g>
<g fill="none" color="black" stroke="currentColor" stroke-width="1.00" stroke-linecap="butt" stroke-linejoin="miter">
</g>
<g fill="none" color="black" stroke="currentColor" stroke-width="1.00" stroke-linecap="butt" stroke-linejoin="miter">
	<path stroke='black'  d='M63.6,54.1 L63.6,662.4 L1013.6,662.4 L1013.6,54.1 L63.6,54.1 Z  '/></g>
<g fill="none" color="black" stroke="currentColor" stroke-width="1.00" stroke-linecap="butt" stroke-linejoin="miter">
	<g transform="translate(16.3,358.3) rotate(270)" stroke="none" fill="black" font-family="Helvetica" font-size="12.00"  text-anchor="middle">
		<text><tspan font-family="Helvetica" >Density (a.u.)</tspan></text>
	</g>
</g>
<g fill="none" color="black" stroke="currentColor" stroke-width="1.00" stroke-linecap="butt" stroke-linejoin="miter">
	<g transform="translate(538.6,711.3)" stroke="none" fill="black" font-family="Helvetica" font-size="12.00"  text-anchor="middle">
		<text><tspan font-family="Helvetica" >Average time (us)</tspan></text>
	</g>
</g>
<g fill="none" color="black" stroke="currentColor" stroke-width="1.00" stroke-linecap="butt" stroke-linejoin="miter">
	<g transform="translate(538.6,31.0)" stroke="none" fill="black" font-family="Helvetica" font-size="12.00"  text-anchor="middle">
		<text><tspan font-family="Helvetica" >snapshot_restore_with_dense/Dense: Dirty pages + /proc/pid/mem/46: median</tspan></text>
	</g>
</g>
	<g id="gnuplot_plot_1" ><title>Bootstrap distribution</title>
<g fill="none" color="white" stroke="black" stroke-width="2.00" stroke-linecap="butt" stroke-linejoin="miter">
</g>
<g fill="none" color="black" stroke="currentColor" stroke-width="2.00" stroke-linecap="butt" stroke-linejoin="miter">
	<g transform="translate(1089.0,67.0)" stroke="none" fill="black" font-family="Helvetica" font-size="12.00"  text-anchor="start">
		<text><tspan font-family="Helvetica" >Bootstrap distribution</tspan></text>
	</g>
</g>
<g fill="none" color="black" stroke="currentColor" stroke-width="2.00" stroke-linecap="butt" stroke-linejoin="miter">
	<path stroke='rgb( 31, 120, 180)'  d='M1038.5,63.1 L1080.7,63.1 M63.6,655.5 L65.5,655.4 L67.4,655.3 L69.3,655.2 L71.2,655.1 L73.1,654.9
		L75.0,654.7 L76.9,654.5 L78.8,654.3 L80.7,654.0 L82.6,653.7 L84.5,653.4 L86.4,653.0 L88.3,652.5
		L90.3,651.9 L92.2,651.3 L94.1,650.5 L96.0,649.6 L97.9,648.7 L99.8,647.6 L101.7,646.3 L103.6,644.9
		L105.5,643.3 L107.4,641.6 L109.3,639.7 L111.2,637.6 L113.1,635.4 L115.0,633.0 L116.9,630.4 L118.8,627.7
		L120.7,624.9 L122.6,622.0 L124.5,619.0 L126.4,616.0 L128.3,613.0 L130.2,610.0 L132.1,607.1 L134.0,604.2
		L135.9,601.5 L137.8,599.0 L139.8,596.6 L141.7,594.5 L143.6,592.5 L145.5,590.8 L147.4,589.4 L149.3,588.1
		L151.2,587.1 L153.1,586.4 L155.0,585.8 L156.9,585.5 L158.8,585.3 L160.7,585.4 L162.6,585.5 L164.5,585.8
		L166.4,586.2 L168.3,586.7 L170.2,587.2 L172.1,587.9 L174.0,588.5 L175.9,589.3 L177.8,590.0 L179.7,590.8
		L181.6,591.6 L183.5,592.4 L185.4,593.3 L187.3,594.1 L189.3,595.0 L191.2,595.8 L193.1,596.7 L195.0,597.6
		L196.9,598.4 L198.8,599.2 L200.7,600.1 L202.6,600.8 L204.5,601.5 L206.4,602.2 L208.3,602.7 L210.2,603.2
		L212.1,603.6 L214.0,603.8 L215.9,603.9 L217.8,603.8 L219.7,603.6 L221.6,603.2 L223.5,602.7 L225.4,602.0
		L227.3,601.2 L229.2,600.3 L231.1,599.3 L233.0,598.2 L234.9,597.1 L236.8,595.9 L238.8,594.7 L240.7,593.5
		L242.6,592.4 L244.5,591.2 L246.4,590.0 L248.3,588.7 L250.2,587.3 L252.1,585.7 L254.0,583.9 L255.9,581.7
		L257.8,579.1 L259.7,576.0 L261.6,572.3 L263.5,567.9 L265.4,562.8 L267.3,556.7 L269.2,549.8 L271.1,542.0
		L273.0,533.2 L274.9,523.5 L276.8,512.9 L278.7,501.5 L280.6,489.3 L282.5,476.4 L284.4,463.0 L286.3,449.1
		L288.2,434.9 L290.2,420.5 L292.1,406.0 L294.0,391.4 L295.9,376.8 L297.8,362.3 L299.7,347.9 L301.6,333.7
		L303.5,319.6 L305.4,305.6 L307.3,291.7 L309.2,277.9 L311.1,264.1 L313.0,250.3 L314.9,236.5 L316.8,222.7
		L318.7,209.0 L320.6,195.4 L322.5,182.1 L324.4,169.1 L326.3,156.7 L328.2,145.0 L330.1,134.3 L332.0,124.8
		L333.9,116.8 L335.8,110.5 L337.7,106.3 L339.7,104.2 L341.6,104.7 L343.5,107.7 L345.4,113.4 L347.3,122.0
		L349.2,133.3 L351.1,147.4 L353.0,164.1 L354.9,183.1 L356.8,204.4 L358.7,227.5 L360.6,252.2 L362.5,278.1
		L364.4,304.7 L366.3,331.8 L368.2,358.9 L370.1,385.6 L372.0,411.6 L373.9,436.6 L375.8,460.3 L377.7,482.5
		L379.6,502.9 L381.5,521.5 L383.4,538.0 L385.3,552.4 L387.2,564.7 L389.2,574.9 L391.1,583.0 L393.0,589.0
		L394.9,593.0 L396.8,595.0 L398.7,595.3 L400.6,593.9 L402.5,591.0 L404.4,586.7 L406.3,581.1 L408.2,574.4
		L410.1,566.9 L412.0,558.8 L413.9,550.2 L415.8,541.3 L417.7,532.5 L419.6,524.0 L421.5,516.0 L423.4,508.6
		L425.3,502.2 L427.2,496.9 L429.1,492.8 L431.0,490.0 L432.9,488.7 L434.8,488.9 L436.7,490.6 L438.7,493.6
		L440.6,498.0 L442.5,503.6 L444.4,510.2 L446.3,517.6 L448.2,525.6 L450.1,534.0 L452.0,542.6 L453.9,551.0
		L455.8,559.1 L457.7,566.7 L459.6,573.5 L461.5,579.3 L463.4,583.9 L465.3,587.2 L467.2,589.0 L469.1,589.1
		L471.0,587.5 L472.9,584.0 L474.8,578.6 L476.7,571.3 L478.6,562.0 L480.5,550.8 L482.4,537.6 L484.3,522.7
		L486.2,506.2 L488.1,488.3 L490.1,469.2 L492.0,449.2 L493.9,428.8 L495.8,408.2 L497.7,387.9 L499.6,368.4
		L501.5,350.0 L503.4,333.1 L505.3,318.2 L507.2,305.6 L509.1,295.5 L511.0,288.1 L512.9,283.6 L514.8,282.0
		L516.7,283.1 L518.6,286.9 L520.5,293.1 L522.4,301.4 L524.3,311.4 L526.2,322.9 L528.1,335.3 L530.0,348.3
		L531.9,361.5 L533.8,374.6 L535.7,387.3 L537.6,399.2 L539.6,410.4 L541.5,420.6 L543.4,429.7 L545.3,437.7
		L547.2,444.8 L549.1,450.8 L551.0,455.8 L552.9,460.1 L554.8,463.5 L556.7,466.1 L558.6,468.1 L560.5,469.4
		L562.4,470.0 L564.3,470.0 L566.2,469.2 L568.1,467.7 L570.0,465.5 L571.9,462.6 L573.8,458.9 L575.7,454.6
		L577.6,449.7 L579.5,444.3 L581.4,438.6 L583.3,432.7 L585.2,426.9 L587.1,421.4 L589.1,416.4 L591.0,412.1
		L592.9,408.8 L594.8,406.6 L596.7,405.8 L598.6,406.4 L600.5,408.5 L602.4,412.2 L604.3,417.5 L606.2,424.2
		L608.1,432.3 L610.0,441.7 L611.9,452.0 L613.8,463.2 L615.7,475.0 L617.6,487.1 L619.5,499.3 L621.4,511.4
		L623.3,523.2 L625.2,534.4 L627.1,544.9 L629.0,554.7 L630.9,563.4 L632.8,571.2 L634.7,578.0 L636.6,583.7
		L638.5,588.4 L640.5,592.1 L642.4,595.0 L644.3,597.2 L646.2,598.6 L648.1,599.6 L650.0,600.1 L651.9,600.4
		L653.8,600.5 L655.7,600.5 L657.6,600.6 L659.5,600.8 L661.4,601.2 L663.3,601.8 L665.2,602.6 L667.1,603.7
		L669.0,605.1 L670.9,606.6 L672.8,608.3 L674.7,610.1 L676.6,611.9 L678.5,613.7 L680.4,615.4 L682.3,617.0
		L684.2,618.3 L686.1,619.4 L688.0,620.2 L690.0,620.6 L691.9,620.8 L693.8,620.6 L695.7,620.1 L697.6,619.4
		L699.5,618.5 L701.4,617.5 L703.3,616.4 L705.2,615.3 L707.1,614.2 L709.0,613.3 L710.9,612.5 L712.8,612.0
		L714.7,611.7 L716.6,611.7 L718.5,612.0 L720.4,612.5 L722.3,613.3 L724.2,614.4 L726.1,615.6 L728.0,617.0
		L729.9,618.5 L731.8,620.0 L733.7,621.4 L735.6,622.8 L737.5,624.1 L739.5,625.2 L741.4,626.1 L743.3,626.8
		L745.2,627.2 L747.1,627.5 L749.0,627.5 L750.9,627.4 L752.8,627.1 L754.7,626.7 L756.6,626.2 L758.5,625.8
		L760.4,625.3 L762.3,624.9 L764.2,624.6 L766.1,624.5 L768.0,624.5 L769.9,624.6 L771.8,624.9 L773.7,625.4
		L775.6,626.0 L777.5,626.7 L779.4,627.5 L781.3,628.3 L783.2,629.1 L785.1,629.9 L787.0,630.6 L789.0,631.2
		L790.9,631.6 L792.8,631.9 L794.7,632.0 L796.6,632.0 L798.5,631.7 L800.4,631.3 L802.3,630.8 L804.2,630.2
		L806.1,629.5 L808.0,628.7 L809.9,628.0 L811.8,627.2 L813.7,626.6 L815.6,626.0 L817.5,625.6 L819.4,625.3
		L821.3,625.2 L823.2,625.2 L825.1,625.3 L827.0,625.6 L828.9,625.9 L830.8,626.4 L832.7,626.9 L834.6,627.4
		L836.5,628.0 L838.4,628.5 L840.4,628.9 L842.3,629.3 L844.2,629.6 L846.1,629.8 L848.0,629.9 L849.9,629.9
		L851.8,629.8 L853.7,629.7 L855.6,629.5 L857.5,629.3 L859.4,629.0 L861.3,628.8 L863.2,628.6 L865.1,628.3
		L867.0,628.1 L868.9,627.9 L870.8,627.7 L872.7,627.5 L874.6,627.3 L876.5,627.0 L878.4,626.7 L880.3,626.3
		L882.2,625.7 L884.1,625.1 L886.0,624.3 L887.9,623.4 L889.9,622.3 L891.8,621.1 L893.7,619.8 L895.6,618.3
		L897.5,616.6 L899.4,614.9 L901.3,613.1 L903.2,611.2 L905.1,609.3 L907.0,607.4 L908.9,605.5 L910.8,603.7
		L912.7,602.1 L914.6,600.5 L916.5,599.1 L918.4,597.9 L920.3,597.0 L922.2,596.2 L924.1,595.8 L926.0,595.6
		L927.9,595.7 L929.8,596.1 L931.7,596.7 L933.6,597.7 L935.5,598.9 L937.4,600.3 L939.4,602.0 L941.3,603.9
		L943.2,606.0 L945.1,608.2 L947.0,610.5 L948.9,612.9 L950.8,615.4 L952.7,617.9 L954.6,620.5 L956.5,623.0
		L958.4,625.4 L960.3,627.8 L962.2,630.1 L964.1,632.4 L966.0,634.5 L967.9,636.5 L969.8,638.5 L971.7,640.3
		L973.6,642.0 L975.5,643.6 L977.4,645.0 L979.3,646.4 L981.2,647.7 L983.1,648.8 L985.0,649.9 L986.9,650.9
		L988.9,651.8 L990.8,652.6 L992.7,653.4 L994.6,654.0 L996.5,654.6 L998.4,655.2 L1000.3,655.7 L1002.2,656.2
		L1004.1,656.6 L1006.0,657.0 L1007.9,657.3 L1009.8,657.7 L1011.7,658.0 L1013.6,658.3  '/></g>
	</g>
	<g id="gnuplot_plot_2" ><title>Confidence interval</title>
<g fill="none" color="white" stroke="rgb( 31, 120, 180)" stroke-width="1.00" stroke-linecap="butt" stroke-linejoin="miter">
</g>
<g fill="none" color="black" stroke="currentColor" stroke-width="1.00" stroke-linecap="butt" stroke-linejoin="miter">
	<g transform="translate(1089.0,85.0)" stroke="none" fill="black" font-family="Helvetica" font-size="12.00"  text-anchor="start">
		<text><tspan font-family="Helvetica" >Confidence interval</tspan></text>
	</g>
</g>
<g fill="none" color="black" stroke="currentColor" stroke-width="1.00" stroke-linecap="butt" stroke-linejoin="miter">
	<g stroke='none' shape-rendering='crispEdges'>
		<polygon fill = 'rgb( 31, 120, 180)' fill-opacity = '0.250000' points = '1038.5,85.6 1080.7,85.6 1080.7,76.6 1038.5,76.6 '/>
		<polygon fill = 'rgb( 31, 120, 180)' fill-opacity = '0.250000' points = '151.2,587.1 153.1,586.4 155.0,585.8 156.9,585.5 158.8,585.3 160.7,585.4 162.6,585.5 164.5,585.8 166.4,586.2 168.3,586.7 170.2,587.2 172.1,587.9 174.0,588.5 175.9,589.3 177.8,590.0 179.7,590.8
181.6,591.6 183.5,592.4 185.4,593.3 187.3,594.1 189.3,595.0 191.2,595.8 193.1,596.7 195.0,597.6 196.9,598.4 198.8,599.2 200.7,600.1 202.6,600.8 204.5,601.5 206.4,602.2 208.3,602.7 210.2,603.2
212.1,603.6 214.0,603.8 215.9,603.9 217.8,603.8 219.7,603.6 221.6,603.2 223.5,602.7 225.4,602.0 227.3,601.2 229.2,600.3 231.1,599.3 233.0,598.2 234.9,597.1 236.8,595.9 238.8,594.7 240.7,593.5
242.6,592.4 244.5,591.2 246.4,590.0 248.3,588.7 250.2,587.3 252.1,585.7 254.0,583.9 255.9,581.7 257.8,579.1 259.7,576.0 261.6,572.3 263.5,567.9 265.4,562.8 267.3,556.7 269.2,549.8 271.1,542.0
273.0,533.2 274.9,523.5 276.8,512.9 278.7,501.5 280.6,489.3 282.5,476.4 284.4,463.0 286.3,449.1 288.2,434.9 290.2,420.5 292.1,406.0 294.0,391.4 295.9,376.8 297.8,362.3 299.7,347.9 301.6,333.7
303.5,319.6 305.4,305.6 307.3,291.7 309.2,277.9 311.1,264.1 313.0,250.3 314.9,236.5 316.8,222.7 318.7,209.0 320.6,195.4 322.5,182.1 324.4,169.1 326.3,156.7 328.2,145.0 330.1,134.3 332.0,124.8
333.9,116.8 335.8,110.5 337.7,106.3 339.7,104.2 341.6,104.7 343.5,107.7 345.4,113.4 347.3,122.0 349.2,133.3 351.1,147.4 353.0,164.1 354.9,183.1 356.8,204.4 358.7,227.5 360.6,252.2 362.5,278.1
364.4,304.7 366.3,331.8 368.2,358.9 370.1,385.6 372.0,411.6 373.9,436.6 375.8,460.3 377.7,482.5 379.6,502.9 381.5,521.5 383.4,538.0 385.3,552.4 387.2,564.7 389.2,574.9 391.1,583.0 393.0,589.0
394.9,593.0 396.8,595.0 398.7,595.3 400.6,593.9 402.5,591.0 404.4,586.7 406.3,581.1 408.2,574.4 410.1,566.9 412.0,558.8 413.9,550.2 415.8,541.3 417.7,532.5 419.6,524.0 421.5,516.0 423.4,508.6
425.3,502.2 427.2,496.9 429.1,492.8 431.0,490.0 432.9,488.7 434.8,488.9 436.7,490.6 438.7,493.6 440.6,498.0 442.5,503.6 444.4,510.2 446.3,517.6 448.2,525.6 450.1,534.0 452.0,542.6 453.9,551.0
455.8,559.1 457.7,566.7 459.6,573.5 461.5,579.3 463.4,583.9 465.3,587.2 467.2,589.0 469.1,589.1 471.0,587.5 472.9,584.0 474.8,578.6 476.7,571.3 478.6,562.0 480.5,550.8 482.4,537.6 484.3,522.7
486.2,506.2 488.1,488.3 490.1,469.2 492.0,449.2 493.9,428.8 495.8,408.2 497.7,387.9 499.6,368.4 501.5,350.0 503.4,333.1 505.3,318.2 507.2,305.6 509.1,295.5 511.0,288.1 512.9,283.6 514.8,282.0
516.7,283.1 518.6,286.9 520.5,293.1 522.4,301.4 524.3,311.4 526.2,322.9 528.1,335.3 530.0,348.3 531.9,361.5 533.8,374.6 535.7,387.3 537.6,399.2 539.6,410.4 541.5,420.6 543.4,429.7 545.3,437.7
547.2,444.8 549.1,450.8 551.0,455.8 552.9,460.1 554.8,463.5 556.7,466.1 558.6,468.1 560.5,469.4 562.4,470.0 564.3,470.0 566.2,469.2 568.1,467.7 570.0,465.5 571.9,462.6 573.8,458.9 575.7,454.6
577.6,449.7 579.5,444.3 581.4,438.6 583.3,432.7 585.2,426.9 587.1,421.4 589.1,416.4 591.0,412.1 592.9,408.8 594.8,406.6 596.7,405.8 598.6,406.4 600.5,408.5 602.4,412.2 604.3,417.5 606.2,424.2
608.1,432.3 610.0,441.7 611.9,452.0 613.8,463.2 615.7,475.0 617.6,487.1 619.5,499.3 621.4,511.4 623.3,523.2 625.2,534.4 627.1,544.9 629.0,554.7 630.9,563.4 632.8,571.2 634.7,578.0 636.6,583.7
638.5,588.4 640.5,592.1 642.4,595.0 644.3,597.2 646.2,598.6 648.1,599.6 650.0,600.1 651.9,600.4 653.8,600.5 655.7,600.5 657.6,600.6 659.5,600.8 661.4,601.2 663.3,601.8 665.2,602.6 667.1,603.7
669.0,605.1 670.9,606.6 672.8,608.3 674.7,610.1 676.6,611.9 678.5,613.7 680.4,615.4 682.3,617.0 684.2,618.3 686.1,619.4 688.0,620.2 690.0,620.6 691.9,620.8 693.8,620.6 695.7,620.1 697.6,619.4
699.5,618.5 701.4,617.5 703.3,616.4 705.2,615.3 707.1,614.2 709.0,613.3 710.9,612.5 712.8,612.0 714.7,611.7 716.6,611.7 718.5,612.0 720.4,612.5 722.3,613.3 724.2,614.4 726.1,615.6 728.0,617.0
729.9,618.5 731.8,620.0 733.7,621.4 735.6,622.8 737.5,624.1 739.5,625.2 741.4,626.1 743.3,626.8 745.2,627.2 747.1,627.5 749.0,627.5 750.9,627.4 752.8,627.1 754.7,626.7 756.6,626.2 758.5,625.8
760.4,625.3 762.3,624.9 764.2,624.6 766.1,624.5 768.0,624.5 769.9,624.6 771.8,624.9 773.7,625.4 775.6,626.0 777.5,626.7 779.4,627.5 781.3,628.3 783.2,629.1 785.1,629.9 787.0,630.6 789.0,631.2
790.9,631.6 792.8,631.9 794.7,632.0 796.6,632.0 798.5,631.7 800.4,631.3 802.3,630.8 804.2,630.2 806.1,629.5 808.0,628.7 809.9,628.0 811.8,627.2 813.7,626.6 815.6,626.0 817.5,625.6 819.4,625.3
821.3,625.2 823.2,625.2 825.1,625.3 827.0,625.6 828.9,625.9 830.8,626.4 832.7,626.9 834.6,627.4 836.5,628.0 838.4,628.5 840.4,628.9 842.3,629.3 844.2,629.6 846.1,629.8 848.0,629.9 849.9,629.9
851.8,629.8 853.7,629.7 855.6,629.5 857.5,629.3 859.4,629.0 861.3,628.8 863.2,628.6 865.1,628.3 867.0,628.1 868.9,627.9 870.8,627.7 872.7,627.5 874.6,627.3 876.5,627.0 878.4,626.7 880.3,626.3
882.2,625.7 884.1,625.1 886.0,624.3 887.9,623.4 889.9,622.3 891.8,621.1 893.7,619.8 895.6,618.3 897.5,616.6 899.4,614.9 901.3,613.1 903.2,611.2 905.1,609.3 907.0,607.4 908.9,605.5 910.8,603.7
912.7,602.1 914.6,600.5 916.5,599.1 918.4,597.9 920.3,597.0 922.2,596.2 924.1,595.8 924.1,662.4 922.2,662.4 920.3,662.4 918.4,662.4 916.5,662.4 914.6,662.4 912.7,662.4 910.8,662.4 908.9,662.4
907.0,662.4 905.1,662.4 903.2,662.4 901.3,662.4 899.4,662.4 897.5,662.4 895.6,662.4 893.7,662.4 891.8,662.4 889.9,662.4 887.9,662.4 886.0,662.4 884.1,662.4 882.2,662.4 880.3,662.4 878.4,662.4
876.5,662.4 874.6,662.4 872.7,662.4 870.8,662.4 868.9,662.4 867.0,662.4 865.1,662.4 863.2,662.4 861.3,662.4 859.4,662.4 857.5,662.4 855.6,662.4 853.7,662.4 851.8,662.4 849.9,662.4 848.0,662.4
846.1,662.4 844.2,662.4 842.3,662.4 840.4,662.4 838.4,662.4 836.5,662.4 834.6,662.4 832.7,662.4 830.8,662.4 828.9,662.4 827.0,662.4 825.1,662.4 823.2,662.4 821.3,662.4 819.4,662.4 817.5,662.4
815.6,662.4 813.7,662.4 811.8,662.4 809.9,662.4 808.0,662.4 806.1,662.4 804.2,662.4 802.3,662.4 800.4,662.4 798.5,662.4 796.6,662.4 794.7,662.4 792.8,662.4 790.9,662.4 789.0,662.4 787.0,662.4
785.1,662.4 783.2,662.4 781.3,662.4 779.4,662.4 777.5,662.4 775.6,662.4 773.7,662.4 771.8,662.4 769.9,662.4 768.0,662.4 766.1,662.4 764.2,662.4 762.3,662.4 760.4,662.4 758.5,662.4 756.6,662.4
754.7,662.4 752.8,662.4 750.9,662.4 749.0,662.4 747.1,662.4 745.2,662.4 743.3,662.4 741.4,662.4 739.5,662.4 737.5,662.4 735.6,662.4 733.7,662.4 731.8,662.4 729.9,662.4 728.0,662.4 726.1,662.4
724.2,662.4 722.3,662.4 720.4,662.4 718.5,662.4 716.6,662.4 714.7,662.4 712.8,662.4 710.9,662.4 709.0,662.4 707.1,662.4 705.2,662.4 703.3,662.4 701.4,662.4 699.5,662.4 697.6,662.4 695.7,662.4
693.8,662.4 691.9,662.4 690.0,662.4 688.0,662.4 686.1,662.4 684.2,662.4 682.3,662.4 680.4,662.4 678.5,662.4 676.6,662.4 674.7,662.4 672.8,662.4 670.9,662.4 669.0,662.4 667.1,662.4 665.2,662.4
663.3,662.4 661.4,662.4 659.5,662.4 657.6,662.4 655.7,662.4 653.8,662.4 651.9,662.4 650.0,662.4 648.1,662.4 646.2,662.4 644.3,662.4 642.4,662.4 640.5,662.4 638.5,662.4 636.6,662.4 634.7,662.4
632.8,662.4 630.9,662.4 629.0,662.4 627.1,662.4 625.2,662.4 623.3,662.4 621.4,662.4 619.5,662.4 617.6,662.4 615.7,662.4 613.8,662.4 611.9,662.4 610.0,662.4 608.1,662.4 606.2,662.4 604.3,662.4
602.4,662.4 600.5,662.4 598.6,662.4 596.7,662.4 594.8,662.4 592.9,662.4 591.0,662.4 589.1,662.4 587.1,662.4 585.2,662.4 583.3,662.4 581.4,662.4 579.5,662.4 577.6,662.4 575.7,662.4 573.8,662.4
571.9,662.4 570.0,662.4 568.1,662.4 566.2,662.4 564.3,662.4 562.4,662.4 560.5,662.4 558.6,662.4 556.7,662.4 554.8,662.4 552.9,662.4 551.0,662.4 549.1,662.4 547.2,662.4 545.3,662.4 543.4,662.4
541.5,662.4 539.6,662.4 537.6,662.4 535.7,662.4 533.8,662.4 531.9,662.4 530.0,662.4 528.1,662.4 526.2,662.4 524.3,662.4 522.4,662.4 520.5,662.4 518.6,662.4 516.7,662.4 514.8,662.4 512.9,662.4
511.0,662.4 509.1,662.4 507.2,662.4 505.3,662.4 503.4,662.4 501.5,662.4 499.6,662.4 497.7,662.4 495.8,662.4 493.9,662.4 492.0,662.4 490.1,662.4 488.1,662.4 486.2,662.4 484.3,662.4 482.4,662.4
480.5,662.4 478.6,662.4 476.7,662.4 474.8,662.4 472.9,662.4 471.0,662.4 469.1,662.4 467.2,662.4 465.3,662.4 463.4,662.4 461.5,662.4 459.6,662.4 457.7,662.4 455.8,662.4 453.9,662.4 452.0,662.4
450.1,662.4 448.2,662.4 446.3,662.4 444.4,662.4 442.5,662.4 440.6,662.4 438.7,662.4 436.7,662.4 434.8,662.4 432.9,662.4 431.0,662.4 429.1,662.4 427.2,662.4 425.3,662.4 423.4,662.4 421.5,662.4
419.6,662.4 417.7,662.4 415.8,662.4 413.9,662.4 412.0,662.4 410.1,662.4 408.2,662.4 406.3,662.4 404.4,662.4 402.5,662.4 400.6,662.4 398.7,662.4 396.8,662.4 394.9,662.4 393.0,662.4 391.1,662.4
389.2,662.4 387.2,662.4 385.3,662.4 383.4,662.4 381.5,662.4 379.6,662.4 377.7,662.4 375.8,662.4 373.9,662.4 372.0,662.4 370.1,662.4 368.2,662.4 366.3,662.4 364.4,662.4 362.5,662.4 360.6,662.4
358.7,662.4 356.8,662.4 354.9,662.4 353.0,662.4 351.1,662.4 349.2,662.4 347.3,662.4 345.4,662.4 343.5,662.4 341.6,662.4 339.7,662.4 337.7,662.4 335.8,662.4 333.9,662.4 332.0,662.4 330.1,662.4
328.2,662.4 326.3,662.4 324.4,662.4 322.5,662.4 320.6,662.4 318.7,662.4 316.8,662.4 314.9,662.4 313.0,662.4 311.1,662.4 309.2,662.4 307.3,662.4 305.4,662.4 303.5,662.4 301.6,662.4 299.7,662.4
297.8,662.4 295.9,662.4 294.0,662.4 292.1,662.4 290.2,662.4 288.2,662.4 286.3,662.4 284.4,662.4 282.5,662.4 280.6,662.4 278.7,662.4 276.8,662.4 274.9,662.4 273.0,662.4 271.1,662.4 269.2,662.4
267.3,662.4 265.4,662.4 263.5,662.4 261.6,662.4 259.7,662.4 257.8,662.4 255.9,662.4 254.0,662.4 252.1,662.4 250.2,662.4 248.3,662.4 246.4,662.4 244.5,662.4 242.6,662.4 240.7,662.4 238.8,662.4
236.8,662.4 234.9,662.4 233.0,662.4 231.1,662.4 229.2,662.4 227.3,662.4 225.4,662.4 223.5,662.4 221.6,662.4 219.7,662.4 217.8,662.4 215.9,662.4 214.0,662.4 212.1,662.4 210.2,662.4 208.3,662.4
206.4,662.4 204.5,662.4 202.6,662.4 200.7,662.4 198.8,662.4 196.9,662.4 195.0,662.4 193.1,662.4 191.2,662.4 189.3,662.4 187.3,662.4 185.4,662.4 183.5,662.4 181.6,662.4 179.7,662.4 177.8,662.4
175.9,662.4 174.0,662.4 172.1,662.4 170.2,662.4 168.3,662.4 166.4,662.4 164.5,662.4 162.6,662.4 160.7,662.4 158.8,662.4 156.9,662.4 155.0,662.4 153.1,662.4 151.2,662.4 '/>
	</g>
</g>
	</g>
	<g id="gnuplot_plot_3" ><title>Point estimate</title>
<g fill="none" color="white" stroke="rgb( 31, 120, 180)" stroke-width="2.00" stroke-linecap="butt" stroke-linejoin="miter">
</g>
<g fill="none" color="black" stroke="currentColor" stroke-width="2.00" stroke-linecap="butt" stroke-linejoin="miter">
	<g transform="translate(1089.0,103.0)" stroke="none" fill="black" font-family="Helvetica" font-size="12.00"  text-anchor="start">
		<text><tspan font-family="Helvetica" >Point estimate</tspan></text>
	</g>
</g>
<g fill="none" color="black" stroke="currentColor" stroke-width="2.00" stroke-linecap="butt" stroke-linejoin="miter">
	<path stroke='rgb( 31, 120, 180)'  d='M1038.5,99.1 L1080.7,99.1 M435.3,662.4 L435.3,489.3  '/></g>
	</g>
<g fill="none" color="black" stroke="currentColor" stroke-width="2.00" stroke-linecap="butt" stroke-linejoin="miter">
</g>
<g fill="none" color="black" stroke="black" stroke-width="1.00" stroke-linecap="butt" stroke-linejoin="miter">
</g>
<g fill="none" color="black" stroke="currentColor" stroke-width="1.00" stroke-linecap="butt" stroke-linejoin="miter">
	<path stroke='black'  d='M63.6,54.1 L63.6,662.4 L1013.6,662.4 L1013.6,54.1 L63.6,54.1 Z  '/></g>
<g fill="none" color="black" stroke="currentColor" stroke-width="1.00" stroke-linecap="butt" stroke-linejoin="miter">
</g>
</g>
</svg>

