<?xml version="1.0" encoding="utf-8"  standalone="no"?>
<svg 
 viewBox="0 0 1280 720"
 xmlns="http://www.w3.org/2000/svg"
 xmlns:xlink="http://www.w3.org/1999/xlink"
>

<title>Gnuplot</title>
<desc>Produced by GNUPLOT 5.2 patchlevel 6 </desc>

<g id="gnuplot_canvas">

<rect x="0" y="0" width="1280" height="720" fill="none"/>
<defs>

	<circle id='gpDot' r='0.5' stroke-width='0.5' stroke='currentColor'/>
	<path id='gpPt0' stroke-width='0.222' stroke='currentColor' d='M-1,0 h2 M0,-1 v2'/>
	<path id='gpPt1' stroke-width='0.222' stroke='currentColor' d='M-1,-1 L1,1 M1,-1 L-1,1'/>
	<path id='gpPt2' stroke-width='0.222' stroke='currentColor' d='M-1,0 L1,0 M0,-1 L0,1 M-1,-1 L1,1 M-1,1 L1,-1'/>
	<rect id='gpPt3' stroke-width='0.222' stroke='currentColor' x='-1' y='-1' width='2' height='2'/>
	<rect id='gpPt4' stroke-width='0.222' stroke='currentColor' fill='currentColor' x='-1' y='-1' width='2' height='2'/>
	<circle id='gpPt5' stroke-width='0.222' stroke='currentColor' cx='0' cy='0' r='1'/>
	<use xlink:href='#gpPt5' id='gpPt6' fill='currentColor' stroke='none'/>
	<path id='gpPt7' stroke-width='0.222' stroke='currentColor' d='M0,-1.33 L-1.33,0.67 L1.33,0.67 z'/>
	<use xlink:href='#gpPt7' id='gpPt8' fill='currentColor' stroke='none'/>
	<use xlink:href='#gpPt7' id='gpPt9' stroke='currentColor' transform='rotate(180)'/>
	<use xlink:href='#gpPt9' id='gpPt10' fill='currentColor' stroke='none'/>
	<use xlink:href='#gpPt3' id='gpPt11' stroke='currentColor' transform='rotate(45)'/>
	<use xlink:href='#gpPt11' id='gpPt12' fill='currentColor' stroke='none'/>
	<path id='gpPt13' stroke-width='0.222' stroke='currentColor' d='M0,1.330 L1.265,0.411 L0.782,-1.067 L-0.782,-1.076 L-1.265,0.411 z'/>
	<use xlink:href='#gpPt13' id='gpPt14' fill='currentColor' stroke='none'/>
	<filter id='textbox' filterUnits='objectBoundingBox' x='0' y='0' height='1' width='1'>
	  <feFlood flood-color='white' flood-opacity='1' result='bgnd'/>
	  <feComposite in='SourceGraphic' in2='bgnd' operator='atop'/>
	</filter>
	<filter id='greybox' filterUnits='objectBoundingBox' x='0' y='0' height='1' width='1'>
	  <feFlood flood-color='lightgrey' flood-opacity='1' result='grey'/>
	  <feComposite in='SourceGraphic' in2='grey' operator='atop'/>
	</filter>
</defs>
<g fill="none" color="white" stroke="currentColor" stroke-width="1.00" stroke-linecap="butt" stroke-linejoin="miter">
</g>
<g fill="none" color="black" stroke="currentColor" stroke-width="1.00" stroke-linecap="butt" stroke-linejoin="miter">
	<path stroke='black'  d='M71.9,662.4 L80.9,662.4  '/>	<g transform="translate(63.6,666.3)" stroke="none" fill="black" font-family="Helvetica" font-size="12.00"  text-anchor="end">
		<text><tspan font-family="Helvetica" > 0</tspan></text>
	</g>
</g>
<g fill="none" color="black" stroke="currentColor" stroke-width="1.00" stroke-linecap="butt" stroke-linejoin="miter">
	<path stroke='black'  d='M71.9,551.8 L80.9,551.8  '/>	<g transform="translate(63.6,555.7)" stroke="none" fill="black" font-family="Helvetica" font-size="12.00"  text-anchor="end">
		<text><tspan font-family="Helvetica" > 0.2</tspan></text>
	</g>
</g>
<g fill="none" color="black" stroke="currentColor" stroke-width="1.00" stroke-linecap="butt" stroke-linejoin="miter">
	<path stroke='black'  d='M71.9,441.2 L80.9,441.2  '/>	<g transform="translate(63.6,445.1)" stroke="none" fill="black" font-family="Helvetica" font-size="12.00"  text-anchor="end">
		<text><tspan font-family="Helvetica" > 0.4</tspan></text>
	</g>
</g>
<g fill="none" color="black" stroke="currentColor" stroke-width="1.00" stroke-linecap="butt" stroke-linejoin="miter">
	<path stroke='black'  d='M71.9,330.6 L80.9,330.6  '/>	<g transform="translate(63.6,334.5)" stroke="none" fill="black" font-family="Helvetica" font-size="12.00"  text-anchor="end">
		<text><tspan font-family="Helvetica" > 0.6</tspan></text>
	</g>
</g>
<g fill="none" color="black" stroke="currentColor" stroke-width="1.00" stroke-linecap="butt" stroke-linejoin="miter">
	<path stroke='black'  d='M71.9,220.0 L80.9,220.0  '/>	<g transform="translate(63.6,223.9)" stroke="none" fill="black" font-family="Helvetica" font-size="12.00"  text-anchor="end">
		<text><tspan font-family="Helvetica" > 0.8</tspan></text>
	</g>
</g>
<g fill="none" color="black" stroke="currentColor" stroke-width="1.00" stroke-linecap="butt" stroke-linejoin="miter">
	<path stroke='black'  d='M71.9,109.4 L80.9,109.4  '/>	<g transform="translate(63.6,113.3)" stroke="none" fill="black" font-family="Helvetica" font-size="12.00"  text-anchor="end">
		<text><tspan font-family="Helvetica" > 1</tspan></text>
	</g>
</g>
<g fill="none" color="black" stroke="currentColor" stroke-width="1.00" stroke-linecap="butt" stroke-linejoin="miter">
	<path stroke='black'  d='M128.3,662.4 L128.3,653.4  '/>	<g transform="translate(128.3,684.3)" stroke="none" fill="black" font-family="Helvetica" font-size="12.00"  text-anchor="middle">
		<text><tspan font-family="Helvetica" > 96</tspan></text>
	</g>
</g>
<g fill="none" color="black" stroke="currentColor" stroke-width="1.00" stroke-linecap="butt" stroke-linejoin="miter">
	<path stroke='black'  d='M291.5,662.4 L291.5,653.4  '/>	<g transform="translate(291.5,684.3)" stroke="none" fill="black" font-family="Helvetica" font-size="12.00"  text-anchor="middle">
		<text><tspan font-family="Helvetica" > 98</tspan></text>
	</g>
</g>
<g fill="none" color="black" stroke="currentColor" stroke-width="1.00" stroke-linecap="butt" stroke-linejoin="miter">
	<path stroke='black'  d='M454.8,662.4 L454.8,653.4  '/>	<g transform="translate(454.8,684.3)" stroke="none" fill="black" font-family="Helvetica" font-size="12.00"  text-anchor="middle">
		<text><tspan font-family="Helvetica" > 100</tspan></text>
	</g>
</g>
<g fill="none" color="black" stroke="currentColor" stroke-width="1.00" stroke-linecap="butt" stroke-linejoin="miter">
	<path stroke='black'  d='M618.0,662.4 L618.0,653.4  '/>	<g transform="translate(618.0,684.3)" stroke="none" fill="black" font-family="Helvetica" font-size="12.00"  text-anchor="middle">
		<text><tspan font-family="Helvetica" > 102</tspan></text>
	</g>
</g>
<g fill="none" color="black" stroke="currentColor" stroke-width="1.00" stroke-linecap="butt" stroke-linejoin="miter">
	<path stroke='black'  d='M781.2,662.4 L781.2,653.4  '/>	<g transform="translate(781.2,684.3)" stroke="none" fill="black" font-family="Helvetica" font-size="12.00"  text-anchor="middle">
		<text><tspan font-family="Helvetica" > 104</tspan></text>
	</g>
</g>
<g fill="none" color="black" stroke="currentColor" stroke-width="1.00" stroke-linecap="butt" stroke-linejoin="miter">
	<path stroke='black'  d='M944.4,662.4 L944.4,653.4  '/>	<g transform="translate(944.4,684.3)" stroke="none" fill="black" font-family="Helvetica" font-size="12.00"  text-anchor="middle">
		<text><tspan font-family="Helvetica" > 106</tspan></text>
	</g>
</g>
<g fill="none" color="black" stroke="currentColor" stroke-width="1.00" stroke-linecap="butt" stroke-linejoin="miter">
	<path stroke='black'  d='M1003.9,662.4 L994.9,662.4  '/>	<g transform="translate(1012.2,666.3)" stroke="none" fill="black" font-family="Helvetica" font-size="12.00"  text-anchor="start">
		<text><tspan font-family="Helvetica" > 0</tspan></text>
	</g>
</g>
<g fill="none" color="black" stroke="currentColor" stroke-width="1.00" stroke-linecap="butt" stroke-linejoin="miter">
	<path stroke='black'  d='M1003.9,586.4 L994.9,586.4  '/>	<g transform="translate(1012.2,590.3)" stroke="none" fill="black" font-family="Helvetica" font-size="12.00"  text-anchor="start">
		<text><tspan font-family="Helvetica" > 0.1</tspan></text>
	</g>
</g>
<g fill="none" color="black" stroke="currentColor" stroke-width="1.00" stroke-linecap="butt" stroke-linejoin="miter">
	<path stroke='black'  d='M1003.9,510.3 L994.9,510.3  '/>	<g transform="translate(1012.2,514.2)" stroke="none" fill="black" font-family="Helvetica" font-size="12.00"  text-anchor="start">
		<text><tspan font-family="Helvetica" > 0.2</tspan></text>
	</g>
</g>
<g fill="none" color="black" stroke="currentColor" stroke-width="1.00" stroke-linecap="butt" stroke-linejoin="miter">
	<path stroke='black'  d='M1003.9,434.3 L994.9,434.3  '/>	<g transform="translate(1012.2,438.2)" stroke="none" fill="black" font-family="Helvetica" font-size="12.00"  text-anchor="start">
		<text><tspan font-family="Helvetica" > 0.3</tspan></text>
	</g>
</g>
<g fill="none" color="black" stroke="currentColor" stroke-width="1.00" stroke-linecap="butt" stroke-linejoin="miter">
	<path stroke='black'  d='M1003.9,358.2 L994.9,358.2  '/>	<g transform="translate(1012.2,362.1)" stroke="none" fill="black" font-family="Helvetica" font-size="12.00"  text-anchor="start">
		<text><tspan font-family="Helvetica" > 0.4</tspan></text>
	</g>
</g>
<g fill="none" color="black" stroke="currentColor" stroke-width="1.00" stroke-linecap="butt" stroke-linejoin="miter">
	<path stroke='black'  d='M1003.9,282.2 L994.9,282.2  '/>	<g transform="translate(1012.2,286.1)" stroke="none" fill="black" font-family="Helvetica" font-size="12.00"  text-anchor="start">
		<text><tspan font-family="Helvetica" > 0.5</tspan></text>
	</g>
</g>
<g fill="none" color="black" stroke="currentColor" stroke-width="1.00" stroke-linecap="butt" stroke-linejoin="miter">
	<path stroke='black'  d='M1003.9,206.2 L994.9,206.2  '/>	<g transform="translate(1012.2,210.1)" stroke="none" fill="black" font-family="Helvetica" font-size="12.00"  text-anchor="start">
		<text><tspan font-family="Helvetica" > 0.6</tspan></text>
	</g>
</g>
<g fill="none" color="black" stroke="currentColor" stroke-width="1.00" stroke-linecap="butt" stroke-linejoin="miter">
	<path stroke='black'  d='M1003.9,130.1 L994.9,130.1  '/>	<g transform="translate(1012.2,134.0)" stroke="none" fill="black" font-family="Helvetica" font-size="12.00"  text-anchor="start">
		<text><tspan font-family="Helvetica" > 0.7</tspan></text>
	</g>
</g>
<g fill="none" color="black" stroke="currentColor" stroke-width="1.00" stroke-linecap="butt" stroke-linejoin="miter">
	<path stroke='black'  d='M1003.9,54.1 L994.9,54.1  '/>	<g transform="translate(1012.2,58.0)" stroke="none" fill="black" font-family="Helvetica" font-size="12.00"  text-anchor="start">
		<text><tspan font-family="Helvetica" > 0.8</tspan></text>
	</g>
</g>
<g fill="none" color="black" stroke="currentColor" stroke-width="1.00" stroke-linecap="butt" stroke-linejoin="miter">
</g>
<g fill="none" color="black" stroke="currentColor" stroke-width="1.00" stroke-linecap="butt" stroke-linejoin="miter">
	<path stroke='black'  d='M71.9,54.1 L71.9,662.4 L1003.9,662.4 L1003.9,54.1 L71.9,54.1 Z  '/></g>
<g fill="none" color="black" stroke="currentColor" stroke-width="1.00" stroke-linecap="butt" stroke-linejoin="miter">
	<g transform="translate(16.3,358.3) rotate(270)" stroke="none" fill="black" font-family="Helvetica" font-size="12.00"  text-anchor="middle">
		<text><tspan font-family="Helvetica" >Iterations (x 10</tspan><tspan font-family="Helvetica"  font-size="9.6" dy="-6.00px">3</tspan><tspan font-family="Helvetica"  font-size="12.0" dy="6.00px">)</tspan></text>
	</g>
</g>
<g fill="none" color="black" stroke="currentColor" stroke-width="1.00" stroke-linecap="butt" stroke-linejoin="miter">
	<g transform="translate(1074.2,358.3) rotate(270)" stroke="none" fill="black" font-family="Helvetica" font-size="12.00"  text-anchor="middle">
		<text><tspan font-family="Helvetica" >Density (a.u.)</tspan></text>
	</g>
</g>
<g fill="none" color="black" stroke="currentColor" stroke-width="1.00" stroke-linecap="butt" stroke-linejoin="miter">
	<g transform="translate(537.9,711.3)" stroke="none" fill="black" font-family="Helvetica" font-size="12.00"  text-anchor="middle">
		<text><tspan font-family="Helvetica" >Average time (us)</tspan></text>
	</g>
</g>
<g fill="none" color="black" stroke="currentColor" stroke-width="1.00" stroke-linecap="butt" stroke-linejoin="miter">
	<g transform="translate(537.9,31.0)" stroke="none" fill="black" font-family="Helvetica" font-size="12.00"  text-anchor="middle">
		<text><tspan font-family="Helvetica" >snapshot_restore_with_dense/Dense: Dirty pages + /proc/pid/mem/46</tspan></text>
	</g>
</g>
	<g id="gnuplot_plot_1" ><title>PDF</title>
<g fill="none" color="black" stroke="currentColor" stroke-width="1.00" stroke-linecap="butt" stroke-linejoin="miter">
	<g transform="translate(1147.1,67.0)" stroke="none" fill="black" font-family="Helvetica" font-size="12.00"  text-anchor="start">
		<text><tspan font-family="Helvetica" >PDF</tspan></text>
	</g>
</g>
<g fill="none" color="black" stroke="currentColor" stroke-width="1.00" stroke-linecap="butt" stroke-linejoin="miter">
	<g stroke='none' shape-rendering='crispEdges'>
		<polygon fill = 'rgb( 31, 120, 180)' fill-opacity = '0.250000' points = '1096.6,67.6 1138.8,67.6 1138.8,58.6 1096.6,58.6 '/>
		<polygon fill = 'rgb( 31, 120, 180)' fill-opacity = '0.250000' points = '71.9,660.9 73.8,660.7 75.6,660.4 77.5,660.0 79.4,659.6 81.2,659.2 83.1,658.7 85.0,658.1 86.8,657.5 88.7,656.7 90.6,655.9 92.4,654.9 94.3,653.8 96.2,652.6 98.0,651.3 99.9,649.8
101.8,648.1 103.7,646.2 105.5,644.2 107.4,641.9 109.3,639.3 111.1,636.5 113.0,633.4 114.9,630.1 116.7,626.4 118.6,622.3 120.5,618.0 122.3,613.2 124.2,608.1 126.1,602.5 127.9,596.5 129.8,590.1
131.7,583.2 133.5,575.9 135.4,568.0 137.3,559.7 139.1,550.8 141.0,541.5 142.9,531.7 144.7,521.3 146.6,510.5 148.5,499.1 150.3,487.3 152.2,475.0 154.1,462.3 155.9,449.2 157.8,435.6 159.7,421.8
161.6,407.6 163.4,393.1 165.3,378.4 167.2,363.5 169.0,348.5 170.9,333.4 172.8,318.3 174.6,303.3 176.5,288.3 178.4,273.6 180.2,259.0 182.1,244.9 184.0,231.0 185.8,217.7 187.7,204.8 189.6,192.6
191.4,181.0 193.3,170.1 195.2,159.9 197.0,150.6 198.9,142.2 200.8,134.6 202.6,128.1 204.5,122.5 206.4,117.9 208.2,114.4 210.1,111.9 212.0,110.6 213.8,110.3 215.7,111.0 217.6,112.8 219.5,115.7
221.3,119.6 223.2,124.5 225.1,130.3 226.9,137.1 228.8,144.8 230.7,153.3 232.5,162.6 234.4,172.6 236.3,183.3 238.1,194.6 240.0,206.5 241.9,218.8 243.7,231.6 245.6,244.7 247.5,258.2 249.3,271.8
251.2,285.7 253.1,299.7 254.9,313.7 256.8,327.7 258.7,341.7 260.5,355.6 262.4,369.4 264.3,382.9 266.1,396.3 268.0,409.4 269.9,422.2 271.7,434.7 273.6,446.8 275.5,458.6 277.4,470.0 279.2,481.1
281.1,491.7 283.0,501.9 284.8,511.7 286.7,521.0 288.6,530.0 290.4,538.5 292.3,546.6 294.2,554.4 296.0,561.7 297.9,568.6 299.8,575.1 301.6,581.3 303.5,587.1 305.4,592.6 307.2,597.7 309.1,602.6
311.0,607.1 312.8,611.3 314.7,615.3 316.6,619.0 318.4,622.4 320.3,625.6 322.2,628.6 324.0,631.4 325.9,633.9 327.8,636.3 329.6,638.5 331.5,640.6 333.4,642.5 335.3,644.2 337.1,645.8 339.0,647.3
340.9,648.7 342.7,649.9 344.6,651.1 346.5,652.1 348.3,653.1 350.2,654.0 352.1,654.8 353.9,655.5 355.8,656.2 357.7,656.8 359.5,657.4 361.4,657.9 363.3,658.3 365.1,658.8 367.0,659.1 368.9,659.5
370.7,659.7 372.6,660.0 374.5,660.2 376.3,660.5 378.2,660.6 380.1,660.8 381.9,660.9 383.8,661.0 385.7,661.1 387.5,661.2 389.4,661.3 391.3,661.3 393.2,661.3 395.0,661.3 396.9,661.3 398.8,661.3
400.6,661.3 402.5,661.3 404.4,661.2 406.2,661.1 408.1,661.1 410.0,661.0 411.8,660.9 413.7,660.8 415.6,660.7 417.4,660.5 419.3,660.4 421.2,660.3 423.0,660.1 424.9,659.9 426.8,659.8 428.6,659.6
430.5,659.4 432.4,659.2 434.2,659.0 436.1,658.8 438.0,658.6 439.8,658.4 441.7,658.2 443.6,657.9 445.4,657.7 447.3,657.5 449.2,657.3 451.1,657.0 452.9,656.8 454.8,656.5 456.7,656.3 458.5,656.1
460.4,655.8 462.3,655.6 464.1,655.4 466.0,655.2 467.9,655.0 469.7,654.8 471.6,654.5 473.5,654.4 475.3,654.2 477.2,654.0 479.1,653.8 480.9,653.6 482.8,653.5 484.7,653.4 486.5,653.2 488.4,653.1
490.3,653.0 492.1,652.9 494.0,652.8 495.9,652.7 497.7,652.6 499.6,652.6 501.5,652.5 503.3,652.5 505.2,652.5 507.1,652.5 509.0,652.5 510.8,652.5 512.7,652.5 514.6,652.5 516.4,652.6 518.3,652.6
520.2,652.7 522.0,652.8 523.9,652.9 525.8,653.0 527.6,653.1 529.5,653.2 531.4,653.4 533.2,653.5 535.1,653.7 537.0,653.8 538.8,654.0 540.7,654.2 542.6,654.4 544.4,654.6 546.3,654.8 548.2,655.0
550.0,655.2 551.9,655.4 553.8,655.6 555.6,655.9 557.5,656.1 559.4,656.3 561.2,656.5 563.1,656.8 565.0,657.0 566.8,657.2 568.7,657.5 570.6,657.7 572.5,657.9 574.3,658.1 576.2,658.3 578.1,658.5
579.9,658.7 581.8,658.9 583.7,659.1 585.5,659.3 587.4,659.4 589.3,659.6 591.1,659.7 593.0,659.9 594.9,660.0 596.7,660.1 598.6,660.2 600.5,660.3 602.3,660.4 604.2,660.4 606.1,660.5 607.9,660.5
609.8,660.5 611.7,660.6 613.5,660.6 615.4,660.5 617.3,660.5 619.1,660.5 621.0,660.4 622.9,660.4 624.7,660.3 626.6,660.2 628.5,660.1 630.4,660.0 632.2,659.9 634.1,659.8 636.0,659.7 637.8,659.5
639.7,659.4 641.6,659.2 643.4,659.1 645.3,658.9 647.2,658.7 649.0,658.6 650.9,658.4 652.8,658.2 654.6,658.1 656.5,657.9 658.4,657.7 660.2,657.5 662.1,657.4 664.0,657.2 665.8,657.1 667.7,656.9
669.6,656.8 671.4,656.7 673.3,656.6 675.2,656.5 677.0,656.4 678.9,656.3 680.8,656.2 682.6,656.2 684.5,656.1 686.4,656.1 688.3,656.1 690.1,656.1 692.0,656.1 693.9,656.1 695.7,656.2 697.6,656.2
699.5,656.3 701.3,656.4 703.2,656.5 705.1,656.6 706.9,656.7 708.8,656.8 710.7,657.0 712.5,657.1 714.4,657.3 716.3,657.4 718.1,657.6 720.0,657.8 721.9,657.9 723.7,658.1 725.6,658.3 727.5,658.5
729.3,658.7 731.2,658.8 733.1,659.0 734.9,659.2 736.8,659.4 738.7,659.6 740.5,659.7 742.4,659.9 744.3,660.0 746.2,660.2 748.0,660.3 749.9,660.5 751.8,660.6 753.6,660.8 755.5,660.9 757.4,661.0
759.2,661.1 761.1,661.2 763.0,661.3 764.8,661.4 766.7,661.5 768.6,661.5 770.4,661.6 772.3,661.7 774.2,661.7 776.0,661.7 777.9,661.8 779.8,661.8 781.6,661.8 783.5,661.9 785.4,661.9 787.2,661.9
789.1,661.9 791.0,661.9 792.8,661.9 794.7,661.8 796.6,661.8 798.4,661.8 800.3,661.7 802.2,661.7 804.1,661.6 805.9,661.6 807.8,661.5 809.7,661.4 811.5,661.3 813.4,661.3 815.3,661.2 817.1,661.1
819.0,660.9 820.9,660.8 822.7,660.7 824.6,660.6 826.5,660.4 828.3,660.3 830.2,660.1 832.1,660.0 833.9,659.8 835.8,659.7 837.7,659.5 839.5,659.3 841.4,659.1 843.3,659.0 845.1,658.8 847.0,658.6
848.9,658.4 850.7,658.2 852.6,658.1 854.5,657.9 856.3,657.7 858.2,657.5 860.1,657.4 862.0,657.2 863.8,657.1 865.7,656.9 867.6,656.8 869.4,656.6 871.3,656.5 873.2,656.4 875.0,656.3 876.9,656.3
878.8,656.2 880.6,656.1 882.5,656.1 884.4,656.1 886.2,656.1 888.1,656.1 890.0,656.1 891.8,656.1 893.7,656.2 895.6,656.2 897.4,656.3 899.3,656.4 901.2,656.5 903.0,656.6 904.9,656.7 906.8,656.9
908.6,657.0 910.5,657.2 912.4,657.3 914.2,657.5 916.1,657.6 918.0,657.8 919.9,658.0 921.7,658.2 923.6,658.4 925.5,658.5 927.3,658.7 929.2,658.9 931.1,659.1 932.9,659.3 934.8,659.4 936.7,659.6
938.5,659.8 940.4,659.9 942.3,660.1 944.1,660.3 946.0,660.4 947.9,660.5 949.7,660.7 951.6,660.8 953.5,660.9 955.3,661.1 957.2,661.2 959.1,661.3 960.9,661.4 962.8,661.5 964.7,661.5 966.5,661.6
968.4,661.7 970.3,661.8 972.1,661.8 974.0,661.9 975.9,661.9 977.8,662.0 979.6,662.0 981.5,662.1 983.4,662.1 985.2,662.1 987.1,662.2 989.0,662.2 990.8,662.2 992.7,662.2 994.6,662.3 996.4,662.3
998.3,662.3 1000.2,662.3 1002.0,662.3 1003.9,662.3 1003.9,662.4 1002.0,662.4 1000.2,662.4 998.3,662.4 996.4,662.4 994.6,662.4 992.7,662.4 990.8,662.4 989.0,662.4 987.1,662.4 985.2,662.4 983.4,662.4
981.5,662.4 979.6,662.4 977.8,662.4 975.9,662.4 974.0,662.4 972.1,662.4 970.3,662.4 968.4,662.4 966.5,662.4 964.7,662.4 962.8,662.4 960.9,662.4 959.1,662.4 957.2,662.4 955.3,662.4 953.5,662.4
951.6,662.4 949.7,662.4 947.9,662.4 946.0,662.4 944.1,662.4 942.3,662.4 940.4,662.4 938.5,662.4 936.7,662.4 934.8,662.4 932.9,662.4 931.1,662.4 929.2,662.4 927.3,662.4 925.5,662.4 923.6,662.4
921.7,662.4 919.9,662.4 918.0,662.4 916.1,662.4 914.2,662.4 912.4,662.4 910.5,662.4 908.6,662.4 906.8,662.4 904.9,662.4 903.0,662.4 901.2,662.4 899.3,662.4 897.4,662.4 895.6,662.4 893.7,662.4
891.8,662.4 890.0,662.4 888.1,662.4 886.2,662.4 884.4,662.4 882.5,662.4 880.6,662.4 878.8,662.4 876.9,662.4 875.0,662.4 873.2,662.4 871.3,662.4 869.4,662.4 867.6,662.4 865.7,662.4 863.8,662.4
862.0,662.4 860.1,662.4 858.2,662.4 856.3,662.4 854.5,662.4 852.6,662.4 850.7,662.4 848.9,662.4 847.0,662.4 845.1,662.4 843.3,662.4 841.4,662.4 839.5,662.4 837.7,662.4 835.8,662.4 833.9,662.4
832.1,662.4 830.2,662.4 828.3,662.4 826.5,662.4 824.6,662.4 822.7,662.4 820.9,662.4 819.0,662.4 817.1,662.4 815.3,662.4 813.4,662.4 811.5,662.4 809.7,662.4 807.8,662.4 805.9,662.4 804.1,662.4
802.2,662.4 800.3,662.4 798.4,662.4 796.6,662.4 794.7,662.4 792.8,662.4 791.0,662.4 789.1,662.4 787.2,662.4 785.4,662.4 783.5,662.4 781.6,662.4 779.8,662.4 777.9,662.4 776.0,662.4 774.2,662.4
772.3,662.4 770.4,662.4 768.6,662.4 766.7,662.4 764.8,662.4 763.0,662.4 761.1,662.4 759.2,662.4 757.4,662.4 755.5,662.4 753.6,662.4 751.8,662.4 749.9,662.4 748.0,662.4 746.2,662.4 744.3,662.4
742.4,662.4 740.5,662.4 738.7,662.4 736.8,662.4 734.9,662.4 733.1,662.4 731.2,662.4 729.3,662.4 727.5,662.4 725.6,662.4 723.7,662.4 721.9,662.4 720.0,662.4 718.1,662.4 716.3,662.4 714.4,662.4
712.5,662.4 710.7,662.4 708.8,662.4 706.9,662.4 705.1,662.4 703.2,662.4 701.3,662.4 699.5,662.4 697.6,662.4 695.7,662.4 693.9,662.4 692.0,662.4 690.1,662.4 688.3,662.4 686.4,662.4 684.5,662.4
682.6,662.4 680.8,662.4 678.9,662.4 677.0,662.4 675.2,662.4 673.3,662.4 671.4,662.4 669.6,662.4 667.7,662.4 665.8,662.4 664.0,662.4 662.1,662.4 660.2,662.4 658.4,662.4 656.5,662.4 654.6,662.4
652.8,662.4 650.9,662.4 649.0,662.4 647.2,662.4 645.3,662.4 643.4,662.4 641.6,662.4 639.7,662.4 637.8,662.4 636.0,662.4 634.1,662.4 632.2,662.4 630.4,662.4 628.5,662.4 626.6,662.4 624.7,662.4
622.9,662.4 621.0,662.4 619.1,662.4 617.3,662.4 615.4,662.4 613.5,662.4 611.7,662.4 609.8,662.4 607.9,662.4 606.1,662.4 604.2,662.4 602.3,662.4 600.5,662.4 598.6,662.4 596.7,662.4 594.9,662.4
593.0,662.4 591.1,662.4 589.3,662.4 587.4,662.4 585.5,662.4 583.7,662.4 581.8,662.4 579.9,662.4 578.1,662.4 576.2,662.4 574.3,662.4 572.5,662.4 570.6,662.4 568.7,662.4 566.8,662.4 565.0,662.4
563.1,662.4 561.2,662.4 559.4,662.4 557.5,662.4 555.6,662.4 553.8,662.4 551.9,662.4 550.0,662.4 548.2,662.4 546.3,662.4 544.4,662.4 542.6,662.4 540.7,662.4 538.8,662.4 537.0,662.4 535.1,662.4
533.2,662.4 531.4,662.4 529.5,662.4 527.6,662.4 525.8,662.4 523.9,662.4 522.0,662.4 520.2,662.4 518.3,662.4 516.4,662.4 514.6,662.4 512.7,662.4 510.8,662.4 509.0,662.4 507.1,662.4 505.2,662.4
503.3,662.4 501.5,662.4 499.6,662.4 497.7,662.4 495.9,662.4 494.0,662.4 492.1,662.4 490.3,662.4 488.4,662.4 486.5,662.4 484.7,662.4 482.8,662.4 480.9,662.4 479.1,662.4 477.2,662.4 475.3,662.4
473.5,662.4 471.6,662.4 469.7,662.4 467.9,662.4 466.0,662.4 464.1,662.4 462.3,662.4 460.4,662.4 458.5,662.4 456.7,662.4 454.8,662.4 452.9,662.4 451.1,662.4 449.2,662.4 447.3,662.4 445.4,662.4
443.6,662.4 441.7,662.4 439.8,662.4 438.0,662.4 436.1,662.4 434.2,662.4 432.4,662.4 430.5,662.4 428.6,662.4 426.8,662.4 424.9,662.4 423.0,662.4 421.2,662.4 419.3,662.4 417.4,662.4 415.6,662.4
413.7,662.4 411.8,662.4 410.0,662.4 408.1,662.4 406.2,662.4 404.4,662.4 402.5,662.4 400.6,662.4 398.8,662.4 396.9,662.4 395.0,662.4 393.2,662.4 391.3,662.4 389.4,662.4 387.5,662.4 385.7,662.4
383.8,662.4 381.9,662.4 380.1,662.4 378.2,662.4 376.3,662.4 374.5,662.4 372.6,662.4 370.7,662.4 368.9,662.4 367.0,662.4 365.1,662.4 363.3,662.4 361.4,662.4 359.5,662.4 357.7,662.4 355.8,662.4
353.9,662.4 352.1,662.4 350.2,662.4 348.3,662.4 346.5,662.4 344.6,662.4 342.7,662.4 340.9,662.4 339.0,662.4 337.1,662.4 335.3,662.4 333.4,662.4 331.5,662.4 329.6,662.4 327.8,662.4 325.9,662.4
324.0,662.4 322.2,662.4 320.3,662.4 318.4,662.4 316.6,662.4 314.7,662.4 312.8,662.4 311.0,662.4 309.1,662.4 307.2,662.4 305.4,662.4 303.5,662.4 301.6,662.4 299.8,662.4 297.9,662.4 296.0,662.4
294.2,662.4 292.3,662.4 290.4,662.4 288.6,662.4 286.7,662.4 284.8,662.4 283.0,662.4 281.1,662.4 279.2,662.4 277.4,662.4 275.5,662.4 273.6,662.4 271.7,662.4 269.9,662.4 268.0,662.4 266.1,662.4
264.3,662.4 262.4,662.4 260.5,662.4 258.7,662.4 256.8,662.4 254.9,662.4 253.1,662.4 251.2,662.4 249.3,662.4 247.5,662.4 245.6,662.4 243.7,662.4 241.9,662.4 240.0,662.4 238.1,662.4 236.3,662.4
234.4,662.4 232.5,662.4 230.7,662.4 228.8,662.4 226.9,662.4 225.1,662.4 223.2,662.4 221.3,662.4 219.5,662.4 217.6,662.4 215.7,662.4 213.8,662.4 212.0,662.4 210.1,662.4 208.2,662.4 206.4,662.4
204.5,662.4 202.6,662.4 200.8,662.4 198.9,662.4 197.0,662.4 195.2,662.4 193.3,662.4 191.4,662.4 189.6,662.4 187.7,662.4 185.8,662.4 184.0,662.4 182.1,662.4 180.2,662.4 178.4,662.4 176.5,662.4
174.6,662.4 172.8,662.4 170.9,662.4 169.0,662.4 167.2,662.4 165.3,662.4 163.4,662.4 161.6,662.4 159.7,662.4 157.8,662.4 155.9,662.4 154.1,662.4 152.2,662.4 150.3,662.4 148.5,662.4 146.6,662.4
144.7,662.4 142.9,662.4 141.0,662.4 139.1,662.4 137.3,662.4 135.4,662.4 133.5,662.4 131.7,662.4 129.8,662.4 127.9,662.4 126.1,662.4 124.2,662.4 122.3,662.4 120.5,662.4 118.6,662.4 116.7,662.4
114.9,662.4 113.0,662.4 111.1,662.4 109.3,662.4 107.4,662.4 105.5,662.4 103.7,662.4 101.8,662.4 99.9,662.4 98.0,662.4 96.2,662.4 94.3,662.4 92.4,662.4 90.6,662.4 88.7,662.4 86.8,662.4
85.0,662.4 83.1,662.4 81.2,662.4 79.4,662.4 77.5,662.4 75.6,662.4 73.8,662.4 71.9,662.4 '/>
	</g>
</g>
	</g>
	<g id="gnuplot_plot_2" ><title>Mean</title>
<g fill="none" color="white" stroke="rgb( 31, 120, 180)" stroke-width="2.00" stroke-linecap="butt" stroke-linejoin="miter">
</g>
<g fill="none" color="black" stroke="currentColor" stroke-width="2.00" stroke-linecap="butt" stroke-linejoin="miter">
	<g transform="translate(1147.1,85.0)" stroke="none" fill="black" font-family="Helvetica" font-size="12.00"  text-anchor="start">
		<text><tspan font-family="Helvetica" >Mean</tspan></text>
	</g>
</g>
<g fill="none" color="black" stroke="currentColor" stroke-width="2.00" stroke-linecap="butt" stroke-linejoin="miter">
	<path stroke='rgb( 31, 120, 180)'  d='M1096.6,81.1 L1138.8,81.1 M233.5,662.4 L233.5,54.1  '/></g>
	</g>
	<g id="gnuplot_plot_3" ><title>"Clean" sample</title>
<g fill="none" color="white" stroke="rgb( 31, 120, 180)" stroke-width="1.00" stroke-linecap="butt" stroke-linejoin="miter">
</g>
<g fill="none" color="black" stroke="currentColor" stroke-width="1.00" stroke-linecap="butt" stroke-linejoin="miter">
	<g transform="translate(1147.1,103.0)" stroke="none" fill="black" font-family="Helvetica" font-size="12.00"  text-anchor="start">
		<text><tspan font-family="Helvetica" >"Clean" sample</tspan></text>
	</g>
</g>
<g fill="none" color="black" stroke="currentColor" stroke-width="1.00" stroke-linecap="butt" stroke-linejoin="miter">
	<use xlink:href='#gpPt6' transform='translate(233.1,644.2) scale(3.38)' color='rgb( 31, 120, 180)'/>
	<use xlink:href='#gpPt6' transform='translate(244.1,625.9) scale(3.38)' color='rgb( 31, 120, 180)'/>
	<use xlink:href='#gpPt6' transform='translate(220.5,595.5) scale(3.38)' color='rgb( 31, 120, 180)'/>
	<use xlink:href='#gpPt6' transform='translate(203.7,589.4) scale(3.38)' color='rgb( 31, 120, 180)'/>
	<use xlink:href='#gpPt6' transform='translate(225.5,583.3) scale(3.38)' color='rgb( 31, 120, 180)'/>
	<use xlink:href='#gpPt6' transform='translate(196.6,577.2) scale(3.38)' color='rgb( 31, 120, 180)'/>
	<use xlink:href='#gpPt6' transform='translate(214.0,565.1) scale(3.38)' color='rgb( 31, 120, 180)'/>
	<use xlink:href='#gpPt6' transform='translate(208.4,559.0) scale(3.38)' color='rgb( 31, 120, 180)'/>
	<use xlink:href='#gpPt6' transform='translate(195.6,552.9) scale(3.38)' color='rgb( 31, 120, 180)'/>
	<use xlink:href='#gpPt6' transform='translate(193.7,546.8) scale(3.38)' color='rgb( 31, 120, 180)'/>
	<use xlink:href='#gpPt6' transform='translate(207.2,540.7) scale(3.38)' color='rgb( 31, 120, 180)'/>
	<use xlink:href='#gpPt6' transform='translate(215.5,534.7) scale(3.38)' color='rgb( 31, 120, 180)'/>
	<use xlink:href='#gpPt6' transform='translate(208.5,528.6) scale(3.38)' color='rgb( 31, 120, 180)'/>
	<use xlink:href='#gpPt6' transform='translate(218.2,522.5) scale(3.38)' color='rgb( 31, 120, 180)'/>
	<use xlink:href='#gpPt6' transform='translate(208.8,516.4) scale(3.38)' color='rgb( 31, 120, 180)'/>
	<use xlink:href='#gpPt6' transform='translate(193.3,510.3) scale(3.38)' color='rgb( 31, 120, 180)'/>
	<use xlink:href='#gpPt6' transform='translate(244.1,504.2) scale(3.38)' color='rgb( 31, 120, 180)'/>
	<use xlink:href='#gpPt6' transform='translate(227.9,492.1) scale(3.38)' color='rgb( 31, 120, 180)'/>
	<use xlink:href='#gpPt6' transform='translate(222.2,486.0) scale(3.38)' color='rgb( 31, 120, 180)'/>
	<use xlink:href='#gpPt6' transform='translate(205.6,479.9) scale(3.38)' color='rgb( 31, 120, 180)'/>
	<use xlink:href='#gpPt6' transform='translate(204.8,473.8) scale(3.38)' color='rgb( 31, 120, 180)'/>
	<use xlink:href='#gpPt6' transform='translate(243.2,467.7) scale(3.38)' color='rgb( 31, 120, 180)'/>
	<use xlink:href='#gpPt6' transform='translate(218.6,461.7) scale(3.38)' color='rgb( 31, 120, 180)'/>
	<use xlink:href='#gpPt6' transform='translate(203.7,455.6) scale(3.38)' color='rgb( 31, 120, 180)'/>
	<use xlink:href='#gpPt6' transform='translate(232.3,449.5) scale(3.38)' color='rgb( 31, 120, 180)'/>
	<use xlink:href='#gpPt6' transform='translate(218.3,443.4) scale(3.38)' color='rgb( 31, 120, 180)'/>
	<use xlink:href='#gpPt6' transform='translate(213.0,437.3) scale(3.38)' color='rgb( 31, 120, 180)'/>
	<use xlink:href='#gpPt6' transform='translate(220.6,431.2) scale(3.38)' color='rgb( 31, 120, 180)'/>
	<use xlink:href='#gpPt6' transform='translate(201.8,425.2) scale(3.38)' color='rgb( 31, 120, 180)'/>
	<use xlink:href='#gpPt6' transform='translate(218.1,419.1) scale(3.38)' color='rgb( 31, 120, 180)'/>
	<use xlink:href='#gpPt6' transform='translate(197.3,413.0) scale(3.38)' color='rgb( 31, 120, 180)'/>
	<use xlink:href='#gpPt6' transform='translate(205.3,406.9) scale(3.38)' color='rgb( 31, 120, 180)'/>
	<use xlink:href='#gpPt6' transform='translate(200.1,400.8) scale(3.38)' color='rgb( 31, 120, 180)'/>
	<use xlink:href='#gpPt6' transform='translate(207.2,394.7) scale(3.38)' color='rgb( 31, 120, 180)'/>
	<use xlink:href='#gpPt6' transform='translate(219.4,388.7) scale(3.38)' color='rgb( 31, 120, 180)'/>
	<use xlink:href='#gpPt6' transform='translate(194.3,382.6) scale(3.38)' color='rgb( 31, 120, 180)'/>
	<use xlink:href='#gpPt6' transform='translate(206.8,376.5) scale(3.38)' color='rgb( 31, 120, 180)'/>
	<use xlink:href='#gpPt6' transform='translate(210.8,370.4) scale(3.38)' color='rgb( 31, 120, 180)'/>
	<use xlink:href='#gpPt6' transform='translate(226.6,364.3) scale(3.38)' color='rgb( 31, 120, 180)'/>
	<use xlink:href='#gpPt6' transform='translate(221.9,358.2) scale(3.38)' color='rgb( 31, 120, 180)'/>
	<use xlink:href='#gpPt6' transform='translate(239.5,352.2) scale(3.38)' color='rgb( 31, 120, 180)'/>
	<use xlink:href='#gpPt6' transform='translate(208.1,346.1) scale(3.38)' color='rgb( 31, 120, 180)'/>
	<use xlink:href='#gpPt6' transform='translate(236.6,340.0) scale(3.38)' color='rgb( 31, 120, 180)'/>
	<use xlink:href='#gpPt6' transform='translate(214.2,333.9) scale(3.38)' color='rgb( 31, 120, 180)'/>
	<use xlink:href='#gpPt6' transform='translate(195.6,327.8) scale(3.38)' color='rgb( 31, 120, 180)'/>
	<use xlink:href='#gpPt6' transform='translate(193.5,321.8) scale(3.38)' color='rgb( 31, 120, 180)'/>
	<use xlink:href='#gpPt6' transform='translate(196.8,315.7) scale(3.38)' color='rgb( 31, 120, 180)'/>
	<use xlink:href='#gpPt6' transform='translate(204.4,309.6) scale(3.38)' color='rgb( 31, 120, 180)'/>
	<use xlink:href='#gpPt6' transform='translate(210.5,303.5) scale(3.38)' color='rgb( 31, 120, 180)'/>
	<use xlink:href='#gpPt6' transform='translate(202.0,297.4) scale(3.38)' color='rgb( 31, 120, 180)'/>
	<use xlink:href='#gpPt6' transform='translate(201.3,291.3) scale(3.38)' color='rgb( 31, 120, 180)'/>
	<use xlink:href='#gpPt6' transform='translate(203.5,285.3) scale(3.38)' color='rgb( 31, 120, 180)'/>
	<use xlink:href='#gpPt6' transform='translate(203.0,279.2) scale(3.38)' color='rgb( 31, 120, 180)'/>
	<use xlink:href='#gpPt6' transform='translate(202.3,273.1) scale(3.38)' color='rgb( 31, 120, 180)'/>
	<use xlink:href='#gpPt6' transform='translate(189.3,267.0) scale(3.38)' color='rgb( 31, 120, 180)'/>
	<use xlink:href='#gpPt6' transform='translate(231.6,260.9) scale(3.38)' color='rgb( 31, 120, 180)'/>
	<use xlink:href='#gpPt6' transform='translate(217.8,254.8) scale(3.38)' color='rgb( 31, 120, 180)'/>
	<use xlink:href='#gpPt6' transform='translate(199.1,248.8) scale(3.38)' color='rgb( 31, 120, 180)'/>
	<use xlink:href='#gpPt6' transform='translate(223.4,242.7) scale(3.38)' color='rgb( 31, 120, 180)'/>
	<use xlink:href='#gpPt6' transform='translate(214.0,236.6) scale(3.38)' color='rgb( 31, 120, 180)'/>
	<use xlink:href='#gpPt6' transform='translate(219.0,230.5) scale(3.38)' color='rgb( 31, 120, 180)'/>
	<use xlink:href='#gpPt6' transform='translate(207.1,224.4) scale(3.38)' color='rgb( 31, 120, 180)'/>
	<use xlink:href='#gpPt6' transform='translate(211.1,218.3) scale(3.38)' color='rgb( 31, 120, 180)'/>
	<use xlink:href='#gpPt6' transform='translate(207.5,212.3) scale(3.38)' color='rgb( 31, 120, 180)'/>
	<use xlink:href='#gpPt6' transform='translate(220.1,206.2) scale(3.38)' color='rgb( 31, 120, 180)'/>
	<use xlink:href='#gpPt6' transform='translate(223.2,200.1) scale(3.38)' color='rgb( 31, 120, 180)'/>
	<use xlink:href='#gpPt6' transform='translate(243.0,194.0) scale(3.38)' color='rgb( 31, 120, 180)'/>
	<use xlink:href='#gpPt6' transform='translate(235.7,187.9) scale(3.38)' color='rgb( 31, 120, 180)'/>
	<use xlink:href='#gpPt6' transform='translate(234.9,181.8) scale(3.38)' color='rgb( 31, 120, 180)'/>
	<use xlink:href='#gpPt6' transform='translate(210.3,175.8) scale(3.38)' color='rgb( 31, 120, 180)'/>
	<use xlink:href='#gpPt6' transform='translate(199.0,169.7) scale(3.38)' color='rgb( 31, 120, 180)'/>
	<use xlink:href='#gpPt6' transform='translate(202.8,163.6) scale(3.38)' color='rgb( 31, 120, 180)'/>
	<use xlink:href='#gpPt6' transform='translate(211.0,157.5) scale(3.38)' color='rgb( 31, 120, 180)'/>
	<use xlink:href='#gpPt6' transform='translate(190.5,151.4) scale(3.38)' color='rgb( 31, 120, 180)'/>
	<use xlink:href='#gpPt6' transform='translate(195.6,145.3) scale(3.38)' color='rgb( 31, 120, 180)'/>
	<use xlink:href='#gpPt6' transform='translate(213.0,139.3) scale(3.38)' color='rgb( 31, 120, 180)'/>
	<use xlink:href='#gpPt6' transform='translate(219.2,133.2) scale(3.38)' color='rgb( 31, 120, 180)'/>
	<use xlink:href='#gpPt6' transform='translate(210.9,127.1) scale(3.38)' color='rgb( 31, 120, 180)'/>
	<use xlink:href='#gpPt6' transform='translate(200.2,121.0) scale(3.38)' color='rgb( 31, 120, 180)'/>
	<use xlink:href='#gpPt6' transform='translate(209.2,114.9) scale(3.38)' color='rgb( 31, 120, 180)'/>
	<use xlink:href='#gpPt6' transform='translate(218.6,108.8) scale(3.38)' color='rgb( 31, 120, 180)'/>
	<use xlink:href='#gpPt6' transform='translate(216.8,102.8) scale(3.38)' color='rgb( 31, 120, 180)'/>
	<use xlink:href='#gpPt6' transform='translate(208.4,96.7) scale(3.38)' color='rgb( 31, 120, 180)'/>
	<use xlink:href='#gpPt6' transform='translate(210.3,90.6) scale(3.38)' color='rgb( 31, 120, 180)'/>
	<use xlink:href='#gpPt6' transform='translate(206.4,84.5) scale(3.38)' color='rgb( 31, 120, 180)'/>
	<use xlink:href='#gpPt6' transform='translate(213.0,78.4) scale(3.38)' color='rgb( 31, 120, 180)'/>
	<use xlink:href='#gpPt6' transform='translate(226.4,72.3) scale(3.38)' color='rgb( 31, 120, 180)'/>
	<use xlink:href='#gpPt6' transform='translate(206.5,66.3) scale(3.38)' color='rgb( 31, 120, 180)'/>
	<use xlink:href='#gpPt6' transform='translate(194.1,60.2) scale(3.38)' color='rgb( 31, 120, 180)'/>
	<use xlink:href='#gpPt6' transform='translate(220.1,54.1) scale(3.38)' color='rgb( 31, 120, 180)'/>
	<use xlink:href='#gpPt6' transform='translate(1117.7,99.1) scale(3.38)' color='rgb( 31, 120, 180)'/>
</g>
	</g>
	<g id="gnuplot_plot_4" ><title>Mild outliers</title>
<g fill="none" color="black" stroke="currentColor" stroke-width="1.00" stroke-linecap="butt" stroke-linejoin="miter">
	<g transform="translate(1147.1,121.0)" stroke="none" fill="black" font-family="Helvetica" font-size="12.00"  text-anchor="start">
		<text><tspan font-family="Helvetica" >Mild outliers</tspan></text>
	</g>
</g>
<g fill="none" color="black" stroke="currentColor" stroke-width="1.00" stroke-linecap="butt" stroke-linejoin="miter">
	<use xlink:href='#gpPt6' transform='translate(258.6,650.2) scale(3.38)' color='rgb(255, 127,   0)'/>
	<use xlink:href='#gpPt6' transform='translate(269.9,632.0) scale(3.38)' color='rgb(255, 127,   0)'/>
	<use xlink:href='#gpPt6' transform='translate(271.5,601.6) scale(3.38)' color='rgb(255, 127,   0)'/>
	<use xlink:href='#gpPt6' transform='translate(257.8,498.2) scale(3.38)' color='rgb(255, 127,   0)'/>
	<use xlink:href='#gpPt6' transform='translate(1117.7,117.1) scale(3.38)' color='rgb(255, 127,   0)'/>
</g>
	</g>
	<g id="gnuplot_plot_5" ><title>Severe outliers</title>
<g fill="none" color="black" stroke="currentColor" stroke-width="1.00" stroke-linecap="butt" stroke-linejoin="miter">
	<g transform="translate(1147.1,139.0)" stroke="none" fill="black" font-family="Helvetica" font-size="12.00"  text-anchor="start">
		<text><tspan font-family="Helvetica" >Severe outliers</tspan></text>
	</g>
</g>
<g fill="none" color="black" stroke="currentColor" stroke-width="1.00" stroke-linecap="butt" stroke-linejoin="miter">
	<use xlink:href='#gpPt6' transform='translate(535.1,656.3) scale(3.38)' color='rgb(227,  26,  28)'/>
	<use xlink:href='#gpPt6' transform='translate(284.8,638.1) scale(3.38)' color='rgb(227,  26,  28)'/>
	<use xlink:href='#gpPt6' transform='translate(886.5,619.8) scale(3.38)' color='rgb(227,  26,  28)'/>
	<use xlink:href='#gpPt6' transform='translate(689.1,613.7) scale(3.38)' color='rgb(227,  26,  28)'/>
	<use xlink:href='#gpPt6' transform='translate(480.7,607.7) scale(3.38)' color='rgb(227,  26,  28)'/>
	<use xlink:href='#gpPt6' transform='translate(293.3,571.2) scale(3.38)' color='rgb(227,  26,  28)'/>
	<use xlink:href='#gpPt6' transform='translate(1117.7,135.1) scale(3.38)' color='rgb(227,  26,  28)'/>
</g>
	</g>
	<g id="gnuplot_plot_6" ><title>gnuplot_plot_6</title>
<g fill="none" color="white" stroke="rgb(227,  26,  28)" stroke-width="2.00" stroke-linecap="butt" stroke-linejoin="miter">
</g>
<g fill="none" color="black" stroke="currentColor" stroke-width="2.00" stroke-linecap="butt" stroke-linejoin="miter">
	<path stroke='rgb(255, 127,   0)'  d='M173.4,662.4 L173.4,54.1  '/></g>
	</g>
	<g id="gnuplot_plot_7" ><title>gnuplot_plot_7</title>
<g fill="none" color="black" stroke="currentColor" stroke-width="2.00" stroke-linecap="butt" stroke-linejoin="miter">
	<path stroke='rgb(255, 127,   0)'  d='M254.3,662.4 L254.3,54.1  '/></g>
	</g>
	<g id="gnuplot_plot_8" ><title>gnuplot_plot_8</title>
<g fill="none" color="black" stroke="currentColor" stroke-width="2.00" stroke-linecap="butt" stroke-linejoin="miter">
	<path stroke='rgb(227,  26,  28)'  d='M143.0,662.4 L143.0,54.1  '/></g>
	</g>
	<g id="gnuplot_plot_9" ><title>gnuplot_plot_9</title>
<g fill="none" color="black" stroke="currentColor" stroke-width="2.00" stroke-linecap="butt" stroke-linejoin="miter">
	<path stroke='rgb(227,  26,  28)'  d='M284.6,662.4 L284.6,54.1  '/></g>
	</g>
<g fill="none" color="black" stroke="currentColor" stroke-width="2.00" stroke-linecap="butt" stroke-linejoin="miter">
</g>
<g fill="none" color="black" stroke="black" stroke-width="1.00" stroke-linecap="butt" stroke-linejoin="miter">
</g>
<g fill="none" color="black" stroke="currentColor" stroke-width="1.00" stroke-linecap="butt" stroke-linejoin="miter">
	<path stroke='black'  d='M71.9,54.1 L71.9,662.4 L1003.9,662.4 L1003.9,54.1 L71.9,54.1 Z  '/></g>
<g fill="none" color="black" stroke="currentColor" stroke-width="1.00" stroke-linecap="butt" stroke-linejoin="miter">
</g>
</g>
</svg>

