<?xml version="1.0" encoding="utf-8"  standalone="no"?>
<svg 
 viewBox="0 0 450 300"
 xmlns="http://www.w3.org/2000/svg"
 xmlns:xlink="http://www.w3.org/1999/xlink"
>

<title>Gnuplot</title>
<desc>Produced by GNUPLOT 5.2 patchlevel 6 </desc>

<g id="gnuplot_canvas">

<rect x="0" y="0" width="450" height="300" fill="none"/>
<defs>

	<circle id='gpDot' r='0.5' stroke-width='0.5' stroke='currentColor'/>
	<path id='gpPt0' stroke-width='0.222' stroke='currentColor' d='M-1,0 h2 M0,-1 v2'/>
	<path id='gpPt1' stroke-width='0.222' stroke='currentColor' d='M-1,-1 L1,1 M1,-1 L-1,1'/>
	<path id='gpPt2' stroke-width='0.222' stroke='currentColor' d='M-1,0 L1,0 M0,-1 L0,1 M-1,-1 L1,1 M-1,1 L1,-1'/>
	<rect id='gpPt3' stroke-width='0.222' stroke='currentColor' x='-1' y='-1' width='2' height='2'/>
	<rect id='gpPt4' stroke-width='0.222' stroke='currentColor' fill='currentColor' x='-1' y='-1' width='2' height='2'/>
	<circle id='gpPt5' stroke-width='0.222' stroke='currentColor' cx='0' cy='0' r='1'/>
	<use xlink:href='#gpPt5' id='gpPt6' fill='currentColor' stroke='none'/>
	<path id='gpPt7' stroke-width='0.222' stroke='currentColor' d='M0,-1.33 L-1.33,0.67 L1.33,0.67 z'/>
	<use xlink:href='#gpPt7' id='gpPt8' fill='currentColor' stroke='none'/>
	<use xlink:href='#gpPt7' id='gpPt9' stroke='currentColor' transform='rotate(180)'/>
	<use xlink:href='#gpPt9' id='gpPt10' fill='currentColor' stroke='none'/>
	<use xlink:href='#gpPt3' id='gpPt11' stroke='currentColor' transform='rotate(45)'/>
	<use xlink:href='#gpPt11' id='gpPt12' fill='currentColor' stroke='none'/>
	<path id='gpPt13' stroke-width='0.222' stroke='currentColor' d='M0,1.330 L1.265,0.411 L0.782,-1.067 L-0.782,-1.076 L-1.265,0.411 z'/>
	<use xlink:href='#gpPt13' id='gpPt14' fill='currentColor' stroke='none'/>
	<filter id='textbox' filterUnits='objectBoundingBox' x='0' y='0' height='1' width='1'>
	  <feFlood flood-color='white' flood-opacity='1' result='bgnd'/>
	  <feComposite in='SourceGraphic' in2='bgnd' operator='atop'/>
	</filter>
	<filter id='greybox' filterUnits='objectBoundingBox' x='0' y='0' height='1' width='1'>
	  <feFlood flood-color='lightgrey' flood-opacity='1' result='grey'/>
	  <feComposite in='SourceGraphic' in2='grey' operator='atop'/>
	</filter>
</defs>
<g fill="none" color="white" stroke="currentColor" stroke-width="1.00" stroke-linecap="butt" stroke-linejoin="miter">
</g>
<g fill="none" color="black" stroke="currentColor" stroke-width="1.00" stroke-linecap="butt" stroke-linejoin="miter">
	<path stroke='black'  d='M71.9,242.4 L80.9,242.4  '/>	<g transform="translate(63.6,246.3)" stroke="none" fill="black" font-family="Helvetica" font-size="12.00"  text-anchor="end">
		<text><tspan font-family="Helvetica" > 0</tspan></text>
	</g>
</g>
<g fill="none" color="black" stroke="currentColor" stroke-width="1.00" stroke-linecap="butt" stroke-linejoin="miter">
	<path stroke='black'  d='M71.9,214.3 L80.9,214.3  '/>	<g transform="translate(63.6,218.2)" stroke="none" fill="black" font-family="Helvetica" font-size="12.00"  text-anchor="end">
		<text><tspan font-family="Helvetica" > 0.1</tspan></text>
	</g>
</g>
<g fill="none" color="black" stroke="currentColor" stroke-width="1.00" stroke-linecap="butt" stroke-linejoin="miter">
	<path stroke='black'  d='M71.9,186.2 L80.9,186.2  '/>	<g transform="translate(63.6,190.1)" stroke="none" fill="black" font-family="Helvetica" font-size="12.00"  text-anchor="end">
		<text><tspan font-family="Helvetica" > 0.2</tspan></text>
	</g>
</g>
<g fill="none" color="black" stroke="currentColor" stroke-width="1.00" stroke-linecap="butt" stroke-linejoin="miter">
	<path stroke='black'  d='M71.9,158.2 L80.9,158.2  '/>	<g transform="translate(63.6,162.1)" stroke="none" fill="black" font-family="Helvetica" font-size="12.00"  text-anchor="end">
		<text><tspan font-family="Helvetica" > 0.3</tspan></text>
	</g>
</g>
<g fill="none" color="black" stroke="currentColor" stroke-width="1.00" stroke-linecap="butt" stroke-linejoin="miter">
	<path stroke='black'  d='M71.9,130.1 L80.9,130.1  '/>	<g transform="translate(63.6,134.0)" stroke="none" fill="black" font-family="Helvetica" font-size="12.00"  text-anchor="end">
		<text><tspan font-family="Helvetica" > 0.4</tspan></text>
	</g>
</g>
<g fill="none" color="black" stroke="currentColor" stroke-width="1.00" stroke-linecap="butt" stroke-linejoin="miter">
	<path stroke='black'  d='M71.9,102.0 L80.9,102.0  '/>	<g transform="translate(63.6,105.9)" stroke="none" fill="black" font-family="Helvetica" font-size="12.00"  text-anchor="end">
		<text><tspan font-family="Helvetica" > 0.5</tspan></text>
	</g>
</g>
<g fill="none" color="black" stroke="currentColor" stroke-width="1.00" stroke-linecap="butt" stroke-linejoin="miter">
	<path stroke='black'  d='M71.9,73.9 L80.9,73.9  '/>	<g transform="translate(63.6,77.8)" stroke="none" fill="black" font-family="Helvetica" font-size="12.00"  text-anchor="end">
		<text><tspan font-family="Helvetica" > 0.6</tspan></text>
	</g>
</g>
<g fill="none" color="black" stroke="currentColor" stroke-width="1.00" stroke-linecap="butt" stroke-linejoin="miter">
	<path stroke='black'  d='M71.9,45.8 L80.9,45.8  '/>	<g transform="translate(63.6,49.7)" stroke="none" fill="black" font-family="Helvetica" font-size="12.00"  text-anchor="end">
		<text><tspan font-family="Helvetica" > 0.7</tspan></text>
	</g>
</g>
<g fill="none" color="black" stroke="currentColor" stroke-width="1.00" stroke-linecap="butt" stroke-linejoin="miter">
	<path stroke='black'  d='M93.3,242.4 L93.3,233.4  '/>	<g transform="translate(93.3,264.3)" stroke="none" fill="black" font-family="Helvetica" font-size="12.00"  text-anchor="middle">
		<text><tspan font-family="Helvetica" > 96</tspan></text>
	</g>
</g>
<g fill="none" color="black" stroke="currentColor" stroke-width="1.00" stroke-linecap="butt" stroke-linejoin="miter">
	<path stroke='black'  d='M155.1,242.4 L155.1,233.4  '/>	<g transform="translate(155.1,264.3)" stroke="none" fill="black" font-family="Helvetica" font-size="12.00"  text-anchor="middle">
		<text><tspan font-family="Helvetica" > 98</tspan></text>
	</g>
</g>
<g fill="none" color="black" stroke="currentColor" stroke-width="1.00" stroke-linecap="butt" stroke-linejoin="miter">
	<path stroke='black'  d='M217.0,242.4 L217.0,233.4  '/>	<g transform="translate(217.0,264.3)" stroke="none" fill="black" font-family="Helvetica" font-size="12.00"  text-anchor="middle">
		<text><tspan font-family="Helvetica" > 100</tspan></text>
	</g>
</g>
<g fill="none" color="black" stroke="currentColor" stroke-width="1.00" stroke-linecap="butt" stroke-linejoin="miter">
	<path stroke='black'  d='M278.8,242.4 L278.8,233.4  '/>	<g transform="translate(278.8,264.3)" stroke="none" fill="black" font-family="Helvetica" font-size="12.00"  text-anchor="middle">
		<text><tspan font-family="Helvetica" > 102</tspan></text>
	</g>
</g>
<g fill="none" color="black" stroke="currentColor" stroke-width="1.00" stroke-linecap="butt" stroke-linejoin="miter">
	<path stroke='black'  d='M340.6,242.4 L340.6,233.4  '/>	<g transform="translate(340.6,264.3)" stroke="none" fill="black" font-family="Helvetica" font-size="12.00"  text-anchor="middle">
		<text><tspan font-family="Helvetica" > 104</tspan></text>
	</g>
</g>
<g fill="none" color="black" stroke="currentColor" stroke-width="1.00" stroke-linecap="butt" stroke-linejoin="miter">
	<path stroke='black'  d='M402.5,242.4 L402.5,233.4  '/>	<g transform="translate(402.5,264.3)" stroke="none" fill="black" font-family="Helvetica" font-size="12.00"  text-anchor="middle">
		<text><tspan font-family="Helvetica" > 106</tspan></text>
	</g>
</g>
<g fill="none" color="black" stroke="currentColor" stroke-width="1.00" stroke-linecap="butt" stroke-linejoin="miter">
</g>
<g fill="none" color="black" stroke="currentColor" stroke-width="1.00" stroke-linecap="butt" stroke-linejoin="miter">
	<path stroke='black'  d='M71.9,18.1 L71.9,242.4 L425.0,242.4 L425.0,18.1 L71.9,18.1 Z  '/></g>
<g fill="none" color="black" stroke="currentColor" stroke-width="1.00" stroke-linecap="butt" stroke-linejoin="miter">
	<g transform="translate(16.3,130.3) rotate(270)" stroke="none" fill="black" font-family="Helvetica" font-size="12.00"  text-anchor="middle">
		<text><tspan font-family="Helvetica" >Density (a.u.)</tspan></text>
	</g>
</g>
<g fill="none" color="black" stroke="currentColor" stroke-width="1.00" stroke-linecap="butt" stroke-linejoin="miter">
	<g transform="translate(248.4,291.3)" stroke="none" fill="black" font-family="Helvetica" font-size="12.00"  text-anchor="middle">
		<text><tspan font-family="Helvetica" >Average time (us)</tspan></text>
	</g>
</g>
<g fill="none" color="black" stroke="currentColor" stroke-width="1.00" stroke-linecap="butt" stroke-linejoin="miter">
</g>
	<g id="gnuplot_plot_1" ><title>PDF</title>
<g fill="none" color="black" stroke="currentColor" stroke-width="1.00" stroke-linecap="butt" stroke-linejoin="miter">
	<g stroke='none' shape-rendering='crispEdges'>
		<polygon fill = 'rgb( 31, 120, 180)' fill-opacity = '0.250000' points = '71.9,241.8 72.6,241.7 73.3,241.6 74.0,241.4 74.7,241.3 75.4,241.1 76.1,240.9 76.9,240.7 77.6,240.4 78.3,240.1 79.0,239.7 79.7,239.4 80.4,238.9 81.1,238.4 81.8,237.9 82.5,237.3
83.2,236.6 83.9,235.8 84.6,235.0 85.3,234.1 86.1,233.0 86.8,231.9 87.5,230.6 88.2,229.3 88.9,227.8 89.6,226.1 90.3,224.4 91.0,222.4 91.7,220.3 92.4,218.1 93.1,215.6 93.8,213.0
94.5,210.2 95.3,207.2 96.0,204.1 96.7,200.7 97.4,197.1 98.1,193.3 98.8,189.3 99.5,185.1 100.2,180.7 100.9,176.1 101.6,171.3 102.3,166.3 103.0,161.1 103.7,155.8 104.5,150.3 105.2,144.6
105.9,138.9 106.6,133.0 107.3,127.0 108.0,121.0 108.7,114.9 109.4,108.8 110.1,102.6 110.8,96.5 111.5,90.4 112.2,84.4 112.9,78.5 113.6,72.8 114.4,67.2 115.1,61.7 115.8,56.5 116.5,51.5
117.2,46.8 117.9,42.4 118.6,38.3 119.3,34.5 120.0,31.1 120.7,28.0 121.4,25.3 122.1,23.1 122.8,21.2 123.6,19.8 124.3,18.8 125.0,18.2 125.7,18.1 126.4,18.4 127.1,19.1 127.8,20.3
128.5,21.9 129.2,23.9 129.9,26.3 130.6,29.0 131.3,32.1 132.0,35.6 132.8,39.4 133.5,43.4 134.2,47.8 134.9,52.4 135.6,57.2 136.3,62.2 137.0,67.4 137.7,72.7 138.4,78.2 139.1,83.7
139.8,89.4 140.5,95.0 141.2,100.7 142.0,106.4 142.7,112.1 143.4,117.8 144.1,123.4 144.8,128.9 145.5,134.3 146.2,139.6 146.9,144.8 147.6,149.9 148.3,154.8 149.0,159.6 149.7,164.3 150.4,168.7
151.2,173.0 151.9,177.2 152.6,181.2 153.3,185.0 154.0,188.6 154.7,192.1 155.4,195.4 156.1,198.5 156.8,201.5 157.5,204.3 158.2,206.9 158.9,209.5 159.6,211.8 160.4,214.0 161.1,216.1 161.8,218.1
162.5,219.9 163.2,221.6 163.9,223.3 164.6,224.8 165.3,226.2 166.0,227.5 166.7,228.7 167.4,229.8 168.1,230.8 168.8,231.8 169.6,232.7 170.3,233.5 171.0,234.3 171.7,235.0 172.4,235.7 173.1,236.3
173.8,236.8 174.5,237.3 175.2,237.8 175.9,238.2 176.6,238.6 177.3,239.0 178.0,239.3 178.7,239.6 179.5,239.9 180.2,240.1 180.9,240.4 181.6,240.6 182.3,240.8 183.0,240.9 183.7,241.1 184.4,241.2
185.1,241.3 185.8,241.4 186.5,241.5 187.2,241.6 187.9,241.7 188.7,241.7 189.4,241.8 190.1,241.8 190.8,241.9 191.5,241.9 192.2,241.9 192.9,242.0 193.6,242.0 194.3,242.0 195.0,242.0 195.7,242.0
196.4,241.9 197.1,241.9 197.9,241.9 198.6,241.9 199.3,241.9 200.0,241.8 200.7,241.8 201.4,241.7 202.1,241.7 202.8,241.6 203.5,241.6 204.2,241.5 204.9,241.5 205.6,241.4 206.3,241.3 207.1,241.3
207.8,241.2 208.5,241.1 209.2,241.0 209.9,240.9 210.6,240.9 211.3,240.8 212.0,240.7 212.7,240.6 213.4,240.5 214.1,240.4 214.8,240.3 215.5,240.2 216.3,240.1 217.0,240.0 217.7,239.9 218.4,239.8
219.1,239.7 219.8,239.6 220.5,239.6 221.2,239.5 221.9,239.4 222.6,239.3 223.3,239.2 224.0,239.1 224.7,239.1 225.5,239.0 226.2,238.9 226.9,238.8 227.6,238.8 228.3,238.7 229.0,238.7 229.7,238.6
230.4,238.6 231.1,238.5 231.8,238.5 232.5,238.5 233.2,238.4 233.9,238.4 234.7,238.4 235.4,238.4 236.1,238.4 236.8,238.4 237.5,238.4 238.2,238.4 238.9,238.4 239.6,238.4 240.3,238.4 241.0,238.4
241.7,238.5 242.4,238.5 243.1,238.5 243.9,238.6 244.6,238.6 245.3,238.7 246.0,238.7 246.7,238.8 247.4,238.9 248.1,238.9 248.8,239.0 249.5,239.1 250.2,239.1 250.9,239.2 251.6,239.3 252.3,239.4
253.0,239.5 253.8,239.6 254.5,239.6 255.2,239.7 255.9,239.8 256.6,239.9 257.3,240.0 258.0,240.1 258.7,240.2 259.4,240.3 260.1,240.4 260.8,240.5 261.5,240.6 262.2,240.7 263.0,240.7 263.7,240.8
264.4,240.9 265.1,241.0 265.8,241.1 266.5,241.1 267.2,241.2 267.9,241.3 268.6,241.3 269.3,241.4 270.0,241.4 270.7,241.5 271.4,241.5 272.2,241.5 272.9,241.6 273.6,241.6 274.3,241.6 275.0,241.6
275.7,241.6 276.4,241.6 277.1,241.6 277.8,241.6 278.5,241.6 279.2,241.6 279.9,241.6 280.6,241.6 281.4,241.5 282.1,241.5 282.8,241.5 283.5,241.4 284.2,241.4 284.9,241.3 285.6,241.3 286.3,241.2
287.0,241.2 287.7,241.1 288.4,241.0 289.1,241.0 289.8,240.9 290.6,240.8 291.3,240.8 292.0,240.7 292.7,240.6 293.4,240.6 294.1,240.5 294.8,240.4 295.5,240.4 296.2,240.3 296.9,240.2 297.6,240.2
298.3,240.1 299.0,240.1 299.8,240.0 300.5,240.0 301.2,239.9 301.9,239.9 302.6,239.9 303.3,239.9 304.0,239.8 304.7,239.8 305.4,239.8 306.1,239.8 306.8,239.8 307.5,239.8 308.2,239.9 309.0,239.9
309.7,239.9 310.4,240.0 311.1,240.0 311.8,240.0 312.5,240.1 313.2,240.1 313.9,240.2 314.6,240.2 315.3,240.3 316.0,240.4 316.7,240.4 317.4,240.5 318.2,240.6 318.9,240.7 319.6,240.7 320.3,240.8
321.0,240.9 321.7,241.0 322.4,241.0 323.1,241.1 323.8,241.2 324.5,241.2 325.2,241.3 325.9,241.4 326.6,241.4 327.3,241.5 328.1,241.6 328.8,241.6 329.5,241.7 330.2,241.7 330.9,241.8 331.6,241.8
332.3,241.9 333.0,241.9 333.7,241.9 334.4,242.0 335.1,242.0 335.8,242.0 336.5,242.1 337.3,242.1 338.0,242.1 338.7,242.1 339.4,242.1 340.1,242.2 340.8,242.2 341.5,242.2 342.2,242.2 342.9,242.2
343.6,242.2 344.3,242.2 345.0,242.2 345.7,242.2 346.5,242.2 347.2,242.1 347.9,242.1 348.6,242.1 349.3,242.1 350.0,242.1 350.7,242.0 351.4,242.0 352.1,242.0 352.8,241.9 353.5,241.9 354.2,241.9
354.9,241.8 355.7,241.8 356.4,241.7 357.1,241.7 357.8,241.6 358.5,241.5 359.2,241.5 359.9,241.4 360.6,241.4 361.3,241.3 362.0,241.2 362.7,241.1 363.4,241.1 364.1,241.0 364.9,240.9 365.6,240.9
366.3,240.8 367.0,240.7 367.7,240.6 368.4,240.6 369.1,240.5 369.8,240.4 370.5,240.4 371.2,240.3 371.9,240.2 372.6,240.2 373.3,240.1 374.1,240.1 374.8,240.0 375.5,240.0 376.2,239.9 376.9,239.9
377.6,239.9 378.3,239.9 379.0,239.8 379.7,239.8 380.4,239.8 381.1,239.8 381.8,239.8 382.5,239.9 383.3,239.9 384.0,239.9 384.7,239.9 385.4,240.0 386.1,240.0 386.8,240.0 387.5,240.1 388.2,240.2
388.9,240.2 389.6,240.3 390.3,240.3 391.0,240.4 391.7,240.5 392.4,240.5 393.2,240.6 393.9,240.7 394.6,240.8 395.3,240.8 396.0,240.9 396.7,241.0 397.4,241.1 398.1,241.1 398.8,241.2 399.5,241.3
400.2,241.3 400.9,241.4 401.6,241.5 402.4,241.5 403.1,241.6 403.8,241.6 404.5,241.7 405.2,241.8 405.9,241.8 406.6,241.9 407.3,241.9 408.0,241.9 408.7,242.0 409.4,242.0 410.1,242.1 410.8,242.1
411.6,242.1 412.3,242.1 413.0,242.2 413.7,242.2 414.4,242.2 415.1,242.2 415.8,242.2 416.5,242.3 417.2,242.3 417.9,242.3 418.6,242.3 419.3,242.3 420.0,242.3 420.8,242.3 421.5,242.3 422.2,242.4
422.9,242.4 423.6,242.4 424.3,242.4 425.0,242.4 425.0,242.4 424.3,242.4 423.6,242.4 422.9,242.4 422.2,242.4 421.5,242.4 420.8,242.4 420.0,242.4 419.3,242.4 418.6,242.4 417.9,242.4 417.2,242.4
416.5,242.4 415.8,242.4 415.1,242.4 414.4,242.4 413.7,242.4 413.0,242.4 412.3,242.4 411.6,242.4 410.8,242.4 410.1,242.4 409.4,242.4 408.7,242.4 408.0,242.4 407.3,242.4 406.6,242.4 405.9,242.4
405.2,242.4 404.5,242.4 403.8,242.4 403.1,242.4 402.4,242.4 401.6,242.4 400.9,242.4 400.2,242.4 399.5,242.4 398.8,242.4 398.1,242.4 397.4,242.4 396.7,242.4 396.0,242.4 395.3,242.4 394.6,242.4
393.9,242.4 393.2,242.4 392.4,242.4 391.7,242.4 391.0,242.4 390.3,242.4 389.6,242.4 388.9,242.4 388.2,242.4 387.5,242.4 386.8,242.4 386.1,242.4 385.4,242.4 384.7,242.4 384.0,242.4 383.3,242.4
382.5,242.4 381.8,242.4 381.1,242.4 380.4,242.4 379.7,242.4 379.0,242.4 378.3,242.4 377.6,242.4 376.9,242.4 376.2,242.4 375.5,242.4 374.8,242.4 374.1,242.4 373.3,242.4 372.6,242.4 371.9,242.4
371.2,242.4 370.5,242.4 369.8,242.4 369.1,242.4 368.4,242.4 367.7,242.4 367.0,242.4 366.3,242.4 365.6,242.4 364.9,242.4 364.1,242.4 363.4,242.4 362.7,242.4 362.0,242.4 361.3,242.4 360.6,242.4
359.9,242.4 359.2,242.4 358.5,242.4 357.8,242.4 357.1,242.4 356.4,242.4 355.7,242.4 354.9,242.4 354.2,242.4 353.5,242.4 352.8,242.4 352.1,242.4 351.4,242.4 350.7,242.4 350.0,242.4 349.3,242.4
348.6,242.4 347.9,242.4 347.2,242.4 346.5,242.4 345.7,242.4 345.0,242.4 344.3,242.4 343.6,242.4 342.9,242.4 342.2,242.4 341.5,242.4 340.8,242.4 340.1,242.4 339.4,242.4 338.7,242.4 338.0,242.4
337.3,242.4 336.5,242.4 335.8,242.4 335.1,242.4 334.4,242.4 333.7,242.4 333.0,242.4 332.3,242.4 331.6,242.4 330.9,242.4 330.2,242.4 329.5,242.4 328.8,242.4 328.1,242.4 327.3,242.4 326.6,242.4
325.9,242.4 325.2,242.4 324.5,242.4 323.8,242.4 323.1,242.4 322.4,242.4 321.7,242.4 321.0,242.4 320.3,242.4 319.6,242.4 318.9,242.4 318.2,242.4 317.4,242.4 316.7,242.4 316.0,242.4 315.3,242.4
314.6,242.4 313.9,242.4 313.2,242.4 312.5,242.4 311.8,242.4 311.1,242.4 310.4,242.4 309.7,242.4 309.0,242.4 308.2,242.4 307.5,242.4 306.8,242.4 306.1,242.4 305.4,242.4 304.7,242.4 304.0,242.4
303.3,242.4 302.6,242.4 301.9,242.4 301.2,242.4 300.5,242.4 299.8,242.4 299.0,242.4 298.3,242.4 297.6,242.4 296.9,242.4 296.2,242.4 295.5,242.4 294.8,242.4 294.1,242.4 293.4,242.4 292.7,242.4
292.0,242.4 291.3,242.4 290.6,242.4 289.8,242.4 289.1,242.4 288.4,242.4 287.7,242.4 287.0,242.4 286.3,242.4 285.6,242.4 284.9,242.4 284.2,242.4 283.5,242.4 282.8,242.4 282.1,242.4 281.4,242.4
280.6,242.4 279.9,242.4 279.2,242.4 278.5,242.4 277.8,242.4 277.1,242.4 276.4,242.4 275.7,242.4 275.0,242.4 274.3,242.4 273.6,242.4 272.9,242.4 272.2,242.4 271.4,242.4 270.7,242.4 270.0,242.4
269.3,242.4 268.6,242.4 267.9,242.4 267.2,242.4 266.5,242.4 265.8,242.4 265.1,242.4 264.4,242.4 263.7,242.4 263.0,242.4 262.2,242.4 261.5,242.4 260.8,242.4 260.1,242.4 259.4,242.4 258.7,242.4
258.0,242.4 257.3,242.4 256.6,242.4 255.9,242.4 255.2,242.4 254.5,242.4 253.8,242.4 253.0,242.4 252.3,242.4 251.6,242.4 250.9,242.4 250.2,242.4 249.5,242.4 248.8,242.4 248.1,242.4 247.4,242.4
246.7,242.4 246.0,242.4 245.3,242.4 244.6,242.4 243.9,242.4 243.1,242.4 242.4,242.4 241.7,242.4 241.0,242.4 240.3,242.4 239.6,242.4 238.9,242.4 238.2,242.4 237.5,242.4 236.8,242.4 236.1,242.4
235.4,242.4 234.7,242.4 233.9,242.4 233.2,242.4 232.5,242.4 231.8,242.4 231.1,242.4 230.4,242.4 229.7,242.4 229.0,242.4 228.3,242.4 227.6,242.4 226.9,242.4 226.2,242.4 225.5,242.4 224.7,242.4
224.0,242.4 223.3,242.4 222.6,242.4 221.9,242.4 221.2,242.4 220.5,242.4 219.8,242.4 219.1,242.4 218.4,242.4 217.7,242.4 217.0,242.4 216.3,242.4 215.5,242.4 214.8,242.4 214.1,242.4 213.4,242.4
212.7,242.4 212.0,242.4 211.3,242.4 210.6,242.4 209.9,242.4 209.2,242.4 208.5,242.4 207.8,242.4 207.1,242.4 206.3,242.4 205.6,242.4 204.9,242.4 204.2,242.4 203.5,242.4 202.8,242.4 202.1,242.4
201.4,242.4 200.7,242.4 200.0,242.4 199.3,242.4 198.6,242.4 197.9,242.4 197.1,242.4 196.4,242.4 195.7,242.4 195.0,242.4 194.3,242.4 193.6,242.4 192.9,242.4 192.2,242.4 191.5,242.4 190.8,242.4
190.1,242.4 189.4,242.4 188.7,242.4 187.9,242.4 187.2,242.4 186.5,242.4 185.8,242.4 185.1,242.4 184.4,242.4 183.7,242.4 183.0,242.4 182.3,242.4 181.6,242.4 180.9,242.4 180.2,242.4 179.5,242.4
178.7,242.4 178.0,242.4 177.3,242.4 176.6,242.4 175.9,242.4 175.2,242.4 174.5,242.4 173.8,242.4 173.1,242.4 172.4,242.4 171.7,242.4 171.0,242.4 170.3,242.4 169.6,242.4 168.8,242.4 168.1,242.4
167.4,242.4 166.7,242.4 166.0,242.4 165.3,242.4 164.6,242.4 163.9,242.4 163.2,242.4 162.5,242.4 161.8,242.4 161.1,242.4 160.4,242.4 159.6,242.4 158.9,242.4 158.2,242.4 157.5,242.4 156.8,242.4
156.1,242.4 155.4,242.4 154.7,242.4 154.0,242.4 153.3,242.4 152.6,242.4 151.9,242.4 151.2,242.4 150.4,242.4 149.7,242.4 149.0,242.4 148.3,242.4 147.6,242.4 146.9,242.4 146.2,242.4 145.5,242.4
144.8,242.4 144.1,242.4 143.4,242.4 142.7,242.4 142.0,242.4 141.2,242.4 140.5,242.4 139.8,242.4 139.1,242.4 138.4,242.4 137.7,242.4 137.0,242.4 136.3,242.4 135.6,242.4 134.9,242.4 134.2,242.4
133.5,242.4 132.8,242.4 132.0,242.4 131.3,242.4 130.6,242.4 129.9,242.4 129.2,242.4 128.5,242.4 127.8,242.4 127.1,242.4 126.4,242.4 125.7,242.4 125.0,242.4 124.3,242.4 123.6,242.4 122.8,242.4
122.1,242.4 121.4,242.4 120.7,242.4 120.0,242.4 119.3,242.4 118.6,242.4 117.9,242.4 117.2,242.4 116.5,242.4 115.8,242.4 115.1,242.4 114.4,242.4 113.6,242.4 112.9,242.4 112.2,242.4 111.5,242.4
110.8,242.4 110.1,242.4 109.4,242.4 108.7,242.4 108.0,242.4 107.3,242.4 106.6,242.4 105.9,242.4 105.2,242.4 104.5,242.4 103.7,242.4 103.0,242.4 102.3,242.4 101.6,242.4 100.9,242.4 100.2,242.4
99.5,242.4 98.8,242.4 98.1,242.4 97.4,242.4 96.7,242.4 96.0,242.4 95.3,242.4 94.5,242.4 93.8,242.4 93.1,242.4 92.4,242.4 91.7,242.4 91.0,242.4 90.3,242.4 89.6,242.4 88.9,242.4
88.2,242.4 87.5,242.4 86.8,242.4 86.1,242.4 85.3,242.4 84.6,242.4 83.9,242.4 83.2,242.4 82.5,242.4 81.8,242.4 81.1,242.4 80.4,242.4 79.7,242.4 79.0,242.4 78.3,242.4 77.6,242.4
76.9,242.4 76.1,242.4 75.4,242.4 74.7,242.4 74.0,242.4 73.3,242.4 72.6,242.4 71.9,242.4 '/>
	</g>
</g>
	</g>
	<g id="gnuplot_plot_2" ><title>Mean</title>
<g fill="none" color="white" stroke="rgb( 31, 120, 180)" stroke-width="2.00" stroke-linecap="butt" stroke-linejoin="miter">
</g>
<g fill="none" color="black" stroke="currentColor" stroke-width="2.00" stroke-linecap="butt" stroke-linejoin="miter">
	<path stroke='rgb( 31, 120, 180)'  d='M133.1,242.4 L133.1,59.7  '/></g>
	</g>
<g fill="none" color="black" stroke="currentColor" stroke-width="2.00" stroke-linecap="butt" stroke-linejoin="miter">
</g>
<g fill="none" color="black" stroke="black" stroke-width="1.00" stroke-linecap="butt" stroke-linejoin="miter">
</g>
<g fill="none" color="black" stroke="currentColor" stroke-width="1.00" stroke-linecap="butt" stroke-linejoin="miter">
	<path stroke='black'  d='M71.9,18.1 L71.9,242.4 L425.0,242.4 L425.0,18.1 L71.9,18.1 Z  '/></g>
<g fill="none" color="black" stroke="currentColor" stroke-width="1.00" stroke-linecap="butt" stroke-linejoin="miter">
</g>
</g>
</svg>

