<?xml version="1.0" encoding="utf-8"  standalone="no"?>
<svg 
 viewBox="0 0 1280 720"
 xmlns="http://www.w3.org/2000/svg"
 xmlns:xlink="http://www.w3.org/1999/xlink"
>

<title>Gnuplot</title>
<desc>Produced by GNUPLOT 5.2 patchlevel 6 </desc>

<g id="gnuplot_canvas">

<rect x="0" y="0" width="1280" height="720" fill="none"/>
<defs>

	<circle id='gpDot' r='0.5' stroke-width='0.5' stroke='currentColor'/>
	<path id='gpPt0' stroke-width='0.222' stroke='currentColor' d='M-1,0 h2 M0,-1 v2'/>
	<path id='gpPt1' stroke-width='0.222' stroke='currentColor' d='M-1,-1 L1,1 M1,-1 L-1,1'/>
	<path id='gpPt2' stroke-width='0.222' stroke='currentColor' d='M-1,0 L1,0 M0,-1 L0,1 M-1,-1 L1,1 M-1,1 L1,-1'/>
	<rect id='gpPt3' stroke-width='0.222' stroke='currentColor' x='-1' y='-1' width='2' height='2'/>
	<rect id='gpPt4' stroke-width='0.222' stroke='currentColor' fill='currentColor' x='-1' y='-1' width='2' height='2'/>
	<circle id='gpPt5' stroke-width='0.222' stroke='currentColor' cx='0' cy='0' r='1'/>
	<use xlink:href='#gpPt5' id='gpPt6' fill='currentColor' stroke='none'/>
	<path id='gpPt7' stroke-width='0.222' stroke='currentColor' d='M0,-1.33 L-1.33,0.67 L1.33,0.67 z'/>
	<use xlink:href='#gpPt7' id='gpPt8' fill='currentColor' stroke='none'/>
	<use xlink:href='#gpPt7' id='gpPt9' stroke='currentColor' transform='rotate(180)'/>
	<use xlink:href='#gpPt9' id='gpPt10' fill='currentColor' stroke='none'/>
	<use xlink:href='#gpPt3' id='gpPt11' stroke='currentColor' transform='rotate(45)'/>
	<use xlink:href='#gpPt11' id='gpPt12' fill='currentColor' stroke='none'/>
	<path id='gpPt13' stroke-width='0.222' stroke='currentColor' d='M0,1.330 L1.265,0.411 L0.782,-1.067 L-0.782,-1.076 L-1.265,0.411 z'/>
	<use xlink:href='#gpPt13' id='gpPt14' fill='currentColor' stroke='none'/>
	<filter id='textbox' filterUnits='objectBoundingBox' x='0' y='0' height='1' width='1'>
	  <feFlood flood-color='white' flood-opacity='1' result='bgnd'/>
	  <feComposite in='SourceGraphic' in2='bgnd' operator='atop'/>
	</filter>
	<filter id='greybox' filterUnits='objectBoundingBox' x='0' y='0' height='1' width='1'>
	  <feFlood flood-color='lightgrey' flood-opacity='1' result='grey'/>
	  <feComposite in='SourceGraphic' in2='grey' operator='atop'/>
	</filter>
</defs>
<g fill="none" color="white" stroke="currentColor" stroke-width="1.00" stroke-linecap="butt" stroke-linejoin="miter">
</g>
<g fill="none" color="black" stroke="currentColor" stroke-width="1.00" stroke-linecap="butt" stroke-linejoin="miter">
	<path stroke='black'  d='M71.9,662.4 L80.9,662.4  '/>	<g transform="translate(63.6,666.3)" stroke="none" fill="black" font-family="Helvetica" font-size="12.00"  text-anchor="end">
		<text><tspan font-family="Helvetica" > 0</tspan></text>
	</g>
</g>
<g fill="none" color="black" stroke="currentColor" stroke-width="1.00" stroke-linecap="butt" stroke-linejoin="miter">
	<path stroke='black'  d='M71.9,561.0 L80.9,561.0  '/>	<g transform="translate(63.6,564.9)" stroke="none" fill="black" font-family="Helvetica" font-size="12.00"  text-anchor="end">
		<text><tspan font-family="Helvetica" > 0.2</tspan></text>
	</g>
</g>
<g fill="none" color="black" stroke="currentColor" stroke-width="1.00" stroke-linecap="butt" stroke-linejoin="miter">
	<path stroke='black'  d='M71.9,459.6 L80.9,459.6  '/>	<g transform="translate(63.6,463.5)" stroke="none" fill="black" font-family="Helvetica" font-size="12.00"  text-anchor="end">
		<text><tspan font-family="Helvetica" > 0.4</tspan></text>
	</g>
</g>
<g fill="none" color="black" stroke="currentColor" stroke-width="1.00" stroke-linecap="butt" stroke-linejoin="miter">
	<path stroke='black'  d='M71.9,358.2 L80.9,358.2  '/>	<g transform="translate(63.6,362.1)" stroke="none" fill="black" font-family="Helvetica" font-size="12.00"  text-anchor="end">
		<text><tspan font-family="Helvetica" > 0.6</tspan></text>
	</g>
</g>
<g fill="none" color="black" stroke="currentColor" stroke-width="1.00" stroke-linecap="butt" stroke-linejoin="miter">
	<path stroke='black'  d='M71.9,256.9 L80.9,256.9  '/>	<g transform="translate(63.6,260.8)" stroke="none" fill="black" font-family="Helvetica" font-size="12.00"  text-anchor="end">
		<text><tspan font-family="Helvetica" > 0.8</tspan></text>
	</g>
</g>
<g fill="none" color="black" stroke="currentColor" stroke-width="1.00" stroke-linecap="butt" stroke-linejoin="miter">
	<path stroke='black'  d='M71.9,155.5 L80.9,155.5  '/>	<g transform="translate(63.6,159.4)" stroke="none" fill="black" font-family="Helvetica" font-size="12.00"  text-anchor="end">
		<text><tspan font-family="Helvetica" > 1</tspan></text>
	</g>
</g>
<g fill="none" color="black" stroke="currentColor" stroke-width="1.00" stroke-linecap="butt" stroke-linejoin="miter">
	<path stroke='black'  d='M71.9,54.1 L80.9,54.1  '/>	<g transform="translate(63.6,58.0)" stroke="none" fill="black" font-family="Helvetica" font-size="12.00"  text-anchor="end">
		<text><tspan font-family="Helvetica" > 1.2</tspan></text>
	</g>
</g>
<g fill="none" color="black" stroke="currentColor" stroke-width="1.00" stroke-linecap="butt" stroke-linejoin="miter">
	<path stroke='black'  d='M71.9,662.4 L71.9,653.4  '/>	<g transform="translate(71.9,684.3)" stroke="none" fill="black" font-family="Helvetica" font-size="12.00"  text-anchor="middle">
		<text><tspan font-family="Helvetica" > 25</tspan></text>
	</g>
</g>
<g fill="none" color="black" stroke="currentColor" stroke-width="1.00" stroke-linecap="butt" stroke-linejoin="miter">
	<path stroke='black'  d='M203.1,662.4 L203.1,653.4  '/>	<g transform="translate(203.1,684.3)" stroke="none" fill="black" font-family="Helvetica" font-size="12.00"  text-anchor="middle">
		<text><tspan font-family="Helvetica" > 26</tspan></text>
	</g>
</g>
<g fill="none" color="black" stroke="currentColor" stroke-width="1.00" stroke-linecap="butt" stroke-linejoin="miter">
	<path stroke='black'  d='M334.3,662.4 L334.3,653.4  '/>	<g transform="translate(334.3,684.3)" stroke="none" fill="black" font-family="Helvetica" font-size="12.00"  text-anchor="middle">
		<text><tspan font-family="Helvetica" > 27</tspan></text>
	</g>
</g>
<g fill="none" color="black" stroke="currentColor" stroke-width="1.00" stroke-linecap="butt" stroke-linejoin="miter">
	<path stroke='black'  d='M465.5,662.4 L465.5,653.4  '/>	<g transform="translate(465.5,684.3)" stroke="none" fill="black" font-family="Helvetica" font-size="12.00"  text-anchor="middle">
		<text><tspan font-family="Helvetica" > 28</tspan></text>
	</g>
</g>
<g fill="none" color="black" stroke="currentColor" stroke-width="1.00" stroke-linecap="butt" stroke-linejoin="miter">
	<path stroke='black'  d='M596.7,662.4 L596.7,653.4  '/>	<g transform="translate(596.7,684.3)" stroke="none" fill="black" font-family="Helvetica" font-size="12.00"  text-anchor="middle">
		<text><tspan font-family="Helvetica" > 29</tspan></text>
	</g>
</g>
<g fill="none" color="black" stroke="currentColor" stroke-width="1.00" stroke-linecap="butt" stroke-linejoin="miter">
	<path stroke='black'  d='M727.9,662.4 L727.9,653.4  '/>	<g transform="translate(727.9,684.3)" stroke="none" fill="black" font-family="Helvetica" font-size="12.00"  text-anchor="middle">
		<text><tspan font-family="Helvetica" > 30</tspan></text>
	</g>
</g>
<g fill="none" color="black" stroke="currentColor" stroke-width="1.00" stroke-linecap="butt" stroke-linejoin="miter">
	<path stroke='black'  d='M859.1,662.4 L859.1,653.4  '/>	<g transform="translate(859.1,684.3)" stroke="none" fill="black" font-family="Helvetica" font-size="12.00"  text-anchor="middle">
		<text><tspan font-family="Helvetica" > 31</tspan></text>
	</g>
</g>
<g fill="none" color="black" stroke="currentColor" stroke-width="1.00" stroke-linecap="butt" stroke-linejoin="miter">
	<path stroke='black'  d='M990.3,662.4 L990.3,653.4  '/>	<g transform="translate(990.3,684.3)" stroke="none" fill="black" font-family="Helvetica" font-size="12.00"  text-anchor="middle">
		<text><tspan font-family="Helvetica" > 32</tspan></text>
	</g>
</g>
<g fill="none" color="black" stroke="currentColor" stroke-width="1.00" stroke-linecap="butt" stroke-linejoin="miter">
	<path stroke='black'  d='M1121.5,662.4 L1121.5,653.4  '/>	<g transform="translate(1121.5,684.3)" stroke="none" fill="black" font-family="Helvetica" font-size="12.00"  text-anchor="middle">
		<text><tspan font-family="Helvetica" > 33</tspan></text>
	</g>
</g>
<g fill="none" color="black" stroke="currentColor" stroke-width="1.00" stroke-linecap="butt" stroke-linejoin="miter">
</g>
<g fill="none" color="black" stroke="currentColor" stroke-width="1.00" stroke-linecap="butt" stroke-linejoin="miter">
	<path stroke='black'  d='M71.9,54.1 L71.9,662.4 L1121.5,662.4 L1121.5,54.1 L71.9,54.1 Z  '/></g>
<g fill="none" color="black" stroke="currentColor" stroke-width="1.00" stroke-linecap="butt" stroke-linejoin="miter">
	<g transform="translate(16.3,358.3) rotate(270)" stroke="none" fill="black" font-family="Helvetica" font-size="12.00"  text-anchor="middle">
		<text><tspan font-family="Helvetica" >Density (a.u.)</tspan></text>
	</g>
</g>
<g fill="none" color="black" stroke="currentColor" stroke-width="1.00" stroke-linecap="butt" stroke-linejoin="miter">
	<g transform="translate(596.7,711.3)" stroke="none" fill="black" font-family="Helvetica" font-size="12.00"  text-anchor="middle">
		<text><tspan font-family="Helvetica" >Average time (us)</tspan></text>
	</g>
</g>
<g fill="none" color="black" stroke="currentColor" stroke-width="1.00" stroke-linecap="butt" stroke-linejoin="miter">
	<g transform="translate(596.7,31.0)" stroke="none" fill="black" font-family="Helvetica" font-size="12.00"  text-anchor="middle">
		<text><tspan font-family="Helvetica" >snapshot_restore_with_dense/Sparse: Entire region + process_vm_writev/2</tspan></text>
	</g>
</g>
	<g id="gnuplot_plot_1" ><title>Base PDF</title>
<g fill="none" color="black" stroke="currentColor" stroke-width="1.00" stroke-linecap="butt" stroke-linejoin="miter">
	<g transform="translate(1196.9,67.0)" stroke="none" fill="black" font-family="Helvetica" font-size="12.00"  text-anchor="start">
		<text><tspan font-family="Helvetica" >Base PDF</tspan></text>
	</g>
</g>
<g fill="none" color="black" stroke="currentColor" stroke-width="1.00" stroke-linecap="butt" stroke-linejoin="miter">
	<g stroke='none' shape-rendering='crispEdges'>
		<polygon fill = 'rgb(227,  26,  28)' fill-opacity = '0.500000' points = '1146.4,67.6 1188.6,67.6 1188.6,58.6 1146.4,58.6 '/>
		<polygon fill = 'rgb(227,  26,  28)' fill-opacity = '0.500000' points = '133.9,659.3 135.8,658.8 137.6,658.2 139.5,657.6 141.4,656.8 143.2,655.9 145.1,655.0 146.9,653.9 148.8,652.6 150.7,651.2 152.5,649.6 154.4,647.8 156.3,645.8 158.1,643.6 160.0,641.1 161.8,638.4
163.7,635.3 165.6,632.0 167.4,628.3 169.3,624.3 171.1,619.8 173.0,615.0 174.9,609.7 176.7,604.0 178.6,597.8 180.5,591.1 182.3,583.8 184.2,576.1 186.0,567.7 187.9,558.8 189.8,549.4 191.6,539.3
193.5,528.6 195.3,517.4 197.2,505.5 199.1,493.1 200.9,480.1 202.8,466.5 204.7,452.3 206.5,437.7 208.4,422.5 210.2,407.0 212.1,391.0 214.0,374.6 215.8,357.9 217.7,341.0 219.6,323.9 221.4,306.7
223.3,289.4 225.1,272.2 227.0,255.0 228.9,238.0 230.7,221.3 232.6,205.0 234.4,189.1 236.3,173.7 238.2,158.9 240.0,144.8 241.9,131.5 243.8,119.1 245.6,107.5 247.5,97.0 249.3,87.5 251.2,79.1
253.1,71.8 254.9,65.8 256.8,61.0 258.6,57.5 260.5,55.3 262.4,54.4 264.2,54.8 266.1,56.5 268.0,59.4 269.8,63.7 271.7,69.1 273.5,75.8 275.4,83.6 277.3,92.5 279.1,102.4 281.0,113.4
282.9,125.2 284.7,137.8 286.6,151.2 288.4,165.3 290.3,179.9 292.2,195.1 294.0,210.7 295.9,226.6 297.7,242.8 299.6,259.2 301.5,275.7 303.3,292.2 305.2,308.6 307.1,325.0 308.9,341.1 310.8,357.1
312.6,372.7 314.5,388.0 316.4,402.9 318.2,417.4 320.1,431.4 321.9,444.9 323.8,457.9 325.7,470.4 327.5,482.4 329.4,493.8 331.3,504.6 333.1,514.9 335.0,524.6 336.8,533.8 338.7,542.4 340.6,550.5
342.4,558.1 344.3,565.1 346.1,571.7 348.0,577.9 349.9,583.6 351.7,588.8 353.6,593.7 355.5,598.2 357.3,602.4 359.2,606.2 361.0,609.7 362.9,612.9 364.8,615.9 366.6,618.6 368.5,621.1 370.4,623.4
372.2,625.5 374.1,627.4 375.9,629.2 377.8,630.8 379.7,632.3 381.5,633.7 383.4,635.0 385.2,636.2 387.1,637.3 389.0,638.3 390.8,639.3 392.7,640.1 394.6,641.0 396.4,641.7 398.3,642.4 400.1,643.1
402.0,643.7 403.9,644.3 405.7,644.9 407.6,645.3 409.4,645.8 411.3,646.2 413.2,646.6 415.0,646.9 416.9,647.2 418.8,647.5 420.6,647.7 422.5,647.9 424.3,648.0 426.2,648.1 428.1,648.2 429.9,648.2
431.8,648.2 433.7,648.1 435.5,648.0 437.4,647.9 439.2,647.8 441.1,647.6 443.0,647.4 444.8,647.1 446.7,646.9 448.5,646.6 450.4,646.3 452.3,645.9 454.1,645.6 456.0,645.3 457.9,644.9 459.7,644.6
461.6,644.3 463.4,643.9 465.3,643.6 467.2,643.3 469.0,643.0 470.9,642.8 472.7,642.5 474.6,642.3 476.5,642.1 478.3,642.0 480.2,641.8 482.1,641.8 483.9,641.7 485.8,641.7 487.6,641.7 489.5,641.8
491.4,641.9 493.2,642.1 495.1,642.3 497.0,642.5 498.8,642.8 500.7,643.1 502.5,643.5 504.4,643.8 506.3,644.3 508.1,644.7 510.0,645.2 511.8,645.7 513.7,646.2 515.6,646.7 517.4,647.3 519.3,647.8
521.2,648.4 523.0,649.0 524.9,649.6 526.7,650.2 528.6,650.7 530.5,651.3 532.3,651.9 534.2,652.5 536.0,653.0 537.9,653.6 539.8,654.1 541.6,654.6 543.5,655.1 545.4,655.6 547.2,656.1 549.1,656.5
550.9,657.0 552.8,657.4 554.7,657.8 556.5,658.1 558.4,658.5 560.2,658.8 562.1,659.1 564.0,659.4 565.8,659.7 567.7,659.9 569.6,660.2 571.4,660.4 573.3,660.6 575.1,660.8 577.0,660.9 578.9,661.1
580.7,661.2 582.6,661.3 584.5,661.5 586.3,661.6 588.2,661.6 590.0,661.7 591.9,661.8 593.8,661.9 595.6,661.9 597.5,662.0 599.3,662.0 601.2,662.1 603.1,662.1 604.9,662.1 606.8,662.1 608.7,662.1
610.5,662.2 612.4,662.2 614.2,662.2 616.1,662.2 618.0,662.1 619.8,662.1 621.7,662.1 623.5,662.1 625.4,662.1 627.3,662.0 629.1,662.0 631.0,662.0 632.9,661.9 634.7,661.9 636.6,661.8 638.4,661.8
640.3,661.7 642.2,661.6 644.0,661.5 645.9,661.4 647.8,661.3 649.6,661.2 651.5,661.1 653.3,661.0 655.2,660.9 657.1,660.8 658.9,660.6 660.8,660.5 662.6,660.3 664.5,660.2 666.4,660.0 668.2,659.9
670.1,659.7 672.0,659.5 673.8,659.3 675.7,659.1 677.5,658.9 679.4,658.7 681.3,658.5 683.1,658.3 685.0,658.1 686.8,657.9 688.7,657.7 690.6,657.5 692.4,657.3 694.3,657.2 696.2,657.0 698.0,656.8
699.9,656.6 701.7,656.5 703.6,656.3 705.5,656.2 707.3,656.1 709.2,655.9 711.1,655.8 712.9,655.7 714.8,655.7 716.6,655.6 718.5,655.6 720.4,655.5 722.2,655.5 724.1,655.5 725.9,655.6 727.8,655.6
729.7,655.6 731.5,655.7 733.4,655.8 735.3,655.9 737.1,656.0 739.0,656.1 740.8,656.2 742.7,656.4 744.6,656.5 746.4,656.7 748.3,656.9 750.1,657.1 752.0,657.2 753.9,657.4 755.7,657.6 757.6,657.8
759.5,658.0 761.3,658.2 763.2,658.4 765.0,658.6 766.9,658.8 768.8,659.0 770.6,659.2 772.5,659.4 774.4,659.6 776.2,659.8 778.1,659.9 779.9,660.1 781.8,660.3 783.7,660.4 785.5,660.6 787.4,660.7
789.2,660.8 791.1,661.0 793.0,661.1 794.8,661.2 796.7,661.3 798.6,661.4 800.4,661.5 802.3,661.6 804.1,661.6 806.0,661.7 807.9,661.8 809.7,661.8 811.6,661.9 813.4,661.9 815.3,662.0 817.2,662.0
819.0,662.1 820.9,662.1 822.8,662.1 824.6,662.1 826.5,662.2 828.3,662.2 830.2,662.2 832.1,662.2 833.9,662.2 835.8,662.2 837.6,662.2 839.5,662.2 841.4,662.2 843.2,662.2 845.1,662.1 847.0,662.1
848.8,662.1 850.7,662.1 852.5,662.0 854.4,662.0 856.3,661.9 858.1,661.9 860.0,661.8 861.9,661.8 863.7,661.7 865.6,661.6 867.4,661.6 869.3,661.5 871.2,661.4 873.0,661.3 874.9,661.2 876.7,661.1
878.6,661.0 880.5,660.8 882.3,660.7 884.2,660.6 886.1,660.4 887.9,660.3 889.8,660.1 891.6,659.9 893.5,659.8 895.4,659.6 897.2,659.4 899.1,659.2 900.9,659.0 902.8,658.8 904.7,658.6 906.5,658.4
908.4,658.2 910.3,658.0 912.1,657.8 914.0,657.6 915.8,657.4 917.7,657.3 919.6,657.1 921.4,656.9 923.3,656.7 925.2,656.5 927.0,656.4 928.9,656.2 930.7,656.1 932.6,656.0 934.5,655.9 936.3,655.8
938.2,655.7 940.0,655.6 941.9,655.6 943.8,655.6 945.6,655.5 947.5,655.5 949.4,655.5 951.2,655.6 953.1,655.6 954.9,655.7 956.8,655.7 958.7,655.8 960.5,655.9 962.4,656.1 964.2,656.2 966.1,656.3
968.0,656.5 969.8,656.6 971.7,656.8 973.6,657.0 975.4,657.2 977.3,657.3 979.1,657.5 981.0,657.7 982.9,657.9 984.7,658.1 986.6,658.3 988.5,658.5 990.3,658.7 992.2,658.9 994.0,659.1 995.9,659.3
997.8,659.5 999.6,659.7 1001.5,659.9 1003.3,660.0 1005.2,660.2 1007.1,660.3 1008.9,660.5 1010.8,660.6 1012.7,660.8 1014.5,660.9 1016.4,661.0 1018.2,661.1 1020.1,661.3 1022.0,661.4 1023.8,661.4 1025.7,661.5
1027.5,661.6 1029.4,661.7 1031.3,661.8 1033.1,661.8 1035.0,661.9 1036.9,661.9 1038.7,662.0 1040.6,662.0 1042.4,662.1 1044.3,662.1 1046.2,662.1 1048.0,662.2 1049.9,662.2 1051.7,662.2 1053.6,662.2 1055.5,662.3
1057.3,662.3 1059.2,662.3 1061.1,662.3 1062.9,662.3 1062.9,662.4 1061.1,662.4 1059.2,662.4 1057.3,662.4 1055.5,662.4 1053.6,662.4 1051.7,662.4 1049.9,662.4 1048.0,662.4 1046.2,662.4 1044.3,662.4 1042.4,662.4
1040.6,662.4 1038.7,662.4 1036.9,662.4 1035.0,662.4 1033.1,662.4 1031.3,662.4 1029.4,662.4 1027.5,662.4 1025.7,662.4 1023.8,662.4 1022.0,662.4 1020.1,662.4 1018.2,662.4 1016.4,662.4 1014.5,662.4 1012.7,662.4
1010.8,662.4 1008.9,662.4 1007.1,662.4 1005.2,662.4 1003.3,662.4 1001.5,662.4 999.6,662.4 997.8,662.4 995.9,662.4 994.0,662.4 992.2,662.4 990.3,662.4 988.5,662.4 986.6,662.4 984.7,662.4 982.9,662.4
981.0,662.4 979.1,662.4 977.3,662.4 975.4,662.4 973.6,662.4 971.7,662.4 969.8,662.4 968.0,662.4 966.1,662.4 964.2,662.4 962.4,662.4 960.5,662.4 958.7,662.4 956.8,662.4 954.9,662.4 953.1,662.4
951.2,662.4 949.4,662.4 947.5,662.4 945.6,662.4 943.8,662.4 941.9,662.4 940.0,662.4 938.2,662.4 936.3,662.4 934.5,662.4 932.6,662.4 930.7,662.4 928.9,662.4 927.0,662.4 925.2,662.4 923.3,662.4
921.4,662.4 919.6,662.4 917.7,662.4 915.8,662.4 914.0,662.4 912.1,662.4 910.3,662.4 908.4,662.4 906.5,662.4 904.7,662.4 902.8,662.4 900.9,662.4 899.1,662.4 897.2,662.4 895.4,662.4 893.5,662.4
891.6,662.4 889.8,662.4 887.9,662.4 886.1,662.4 884.2,662.4 882.3,662.4 880.5,662.4 878.6,662.4 876.7,662.4 874.9,662.4 873.0,662.4 871.2,662.4 869.3,662.4 867.4,662.4 865.6,662.4 863.7,662.4
861.9,662.4 860.0,662.4 858.1,662.4 856.3,662.4 854.4,662.4 852.5,662.4 850.7,662.4 848.8,662.4 847.0,662.4 845.1,662.4 843.2,662.4 841.4,662.4 839.5,662.4 837.6,662.4 835.8,662.4 833.9,662.4
832.1,662.4 830.2,662.4 828.3,662.4 826.5,662.4 824.6,662.4 822.8,662.4 820.9,662.4 819.0,662.4 817.2,662.4 815.3,662.4 813.4,662.4 811.6,662.4 809.7,662.4 807.9,662.4 806.0,662.4 804.1,662.4
802.3,662.4 800.4,662.4 798.6,662.4 796.7,662.4 794.8,662.4 793.0,662.4 791.1,662.4 789.2,662.4 787.4,662.4 785.5,662.4 783.7,662.4 781.8,662.4 779.9,662.4 778.1,662.4 776.2,662.4 774.4,662.4
772.5,662.4 770.6,662.4 768.8,662.4 766.9,662.4 765.0,662.4 763.2,662.4 761.3,662.4 759.5,662.4 757.6,662.4 755.7,662.4 753.9,662.4 752.0,662.4 750.1,662.4 748.3,662.4 746.4,662.4 744.6,662.4
742.7,662.4 740.8,662.4 739.0,662.4 737.1,662.4 735.3,662.4 733.4,662.4 731.5,662.4 729.7,662.4 727.8,662.4 725.9,662.4 724.1,662.4 722.2,662.4 720.4,662.4 718.5,662.4 716.6,662.4 714.8,662.4
712.9,662.4 711.1,662.4 709.2,662.4 707.3,662.4 705.5,662.4 703.6,662.4 701.7,662.4 699.9,662.4 698.0,662.4 696.2,662.4 694.3,662.4 692.4,662.4 690.6,662.4 688.7,662.4 686.8,662.4 685.0,662.4
683.1,662.4 681.3,662.4 679.4,662.4 677.5,662.4 675.7,662.4 673.8,662.4 672.0,662.4 670.1,662.4 668.2,662.4 666.4,662.4 664.5,662.4 662.6,662.4 660.8,662.4 658.9,662.4 657.1,662.4 655.2,662.4
653.3,662.4 651.5,662.4 649.6,662.4 647.8,662.4 645.9,662.4 644.0,662.4 642.2,662.4 640.3,662.4 638.4,662.4 636.6,662.4 634.7,662.4 632.9,662.4 631.0,662.4 629.1,662.4 627.3,662.4 625.4,662.4
623.5,662.4 621.7,662.4 619.8,662.4 618.0,662.4 616.1,662.4 614.2,662.4 612.4,662.4 610.5,662.4 608.7,662.4 606.8,662.4 604.9,662.4 603.1,662.4 601.2,662.4 599.3,662.4 597.5,662.4 595.6,662.4
593.8,662.4 591.9,662.4 590.0,662.4 588.2,662.4 586.3,662.4 584.5,662.4 582.6,662.4 580.7,662.4 578.9,662.4 577.0,662.4 575.1,662.4 573.3,662.4 571.4,662.4 569.6,662.4 567.7,662.4 565.8,662.4
564.0,662.4 562.1,662.4 560.2,662.4 558.4,662.4 556.5,662.4 554.7,662.4 552.8,662.4 550.9,662.4 549.1,662.4 547.2,662.4 545.4,662.4 543.5,662.4 541.6,662.4 539.8,662.4 537.9,662.4 536.0,662.4
534.2,662.4 532.3,662.4 530.5,662.4 528.6,662.4 526.7,662.4 524.9,662.4 523.0,662.4 521.2,662.4 519.3,662.4 517.4,662.4 515.6,662.4 513.7,662.4 511.8,662.4 510.0,662.4 508.1,662.4 506.3,662.4
504.4,662.4 502.5,662.4 500.7,662.4 498.8,662.4 497.0,662.4 495.1,662.4 493.2,662.4 491.4,662.4 489.5,662.4 487.6,662.4 485.8,662.4 483.9,662.4 482.1,662.4 480.2,662.4 478.3,662.4 476.5,662.4
474.6,662.4 472.7,662.4 470.9,662.4 469.0,662.4 467.2,662.4 465.3,662.4 463.4,662.4 461.6,662.4 459.7,662.4 457.9,662.4 456.0,662.4 454.1,662.4 452.3,662.4 450.4,662.4 448.5,662.4 446.7,662.4
444.8,662.4 443.0,662.4 441.1,662.4 439.2,662.4 437.4,662.4 435.5,662.4 433.7,662.4 431.8,662.4 429.9,662.4 428.1,662.4 426.2,662.4 424.3,662.4 422.5,662.4 420.6,662.4 418.8,662.4 416.9,662.4
415.0,662.4 413.2,662.4 411.3,662.4 409.4,662.4 407.6,662.4 405.7,662.4 403.9,662.4 402.0,662.4 400.1,662.4 398.3,662.4 396.4,662.4 394.6,662.4 392.7,662.4 390.8,662.4 389.0,662.4 387.1,662.4
385.2,662.4 383.4,662.4 381.5,662.4 379.7,662.4 377.8,662.4 375.9,662.4 374.1,662.4 372.2,662.4 370.4,662.4 368.5,662.4 366.6,662.4 364.8,662.4 362.9,662.4 361.0,662.4 359.2,662.4 357.3,662.4
355.5,662.4 353.6,662.4 351.7,662.4 349.9,662.4 348.0,662.4 346.1,662.4 344.3,662.4 342.4,662.4 340.6,662.4 338.7,662.4 336.8,662.4 335.0,662.4 333.1,662.4 331.3,662.4 329.4,662.4 327.5,662.4
325.7,662.4 323.8,662.4 321.9,662.4 320.1,662.4 318.2,662.4 316.4,662.4 314.5,662.4 312.6,662.4 310.8,662.4 308.9,662.4 307.1,662.4 305.2,662.4 303.3,662.4 301.5,662.4 299.6,662.4 297.7,662.4
295.9,662.4 294.0,662.4 292.2,662.4 290.3,662.4 288.4,662.4 286.6,662.4 284.7,662.4 282.9,662.4 281.0,662.4 279.1,662.4 277.3,662.4 275.4,662.4 273.5,662.4 271.7,662.4 269.8,662.4 268.0,662.4
266.1,662.4 264.2,662.4 262.4,662.4 260.5,662.4 258.6,662.4 256.8,662.4 254.9,662.4 253.1,662.4 251.2,662.4 249.3,662.4 247.5,662.4 245.6,662.4 243.8,662.4 241.9,662.4 240.0,662.4 238.2,662.4
236.3,662.4 234.4,662.4 232.6,662.4 230.7,662.4 228.9,662.4 227.0,662.4 225.1,662.4 223.3,662.4 221.4,662.4 219.6,662.4 217.7,662.4 215.8,662.4 214.0,662.4 212.1,662.4 210.2,662.4 208.4,662.4
206.5,662.4 204.7,662.4 202.8,662.4 200.9,662.4 199.1,662.4 197.2,662.4 195.3,662.4 193.5,662.4 191.6,662.4 189.8,662.4 187.9,662.4 186.0,662.4 184.2,662.4 182.3,662.4 180.5,662.4 178.6,662.4
176.7,662.4 174.9,662.4 173.0,662.4 171.1,662.4 169.3,662.4 167.4,662.4 165.6,662.4 163.7,662.4 161.8,662.4 160.0,662.4 158.1,662.4 156.3,662.4 154.4,662.4 152.5,662.4 150.7,662.4 148.8,662.4
146.9,662.4 145.1,662.4 143.2,662.4 141.4,662.4 139.5,662.4 137.6,662.4 135.8,662.4 133.9,662.4 '/>
	</g>
</g>
	</g>
	<g id="gnuplot_plot_2" ><title>Base Mean</title>
<g fill="none" color="white" stroke="rgb(227,  26,  28)" stroke-width="2.00" stroke-linecap="butt" stroke-linejoin="miter">
</g>
<g fill="none" color="black" stroke="currentColor" stroke-width="2.00" stroke-linecap="butt" stroke-linejoin="miter">
	<g transform="translate(1196.9,85.0)" stroke="none" fill="black" font-family="Helvetica" font-size="12.00"  text-anchor="start">
		<text><tspan font-family="Helvetica" >Base Mean</tspan></text>
	</g>
</g>
<g fill="none" color="black" stroke="currentColor" stroke-width="2.00" stroke-linecap="butt" stroke-linejoin="miter">
	<path stroke='rgb(227,  26,  28)'  d='M1146.4,81.1 L1188.6,81.1 M284.8,662.4 L284.8,138.4  '/></g>
	</g>
	<g id="gnuplot_plot_3" ><title>New PDF</title>
<g fill="none" color="white" stroke="rgb(227,  26,  28)" stroke-width="1.00" stroke-linecap="butt" stroke-linejoin="miter">
</g>
<g fill="none" color="black" stroke="currentColor" stroke-width="1.00" stroke-linecap="butt" stroke-linejoin="miter">
	<g transform="translate(1196.9,103.0)" stroke="none" fill="black" font-family="Helvetica" font-size="12.00"  text-anchor="start">
		<text><tspan font-family="Helvetica" >New PDF</tspan></text>
	</g>
</g>
<g fill="none" color="black" stroke="currentColor" stroke-width="1.00" stroke-linecap="butt" stroke-linejoin="miter">
	<g stroke='none' shape-rendering='crispEdges'>
		<polygon fill = 'rgb( 31, 120, 180)' fill-opacity = '0.500000' points = '1146.4,103.6 1188.6,103.6 1188.6,94.6 1146.4,94.6 '/>
		<polygon fill = 'rgb( 31, 120, 180)' fill-opacity = '0.500000' points = '162.8,659.1 164.4,658.6 165.9,658.2 167.4,657.7 169.0,657.1 170.5,656.5 172.0,655.8 173.6,655.0 175.1,654.2 176.7,653.3 178.2,652.3 179.7,651.2 181.3,650.0 182.8,648.6 184.3,647.2 185.9,645.6
187.4,643.9 189.0,642.1 190.5,640.1 192.0,637.9 193.6,635.6 195.1,633.1 196.6,630.4 198.2,627.5 199.7,624.4 201.3,621.0 202.8,617.4 204.3,613.6 205.9,609.5 207.4,605.2 208.9,600.6 210.5,595.7
212.0,590.5 213.6,585.0 215.1,579.2 216.6,573.1 218.2,566.7 219.7,560.0 221.2,552.9 222.8,545.5 224.3,537.8 225.9,529.7 227.4,521.3 228.9,512.6 230.5,503.6 232.0,494.2 233.6,484.5 235.1,474.5
236.6,464.3 238.2,453.7 239.7,442.9 241.2,431.8 242.8,420.5 244.3,408.9 245.9,397.2 247.4,385.3 248.9,373.3 250.5,361.1 252.0,348.8 253.5,336.5 255.1,324.1 256.6,311.8 258.2,299.5 259.7,287.2
261.2,275.0 262.8,263.0 264.3,251.2 265.8,239.5 267.4,228.1 268.9,217.0 270.5,206.2 272.0,195.8 273.5,185.7 275.1,176.1 276.6,166.9 278.1,158.3 279.7,150.1 281.2,142.5 282.8,135.5 284.3,129.1
285.8,123.3 287.4,118.2 288.9,113.8 290.4,110.0 292.0,106.9 293.5,104.5 295.1,102.9 296.6,102.0 298.1,101.8 299.7,102.3 301.2,103.5 302.7,105.5 304.3,108.2 305.8,111.5 307.4,115.6 308.9,120.3
310.4,125.7 312.0,131.6 313.5,138.2 315.0,145.4 316.6,153.1 318.1,161.3 319.7,170.0 321.2,179.2 322.7,188.8 324.3,198.8 325.8,209.1 327.3,219.8 328.9,230.7 330.4,241.9 332.0,253.3 333.5,264.9
335.0,276.6 336.6,288.4 338.1,300.3 339.7,312.2 341.2,324.2 342.7,336.1 344.3,348.0 345.8,359.8 347.3,371.5 348.9,383.1 350.4,394.5 352.0,405.8 353.5,416.8 355.0,427.7 356.6,438.3 358.1,448.6
359.6,458.8 361.2,468.6 362.7,478.2 364.3,487.4 365.8,496.4 367.3,505.1 368.9,513.5 370.4,521.6 371.9,529.3 373.5,536.8 375.0,543.9 376.6,550.8 378.1,557.3 379.6,563.6 381.2,569.5 382.7,575.2
384.2,580.6 385.8,585.7 387.3,590.5 388.9,595.0 390.4,599.4 391.9,603.4 393.5,607.2 395.0,610.8 396.5,614.2 398.1,617.3 399.6,620.3 401.2,623.0 402.7,625.6 404.2,627.9 405.8,630.1 407.3,632.2
408.8,634.0 410.4,635.8 411.9,637.3 413.5,638.8 415.0,640.1 416.5,641.3 418.1,642.4 419.6,643.3 421.1,644.2 422.7,644.9 424.2,645.6 425.8,646.2 427.3,646.7 428.8,647.1 430.4,647.4 431.9,647.7
433.4,647.9 435.0,648.0 436.5,648.1 438.1,648.1 439.6,648.1 441.1,648.0 442.7,647.9 444.2,647.7 445.8,647.5 447.3,647.3 448.8,647.0 450.4,646.7 451.9,646.4 453.4,646.0 455.0,645.7 456.5,645.3
458.1,644.9 459.6,644.5 461.1,644.1 462.7,643.7 464.2,643.2 465.7,642.8 467.3,642.4 468.8,641.9 470.4,641.5 471.9,641.1 473.4,640.7 475.0,640.3 476.5,639.9 478.0,639.5 479.6,639.1 481.1,638.8
482.7,638.5 484.2,638.1 485.7,637.9 487.3,637.6 488.8,637.4 490.3,637.1 491.9,637.0 493.4,636.8 495.0,636.7 496.5,636.5 498.0,636.5 499.6,636.4 501.1,636.4 502.6,636.4 504.2,636.4 505.7,636.4
507.3,636.5 508.8,636.6 510.3,636.8 511.9,636.9 513.4,637.1 514.9,637.3 516.5,637.5 518.0,637.7 519.6,638.0 521.1,638.3 522.6,638.6 524.2,638.9 525.7,639.2 527.2,639.5 528.8,639.9 530.3,640.2
531.9,640.6 533.4,641.0 534.9,641.4 536.5,641.7 538.0,642.1 539.5,642.5 541.1,642.9 542.6,643.3 544.2,643.7 545.7,644.1 547.2,644.5 548.8,644.9 550.3,645.3 551.9,645.7 553.4,646.1 554.9,646.5
556.5,646.9 558.0,647.2 559.5,647.6 561.1,648.0 562.6,648.3 564.2,648.7 565.7,649.0 567.2,649.3 568.8,649.7 570.3,650.0 571.8,650.3 573.4,650.6 574.9,650.9 576.5,651.2 578.0,651.5 579.5,651.8
581.1,652.1 582.6,652.3 584.1,652.6 585.7,652.8 587.2,653.1 588.8,653.3 590.3,653.6 591.8,653.8 593.4,654.0 594.9,654.2 596.4,654.5 598.0,654.7 599.5,654.8 601.1,655.0 602.6,655.2 604.1,655.4
605.7,655.5 607.2,655.7 608.7,655.8 610.3,656.0 611.8,656.1 613.4,656.2 614.9,656.3 616.4,656.4 618.0,656.5 619.5,656.5 621.0,656.6 622.6,656.6 624.1,656.7 625.7,656.7 627.2,656.7 628.7,656.7
630.3,656.6 631.8,656.6 633.3,656.5 634.9,656.5 636.4,656.4 638.0,656.3 639.5,656.2 641.0,656.0 642.6,655.9 644.1,655.7 645.6,655.5 647.2,655.3 648.7,655.1 650.3,654.9 651.8,654.7 653.3,654.4
654.9,654.1 656.4,653.9 658.0,653.6 659.5,653.3 661.0,652.9 662.6,652.6 664.1,652.3 665.6,652.0 667.2,651.6 668.7,651.3 670.3,650.9 671.8,650.5 673.3,650.2 674.9,649.8 676.4,649.4 677.9,649.1
679.5,648.7 681.0,648.4 682.6,648.0 684.1,647.7 685.6,647.3 687.2,647.0 688.7,646.7 690.2,646.4 691.8,646.1 693.3,645.8 694.9,645.5 696.4,645.2 697.9,645.0 699.5,644.7 701.0,644.5 702.5,644.3
704.1,644.2 705.6,644.0 707.2,643.9 708.7,643.7 710.2,643.6 711.8,643.6 713.3,643.5 714.8,643.5 716.4,643.4 717.9,643.4 719.5,643.4 721.0,643.5 722.5,643.5 724.1,643.6 725.6,643.7 727.1,643.8
728.7,643.9 730.2,644.1 731.8,644.2 733.3,644.4 734.8,644.5 736.4,644.7 737.9,644.9 739.4,645.1 741.0,645.4 742.5,645.6 744.1,645.8 745.6,646.1 747.1,646.3 748.7,646.6 750.2,646.8 751.7,647.1
753.3,647.3 754.8,647.6 756.4,647.8 757.9,648.1 759.4,648.3 761.0,648.6 762.5,648.8 764.0,649.1 765.6,649.3 767.1,649.5 768.7,649.8 770.2,650.0 771.7,650.2 773.3,650.4 774.8,650.6 776.4,650.8
777.9,651.0 779.4,651.2 781.0,651.4 782.5,651.6 784.0,651.8 785.6,651.9 787.1,652.1 788.7,652.3 790.2,652.4 791.7,652.6 793.3,652.7 794.8,652.9 796.3,653.1 797.9,653.2 799.4,653.4 801.0,653.5
802.5,653.6 804.0,653.8 805.6,653.9 807.1,654.1 808.6,654.2 810.2,654.4 811.7,654.5 813.3,654.7 814.8,654.8 816.3,655.0 817.9,655.1 819.4,655.3 820.9,655.5 822.5,655.6 824.0,655.8 825.6,655.9
827.1,656.1 828.6,656.3 830.2,656.4 831.7,656.6 833.2,656.8 834.8,656.9 836.3,657.1 837.9,657.3 839.4,657.4 840.9,657.6 842.5,657.8 844.0,658.0 845.5,658.1 847.1,658.3 848.6,658.4 850.2,658.6
851.7,658.8 853.2,658.9 854.8,659.1 856.3,659.2 857.8,659.4 859.4,659.5 860.9,659.7 862.5,659.8 864.0,659.9 865.5,660.1 867.1,660.2 868.6,660.3 870.1,660.4 871.7,660.5 873.2,660.7 874.8,660.8
876.3,660.9 877.8,661.0 879.4,661.0 880.9,661.1 882.5,661.2 884.0,661.3 885.5,661.4 887.1,661.4 888.6,661.5 890.1,661.6 891.7,661.6 893.2,661.7 894.8,661.8 896.3,661.8 897.8,661.8 899.4,661.9
900.9,661.9 902.4,662.0 904.0,662.0 905.5,662.0 907.1,662.1 908.6,662.1 910.1,662.1 911.7,662.2 913.2,662.2 914.7,662.2 916.3,662.2 917.8,662.2 919.4,662.2 920.9,662.3 922.4,662.3 924.0,662.3
925.5,662.3 927.0,662.3 928.6,662.3 930.1,662.3 930.1,662.4 928.6,662.4 927.0,662.4 925.5,662.4 924.0,662.4 922.4,662.4 920.9,662.4 919.4,662.4 917.8,662.4 916.3,662.4 914.7,662.4 913.2,662.4
911.7,662.4 910.1,662.4 908.6,662.4 907.1,662.4 905.5,662.4 904.0,662.4 902.4,662.4 900.9,662.4 899.4,662.4 897.8,662.4 896.3,662.4 894.8,662.4 893.2,662.4 891.7,662.4 890.1,662.4 888.6,662.4
887.1,662.4 885.5,662.4 884.0,662.4 882.5,662.4 880.9,662.4 879.4,662.4 877.8,662.4 876.3,662.4 874.8,662.4 873.2,662.4 871.7,662.4 870.1,662.4 868.6,662.4 867.1,662.4 865.5,662.4 864.0,662.4
862.5,662.4 860.9,662.4 859.4,662.4 857.8,662.4 856.3,662.4 854.8,662.4 853.2,662.4 851.7,662.4 850.2,662.4 848.6,662.4 847.1,662.4 845.5,662.4 844.0,662.4 842.5,662.4 840.9,662.4 839.4,662.4
837.9,662.4 836.3,662.4 834.8,662.4 833.2,662.4 831.7,662.4 830.2,662.4 828.6,662.4 827.1,662.4 825.6,662.4 824.0,662.4 822.5,662.4 820.9,662.4 819.4,662.4 817.9,662.4 816.3,662.4 814.8,662.4
813.3,662.4 811.7,662.4 810.2,662.4 808.6,662.4 807.1,662.4 805.6,662.4 804.0,662.4 802.5,662.4 801.0,662.4 799.4,662.4 797.9,662.4 796.3,662.4 794.8,662.4 793.3,662.4 791.7,662.4 790.2,662.4
788.7,662.4 787.1,662.4 785.6,662.4 784.0,662.4 782.5,662.4 781.0,662.4 779.4,662.4 777.9,662.4 776.4,662.4 774.8,662.4 773.3,662.4 771.7,662.4 770.2,662.4 768.7,662.4 767.1,662.4 765.6,662.4
764.0,662.4 762.5,662.4 761.0,662.4 759.4,662.4 757.9,662.4 756.4,662.4 754.8,662.4 753.3,662.4 751.7,662.4 750.2,662.4 748.7,662.4 747.1,662.4 745.6,662.4 744.1,662.4 742.5,662.4 741.0,662.4
739.4,662.4 737.9,662.4 736.4,662.4 734.8,662.4 733.3,662.4 731.8,662.4 730.2,662.4 728.7,662.4 727.1,662.4 725.6,662.4 724.1,662.4 722.5,662.4 721.0,662.4 719.5,662.4 717.9,662.4 716.4,662.4
714.8,662.4 713.3,662.4 711.8,662.4 710.2,662.4 708.7,662.4 707.2,662.4 705.6,662.4 704.1,662.4 702.5,662.4 701.0,662.4 699.5,662.4 697.9,662.4 696.4,662.4 694.9,662.4 693.3,662.4 691.8,662.4
690.2,662.4 688.7,662.4 687.2,662.4 685.6,662.4 684.1,662.4 682.6,662.4 681.0,662.4 679.5,662.4 677.9,662.4 676.4,662.4 674.9,662.4 673.3,662.4 671.8,662.4 670.3,662.4 668.7,662.4 667.2,662.4
665.6,662.4 664.1,662.4 662.6,662.4 661.0,662.4 659.5,662.4 658.0,662.4 656.4,662.4 654.9,662.4 653.3,662.4 651.8,662.4 650.3,662.4 648.7,662.4 647.2,662.4 645.6,662.4 644.1,662.4 642.6,662.4
641.0,662.4 639.5,662.4 638.0,662.4 636.4,662.4 634.9,662.4 633.3,662.4 631.8,662.4 630.3,662.4 628.7,662.4 627.2,662.4 625.7,662.4 624.1,662.4 622.6,662.4 621.0,662.4 619.5,662.4 618.0,662.4
616.4,662.4 614.9,662.4 613.4,662.4 611.8,662.4 610.3,662.4 608.7,662.4 607.2,662.4 605.7,662.4 604.1,662.4 602.6,662.4 601.1,662.4 599.5,662.4 598.0,662.4 596.4,662.4 594.9,662.4 593.4,662.4
591.8,662.4 590.3,662.4 588.8,662.4 587.2,662.4 585.7,662.4 584.1,662.4 582.6,662.4 581.1,662.4 579.5,662.4 578.0,662.4 576.5,662.4 574.9,662.4 573.4,662.4 571.8,662.4 570.3,662.4 568.8,662.4
567.2,662.4 565.7,662.4 564.2,662.4 562.6,662.4 561.1,662.4 559.5,662.4 558.0,662.4 556.5,662.4 554.9,662.4 553.4,662.4 551.9,662.4 550.3,662.4 548.8,662.4 547.2,662.4 545.7,662.4 544.2,662.4
542.6,662.4 541.1,662.4 539.5,662.4 538.0,662.4 536.5,662.4 534.9,662.4 533.4,662.4 531.9,662.4 530.3,662.4 528.8,662.4 527.2,662.4 525.7,662.4 524.2,662.4 522.6,662.4 521.1,662.4 519.6,662.4
518.0,662.4 516.5,662.4 514.9,662.4 513.4,662.4 511.9,662.4 510.3,662.4 508.8,662.4 507.3,662.4 505.7,662.4 504.2,662.4 502.6,662.4 501.1,662.4 499.6,662.4 498.0,662.4 496.5,662.4 495.0,662.4
493.4,662.4 491.9,662.4 490.3,662.4 488.8,662.4 487.3,662.4 485.7,662.4 484.2,662.4 482.7,662.4 481.1,662.4 479.6,662.4 478.0,662.4 476.5,662.4 475.0,662.4 473.4,662.4 471.9,662.4 470.4,662.4
468.8,662.4 467.3,662.4 465.7,662.4 464.2,662.4 462.7,662.4 461.1,662.4 459.6,662.4 458.1,662.4 456.5,662.4 455.0,662.4 453.4,662.4 451.9,662.4 450.4,662.4 448.8,662.4 447.3,662.4 445.8,662.4
444.2,662.4 442.7,662.4 441.1,662.4 439.6,662.4 438.1,662.4 436.5,662.4 435.0,662.4 433.4,662.4 431.9,662.4 430.4,662.4 428.8,662.4 427.3,662.4 425.8,662.4 424.2,662.4 422.7,662.4 421.1,662.4
419.6,662.4 418.1,662.4 416.5,662.4 415.0,662.4 413.5,662.4 411.9,662.4 410.4,662.4 408.8,662.4 407.3,662.4 405.8,662.4 404.2,662.4 402.7,662.4 401.2,662.4 399.6,662.4 398.1,662.4 396.5,662.4
395.0,662.4 393.5,662.4 391.9,662.4 390.4,662.4 388.9,662.4 387.3,662.4 385.8,662.4 384.2,662.4 382.7,662.4 381.2,662.4 379.6,662.4 378.1,662.4 376.6,662.4 375.0,662.4 373.5,662.4 371.9,662.4
370.4,662.4 368.9,662.4 367.3,662.4 365.8,662.4 364.3,662.4 362.7,662.4 361.2,662.4 359.6,662.4 358.1,662.4 356.6,662.4 355.0,662.4 353.5,662.4 352.0,662.4 350.4,662.4 348.9,662.4 347.3,662.4
345.8,662.4 344.3,662.4 342.7,662.4 341.2,662.4 339.7,662.4 338.1,662.4 336.6,662.4 335.0,662.4 333.5,662.4 332.0,662.4 330.4,662.4 328.9,662.4 327.3,662.4 325.8,662.4 324.3,662.4 322.7,662.4
321.2,662.4 319.7,662.4 318.1,662.4 316.6,662.4 315.0,662.4 313.5,662.4 312.0,662.4 310.4,662.4 308.9,662.4 307.4,662.4 305.8,662.4 304.3,662.4 302.7,662.4 301.2,662.4 299.7,662.4 298.1,662.4
296.6,662.4 295.1,662.4 293.5,662.4 292.0,662.4 290.4,662.4 288.9,662.4 287.4,662.4 285.8,662.4 284.3,662.4 282.8,662.4 281.2,662.4 279.7,662.4 278.1,662.4 276.6,662.4 275.1,662.4 273.5,662.4
272.0,662.4 270.5,662.4 268.9,662.4 267.4,662.4 265.8,662.4 264.3,662.4 262.8,662.4 261.2,662.4 259.7,662.4 258.2,662.4 256.6,662.4 255.1,662.4 253.5,662.4 252.0,662.4 250.5,662.4 248.9,662.4
247.4,662.4 245.9,662.4 244.3,662.4 242.8,662.4 241.2,662.4 239.7,662.4 238.2,662.4 236.6,662.4 235.1,662.4 233.6,662.4 232.0,662.4 230.5,662.4 228.9,662.4 227.4,662.4 225.9,662.4 224.3,662.4
222.8,662.4 221.2,662.4 219.7,662.4 218.2,662.4 216.6,662.4 215.1,662.4 213.6,662.4 212.0,662.4 210.5,662.4 208.9,662.4 207.4,662.4 205.9,662.4 204.3,662.4 202.8,662.4 201.3,662.4 199.7,662.4
198.2,662.4 196.6,662.4 195.1,662.4 193.6,662.4 192.0,662.4 190.5,662.4 189.0,662.4 187.4,662.4 185.9,662.4 184.3,662.4 182.8,662.4 181.3,662.4 179.7,662.4 178.2,662.4 176.7,662.4 175.1,662.4
173.6,662.4 172.0,662.4 170.5,662.4 169.0,662.4 167.4,662.4 165.9,662.4 164.4,662.4 162.8,662.4 '/>
	</g>
</g>
	</g>
	<g id="gnuplot_plot_4" ><title>New Mean</title>
<g fill="none" color="white" stroke="rgb( 31, 120, 180)" stroke-width="2.00" stroke-linecap="butt" stroke-linejoin="miter">
</g>
<g fill="none" color="black" stroke="currentColor" stroke-width="2.00" stroke-linecap="butt" stroke-linejoin="miter">
	<g transform="translate(1196.9,121.0)" stroke="none" fill="black" font-family="Helvetica" font-size="12.00"  text-anchor="start">
		<text><tspan font-family="Helvetica" >New Mean</tspan></text>
	</g>
</g>
<g fill="none" color="black" stroke="currentColor" stroke-width="2.00" stroke-linecap="butt" stroke-linejoin="miter">
	<path stroke='rgb( 31, 120, 180)'  d='M1146.4,117.1 L1188.6,117.1 M327.4,662.4 L327.4,220.3  '/></g>
	</g>
<g fill="none" color="black" stroke="currentColor" stroke-width="2.00" stroke-linecap="butt" stroke-linejoin="miter">
</g>
<g fill="none" color="black" stroke="black" stroke-width="1.00" stroke-linecap="butt" stroke-linejoin="miter">
</g>
<g fill="none" color="black" stroke="currentColor" stroke-width="1.00" stroke-linecap="butt" stroke-linejoin="miter">
	<path stroke='black'  d='M71.9,54.1 L71.9,662.4 L1121.5,662.4 L1121.5,54.1 L71.9,54.1 Z  '/></g>
<g fill="none" color="black" stroke="currentColor" stroke-width="1.00" stroke-linecap="butt" stroke-linejoin="miter">
</g>
</g>
</svg>

