<?xml version="1.0" encoding="utf-8"  standalone="no"?>
<svg 
 viewBox="0 0 1280 720"
 xmlns="http://www.w3.org/2000/svg"
 xmlns:xlink="http://www.w3.org/1999/xlink"
>

<title>Gnuplot</title>
<desc>Produced by GNUPLOT 5.2 patchlevel 6 </desc>

<g id="gnuplot_canvas">

<rect x="0" y="0" width="1280" height="720" fill="none"/>
<defs>

	<circle id='gpDot' r='0.5' stroke-width='0.5' stroke='currentColor'/>
	<path id='gpPt0' stroke-width='0.222' stroke='currentColor' d='M-1,0 h2 M0,-1 v2'/>
	<path id='gpPt1' stroke-width='0.222' stroke='currentColor' d='M-1,-1 L1,1 M1,-1 L-1,1'/>
	<path id='gpPt2' stroke-width='0.222' stroke='currentColor' d='M-1,0 L1,0 M0,-1 L0,1 M-1,-1 L1,1 M-1,1 L1,-1'/>
	<rect id='gpPt3' stroke-width='0.222' stroke='currentColor' x='-1' y='-1' width='2' height='2'/>
	<rect id='gpPt4' stroke-width='0.222' stroke='currentColor' fill='currentColor' x='-1' y='-1' width='2' height='2'/>
	<circle id='gpPt5' stroke-width='0.222' stroke='currentColor' cx='0' cy='0' r='1'/>
	<use xlink:href='#gpPt5' id='gpPt6' fill='currentColor' stroke='none'/>
	<path id='gpPt7' stroke-width='0.222' stroke='currentColor' d='M0,-1.33 L-1.33,0.67 L1.33,0.67 z'/>
	<use xlink:href='#gpPt7' id='gpPt8' fill='currentColor' stroke='none'/>
	<use xlink:href='#gpPt7' id='gpPt9' stroke='currentColor' transform='rotate(180)'/>
	<use xlink:href='#gpPt9' id='gpPt10' fill='currentColor' stroke='none'/>
	<use xlink:href='#gpPt3' id='gpPt11' stroke='currentColor' transform='rotate(45)'/>
	<use xlink:href='#gpPt11' id='gpPt12' fill='currentColor' stroke='none'/>
	<path id='gpPt13' stroke-width='0.222' stroke='currentColor' d='M0,1.330 L1.265,0.411 L0.782,-1.067 L-0.782,-1.076 L-1.265,0.411 z'/>
	<use xlink:href='#gpPt13' id='gpPt14' fill='currentColor' stroke='none'/>
	<filter id='textbox' filterUnits='objectBoundingBox' x='0' y='0' height='1' width='1'>
	  <feFlood flood-color='white' flood-opacity='1' result='bgnd'/>
	  <feComposite in='SourceGraphic' in2='bgnd' operator='atop'/>
	</filter>
	<filter id='greybox' filterUnits='objectBoundingBox' x='0' y='0' height='1' width='1'>
	  <feFlood flood-color='lightgrey' flood-opacity='1' result='grey'/>
	  <feComposite in='SourceGraphic' in2='grey' operator='atop'/>
	</filter>
</defs>
<g fill="none" color="white" stroke="currentColor" stroke-width="1.00" stroke-linecap="butt" stroke-linejoin="miter">
</g>
<g fill="none" color="black" stroke="currentColor" stroke-width="1.00" stroke-linecap="butt" stroke-linejoin="miter">
	<path stroke='black'  d='M71.9,662.4 L80.9,662.4  '/>	<g transform="translate(63.6,666.3)" stroke="none" fill="black" font-family="Helvetica" font-size="12.00"  text-anchor="end">
		<text><tspan font-family="Helvetica" > 0</tspan></text>
	</g>
</g>
<g fill="none" color="black" stroke="currentColor" stroke-width="1.00" stroke-linecap="butt" stroke-linejoin="miter">
	<path stroke='black'  d='M71.9,540.7 L80.9,540.7  '/>	<g transform="translate(63.6,544.6)" stroke="none" fill="black" font-family="Helvetica" font-size="12.00"  text-anchor="end">
		<text><tspan font-family="Helvetica" > 20</tspan></text>
	</g>
</g>
<g fill="none" color="black" stroke="currentColor" stroke-width="1.00" stroke-linecap="butt" stroke-linejoin="miter">
	<path stroke='black'  d='M71.9,419.1 L80.9,419.1  '/>	<g transform="translate(63.6,423.0)" stroke="none" fill="black" font-family="Helvetica" font-size="12.00"  text-anchor="end">
		<text><tspan font-family="Helvetica" > 40</tspan></text>
	</g>
</g>
<g fill="none" color="black" stroke="currentColor" stroke-width="1.00" stroke-linecap="butt" stroke-linejoin="miter">
	<path stroke='black'  d='M71.9,297.4 L80.9,297.4  '/>	<g transform="translate(63.6,301.3)" stroke="none" fill="black" font-family="Helvetica" font-size="12.00"  text-anchor="end">
		<text><tspan font-family="Helvetica" > 60</tspan></text>
	</g>
</g>
<g fill="none" color="black" stroke="currentColor" stroke-width="1.00" stroke-linecap="butt" stroke-linejoin="miter">
	<path stroke='black'  d='M71.9,175.8 L80.9,175.8  '/>	<g transform="translate(63.6,179.7)" stroke="none" fill="black" font-family="Helvetica" font-size="12.00"  text-anchor="end">
		<text><tspan font-family="Helvetica" > 80</tspan></text>
	</g>
</g>
<g fill="none" color="black" stroke="currentColor" stroke-width="1.00" stroke-linecap="butt" stroke-linejoin="miter">
	<path stroke='black'  d='M71.9,54.1 L80.9,54.1  '/>	<g transform="translate(63.6,58.0)" stroke="none" fill="black" font-family="Helvetica" font-size="12.00"  text-anchor="end">
		<text><tspan font-family="Helvetica" > 100</tspan></text>
	</g>
</g>
<g fill="none" color="black" stroke="currentColor" stroke-width="1.00" stroke-linecap="butt" stroke-linejoin="miter">
	<path stroke='black'  d='M119.3,662.4 L119.3,653.4  '/>	<g transform="translate(119.3,684.3)" stroke="none" fill="black" font-family="Helvetica" font-size="12.00"  text-anchor="middle">
		<text><tspan font-family="Helvetica" > 5.9</tspan></text>
	</g>
</g>
<g fill="none" color="black" stroke="currentColor" stroke-width="1.00" stroke-linecap="butt" stroke-linejoin="miter">
	<path stroke='black'  d='M216.6,662.4 L216.6,653.4  '/>	<g transform="translate(216.6,684.3)" stroke="none" fill="black" font-family="Helvetica" font-size="12.00"  text-anchor="middle">
		<text><tspan font-family="Helvetica" > 5.95</tspan></text>
	</g>
</g>
<g fill="none" color="black" stroke="currentColor" stroke-width="1.00" stroke-linecap="butt" stroke-linejoin="miter">
	<path stroke='black'  d='M313.8,662.4 L313.8,653.4  '/>	<g transform="translate(313.8,684.3)" stroke="none" fill="black" font-family="Helvetica" font-size="12.00"  text-anchor="middle">
		<text><tspan font-family="Helvetica" > 6</tspan></text>
	</g>
</g>
<g fill="none" color="black" stroke="currentColor" stroke-width="1.00" stroke-linecap="butt" stroke-linejoin="miter">
	<path stroke='black'  d='M411.1,662.4 L411.1,653.4  '/>	<g transform="translate(411.1,684.3)" stroke="none" fill="black" font-family="Helvetica" font-size="12.00"  text-anchor="middle">
		<text><tspan font-family="Helvetica" > 6.05</tspan></text>
	</g>
</g>
<g fill="none" color="black" stroke="currentColor" stroke-width="1.00" stroke-linecap="butt" stroke-linejoin="miter">
	<path stroke='black'  d='M508.4,662.4 L508.4,653.4  '/>	<g transform="translate(508.4,684.3)" stroke="none" fill="black" font-family="Helvetica" font-size="12.00"  text-anchor="middle">
		<text><tspan font-family="Helvetica" > 6.1</tspan></text>
	</g>
</g>
<g fill="none" color="black" stroke="currentColor" stroke-width="1.00" stroke-linecap="butt" stroke-linejoin="miter">
	<path stroke='black'  d='M605.7,662.4 L605.7,653.4  '/>	<g transform="translate(605.7,684.3)" stroke="none" fill="black" font-family="Helvetica" font-size="12.00"  text-anchor="middle">
		<text><tspan font-family="Helvetica" > 6.15</tspan></text>
	</g>
</g>
<g fill="none" color="black" stroke="currentColor" stroke-width="1.00" stroke-linecap="butt" stroke-linejoin="miter">
	<path stroke='black'  d='M703.0,662.4 L703.0,653.4  '/>	<g transform="translate(703.0,684.3)" stroke="none" fill="black" font-family="Helvetica" font-size="12.00"  text-anchor="middle">
		<text><tspan font-family="Helvetica" > 6.2</tspan></text>
	</g>
</g>
<g fill="none" color="black" stroke="currentColor" stroke-width="1.00" stroke-linecap="butt" stroke-linejoin="miter">
	<path stroke='black'  d='M800.3,662.4 L800.3,653.4  '/>	<g transform="translate(800.3,684.3)" stroke="none" fill="black" font-family="Helvetica" font-size="12.00"  text-anchor="middle">
		<text><tspan font-family="Helvetica" > 6.25</tspan></text>
	</g>
</g>
<g fill="none" color="black" stroke="currentColor" stroke-width="1.00" stroke-linecap="butt" stroke-linejoin="miter">
	<path stroke='black'  d='M897.6,662.4 L897.6,653.4  '/>	<g transform="translate(897.6,684.3)" stroke="none" fill="black" font-family="Helvetica" font-size="12.00"  text-anchor="middle">
		<text><tspan font-family="Helvetica" > 6.3</tspan></text>
	</g>
</g>
<g fill="none" color="black" stroke="currentColor" stroke-width="1.00" stroke-linecap="butt" stroke-linejoin="miter">
	<path stroke='black'  d='M994.9,662.4 L994.9,653.4  '/>	<g transform="translate(994.9,684.3)" stroke="none" fill="black" font-family="Helvetica" font-size="12.00"  text-anchor="middle">
		<text><tspan font-family="Helvetica" > 6.35</tspan></text>
	</g>
</g>
<g fill="none" color="black" stroke="currentColor" stroke-width="1.00" stroke-linecap="butt" stroke-linejoin="miter">
	<path stroke='black'  d='M1012.2,662.4 L1003.2,662.4  '/>	<g transform="translate(1020.5,666.3)" stroke="none" fill="black" font-family="Helvetica" font-size="12.00"  text-anchor="start">
		<text><tspan font-family="Helvetica" > 0</tspan></text>
	</g>
</g>
<g fill="none" color="black" stroke="currentColor" stroke-width="1.00" stroke-linecap="butt" stroke-linejoin="miter">
	<path stroke='black'  d='M1012.2,594.8 L1003.2,594.8  '/>	<g transform="translate(1020.5,598.7)" stroke="none" fill="black" font-family="Helvetica" font-size="12.00"  text-anchor="start">
		<text><tspan font-family="Helvetica" > 2</tspan></text>
	</g>
</g>
<g fill="none" color="black" stroke="currentColor" stroke-width="1.00" stroke-linecap="butt" stroke-linejoin="miter">
	<path stroke='black'  d='M1012.2,527.2 L1003.2,527.2  '/>	<g transform="translate(1020.5,531.1)" stroke="none" fill="black" font-family="Helvetica" font-size="12.00"  text-anchor="start">
		<text><tspan font-family="Helvetica" > 4</tspan></text>
	</g>
</g>
<g fill="none" color="black" stroke="currentColor" stroke-width="1.00" stroke-linecap="butt" stroke-linejoin="miter">
	<path stroke='black'  d='M1012.2,459.6 L1003.2,459.6  '/>	<g transform="translate(1020.5,463.5)" stroke="none" fill="black" font-family="Helvetica" font-size="12.00"  text-anchor="start">
		<text><tspan font-family="Helvetica" > 6</tspan></text>
	</g>
</g>
<g fill="none" color="black" stroke="currentColor" stroke-width="1.00" stroke-linecap="butt" stroke-linejoin="miter">
	<path stroke='black'  d='M1012.2,392.0 L1003.2,392.0  '/>	<g transform="translate(1020.5,395.9)" stroke="none" fill="black" font-family="Helvetica" font-size="12.00"  text-anchor="start">
		<text><tspan font-family="Helvetica" > 8</tspan></text>
	</g>
</g>
<g fill="none" color="black" stroke="currentColor" stroke-width="1.00" stroke-linecap="butt" stroke-linejoin="miter">
	<path stroke='black'  d='M1012.2,324.5 L1003.2,324.5  '/>	<g transform="translate(1020.5,328.4)" stroke="none" fill="black" font-family="Helvetica" font-size="12.00"  text-anchor="start">
		<text><tspan font-family="Helvetica" > 10</tspan></text>
	</g>
</g>
<g fill="none" color="black" stroke="currentColor" stroke-width="1.00" stroke-linecap="butt" stroke-linejoin="miter">
	<path stroke='black'  d='M1012.2,256.9 L1003.2,256.9  '/>	<g transform="translate(1020.5,260.8)" stroke="none" fill="black" font-family="Helvetica" font-size="12.00"  text-anchor="start">
		<text><tspan font-family="Helvetica" > 12</tspan></text>
	</g>
</g>
<g fill="none" color="black" stroke="currentColor" stroke-width="1.00" stroke-linecap="butt" stroke-linejoin="miter">
	<path stroke='black'  d='M1012.2,189.3 L1003.2,189.3  '/>	<g transform="translate(1020.5,193.2)" stroke="none" fill="black" font-family="Helvetica" font-size="12.00"  text-anchor="start">
		<text><tspan font-family="Helvetica" > 14</tspan></text>
	</g>
</g>
<g fill="none" color="black" stroke="currentColor" stroke-width="1.00" stroke-linecap="butt" stroke-linejoin="miter">
	<path stroke='black'  d='M1012.2,121.7 L1003.2,121.7  '/>	<g transform="translate(1020.5,125.6)" stroke="none" fill="black" font-family="Helvetica" font-size="12.00"  text-anchor="start">
		<text><tspan font-family="Helvetica" > 16</tspan></text>
	</g>
</g>
<g fill="none" color="black" stroke="currentColor" stroke-width="1.00" stroke-linecap="butt" stroke-linejoin="miter">
	<path stroke='black'  d='M1012.2,54.1 L1003.2,54.1  '/>	<g transform="translate(1020.5,58.0)" stroke="none" fill="black" font-family="Helvetica" font-size="12.00"  text-anchor="start">
		<text><tspan font-family="Helvetica" > 18</tspan></text>
	</g>
</g>
<g fill="none" color="black" stroke="currentColor" stroke-width="1.00" stroke-linecap="butt" stroke-linejoin="miter">
</g>
<g fill="none" color="black" stroke="currentColor" stroke-width="1.00" stroke-linecap="butt" stroke-linejoin="miter">
	<path stroke='black'  d='M71.9,54.1 L71.9,662.4 L1012.2,662.4 L1012.2,54.1 L71.9,54.1 Z  '/></g>
<g fill="none" color="black" stroke="currentColor" stroke-width="1.00" stroke-linecap="butt" stroke-linejoin="miter">
	<g transform="translate(16.3,358.3) rotate(270)" stroke="none" fill="black" font-family="Helvetica" font-size="12.00"  text-anchor="middle">
		<text><tspan font-family="Helvetica" >Iterations</tspan></text>
	</g>
</g>
<g fill="none" color="black" stroke="currentColor" stroke-width="1.00" stroke-linecap="butt" stroke-linejoin="miter">
	<g transform="translate(1074.2,358.3) rotate(270)" stroke="none" fill="black" font-family="Helvetica" font-size="12.00"  text-anchor="middle">
		<text><tspan font-family="Helvetica" >Density (a.u.)</tspan></text>
	</g>
</g>
<g fill="none" color="black" stroke="currentColor" stroke-width="1.00" stroke-linecap="butt" stroke-linejoin="miter">
	<g transform="translate(542.0,711.3)" stroke="none" fill="black" font-family="Helvetica" font-size="12.00"  text-anchor="middle">
		<text><tspan font-family="Helvetica" >Average time (ms)</tspan></text>
	</g>
</g>
<g fill="none" color="black" stroke="currentColor" stroke-width="1.00" stroke-linecap="butt" stroke-linejoin="miter">
	<g transform="translate(542.0,31.0)" stroke="none" fill="black" font-family="Helvetica" font-size="12.00"  text-anchor="middle">
		<text><tspan font-family="Helvetica" >snapshot_restore_with_dense/Sparse: Entire region + process_vm_writev w/ page size/1000</tspan></text>
	</g>
</g>
	<g id="gnuplot_plot_1" ><title>PDF</title>
<g fill="none" color="black" stroke="currentColor" stroke-width="1.00" stroke-linecap="butt" stroke-linejoin="miter">
	<g transform="translate(1147.1,67.0)" stroke="none" fill="black" font-family="Helvetica" font-size="12.00"  text-anchor="start">
		<text><tspan font-family="Helvetica" >PDF</tspan></text>
	</g>
</g>
<g fill="none" color="black" stroke="currentColor" stroke-width="1.00" stroke-linecap="butt" stroke-linejoin="miter">
	<g stroke='none' shape-rendering='crispEdges'>
		<polygon fill = 'rgb( 31, 120, 180)' fill-opacity = '0.250000' points = '1096.6,67.6 1138.8,67.6 1138.8,58.6 1096.6,58.6 '/>
		<polygon fill = 'rgb( 31, 120, 180)' fill-opacity = '0.250000' points = '71.9,659.8 73.8,659.4 75.7,659.0 77.6,658.5 79.4,657.9 81.3,657.3 83.2,656.5 85.1,655.7 87.0,654.8 88.9,653.7 90.7,652.5 92.6,651.2 94.5,649.8 96.4,648.2 98.3,646.4 100.2,644.4
102.0,642.3 103.9,639.9 105.8,637.3 107.7,634.4 109.6,631.3 111.5,627.8 113.4,624.1 115.2,620.1 117.1,615.7 119.0,611.0 120.9,605.9 122.8,600.4 124.7,594.5 126.5,588.3 128.4,581.5 130.3,574.4
132.2,566.8 134.1,558.8 136.0,550.3 137.9,541.3 139.7,531.9 141.6,522.0 143.5,511.7 145.4,500.9 147.3,489.7 149.2,478.0 151.0,466.0 152.9,453.6 154.8,440.8 156.7,427.7 158.6,414.2 160.5,400.6
162.3,386.7 164.2,372.6 166.1,358.4 168.0,344.1 169.9,329.7 171.8,315.4 173.7,301.2 175.5,287.1 177.4,273.1 179.3,259.5 181.2,246.1 183.1,233.1 185.0,220.6 186.8,208.5 188.7,197.0 190.6,186.1
192.5,175.8 194.4,166.3 196.3,157.5 198.2,149.5 200.0,142.4 201.9,136.1 203.8,130.8 205.7,126.4 207.6,122.9 209.5,120.5 211.3,119.0 213.2,118.5 215.1,119.0 217.0,120.5 218.9,123.0 220.8,126.4
222.6,130.8 224.5,136.1 226.4,142.3 228.3,149.3 230.2,157.1 232.1,165.7 234.0,175.0 235.8,184.9 237.7,195.5 239.6,206.6 241.5,218.3 243.4,230.4 245.3,242.8 247.1,255.6 249.0,268.7 250.9,282.0
252.8,295.5 254.7,309.0 256.6,322.6 258.5,336.3 260.3,349.8 262.2,363.3 264.1,376.7 266.0,389.9 267.9,402.8 269.8,415.6 271.6,428.0 273.5,440.2 275.4,452.0 277.3,463.4 279.2,474.5 281.1,485.2
282.9,495.6 284.8,505.5 286.7,515.0 288.6,524.0 290.5,532.7 292.4,540.9 294.3,548.8 296.1,556.2 298.0,563.2 299.9,569.8 301.8,576.0 303.7,581.8 305.6,587.3 307.4,592.4 309.3,597.2 311.2,601.6
313.1,605.8 315.0,609.6 316.9,613.1 318.8,616.4 320.6,619.4 322.5,622.2 324.4,624.7 326.3,627.0 328.2,629.2 330.1,631.1 331.9,632.8 333.8,634.4 335.7,635.9 337.6,637.1 339.5,638.3 341.4,639.3
343.2,640.3 345.1,641.1 347.0,641.8 348.9,642.5 350.8,643.1 352.7,643.6 354.6,644.0 356.4,644.4 358.3,644.7 360.2,645.0 362.1,645.2 364.0,645.4 365.9,645.6 367.7,645.7 369.6,645.8 371.5,645.9
373.4,645.9 375.3,646.0 377.2,646.0 379.1,646.0 380.9,645.9 382.8,645.9 384.7,645.9 386.6,645.8 388.5,645.8 390.4,645.7 392.2,645.6 394.1,645.6 396.0,645.5 397.9,645.4 399.8,645.3 401.7,645.2
403.5,645.1 405.4,645.0 407.3,644.9 409.2,644.9 411.1,644.8 413.0,644.7 414.9,644.6 416.7,644.5 418.6,644.5 420.5,644.4 422.4,644.3 424.3,644.3 426.2,644.3 428.0,644.2 429.9,644.2 431.8,644.2
433.7,644.2 435.6,644.2 437.5,644.2 439.4,644.2 441.2,644.3 443.1,644.3 445.0,644.4 446.9,644.5 448.8,644.6 450.7,644.7 452.5,644.8 454.4,644.9 456.3,645.0 458.2,645.1 460.1,645.3 462.0,645.4
463.8,645.6 465.7,645.8 467.6,645.9 469.5,646.1 471.4,646.3 473.3,646.5 475.2,646.7 477.0,646.9 478.9,647.1 480.8,647.2 482.7,647.4 484.6,647.6 486.5,647.8 488.3,648.0 490.2,648.2 492.1,648.4
494.0,648.6 495.9,648.8 497.8,649.0 499.7,649.2 501.5,649.3 503.4,649.5 505.3,649.7 507.2,649.9 509.1,650.0 511.0,650.2 512.8,650.3 514.7,650.5 516.6,650.6 518.5,650.8 520.4,650.9 522.3,651.0
524.1,651.2 526.0,651.3 527.9,651.4 529.8,651.6 531.7,651.7 533.6,651.8 535.5,651.9 537.3,652.1 539.2,652.2 541.1,652.3 543.0,652.5 544.9,652.6 546.8,652.7 548.6,652.9 550.5,653.0 552.4,653.1
554.3,653.3 556.2,653.4 558.1,653.6 560.0,653.7 561.8,653.9 563.7,654.0 565.6,654.2 567.5,654.4 569.4,654.5 571.3,654.7 573.1,654.9 575.0,655.0 576.9,655.2 578.8,655.4 580.7,655.5 582.6,655.7
584.4,655.9 586.3,656.0 588.2,656.2 590.1,656.3 592.0,656.5 593.9,656.6 595.8,656.8 597.6,656.9 599.5,657.0 601.4,657.1 603.3,657.2 605.2,657.3 607.1,657.4 608.9,657.5 610.8,657.6 612.7,657.6
614.6,657.7 616.5,657.7 618.4,657.7 620.3,657.7 622.1,657.7 624.0,657.7 625.9,657.7 627.8,657.7 629.7,657.6 631.6,657.6 633.4,657.5 635.3,657.5 637.2,657.4 639.1,657.3 641.0,657.2 642.9,657.1
644.7,657.1 646.6,657.0 648.5,656.9 650.4,656.8 652.3,656.7 654.2,656.6 656.1,656.5 657.9,656.4 659.8,656.4 661.7,656.3 663.6,656.2 665.5,656.2 667.4,656.1 669.2,656.1 671.1,656.0 673.0,656.0
674.9,656.0 676.8,656.0 678.7,656.0 680.6,656.0 682.4,656.1 684.3,656.1 686.2,656.2 688.1,656.2 690.0,656.3 691.9,656.4 693.7,656.5 695.6,656.6 697.5,656.7 699.4,656.8 701.3,657.0 703.2,657.1
705.0,657.3 706.9,657.4 708.8,657.6 710.7,657.7 712.6,657.9 714.5,658.1 716.4,658.2 718.2,658.4 720.1,658.6 722.0,658.8 723.9,658.9 725.8,659.1 727.7,659.3 729.5,659.4 731.4,659.6 733.3,659.7
735.2,659.9 737.1,660.0 739.0,660.2 740.9,660.3 742.7,660.5 744.6,660.6 746.5,660.7 748.4,660.8 750.3,660.9 752.2,661.0 754.0,661.1 755.9,661.2 757.8,661.3 759.7,661.4 761.6,661.5 763.5,661.5
765.3,661.6 767.2,661.6 769.1,661.7 771.0,661.7 772.9,661.8 774.8,661.8 776.7,661.8 778.5,661.8 780.4,661.8 782.3,661.8 784.2,661.8 786.1,661.8 788.0,661.8 789.8,661.8 791.7,661.8 793.6,661.7
795.5,661.7 797.4,661.7 799.3,661.6 801.2,661.5 803.0,661.5 804.9,661.4 806.8,661.3 808.7,661.3 810.6,661.2 812.5,661.1 814.3,661.0 816.2,660.9 818.1,660.7 820.0,660.6 821.9,660.5 823.8,660.4
825.6,660.2 827.5,660.1 829.4,659.9 831.3,659.8 833.2,659.6 835.1,659.5 837.0,659.3 838.8,659.1 840.7,659.0 842.6,658.8 844.5,658.6 846.4,658.5 848.3,658.3 850.1,658.1 852.0,658.0 853.9,657.8
855.8,657.6 857.7,657.5 859.6,657.3 861.5,657.2 863.3,657.0 865.2,656.9 867.1,656.8 869.0,656.7 870.9,656.6 872.8,656.5 874.6,656.4 876.5,656.3 878.4,656.2 880.3,656.2 882.2,656.2 884.1,656.1
885.9,656.1 887.8,656.1 889.7,656.1 891.6,656.2 893.5,656.2 895.4,656.3 897.3,656.3 899.1,656.4 901.0,656.5 902.9,656.6 904.8,656.7 906.7,656.8 908.6,656.9 910.4,657.1 912.3,657.2 914.2,657.3
916.1,657.5 918.0,657.6 919.9,657.8 921.8,658.0 923.6,658.1 925.5,658.3 927.4,658.5 929.3,658.7 931.2,658.8 933.1,659.0 934.9,659.2 936.8,659.3 938.7,659.5 940.6,659.7 942.5,659.8 944.4,660.0
946.2,660.1 948.1,660.3 950.0,660.4 951.9,660.5 953.8,660.7 955.7,660.8 957.6,660.9 959.4,661.0 961.3,661.1 963.2,661.2 965.1,661.3 967.0,661.4 968.9,661.5 970.7,661.6 972.6,661.6 974.5,661.7
976.4,661.8 978.3,661.8 980.2,661.9 982.1,661.9 983.9,662.0 985.8,662.0 987.7,662.1 989.6,662.1 991.5,662.1 993.4,662.2 995.2,662.2 997.1,662.2 999.0,662.2 1000.9,662.2 1002.8,662.3 1004.7,662.3
1006.5,662.3 1008.4,662.3 1010.3,662.3 1012.2,662.3 1012.2,662.4 1010.3,662.4 1008.4,662.4 1006.5,662.4 1004.7,662.4 1002.8,662.4 1000.9,662.4 999.0,662.4 997.1,662.4 995.2,662.4 993.4,662.4 991.5,662.4
989.6,662.4 987.7,662.4 985.8,662.4 983.9,662.4 982.1,662.4 980.2,662.4 978.3,662.4 976.4,662.4 974.5,662.4 972.6,662.4 970.7,662.4 968.9,662.4 967.0,662.4 965.1,662.4 963.2,662.4 961.3,662.4
959.4,662.4 957.6,662.4 955.7,662.4 953.8,662.4 951.9,662.4 950.0,662.4 948.1,662.4 946.2,662.4 944.4,662.4 942.5,662.4 940.6,662.4 938.7,662.4 936.8,662.4 934.9,662.4 933.1,662.4 931.2,662.4
929.3,662.4 927.4,662.4 925.5,662.4 923.6,662.4 921.8,662.4 919.9,662.4 918.0,662.4 916.1,662.4 914.2,662.4 912.3,662.4 910.4,662.4 908.6,662.4 906.7,662.4 904.8,662.4 902.9,662.4 901.0,662.4
899.1,662.4 897.3,662.4 895.4,662.4 893.5,662.4 891.6,662.4 889.7,662.4 887.8,662.4 885.9,662.4 884.1,662.4 882.2,662.4 880.3,662.4 878.4,662.4 876.5,662.4 874.6,662.4 872.8,662.4 870.9,662.4
869.0,662.4 867.1,662.4 865.2,662.4 863.3,662.4 861.5,662.4 859.6,662.4 857.7,662.4 855.8,662.4 853.9,662.4 852.0,662.4 850.1,662.4 848.3,662.4 846.4,662.4 844.5,662.4 842.6,662.4 840.7,662.4
838.8,662.4 837.0,662.4 835.1,662.4 833.2,662.4 831.3,662.4 829.4,662.4 827.5,662.4 825.6,662.4 823.8,662.4 821.9,662.4 820.0,662.4 818.1,662.4 816.2,662.4 814.3,662.4 812.5,662.4 810.6,662.4
808.7,662.4 806.8,662.4 804.9,662.4 803.0,662.4 801.2,662.4 799.3,662.4 797.4,662.4 795.5,662.4 793.6,662.4 791.7,662.4 789.8,662.4 788.0,662.4 786.1,662.4 784.2,662.4 782.3,662.4 780.4,662.4
778.5,662.4 776.7,662.4 774.8,662.4 772.9,662.4 771.0,662.4 769.1,662.4 767.2,662.4 765.3,662.4 763.5,662.4 761.6,662.4 759.7,662.4 757.8,662.4 755.9,662.4 754.0,662.4 752.2,662.4 750.3,662.4
748.4,662.4 746.5,662.4 744.6,662.4 742.7,662.4 740.9,662.4 739.0,662.4 737.1,662.4 735.2,662.4 733.3,662.4 731.4,662.4 729.5,662.4 727.7,662.4 725.8,662.4 723.9,662.4 722.0,662.4 720.1,662.4
718.2,662.4 716.4,662.4 714.5,662.4 712.6,662.4 710.7,662.4 708.8,662.4 706.9,662.4 705.0,662.4 703.2,662.4 701.3,662.4 699.4,662.4 697.5,662.4 695.6,662.4 693.7,662.4 691.9,662.4 690.0,662.4
688.1,662.4 686.2,662.4 684.3,662.4 682.4,662.4 680.6,662.4 678.7,662.4 676.8,662.4 674.9,662.4 673.0,662.4 671.1,662.4 669.2,662.4 667.4,662.4 665.5,662.4 663.6,662.4 661.7,662.4 659.8,662.4
657.9,662.4 656.1,662.4 654.2,662.4 652.3,662.4 650.4,662.4 648.5,662.4 646.6,662.4 644.7,662.4 642.9,662.4 641.0,662.4 639.1,662.4 637.2,662.4 635.3,662.4 633.4,662.4 631.6,662.4 629.7,662.4
627.8,662.4 625.9,662.4 624.0,662.4 622.1,662.4 620.3,662.4 618.4,662.4 616.5,662.4 614.6,662.4 612.7,662.4 610.8,662.4 608.9,662.4 607.1,662.4 605.2,662.4 603.3,662.4 601.4,662.4 599.5,662.4
597.6,662.4 595.8,662.4 593.9,662.4 592.0,662.4 590.1,662.4 588.2,662.4 586.3,662.4 584.4,662.4 582.6,662.4 580.7,662.4 578.8,662.4 576.9,662.4 575.0,662.4 573.1,662.4 571.3,662.4 569.4,662.4
567.5,662.4 565.6,662.4 563.7,662.4 561.8,662.4 560.0,662.4 558.1,662.4 556.2,662.4 554.3,662.4 552.4,662.4 550.5,662.4 548.6,662.4 546.8,662.4 544.9,662.4 543.0,662.4 541.1,662.4 539.2,662.4
537.3,662.4 535.5,662.4 533.6,662.4 531.7,662.4 529.8,662.4 527.9,662.4 526.0,662.4 524.1,662.4 522.3,662.4 520.4,662.4 518.5,662.4 516.6,662.4 514.7,662.4 512.8,662.4 511.0,662.4 509.1,662.4
507.2,662.4 505.3,662.4 503.4,662.4 501.5,662.4 499.7,662.4 497.8,662.4 495.9,662.4 494.0,662.4 492.1,662.4 490.2,662.4 488.3,662.4 486.5,662.4 484.6,662.4 482.7,662.4 480.8,662.4 478.9,662.4
477.0,662.4 475.2,662.4 473.3,662.4 471.4,662.4 469.5,662.4 467.6,662.4 465.7,662.4 463.8,662.4 462.0,662.4 460.1,662.4 458.2,662.4 456.3,662.4 454.4,662.4 452.5,662.4 450.7,662.4 448.8,662.4
446.9,662.4 445.0,662.4 443.1,662.4 441.2,662.4 439.4,662.4 437.5,662.4 435.6,662.4 433.7,662.4 431.8,662.4 429.9,662.4 428.0,662.4 426.2,662.4 424.3,662.4 422.4,662.4 420.5,662.4 418.6,662.4
416.7,662.4 414.9,662.4 413.0,662.4 411.1,662.4 409.2,662.4 407.3,662.4 405.4,662.4 403.5,662.4 401.7,662.4 399.8,662.4 397.9,662.4 396.0,662.4 394.1,662.4 392.2,662.4 390.4,662.4 388.5,662.4
386.6,662.4 384.7,662.4 382.8,662.4 380.9,662.4 379.1,662.4 377.2,662.4 375.3,662.4 373.4,662.4 371.5,662.4 369.6,662.4 367.7,662.4 365.9,662.4 364.0,662.4 362.1,662.4 360.2,662.4 358.3,662.4
356.4,662.4 354.6,662.4 352.7,662.4 350.8,662.4 348.9,662.4 347.0,662.4 345.1,662.4 343.2,662.4 341.4,662.4 339.5,662.4 337.6,662.4 335.7,662.4 333.8,662.4 331.9,662.4 330.1,662.4 328.2,662.4
326.3,662.4 324.4,662.4 322.5,662.4 320.6,662.4 318.8,662.4 316.9,662.4 315.0,662.4 313.1,662.4 311.2,662.4 309.3,662.4 307.4,662.4 305.6,662.4 303.7,662.4 301.8,662.4 299.9,662.4 298.0,662.4
296.1,662.4 294.3,662.4 292.4,662.4 290.5,662.4 288.6,662.4 286.7,662.4 284.8,662.4 282.9,662.4 281.1,662.4 279.2,662.4 277.3,662.4 275.4,662.4 273.5,662.4 271.6,662.4 269.8,662.4 267.9,662.4
266.0,662.4 264.1,662.4 262.2,662.4 260.3,662.4 258.5,662.4 256.6,662.4 254.7,662.4 252.8,662.4 250.9,662.4 249.0,662.4 247.1,662.4 245.3,662.4 243.4,662.4 241.5,662.4 239.6,662.4 237.7,662.4
235.8,662.4 234.0,662.4 232.1,662.4 230.2,662.4 228.3,662.4 226.4,662.4 224.5,662.4 222.6,662.4 220.8,662.4 218.9,662.4 217.0,662.4 215.1,662.4 213.2,662.4 211.3,662.4 209.5,662.4 207.6,662.4
205.7,662.4 203.8,662.4 201.9,662.4 200.0,662.4 198.2,662.4 196.3,662.4 194.4,662.4 192.5,662.4 190.6,662.4 188.7,662.4 186.8,662.4 185.0,662.4 183.1,662.4 181.2,662.4 179.3,662.4 177.4,662.4
175.5,662.4 173.7,662.4 171.8,662.4 169.9,662.4 168.0,662.4 166.1,662.4 164.2,662.4 162.3,662.4 160.5,662.4 158.6,662.4 156.7,662.4 154.8,662.4 152.9,662.4 151.0,662.4 149.2,662.4 147.3,662.4
145.4,662.4 143.5,662.4 141.6,662.4 139.7,662.4 137.9,662.4 136.0,662.4 134.1,662.4 132.2,662.4 130.3,662.4 128.4,662.4 126.5,662.4 124.7,662.4 122.8,662.4 120.9,662.4 119.0,662.4 117.1,662.4
115.2,662.4 113.4,662.4 111.5,662.4 109.6,662.4 107.7,662.4 105.8,662.4 103.9,662.4 102.0,662.4 100.2,662.4 98.3,662.4 96.4,662.4 94.5,662.4 92.6,662.4 90.7,662.4 88.9,662.4 87.0,662.4
85.1,662.4 83.2,662.4 81.3,662.4 79.4,662.4 77.6,662.4 75.7,662.4 73.8,662.4 71.9,662.4 '/>
	</g>
</g>
	</g>
	<g id="gnuplot_plot_2" ><title>Mean</title>
<g fill="none" color="white" stroke="rgb( 31, 120, 180)" stroke-width="2.00" stroke-linecap="butt" stroke-linejoin="miter">
</g>
<g fill="none" color="black" stroke="currentColor" stroke-width="2.00" stroke-linecap="butt" stroke-linejoin="miter">
	<g transform="translate(1147.1,85.0)" stroke="none" fill="black" font-family="Helvetica" font-size="12.00"  text-anchor="start">
		<text><tspan font-family="Helvetica" >Mean</tspan></text>
	</g>
</g>
<g fill="none" color="black" stroke="currentColor" stroke-width="2.00" stroke-linecap="butt" stroke-linejoin="miter">
	<path stroke='rgb( 31, 120, 180)'  d='M1096.6,81.1 L1138.8,81.1 M240.0,662.4 L240.0,54.1  '/></g>
	</g>
	<g id="gnuplot_plot_3" ><title>"Clean" sample</title>
<g fill="none" color="white" stroke="rgb( 31, 120, 180)" stroke-width="1.00" stroke-linecap="butt" stroke-linejoin="miter">
</g>
<g fill="none" color="black" stroke="currentColor" stroke-width="1.00" stroke-linecap="butt" stroke-linejoin="miter">
	<g transform="translate(1147.1,103.0)" stroke="none" fill="black" font-family="Helvetica" font-size="12.00"  text-anchor="start">
		<text><tspan font-family="Helvetica" >"Clean" sample</tspan></text>
	</g>
</g>
<g fill="none" color="black" stroke="currentColor" stroke-width="1.00" stroke-linecap="butt" stroke-linejoin="miter">
	<use xlink:href='#gpPt6' transform='translate(224.1,619.8) scale(3.38)' color='rgb( 31, 120, 180)'/>
	<use xlink:href='#gpPt6' transform='translate(197.3,613.7) scale(3.38)' color='rgb( 31, 120, 180)'/>
	<use xlink:href='#gpPt6' transform='translate(218.3,607.7) scale(3.38)' color='rgb( 31, 120, 180)'/>
	<use xlink:href='#gpPt6' transform='translate(218.0,601.6) scale(3.38)' color='rgb( 31, 120, 180)'/>
	<use xlink:href='#gpPt6' transform='translate(198.2,595.5) scale(3.38)' color='rgb( 31, 120, 180)'/>
	<use xlink:href='#gpPt6' transform='translate(201.4,589.4) scale(3.38)' color='rgb( 31, 120, 180)'/>
	<use xlink:href='#gpPt6' transform='translate(209.4,583.3) scale(3.38)' color='rgb( 31, 120, 180)'/>
	<use xlink:href='#gpPt6' transform='translate(204.7,577.2) scale(3.38)' color='rgb( 31, 120, 180)'/>
	<use xlink:href='#gpPt6' transform='translate(210.2,571.2) scale(3.38)' color='rgb( 31, 120, 180)'/>
	<use xlink:href='#gpPt6' transform='translate(208.2,565.1) scale(3.38)' color='rgb( 31, 120, 180)'/>
	<use xlink:href='#gpPt6' transform='translate(227.8,559.0) scale(3.38)' color='rgb( 31, 120, 180)'/>
	<use xlink:href='#gpPt6' transform='translate(207.6,552.9) scale(3.38)' color='rgb( 31, 120, 180)'/>
	<use xlink:href='#gpPt6' transform='translate(205.7,546.8) scale(3.38)' color='rgb( 31, 120, 180)'/>
	<use xlink:href='#gpPt6' transform='translate(216.1,540.7) scale(3.38)' color='rgb( 31, 120, 180)'/>
	<use xlink:href='#gpPt6' transform='translate(202.7,534.7) scale(3.38)' color='rgb( 31, 120, 180)'/>
	<use xlink:href='#gpPt6' transform='translate(200.3,528.6) scale(3.38)' color='rgb( 31, 120, 180)'/>
	<use xlink:href='#gpPt6' transform='translate(204.7,522.5) scale(3.38)' color='rgb( 31, 120, 180)'/>
	<use xlink:href='#gpPt6' transform='translate(210.6,516.4) scale(3.38)' color='rgb( 31, 120, 180)'/>
	<use xlink:href='#gpPt6' transform='translate(233.6,510.3) scale(3.38)' color='rgb( 31, 120, 180)'/>
	<use xlink:href='#gpPt6' transform='translate(240.5,504.2) scale(3.38)' color='rgb( 31, 120, 180)'/>
	<use xlink:href='#gpPt6' transform='translate(205.9,498.2) scale(3.38)' color='rgb( 31, 120, 180)'/>
	<use xlink:href='#gpPt6' transform='translate(205.5,492.1) scale(3.38)' color='rgb( 31, 120, 180)'/>
	<use xlink:href='#gpPt6' transform='translate(205.2,486.0) scale(3.38)' color='rgb( 31, 120, 180)'/>
	<use xlink:href='#gpPt6' transform='translate(200.8,479.9) scale(3.38)' color='rgb( 31, 120, 180)'/>
	<use xlink:href='#gpPt6' transform='translate(219.3,473.8) scale(3.38)' color='rgb( 31, 120, 180)'/>
	<use xlink:href='#gpPt6' transform='translate(221.2,467.7) scale(3.38)' color='rgb( 31, 120, 180)'/>
	<use xlink:href='#gpPt6' transform='translate(214.2,461.7) scale(3.38)' color='rgb( 31, 120, 180)'/>
	<use xlink:href='#gpPt6' transform='translate(209.6,455.6) scale(3.38)' color='rgb( 31, 120, 180)'/>
	<use xlink:href='#gpPt6' transform='translate(212.9,449.5) scale(3.38)' color='rgb( 31, 120, 180)'/>
	<use xlink:href='#gpPt6' transform='translate(210.8,443.4) scale(3.38)' color='rgb( 31, 120, 180)'/>
	<use xlink:href='#gpPt6' transform='translate(213.0,437.3) scale(3.38)' color='rgb( 31, 120, 180)'/>
	<use xlink:href='#gpPt6' transform='translate(206.5,431.2) scale(3.38)' color='rgb( 31, 120, 180)'/>
	<use xlink:href='#gpPt6' transform='translate(206.3,425.2) scale(3.38)' color='rgb( 31, 120, 180)'/>
	<use xlink:href='#gpPt6' transform='translate(211.8,419.1) scale(3.38)' color='rgb( 31, 120, 180)'/>
	<use xlink:href='#gpPt6' transform='translate(201.2,413.0) scale(3.38)' color='rgb( 31, 120, 180)'/>
	<use xlink:href='#gpPt6' transform='translate(205.6,406.9) scale(3.38)' color='rgb( 31, 120, 180)'/>
	<use xlink:href='#gpPt6' transform='translate(201.9,400.8) scale(3.38)' color='rgb( 31, 120, 180)'/>
	<use xlink:href='#gpPt6' transform='translate(212.5,394.7) scale(3.38)' color='rgb( 31, 120, 180)'/>
	<use xlink:href='#gpPt6' transform='translate(202.2,376.5) scale(3.38)' color='rgb( 31, 120, 180)'/>
	<use xlink:href='#gpPt6' transform='translate(234.9,370.4) scale(3.38)' color='rgb( 31, 120, 180)'/>
	<use xlink:href='#gpPt6' transform='translate(213.9,364.3) scale(3.38)' color='rgb( 31, 120, 180)'/>
	<use xlink:href='#gpPt6' transform='translate(199.7,358.2) scale(3.38)' color='rgb( 31, 120, 180)'/>
	<use xlink:href='#gpPt6' transform='translate(197.6,352.2) scale(3.38)' color='rgb( 31, 120, 180)'/>
	<use xlink:href='#gpPt6' transform='translate(204.6,346.1) scale(3.38)' color='rgb( 31, 120, 180)'/>
	<use xlink:href='#gpPt6' transform='translate(199.8,340.0) scale(3.38)' color='rgb( 31, 120, 180)'/>
	<use xlink:href='#gpPt6' transform='translate(203.6,333.9) scale(3.38)' color='rgb( 31, 120, 180)'/>
	<use xlink:href='#gpPt6' transform='translate(205.6,327.8) scale(3.38)' color='rgb( 31, 120, 180)'/>
	<use xlink:href='#gpPt6' transform='translate(199.0,321.8) scale(3.38)' color='rgb( 31, 120, 180)'/>
	<use xlink:href='#gpPt6' transform='translate(203.0,315.7) scale(3.38)' color='rgb( 31, 120, 180)'/>
	<use xlink:href='#gpPt6' transform='translate(219.6,309.6) scale(3.38)' color='rgb( 31, 120, 180)'/>
	<use xlink:href='#gpPt6' transform='translate(202.4,303.5) scale(3.38)' color='rgb( 31, 120, 180)'/>
	<use xlink:href='#gpPt6' transform='translate(211.7,297.4) scale(3.38)' color='rgb( 31, 120, 180)'/>
	<use xlink:href='#gpPt6' transform='translate(214.7,291.3) scale(3.38)' color='rgb( 31, 120, 180)'/>
	<use xlink:href='#gpPt6' transform='translate(205.2,285.3) scale(3.38)' color='rgb( 31, 120, 180)'/>
	<use xlink:href='#gpPt6' transform='translate(202.8,279.2) scale(3.38)' color='rgb( 31, 120, 180)'/>
	<use xlink:href='#gpPt6' transform='translate(206.3,273.1) scale(3.38)' color='rgb( 31, 120, 180)'/>
	<use xlink:href='#gpPt6' transform='translate(217.1,267.0) scale(3.38)' color='rgb( 31, 120, 180)'/>
	<use xlink:href='#gpPt6' transform='translate(248.3,260.9) scale(3.38)' color='rgb( 31, 120, 180)'/>
	<use xlink:href='#gpPt6' transform='translate(206.5,254.8) scale(3.38)' color='rgb( 31, 120, 180)'/>
	<use xlink:href='#gpPt6' transform='translate(214.8,248.8) scale(3.38)' color='rgb( 31, 120, 180)'/>
	<use xlink:href='#gpPt6' transform='translate(214.3,242.7) scale(3.38)' color='rgb( 31, 120, 180)'/>
	<use xlink:href='#gpPt6' transform='translate(206.8,236.6) scale(3.38)' color='rgb( 31, 120, 180)'/>
	<use xlink:href='#gpPt6' transform='translate(220.2,230.5) scale(3.38)' color='rgb( 31, 120, 180)'/>
	<use xlink:href='#gpPt6' transform='translate(234.5,224.4) scale(3.38)' color='rgb( 31, 120, 180)'/>
	<use xlink:href='#gpPt6' transform='translate(236.5,212.3) scale(3.38)' color='rgb( 31, 120, 180)'/>
	<use xlink:href='#gpPt6' transform='translate(242.2,200.1) scale(3.38)' color='rgb( 31, 120, 180)'/>
	<use xlink:href='#gpPt6' transform='translate(205.8,194.0) scale(3.38)' color='rgb( 31, 120, 180)'/>
	<use xlink:href='#gpPt6' transform='translate(215.5,187.9) scale(3.38)' color='rgb( 31, 120, 180)'/>
	<use xlink:href='#gpPt6' transform='translate(209.0,181.8) scale(3.38)' color='rgb( 31, 120, 180)'/>
	<use xlink:href='#gpPt6' transform='translate(241.4,175.8) scale(3.38)' color='rgb( 31, 120, 180)'/>
	<use xlink:href='#gpPt6' transform='translate(208.2,169.7) scale(3.38)' color='rgb( 31, 120, 180)'/>
	<use xlink:href='#gpPt6' transform='translate(210.5,163.6) scale(3.38)' color='rgb( 31, 120, 180)'/>
	<use xlink:href='#gpPt6' transform='translate(209.1,157.5) scale(3.38)' color='rgb( 31, 120, 180)'/>
	<use xlink:href='#gpPt6' transform='translate(212.5,151.4) scale(3.38)' color='rgb( 31, 120, 180)'/>
	<use xlink:href='#gpPt6' transform='translate(205.7,145.3) scale(3.38)' color='rgb( 31, 120, 180)'/>
	<use xlink:href='#gpPt6' transform='translate(218.9,139.3) scale(3.38)' color='rgb( 31, 120, 180)'/>
	<use xlink:href='#gpPt6' transform='translate(207.9,133.2) scale(3.38)' color='rgb( 31, 120, 180)'/>
	<use xlink:href='#gpPt6' transform='translate(217.4,127.1) scale(3.38)' color='rgb( 31, 120, 180)'/>
	<use xlink:href='#gpPt6' transform='translate(199.0,121.0) scale(3.38)' color='rgb( 31, 120, 180)'/>
	<use xlink:href='#gpPt6' transform='translate(203.3,114.9) scale(3.38)' color='rgb( 31, 120, 180)'/>
	<use xlink:href='#gpPt6' transform='translate(220.3,108.8) scale(3.38)' color='rgb( 31, 120, 180)'/>
	<use xlink:href='#gpPt6' transform='translate(199.3,102.8) scale(3.38)' color='rgb( 31, 120, 180)'/>
	<use xlink:href='#gpPt6' transform='translate(228.9,90.6) scale(3.38)' color='rgb( 31, 120, 180)'/>
	<use xlink:href='#gpPt6' transform='translate(227.1,84.5) scale(3.38)' color='rgb( 31, 120, 180)'/>
	<use xlink:href='#gpPt6' transform='translate(253.0,78.4) scale(3.38)' color='rgb( 31, 120, 180)'/>
	<use xlink:href='#gpPt6' transform='translate(209.3,72.3) scale(3.38)' color='rgb( 31, 120, 180)'/>
	<use xlink:href='#gpPt6' transform='translate(240.7,66.3) scale(3.38)' color='rgb( 31, 120, 180)'/>
	<use xlink:href='#gpPt6' transform='translate(230.6,60.2) scale(3.38)' color='rgb( 31, 120, 180)'/>
	<use xlink:href='#gpPt6' transform='translate(213.7,54.1) scale(3.38)' color='rgb( 31, 120, 180)'/>
	<use xlink:href='#gpPt6' transform='translate(1117.7,99.1) scale(3.38)' color='rgb( 31, 120, 180)'/>
</g>
	</g>
	<g id="gnuplot_plot_4" ><title>Mild outliers</title>
<g fill="none" color="black" stroke="currentColor" stroke-width="1.00" stroke-linecap="butt" stroke-linejoin="miter">
	<g transform="translate(1147.1,121.0)" stroke="none" fill="black" font-family="Helvetica" font-size="12.00"  text-anchor="start">
		<text><tspan font-family="Helvetica" >Mild outliers</tspan></text>
	</g>
</g>
<g fill="none" color="black" stroke="currentColor" stroke-width="1.00" stroke-linecap="butt" stroke-linejoin="miter">
	<use xlink:href='#gpPt6' transform='translate(256.8,632.0) scale(3.38)' color='rgb(255, 127,   0)'/>
	<use xlink:href='#gpPt6' transform='translate(266.0,625.9) scale(3.38)' color='rgb(255, 127,   0)'/>
	<use xlink:href='#gpPt6' transform='translate(1117.7,117.1) scale(3.38)' color='rgb(255, 127,   0)'/>
</g>
	</g>
	<g id="gnuplot_plot_5" ><title>Severe outliers</title>
<g fill="none" color="black" stroke="currentColor" stroke-width="1.00" stroke-linecap="butt" stroke-linejoin="miter">
	<g transform="translate(1147.1,139.0)" stroke="none" fill="black" font-family="Helvetica" font-size="12.00"  text-anchor="start">
		<text><tspan font-family="Helvetica" >Severe outliers</tspan></text>
	</g>
</g>
<g fill="none" color="black" stroke="currentColor" stroke-width="1.00" stroke-linecap="butt" stroke-linejoin="miter">
	<use xlink:href='#gpPt6' transform='translate(497.8,656.3) scale(3.38)' color='rgb(227,  26,  28)'/>
	<use xlink:href='#gpPt6' transform='translate(886.8,650.2) scale(3.38)' color='rgb(227,  26,  28)'/>
	<use xlink:href='#gpPt6' transform='translate(678.4,644.2) scale(3.38)' color='rgb(227,  26,  28)'/>
	<use xlink:href='#gpPt6' transform='translate(439.4,638.1) scale(3.38)' color='rgb(227,  26,  28)'/>
	<use xlink:href='#gpPt6' transform='translate(559.6,388.7) scale(3.38)' color='rgb(227,  26,  28)'/>
	<use xlink:href='#gpPt6' transform='translate(286.3,382.6) scale(3.38)' color='rgb(227,  26,  28)'/>
	<use xlink:href='#gpPt6' transform='translate(384.2,218.3) scale(3.38)' color='rgb(227,  26,  28)'/>
	<use xlink:href='#gpPt6' transform='translate(441.1,206.2) scale(3.38)' color='rgb(227,  26,  28)'/>
	<use xlink:href='#gpPt6' transform='translate(345.5,96.7) scale(3.38)' color='rgb(227,  26,  28)'/>
	<use xlink:href='#gpPt6' transform='translate(1117.7,135.1) scale(3.38)' color='rgb(227,  26,  28)'/>
</g>
	</g>
	<g id="gnuplot_plot_6" ><title>gnuplot_plot_6</title>
<g fill="none" color="white" stroke="rgb(227,  26,  28)" stroke-width="2.00" stroke-linecap="butt" stroke-linejoin="miter">
</g>
<g fill="none" color="black" stroke="currentColor" stroke-width="2.00" stroke-linecap="butt" stroke-linejoin="miter">
	<path stroke='rgb(255, 127,   0)'  d='M176.3,662.4 L176.3,54.1  '/></g>
	</g>
	<g id="gnuplot_plot_7" ><title>gnuplot_plot_7</title>
<g fill="none" color="black" stroke="currentColor" stroke-width="2.00" stroke-linecap="butt" stroke-linejoin="miter">
	<path stroke='rgb(255, 127,   0)'  d='M253.9,662.4 L253.9,54.1  '/></g>
	</g>
	<g id="gnuplot_plot_8" ><title>gnuplot_plot_8</title>
<g fill="none" color="black" stroke="currentColor" stroke-width="2.00" stroke-linecap="butt" stroke-linejoin="miter">
	<path stroke='rgb(227,  26,  28)'  d='M147.2,662.4 L147.2,54.1  '/></g>
	</g>
	<g id="gnuplot_plot_9" ><title>gnuplot_plot_9</title>
<g fill="none" color="black" stroke="currentColor" stroke-width="2.00" stroke-linecap="butt" stroke-linejoin="miter">
	<path stroke='rgb(227,  26,  28)'  d='M283.0,662.4 L283.0,54.1  '/></g>
	</g>
<g fill="none" color="black" stroke="currentColor" stroke-width="2.00" stroke-linecap="butt" stroke-linejoin="miter">
</g>
<g fill="none" color="black" stroke="black" stroke-width="1.00" stroke-linecap="butt" stroke-linejoin="miter">
</g>
<g fill="none" color="black" stroke="currentColor" stroke-width="1.00" stroke-linecap="butt" stroke-linejoin="miter">
	<path stroke='black'  d='M71.9,54.1 L71.9,662.4 L1012.2,662.4 L1012.2,54.1 L71.9,54.1 Z  '/></g>
<g fill="none" color="black" stroke="currentColor" stroke-width="1.00" stroke-linecap="butt" stroke-linejoin="miter">
</g>
</g>
</svg>

