<?xml version="1.0" encoding="utf-8"  standalone="no"?>
<svg 
 viewBox="0 0 1280 720"
 xmlns="http://www.w3.org/2000/svg"
 xmlns:xlink="http://www.w3.org/1999/xlink"
>

<title>Gnuplot</title>
<desc>Produced by GNUPLOT 5.2 patchlevel 6 </desc>

<g id="gnuplot_canvas">

<rect x="0" y="0" width="1280" height="720" fill="none"/>
<defs>

	<circle id='gpDot' r='0.5' stroke-width='0.5' stroke='currentColor'/>
	<path id='gpPt0' stroke-width='0.222' stroke='currentColor' d='M-1,0 h2 M0,-1 v2'/>
	<path id='gpPt1' stroke-width='0.222' stroke='currentColor' d='M-1,-1 L1,1 M1,-1 L-1,1'/>
	<path id='gpPt2' stroke-width='0.222' stroke='currentColor' d='M-1,0 L1,0 M0,-1 L0,1 M-1,-1 L1,1 M-1,1 L1,-1'/>
	<rect id='gpPt3' stroke-width='0.222' stroke='currentColor' x='-1' y='-1' width='2' height='2'/>
	<rect id='gpPt4' stroke-width='0.222' stroke='currentColor' fill='currentColor' x='-1' y='-1' width='2' height='2'/>
	<circle id='gpPt5' stroke-width='0.222' stroke='currentColor' cx='0' cy='0' r='1'/>
	<use xlink:href='#gpPt5' id='gpPt6' fill='currentColor' stroke='none'/>
	<path id='gpPt7' stroke-width='0.222' stroke='currentColor' d='M0,-1.33 L-1.33,0.67 L1.33,0.67 z'/>
	<use xlink:href='#gpPt7' id='gpPt8' fill='currentColor' stroke='none'/>
	<use xlink:href='#gpPt7' id='gpPt9' stroke='currentColor' transform='rotate(180)'/>
	<use xlink:href='#gpPt9' id='gpPt10' fill='currentColor' stroke='none'/>
	<use xlink:href='#gpPt3' id='gpPt11' stroke='currentColor' transform='rotate(45)'/>
	<use xlink:href='#gpPt11' id='gpPt12' fill='currentColor' stroke='none'/>
	<path id='gpPt13' stroke-width='0.222' stroke='currentColor' d='M0,1.330 L1.265,0.411 L0.782,-1.067 L-0.782,-1.076 L-1.265,0.411 z'/>
	<use xlink:href='#gpPt13' id='gpPt14' fill='currentColor' stroke='none'/>
	<filter id='textbox' filterUnits='objectBoundingBox' x='0' y='0' height='1' width='1'>
	  <feFlood flood-color='white' flood-opacity='1' result='bgnd'/>
	  <feComposite in='SourceGraphic' in2='bgnd' operator='atop'/>
	</filter>
	<filter id='greybox' filterUnits='objectBoundingBox' x='0' y='0' height='1' width='1'>
	  <feFlood flood-color='lightgrey' flood-opacity='1' result='grey'/>
	  <feComposite in='SourceGraphic' in2='grey' operator='atop'/>
	</filter>
</defs>
<g fill="none" color="white" stroke="currentColor" stroke-width="1.00" stroke-linecap="butt" stroke-linejoin="miter">
</g>
<g fill="none" color="black" stroke="currentColor" stroke-width="1.00" stroke-linecap="butt" stroke-linejoin="miter">
	<path stroke='black'  d='M71.9,662.4 L80.9,662.4  '/>	<g transform="translate(63.6,666.3)" stroke="none" fill="black" font-family="Helvetica" font-size="12.00"  text-anchor="end">
		<text><tspan font-family="Helvetica" > 0</tspan></text>
	</g>
</g>
<g fill="none" color="black" stroke="currentColor" stroke-width="1.00" stroke-linecap="butt" stroke-linejoin="miter">
	<path stroke='black'  d='M71.9,540.7 L80.9,540.7  '/>	<g transform="translate(63.6,544.6)" stroke="none" fill="black" font-family="Helvetica" font-size="12.00"  text-anchor="end">
		<text><tspan font-family="Helvetica" > 0.5</tspan></text>
	</g>
</g>
<g fill="none" color="black" stroke="currentColor" stroke-width="1.00" stroke-linecap="butt" stroke-linejoin="miter">
	<path stroke='black'  d='M71.9,419.1 L80.9,419.1  '/>	<g transform="translate(63.6,423.0)" stroke="none" fill="black" font-family="Helvetica" font-size="12.00"  text-anchor="end">
		<text><tspan font-family="Helvetica" > 1</tspan></text>
	</g>
</g>
<g fill="none" color="black" stroke="currentColor" stroke-width="1.00" stroke-linecap="butt" stroke-linejoin="miter">
	<path stroke='black'  d='M71.9,297.4 L80.9,297.4  '/>	<g transform="translate(63.6,301.3)" stroke="none" fill="black" font-family="Helvetica" font-size="12.00"  text-anchor="end">
		<text><tspan font-family="Helvetica" > 1.5</tspan></text>
	</g>
</g>
<g fill="none" color="black" stroke="currentColor" stroke-width="1.00" stroke-linecap="butt" stroke-linejoin="miter">
	<path stroke='black'  d='M71.9,175.8 L80.9,175.8  '/>	<g transform="translate(63.6,179.7)" stroke="none" fill="black" font-family="Helvetica" font-size="12.00"  text-anchor="end">
		<text><tspan font-family="Helvetica" > 2</tspan></text>
	</g>
</g>
<g fill="none" color="black" stroke="currentColor" stroke-width="1.00" stroke-linecap="butt" stroke-linejoin="miter">
	<path stroke='black'  d='M71.9,54.1 L80.9,54.1  '/>	<g transform="translate(63.6,58.0)" stroke="none" fill="black" font-family="Helvetica" font-size="12.00"  text-anchor="end">
		<text><tspan font-family="Helvetica" > 2.5</tspan></text>
	</g>
</g>
<g fill="none" color="black" stroke="currentColor" stroke-width="1.00" stroke-linecap="butt" stroke-linejoin="miter">
	<path stroke='black'  d='M167.4,662.4 L167.4,653.4  '/>	<g transform="translate(167.4,684.3)" stroke="none" fill="black" font-family="Helvetica" font-size="12.00"  text-anchor="middle">
		<text><tspan font-family="Helvetica" > 507.6</tspan></text>
	</g>
</g>
<g fill="none" color="black" stroke="currentColor" stroke-width="1.00" stroke-linecap="butt" stroke-linejoin="miter">
	<path stroke='black'  d='M285.9,662.4 L285.9,653.4  '/>	<g transform="translate(285.9,684.3)" stroke="none" fill="black" font-family="Helvetica" font-size="12.00"  text-anchor="middle">
		<text><tspan font-family="Helvetica" > 507.7</tspan></text>
	</g>
</g>
<g fill="none" color="black" stroke="currentColor" stroke-width="1.00" stroke-linecap="butt" stroke-linejoin="miter">
	<path stroke='black'  d='M404.4,662.4 L404.4,653.4  '/>	<g transform="translate(404.4,684.3)" stroke="none" fill="black" font-family="Helvetica" font-size="12.00"  text-anchor="middle">
		<text><tspan font-family="Helvetica" > 507.8</tspan></text>
	</g>
</g>
<g fill="none" color="black" stroke="currentColor" stroke-width="1.00" stroke-linecap="butt" stroke-linejoin="miter">
	<path stroke='black'  d='M522.9,662.4 L522.9,653.4  '/>	<g transform="translate(522.9,684.3)" stroke="none" fill="black" font-family="Helvetica" font-size="12.00"  text-anchor="middle">
		<text><tspan font-family="Helvetica" > 507.9</tspan></text>
	</g>
</g>
<g fill="none" color="black" stroke="currentColor" stroke-width="1.00" stroke-linecap="butt" stroke-linejoin="miter">
	<path stroke='black'  d='M641.3,662.4 L641.3,653.4  '/>	<g transform="translate(641.3,684.3)" stroke="none" fill="black" font-family="Helvetica" font-size="12.00"  text-anchor="middle">
		<text><tspan font-family="Helvetica" > 508</tspan></text>
	</g>
</g>
<g fill="none" color="black" stroke="currentColor" stroke-width="1.00" stroke-linecap="butt" stroke-linejoin="miter">
	<path stroke='black'  d='M759.8,662.4 L759.8,653.4  '/>	<g transform="translate(759.8,684.3)" stroke="none" fill="black" font-family="Helvetica" font-size="12.00"  text-anchor="middle">
		<text><tspan font-family="Helvetica" > 508.1</tspan></text>
	</g>
</g>
<g fill="none" color="black" stroke="currentColor" stroke-width="1.00" stroke-linecap="butt" stroke-linejoin="miter">
	<path stroke='black'  d='M878.3,662.4 L878.3,653.4  '/>	<g transform="translate(878.3,684.3)" stroke="none" fill="black" font-family="Helvetica" font-size="12.00"  text-anchor="middle">
		<text><tspan font-family="Helvetica" > 508.2</tspan></text>
	</g>
</g>
<g fill="none" color="black" stroke="currentColor" stroke-width="1.00" stroke-linecap="butt" stroke-linejoin="miter">
	<path stroke='black'  d='M996.8,662.4 L996.8,653.4  '/>	<g transform="translate(996.8,684.3)" stroke="none" fill="black" font-family="Helvetica" font-size="12.00"  text-anchor="middle">
		<text><tspan font-family="Helvetica" > 508.3</tspan></text>
	</g>
</g>
<g fill="none" color="black" stroke="currentColor" stroke-width="1.00" stroke-linecap="butt" stroke-linejoin="miter">
</g>
<g fill="none" color="black" stroke="currentColor" stroke-width="1.00" stroke-linecap="butt" stroke-linejoin="miter">
	<path stroke='black'  d='M71.9,54.1 L71.9,662.4 L1013.6,662.4 L1013.6,54.1 L71.9,54.1 Z  '/></g>
<g fill="none" color="black" stroke="currentColor" stroke-width="1.00" stroke-linecap="butt" stroke-linejoin="miter">
	<g transform="translate(16.3,358.3) rotate(270)" stroke="none" fill="black" font-family="Helvetica" font-size="12.00"  text-anchor="middle">
		<text><tspan font-family="Helvetica" >Density (a.u.)</tspan></text>
	</g>
</g>
<g fill="none" color="black" stroke="currentColor" stroke-width="1.00" stroke-linecap="butt" stroke-linejoin="miter">
	<g transform="translate(542.7,711.3)" stroke="none" fill="black" font-family="Helvetica" font-size="12.00"  text-anchor="middle">
		<text><tspan font-family="Helvetica" >Average time (us)</tspan></text>
	</g>
</g>
<g fill="none" color="black" stroke="currentColor" stroke-width="1.00" stroke-linecap="butt" stroke-linejoin="miter">
	<g transform="translate(542.7,31.0)" stroke="none" fill="black" font-family="Helvetica" font-size="12.00"  text-anchor="middle">
		<text><tspan font-family="Helvetica" >snapshot_restore_with_dense/Dense: Entire region + process_vm_writev w/ page size/1000: slope</tspan></text>
	</g>
</g>
	<g id="gnuplot_plot_1" ><title>Bootstrap distribution</title>
<g fill="none" color="white" stroke="black" stroke-width="2.00" stroke-linecap="butt" stroke-linejoin="miter">
</g>
<g fill="none" color="black" stroke="currentColor" stroke-width="2.00" stroke-linecap="butt" stroke-linejoin="miter">
	<g transform="translate(1089.0,67.0)" stroke="none" fill="black" font-family="Helvetica" font-size="12.00"  text-anchor="start">
		<text><tspan font-family="Helvetica" >Bootstrap distribution</tspan></text>
	</g>
</g>
<g fill="none" color="black" stroke="currentColor" stroke-width="2.00" stroke-linecap="butt" stroke-linejoin="miter">
	<path stroke='rgb( 31, 120, 180)'  d='M1038.5,63.1 L1080.7,63.1 M71.9,647.3 L73.8,645.9 L75.7,644.5 L77.6,642.9 L79.4,641.2 L81.3,639.4
		L83.2,637.5 L85.1,635.5 L87.0,633.3 L88.9,631.0 L90.8,628.6 L92.7,626.1 L94.5,623.4 L96.4,620.5
		L98.3,617.5 L100.2,614.3 L102.1,611.0 L104.0,607.5 L105.9,603.8 L107.8,600.0 L109.6,595.9 L111.5,591.7
		L113.4,587.2 L115.3,582.6 L117.2,577.8 L119.1,572.7 L121.0,567.5 L122.9,562.0 L124.7,556.3 L126.6,550.4
		L128.5,544.3 L130.4,537.9 L132.3,531.4 L134.2,524.6 L136.1,517.7 L138.0,510.5 L139.8,503.2 L141.7,495.7
		L143.6,487.9 L145.5,480.1 L147.4,472.0 L149.3,463.8 L151.2,455.4 L153.0,447.0 L154.9,438.3 L156.8,429.6
		L158.7,420.7 L160.6,411.8 L162.5,402.7 L164.4,393.5 L166.3,384.3 L168.1,375.0 L170.0,365.6 L171.9,356.2
		L173.8,346.7 L175.7,337.2 L177.6,327.6 L179.5,318.1 L181.4,308.5 L183.2,299.0 L185.1,289.5 L187.0,280.1
		L188.9,270.8 L190.8,261.6 L192.7,252.5 L194.6,243.5 L196.5,234.8 L198.3,226.2 L200.2,217.8 L202.1,209.8
		L204.0,201.9 L205.9,194.4 L207.8,187.2 L209.7,180.3 L211.6,173.7 L213.4,167.5 L215.3,161.6 L217.2,156.1
		L219.1,150.9 L221.0,146.1 L222.9,141.7 L224.8,137.6 L226.6,133.8 L228.5,130.4 L230.4,127.4 L232.3,124.6
		L234.2,122.2 L236.1,120.0 L238.0,118.2 L239.9,116.5 L241.7,115.2 L243.6,114.1 L245.5,113.2 L247.4,112.5
		L249.3,111.9 L251.2,111.6 L253.1,111.5 L255.0,111.4 L256.8,111.6 L258.7,111.8 L260.6,112.2 L262.5,112.7
		L264.4,113.3 L266.3,114.0 L268.2,114.8 L270.1,115.6 L271.9,116.6 L273.8,117.6 L275.7,118.7 L277.6,119.8
		L279.5,121.0 L281.4,122.2 L283.3,123.5 L285.2,124.8 L287.0,126.1 L288.9,127.4 L290.8,128.8 L292.7,130.2
		L294.6,131.6 L296.5,133.0 L298.4,134.4 L300.2,135.7 L302.1,137.1 L304.0,138.4 L305.9,139.6 L307.8,140.8
		L309.7,142.0 L311.6,143.0 L313.5,144.0 L315.3,144.9 L317.2,145.7 L319.1,146.4 L321.0,146.9 L322.9,147.3
		L324.8,147.6 L326.7,147.7 L328.6,147.7 L330.4,147.4 L332.3,147.1 L334.2,146.5 L336.1,145.8 L338.0,144.9
		L339.9,143.9 L341.8,142.7 L343.7,141.4 L345.5,139.9 L347.4,138.3 L349.3,136.6 L351.2,134.7 L353.1,132.8
		L355.0,130.8 L356.9,128.7 L358.8,126.5 L360.6,124.3 L362.5,122.1 L364.4,119.8 L366.3,117.5 L368.2,115.2
		L370.1,112.8 L372.0,110.5 L373.8,108.2 L375.7,105.9 L377.6,103.6 L379.5,101.3 L381.4,99.0 L383.3,96.8
		L385.2,94.6 L387.1,92.4 L388.9,90.3 L390.8,88.2 L392.7,86.2 L394.6,84.2 L396.5,82.3 L398.4,80.4
		L400.3,78.7 L402.2,77.0 L404.0,75.4 L405.9,74.0 L407.8,72.7 L409.7,71.5 L411.6,70.4 L413.5,69.5
		L415.4,68.8 L417.3,68.2 L419.1,67.8 L421.0,67.6 L422.9,67.6 L424.8,67.8 L426.7,68.2 L428.6,68.8
		L430.5,69.5 L432.4,70.5 L434.2,71.6 L436.1,72.9 L438.0,74.4 L439.9,76.1 L441.8,77.9 L443.7,79.8
		L445.6,81.9 L447.4,84.2 L449.3,86.5 L451.2,89.0 L453.1,91.5 L455.0,94.2 L456.9,97.0 L458.8,99.8
		L460.7,102.8 L462.5,105.8 L464.4,108.9 L466.3,112.1 L468.2,115.3 L470.1,118.6 L472.0,122.0 L473.9,125.5
		L475.8,129.0 L477.6,132.6 L479.5,136.2 L481.4,139.9 L483.3,143.6 L485.2,147.4 L487.1,151.3 L489.0,155.2
		L490.9,159.1 L492.7,163.0 L494.6,167.0 L496.5,171.0 L498.4,175.1 L500.3,179.1 L502.2,183.1 L504.1,187.1
		L506.0,191.2 L507.8,195.2 L509.7,199.2 L511.6,203.1 L513.5,207.1 L515.4,210.9 L517.3,214.8 L519.2,218.6
		L521.0,222.3 L522.9,226.0 L524.8,229.6 L526.7,233.2 L528.6,236.7 L530.5,240.1 L532.4,243.4 L534.3,246.7
		L536.1,249.9 L538.0,253.0 L539.9,256.0 L541.8,258.9 L543.7,261.8 L545.6,264.6 L547.5,267.3 L549.4,270.0
		L551.2,272.5 L553.1,275.0 L555.0,277.5 L556.9,279.9 L558.8,282.2 L560.7,284.5 L562.6,286.7 L564.5,288.9
		L566.3,291.1 L568.2,293.2 L570.1,295.3 L572.0,297.4 L573.9,299.4 L575.8,301.5 L577.7,303.5 L579.5,305.5
		L581.4,307.5 L583.3,309.5 L585.2,311.4 L587.1,313.4 L589.0,315.3 L590.9,317.2 L592.8,319.1 L594.6,321.0
		L596.5,322.9 L598.4,324.8 L600.3,326.7 L602.2,328.5 L604.1,330.3 L606.0,332.2 L607.9,334.0 L609.7,335.8
		L611.6,337.6 L613.5,339.4 L615.4,341.2 L617.3,343.0 L619.2,344.8 L621.1,346.7 L623.0,348.5 L624.8,350.4
		L626.7,352.3 L628.6,354.2 L630.5,356.2 L632.4,358.1 L634.3,360.2 L636.2,362.2 L638.1,364.3 L639.9,366.5
		L641.8,368.7 L643.7,370.9 L645.6,373.2 L647.5,375.5 L649.4,377.9 L651.3,380.3 L653.1,382.8 L655.0,385.3
		L656.9,387.9 L658.8,390.4 L660.7,393.0 L662.6,395.7 L664.5,398.3 L666.4,401.0 L668.2,403.7 L670.1,406.3
		L672.0,409.0 L673.9,411.7 L675.8,414.4 L677.7,417.0 L679.6,419.7 L681.5,422.3 L683.3,424.8 L685.2,427.4
		L687.1,429.9 L689.0,432.4 L690.9,434.8 L692.8,437.2 L694.7,439.5 L696.6,441.9 L698.4,444.2 L700.3,446.4
		L702.2,448.6 L704.1,450.8 L706.0,453.0 L707.9,455.1 L709.8,457.3 L711.7,459.4 L713.5,461.4 L715.4,463.5
		L717.3,465.6 L719.2,467.6 L721.1,469.7 L723.0,471.7 L724.9,473.7 L726.7,475.7 L728.6,477.7 L730.5,479.7
		L732.4,481.6 L734.3,483.5 L736.2,485.4 L738.1,487.3 L740.0,489.2 L741.8,491.0 L743.7,492.8 L745.6,494.6
		L747.5,496.3 L749.4,498.0 L751.3,499.6 L753.2,501.3 L755.1,502.9 L756.9,504.5 L758.8,506.0 L760.7,507.5
		L762.6,509.1 L764.5,510.6 L766.4,512.0 L768.3,513.5 L770.2,515.0 L772.0,516.4 L773.9,517.9 L775.8,519.4
		L777.7,520.8 L779.6,522.3 L781.5,523.8 L783.4,525.3 L785.3,526.8 L787.1,528.3 L789.0,529.8 L790.9,531.3
		L792.8,532.9 L794.7,534.4 L796.6,536.0 L798.5,537.5 L800.3,539.1 L802.2,540.7 L804.1,542.3 L806.0,543.8
		L807.9,545.4 L809.8,547.0 L811.7,548.5 L813.6,550.1 L815.4,551.6 L817.3,553.1 L819.2,554.6 L821.1,556.0
		L823.0,557.4 L824.9,558.8 L826.8,560.1 L828.7,561.4 L830.5,562.7 L832.4,563.9 L834.3,565.1 L836.2,566.2
		L838.1,567.3 L840.0,568.3 L841.9,569.3 L843.8,570.3 L845.6,571.2 L847.5,572.0 L849.4,572.9 L851.3,573.7
		L853.2,574.4 L855.1,575.2 L857.0,575.9 L858.9,576.7 L860.7,577.4 L862.6,578.1 L864.5,578.8 L866.4,579.5
		L868.3,580.3 L870.2,581.0 L872.1,581.7 L873.9,582.5 L875.8,583.3 L877.7,584.1 L879.6,584.9 L881.5,585.7
		L883.4,586.6 L885.3,587.4 L887.2,588.3 L889.0,589.1 L890.9,590.0 L892.8,590.8 L894.7,591.7 L896.6,592.5
		L898.5,593.4 L900.4,594.2 L902.3,595.1 L904.1,595.9 L906.0,596.7 L907.9,597.5 L909.8,598.2 L911.7,599.0
		L913.6,599.8 L915.5,600.5 L917.4,601.3 L919.2,602.0 L921.1,602.7 L923.0,603.5 L924.9,604.2 L926.8,604.9
		L928.7,605.7 L930.6,606.5 L932.5,607.2 L934.3,608.0 L936.2,608.8 L938.1,609.6 L940.0,610.5 L941.9,611.3
		L943.8,612.2 L945.7,613.0 L947.5,613.9 L949.4,614.8 L951.3,615.7 L953.2,616.5 L955.1,617.4 L957.0,618.3
		L958.9,619.1 L960.8,620.0 L962.6,620.8 L964.5,621.6 L966.4,622.3 L968.3,623.1 L970.2,623.7 L972.1,624.4
		L974.0,625.0 L975.9,625.6 L977.7,626.2 L979.6,626.7 L981.5,627.2 L983.4,627.7 L985.3,628.1 L987.2,628.5
		L989.1,628.9 L991.0,629.3 L992.8,629.6 L994.7,630.0 L996.6,630.3 L998.5,630.6 L1000.4,630.9 L1002.3,631.2
		L1004.2,631.5 L1006.1,631.8 L1007.9,632.1 L1009.8,632.4 L1011.7,632.8 L1013.6,633.1  '/></g>
	</g>
	<g id="gnuplot_plot_2" ><title>Confidence interval</title>
<g fill="none" color="white" stroke="rgb( 31, 120, 180)" stroke-width="1.00" stroke-linecap="butt" stroke-linejoin="miter">
</g>
<g fill="none" color="black" stroke="currentColor" stroke-width="1.00" stroke-linecap="butt" stroke-linejoin="miter">
	<g transform="translate(1089.0,85.0)" stroke="none" fill="black" font-family="Helvetica" font-size="12.00"  text-anchor="start">
		<text><tspan font-family="Helvetica" >Confidence interval</tspan></text>
	</g>
</g>
<g fill="none" color="black" stroke="currentColor" stroke-width="1.00" stroke-linecap="butt" stroke-linejoin="miter">
	<g stroke='none' shape-rendering='crispEdges'>
		<polygon fill = 'rgb( 31, 120, 180)' fill-opacity = '0.250000' points = '1038.5,85.6 1080.7,85.6 1080.7,76.6 1038.5,76.6 '/>
		<polygon fill = 'rgb( 31, 120, 180)' fill-opacity = '0.250000' points = '158.7,420.7 160.6,411.8 162.5,402.7 164.4,393.5 166.3,384.3 168.1,375.0 170.0,365.6 171.9,356.2 173.8,346.7 175.7,337.2 177.6,327.6 179.5,318.1 181.4,308.5 183.2,299.0 185.1,289.5 187.0,280.1
188.9,270.8 190.8,261.6 192.7,252.5 194.6,243.5 196.5,234.8 198.3,226.2 200.2,217.8 202.1,209.8 204.0,201.9 205.9,194.4 207.8,187.2 209.7,180.3 211.6,173.7 213.4,167.5 215.3,161.6 217.2,156.1
219.1,150.9 221.0,146.1 222.9,141.7 224.8,137.6 226.6,133.8 228.5,130.4 230.4,127.4 232.3,124.6 234.2,122.2 236.1,120.0 238.0,118.2 239.9,116.5 241.7,115.2 243.6,114.1 245.5,113.2 247.4,112.5
249.3,111.9 251.2,111.6 253.1,111.5 255.0,111.4 256.8,111.6 258.7,111.8 260.6,112.2 262.5,112.7 264.4,113.3 266.3,114.0 268.2,114.8 270.1,115.6 271.9,116.6 273.8,117.6 275.7,118.7 277.6,119.8
279.5,121.0 281.4,122.2 283.3,123.5 285.2,124.8 287.0,126.1 288.9,127.4 290.8,128.8 292.7,130.2 294.6,131.6 296.5,133.0 298.4,134.4 300.2,135.7 302.1,137.1 304.0,138.4 305.9,139.6 307.8,140.8
309.7,142.0 311.6,143.0 313.5,144.0 315.3,144.9 317.2,145.7 319.1,146.4 321.0,146.9 322.9,147.3 324.8,147.6 326.7,147.7 328.6,147.7 330.4,147.4 332.3,147.1 334.2,146.5 336.1,145.8 338.0,144.9
339.9,143.9 341.8,142.7 343.7,141.4 345.5,139.9 347.4,138.3 349.3,136.6 351.2,134.7 353.1,132.8 355.0,130.8 356.9,128.7 358.8,126.5 360.6,124.3 362.5,122.1 364.4,119.8 366.3,117.5 368.2,115.2
370.1,112.8 372.0,110.5 373.8,108.2 375.7,105.9 377.6,103.6 379.5,101.3 381.4,99.0 383.3,96.8 385.2,94.6 387.1,92.4 388.9,90.3 390.8,88.2 392.7,86.2 394.6,84.2 396.5,82.3 398.4,80.4
400.3,78.7 402.2,77.0 404.0,75.4 405.9,74.0 407.8,72.7 409.7,71.5 411.6,70.4 413.5,69.5 415.4,68.8 417.3,68.2 419.1,67.8 421.0,67.6 422.9,67.6 424.8,67.8 426.7,68.2 428.6,68.8
430.5,69.5 432.4,70.5 434.2,71.6 436.1,72.9 438.0,74.4 439.9,76.1 441.8,77.9 443.7,79.8 445.6,81.9 447.4,84.2 449.3,86.5 451.2,89.0 453.1,91.5 455.0,94.2 456.9,97.0 458.8,99.8
460.7,102.8 462.5,105.8 464.4,108.9 466.3,112.1 468.2,115.3 470.1,118.6 472.0,122.0 473.9,125.5 475.8,129.0 477.6,132.6 479.5,136.2 481.4,139.9 483.3,143.6 485.2,147.4 487.1,151.3 489.0,155.2
490.9,159.1 492.7,163.0 494.6,167.0 496.5,171.0 498.4,175.1 500.3,179.1 502.2,183.1 504.1,187.1 506.0,191.2 507.8,195.2 509.7,199.2 511.6,203.1 513.5,207.1 515.4,210.9 517.3,214.8 519.2,218.6
521.0,222.3 522.9,226.0 524.8,229.6 526.7,233.2 528.6,236.7 530.5,240.1 532.4,243.4 534.3,246.7 536.1,249.9 538.0,253.0 539.9,256.0 541.8,258.9 543.7,261.8 545.6,264.6 547.5,267.3 549.4,270.0
551.2,272.5 553.1,275.0 555.0,277.5 556.9,279.9 558.8,282.2 560.7,284.5 562.6,286.7 564.5,288.9 566.3,291.1 568.2,293.2 570.1,295.3 572.0,297.4 573.9,299.4 575.8,301.5 577.7,303.5 579.5,305.5
581.4,307.5 583.3,309.5 585.2,311.4 587.1,313.4 589.0,315.3 590.9,317.2 592.8,319.1 594.6,321.0 596.5,322.9 598.4,324.8 600.3,326.7 602.2,328.5 604.1,330.3 606.0,332.2 607.9,334.0 609.7,335.8
611.6,337.6 613.5,339.4 615.4,341.2 617.3,343.0 619.2,344.8 621.1,346.7 623.0,348.5 624.8,350.4 626.7,352.3 628.6,354.2 630.5,356.2 632.4,358.1 634.3,360.2 636.2,362.2 638.1,364.3 639.9,366.5
641.8,368.7 643.7,370.9 645.6,373.2 647.5,375.5 649.4,377.9 651.3,380.3 653.1,382.8 655.0,385.3 656.9,387.9 658.8,390.4 660.7,393.0 662.6,395.7 664.5,398.3 666.4,401.0 668.2,403.7 670.1,406.3
672.0,409.0 673.9,411.7 675.8,414.4 677.7,417.0 679.6,419.7 681.5,422.3 683.3,424.8 685.2,427.4 687.1,429.9 689.0,432.4 690.9,434.8 692.8,437.2 694.7,439.5 696.6,441.9 698.4,444.2 700.3,446.4
702.2,448.6 704.1,450.8 706.0,453.0 707.9,455.1 709.8,457.3 711.7,459.4 713.5,461.4 715.4,463.5 717.3,465.6 719.2,467.6 721.1,469.7 723.0,471.7 724.9,473.7 726.7,475.7 728.6,477.7 730.5,479.7
732.4,481.6 734.3,483.5 736.2,485.4 738.1,487.3 740.0,489.2 741.8,491.0 743.7,492.8 745.6,494.6 747.5,496.3 749.4,498.0 751.3,499.6 753.2,501.3 755.1,502.9 756.9,504.5 758.8,506.0 760.7,507.5
762.6,509.1 764.5,510.6 766.4,512.0 768.3,513.5 770.2,515.0 772.0,516.4 773.9,517.9 775.8,519.4 777.7,520.8 779.6,522.3 781.5,523.8 783.4,525.3 785.3,526.8 787.1,528.3 789.0,529.8 790.9,531.3
792.8,532.9 794.7,534.4 796.6,536.0 798.5,537.5 800.3,539.1 802.2,540.7 804.1,542.3 806.0,543.8 807.9,545.4 809.8,547.0 811.7,548.5 813.6,550.1 815.4,551.6 817.3,553.1 819.2,554.6 821.1,556.0
823.0,557.4 824.9,558.8 826.8,560.1 828.7,561.4 830.5,562.7 832.4,563.9 834.3,565.1 836.2,566.2 838.1,567.3 840.0,568.3 841.9,569.3 843.8,570.3 845.6,571.2 847.5,572.0 849.4,572.9 851.3,573.7
853.2,574.4 855.1,575.2 857.0,575.9 858.9,576.7 860.7,577.4 862.6,578.1 864.5,578.8 866.4,579.5 868.3,580.3 870.2,581.0 872.1,581.7 873.9,582.5 875.8,583.3 877.7,584.1 879.6,584.9 881.5,585.7
883.4,586.6 885.3,587.4 887.2,588.3 889.0,589.1 890.9,590.0 892.8,590.8 894.7,591.7 896.6,592.5 898.5,593.4 900.4,594.2 902.3,595.1 904.1,595.9 906.0,596.7 907.9,597.5 909.8,598.2 911.7,599.0
913.6,599.8 915.5,600.5 917.4,601.3 919.2,602.0 921.1,602.7 923.0,603.5 924.9,604.2 924.9,662.4 923.0,662.4 921.1,662.4 919.2,662.4 917.4,662.4 915.5,662.4 913.6,662.4 911.7,662.4 909.8,662.4
907.9,662.4 906.0,662.4 904.1,662.4 902.3,662.4 900.4,662.4 898.5,662.4 896.6,662.4 894.7,662.4 892.8,662.4 890.9,662.4 889.0,662.4 887.2,662.4 885.3,662.4 883.4,662.4 881.5,662.4 879.6,662.4
877.7,662.4 875.8,662.4 873.9,662.4 872.1,662.4 870.2,662.4 868.3,662.4 866.4,662.4 864.5,662.4 862.6,662.4 860.7,662.4 858.9,662.4 857.0,662.4 855.1,662.4 853.2,662.4 851.3,662.4 849.4,662.4
847.5,662.4 845.6,662.4 843.8,662.4 841.9,662.4 840.0,662.4 838.1,662.4 836.2,662.4 834.3,662.4 832.4,662.4 830.5,662.4 828.7,662.4 826.8,662.4 824.9,662.4 823.0,662.4 821.1,662.4 819.2,662.4
817.3,662.4 815.4,662.4 813.6,662.4 811.7,662.4 809.8,662.4 807.9,662.4 806.0,662.4 804.1,662.4 802.2,662.4 800.3,662.4 798.5,662.4 796.6,662.4 794.7,662.4 792.8,662.4 790.9,662.4 789.0,662.4
787.1,662.4 785.3,662.4 783.4,662.4 781.5,662.4 779.6,662.4 777.7,662.4 775.8,662.4 773.9,662.4 772.0,662.4 770.2,662.4 768.3,662.4 766.4,662.4 764.5,662.4 762.6,662.4 760.7,662.4 758.8,662.4
756.9,662.4 755.1,662.4 753.2,662.4 751.3,662.4 749.4,662.4 747.5,662.4 745.6,662.4 743.7,662.4 741.8,662.4 740.0,662.4 738.1,662.4 736.2,662.4 734.3,662.4 732.4,662.4 730.5,662.4 728.6,662.4
726.7,662.4 724.9,662.4 723.0,662.4 721.1,662.4 719.2,662.4 717.3,662.4 715.4,662.4 713.5,662.4 711.7,662.4 709.8,662.4 707.9,662.4 706.0,662.4 704.1,662.4 702.2,662.4 700.3,662.4 698.4,662.4
696.6,662.4 694.7,662.4 692.8,662.4 690.9,662.4 689.0,662.4 687.1,662.4 685.2,662.4 683.3,662.4 681.5,662.4 679.6,662.4 677.7,662.4 675.8,662.4 673.9,662.4 672.0,662.4 670.1,662.4 668.2,662.4
666.4,662.4 664.5,662.4 662.6,662.4 660.7,662.4 658.8,662.4 656.9,662.4 655.0,662.4 653.1,662.4 651.3,662.4 649.4,662.4 647.5,662.4 645.6,662.4 643.7,662.4 641.8,662.4 639.9,662.4 638.1,662.4
636.2,662.4 634.3,662.4 632.4,662.4 630.5,662.4 628.6,662.4 626.7,662.4 624.8,662.4 623.0,662.4 621.1,662.4 619.2,662.4 617.3,662.4 615.4,662.4 613.5,662.4 611.6,662.4 609.7,662.4 607.9,662.4
606.0,662.4 604.1,662.4 602.2,662.4 600.3,662.4 598.4,662.4 596.5,662.4 594.6,662.4 592.8,662.4 590.9,662.4 589.0,662.4 587.1,662.4 585.2,662.4 583.3,662.4 581.4,662.4 579.5,662.4 577.7,662.4
575.8,662.4 573.9,662.4 572.0,662.4 570.1,662.4 568.2,662.4 566.3,662.4 564.5,662.4 562.6,662.4 560.7,662.4 558.8,662.4 556.9,662.4 555.0,662.4 553.1,662.4 551.2,662.4 549.4,662.4 547.5,662.4
545.6,662.4 543.7,662.4 541.8,662.4 539.9,662.4 538.0,662.4 536.1,662.4 534.3,662.4 532.4,662.4 530.5,662.4 528.6,662.4 526.7,662.4 524.8,662.4 522.9,662.4 521.0,662.4 519.2,662.4 517.3,662.4
515.4,662.4 513.5,662.4 511.6,662.4 509.7,662.4 507.8,662.4 506.0,662.4 504.1,662.4 502.2,662.4 500.3,662.4 498.4,662.4 496.5,662.4 494.6,662.4 492.7,662.4 490.9,662.4 489.0,662.4 487.1,662.4
485.2,662.4 483.3,662.4 481.4,662.4 479.5,662.4 477.6,662.4 475.8,662.4 473.9,662.4 472.0,662.4 470.1,662.4 468.2,662.4 466.3,662.4 464.4,662.4 462.5,662.4 460.7,662.4 458.8,662.4 456.9,662.4
455.0,662.4 453.1,662.4 451.2,662.4 449.3,662.4 447.4,662.4 445.6,662.4 443.7,662.4 441.8,662.4 439.9,662.4 438.0,662.4 436.1,662.4 434.2,662.4 432.4,662.4 430.5,662.4 428.6,662.4 426.7,662.4
424.8,662.4 422.9,662.4 421.0,662.4 419.1,662.4 417.3,662.4 415.4,662.4 413.5,662.4 411.6,662.4 409.7,662.4 407.8,662.4 405.9,662.4 404.0,662.4 402.2,662.4 400.3,662.4 398.4,662.4 396.5,662.4
394.6,662.4 392.7,662.4 390.8,662.4 388.9,662.4 387.1,662.4 385.2,662.4 383.3,662.4 381.4,662.4 379.5,662.4 377.6,662.4 375.7,662.4 373.8,662.4 372.0,662.4 370.1,662.4 368.2,662.4 366.3,662.4
364.4,662.4 362.5,662.4 360.6,662.4 358.8,662.4 356.9,662.4 355.0,662.4 353.1,662.4 351.2,662.4 349.3,662.4 347.4,662.4 345.5,662.4 343.7,662.4 341.8,662.4 339.9,662.4 338.0,662.4 336.1,662.4
334.2,662.4 332.3,662.4 330.4,662.4 328.6,662.4 326.7,662.4 324.8,662.4 322.9,662.4 321.0,662.4 319.1,662.4 317.2,662.4 315.3,662.4 313.5,662.4 311.6,662.4 309.7,662.4 307.8,662.4 305.9,662.4
304.0,662.4 302.1,662.4 300.2,662.4 298.4,662.4 296.5,662.4 294.6,662.4 292.7,662.4 290.8,662.4 288.9,662.4 287.0,662.4 285.2,662.4 283.3,662.4 281.4,662.4 279.5,662.4 277.6,662.4 275.7,662.4
273.8,662.4 271.9,662.4 270.1,662.4 268.2,662.4 266.3,662.4 264.4,662.4 262.5,662.4 260.6,662.4 258.7,662.4 256.8,662.4 255.0,662.4 253.1,662.4 251.2,662.4 249.3,662.4 247.4,662.4 245.5,662.4
243.6,662.4 241.7,662.4 239.9,662.4 238.0,662.4 236.1,662.4 234.2,662.4 232.3,662.4 230.4,662.4 228.5,662.4 226.6,662.4 224.8,662.4 222.9,662.4 221.0,662.4 219.1,662.4 217.2,662.4 215.3,662.4
213.4,662.4 211.6,662.4 209.7,662.4 207.8,662.4 205.9,662.4 204.0,662.4 202.1,662.4 200.2,662.4 198.3,662.4 196.5,662.4 194.6,662.4 192.7,662.4 190.8,662.4 188.9,662.4 187.0,662.4 185.1,662.4
183.2,662.4 181.4,662.4 179.5,662.4 177.6,662.4 175.7,662.4 173.8,662.4 171.9,662.4 170.0,662.4 168.1,662.4 166.3,662.4 164.4,662.4 162.5,662.4 160.6,662.4 158.7,662.4 '/>
	</g>
</g>
	</g>
	<g id="gnuplot_plot_3" ><title>Point estimate</title>
<g fill="none" color="white" stroke="rgb( 31, 120, 180)" stroke-width="2.00" stroke-linecap="butt" stroke-linejoin="miter">
</g>
<g fill="none" color="black" stroke="currentColor" stroke-width="2.00" stroke-linecap="butt" stroke-linejoin="miter">
	<g transform="translate(1089.0,103.0)" stroke="none" fill="black" font-family="Helvetica" font-size="12.00"  text-anchor="start">
		<text><tspan font-family="Helvetica" >Point estimate</tspan></text>
	</g>
</g>
<g fill="none" color="black" stroke="currentColor" stroke-width="2.00" stroke-linecap="butt" stroke-linejoin="miter">
	<path stroke='rgb( 31, 120, 180)'  d='M1038.5,99.1 L1080.7,99.1 M449.5,662.4 L449.5,86.7  '/></g>
	</g>
<g fill="none" color="black" stroke="currentColor" stroke-width="2.00" stroke-linecap="butt" stroke-linejoin="miter">
</g>
<g fill="none" color="black" stroke="black" stroke-width="1.00" stroke-linecap="butt" stroke-linejoin="miter">
</g>
<g fill="none" color="black" stroke="currentColor" stroke-width="1.00" stroke-linecap="butt" stroke-linejoin="miter">
	<path stroke='black'  d='M71.9,54.1 L71.9,662.4 L1013.6,662.4 L1013.6,54.1 L71.9,54.1 Z  '/></g>
<g fill="none" color="black" stroke="currentColor" stroke-width="1.00" stroke-linecap="butt" stroke-linejoin="miter">
</g>
</g>
</svg>

