group,function,value,throughput_num,throughput_type,sample_measured_value,unit,iteration_count
snapshot_restore_with_dense,Dense: Entire region + /proc/pid/mem,1000,,,1499959.0,ns,2
snapshot_restore_with_dense,Dense: Entire region + /proc/pid/mem,1000,,,2906353.0,ns,4
snapshot_restore_with_dense,Dense: Entire region + /proc/pid/mem,1000,,,4365925.0,ns,6
snapshot_restore_with_dense,Dense: Entire region + /proc/pid/mem,1000,,,6480576.0,ns,8
snapshot_restore_with_dense,Dense: Entire region + /proc/pid/mem,1000,,,7540407.0,ns,10
snapshot_restore_with_dense,Dense: Entire region + /proc/pid/mem,1000,,,13685107.0,ns,12
snapshot_restore_with_dense,Dense: Entire region + /proc/pid/mem,1000,,,10614647.0,ns,14
snapshot_restore_with_dense,Dense: Entire region + /proc/pid/mem,1000,,,11629230.0,ns,16
snapshot_restore_with_dense,Dense: Entire region + /proc/pid/mem,1000,,,13097248.0,ns,18
snapshot_restore_with_dense,Dense: Entire region + /proc/pid/mem,1000,,,14474163.0,ns,20
snapshot_restore_with_dense,Dense: Entire region + /proc/pid/mem,1000,,,15988308.0,ns,22
snapshot_restore_with_dense,Dense: Entire region + /proc/pid/mem,1000,,,17346006.0,ns,24
snapshot_restore_with_dense,Dense: Entire region + /proc/pid/mem,1000,,,19025521.0,ns,26
snapshot_restore_with_dense,Dense: Entire region + /proc/pid/mem,1000,,,20299483.0,ns,28
snapshot_restore_with_dense,Dense: Entire region + /proc/pid/mem,1000,,,21680908.0,ns,30
snapshot_restore_with_dense,Dense: Entire region + /proc/pid/mem,1000,,,23134393.0,ns,32
snapshot_restore_with_dense,Dense: Entire region + /proc/pid/mem,1000,,,24639768.0,ns,34
snapshot_restore_with_dense,Dense: Entire region + /proc/pid/mem,1000,,,26052088.0,ns,36
snapshot_restore_with_dense,Dense: Entire region + /proc/pid/mem,1000,,,27444779.0,ns,38
snapshot_restore_with_dense,Dense: Entire region + /proc/pid/mem,1000,,,28899210.0,ns,40
snapshot_restore_with_dense,Dense: Entire region + /proc/pid/mem,1000,,,30396967.0,ns,42
snapshot_restore_with_dense,Dense: Entire region + /proc/pid/mem,1000,,,31839192.0,ns,44
snapshot_restore_with_dense,Dense: Entire region + /proc/pid/mem,1000,,,33272131.0,ns,46
snapshot_restore_with_dense,Dense: Entire region + /proc/pid/mem,1000,,,34752447.0,ns,48
snapshot_restore_with_dense,Dense: Entire region + /proc/pid/mem,1000,,,36156145.0,ns,50
snapshot_restore_with_dense,Dense: Entire region + /proc/pid/mem,1000,,,37574900.0,ns,52
snapshot_restore_with_dense,Dense: Entire region + /proc/pid/mem,1000,,,39066778.0,ns,54
snapshot_restore_with_dense,Dense: Entire region + /proc/pid/mem,1000,,,40521920.0,ns,56
snapshot_restore_with_dense,Dense: Entire region + /proc/pid/mem,1000,,,42045645.0,ns,58
snapshot_restore_with_dense,Dense: Entire region + /proc/pid/mem,1000,,,43376321.0,ns,60
snapshot_restore_with_dense,Dense: Entire region + /proc/pid/mem,1000,,,44812751.0,ns,62
snapshot_restore_with_dense,Dense: Entire region + /proc/pid/mem,1000,,,46344082.0,ns,64
snapshot_restore_with_dense,Dense: Entire region + /proc/pid/mem,1000,,,47684495.0,ns,66
snapshot_restore_with_dense,Dense: Entire region + /proc/pid/mem,1000,,,49217111.0,ns,68
snapshot_restore_with_dense,Dense: Entire region + /proc/pid/mem,1000,,,50631262.0,ns,70
snapshot_restore_with_dense,Dense: Entire region + /proc/pid/mem,1000,,,52137697.0,ns,72
snapshot_restore_with_dense,Dense: Entire region + /proc/pid/mem,1000,,,53739257.0,ns,74
snapshot_restore_with_dense,Dense: Entire region + /proc/pid/mem,1000,,,55044092.0,ns,76
snapshot_restore_with_dense,Dense: Entire region + /proc/pid/mem,1000,,,56378255.0,ns,78
snapshot_restore_with_dense,Dense: Entire region + /proc/pid/mem,1000,,,57914161.0,ns,80
snapshot_restore_with_dense,Dense: Entire region + /proc/pid/mem,1000,,,59367193.0,ns,82
snapshot_restore_with_dense,Dense: Entire region + /proc/pid/mem,1000,,,60646592.0,ns,84
snapshot_restore_with_dense,Dense: Entire region + /proc/pid/mem,1000,,,62154379.0,ns,86
snapshot_restore_with_dense,Dense: Entire region + /proc/pid/mem,1000,,,63603256.0,ns,88
snapshot_restore_with_dense,Dense: Entire region + /proc/pid/mem,1000,,,65082460.0,ns,90
snapshot_restore_with_dense,Dense: Entire region + /proc/pid/mem,1000,,,66499157.0,ns,92
snapshot_restore_with_dense,Dense: Entire region + /proc/pid/mem,1000,,,67901863.0,ns,94
snapshot_restore_with_dense,Dense: Entire region + /proc/pid/mem,1000,,,69421396.0,ns,96
snapshot_restore_with_dense,Dense: Entire region + /proc/pid/mem,1000,,,70974594.0,ns,98
snapshot_restore_with_dense,Dense: Entire region + /proc/pid/mem,1000,,,72249570.0,ns,100
snapshot_restore_with_dense,Dense: Entire region + /proc/pid/mem,1000,,,73793245.0,ns,102
snapshot_restore_with_dense,Dense: Entire region + /proc/pid/mem,1000,,,75209773.0,ns,104
snapshot_restore_with_dense,Dense: Entire region + /proc/pid/mem,1000,,,76633852.0,ns,106
snapshot_restore_with_dense,Dense: Entire region + /proc/pid/mem,1000,,,78152867.0,ns,108
snapshot_restore_with_dense,Dense: Entire region + /proc/pid/mem,1000,,,79758145.0,ns,110
snapshot_restore_with_dense,Dense: Entire region + /proc/pid/mem,1000,,,80982602.0,ns,112
snapshot_restore_with_dense,Dense: Entire region + /proc/pid/mem,1000,,,82447512.0,ns,114
snapshot_restore_with_dense,Dense: Entire region + /proc/pid/mem,1000,,,83858586.0,ns,116
snapshot_restore_with_dense,Dense: Entire region + /proc/pid/mem,1000,,,85234596.0,ns,118
snapshot_restore_with_dense,Dense: Entire region + /proc/pid/mem,1000,,,86798807.0,ns,120
snapshot_restore_with_dense,Dense: Entire region + /proc/pid/mem,1000,,,88280240.0,ns,122
snapshot_restore_with_dense,Dense: Entire region + /proc/pid/mem,1000,,,89636521.0,ns,124
snapshot_restore_with_dense,Dense: Entire region + /proc/pid/mem,1000,,,91127042.0,ns,126
snapshot_restore_with_dense,Dense: Entire region + /proc/pid/mem,1000,,,92604285.0,ns,128
snapshot_restore_with_dense,Dense: Entire region + /proc/pid/mem,1000,,,94514506.0,ns,130
snapshot_restore_with_dense,Dense: Entire region + /proc/pid/mem,1000,,,103190922.0,ns,132
snapshot_restore_with_dense,Dense: Entire region + /proc/pid/mem,1000,,,97328176.0,ns,134
snapshot_restore_with_dense,Dense: Entire region + /proc/pid/mem,1000,,,98317552.0,ns,136
snapshot_restore_with_dense,Dense: Entire region + /proc/pid/mem,1000,,,99971846.0,ns,138
snapshot_restore_with_dense,Dense: Entire region + /proc/pid/mem,1000,,,101289745.0,ns,140
snapshot_restore_with_dense,Dense: Entire region + /proc/pid/mem,1000,,,102704988.0,ns,142
snapshot_restore_with_dense,Dense: Entire region + /proc/pid/mem,1000,,,104204665.0,ns,144
snapshot_restore_with_dense,Dense: Entire region + /proc/pid/mem,1000,,,105638449.0,ns,146
snapshot_restore_with_dense,Dense: Entire region + /proc/pid/mem,1000,,,108824927.0,ns,148
snapshot_restore_with_dense,Dense: Entire region + /proc/pid/mem,1000,,,108792556.0,ns,150
snapshot_restore_with_dense,Dense: Entire region + /proc/pid/mem,1000,,,110128251.0,ns,152
snapshot_restore_with_dense,Dense: Entire region + /proc/pid/mem,1000,,,111453712.0,ns,154
snapshot_restore_with_dense,Dense: Entire region + /proc/pid/mem,1000,,,112858590.0,ns,156
snapshot_restore_with_dense,Dense: Entire region + /proc/pid/mem,1000,,,114365734.0,ns,158
snapshot_restore_with_dense,Dense: Entire region + /proc/pid/mem,1000,,,115846386.0,ns,160
snapshot_restore_with_dense,Dense: Entire region + /proc/pid/mem,1000,,,117325731.0,ns,162
snapshot_restore_with_dense,Dense: Entire region + /proc/pid/mem,1000,,,118639876.0,ns,164
snapshot_restore_with_dense,Dense: Entire region + /proc/pid/mem,1000,,,120396588.0,ns,166
snapshot_restore_with_dense,Dense: Entire region + /proc/pid/mem,1000,,,121603676.0,ns,168
snapshot_restore_with_dense,Dense: Entire region + /proc/pid/mem,1000,,,123060151.0,ns,170
snapshot_restore_with_dense,Dense: Entire region + /proc/pid/mem,1000,,,124408443.0,ns,172
snapshot_restore_with_dense,Dense: Entire region + /proc/pid/mem,1000,,,125984845.0,ns,174
snapshot_restore_with_dense,Dense: Entire region + /proc/pid/mem,1000,,,127380374.0,ns,176
snapshot_restore_with_dense,Dense: Entire region + /proc/pid/mem,1000,,,128931914.0,ns,178
snapshot_restore_with_dense,Dense: Entire region + /proc/pid/mem,1000,,,130374394.0,ns,180
snapshot_restore_with_dense,Dense: Entire region + /proc/pid/mem,1000,,,131867719.0,ns,182
snapshot_restore_with_dense,Dense: Entire region + /proc/pid/mem,1000,,,133228362.0,ns,184
snapshot_restore_with_dense,Dense: Entire region + /proc/pid/mem,1000,,,134773173.0,ns,186
snapshot_restore_with_dense,Dense: Entire region + /proc/pid/mem,1000,,,136129933.0,ns,188
snapshot_restore_with_dense,Dense: Entire region + /proc/pid/mem,1000,,,137430141.0,ns,190
snapshot_restore_with_dense,Dense: Entire region + /proc/pid/mem,1000,,,138931149.0,ns,192
snapshot_restore_with_dense,Dense: Entire region + /proc/pid/mem,1000,,,142272743.0,ns,194
snapshot_restore_with_dense,Dense: Entire region + /proc/pid/mem,1000,,,142144977.0,ns,196
snapshot_restore_with_dense,Dense: Entire region + /proc/pid/mem,1000,,,143510296.0,ns,198
snapshot_restore_with_dense,Dense: Entire region + /proc/pid/mem,1000,,,144684340.0,ns,200
