group,function,value,throughput_num,throughput_type,sample_measured_value,unit,iteration_count
snapshot_restore_with_dense,Sparse: Dirty pages + /proc/pid/mem,5,,,1141828.0,ns,43
snapshot_restore_with_dense,Sparse: Dirty pages + /proc/pid/mem,5,,,1982380.0,ns,86
snapshot_restore_with_dense,Sparse: Dirty pages + /proc/pid/mem,5,,,3011388.0,ns,129
snapshot_restore_with_dense,Sparse: Dirty pages + /proc/pid/mem,5,,,4027285.0,ns,172
snapshot_restore_with_dense,Sparse: Dirty pages + /proc/pid/mem,5,,,5138264.0,ns,215
snapshot_restore_with_dense,Sparse: Dirty pages + /proc/pid/mem,5,,,6030896.0,ns,258
snapshot_restore_with_dense,Sparse: Dirty pages + /proc/pid/mem,5,,,7534896.0,ns,301
snapshot_restore_with_dense,Sparse: Dirty pages + /proc/pid/mem,5,,,8457179.0,ns,344
snapshot_restore_with_dense,Sparse: Dirty pages + /proc/pid/mem,5,,,9288792.0,ns,387
snapshot_restore_with_dense,Sparse: Dirty pages + /proc/pid/mem,5,,,10111953.0,ns,430
snapshot_restore_with_dense,Sparse: Dirty pages + /proc/pid/mem,5,,,11020918.0,ns,473
snapshot_restore_with_dense,Sparse: Dirty pages + /proc/pid/mem,5,,,12009011.0,ns,516
snapshot_restore_with_dense,Sparse: Dirty pages + /proc/pid/mem,5,,,12985243.0,ns,559
snapshot_restore_with_dense,Sparse: Dirty pages + /proc/pid/mem,5,,,13988349.0,ns,602
snapshot_restore_with_dense,Sparse: Dirty pages + /proc/pid/mem,5,,,15191540.0,ns,645
snapshot_restore_with_dense,Sparse: Dirty pages + /proc/pid/mem,5,,,16189167.0,ns,688
snapshot_restore_with_dense,Sparse: Dirty pages + /proc/pid/mem,5,,,16991050.0,ns,731
snapshot_restore_with_dense,Sparse: Dirty pages + /proc/pid/mem,5,,,17981104.0,ns,774
snapshot_restore_with_dense,Sparse: Dirty pages + /proc/pid/mem,5,,,18943455.0,ns,817
snapshot_restore_with_dense,Sparse: Dirty pages + /proc/pid/mem,5,,,19979685.0,ns,860
snapshot_restore_with_dense,Sparse: Dirty pages + /proc/pid/mem,5,,,20998041.0,ns,903
snapshot_restore_with_dense,Sparse: Dirty pages + /proc/pid/mem,5,,,21967771.0,ns,946
snapshot_restore_with_dense,Sparse: Dirty pages + /proc/pid/mem,5,,,22921112.0,ns,989
snapshot_restore_with_dense,Sparse: Dirty pages + /proc/pid/mem,5,,,23912326.0,ns,1032
snapshot_restore_with_dense,Sparse: Dirty pages + /proc/pid/mem,5,,,25000722.0,ns,1075
snapshot_restore_with_dense,Sparse: Dirty pages + /proc/pid/mem,5,,,25922463.0,ns,1118
snapshot_restore_with_dense,Sparse: Dirty pages + /proc/pid/mem,5,,,26854666.0,ns,1161
snapshot_restore_with_dense,Sparse: Dirty pages + /proc/pid/mem,5,,,27844164.0,ns,1204
snapshot_restore_with_dense,Sparse: Dirty pages + /proc/pid/mem,5,,,29024211.0,ns,1247
snapshot_restore_with_dense,Sparse: Dirty pages + /proc/pid/mem,5,,,29904852.0,ns,1290
snapshot_restore_with_dense,Sparse: Dirty pages + /proc/pid/mem,5,,,30986580.0,ns,1333
snapshot_restore_with_dense,Sparse: Dirty pages + /proc/pid/mem,5,,,32022155.0,ns,1376
snapshot_restore_with_dense,Sparse: Dirty pages + /proc/pid/mem,5,,,33009092.0,ns,1419
snapshot_restore_with_dense,Sparse: Dirty pages + /proc/pid/mem,5,,,33916138.0,ns,1462
snapshot_restore_with_dense,Sparse: Dirty pages + /proc/pid/mem,5,,,35016652.0,ns,1505
snapshot_restore_with_dense,Sparse: Dirty pages + /proc/pid/mem,5,,,36002024.0,ns,1548
snapshot_restore_with_dense,Sparse: Dirty pages + /proc/pid/mem,5,,,37165328.0,ns,1591
snapshot_restore_with_dense,Sparse: Dirty pages + /proc/pid/mem,5,,,38142953.0,ns,1634
snapshot_restore_with_dense,Sparse: Dirty pages + /proc/pid/mem,5,,,39009304.0,ns,1677
snapshot_restore_with_dense,Sparse: Dirty pages + /proc/pid/mem,5,,,39896023.0,ns,1720
snapshot_restore_with_dense,Sparse: Dirty pages + /proc/pid/mem,5,,,40933405.0,ns,1763
snapshot_restore_with_dense,Sparse: Dirty pages + /proc/pid/mem,5,,,41770105.0,ns,1806
snapshot_restore_with_dense,Sparse: Dirty pages + /proc/pid/mem,5,,,42982672.0,ns,1849
snapshot_restore_with_dense,Sparse: Dirty pages + /proc/pid/mem,5,,,50814188.0,ns,1892
snapshot_restore_with_dense,Sparse: Dirty pages + /proc/pid/mem,5,,,45384711.0,ns,1935
snapshot_restore_with_dense,Sparse: Dirty pages + /proc/pid/mem,5,,,46307732.0,ns,1978
snapshot_restore_with_dense,Sparse: Dirty pages + /proc/pid/mem,5,,,47432697.0,ns,2021
snapshot_restore_with_dense,Sparse: Dirty pages + /proc/pid/mem,5,,,48323089.0,ns,2064
snapshot_restore_with_dense,Sparse: Dirty pages + /proc/pid/mem,5,,,49079017.0,ns,2107
snapshot_restore_with_dense,Sparse: Dirty pages + /proc/pid/mem,5,,,49953943.0,ns,2150
snapshot_restore_with_dense,Sparse: Dirty pages + /proc/pid/mem,5,,,50964904.0,ns,2193
snapshot_restore_with_dense,Sparse: Dirty pages + /proc/pid/mem,5,,,52012791.0,ns,2236
snapshot_restore_with_dense,Sparse: Dirty pages + /proc/pid/mem,5,,,52950066.0,ns,2279
snapshot_restore_with_dense,Sparse: Dirty pages + /proc/pid/mem,5,,,54060805.0,ns,2322
snapshot_restore_with_dense,Sparse: Dirty pages + /proc/pid/mem,5,,,54997375.0,ns,2365
snapshot_restore_with_dense,Sparse: Dirty pages + /proc/pid/mem,5,,,56088570.0,ns,2408
snapshot_restore_with_dense,Sparse: Dirty pages + /proc/pid/mem,5,,,56937665.0,ns,2451
snapshot_restore_with_dense,Sparse: Dirty pages + /proc/pid/mem,5,,,57954833.0,ns,2494
snapshot_restore_with_dense,Sparse: Dirty pages + /proc/pid/mem,5,,,59067781.0,ns,2537
snapshot_restore_with_dense,Sparse: Dirty pages + /proc/pid/mem,5,,,59985985.0,ns,2580
snapshot_restore_with_dense,Sparse: Dirty pages + /proc/pid/mem,5,,,61100808.0,ns,2623
snapshot_restore_with_dense,Sparse: Dirty pages + /proc/pid/mem,5,,,62119301.0,ns,2666
snapshot_restore_with_dense,Sparse: Dirty pages + /proc/pid/mem,5,,,62836397.0,ns,2709
snapshot_restore_with_dense,Sparse: Dirty pages + /proc/pid/mem,5,,,64081015.0,ns,2752
snapshot_restore_with_dense,Sparse: Dirty pages + /proc/pid/mem,5,,,64884342.0,ns,2795
snapshot_restore_with_dense,Sparse: Dirty pages + /proc/pid/mem,5,,,65919562.0,ns,2838
snapshot_restore_with_dense,Sparse: Dirty pages + /proc/pid/mem,5,,,67226692.0,ns,2881
snapshot_restore_with_dense,Sparse: Dirty pages + /proc/pid/mem,5,,,67839292.0,ns,2924
snapshot_restore_with_dense,Sparse: Dirty pages + /proc/pid/mem,5,,,68929466.0,ns,2967
snapshot_restore_with_dense,Sparse: Dirty pages + /proc/pid/mem,5,,,69956340.0,ns,3010
snapshot_restore_with_dense,Sparse: Dirty pages + /proc/pid/mem,5,,,70783749.0,ns,3053
snapshot_restore_with_dense,Sparse: Dirty pages + /proc/pid/mem,5,,,71760191.0,ns,3096
snapshot_restore_with_dense,Sparse: Dirty pages + /proc/pid/mem,5,,,72790920.0,ns,3139
snapshot_restore_with_dense,Sparse: Dirty pages + /proc/pid/mem,5,,,73655968.0,ns,3182
snapshot_restore_with_dense,Sparse: Dirty pages + /proc/pid/mem,5,,,74947381.0,ns,3225
snapshot_restore_with_dense,Sparse: Dirty pages + /proc/pid/mem,5,,,75837593.0,ns,3268
snapshot_restore_with_dense,Sparse: Dirty pages + /proc/pid/mem,5,,,76792186.0,ns,3311
snapshot_restore_with_dense,Sparse: Dirty pages + /proc/pid/mem,5,,,77811257.0,ns,3354
snapshot_restore_with_dense,Sparse: Dirty pages + /proc/pid/mem,5,,,78867751.0,ns,3397
snapshot_restore_with_dense,Sparse: Dirty pages + /proc/pid/mem,5,,,79927043.0,ns,3440
snapshot_restore_with_dense,Sparse: Dirty pages + /proc/pid/mem,5,,,80909444.0,ns,3483
snapshot_restore_with_dense,Sparse: Dirty pages + /proc/pid/mem,5,,,81838556.0,ns,3526
snapshot_restore_with_dense,Sparse: Dirty pages + /proc/pid/mem,5,,,82872701.0,ns,3569
snapshot_restore_with_dense,Sparse: Dirty pages + /proc/pid/mem,5,,,84023868.0,ns,3612
snapshot_restore_with_dense,Sparse: Dirty pages + /proc/pid/mem,5,,,84599655.0,ns,3655
snapshot_restore_with_dense,Sparse: Dirty pages + /proc/pid/mem,5,,,85955926.0,ns,3698
snapshot_restore_with_dense,Sparse: Dirty pages + /proc/pid/mem,5,,,87123318.0,ns,3741
snapshot_restore_with_dense,Sparse: Dirty pages + /proc/pid/mem,5,,,93111136.0,ns,3784
snapshot_restore_with_dense,Sparse: Dirty pages + /proc/pid/mem,5,,,88828754.0,ns,3827
snapshot_restore_with_dense,Sparse: Dirty pages + /proc/pid/mem,5,,,89818951.0,ns,3870
snapshot_restore_with_dense,Sparse: Dirty pages + /proc/pid/mem,5,,,91058421.0,ns,3913
snapshot_restore_with_dense,Sparse: Dirty pages + /proc/pid/mem,5,,,92019181.0,ns,3956
snapshot_restore_with_dense,Sparse: Dirty pages + /proc/pid/mem,5,,,93025410.0,ns,3999
snapshot_restore_with_dense,Sparse: Dirty pages + /proc/pid/mem,5,,,94245042.0,ns,4042
snapshot_restore_with_dense,Sparse: Dirty pages + /proc/pid/mem,5,,,94729556.0,ns,4085
snapshot_restore_with_dense,Sparse: Dirty pages + /proc/pid/mem,5,,,95897864.0,ns,4128
snapshot_restore_with_dense,Sparse: Dirty pages + /proc/pid/mem,5,,,96905420.0,ns,4171
snapshot_restore_with_dense,Sparse: Dirty pages + /proc/pid/mem,5,,,98093985.0,ns,4214
snapshot_restore_with_dense,Sparse: Dirty pages + /proc/pid/mem,5,,,98898179.0,ns,4257
snapshot_restore_with_dense,Sparse: Dirty pages + /proc/pid/mem,5,,,100041406.0,ns,4300
