<?xml version="1.0" encoding="utf-8"  standalone="no"?>
<svg 
 viewBox="0 0 1280 720"
 xmlns="http://www.w3.org/2000/svg"
 xmlns:xlink="http://www.w3.org/1999/xlink"
>

<title>Gnuplot</title>
<desc>Produced by GNUPLOT 5.2 patchlevel 6 </desc>

<g id="gnuplot_canvas">

<rect x="0" y="0" width="1280" height="720" fill="none"/>
<defs>

	<circle id='gpDot' r='0.5' stroke-width='0.5' stroke='currentColor'/>
	<path id='gpPt0' stroke-width='0.222' stroke='currentColor' d='M-1,0 h2 M0,-1 v2'/>
	<path id='gpPt1' stroke-width='0.222' stroke='currentColor' d='M-1,-1 L1,1 M1,-1 L-1,1'/>
	<path id='gpPt2' stroke-width='0.222' stroke='currentColor' d='M-1,0 L1,0 M0,-1 L0,1 M-1,-1 L1,1 M-1,1 L1,-1'/>
	<rect id='gpPt3' stroke-width='0.222' stroke='currentColor' x='-1' y='-1' width='2' height='2'/>
	<rect id='gpPt4' stroke-width='0.222' stroke='currentColor' fill='currentColor' x='-1' y='-1' width='2' height='2'/>
	<circle id='gpPt5' stroke-width='0.222' stroke='currentColor' cx='0' cy='0' r='1'/>
	<use xlink:href='#gpPt5' id='gpPt6' fill='currentColor' stroke='none'/>
	<path id='gpPt7' stroke-width='0.222' stroke='currentColor' d='M0,-1.33 L-1.33,0.67 L1.33,0.67 z'/>
	<use xlink:href='#gpPt7' id='gpPt8' fill='currentColor' stroke='none'/>
	<use xlink:href='#gpPt7' id='gpPt9' stroke='currentColor' transform='rotate(180)'/>
	<use xlink:href='#gpPt9' id='gpPt10' fill='currentColor' stroke='none'/>
	<use xlink:href='#gpPt3' id='gpPt11' stroke='currentColor' transform='rotate(45)'/>
	<use xlink:href='#gpPt11' id='gpPt12' fill='currentColor' stroke='none'/>
	<path id='gpPt13' stroke-width='0.222' stroke='currentColor' d='M0,1.330 L1.265,0.411 L0.782,-1.067 L-0.782,-1.076 L-1.265,0.411 z'/>
	<use xlink:href='#gpPt13' id='gpPt14' fill='currentColor' stroke='none'/>
	<filter id='textbox' filterUnits='objectBoundingBox' x='0' y='0' height='1' width='1'>
	  <feFlood flood-color='white' flood-opacity='1' result='bgnd'/>
	  <feComposite in='SourceGraphic' in2='bgnd' operator='atop'/>
	</filter>
	<filter id='greybox' filterUnits='objectBoundingBox' x='0' y='0' height='1' width='1'>
	  <feFlood flood-color='lightgrey' flood-opacity='1' result='grey'/>
	  <feComposite in='SourceGraphic' in2='grey' operator='atop'/>
	</filter>
</defs>
<g fill="none" color="white" stroke="currentColor" stroke-width="1.00" stroke-linecap="butt" stroke-linejoin="miter">
</g>
<g fill="none" color="black" stroke="currentColor" stroke-width="1.00" stroke-linecap="butt" stroke-linejoin="miter">
	<path stroke='black'  d='M80.2,662.4 L89.2,662.4  '/>	<g transform="translate(71.9,666.3)" stroke="none" fill="black" font-family="Helvetica" font-size="12.00"  text-anchor="end">
		<text><tspan font-family="Helvetica" > 0</tspan></text>
	</g>
</g>
<g fill="none" color="black" stroke="currentColor" stroke-width="1.00" stroke-linecap="butt" stroke-linejoin="miter">
	<path stroke='black'  d='M80.2,594.8 L89.2,594.8  '/>	<g transform="translate(71.9,598.7)" stroke="none" fill="black" font-family="Helvetica" font-size="12.00"  text-anchor="end">
		<text><tspan font-family="Helvetica" > 0.01</tspan></text>
	</g>
</g>
<g fill="none" color="black" stroke="currentColor" stroke-width="1.00" stroke-linecap="butt" stroke-linejoin="miter">
	<path stroke='black'  d='M80.2,527.2 L89.2,527.2  '/>	<g transform="translate(71.9,531.1)" stroke="none" fill="black" font-family="Helvetica" font-size="12.00"  text-anchor="end">
		<text><tspan font-family="Helvetica" > 0.02</tspan></text>
	</g>
</g>
<g fill="none" color="black" stroke="currentColor" stroke-width="1.00" stroke-linecap="butt" stroke-linejoin="miter">
	<path stroke='black'  d='M80.2,459.6 L89.2,459.6  '/>	<g transform="translate(71.9,463.5)" stroke="none" fill="black" font-family="Helvetica" font-size="12.00"  text-anchor="end">
		<text><tspan font-family="Helvetica" > 0.03</tspan></text>
	</g>
</g>
<g fill="none" color="black" stroke="currentColor" stroke-width="1.00" stroke-linecap="butt" stroke-linejoin="miter">
	<path stroke='black'  d='M80.2,392.0 L89.2,392.0  '/>	<g transform="translate(71.9,395.9)" stroke="none" fill="black" font-family="Helvetica" font-size="12.00"  text-anchor="end">
		<text><tspan font-family="Helvetica" > 0.04</tspan></text>
	</g>
</g>
<g fill="none" color="black" stroke="currentColor" stroke-width="1.00" stroke-linecap="butt" stroke-linejoin="miter">
	<path stroke='black'  d='M80.2,324.5 L89.2,324.5  '/>	<g transform="translate(71.9,328.4)" stroke="none" fill="black" font-family="Helvetica" font-size="12.00"  text-anchor="end">
		<text><tspan font-family="Helvetica" > 0.05</tspan></text>
	</g>
</g>
<g fill="none" color="black" stroke="currentColor" stroke-width="1.00" stroke-linecap="butt" stroke-linejoin="miter">
	<path stroke='black'  d='M80.2,256.9 L89.2,256.9  '/>	<g transform="translate(71.9,260.8)" stroke="none" fill="black" font-family="Helvetica" font-size="12.00"  text-anchor="end">
		<text><tspan font-family="Helvetica" > 0.06</tspan></text>
	</g>
</g>
<g fill="none" color="black" stroke="currentColor" stroke-width="1.00" stroke-linecap="butt" stroke-linejoin="miter">
	<path stroke='black'  d='M80.2,189.3 L89.2,189.3  '/>	<g transform="translate(71.9,193.2)" stroke="none" fill="black" font-family="Helvetica" font-size="12.00"  text-anchor="end">
		<text><tspan font-family="Helvetica" > 0.07</tspan></text>
	</g>
</g>
<g fill="none" color="black" stroke="currentColor" stroke-width="1.00" stroke-linecap="butt" stroke-linejoin="miter">
	<path stroke='black'  d='M80.2,121.7 L89.2,121.7  '/>	<g transform="translate(71.9,125.6)" stroke="none" fill="black" font-family="Helvetica" font-size="12.00"  text-anchor="end">
		<text><tspan font-family="Helvetica" > 0.08</tspan></text>
	</g>
</g>
<g fill="none" color="black" stroke="currentColor" stroke-width="1.00" stroke-linecap="butt" stroke-linejoin="miter">
	<path stroke='black'  d='M80.2,54.1 L89.2,54.1  '/>	<g transform="translate(71.9,58.0)" stroke="none" fill="black" font-family="Helvetica" font-size="12.00"  text-anchor="end">
		<text><tspan font-family="Helvetica" > 0.09</tspan></text>
	</g>
</g>
<g fill="none" color="black" stroke="currentColor" stroke-width="1.00" stroke-linecap="butt" stroke-linejoin="miter">
	<path stroke='black'  d='M261.3,662.4 L261.3,653.4  '/>	<g transform="translate(261.3,684.3)" stroke="none" fill="black" font-family="Helvetica" font-size="12.00"  text-anchor="middle">
		<text><tspan font-family="Helvetica" > 425</tspan></text>
	</g>
</g>
<g fill="none" color="black" stroke="currentColor" stroke-width="1.00" stroke-linecap="butt" stroke-linejoin="miter">
	<path stroke='black'  d='M471.6,662.4 L471.6,653.4  '/>	<g transform="translate(471.6,684.3)" stroke="none" fill="black" font-family="Helvetica" font-size="12.00"  text-anchor="middle">
		<text><tspan font-family="Helvetica" > 430</tspan></text>
	</g>
</g>
<g fill="none" color="black" stroke="currentColor" stroke-width="1.00" stroke-linecap="butt" stroke-linejoin="miter">
	<path stroke='black'  d='M681.9,662.4 L681.9,653.4  '/>	<g transform="translate(681.9,684.3)" stroke="none" fill="black" font-family="Helvetica" font-size="12.00"  text-anchor="middle">
		<text><tspan font-family="Helvetica" > 435</tspan></text>
	</g>
</g>
<g fill="none" color="black" stroke="currentColor" stroke-width="1.00" stroke-linecap="butt" stroke-linejoin="miter">
	<path stroke='black'  d='M892.2,662.4 L892.2,653.4  '/>	<g transform="translate(892.2,684.3)" stroke="none" fill="black" font-family="Helvetica" font-size="12.00"  text-anchor="middle">
		<text><tspan font-family="Helvetica" > 440</tspan></text>
	</g>
</g>
<g fill="none" color="black" stroke="currentColor" stroke-width="1.00" stroke-linecap="butt" stroke-linejoin="miter">
</g>
<g fill="none" color="black" stroke="currentColor" stroke-width="1.00" stroke-linecap="butt" stroke-linejoin="miter">
	<path stroke='black'  d='M80.2,54.1 L80.2,662.4 L1013.6,662.4 L1013.6,54.1 L80.2,54.1 Z  '/></g>
<g fill="none" color="black" stroke="currentColor" stroke-width="1.00" stroke-linecap="butt" stroke-linejoin="miter">
	<g transform="translate(16.3,358.3) rotate(270)" stroke="none" fill="black" font-family="Helvetica" font-size="12.00"  text-anchor="middle">
		<text><tspan font-family="Helvetica" >Density (a.u.)</tspan></text>
	</g>
</g>
<g fill="none" color="black" stroke="currentColor" stroke-width="1.00" stroke-linecap="butt" stroke-linejoin="miter">
	<g transform="translate(546.9,711.3)" stroke="none" fill="black" font-family="Helvetica" font-size="12.00"  text-anchor="middle">
		<text><tspan font-family="Helvetica" >Average time (us)</tspan></text>
	</g>
</g>
<g fill="none" color="black" stroke="currentColor" stroke-width="1.00" stroke-linecap="butt" stroke-linejoin="miter">
	<g transform="translate(546.9,31.0)" stroke="none" fill="black" font-family="Helvetica" font-size="12.00"  text-anchor="middle">
		<text><tspan font-family="Helvetica" >perf/instruction_counter: slope</tspan></text>
	</g>
</g>
	<g id="gnuplot_plot_1" ><title>Bootstrap distribution</title>
<g fill="none" color="white" stroke="black" stroke-width="2.00" stroke-linecap="butt" stroke-linejoin="miter">
</g>
<g fill="none" color="black" stroke="currentColor" stroke-width="2.00" stroke-linecap="butt" stroke-linejoin="miter">
	<g transform="translate(1089.0,67.0)" stroke="none" fill="black" font-family="Helvetica" font-size="12.00"  text-anchor="start">
		<text><tspan font-family="Helvetica" >Bootstrap distribution</tspan></text>
	</g>
</g>
<g fill="none" color="black" stroke="currentColor" stroke-width="2.00" stroke-linecap="butt" stroke-linejoin="miter">
	<path stroke='rgb( 31, 120, 180)'  d='M1038.5,63.1 L1080.7,63.1 M80.2,627.9 L82.1,626.5 L83.9,625.0 L85.8,623.6 L87.7,622.2 L89.6,620.8
		L91.4,619.3 L93.3,617.8 L95.2,616.3 L97.0,614.8 L98.9,613.2 L100.8,611.6 L102.6,610.0 L104.5,608.3
		L106.4,606.6 L108.3,604.8 L110.1,602.9 L112.0,601.0 L113.9,599.1 L115.7,597.1 L117.6,595.0 L119.5,592.9
		L121.4,590.7 L123.2,588.5 L125.1,586.3 L127.0,584.0 L128.8,581.6 L130.7,579.3 L132.6,576.9 L134.4,574.4
		L136.3,572.0 L138.2,569.5 L140.1,567.0 L141.9,564.4 L143.8,561.8 L145.7,559.2 L147.5,556.5 L149.4,553.8
		L151.3,551.1 L153.2,548.3 L155.0,545.5 L156.9,542.6 L158.8,539.6 L160.6,536.6 L162.5,533.5 L164.4,530.3
		L166.2,527.1 L168.1,523.8 L170.0,520.4 L171.9,516.9 L173.7,513.4 L175.6,509.8 L177.5,506.2 L179.3,502.4
		L181.2,498.7 L183.1,494.8 L185.0,491.0 L186.8,487.1 L188.7,483.1 L190.6,479.1 L192.4,475.1 L194.3,471.1
		L196.2,467.0 L198.0,462.9 L199.9,458.9 L201.8,454.8 L203.7,450.6 L205.5,446.5 L207.4,442.4 L209.3,438.2
		L211.1,434.1 L213.0,429.9 L214.9,425.7 L216.7,421.5 L218.6,417.4 L220.5,413.2 L222.4,409.0 L224.2,404.8
		L226.1,400.6 L228.0,396.4 L229.8,392.2 L231.7,388.0 L233.6,383.9 L235.5,379.8 L237.3,375.8 L239.2,371.8
		L241.1,367.8 L242.9,363.9 L244.8,360.0 L246.7,356.2 L248.5,352.5 L250.4,348.8 L252.3,345.2 L254.2,341.6
		L256.0,338.1 L257.9,334.7 L259.8,331.2 L261.6,327.9 L263.5,324.5 L265.4,321.2 L267.3,317.9 L269.1,314.7
		L271.0,311.4 L272.9,308.1 L274.7,304.8 L276.6,301.4 L278.5,298.1 L280.3,294.7 L282.2,291.2 L284.1,287.8
		L286.0,284.2 L287.8,280.7 L289.7,277.1 L291.6,273.4 L293.4,269.7 L295.3,265.9 L297.2,262.2 L299.1,258.3
		L300.9,254.5 L302.8,250.6 L304.7,246.6 L306.5,242.7 L308.4,238.8 L310.3,234.8 L312.1,230.9 L314.0,226.9
		L315.9,223.0 L317.8,219.1 L319.6,215.3 L321.5,211.5 L323.4,207.8 L325.2,204.1 L327.1,200.5 L329.0,197.0
		L330.9,193.6 L332.7,190.3 L334.6,187.1 L336.5,184.0 L338.3,181.0 L340.2,178.1 L342.1,175.3 L343.9,172.6
		L345.8,170.0 L347.7,167.5 L349.6,165.1 L351.4,162.7 L353.3,160.4 L355.2,158.1 L357.0,155.9 L358.9,153.6
		L360.8,151.4 L362.7,149.2 L364.5,146.9 L366.4,144.6 L368.3,142.2 L370.1,139.9 L372.0,137.4 L373.9,135.0
		L375.7,132.5 L377.6,129.9 L379.5,127.4 L381.4,124.8 L383.2,122.2 L385.1,119.7 L387.0,117.2 L388.8,114.7
		L390.7,112.3 L392.6,110.0 L394.5,107.9 L396.3,105.8 L398.2,103.9 L400.1,102.1 L401.9,100.4 L403.8,98.9
		L405.7,97.6 L407.5,96.4 L409.4,95.3 L411.3,94.4 L413.2,93.6 L415.0,92.9 L416.9,92.4 L418.8,91.9
		L420.6,91.6 L422.5,91.2 L424.4,91.0 L426.3,90.8 L428.1,90.6 L430.0,90.5 L431.9,90.3 L433.7,90.2
		L435.6,90.0 L437.5,89.9 L439.3,89.7 L441.2,89.5 L443.1,89.2 L445.0,89.0 L446.8,88.7 L448.7,88.4
		L450.6,88.1 L452.4,87.7 L454.3,87.4 L456.2,87.1 L458.0,86.8 L459.9,86.5 L461.8,86.2 L463.7,86.0
		L465.5,85.8 L467.4,85.7 L469.3,85.7 L471.1,85.8 L473.0,85.9 L474.9,86.1 L476.8,86.5 L478.6,86.9
		L480.5,87.4 L482.4,88.0 L484.2,88.7 L486.1,89.5 L488.0,90.4 L489.8,91.4 L491.7,92.5 L493.6,93.6
		L495.5,94.8 L497.3,96.1 L499.2,97.4 L501.1,98.8 L502.9,100.2 L504.8,101.7 L506.7,103.2 L508.6,104.8
		L510.4,106.4 L512.3,108.0 L514.2,109.7 L516.0,111.4 L517.9,113.2 L519.8,115.0 L521.6,116.8 L523.5,118.7
		L525.4,120.6 L527.3,122.5 L529.1,124.5 L531.0,126.4 L532.9,128.4 L534.7,130.5 L536.6,132.6 L538.5,134.6
		L540.4,136.8 L542.2,138.9 L544.1,141.2 L546.0,143.4 L547.8,145.7 L549.7,148.0 L551.6,150.4 L553.4,152.8
		L555.3,155.2 L557.2,157.7 L559.1,160.3 L560.9,162.9 L562.8,165.5 L564.7,168.2 L566.5,170.9 L568.4,173.6
		L570.3,176.3 L572.2,179.1 L574.0,181.8 L575.9,184.6 L577.8,187.3 L579.6,190.0 L581.5,192.7 L583.4,195.4
		L585.2,198.0 L587.1,200.7 L589.0,203.2 L590.9,205.8 L592.7,208.2 L594.6,210.7 L596.5,213.1 L598.3,215.5
		L600.2,217.8 L602.1,220.2 L604.0,222.5 L605.8,224.7 L607.7,227.0 L609.6,229.3 L611.4,231.5 L613.3,233.8
		L615.2,236.0 L617.0,238.3 L618.9,240.6 L620.8,242.9 L622.7,245.2 L624.5,247.6 L626.4,250.0 L628.3,252.4
		L630.1,254.9 L632.0,257.4 L633.9,259.9 L635.8,262.5 L637.6,265.1 L639.5,267.8 L641.4,270.5 L643.2,273.2
		L645.1,276.0 L647.0,278.8 L648.8,281.7 L650.7,284.6 L652.6,287.5 L654.5,290.4 L656.3,293.3 L658.2,296.3
		L660.1,299.2 L661.9,302.2 L663.8,305.1 L665.7,308.1 L667.5,311.0 L669.4,313.9 L671.3,316.9 L673.2,319.7
		L675.0,322.6 L676.9,325.4 L678.8,328.3 L680.6,331.0 L682.5,333.8 L684.4,336.5 L686.3,339.3 L688.1,341.9
		L690.0,344.6 L691.9,347.3 L693.7,349.9 L695.6,352.6 L697.5,355.2 L699.3,357.9 L701.2,360.5 L703.1,363.2
		L705.0,365.9 L706.8,368.6 L708.7,371.3 L710.6,374.0 L712.4,376.7 L714.3,379.5 L716.2,382.3 L718.1,385.1
		L719.9,387.9 L721.8,390.7 L723.7,393.5 L725.5,396.3 L727.4,399.2 L729.3,402.0 L731.1,404.8 L733.0,407.6
		L734.9,410.4 L736.8,413.2 L738.6,416.0 L740.5,418.8 L742.4,421.5 L744.2,424.2 L746.1,427.0 L748.0,429.7
		L749.9,432.4 L751.7,435.1 L753.6,437.7 L755.5,440.4 L757.3,443.1 L759.2,445.7 L761.1,448.3 L762.9,450.9
		L764.8,453.6 L766.7,456.1 L768.6,458.7 L770.4,461.3 L772.3,463.8 L774.2,466.4 L776.0,468.9 L777.9,471.4
		L779.8,473.8 L781.7,476.3 L783.5,478.7 L785.4,481.1 L787.3,483.4 L789.1,485.7 L791.0,488.0 L792.9,490.2
		L794.7,492.4 L796.6,494.6 L798.5,496.7 L800.4,498.7 L802.2,500.7 L804.1,502.7 L806.0,504.6 L807.8,506.4
		L809.7,508.2 L811.6,510.0 L813.5,511.7 L815.3,513.4 L817.2,515.0 L819.1,516.6 L820.9,518.2 L822.8,519.7
		L824.7,521.2 L826.5,522.7 L828.4,524.2 L830.3,525.6 L832.2,527.1 L834.0,528.5 L835.9,530.0 L837.8,531.4
		L839.6,532.9 L841.5,534.4 L843.4,535.8 L845.3,537.3 L847.1,538.7 L849.0,540.2 L850.9,541.6 L852.7,543.1
		L854.6,544.5 L856.5,546.0 L858.3,547.4 L860.2,548.8 L862.1,550.2 L864.0,551.6 L865.8,553.0 L867.7,554.3
		L869.6,555.7 L871.4,557.0 L873.3,558.3 L875.2,559.6 L877.1,560.8 L878.9,562.1 L880.8,563.3 L882.7,564.5
		L884.5,565.8 L886.4,567.0 L888.3,568.2 L890.1,569.4 L892.0,570.5 L893.9,571.7 L895.8,572.9 L897.6,574.1
		L899.5,575.3 L901.4,576.4 L903.2,577.6 L905.1,578.8 L907.0,580.0 L908.8,581.1 L910.7,582.3 L912.6,583.5
		L914.5,584.7 L916.3,585.9 L918.2,587.1 L920.1,588.2 L921.9,589.4 L923.8,590.6 L925.7,591.8 L927.6,592.9
		L929.4,594.1 L931.3,595.2 L933.2,596.3 L935.0,597.4 L936.9,598.5 L938.8,599.6 L940.6,600.6 L942.5,601.7
		L944.4,602.7 L946.3,603.6 L948.1,604.6 L950.0,605.5 L951.9,606.4 L953.7,607.3 L955.6,608.2 L957.5,609.0
		L959.4,609.8 L961.2,610.6 L963.1,611.4 L965.0,612.1 L966.8,612.9 L968.7,613.6 L970.6,614.3 L972.4,615.1
		L974.3,615.8 L976.2,616.5 L978.1,617.2 L979.9,617.9 L981.8,618.7 L983.7,619.4 L985.5,620.1 L987.4,620.8
		L989.3,621.6 L991.2,622.3 L993.0,623.0 L994.9,623.8 L996.8,624.5 L998.6,625.3 L1000.5,626.0 L1002.4,626.7
		L1004.2,627.5 L1006.1,628.2 L1008.0,628.9 L1009.9,629.6 L1011.7,630.3 L1013.6,630.9  '/></g>
	</g>
	<g id="gnuplot_plot_2" ><title>Confidence interval</title>
<g fill="none" color="white" stroke="rgb( 31, 120, 180)" stroke-width="1.00" stroke-linecap="butt" stroke-linejoin="miter">
</g>
<g fill="none" color="black" stroke="currentColor" stroke-width="1.00" stroke-linecap="butt" stroke-linejoin="miter">
	<g transform="translate(1089.0,85.0)" stroke="none" fill="black" font-family="Helvetica" font-size="12.00"  text-anchor="start">
		<text><tspan font-family="Helvetica" >Confidence interval</tspan></text>
	</g>
</g>
<g fill="none" color="black" stroke="currentColor" stroke-width="1.00" stroke-linecap="butt" stroke-linejoin="miter">
	<g stroke='none' shape-rendering='crispEdges'>
		<polygon fill = 'rgb( 31, 120, 180)' fill-opacity = '0.250000' points = '1038.5,85.6 1080.7,85.6 1080.7,76.6 1038.5,76.6 '/>
		<polygon fill = 'rgb( 31, 120, 180)' fill-opacity = '0.250000' points = '166.2,527.1 168.1,523.8 170.0,520.4 171.9,516.9 173.7,513.4 175.6,509.8 177.5,506.2 179.3,502.4 181.2,498.7 183.1,494.8 185.0,491.0 186.8,487.1 188.7,483.1 190.6,479.1 192.4,475.1 194.3,471.1
196.2,467.0 198.0,462.9 199.9,458.9 201.8,454.8 203.7,450.6 205.5,446.5 207.4,442.4 209.3,438.2 211.1,434.1 213.0,429.9 214.9,425.7 216.7,421.5 218.6,417.4 220.5,413.2 222.4,409.0 224.2,404.8
226.1,400.6 228.0,396.4 229.8,392.2 231.7,388.0 233.6,383.9 235.5,379.8 237.3,375.8 239.2,371.8 241.1,367.8 242.9,363.9 244.8,360.0 246.7,356.2 248.5,352.5 250.4,348.8 252.3,345.2 254.2,341.6
256.0,338.1 257.9,334.7 259.8,331.2 261.6,327.9 263.5,324.5 265.4,321.2 267.3,317.9 269.1,314.7 271.0,311.4 272.9,308.1 274.7,304.8 276.6,301.4 278.5,298.1 280.3,294.7 282.2,291.2 284.1,287.8
286.0,284.2 287.8,280.7 289.7,277.1 291.6,273.4 293.4,269.7 295.3,265.9 297.2,262.2 299.1,258.3 300.9,254.5 302.8,250.6 304.7,246.6 306.5,242.7 308.4,238.8 310.3,234.8 312.1,230.9 314.0,226.9
315.9,223.0 317.8,219.1 319.6,215.3 321.5,211.5 323.4,207.8 325.2,204.1 327.1,200.5 329.0,197.0 330.9,193.6 332.7,190.3 334.6,187.1 336.5,184.0 338.3,181.0 340.2,178.1 342.1,175.3 343.9,172.6
345.8,170.0 347.7,167.5 349.6,165.1 351.4,162.7 353.3,160.4 355.2,158.1 357.0,155.9 358.9,153.6 360.8,151.4 362.7,149.2 364.5,146.9 366.4,144.6 368.3,142.2 370.1,139.9 372.0,137.4 373.9,135.0
375.7,132.5 377.6,129.9 379.5,127.4 381.4,124.8 383.2,122.2 385.1,119.7 387.0,117.2 388.8,114.7 390.7,112.3 392.6,110.0 394.5,107.9 396.3,105.8 398.2,103.9 400.1,102.1 401.9,100.4 403.8,98.9
405.7,97.6 407.5,96.4 409.4,95.3 411.3,94.4 413.2,93.6 415.0,92.9 416.9,92.4 418.8,91.9 420.6,91.6 422.5,91.2 424.4,91.0 426.3,90.8 428.1,90.6 430.0,90.5 431.9,90.3 433.7,90.2
435.6,90.0 437.5,89.9 439.3,89.7 441.2,89.5 443.1,89.2 445.0,89.0 446.8,88.7 448.7,88.4 450.6,88.1 452.4,87.7 454.3,87.4 456.2,87.1 458.0,86.8 459.9,86.5 461.8,86.2 463.7,86.0
465.5,85.8 467.4,85.7 469.3,85.7 471.1,85.8 473.0,85.9 474.9,86.1 476.8,86.5 478.6,86.9 480.5,87.4 482.4,88.0 484.2,88.7 486.1,89.5 488.0,90.4 489.8,91.4 491.7,92.5 493.6,93.6
495.5,94.8 497.3,96.1 499.2,97.4 501.1,98.8 502.9,100.2 504.8,101.7 506.7,103.2 508.6,104.8 510.4,106.4 512.3,108.0 514.2,109.7 516.0,111.4 517.9,113.2 519.8,115.0 521.6,116.8 523.5,118.7
525.4,120.6 527.3,122.5 529.1,124.5 531.0,126.4 532.9,128.4 534.7,130.5 536.6,132.6 538.5,134.6 540.4,136.8 542.2,138.9 544.1,141.2 546.0,143.4 547.8,145.7 549.7,148.0 551.6,150.4 553.4,152.8
555.3,155.2 557.2,157.7 559.1,160.3 560.9,162.9 562.8,165.5 564.7,168.2 566.5,170.9 568.4,173.6 570.3,176.3 572.2,179.1 574.0,181.8 575.9,184.6 577.8,187.3 579.6,190.0 581.5,192.7 583.4,195.4
585.2,198.0 587.1,200.7 589.0,203.2 590.9,205.8 592.7,208.2 594.6,210.7 596.5,213.1 598.3,215.5 600.2,217.8 602.1,220.2 604.0,222.5 605.8,224.7 607.7,227.0 609.6,229.3 611.4,231.5 613.3,233.8
615.2,236.0 617.0,238.3 618.9,240.6 620.8,242.9 622.7,245.2 624.5,247.6 626.4,250.0 628.3,252.4 630.1,254.9 632.0,257.4 633.9,259.9 635.8,262.5 637.6,265.1 639.5,267.8 641.4,270.5 643.2,273.2
645.1,276.0 647.0,278.8 648.8,281.7 650.7,284.6 652.6,287.5 654.5,290.4 656.3,293.3 658.2,296.3 660.1,299.2 661.9,302.2 663.8,305.1 665.7,308.1 667.5,311.0 669.4,313.9 671.3,316.9 673.2,319.7
675.0,322.6 676.9,325.4 678.8,328.3 680.6,331.0 682.5,333.8 684.4,336.5 686.3,339.3 688.1,341.9 690.0,344.6 691.9,347.3 693.7,349.9 695.6,352.6 697.5,355.2 699.3,357.9 701.2,360.5 703.1,363.2
705.0,365.9 706.8,368.6 708.7,371.3 710.6,374.0 712.4,376.7 714.3,379.5 716.2,382.3 718.1,385.1 719.9,387.9 721.8,390.7 723.7,393.5 725.5,396.3 727.4,399.2 729.3,402.0 731.1,404.8 733.0,407.6
734.9,410.4 736.8,413.2 738.6,416.0 740.5,418.8 742.4,421.5 744.2,424.2 746.1,427.0 748.0,429.7 749.9,432.4 751.7,435.1 753.6,437.7 755.5,440.4 757.3,443.1 759.2,445.7 761.1,448.3 762.9,450.9
764.8,453.6 766.7,456.1 768.6,458.7 770.4,461.3 772.3,463.8 774.2,466.4 776.0,468.9 777.9,471.4 779.8,473.8 781.7,476.3 783.5,478.7 785.4,481.1 787.3,483.4 789.1,485.7 791.0,488.0 792.9,490.2
794.7,492.4 796.6,494.6 798.5,496.7 800.4,498.7 802.2,500.7 804.1,502.7 806.0,504.6 807.8,506.4 809.7,508.2 811.6,510.0 813.5,511.7 815.3,513.4 817.2,515.0 819.1,516.6 820.9,518.2 822.8,519.7
824.7,521.2 826.5,522.7 828.4,524.2 830.3,525.6 832.2,527.1 834.0,528.5 835.9,530.0 837.8,531.4 839.6,532.9 841.5,534.4 843.4,535.8 845.3,537.3 847.1,538.7 849.0,540.2 850.9,541.6 852.7,543.1
854.6,544.5 856.5,546.0 858.3,547.4 860.2,548.8 862.1,550.2 864.0,551.6 865.8,553.0 867.7,554.3 869.6,555.7 871.4,557.0 873.3,558.3 875.2,559.6 877.1,560.8 878.9,562.1 880.8,563.3 882.7,564.5
884.5,565.8 886.4,567.0 888.3,568.2 890.1,569.4 892.0,570.5 893.9,571.7 895.8,572.9 897.6,574.1 899.5,575.3 901.4,576.4 903.2,577.6 905.1,578.8 907.0,580.0 908.8,581.1 910.7,582.3 912.6,583.5
914.5,584.7 916.3,585.9 918.2,587.1 920.1,588.2 921.9,589.4 923.8,590.6 925.7,591.8 925.7,662.4 923.8,662.4 921.9,662.4 920.1,662.4 918.2,662.4 916.3,662.4 914.5,662.4 912.6,662.4 910.7,662.4
908.8,662.4 907.0,662.4 905.1,662.4 903.2,662.4 901.4,662.4 899.5,662.4 897.6,662.4 895.8,662.4 893.9,662.4 892.0,662.4 890.1,662.4 888.3,662.4 886.4,662.4 884.5,662.4 882.7,662.4 880.8,662.4
878.9,662.4 877.1,662.4 875.2,662.4 873.3,662.4 871.4,662.4 869.6,662.4 867.7,662.4 865.8,662.4 864.0,662.4 862.1,662.4 860.2,662.4 858.3,662.4 856.5,662.4 854.6,662.4 852.7,662.4 850.9,662.4
849.0,662.4 847.1,662.4 845.3,662.4 843.4,662.4 841.5,662.4 839.6,662.4 837.8,662.4 835.9,662.4 834.0,662.4 832.2,662.4 830.3,662.4 828.4,662.4 826.5,662.4 824.7,662.4 822.8,662.4 820.9,662.4
819.1,662.4 817.2,662.4 815.3,662.4 813.5,662.4 811.6,662.4 809.7,662.4 807.8,662.4 806.0,662.4 804.1,662.4 802.2,662.4 800.4,662.4 798.5,662.4 796.6,662.4 794.7,662.4 792.9,662.4 791.0,662.4
789.1,662.4 787.3,662.4 785.4,662.4 783.5,662.4 781.7,662.4 779.8,662.4 777.9,662.4 776.0,662.4 774.2,662.4 772.3,662.4 770.4,662.4 768.6,662.4 766.7,662.4 764.8,662.4 762.9,662.4 761.1,662.4
759.2,662.4 757.3,662.4 755.5,662.4 753.6,662.4 751.7,662.4 749.9,662.4 748.0,662.4 746.1,662.4 744.2,662.4 742.4,662.4 740.5,662.4 738.6,662.4 736.8,662.4 734.9,662.4 733.0,662.4 731.1,662.4
729.3,662.4 727.4,662.4 725.5,662.4 723.7,662.4 721.8,662.4 719.9,662.4 718.1,662.4 716.2,662.4 714.3,662.4 712.4,662.4 710.6,662.4 708.7,662.4 706.8,662.4 705.0,662.4 703.1,662.4 701.2,662.4
699.3,662.4 697.5,662.4 695.6,662.4 693.7,662.4 691.9,662.4 690.0,662.4 688.1,662.4 686.3,662.4 684.4,662.4 682.5,662.4 680.6,662.4 678.8,662.4 676.9,662.4 675.0,662.4 673.2,662.4 671.3,662.4
669.4,662.4 667.5,662.4 665.7,662.4 663.8,662.4 661.9,662.4 660.1,662.4 658.2,662.4 656.3,662.4 654.5,662.4 652.6,662.4 650.7,662.4 648.8,662.4 647.0,662.4 645.1,662.4 643.2,662.4 641.4,662.4
639.5,662.4 637.6,662.4 635.8,662.4 633.9,662.4 632.0,662.4 630.1,662.4 628.3,662.4 626.4,662.4 624.5,662.4 622.7,662.4 620.8,662.4 618.9,662.4 617.0,662.4 615.2,662.4 613.3,662.4 611.4,662.4
609.6,662.4 607.7,662.4 605.8,662.4 604.0,662.4 602.1,662.4 600.2,662.4 598.3,662.4 596.5,662.4 594.6,662.4 592.7,662.4 590.9,662.4 589.0,662.4 587.1,662.4 585.2,662.4 583.4,662.4 581.5,662.4
579.6,662.4 577.8,662.4 575.9,662.4 574.0,662.4 572.2,662.4 570.3,662.4 568.4,662.4 566.5,662.4 564.7,662.4 562.8,662.4 560.9,662.4 559.1,662.4 557.2,662.4 555.3,662.4 553.4,662.4 551.6,662.4
549.7,662.4 547.8,662.4 546.0,662.4 544.1,662.4 542.2,662.4 540.4,662.4 538.5,662.4 536.6,662.4 534.7,662.4 532.9,662.4 531.0,662.4 529.1,662.4 527.3,662.4 525.4,662.4 523.5,662.4 521.6,662.4
519.8,662.4 517.9,662.4 516.0,662.4 514.2,662.4 512.3,662.4 510.4,662.4 508.6,662.4 506.7,662.4 504.8,662.4 502.9,662.4 501.1,662.4 499.2,662.4 497.3,662.4 495.5,662.4 493.6,662.4 491.7,662.4
489.8,662.4 488.0,662.4 486.1,662.4 484.2,662.4 482.4,662.4 480.5,662.4 478.6,662.4 476.8,662.4 474.9,662.4 473.0,662.4 471.1,662.4 469.3,662.4 467.4,662.4 465.5,662.4 463.7,662.4 461.8,662.4
459.9,662.4 458.0,662.4 456.2,662.4 454.3,662.4 452.4,662.4 450.6,662.4 448.7,662.4 446.8,662.4 445.0,662.4 443.1,662.4 441.2,662.4 439.3,662.4 437.5,662.4 435.6,662.4 433.7,662.4 431.9,662.4
430.0,662.4 428.1,662.4 426.3,662.4 424.4,662.4 422.5,662.4 420.6,662.4 418.8,662.4 416.9,662.4 415.0,662.4 413.2,662.4 411.3,662.4 409.4,662.4 407.5,662.4 405.7,662.4 403.8,662.4 401.9,662.4
400.1,662.4 398.2,662.4 396.3,662.4 394.5,662.4 392.6,662.4 390.7,662.4 388.8,662.4 387.0,662.4 385.1,662.4 383.2,662.4 381.4,662.4 379.5,662.4 377.6,662.4 375.7,662.4 373.9,662.4 372.0,662.4
370.1,662.4 368.3,662.4 366.4,662.4 364.5,662.4 362.7,662.4 360.8,662.4 358.9,662.4 357.0,662.4 355.2,662.4 353.3,662.4 351.4,662.4 349.6,662.4 347.7,662.4 345.8,662.4 343.9,662.4 342.1,662.4
340.2,662.4 338.3,662.4 336.5,662.4 334.6,662.4 332.7,662.4 330.9,662.4 329.0,662.4 327.1,662.4 325.2,662.4 323.4,662.4 321.5,662.4 319.6,662.4 317.8,662.4 315.9,662.4 314.0,662.4 312.1,662.4
310.3,662.4 308.4,662.4 306.5,662.4 304.7,662.4 302.8,662.4 300.9,662.4 299.1,662.4 297.2,662.4 295.3,662.4 293.4,662.4 291.6,662.4 289.7,662.4 287.8,662.4 286.0,662.4 284.1,662.4 282.2,662.4
280.3,662.4 278.5,662.4 276.6,662.4 274.7,662.4 272.9,662.4 271.0,662.4 269.1,662.4 267.3,662.4 265.4,662.4 263.5,662.4 261.6,662.4 259.8,662.4 257.9,662.4 256.0,662.4 254.2,662.4 252.3,662.4
250.4,662.4 248.5,662.4 246.7,662.4 244.8,662.4 242.9,662.4 241.1,662.4 239.2,662.4 237.3,662.4 235.5,662.4 233.6,662.4 231.7,662.4 229.8,662.4 228.0,662.4 226.1,662.4 224.2,662.4 222.4,662.4
220.5,662.4 218.6,662.4 216.7,662.4 214.9,662.4 213.0,662.4 211.1,662.4 209.3,662.4 207.4,662.4 205.5,662.4 203.7,662.4 201.8,662.4 199.9,662.4 198.0,662.4 196.2,662.4 194.3,662.4 192.4,662.4
190.6,662.4 188.7,662.4 186.8,662.4 185.0,662.4 183.1,662.4 181.2,662.4 179.3,662.4 177.5,662.4 175.6,662.4 173.7,662.4 171.9,662.4 170.0,662.4 168.1,662.4 166.2,662.4 '/>
	</g>
</g>
	</g>
	<g id="gnuplot_plot_3" ><title>Point estimate</title>
<g fill="none" color="white" stroke="rgb( 31, 120, 180)" stroke-width="2.00" stroke-linecap="butt" stroke-linejoin="miter">
</g>
<g fill="none" color="black" stroke="currentColor" stroke-width="2.00" stroke-linecap="butt" stroke-linejoin="miter">
	<g transform="translate(1089.0,103.0)" stroke="none" fill="black" font-family="Helvetica" font-size="12.00"  text-anchor="start">
		<text><tspan font-family="Helvetica" >Point estimate</tspan></text>
	</g>
</g>
<g fill="none" color="black" stroke="currentColor" stroke-width="2.00" stroke-linecap="butt" stroke-linejoin="miter">
	<path stroke='rgb( 31, 120, 180)'  d='M1038.5,99.1 L1080.7,99.1 M500.8,662.4 L500.8,98.6  '/></g>
	</g>
<g fill="none" color="black" stroke="currentColor" stroke-width="2.00" stroke-linecap="butt" stroke-linejoin="miter">
</g>
<g fill="none" color="black" stroke="black" stroke-width="1.00" stroke-linecap="butt" stroke-linejoin="miter">
</g>
<g fill="none" color="black" stroke="currentColor" stroke-width="1.00" stroke-linecap="butt" stroke-linejoin="miter">
	<path stroke='black'  d='M80.2,54.1 L80.2,662.4 L1013.6,662.4 L1013.6,54.1 L80.2,54.1 Z  '/></g>
<g fill="none" color="black" stroke="currentColor" stroke-width="1.00" stroke-linecap="butt" stroke-linejoin="miter">
</g>
</g>
</svg>

