<?xml version="1.0" encoding="utf-8"  standalone="no"?>
<svg 
 viewBox="0 0 1280 720"
 xmlns="http://www.w3.org/2000/svg"
 xmlns:xlink="http://www.w3.org/1999/xlink"
>

<title>Gnuplot</title>
<desc>Produced by GNUPLOT 5.2 patchlevel 6 </desc>

<g id="gnuplot_canvas">

<rect x="0" y="0" width="1280" height="720" fill="none"/>
<defs>

	<circle id='gpDot' r='0.5' stroke-width='0.5' stroke='currentColor'/>
	<path id='gpPt0' stroke-width='0.222' stroke='currentColor' d='M-1,0 h2 M0,-1 v2'/>
	<path id='gpPt1' stroke-width='0.222' stroke='currentColor' d='M-1,-1 L1,1 M1,-1 L-1,1'/>
	<path id='gpPt2' stroke-width='0.222' stroke='currentColor' d='M-1,0 L1,0 M0,-1 L0,1 M-1,-1 L1,1 M-1,1 L1,-1'/>
	<rect id='gpPt3' stroke-width='0.222' stroke='currentColor' x='-1' y='-1' width='2' height='2'/>
	<rect id='gpPt4' stroke-width='0.222' stroke='currentColor' fill='currentColor' x='-1' y='-1' width='2' height='2'/>
	<circle id='gpPt5' stroke-width='0.222' stroke='currentColor' cx='0' cy='0' r='1'/>
	<use xlink:href='#gpPt5' id='gpPt6' fill='currentColor' stroke='none'/>
	<path id='gpPt7' stroke-width='0.222' stroke='currentColor' d='M0,-1.33 L-1.33,0.67 L1.33,0.67 z'/>
	<use xlink:href='#gpPt7' id='gpPt8' fill='currentColor' stroke='none'/>
	<use xlink:href='#gpPt7' id='gpPt9' stroke='currentColor' transform='rotate(180)'/>
	<use xlink:href='#gpPt9' id='gpPt10' fill='currentColor' stroke='none'/>
	<use xlink:href='#gpPt3' id='gpPt11' stroke='currentColor' transform='rotate(45)'/>
	<use xlink:href='#gpPt11' id='gpPt12' fill='currentColor' stroke='none'/>
	<path id='gpPt13' stroke-width='0.222' stroke='currentColor' d='M0,1.330 L1.265,0.411 L0.782,-1.067 L-0.782,-1.076 L-1.265,0.411 z'/>
	<use xlink:href='#gpPt13' id='gpPt14' fill='currentColor' stroke='none'/>
	<filter id='textbox' filterUnits='objectBoundingBox' x='0' y='0' height='1' width='1'>
	  <feFlood flood-color='white' flood-opacity='1' result='bgnd'/>
	  <feComposite in='SourceGraphic' in2='bgnd' operator='atop'/>
	</filter>
	<filter id='greybox' filterUnits='objectBoundingBox' x='0' y='0' height='1' width='1'>
	  <feFlood flood-color='lightgrey' flood-opacity='1' result='grey'/>
	  <feComposite in='SourceGraphic' in2='grey' operator='atop'/>
	</filter>
</defs>
<g fill="none" color="white" stroke="currentColor" stroke-width="1.00" stroke-linecap="butt" stroke-linejoin="miter">
</g>
<g fill="none" color="black" stroke="currentColor" stroke-width="1.00" stroke-linecap="butt" stroke-linejoin="miter">
	<path stroke='black'  d='M55.3,662.4 L64.3,662.4  '/>	<g transform="translate(47.0,666.3)" stroke="none" fill="black" font-family="Helvetica" font-size="12.00"  text-anchor="end">
		<text><tspan font-family="Helvetica" > 0</tspan></text>
	</g>
</g>
<g fill="none" color="black" stroke="currentColor" stroke-width="1.00" stroke-linecap="butt" stroke-linejoin="miter">
	<path stroke='black'  d='M55.3,575.5 L64.3,575.5  '/>	<g transform="translate(47.0,579.4)" stroke="none" fill="black" font-family="Helvetica" font-size="12.00"  text-anchor="end">
		<text><tspan font-family="Helvetica" > 1</tspan></text>
	</g>
</g>
<g fill="none" color="black" stroke="currentColor" stroke-width="1.00" stroke-linecap="butt" stroke-linejoin="miter">
	<path stroke='black'  d='M55.3,488.6 L64.3,488.6  '/>	<g transform="translate(47.0,492.5)" stroke="none" fill="black" font-family="Helvetica" font-size="12.00"  text-anchor="end">
		<text><tspan font-family="Helvetica" > 2</tspan></text>
	</g>
</g>
<g fill="none" color="black" stroke="currentColor" stroke-width="1.00" stroke-linecap="butt" stroke-linejoin="miter">
	<path stroke='black'  d='M55.3,401.7 L64.3,401.7  '/>	<g transform="translate(47.0,405.6)" stroke="none" fill="black" font-family="Helvetica" font-size="12.00"  text-anchor="end">
		<text><tspan font-family="Helvetica" > 3</tspan></text>
	</g>
</g>
<g fill="none" color="black" stroke="currentColor" stroke-width="1.00" stroke-linecap="butt" stroke-linejoin="miter">
	<path stroke='black'  d='M55.3,314.8 L64.3,314.8  '/>	<g transform="translate(47.0,318.7)" stroke="none" fill="black" font-family="Helvetica" font-size="12.00"  text-anchor="end">
		<text><tspan font-family="Helvetica" > 4</tspan></text>
	</g>
</g>
<g fill="none" color="black" stroke="currentColor" stroke-width="1.00" stroke-linecap="butt" stroke-linejoin="miter">
	<path stroke='black'  d='M55.3,227.9 L64.3,227.9  '/>	<g transform="translate(47.0,231.8)" stroke="none" fill="black" font-family="Helvetica" font-size="12.00"  text-anchor="end">
		<text><tspan font-family="Helvetica" > 5</tspan></text>
	</g>
</g>
<g fill="none" color="black" stroke="currentColor" stroke-width="1.00" stroke-linecap="butt" stroke-linejoin="miter">
	<path stroke='black'  d='M55.3,141.0 L64.3,141.0  '/>	<g transform="translate(47.0,144.9)" stroke="none" fill="black" font-family="Helvetica" font-size="12.00"  text-anchor="end">
		<text><tspan font-family="Helvetica" > 6</tspan></text>
	</g>
</g>
<g fill="none" color="black" stroke="currentColor" stroke-width="1.00" stroke-linecap="butt" stroke-linejoin="miter">
	<path stroke='black'  d='M55.3,54.1 L64.3,54.1  '/>	<g transform="translate(47.0,58.0)" stroke="none" fill="black" font-family="Helvetica" font-size="12.00"  text-anchor="end">
		<text><tspan font-family="Helvetica" > 7</tspan></text>
	</g>
</g>
<g fill="none" color="black" stroke="currentColor" stroke-width="1.00" stroke-linecap="butt" stroke-linejoin="miter">
	<path stroke='black'  d='M55.3,662.4 L55.3,653.4  '/>	<g transform="translate(55.3,684.3)" stroke="none" fill="black" font-family="Helvetica" font-size="12.00"  text-anchor="middle">
		<text><tspan font-family="Helvetica" > 12</tspan></text>
	</g>
</g>
<g fill="none" color="black" stroke="currentColor" stroke-width="1.00" stroke-linecap="butt" stroke-linejoin="miter">
	<path stroke='black'  d='M207.6,662.4 L207.6,653.4  '/>	<g transform="translate(207.6,684.3)" stroke="none" fill="black" font-family="Helvetica" font-size="12.00"  text-anchor="middle">
		<text><tspan font-family="Helvetica" > 12.5</tspan></text>
	</g>
</g>
<g fill="none" color="black" stroke="currentColor" stroke-width="1.00" stroke-linecap="butt" stroke-linejoin="miter">
	<path stroke='black'  d='M359.9,662.4 L359.9,653.4  '/>	<g transform="translate(359.9,684.3)" stroke="none" fill="black" font-family="Helvetica" font-size="12.00"  text-anchor="middle">
		<text><tspan font-family="Helvetica" > 13</tspan></text>
	</g>
</g>
<g fill="none" color="black" stroke="currentColor" stroke-width="1.00" stroke-linecap="butt" stroke-linejoin="miter">
	<path stroke='black'  d='M512.2,662.4 L512.2,653.4  '/>	<g transform="translate(512.2,684.3)" stroke="none" fill="black" font-family="Helvetica" font-size="12.00"  text-anchor="middle">
		<text><tspan font-family="Helvetica" > 13.5</tspan></text>
	</g>
</g>
<g fill="none" color="black" stroke="currentColor" stroke-width="1.00" stroke-linecap="butt" stroke-linejoin="miter">
	<path stroke='black'  d='M664.6,662.4 L664.6,653.4  '/>	<g transform="translate(664.6,684.3)" stroke="none" fill="black" font-family="Helvetica" font-size="12.00"  text-anchor="middle">
		<text><tspan font-family="Helvetica" > 14</tspan></text>
	</g>
</g>
<g fill="none" color="black" stroke="currentColor" stroke-width="1.00" stroke-linecap="butt" stroke-linejoin="miter">
	<path stroke='black'  d='M816.9,662.4 L816.9,653.4  '/>	<g transform="translate(816.9,684.3)" stroke="none" fill="black" font-family="Helvetica" font-size="12.00"  text-anchor="middle">
		<text><tspan font-family="Helvetica" > 14.5</tspan></text>
	</g>
</g>
<g fill="none" color="black" stroke="currentColor" stroke-width="1.00" stroke-linecap="butt" stroke-linejoin="miter">
	<path stroke='black'  d='M969.2,662.4 L969.2,653.4  '/>	<g transform="translate(969.2,684.3)" stroke="none" fill="black" font-family="Helvetica" font-size="12.00"  text-anchor="middle">
		<text><tspan font-family="Helvetica" > 15</tspan></text>
	</g>
</g>
<g fill="none" color="black" stroke="currentColor" stroke-width="1.00" stroke-linecap="butt" stroke-linejoin="miter">
	<path stroke='black'  d='M1121.5,662.4 L1121.5,653.4  '/>	<g transform="translate(1121.5,684.3)" stroke="none" fill="black" font-family="Helvetica" font-size="12.00"  text-anchor="middle">
		<text><tspan font-family="Helvetica" > 15.5</tspan></text>
	</g>
</g>
<g fill="none" color="black" stroke="currentColor" stroke-width="1.00" stroke-linecap="butt" stroke-linejoin="miter">
</g>
<g fill="none" color="black" stroke="currentColor" stroke-width="1.00" stroke-linecap="butt" stroke-linejoin="miter">
	<path stroke='black'  d='M55.3,54.1 L55.3,662.4 L1121.5,662.4 L1121.5,54.1 L55.3,54.1 Z  '/></g>
<g fill="none" color="black" stroke="currentColor" stroke-width="1.00" stroke-linecap="butt" stroke-linejoin="miter">
	<g transform="translate(16.3,358.3) rotate(270)" stroke="none" fill="black" font-family="Helvetica" font-size="12.00"  text-anchor="middle">
		<text><tspan font-family="Helvetica" >Density (a.u.)</tspan></text>
	</g>
</g>
<g fill="none" color="black" stroke="currentColor" stroke-width="1.00" stroke-linecap="butt" stroke-linejoin="miter">
	<g transform="translate(588.4,711.3)" stroke="none" fill="black" font-family="Helvetica" font-size="12.00"  text-anchor="middle">
		<text><tspan font-family="Helvetica" >Average time (us)</tspan></text>
	</g>
</g>
<g fill="none" color="black" stroke="currentColor" stroke-width="1.00" stroke-linecap="butt" stroke-linejoin="miter">
	<g transform="translate(588.4,31.0)" stroke="none" fill="black" font-family="Helvetica" font-size="12.00"  text-anchor="middle">
		<text><tspan font-family="Helvetica" >snapshot_restore_with_dense/Sparse: Dirty pages + process_vm_writev/5</tspan></text>
	</g>
</g>
	<g id="gnuplot_plot_1" ><title>Base PDF</title>
<g fill="none" color="black" stroke="currentColor" stroke-width="1.00" stroke-linecap="butt" stroke-linejoin="miter">
	<g transform="translate(1196.9,67.0)" stroke="none" fill="black" font-family="Helvetica" font-size="12.00"  text-anchor="start">
		<text><tspan font-family="Helvetica" >Base PDF</tspan></text>
	</g>
</g>
<g fill="none" color="black" stroke="currentColor" stroke-width="1.00" stroke-linecap="butt" stroke-linejoin="miter">
	<g stroke='none' shape-rendering='crispEdges'>
		<polygon fill = 'rgb(227,  26,  28)' fill-opacity = '0.500000' points = '1146.4,67.6 1188.6,67.6 1188.6,58.6 1146.4,58.6 '/>
		<polygon fill = 'rgb(227,  26,  28)' fill-opacity = '0.500000' points = '486.1,661.8 487.4,661.8 488.6,661.7 489.9,661.6 491.2,661.5 492.4,661.4 493.7,661.3 494.9,661.1 496.2,661.0 497.4,660.8 498.7,660.6 499.9,660.4 501.2,660.2 502.4,659.9 503.7,659.7 504.9,659.4
506.2,659.0 507.5,658.7 508.7,658.3 510.0,657.9 511.2,657.4 512.5,656.9 513.7,656.3 515.0,655.7 516.2,655.1 517.5,654.4 518.7,653.7 520.0,652.8 521.2,652.0 522.5,651.0 523.7,650.0 525.0,648.9
526.3,647.8 527.5,646.5 528.8,645.2 530.0,643.8 531.3,642.3 532.5,640.7 533.8,639.0 535.0,637.2 536.3,635.3 537.5,633.3 538.8,631.2 540.0,629.0 541.3,626.6 542.6,624.2 543.8,621.6 545.1,618.9
546.3,616.1 547.6,613.1 548.8,610.1 550.1,606.9 551.3,603.6 552.6,600.1 553.8,596.6 555.1,592.9 556.3,589.2 557.6,585.3 558.8,581.3 560.1,577.2 561.4,573.0 562.6,568.7 563.9,564.3 565.1,559.8
566.4,555.3 567.6,550.7 568.9,546.0 570.1,541.3 571.4,536.6 572.6,531.8 573.9,527.0 575.1,522.3 576.4,517.5 577.7,512.7 578.9,508.0 580.2,503.3 581.4,498.6 582.7,494.0 583.9,489.5 585.2,485.1
586.4,480.8 587.7,476.6 588.9,472.6 590.2,468.6 591.4,464.9 592.7,461.2 593.9,457.8 595.2,454.5 596.5,451.5 597.7,448.6 599.0,446.0 600.2,443.5 601.5,441.3 602.7,439.4 604.0,437.6 605.2,436.1
606.5,434.9 607.7,433.9 609.0,433.1 610.2,432.6 611.5,432.4 612.8,432.4 614.0,432.6 615.3,433.1 616.5,433.8 617.8,434.8 619.0,436.0 620.3,437.5 621.5,439.1 622.8,441.0 624.0,443.1 625.3,445.4
626.5,447.8 627.8,450.5 629.0,453.3 630.3,456.2 631.6,459.3 632.8,462.6 634.1,466.0 635.3,469.4 636.6,473.0 637.8,476.7 639.1,480.5 640.3,484.3 641.6,488.2 642.8,492.1 644.1,496.1 645.3,500.1
646.6,504.1 647.9,508.2 649.1,512.2 650.4,516.2 651.6,520.2 652.9,524.2 654.1,528.1 655.4,532.0 656.6,535.8 657.9,539.6 659.1,543.4 660.4,547.0 661.6,550.7 662.9,554.2 664.2,557.7 665.4,561.0
666.7,564.4 667.9,567.6 669.2,570.7 670.4,573.8 671.7,576.8 672.9,579.6 674.2,582.4 675.4,585.2 676.7,587.8 677.9,590.3 679.2,592.8 680.4,595.2 681.7,597.5 683.0,599.7 684.2,601.8 685.5,603.9
686.7,605.9 688.0,607.8 689.2,609.6 690.5,611.4 691.7,613.1 693.0,614.7 694.2,616.3 695.5,617.8 696.7,619.2 698.0,620.6 699.3,621.9 700.5,623.2 701.8,624.4 703.0,625.6 704.3,626.7 705.5,627.7
706.8,628.8 708.0,629.7 709.3,630.7 710.5,631.5 711.8,632.4 713.0,633.2 714.3,634.0 715.5,634.7 716.8,635.4 718.1,636.0 719.3,636.7 720.6,637.3 721.8,637.9 723.1,638.4 724.3,638.9 725.6,639.4
726.8,639.9 728.1,640.3 729.3,640.8 730.6,641.2 731.8,641.5 733.1,641.9 734.4,642.3 735.6,642.6 736.9,642.9 738.1,643.2 739.4,643.5 740.6,643.8 741.9,644.1 743.1,644.3 744.4,644.6 745.6,644.8
746.9,645.0 748.1,645.2 749.4,645.5 750.6,645.7 751.9,645.9 753.2,646.1 754.4,646.3 755.7,646.4 756.9,646.6 758.2,646.8 759.4,647.0 760.7,647.2 761.9,647.3 763.2,647.5 764.4,647.7 765.7,647.8
766.9,648.0 768.2,648.1 769.5,648.3 770.7,648.4 772.0,648.6 773.2,648.7 774.5,648.9 775.7,649.0 777.0,649.2 778.2,649.3 779.5,649.5 780.7,649.6 782.0,649.7 783.2,649.8 784.5,650.0 785.7,650.1
787.0,650.2 788.3,650.3 789.5,650.5 790.8,650.6 792.0,650.7 793.3,650.8 794.5,650.9 795.8,651.0 797.0,651.1 798.3,651.1 799.5,651.2 800.8,651.3 802.0,651.4 803.3,651.4 804.6,651.5 805.8,651.5
807.1,651.6 808.3,651.6 809.6,651.6 810.8,651.7 812.1,651.7 813.3,651.7 814.6,651.7 815.8,651.7 817.1,651.6 818.3,651.6 819.6,651.6 820.8,651.5 822.1,651.5 823.4,651.4 824.6,651.3 825.9,651.3
827.1,651.2 828.4,651.1 829.6,651.0 830.9,650.8 832.1,650.7 833.4,650.6 834.6,650.4 835.9,650.3 837.1,650.1 838.4,650.0 839.7,649.8 840.9,649.6 842.2,649.4 843.4,649.2 844.7,649.0 845.9,648.8
847.2,648.6 848.4,648.4 849.7,648.2 850.9,648.0 852.2,647.8 853.4,647.6 854.7,647.4 855.9,647.2 857.2,647.0 858.5,646.8 859.7,646.6 861.0,646.4 862.2,646.2 863.5,646.0 864.7,645.9 866.0,645.7
867.2,645.5 868.5,645.4 869.7,645.3 871.0,645.2 872.2,645.1 873.5,645.0 874.8,644.9 876.0,644.8 877.3,644.8 878.5,644.8 879.8,644.8 881.0,644.8 882.3,644.8 883.5,644.8 884.8,644.9 886.0,644.9
887.3,645.0 888.5,645.1 889.8,645.2 891.0,645.4 892.3,645.5 893.6,645.7 894.8,645.9 896.1,646.1 897.3,646.3 898.6,646.5 899.8,646.8 901.1,647.0 902.3,647.3 903.6,647.5 904.8,647.8 906.1,648.1
907.3,648.4 908.6,648.7 909.9,649.1 911.1,649.4 912.4,649.7 913.6,650.0 914.9,650.4 916.1,650.7 917.4,651.1 918.6,651.4 919.9,651.8 921.1,652.1 922.4,652.4 923.6,652.8 924.9,653.1 926.2,653.4
927.4,653.8 928.7,654.1 929.9,654.4 931.2,654.7 932.4,655.0 933.7,655.3 934.9,655.6 936.2,655.9 937.4,656.1 938.7,656.4 939.9,656.6 941.2,656.9 942.4,657.1 943.7,657.3 945.0,657.5 946.2,657.7
947.5,657.9 948.7,658.1 950.0,658.2 951.2,658.4 952.5,658.6 953.7,658.7 955.0,658.8 956.2,658.9 957.5,659.0 958.7,659.1 960.0,659.2 961.3,659.3 962.5,659.4 963.8,659.4 965.0,659.5 966.3,659.5
967.5,659.6 968.8,659.6 970.0,659.6 971.3,659.6 972.5,659.6 973.8,659.6 975.0,659.6 976.3,659.6 977.5,659.6 978.8,659.6 980.1,659.6 981.3,659.6 982.6,659.6 983.8,659.6 985.1,659.5 986.3,659.5
987.6,659.5 988.8,659.5 990.1,659.5 991.3,659.4 992.6,659.4 993.8,659.4 995.1,659.4 996.4,659.4 997.6,659.3 998.9,659.3 1000.1,659.3 1001.4,659.3 1002.6,659.3 1003.9,659.3 1005.1,659.3 1006.4,659.3
1007.6,659.3 1008.9,659.3 1010.1,659.3 1011.4,659.3 1012.6,659.4 1013.9,659.4 1015.2,659.4 1016.4,659.4 1017.7,659.5 1018.9,659.5 1020.2,659.5 1021.4,659.6 1022.7,659.6 1023.9,659.7 1025.2,659.7 1026.4,659.8
1027.7,659.8 1028.9,659.9 1030.2,659.9 1031.5,660.0 1032.7,660.1 1034.0,660.1 1035.2,660.2 1036.5,660.3 1037.7,660.3 1039.0,660.4 1040.2,660.5 1041.5,660.5 1042.7,660.6 1044.0,660.7 1045.2,660.7 1046.5,660.8
1047.7,660.9 1049.0,660.9 1050.3,661.0 1051.5,661.0 1052.8,661.1 1054.0,661.2 1055.3,661.2 1056.5,661.3 1057.8,661.3 1059.0,661.4 1060.3,661.4 1061.5,661.5 1062.8,661.5 1064.0,661.6 1065.3,661.6 1066.6,661.7
1067.8,661.7 1069.1,661.8 1070.3,661.8 1071.6,661.8 1072.8,661.9 1074.1,661.9 1075.3,661.9 1076.6,662.0 1077.8,662.0 1079.1,662.0 1080.3,662.1 1081.6,662.1 1082.8,662.1 1084.1,662.1 1085.4,662.2 1086.6,662.2
1087.9,662.2 1089.1,662.2 1090.4,662.2 1091.6,662.2 1092.9,662.3 1094.1,662.3 1095.4,662.3 1096.6,662.3 1097.9,662.3 1099.1,662.3 1100.4,662.3 1101.7,662.3 1102.9,662.3 1104.2,662.3 1105.4,662.3 1106.7,662.3
1107.9,662.4 1109.2,662.4 1110.4,662.4 1111.7,662.4 1111.7,662.4 1110.4,662.4 1109.2,662.4 1107.9,662.4 1106.7,662.4 1105.4,662.4 1104.2,662.4 1102.9,662.4 1101.7,662.4 1100.4,662.4 1099.1,662.4 1097.9,662.4
1096.6,662.4 1095.4,662.4 1094.1,662.4 1092.9,662.4 1091.6,662.4 1090.4,662.4 1089.1,662.4 1087.9,662.4 1086.6,662.4 1085.4,662.4 1084.1,662.4 1082.8,662.4 1081.6,662.4 1080.3,662.4 1079.1,662.4 1077.8,662.4
1076.6,662.4 1075.3,662.4 1074.1,662.4 1072.8,662.4 1071.6,662.4 1070.3,662.4 1069.1,662.4 1067.8,662.4 1066.6,662.4 1065.3,662.4 1064.0,662.4 1062.8,662.4 1061.5,662.4 1060.3,662.4 1059.0,662.4 1057.8,662.4
1056.5,662.4 1055.3,662.4 1054.0,662.4 1052.8,662.4 1051.5,662.4 1050.3,662.4 1049.0,662.4 1047.7,662.4 1046.5,662.4 1045.2,662.4 1044.0,662.4 1042.7,662.4 1041.5,662.4 1040.2,662.4 1039.0,662.4 1037.7,662.4
1036.5,662.4 1035.2,662.4 1034.0,662.4 1032.7,662.4 1031.5,662.4 1030.2,662.4 1028.9,662.4 1027.7,662.4 1026.4,662.4 1025.2,662.4 1023.9,662.4 1022.7,662.4 1021.4,662.4 1020.2,662.4 1018.9,662.4 1017.7,662.4
1016.4,662.4 1015.2,662.4 1013.9,662.4 1012.6,662.4 1011.4,662.4 1010.1,662.4 1008.9,662.4 1007.6,662.4 1006.4,662.4 1005.1,662.4 1003.9,662.4 1002.6,662.4 1001.4,662.4 1000.1,662.4 998.9,662.4 997.6,662.4
996.4,662.4 995.1,662.4 993.8,662.4 992.6,662.4 991.3,662.4 990.1,662.4 988.8,662.4 987.6,662.4 986.3,662.4 985.1,662.4 983.8,662.4 982.6,662.4 981.3,662.4 980.1,662.4 978.8,662.4 977.5,662.4
976.3,662.4 975.0,662.4 973.8,662.4 972.5,662.4 971.3,662.4 970.0,662.4 968.8,662.4 967.5,662.4 966.3,662.4 965.0,662.4 963.8,662.4 962.5,662.4 961.3,662.4 960.0,662.4 958.7,662.4 957.5,662.4
956.2,662.4 955.0,662.4 953.7,662.4 952.5,662.4 951.2,662.4 950.0,662.4 948.7,662.4 947.5,662.4 946.2,662.4 945.0,662.4 943.7,662.4 942.4,662.4 941.2,662.4 939.9,662.4 938.7,662.4 937.4,662.4
936.2,662.4 934.9,662.4 933.7,662.4 932.4,662.4 931.2,662.4 929.9,662.4 928.7,662.4 927.4,662.4 926.2,662.4 924.9,662.4 923.6,662.4 922.4,662.4 921.1,662.4 919.9,662.4 918.6,662.4 917.4,662.4
916.1,662.4 914.9,662.4 913.6,662.4 912.4,662.4 911.1,662.4 909.9,662.4 908.6,662.4 907.3,662.4 906.1,662.4 904.8,662.4 903.6,662.4 902.3,662.4 901.1,662.4 899.8,662.4 898.6,662.4 897.3,662.4
896.1,662.4 894.8,662.4 893.6,662.4 892.3,662.4 891.0,662.4 889.8,662.4 888.5,662.4 887.3,662.4 886.0,662.4 884.8,662.4 883.5,662.4 882.3,662.4 881.0,662.4 879.8,662.4 878.5,662.4 877.3,662.4
876.0,662.4 874.8,662.4 873.5,662.4 872.2,662.4 871.0,662.4 869.7,662.4 868.5,662.4 867.2,662.4 866.0,662.4 864.7,662.4 863.5,662.4 862.2,662.4 861.0,662.4 859.7,662.4 858.5,662.4 857.2,662.4
855.9,662.4 854.7,662.4 853.4,662.4 852.2,662.4 850.9,662.4 849.7,662.4 848.4,662.4 847.2,662.4 845.9,662.4 844.7,662.4 843.4,662.4 842.2,662.4 840.9,662.4 839.7,662.4 838.4,662.4 837.1,662.4
835.9,662.4 834.6,662.4 833.4,662.4 832.1,662.4 830.9,662.4 829.6,662.4 828.4,662.4 827.1,662.4 825.9,662.4 824.6,662.4 823.4,662.4 822.1,662.4 820.8,662.4 819.6,662.4 818.3,662.4 817.1,662.4
815.8,662.4 814.6,662.4 813.3,662.4 812.1,662.4 810.8,662.4 809.6,662.4 808.3,662.4 807.1,662.4 805.8,662.4 804.6,662.4 803.3,662.4 802.0,662.4 800.8,662.4 799.5,662.4 798.3,662.4 797.0,662.4
795.8,662.4 794.5,662.4 793.3,662.4 792.0,662.4 790.8,662.4 789.5,662.4 788.3,662.4 787.0,662.4 785.7,662.4 784.5,662.4 783.2,662.4 782.0,662.4 780.7,662.4 779.5,662.4 778.2,662.4 777.0,662.4
775.7,662.4 774.5,662.4 773.2,662.4 772.0,662.4 770.7,662.4 769.5,662.4 768.2,662.4 766.9,662.4 765.7,662.4 764.4,662.4 763.2,662.4 761.9,662.4 760.7,662.4 759.4,662.4 758.2,662.4 756.9,662.4
755.7,662.4 754.4,662.4 753.2,662.4 751.9,662.4 750.6,662.4 749.4,662.4 748.1,662.4 746.9,662.4 745.6,662.4 744.4,662.4 743.1,662.4 741.9,662.4 740.6,662.4 739.4,662.4 738.1,662.4 736.9,662.4
735.6,662.4 734.4,662.4 733.1,662.4 731.8,662.4 730.6,662.4 729.3,662.4 728.1,662.4 726.8,662.4 725.6,662.4 724.3,662.4 723.1,662.4 721.8,662.4 720.6,662.4 719.3,662.4 718.1,662.4 716.8,662.4
715.5,662.4 714.3,662.4 713.0,662.4 711.8,662.4 710.5,662.4 709.3,662.4 708.0,662.4 706.8,662.4 705.5,662.4 704.3,662.4 703.0,662.4 701.8,662.4 700.5,662.4 699.3,662.4 698.0,662.4 696.7,662.4
695.5,662.4 694.2,662.4 693.0,662.4 691.7,662.4 690.5,662.4 689.2,662.4 688.0,662.4 686.7,662.4 685.5,662.4 684.2,662.4 683.0,662.4 681.7,662.4 680.4,662.4 679.2,662.4 677.9,662.4 676.7,662.4
675.4,662.4 674.2,662.4 672.9,662.4 671.7,662.4 670.4,662.4 669.2,662.4 667.9,662.4 666.7,662.4 665.4,662.4 664.2,662.4 662.9,662.4 661.6,662.4 660.4,662.4 659.1,662.4 657.9,662.4 656.6,662.4
655.4,662.4 654.1,662.4 652.9,662.4 651.6,662.4 650.4,662.4 649.1,662.4 647.9,662.4 646.6,662.4 645.3,662.4 644.1,662.4 642.8,662.4 641.6,662.4 640.3,662.4 639.1,662.4 637.8,662.4 636.6,662.4
635.3,662.4 634.1,662.4 632.8,662.4 631.6,662.4 630.3,662.4 629.0,662.4 627.8,662.4 626.5,662.4 625.3,662.4 624.0,662.4 622.8,662.4 621.5,662.4 620.3,662.4 619.0,662.4 617.8,662.4 616.5,662.4
615.3,662.4 614.0,662.4 612.8,662.4 611.5,662.4 610.2,662.4 609.0,662.4 607.7,662.4 606.5,662.4 605.2,662.4 604.0,662.4 602.7,662.4 601.5,662.4 600.2,662.4 599.0,662.4 597.7,662.4 596.5,662.4
595.2,662.4 593.9,662.4 592.7,662.4 591.4,662.4 590.2,662.4 588.9,662.4 587.7,662.4 586.4,662.4 585.2,662.4 583.9,662.4 582.7,662.4 581.4,662.4 580.2,662.4 578.9,662.4 577.7,662.4 576.4,662.4
575.1,662.4 573.9,662.4 572.6,662.4 571.4,662.4 570.1,662.4 568.9,662.4 567.6,662.4 566.4,662.4 565.1,662.4 563.9,662.4 562.6,662.4 561.4,662.4 560.1,662.4 558.8,662.4 557.6,662.4 556.3,662.4
555.1,662.4 553.8,662.4 552.6,662.4 551.3,662.4 550.1,662.4 548.8,662.4 547.6,662.4 546.3,662.4 545.1,662.4 543.8,662.4 542.6,662.4 541.3,662.4 540.0,662.4 538.8,662.4 537.5,662.4 536.3,662.4
535.0,662.4 533.8,662.4 532.5,662.4 531.3,662.4 530.0,662.4 528.8,662.4 527.5,662.4 526.3,662.4 525.0,662.4 523.7,662.4 522.5,662.4 521.2,662.4 520.0,662.4 518.7,662.4 517.5,662.4 516.2,662.4
515.0,662.4 513.7,662.4 512.5,662.4 511.2,662.4 510.0,662.4 508.7,662.4 507.5,662.4 506.2,662.4 504.9,662.4 503.7,662.4 502.4,662.4 501.2,662.4 499.9,662.4 498.7,662.4 497.4,662.4 496.2,662.4
494.9,662.4 493.7,662.4 492.4,662.4 491.2,662.4 489.9,662.4 488.6,662.4 487.4,662.4 486.1,662.4 '/>
	</g>
</g>
	</g>
	<g id="gnuplot_plot_2" ><title>Base Mean</title>
<g fill="none" color="white" stroke="rgb(227,  26,  28)" stroke-width="2.00" stroke-linecap="butt" stroke-linejoin="miter">
</g>
<g fill="none" color="black" stroke="currentColor" stroke-width="2.00" stroke-linecap="butt" stroke-linejoin="miter">
	<g transform="translate(1196.9,85.0)" stroke="none" fill="black" font-family="Helvetica" font-size="12.00"  text-anchor="start">
		<text><tspan font-family="Helvetica" >Base Mean</tspan></text>
	</g>
</g>
<g fill="none" color="black" stroke="currentColor" stroke-width="2.00" stroke-linecap="butt" stroke-linejoin="miter">
	<path stroke='rgb(227,  26,  28)'  d='M1146.4,81.1 L1188.6,81.1 M646.7,662.4 L646.7,504.6  '/></g>
	</g>
	<g id="gnuplot_plot_3" ><title>New PDF</title>
<g fill="none" color="white" stroke="rgb(227,  26,  28)" stroke-width="1.00" stroke-linecap="butt" stroke-linejoin="miter">
</g>
<g fill="none" color="black" stroke="currentColor" stroke-width="1.00" stroke-linecap="butt" stroke-linejoin="miter">
	<g transform="translate(1196.9,103.0)" stroke="none" fill="black" font-family="Helvetica" font-size="12.00"  text-anchor="start">
		<text><tspan font-family="Helvetica" >New PDF</tspan></text>
	</g>
</g>
<g fill="none" color="black" stroke="currentColor" stroke-width="1.00" stroke-linecap="butt" stroke-linejoin="miter">
	<g stroke='none' shape-rendering='crispEdges'>
		<polygon fill = 'rgb( 31, 120, 180)' fill-opacity = '0.500000' points = '1146.4,103.6 1188.6,103.6 1188.6,94.6 1146.4,94.6 '/>
		<polygon fill = 'rgb( 31, 120, 180)' fill-opacity = '0.500000' points = '145.1,662.1 145.8,662.0 146.4,662.0 147.1,661.9 147.8,661.8 148.5,661.7 149.1,661.6 149.8,661.5 150.5,661.4 151.1,661.2 151.8,661.0 152.5,660.8 153.1,660.5 153.8,660.3 154.5,660.0 155.2,659.6
155.8,659.2 156.5,658.8 157.2,658.3 157.8,657.7 158.5,657.1 159.2,656.4 159.8,655.6 160.5,654.8 161.2,653.8 161.9,652.7 162.5,651.5 163.2,650.2 163.9,648.8 164.5,647.2 165.2,645.5 165.9,643.6
166.5,641.5 167.2,639.2 167.9,636.7 168.5,634.0 169.2,631.1 169.9,627.9 170.6,624.5 171.2,620.8 171.9,616.8 172.6,612.5 173.2,607.9 173.9,602.9 174.6,597.6 175.2,592.0 175.9,586.0 176.6,579.6
177.3,572.8 177.9,565.7 178.6,558.1 179.3,550.1 179.9,541.7 180.6,532.9 181.3,523.7 181.9,514.0 182.6,503.9 183.3,493.5 184.0,482.6 184.6,471.3 185.3,459.6 186.0,447.6 186.6,435.2 187.3,422.5
188.0,409.5 188.6,396.2 189.3,382.7 190.0,368.9 190.7,355.0 191.3,340.9 192.0,326.7 192.7,312.5 193.3,298.2 194.0,283.9 194.7,269.7 195.3,255.6 196.0,241.7 196.7,228.1 197.4,214.6 198.0,201.5
198.7,188.8 199.4,176.5 200.0,164.7 200.7,153.5 201.4,142.8 202.0,132.7 202.7,123.3 203.4,114.6 204.1,106.6 204.7,99.5 205.4,93.1 206.1,87.7 206.7,83.1 207.4,79.4 208.1,76.6 208.7,74.7
209.4,73.8 210.1,73.9 210.8,74.9 211.4,76.8 212.1,79.6 212.8,83.4 213.4,88.1 214.1,93.6 214.8,100.0 215.4,107.2 216.1,115.2 216.8,123.9 217.5,133.3 218.1,143.4 218.8,154.1 219.5,165.4
220.1,177.2 220.8,189.4 221.5,202.1 222.1,215.1 222.8,228.4 223.5,242.0 224.1,255.8 224.8,269.8 225.5,283.8 226.2,297.9 226.8,312.0 227.5,326.1 228.2,340.0 228.8,353.9 229.5,367.6 230.2,381.1
230.8,394.4 231.5,407.4 232.2,420.1 232.9,432.5 233.5,444.6 234.2,456.3 234.9,467.7 235.5,478.6 236.2,489.2 236.9,499.4 237.5,509.2 238.2,518.6 238.9,527.6 239.6,536.1 240.2,544.3 240.9,552.1
241.6,559.5 242.2,566.4 242.9,573.1 243.6,579.3 244.2,585.2 244.9,590.7 245.6,595.9 246.3,600.8 246.9,605.4 247.6,609.7 248.3,613.6 248.9,617.3 249.6,620.8 250.3,624.0 250.9,627.0 251.6,629.7
252.3,632.2 253.0,634.6 253.6,636.7 254.3,638.6 255.0,640.4 255.6,642.1 256.3,643.5 257.0,644.9 257.6,646.1 258.3,647.1 259.0,648.1 259.7,648.9 260.3,649.7 261.0,650.3 261.7,650.9 262.3,651.4
263.0,651.7 263.7,652.1 264.3,652.3 265.0,652.5 265.7,652.6 266.4,652.7 267.0,652.7 267.7,652.7 268.4,652.6 269.0,652.5 269.7,652.4 270.4,652.2 271.0,652.0 271.7,651.8 272.4,651.6 273.1,651.3
273.7,651.1 274.4,650.8 275.1,650.5 275.7,650.3 276.4,650.0 277.1,649.7 277.7,649.5 278.4,649.2 279.1,649.0 279.7,648.7 280.4,648.5 281.1,648.3 281.8,648.2 282.4,648.0 283.1,647.9 283.8,647.8
284.4,647.7 285.1,647.6 285.8,647.6 286.4,647.6 287.1,647.6 287.8,647.7 288.5,647.7 289.1,647.8 289.8,647.9 290.5,648.1 291.1,648.2 291.8,648.4 292.5,648.6 293.1,648.8 293.8,649.0 294.5,649.2
295.2,649.4 295.8,649.7 296.5,649.9 297.2,650.2 297.8,650.4 298.5,650.7 299.2,650.9 299.8,651.2 300.5,651.4 301.2,651.6 301.9,651.8 302.5,652.0 303.2,652.2 303.9,652.4 304.5,652.5 305.2,652.7
305.9,652.8 306.5,652.9 307.2,653.0 307.9,653.0 308.6,653.1 309.2,653.1 309.9,653.1 310.6,653.1 311.2,653.1 311.9,653.1 312.6,653.0 313.2,653.0 313.9,652.9 314.6,652.8 315.3,652.7 315.9,652.5
316.6,652.4 317.3,652.3 317.9,652.1 318.6,652.0 319.3,651.8 319.9,651.7 320.6,651.5 321.3,651.4 322.0,651.2 322.6,651.0 323.3,650.9 324.0,650.7 324.6,650.6 325.3,650.4 326.0,650.3 326.6,650.1
327.3,650.0 328.0,649.8 328.7,649.7 329.3,649.6 330.0,649.5 330.7,649.4 331.3,649.3 332.0,649.2 332.7,649.1 333.3,649.0 334.0,648.9 334.7,648.9 335.3,648.8 336.0,648.7 336.7,648.7 337.4,648.7
338.0,648.6 338.7,648.6 339.4,648.6 340.0,648.6 340.7,648.6 341.4,648.6 342.0,648.6 342.7,648.6 343.4,648.6 344.1,648.7 344.7,648.7 345.4,648.7 346.1,648.8 346.7,648.8 347.4,648.9 348.1,649.0
348.7,649.1 349.4,649.2 350.1,649.3 350.8,649.4 351.4,649.5 352.1,649.6 352.8,649.7 353.4,649.9 354.1,650.0 354.8,650.2 355.4,650.3 356.1,650.5 356.8,650.7 357.5,650.9 358.1,651.1 358.8,651.3
359.5,651.5 360.1,651.7 360.8,652.0 361.5,652.2 362.1,652.4 362.8,652.7 363.5,653.0 364.2,653.2 364.8,653.5 365.5,653.8 366.2,654.0 366.8,654.3 367.5,654.6 368.2,654.9 368.8,655.2 369.5,655.5
370.2,655.7 370.9,656.0 371.5,656.3 372.2,656.6 372.9,656.9 373.5,657.1 374.2,657.4 374.9,657.7 375.5,657.9 376.2,658.2 376.9,658.4 377.6,658.6 378.2,658.9 378.9,659.1 379.6,659.3 380.2,659.5
380.9,659.7 381.6,659.9 382.2,660.1 382.9,660.2 383.6,660.4 384.2,660.5 384.9,660.7 385.6,660.8 386.3,661.0 386.9,661.1 387.6,661.2 388.3,661.3 388.9,661.4 389.6,661.5 390.3,661.5 390.9,661.6
391.6,661.7 392.3,661.7 393.0,661.8 393.6,661.8 394.3,661.9 395.0,661.9 395.6,661.9 396.3,661.9 397.0,661.9 397.6,661.9 398.3,661.9 399.0,661.9 399.7,661.9 400.3,661.9 401.0,661.9 401.7,661.8
402.3,661.8 403.0,661.8 403.7,661.7 404.3,661.7 405.0,661.6 405.7,661.5 406.4,661.5 407.0,661.4 407.7,661.3 408.4,661.2 409.0,661.1 409.7,661.0 410.4,660.9 411.0,660.7 411.7,660.6 412.4,660.5
413.1,660.3 413.7,660.2 414.4,660.0 415.1,659.8 415.7,659.6 416.4,659.5 417.1,659.3 417.7,659.1 418.4,658.9 419.1,658.7 419.8,658.5 420.4,658.3 421.1,658.1 421.8,657.9 422.4,657.7 423.1,657.5
423.8,657.3 424.4,657.1 425.1,656.9 425.8,656.7 426.5,656.5 427.1,656.3 427.8,656.2 428.5,656.0 429.1,655.9 429.8,655.7 430.5,655.6 431.1,655.5 431.8,655.4 432.5,655.3 433.2,655.2 433.8,655.2
434.5,655.1 435.2,655.1 435.8,655.1 436.5,655.1 437.2,655.1 437.8,655.2 438.5,655.2 439.2,655.3 439.8,655.4 440.5,655.5 441.2,655.6 441.9,655.7 442.5,655.8 443.2,656.0 443.9,656.1 444.5,656.3
445.2,656.4 445.9,656.6 446.5,656.8 447.2,657.0 447.9,657.2 448.6,657.4 449.2,657.6 449.9,657.8 450.6,658.0 451.2,658.2 451.9,658.4 452.6,658.6 453.2,658.8 453.9,659.0 454.6,659.2 455.3,659.4
455.9,659.6 456.6,659.8 457.3,659.9 457.9,660.1 458.6,660.3 459.3,660.4 459.9,660.6 460.6,660.7 461.3,660.8 462.0,660.9 462.6,661.1 463.3,661.2 464.0,661.3 464.6,661.4 465.3,661.5 466.0,661.6
466.6,661.6 467.3,661.7 468.0,661.8 468.7,661.8 469.3,661.9 470.0,661.9 470.7,662.0 471.3,662.0 472.0,662.1 472.7,662.1 473.3,662.1 474.0,662.2 474.7,662.2 475.4,662.2 476.0,662.2 476.7,662.3
477.4,662.3 478.0,662.3 478.7,662.3 479.4,662.3 479.4,662.4 478.7,662.4 478.0,662.4 477.4,662.4 476.7,662.4 476.0,662.4 475.4,662.4 474.7,662.4 474.0,662.4 473.3,662.4 472.7,662.4 472.0,662.4
471.3,662.4 470.7,662.4 470.0,662.4 469.3,662.4 468.7,662.4 468.0,662.4 467.3,662.4 466.6,662.4 466.0,662.4 465.3,662.4 464.6,662.4 464.0,662.4 463.3,662.4 462.6,662.4 462.0,662.4 461.3,662.4
460.6,662.4 459.9,662.4 459.3,662.4 458.6,662.4 457.9,662.4 457.3,662.4 456.6,662.4 455.9,662.4 455.3,662.4 454.6,662.4 453.9,662.4 453.2,662.4 452.6,662.4 451.9,662.4 451.2,662.4 450.6,662.4
449.9,662.4 449.2,662.4 448.6,662.4 447.9,662.4 447.2,662.4 446.5,662.4 445.9,662.4 445.2,662.4 444.5,662.4 443.9,662.4 443.2,662.4 442.5,662.4 441.9,662.4 441.2,662.4 440.5,662.4 439.8,662.4
439.2,662.4 438.5,662.4 437.8,662.4 437.2,662.4 436.5,662.4 435.8,662.4 435.2,662.4 434.5,662.4 433.8,662.4 433.2,662.4 432.5,662.4 431.8,662.4 431.1,662.4 430.5,662.4 429.8,662.4 429.1,662.4
428.5,662.4 427.8,662.4 427.1,662.4 426.5,662.4 425.8,662.4 425.1,662.4 424.4,662.4 423.8,662.4 423.1,662.4 422.4,662.4 421.8,662.4 421.1,662.4 420.4,662.4 419.8,662.4 419.1,662.4 418.4,662.4
417.7,662.4 417.1,662.4 416.4,662.4 415.7,662.4 415.1,662.4 414.4,662.4 413.7,662.4 413.1,662.4 412.4,662.4 411.7,662.4 411.0,662.4 410.4,662.4 409.7,662.4 409.0,662.4 408.4,662.4 407.7,662.4
407.0,662.4 406.4,662.4 405.7,662.4 405.0,662.4 404.3,662.4 403.7,662.4 403.0,662.4 402.3,662.4 401.7,662.4 401.0,662.4 400.3,662.4 399.7,662.4 399.0,662.4 398.3,662.4 397.6,662.4 397.0,662.4
396.3,662.4 395.6,662.4 395.0,662.4 394.3,662.4 393.6,662.4 393.0,662.4 392.3,662.4 391.6,662.4 390.9,662.4 390.3,662.4 389.6,662.4 388.9,662.4 388.3,662.4 387.6,662.4 386.9,662.4 386.3,662.4
385.6,662.4 384.9,662.4 384.2,662.4 383.6,662.4 382.9,662.4 382.2,662.4 381.6,662.4 380.9,662.4 380.2,662.4 379.6,662.4 378.9,662.4 378.2,662.4 377.6,662.4 376.9,662.4 376.2,662.4 375.5,662.4
374.9,662.4 374.2,662.4 373.5,662.4 372.9,662.4 372.2,662.4 371.5,662.4 370.9,662.4 370.2,662.4 369.5,662.4 368.8,662.4 368.2,662.4 367.5,662.4 366.8,662.4 366.2,662.4 365.5,662.4 364.8,662.4
364.2,662.4 363.5,662.4 362.8,662.4 362.1,662.4 361.5,662.4 360.8,662.4 360.1,662.4 359.5,662.4 358.8,662.4 358.1,662.4 357.5,662.4 356.8,662.4 356.1,662.4 355.4,662.4 354.8,662.4 354.1,662.4
353.4,662.4 352.8,662.4 352.1,662.4 351.4,662.4 350.8,662.4 350.1,662.4 349.4,662.4 348.7,662.4 348.1,662.4 347.4,662.4 346.7,662.4 346.1,662.4 345.4,662.4 344.7,662.4 344.1,662.4 343.4,662.4
342.7,662.4 342.0,662.4 341.4,662.4 340.7,662.4 340.0,662.4 339.4,662.4 338.7,662.4 338.0,662.4 337.4,662.4 336.7,662.4 336.0,662.4 335.3,662.4 334.7,662.4 334.0,662.4 333.3,662.4 332.7,662.4
332.0,662.4 331.3,662.4 330.7,662.4 330.0,662.4 329.3,662.4 328.7,662.4 328.0,662.4 327.3,662.4 326.6,662.4 326.0,662.4 325.3,662.4 324.6,662.4 324.0,662.4 323.3,662.4 322.6,662.4 322.0,662.4
321.3,662.4 320.6,662.4 319.9,662.4 319.3,662.4 318.6,662.4 317.9,662.4 317.3,662.4 316.6,662.4 315.9,662.4 315.3,662.4 314.6,662.4 313.9,662.4 313.2,662.4 312.6,662.4 311.9,662.4 311.2,662.4
310.6,662.4 309.9,662.4 309.2,662.4 308.6,662.4 307.9,662.4 307.2,662.4 306.5,662.4 305.9,662.4 305.2,662.4 304.5,662.4 303.9,662.4 303.2,662.4 302.5,662.4 301.9,662.4 301.2,662.4 300.5,662.4
299.8,662.4 299.2,662.4 298.5,662.4 297.8,662.4 297.2,662.4 296.5,662.4 295.8,662.4 295.2,662.4 294.5,662.4 293.8,662.4 293.1,662.4 292.5,662.4 291.8,662.4 291.1,662.4 290.5,662.4 289.8,662.4
289.1,662.4 288.5,662.4 287.8,662.4 287.1,662.4 286.4,662.4 285.8,662.4 285.1,662.4 284.4,662.4 283.8,662.4 283.1,662.4 282.4,662.4 281.8,662.4 281.1,662.4 280.4,662.4 279.7,662.4 279.1,662.4
278.4,662.4 277.7,662.4 277.1,662.4 276.4,662.4 275.7,662.4 275.1,662.4 274.4,662.4 273.7,662.4 273.1,662.4 272.4,662.4 271.7,662.4 271.0,662.4 270.4,662.4 269.7,662.4 269.0,662.4 268.4,662.4
267.7,662.4 267.0,662.4 266.4,662.4 265.7,662.4 265.0,662.4 264.3,662.4 263.7,662.4 263.0,662.4 262.3,662.4 261.7,662.4 261.0,662.4 260.3,662.4 259.7,662.4 259.0,662.4 258.3,662.4 257.6,662.4
257.0,662.4 256.3,662.4 255.6,662.4 255.0,662.4 254.3,662.4 253.6,662.4 253.0,662.4 252.3,662.4 251.6,662.4 250.9,662.4 250.3,662.4 249.6,662.4 248.9,662.4 248.3,662.4 247.6,662.4 246.9,662.4
246.3,662.4 245.6,662.4 244.9,662.4 244.2,662.4 243.6,662.4 242.9,662.4 242.2,662.4 241.6,662.4 240.9,662.4 240.2,662.4 239.6,662.4 238.9,662.4 238.2,662.4 237.5,662.4 236.9,662.4 236.2,662.4
235.5,662.4 234.9,662.4 234.2,662.4 233.5,662.4 232.9,662.4 232.2,662.4 231.5,662.4 230.8,662.4 230.2,662.4 229.5,662.4 228.8,662.4 228.2,662.4 227.5,662.4 226.8,662.4 226.2,662.4 225.5,662.4
224.8,662.4 224.1,662.4 223.5,662.4 222.8,662.4 222.1,662.4 221.5,662.4 220.8,662.4 220.1,662.4 219.5,662.4 218.8,662.4 218.1,662.4 217.5,662.4 216.8,662.4 216.1,662.4 215.4,662.4 214.8,662.4
214.1,662.4 213.4,662.4 212.8,662.4 212.1,662.4 211.4,662.4 210.8,662.4 210.1,662.4 209.4,662.4 208.7,662.4 208.1,662.4 207.4,662.4 206.7,662.4 206.1,662.4 205.4,662.4 204.7,662.4 204.1,662.4
203.4,662.4 202.7,662.4 202.0,662.4 201.4,662.4 200.7,662.4 200.0,662.4 199.4,662.4 198.7,662.4 198.0,662.4 197.4,662.4 196.7,662.4 196.0,662.4 195.3,662.4 194.7,662.4 194.0,662.4 193.3,662.4
192.7,662.4 192.0,662.4 191.3,662.4 190.7,662.4 190.0,662.4 189.3,662.4 188.6,662.4 188.0,662.4 187.3,662.4 186.6,662.4 186.0,662.4 185.3,662.4 184.6,662.4 184.0,662.4 183.3,662.4 182.6,662.4
181.9,662.4 181.3,662.4 180.6,662.4 179.9,662.4 179.3,662.4 178.6,662.4 177.9,662.4 177.3,662.4 176.6,662.4 175.9,662.4 175.2,662.4 174.6,662.4 173.9,662.4 173.2,662.4 172.6,662.4 171.9,662.4
171.2,662.4 170.6,662.4 169.9,662.4 169.2,662.4 168.5,662.4 167.9,662.4 167.2,662.4 166.5,662.4 165.9,662.4 165.2,662.4 164.5,662.4 163.9,662.4 163.2,662.4 162.5,662.4 161.9,662.4 161.2,662.4
160.5,662.4 159.8,662.4 159.2,662.4 158.5,662.4 157.8,662.4 157.2,662.4 156.5,662.4 155.8,662.4 155.2,662.4 154.5,662.4 153.8,662.4 153.1,662.4 152.5,662.4 151.8,662.4 151.1,662.4 150.5,662.4
149.8,662.4 149.1,662.4 148.5,662.4 147.8,662.4 147.1,662.4 146.4,662.4 145.8,662.4 145.1,662.4 '/>
	</g>
</g>
	</g>
	<g id="gnuplot_plot_4" ><title>New Mean</title>
<g fill="none" color="white" stroke="rgb( 31, 120, 180)" stroke-width="2.00" stroke-linecap="butt" stroke-linejoin="miter">
</g>
<g fill="none" color="black" stroke="currentColor" stroke-width="2.00" stroke-linecap="butt" stroke-linejoin="miter">
	<g transform="translate(1196.9,121.0)" stroke="none" fill="black" font-family="Helvetica" font-size="12.00"  text-anchor="start">
		<text><tspan font-family="Helvetica" >New Mean</tspan></text>
	</g>
</g>
<g fill="none" color="black" stroke="currentColor" stroke-width="2.00" stroke-linecap="butt" stroke-linejoin="miter">
	<path stroke='rgb( 31, 120, 180)'  d='M1146.4,117.1 L1188.6,117.1 M217.8,662.4 L217.8,137.8  '/></g>
	</g>
<g fill="none" color="black" stroke="currentColor" stroke-width="2.00" stroke-linecap="butt" stroke-linejoin="miter">
</g>
<g fill="none" color="black" stroke="black" stroke-width="1.00" stroke-linecap="butt" stroke-linejoin="miter">
</g>
<g fill="none" color="black" stroke="currentColor" stroke-width="1.00" stroke-linecap="butt" stroke-linejoin="miter">
	<path stroke='black'  d='M55.3,54.1 L55.3,662.4 L1121.5,662.4 L1121.5,54.1 L55.3,54.1 Z  '/></g>
<g fill="none" color="black" stroke="currentColor" stroke-width="1.00" stroke-linecap="butt" stroke-linejoin="miter">
</g>
</g>
</svg>

