<?xml version="1.0" encoding="utf-8"  standalone="no"?>
<svg 
 viewBox="0 0 1280 720"
 xmlns="http://www.w3.org/2000/svg"
 xmlns:xlink="http://www.w3.org/1999/xlink"
>

<title>Gnuplot</title>
<desc>Produced by GNUPLOT 5.2 patchlevel 6 </desc>

<g id="gnuplot_canvas">

<rect x="0" y="0" width="1280" height="720" fill="none"/>
<defs>

	<circle id='gpDot' r='0.5' stroke-width='0.5' stroke='currentColor'/>
	<path id='gpPt0' stroke-width='0.222' stroke='currentColor' d='M-1,0 h2 M0,-1 v2'/>
	<path id='gpPt1' stroke-width='0.222' stroke='currentColor' d='M-1,-1 L1,1 M1,-1 L-1,1'/>
	<path id='gpPt2' stroke-width='0.222' stroke='currentColor' d='M-1,0 L1,0 M0,-1 L0,1 M-1,-1 L1,1 M-1,1 L1,-1'/>
	<rect id='gpPt3' stroke-width='0.222' stroke='currentColor' x='-1' y='-1' width='2' height='2'/>
	<rect id='gpPt4' stroke-width='0.222' stroke='currentColor' fill='currentColor' x='-1' y='-1' width='2' height='2'/>
	<circle id='gpPt5' stroke-width='0.222' stroke='currentColor' cx='0' cy='0' r='1'/>
	<use xlink:href='#gpPt5' id='gpPt6' fill='currentColor' stroke='none'/>
	<path id='gpPt7' stroke-width='0.222' stroke='currentColor' d='M0,-1.33 L-1.33,0.67 L1.33,0.67 z'/>
	<use xlink:href='#gpPt7' id='gpPt8' fill='currentColor' stroke='none'/>
	<use xlink:href='#gpPt7' id='gpPt9' stroke='currentColor' transform='rotate(180)'/>
	<use xlink:href='#gpPt9' id='gpPt10' fill='currentColor' stroke='none'/>
	<use xlink:href='#gpPt3' id='gpPt11' stroke='currentColor' transform='rotate(45)'/>
	<use xlink:href='#gpPt11' id='gpPt12' fill='currentColor' stroke='none'/>
	<path id='gpPt13' stroke-width='0.222' stroke='currentColor' d='M0,1.330 L1.265,0.411 L0.782,-1.067 L-0.782,-1.076 L-1.265,0.411 z'/>
	<use xlink:href='#gpPt13' id='gpPt14' fill='currentColor' stroke='none'/>
	<filter id='textbox' filterUnits='objectBoundingBox' x='0' y='0' height='1' width='1'>
	  <feFlood flood-color='white' flood-opacity='1' result='bgnd'/>
	  <feComposite in='SourceGraphic' in2='bgnd' operator='atop'/>
	</filter>
	<filter id='greybox' filterUnits='objectBoundingBox' x='0' y='0' height='1' width='1'>
	  <feFlood flood-color='lightgrey' flood-opacity='1' result='grey'/>
	  <feComposite in='SourceGraphic' in2='grey' operator='atop'/>
	</filter>
</defs>
<g fill="none" color="white" stroke="currentColor" stroke-width="1.00" stroke-linecap="butt" stroke-linejoin="miter">
</g>
<g fill="none" color="black" stroke="currentColor" stroke-width="1.00" stroke-linecap="butt" stroke-linejoin="miter">
	<path stroke='black'  d='M71.9,662.4 L80.9,662.4  '/>	<g transform="translate(63.6,666.3)" stroke="none" fill="black" font-family="Helvetica" font-size="12.00"  text-anchor="end">
		<text><tspan font-family="Helvetica" > 0</tspan></text>
	</g>
</g>
<g fill="none" color="black" stroke="currentColor" stroke-width="1.00" stroke-linecap="butt" stroke-linejoin="miter">
	<path stroke='black'  d='M71.9,561.0 L80.9,561.0  '/>	<g transform="translate(63.6,564.9)" stroke="none" fill="black" font-family="Helvetica" font-size="12.00"  text-anchor="end">
		<text><tspan font-family="Helvetica" > 20</tspan></text>
	</g>
</g>
<g fill="none" color="black" stroke="currentColor" stroke-width="1.00" stroke-linecap="butt" stroke-linejoin="miter">
	<path stroke='black'  d='M71.9,459.6 L80.9,459.6  '/>	<g transform="translate(63.6,463.5)" stroke="none" fill="black" font-family="Helvetica" font-size="12.00"  text-anchor="end">
		<text><tspan font-family="Helvetica" > 40</tspan></text>
	</g>
</g>
<g fill="none" color="black" stroke="currentColor" stroke-width="1.00" stroke-linecap="butt" stroke-linejoin="miter">
	<path stroke='black'  d='M71.9,358.2 L80.9,358.2  '/>	<g transform="translate(63.6,362.1)" stroke="none" fill="black" font-family="Helvetica" font-size="12.00"  text-anchor="end">
		<text><tspan font-family="Helvetica" > 60</tspan></text>
	</g>
</g>
<g fill="none" color="black" stroke="currentColor" stroke-width="1.00" stroke-linecap="butt" stroke-linejoin="miter">
	<path stroke='black'  d='M71.9,256.9 L80.9,256.9  '/>	<g transform="translate(63.6,260.8)" stroke="none" fill="black" font-family="Helvetica" font-size="12.00"  text-anchor="end">
		<text><tspan font-family="Helvetica" > 80</tspan></text>
	</g>
</g>
<g fill="none" color="black" stroke="currentColor" stroke-width="1.00" stroke-linecap="butt" stroke-linejoin="miter">
	<path stroke='black'  d='M71.9,155.5 L80.9,155.5  '/>	<g transform="translate(63.6,159.4)" stroke="none" fill="black" font-family="Helvetica" font-size="12.00"  text-anchor="end">
		<text><tspan font-family="Helvetica" > 100</tspan></text>
	</g>
</g>
<g fill="none" color="black" stroke="currentColor" stroke-width="1.00" stroke-linecap="butt" stroke-linejoin="miter">
	<path stroke='black'  d='M71.9,54.1 L80.9,54.1  '/>	<g transform="translate(63.6,58.0)" stroke="none" fill="black" font-family="Helvetica" font-size="12.00"  text-anchor="end">
		<text><tspan font-family="Helvetica" > 120</tspan></text>
	</g>
</g>
<g fill="none" color="black" stroke="currentColor" stroke-width="1.00" stroke-linecap="butt" stroke-linejoin="miter">
	<path stroke='black'  d='M169.9,662.4 L169.9,653.4  '/>	<g transform="translate(169.9,684.3)" stroke="none" fill="black" font-family="Helvetica" font-size="12.00"  text-anchor="middle">
		<text><tspan font-family="Helvetica" >-2.5</tspan></text>
	</g>
</g>
<g fill="none" color="black" stroke="currentColor" stroke-width="1.00" stroke-linecap="butt" stroke-linejoin="miter">
	<path stroke='black'  d='M344.4,662.4 L344.4,653.4  '/>	<g transform="translate(344.4,684.3)" stroke="none" fill="black" font-family="Helvetica" font-size="12.00"  text-anchor="middle">
		<text><tspan font-family="Helvetica" >-2</tspan></text>
	</g>
</g>
<g fill="none" color="black" stroke="currentColor" stroke-width="1.00" stroke-linecap="butt" stroke-linejoin="miter">
	<path stroke='black'  d='M518.9,662.4 L518.9,653.4  '/>	<g transform="translate(518.9,684.3)" stroke="none" fill="black" font-family="Helvetica" font-size="12.00"  text-anchor="middle">
		<text><tspan font-family="Helvetica" >-1.5</tspan></text>
	</g>
</g>
<g fill="none" color="black" stroke="currentColor" stroke-width="1.00" stroke-linecap="butt" stroke-linejoin="miter">
	<path stroke='black'  d='M693.5,662.4 L693.5,653.4  '/>	<g transform="translate(693.5,684.3)" stroke="none" fill="black" font-family="Helvetica" font-size="12.00"  text-anchor="middle">
		<text><tspan font-family="Helvetica" >-1</tspan></text>
	</g>
</g>
<g fill="none" color="black" stroke="currentColor" stroke-width="1.00" stroke-linecap="butt" stroke-linejoin="miter">
	<path stroke='black'  d='M868.0,662.4 L868.0,653.4  '/>	<g transform="translate(868.0,684.3)" stroke="none" fill="black" font-family="Helvetica" font-size="12.00"  text-anchor="middle">
		<text><tspan font-family="Helvetica" >-0.5</tspan></text>
	</g>
</g>
<g fill="none" color="black" stroke="currentColor" stroke-width="1.00" stroke-linecap="butt" stroke-linejoin="miter">
</g>
<g fill="none" color="black" stroke="currentColor" stroke-width="1.00" stroke-linecap="butt" stroke-linejoin="miter">
	<path stroke='black'  d='M71.9,54.1 L71.9,662.4 L1013.6,662.4 L1013.6,54.1 L71.9,54.1 Z  '/></g>
<g fill="none" color="black" stroke="currentColor" stroke-width="1.00" stroke-linecap="butt" stroke-linejoin="miter">
	<g transform="translate(16.3,358.3) rotate(270)" stroke="none" fill="black" font-family="Helvetica" font-size="12.00"  text-anchor="middle">
		<text><tspan font-family="Helvetica" >Density (a.u.)</tspan></text>
	</g>
</g>
<g fill="none" color="black" stroke="currentColor" stroke-width="1.00" stroke-linecap="butt" stroke-linejoin="miter">
	<g transform="translate(542.7,711.3)" stroke="none" fill="black" font-family="Helvetica" font-size="12.00"  text-anchor="middle">
		<text><tspan font-family="Helvetica" >Relative change (%)</tspan></text>
	</g>
</g>
<g fill="none" color="black" stroke="currentColor" stroke-width="1.00" stroke-linecap="butt" stroke-linejoin="miter">
	<g transform="translate(542.7,31.0)" stroke="none" fill="black" font-family="Helvetica" font-size="12.00"  text-anchor="middle">
		<text><tspan font-family="Helvetica" >snapshot_restore_with_dense/Dense: Entire region + /proc/pid/mem/10: median</tspan></text>
	</g>
</g>
	<g id="gnuplot_plot_1" ><title>Bootstrap distribution</title>
<g fill="none" color="white" stroke="black" stroke-width="2.00" stroke-linecap="butt" stroke-linejoin="miter">
</g>
<g fill="none" color="black" stroke="currentColor" stroke-width="2.00" stroke-linecap="butt" stroke-linejoin="miter">
	<g transform="translate(1089.0,67.0)" stroke="none" fill="black" font-family="Helvetica" font-size="12.00"  text-anchor="start">
		<text><tspan font-family="Helvetica" >Bootstrap distribution</tspan></text>
	</g>
</g>
<g fill="none" color="black" stroke="currentColor" stroke-width="2.00" stroke-linecap="butt" stroke-linejoin="miter">
	<path stroke='rgb( 31, 120, 180)'  d='M1038.5,63.1 L1080.7,63.1 M71.9,649.0 L73.8,648.7 L75.7,648.3 L77.6,648.0 L79.4,647.8 L81.3,647.5
		L83.2,647.2 L85.1,647.0 L87.0,646.8 L88.9,646.5 L90.8,646.3 L92.7,646.1 L94.5,645.9 L96.4,645.8
		L98.3,645.6 L100.2,645.4 L102.1,645.2 L104.0,645.0 L105.9,644.8 L107.8,644.5 L109.6,644.3 L111.5,644.0
		L113.4,643.7 L115.3,643.4 L117.2,643.1 L119.1,642.8 L121.0,642.4 L122.9,642.0 L124.7,641.6 L126.6,641.2
		L128.5,640.8 L130.4,640.3 L132.3,639.8 L134.2,639.3 L136.1,638.8 L138.0,638.3 L139.8,637.7 L141.7,637.1
		L143.6,636.5 L145.5,635.9 L147.4,635.3 L149.3,634.6 L151.2,633.9 L153.0,633.2 L154.9,632.5 L156.8,631.8
		L158.7,631.0 L160.6,630.2 L162.5,629.4 L164.4,628.6 L166.3,627.7 L168.1,626.8 L170.0,625.9 L171.9,624.8
		L173.8,623.8 L175.7,622.6 L177.6,621.4 L179.5,620.1 L181.4,618.7 L183.2,617.2 L185.1,615.5 L187.0,613.7
		L188.9,611.8 L190.8,609.7 L192.7,607.4 L194.6,604.9 L196.5,602.2 L198.3,599.3 L200.2,596.2 L202.1,592.8
		L204.0,589.1 L205.9,585.3 L207.8,581.1 L209.7,576.7 L211.6,572.1 L213.4,567.3 L215.3,562.2 L217.2,556.9
		L219.1,551.5 L221.0,545.8 L222.9,540.1 L224.8,534.2 L226.6,528.3 L228.5,522.4 L230.4,516.4 L232.3,510.5
		L234.2,504.7 L236.1,499.0 L238.0,493.5 L239.9,488.3 L241.7,483.3 L243.6,478.6 L245.5,474.2 L247.4,470.2
		L249.3,466.6 L251.2,463.4 L253.1,460.7 L255.0,458.4 L256.8,456.7 L258.7,455.4 L260.6,454.7 L262.5,454.4
		L264.4,454.7 L266.3,455.4 L268.2,456.6 L270.1,458.2 L271.9,460.3 L273.8,462.8 L275.7,465.6 L277.6,468.8
		L279.5,472.2 L281.4,475.9 L283.3,479.8 L285.2,483.8 L287.0,487.8 L288.9,491.9 L290.8,496.0 L292.7,500.0
		L294.6,503.9 L296.5,507.5 L298.4,511.0 L300.2,514.2 L302.1,517.1 L304.0,519.7 L305.9,522.0 L307.8,523.9
		L309.7,525.4 L311.6,526.6 L313.5,527.4 L315.3,527.9 L317.2,528.0 L319.1,527.9 L321.0,527.5 L322.9,526.8
		L324.8,525.9 L326.7,524.9 L328.6,523.7 L330.4,522.4 L332.3,521.0 L334.2,519.6 L336.1,518.0 L338.0,516.4
		L339.9,514.7 L341.8,513.0 L343.7,511.1 L345.5,509.0 L347.4,506.7 L349.3,504.2 L351.2,501.4 L353.1,498.1
		L355.0,494.5 L356.9,490.3 L358.8,485.6 L360.6,480.2 L362.5,474.2 L364.4,467.4 L366.3,460.0 L368.2,451.7
		L370.1,442.7 L372.0,433.0 L373.8,422.6 L375.7,411.5 L377.6,399.9 L379.5,387.8 L381.4,375.3 L383.3,362.6
		L385.2,349.7 L387.1,336.9 L388.9,324.3 L390.8,311.9 L392.7,300.0 L394.6,288.8 L396.5,278.2 L398.4,268.6
		L400.3,259.9 L402.2,252.4 L404.0,246.0 L405.9,240.8 L407.8,237.0 L409.7,234.4 L411.6,233.2 L413.5,233.3
		L415.4,234.7 L417.3,237.4 L419.1,241.2 L421.0,246.2 L422.9,252.1 L424.8,259.1 L426.7,266.9 L428.6,275.5
		L430.5,284.7 L432.4,294.5 L434.2,304.8 L436.1,315.4 L438.0,326.3 L439.9,337.5 L441.8,348.7 L443.7,360.0
		L445.6,371.4 L447.4,382.6 L449.3,393.7 L451.2,404.6 L453.1,415.3 L455.0,425.7 L456.9,435.9 L458.8,445.7
		L460.7,455.1 L462.5,464.1 L464.4,472.6 L466.3,480.8 L468.2,488.4 L470.1,495.5 L472.0,502.1 L473.9,508.2
		L475.8,513.7 L477.6,518.7 L479.5,523.1 L481.4,527.0 L483.3,530.3 L485.2,533.1 L487.1,535.3 L489.0,537.1
		L490.9,538.4 L492.7,539.2 L494.6,539.7 L496.5,539.8 L498.4,539.6 L500.3,539.1 L502.2,538.5 L504.1,537.6
		L506.0,536.7 L507.8,535.7 L509.7,534.7 L511.6,533.8 L513.5,532.9 L515.4,532.2 L517.3,531.6 L519.2,531.2
		L521.0,531.0 L522.9,531.0 L524.8,531.2 L526.7,531.6 L528.6,532.2 L530.5,533.0 L532.4,534.0 L534.3,535.0
		L536.1,536.2 L538.0,537.4 L539.9,538.6 L541.8,539.7 L543.7,540.8 L545.6,541.7 L547.5,542.4 L549.4,542.9
		L551.2,543.2 L553.1,543.1 L555.0,542.8 L556.9,542.1 L558.8,541.1 L560.7,539.8 L562.6,538.2 L564.5,536.3
		L566.3,534.1 L568.2,531.8 L570.1,529.2 L572.0,526.6 L573.9,523.8 L575.8,521.1 L577.7,518.5 L579.5,516.0
		L581.4,513.7 L583.3,511.6 L585.2,509.8 L587.1,508.4 L589.0,507.4 L590.9,506.7 L592.8,506.6 L594.6,506.8
		L596.5,507.5 L598.4,508.6 L600.3,510.2 L602.2,512.0 L604.1,514.2 L606.0,516.6 L607.9,519.2 L609.7,521.9
		L611.6,524.7 L613.5,527.4 L615.4,530.0 L617.3,532.5 L619.2,534.7 L621.1,536.6 L623.0,538.1 L624.8,539.3
		L626.7,540.0 L628.6,540.3 L630.5,540.2 L632.4,539.6 L634.3,538.6 L636.2,537.2 L638.1,535.4 L639.9,533.4
		L641.8,531.0 L643.7,528.5 L645.6,525.9 L647.5,523.2 L649.4,520.4 L651.3,517.7 L653.1,515.0 L655.0,512.4
		L656.9,509.9 L658.8,507.6 L660.7,505.3 L662.6,503.1 L664.5,501.0 L666.4,498.8 L668.2,496.4 L670.1,493.9
		L672.0,491.1 L673.9,487.8 L675.8,484.0 L677.7,479.5 L679.6,474.3 L681.5,468.1 L683.3,460.9 L685.2,452.5
		L687.1,443.0 L689.0,432.2 L690.9,420.1 L692.8,406.6 L694.7,391.9 L696.6,375.8 L698.4,358.6 L700.3,340.3
		L702.2,321.1 L704.1,301.1 L706.0,280.6 L707.9,259.8 L709.8,238.8 L711.7,218.1 L713.5,197.8 L715.4,178.3
		L717.3,159.8 L719.2,142.6 L721.1,127.0 L723.0,113.2 L724.9,101.5 L726.7,91.9 L728.6,84.8 L730.5,80.1
		L732.4,77.9 L734.3,78.4 L736.2,81.4 L738.1,86.9 L740.0,94.8 L741.8,105.0 L743.7,117.2 L745.6,131.3
		L747.5,147.1 L749.4,164.2 L751.3,182.4 L753.2,201.5 L755.1,221.1 L756.9,241.0 L758.8,260.9 L760.7,280.5
		L762.6,299.7 L764.5,318.2 L766.4,335.9 L768.3,352.6 L770.2,368.2 L772.0,382.6 L773.9,395.8 L775.8,407.7
		L777.7,418.4 L779.6,427.8 L781.5,436.1 L783.4,443.3 L785.3,449.4 L787.1,454.7 L789.0,459.2 L790.9,462.9
		L792.8,466.1 L794.7,468.8 L796.6,471.1 L798.5,473.0 L800.3,474.7 L802.2,476.1 L804.1,477.4 L806.0,478.5
		L807.9,479.5 L809.8,480.2 L811.7,480.7 L813.6,481.0 L815.4,481.0 L817.3,480.6 L819.2,479.7 L821.1,478.4
		L823.0,476.5 L824.9,474.0 L826.8,470.9 L828.7,467.0 L830.5,462.4 L832.4,457.1 L834.3,451.1 L836.2,444.4
		L838.1,437.0 L840.0,429.0 L841.9,420.6 L843.8,411.7 L845.6,402.4 L847.5,393.0 L849.4,383.6 L851.3,374.2
		L853.2,364.9 L855.1,356.1 L857.0,347.7 L858.9,339.8 L860.7,332.7 L862.6,326.4 L864.5,321.0 L866.4,316.6
		L868.3,313.2 L870.2,310.9 L872.1,309.6 L873.9,309.5 L875.8,310.4 L877.7,312.3 L879.6,315.2 L881.5,319.1
		L883.4,323.7 L885.3,329.1 L887.2,335.2 L889.0,341.9 L890.9,349.0 L892.8,356.5 L894.7,364.3 L896.6,372.3
		L898.5,380.4 L900.4,388.5 L902.3,396.6 L904.1,404.7 L906.0,412.6 L907.9,420.3 L909.8,427.9 L911.7,435.3
		L913.6,442.5 L915.5,449.5 L917.4,456.3 L919.2,463.0 L921.1,469.5 L923.0,475.9 L924.9,482.2 L926.8,488.4
		L928.7,494.6 L930.6,500.7 L932.5,506.8 L934.3,512.9 L936.2,519.1 L938.1,525.2 L940.0,531.4 L941.9,537.5
		L943.8,543.7 L945.7,549.9 L947.5,556.1 L949.4,562.2 L951.3,568.2 L953.2,574.2 L955.1,580.1 L957.0,585.8
		L958.9,591.4 L960.8,596.9 L962.6,602.1 L964.5,607.1 L966.4,611.9 L968.3,616.5 L970.2,620.8 L972.1,624.9
		L974.0,628.7 L975.9,632.2 L977.7,635.5 L979.6,638.5 L981.5,641.3 L983.4,643.8 L985.3,646.1 L987.2,648.1
		L989.1,650.0 L991.0,651.6 L992.8,653.1 L994.7,654.4 L996.6,655.6 L998.5,656.6 L1000.4,657.4 L1002.3,658.2
		L1004.2,658.9 L1006.1,659.4 L1007.9,659.9 L1009.8,660.3 L1011.7,660.7 L1013.6,661.0  '/></g>
	</g>
	<g id="gnuplot_plot_2" ><title>Confidence interval</title>
<g fill="none" color="white" stroke="rgb( 31, 120, 180)" stroke-width="1.00" stroke-linecap="butt" stroke-linejoin="miter">
</g>
<g fill="none" color="black" stroke="currentColor" stroke-width="1.00" stroke-linecap="butt" stroke-linejoin="miter">
	<g transform="translate(1089.0,85.0)" stroke="none" fill="black" font-family="Helvetica" font-size="12.00"  text-anchor="start">
		<text><tspan font-family="Helvetica" >Confidence interval</tspan></text>
	</g>
</g>
<g fill="none" color="black" stroke="currentColor" stroke-width="1.00" stroke-linecap="butt" stroke-linejoin="miter">
	<g stroke='none' shape-rendering='crispEdges'>
		<polygon fill = 'rgb( 31, 120, 180)' fill-opacity = '0.250000' points = '1038.5,85.6 1080.7,85.6 1080.7,76.6 1038.5,76.6 '/>
		<polygon fill = 'rgb( 31, 120, 180)' fill-opacity = '0.250000' points = '158.7,631.0 160.6,630.2 162.5,629.4 164.4,628.6 166.3,627.7 168.1,626.8 170.0,625.9 171.9,624.8 173.8,623.8 175.7,622.6 177.6,621.4 179.5,620.1 181.4,618.7 183.2,617.2 185.1,615.5 187.0,613.7
188.9,611.8 190.8,609.7 192.7,607.4 194.6,604.9 196.5,602.2 198.3,599.3 200.2,596.2 202.1,592.8 204.0,589.1 205.9,585.3 207.8,581.1 209.7,576.7 211.6,572.1 213.4,567.3 215.3,562.2 217.2,556.9
219.1,551.5 221.0,545.8 222.9,540.1 224.8,534.2 226.6,528.3 228.5,522.4 230.4,516.4 232.3,510.5 234.2,504.7 236.1,499.0 238.0,493.5 239.9,488.3 241.7,483.3 243.6,478.6 245.5,474.2 247.4,470.2
249.3,466.6 251.2,463.4 253.1,460.7 255.0,458.4 256.8,456.7 258.7,455.4 260.6,454.7 262.5,454.4 264.4,454.7 266.3,455.4 268.2,456.6 270.1,458.2 271.9,460.3 273.8,462.8 275.7,465.6 277.6,468.8
279.5,472.2 281.4,475.9 283.3,479.8 285.2,483.8 287.0,487.8 288.9,491.9 290.8,496.0 292.7,500.0 294.6,503.9 296.5,507.5 298.4,511.0 300.2,514.2 302.1,517.1 304.0,519.7 305.9,522.0 307.8,523.9
309.7,525.4 311.6,526.6 313.5,527.4 315.3,527.9 317.2,528.0 319.1,527.9 321.0,527.5 322.9,526.8 324.8,525.9 326.7,524.9 328.6,523.7 330.4,522.4 332.3,521.0 334.2,519.6 336.1,518.0 338.0,516.4
339.9,514.7 341.8,513.0 343.7,511.1 345.5,509.0 347.4,506.7 349.3,504.2 351.2,501.4 353.1,498.1 355.0,494.5 356.9,490.3 358.8,485.6 360.6,480.2 362.5,474.2 364.4,467.4 366.3,460.0 368.2,451.7
370.1,442.7 372.0,433.0 373.8,422.6 375.7,411.5 377.6,399.9 379.5,387.8 381.4,375.3 383.3,362.6 385.2,349.7 387.1,336.9 388.9,324.3 390.8,311.9 392.7,300.0 394.6,288.8 396.5,278.2 398.4,268.6
400.3,259.9 402.2,252.4 404.0,246.0 405.9,240.8 407.8,237.0 409.7,234.4 411.6,233.2 413.5,233.3 415.4,234.7 417.3,237.4 419.1,241.2 421.0,246.2 422.9,252.1 424.8,259.1 426.7,266.9 428.6,275.5
430.5,284.7 432.4,294.5 434.2,304.8 436.1,315.4 438.0,326.3 439.9,337.5 441.8,348.7 443.7,360.0 445.6,371.4 447.4,382.6 449.3,393.7 451.2,404.6 453.1,415.3 455.0,425.7 456.9,435.9 458.8,445.7
460.7,455.1 462.5,464.1 464.4,472.6 466.3,480.8 468.2,488.4 470.1,495.5 472.0,502.1 473.9,508.2 475.8,513.7 477.6,518.7 479.5,523.1 481.4,527.0 483.3,530.3 485.2,533.1 487.1,535.3 489.0,537.1
490.9,538.4 492.7,539.2 494.6,539.7 496.5,539.8 498.4,539.6 500.3,539.1 502.2,538.5 504.1,537.6 506.0,536.7 507.8,535.7 509.7,534.7 511.6,533.8 513.5,532.9 515.4,532.2 517.3,531.6 519.2,531.2
521.0,531.0 522.9,531.0 524.8,531.2 526.7,531.6 528.6,532.2 530.5,533.0 532.4,534.0 534.3,535.0 536.1,536.2 538.0,537.4 539.9,538.6 541.8,539.7 543.7,540.8 545.6,541.7 547.5,542.4 549.4,542.9
551.2,543.2 553.1,543.1 555.0,542.8 556.9,542.1 558.8,541.1 560.7,539.8 562.6,538.2 564.5,536.3 566.3,534.1 568.2,531.8 570.1,529.2 572.0,526.6 573.9,523.8 575.8,521.1 577.7,518.5 579.5,516.0
581.4,513.7 583.3,511.6 585.2,509.8 587.1,508.4 589.0,507.4 590.9,506.7 592.8,506.6 594.6,506.8 596.5,507.5 598.4,508.6 600.3,510.2 602.2,512.0 604.1,514.2 606.0,516.6 607.9,519.2 609.7,521.9
611.6,524.7 613.5,527.4 615.4,530.0 617.3,532.5 619.2,534.7 621.1,536.6 623.0,538.1 624.8,539.3 626.7,540.0 628.6,540.3 630.5,540.2 632.4,539.6 634.3,538.6 636.2,537.2 638.1,535.4 639.9,533.4
641.8,531.0 643.7,528.5 645.6,525.9 647.5,523.2 649.4,520.4 651.3,517.7 653.1,515.0 655.0,512.4 656.9,509.9 658.8,507.6 660.7,505.3 662.6,503.1 664.5,501.0 666.4,498.8 668.2,496.4 670.1,493.9
672.0,491.1 673.9,487.8 675.8,484.0 677.7,479.5 679.6,474.3 681.5,468.1 683.3,460.9 685.2,452.5 687.1,443.0 689.0,432.2 690.9,420.1 692.8,406.6 694.7,391.9 696.6,375.8 698.4,358.6 700.3,340.3
702.2,321.1 704.1,301.1 706.0,280.6 707.9,259.8 709.8,238.8 711.7,218.1 713.5,197.8 715.4,178.3 717.3,159.8 719.2,142.6 721.1,127.0 723.0,113.2 724.9,101.5 726.7,91.9 728.6,84.8 730.5,80.1
732.4,77.9 734.3,78.4 736.2,81.4 738.1,86.9 740.0,94.8 741.8,105.0 743.7,117.2 745.6,131.3 747.5,147.1 749.4,164.2 751.3,182.4 753.2,201.5 755.1,221.1 756.9,241.0 758.8,260.9 760.7,280.5
762.6,299.7 764.5,318.2 766.4,335.9 768.3,352.6 770.2,368.2 772.0,382.6 773.9,395.8 775.8,407.7 777.7,418.4 779.6,427.8 781.5,436.1 783.4,443.3 785.3,449.4 787.1,454.7 789.0,459.2 790.9,462.9
792.8,466.1 794.7,468.8 796.6,471.1 798.5,473.0 800.3,474.7 802.2,476.1 804.1,477.4 806.0,478.5 807.9,479.5 809.8,480.2 811.7,480.7 813.6,481.0 815.4,481.0 817.3,480.6 819.2,479.7 821.1,478.4
823.0,476.5 824.9,474.0 826.8,470.9 828.7,467.0 830.5,462.4 832.4,457.1 834.3,451.1 836.2,444.4 838.1,437.0 840.0,429.0 841.9,420.6 843.8,411.7 845.6,402.4 847.5,393.0 849.4,383.6 851.3,374.2
853.2,364.9 855.1,356.1 857.0,347.7 858.9,339.8 860.7,332.7 862.6,326.4 864.5,321.0 866.4,316.6 868.3,313.2 870.2,310.9 872.1,309.6 873.9,309.5 875.8,310.4 877.7,312.3 879.6,315.2 881.5,319.1
883.4,323.7 885.3,329.1 887.2,335.2 889.0,341.9 890.9,349.0 892.8,356.5 894.7,364.3 896.6,372.3 898.5,380.4 900.4,388.5 902.3,396.6 904.1,404.7 906.0,412.6 907.9,420.3 909.8,427.9 911.7,435.3
913.6,442.5 915.5,449.5 917.4,456.3 919.2,463.0 921.1,469.5 923.0,475.9 924.9,482.2 924.9,662.4 923.0,662.4 921.1,662.4 919.2,662.4 917.4,662.4 915.5,662.4 913.6,662.4 911.7,662.4 909.8,662.4
907.9,662.4 906.0,662.4 904.1,662.4 902.3,662.4 900.4,662.4 898.5,662.4 896.6,662.4 894.7,662.4 892.8,662.4 890.9,662.4 889.0,662.4 887.2,662.4 885.3,662.4 883.4,662.4 881.5,662.4 879.6,662.4
877.7,662.4 875.8,662.4 873.9,662.4 872.1,662.4 870.2,662.4 868.3,662.4 866.4,662.4 864.5,662.4 862.6,662.4 860.7,662.4 858.9,662.4 857.0,662.4 855.1,662.4 853.2,662.4 851.3,662.4 849.4,662.4
847.5,662.4 845.6,662.4 843.8,662.4 841.9,662.4 840.0,662.4 838.1,662.4 836.2,662.4 834.3,662.4 832.4,662.4 830.5,662.4 828.7,662.4 826.8,662.4 824.9,662.4 823.0,662.4 821.1,662.4 819.2,662.4
817.3,662.4 815.4,662.4 813.6,662.4 811.7,662.4 809.8,662.4 807.9,662.4 806.0,662.4 804.1,662.4 802.2,662.4 800.3,662.4 798.5,662.4 796.6,662.4 794.7,662.4 792.8,662.4 790.9,662.4 789.0,662.4
787.1,662.4 785.3,662.4 783.4,662.4 781.5,662.4 779.6,662.4 777.7,662.4 775.8,662.4 773.9,662.4 772.0,662.4 770.2,662.4 768.3,662.4 766.4,662.4 764.5,662.4 762.6,662.4 760.7,662.4 758.8,662.4
756.9,662.4 755.1,662.4 753.2,662.4 751.3,662.4 749.4,662.4 747.5,662.4 745.6,662.4 743.7,662.4 741.8,662.4 740.0,662.4 738.1,662.4 736.2,662.4 734.3,662.4 732.4,662.4 730.5,662.4 728.6,662.4
726.7,662.4 724.9,662.4 723.0,662.4 721.1,662.4 719.2,662.4 717.3,662.4 715.4,662.4 713.5,662.4 711.7,662.4 709.8,662.4 707.9,662.4 706.0,662.4 704.1,662.4 702.2,662.4 700.3,662.4 698.4,662.4
696.6,662.4 694.7,662.4 692.8,662.4 690.9,662.4 689.0,662.4 687.1,662.4 685.2,662.4 683.3,662.4 681.5,662.4 679.6,662.4 677.7,662.4 675.8,662.4 673.9,662.4 672.0,662.4 670.1,662.4 668.2,662.4
666.4,662.4 664.5,662.4 662.6,662.4 660.7,662.4 658.8,662.4 656.9,662.4 655.0,662.4 653.1,662.4 651.3,662.4 649.4,662.4 647.5,662.4 645.6,662.4 643.7,662.4 641.8,662.4 639.9,662.4 638.1,662.4
636.2,662.4 634.3,662.4 632.4,662.4 630.5,662.4 628.6,662.4 626.7,662.4 624.8,662.4 623.0,662.4 621.1,662.4 619.2,662.4 617.3,662.4 615.4,662.4 613.5,662.4 611.6,662.4 609.7,662.4 607.9,662.4
606.0,662.4 604.1,662.4 602.2,662.4 600.3,662.4 598.4,662.4 596.5,662.4 594.6,662.4 592.8,662.4 590.9,662.4 589.0,662.4 587.1,662.4 585.2,662.4 583.3,662.4 581.4,662.4 579.5,662.4 577.7,662.4
575.8,662.4 573.9,662.4 572.0,662.4 570.1,662.4 568.2,662.4 566.3,662.4 564.5,662.4 562.6,662.4 560.7,662.4 558.8,662.4 556.9,662.4 555.0,662.4 553.1,662.4 551.2,662.4 549.4,662.4 547.5,662.4
545.6,662.4 543.7,662.4 541.8,662.4 539.9,662.4 538.0,662.4 536.1,662.4 534.3,662.4 532.4,662.4 530.5,662.4 528.6,662.4 526.7,662.4 524.8,662.4 522.9,662.4 521.0,662.4 519.2,662.4 517.3,662.4
515.4,662.4 513.5,662.4 511.6,662.4 509.7,662.4 507.8,662.4 506.0,662.4 504.1,662.4 502.2,662.4 500.3,662.4 498.4,662.4 496.5,662.4 494.6,662.4 492.7,662.4 490.9,662.4 489.0,662.4 487.1,662.4
485.2,662.4 483.3,662.4 481.4,662.4 479.5,662.4 477.6,662.4 475.8,662.4 473.9,662.4 472.0,662.4 470.1,662.4 468.2,662.4 466.3,662.4 464.4,662.4 462.5,662.4 460.7,662.4 458.8,662.4 456.9,662.4
455.0,662.4 453.1,662.4 451.2,662.4 449.3,662.4 447.4,662.4 445.6,662.4 443.7,662.4 441.8,662.4 439.9,662.4 438.0,662.4 436.1,662.4 434.2,662.4 432.4,662.4 430.5,662.4 428.6,662.4 426.7,662.4
424.8,662.4 422.9,662.4 421.0,662.4 419.1,662.4 417.3,662.4 415.4,662.4 413.5,662.4 411.6,662.4 409.7,662.4 407.8,662.4 405.9,662.4 404.0,662.4 402.2,662.4 400.3,662.4 398.4,662.4 396.5,662.4
394.6,662.4 392.7,662.4 390.8,662.4 388.9,662.4 387.1,662.4 385.2,662.4 383.3,662.4 381.4,662.4 379.5,662.4 377.6,662.4 375.7,662.4 373.8,662.4 372.0,662.4 370.1,662.4 368.2,662.4 366.3,662.4
364.4,662.4 362.5,662.4 360.6,662.4 358.8,662.4 356.9,662.4 355.0,662.4 353.1,662.4 351.2,662.4 349.3,662.4 347.4,662.4 345.5,662.4 343.7,662.4 341.8,662.4 339.9,662.4 338.0,662.4 336.1,662.4
334.2,662.4 332.3,662.4 330.4,662.4 328.6,662.4 326.7,662.4 324.8,662.4 322.9,662.4 321.0,662.4 319.1,662.4 317.2,662.4 315.3,662.4 313.5,662.4 311.6,662.4 309.7,662.4 307.8,662.4 305.9,662.4
304.0,662.4 302.1,662.4 300.2,662.4 298.4,662.4 296.5,662.4 294.6,662.4 292.7,662.4 290.8,662.4 288.9,662.4 287.0,662.4 285.2,662.4 283.3,662.4 281.4,662.4 279.5,662.4 277.6,662.4 275.7,662.4
273.8,662.4 271.9,662.4 270.1,662.4 268.2,662.4 266.3,662.4 264.4,662.4 262.5,662.4 260.6,662.4 258.7,662.4 256.8,662.4 255.0,662.4 253.1,662.4 251.2,662.4 249.3,662.4 247.4,662.4 245.5,662.4
243.6,662.4 241.7,662.4 239.9,662.4 238.0,662.4 236.1,662.4 234.2,662.4 232.3,662.4 230.4,662.4 228.5,662.4 226.6,662.4 224.8,662.4 222.9,662.4 221.0,662.4 219.1,662.4 217.2,662.4 215.3,662.4
213.4,662.4 211.6,662.4 209.7,662.4 207.8,662.4 205.9,662.4 204.0,662.4 202.1,662.4 200.2,662.4 198.3,662.4 196.5,662.4 194.6,662.4 192.7,662.4 190.8,662.4 188.9,662.4 187.0,662.4 185.1,662.4
183.2,662.4 181.4,662.4 179.5,662.4 177.6,662.4 175.7,662.4 173.8,662.4 171.9,662.4 170.0,662.4 168.1,662.4 166.3,662.4 164.4,662.4 162.5,662.4 160.6,662.4 158.7,662.4 '/>
	</g>
</g>
	</g>
	<g id="gnuplot_plot_3" ><title>Point estimate</title>
<g fill="none" color="white" stroke="rgb( 31, 120, 180)" stroke-width="2.00" stroke-linecap="butt" stroke-linejoin="miter">
</g>
<g fill="none" color="black" stroke="currentColor" stroke-width="2.00" stroke-linecap="butt" stroke-linejoin="miter">
	<g transform="translate(1089.0,103.0)" stroke="none" fill="black" font-family="Helvetica" font-size="12.00"  text-anchor="start">
		<text><tspan font-family="Helvetica" >Point estimate</tspan></text>
	</g>
</g>
<g fill="none" color="black" stroke="currentColor" stroke-width="2.00" stroke-linecap="butt" stroke-linejoin="miter">
	<path stroke='rgb( 31, 120, 180)'  d='M1038.5,99.1 L1080.7,99.1 M658.4,662.4 L658.4,508.1  '/></g>
	</g>
	<g id="gnuplot_plot_4" ><title>Noise threshold</title>
<g fill="none" color="white" stroke="rgb( 31, 120, 180)" stroke-width="1.00" stroke-linecap="butt" stroke-linejoin="miter">
</g>
<g fill="none" color="black" stroke="currentColor" stroke-width="1.00" stroke-linecap="butt" stroke-linejoin="miter">
	<g transform="translate(1089.0,121.0)" stroke="none" fill="black" font-family="Helvetica" font-size="12.00"  text-anchor="start">
		<text><tspan font-family="Helvetica" >Noise threshold</tspan></text>
	</g>
</g>
<g fill="none" color="black" stroke="currentColor" stroke-width="1.00" stroke-linecap="butt" stroke-linejoin="miter">
	<g stroke='none' shape-rendering='crispEdges'>
		<polygon fill = 'rgb(227,  26,  28)' fill-opacity = '0.100000' points = '1038.5,121.6 1080.7,121.6 1080.7,112.6 1038.5,112.6 '/>
		<polygon fill = 'rgb(227,  26,  28)' fill-opacity = '0.100000' points = '693.5,54.1 1013.6,54.1 1013.6,662.4 693.5,662.4 '/>
	</g>
</g>
	</g>
<g fill="none" color="white" stroke="rgb(227,  26,  28)" stroke-width="2.00" stroke-linecap="butt" stroke-linejoin="miter">
</g>
<g fill="none" color="black" stroke="currentColor" stroke-width="2.00" stroke-linecap="butt" stroke-linejoin="miter">
</g>
<g fill="none" color="black" stroke="black" stroke-width="1.00" stroke-linecap="butt" stroke-linejoin="miter">
</g>
<g fill="none" color="black" stroke="currentColor" stroke-width="1.00" stroke-linecap="butt" stroke-linejoin="miter">
	<path stroke='black'  d='M71.9,54.1 L71.9,662.4 L1013.6,662.4 L1013.6,54.1 L71.9,54.1 Z  '/></g>
<g fill="none" color="black" stroke="currentColor" stroke-width="1.00" stroke-linecap="butt" stroke-linejoin="miter">
</g>
</g>
</svg>

