<?xml version="1.0" encoding="utf-8"  standalone="no"?>
<svg 
 viewBox="0 0 450 300"
 xmlns="http://www.w3.org/2000/svg"
 xmlns:xlink="http://www.w3.org/1999/xlink"
>

<title>Gnuplot</title>
<desc>Produced by GNUPLOT 5.2 patchlevel 6 </desc>

<g id="gnuplot_canvas">

<rect x="0" y="0" width="450" height="300" fill="none"/>
<defs>

	<circle id='gpDot' r='0.5' stroke-width='0.5' stroke='currentColor'/>
	<path id='gpPt0' stroke-width='0.222' stroke='currentColor' d='M-1,0 h2 M0,-1 v2'/>
	<path id='gpPt1' stroke-width='0.222' stroke='currentColor' d='M-1,-1 L1,1 M1,-1 L-1,1'/>
	<path id='gpPt2' stroke-width='0.222' stroke='currentColor' d='M-1,0 L1,0 M0,-1 L0,1 M-1,-1 L1,1 M-1,1 L1,-1'/>
	<rect id='gpPt3' stroke-width='0.222' stroke='currentColor' x='-1' y='-1' width='2' height='2'/>
	<rect id='gpPt4' stroke-width='0.222' stroke='currentColor' fill='currentColor' x='-1' y='-1' width='2' height='2'/>
	<circle id='gpPt5' stroke-width='0.222' stroke='currentColor' cx='0' cy='0' r='1'/>
	<use xlink:href='#gpPt5' id='gpPt6' fill='currentColor' stroke='none'/>
	<path id='gpPt7' stroke-width='0.222' stroke='currentColor' d='M0,-1.33 L-1.33,0.67 L1.33,0.67 z'/>
	<use xlink:href='#gpPt7' id='gpPt8' fill='currentColor' stroke='none'/>
	<use xlink:href='#gpPt7' id='gpPt9' stroke='currentColor' transform='rotate(180)'/>
	<use xlink:href='#gpPt9' id='gpPt10' fill='currentColor' stroke='none'/>
	<use xlink:href='#gpPt3' id='gpPt11' stroke='currentColor' transform='rotate(45)'/>
	<use xlink:href='#gpPt11' id='gpPt12' fill='currentColor' stroke='none'/>
	<path id='gpPt13' stroke-width='0.222' stroke='currentColor' d='M0,1.330 L1.265,0.411 L0.782,-1.067 L-0.782,-1.076 L-1.265,0.411 z'/>
	<use xlink:href='#gpPt13' id='gpPt14' fill='currentColor' stroke='none'/>
	<filter id='textbox' filterUnits='objectBoundingBox' x='0' y='0' height='1' width='1'>
	  <feFlood flood-color='white' flood-opacity='1' result='bgnd'/>
	  <feComposite in='SourceGraphic' in2='bgnd' operator='atop'/>
	</filter>
	<filter id='greybox' filterUnits='objectBoundingBox' x='0' y='0' height='1' width='1'>
	  <feFlood flood-color='lightgrey' flood-opacity='1' result='grey'/>
	  <feComposite in='SourceGraphic' in2='grey' operator='atop'/>
	</filter>
</defs>
<g fill="none" color="white" stroke="currentColor" stroke-width="1.00" stroke-linecap="butt" stroke-linejoin="miter">
</g>
<g fill="none" color="black" stroke="currentColor" stroke-width="1.00" stroke-linecap="butt" stroke-linejoin="miter">
	<path stroke='black'  d='M80.2,242.4 L89.2,242.4  '/>	<g transform="translate(71.9,246.3)" stroke="none" fill="black" font-family="Helvetica" font-size="12.00"  text-anchor="end">
		<text><tspan font-family="Helvetica" > 0</tspan></text>
	</g>
</g>
<g fill="none" color="black" stroke="currentColor" stroke-width="1.00" stroke-linecap="butt" stroke-linejoin="miter">
	<path stroke='black'  d='M80.2,206.7 L89.2,206.7  '/>	<g transform="translate(71.9,210.6)" stroke="none" fill="black" font-family="Helvetica" font-size="12.00"  text-anchor="end">
		<text><tspan font-family="Helvetica" > 0.05</tspan></text>
	</g>
</g>
<g fill="none" color="black" stroke="currentColor" stroke-width="1.00" stroke-linecap="butt" stroke-linejoin="miter">
	<path stroke='black'  d='M80.2,170.9 L89.2,170.9  '/>	<g transform="translate(71.9,174.8)" stroke="none" fill="black" font-family="Helvetica" font-size="12.00"  text-anchor="end">
		<text><tspan font-family="Helvetica" > 0.1</tspan></text>
	</g>
</g>
<g fill="none" color="black" stroke="currentColor" stroke-width="1.00" stroke-linecap="butt" stroke-linejoin="miter">
	<path stroke='black'  d='M80.2,135.2 L89.2,135.2  '/>	<g transform="translate(71.9,139.1)" stroke="none" fill="black" font-family="Helvetica" font-size="12.00"  text-anchor="end">
		<text><tspan font-family="Helvetica" > 0.15</tspan></text>
	</g>
</g>
<g fill="none" color="black" stroke="currentColor" stroke-width="1.00" stroke-linecap="butt" stroke-linejoin="miter">
	<path stroke='black'  d='M80.2,99.5 L89.2,99.5  '/>	<g transform="translate(71.9,103.4)" stroke="none" fill="black" font-family="Helvetica" font-size="12.00"  text-anchor="end">
		<text><tspan font-family="Helvetica" > 0.2</tspan></text>
	</g>
</g>
<g fill="none" color="black" stroke="currentColor" stroke-width="1.00" stroke-linecap="butt" stroke-linejoin="miter">
	<path stroke='black'  d='M80.2,63.7 L89.2,63.7  '/>	<g transform="translate(71.9,67.6)" stroke="none" fill="black" font-family="Helvetica" font-size="12.00"  text-anchor="end">
		<text><tspan font-family="Helvetica" > 0.25</tspan></text>
	</g>
</g>
<g fill="none" color="black" stroke="currentColor" stroke-width="1.00" stroke-linecap="butt" stroke-linejoin="miter">
	<path stroke='black'  d='M80.2,28.0 L89.2,28.0  '/>	<g transform="translate(71.9,31.9)" stroke="none" fill="black" font-family="Helvetica" font-size="12.00"  text-anchor="end">
		<text><tspan font-family="Helvetica" > 0.3</tspan></text>
	</g>
</g>
<g fill="none" color="black" stroke="currentColor" stroke-width="1.00" stroke-linecap="butt" stroke-linejoin="miter">
	<path stroke='black'  d='M94.1,242.4 L94.1,233.4  '/>	<g transform="translate(94.1,264.3)" stroke="none" fill="black" font-family="Helvetica" font-size="12.00"  text-anchor="middle">
		<text><tspan font-family="Helvetica" > 50</tspan></text>
	</g>
</g>
<g fill="none" color="black" stroke="currentColor" stroke-width="1.00" stroke-linecap="butt" stroke-linejoin="miter">
	<path stroke='black'  d='M140.5,242.4 L140.5,233.4  '/>	<g transform="translate(140.5,264.3)" stroke="none" fill="black" font-family="Helvetica" font-size="12.00"  text-anchor="middle">
		<text><tspan font-family="Helvetica" > 55</tspan></text>
	</g>
</g>
<g fill="none" color="black" stroke="currentColor" stroke-width="1.00" stroke-linecap="butt" stroke-linejoin="miter">
	<path stroke='black'  d='M187.0,242.4 L187.0,233.4  '/>	<g transform="translate(187.0,264.3)" stroke="none" fill="black" font-family="Helvetica" font-size="12.00"  text-anchor="middle">
		<text><tspan font-family="Helvetica" > 60</tspan></text>
	</g>
</g>
<g fill="none" color="black" stroke="currentColor" stroke-width="1.00" stroke-linecap="butt" stroke-linejoin="miter">
	<path stroke='black'  d='M233.4,242.4 L233.4,233.4  '/>	<g transform="translate(233.4,264.3)" stroke="none" fill="black" font-family="Helvetica" font-size="12.00"  text-anchor="middle">
		<text><tspan font-family="Helvetica" > 65</tspan></text>
	</g>
</g>
<g fill="none" color="black" stroke="currentColor" stroke-width="1.00" stroke-linecap="butt" stroke-linejoin="miter">
	<path stroke='black'  d='M279.9,242.4 L279.9,233.4  '/>	<g transform="translate(279.9,264.3)" stroke="none" fill="black" font-family="Helvetica" font-size="12.00"  text-anchor="middle">
		<text><tspan font-family="Helvetica" > 70</tspan></text>
	</g>
</g>
<g fill="none" color="black" stroke="currentColor" stroke-width="1.00" stroke-linecap="butt" stroke-linejoin="miter">
	<path stroke='black'  d='M326.4,242.4 L326.4,233.4  '/>	<g transform="translate(326.4,264.3)" stroke="none" fill="black" font-family="Helvetica" font-size="12.00"  text-anchor="middle">
		<text><tspan font-family="Helvetica" > 75</tspan></text>
	</g>
</g>
<g fill="none" color="black" stroke="currentColor" stroke-width="1.00" stroke-linecap="butt" stroke-linejoin="miter">
	<path stroke='black'  d='M372.8,242.4 L372.8,233.4  '/>	<g transform="translate(372.8,264.3)" stroke="none" fill="black" font-family="Helvetica" font-size="12.00"  text-anchor="middle">
		<text><tspan font-family="Helvetica" > 80</tspan></text>
	</g>
</g>
<g fill="none" color="black" stroke="currentColor" stroke-width="1.00" stroke-linecap="butt" stroke-linejoin="miter">
	<path stroke='black'  d='M419.3,242.4 L419.3,233.4  '/>	<g transform="translate(419.3,264.3)" stroke="none" fill="black" font-family="Helvetica" font-size="12.00"  text-anchor="middle">
		<text><tspan font-family="Helvetica" > 85</tspan></text>
	</g>
</g>
<g fill="none" color="black" stroke="currentColor" stroke-width="1.00" stroke-linecap="butt" stroke-linejoin="miter">
</g>
<g fill="none" color="black" stroke="currentColor" stroke-width="1.00" stroke-linecap="butt" stroke-linejoin="miter">
	<path stroke='black'  d='M80.2,18.1 L80.2,242.4 L425.0,242.4 L425.0,18.1 L80.2,18.1 Z  '/></g>
<g fill="none" color="black" stroke="currentColor" stroke-width="1.00" stroke-linecap="butt" stroke-linejoin="miter">
	<g transform="translate(16.3,130.3) rotate(270)" stroke="none" fill="black" font-family="Helvetica" font-size="12.00"  text-anchor="middle">
		<text><tspan font-family="Helvetica" >Density (a.u.)</tspan></text>
	</g>
</g>
<g fill="none" color="black" stroke="currentColor" stroke-width="1.00" stroke-linecap="butt" stroke-linejoin="miter">
	<g transform="translate(252.6,291.3)" stroke="none" fill="black" font-family="Helvetica" font-size="12.00"  text-anchor="middle">
		<text><tspan font-family="Helvetica" >Average time (us)</tspan></text>
	</g>
</g>
<g fill="none" color="black" stroke="currentColor" stroke-width="1.00" stroke-linecap="butt" stroke-linejoin="miter">
</g>
	<g id="gnuplot_plot_1" ><title>PDF</title>
<g fill="none" color="black" stroke="currentColor" stroke-width="1.00" stroke-linecap="butt" stroke-linejoin="miter">
	<g stroke='none' shape-rendering='crispEdges'>
		<polygon fill = 'rgb( 31, 120, 180)' fill-opacity = '0.250000' points = '80.2,240.6 80.9,240.3 81.6,239.9 82.3,239.4 83.0,238.9 83.7,238.3 84.3,237.6 85.0,236.8 85.7,235.9 86.4,234.8 87.1,233.6 87.8,232.3 88.5,230.8 89.2,229.1 89.9,227.2 90.6,225.1
91.3,222.8 91.9,220.2 92.6,217.4 93.3,214.3 94.0,210.9 94.7,207.2 95.4,203.3 96.1,199.0 96.8,194.4 97.5,189.5 98.2,184.2 98.9,178.7 99.5,172.9 100.2,166.7 100.9,160.3 101.6,153.6
102.3,146.7 103.0,139.5 103.7,132.2 104.4,124.8 105.1,117.2 105.8,109.6 106.5,101.9 107.1,94.3 107.8,86.8 108.5,79.4 109.2,72.2 109.9,65.2 110.6,58.5 111.3,52.2 112.0,46.3 112.7,40.8
113.4,35.8 114.1,31.4 114.7,27.6 115.4,24.4 116.1,21.8 116.8,19.9 117.5,18.6 118.2,18.1 118.9,18.3 119.6,19.1 120.3,20.6 121.0,22.9 121.7,25.7 122.3,29.2 123.0,33.2 123.7,37.8
124.4,42.9 125.1,48.5 125.8,54.4 126.5,60.8 127.2,67.4 127.9,74.3 128.6,81.4 129.3,88.6 130.0,95.9 130.6,103.3 131.3,110.7 132.0,118.0 132.7,125.2 133.4,132.3 134.1,139.3 134.8,146.0
135.5,152.6 136.2,158.9 136.9,164.9 137.6,170.7 138.2,176.2 138.9,181.4 139.6,186.3 140.3,190.9 141.0,195.2 141.7,199.2 142.4,203.0 143.1,206.5 143.8,209.7 144.5,212.6 145.2,215.3 145.8,217.8
146.5,220.1 147.2,222.1 147.9,224.0 148.6,225.7 149.3,227.2 150.0,228.6 150.7,229.9 151.4,231.0 152.1,232.0 152.8,232.9 153.4,233.7 154.1,234.4 154.8,235.0 155.5,235.6 156.2,236.1 156.9,236.5
157.6,236.9 158.3,237.3 159.0,237.6 159.7,237.8 160.4,238.1 161.0,238.3 161.7,238.5 162.4,238.6 163.1,238.7 163.8,238.8 164.5,238.9 165.2,239.0 165.9,239.1 166.6,239.1 167.3,239.2 168.0,239.2
168.6,239.2 169.3,239.3 170.0,239.3 170.7,239.3 171.4,239.3 172.1,239.3 172.8,239.3 173.5,239.3 174.2,239.3 174.9,239.3 175.6,239.3 176.2,239.3 176.9,239.3 177.6,239.3 178.3,239.3 179.0,239.3
179.7,239.3 180.4,239.3 181.1,239.3 181.8,239.3 182.5,239.3 183.2,239.3 183.8,239.3 184.5,239.4 185.2,239.4 185.9,239.4 186.6,239.4 187.3,239.4 188.0,239.4 188.7,239.4 189.4,239.4 190.1,239.4
190.8,239.4 191.4,239.4 192.1,239.4 192.8,239.4 193.5,239.4 194.2,239.5 194.9,239.5 195.6,239.5 196.3,239.5 197.0,239.6 197.7,239.6 198.4,239.6 199.0,239.7 199.7,239.7 200.4,239.8 201.1,239.8
201.8,239.9 202.5,240.0 203.2,240.0 203.9,240.1 204.6,240.2 205.3,240.3 206.0,240.4 206.6,240.4 207.3,240.5 208.0,240.6 208.7,240.7 209.4,240.8 210.1,240.9 210.8,241.0 211.5,241.1 212.2,241.1
212.9,241.2 213.6,241.3 214.3,241.4 214.9,241.5 215.6,241.5 216.3,241.6 217.0,241.7 217.7,241.7 218.4,241.8 219.1,241.8 219.8,241.9 220.5,242.0 221.2,242.0 221.9,242.0 222.5,242.1 223.2,242.1
223.9,242.1 224.6,242.2 225.3,242.2 226.0,242.2 226.7,242.2 227.4,242.3 228.1,242.3 228.8,242.3 229.5,242.3 230.1,242.3 230.8,242.3 231.5,242.3 232.2,242.4 232.9,242.4 233.6,242.4 234.3,242.4
235.0,242.4 235.7,242.4 236.4,242.4 237.1,242.4 237.7,242.4 238.4,242.4 239.1,242.4 239.8,242.4 240.5,242.4 241.2,242.4 241.9,242.4 242.6,242.4 243.3,242.4 244.0,242.4 244.7,242.4 245.3,242.4
246.0,242.4 246.7,242.4 247.4,242.4 248.1,242.4 248.8,242.4 249.5,242.4 250.2,242.4 250.9,242.4 251.6,242.4 252.3,242.4 252.9,242.4 253.6,242.4 254.3,242.4 255.0,242.4 255.7,242.4 256.4,242.4
257.1,242.4 257.8,242.4 258.5,242.4 259.2,242.4 259.9,242.4 260.5,242.4 261.2,242.4 261.9,242.4 262.6,242.4 263.3,242.4 264.0,242.4 264.7,242.4 265.4,242.4 266.1,242.4 266.8,242.4 267.5,242.4
268.1,242.4 268.8,242.4 269.5,242.4 270.2,242.4 270.9,242.4 271.6,242.4 272.3,242.4 273.0,242.4 273.7,242.4 274.4,242.4 275.1,242.4 275.7,242.4 276.4,242.4 277.1,242.4 277.8,242.4 278.5,242.4
279.2,242.4 279.9,242.4 280.6,242.4 281.3,242.4 282.0,242.4 282.7,242.4 283.3,242.4 284.0,242.4 284.7,242.4 285.4,242.4 286.1,242.4 286.8,242.4 287.5,242.4 288.2,242.4 288.9,242.4 289.6,242.4
290.3,242.4 290.9,242.4 291.6,242.4 292.3,242.4 293.0,242.4 293.7,242.4 294.4,242.4 295.1,242.4 295.8,242.4 296.5,242.4 297.2,242.4 297.9,242.4 298.6,242.4 299.2,242.4 299.9,242.4 300.6,242.4
301.3,242.4 302.0,242.4 302.7,242.4 303.4,242.4 304.1,242.4 304.8,242.4 305.5,242.4 306.2,242.4 306.8,242.4 307.5,242.4 308.2,242.4 308.9,242.4 309.6,242.4 310.3,242.4 311.0,242.4 311.7,242.4
312.4,242.4 313.1,242.4 313.8,242.4 314.4,242.4 315.1,242.4 315.8,242.4 316.5,242.4 317.2,242.4 317.9,242.4 318.6,242.4 319.3,242.4 320.0,242.4 320.7,242.4 321.4,242.4 322.0,242.4 322.7,242.4
323.4,242.4 324.1,242.4 324.8,242.4 325.5,242.4 326.2,242.4 326.9,242.4 327.6,242.4 328.3,242.4 329.0,242.4 329.6,242.4 330.3,242.4 331.0,242.4 331.7,242.4 332.4,242.4 333.1,242.4 333.8,242.4
334.5,242.4 335.2,242.4 335.9,242.4 336.6,242.4 337.2,242.4 337.9,242.4 338.6,242.4 339.3,242.4 340.0,242.4 340.7,242.4 341.4,242.4 342.1,242.4 342.8,242.4 343.5,242.4 344.2,242.4 344.8,242.4
345.5,242.4 346.2,242.4 346.9,242.4 347.6,242.4 348.3,242.4 349.0,242.4 349.7,242.4 350.4,242.4 351.1,242.4 351.8,242.4 352.4,242.4 353.1,242.4 353.8,242.4 354.5,242.4 355.2,242.3 355.9,242.3
356.6,242.3 357.3,242.3 358.0,242.3 358.7,242.3 359.4,242.3 360.0,242.2 360.7,242.2 361.4,242.2 362.1,242.2 362.8,242.1 363.5,242.1 364.2,242.1 364.9,242.0 365.6,242.0 366.3,242.0 367.0,241.9
367.6,241.9 368.3,241.8 369.0,241.7 369.7,241.7 370.4,241.6 371.1,241.5 371.8,241.5 372.5,241.4 373.2,241.3 373.9,241.2 374.6,241.2 375.2,241.1 375.9,241.0 376.6,240.9 377.3,240.8 378.0,240.8
378.7,240.7 379.4,240.6 380.1,240.5 380.8,240.4 381.5,240.4 382.2,240.3 382.9,240.3 383.5,240.2 384.2,240.1 384.9,240.1 385.6,240.1 386.3,240.0 387.0,240.0 387.7,240.0 388.4,240.0 389.1,240.0
389.8,240.0 390.5,240.0 391.1,240.1 391.8,240.1 392.5,240.1 393.2,240.2 393.9,240.2 394.6,240.3 395.3,240.3 396.0,240.4 396.7,240.5 397.4,240.6 398.1,240.6 398.7,240.7 399.4,240.8 400.1,240.9
400.8,241.0 401.5,241.0 402.2,241.1 402.9,241.2 403.6,241.3 404.3,241.4 405.0,241.4 405.7,241.5 406.3,241.6 407.0,241.6 407.7,241.7 408.4,241.8 409.1,241.8 409.8,241.9 410.5,241.9 411.2,242.0
411.9,242.0 412.6,242.1 413.3,242.1 413.9,242.1 414.6,242.2 415.3,242.2 416.0,242.2 416.7,242.2 417.4,242.3 418.1,242.3 418.8,242.3 419.5,242.3 420.2,242.3 420.9,242.3 421.5,242.3 422.2,242.3
422.9,242.4 423.6,242.4 424.3,242.4 425.0,242.4 425.0,242.4 424.3,242.4 423.6,242.4 422.9,242.4 422.2,242.4 421.5,242.4 420.9,242.4 420.2,242.4 419.5,242.4 418.8,242.4 418.1,242.4 417.4,242.4
416.7,242.4 416.0,242.4 415.3,242.4 414.6,242.4 413.9,242.4 413.3,242.4 412.6,242.4 411.9,242.4 411.2,242.4 410.5,242.4 409.8,242.4 409.1,242.4 408.4,242.4 407.7,242.4 407.0,242.4 406.3,242.4
405.7,242.4 405.0,242.4 404.3,242.4 403.6,242.4 402.9,242.4 402.2,242.4 401.5,242.4 400.8,242.4 400.1,242.4 399.4,242.4 398.7,242.4 398.1,242.4 397.4,242.4 396.7,242.4 396.0,242.4 395.3,242.4
394.6,242.4 393.9,242.4 393.2,242.4 392.5,242.4 391.8,242.4 391.1,242.4 390.5,242.4 389.8,242.4 389.1,242.4 388.4,242.4 387.7,242.4 387.0,242.4 386.3,242.4 385.6,242.4 384.9,242.4 384.2,242.4
383.5,242.4 382.9,242.4 382.2,242.4 381.5,242.4 380.8,242.4 380.1,242.4 379.4,242.4 378.7,242.4 378.0,242.4 377.3,242.4 376.6,242.4 375.9,242.4 375.2,242.4 374.6,242.4 373.9,242.4 373.2,242.4
372.5,242.4 371.8,242.4 371.1,242.4 370.4,242.4 369.7,242.4 369.0,242.4 368.3,242.4 367.6,242.4 367.0,242.4 366.3,242.4 365.6,242.4 364.9,242.4 364.2,242.4 363.5,242.4 362.8,242.4 362.1,242.4
361.4,242.4 360.7,242.4 360.0,242.4 359.4,242.4 358.7,242.4 358.0,242.4 357.3,242.4 356.6,242.4 355.9,242.4 355.2,242.4 354.5,242.4 353.8,242.4 353.1,242.4 352.4,242.4 351.8,242.4 351.1,242.4
350.4,242.4 349.7,242.4 349.0,242.4 348.3,242.4 347.6,242.4 346.9,242.4 346.2,242.4 345.5,242.4 344.8,242.4 344.2,242.4 343.5,242.4 342.8,242.4 342.1,242.4 341.4,242.4 340.7,242.4 340.0,242.4
339.3,242.4 338.6,242.4 337.9,242.4 337.2,242.4 336.6,242.4 335.9,242.4 335.2,242.4 334.5,242.4 333.8,242.4 333.1,242.4 332.4,242.4 331.7,242.4 331.0,242.4 330.3,242.4 329.6,242.4 329.0,242.4
328.3,242.4 327.6,242.4 326.9,242.4 326.2,242.4 325.5,242.4 324.8,242.4 324.1,242.4 323.4,242.4 322.7,242.4 322.0,242.4 321.4,242.4 320.7,242.4 320.0,242.4 319.3,242.4 318.6,242.4 317.9,242.4
317.2,242.4 316.5,242.4 315.8,242.4 315.1,242.4 314.4,242.4 313.8,242.4 313.1,242.4 312.4,242.4 311.7,242.4 311.0,242.4 310.3,242.4 309.6,242.4 308.9,242.4 308.2,242.4 307.5,242.4 306.8,242.4
306.2,242.4 305.5,242.4 304.8,242.4 304.1,242.4 303.4,242.4 302.7,242.4 302.0,242.4 301.3,242.4 300.6,242.4 299.9,242.4 299.2,242.4 298.6,242.4 297.9,242.4 297.2,242.4 296.5,242.4 295.8,242.4
295.1,242.4 294.4,242.4 293.7,242.4 293.0,242.4 292.3,242.4 291.6,242.4 290.9,242.4 290.3,242.4 289.6,242.4 288.9,242.4 288.2,242.4 287.5,242.4 286.8,242.4 286.1,242.4 285.4,242.4 284.7,242.4
284.0,242.4 283.3,242.4 282.7,242.4 282.0,242.4 281.3,242.4 280.6,242.4 279.9,242.4 279.2,242.4 278.5,242.4 277.8,242.4 277.1,242.4 276.4,242.4 275.7,242.4 275.1,242.4 274.4,242.4 273.7,242.4
273.0,242.4 272.3,242.4 271.6,242.4 270.9,242.4 270.2,242.4 269.5,242.4 268.8,242.4 268.1,242.4 267.5,242.4 266.8,242.4 266.1,242.4 265.4,242.4 264.7,242.4 264.0,242.4 263.3,242.4 262.6,242.4
261.9,242.4 261.2,242.4 260.5,242.4 259.9,242.4 259.2,242.4 258.5,242.4 257.8,242.4 257.1,242.4 256.4,242.4 255.7,242.4 255.0,242.4 254.3,242.4 253.6,242.4 252.9,242.4 252.3,242.4 251.6,242.4
250.9,242.4 250.2,242.4 249.5,242.4 248.8,242.4 248.1,242.4 247.4,242.4 246.7,242.4 246.0,242.4 245.3,242.4 244.7,242.4 244.0,242.4 243.3,242.4 242.6,242.4 241.9,242.4 241.2,242.4 240.5,242.4
239.8,242.4 239.1,242.4 238.4,242.4 237.7,242.4 237.1,242.4 236.4,242.4 235.7,242.4 235.0,242.4 234.3,242.4 233.6,242.4 232.9,242.4 232.2,242.4 231.5,242.4 230.8,242.4 230.1,242.4 229.5,242.4
228.8,242.4 228.1,242.4 227.4,242.4 226.7,242.4 226.0,242.4 225.3,242.4 224.6,242.4 223.9,242.4 223.2,242.4 222.5,242.4 221.9,242.4 221.2,242.4 220.5,242.4 219.8,242.4 219.1,242.4 218.4,242.4
217.7,242.4 217.0,242.4 216.3,242.4 215.6,242.4 214.9,242.4 214.3,242.4 213.6,242.4 212.9,242.4 212.2,242.4 211.5,242.4 210.8,242.4 210.1,242.4 209.4,242.4 208.7,242.4 208.0,242.4 207.3,242.4
206.6,242.4 206.0,242.4 205.3,242.4 204.6,242.4 203.9,242.4 203.2,242.4 202.5,242.4 201.8,242.4 201.1,242.4 200.4,242.4 199.7,242.4 199.0,242.4 198.4,242.4 197.7,242.4 197.0,242.4 196.3,242.4
195.6,242.4 194.9,242.4 194.2,242.4 193.5,242.4 192.8,242.4 192.1,242.4 191.4,242.4 190.8,242.4 190.1,242.4 189.4,242.4 188.7,242.4 188.0,242.4 187.3,242.4 186.6,242.4 185.9,242.4 185.2,242.4
184.5,242.4 183.8,242.4 183.2,242.4 182.5,242.4 181.8,242.4 181.1,242.4 180.4,242.4 179.7,242.4 179.0,242.4 178.3,242.4 177.6,242.4 176.9,242.4 176.2,242.4 175.6,242.4 174.9,242.4 174.2,242.4
173.5,242.4 172.8,242.4 172.1,242.4 171.4,242.4 170.7,242.4 170.0,242.4 169.3,242.4 168.6,242.4 168.0,242.4 167.3,242.4 166.6,242.4 165.9,242.4 165.2,242.4 164.5,242.4 163.8,242.4 163.1,242.4
162.4,242.4 161.7,242.4 161.0,242.4 160.4,242.4 159.7,242.4 159.0,242.4 158.3,242.4 157.6,242.4 156.9,242.4 156.2,242.4 155.5,242.4 154.8,242.4 154.1,242.4 153.4,242.4 152.8,242.4 152.1,242.4
151.4,242.4 150.7,242.4 150.0,242.4 149.3,242.4 148.6,242.4 147.9,242.4 147.2,242.4 146.5,242.4 145.8,242.4 145.2,242.4 144.5,242.4 143.8,242.4 143.1,242.4 142.4,242.4 141.7,242.4 141.0,242.4
140.3,242.4 139.6,242.4 138.9,242.4 138.2,242.4 137.6,242.4 136.9,242.4 136.2,242.4 135.5,242.4 134.8,242.4 134.1,242.4 133.4,242.4 132.7,242.4 132.0,242.4 131.3,242.4 130.6,242.4 130.0,242.4
129.3,242.4 128.6,242.4 127.9,242.4 127.2,242.4 126.5,242.4 125.8,242.4 125.1,242.4 124.4,242.4 123.7,242.4 123.0,242.4 122.3,242.4 121.7,242.4 121.0,242.4 120.3,242.4 119.6,242.4 118.9,242.4
118.2,242.4 117.5,242.4 116.8,242.4 116.1,242.4 115.4,242.4 114.7,242.4 114.1,242.4 113.4,242.4 112.7,242.4 112.0,242.4 111.3,242.4 110.6,242.4 109.9,242.4 109.2,242.4 108.5,242.4 107.8,242.4
107.1,242.4 106.5,242.4 105.8,242.4 105.1,242.4 104.4,242.4 103.7,242.4 103.0,242.4 102.3,242.4 101.6,242.4 100.9,242.4 100.2,242.4 99.5,242.4 98.9,242.4 98.2,242.4 97.5,242.4 96.8,242.4
96.1,242.4 95.4,242.4 94.7,242.4 94.0,242.4 93.3,242.4 92.6,242.4 91.9,242.4 91.3,242.4 90.6,242.4 89.9,242.4 89.2,242.4 88.5,242.4 87.8,242.4 87.1,242.4 86.4,242.4 85.7,242.4
85.0,242.4 84.3,242.4 83.7,242.4 83.0,242.4 82.3,242.4 81.6,242.4 80.9,242.4 80.2,242.4 '/>
	</g>
</g>
	</g>
	<g id="gnuplot_plot_2" ><title>Mean</title>
<g fill="none" color="white" stroke="rgb( 31, 120, 180)" stroke-width="2.00" stroke-linecap="butt" stroke-linejoin="miter">
</g>
<g fill="none" color="black" stroke="currentColor" stroke-width="2.00" stroke-linecap="butt" stroke-linejoin="miter">
	<path stroke='rgb( 31, 120, 180)'  d='M123.1,242.4 L123.1,52.5  '/></g>
	</g>
<g fill="none" color="black" stroke="currentColor" stroke-width="2.00" stroke-linecap="butt" stroke-linejoin="miter">
</g>
<g fill="none" color="black" stroke="black" stroke-width="1.00" stroke-linecap="butt" stroke-linejoin="miter">
</g>
<g fill="none" color="black" stroke="currentColor" stroke-width="1.00" stroke-linecap="butt" stroke-linejoin="miter">
	<path stroke='black'  d='M80.2,18.1 L80.2,242.4 L425.0,242.4 L425.0,18.1 L80.2,18.1 Z  '/></g>
<g fill="none" color="black" stroke="currentColor" stroke-width="1.00" stroke-linecap="butt" stroke-linejoin="miter">
</g>
</g>
</svg>

