<svg id="mermaid-1609129418369" width="100%" xmlns="http://www.w3.org/2000/svg" style="max-width: 265.55859375px;" viewBox="0 0 265.55859375 318"><style>#mermaid-1609129418369 .label{font-family:trebuchet ms,verdana,arial;color:#333}#mermaid-1609129418369 .node circle,#mermaid-1609129418369 .node ellipse,#mermaid-1609129418369 .node polygon,#mermaid-1609129418369 .node rect{fill:#ececff;stroke:#9370db;stroke-width:1px}#mermaid-1609129418369 .node.clickable{cursor:pointer}#mermaid-1609129418369 .arrowheadPath{fill:#333}#mermaid-1609129418369 .edgePath .path{stroke:#333;stroke-width:1.5px}#mermaid-1609129418369 .edgeLabel{background-color:#e8e8e8}#mermaid-1609129418369 .cluster rect{fill:#ffffde!important;stroke:#aa3!important;stroke-width:1px!important}#mermaid-1609129418369 .cluster text{fill:#333}#mermaid-1609129418369 div.mermaidTooltip{position:absolute;text-align:center;max-width:200px;padding:2px;font-family:trebuchet ms,verdana,arial;font-size:12px;background:#ffffde;border:1px solid #aa3;border-radius:2px;pointer-events:none;z-index:100}#mermaid-1609129418369 .actor{stroke:#ccf;fill:#ececff}#mermaid-1609129418369 text.actor{fill:#000;stroke:none}#mermaid-1609129418369 .actor-line{stroke:grey}#mermaid-1609129418369 .messageLine0{marker-end:"url(#arrowhead)"}#mermaid-1609129418369 .messageLine0,#mermaid-1609129418369 .messageLine1{stroke-width:1.5;stroke-dasharray:"2 2";stroke:#333}#mermaid-1609129418369 #arrowhead{fill:#333}#mermaid-1609129418369 #crosshead path{fill:#333!important;stroke:#333!important}#mermaid-1609129418369 .messageText{fill:#333;stroke:none}#mermaid-1609129418369 .labelBox{stroke:#ccf;fill:#ececff}#mermaid-1609129418369 .labelText,#mermaid-1609129418369 .loopText{fill:#000;stroke:none}#mermaid-1609129418369 .loopLine{stroke-width:2;stroke-dasharray:"2 2";marker-end:"url(#arrowhead)";stroke:#ccf}#mermaid-1609129418369 .note{stroke:#aa3;fill:#fff5ad}#mermaid-1609129418369 .noteText{fill:#000;stroke:none;font-family:trebuchet ms,verdana,arial;font-size:14px}#mermaid-1609129418369 .section{stroke:none;opacity:.2}#mermaid-1609129418369 .section0{fill:rgba(102,102,255,.49)}#mermaid-1609129418369 .section2{fill:#fff400}#mermaid-1609129418369 .section1,#mermaid-1609129418369 .section3{fill:#fff;opacity:.2}#mermaid-1609129418369 .sectionTitle0,#mermaid-1609129418369 .sectionTitle1,#mermaid-1609129418369 .sectionTitle2,#mermaid-1609129418369 .sectionTitle3{fill:#333}#mermaid-1609129418369 .sectionTitle{text-anchor:start;font-size:11px;text-height:14px}#mermaid-1609129418369 .grid .tick{stroke:#d3d3d3;opacity:.3;shape-rendering:crispEdges}#mermaid-1609129418369 .grid path{stroke-width:0}#mermaid-1609129418369 .today{fill:none;stroke:red;stroke-width:2px}#mermaid-1609129418369 .task{stroke-width:2}#mermaid-1609129418369 .taskText{text-anchor:middle;font-size:11px}#mermaid-1609129418369 .taskTextOutsideRight{fill:#000;text-anchor:start;font-size:11px}#mermaid-1609129418369 .taskTextOutsideLeft{fill:#000;text-anchor:end;font-size:11px}#mermaid-1609129418369 .taskText0,#mermaid-1609129418369 .taskText1,#mermaid-1609129418369 .taskText2,#mermaid-1609129418369 .taskText3{fill:#fff}#mermaid-1609129418369 .task0,#mermaid-1609129418369 .task1,#mermaid-1609129418369 .task2,#mermaid-1609129418369 .task3{fill:#8a90dd;stroke:#534fbc}#mermaid-1609129418369 .taskTextOutside0,#mermaid-1609129418369 .taskTextOutside1,#mermaid-1609129418369 .taskTextOutside2,#mermaid-1609129418369 .taskTextOutside3{fill:#000}#mermaid-1609129418369 .active0,#mermaid-1609129418369 .active1,#mermaid-1609129418369 .active2,#mermaid-1609129418369 .active3{fill:#bfc7ff;stroke:#534fbc}#mermaid-1609129418369 .activeText0,#mermaid-1609129418369 .activeText1,#mermaid-1609129418369 .activeText2,#mermaid-1609129418369 .activeText3{fill:#000!important}#mermaid-1609129418369 .done0,#mermaid-1609129418369 .done1,#mermaid-1609129418369 .done2,#mermaid-1609129418369 .done3{stroke:grey;fill:#d3d3d3;stroke-width:2}#mermaid-1609129418369 .doneText0,#mermaid-1609129418369 .doneText1,#mermaid-1609129418369 .doneText2,#mermaid-1609129418369 .doneText3{fill:#000!important}#mermaid-1609129418369 .crit0,#mermaid-1609129418369 .crit1,#mermaid-1609129418369 .crit2,#mermaid-1609129418369 .crit3{stroke:#f88;fill:red;stroke-width:2}#mermaid-1609129418369 .activeCrit0,#mermaid-1609129418369 .activeCrit1,#mermaid-1609129418369 .activeCrit2,#mermaid-1609129418369 .activeCrit3{stroke:#f88;fill:#bfc7ff;stroke-width:2}#mermaid-1609129418369 .doneCrit0,#mermaid-1609129418369 .doneCrit1,#mermaid-1609129418369 .doneCrit2,#mermaid-1609129418369 .doneCrit3{stroke:#f88;fill:#d3d3d3;stroke-width:2;cursor:pointer;shape-rendering:crispEdges}#mermaid-1609129418369 .activeCritText0,#mermaid-1609129418369 .activeCritText1,#mermaid-1609129418369 .activeCritText2,#mermaid-1609129418369 .activeCritText3,#mermaid-1609129418369 .doneCritText0,#mermaid-1609129418369 .doneCritText1,#mermaid-1609129418369 .doneCritText2,#mermaid-1609129418369 .doneCritText3{fill:#000!important}#mermaid-1609129418369 .titleText{text-anchor:middle;font-size:18px;fill:#000}#mermaid-1609129418369 g.classGroup text{fill:#9370db;stroke:none;font-family:trebuchet ms,verdana,arial;font-size:10px}#mermaid-1609129418369 g.classGroup rect{fill:#ececff;stroke:#9370db}#mermaid-1609129418369 g.classGroup line{stroke:#9370db;stroke-width:1}#mermaid-1609129418369 .classLabel .box{stroke:none;stroke-width:0;fill:#ececff;opacity:.5}#mermaid-1609129418369 .classLabel .label{fill:#9370db;font-size:10px}#mermaid-1609129418369 .relation{stroke:#9370db;stroke-width:1;fill:none}#mermaid-1609129418369 #compositionEnd,#mermaid-1609129418369 #compositionStart{fill:#9370db;stroke:#9370db;stroke-width:1}#mermaid-1609129418369 #aggregationEnd,#mermaid-1609129418369 #aggregationStart{fill:#ececff;stroke:#9370db;stroke-width:1}#mermaid-1609129418369 #dependencyEnd,#mermaid-1609129418369 #dependencyStart,#mermaid-1609129418369 #extensionEnd,#mermaid-1609129418369 #extensionStart{fill:#9370db;stroke:#9370db;stroke-width:1}#mermaid-1609129418369 .branch-label,#mermaid-1609129418369 .commit-id,#mermaid-1609129418369 .commit-msg{fill:#d3d3d3;color:#d3d3d3}
#mermaid-1609129418369 .green &gt; * { fill:#9f9 !important; stroke:#333 !important; stroke-width:4px !important; }
#mermaid-1609129418369 .red &gt; * { fill:#f9f !important; stroke:#333 !important; stroke-width:4px !important; }</style><style>#mermaid-1609129418369 {
    color: rgb(0, 0, 0);
    font: normal normal 400 normal 16px / normal "Times New Roman";
  }</style><g transform="translate(-12, -12)"><g class="output"><g class="clusters"></g><g class="edgePaths"><g class="edgePath" style="opacity: 1;"><path class="path" d="M123.8125,51.217199882594656L46.90625,83L46.90625,108" marker-end="url(#arrowhead25)" style="fill:none"></path><defs><marker id="arrowhead25" viewBox="0 0 10 10" refX="9" refY="5" markerUnits="strokeWidth" markerWidth="8" markerHeight="6" orient="auto"><path d="M 0 0 L 10 5 L 0 10 z" class="arrowheadPath" style="stroke-width: 1; stroke-dasharray: 1, 0;"></path></marker></defs></g><g class="edgePath" style="opacity: 1;"><path class="path" d="M153.375,58L153.375,83L153.375,108" marker-end="url(#arrowhead26)" style="fill:none"></path><defs><marker id="arrowhead26" viewBox="0 0 10 10" refX="9" refY="5" markerUnits="strokeWidth" markerWidth="8" markerHeight="6" orient="auto"><path d="M 0 0 L 10 5 L 0 10 z" class="arrowheadPath" style="stroke-width: 1; stroke-dasharray: 1, 0;"></path></marker></defs></g><g class="edgePath" style="opacity: 1;"><path class="path" d="M153.375,146L153.375,171L153.375,196" marker-end="url(#arrowhead27)" style="fill:none"></path><defs><marker id="arrowhead27" viewBox="0 0 10 10" refX="9" refY="5" markerUnits="strokeWidth" markerWidth="8" markerHeight="6" orient="auto"><path d="M 0 0 L 10 5 L 0 10 z" class="arrowheadPath" style="stroke-width: 1; stroke-dasharray: 1, 0;"></path></marker></defs></g><g class="edgePath" style="opacity: 1;"><path class="path" d="M143.8496981534091,234L131.31640625,259L131.31640625,284" marker-end="url(#arrowhead28)" style="fill:none"></path><defs><marker id="arrowhead28" viewBox="0 0 10 10" refX="9" refY="5" markerUnits="strokeWidth" markerWidth="8" markerHeight="6" orient="auto"><path d="M 0 0 L 10 5 L 0 10 z" class="arrowheadPath" style="stroke-width: 1; stroke-dasharray: 1, 0;"></path></marker></defs></g><g class="edgePath" style="opacity: 1;"><path class="path" d="M176.8399325284091,234L207.71484375,259L226.0564630681818,284" marker-end="url(#arrowhead29)" style="fill:none"></path><defs><marker id="arrowhead29" viewBox="0 0 10 10" refX="9" refY="5" markerUnits="strokeWidth" markerWidth="8" markerHeight="6" orient="auto"><path d="M 0 0 L 10 5 L 0 10 z" class="arrowheadPath" style="stroke-width: 1; stroke-dasharray: 1, 0;"></path></marker></defs></g><g class="edgePath" style="opacity: 1;"><path class="path" d="M244.3142755681818,284L249.99609375,259L249.99609375,215L249.99609375,171L249.99609375,127L249.99609375,83L182.9375,52.46238124115626" marker-end="url(#arrowhead30)" style="fill:none"></path><defs><marker id="arrowhead30" viewBox="0 0 10 10" refX="9" refY="5" markerUnits="strokeWidth" markerWidth="8" markerHeight="6" orient="auto"><path d="M 0 0 L 10 5 L 0 10 z" class="arrowheadPath" style="stroke-width: 1; stroke-dasharray: 1, 0;"></path></marker></defs></g></g><g class="edgeLabels"><g class="edgeLabel" style="opacity: 1;" transform=""><g transform="translate(0,0)" class="label"><foreignObject width="0" height="0"><div xmlns="http://www.w3.org/1999/xhtml" style="display: inline-block; white-space: nowrap;"><span class="edgeLabel"></span></div></foreignObject></g></g><g class="edgeLabel" style="opacity: 1;" transform=""><g transform="translate(0,0)" class="label"><foreignObject width="0" height="0"><div xmlns="http://www.w3.org/1999/xhtml" style="display: inline-block; white-space: nowrap;"><span class="edgeLabel"></span></div></foreignObject></g></g><g class="edgeLabel" style="opacity: 1;" transform=""><g transform="translate(0,0)" class="label"><foreignObject width="0" height="0"><div xmlns="http://www.w3.org/1999/xhtml" style="display: inline-block; white-space: nowrap;"><span class="edgeLabel"></span></div></foreignObject></g></g><g class="edgeLabel" style="opacity: 1;" transform=""><g transform="translate(0,0)" class="label"><foreignObject width="0" height="0"><div xmlns="http://www.w3.org/1999/xhtml" style="display: inline-block; white-space: nowrap;"><span class="edgeLabel"></span></div></foreignObject></g></g><g class="edgeLabel" style="opacity: 1;" transform=""><g transform="translate(0,0)" class="label"><foreignObject width="0" height="0"><div xmlns="http://www.w3.org/1999/xhtml" style="display: inline-block; white-space: nowrap;"><span class="edgeLabel"></span></div></foreignObject></g></g><g class="edgeLabel" style="opacity: 1;" transform=""><g transform="translate(0,0)" class="label"><foreignObject width="0" height="0"><div xmlns="http://www.w3.org/1999/xhtml" style="display: inline-block; white-space: nowrap;"><span class="edgeLabel"></span></div></foreignObject></g></g></g><g class="nodes"><g class="node green" id="item1" transform="translate(153.375,39)" style="opacity: 1;"><rect rx="0" ry="0" x="-29.5625" y="-19" width="59.125" height="38"></rect><g class="label" transform="translate(0,0)"><g transform="translate(-19.5625,-9)"><foreignObject width="39.125" height="18"><div xmlns="http://www.w3.org/1999/xhtml" style="display: inline-block; white-space: nowrap;">item1</div></foreignObject></g></g></g><g class="node green" id="hello" transform="translate(46.90625,127)" style="opacity: 1;"><rect rx="0" ry="0" x="-26.90625" y="-19" width="53.8125" height="38"></rect><g class="label" transform="translate(0,0)"><g transform="translate(-16.90625,-9)"><foreignObject width="33.8125" height="18"><div xmlns="http://www.w3.org/1999/xhtml" style="display: inline-block; white-space: nowrap;">hello</div></foreignObject></g></g></g><g class="node" id="item2" transform="translate(153.375,127)" style="opacity: 1;"><rect rx="0" ry="0" x="-29.5625" y="-19" width="59.125" height="38"></rect><g class="label" transform="translate(0,0)"><g transform="translate(-19.5625,-9)"><foreignObject width="39.125" height="18"><div xmlns="http://www.w3.org/1999/xhtml" style="display: inline-block; white-space: nowrap;">item2</div></foreignObject></g></g></g><g class="node" id="item3" transform="translate(153.375,215)" style="opacity: 1;"><rect rx="0" ry="0" x="-29.5625" y="-19" width="59.125" height="38"></rect><g class="label" transform="translate(0,0)"><g transform="translate(-19.5625,-9)"><foreignObject width="39.125" height="18"><div xmlns="http://www.w3.org/1999/xhtml" style="display: inline-block; white-space: nowrap;">item3</div></foreignObject></g></g></g><g class="node" id="world" transform="translate(131.31640625,303)" style="opacity: 1;"><rect rx="0" ry="0" x="-29.1171875" y="-19" width="58.234375" height="38"></rect><g class="label" transform="translate(0,0)"><g transform="translate(-19.1171875,-9)"><foreignObject width="38.234375" height="18"><div xmlns="http://www.w3.org/1999/xhtml" style="display: inline-block; white-space: nowrap;">world</div></foreignObject></g></g></g><g class="node" id="item1_2" transform="translate(239.99609375,303)" style="opacity: 1;"><rect rx="0" ry="0" x="-29.5625" y="-19" width="59.125" height="38"></rect><g class="label" transform="translate(0,0)"><g transform="translate(-19.5625,-9)"><foreignObject width="39.125" height="18"><div xmlns="http://www.w3.org/1999/xhtml" style="display: inline-block; white-space: nowrap;">item1</div></foreignObject></g></g></g></g></g></g></svg>