group,function,value,throughput_num,throughput_type,sample_measured_value,unit,iteration_count
snapshot_restore_with_dense,Sparse: Entire region + process_vm_writev w/ page size,1000,,,6094516.0,ns,1
snapshot_restore_with_dense,Sparse: Entire region + process_vm_writev w/ page size,1000,,,12588890.0,ns,2
snapshot_restore_with_dense,Sparse: Entire region + process_vm_writev w/ page size,1000,,,18562060.0,ns,3
snapshot_restore_with_dense,Sparse: Entire region + process_vm_writev w/ page size,1000,,,24258110.0,ns,4
snapshot_restore_with_dense,Sparse: Entire region + process_vm_writev w/ page size,1000,,,29853473.0,ns,5
snapshot_restore_with_dense,Sparse: Entire region + process_vm_writev w/ page size,1000,,,35852535.0,ns,6
snapshot_restore_with_dense,Sparse: Entire region + process_vm_writev w/ page size,1000,,,41677054.0,ns,7
snapshot_restore_with_dense,Sparse: Entire region + process_vm_writev w/ page size,1000,,,47520862.0,ns,8
snapshot_restore_with_dense,Sparse: Entire region + process_vm_writev w/ page size,1000,,,53557941.0,ns,9
snapshot_restore_with_dense,Sparse: Entire region + process_vm_writev w/ page size,1000,,,59507655.0,ns,10
snapshot_restore_with_dense,Sparse: Entire region + process_vm_writev w/ page size,1000,,,65346291.0,ns,11
snapshot_restore_with_dense,Sparse: Entire region + process_vm_writev w/ page size,1000,,,71306618.0,ns,12
snapshot_restore_with_dense,Sparse: Entire region + process_vm_writev w/ page size,1000,,,77302069.0,ns,13
snapshot_restore_with_dense,Sparse: Entire region + process_vm_writev w/ page size,1000,,,83214478.0,ns,14
snapshot_restore_with_dense,Sparse: Entire region + process_vm_writev w/ page size,1000,,,89201041.0,ns,15
snapshot_restore_with_dense,Sparse: Entire region + process_vm_writev w/ page size,1000,,,95131714.0,ns,16
snapshot_restore_with_dense,Sparse: Entire region + process_vm_writev w/ page size,1000,,,101247946.0,ns,17
snapshot_restore_with_dense,Sparse: Entire region + process_vm_writev w/ page size,1000,,,107017569.0,ns,18
snapshot_restore_with_dense,Sparse: Entire region + process_vm_writev w/ page size,1000,,,112944424.0,ns,19
snapshot_restore_with_dense,Sparse: Entire region + process_vm_writev w/ page size,1000,,,118995516.0,ns,20
snapshot_restore_with_dense,Sparse: Entire region + process_vm_writev w/ page size,1000,,,124800925.0,ns,21
snapshot_restore_with_dense,Sparse: Entire region + process_vm_writev w/ page size,1000,,,130716174.0,ns,22
snapshot_restore_with_dense,Sparse: Entire region + process_vm_writev w/ page size,1000,,,136709416.0,ns,23
snapshot_restore_with_dense,Sparse: Entire region + process_vm_writev w/ page size,1000,,,142727202.0,ns,24
snapshot_restore_with_dense,Sparse: Entire region + process_vm_writev w/ page size,1000,,,148968940.0,ns,25
snapshot_restore_with_dense,Sparse: Entire region + process_vm_writev w/ page size,1000,,,155019594.0,ns,26
snapshot_restore_with_dense,Sparse: Entire region + process_vm_writev w/ page size,1000,,,160502735.0,ns,27
snapshot_restore_with_dense,Sparse: Entire region + process_vm_writev w/ page size,1000,,,166441097.0,ns,28
snapshot_restore_with_dense,Sparse: Entire region + process_vm_writev w/ page size,1000,,,172380322.0,ns,29
snapshot_restore_with_dense,Sparse: Entire region + process_vm_writev w/ page size,1000,,,178257483.0,ns,30
snapshot_restore_with_dense,Sparse: Entire region + process_vm_writev w/ page size,1000,,,184493283.0,ns,31
snapshot_restore_with_dense,Sparse: Entire region + process_vm_writev w/ page size,1000,,,190475756.0,ns,32
snapshot_restore_with_dense,Sparse: Entire region + process_vm_writev w/ page size,1000,,,196310563.0,ns,33
snapshot_restore_with_dense,Sparse: Entire region + process_vm_writev w/ page size,1000,,,202178739.0,ns,34
snapshot_restore_with_dense,Sparse: Entire region + process_vm_writev w/ page size,1000,,,208183931.0,ns,35
snapshot_restore_with_dense,Sparse: Entire region + process_vm_writev w/ page size,1000,,,214094071.0,ns,36
snapshot_restore_with_dense,Sparse: Entire region + process_vm_writev w/ page size,1000,,,220081932.0,ns,37
snapshot_restore_with_dense,Sparse: Entire region + process_vm_writev w/ page size,1000,,,225903828.0,ns,38
snapshot_restore_with_dense,Sparse: Entire region + process_vm_writev w/ page size,1000,,,231844972.0,ns,39
snapshot_restore_with_dense,Sparse: Entire region + process_vm_writev w/ page size,1000,,,237901379.0,ns,40
snapshot_restore_with_dense,Sparse: Entire region + process_vm_writev w/ page size,1000,,,243625850.0,ns,41
snapshot_restore_with_dense,Sparse: Entire region + process_vm_writev w/ page size,1000,,,249663072.0,ns,42
snapshot_restore_with_dense,Sparse: Entire region + process_vm_writev w/ page size,1000,,,255525821.0,ns,43
snapshot_restore_with_dense,Sparse: Entire region + process_vm_writev w/ page size,1000,,,261708090.0,ns,44
snapshot_restore_with_dense,Sparse: Entire region + process_vm_writev w/ page size,1000,,,275684001.0,ns,45
snapshot_restore_with_dense,Sparse: Entire region + process_vm_writev w/ page size,1000,,,275349989.0,ns,46
snapshot_restore_with_dense,Sparse: Entire region + process_vm_writev w/ page size,1000,,,279302849.0,ns,47
snapshot_restore_with_dense,Sparse: Entire region + process_vm_writev w/ page size,1000,,,286052343.0,ns,48
snapshot_restore_with_dense,Sparse: Entire region + process_vm_writev w/ page size,1000,,,291483859.0,ns,49
snapshot_restore_with_dense,Sparse: Entire region + process_vm_writev w/ page size,1000,,,297067944.0,ns,50
snapshot_restore_with_dense,Sparse: Entire region + process_vm_writev w/ page size,1000,,,302952963.0,ns,51
snapshot_restore_with_dense,Sparse: Entire region + process_vm_writev w/ page size,1000,,,309081079.0,ns,52
snapshot_restore_with_dense,Sparse: Entire region + process_vm_writev w/ page size,1000,,,314895014.0,ns,53
snapshot_restore_with_dense,Sparse: Entire region + process_vm_writev w/ page size,1000,,,320941559.0,ns,54
snapshot_restore_with_dense,Sparse: Entire region + process_vm_writev w/ page size,1000,,,326939857.0,ns,55
snapshot_restore_with_dense,Sparse: Entire region + process_vm_writev w/ page size,1000,,,332695512.0,ns,56
snapshot_restore_with_dense,Sparse: Entire region + process_vm_writev w/ page size,1000,,,338754197.0,ns,57
snapshot_restore_with_dense,Sparse: Entire region + process_vm_writev w/ page size,1000,,,345190128.0,ns,58
snapshot_restore_with_dense,Sparse: Entire region + process_vm_writev w/ page size,1000,,,350621617.0,ns,59
snapshot_restore_with_dense,Sparse: Entire region + process_vm_writev w/ page size,1000,,,356850429.0,ns,60
snapshot_restore_with_dense,Sparse: Entire region + process_vm_writev w/ page size,1000,,,362891722.0,ns,61
snapshot_restore_with_dense,Sparse: Entire region + process_vm_writev w/ page size,1000,,,368539604.0,ns,62
snapshot_restore_with_dense,Sparse: Entire region + process_vm_writev w/ page size,1000,,,374405873.0,ns,63
snapshot_restore_with_dense,Sparse: Entire region + process_vm_writev w/ page size,1000,,,380461464.0,ns,64
snapshot_restore_with_dense,Sparse: Entire region + process_vm_writev w/ page size,1000,,,386769622.0,ns,65
snapshot_restore_with_dense,Sparse: Entire region + process_vm_writev w/ page size,1000,,,393778469.0,ns,66
snapshot_restore_with_dense,Sparse: Entire region + process_vm_writev w/ page size,1000,,,398304552.0,ns,67
snapshot_restore_with_dense,Sparse: Entire region + process_vm_writev w/ page size,1000,,,404537633.0,ns,68
snapshot_restore_with_dense,Sparse: Entire region + process_vm_writev w/ page size,1000,,,410469675.0,ns,69
snapshot_restore_with_dense,Sparse: Entire region + process_vm_writev w/ page size,1000,,,416148493.0,ns,70
snapshot_restore_with_dense,Sparse: Entire region + process_vm_writev w/ page size,1000,,,422584718.0,ns,71
snapshot_restore_with_dense,Sparse: Entire region + process_vm_writev w/ page size,1000,,,429065436.0,ns,72
snapshot_restore_with_dense,Sparse: Entire region + process_vm_writev w/ page size,1000,,,440640148.0,ns,73
snapshot_restore_with_dense,Sparse: Entire region + process_vm_writev w/ page size,1000,,,441057415.0,ns,74
snapshot_restore_with_dense,Sparse: Entire region + process_vm_writev w/ page size,1000,,,454905202.0,ns,75
snapshot_restore_with_dense,Sparse: Entire region + process_vm_writev w/ page size,1000,,,453202126.0,ns,76
snapshot_restore_with_dense,Sparse: Entire region + process_vm_writev w/ page size,1000,,,457724997.0,ns,77
snapshot_restore_with_dense,Sparse: Entire region + process_vm_writev w/ page size,1000,,,464056411.0,ns,78
snapshot_restore_with_dense,Sparse: Entire region + process_vm_writev w/ page size,1000,,,469742493.0,ns,79
snapshot_restore_with_dense,Sparse: Entire region + process_vm_writev w/ page size,1000,,,477020184.0,ns,80
snapshot_restore_with_dense,Sparse: Entire region + process_vm_writev w/ page size,1000,,,481601619.0,ns,81
snapshot_restore_with_dense,Sparse: Entire region + process_vm_writev w/ page size,1000,,,487643600.0,ns,82
snapshot_restore_with_dense,Sparse: Entire region + process_vm_writev w/ page size,1000,,,493533309.0,ns,83
snapshot_restore_with_dense,Sparse: Entire region + process_vm_writev w/ page size,1000,,,499624106.0,ns,84
snapshot_restore_with_dense,Sparse: Entire region + process_vm_writev w/ page size,1000,,,505276604.0,ns,85
snapshot_restore_with_dense,Sparse: Entire region + process_vm_writev w/ page size,1000,,,511803561.0,ns,86
snapshot_restore_with_dense,Sparse: Entire region + process_vm_writev w/ page size,1000,,,517264489.0,ns,87
snapshot_restore_with_dense,Sparse: Entire region + process_vm_writev w/ page size,1000,,,523638705.0,ns,88
snapshot_restore_with_dense,Sparse: Entire region + process_vm_writev w/ page size,1000,,,528746602.0,ns,89
snapshot_restore_with_dense,Sparse: Entire region + process_vm_writev w/ page size,1000,,,534885296.0,ns,90
snapshot_restore_with_dense,Sparse: Entire region + process_vm_writev w/ page size,1000,,,541623461.0,ns,91
snapshot_restore_with_dense,Sparse: Entire region + process_vm_writev w/ page size,1000,,,546583676.0,ns,92
snapshot_restore_with_dense,Sparse: Entire region + process_vm_writev w/ page size,1000,,,559510842.0,ns,93
snapshot_restore_with_dense,Sparse: Entire region + process_vm_writev w/ page size,1000,,,559895974.0,ns,94
snapshot_restore_with_dense,Sparse: Entire region + process_vm_writev w/ page size,1000,,,565767147.0,ns,95
snapshot_restore_with_dense,Sparse: Entire region + process_vm_writev w/ page size,1000,,,572996322.0,ns,96
snapshot_restore_with_dense,Sparse: Entire region + process_vm_writev w/ page size,1000,,,576786860.0,ns,97
snapshot_restore_with_dense,Sparse: Entire region + process_vm_writev w/ page size,1000,,,584318653.0,ns,98
snapshot_restore_with_dense,Sparse: Entire region + process_vm_writev w/ page size,1000,,,589766425.0,ns,99
snapshot_restore_with_dense,Sparse: Entire region + process_vm_writev w/ page size,1000,,,594853228.0,ns,100
