<?xml version="1.0" encoding="utf-8"  standalone="no"?>
<svg 
 viewBox="0 0 1280 720"
 xmlns="http://www.w3.org/2000/svg"
 xmlns:xlink="http://www.w3.org/1999/xlink"
>

<title>Gnuplot</title>
<desc>Produced by GNUPLOT 5.2 patchlevel 6 </desc>

<g id="gnuplot_canvas">

<rect x="0" y="0" width="1280" height="720" fill="none"/>
<defs>

	<circle id='gpDot' r='0.5' stroke-width='0.5' stroke='currentColor'/>
	<path id='gpPt0' stroke-width='0.222' stroke='currentColor' d='M-1,0 h2 M0,-1 v2'/>
	<path id='gpPt1' stroke-width='0.222' stroke='currentColor' d='M-1,-1 L1,1 M1,-1 L-1,1'/>
	<path id='gpPt2' stroke-width='0.222' stroke='currentColor' d='M-1,0 L1,0 M0,-1 L0,1 M-1,-1 L1,1 M-1,1 L1,-1'/>
	<rect id='gpPt3' stroke-width='0.222' stroke='currentColor' x='-1' y='-1' width='2' height='2'/>
	<rect id='gpPt4' stroke-width='0.222' stroke='currentColor' fill='currentColor' x='-1' y='-1' width='2' height='2'/>
	<circle id='gpPt5' stroke-width='0.222' stroke='currentColor' cx='0' cy='0' r='1'/>
	<use xlink:href='#gpPt5' id='gpPt6' fill='currentColor' stroke='none'/>
	<path id='gpPt7' stroke-width='0.222' stroke='currentColor' d='M0,-1.33 L-1.33,0.67 L1.33,0.67 z'/>
	<use xlink:href='#gpPt7' id='gpPt8' fill='currentColor' stroke='none'/>
	<use xlink:href='#gpPt7' id='gpPt9' stroke='currentColor' transform='rotate(180)'/>
	<use xlink:href='#gpPt9' id='gpPt10' fill='currentColor' stroke='none'/>
	<use xlink:href='#gpPt3' id='gpPt11' stroke='currentColor' transform='rotate(45)'/>
	<use xlink:href='#gpPt11' id='gpPt12' fill='currentColor' stroke='none'/>
	<path id='gpPt13' stroke-width='0.222' stroke='currentColor' d='M0,1.330 L1.265,0.411 L0.782,-1.067 L-0.782,-1.076 L-1.265,0.411 z'/>
	<use xlink:href='#gpPt13' id='gpPt14' fill='currentColor' stroke='none'/>
	<filter id='textbox' filterUnits='objectBoundingBox' x='0' y='0' height='1' width='1'>
	  <feFlood flood-color='white' flood-opacity='1' result='bgnd'/>
	  <feComposite in='SourceGraphic' in2='bgnd' operator='atop'/>
	</filter>
	<filter id='greybox' filterUnits='objectBoundingBox' x='0' y='0' height='1' width='1'>
	  <feFlood flood-color='lightgrey' flood-opacity='1' result='grey'/>
	  <feComposite in='SourceGraphic' in2='grey' operator='atop'/>
	</filter>
</defs>
<g fill="none" color="white" stroke="currentColor" stroke-width="1.00" stroke-linecap="butt" stroke-linejoin="miter">
</g>
<g fill="none" color="black" stroke="currentColor" stroke-width="1.00" stroke-linecap="butt" stroke-linejoin="miter">
	<path stroke='black'  d='M80.2,662.4 L89.2,662.4  '/>	<g transform="translate(71.9,666.3)" stroke="none" fill="black" font-family="Helvetica" font-size="12.00"  text-anchor="end">
		<text><tspan font-family="Helvetica" > 0</tspan></text>
	</g>
</g>
<g fill="none" color="black" stroke="currentColor" stroke-width="1.00" stroke-linecap="butt" stroke-linejoin="miter">
	<path stroke='black'  d='M80.2,561.0 L89.2,561.0  '/>	<g transform="translate(71.9,564.9)" stroke="none" fill="black" font-family="Helvetica" font-size="12.00"  text-anchor="end">
		<text><tspan font-family="Helvetica" > 0.02</tspan></text>
	</g>
</g>
<g fill="none" color="black" stroke="currentColor" stroke-width="1.00" stroke-linecap="butt" stroke-linejoin="miter">
	<path stroke='black'  d='M80.2,459.6 L89.2,459.6  '/>	<g transform="translate(71.9,463.5)" stroke="none" fill="black" font-family="Helvetica" font-size="12.00"  text-anchor="end">
		<text><tspan font-family="Helvetica" > 0.04</tspan></text>
	</g>
</g>
<g fill="none" color="black" stroke="currentColor" stroke-width="1.00" stroke-linecap="butt" stroke-linejoin="miter">
	<path stroke='black'  d='M80.2,358.2 L89.2,358.2  '/>	<g transform="translate(71.9,362.1)" stroke="none" fill="black" font-family="Helvetica" font-size="12.00"  text-anchor="end">
		<text><tspan font-family="Helvetica" > 0.06</tspan></text>
	</g>
</g>
<g fill="none" color="black" stroke="currentColor" stroke-width="1.00" stroke-linecap="butt" stroke-linejoin="miter">
	<path stroke='black'  d='M80.2,256.9 L89.2,256.9  '/>	<g transform="translate(71.9,260.8)" stroke="none" fill="black" font-family="Helvetica" font-size="12.00"  text-anchor="end">
		<text><tspan font-family="Helvetica" > 0.08</tspan></text>
	</g>
</g>
<g fill="none" color="black" stroke="currentColor" stroke-width="1.00" stroke-linecap="butt" stroke-linejoin="miter">
	<path stroke='black'  d='M80.2,155.5 L89.2,155.5  '/>	<g transform="translate(71.9,159.4)" stroke="none" fill="black" font-family="Helvetica" font-size="12.00"  text-anchor="end">
		<text><tspan font-family="Helvetica" > 0.1</tspan></text>
	</g>
</g>
<g fill="none" color="black" stroke="currentColor" stroke-width="1.00" stroke-linecap="butt" stroke-linejoin="miter">
	<path stroke='black'  d='M80.2,54.1 L89.2,54.1  '/>	<g transform="translate(71.9,58.0)" stroke="none" fill="black" font-family="Helvetica" font-size="12.00"  text-anchor="end">
		<text><tspan font-family="Helvetica" > 0.12</tspan></text>
	</g>
</g>
<g fill="none" color="black" stroke="currentColor" stroke-width="1.00" stroke-linecap="butt" stroke-linejoin="miter">
	<path stroke='black'  d='M148.0,662.4 L148.0,653.4  '/>	<g transform="translate(148.0,684.3)" stroke="none" fill="black" font-family="Helvetica" font-size="12.00"  text-anchor="middle">
		<text><tspan font-family="Helvetica" > 25</tspan></text>
	</g>
</g>
<g fill="none" color="black" stroke="currentColor" stroke-width="1.00" stroke-linecap="butt" stroke-linejoin="miter">
	<path stroke='black'  d='M330.6,662.4 L330.6,653.4  '/>	<g transform="translate(330.6,684.3)" stroke="none" fill="black" font-family="Helvetica" font-size="12.00"  text-anchor="middle">
		<text><tspan font-family="Helvetica" > 30</tspan></text>
	</g>
</g>
<g fill="none" color="black" stroke="currentColor" stroke-width="1.00" stroke-linecap="butt" stroke-linejoin="miter">
	<path stroke='black'  d='M513.2,662.4 L513.2,653.4  '/>	<g transform="translate(513.2,684.3)" stroke="none" fill="black" font-family="Helvetica" font-size="12.00"  text-anchor="middle">
		<text><tspan font-family="Helvetica" > 35</tspan></text>
	</g>
</g>
<g fill="none" color="black" stroke="currentColor" stroke-width="1.00" stroke-linecap="butt" stroke-linejoin="miter">
	<path stroke='black'  d='M695.8,662.4 L695.8,653.4  '/>	<g transform="translate(695.8,684.3)" stroke="none" fill="black" font-family="Helvetica" font-size="12.00"  text-anchor="middle">
		<text><tspan font-family="Helvetica" > 40</tspan></text>
	</g>
</g>
<g fill="none" color="black" stroke="currentColor" stroke-width="1.00" stroke-linecap="butt" stroke-linejoin="miter">
	<path stroke='black'  d='M878.4,662.4 L878.4,653.4  '/>	<g transform="translate(878.4,684.3)" stroke="none" fill="black" font-family="Helvetica" font-size="12.00"  text-anchor="middle">
		<text><tspan font-family="Helvetica" > 45</tspan></text>
	</g>
</g>
<g fill="none" color="black" stroke="currentColor" stroke-width="1.00" stroke-linecap="butt" stroke-linejoin="miter">
</g>
<g fill="none" color="black" stroke="currentColor" stroke-width="1.00" stroke-linecap="butt" stroke-linejoin="miter">
	<path stroke='black'  d='M80.2,54.1 L80.2,662.4 L1013.6,662.4 L1013.6,54.1 L80.2,54.1 Z  '/></g>
<g fill="none" color="black" stroke="currentColor" stroke-width="1.00" stroke-linecap="butt" stroke-linejoin="miter">
	<g transform="translate(16.3,358.3) rotate(270)" stroke="none" fill="black" font-family="Helvetica" font-size="12.00"  text-anchor="middle">
		<text><tspan font-family="Helvetica" >Density (a.u.)</tspan></text>
	</g>
</g>
<g fill="none" color="black" stroke="currentColor" stroke-width="1.00" stroke-linecap="butt" stroke-linejoin="miter">
	<g transform="translate(546.9,711.3)" stroke="none" fill="black" font-family="Helvetica" font-size="12.00"  text-anchor="middle">
		<text><tspan font-family="Helvetica" >Average time (ns)</tspan></text>
	</g>
</g>
<g fill="none" color="black" stroke="currentColor" stroke-width="1.00" stroke-linecap="butt" stroke-linejoin="miter">
	<g transform="translate(546.9,31.0)" stroke="none" fill="black" font-family="Helvetica" font-size="12.00"  text-anchor="middle">
		<text><tspan font-family="Helvetica" >snapshot_restore_with_dense/Dense: Dirty pages + /proc/pid/mem/10: MAD</tspan></text>
	</g>
</g>
	<g id="gnuplot_plot_1" ><title>Bootstrap distribution</title>
<g fill="none" color="white" stroke="black" stroke-width="2.00" stroke-linecap="butt" stroke-linejoin="miter">
</g>
<g fill="none" color="black" stroke="currentColor" stroke-width="2.00" stroke-linecap="butt" stroke-linejoin="miter">
	<g transform="translate(1089.0,67.0)" stroke="none" fill="black" font-family="Helvetica" font-size="12.00"  text-anchor="start">
		<text><tspan font-family="Helvetica" >Bootstrap distribution</tspan></text>
	</g>
</g>
<g fill="none" color="black" stroke="currentColor" stroke-width="2.00" stroke-linecap="butt" stroke-linejoin="miter">
	<path stroke='rgb( 31, 120, 180)'  d='M1038.5,63.1 L1080.7,63.1 M80.2,644.5 L82.1,643.8 L83.9,643.1 L85.8,642.3 L87.7,641.5 L89.6,640.7
		L91.4,639.8 L93.3,638.9 L95.2,638.0 L97.0,637.0 L98.9,636.0 L100.8,634.9 L102.6,633.8 L104.5,632.6
		L106.4,631.3 L108.3,630.0 L110.1,628.6 L112.0,627.2 L113.9,625.6 L115.7,624.1 L117.6,622.4 L119.5,620.7
		L121.4,618.9 L123.2,617.1 L125.1,615.3 L127.0,613.4 L128.8,611.4 L130.7,609.5 L132.6,607.5 L134.4,605.5
		L136.3,603.4 L138.2,601.4 L140.1,599.3 L141.9,597.2 L143.8,595.1 L145.7,593.0 L147.5,590.8 L149.4,588.6
		L151.3,586.4 L153.2,584.0 L155.0,581.6 L156.9,579.2 L158.8,576.6 L160.6,573.9 L162.5,571.2 L164.4,568.3
		L166.2,565.3 L168.1,562.3 L170.0,559.1 L171.9,555.9 L173.7,552.6 L175.6,549.2 L177.5,545.9 L179.3,542.5
		L181.2,539.1 L183.1,535.8 L185.0,532.6 L186.8,529.4 L188.7,526.4 L190.6,523.4 L192.4,520.6 L194.3,517.8
		L196.2,515.2 L198.0,512.6 L199.9,510.1 L201.8,507.7 L203.7,505.2 L205.5,502.7 L207.4,500.2 L209.3,497.5
		L211.1,494.7 L213.0,491.8 L214.9,488.7 L216.7,485.4 L218.6,481.9 L220.5,478.2 L222.4,474.3 L224.2,470.3
		L226.1,466.0 L228.0,461.7 L229.8,457.2 L231.7,452.7 L233.6,448.1 L235.5,443.5 L237.3,438.9 L239.2,434.3
		L241.1,429.8 L242.9,425.3 L244.8,420.9 L246.7,416.6 L248.5,412.3 L250.4,408.1 L252.3,403.8 L254.2,399.6
		L256.0,395.2 L257.9,390.8 L259.8,386.3 L261.6,381.7 L263.5,376.8 L265.4,371.8 L267.3,366.5 L269.1,361.1
		L271.0,355.3 L272.9,349.4 L274.7,343.2 L276.6,336.7 L278.5,330.0 L280.3,323.1 L282.2,316.0 L284.1,308.8
		L286.0,301.3 L287.8,293.7 L289.7,286.0 L291.6,278.2 L293.4,270.4 L295.3,262.5 L297.2,254.6 L299.1,246.7
		L300.9,238.8 L302.8,230.9 L304.7,223.1 L306.5,215.4 L308.4,207.8 L310.3,200.3 L312.1,193.0 L314.0,185.8
		L315.9,178.8 L317.8,171.9 L319.6,165.3 L321.5,158.8 L323.4,152.5 L325.2,146.5 L327.1,140.7 L329.0,135.1
		L330.9,129.7 L332.7,124.6 L334.6,119.6 L336.5,115.0 L338.3,110.5 L340.2,106.3 L342.1,102.3 L343.9,98.5
		L345.8,94.9 L347.7,91.5 L349.6,88.4 L351.4,85.4 L353.3,82.7 L355.2,80.1 L357.0,77.7 L358.9,75.5
		L360.8,73.5 L362.7,71.7 L364.5,70.1 L366.4,68.6 L368.3,67.4 L370.1,66.3 L372.0,65.3 L373.9,64.6
		L375.7,64.0 L377.6,63.6 L379.5,63.3 L381.4,63.1 L383.2,63.2 L385.1,63.3 L387.0,63.6 L388.8,64.1
		L390.7,64.7 L392.6,65.4 L394.5,66.4 L396.3,67.5 L398.2,68.9 L400.1,70.6 L401.9,72.6 L403.8,75.0
		L405.7,77.7 L407.5,80.8 L409.4,84.4 L411.3,88.5 L413.2,93.1 L415.0,98.1 L416.9,103.7 L418.8,109.7
		L420.6,116.1 L422.5,122.9 L424.4,130.1 L426.3,137.6 L428.1,145.2 L430.0,153.0 L431.9,160.9 L433.7,168.8
		L435.6,176.6 L437.5,184.3 L439.3,191.9 L441.2,199.2 L443.1,206.2 L445.0,212.9 L446.8,219.4 L448.7,225.5
		L450.6,231.4 L452.4,237.0 L454.3,242.3 L456.2,247.5 L458.0,252.5 L459.9,257.4 L461.8,262.3 L463.7,267.2
		L465.5,272.1 L467.4,277.2 L469.3,282.5 L471.1,288.0 L473.0,293.7 L474.9,299.7 L476.8,306.0 L478.6,312.5
		L480.5,319.2 L482.4,326.2 L484.2,333.3 L486.1,340.5 L488.0,347.8 L489.8,355.1 L491.7,362.3 L493.6,369.4
		L495.5,376.3 L497.3,383.0 L499.2,389.3 L501.1,395.4 L502.9,401.0 L504.8,406.3 L506.7,411.2 L508.6,415.6
		L510.4,419.7 L512.3,423.5 L514.2,426.9 L516.0,430.0 L517.9,432.9 L519.8,435.7 L521.6,438.2 L523.5,440.7
		L525.4,443.1 L527.3,445.5 L529.1,448.0 L531.0,450.5 L532.9,453.0 L534.7,455.7 L536.6,458.5 L538.5,461.4
		L540.4,464.4 L542.2,467.4 L544.1,470.5 L546.0,473.6 L547.8,476.8 L549.7,479.9 L551.6,483.0 L553.4,486.0
		L555.3,488.9 L557.2,491.8 L559.1,494.5 L560.9,497.0 L562.8,499.5 L564.7,501.8 L566.5,503.9 L568.4,505.9
		L570.3,507.8 L572.2,509.6 L574.0,511.3 L575.9,513.0 L577.8,514.5 L579.6,516.0 L581.5,517.4 L583.4,518.9
		L585.2,520.2 L587.1,521.6 L589.0,522.9 L590.9,524.3 L592.7,525.6 L594.6,526.9 L596.5,528.1 L598.3,529.3
		L600.2,530.5 L602.1,531.6 L604.0,532.7 L605.8,533.7 L607.7,534.6 L609.6,535.4 L611.4,536.2 L613.3,536.8
		L615.2,537.4 L617.0,537.8 L618.9,538.2 L620.8,538.5 L622.7,538.8 L624.5,539.0 L626.4,539.2 L628.3,539.3
		L630.1,539.4 L632.0,539.5 L633.9,539.7 L635.8,539.9 L637.6,540.1 L639.5,540.4 L641.4,540.8 L643.2,541.2
		L645.1,541.8 L647.0,542.4 L648.8,543.1 L650.7,543.8 L652.6,544.7 L654.5,545.6 L656.3,546.6 L658.2,547.6
		L660.1,548.7 L661.9,549.8 L663.8,550.9 L665.7,552.0 L667.5,553.1 L669.4,554.2 L671.3,555.2 L673.2,556.3
		L675.0,557.3 L676.9,558.2 L678.8,559.2 L680.6,560.1 L682.5,561.1 L684.4,562.0 L686.3,562.9 L688.1,563.8
		L690.0,564.7 L691.9,565.6 L693.7,566.6 L695.6,567.5 L697.5,568.5 L699.3,569.5 L701.2,570.5 L703.1,571.4
		L705.0,572.4 L706.8,573.3 L708.7,574.1 L710.6,575.0 L712.4,575.7 L714.3,576.4 L716.2,577.0 L718.1,577.5
		L719.9,578.0 L721.8,578.4 L723.7,578.6 L725.5,578.9 L727.4,579.0 L729.3,579.1 L731.1,579.2 L733.0,579.2
		L734.9,579.2 L736.8,579.3 L738.6,579.3 L740.5,579.3 L742.4,579.4 L744.2,579.4 L746.1,579.6 L748.0,579.7
		L749.9,579.9 L751.7,580.2 L753.6,580.4 L755.5,580.7 L757.3,581.1 L759.2,581.4 L761.1,581.8 L762.9,582.2
		L764.8,582.6 L766.7,583.1 L768.6,583.5 L770.4,583.9 L772.3,584.3 L774.2,584.8 L776.0,585.2 L777.9,585.6
		L779.8,586.0 L781.7,586.5 L783.5,586.9 L785.4,587.4 L787.3,587.8 L789.1,588.3 L791.0,588.7 L792.9,589.2
		L794.7,589.7 L796.6,590.1 L798.5,590.6 L800.4,591.0 L802.2,591.5 L804.1,591.9 L806.0,592.3 L807.8,592.7
		L809.7,593.0 L811.6,593.3 L813.5,593.6 L815.3,593.9 L817.2,594.2 L819.1,594.4 L820.9,594.6 L822.8,594.8
		L824.7,595.0 L826.5,595.2 L828.4,595.4 L830.3,595.5 L832.2,595.7 L834.0,595.9 L835.9,596.2 L837.8,596.4
		L839.6,596.7 L841.5,596.9 L843.4,597.2 L845.3,597.5 L847.1,597.8 L849.0,598.2 L850.9,598.5 L852.7,598.9
		L854.6,599.3 L856.5,599.7 L858.3,600.1 L860.2,600.5 L862.1,600.9 L864.0,601.4 L865.8,601.8 L867.7,602.3
		L869.6,602.7 L871.4,603.2 L873.3,603.7 L875.2,604.2 L877.1,604.8 L878.9,605.3 L880.8,605.9 L882.7,606.5
		L884.5,607.1 L886.4,607.8 L888.3,608.4 L890.1,609.1 L892.0,609.8 L893.9,610.4 L895.8,611.1 L897.6,611.8
		L899.5,612.5 L901.4,613.2 L903.2,613.8 L905.1,614.5 L907.0,615.1 L908.8,615.8 L910.7,616.4 L912.6,617.0
		L914.5,617.5 L916.3,618.1 L918.2,618.7 L920.1,619.3 L921.9,619.9 L923.8,620.4 L925.7,621.0 L927.6,621.6
		L929.4,622.3 L931.3,622.9 L933.2,623.6 L935.0,624.3 L936.9,624.9 L938.8,625.7 L940.6,626.4 L942.5,627.1
		L944.4,627.8 L946.3,628.6 L948.1,629.3 L950.0,630.0 L951.9,630.6 L953.7,631.2 L955.6,631.8 L957.5,632.4
		L959.4,632.9 L961.2,633.3 L963.1,633.7 L965.0,634.0 L966.8,634.3 L968.7,634.5 L970.6,634.7 L972.4,634.9
		L974.3,635.0 L976.2,635.1 L978.1,635.2 L979.9,635.3 L981.8,635.4 L983.7,635.5 L985.5,635.6 L987.4,635.8
		L989.3,635.9 L991.2,636.2 L993.0,636.4 L994.9,636.7 L996.8,637.1 L998.6,637.5 L1000.5,637.9 L1002.4,638.3
		L1004.2,638.8 L1006.1,639.3 L1008.0,639.8 L1009.9,640.3 L1011.7,640.9 L1013.6,641.4  '/></g>
	</g>
	<g id="gnuplot_plot_2" ><title>Confidence interval</title>
<g fill="none" color="white" stroke="rgb( 31, 120, 180)" stroke-width="1.00" stroke-linecap="butt" stroke-linejoin="miter">
</g>
<g fill="none" color="black" stroke="currentColor" stroke-width="1.00" stroke-linecap="butt" stroke-linejoin="miter">
	<g transform="translate(1089.0,85.0)" stroke="none" fill="black" font-family="Helvetica" font-size="12.00"  text-anchor="start">
		<text><tspan font-family="Helvetica" >Confidence interval</tspan></text>
	</g>
</g>
<g fill="none" color="black" stroke="currentColor" stroke-width="1.00" stroke-linecap="butt" stroke-linejoin="miter">
	<g stroke='none' shape-rendering='crispEdges'>
		<polygon fill = 'rgb( 31, 120, 180)' fill-opacity = '0.250000' points = '1038.5,85.6 1080.7,85.6 1080.7,76.6 1038.5,76.6 '/>
		<polygon fill = 'rgb( 31, 120, 180)' fill-opacity = '0.250000' points = '166.2,565.3 168.1,562.3 170.0,559.1 171.9,555.9 173.7,552.6 175.6,549.2 177.5,545.9 179.3,542.5 181.2,539.1 183.1,535.8 185.0,532.6 186.8,529.4 188.7,526.4 190.6,523.4 192.4,520.6 194.3,517.8
196.2,515.2 198.0,512.6 199.9,510.1 201.8,507.7 203.7,505.2 205.5,502.7 207.4,500.2 209.3,497.5 211.1,494.7 213.0,491.8 214.9,488.7 216.7,485.4 218.6,481.9 220.5,478.2 222.4,474.3 224.2,470.3
226.1,466.0 228.0,461.7 229.8,457.2 231.7,452.7 233.6,448.1 235.5,443.5 237.3,438.9 239.2,434.3 241.1,429.8 242.9,425.3 244.8,420.9 246.7,416.6 248.5,412.3 250.4,408.1 252.3,403.8 254.2,399.6
256.0,395.2 257.9,390.8 259.8,386.3 261.6,381.7 263.5,376.8 265.4,371.8 267.3,366.5 269.1,361.1 271.0,355.3 272.9,349.4 274.7,343.2 276.6,336.7 278.5,330.0 280.3,323.1 282.2,316.0 284.1,308.8
286.0,301.3 287.8,293.7 289.7,286.0 291.6,278.2 293.4,270.4 295.3,262.5 297.2,254.6 299.1,246.7 300.9,238.8 302.8,230.9 304.7,223.1 306.5,215.4 308.4,207.8 310.3,200.3 312.1,193.0 314.0,185.8
315.9,178.8 317.8,171.9 319.6,165.3 321.5,158.8 323.4,152.5 325.2,146.5 327.1,140.7 329.0,135.1 330.9,129.7 332.7,124.6 334.6,119.6 336.5,115.0 338.3,110.5 340.2,106.3 342.1,102.3 343.9,98.5
345.8,94.9 347.7,91.5 349.6,88.4 351.4,85.4 353.3,82.7 355.2,80.1 357.0,77.7 358.9,75.5 360.8,73.5 362.7,71.7 364.5,70.1 366.4,68.6 368.3,67.4 370.1,66.3 372.0,65.3 373.9,64.6
375.7,64.0 377.6,63.6 379.5,63.3 381.4,63.1 383.2,63.2 385.1,63.3 387.0,63.6 388.8,64.1 390.7,64.7 392.6,65.4 394.5,66.4 396.3,67.5 398.2,68.9 400.1,70.6 401.9,72.6 403.8,75.0
405.7,77.7 407.5,80.8 409.4,84.4 411.3,88.5 413.2,93.1 415.0,98.1 416.9,103.7 418.8,109.7 420.6,116.1 422.5,122.9 424.4,130.1 426.3,137.6 428.1,145.2 430.0,153.0 431.9,160.9 433.7,168.8
435.6,176.6 437.5,184.3 439.3,191.9 441.2,199.2 443.1,206.2 445.0,212.9 446.8,219.4 448.7,225.5 450.6,231.4 452.4,237.0 454.3,242.3 456.2,247.5 458.0,252.5 459.9,257.4 461.8,262.3 463.7,267.2
465.5,272.1 467.4,277.2 469.3,282.5 471.1,288.0 473.0,293.7 474.9,299.7 476.8,306.0 478.6,312.5 480.5,319.2 482.4,326.2 484.2,333.3 486.1,340.5 488.0,347.8 489.8,355.1 491.7,362.3 493.6,369.4
495.5,376.3 497.3,383.0 499.2,389.3 501.1,395.4 502.9,401.0 504.8,406.3 506.7,411.2 508.6,415.6 510.4,419.7 512.3,423.5 514.2,426.9 516.0,430.0 517.9,432.9 519.8,435.7 521.6,438.2 523.5,440.7
525.4,443.1 527.3,445.5 529.1,448.0 531.0,450.5 532.9,453.0 534.7,455.7 536.6,458.5 538.5,461.4 540.4,464.4 542.2,467.4 544.1,470.5 546.0,473.6 547.8,476.8 549.7,479.9 551.6,483.0 553.4,486.0
555.3,488.9 557.2,491.8 559.1,494.5 560.9,497.0 562.8,499.5 564.7,501.8 566.5,503.9 568.4,505.9 570.3,507.8 572.2,509.6 574.0,511.3 575.9,513.0 577.8,514.5 579.6,516.0 581.5,517.4 583.4,518.9
585.2,520.2 587.1,521.6 589.0,522.9 590.9,524.3 592.7,525.6 594.6,526.9 596.5,528.1 598.3,529.3 600.2,530.5 602.1,531.6 604.0,532.7 605.8,533.7 607.7,534.6 609.6,535.4 611.4,536.2 613.3,536.8
615.2,537.4 617.0,537.8 618.9,538.2 620.8,538.5 622.7,538.8 624.5,539.0 626.4,539.2 628.3,539.3 630.1,539.4 632.0,539.5 633.9,539.7 635.8,539.9 637.6,540.1 639.5,540.4 641.4,540.8 643.2,541.2
645.1,541.8 647.0,542.4 648.8,543.1 650.7,543.8 652.6,544.7 654.5,545.6 656.3,546.6 658.2,547.6 660.1,548.7 661.9,549.8 663.8,550.9 665.7,552.0 667.5,553.1 669.4,554.2 671.3,555.2 673.2,556.3
675.0,557.3 676.9,558.2 678.8,559.2 680.6,560.1 682.5,561.1 684.4,562.0 686.3,562.9 688.1,563.8 690.0,564.7 691.9,565.6 693.7,566.6 695.6,567.5 697.5,568.5 699.3,569.5 701.2,570.5 703.1,571.4
705.0,572.4 706.8,573.3 708.7,574.1 710.6,575.0 712.4,575.7 714.3,576.4 716.2,577.0 718.1,577.5 719.9,578.0 721.8,578.4 723.7,578.6 725.5,578.9 727.4,579.0 729.3,579.1 731.1,579.2 733.0,579.2
734.9,579.2 736.8,579.3 738.6,579.3 740.5,579.3 742.4,579.4 744.2,579.4 746.1,579.6 748.0,579.7 749.9,579.9 751.7,580.2 753.6,580.4 755.5,580.7 757.3,581.1 759.2,581.4 761.1,581.8 762.9,582.2
764.8,582.6 766.7,583.1 768.6,583.5 770.4,583.9 772.3,584.3 774.2,584.8 776.0,585.2 777.9,585.6 779.8,586.0 781.7,586.5 783.5,586.9 785.4,587.4 787.3,587.8 789.1,588.3 791.0,588.7 792.9,589.2
794.7,589.7 796.6,590.1 798.5,590.6 800.4,591.0 802.2,591.5 804.1,591.9 806.0,592.3 807.8,592.7 809.7,593.0 811.6,593.3 813.5,593.6 815.3,593.9 817.2,594.2 819.1,594.4 820.9,594.6 822.8,594.8
824.7,595.0 826.5,595.2 828.4,595.4 830.3,595.5 832.2,595.7 834.0,595.9 835.9,596.2 837.8,596.4 839.6,596.7 841.5,596.9 843.4,597.2 845.3,597.5 847.1,597.8 849.0,598.2 850.9,598.5 852.7,598.9
854.6,599.3 856.5,599.7 858.3,600.1 860.2,600.5 862.1,600.9 864.0,601.4 865.8,601.8 867.7,602.3 869.6,602.7 871.4,603.2 873.3,603.7 875.2,604.2 877.1,604.8 878.9,605.3 880.8,605.9 882.7,606.5
884.5,607.1 886.4,607.8 888.3,608.4 890.1,609.1 892.0,609.8 893.9,610.4 895.8,611.1 897.6,611.8 899.5,612.5 901.4,613.2 903.2,613.8 905.1,614.5 907.0,615.1 908.8,615.8 910.7,616.4 912.6,617.0
914.5,617.5 916.3,618.1 918.2,618.7 920.1,619.3 921.9,619.9 923.8,620.4 925.7,621.0 925.7,662.4 923.8,662.4 921.9,662.4 920.1,662.4 918.2,662.4 916.3,662.4 914.5,662.4 912.6,662.4 910.7,662.4
908.8,662.4 907.0,662.4 905.1,662.4 903.2,662.4 901.4,662.4 899.5,662.4 897.6,662.4 895.8,662.4 893.9,662.4 892.0,662.4 890.1,662.4 888.3,662.4 886.4,662.4 884.5,662.4 882.7,662.4 880.8,662.4
878.9,662.4 877.1,662.4 875.2,662.4 873.3,662.4 871.4,662.4 869.6,662.4 867.7,662.4 865.8,662.4 864.0,662.4 862.1,662.4 860.2,662.4 858.3,662.4 856.5,662.4 854.6,662.4 852.7,662.4 850.9,662.4
849.0,662.4 847.1,662.4 845.3,662.4 843.4,662.4 841.5,662.4 839.6,662.4 837.8,662.4 835.9,662.4 834.0,662.4 832.2,662.4 830.3,662.4 828.4,662.4 826.5,662.4 824.7,662.4 822.8,662.4 820.9,662.4
819.1,662.4 817.2,662.4 815.3,662.4 813.5,662.4 811.6,662.4 809.7,662.4 807.8,662.4 806.0,662.4 804.1,662.4 802.2,662.4 800.4,662.4 798.5,662.4 796.6,662.4 794.7,662.4 792.9,662.4 791.0,662.4
789.1,662.4 787.3,662.4 785.4,662.4 783.5,662.4 781.7,662.4 779.8,662.4 777.9,662.4 776.0,662.4 774.2,662.4 772.3,662.4 770.4,662.4 768.6,662.4 766.7,662.4 764.8,662.4 762.9,662.4 761.1,662.4
759.2,662.4 757.3,662.4 755.5,662.4 753.6,662.4 751.7,662.4 749.9,662.4 748.0,662.4 746.1,662.4 744.2,662.4 742.4,662.4 740.5,662.4 738.6,662.4 736.8,662.4 734.9,662.4 733.0,662.4 731.1,662.4
729.3,662.4 727.4,662.4 725.5,662.4 723.7,662.4 721.8,662.4 719.9,662.4 718.1,662.4 716.2,662.4 714.3,662.4 712.4,662.4 710.6,662.4 708.7,662.4 706.8,662.4 705.0,662.4 703.1,662.4 701.2,662.4
699.3,662.4 697.5,662.4 695.6,662.4 693.7,662.4 691.9,662.4 690.0,662.4 688.1,662.4 686.3,662.4 684.4,662.4 682.5,662.4 680.6,662.4 678.8,662.4 676.9,662.4 675.0,662.4 673.2,662.4 671.3,662.4
669.4,662.4 667.5,662.4 665.7,662.4 663.8,662.4 661.9,662.4 660.1,662.4 658.2,662.4 656.3,662.4 654.5,662.4 652.6,662.4 650.7,662.4 648.8,662.4 647.0,662.4 645.1,662.4 643.2,662.4 641.4,662.4
639.5,662.4 637.6,662.4 635.8,662.4 633.9,662.4 632.0,662.4 630.1,662.4 628.3,662.4 626.4,662.4 624.5,662.4 622.7,662.4 620.8,662.4 618.9,662.4 617.0,662.4 615.2,662.4 613.3,662.4 611.4,662.4
609.6,662.4 607.7,662.4 605.8,662.4 604.0,662.4 602.1,662.4 600.2,662.4 598.3,662.4 596.5,662.4 594.6,662.4 592.7,662.4 590.9,662.4 589.0,662.4 587.1,662.4 585.2,662.4 583.4,662.4 581.5,662.4
579.6,662.4 577.8,662.4 575.9,662.4 574.0,662.4 572.2,662.4 570.3,662.4 568.4,662.4 566.5,662.4 564.7,662.4 562.8,662.4 560.9,662.4 559.1,662.4 557.2,662.4 555.3,662.4 553.4,662.4 551.6,662.4
549.7,662.4 547.8,662.4 546.0,662.4 544.1,662.4 542.2,662.4 540.4,662.4 538.5,662.4 536.6,662.4 534.7,662.4 532.9,662.4 531.0,662.4 529.1,662.4 527.3,662.4 525.4,662.4 523.5,662.4 521.6,662.4
519.8,662.4 517.9,662.4 516.0,662.4 514.2,662.4 512.3,662.4 510.4,662.4 508.6,662.4 506.7,662.4 504.8,662.4 502.9,662.4 501.1,662.4 499.2,662.4 497.3,662.4 495.5,662.4 493.6,662.4 491.7,662.4
489.8,662.4 488.0,662.4 486.1,662.4 484.2,662.4 482.4,662.4 480.5,662.4 478.6,662.4 476.8,662.4 474.9,662.4 473.0,662.4 471.1,662.4 469.3,662.4 467.4,662.4 465.5,662.4 463.7,662.4 461.8,662.4
459.9,662.4 458.0,662.4 456.2,662.4 454.3,662.4 452.4,662.4 450.6,662.4 448.7,662.4 446.8,662.4 445.0,662.4 443.1,662.4 441.2,662.4 439.3,662.4 437.5,662.4 435.6,662.4 433.7,662.4 431.9,662.4
430.0,662.4 428.1,662.4 426.3,662.4 424.4,662.4 422.5,662.4 420.6,662.4 418.8,662.4 416.9,662.4 415.0,662.4 413.2,662.4 411.3,662.4 409.4,662.4 407.5,662.4 405.7,662.4 403.8,662.4 401.9,662.4
400.1,662.4 398.2,662.4 396.3,662.4 394.5,662.4 392.6,662.4 390.7,662.4 388.8,662.4 387.0,662.4 385.1,662.4 383.2,662.4 381.4,662.4 379.5,662.4 377.6,662.4 375.7,662.4 373.9,662.4 372.0,662.4
370.1,662.4 368.3,662.4 366.4,662.4 364.5,662.4 362.7,662.4 360.8,662.4 358.9,662.4 357.0,662.4 355.2,662.4 353.3,662.4 351.4,662.4 349.6,662.4 347.7,662.4 345.8,662.4 343.9,662.4 342.1,662.4
340.2,662.4 338.3,662.4 336.5,662.4 334.6,662.4 332.7,662.4 330.9,662.4 329.0,662.4 327.1,662.4 325.2,662.4 323.4,662.4 321.5,662.4 319.6,662.4 317.8,662.4 315.9,662.4 314.0,662.4 312.1,662.4
310.3,662.4 308.4,662.4 306.5,662.4 304.7,662.4 302.8,662.4 300.9,662.4 299.1,662.4 297.2,662.4 295.3,662.4 293.4,662.4 291.6,662.4 289.7,662.4 287.8,662.4 286.0,662.4 284.1,662.4 282.2,662.4
280.3,662.4 278.5,662.4 276.6,662.4 274.7,662.4 272.9,662.4 271.0,662.4 269.1,662.4 267.3,662.4 265.4,662.4 263.5,662.4 261.6,662.4 259.8,662.4 257.9,662.4 256.0,662.4 254.2,662.4 252.3,662.4
250.4,662.4 248.5,662.4 246.7,662.4 244.8,662.4 242.9,662.4 241.1,662.4 239.2,662.4 237.3,662.4 235.5,662.4 233.6,662.4 231.7,662.4 229.8,662.4 228.0,662.4 226.1,662.4 224.2,662.4 222.4,662.4
220.5,662.4 218.6,662.4 216.7,662.4 214.9,662.4 213.0,662.4 211.1,662.4 209.3,662.4 207.4,662.4 205.5,662.4 203.7,662.4 201.8,662.4 199.9,662.4 198.0,662.4 196.2,662.4 194.3,662.4 192.4,662.4
190.6,662.4 188.7,662.4 186.8,662.4 185.0,662.4 183.1,662.4 181.2,662.4 179.3,662.4 177.5,662.4 175.6,662.4 173.7,662.4 171.9,662.4 170.0,662.4 168.1,662.4 166.2,662.4 '/>
	</g>
</g>
	</g>
	<g id="gnuplot_plot_3" ><title>Point estimate</title>
<g fill="none" color="white" stroke="rgb( 31, 120, 180)" stroke-width="2.00" stroke-linecap="butt" stroke-linejoin="miter">
</g>
<g fill="none" color="black" stroke="currentColor" stroke-width="2.00" stroke-linecap="butt" stroke-linejoin="miter">
	<g transform="translate(1089.0,103.0)" stroke="none" fill="black" font-family="Helvetica" font-size="12.00"  text-anchor="start">
		<text><tspan font-family="Helvetica" >Point estimate</tspan></text>
	</g>
</g>
<g fill="none" color="black" stroke="currentColor" stroke-width="2.00" stroke-linecap="butt" stroke-linejoin="miter">
	<path stroke='rgb( 31, 120, 180)'  d='M1038.5,99.1 L1080.7,99.1 M410.9,662.4 L410.9,87.6  '/></g>
	</g>
<g fill="none" color="black" stroke="currentColor" stroke-width="2.00" stroke-linecap="butt" stroke-linejoin="miter">
</g>
<g fill="none" color="black" stroke="black" stroke-width="1.00" stroke-linecap="butt" stroke-linejoin="miter">
</g>
<g fill="none" color="black" stroke="currentColor" stroke-width="1.00" stroke-linecap="butt" stroke-linejoin="miter">
	<path stroke='black'  d='M80.2,54.1 L80.2,662.4 L1013.6,662.4 L1013.6,54.1 L80.2,54.1 Z  '/></g>
<g fill="none" color="black" stroke="currentColor" stroke-width="1.00" stroke-linecap="butt" stroke-linejoin="miter">
</g>
</g>
</svg>

